<?xml version="1.0" encoding="UTF-8"?>
<model ref="r:00000000-0000-4000-0000-011c89590312(jetbrains.mps.lang.refactoring.behavior)">
  <persistence version="9" />
  <languages>
    <use id="af65afd8-f0dd-4942-87d9-63a55f2a9db1" name="jetbrains.mps.lang.behavior" version="0" />
    <use id="3a13115c-633c-4c5c-bbcc-75c4219e9555" name="jetbrains.mps.lang.quotation" version="0" />
    <use id="7866978e-a0f0-4cc7-81bc-4d213d9375e1" name="jetbrains.mps.lang.smodel" version="4" />
    <use id="f3061a53-9226-4cc5-a443-f952ceaf5816" name="jetbrains.mps.baseLanguage" version="4" />
    <devkit ref="fbc25dd2-5da4-483a-8b19-70928e1b62d7(jetbrains.mps.devkit.general-purpose)" />
  </languages>
  <imports>
    <import index="tp1h" ref="r:00000000-0000-4000-0000-011c89590319(jetbrains.mps.lang.refactoring.structure)" />
    <import index="tpek" ref="r:00000000-0000-4000-0000-011c895902c0(jetbrains.mps.baseLanguage.behavior)" />
    <import index="tpee" ref="r:00000000-0000-4000-0000-011c895902ca(jetbrains.mps.baseLanguage.structure)" />
    <import index="z1c3" ref="6ed54515-acc8-4d1e-a16c-9fd6cfe951ea/java:jetbrains.mps.project(MPS.Core/)" />
    <import index="w1kc" ref="6ed54515-acc8-4d1e-a16c-9fd6cfe951ea/java:jetbrains.mps.smodel(MPS.Core/)" />
    <import index="z1c4" ref="742f6602-5a2f-4313-aa6e-ae1cd4ffdc61/java:jetbrains.mps.project(MPS.Platform/)" />
    <import index="mhbf" ref="8865b7a8-5271-43d3-884c-6fd1d9cfdd34/java:org.jetbrains.mps.openapi.model(MPS.OpenAPI/)" />
    <import index="lui2" ref="8865b7a8-5271-43d3-884c-6fd1d9cfdd34/java:org.jetbrains.mps.openapi.module(MPS.OpenAPI/)" />
    <import index="tpcn" ref="r:00000000-0000-4000-0000-011c8959028b(jetbrains.mps.lang.structure.behavior)" implicit="true" />
    <import index="tpce" ref="r:00000000-0000-4000-0000-011c89590292(jetbrains.mps.lang.structure.structure)" implicit="true" />
    <import index="tpck" ref="r:00000000-0000-4000-0000-011c89590288(jetbrains.mps.lang.core.structure)" implicit="true" />
    <import index="9erk" ref="6ed54515-acc8-4d1e-a16c-9fd6cfe951ea/java:jetbrains.mps.ide.findusages.model(MPS.Core/)" implicit="true" />
  </imports>
  <registry>
    <language id="af65afd8-f0dd-4942-87d9-63a55f2a9db1" name="jetbrains.mps.lang.behavior">
      <concept id="1225194240794" name="jetbrains.mps.lang.behavior.structure.ConceptBehavior" flags="ng" index="13h7C7">
        <reference id="1225194240799" name="concept" index="13h7C2" />
        <child id="1225194240805" name="method" index="13h7CS" />
        <child id="1225194240801" name="constructor" index="13h7CW" />
      </concept>
      <concept id="1225194413805" name="jetbrains.mps.lang.behavior.structure.ConceptConstructorDeclaration" flags="in" index="13hLZK" />
      <concept id="1225194472830" name="jetbrains.mps.lang.behavior.structure.ConceptMethodDeclaration" flags="ng" index="13i0hz">
        <property id="5864038008284099149" name="isStatic" index="2Ki8OM" />
        <property id="1225194472833" name="isPrivate" index="13i0is" />
        <property id="1225194472832" name="isVirtual" index="13i0it" />
        <property id="1225194472834" name="isAbstract" index="13i0iv" />
        <reference id="1225194472831" name="overriddenMethod" index="13i0hy" />
      </concept>
      <concept id="1225194628440" name="jetbrains.mps.lang.behavior.structure.SuperNodeExpression" flags="nn" index="13iAh5">
        <reference id="5299096511375896640" name="superConcept" index="3eA5LN" />
      </concept>
      <concept id="1225194691553" name="jetbrains.mps.lang.behavior.structure.ThisNodeExpression" flags="nn" index="13iPFW" />
    </language>
    <language id="f3061a53-9226-4cc5-a443-f952ceaf5816" name="jetbrains.mps.baseLanguage">
      <concept id="1197027756228" name="jetbrains.mps.baseLanguage.structure.DotExpression" flags="nn" index="2OqwBi">
        <child id="1197027771414" name="operand" index="2Oq$k0" />
        <child id="1197027833540" name="operation" index="2OqNvi" />
      </concept>
      <concept id="1145552977093" name="jetbrains.mps.baseLanguage.structure.GenericNewExpression" flags="nn" index="2ShNRf">
        <child id="1145553007750" name="creator" index="2ShVmc" />
      </concept>
      <concept id="1137021947720" name="jetbrains.mps.baseLanguage.structure.ConceptFunction" flags="in" index="2VMwT0">
        <child id="1137022507850" name="body" index="2VODD2" />
      </concept>
      <concept id="1070534058343" name="jetbrains.mps.baseLanguage.structure.NullLiteral" flags="nn" index="10Nm6u" />
      <concept id="1070534644030" name="jetbrains.mps.baseLanguage.structure.BooleanType" flags="in" index="10P_77" />
      <concept id="1068431474542" name="jetbrains.mps.baseLanguage.structure.VariableDeclaration" flags="ng" index="33uBYm">
        <child id="1068431790190" name="initializer" index="33vP2m" />
      </concept>
      <concept id="1068498886296" name="jetbrains.mps.baseLanguage.structure.VariableReference" flags="nn" index="37vLTw">
        <reference id="1068581517664" name="variableDeclaration" index="3cqZAo" />
      </concept>
      <concept id="1068498886292" name="jetbrains.mps.baseLanguage.structure.ParameterDeclaration" flags="ir" index="37vLTG" />
      <concept id="4972933694980447171" name="jetbrains.mps.baseLanguage.structure.BaseVariableDeclaration" flags="ng" index="19Szcq">
        <child id="5680397130376446158" name="type" index="1tU5fm" />
      </concept>
      <concept id="1068580123132" name="jetbrains.mps.baseLanguage.structure.BaseMethodDeclaration" flags="ng" index="3clF44">
        <child id="1068580123133" name="returnType" index="3clF45" />
        <child id="1068580123134" name="parameter" index="3clF46" />
        <child id="1068580123135" name="body" index="3clF47" />
      </concept>
      <concept id="1068580123155" name="jetbrains.mps.baseLanguage.structure.ExpressionStatement" flags="nn" index="3clFbF">
        <child id="1068580123156" name="expression" index="3clFbG" />
      </concept>
      <concept id="1068580123159" name="jetbrains.mps.baseLanguage.structure.IfStatement" flags="nn" index="3clFbJ">
        <child id="1068580123160" name="condition" index="3clFbw" />
        <child id="1068580123161" name="ifTrue" index="3clFbx" />
      </concept>
      <concept id="1068580123136" name="jetbrains.mps.baseLanguage.structure.StatementList" flags="sn" stub="5293379017992965193" index="3clFbS">
        <child id="1068581517665" name="statement" index="3cqZAp" />
      </concept>
      <concept id="1068580123137" name="jetbrains.mps.baseLanguage.structure.BooleanConstant" flags="nn" index="3clFbT">
        <property id="1068580123138" name="value" index="3clFbU" />
      </concept>
      <concept id="1068581242878" name="jetbrains.mps.baseLanguage.structure.ReturnStatement" flags="nn" index="3cpWs6">
        <child id="1068581517676" name="expression" index="3cqZAk" />
      </concept>
      <concept id="1068581242864" name="jetbrains.mps.baseLanguage.structure.LocalVariableDeclarationStatement" flags="nn" index="3cpWs8">
        <child id="1068581242865" name="localVariableDeclaration" index="3cpWs9" />
      </concept>
      <concept id="1068581242863" name="jetbrains.mps.baseLanguage.structure.LocalVariableDeclaration" flags="nr" index="3cpWsn" />
      <concept id="1068581517677" name="jetbrains.mps.baseLanguage.structure.VoidType" flags="in" index="3cqZAl" />
      <concept id="1081516740877" name="jetbrains.mps.baseLanguage.structure.NotExpression" flags="nn" index="3fqX7Q">
        <child id="1081516765348" name="expression" index="3fr31v" />
      </concept>
      <concept id="1204053956946" name="jetbrains.mps.baseLanguage.structure.IMethodCall" flags="ng" index="1ndlxa">
        <reference id="1068499141037" name="baseMethodDeclaration" index="37wK5l" />
      </concept>
      <concept id="1107535904670" name="jetbrains.mps.baseLanguage.structure.ClassifierType" flags="in" index="3uibUv">
        <reference id="1107535924139" name="classifier" index="3uigEE" />
      </concept>
      <concept id="1178549954367" name="jetbrains.mps.baseLanguage.structure.IVisible" flags="ng" index="1B3ioH">
        <child id="1178549979242" name="visibility" index="1B3o_S" />
      </concept>
      <concept id="1146644602865" name="jetbrains.mps.baseLanguage.structure.PublicVisibility" flags="nn" index="3Tm1VV" />
    </language>
    <language id="3a13115c-633c-4c5c-bbcc-75c4219e9555" name="jetbrains.mps.lang.quotation">
      <concept id="1196350785110" name="jetbrains.mps.lang.quotation.structure.AbstractAntiquotation" flags="ng" index="2c44t0">
        <child id="1196350785111" name="expression" index="2c44t1" />
      </concept>
      <concept id="1196350785117" name="jetbrains.mps.lang.quotation.structure.ReferenceAntiquotation" flags="ng" index="2c44tb" />
      <concept id="1196350785113" name="jetbrains.mps.lang.quotation.structure.Quotation" flags="nn" index="2c44tf">
        <child id="1196350785114" name="quotedNode" index="2c44tc" />
      </concept>
    </language>
    <language id="7866978e-a0f0-4cc7-81bc-4d213d9375e1" name="jetbrains.mps.lang.smodel">
      <concept id="1177026924588" name="jetbrains.mps.lang.smodel.structure.RefConcept_Reference" flags="nn" index="chp4Y">
        <reference id="1177026940964" name="conceptDeclaration" index="cht4Q" />
      </concept>
      <concept id="1138411891628" name="jetbrains.mps.lang.smodel.structure.SNodeOperation" flags="nn" index="eCIE_">
        <child id="1144104376918" name="parameter" index="1xVPHs" />
      </concept>
      <concept id="1140725362528" name="jetbrains.mps.lang.smodel.structure.Link_SetTargetOperation" flags="nn" index="2oxUTD">
        <child id="1140725362529" name="linkTarget" index="2oxUTC" />
      </concept>
      <concept id="1179409122411" name="jetbrains.mps.lang.smodel.structure.Node_ConceptMethodCall" flags="nn" index="2qgKlT" />
      <concept id="2396822768958367367" name="jetbrains.mps.lang.smodel.structure.AbstractTypeCastExpression" flags="nn" index="$5XWr">
        <reference id="6733348108486823428" name="concept" index="1m5ApE" />
        <child id="6733348108486823193" name="leftExpression" index="1m5AlR" />
      </concept>
      <concept id="1143226024141" name="jetbrains.mps.lang.smodel.structure.SModelType" flags="in" index="H_c77" />
      <concept id="1145383075378" name="jetbrains.mps.lang.smodel.structure.SNodeListType" flags="in" index="2I9FWS">
        <reference id="1145383142433" name="elementConcept" index="2I9WkF" />
      </concept>
      <concept id="1171407110247" name="jetbrains.mps.lang.smodel.structure.Node_GetAncestorOperation" flags="nn" index="2Xjw5R" />
      <concept id="1139621453865" name="jetbrains.mps.lang.smodel.structure.Node_IsInstanceOfOperation" flags="nn" index="1mIQ4w">
        <child id="1177027386292" name="conceptArgument" index="cj9EA" />
      </concept>
      <concept id="1144101972840" name="jetbrains.mps.lang.smodel.structure.OperationParm_Concept" flags="ng" index="1xMEDy">
        <child id="1207343664468" name="conceptArgument" index="ri$Ld" />
      </concept>
      <concept id="1180636770613" name="jetbrains.mps.lang.smodel.structure.SNodeCreator" flags="nn" index="3zrR0B">
        <child id="1180636770616" name="createdType" index="3zrR0E" />
      </concept>
      <concept id="1219352745532" name="jetbrains.mps.lang.smodel.structure.NodeRefExpression" flags="nn" index="3B5_sB">
        <reference id="1219352800908" name="referentNode" index="3B5MYn" />
      </concept>
      <concept id="1140137987495" name="jetbrains.mps.lang.smodel.structure.SNodeTypeCastExpression" flags="nn" index="1PxgMI" />
      <concept id="1138055754698" name="jetbrains.mps.lang.smodel.structure.SNodeType" flags="in" index="3Tqbb2">
        <reference id="1138405853777" name="concept" index="ehGHo" />
      </concept>
      <concept id="1138056143562" name="jetbrains.mps.lang.smodel.structure.SLinkAccess" flags="nn" index="3TrEf2">
        <reference id="1138056516764" name="link" index="3Tt5mk" />
      </concept>
    </language>
    <language id="ceab5195-25ea-4f22-9b92-103b95ca8c0c" name="jetbrains.mps.lang.core">
      <concept id="1133920641626" name="jetbrains.mps.lang.core.structure.BaseConcept" flags="ng" index="2VYdi">
        <property id="1193676396447" name="virtualPackage" index="3GE5qa" />
        <child id="5169995583184591170" name="smodelAttribute" index="lGtFl" />
      </concept>
      <concept id="3364660638048049745" name="jetbrains.mps.lang.core.structure.LinkAttribute" flags="ng" index="A9Btn">
        <property id="1757699476691236116" name="linkRole" index="2qtEX8" />
        <property id="1341860900488019036" name="linkId" index="P3scX" />
      </concept>
      <concept id="1169194658468" name="jetbrains.mps.lang.core.structure.INamedConcept" flags="ng" index="TrEIO">
        <property id="1169194664001" name="name" index="TrG5h" />
      </concept>
    </language>
    <language id="83888646-71ce-4f1c-9c53-c54016f6ad4f" name="jetbrains.mps.baseLanguage.collections">
      <concept id="540871147943773365" name="jetbrains.mps.baseLanguage.collections.structure.SingleArgumentSequenceOperation" flags="nn" index="25WWJ4">
        <child id="540871147943773366" name="argument" index="25WWJ7" />
      </concept>
      <concept id="1151688443754" name="jetbrains.mps.baseLanguage.collections.structure.ListType" flags="in" index="_YKpA">
        <child id="1151688676805" name="elementType" index="_ZDj9" />
      </concept>
      <concept id="1160612413312" name="jetbrains.mps.baseLanguage.collections.structure.AddElementOperation" flags="nn" index="TSZUe" />
    </language>
  </registry>
  <node concept="13h7C7" id="i2Ebbog">
    <property role="3GE5qa" value="RefActions" />
    <ref role="13h7C2" to="tp1h:hteSWhS" resolve="AbstractMoveExpression" />
    <node concept="13hLZK" id="i2Ebboh" role="13h7CW">
      <node concept="3clFbS" id="i2Ebboi" role="2VODD2" />
    </node>
    <node concept="13i0hz" id="i2EbbSs" role="13h7CS">
      <property role="TrG5h" value="isLegalAsStatement" />
      <ref role="13i0hy" to="tpek:i26MfYG" resolve="isLegalAsStatement" />
      <node concept="3clFbS" id="i2EbbSv" role="3clF47">
        <node concept="3cpWs6" id="i2EbdGp" role="3cqZAp">
          <node concept="3clFbT" id="i2EbdIK" role="3cqZAk">
            <property role="3clFbU" value="true" />
          </node>
        </node>
      </node>
      <node concept="10P_77" id="i2Ebdis" role="3clF45" />
      <node concept="3Tm1VV" id="i2Ebdit" role="1B3o_S" />
    </node>
  </node>
  <node concept="13h7C7" id="3Ds7Xf8L$R5">
    <property role="3GE5qa" value="RefDecl" />
    <ref role="13h7C2" to="tp1h:5YKiRiBue95" resolve="Refactoring" />
    <node concept="13hLZK" id="3Ds7Xf8L$R6" role="13h7CW">
      <node concept="3clFbS" id="3Ds7Xf8L$R7" role="2VODD2" />
    </node>
    <node concept="13i0hz" id="3Ds7Xf8L$R8" role="13h7CS">
      <property role="TrG5h" value="getBaseConcept" />
      <property role="13i0it" value="true" />
      <ref role="13i0hy" to="tpcn:2hxg_BDjKM8" resolve="getBaseConcept" />
      <node concept="3Tm1VV" id="3Ds7Xf8L$R9" role="1B3o_S" />
      <node concept="3clFbS" id="3Ds7Xf8L$Ra" role="3clF47">
        <node concept="3clFbJ" id="3Ds7Xf8L$Rs" role="3cqZAp">
          <node concept="3clFbS" id="3Ds7Xf8L$Rt" role="3clFbx">
            <node concept="3cpWs6" id="3Ds7Xf8L$RH" role="3cqZAp">
              <node concept="10Nm6u" id="3Ds7Xf8L$RJ" role="3cqZAk" />
            </node>
          </node>
          <node concept="3fqX7Q" id="3Ds7Xf8L$RK" role="3clFbw">
            <node concept="2OqwBi" id="3Ds7Xf8L$RA" role="3fr31v">
              <node concept="2OqwBi" id="3Ds7Xf8L$Rx" role="2Oq$k0">
                <node concept="13iPFW" id="3Ds7Xf8L$Rw" role="2Oq$k0" />
                <node concept="3TrEf2" id="3Ds7Xf8L$R_" role="2OqNvi">
                  <ref role="3Tt5mk" to="tp1h:5YKiRiBuwpm" />
                </node>
              </node>
              <node concept="1mIQ4w" id="3Ds7Xf8L$RE" role="2OqNvi">
                <node concept="chp4Y" id="3Ds7Xf8L$RG" role="cj9EA">
                  <ref role="cht4Q" to="tp1h:5YKiRiBuwlG" resolve="NodeTarget" />
                </node>
              </node>
            </node>
          </node>
        </node>
        <node concept="3cpWs6" id="3Ds7Xf8L$Rc" role="3cqZAp">
          <node concept="2OqwBi" id="3Ds7Xf8L$Rm" role="3cqZAk">
            <node concept="1PxgMI" id="3Ds7Xf8L$Rk" role="2Oq$k0">
              <ref role="1m5ApE" to="tp1h:5YKiRiBuwlG" resolve="NodeTarget" />
              <node concept="2OqwBi" id="3Ds7Xf8L$Rf" role="1m5AlR">
                <node concept="13iPFW" id="3Ds7Xf8L$Re" role="2Oq$k0" />
                <node concept="3TrEf2" id="3Ds7Xf8L$Rj" role="2OqNvi">
                  <ref role="3Tt5mk" to="tp1h:5YKiRiBuwpm" />
                </node>
              </node>
            </node>
            <node concept="3TrEf2" id="3Ds7Xf8L$Rq" role="2OqNvi">
              <ref role="3Tt5mk" to="tp1h:5YKiRiBuwmm" />
            </node>
          </node>
        </node>
      </node>
      <node concept="3Tqbb2" id="3Ds7Xf8L$Rb" role="3clF45">
        <ref role="ehGHo" to="tpce:h0PkWnZ" resolve="AbstractConceptDeclaration" />
      </node>
    </node>
    <node concept="13i0hz" id="5r_35Ihc9ag" role="13h7CS">
      <property role="TrG5h" value="setBaseConcept" />
      <property role="13i0it" value="true" />
      <ref role="13i0hy" to="tpcn:5r_35Ihc58c" resolve="setBaseConcept" />
      <node concept="3Tm1VV" id="5r_35Ihc9ah" role="1B3o_S" />
      <node concept="3clFbS" id="5r_35Ihc9ai" role="3clF47">
        <node concept="3cpWs8" id="5r_35Ihc9ay" role="3cqZAp">
          <node concept="3cpWsn" id="5r_35Ihc9az" role="3cpWs9">
            <property role="TrG5h" value="nodeTarget" />
            <node concept="3Tqbb2" id="5r_35Ihc9a$" role="1tU5fm">
              <ref role="ehGHo" to="tp1h:5YKiRiBuwlG" resolve="NodeTarget" />
            </node>
            <node concept="2ShNRf" id="5r_35Ihc9aA" role="33vP2m">
              <node concept="3zrR0B" id="5r_35Ihc9aB" role="2ShVmc">
                <node concept="3Tqbb2" id="5r_35Ihc9aC" role="3zrR0E">
                  <ref role="ehGHo" to="tp1h:5YKiRiBuwlG" resolve="NodeTarget" />
                </node>
              </node>
            </node>
          </node>
        </node>
        <node concept="3clFbF" id="5r_35Ihc9aV" role="3cqZAp">
          <node concept="2OqwBi" id="5r_35Ihc9b2" role="3clFbG">
            <node concept="2OqwBi" id="5r_35Ihc9aX" role="2Oq$k0">
              <node concept="37vLTw" id="3GM_nagTv3A" role="2Oq$k0">
                <ref role="3cqZAo" node="5r_35Ihc9az" resolve="nodeTarget" />
              </node>
              <node concept="3TrEf2" id="5r_35Ihc9b1" role="2OqNvi">
                <ref role="3Tt5mk" to="tp1h:5YKiRiBuwmm" />
              </node>
            </node>
            <node concept="2oxUTD" id="5r_35Ihc9b6" role="2OqNvi">
              <node concept="37vLTw" id="2BHiRxgll2M" role="2oxUTC">
                <ref role="3cqZAo" node="5r_35Ihc9aj" resolve="baseConcept" />
              </node>
            </node>
          </node>
        </node>
        <node concept="3clFbF" id="5r_35Ihc9aE" role="3cqZAp">
          <node concept="2OqwBi" id="5r_35Ihc9aL" role="3clFbG">
            <node concept="2OqwBi" id="5r_35Ihc9aG" role="2Oq$k0">
              <node concept="13iPFW" id="5r_35Ihc9aF" role="2Oq$k0" />
              <node concept="3TrEf2" id="5r_35Ihc9aK" role="2OqNvi">
                <ref role="3Tt5mk" to="tp1h:5YKiRiBuwpm" />
              </node>
            </node>
            <node concept="2oxUTD" id="5r_35Ihc9aP" role="2OqNvi">
              <node concept="37vLTw" id="3GM_nagTsIw" role="2oxUTC">
                <ref role="3cqZAo" node="5r_35Ihc9az" resolve="nodeTarget" />
              </node>
            </node>
          </node>
        </node>
      </node>
      <node concept="37vLTG" id="5r_35Ihc9aj" role="3clF46">
        <property role="TrG5h" value="baseConcept" />
        <node concept="3Tqbb2" id="5r_35Ihc9ak" role="1tU5fm">
          <ref role="ehGHo" to="tpce:h0PkWnZ" resolve="AbstractConceptDeclaration" />
        </node>
      </node>
      <node concept="3cqZAl" id="5r_35Ihc9al" role="3clF45" />
    </node>
  </node>
  <node concept="13h7C7" id="65fYhwGpPkx">
    <property role="3GE5qa" value="Context" />
    <ref role="13h7C2" to="tp1h:6Tyhu1FomhH" resolve="ContextMemberOperation" />
    <node concept="13i0hz" id="65fYhwGpPk$" role="13h7CS">
      <property role="13i0iv" value="true" />
      <property role="TrG5h" value="createType" />
      <property role="13i0it" value="true" />
      <node concept="3Tm1VV" id="65fYhwGpPk_" role="1B3o_S" />
      <node concept="3Tqbb2" id="65fYhwGpPkC" role="3clF45">
        <ref role="ehGHo" to="tpee:fz3vP1H" resolve="Type" />
      </node>
      <node concept="3clFbS" id="65fYhwGpPkB" role="3clF47" />
    </node>
    <node concept="13hLZK" id="65fYhwGpPky" role="13h7CW">
      <node concept="3clFbS" id="65fYhwGpPkz" role="2VODD2" />
    </node>
  </node>
  <node concept="13h7C7" id="65fYhwGpPkV">
    <property role="3GE5qa" value="Context" />
    <ref role="13h7C2" to="tp1h:6Tyhu1FomhJ" resolve="ModelDescriptorOperation" />
    <node concept="13hLZK" id="65fYhwGpPkW" role="13h7CW">
      <node concept="3clFbS" id="65fYhwGpPkX" role="2VODD2" />
    </node>
    <node concept="13i0hz" id="65fYhwGpPkY" role="13h7CS">
      <property role="TrG5h" value="createType" />
      <property role="13i0it" value="true" />
      <ref role="13i0hy" node="65fYhwGpPk$" resolve="createType" />
      <node concept="3Tm1VV" id="65fYhwGpPkZ" role="1B3o_S" />
      <node concept="3clFbS" id="65fYhwGpPl0" role="3clF47">
        <node concept="3clFbF" id="65fYhwGpPl5" role="3cqZAp">
          <node concept="2c44tf" id="65fYhwGpPl6" role="3clFbG">
            <node concept="3uibUv" id="65fYhwGpPla" role="2c44tc">
              <ref role="3uigEE" to="mhbf:~SModel" resolve="SModel" />
            </node>
          </node>
        </node>
      </node>
      <node concept="3Tqbb2" id="65fYhwGpPl1" role="3clF45">
        <ref role="ehGHo" to="tpee:fz3vP1H" resolve="Type" />
      </node>
    </node>
  </node>
  <node concept="13h7C7" id="65fYhwGpPlb">
    <property role="3GE5qa" value="Context" />
    <ref role="13h7C2" to="tp1h:6Tyhu1FomhL" resolve="ModuleOperation" />
    <node concept="13hLZK" id="65fYhwGpPlc" role="13h7CW">
      <node concept="3clFbS" id="65fYhwGpPld" role="2VODD2" />
    </node>
    <node concept="13i0hz" id="65fYhwGpPle" role="13h7CS">
      <property role="TrG5h" value="createType" />
      <property role="13i0it" value="true" />
      <ref role="13i0hy" node="65fYhwGpPk$" resolve="createType" />
      <node concept="3Tm1VV" id="65fYhwGpPlf" role="1B3o_S" />
      <node concept="3clFbS" id="65fYhwGpPlg" role="3clF47">
        <node concept="3clFbF" id="65fYhwGpPli" role="3cqZAp">
          <node concept="2c44tf" id="65fYhwGpPlj" role="3clFbG">
            <node concept="3uibUv" id="65fYhwGpPlm" role="2c44tc">
              <ref role="3uigEE" to="lui2:~SModule" resolve="SModule" />
            </node>
          </node>
        </node>
      </node>
      <node concept="3Tqbb2" id="65fYhwGpPlh" role="3clF45">
        <ref role="ehGHo" to="tpee:fz3vP1H" resolve="Type" />
      </node>
    </node>
  </node>
  <node concept="13h7C7" id="65fYhwGpPln">
    <property role="3GE5qa" value="Context" />
    <ref role="13h7C2" to="tp1h:6Tyhu1FomhN" resolve="NodeOperation" />
    <node concept="13hLZK" id="65fYhwGpPlo" role="13h7CW">
      <node concept="3clFbS" id="65fYhwGpPlp" role="2VODD2" />
    </node>
    <node concept="13i0hz" id="65fYhwGpPlq" role="13h7CS">
      <property role="TrG5h" value="createType" />
      <property role="13i0it" value="true" />
      <ref role="13i0hy" node="65fYhwGpPk$" resolve="createType" />
      <node concept="3Tm1VV" id="65fYhwGpPlr" role="1B3o_S" />
      <node concept="3clFbS" id="65fYhwGpPls" role="3clF47">
        <node concept="3cpWs8" id="65fYhwGpPnl" role="3cqZAp">
          <node concept="3cpWsn" id="65fYhwGpPnm" role="3cpWs9">
            <property role="TrG5h" value="refactoringNode" />
            <node concept="3Tqbb2" id="65fYhwGpPnn" role="1tU5fm">
              <ref role="ehGHo" to="tp1h:5YKiRiBue95" resolve="Refactoring" />
            </node>
            <node concept="2OqwBi" id="65fYhwGpPno" role="33vP2m">
              <node concept="13iPFW" id="65fYhwGpPnW" role="2Oq$k0" />
              <node concept="2Xjw5R" id="65fYhwGpPnq" role="2OqNvi">
                <node concept="1xMEDy" id="65fYhwGpPnr" role="1xVPHs">
                  <node concept="chp4Y" id="65fYhwGpPns" role="ri$Ld">
                    <ref role="cht4Q" to="tp1h:5YKiRiBue95" resolve="Refactoring" />
                  </node>
                </node>
              </node>
            </node>
          </node>
        </node>
        <node concept="3clFbJ" id="65fYhwGpPnt" role="3cqZAp">
          <node concept="3clFbS" id="65fYhwGpPnu" role="3clFbx">
            <node concept="3cpWs6" id="65fYhwGpPnY" role="3cqZAp">
              <node concept="2c44tf" id="65fYhwGpPo0" role="3cqZAk">
                <node concept="3Tqbb2" id="65fYhwGpPo2" role="2c44tc">
                  <node concept="2c44tb" id="65fYhwGpPo3" role="lGtFl">
                    <property role="2qtEX8" value="concept" />
                    <property role="P3scX" value="7866978e-a0f0-4cc7-81bc-4d213d9375e1/1138055754698/1138405853777" />
                    <node concept="2OqwBi" id="65fYhwGpPo4" role="2c44t1">
                      <node concept="1PxgMI" id="65fYhwGpPo5" role="2Oq$k0">
                        <ref role="1m5ApE" to="tp1h:5YKiRiBuwlG" resolve="NodeTarget" />
                        <node concept="2OqwBi" id="65fYhwGpPo6" role="1m5AlR">
                          <node concept="37vLTw" id="3GM_nagTyhB" role="2Oq$k0">
                            <ref role="3cqZAo" node="65fYhwGpPnm" resolve="refactoringNode" />
                          </node>
                          <node concept="3TrEf2" id="65fYhwGpPo8" role="2OqNvi">
                            <ref role="3Tt5mk" to="tp1h:5YKiRiBuwpm" />
                          </node>
                        </node>
                      </node>
                      <node concept="3TrEf2" id="65fYhwGpPo9" role="2OqNvi">
                        <ref role="3Tt5mk" to="tp1h:5YKiRiBuwmm" />
                      </node>
                    </node>
                  </node>
                </node>
              </node>
            </node>
          </node>
          <node concept="2OqwBi" id="65fYhwGpPnH" role="3clFbw">
            <node concept="2OqwBi" id="65fYhwGpPnI" role="2Oq$k0">
              <node concept="37vLTw" id="3GM_nagTzat" role="2Oq$k0">
                <ref role="3cqZAo" node="65fYhwGpPnm" resolve="refactoringNode" />
              </node>
              <node concept="3TrEf2" id="65fYhwGpPnK" role="2OqNvi">
                <ref role="3Tt5mk" to="tp1h:5YKiRiBuwpm" />
              </node>
            </node>
            <node concept="1mIQ4w" id="65fYhwGpPnL" role="2OqNvi">
              <node concept="chp4Y" id="65fYhwGpPnM" role="cj9EA">
                <ref role="cht4Q" to="tp1h:5YKiRiBuwlG" resolve="NodeTarget" />
              </node>
            </node>
          </node>
        </node>
        <node concept="3cpWs6" id="65fYhwGpPob" role="3cqZAp">
          <node concept="2c44tf" id="65fYhwGpPod" role="3cqZAk">
            <node concept="3Tqbb2" id="65fYhwGpPof" role="2c44tc" />
          </node>
        </node>
      </node>
      <node concept="3Tqbb2" id="65fYhwGpPlt" role="3clF45">
        <ref role="ehGHo" to="tpee:fz3vP1H" resolve="Type" />
      </node>
    </node>
  </node>
  <node concept="13h7C7" id="65fYhwGpPlu">
    <property role="3GE5qa" value="Context" />
    <ref role="13h7C2" to="tp1h:6Tyhu1FomhP" resolve="NodesOperation" />
    <node concept="13hLZK" id="65fYhwGpPlv" role="13h7CW">
      <node concept="3clFbS" id="65fYhwGpPlw" role="2VODD2" />
    </node>
    <node concept="13i0hz" id="65fYhwGpPlx" role="13h7CS">
      <property role="TrG5h" value="createType" />
      <property role="13i0it" value="true" />
      <ref role="13i0hy" node="65fYhwGpPk$" resolve="createType" />
      <node concept="3Tm1VV" id="65fYhwGpPly" role="1B3o_S" />
      <node concept="3clFbS" id="65fYhwGpPlz" role="3clF47">
        <node concept="3cpWs8" id="65fYhwGpPmf" role="3cqZAp">
          <node concept="3cpWsn" id="65fYhwGpPmg" role="3cpWs9">
            <property role="TrG5h" value="refactoringNode" />
            <node concept="3Tqbb2" id="65fYhwGpPmh" role="1tU5fm">
              <ref role="ehGHo" to="tp1h:5YKiRiBue95" resolve="Refactoring" />
            </node>
            <node concept="2OqwBi" id="65fYhwGpPmi" role="33vP2m">
              <node concept="13iPFW" id="65fYhwGpPmQ" role="2Oq$k0" />
              <node concept="2Xjw5R" id="65fYhwGpPmk" role="2OqNvi">
                <node concept="1xMEDy" id="65fYhwGpPml" role="1xVPHs">
                  <node concept="chp4Y" id="65fYhwGpPmm" role="ri$Ld">
                    <ref role="cht4Q" to="tp1h:5YKiRiBue95" resolve="Refactoring" />
                  </node>
                </node>
              </node>
            </node>
          </node>
        </node>
        <node concept="3clFbJ" id="65fYhwGpPmn" role="3cqZAp">
          <node concept="3clFbS" id="65fYhwGpPmo" role="3clFbx">
            <node concept="3cpWs6" id="65fYhwGpPmY" role="3cqZAp">
              <node concept="2c44tf" id="65fYhwGpPn0" role="3cqZAk">
                <node concept="2I9FWS" id="65fYhwGpPn2" role="2c44tc">
                  <ref role="2I9WkF" to="tpck:gw2VY9q" resolve="BaseConcept" />
                  <node concept="2c44tb" id="65fYhwGpPn3" role="lGtFl">
                    <property role="2qtEX8" value="elementConcept" />
                    <property role="P3scX" value="7866978e-a0f0-4cc7-81bc-4d213d9375e1/1145383075378/1145383142433" />
                    <node concept="2OqwBi" id="65fYhwGpPn4" role="2c44t1">
                      <node concept="1PxgMI" id="65fYhwGpPn5" role="2Oq$k0">
                        <ref role="1m5ApE" to="tp1h:5YKiRiBuwlG" resolve="NodeTarget" />
                        <node concept="2OqwBi" id="65fYhwGpPn6" role="1m5AlR">
                          <node concept="37vLTw" id="3GM_nagT_nW" role="2Oq$k0">
                            <ref role="3cqZAo" node="65fYhwGpPmg" resolve="refactoringNode" />
                          </node>
                          <node concept="3TrEf2" id="65fYhwGpPn8" role="2OqNvi">
                            <ref role="3Tt5mk" to="tp1h:5YKiRiBuwpm" />
                          </node>
                        </node>
                      </node>
                      <node concept="3TrEf2" id="65fYhwGpPn9" role="2OqNvi">
                        <ref role="3Tt5mk" to="tp1h:5YKiRiBuwmm" />
                      </node>
                    </node>
                  </node>
                </node>
              </node>
            </node>
          </node>
          <node concept="2OqwBi" id="65fYhwGpPmB" role="3clFbw">
            <node concept="2OqwBi" id="65fYhwGpPmC" role="2Oq$k0">
              <node concept="37vLTw" id="3GM_nagT$TL" role="2Oq$k0">
                <ref role="3cqZAo" node="65fYhwGpPmg" resolve="refactoringNode" />
              </node>
              <node concept="3TrEf2" id="65fYhwGpPmE" role="2OqNvi">
                <ref role="3Tt5mk" to="tp1h:5YKiRiBuwpm" />
              </node>
            </node>
            <node concept="1mIQ4w" id="65fYhwGpPmF" role="2OqNvi">
              <node concept="chp4Y" id="65fYhwGpPmG" role="cj9EA">
                <ref role="cht4Q" to="tp1h:5YKiRiBuwlG" resolve="NodeTarget" />
              </node>
            </node>
          </node>
        </node>
        <node concept="3cpWs6" id="65fYhwGpPnh" role="3cqZAp">
          <node concept="2c44tf" id="65fYhwGpPni" role="3cqZAk">
            <node concept="2I9FWS" id="65fYhwGpPnj" role="2c44tc" />
          </node>
        </node>
      </node>
      <node concept="3Tqbb2" id="65fYhwGpPl$" role="3clF45">
        <ref role="ehGHo" to="tpee:fz3vP1H" resolve="Type" />
      </node>
    </node>
  </node>
  <node concept="13h7C7" id="65fYhwGpPl_">
    <property role="3GE5qa" value="Context" />
    <ref role="13h7C2" to="tp1h:6Tyhu1FomhR" resolve="OperationContextOperation" />
    <node concept="13hLZK" id="65fYhwGpPlA" role="13h7CW">
      <node concept="3clFbS" id="65fYhwGpPlB" role="2VODD2" />
    </node>
    <node concept="13i0hz" id="65fYhwGpPlC" role="13h7CS">
      <property role="TrG5h" value="createType" />
      <property role="13i0it" value="true" />
      <ref role="13i0hy" node="65fYhwGpPk$" resolve="createType" />
      <node concept="3Tm1VV" id="65fYhwGpPlD" role="1B3o_S" />
      <node concept="3clFbS" id="65fYhwGpPlE" role="3clF47">
        <node concept="3clFbF" id="65fYhwGpPlG" role="3cqZAp">
          <node concept="2c44tf" id="65fYhwGpPlH" role="3clFbG">
            <node concept="3uibUv" id="65fYhwGpPlJ" role="2c44tc">
              <ref role="3uigEE" to="w1kc:~IOperationContext" resolve="IOperationContext" />
            </node>
          </node>
        </node>
      </node>
      <node concept="3Tqbb2" id="65fYhwGpPlF" role="3clF45">
        <ref role="ehGHo" to="tpee:fz3vP1H" resolve="Type" />
      </node>
    </node>
  </node>
  <node concept="13h7C7" id="65fYhwGpPlP">
    <property role="3GE5qa" value="Context" />
    <ref role="13h7C2" to="tp1h:6Tyhu1FomhT" resolve="ProjectOperation" />
    <node concept="13hLZK" id="65fYhwGpPlQ" role="13h7CW">
      <node concept="3clFbS" id="65fYhwGpPlR" role="2VODD2" />
    </node>
    <node concept="13i0hz" id="65fYhwGpPlV" role="13h7CS">
      <property role="TrG5h" value="createType" />
      <property role="13i0it" value="true" />
      <ref role="13i0hy" node="65fYhwGpPk$" resolve="createType" />
      <node concept="3Tm1VV" id="65fYhwGpPlW" role="1B3o_S" />
      <node concept="3clFbS" id="65fYhwGpPlX" role="3clF47">
        <node concept="3clFbF" id="65fYhwGpPlZ" role="3cqZAp">
          <node concept="2c44tf" id="65fYhwGpPm0" role="3clFbG">
            <node concept="3uibUv" id="65fYhwGpPm2" role="2c44tc">
              <ref role="3uigEE" to="z1c4:~MPSProject" resolve="MPSProject" />
            </node>
          </node>
        </node>
      </node>
      <node concept="3Tqbb2" id="65fYhwGpPlY" role="3clF45">
        <ref role="ehGHo" to="tpee:fz3vP1H" resolve="Type" />
      </node>
    </node>
  </node>
  <node concept="13h7C7" id="65fYhwGpPm3">
    <property role="3GE5qa" value="Context" />
    <ref role="13h7C2" to="tp1h:6Tyhu1FomhV" resolve="ScopeOperation" />
    <node concept="13hLZK" id="65fYhwGpPm4" role="13h7CW">
      <node concept="3clFbS" id="65fYhwGpPm5" role="2VODD2" />
    </node>
    <node concept="13i0hz" id="65fYhwGpPm6" role="13h7CS">
      <property role="TrG5h" value="createType" />
      <property role="13i0it" value="true" />
      <ref role="13i0hy" node="65fYhwGpPk$" resolve="createType" />
      <node concept="3Tm1VV" id="65fYhwGpPm7" role="1B3o_S" />
      <node concept="3clFbS" id="65fYhwGpPm8" role="3clF47">
        <node concept="3clFbF" id="65fYhwGpPma" role="3cqZAp">
          <node concept="2c44tf" id="65fYhwGpPmb" role="3clFbG">
            <node concept="3uibUv" id="6LpCX$U1ts_" role="2c44tc">
              <ref role="3uigEE" to="lui2:~SearchScope" resolve="SearchScope" />
            </node>
          </node>
        </node>
      </node>
      <node concept="3Tqbb2" id="65fYhwGpPm9" role="3clF45">
        <ref role="ehGHo" to="tpee:fz3vP1H" resolve="Type" />
      </node>
    </node>
  </node>
  <node concept="13h7C7" id="72p_rFnsluo">
    <property role="3GE5qa" value="Context" />
    <ref role="13h7C2" to="tp1h:72p_rFnslum" resolve="MainProjectOperation" />
    <node concept="13hLZK" id="72p_rFnslup" role="13h7CW">
      <node concept="3clFbS" id="72p_rFnsluq" role="2VODD2" />
    </node>
    <node concept="13i0hz" id="72p_rFnslur" role="13h7CS">
      <property role="TrG5h" value="createType" />
      <property role="13i0it" value="true" />
      <ref role="13i0hy" node="65fYhwGpPk$" resolve="createType" />
      <node concept="3Tm1VV" id="72p_rFnslus" role="1B3o_S" />
      <node concept="3clFbS" id="72p_rFnslut" role="3clF47">
        <node concept="3clFbF" id="72p_rFnslwE" role="3cqZAp">
          <node concept="2c44tf" id="72p_rFnslwF" role="3clFbG">
            <node concept="3uibUv" id="4My7loym4oX" role="2c44tc">
              <ref role="3uigEE" to="z1c3:~Project" resolve="Project" />
            </node>
          </node>
        </node>
      </node>
      <node concept="3Tqbb2" id="72p_rFnsluu" role="3clF45">
        <ref role="ehGHo" to="tpee:fz3vP1H" resolve="Type" />
      </node>
    </node>
  </node>
  <node concept="13h7C7" id="1653mnvAgww">
    <ref role="13h7C2" to="tp1h:1Mi4csyrrJO" resolve="DoWhenDoneClause" />
    <node concept="13hLZK" id="1653mnvAgwx" role="13h7CW">
      <node concept="3clFbS" id="1653mnvAgwy" role="2VODD2" />
    </node>
    <node concept="13i0hz" id="1653mnvAgwr" role="13h7CS">
      <property role="2Ki8OM" value="true" />
      <property role="13i0is" value="false" />
      <property role="TrG5h" value="showName" />
      <property role="13i0it" value="false" />
      <ref role="13i0hy" to="tpek:1653mnvAgry" resolve="showName" />
      <node concept="3Tm1VV" id="1653mnvAgws" role="1B3o_S" />
      <node concept="10P_77" id="1653mnvAgwq" role="3clF45" />
      <node concept="3clFbS" id="1653mnvAgwt" role="3clF47">
        <node concept="3cpWs6" id="1653mnvAgwu" role="3cqZAp">
          <node concept="3clFbT" id="1653mnvAgwv" role="3cqZAk">
            <property role="3clFbU" value="true" />
          </node>
        </node>
      </node>
    </node>
    <node concept="13i0hz" id="2D1PBM_bziN" role="13h7CS">
      <property role="2Ki8OM" value="true" />
      <property role="13i0is" value="false" />
      <property role="TrG5h" value="getApplicableConceptFunctionParameter" />
      <property role="13i0it" value="false" />
      <ref role="13i0hy" to="tpek:2D1PBM_bxJg" resolve="getApplicableConceptFunctionParameter" />
      <node concept="3Tm1VV" id="2D1PBM_bziO" role="1B3o_S" />
      <node concept="_YKpA" id="2D1PBM_bziL" role="3clF45">
        <node concept="3Tqbb2" id="2D1PBM_bziM" role="_ZDj9">
          <ref role="ehGHo" to="tpce:f_TIwhg" resolve="ConceptDeclaration" />
        </node>
      </node>
      <node concept="3clFbS" id="2D1PBM_bziP" role="3clF47">
        <node concept="3cpWs8" id="2D1PBM_bziQ" role="3cqZAp">
          <node concept="3cpWsn" id="2D1PBM_bziR" role="3cpWs9">
            <property role="TrG5h" value="result" />
            <node concept="_YKpA" id="2D1PBM_bziV" role="1tU5fm">
              <node concept="3Tqbb2" id="2D1PBM_bziW" role="_ZDj9">
                <ref role="ehGHo" to="tpce:f_TIwhg" resolve="ConceptDeclaration" />
              </node>
            </node>
            <node concept="2OqwBi" id="2D1PBM_bzj3" role="33vP2m">
              <node concept="13iAh5" id="2D1PBM_bziZ" role="2Oq$k0">
                <ref role="3eA5LN" to="tpee:gyVMwX8" resolve="ConceptFunction" />
              </node>
              <node concept="2qgKlT" id="2D1PBM_bziY" role="2OqNvi">
                <ref role="37wK5l" to="tpek:2D1PBM_bxJg" resolve="getApplicableConceptFunctionParameter" />
              </node>
            </node>
          </node>
        </node>
        <node concept="3clFbF" id="2D1PBM_bzj5" role="3cqZAp">
          <node concept="2OqwBi" id="2D1PBM_bzj6" role="3clFbG">
            <node concept="37vLTw" id="2D1PBM_bzj7" role="2Oq$k0">
              <ref role="3cqZAo" node="2D1PBM_bziR" resolve="result" />
            </node>
            <node concept="TSZUe" id="2D1PBM_bzj8" role="2OqNvi">
              <node concept="3B5_sB" id="2D1PBM_bzj4" role="25WWJ7">
                <ref role="3B5MYn" to="tp1h:6Tyhu1Fon9a" resolve="RefactoringContext_ConceptFunctionParameter" />
              </node>
            </node>
          </node>
        </node>
        <node concept="3cpWs6" id="2D1PBM_bzj9" role="3cqZAp">
          <node concept="37vLTw" id="2D1PBM_bzja" role="3cqZAk">
            <ref role="3cqZAo" node="2D1PBM_bziR" resolve="result" />
          </node>
        </node>
      </node>
    </node>
    <node concept="13i0hz" id="$yZ68hBi68" role="13h7CS">
      <property role="13i0is" value="false" />
      <property role="TrG5h" value="getExpectedReturnType" />
      <property role="13i0it" value="false" />
      <property role="13i0iv" value="false" />
      <ref role="13i0hy" to="tpek:hEwIGRD" resolve="getExpectedReturnType" />
      <node concept="3Tm1VV" id="$yZ68hBi69" role="1B3o_S" />
      <node concept="3clFbS" id="$yZ68hBi6a" role="3clF47">
        <node concept="3cpWs6" id="$yZ68hBi6b" role="3cqZAp">
          <node concept="2c44tf" id="$yZ68hBi67" role="3cqZAk">
            <node concept="3cqZAl" id="1Mi4csyrrJQ" role="2c44tc" />
          </node>
        </node>
      </node>
      <node concept="3Tqbb2" id="$yZ68hBi6c" role="3clF45" />
    </node>
  </node>
  <node concept="13h7C7" id="1653mnvAmAj">
    <ref role="13h7C2" to="tp1h:hBLK5MW" resolve="GetModelsToUpdateClause" />
    <node concept="13hLZK" id="1653mnvAmAk" role="13h7CW">
      <node concept="3clFbS" id="1653mnvAmAl" role="2VODD2" />
    </node>
    <node concept="13i0hz" id="1653mnvAmAe" role="13h7CS">
      <property role="2Ki8OM" value="true" />
      <property role="13i0is" value="false" />
      <property role="TrG5h" value="showName" />
      <property role="13i0it" value="false" />
      <ref role="13i0hy" to="tpek:1653mnvAgry" resolve="showName" />
      <node concept="3Tm1VV" id="1653mnvAmAf" role="1B3o_S" />
      <node concept="10P_77" id="1653mnvAmAd" role="3clF45" />
      <node concept="3clFbS" id="1653mnvAmAg" role="3clF47">
        <node concept="3cpWs6" id="1653mnvAmAh" role="3cqZAp">
          <node concept="3clFbT" id="1653mnvAmAi" role="3cqZAk">
            <property role="3clFbU" value="true" />
          </node>
        </node>
      </node>
    </node>
    <node concept="13i0hz" id="2D1PBM_bz1l" role="13h7CS">
      <property role="2Ki8OM" value="true" />
      <property role="13i0is" value="false" />
      <property role="TrG5h" value="getApplicableConceptFunctionParameter" />
      <property role="13i0it" value="false" />
      <ref role="13i0hy" to="tpek:2D1PBM_bxJg" resolve="getApplicableConceptFunctionParameter" />
      <node concept="3Tm1VV" id="2D1PBM_bz1m" role="1B3o_S" />
      <node concept="_YKpA" id="2D1PBM_bz1j" role="3clF45">
        <node concept="3Tqbb2" id="2D1PBM_bz1k" role="_ZDj9">
          <ref role="ehGHo" to="tpce:f_TIwhg" resolve="ConceptDeclaration" />
        </node>
      </node>
      <node concept="3clFbS" id="2D1PBM_bz1n" role="3clF47">
        <node concept="3cpWs8" id="2D1PBM_bz1o" role="3cqZAp">
          <node concept="3cpWsn" id="2D1PBM_bz1p" role="3cpWs9">
            <property role="TrG5h" value="result" />
            <node concept="_YKpA" id="2D1PBM_bz1t" role="1tU5fm">
              <node concept="3Tqbb2" id="2D1PBM_bz1u" role="_ZDj9">
                <ref role="ehGHo" to="tpce:f_TIwhg" resolve="ConceptDeclaration" />
              </node>
            </node>
            <node concept="2OqwBi" id="2D1PBM_bz1_" role="33vP2m">
              <node concept="13iAh5" id="2D1PBM_bz1x" role="2Oq$k0">
                <ref role="3eA5LN" to="tpee:gyVMwX8" resolve="ConceptFunction" />
              </node>
              <node concept="2qgKlT" id="2D1PBM_bz1w" role="2OqNvi">
                <ref role="37wK5l" to="tpek:2D1PBM_bxJg" resolve="getApplicableConceptFunctionParameter" />
              </node>
            </node>
          </node>
        </node>
        <node concept="3clFbF" id="2D1PBM_bz1B" role="3cqZAp">
          <node concept="2OqwBi" id="2D1PBM_bz1C" role="3clFbG">
            <node concept="37vLTw" id="2D1PBM_bz1D" role="2Oq$k0">
              <ref role="3cqZAo" node="2D1PBM_bz1p" resolve="result" />
            </node>
            <node concept="TSZUe" id="2D1PBM_bz1E" role="2OqNvi">
              <node concept="3B5_sB" id="2D1PBM_bz1A" role="25WWJ7">
                <ref role="3B5MYn" to="tp1h:6Tyhu1Fon9a" resolve="RefactoringContext_ConceptFunctionParameter" />
              </node>
            </node>
          </node>
        </node>
        <node concept="3cpWs6" id="2D1PBM_bz1F" role="3cqZAp">
          <node concept="37vLTw" id="2D1PBM_bz1G" role="3cqZAk">
            <ref role="3cqZAo" node="2D1PBM_bz1p" resolve="result" />
          </node>
        </node>
      </node>
    </node>
    <node concept="13i0hz" id="$yZ68hBikJ" role="13h7CS">
      <property role="13i0is" value="false" />
      <property role="TrG5h" value="getExpectedReturnType" />
      <property role="13i0it" value="false" />
      <property role="13i0iv" value="false" />
      <ref role="13i0hy" to="tpek:hEwIGRD" resolve="getExpectedReturnType" />
      <node concept="3Tm1VV" id="$yZ68hBikK" role="1B3o_S" />
      <node concept="3clFbS" id="$yZ68hBikL" role="3clF47">
        <node concept="3cpWs6" id="$yZ68hBikM" role="3cqZAp">
          <node concept="2c44tf" id="$yZ68hBikI" role="3cqZAk">
            <node concept="_YKpA" id="i1yr08M" role="2c44tc">
              <node concept="H_c77" id="i1yr0yO" role="_ZDj9" />
            </node>
          </node>
        </node>
      </node>
      <node concept="3Tqbb2" id="$yZ68hBikN" role="3clF45" />
    </node>
  </node>
  <node concept="13h7C7" id="1653mnvANvm">
    <ref role="13h7C2" to="tp1h:hjZiDQz" resolve="DoRefactorClause" />
    <node concept="13hLZK" id="1653mnvANvn" role="13h7CW">
      <node concept="3clFbS" id="1653mnvANvo" role="2VODD2" />
    </node>
    <node concept="13i0hz" id="1653mnvANvh" role="13h7CS">
      <property role="2Ki8OM" value="true" />
      <property role="13i0is" value="false" />
      <property role="TrG5h" value="showName" />
      <property role="13i0it" value="false" />
      <ref role="13i0hy" to="tpek:1653mnvAgry" resolve="showName" />
      <node concept="3Tm1VV" id="1653mnvANvi" role="1B3o_S" />
      <node concept="10P_77" id="1653mnvANvg" role="3clF45" />
      <node concept="3clFbS" id="1653mnvANvj" role="3clF47">
        <node concept="3cpWs6" id="1653mnvANvk" role="3cqZAp">
          <node concept="3clFbT" id="1653mnvANvl" role="3cqZAk">
            <property role="3clFbU" value="true" />
          </node>
        </node>
      </node>
    </node>
    <node concept="13i0hz" id="2D1PBM_bz74" role="13h7CS">
      <property role="2Ki8OM" value="true" />
      <property role="13i0is" value="false" />
      <property role="TrG5h" value="getApplicableConceptFunctionParameter" />
      <property role="13i0it" value="false" />
      <ref role="13i0hy" to="tpek:2D1PBM_bxJg" resolve="getApplicableConceptFunctionParameter" />
      <node concept="3Tm1VV" id="2D1PBM_bz75" role="1B3o_S" />
      <node concept="_YKpA" id="2D1PBM_bz72" role="3clF45">
        <node concept="3Tqbb2" id="2D1PBM_bz73" role="_ZDj9">
          <ref role="ehGHo" to="tpce:f_TIwhg" resolve="ConceptDeclaration" />
        </node>
      </node>
      <node concept="3clFbS" id="2D1PBM_bz76" role="3clF47">
        <node concept="3cpWs8" id="2D1PBM_bz77" role="3cqZAp">
          <node concept="3cpWsn" id="2D1PBM_bz78" role="3cpWs9">
            <property role="TrG5h" value="result" />
            <node concept="_YKpA" id="2D1PBM_bz7c" role="1tU5fm">
              <node concept="3Tqbb2" id="2D1PBM_bz7d" role="_ZDj9">
                <ref role="ehGHo" to="tpce:f_TIwhg" resolve="ConceptDeclaration" />
              </node>
            </node>
            <node concept="2OqwBi" id="2D1PBM_bz7k" role="33vP2m">
              <node concept="13iAh5" id="2D1PBM_bz7g" role="2Oq$k0">
                <ref role="3eA5LN" to="tpee:gyVMwX8" resolve="ConceptFunction" />
              </node>
              <node concept="2qgKlT" id="2D1PBM_bz7f" role="2OqNvi">
                <ref role="37wK5l" to="tpek:2D1PBM_bxJg" resolve="getApplicableConceptFunctionParameter" />
              </node>
            </node>
          </node>
        </node>
        <node concept="3clFbF" id="2D1PBM_bz7m" role="3cqZAp">
          <node concept="2OqwBi" id="2D1PBM_bz7n" role="3clFbG">
            <node concept="37vLTw" id="2D1PBM_bz7o" role="2Oq$k0">
              <ref role="3cqZAo" node="2D1PBM_bz78" resolve="result" />
            </node>
            <node concept="TSZUe" id="2D1PBM_bz7p" role="2OqNvi">
              <node concept="3B5_sB" id="2D1PBM_bz7l" role="25WWJ7">
                <ref role="3B5MYn" to="tp1h:6Tyhu1Fon9a" resolve="RefactoringContext_ConceptFunctionParameter" />
              </node>
            </node>
          </node>
        </node>
        <node concept="3cpWs6" id="2D1PBM_bz7q" role="3cqZAp">
          <node concept="37vLTw" id="2D1PBM_bz7r" role="3cqZAk">
            <ref role="3cqZAo" node="2D1PBM_bz78" resolve="result" />
          </node>
        </node>
      </node>
    </node>
    <node concept="13i0hz" id="$yZ68hB6wG" role="13h7CS">
      <property role="13i0is" value="false" />
      <property role="TrG5h" value="getExpectedReturnType" />
      <property role="13i0it" value="false" />
      <property role="13i0iv" value="false" />
      <ref role="13i0hy" to="tpek:hEwIGRD" resolve="getExpectedReturnType" />
      <node concept="3Tm1VV" id="$yZ68hB6wH" role="1B3o_S" />
      <node concept="3clFbS" id="$yZ68hB6wI" role="3clF47">
        <node concept="3cpWs6" id="$yZ68hB6wJ" role="3cqZAp">
          <node concept="2c44tf" id="$yZ68hB6wF" role="3cqZAk">
            <node concept="3cqZAl" id="hjZmlsf" role="2c44tc" />
          </node>
        </node>
      </node>
      <node concept="3Tqbb2" id="$yZ68hB6wK" role="3clF45" />
    </node>
  </node>
  <node concept="13h7C7" id="1653mnvANOo">
    <ref role="13h7C2" to="tp1h:hut9MF6" resolve="AffectedNodesClause" />
    <node concept="13hLZK" id="1653mnvANOp" role="13h7CW">
      <node concept="3clFbS" id="1653mnvANOq" role="2VODD2" />
    </node>
    <node concept="13i0hz" id="1653mnvANOj" role="13h7CS">
      <property role="2Ki8OM" value="true" />
      <property role="13i0is" value="false" />
      <property role="TrG5h" value="showName" />
      <property role="13i0it" value="false" />
      <ref role="13i0hy" to="tpek:1653mnvAgry" resolve="showName" />
      <node concept="3Tm1VV" id="1653mnvANOk" role="1B3o_S" />
      <node concept="10P_77" id="1653mnvANOi" role="3clF45" />
      <node concept="3clFbS" id="1653mnvANOl" role="3clF47">
        <node concept="3cpWs6" id="1653mnvANOm" role="3cqZAp">
          <node concept="3clFbT" id="1653mnvANOn" role="3cqZAk">
            <property role="3clFbU" value="true" />
          </node>
        </node>
      </node>
    </node>
    <node concept="13i0hz" id="2D1PBM_bzLa" role="13h7CS">
      <property role="2Ki8OM" value="true" />
      <property role="13i0is" value="false" />
      <property role="TrG5h" value="getApplicableConceptFunctionParameter" />
      <property role="13i0it" value="false" />
      <ref role="13i0hy" to="tpek:2D1PBM_bxJg" resolve="getApplicableConceptFunctionParameter" />
      <node concept="3Tm1VV" id="2D1PBM_bzLb" role="1B3o_S" />
      <node concept="_YKpA" id="2D1PBM_bzL8" role="3clF45">
        <node concept="3Tqbb2" id="2D1PBM_bzL9" role="_ZDj9">
          <ref role="ehGHo" to="tpce:f_TIwhg" resolve="ConceptDeclaration" />
        </node>
      </node>
      <node concept="3clFbS" id="2D1PBM_bzLc" role="3clF47">
        <node concept="3cpWs8" id="2D1PBM_bzLd" role="3cqZAp">
          <node concept="3cpWsn" id="2D1PBM_bzLe" role="3cpWs9">
            <property role="TrG5h" value="result" />
            <node concept="_YKpA" id="2D1PBM_bzLi" role="1tU5fm">
              <node concept="3Tqbb2" id="2D1PBM_bzLj" role="_ZDj9">
                <ref role="ehGHo" to="tpce:f_TIwhg" resolve="ConceptDeclaration" />
              </node>
            </node>
            <node concept="2OqwBi" id="2D1PBM_bzLq" role="33vP2m">
              <node concept="13iAh5" id="2D1PBM_bzLm" role="2Oq$k0">
                <ref role="3eA5LN" to="tpee:gyVMwX8" resolve="ConceptFunction" />
              </node>
              <node concept="2qgKlT" id="2D1PBM_bzLl" role="2OqNvi">
                <ref role="37wK5l" to="tpek:2D1PBM_bxJg" resolve="getApplicableConceptFunctionParameter" />
              </node>
            </node>
          </node>
        </node>
        <node concept="3clFbF" id="2D1PBM_bzLs" role="3cqZAp">
          <node concept="2OqwBi" id="2D1PBM_bzLt" role="3clFbG">
            <node concept="37vLTw" id="2D1PBM_bzLu" role="2Oq$k0">
              <ref role="3cqZAo" node="2D1PBM_bzLe" resolve="result" />
            </node>
            <node concept="TSZUe" id="2D1PBM_bzLv" role="2OqNvi">
              <node concept="3B5_sB" id="2D1PBM_bzLr" role="25WWJ7">
                <ref role="3B5MYn" to="tp1h:6Tyhu1Fon9a" resolve="RefactoringContext_ConceptFunctionParameter" />
              </node>
            </node>
          </node>
        </node>
        <node concept="3cpWs6" id="2D1PBM_bzLw" role="3cqZAp">
          <node concept="37vLTw" id="2D1PBM_bzLx" role="3cqZAk">
            <ref role="3cqZAo" node="2D1PBM_bzLe" resolve="result" />
          </node>
        </node>
      </node>
    </node>
    <node concept="13i0hz" id="$yZ68hB6Cw" role="13h7CS">
      <property role="13i0is" value="false" />
      <property role="TrG5h" value="getExpectedReturnType" />
      <property role="13i0it" value="false" />
      <property role="13i0iv" value="false" />
      <ref role="13i0hy" to="tpek:hEwIGRD" resolve="getExpectedReturnType" />
      <node concept="3Tm1VV" id="$yZ68hB6Cx" role="1B3o_S" />
      <node concept="3clFbS" id="$yZ68hB6Cy" role="3clF47">
        <node concept="3cpWs6" id="$yZ68hB6Cz" role="3cqZAp">
          <node concept="2c44tf" id="$yZ68hB6yQ" role="3cqZAk">
            <node concept="3uibUv" id="hutad9S" role="2c44tc">
              <ref role="3uigEE" to="9erk:~SearchResults" resolve="SearchResults" />
            </node>
          </node>
        </node>
      </node>
      <node concept="3Tqbb2" id="$yZ68hB6C$" role="3clF45" />
    </node>
  </node>
  <node concept="13h7C7" id="1653mnvAOOG">
    <ref role="13h7C2" to="tp1h:5YKiRiBuwlL" resolve="IsApplicableToModuleClause" />
    <node concept="13hLZK" id="1653mnvAOOH" role="13h7CW">
      <node concept="3clFbS" id="1653mnvAOOI" role="2VODD2" />
    </node>
    <node concept="13i0hz" id="1653mnvAOOB" role="13h7CS">
      <property role="2Ki8OM" value="true" />
      <property role="13i0is" value="false" />
      <property role="TrG5h" value="showName" />
      <property role="13i0it" value="false" />
      <ref role="13i0hy" to="tpek:1653mnvAgry" resolve="showName" />
      <node concept="3Tm1VV" id="1653mnvAOOC" role="1B3o_S" />
      <node concept="10P_77" id="1653mnvAOOA" role="3clF45" />
      <node concept="3clFbS" id="1653mnvAOOD" role="3clF47">
        <node concept="3cpWs6" id="1653mnvAOOE" role="3cqZAp">
          <node concept="3clFbT" id="1653mnvAOOF" role="3cqZAk">
            <property role="3clFbU" value="true" />
          </node>
        </node>
      </node>
    </node>
    <node concept="13i0hz" id="2D1PBM_bzND" role="13h7CS">
      <property role="2Ki8OM" value="true" />
      <property role="13i0is" value="false" />
      <property role="TrG5h" value="getApplicableConceptFunctionParameter" />
      <property role="13i0it" value="false" />
      <ref role="13i0hy" to="tpek:2D1PBM_bxJg" resolve="getApplicableConceptFunctionParameter" />
      <node concept="3Tm1VV" id="2D1PBM_bzNE" role="1B3o_S" />
      <node concept="_YKpA" id="2D1PBM_bzNB" role="3clF45">
        <node concept="3Tqbb2" id="2D1PBM_bzNC" role="_ZDj9">
          <ref role="ehGHo" to="tpce:f_TIwhg" resolve="ConceptDeclaration" />
        </node>
      </node>
      <node concept="3clFbS" id="2D1PBM_bzNF" role="3clF47">
        <node concept="3cpWs8" id="2D1PBM_bzNG" role="3cqZAp">
          <node concept="3cpWsn" id="2D1PBM_bzNH" role="3cpWs9">
            <property role="TrG5h" value="result" />
            <node concept="_YKpA" id="2D1PBM_bzNL" role="1tU5fm">
              <node concept="3Tqbb2" id="2D1PBM_bzNM" role="_ZDj9">
                <ref role="ehGHo" to="tpce:f_TIwhg" resolve="ConceptDeclaration" />
              </node>
            </node>
            <node concept="2OqwBi" id="2D1PBM_bzNT" role="33vP2m">
              <node concept="13iAh5" id="2D1PBM_bzNP" role="2Oq$k0">
                <ref role="3eA5LN" to="tpee:gyVMwX8" resolve="ConceptFunction" />
              </node>
              <node concept="2qgKlT" id="2D1PBM_bzNO" role="2OqNvi">
                <ref role="37wK5l" to="tpek:2D1PBM_bxJg" resolve="getApplicableConceptFunctionParameter" />
              </node>
            </node>
          </node>
        </node>
        <node concept="3clFbF" id="2D1PBM_bzNV" role="3cqZAp">
          <node concept="2OqwBi" id="2D1PBM_bzNW" role="3clFbG">
            <node concept="37vLTw" id="2D1PBM_bzNX" role="2Oq$k0">
              <ref role="3cqZAo" node="2D1PBM_bzNH" resolve="result" />
            </node>
            <node concept="TSZUe" id="2D1PBM_bzNY" role="2OqNvi">
              <node concept="3B5_sB" id="2D1PBM_bzNU" role="25WWJ7">
                <ref role="3B5MYn" to="tp1h:5YKiRiBuwlR" resolve="ConceptFunctionParameter_Module" />
              </node>
            </node>
          </node>
        </node>
        <node concept="3cpWs6" id="2D1PBM_bzNZ" role="3cqZAp">
          <node concept="37vLTw" id="2D1PBM_bzO0" role="3cqZAk">
            <ref role="3cqZAo" node="2D1PBM_bzNH" resolve="result" />
          </node>
        </node>
      </node>
    </node>
    <node concept="13i0hz" id="$yZ68hB6up" role="13h7CS">
      <property role="13i0is" value="false" />
      <property role="TrG5h" value="getExpectedReturnType" />
      <property role="13i0it" value="false" />
      <property role="13i0iv" value="false" />
      <ref role="13i0hy" to="tpek:hEwIGRD" resolve="getExpectedReturnType" />
      <node concept="3Tm1VV" id="$yZ68hB6uq" role="1B3o_S" />
      <node concept="3clFbS" id="$yZ68hB6ur" role="3clF47">
        <node concept="3cpWs6" id="$yZ68hB6us" role="3cqZAp">
          <node concept="2c44tf" id="$yZ68hB6uo" role="3cqZAk">
            <node concept="10P_77" id="5YKiRiBuwlN" role="2c44tc" />
          </node>
        </node>
      </node>
      <node concept="3Tqbb2" id="$yZ68hB6ut" role="3clF45" />
    </node>
  </node>
  <node concept="13h7C7" id="1653mnvB2Bv">
    <ref role="13h7C2" to="tp1h:hAvlFdS" resolve="IsApplicableToModelClause" />
    <node concept="13hLZK" id="1653mnvB2Bw" role="13h7CW">
      <node concept="3clFbS" id="1653mnvB2Bx" role="2VODD2" />
    </node>
    <node concept="13i0hz" id="1653mnvB2Bq" role="13h7CS">
      <property role="2Ki8OM" value="true" />
      <property role="13i0is" value="false" />
      <property role="TrG5h" value="showName" />
      <property role="13i0it" value="false" />
      <ref role="13i0hy" to="tpek:1653mnvAgry" resolve="showName" />
      <node concept="3Tm1VV" id="1653mnvB2Br" role="1B3o_S" />
      <node concept="10P_77" id="1653mnvB2Bp" role="3clF45" />
      <node concept="3clFbS" id="1653mnvB2Bs" role="3clF47">
        <node concept="3cpWs6" id="1653mnvB2Bt" role="3cqZAp">
          <node concept="3clFbT" id="1653mnvB2Bu" role="3cqZAk">
            <property role="3clFbU" value="true" />
          </node>
        </node>
      </node>
    </node>
    <node concept="13i0hz" id="2D1PBM_bxXG" role="13h7CS">
      <property role="2Ki8OM" value="true" />
      <property role="13i0is" value="false" />
      <property role="TrG5h" value="getApplicableConceptFunctionParameter" />
      <property role="13i0it" value="false" />
      <ref role="13i0hy" to="tpek:2D1PBM_bxJg" resolve="getApplicableConceptFunctionParameter" />
      <node concept="3Tm1VV" id="2D1PBM_bxXH" role="1B3o_S" />
      <node concept="_YKpA" id="2D1PBM_bxXE" role="3clF45">
        <node concept="3Tqbb2" id="2D1PBM_bxXF" role="_ZDj9">
          <ref role="ehGHo" to="tpce:f_TIwhg" resolve="ConceptDeclaration" />
        </node>
      </node>
      <node concept="3clFbS" id="2D1PBM_bxXI" role="3clF47">
        <node concept="3cpWs8" id="2D1PBM_bxXJ" role="3cqZAp">
          <node concept="3cpWsn" id="2D1PBM_bxXK" role="3cpWs9">
            <property role="TrG5h" value="result" />
            <node concept="_YKpA" id="2D1PBM_bxXO" role="1tU5fm">
              <node concept="3Tqbb2" id="2D1PBM_bxXP" role="_ZDj9">
                <ref role="ehGHo" to="tpce:f_TIwhg" resolve="ConceptDeclaration" />
              </node>
            </node>
            <node concept="2OqwBi" id="2D1PBM_bxXW" role="33vP2m">
              <node concept="13iAh5" id="2D1PBM_bxXS" role="2Oq$k0">
                <ref role="3eA5LN" to="tpee:gyVMwX8" resolve="ConceptFunction" />
              </node>
              <node concept="2qgKlT" id="2D1PBM_bxXR" role="2OqNvi">
                <ref role="37wK5l" to="tpek:2D1PBM_bxJg" resolve="getApplicableConceptFunctionParameter" />
              </node>
            </node>
          </node>
        </node>
        <node concept="3clFbF" id="2D1PBM_bxXY" role="3cqZAp">
          <node concept="2OqwBi" id="2D1PBM_bxXZ" role="3clFbG">
            <node concept="37vLTw" id="2D1PBM_bxY0" role="2Oq$k0">
              <ref role="3cqZAo" node="2D1PBM_bxXK" resolve="result" />
            </node>
            <node concept="TSZUe" id="2D1PBM_bxY1" role="2OqNvi">
              <node concept="3B5_sB" id="2D1PBM_bxXX" role="25WWJ7">
                <ref role="3B5MYn" to="tp1h:hAvlQjq" resolve="ConceptFunctionParameter_Model" />
              </node>
            </node>
          </node>
        </node>
        <node concept="3cpWs6" id="2D1PBM_bxY2" role="3cqZAp">
          <node concept="37vLTw" id="2D1PBM_bxY3" role="3cqZAk">
            <ref role="3cqZAo" node="2D1PBM_bxXK" resolve="result" />
          </node>
        </node>
      </node>
    </node>
    <node concept="13i0hz" id="$yZ68hBhLn" role="13h7CS">
      <property role="13i0is" value="false" />
      <property role="TrG5h" value="getExpectedReturnType" />
      <property role="13i0it" value="false" />
      <property role="13i0iv" value="false" />
      <ref role="13i0hy" to="tpek:hEwIGRD" resolve="getExpectedReturnType" />
      <node concept="3Tm1VV" id="$yZ68hBhLo" role="1B3o_S" />
      <node concept="3clFbS" id="$yZ68hBhLp" role="3clF47">
        <node concept="3cpWs6" id="$yZ68hBhLq" role="3cqZAp">
          <node concept="2c44tf" id="$yZ68hBhLm" role="3cqZAk">
            <node concept="10P_77" id="hAvlLPg" role="2c44tc" />
          </node>
        </node>
      </node>
      <node concept="3Tqbb2" id="$yZ68hBhLr" role="3clF45" />
    </node>
  </node>
  <node concept="13h7C7" id="1653mnvB2R7">
    <ref role="13h7C2" to="tp1h:4Lb$w0Yi3EE" resolve="RefactoringFieldReference" />
    <node concept="13hLZK" id="1653mnvB2R8" role="13h7CW">
      <node concept="3clFbS" id="1653mnvB2R9" role="2VODD2" />
    </node>
    <node concept="13i0hz" id="1653mnvB2R2" role="13h7CS">
      <property role="2Ki8OM" value="true" />
      <property role="13i0is" value="false" />
      <property role="TrG5h" value="lvalue" />
      <property role="13i0it" value="false" />
      <ref role="13i0hy" to="tpek:1653mnvAgpj" resolve="lvalue" />
      <node concept="3Tm1VV" id="1653mnvB2R3" role="1B3o_S" />
      <node concept="10P_77" id="1653mnvB2R1" role="3clF45" />
      <node concept="3clFbS" id="1653mnvB2R4" role="3clF47">
        <node concept="3cpWs6" id="1653mnvB2R5" role="3cqZAp">
          <node concept="3clFbT" id="1653mnvB2R6" role="3cqZAk">
            <property role="3clFbU" value="true" />
          </node>
        </node>
      </node>
    </node>
  </node>
  <node concept="13h7C7" id="1653mnvB2RK">
    <ref role="13h7C2" to="tp1h:1tqCfgymEov" resolve="ModelsToGenerateClause" />
    <node concept="13hLZK" id="1653mnvB2RL" role="13h7CW">
      <node concept="3clFbS" id="1653mnvB2RM" role="2VODD2" />
    </node>
    <node concept="13i0hz" id="1653mnvB2RF" role="13h7CS">
      <property role="2Ki8OM" value="true" />
      <property role="13i0is" value="false" />
      <property role="TrG5h" value="showName" />
      <property role="13i0it" value="false" />
      <ref role="13i0hy" to="tpek:1653mnvAgry" resolve="showName" />
      <node concept="3Tm1VV" id="1653mnvB2RG" role="1B3o_S" />
      <node concept="10P_77" id="1653mnvB2RE" role="3clF45" />
      <node concept="3clFbS" id="1653mnvB2RH" role="3clF47">
        <node concept="3cpWs6" id="1653mnvB2RI" role="3cqZAp">
          <node concept="3clFbT" id="1653mnvB2RJ" role="3cqZAk">
            <property role="3clFbU" value="true" />
          </node>
        </node>
      </node>
    </node>
    <node concept="13i0hz" id="2D1PBM_byYg" role="13h7CS">
      <property role="2Ki8OM" value="true" />
      <property role="13i0is" value="false" />
      <property role="TrG5h" value="getApplicableConceptFunctionParameter" />
      <property role="13i0it" value="false" />
      <ref role="13i0hy" to="tpek:2D1PBM_bxJg" resolve="getApplicableConceptFunctionParameter" />
      <node concept="3Tm1VV" id="2D1PBM_byYh" role="1B3o_S" />
      <node concept="_YKpA" id="2D1PBM_byYe" role="3clF45">
        <node concept="3Tqbb2" id="2D1PBM_byYf" role="_ZDj9">
          <ref role="ehGHo" to="tpce:f_TIwhg" resolve="ConceptDeclaration" />
        </node>
      </node>
      <node concept="3clFbS" id="2D1PBM_byYi" role="3clF47">
        <node concept="3cpWs8" id="2D1PBM_byYj" role="3cqZAp">
          <node concept="3cpWsn" id="2D1PBM_byYk" role="3cpWs9">
            <property role="TrG5h" value="result" />
            <node concept="_YKpA" id="2D1PBM_byYo" role="1tU5fm">
              <node concept="3Tqbb2" id="2D1PBM_byYp" role="_ZDj9">
                <ref role="ehGHo" to="tpce:f_TIwhg" resolve="ConceptDeclaration" />
              </node>
            </node>
            <node concept="2OqwBi" id="2D1PBM_byYw" role="33vP2m">
              <node concept="13iAh5" id="2D1PBM_byYs" role="2Oq$k0">
                <ref role="3eA5LN" to="tpee:gyVMwX8" resolve="ConceptFunction" />
              </node>
              <node concept="2qgKlT" id="2D1PBM_byYr" role="2OqNvi">
                <ref role="37wK5l" to="tpek:2D1PBM_bxJg" resolve="getApplicableConceptFunctionParameter" />
              </node>
            </node>
          </node>
        </node>
        <node concept="3clFbF" id="2D1PBM_byYy" role="3cqZAp">
          <node concept="2OqwBi" id="2D1PBM_byYz" role="3clFbG">
            <node concept="37vLTw" id="2D1PBM_byY$" role="2Oq$k0">
              <ref role="3cqZAo" node="2D1PBM_byYk" resolve="result" />
            </node>
            <node concept="TSZUe" id="2D1PBM_byY_" role="2OqNvi">
              <node concept="3B5_sB" id="2D1PBM_byYx" role="25WWJ7">
                <ref role="3B5MYn" to="tp1h:6Tyhu1Fon9a" resolve="RefactoringContext_ConceptFunctionParameter" />
              </node>
            </node>
          </node>
        </node>
        <node concept="3cpWs6" id="2D1PBM_byYA" role="3cqZAp">
          <node concept="37vLTw" id="2D1PBM_byYB" role="3cqZAk">
            <ref role="3cqZAo" node="2D1PBM_byYk" resolve="result" />
          </node>
        </node>
      </node>
    </node>
    <node concept="13i0hz" id="$yZ68hB5rq" role="13h7CS">
      <property role="13i0is" value="false" />
      <property role="TrG5h" value="getExpectedReturnType" />
      <property role="13i0it" value="false" />
      <property role="13i0iv" value="false" />
      <ref role="13i0hy" to="tpek:hEwIGRD" resolve="getExpectedReturnType" />
      <node concept="3Tm1VV" id="$yZ68hB5rr" role="1B3o_S" />
      <node concept="3clFbS" id="$yZ68hB5rs" role="3clF47">
        <node concept="3cpWs6" id="$yZ68hB5rt" role="3cqZAp">
          <node concept="2c44tf" id="$yZ68hB5ic" role="3cqZAk">
            <node concept="_YKpA" id="1tqCfgymEoC" role="2c44tc">
              <node concept="H_c77" id="1tqCfgymEoD" role="_ZDj9" />
            </node>
          </node>
        </node>
      </node>
      <node concept="3Tqbb2" id="$yZ68hB5ru" role="3clF45" />
    </node>
  </node>
  <node concept="13h7C7" id="1653mnvB6fD">
    <ref role="13h7C2" to="tp1h:5YKiRiBuwmo" resolve="IsApplicableToNodeClause" />
    <node concept="13hLZK" id="1653mnvB6fE" role="13h7CW">
      <node concept="3clFbS" id="1653mnvB6fF" role="2VODD2" />
    </node>
    <node concept="13i0hz" id="1653mnvB6f$" role="13h7CS">
      <property role="2Ki8OM" value="true" />
      <property role="13i0is" value="false" />
      <property role="TrG5h" value="showName" />
      <property role="13i0it" value="false" />
      <ref role="13i0hy" to="tpek:1653mnvAgry" resolve="showName" />
      <node concept="3Tm1VV" id="1653mnvB6f_" role="1B3o_S" />
      <node concept="10P_77" id="1653mnvB6fz" role="3clF45" />
      <node concept="3clFbS" id="1653mnvB6fA" role="3clF47">
        <node concept="3cpWs6" id="1653mnvB6fB" role="3cqZAp">
          <node concept="3clFbT" id="1653mnvB6fC" role="3cqZAk">
            <property role="3clFbU" value="true" />
          </node>
        </node>
      </node>
    </node>
    <node concept="13i0hz" id="2D1PBM_bzWA" role="13h7CS">
      <property role="2Ki8OM" value="true" />
      <property role="13i0is" value="false" />
      <property role="TrG5h" value="getApplicableConceptFunctionParameter" />
      <property role="13i0it" value="false" />
      <ref role="13i0hy" to="tpek:2D1PBM_bxJg" resolve="getApplicableConceptFunctionParameter" />
      <node concept="3Tm1VV" id="2D1PBM_bzWB" role="1B3o_S" />
      <node concept="_YKpA" id="2D1PBM_bzW$" role="3clF45">
        <node concept="3Tqbb2" id="2D1PBM_bzW_" role="_ZDj9">
          <ref role="ehGHo" to="tpce:f_TIwhg" resolve="ConceptDeclaration" />
        </node>
      </node>
      <node concept="3clFbS" id="2D1PBM_bzWC" role="3clF47">
        <node concept="3cpWs8" id="2D1PBM_bzWD" role="3cqZAp">
          <node concept="3cpWsn" id="2D1PBM_bzWE" role="3cpWs9">
            <property role="TrG5h" value="result" />
            <node concept="_YKpA" id="2D1PBM_bzWI" role="1tU5fm">
              <node concept="3Tqbb2" id="2D1PBM_bzWJ" role="_ZDj9">
                <ref role="ehGHo" to="tpce:f_TIwhg" resolve="ConceptDeclaration" />
              </node>
            </node>
            <node concept="2OqwBi" id="2D1PBM_bzWQ" role="33vP2m">
              <node concept="13iAh5" id="2D1PBM_bzWM" role="2Oq$k0">
                <ref role="3eA5LN" to="tpee:gyVMwX8" resolve="ConceptFunction" />
              </node>
              <node concept="2qgKlT" id="2D1PBM_bzWL" role="2OqNvi">
                <ref role="37wK5l" to="tpek:2D1PBM_bxJg" resolve="getApplicableConceptFunctionParameter" />
              </node>
            </node>
          </node>
        </node>
        <node concept="3clFbF" id="2D1PBM_bzWS" role="3cqZAp">
          <node concept="2OqwBi" id="2D1PBM_bzWT" role="3clFbG">
            <node concept="37vLTw" id="2D1PBM_bzWU" role="2Oq$k0">
              <ref role="3cqZAo" node="2D1PBM_bzWE" resolve="result" />
            </node>
            <node concept="TSZUe" id="2D1PBM_bzWV" role="2OqNvi">
              <node concept="3B5_sB" id="2D1PBM_bzWR" role="25WWJ7">
                <ref role="3B5MYn" to="tp1h:5YKiRiBuwmu" resolve="ConceptFunctionParameter_SNode" />
              </node>
            </node>
          </node>
        </node>
        <node concept="3cpWs6" id="2D1PBM_bzWW" role="3cqZAp">
          <node concept="37vLTw" id="2D1PBM_bzWX" role="3cqZAk">
            <ref role="3cqZAo" node="2D1PBM_bzWE" resolve="result" />
          </node>
        </node>
      </node>
    </node>
    <node concept="13i0hz" id="$yZ68hBikD" role="13h7CS">
      <property role="13i0is" value="false" />
      <property role="TrG5h" value="getExpectedReturnType" />
      <property role="13i0it" value="false" />
      <property role="13i0iv" value="false" />
      <ref role="13i0hy" to="tpek:hEwIGRD" resolve="getExpectedReturnType" />
      <node concept="3Tm1VV" id="$yZ68hBikE" role="1B3o_S" />
      <node concept="3clFbS" id="$yZ68hBikF" role="3clF47">
        <node concept="3cpWs6" id="$yZ68hBikG" role="3cqZAp">
          <node concept="2c44tf" id="$yZ68hBikC" role="3cqZAk">
            <node concept="10P_77" id="5YKiRiBuwmq" role="2c44tc" />
          </node>
        </node>
      </node>
      <node concept="3Tqbb2" id="$yZ68hBikH" role="3clF45" />
    </node>
  </node>
  <node concept="13h7C7" id="1653mnvB6Ew">
    <ref role="13h7C2" to="tp1h:4Lb$w0Yjnvi" resolve="InitClause" />
    <node concept="13hLZK" id="1653mnvB6Ex" role="13h7CW">
      <node concept="3clFbS" id="1653mnvB6Ey" role="2VODD2" />
    </node>
    <node concept="13i0hz" id="1653mnvB6Er" role="13h7CS">
      <property role="2Ki8OM" value="true" />
      <property role="13i0is" value="false" />
      <property role="TrG5h" value="showName" />
      <property role="13i0it" value="false" />
      <ref role="13i0hy" to="tpek:1653mnvAgry" resolve="showName" />
      <node concept="3Tm1VV" id="1653mnvB6Es" role="1B3o_S" />
      <node concept="10P_77" id="1653mnvB6Eq" role="3clF45" />
      <node concept="3clFbS" id="1653mnvB6Et" role="3clF47">
        <node concept="3cpWs6" id="1653mnvB6Eu" role="3cqZAp">
          <node concept="3clFbT" id="1653mnvB6Ev" role="3cqZAk">
            <property role="3clFbU" value="true" />
          </node>
        </node>
      </node>
    </node>
    <node concept="13i0hz" id="2D1PBM_bzS2" role="13h7CS">
      <property role="2Ki8OM" value="true" />
      <property role="13i0is" value="false" />
      <property role="TrG5h" value="getApplicableConceptFunctionParameter" />
      <property role="13i0it" value="false" />
      <ref role="13i0hy" to="tpek:2D1PBM_bxJg" resolve="getApplicableConceptFunctionParameter" />
      <node concept="3Tm1VV" id="2D1PBM_bzS3" role="1B3o_S" />
      <node concept="_YKpA" id="2D1PBM_bzS0" role="3clF45">
        <node concept="3Tqbb2" id="2D1PBM_bzS1" role="_ZDj9">
          <ref role="ehGHo" to="tpce:f_TIwhg" resolve="ConceptDeclaration" />
        </node>
      </node>
      <node concept="3clFbS" id="2D1PBM_bzS4" role="3clF47">
        <node concept="3cpWs8" id="2D1PBM_bzS5" role="3cqZAp">
          <node concept="3cpWsn" id="2D1PBM_bzS6" role="3cpWs9">
            <property role="TrG5h" value="result" />
            <node concept="_YKpA" id="2D1PBM_bzSa" role="1tU5fm">
              <node concept="3Tqbb2" id="2D1PBM_bzSb" role="_ZDj9">
                <ref role="ehGHo" to="tpce:f_TIwhg" resolve="ConceptDeclaration" />
              </node>
            </node>
            <node concept="2OqwBi" id="2D1PBM_bzSi" role="33vP2m">
              <node concept="13iAh5" id="2D1PBM_bzSe" role="2Oq$k0">
                <ref role="3eA5LN" to="tpee:gyVMwX8" resolve="ConceptFunction" />
              </node>
              <node concept="2qgKlT" id="2D1PBM_bzSd" role="2OqNvi">
                <ref role="37wK5l" to="tpek:2D1PBM_bxJg" resolve="getApplicableConceptFunctionParameter" />
              </node>
            </node>
          </node>
        </node>
        <node concept="3clFbF" id="2D1PBM_bzSk" role="3cqZAp">
          <node concept="2OqwBi" id="2D1PBM_bzSl" role="3clFbG">
            <node concept="37vLTw" id="2D1PBM_bzSm" role="2Oq$k0">
              <ref role="3cqZAo" node="2D1PBM_bzS6" resolve="result" />
            </node>
            <node concept="TSZUe" id="2D1PBM_bzSn" role="2OqNvi">
              <node concept="3B5_sB" id="2D1PBM_bzSj" role="25WWJ7">
                <ref role="3B5MYn" to="tp1h:6Tyhu1Fon9a" resolve="RefactoringContext_ConceptFunctionParameter" />
              </node>
            </node>
          </node>
        </node>
        <node concept="3cpWs6" id="2D1PBM_bzSo" role="3cqZAp">
          <node concept="37vLTw" id="2D1PBM_bzSp" role="3cqZAk">
            <ref role="3cqZAo" node="2D1PBM_bzS6" resolve="result" />
          </node>
        </node>
      </node>
    </node>
    <node concept="13i0hz" id="$yZ68hB7vm" role="13h7CS">
      <property role="13i0is" value="false" />
      <property role="TrG5h" value="getExpectedReturnType" />
      <property role="13i0it" value="false" />
      <property role="13i0iv" value="false" />
      <ref role="13i0hy" to="tpek:hEwIGRD" resolve="getExpectedReturnType" />
      <node concept="3Tm1VV" id="$yZ68hB7vn" role="1B3o_S" />
      <node concept="3clFbS" id="$yZ68hB7vo" role="3clF47">
        <node concept="3cpWs6" id="$yZ68hB7vp" role="3cqZAp">
          <node concept="2c44tf" id="$yZ68hB7vl" role="3cqZAk">
            <node concept="10P_77" id="4Lb$w0Yjnvn" role="2c44tc" />
          </node>
        </node>
      </node>
      <node concept="3Tqbb2" id="$yZ68hB7vq" role="3clF45" />
    </node>
  </node>
  <node concept="13h7C7" id="59D800tSC3c">
    <property role="3GE5qa" value="Context" />
    <ref role="13h7C2" to="tp1h:59D800tSB_b" resolve="RepositoryOperation" />
    <node concept="13i0hz" id="59D800tSCfb" role="13h7CS">
      <property role="TrG5h" value="createType" />
      <property role="13i0it" value="true" />
      <ref role="13i0hy" node="65fYhwGpPk$" resolve="createType" />
      <node concept="3Tm1VV" id="59D800tSCfc" role="1B3o_S" />
      <node concept="3clFbS" id="59D800tSCfd" role="3clF47">
        <node concept="3clFbF" id="59D800tSCfe" role="3cqZAp">
          <node concept="2c44tf" id="59D800tSCff" role="3clFbG">
            <node concept="3uibUv" id="59D800tSCzk" role="2c44tc">
              <ref role="3uigEE" to="lui2:~SRepository" resolve="SRepository" />
            </node>
          </node>
        </node>
      </node>
      <node concept="3Tqbb2" id="59D800tSCfh" role="3clF45">
        <ref role="ehGHo" to="tpee:fz3vP1H" resolve="Type" />
      </node>
    </node>
    <node concept="13hLZK" id="59D800tSC3d" role="13h7CW">
      <node concept="3clFbS" id="59D800tSC3e" role="2VODD2" />
    </node>
  </node>
  <node concept="13h7C7" id="4IGpg_YjKdj">
    <ref role="13h7C2" to="tp1h:hAvlQjq" resolve="ConceptFunctionParameter_Model" />
    <node concept="13hLZK" id="4IGpg_YjKdk" role="13h7CW">
      <node concept="3clFbS" id="4IGpg_YjKdl" role="2VODD2" />
    </node>
    <node concept="13i0hz" id="4IGpg_YjKnG" role="13h7CS">
      <property role="TrG5h" value="getType" />
      <property role="13i0it" value="false" />
      <property role="13i0iv" value="false" />
      <ref role="13i0hy" to="tpek:27DJnJtIQ9C" resolve="getType" />
      <node concept="3Tm1VV" id="4IGpg_YjKnH" role="1B3o_S" />
      <node concept="3clFbS" id="4IGpg_YjKnI" role="3clF47">
        <node concept="3cpWs6" id="4IGpg_YjKnJ" role="3cqZAp">
          <node concept="2c44tf" id="4IGpg_YjKnF" role="3cqZAk">
            <node concept="H_c77" id="6$pyvmK_iPi" role="2c44tc" />
          </node>
        </node>
      </node>
      <node concept="3Tqbb2" id="4IGpg_YjKnK" role="3clF45">
        <ref role="ehGHo" to="tpee:fz3vP1H" resolve="Type" />
      </node>
    </node>
  </node>
  <node concept="13h7C7" id="4IGpg_YjLpe">
    <ref role="13h7C2" to="tp1h:hjZlhNl" resolve="ConceptFunctionParameter_SModel" />
    <node concept="13hLZK" id="4IGpg_YjLpf" role="13h7CW">
      <node concept="3clFbS" id="4IGpg_YjLpg" role="2VODD2" />
    </node>
    <node concept="13i0hz" id="4IGpg_YjLpi" role="13h7CS">
      <property role="TrG5h" value="getType" />
      <property role="13i0it" value="false" />
      <property role="13i0iv" value="false" />
      <ref role="13i0hy" to="tpek:27DJnJtIQ9C" resolve="getType" />
      <node concept="3Tm1VV" id="4IGpg_YjLpj" role="1B3o_S" />
      <node concept="3clFbS" id="4IGpg_YjLpk" role="3clF47">
        <node concept="3cpWs6" id="4IGpg_YjLpl" role="3cqZAp">
          <node concept="2c44tf" id="4IGpg_YjLph" role="3cqZAk">
            <node concept="H_c77" id="hjZlznp" role="2c44tc" />
          </node>
        </node>
      </node>
      <node concept="3Tqbb2" id="4IGpg_YjLpm" role="3clF45">
        <ref role="ehGHo" to="tpee:fz3vP1H" resolve="Type" />
      </node>
    </node>
  </node>
</model>

