<?xml version="1.0" encoding="UTF-8"?>
<model ref="r:00000000-0000-4000-0000-011c89590315(jetbrains.mps.lang.refactoring.editor)">
  <persistence version="9" />
  <languages>
    <use id="7a5dda62-9140-4668-ab76-d5ed1746f2b2" name="jetbrains.mps.lang.typesystem" version="-1" />
    <use id="7866978e-a0f0-4cc7-81bc-4d213d9375e1" name="jetbrains.mps.lang.smodel" version="-1" />
    <use id="18bc6592-03a6-4e29-a83a-7ff23bde13ba" name="jetbrains.mps.lang.editor" version="-1" />
    <use id="f3061a53-9226-4cc5-a443-f952ceaf5816" name="jetbrains.mps.baseLanguage" version="-1" />
    <devkit ref="fbc25dd2-5da4-483a-8b19-70928e1b62d7(jetbrains.mps.devkit.general-purpose)" />
  </languages>
  <imports>
    <import index="tp1h" ref="r:00000000-0000-4000-0000-011c89590319(jetbrains.mps.lang.refactoring.structure)" />
    <import index="tpck" ref="r:00000000-0000-4000-0000-011c89590288(jetbrains.mps.lang.core.structure)" />
    <import index="tpen" ref="r:00000000-0000-4000-0000-011c895902c3(jetbrains.mps.baseLanguage.editor)" />
    <import index="tp2u" ref="r:00000000-0000-4000-0000-011c8959032a(jetbrains.mps.baseLanguage.collections.editor)" />
    <import index="tpee" ref="r:00000000-0000-4000-0000-011c895902ca(jetbrains.mps.baseLanguage.structure)" />
    <import index="tpce" ref="r:00000000-0000-4000-0000-011c89590292(jetbrains.mps.lang.structure.structure)" />
    <import index="tpcu" ref="r:00000000-0000-4000-0000-011c89590282(jetbrains.mps.lang.core.behavior)" />
    <import index="tpco" ref="r:00000000-0000-4000-0000-011c89590284(jetbrains.mps.lang.core.editor)" />
  </imports>
  <registry>
    <language id="18bc6592-03a6-4e29-a83a-7ff23bde13ba" name="jetbrains.mps.lang.editor">
      <concept id="1071666914219" name="jetbrains.mps.lang.editor.structure.ConceptEditorDeclaration" flags="ig" index="24kQdi" />
      <concept id="1140524381322" name="jetbrains.mps.lang.editor.structure.CellModel_ListWithRole" flags="ng" index="2czfm3">
        <property id="1140524450554" name="vertical" index="2czwfN" />
        <property id="1140524450557" name="separatorText" index="2czwfO" />
        <child id="1140524464360" name="cellLayout" index="2czzBx" />
      </concept>
      <concept id="671290755174094691" name="jetbrains.mps.lang.editor.structure.ConceptFunctionParameter_parameterObject" flags="nn" index="2itN01" />
      <concept id="671290755174094686" name="jetbrains.mps.lang.editor.structure.QueryFunction_MethodPresentation" flags="in" index="2itN0W" />
      <concept id="1106270549637" name="jetbrains.mps.lang.editor.structure.CellLayout_Horizontal" flags="nn" index="2iRfu4" />
      <concept id="1106270571710" name="jetbrains.mps.lang.editor.structure.CellLayout_Vertical" flags="nn" index="2iRkQZ" />
      <concept id="4203201205844553978" name="jetbrains.mps.lang.editor.structure.ConceptFunctionParameter_selectedNode" flags="nn" index="jzRn0" />
      <concept id="4531786690998636238" name="jetbrains.mps.lang.editor.structure.AbstractStyledTextOperation" flags="nn" index="kdiOM">
        <child id="4531786690998636240" name="actualArgument" index="kdiOG" />
      </concept>
      <concept id="1237303669825" name="jetbrains.mps.lang.editor.structure.CellLayout_Indent" flags="nn" index="l2Vlx" />
      <concept id="1080736578640" name="jetbrains.mps.lang.editor.structure.BaseEditorComponent" flags="ig" index="2wURMF">
        <child id="1080736633877" name="cellModel" index="2wV5jI" />
      </concept>
      <concept id="7667276221847612943" name="jetbrains.mps.lang.editor.structure.QueryFunction_ParametersList" flags="in" index="2$ogOm" />
      <concept id="7667276221847612622" name="jetbrains.mps.lang.editor.structure.ParametersInformationQuery" flags="ng" index="2$ogZn">
        <reference id="4203201205843994215" name="applicableConcept" index="jxYdt" />
        <child id="671290755174161557" name="presentation" index="2iu3JR" />
        <child id="7667276221847612623" name="methods" index="2$ogZm" />
        <child id="8178273524755058633" name="type" index="3evHYT" />
        <child id="6419604448124516218" name="isMethodCurrent" index="3LVrd1" />
      </concept>
      <concept id="7667276221847570194" name="jetbrains.mps.lang.editor.structure.ParametersInformationStyleClassItem" flags="ln" index="2$oqgb">
        <reference id="8863456892852949148" name="parametersInformation" index="Bvoe9" />
      </concept>
      <concept id="1078938745671" name="jetbrains.mps.lang.editor.structure.EditorComponentDeclaration" flags="ig" index="PKFIW" />
      <concept id="1078939183254" name="jetbrains.mps.lang.editor.structure.CellModel_Component" flags="sg" stub="3162947552742194261" index="PMmxH">
        <reference id="1078939183255" name="editorComponent" index="PMmxG" />
      </concept>
      <concept id="1186403694788" name="jetbrains.mps.lang.editor.structure.ColorStyleClassItem" flags="ln" index="VaVBg">
        <property id="1186403713874" name="color" index="Vb096" />
      </concept>
      <concept id="1186404549998" name="jetbrains.mps.lang.editor.structure.ForegroundColorStyleClassItem" flags="ln" index="VechU" />
      <concept id="1186414536763" name="jetbrains.mps.lang.editor.structure.BooleanStyleSheetItem" flags="ln" index="VOi$J">
        <property id="1186414551515" name="flag" index="VOm3f" />
      </concept>
      <concept id="1186414928363" name="jetbrains.mps.lang.editor.structure.SelectableStyleSheetItem" flags="ln" index="VPM3Z" />
      <concept id="1233758997495" name="jetbrains.mps.lang.editor.structure.PunctuationLeftStyleClassItem" flags="ln" index="11L4FC" />
      <concept id="1233759184865" name="jetbrains.mps.lang.editor.structure.PunctuationRightStyleClassItem" flags="ln" index="11LMrY" />
      <concept id="280151408461567367" name="jetbrains.mps.lang.editor.structure.AppendTextOperation" flags="nn" index="33jxAZ" />
      <concept id="1088013125922" name="jetbrains.mps.lang.editor.structure.CellModel_RefCell" flags="sg" stub="730538219795941030" index="1iCGBv">
        <child id="1088186146602" name="editorComponent" index="1sWHZn" />
      </concept>
      <concept id="1381004262292414836" name="jetbrains.mps.lang.editor.structure.ICellStyle" flags="ng" index="1k5N5V">
        <reference id="1381004262292426837" name="parentStyleClass" index="1k5W1q" />
      </concept>
      <concept id="1088185857835" name="jetbrains.mps.lang.editor.structure.InlineEditorComponent" flags="ig" index="1sVBvm" />
      <concept id="4526149749187797167" name="jetbrains.mps.lang.editor.structure.ConceptFunctionParameter_StyledText" flags="nn" index="1unZQo" />
      <concept id="1139848536355" name="jetbrains.mps.lang.editor.structure.CellModel_WithRole" flags="ng" index="1$h60E">
        <property id="1214560368769" name="emptyNoTargetText" index="39s7Ar" />
        <property id="1139852716018" name="noTargetText" index="1$x2rV" />
        <property id="1140017977771" name="readOnly" index="1Intyy" />
        <reference id="1140103550593" name="relationDeclaration" index="1NtTu8" />
      </concept>
      <concept id="1073389214265" name="jetbrains.mps.lang.editor.structure.EditorCellModel" flags="ng" index="3EYTF0">
        <property id="1130859485024" name="attractsFocus" index="1cu_pB" />
      </concept>
      <concept id="1073389446423" name="jetbrains.mps.lang.editor.structure.CellModel_Collection" flags="sn" stub="3013115976261988961" index="3EZMnI">
        <property id="1073389446425" name="vertical" index="3EZMnw" />
        <child id="1106270802874" name="cellLayout" index="2iSdaV" />
        <child id="1073389446424" name="childCellModel" index="3EZMnx" />
      </concept>
      <concept id="1073389577006" name="jetbrains.mps.lang.editor.structure.CellModel_Constant" flags="sn" stub="3610246225209162225" index="3F0ifn">
        <property id="1073389577007" name="text" index="3F0ifm" />
      </concept>
      <concept id="1073389658414" name="jetbrains.mps.lang.editor.structure.CellModel_Property" flags="sg" stub="730538219796134133" index="3F0A7n" />
      <concept id="1219418625346" name="jetbrains.mps.lang.editor.structure.IStyleContainer" flags="ng" index="3F0Thp">
        <child id="1219418656006" name="styleItem" index="3F10Kt" />
      </concept>
      <concept id="1073389882823" name="jetbrains.mps.lang.editor.structure.CellModel_RefNode" flags="sg" stub="730538219795960754" index="3F1sOY" />
      <concept id="1073390211982" name="jetbrains.mps.lang.editor.structure.CellModel_RefNodeList" flags="sg" stub="2794558372793454595" index="3F2HdR" />
      <concept id="6419604448124516209" name="jetbrains.mps.lang.editor.structure.QueryFunction_IsMethodCurrent" flags="in" index="3LVrda" />
      <concept id="1166049232041" name="jetbrains.mps.lang.editor.structure.AbstractComponent" flags="ng" index="1XWOmA">
        <reference id="1166049300910" name="conceptDeclaration" index="1XX52x" />
      </concept>
      <concept id="3903367331818357915" name="jetbrains.mps.lang.editor.structure.StyledTextType" flags="in" index="1YN$XN" />
    </language>
    <language id="f3061a53-9226-4cc5-a443-f952ceaf5816" name="jetbrains.mps.baseLanguage">
      <concept id="1215693861676" name="jetbrains.mps.baseLanguage.structure.BaseAssignmentExpression" flags="nn" index="d038R">
        <child id="1068498886297" name="rValue" index="37vLTx" />
        <child id="1068498886295" name="lValue" index="37vLTJ" />
      </concept>
      <concept id="1154032098014" name="jetbrains.mps.baseLanguage.structure.AbstractLoopStatement" flags="nn" index="2LF5Ji">
        <child id="1154032183016" name="body" index="2LFqv$" />
      </concept>
      <concept id="1197027756228" name="jetbrains.mps.baseLanguage.structure.DotExpression" flags="nn" index="2OqwBi">
        <child id="1197027771414" name="operand" index="2Oq$k0" />
        <child id="1197027833540" name="operation" index="2OqNvi" />
      </concept>
      <concept id="1145552977093" name="jetbrains.mps.baseLanguage.structure.GenericNewExpression" flags="nn" index="2ShNRf">
        <child id="1145553007750" name="creator" index="2ShVmc" />
      </concept>
      <concept id="1137021947720" name="jetbrains.mps.baseLanguage.structure.ConceptFunction" flags="in" index="2VMwT0">
        <child id="1137022507850" name="body" index="2VODD2" />
      </concept>
      <concept id="1070475926800" name="jetbrains.mps.baseLanguage.structure.StringLiteral" flags="nn" index="Xl_RD">
        <property id="1070475926801" name="value" index="Xl_RC" />
      </concept>
      <concept id="1081236700938" name="jetbrains.mps.baseLanguage.structure.StaticMethodDeclaration" flags="ig" index="2YIFZL" />
      <concept id="1081236700937" name="jetbrains.mps.baseLanguage.structure.StaticMethodCall" flags="nn" index="2YIFZM">
        <reference id="1144433194310" name="classConcept" index="1Pybhc" />
      </concept>
      <concept id="1070534644030" name="jetbrains.mps.baseLanguage.structure.BooleanType" flags="in" index="10P_77" />
      <concept id="1068390468198" name="jetbrains.mps.baseLanguage.structure.ClassConcept" flags="ig" index="312cEu" />
      <concept id="1068431474542" name="jetbrains.mps.baseLanguage.structure.VariableDeclaration" flags="ng" index="33uBYm">
        <child id="1068431790190" name="initializer" index="33vP2m" />
      </concept>
      <concept id="1068498886296" name="jetbrains.mps.baseLanguage.structure.VariableReference" flags="nn" index="37vLTw">
        <reference id="1068581517664" name="variableDeclaration" index="3cqZAo" />
      </concept>
      <concept id="1068498886292" name="jetbrains.mps.baseLanguage.structure.ParameterDeclaration" flags="ir" index="37vLTG" />
      <concept id="1068498886294" name="jetbrains.mps.baseLanguage.structure.AssignmentExpression" flags="nn" index="37vLTI" />
      <concept id="1225271177708" name="jetbrains.mps.baseLanguage.structure.StringType" flags="in" index="17QB3L" />
      <concept id="4972933694980447171" name="jetbrains.mps.baseLanguage.structure.BaseVariableDeclaration" flags="ng" index="19Szcq">
        <child id="5680397130376446158" name="type" index="1tU5fm" />
      </concept>
      <concept id="1068580123132" name="jetbrains.mps.baseLanguage.structure.BaseMethodDeclaration" flags="ng" index="3clF44">
        <child id="1068580123133" name="returnType" index="3clF45" />
        <child id="1068580123134" name="parameter" index="3clF46" />
        <child id="1068580123135" name="body" index="3clF47" />
      </concept>
      <concept id="1068580123155" name="jetbrains.mps.baseLanguage.structure.ExpressionStatement" flags="nn" index="3clFbF">
        <child id="1068580123156" name="expression" index="3clFbG" />
      </concept>
      <concept id="1068580123159" name="jetbrains.mps.baseLanguage.structure.IfStatement" flags="nn" index="3clFbJ">
        <child id="1068580123160" name="condition" index="3clFbw" />
        <child id="1068580123161" name="ifTrue" index="3clFbx" />
        <child id="1206060520071" name="elsifClauses" index="3eNLev" />
      </concept>
      <concept id="1068580123136" name="jetbrains.mps.baseLanguage.structure.StatementList" flags="sn" stub="5293379017992965193" index="3clFbS">
        <child id="1068581517665" name="statement" index="3cqZAp" />
      </concept>
      <concept id="1068580123137" name="jetbrains.mps.baseLanguage.structure.BooleanConstant" flags="nn" index="3clFbT">
        <property id="1068580123138" name="value" index="3clFbU" />
      </concept>
      <concept id="1068580123140" name="jetbrains.mps.baseLanguage.structure.ConstructorDeclaration" flags="ig" index="3clFbW" />
      <concept id="1068581242875" name="jetbrains.mps.baseLanguage.structure.PlusExpression" flags="nn" index="3cpWs3" />
      <concept id="1068581242864" name="jetbrains.mps.baseLanguage.structure.LocalVariableDeclarationStatement" flags="nn" index="3cpWs8">
        <child id="1068581242865" name="localVariableDeclaration" index="3cpWs9" />
      </concept>
      <concept id="1068581242863" name="jetbrains.mps.baseLanguage.structure.LocalVariableDeclaration" flags="nr" index="3cpWsn" />
      <concept id="1068581517677" name="jetbrains.mps.baseLanguage.structure.VoidType" flags="in" index="3cqZAl" />
      <concept id="1206060495898" name="jetbrains.mps.baseLanguage.structure.ElsifClause" flags="ng" index="3eNFk2">
        <child id="1206060619838" name="condition" index="3eO9$A" />
        <child id="1206060644605" name="statementList" index="3eOfB_" />
      </concept>
      <concept id="1079359253375" name="jetbrains.mps.baseLanguage.structure.ParenthesizedExpression" flags="nn" index="1eOMI4">
        <child id="1079359253376" name="expression" index="1eOMHV" />
      </concept>
      <concept id="1204053956946" name="jetbrains.mps.baseLanguage.structure.IMethodCall" flags="ng" index="1ndlxa">
        <reference id="1068499141037" name="baseMethodDeclaration" index="37wK5l" />
        <child id="1068499141038" name="actualArgument" index="37wK5m" />
      </concept>
      <concept id="1107461130800" name="jetbrains.mps.baseLanguage.structure.Classifier" flags="ng" index="3pOWGL">
        <child id="5375687026011219971" name="member" index="jymVt" unordered="true" />
      </concept>
      <concept id="1081773326031" name="jetbrains.mps.baseLanguage.structure.BinaryOperation" flags="nn" index="3uHJSO">
        <child id="1081773367579" name="rightExpression" index="3uHU7w" />
        <child id="1081773367580" name="leftExpression" index="3uHU7B" />
      </concept>
      <concept id="1178549954367" name="jetbrains.mps.baseLanguage.structure.IVisible" flags="ng" index="1B3ioH">
        <child id="1178549979242" name="visibility" index="1B3o_S" />
      </concept>
      <concept id="1163668896201" name="jetbrains.mps.baseLanguage.structure.TernaryOperatorExpression" flags="nn" index="3K4zz7">
        <child id="1163668914799" name="condition" index="3K4Cdx" />
        <child id="1163668922816" name="ifTrue" index="3K4E3e" />
        <child id="1163668934364" name="ifFalse" index="3K4GZi" />
      </concept>
      <concept id="1146644602865" name="jetbrains.mps.baseLanguage.structure.PublicVisibility" flags="nn" index="3Tm1VV" />
    </language>
    <language id="7866978e-a0f0-4cc7-81bc-4d213d9375e1" name="jetbrains.mps.lang.smodel">
      <concept id="1177026924588" name="jetbrains.mps.lang.smodel.structure.RefConcept_Reference" flags="nn" index="chp4Y">
        <reference id="1177026940964" name="conceptDeclaration" index="cht4Q" />
      </concept>
      <concept id="1179409122411" name="jetbrains.mps.lang.smodel.structure.Node_ConceptMethodCall" flags="nn" index="2qgKlT" />
      <concept id="2396822768958367367" name="jetbrains.mps.lang.smodel.structure.AbstractTypeCastExpression" flags="nn" index="$5XWr">
        <reference id="6733348108486823428" name="concept" index="1m5ApE" />
        <child id="6733348108486823193" name="leftExpression" index="1m5AlR" />
      </concept>
      <concept id="1139621453865" name="jetbrains.mps.lang.smodel.structure.Node_IsInstanceOfOperation" flags="nn" index="1mIQ4w">
        <child id="1177027386292" name="conceptArgument" index="cj9EA" />
      </concept>
      <concept id="1172323065820" name="jetbrains.mps.lang.smodel.structure.Node_GetConceptOperation" flags="nn" index="3NT_Vc" />
      <concept id="1140137987495" name="jetbrains.mps.lang.smodel.structure.SNodeTypeCastExpression" flags="nn" index="1PxgMI" />
      <concept id="1138055754698" name="jetbrains.mps.lang.smodel.structure.SNodeType" flags="in" index="3Tqbb2">
        <reference id="1138405853777" name="concept" index="ehGHo" />
      </concept>
      <concept id="1138056022639" name="jetbrains.mps.lang.smodel.structure.SPropertyAccess" flags="nn" index="3TrcHB">
        <reference id="1138056395725" name="property" index="3TsBF5" />
      </concept>
      <concept id="1138056143562" name="jetbrains.mps.lang.smodel.structure.SLinkAccess" flags="nn" index="3TrEf2">
        <reference id="1138056516764" name="link" index="3Tt5mk" />
      </concept>
      <concept id="1138056282393" name="jetbrains.mps.lang.smodel.structure.SLinkListAccess" flags="nn" index="3Tsc0h">
        <reference id="1138056546658" name="link" index="3TtcxE" />
      </concept>
    </language>
    <language id="ceab5195-25ea-4f22-9b92-103b95ca8c0c" name="jetbrains.mps.lang.core">
      <concept id="1133920641626" name="jetbrains.mps.lang.core.structure.BaseConcept" flags="ng" index="2VYdi">
        <property id="1193676396447" name="virtualPackage" index="3GE5qa" />
      </concept>
      <concept id="1169194658468" name="jetbrains.mps.lang.core.structure.INamedConcept" flags="ng" index="TrEIO">
        <property id="1169194664001" name="name" index="TrG5h" />
      </concept>
    </language>
    <language id="83888646-71ce-4f1c-9c53-c54016f6ad4f" name="jetbrains.mps.baseLanguage.collections">
      <concept id="1153943597977" name="jetbrains.mps.baseLanguage.collections.structure.ForEachStatement" flags="nn" index="2Gpval">
        <child id="1153944400369" name="variable" index="2Gsz3X" />
        <child id="1153944424730" name="inputSequence" index="2GsD0m" />
      </concept>
      <concept id="1153944193378" name="jetbrains.mps.baseLanguage.collections.structure.ForEachVariable" flags="nr" index="2GrKxI" />
      <concept id="1153944233411" name="jetbrains.mps.baseLanguage.collections.structure.ForEachVariableReference" flags="nn" index="2GrUjf">
        <reference id="1153944258490" name="variable" index="2Gs0qQ" />
      </concept>
      <concept id="1235573135402" name="jetbrains.mps.baseLanguage.collections.structure.SingletonSequenceCreator" flags="nn" index="2HTt$P">
        <child id="1235573175711" name="elementType" index="2HTBi0" />
        <child id="1235573187520" name="singletonValue" index="2HTEbv" />
      </concept>
    </language>
  </registry>
  <node concept="24kQdi" id="hsgMjkv">
    <ref role="1XX52x" to="tp1h:hsgLPLR" resolve="UpdateModelProcedure" />
    <node concept="3EZMnI" id="hsgMkkM" role="2wV5jI">
      <node concept="3F0ifn" id="hsgMlzw" role="3EZMnx">
        <property role="3F0ifm" value="updateModel(" />
        <ref role="1k5W1q" to="tpen:hgVS8CF" resolve="KeyWord" />
      </node>
      <node concept="3F1sOY" id="hsgMmez" role="3EZMnx">
        <ref role="1NtTu8" to="tp1h:hsgM3hf" />
      </node>
      <node concept="3F0ifn" id="hsgMmKz" role="3EZMnx">
        <property role="3F0ifm" value=")" />
        <ref role="1k5W1q" to="tpen:hgVS8CF" resolve="KeyWord" />
      </node>
      <node concept="3F0ifn" id="2RjnwerwssA" role="3EZMnx">
        <property role="3F0ifm" value=";" />
      </node>
      <node concept="l2Vlx" id="i0No5Fj" role="2iSdaV" />
    </node>
  </node>
  <node concept="24kQdi" id="hteVx8h">
    <property role="3GE5qa" value="RefActions" />
    <ref role="1XX52x" to="tp1h:hteSWhS" resolve="AbstractMoveExpression" />
    <node concept="3EZMnI" id="hteVxza" role="2wV5jI">
      <property role="3EZMnw" value="false" />
      <node concept="PMmxH" id="2wdLO7KhY1q" role="3EZMnx">
        <property role="1cu_pB" value="0" />
        <ref role="PMmxG" to="tpco:2wZex4PafBj" resolve="alias" />
        <ref role="1k5W1q" to="tpen:hgVS8CF" resolve="KeyWord" />
      </node>
      <node concept="3F1sOY" id="hteVxzd" role="3EZMnx">
        <ref role="1NtTu8" to="tp1h:hteT4F2" />
      </node>
      <node concept="3F0ifn" id="hteVxze" role="3EZMnx">
        <property role="3F0ifm" value="to" />
        <ref role="1k5W1q" to="tpen:hgVS8CF" resolve="KeyWord" />
      </node>
      <node concept="3F1sOY" id="hteVxzf" role="3EZMnx">
        <ref role="1NtTu8" to="tp1h:hteT4F3" />
      </node>
      <node concept="l2Vlx" id="i0No_Vm" role="2iSdaV" />
    </node>
  </node>
  <node concept="24kQdi" id="hteX$Qs">
    <property role="3GE5qa" value="RefActions" />
    <ref role="1XX52x" to="tp1h:hteXot9" resolve="MoveNodeToNodeExpression" />
    <node concept="3EZMnI" id="hteX_bY" role="2wV5jI">
      <property role="3EZMnw" value="false" />
      <node concept="3F0ifn" id="hteX_bZ" role="3EZMnx">
        <property role="3F0ifm" value="moveNode" />
        <ref role="1k5W1q" to="tpen:hgVS8CF" resolve="KeyWord" />
      </node>
      <node concept="3F1sOY" id="hteX_c0" role="3EZMnx">
        <ref role="1NtTu8" to="tp1h:hteT4F2" />
      </node>
      <node concept="3F0ifn" id="hteX_c1" role="3EZMnx">
        <property role="3F0ifm" value="to" />
        <ref role="1k5W1q" to="tpen:hgVS8CF" resolve="KeyWord" />
      </node>
      <node concept="3F1sOY" id="hteX_c2" role="3EZMnx">
        <ref role="1NtTu8" to="tp1h:hteT4F3" />
      </node>
      <node concept="3F0ifn" id="hteX_c3" role="3EZMnx">
        <property role="3F0ifm" value="withRole" />
        <ref role="1k5W1q" to="tpen:hgVS8CF" resolve="KeyWord" />
      </node>
      <node concept="3F1sOY" id="hteX_c4" role="3EZMnx">
        <ref role="1NtTu8" to="tp1h:hteXBIu" />
      </node>
      <node concept="l2Vlx" id="i0NoCxB" role="2iSdaV" />
    </node>
  </node>
  <node concept="24kQdi" id="hteYVKb">
    <property role="3GE5qa" value="RefActions" />
    <ref role="1XX52x" to="tp1h:hteYDmx" resolve="MoveNodesToNodeExpression" />
    <node concept="3EZMnI" id="hteYWbN" role="2wV5jI">
      <property role="3EZMnw" value="false" />
      <node concept="3F0ifn" id="hteYWbO" role="3EZMnx">
        <property role="3F0ifm" value="moveNodes" />
        <ref role="1k5W1q" to="tpen:hgVS8CF" resolve="KeyWord" />
      </node>
      <node concept="3F1sOY" id="hteYWbP" role="3EZMnx">
        <ref role="1NtTu8" to="tp1h:hteT4F2" />
      </node>
      <node concept="3F0ifn" id="hteYWbQ" role="3EZMnx">
        <property role="3F0ifm" value="to" />
        <ref role="1k5W1q" to="tpen:hgVS8CF" resolve="KeyWord" />
      </node>
      <node concept="3F1sOY" id="hteYWbR" role="3EZMnx">
        <ref role="1NtTu8" to="tp1h:hteT4F3" />
      </node>
      <node concept="3F0ifn" id="hteYWbS" role="3EZMnx">
        <property role="3F0ifm" value="withRole" />
        <ref role="1k5W1q" to="tpen:hgVS8CF" resolve="KeyWord" />
      </node>
      <node concept="3F1sOY" id="hteYWbT" role="3EZMnx">
        <ref role="1NtTu8" to="tp1h:hteYMGL" />
      </node>
      <node concept="2iRfu4" id="i2ICk_V" role="2iSdaV" />
    </node>
  </node>
  <node concept="24kQdi" id="5YKiRiBueb$">
    <property role="3GE5qa" value="RefDecl" />
    <ref role="1XX52x" to="tp1h:5YKiRiBue95" resolve="Refactoring" />
    <node concept="3EZMnI" id="4Lb$w0YjnxY" role="2wV5jI">
      <property role="3EZMnw" value="true" />
      <node concept="3EZMnI" id="4Lb$w0YjnxZ" role="3EZMnx">
        <property role="3EZMnw" value="false" />
        <node concept="3F0ifn" id="4Lb$w0Yjny0" role="3EZMnx">
          <property role="3F0ifm" value="refactoring" />
        </node>
        <node concept="3F0A7n" id="4Lb$w0Yjny1" role="3EZMnx">
          <property role="1$x2rV" value="&lt;no name&gt;" />
          <ref role="1NtTu8" to="tpck:h0TrG11" resolve="name" />
        </node>
        <node concept="3F0ifn" id="4Lb$w0Yjny2" role="3EZMnx">
          <property role="3F0ifm" value="(" />
          <ref role="1k5W1q" to="tpen:i177PM9" resolve="Matching" />
        </node>
        <node concept="3F0A7n" id="4Lb$w0Yjny3" role="3EZMnx">
          <property role="1$x2rV" value="&lt;no caption&gt;" />
          <ref role="1NtTu8" to="tp1h:5YKiRiBuebj" resolve="userFriendlyName" />
          <ref role="1k5W1q" to="tpen:hgVSdfU" resolve="StringLiteral" />
          <node concept="VechU" id="4Lb$w0Yjny4" role="3F10Kt">
            <property role="Vb096" value="DARK_GREEN" />
          </node>
        </node>
        <node concept="3F0ifn" id="4Lb$w0Yjny5" role="3EZMnx">
          <property role="3F0ifm" value=")" />
          <ref role="1k5W1q" to="tpen:i177PM9" resolve="Matching" />
        </node>
        <node concept="3F0ifn" id="4Lb$w0Yjny6" role="3EZMnx">
          <property role="3F0ifm" value="overrides" />
          <ref role="1k5W1q" to="tpen:hgVS8CF" resolve="KeyWord" />
        </node>
        <node concept="1iCGBv" id="4Lb$w0Yjny7" role="3EZMnx">
          <property role="1$x2rV" value="&lt;nothing&gt;" />
          <ref role="1NtTu8" to="tp1h:5YKiRiBuebz" />
          <node concept="1sVBvm" id="4Lb$w0Yjny8" role="1sWHZn">
            <node concept="3F0A7n" id="4Lb$w0Yjny9" role="2wV5jI">
              <property role="1Intyy" value="true" />
              <ref role="1NtTu8" to="tpck:h0TrG11" resolve="name" />
            </node>
          </node>
        </node>
        <node concept="VPM3Z" id="4Lb$w0Yjnya" role="3F10Kt">
          <property role="VOm3f" value="false" />
        </node>
        <node concept="2iRfu4" id="4Lb$w0Yjnyb" role="2iSdaV" />
      </node>
      <node concept="3EZMnI" id="4Lb$w0Yjnyc" role="3EZMnx">
        <property role="3EZMnw" value="false" />
        <node concept="3F0ifn" id="4Lb$w0Yjnyd" role="3EZMnx">
          <property role="3F0ifm" value="target:" />
        </node>
        <node concept="3F1sOY" id="4Lb$w0Yjnye" role="3EZMnx">
          <property role="39s7Ar" value="false" />
          <ref role="1NtTu8" to="tp1h:5YKiRiBuwpm" />
        </node>
        <node concept="VPM3Z" id="4Lb$w0Yjnyf" role="3F10Kt">
          <property role="VOm3f" value="false" />
        </node>
        <node concept="2iRfu4" id="4Lb$w0Yjnyg" role="2iSdaV" />
      </node>
      <node concept="3F0ifn" id="4Lb$w0Yjnyu" role="3EZMnx">
        <property role="3F0ifm" value="" />
        <node concept="VPM3Z" id="4Lb$w0Yjnyv" role="3F10Kt">
          <property role="VOm3f" value="false" />
        </node>
      </node>
      <node concept="3F0ifn" id="4Lb$w0Yjnyw" role="3EZMnx">
        <property role="3F0ifm" value="parameters:" />
      </node>
      <node concept="3F2HdR" id="4Lb$w0Yjnyx" role="3EZMnx">
        <property role="2czwfN" value="true" />
        <ref role="1NtTu8" to="tp1h:5YKiRiBuebo" />
        <node concept="2iRkQZ" id="4Lb$w0Yjnyy" role="2czzBx" />
      </node>
      <node concept="3F0ifn" id="4Lb$w0Yjnyz" role="3EZMnx">
        <node concept="VPM3Z" id="4Lb$w0Yjny$" role="3F10Kt">
          <property role="VOm3f" value="false" />
        </node>
      </node>
      <node concept="3F0ifn" id="4Lb$w0Yjny_" role="3EZMnx">
        <property role="3F0ifm" value="internal fields:" />
      </node>
      <node concept="3F2HdR" id="4Lb$w0YjnyA" role="3EZMnx">
        <property role="2czwfN" value="true" />
        <ref role="1NtTu8" to="tp1h:5YKiRiBuebp" />
        <node concept="2iRkQZ" id="4Lb$w0YjnyB" role="2czzBx" />
      </node>
      <node concept="3F0ifn" id="4Lb$w0YjnyC" role="3EZMnx">
        <node concept="VPM3Z" id="4Lb$w0YjnyD" role="3F10Kt">
          <property role="VOm3f" value="false" />
        </node>
      </node>
      <node concept="3F1sOY" id="4Lb$w0YjnyE" role="3EZMnx">
        <property role="1$x2rV" value="&lt;no init block&gt;" />
        <ref role="1NtTu8" to="tp1h:4Lb$w0Yjnvo" />
      </node>
      <node concept="3F0ifn" id="2vjx7T3SKWF" role="3EZMnx">
        <node concept="VPM3Z" id="2vjx7T3SKWG" role="3F10Kt">
          <property role="VOm3f" value="false" />
        </node>
      </node>
      <node concept="3F1sOY" id="2vjx7T3SKWC" role="3EZMnx">
        <property role="1$x2rV" value="&lt;affected nodes&gt;" />
        <ref role="1NtTu8" to="tp1h:1aNzB2zUQ0B" />
      </node>
      <node concept="3F0ifn" id="4Lb$w0YjnyF" role="3EZMnx">
        <node concept="VPM3Z" id="4Lb$w0YjnyG" role="3F10Kt">
          <property role="VOm3f" value="false" />
        </node>
      </node>
      <node concept="3F1sOY" id="4Lb$w0YjnyN" role="3EZMnx">
        <ref role="1NtTu8" to="tp1h:5YKiRiBuebt" />
      </node>
      <node concept="3F0ifn" id="1Mi4csyrrJV" role="3EZMnx">
        <node concept="VPM3Z" id="1Mi4csyrrJW" role="3F10Kt">
          <property role="VOm3f" value="false" />
        </node>
      </node>
      <node concept="3F1sOY" id="yernCaFKm4" role="3EZMnx">
        <ref role="1NtTu8" to="tp1h:yernCaFpFv" />
      </node>
      <node concept="3F0ifn" id="yernCaFKm2" role="3EZMnx">
        <node concept="VPM3Z" id="yernCaFKm3" role="3F10Kt">
          <property role="VOm3f" value="false" />
        </node>
      </node>
      <node concept="3F1sOY" id="1Mi4csyrrJU" role="3EZMnx">
        <ref role="1NtTu8" to="tp1h:1Mi4csyrrJT" />
      </node>
      <node concept="2iRkQZ" id="4Lb$w0YjnyR" role="2iSdaV" />
    </node>
  </node>
  <node concept="24kQdi" id="4Lb$w0Yjnvr">
    <property role="3GE5qa" value="RefDecl.Arg.Parameters" />
    <ref role="1XX52x" to="tp1h:5YKiRiBuwp$" resolve="RefactoringParameter" />
    <node concept="3EZMnI" id="4Lb$w0YkhmX" role="2wV5jI">
      <property role="3EZMnw" value="false" />
      <node concept="3F0A7n" id="4Lb$w0YkhmY" role="3EZMnx">
        <ref role="1NtTu8" to="tpck:h0TrG11" resolve="name" />
        <node concept="VechU" id="4Lb$w0YkhmZ" role="3F10Kt">
          <property role="Vb096" value="DARK_MAGENTA" />
        </node>
      </node>
      <node concept="3F0ifn" id="5aFM5Vek6Om" role="3EZMnx">
        <property role="3F0ifm" value=":" />
      </node>
      <node concept="3F1sOY" id="5aFM5Vek6Oo" role="3EZMnx">
        <ref role="1NtTu8" to="tpee:4VkOLwjf83e" />
      </node>
      <node concept="2iRfu4" id="4Lb$w0Ykhn2" role="2iSdaV" />
    </node>
  </node>
  <node concept="24kQdi" id="4Lb$w0Ykhn3">
    <property role="3GE5qa" value="RefDecl.Arg.Parameters" />
    <ref role="1XX52x" to="tp1h:5YKiRiBvdC6" resolve="RefactoringParameterReference" />
    <node concept="1iCGBv" id="4Lb$w0Ykhn5" role="2wV5jI">
      <ref role="1NtTu8" to="tp1h:5YKiRiBvdC7" />
      <node concept="1sVBvm" id="4Lb$w0Ykhn6" role="1sWHZn">
        <node concept="3F0A7n" id="4Lb$w0Ykhn8" role="2wV5jI">
          <property role="1Intyy" value="true" />
          <ref role="1NtTu8" to="tpck:h0TrG11" resolve="name" />
        </node>
      </node>
    </node>
  </node>
  <node concept="PKFIW" id="39JZRIUdntN">
    <property role="TrG5h" value="RefactoringTarget" />
    <property role="3GE5qa" value="RefDecl.Target" />
    <ref role="1XX52x" to="tp1h:5YKiRiBuwlD" resolve="RefactoringTarget" />
    <node concept="3EZMnI" id="39JZRIUdntP" role="2wV5jI">
      <node concept="3EZMnI" id="39JZRIUdntV" role="3EZMnx">
        <node concept="VPM3Z" id="39JZRIUdntW" role="3F10Kt">
          <property role="VOm3f" value="false" />
        </node>
        <node concept="3F0ifn" id="39JZRIUdntX" role="3EZMnx">
          <property role="3F0ifm" value="allow multiple:" />
        </node>
        <node concept="3F0A7n" id="39JZRIUdntY" role="3EZMnx">
          <ref role="1NtTu8" to="tp1h:5YKiRiBuwpn" resolve="allowMultiple" />
        </node>
        <node concept="2iRfu4" id="39JZRIUdntZ" role="2iSdaV" />
      </node>
      <node concept="3F1sOY" id="39JZRIUdnu0" role="3EZMnx">
        <property role="1$x2rV" value="&lt;applicable=true&gt;" />
        <ref role="1NtTu8" to="tp1h:4Lb$w0Yjnwn" />
      </node>
      <node concept="2iRkQZ" id="39JZRIUdnu1" role="2iSdaV" />
    </node>
  </node>
  <node concept="24kQdi" id="39JZRIUdnu2">
    <property role="3GE5qa" value="RefDecl.Target.Node" />
    <ref role="1XX52x" to="tp1h:5YKiRiBuwlG" resolve="NodeTarget" />
    <node concept="3EZMnI" id="39JZRIUdnu4" role="2wV5jI">
      <node concept="3EZMnI" id="39JZRIUdnu7" role="3EZMnx">
        <node concept="VPM3Z" id="39JZRIUdnu8" role="3F10Kt">
          <property role="VOm3f" value="false" />
        </node>
        <node concept="3F0ifn" id="39JZRIUdnu9" role="3EZMnx">
          <property role="3F0ifm" value="node" />
          <ref role="1k5W1q" to="tpen:hgVS8CF" resolve="KeyWord" />
        </node>
        <node concept="3F0ifn" id="2Rjnwerwss$" role="3EZMnx">
          <property role="3F0ifm" value="&lt;" />
          <ref role="1k5W1q" to="tp2u:hGdWaJB" resolve="RightAngleBracket" />
          <node concept="11LMrY" id="2RjnwerygUK" role="3F10Kt">
            <property role="VOm3f" value="true" />
          </node>
        </node>
        <node concept="1iCGBv" id="39JZRIUdnuF" role="3EZMnx">
          <property role="1$x2rV" value="any" />
          <ref role="1NtTu8" to="tp1h:5YKiRiBuwmm" />
          <node concept="1sVBvm" id="39JZRIUdnuG" role="1sWHZn">
            <node concept="3F0A7n" id="39JZRIUdnuI" role="2wV5jI">
              <property role="1Intyy" value="true" />
              <ref role="1NtTu8" to="tpck:h0TrG11" resolve="name" />
            </node>
          </node>
        </node>
        <node concept="3F0ifn" id="39JZRIUdnuD" role="3EZMnx">
          <property role="3F0ifm" value="&gt;" />
          <ref role="1k5W1q" to="tp2u:hGdV7pS" resolve="LeftAngleBracket" />
        </node>
        <node concept="2iRfu4" id="39JZRIUdnub" role="2iSdaV" />
      </node>
      <node concept="PMmxH" id="39JZRIUdnud" role="3EZMnx">
        <ref role="PMmxG" node="39JZRIUdntN" resolve="RefactoringTarget" />
      </node>
      <node concept="2iRkQZ" id="39JZRIUdnu6" role="2iSdaV" />
    </node>
  </node>
  <node concept="24kQdi" id="39JZRIUdnue">
    <property role="3GE5qa" value="RefDecl.Target.Module" />
    <ref role="1XX52x" to="tp1h:5YKiRiBuwlF" resolve="ModuleTarget" />
    <node concept="3EZMnI" id="39JZRIUdnug" role="2wV5jI">
      <node concept="3EZMnI" id="39JZRIUdnuh" role="3EZMnx">
        <node concept="VPM3Z" id="39JZRIUdnui" role="3F10Kt">
          <property role="VOm3f" value="false" />
        </node>
        <node concept="3F0ifn" id="2Rjnwerwssv" role="3EZMnx">
          <property role="3F0ifm" value="module" />
          <ref role="1k5W1q" to="tpen:hgVS8CF" resolve="KeyWord" />
        </node>
        <node concept="3F0ifn" id="2Rjnwerwssy" role="3EZMnx">
          <property role="3F0ifm" value="&lt;" />
          <ref role="1k5W1q" to="tp2u:hGdV7pS" resolve="LeftAngleBracket" />
          <node concept="11LMrY" id="2RjnweryjcB" role="3F10Kt">
            <property role="VOm3f" value="true" />
          </node>
        </node>
        <node concept="3F1sOY" id="39JZRIUdnuB" role="3EZMnx">
          <ref role="1NtTu8" to="tp1h:5YKiRiBuwlJ" />
        </node>
        <node concept="3F0ifn" id="39JZRIUdnu_" role="3EZMnx">
          <property role="3F0ifm" value="&gt;" />
          <ref role="1k5W1q" to="tp2u:hGdWaJB" resolve="RightAngleBracket" />
        </node>
        <node concept="2iRfu4" id="39JZRIUdnuk" role="2iSdaV" />
      </node>
      <node concept="PMmxH" id="39JZRIUdnul" role="3EZMnx">
        <ref role="PMmxG" node="39JZRIUdntN" resolve="RefactoringTarget" />
      </node>
      <node concept="2iRkQZ" id="39JZRIUdnum" role="2iSdaV" />
    </node>
  </node>
  <node concept="24kQdi" id="39JZRIUdnun">
    <property role="3GE5qa" value="RefDecl.Target.Model" />
    <ref role="1XX52x" to="tp1h:5YKiRiBuwlE" resolve="ModelTarget" />
    <node concept="3EZMnI" id="39JZRIUdnup" role="2wV5jI">
      <node concept="3F0ifn" id="2Rjnwerwssk" role="3EZMnx">
        <property role="3F0ifm" value="model" />
        <ref role="1k5W1q" to="tpen:hgVS8CF" resolve="KeyWord" />
      </node>
      <node concept="PMmxH" id="39JZRIUdnuu" role="3EZMnx">
        <ref role="PMmxG" node="39JZRIUdntN" resolve="RefactoringTarget" />
      </node>
      <node concept="2iRkQZ" id="39JZRIUdnuv" role="2iSdaV" />
    </node>
  </node>
  <node concept="24kQdi" id="6Tyhu1FomBK">
    <property role="3GE5qa" value="Context" />
    <ref role="1XX52x" to="tp1h:6Tyhu1FomhH" resolve="ContextMemberOperation" />
    <node concept="PMmxH" id="2wdLO7KhYbb" role="2wV5jI">
      <property role="1cu_pB" value="0" />
      <ref role="PMmxG" to="tpco:2wZex4PafBj" resolve="alias" />
      <ref role="1k5W1q" to="tpen:hshQ_OE" resolve="Field" />
    </node>
  </node>
  <node concept="24kQdi" id="6Tyhu1Fprxb">
    <property role="3GE5qa" value="Context" />
    <ref role="1XX52x" to="tp1h:6Tyhu1Fprxa" resolve="ContextType" />
    <node concept="PMmxH" id="2wdLO7KhYc$" role="2wV5jI">
      <property role="1cu_pB" value="0" />
      <ref role="PMmxG" to="tpco:2wZex4PafBj" resolve="alias" />
      <ref role="1k5W1q" to="tpen:hgVS8CF" resolve="KeyWord" />
    </node>
  </node>
  <node concept="24kQdi" id="3LlWHEPrkgv">
    <property role="3GE5qa" value="RefDecl.Methods" />
    <ref role="1XX52x" to="tp1h:3LlWHEPrkgt" resolve="ModelsToGenerateByDefault" />
    <node concept="3EZMnI" id="3LlWHEPrw2L" role="2wV5jI">
      <node concept="l2Vlx" id="3LlWHEPrw2M" role="2iSdaV" />
      <node concept="3F0ifn" id="3LlWHEPrw2N" role="3EZMnx">
        <property role="3F0ifm" value="models from usages" />
      </node>
    </node>
  </node>
  <node concept="24kQdi" id="3ds86G2J2RB">
    <property role="3GE5qa" value="Context" />
    <ref role="1XX52x" to="tp1h:3ds86G2J2R_" resolve="CreateRefactoringContext" />
    <node concept="3EZMnI" id="3ds86G2Jjip" role="2wV5jI">
      <node concept="PMmxH" id="2wdLO7KhY83" role="3EZMnx">
        <property role="1cu_pB" value="0" />
        <ref role="PMmxG" to="tpco:2wZex4PafBj" resolve="alias" />
        <ref role="1k5W1q" to="tpen:hgVS8CF" resolve="KeyWord" />
      </node>
      <node concept="3F0ifn" id="4u35A5__3Mu" role="3EZMnx">
        <property role="3F0ifm" value="&lt;" />
        <ref role="1k5W1q" to="tp2u:hGdV7pS" resolve="LeftAngleBracket" />
      </node>
      <node concept="1iCGBv" id="3ds86G2JjiH" role="3EZMnx">
        <ref role="1NtTu8" to="tp1h:3ds86G2JjiE" />
        <node concept="1sVBvm" id="3ds86G2JjiI" role="1sWHZn">
          <node concept="3F0A7n" id="3ds86G2JjiK" role="2wV5jI">
            <property role="1Intyy" value="true" />
            <ref role="1NtTu8" to="tpck:h0TrG11" resolve="name" />
          </node>
        </node>
      </node>
      <node concept="3F0ifn" id="4u35A5__3Ms" role="3EZMnx">
        <property role="3F0ifm" value="&gt;" />
        <ref role="1k5W1q" to="tp2u:hGdWaJB" resolve="RightAngleBracket" />
      </node>
      <node concept="3F0ifn" id="3ds86G2Jut3" role="3EZMnx">
        <property role="3F0ifm" value="(" />
        <ref role="1k5W1q" to="tpen:hY9fg1G" resolve="LeftParenAfterName" />
      </node>
      <node concept="3F1sOY" id="3ds86G2Jut6" role="3EZMnx">
        <ref role="1NtTu8" to="tp1h:3ds86G2Jut5" />
        <ref role="1k5W1q" to="tpen:hshT2l5" resolve="Parameter" />
      </node>
      <node concept="3F0ifn" id="6nthb2Jwq29" role="3EZMnx">
        <property role="3F0ifm" value=":" />
      </node>
      <node concept="3F1sOY" id="6nthb2Jwq2b" role="3EZMnx">
        <ref role="1NtTu8" to="tp1h:6nthb2Jwq26" />
        <ref role="1k5W1q" to="tpen:hshT2l5" resolve="Parameter" />
      </node>
      <node concept="3F0ifn" id="3ds86G2JHaH" role="3EZMnx">
        <property role="3F0ifm" value="," />
        <node concept="11L4FC" id="4u35A5__3Mp" role="3F10Kt">
          <property role="VOm3f" value="true" />
        </node>
      </node>
      <node concept="3F2HdR" id="3ds86G2JHaP" role="3EZMnx">
        <property role="1cu_pB" value="0" />
        <property role="2czwfO" value="," />
        <ref role="1NtTu8" to="tp1h:3ds86G2JHaE" />
        <node concept="l2Vlx" id="3ds86G2JHaQ" role="2czzBx" />
      </node>
      <node concept="l2Vlx" id="3ds86G2Jjir" role="2iSdaV" />
      <node concept="3F0ifn" id="4u35A5_$NH1" role="3EZMnx">
        <property role="3F0ifm" value=")" />
        <ref role="1k5W1q" to="tpen:hFCSUmN" resolve="RightParen" />
      </node>
      <node concept="2$oqgb" id="5siq46Bz7w$" role="3F10Kt">
        <ref role="Bvoe9" node="5siq46Bz6MG" resolve="CreateRefcontextHint" />
      </node>
    </node>
  </node>
  <node concept="24kQdi" id="5Ij6cQ6ZpiB">
    <property role="3GE5qa" value="RefActions" />
    <ref role="1XX52x" to="tp1h:5Ij6cQ6Zp5X" resolve="IsRefactoringApplicable" />
    <node concept="3EZMnI" id="5Ij6cQ6ZpiD" role="2wV5jI">
      <node concept="PMmxH" id="2wdLO7KhYaG" role="3EZMnx">
        <property role="1cu_pB" value="0" />
        <ref role="PMmxG" to="tpco:2wZex4PafBj" resolve="alias" />
        <ref role="1k5W1q" to="tpen:hgVS8CF" resolve="KeyWord" />
      </node>
      <node concept="3F0ifn" id="1Z$ZeXyNDoD" role="3EZMnx">
        <property role="3F0ifm" value="&lt;" />
        <ref role="1k5W1q" to="tp2u:hGdV7pS" resolve="LeftAngleBracket" />
      </node>
      <node concept="1iCGBv" id="5Ij6cQ6ZpiK" role="3EZMnx">
        <ref role="1NtTu8" to="tp1h:5Ij6cQ6Zp5Y" />
        <node concept="1sVBvm" id="5Ij6cQ6ZpiL" role="1sWHZn">
          <node concept="3F0A7n" id="5Ij6cQ6ZpiN" role="2wV5jI">
            <property role="1Intyy" value="true" />
            <ref role="1NtTu8" to="tpck:h0TrG11" resolve="name" />
          </node>
        </node>
      </node>
      <node concept="3F0ifn" id="1Z$ZeXyNDoF" role="3EZMnx">
        <property role="3F0ifm" value="&gt;" />
        <ref role="1k5W1q" to="tp2u:hGdWaJB" resolve="RightAngleBracket" />
      </node>
      <node concept="3F0ifn" id="1Z$ZeXyNDoH" role="3EZMnx">
        <property role="3F0ifm" value="(" />
        <ref role="1k5W1q" to="tpen:hY9fg1G" resolve="LeftParenAfterName" />
      </node>
      <node concept="3F1sOY" id="5Ij6cQ6ZpiR" role="3EZMnx">
        <ref role="1NtTu8" to="tp1h:5Ij6cQ6ZpiA" />
      </node>
      <node concept="3F0ifn" id="5Ij6cQ6ZpiT" role="3EZMnx">
        <property role="3F0ifm" value=")" />
        <ref role="1k5W1q" to="tpen:hFCSUmN" resolve="RightParen" />
      </node>
      <node concept="l2Vlx" id="5Ij6cQ6ZpiF" role="2iSdaV" />
      <node concept="2$oqgb" id="5siq46Bz7w_" role="3F10Kt">
        <ref role="Bvoe9" node="5siq46Bz79s" resolve="IsRefactoringApplicableHint" />
      </node>
    </node>
  </node>
  <node concept="24kQdi" id="1Z$ZeXyO1xO">
    <property role="3GE5qa" value="Context" />
    <ref role="1XX52x" to="tp1h:1Z$ZeXyO1xG" resolve="ExecuteRefactoringStatement" />
    <node concept="3EZMnI" id="1Z$ZeXyO1xQ" role="2wV5jI">
      <node concept="PMmxH" id="2wdLO7KhY9a" role="3EZMnx">
        <property role="1cu_pB" value="0" />
        <ref role="PMmxG" to="tpco:2wZex4PafBj" resolve="alias" />
      </node>
      <node concept="2$oqgb" id="5siq46Bz4iY" role="3F10Kt">
        <ref role="Bvoe9" node="5siq46ByV7K" resolve="ExecuteRefactoringHint" />
      </node>
      <node concept="3F0ifn" id="1Z$ZeXyO1xV" role="3EZMnx">
        <property role="3F0ifm" value="&lt;" />
        <ref role="1k5W1q" to="tp2u:hGdV7pS" resolve="LeftAngleBracket" />
      </node>
      <node concept="1iCGBv" id="1Z$ZeXyO1xX" role="3EZMnx">
        <ref role="1NtTu8" to="tp1h:1Z$ZeXyO1xN" />
        <node concept="1sVBvm" id="1Z$ZeXyO1xY" role="1sWHZn">
          <node concept="3F0A7n" id="1Z$ZeXyO1y0" role="2wV5jI">
            <property role="1Intyy" value="true" />
            <ref role="1NtTu8" to="tpck:h0TrG11" resolve="name" />
          </node>
        </node>
      </node>
      <node concept="3F0ifn" id="1Z$ZeXyO1y2" role="3EZMnx">
        <property role="3F0ifm" value="&gt;" />
        <ref role="1k5W1q" to="tp2u:hGdWaJB" resolve="RightAngleBracket" />
      </node>
      <node concept="3F0ifn" id="1Z$ZeXyO1y5" role="3EZMnx">
        <property role="3F0ifm" value="(" />
        <ref role="1k5W1q" to="tpen:hY9fg1G" resolve="LeftParenAfterName" />
      </node>
      <node concept="3F1sOY" id="1Z$ZeXyO1yd" role="3EZMnx">
        <ref role="1NtTu8" to="tp1h:1Z$ZeXyO1xK" />
      </node>
      <node concept="3F0ifn" id="1Z$ZeXyO1y8" role="3EZMnx">
        <property role="3F0ifm" value=":" />
      </node>
      <node concept="3F1sOY" id="1Z$ZeXyO1yc" role="3EZMnx">
        <ref role="1NtTu8" to="tp1h:1Z$ZeXyO1xM" />
      </node>
      <node concept="3F0ifn" id="1Z$ZeXyO1ya" role="3EZMnx">
        <property role="3F0ifm" value="," />
        <node concept="11L4FC" id="1Z$ZeXyOfMf" role="3F10Kt">
          <property role="VOm3f" value="true" />
        </node>
        <node concept="VPM3Z" id="1Z$ZeXyOfMh" role="3F10Kt">
          <property role="VOm3f" value="false" />
        </node>
      </node>
      <node concept="3F2HdR" id="1Z$ZeXyO1yf" role="3EZMnx">
        <property role="2czwfO" value="," />
        <ref role="1NtTu8" to="tp1h:1Z$ZeXyO1xL" />
        <node concept="l2Vlx" id="1Z$ZeXyO1yg" role="2czzBx" />
      </node>
      <node concept="3F0ifn" id="1Z$ZeXyOeIE" role="3EZMnx">
        <property role="3F0ifm" value=")" />
        <ref role="1k5W1q" to="tpen:hFCSUmN" resolve="RightParen" />
      </node>
      <node concept="3F0ifn" id="1Z$ZeXyOg55" role="3EZMnx">
        <property role="3F0ifm" value=";" />
        <ref role="1k5W1q" to="tpen:hFDgi_W" resolve="Semicolon" />
      </node>
      <node concept="l2Vlx" id="1Z$ZeXyO1xS" role="2iSdaV" />
    </node>
  </node>
  <node concept="2$ogZn" id="5siq46ByV7K">
    <property role="TrG5h" value="ExecuteRefactoringHint" />
    <property role="3GE5qa" value="Context" />
    <ref role="jxYdt" to="tp1h:1Z$ZeXyO1xG" resolve="ExecuteRefactoringStatement" />
    <node concept="3Tqbb2" id="5siq46ByV7S" role="3evHYT">
      <ref role="ehGHo" to="tp1h:5YKiRiBue95" resolve="Refactoring" />
    </node>
    <node concept="2$ogOm" id="5siq46ByV7M" role="2$ogZm">
      <node concept="3clFbS" id="5siq46ByV7N" role="2VODD2">
        <node concept="3clFbF" id="5siq46ByV81" role="3cqZAp">
          <node concept="2ShNRf" id="5siq46ByV82" role="3clFbG">
            <node concept="2HTt$P" id="5siq46ByV84" role="2ShVmc">
              <node concept="3Tqbb2" id="5siq46ByV87" role="2HTBi0">
                <ref role="ehGHo" to="tp1h:5YKiRiBue95" resolve="Refactoring" />
              </node>
              <node concept="2OqwBi" id="5siq46ByV89" role="2HTEbv">
                <node concept="jzRn0" id="5siq46ByV88" role="2Oq$k0" />
                <node concept="3TrEf2" id="5siq46ByV8d" role="2OqNvi">
                  <ref role="3Tt5mk" to="tp1h:1Z$ZeXyO1xN" />
                </node>
              </node>
            </node>
          </node>
        </node>
      </node>
    </node>
    <node concept="2itN0W" id="5siq46ByV7O" role="2iu3JR">
      <node concept="3clFbS" id="5siq46ByV7P" role="2VODD2">
        <node concept="3clFbF" id="5siq46Bz7ae" role="3cqZAp">
          <node concept="2YIFZM" id="5siq46Bz7ah" role="3clFbG">
            <ref role="37wK5l" node="5siq46Bz6Kg" resolve="xxx" />
            <ref role="1Pybhc" node="5siq46Bz6Ka" resolve="RefExpressionParamUtil" />
            <node concept="jzRn0" id="5siq46Bz7ai" role="37wK5m" />
            <node concept="2itN01" id="5siq46Bz7ap" role="37wK5m" />
            <node concept="1unZQo" id="5siq46Bz7ar" role="37wK5m" />
            <node concept="3clFbT" id="5siq46Bz7at" role="37wK5m">
              <property role="3clFbU" value="true" />
            </node>
          </node>
        </node>
      </node>
    </node>
    <node concept="3LVrda" id="5siq46ByV7Q" role="3LVrd1">
      <node concept="3clFbS" id="5siq46ByV7R" role="2VODD2">
        <node concept="3clFbF" id="5siq46ByV8e" role="3cqZAp">
          <node concept="3clFbT" id="5siq46ByV8f" role="3clFbG">
            <property role="3clFbU" value="true" />
          </node>
        </node>
      </node>
    </node>
  </node>
  <node concept="312cEu" id="5siq46Bz6Ka">
    <property role="TrG5h" value="RefExpressionParamUtil" />
    <property role="3GE5qa" value="Context" />
    <node concept="3Tm1VV" id="5siq46Bz6Kb" role="1B3o_S" />
    <node concept="3clFbW" id="5siq46Bz6Kc" role="jymVt">
      <node concept="3cqZAl" id="5siq46Bz6Kd" role="3clF45" />
      <node concept="3Tm1VV" id="5siq46Bz6Ke" role="1B3o_S" />
      <node concept="3clFbS" id="5siq46Bz6Kf" role="3clF47" />
    </node>
    <node concept="2YIFZL" id="5siq46Bz6Kg" role="jymVt">
      <property role="TrG5h" value="xxx" />
      <node concept="3cqZAl" id="5siq46Bz6Kh" role="3clF45" />
      <node concept="3Tm1VV" id="5siq46Bz6Ki" role="1B3o_S" />
      <node concept="3clFbS" id="5siq46Bz6Kj" role="3clF47">
        <node concept="3clFbF" id="5siq46Bz6Ku" role="3cqZAp">
          <node concept="2OqwBi" id="5siq46Bz6Kv" role="3clFbG">
            <node concept="2OqwBi" id="5siq46Bz6Kw" role="2Oq$k0">
              <node concept="2OqwBi" id="5siq46Bz6Kx" role="2Oq$k0">
                <node concept="2OqwBi" id="5siq46Bz6Ky" role="2Oq$k0">
                  <node concept="37vLTw" id="2BHiRxgmubB" role="2Oq$k0">
                    <ref role="3cqZAo" node="5siq46Bz6Kq" resolve="styledText" />
                  </node>
                  <node concept="33jxAZ" id="5siq46Bz6K$" role="2OqNvi">
                    <node concept="2OqwBi" id="2wdLO7KeAiH" role="kdiOG">
                      <node concept="3TrcHB" id="2wdLO7KeAiI" role="2OqNvi">
                        <ref role="3TsBF5" to="tpce:4qF2Hm2r7ja" resolve="conceptAlias" />
                      </node>
                      <node concept="2OqwBi" id="2wdLO7KeAiJ" role="2Oq$k0">
                        <node concept="3NT_Vc" id="2wdLO7KeAiK" role="2OqNvi" />
                        <node concept="37vLTw" id="2BHiRxgm8$D" role="2Oq$k0">
                          <ref role="3cqZAo" node="5siq46Bz6Kk" resolve="node" />
                        </node>
                      </node>
                    </node>
                  </node>
                </node>
                <node concept="33jxAZ" id="5siq46Bz6KC" role="2OqNvi">
                  <node concept="Xl_RD" id="5siq46Bz6KD" role="kdiOG">
                    <property role="Xl_RC" value="&lt;" />
                  </node>
                </node>
              </node>
              <node concept="33jxAZ" id="5siq46Bz6KE" role="2OqNvi">
                <node concept="2OqwBi" id="5siq46Bz6KF" role="kdiOG">
                  <node concept="37vLTw" id="2BHiRxglt8D" role="2Oq$k0">
                    <ref role="3cqZAo" node="5siq46Bz6Km" resolve="ref" />
                  </node>
                  <node concept="3TrcHB" id="5siq46Bz6KH" role="2OqNvi">
                    <ref role="3TsBF5" to="tpck:h0TrG11" resolve="name" />
                  </node>
                </node>
              </node>
            </node>
            <node concept="33jxAZ" id="5siq46Bz6KI" role="2OqNvi">
              <node concept="Xl_RD" id="5siq46Bz6KJ" role="kdiOG">
                <property role="Xl_RC" value="&gt;(" />
              </node>
            </node>
          </node>
        </node>
        <node concept="3cpWs8" id="5siq46Bz6KK" role="3cqZAp">
          <node concept="3cpWsn" id="5siq46Bz6KL" role="3cpWs9">
            <property role="TrG5h" value="target" />
            <node concept="17QB3L" id="5siq46Bz6KM" role="1tU5fm" />
            <node concept="Xl_RD" id="5siq46Bz6KN" role="33vP2m">
              <property role="Xl_RC" value="no_target" />
            </node>
          </node>
        </node>
        <node concept="3cpWs8" id="5siq46Bz8jE" role="3cqZAp">
          <node concept="3cpWsn" id="5siq46Bz8jF" role="3cpWs9">
            <property role="TrG5h" value="isList" />
            <node concept="10P_77" id="5siq46Bz8jG" role="1tU5fm" />
            <node concept="2OqwBi" id="5siq46Bz8jO" role="33vP2m">
              <node concept="2OqwBi" id="5siq46Bz8jJ" role="2Oq$k0">
                <node concept="37vLTw" id="2BHiRxghis5" role="2Oq$k0">
                  <ref role="3cqZAo" node="5siq46Bz6Km" resolve="ref" />
                </node>
                <node concept="3TrEf2" id="5siq46Bz8jN" role="2OqNvi">
                  <ref role="3Tt5mk" to="tp1h:5YKiRiBuwpm" />
                </node>
              </node>
              <node concept="3TrcHB" id="5siq46Bz8jT" role="2OqNvi">
                <ref role="3TsBF5" to="tp1h:5YKiRiBuwpn" resolve="allowMultiple" />
              </node>
            </node>
          </node>
        </node>
        <node concept="3clFbJ" id="5siq46Bz6KO" role="3cqZAp">
          <node concept="3clFbS" id="5siq46Bz6KP" role="3clFbx">
            <node concept="3clFbF" id="5siq46Bz6KQ" role="3cqZAp">
              <node concept="37vLTI" id="5siq46Bz6KR" role="3clFbG">
                <node concept="3cpWs3" id="5siq46Bz6KS" role="37vLTx">
                  <node concept="Xl_RD" id="5siq46Bz6KT" role="3uHU7w">
                    <property role="Xl_RC" value="&gt;" />
                  </node>
                  <node concept="3cpWs3" id="5siq46Bz6KU" role="3uHU7B">
                    <node concept="3cpWs3" id="5siq46Bz8jU" role="3uHU7B">
                      <node concept="1eOMI4" id="5siq46Bz8jX" role="3uHU7B">
                        <node concept="3K4zz7" id="5siq46Bz8k0" role="1eOMHV">
                          <node concept="Xl_RD" id="5siq46Bz8k5" role="3K4GZi">
                            <property role="Xl_RC" value="node" />
                          </node>
                          <node concept="37vLTw" id="3GM_nagT$Dc" role="3K4Cdx">
                            <ref role="3cqZAo" node="5siq46Bz8jF" resolve="isList" />
                          </node>
                          <node concept="Xl_RD" id="5siq46Bz8k4" role="3K4E3e">
                            <property role="Xl_RC" value="nlist" />
                          </node>
                        </node>
                      </node>
                      <node concept="Xl_RD" id="5siq46Bz6KV" role="3uHU7w">
                        <property role="Xl_RC" value="&lt;" />
                      </node>
                    </node>
                    <node concept="2OqwBi" id="5siq46Bz6KW" role="3uHU7w">
                      <node concept="2OqwBi" id="5siq46Bz6KX" role="2Oq$k0">
                        <node concept="1PxgMI" id="5siq46Bz6KY" role="2Oq$k0">
                          <ref role="1m5ApE" to="tp1h:5YKiRiBuwlG" resolve="NodeTarget" />
                          <node concept="2OqwBi" id="5siq46Bz6KZ" role="1m5AlR">
                            <node concept="37vLTw" id="2BHiRxgm6rv" role="2Oq$k0">
                              <ref role="3cqZAo" node="5siq46Bz6Km" resolve="ref" />
                            </node>
                            <node concept="3TrEf2" id="5siq46Bz6L1" role="2OqNvi">
                              <ref role="3Tt5mk" to="tp1h:5YKiRiBuwpm" />
                            </node>
                          </node>
                        </node>
                        <node concept="3TrEf2" id="5siq46Bz6L2" role="2OqNvi">
                          <ref role="3Tt5mk" to="tp1h:5YKiRiBuwmm" />
                        </node>
                      </node>
                      <node concept="3TrcHB" id="5siq46Bz6L3" role="2OqNvi">
                        <ref role="3TsBF5" to="tpck:h0TrG11" resolve="name" />
                      </node>
                    </node>
                  </node>
                </node>
                <node concept="37vLTw" id="3GM_nagTAH2" role="37vLTJ">
                  <ref role="3cqZAo" node="5siq46Bz6KL" resolve="target" />
                </node>
              </node>
            </node>
          </node>
          <node concept="2OqwBi" id="5siq46Bz6L5" role="3clFbw">
            <node concept="2OqwBi" id="5siq46Bz6L6" role="2Oq$k0">
              <node concept="37vLTw" id="2BHiRxgmcse" role="2Oq$k0">
                <ref role="3cqZAo" node="5siq46Bz6Km" resolve="ref" />
              </node>
              <node concept="3TrEf2" id="5siq46Bz6L8" role="2OqNvi">
                <ref role="3Tt5mk" to="tp1h:5YKiRiBuwpm" />
              </node>
            </node>
            <node concept="1mIQ4w" id="5siq46Bz6L9" role="2OqNvi">
              <node concept="chp4Y" id="5siq46Bz6La" role="cj9EA">
                <ref role="cht4Q" to="tp1h:5YKiRiBuwlG" resolve="NodeTarget" />
              </node>
            </node>
          </node>
          <node concept="3eNFk2" id="5siq46Bz6Lb" role="3eNLev">
            <node concept="3clFbS" id="5siq46Bz6Lc" role="3eOfB_">
              <node concept="3clFbF" id="5siq46Bz6Ld" role="3cqZAp">
                <node concept="37vLTI" id="5siq46Bz8k6" role="3clFbG">
                  <node concept="3K4zz7" id="5siq46Bz8ka" role="37vLTx">
                    <node concept="Xl_RD" id="5siq46Bz8kf" role="3K4GZi">
                      <property role="Xl_RC" value="model" />
                    </node>
                    <node concept="37vLTw" id="3GM_nagTvB3" role="3K4Cdx">
                      <ref role="3cqZAo" node="5siq46Bz8jF" resolve="isList" />
                    </node>
                    <node concept="Xl_RD" id="5siq46Bz8ke" role="3K4E3e">
                      <property role="Xl_RC" value="list&lt;model&gt;" />
                    </node>
                  </node>
                  <node concept="37vLTw" id="3GM_nagT$2j" role="37vLTJ">
                    <ref role="3cqZAo" node="5siq46Bz6KL" resolve="target" />
                  </node>
                </node>
              </node>
            </node>
            <node concept="2OqwBi" id="5siq46Bz6Lh" role="3eO9$A">
              <node concept="2OqwBi" id="5siq46Bz6Li" role="2Oq$k0">
                <node concept="37vLTw" id="2BHiRxglG7Q" role="2Oq$k0">
                  <ref role="3cqZAo" node="5siq46Bz6Km" resolve="ref" />
                </node>
                <node concept="3TrEf2" id="5siq46Bz6Lk" role="2OqNvi">
                  <ref role="3Tt5mk" to="tp1h:5YKiRiBuwpm" />
                </node>
              </node>
              <node concept="1mIQ4w" id="5siq46Bz6Ll" role="2OqNvi">
                <node concept="chp4Y" id="5siq46Bz6Lm" role="cj9EA">
                  <ref role="cht4Q" to="tp1h:5YKiRiBuwlE" resolve="ModelTarget" />
                </node>
              </node>
            </node>
          </node>
          <node concept="3eNFk2" id="5siq46Bz6Ln" role="3eNLev">
            <node concept="3clFbS" id="5siq46Bz6Lo" role="3eOfB_">
              <node concept="3clFbF" id="5siq46Bz6Lp" role="3cqZAp">
                <node concept="37vLTI" id="5siq46Bz6Lq" role="3clFbG">
                  <node concept="3K4zz7" id="5siq46Bz8ki" role="37vLTx">
                    <node concept="Xl_RD" id="5siq46Bz8kn" role="3K4GZi">
                      <property role="Xl_RC" value="SModule" />
                    </node>
                    <node concept="37vLTw" id="3GM_nagTsrg" role="3K4Cdx">
                      <ref role="3cqZAo" node="5siq46Bz8jF" resolve="isList" />
                    </node>
                    <node concept="Xl_RD" id="5siq46Bz8km" role="3K4E3e">
                      <property role="Xl_RC" value="list&lt;SModule&gt;" />
                    </node>
                  </node>
                  <node concept="37vLTw" id="3GM_nagTwjs" role="37vLTJ">
                    <ref role="3cqZAo" node="5siq46Bz6KL" resolve="target" />
                  </node>
                </node>
              </node>
            </node>
            <node concept="2OqwBi" id="5siq46Bz6Lt" role="3eO9$A">
              <node concept="2OqwBi" id="5siq46Bz6Lu" role="2Oq$k0">
                <node concept="37vLTw" id="2BHiRxgmF1T" role="2Oq$k0">
                  <ref role="3cqZAo" node="5siq46Bz6Km" resolve="ref" />
                </node>
                <node concept="3TrEf2" id="5siq46Bz6Lw" role="2OqNvi">
                  <ref role="3Tt5mk" to="tp1h:5YKiRiBuwpm" />
                </node>
              </node>
              <node concept="1mIQ4w" id="5siq46Bz6Lx" role="2OqNvi">
                <node concept="chp4Y" id="5siq46Bz6Ly" role="cj9EA">
                  <ref role="cht4Q" to="tp1h:5YKiRiBuwlF" resolve="ModuleTarget" />
                </node>
              </node>
            </node>
          </node>
        </node>
        <node concept="3clFbF" id="5siq46Bz6LM" role="3cqZAp">
          <node concept="2OqwBi" id="5siq46Bz6LN" role="3clFbG">
            <node concept="2OqwBi" id="5siq46Bz6LO" role="2Oq$k0">
              <node concept="37vLTw" id="2BHiRxgmklN" role="2Oq$k0">
                <ref role="3cqZAo" node="5siq46Bz6Kq" resolve="styledText" />
              </node>
              <node concept="33jxAZ" id="5siq46Bz6LQ" role="2OqNvi">
                <node concept="37vLTw" id="3GM_nagTs8p" role="kdiOG">
                  <ref role="3cqZAo" node="5siq46Bz6KL" resolve="target" />
                </node>
              </node>
            </node>
            <node concept="33jxAZ" id="5siq46Bz6LS" role="2OqNvi">
              <node concept="Xl_RD" id="5siq46Bz6LT" role="kdiOG">
                <property role="Xl_RC" value=" target" />
              </node>
            </node>
          </node>
        </node>
        <node concept="3clFbJ" id="5siq46Bz7a5" role="3cqZAp">
          <node concept="3clFbS" id="5siq46Bz7a6" role="3clFbx">
            <node concept="3clFbF" id="5siq46Bz6LU" role="3cqZAp">
              <node concept="2OqwBi" id="5siq46Bz6LV" role="3clFbG">
                <node concept="37vLTw" id="2BHiRxgm$Oq" role="2Oq$k0">
                  <ref role="3cqZAo" node="5siq46Bz6Kq" resolve="styledText" />
                </node>
                <node concept="33jxAZ" id="5siq46Bz6LX" role="2OqNvi">
                  <node concept="Xl_RD" id="5siq46Bz6LY" role="kdiOG">
                    <property role="Xl_RC" value=" : MPSProject project" />
                  </node>
                </node>
              </node>
            </node>
            <node concept="2Gpval" id="5siq46Bz6LZ" role="3cqZAp">
              <node concept="2GrKxI" id="5siq46Bz6M0" role="2Gsz3X">
                <property role="TrG5h" value="param" />
              </node>
              <node concept="2OqwBi" id="5siq46Bz6M1" role="2GsD0m">
                <node concept="37vLTw" id="2BHiRxgmalv" role="2Oq$k0">
                  <ref role="3cqZAo" node="5siq46Bz6Km" resolve="ref" />
                </node>
                <node concept="3Tsc0h" id="5siq46Bz6M3" role="2OqNvi">
                  <ref role="3TtcxE" to="tp1h:5YKiRiBuebo" />
                </node>
              </node>
              <node concept="3clFbS" id="5siq46Bz6M4" role="2LFqv$">
                <node concept="3clFbF" id="5siq46Bz6M5" role="3cqZAp">
                  <node concept="2OqwBi" id="5siq46Bz6M6" role="3clFbG">
                    <node concept="2OqwBi" id="5siq46Bz6M7" role="2Oq$k0">
                      <node concept="2OqwBi" id="5siq46Bz6M8" role="2Oq$k0">
                        <node concept="2OqwBi" id="5siq46Bz6M9" role="2Oq$k0">
                          <node concept="37vLTw" id="2BHiRxgmaS$" role="2Oq$k0">
                            <ref role="3cqZAo" node="5siq46Bz6Kq" resolve="styledText" />
                          </node>
                          <node concept="33jxAZ" id="5siq46Bz6Mb" role="2OqNvi">
                            <node concept="Xl_RD" id="5siq46Bz6Mc" role="kdiOG">
                              <property role="Xl_RC" value=", " />
                            </node>
                          </node>
                        </node>
                        <node concept="33jxAZ" id="5siq46Bz6Md" role="2OqNvi">
                          <node concept="2OqwBi" id="5siq46Bz6Me" role="kdiOG">
                            <node concept="2OqwBi" id="5siq46Bz6Mf" role="2Oq$k0">
                              <node concept="2GrUjf" id="5siq46Bz6Mg" role="2Oq$k0">
                                <ref role="2Gs0qQ" node="5siq46Bz6M0" resolve="param" />
                              </node>
                              <node concept="3TrEf2" id="5siq46Bz6Mh" role="2OqNvi">
                                <ref role="3Tt5mk" to="tpee:4VkOLwjf83e" />
                              </node>
                            </node>
                            <node concept="2qgKlT" id="5siq46Bz6Mi" role="2OqNvi">
                              <ref role="37wK5l" to="tpcu:hEwIMiw" resolve="getPresentation" />
                            </node>
                          </node>
                        </node>
                      </node>
                      <node concept="33jxAZ" id="5siq46Bz6Mj" role="2OqNvi">
                        <node concept="Xl_RD" id="5siq46Bz6Mk" role="kdiOG">
                          <property role="Xl_RC" value=" " />
                        </node>
                      </node>
                    </node>
                    <node concept="33jxAZ" id="5siq46Bz6Ml" role="2OqNvi">
                      <node concept="2OqwBi" id="5siq46Bz6Mm" role="kdiOG">
                        <node concept="2GrUjf" id="5siq46Bz6Mn" role="2Oq$k0">
                          <ref role="2Gs0qQ" node="5siq46Bz6M0" resolve="param" />
                        </node>
                        <node concept="3TrcHB" id="5siq46Bz6Mo" role="2OqNvi">
                          <ref role="3TsBF5" to="tpck:h0TrG11" resolve="name" />
                        </node>
                      </node>
                    </node>
                  </node>
                </node>
              </node>
            </node>
          </node>
          <node concept="37vLTw" id="2BHiRxgm_rR" role="3clFbw">
            <ref role="3cqZAo" node="5siq46Bz79W" resolve="showParameters" />
          </node>
        </node>
        <node concept="3clFbF" id="5siq46Bz6Mp" role="3cqZAp">
          <node concept="2OqwBi" id="5siq46Bz6Mq" role="3clFbG">
            <node concept="37vLTw" id="2BHiRxghfFd" role="2Oq$k0">
              <ref role="3cqZAo" node="5siq46Bz6Kq" resolve="styledText" />
            </node>
            <node concept="33jxAZ" id="5siq46Bz6Ms" role="2OqNvi">
              <node concept="Xl_RD" id="5siq46Bz6Mt" role="kdiOG">
                <property role="Xl_RC" value=")" />
              </node>
            </node>
          </node>
        </node>
      </node>
      <node concept="37vLTG" id="5siq46Bz6Kk" role="3clF46">
        <property role="TrG5h" value="node" />
        <node concept="3Tqbb2" id="5siq46Bzf6l" role="1tU5fm">
          <ref role="ehGHo" to="tpck:gw2VY9q" resolve="BaseConcept" />
        </node>
      </node>
      <node concept="37vLTG" id="5siq46Bz6Km" role="3clF46">
        <property role="TrG5h" value="ref" />
        <node concept="3Tqbb2" id="5siq46Bz6Kp" role="1tU5fm">
          <ref role="ehGHo" to="tp1h:5YKiRiBue95" resolve="Refactoring" />
        </node>
      </node>
      <node concept="37vLTG" id="5siq46Bz6Kq" role="3clF46">
        <property role="TrG5h" value="styledText" />
        <node concept="1YN$XN" id="5siq46Bz6Kt" role="1tU5fm" />
      </node>
      <node concept="37vLTG" id="5siq46Bz79W" role="3clF46">
        <property role="TrG5h" value="showParameters" />
        <node concept="10P_77" id="5siq46Bz79Y" role="1tU5fm" />
      </node>
    </node>
  </node>
  <node concept="2$ogZn" id="5siq46Bz6MG">
    <property role="TrG5h" value="CreateRefcontextHint" />
    <property role="3GE5qa" value="Context" />
    <ref role="jxYdt" to="tp1h:3ds86G2J2R_" resolve="CreateRefactoringContext" />
    <node concept="3Tqbb2" id="5siq46Bz6MO" role="3evHYT">
      <ref role="ehGHo" to="tp1h:5YKiRiBue95" resolve="Refactoring" />
    </node>
    <node concept="2$ogOm" id="5siq46Bz6MI" role="2$ogZm">
      <node concept="3clFbS" id="5siq46Bz6MJ" role="2VODD2">
        <node concept="3clFbF" id="5siq46Bz6MP" role="3cqZAp">
          <node concept="2ShNRf" id="5siq46Bz6MQ" role="3clFbG">
            <node concept="2HTt$P" id="5siq46Bz6MR" role="2ShVmc">
              <node concept="3Tqbb2" id="5siq46Bz6MS" role="2HTBi0">
                <ref role="ehGHo" to="tp1h:5YKiRiBue95" resolve="Refactoring" />
              </node>
              <node concept="2OqwBi" id="5siq46Bz6MT" role="2HTEbv">
                <node concept="jzRn0" id="5siq46Bz6MU" role="2Oq$k0" />
                <node concept="3TrEf2" id="5siq46Bz6MW" role="2OqNvi">
                  <ref role="3Tt5mk" to="tp1h:3ds86G2JjiE" />
                </node>
              </node>
            </node>
          </node>
        </node>
      </node>
    </node>
    <node concept="2itN0W" id="5siq46Bz6MK" role="2iu3JR">
      <node concept="3clFbS" id="5siq46Bz6ML" role="2VODD2">
        <node concept="3clFbF" id="5siq46Bz6MZ" role="3cqZAp">
          <node concept="2YIFZM" id="5siq46Bz6N1" role="3clFbG">
            <ref role="37wK5l" node="5siq46Bz6Kg" resolve="xxx" />
            <ref role="1Pybhc" node="5siq46Bz6Ka" resolve="RefExpressionParamUtil" />
            <node concept="jzRn0" id="5siq46Bz6N2" role="37wK5m" />
            <node concept="2itN01" id="5siq46Bz6N9" role="37wK5m" />
            <node concept="1unZQo" id="5siq46Bz6Nb" role="37wK5m" />
            <node concept="3clFbT" id="5siq46Bz7ab" role="37wK5m">
              <property role="3clFbU" value="true" />
            </node>
          </node>
        </node>
      </node>
    </node>
    <node concept="3LVrda" id="5siq46Bz6MM" role="3LVrd1">
      <node concept="3clFbS" id="5siq46Bz6MN" role="2VODD2">
        <node concept="3clFbF" id="5siq46Bz6MX" role="3cqZAp">
          <node concept="3clFbT" id="5siq46Bz6MY" role="3clFbG">
            <property role="3clFbU" value="true" />
          </node>
        </node>
      </node>
    </node>
  </node>
  <node concept="2$ogZn" id="5siq46Bz79s">
    <property role="TrG5h" value="IsRefactoringApplicableHint" />
    <property role="3GE5qa" value="RefActions" />
    <ref role="jxYdt" to="tp1h:5Ij6cQ6Zp5X" resolve="IsRefactoringApplicable" />
    <node concept="3Tqbb2" id="5siq46Bz79$" role="3evHYT">
      <ref role="ehGHo" to="tp1h:5YKiRiBue95" resolve="Refactoring" />
    </node>
    <node concept="2$ogOm" id="5siq46Bz79u" role="2$ogZm">
      <node concept="3clFbS" id="5siq46Bz79v" role="2VODD2">
        <node concept="3clFbF" id="5siq46Bz79_" role="3cqZAp">
          <node concept="2ShNRf" id="5siq46Bz79A" role="3clFbG">
            <node concept="2HTt$P" id="5siq46Bz79B" role="2ShVmc">
              <node concept="3Tqbb2" id="5siq46Bz79C" role="2HTBi0">
                <ref role="ehGHo" to="tp1h:5YKiRiBue95" resolve="Refactoring" />
              </node>
              <node concept="2OqwBi" id="5siq46Bz79D" role="2HTEbv">
                <node concept="jzRn0" id="5siq46Bz79E" role="2Oq$k0" />
                <node concept="3TrEf2" id="5siq46Bz79G" role="2OqNvi">
                  <ref role="3Tt5mk" to="tp1h:5Ij6cQ6Zp5Y" />
                </node>
              </node>
            </node>
          </node>
        </node>
      </node>
    </node>
    <node concept="2itN0W" id="5siq46Bz79w" role="2iu3JR">
      <node concept="3clFbS" id="5siq46Bz79x" role="2VODD2">
        <node concept="3clFbF" id="5siq46Bz79J" role="3cqZAp">
          <node concept="2YIFZM" id="5siq46Bz79L" role="3clFbG">
            <ref role="37wK5l" node="5siq46Bz6Kg" resolve="xxx" />
            <ref role="1Pybhc" node="5siq46Bz6Ka" resolve="RefExpressionParamUtil" />
            <node concept="jzRn0" id="5siq46Bz79M" role="37wK5m" />
            <node concept="2itN01" id="5siq46Bz79T" role="37wK5m" />
            <node concept="1unZQo" id="5siq46Bz79V" role="37wK5m" />
            <node concept="3clFbT" id="5siq46Bz7ad" role="37wK5m">
              <property role="3clFbU" value="false" />
            </node>
          </node>
        </node>
      </node>
    </node>
    <node concept="3LVrda" id="5siq46Bz79y" role="3LVrd1">
      <node concept="3clFbS" id="5siq46Bz79z" role="2VODD2">
        <node concept="3clFbF" id="5siq46Bz79H" role="3cqZAp">
          <node concept="3clFbT" id="5siq46Bz79I" role="3clFbG">
            <property role="3clFbU" value="true" />
          </node>
        </node>
      </node>
    </node>
  </node>
</model>

