<?xml version="1.0" encoding="UTF-8"?>
<model ref="r:00000000-0000-4000-0000-011c89590316(jetbrains.mps.lang.refactoring.typesystem)">
  <persistence version="9" />
  <languages>
    <use id="3ecd7c84-cde3-45de-886c-135ecc69b742" name="jetbrains.mps.lang.refactoring" version="0" />
    <use id="7a5dda62-9140-4668-ab76-d5ed1746f2b2" name="jetbrains.mps.lang.typesystem" version="0" />
    <devkit ref="fbc25dd2-5da4-483a-8b19-70928e1b62d7(jetbrains.mps.devkit.general-purpose)" />
  </languages>
  <imports>
    <import index="tp1h" ref="r:00000000-0000-4000-0000-011c89590319(jetbrains.mps.lang.refactoring.structure)" />
    <import index="tpee" ref="r:00000000-0000-4000-0000-011c895902ca(jetbrains.mps.baseLanguage.structure)" />
    <import index="tpce" ref="r:00000000-0000-4000-0000-011c89590292(jetbrains.mps.lang.structure.structure)" />
    <import index="tp1q" ref="r:00000000-0000-4000-0000-011c89590312(jetbrains.mps.lang.refactoring.behavior)" />
    <import index="ge2m" ref="r:bd8551c6-e2e3-4499-a261-45b0c886d1d1(jetbrains.mps.refactoring.framework)" />
    <import index="z1c3" ref="6ed54515-acc8-4d1e-a16c-9fd6cfe951ea/java:jetbrains.mps.project(MPS.Core/)" />
    <import index="lui2" ref="8865b7a8-5271-43d3-884c-6fd1d9cfdd34/java:org.jetbrains.mps.openapi.module(MPS.OpenAPI/)" />
    <import index="tpck" ref="r:00000000-0000-4000-0000-011c89590288(jetbrains.mps.lang.core.structure)" implicit="true" />
  </imports>
  <registry>
    <language id="f3061a53-9226-4cc5-a443-f952ceaf5816" name="jetbrains.mps.baseLanguage">
      <concept id="1082485599095" name="jetbrains.mps.baseLanguage.structure.BlockStatement" flags="nn" index="9aQIb">
        <child id="1082485599096" name="statements" index="9aQI4" />
      </concept>
      <concept id="1154032098014" name="jetbrains.mps.baseLanguage.structure.AbstractLoopStatement" flags="nn" index="2LF5Ji">
        <child id="1154032183016" name="body" index="2LFqv$" />
      </concept>
      <concept id="1197027756228" name="jetbrains.mps.baseLanguage.structure.DotExpression" flags="nn" index="2OqwBi">
        <child id="1197027771414" name="operand" index="2Oq$k0" />
        <child id="1197027833540" name="operation" index="2OqNvi" />
      </concept>
      <concept id="1070475926800" name="jetbrains.mps.baseLanguage.structure.StringLiteral" flags="nn" index="Xl_RD">
        <property id="1070475926801" name="value" index="Xl_RC" />
      </concept>
      <concept id="1070534644030" name="jetbrains.mps.baseLanguage.structure.BooleanType" flags="in" index="10P_77" />
      <concept id="1068431474542" name="jetbrains.mps.baseLanguage.structure.VariableDeclaration" flags="ng" index="33uBYm">
        <child id="1068431790190" name="initializer" index="33vP2m" />
      </concept>
      <concept id="1068431790189" name="jetbrains.mps.baseLanguage.structure.Type" flags="in" index="33vP2l" />
      <concept id="1068498886296" name="jetbrains.mps.baseLanguage.structure.VariableReference" flags="nn" index="37vLTw">
        <reference id="1068581517664" name="variableDeclaration" index="3cqZAo" />
      </concept>
      <concept id="1225271177708" name="jetbrains.mps.baseLanguage.structure.StringType" flags="in" index="17QB3L" />
      <concept id="4972933694980447171" name="jetbrains.mps.baseLanguage.structure.BaseVariableDeclaration" flags="ng" index="19Szcq">
        <child id="5680397130376446158" name="type" index="1tU5fm" />
      </concept>
      <concept id="1068580123152" name="jetbrains.mps.baseLanguage.structure.EqualsExpression" flags="nn" index="3clFbC" />
      <concept id="1068580123157" name="jetbrains.mps.baseLanguage.structure.Statement" flags="nn" index="3clFbH" />
      <concept id="1068580123159" name="jetbrains.mps.baseLanguage.structure.IfStatement" flags="nn" index="3clFbJ">
        <child id="1082485599094" name="ifFalseStatement" index="9aQIa" />
        <child id="1068580123160" name="condition" index="3clFbw" />
        <child id="1068580123161" name="ifTrue" index="3clFbx" />
      </concept>
      <concept id="1068580123136" name="jetbrains.mps.baseLanguage.structure.StatementList" flags="sn" stub="5293379017992965193" index="3clFbS">
        <child id="1068581517665" name="statement" index="3cqZAp" />
      </concept>
      <concept id="1068580123137" name="jetbrains.mps.baseLanguage.structure.BooleanConstant" flags="nn" index="3clFbT">
        <property id="1068580123138" name="value" index="3clFbU" />
      </concept>
      <concept id="1068581242878" name="jetbrains.mps.baseLanguage.structure.ReturnStatement" flags="nn" index="3cpWs6">
        <child id="1068581517676" name="expression" index="3cqZAk" />
      </concept>
      <concept id="1068581242864" name="jetbrains.mps.baseLanguage.structure.LocalVariableDeclarationStatement" flags="nn" index="3cpWs8">
        <child id="1068581242865" name="localVariableDeclaration" index="3cpWs9" />
      </concept>
      <concept id="1068581242863" name="jetbrains.mps.baseLanguage.structure.LocalVariableDeclaration" flags="nr" index="3cpWsn" />
      <concept id="1068581517677" name="jetbrains.mps.baseLanguage.structure.VoidType" flags="in" index="3cqZAl" />
      <concept id="1204053956946" name="jetbrains.mps.baseLanguage.structure.IMethodCall" flags="ng" index="1ndlxa">
        <reference id="1068499141037" name="baseMethodDeclaration" index="37wK5l" />
      </concept>
      <concept id="1107535904670" name="jetbrains.mps.baseLanguage.structure.ClassifierType" flags="in" index="3uibUv">
        <reference id="1107535924139" name="classifier" index="3uigEE" />
      </concept>
      <concept id="1081773326031" name="jetbrains.mps.baseLanguage.structure.BinaryOperation" flags="nn" index="3uHJSO">
        <child id="1081773367579" name="rightExpression" index="3uHU7w" />
        <child id="1081773367580" name="leftExpression" index="3uHU7B" />
      </concept>
      <concept id="1073239437375" name="jetbrains.mps.baseLanguage.structure.NotEqualsExpression" flags="nn" index="3y3z36" />
    </language>
    <language id="3ecd7c84-cde3-45de-886c-135ecc69b742" name="jetbrains.mps.lang.refactoring">
      <concept id="7953996722066536522" name="jetbrains.mps.lang.refactoring.structure.ContextType" flags="in" index="51ZQE" />
    </language>
    <language id="3a13115c-633c-4c5c-bbcc-75c4219e9555" name="jetbrains.mps.lang.quotation">
      <concept id="1196350785110" name="jetbrains.mps.lang.quotation.structure.AbstractAntiquotation" flags="ng" index="2c44t0">
        <child id="1196350785111" name="expression" index="2c44t1" />
      </concept>
      <concept id="1196350785117" name="jetbrains.mps.lang.quotation.structure.ReferenceAntiquotation" flags="ng" index="2c44tb" />
      <concept id="1196350785112" name="jetbrains.mps.lang.quotation.structure.Antiquotation" flags="ng" index="2c44te" />
      <concept id="1196350785113" name="jetbrains.mps.lang.quotation.structure.Quotation" flags="nn" index="2c44tf">
        <child id="1196350785114" name="quotedNode" index="2c44tc" />
      </concept>
    </language>
    <language id="7a5dda62-9140-4668-ab76-d5ed1746f2b2" name="jetbrains.mps.lang.typesystem">
      <concept id="1185788614172" name="jetbrains.mps.lang.typesystem.structure.NormalTypeClause" flags="ng" index="mw_s8">
        <child id="1185788644032" name="normalType" index="mwGJk" />
      </concept>
      <concept id="1175147569072" name="jetbrains.mps.lang.typesystem.structure.AbstractSubtypingRule" flags="ig" index="2sgdUx">
        <property id="1175607673137" name="isWeak" index="2RFo0w" />
        <child id="1175147624276" name="body" index="2sgrp5" />
      </concept>
      <concept id="1175147670730" name="jetbrains.mps.lang.typesystem.structure.SubtypingRule" flags="ig" index="2sgARr" />
      <concept id="1175517767210" name="jetbrains.mps.lang.typesystem.structure.ReportErrorStatement" flags="nn" index="2MkqsV">
        <child id="1175517851849" name="errorString" index="2MkJ7o" />
      </concept>
      <concept id="1179832490862" name="jetbrains.mps.lang.typesystem.structure.CreateStrongLessThanInequationStatement" flags="nn" index="2NvLDW" />
      <concept id="1212056081426" name="jetbrains.mps.lang.typesystem.structure.AbstractInequationStatement" flags="ng" index="Ob1k8">
        <property id="1212056105818" name="inequationPriority" index="Ob790" />
      </concept>
      <concept id="1227096620180" name="jetbrains.mps.lang.typesystem.structure.ReferenceMessageTarget" flags="ng" index="2OE7Q9">
        <reference id="1227096645744" name="linkDeclaration" index="2OEe5H" />
      </concept>
      <concept id="1227096774658" name="jetbrains.mps.lang.typesystem.structure.MessageStatement" flags="ng" index="2OEH$v">
        <child id="1227096802790" name="nodeToReport" index="2OEOjV" />
        <child id="1227096836496" name="messageTarget" index="2OEWyd" />
      </concept>
      <concept id="1195213580585" name="jetbrains.mps.lang.typesystem.structure.AbstractCheckingRule" flags="ig" index="18hYwZ">
        <child id="1195213635060" name="body" index="18ibNy" />
      </concept>
      <concept id="1174642788531" name="jetbrains.mps.lang.typesystem.structure.ConceptReference" flags="ig" index="1YaCAy">
        <reference id="1174642800329" name="concept" index="1YaFvo" />
      </concept>
      <concept id="1174643105530" name="jetbrains.mps.lang.typesystem.structure.InferenceRule" flags="ig" index="1YbPZF" />
      <concept id="1174648085619" name="jetbrains.mps.lang.typesystem.structure.AbstractRule" flags="ng" index="1YuPPy">
        <child id="1174648101952" name="applicableNode" index="1YuTPh" />
      </concept>
      <concept id="1174650418652" name="jetbrains.mps.lang.typesystem.structure.ApplicableNodeReference" flags="nn" index="1YBJjd">
        <reference id="1174650432090" name="applicableNode" index="1YBMHb" />
      </concept>
      <concept id="1174657487114" name="jetbrains.mps.lang.typesystem.structure.TypeOfExpression" flags="nn" index="1Z2H0r">
        <child id="1174657509053" name="term" index="1Z2MuG" />
      </concept>
      <concept id="1174658326157" name="jetbrains.mps.lang.typesystem.structure.CreateEquationStatement" flags="nn" index="1Z5TYs" />
      <concept id="1174660718586" name="jetbrains.mps.lang.typesystem.structure.AbstractEquationStatement" flags="nn" index="1Zf1VF">
        <property id="1206359757216" name="checkOnly" index="3wDh2S" />
        <child id="1174660783413" name="leftExpression" index="1ZfhK$" />
        <child id="1174660783414" name="rightExpression" index="1ZfhKB" />
      </concept>
      <concept id="1174663118805" name="jetbrains.mps.lang.typesystem.structure.CreateLessThanInequationStatement" flags="nn" index="1ZobV4" />
    </language>
    <language id="7866978e-a0f0-4cc7-81bc-4d213d9375e1" name="jetbrains.mps.lang.smodel">
      <concept id="1177026924588" name="jetbrains.mps.lang.smodel.structure.RefConcept_Reference" flags="nn" index="chp4Y">
        <reference id="1177026940964" name="conceptDeclaration" index="cht4Q" />
      </concept>
      <concept id="1138411891628" name="jetbrains.mps.lang.smodel.structure.SNodeOperation" flags="nn" index="eCIE_">
        <child id="1144104376918" name="parameter" index="1xVPHs" />
      </concept>
      <concept id="1179409122411" name="jetbrains.mps.lang.smodel.structure.Node_ConceptMethodCall" flags="nn" index="2qgKlT" />
      <concept id="1143226024141" name="jetbrains.mps.lang.smodel.structure.SModelType" flags="in" index="H_c77" />
      <concept id="1171407110247" name="jetbrains.mps.lang.smodel.structure.Node_GetAncestorOperation" flags="nn" index="2Xjw5R" />
      <concept id="1172008320231" name="jetbrains.mps.lang.smodel.structure.Node_IsNotNullOperation" flags="nn" index="3x8VRR" />
      <concept id="1144101972840" name="jetbrains.mps.lang.smodel.structure.OperationParm_Concept" flags="ng" index="1xMEDy">
        <child id="1207343664468" name="conceptArgument" index="ri$Ld" />
      </concept>
      <concept id="1138055754698" name="jetbrains.mps.lang.smodel.structure.SNodeType" flags="in" index="3Tqbb2">
        <reference id="1138405853777" name="concept" index="ehGHo" />
      </concept>
      <concept id="1138056022639" name="jetbrains.mps.lang.smodel.structure.SPropertyAccess" flags="nn" index="3TrcHB">
        <reference id="1138056395725" name="property" index="3TsBF5" />
      </concept>
      <concept id="1138056143562" name="jetbrains.mps.lang.smodel.structure.SLinkAccess" flags="nn" index="3TrEf2">
        <reference id="1138056516764" name="link" index="3Tt5mk" />
      </concept>
      <concept id="1138056282393" name="jetbrains.mps.lang.smodel.structure.SLinkListAccess" flags="nn" index="3Tsc0h">
        <reference id="1138056546658" name="link" index="3TtcxE" />
      </concept>
    </language>
    <language id="ceab5195-25ea-4f22-9b92-103b95ca8c0c" name="jetbrains.mps.lang.core">
      <concept id="1133920641626" name="jetbrains.mps.lang.core.structure.BaseConcept" flags="ng" index="2VYdi">
        <property id="1193676396447" name="virtualPackage" index="3GE5qa" />
        <child id="5169995583184591170" name="smodelAttribute" index="lGtFl" />
      </concept>
      <concept id="3364660638048049745" name="jetbrains.mps.lang.core.structure.LinkAttribute" flags="ng" index="A9Btn">
        <property id="1757699476691236116" name="linkRole" index="2qtEX8" />
        <property id="1341860900488019036" name="linkId" index="P3scX" />
      </concept>
      <concept id="1169194658468" name="jetbrains.mps.lang.core.structure.INamedConcept" flags="ng" index="TrEIO">
        <property id="1169194664001" name="name" index="TrG5h" />
      </concept>
    </language>
    <language id="83888646-71ce-4f1c-9c53-c54016f6ad4f" name="jetbrains.mps.baseLanguage.collections">
      <concept id="1151688443754" name="jetbrains.mps.baseLanguage.collections.structure.ListType" flags="in" index="_YKpA">
        <child id="1151688676805" name="elementType" index="_ZDj9" />
      </concept>
      <concept id="1162935959151" name="jetbrains.mps.baseLanguage.collections.structure.GetSizeOperation" flags="nn" index="34oBXx" />
      <concept id="9042586985346099698" name="jetbrains.mps.baseLanguage.collections.structure.MultiForEachStatement" flags="nn" index="1_o_46">
        <child id="9042586985346099734" name="forEach" index="1_o_by" />
      </concept>
      <concept id="9042586985346099733" name="jetbrains.mps.baseLanguage.collections.structure.MultiForEachPair" flags="ng" index="1_o_bx">
        <child id="9042586985346099778" name="variable" index="1_o_aQ" />
        <child id="9042586985346099735" name="input" index="1_o_bz" />
      </concept>
      <concept id="9042586985346099736" name="jetbrains.mps.baseLanguage.collections.structure.MultiForEachVariable" flags="ng" index="1_o_bG" />
      <concept id="8293956702609956630" name="jetbrains.mps.baseLanguage.collections.structure.MultiForEachVariableReference" flags="nn" index="3M$PaV">
        <reference id="8293956702609966325" name="variable" index="3M$S_o" />
      </concept>
    </language>
  </registry>
  <node concept="1YbPZF" id="hsgMqD_">
    <property role="TrG5h" value="typeof_UpdateModelProcedure" />
    <node concept="3clFbS" id="hsgMqDA" role="18ibNy">
      <node concept="1ZobV4" id="hsgMz3e" role="3cqZAp">
        <property role="Ob790" value="0" />
        <node concept="mw_s8" id="hsgMzCE" role="1ZfhKB">
          <node concept="2c44tf" id="hsgMzCF" role="mwGJk">
            <node concept="H_c77" id="hsgM$yB" role="2c44tc" />
          </node>
        </node>
        <node concept="mw_s8" id="hsgMz3g" role="1ZfhK$">
          <node concept="1Z2H0r" id="hsgMw24" role="mwGJk">
            <node concept="2OqwBi" id="hxx_6KX" role="1Z2MuG">
              <node concept="1YBJjd" id="hsgMwKx" role="2Oq$k0">
                <ref role="1YBMHb" node="hsgMqDB" resolve="nodeToCheck" />
              </node>
              <node concept="3TrEf2" id="hsgMypr" role="2OqNvi">
                <ref role="3Tt5mk" to="tp1h:hsgM3hf" />
              </node>
            </node>
          </node>
        </node>
      </node>
    </node>
    <node concept="1YaCAy" id="hsgMqDB" role="1YuTPh">
      <property role="TrG5h" value="nodeToCheck" />
      <ref role="1YaFvo" to="tp1h:hsgLPLR" resolve="UpdateModelProcedure" />
    </node>
  </node>
  <node concept="1YbPZF" id="hteVZVx">
    <property role="TrG5h" value="typeof_AbstractMoveNodeExpression" />
    <property role="3GE5qa" value="RefActions" />
    <node concept="3clFbS" id="hteVZVy" role="18ibNy">
      <node concept="1ZobV4" id="hteW4UH" role="3cqZAp">
        <property role="Ob790" value="0" />
        <node concept="mw_s8" id="hteW4UI" role="1ZfhKB">
          <node concept="2c44tf" id="hteW4UJ" role="mwGJk">
            <node concept="3Tqbb2" id="hteW4UK" role="2c44tc" />
          </node>
        </node>
        <node concept="mw_s8" id="hteW4UL" role="1ZfhK$">
          <node concept="1Z2H0r" id="hteW4UM" role="mwGJk">
            <node concept="2OqwBi" id="hxx$WiR" role="1Z2MuG">
              <node concept="1YBJjd" id="hteW8cV" role="2Oq$k0">
                <ref role="1YBMHb" node="hteVZVz" resolve="nodeToCheck" />
              </node>
              <node concept="3TrEf2" id="hteW8Yx" role="2OqNvi">
                <ref role="3Tt5mk" to="tp1h:hteT4F2" />
              </node>
            </node>
          </node>
        </node>
      </node>
      <node concept="1Z5TYs" id="hteZhdd" role="3cqZAp">
        <node concept="mw_s8" id="hteZi2v" role="1ZfhKB">
          <node concept="2c44tf" id="hteZi2w" role="mwGJk">
            <node concept="3Tqbb2" id="hteZiAU" role="2c44tc" />
          </node>
        </node>
        <node concept="mw_s8" id="hteZhdf" role="1ZfhK$">
          <node concept="1Z2H0r" id="hteZgpT" role="mwGJk">
            <node concept="1YBJjd" id="hteZgKo" role="1Z2MuG">
              <ref role="1YBMHb" node="hteVZVz" resolve="nodeToCheck" />
            </node>
          </node>
        </node>
      </node>
    </node>
    <node concept="1YaCAy" id="hteVZVz" role="1YuTPh">
      <property role="TrG5h" value="nodeToCheck" />
      <ref role="1YaFvo" to="tp1h:hteVAv1" resolve="AbstractMoveNodeExpression" />
    </node>
  </node>
  <node concept="1YbPZF" id="hteWfd2">
    <property role="TrG5h" value="typeof_AbstractMoveNodesExpression" />
    <property role="3GE5qa" value="RefActions" />
    <node concept="3clFbS" id="hteWfd3" role="18ibNy">
      <node concept="1ZobV4" id="hteWg24" role="3cqZAp">
        <property role="Ob790" value="0" />
        <node concept="mw_s8" id="hteWg25" role="1ZfhKB">
          <node concept="2c44tf" id="hteWg26" role="mwGJk">
            <node concept="_YKpA" id="hteWg27" role="2c44tc">
              <node concept="3Tqbb2" id="hteWg28" role="_ZDj9" />
            </node>
          </node>
        </node>
        <node concept="mw_s8" id="hteWg29" role="1ZfhK$">
          <node concept="1Z2H0r" id="hteWg2a" role="mwGJk">
            <node concept="2OqwBi" id="hxx$TvG" role="1Z2MuG">
              <node concept="1YBJjd" id="hteWg2d" role="2Oq$k0">
                <ref role="1YBMHb" node="hteWfd4" resolve="nodeToCheck" />
              </node>
              <node concept="3TrEf2" id="hteWgO2" role="2OqNvi">
                <ref role="3Tt5mk" to="tp1h:hteT4F2" />
              </node>
            </node>
          </node>
        </node>
      </node>
      <node concept="1Z5TYs" id="hteZm_a" role="3cqZAp">
        <node concept="mw_s8" id="hteZpPH" role="1ZfhKB">
          <node concept="2c44tf" id="hteZqeE" role="mwGJk">
            <node concept="_YKpA" id="hteZqeF" role="2c44tc">
              <node concept="3Tqbb2" id="hteZqeG" role="_ZDj9" />
            </node>
          </node>
        </node>
        <node concept="mw_s8" id="hteZm_c" role="1ZfhK$">
          <node concept="1Z2H0r" id="hteZlro" role="mwGJk">
            <node concept="1YBJjd" id="hteZlM7" role="1Z2MuG">
              <ref role="1YBMHb" node="hteWfd4" resolve="nodeToCheck" />
            </node>
          </node>
        </node>
      </node>
    </node>
    <node concept="1YaCAy" id="hteWfd4" role="1YuTPh">
      <property role="TrG5h" value="nodeToCheck" />
      <ref role="1YaFvo" to="tp1h:hteVHYQ" resolve="AbstractMoveNodesExpression" />
    </node>
  </node>
  <node concept="1YbPZF" id="hteXeQT">
    <property role="TrG5h" value="typeof_MoveNodeToModelExpression" />
    <property role="3GE5qa" value="RefActions" />
    <node concept="3clFbS" id="hteXeQU" role="18ibNy">
      <node concept="1ZobV4" id="hteXfqA" role="3cqZAp">
        <property role="Ob790" value="0" />
        <node concept="mw_s8" id="hteXfqB" role="1ZfhKB">
          <node concept="2c44tf" id="hteXfqC" role="mwGJk">
            <node concept="H_c77" id="hteXfqD" role="2c44tc" />
          </node>
        </node>
        <node concept="mw_s8" id="hteXfqE" role="1ZfhK$">
          <node concept="1Z2H0r" id="hteXfqF" role="mwGJk">
            <node concept="2OqwBi" id="hxx_63p" role="1Z2MuG">
              <node concept="1YBJjd" id="hteXfqI" role="2Oq$k0">
                <ref role="1YBMHb" node="hteXeQV" resolve="nodeToCheck" />
              </node>
              <node concept="3TrEf2" id="hteXg89" role="2OqNvi">
                <ref role="3Tt5mk" to="tp1h:hteT4F3" />
              </node>
            </node>
          </node>
        </node>
      </node>
    </node>
    <node concept="1YaCAy" id="hteXeQV" role="1YuTPh">
      <property role="TrG5h" value="nodeToCheck" />
      <ref role="1YaFvo" to="tp1h:hteWmtV" resolve="MoveNodeToModelExpression" />
    </node>
  </node>
  <node concept="1YbPZF" id="hteXK1g">
    <property role="TrG5h" value="typeof_MoveNodeToNodeExpression" />
    <property role="3GE5qa" value="RefActions" />
    <node concept="3clFbS" id="hteXK1h" role="18ibNy">
      <node concept="1ZobV4" id="hteXNzR" role="3cqZAp">
        <property role="Ob790" value="0" />
        <node concept="mw_s8" id="hteXNzS" role="1ZfhKB">
          <node concept="2c44tf" id="hteXNzT" role="mwGJk">
            <node concept="3Tqbb2" id="hteXNzU" role="2c44tc" />
          </node>
        </node>
        <node concept="mw_s8" id="hteXNzV" role="1ZfhK$">
          <node concept="1Z2H0r" id="hteXNzW" role="mwGJk">
            <node concept="2OqwBi" id="hxx_18t" role="1Z2MuG">
              <node concept="1YBJjd" id="hteXNzZ" role="2Oq$k0">
                <ref role="1YBMHb" node="hteXK1i" resolve="nodeToCheck" />
              </node>
              <node concept="3TrEf2" id="hteXOyq" role="2OqNvi">
                <ref role="3Tt5mk" to="tp1h:hteT4F3" />
              </node>
            </node>
          </node>
        </node>
      </node>
      <node concept="1ZobV4" id="hteXN$0" role="3cqZAp">
        <property role="Ob790" value="0" />
        <node concept="mw_s8" id="hteXN$1" role="1ZfhKB">
          <node concept="2c44tf" id="hteXN$2" role="mwGJk">
            <node concept="17QB3L" id="hP3ccOV" role="2c44tc" />
          </node>
        </node>
        <node concept="mw_s8" id="hteXN$4" role="1ZfhK$">
          <node concept="1Z2H0r" id="hteXN$5" role="mwGJk">
            <node concept="2OqwBi" id="hxx$WbW" role="1Z2MuG">
              <node concept="1YBJjd" id="hteXN$8" role="2Oq$k0">
                <ref role="1YBMHb" node="hteXK1i" resolve="nodeToCheck" />
              </node>
              <node concept="3TrEf2" id="hteXOQc" role="2OqNvi">
                <ref role="3Tt5mk" to="tp1h:hteXBIu" />
              </node>
            </node>
          </node>
        </node>
      </node>
    </node>
    <node concept="1YaCAy" id="hteXK1i" role="1YuTPh">
      <property role="TrG5h" value="nodeToCheck" />
      <ref role="1YaFvo" to="tp1h:hteXot9" resolve="MoveNodeToNodeExpression" />
    </node>
  </node>
  <node concept="1YbPZF" id="hteYn$L">
    <property role="TrG5h" value="typeof_MoveNodesToModelExpression" />
    <property role="3GE5qa" value="RefActions" />
    <node concept="3clFbS" id="hteYn$M" role="18ibNy">
      <node concept="1ZobV4" id="hteYo1o" role="3cqZAp">
        <property role="Ob790" value="0" />
        <node concept="mw_s8" id="hteYo1p" role="1ZfhKB">
          <node concept="2c44tf" id="hteYo1q" role="mwGJk">
            <node concept="H_c77" id="hteYo1r" role="2c44tc" />
          </node>
        </node>
        <node concept="mw_s8" id="hteYo1s" role="1ZfhK$">
          <node concept="1Z2H0r" id="hteYo1t" role="mwGJk">
            <node concept="2OqwBi" id="hxx$DM8" role="1Z2MuG">
              <node concept="1YBJjd" id="hteYo1w" role="2Oq$k0">
                <ref role="1YBMHb" node="hteYn$N" resolve="nodeToCheck" />
              </node>
              <node concept="3TrEf2" id="hteYtJx" role="2OqNvi">
                <ref role="3Tt5mk" to="tp1h:hteT4F3" />
              </node>
            </node>
          </node>
        </node>
      </node>
    </node>
    <node concept="1YaCAy" id="hteYn$N" role="1YuTPh">
      <property role="TrG5h" value="nodeToCheck" />
      <ref role="1YaFvo" to="tp1h:hteXUso" resolve="MoveNodesToModelExpression" />
    </node>
  </node>
  <node concept="1YbPZF" id="hteZ3Zv">
    <property role="TrG5h" value="typeof_MoveNodesToNodeExpression" />
    <property role="3GE5qa" value="RefActions" />
    <node concept="3clFbS" id="hteZ3Zw" role="18ibNy">
      <node concept="1ZobV4" id="hteZ4Z1" role="3cqZAp">
        <property role="Ob790" value="0" />
        <node concept="mw_s8" id="hteZ4Z2" role="1ZfhKB">
          <node concept="2c44tf" id="hteZ4Z3" role="mwGJk">
            <node concept="3Tqbb2" id="hteZ4Z4" role="2c44tc" />
          </node>
        </node>
        <node concept="mw_s8" id="hteZ4Z5" role="1ZfhK$">
          <node concept="1Z2H0r" id="hteZ4Z6" role="mwGJk">
            <node concept="2OqwBi" id="hxx$NSD" role="1Z2MuG">
              <node concept="1YBJjd" id="hteZ4Z9" role="2Oq$k0">
                <ref role="1YBMHb" node="hteZ3Zx" resolve="nodeToCheck" />
              </node>
              <node concept="3TrEf2" id="hteZ5Ge" role="2OqNvi">
                <ref role="3Tt5mk" to="tp1h:hteT4F3" />
              </node>
            </node>
          </node>
        </node>
      </node>
      <node concept="1ZobV4" id="hteZ4Za" role="3cqZAp">
        <property role="Ob790" value="0" />
        <node concept="mw_s8" id="hteZ4Zb" role="1ZfhKB">
          <node concept="2c44tf" id="hteZ4Zc" role="mwGJk">
            <node concept="17QB3L" id="hP3ccpX" role="2c44tc" />
          </node>
        </node>
        <node concept="mw_s8" id="hteZ4Ze" role="1ZfhK$">
          <node concept="1Z2H0r" id="hteZ4Zf" role="mwGJk">
            <node concept="2OqwBi" id="hxx_2Ad" role="1Z2MuG">
              <node concept="1YBJjd" id="hteZ4Zi" role="2Oq$k0">
                <ref role="1YBMHb" node="hteZ3Zx" resolve="nodeToCheck" />
              </node>
              <node concept="3TrEf2" id="hteZ63s" role="2OqNvi">
                <ref role="3Tt5mk" to="tp1h:hteYMGL" />
              </node>
            </node>
          </node>
        </node>
      </node>
    </node>
    <node concept="1YaCAy" id="hteZ3Zx" role="1YuTPh">
      <property role="TrG5h" value="nodeToCheck" />
      <ref role="1YaFvo" to="tp1h:hteYDmx" resolve="MoveNodesToNodeExpression" />
    </node>
  </node>
  <node concept="1YbPZF" id="hFCFgVI">
    <property role="TrG5h" value="typeof_ModuleOperation" />
    <property role="3GE5qa" value="Deprecated.Environment" />
    <node concept="3clFbS" id="hFCFgVJ" role="18ibNy">
      <node concept="1Z5TYs" id="hFCFm6Z" role="3cqZAp">
        <node concept="mw_s8" id="hFCFn1a" role="1ZfhKB">
          <node concept="2c44tf" id="hFCFn1b" role="mwGJk">
            <node concept="3uibUv" id="hFCFnQE" role="2c44tc">
              <ref role="3uigEE" to="lui2:~SModule" resolve="SModule" />
            </node>
          </node>
        </node>
        <node concept="mw_s8" id="hFCFm72" role="1ZfhK$">
          <node concept="1Z2H0r" id="hFCFkRm" role="mwGJk">
            <node concept="1YBJjd" id="hFCFlmR" role="1Z2MuG">
              <ref role="1YBMHb" node="hFCFgVK" resolve="moduleOperation" />
            </node>
          </node>
        </node>
      </node>
    </node>
    <node concept="1YaCAy" id="hFCFgVK" role="1YuTPh">
      <property role="TrG5h" value="moduleOperation" />
      <ref role="1YaFvo" to="tp1h:6Tyhu1FomhL" resolve="ModuleOperation" />
    </node>
  </node>
  <node concept="1YbPZF" id="5YKiRiBuwlV">
    <property role="TrG5h" value="typeof_ConceptFunctionParameter_Module" />
    <property role="3GE5qa" value="RefDecl.Target.Module" />
    <node concept="3clFbS" id="5YKiRiBuwlW" role="18ibNy">
      <node concept="1Z5TYs" id="4WjcdlXS4Cm" role="3cqZAp">
        <node concept="mw_s8" id="4WjcdlXS4Cn" role="1ZfhKB">
          <node concept="1Z2H0r" id="4WjcdlXS4Co" role="mwGJk">
            <node concept="2OqwBi" id="4WjcdlXS4Cp" role="1Z2MuG">
              <node concept="2Xjw5R" id="4WjcdlXS4Cr" role="2OqNvi">
                <node concept="1xMEDy" id="4WjcdlXS4Cs" role="1xVPHs">
                  <node concept="chp4Y" id="4WjcdlXS4Cz" role="ri$Ld">
                    <ref role="cht4Q" to="tp1h:5YKiRiBuwlF" resolve="ModuleTarget" />
                  </node>
                </node>
              </node>
              <node concept="1YBJjd" id="4WjcdlXS4Cy" role="2Oq$k0">
                <ref role="1YBMHb" node="5YKiRiBuwlX" resolve="module" />
              </node>
            </node>
          </node>
        </node>
        <node concept="mw_s8" id="4WjcdlXS4Cu" role="1ZfhK$">
          <node concept="1Z2H0r" id="4WjcdlXS4Cv" role="mwGJk">
            <node concept="1YBJjd" id="4WjcdlXS4Cx" role="1Z2MuG">
              <ref role="1YBMHb" node="5YKiRiBuwlX" resolve="module" />
            </node>
          </node>
        </node>
      </node>
    </node>
    <node concept="1YaCAy" id="5YKiRiBuwlX" role="1YuTPh">
      <property role="TrG5h" value="module" />
      <ref role="1YaFvo" to="tp1h:5YKiRiBuwlR" resolve="ConceptFunctionParameter_Module" />
    </node>
  </node>
  <node concept="1YbPZF" id="5YKiRiBuwmy">
    <property role="TrG5h" value="typeof_ConceptFunctionParameter_SNode" />
    <property role="3GE5qa" value="RefDecl.Target.Node" />
    <node concept="3clFbS" id="5YKiRiBuwmz" role="18ibNy">
      <node concept="1Z5TYs" id="4WjcdlXS4n$" role="3cqZAp">
        <node concept="mw_s8" id="4WjcdlXS4Cj" role="1ZfhKB">
          <node concept="1Z2H0r" id="4WjcdlXS4Ck" role="mwGJk">
            <node concept="2OqwBi" id="5YKiRiBuwoj" role="1Z2MuG">
              <node concept="1YBJjd" id="5YKiRiBuwok" role="2Oq$k0">
                <ref role="1YBMHb" node="5YKiRiBuwm$" resolve="node" />
              </node>
              <node concept="2Xjw5R" id="5YKiRiBuwol" role="2OqNvi">
                <node concept="1xMEDy" id="5YKiRiBuwom" role="1xVPHs">
                  <node concept="chp4Y" id="5YKiRiBuwon" role="ri$Ld">
                    <ref role="cht4Q" to="tp1h:5YKiRiBuwlG" resolve="NodeTarget" />
                  </node>
                </node>
              </node>
            </node>
          </node>
        </node>
        <node concept="mw_s8" id="4WjcdlXS4nB" role="1ZfhK$">
          <node concept="1Z2H0r" id="4WjcdlXS4nw" role="mwGJk">
            <node concept="1YBJjd" id="4WjcdlXS4nz" role="1Z2MuG">
              <ref role="1YBMHb" node="5YKiRiBuwm$" resolve="node" />
            </node>
          </node>
        </node>
      </node>
    </node>
    <node concept="1YaCAy" id="5YKiRiBuwm$" role="1YuTPh">
      <property role="TrG5h" value="node" />
      <ref role="1YaFvo" to="tp1h:5YKiRiBuwmu" resolve="ConceptFunctionParameter_SNode" />
    </node>
  </node>
  <node concept="1YbPZF" id="q$PMBgbOlg">
    <property role="TrG5h" value="typeof_RefactoringParameterReference" />
    <property role="3GE5qa" value="RefDecl.Arg.Parameters" />
    <node concept="3clFbS" id="q$PMBgbOlh" role="18ibNy">
      <node concept="1Z5TYs" id="q$PMBgbOln" role="3cqZAp">
        <node concept="mw_s8" id="q$PMBgbOlr" role="1ZfhKB">
          <node concept="1Z2H0r" id="q$PMBgbOls" role="mwGJk">
            <node concept="2OqwBi" id="q$PMBgbOlv" role="1Z2MuG">
              <node concept="1YBJjd" id="q$PMBgbOlu" role="2Oq$k0">
                <ref role="1YBMHb" node="q$PMBgbOli" resolve="reference" />
              </node>
              <node concept="3TrEf2" id="q$PMBgbOlz" role="2OqNvi">
                <ref role="3Tt5mk" to="tp1h:5YKiRiBvdC7" />
              </node>
            </node>
          </node>
        </node>
        <node concept="mw_s8" id="q$PMBgbOlq" role="1ZfhK$">
          <node concept="1Z2H0r" id="q$PMBgbOlk" role="mwGJk">
            <node concept="1YBJjd" id="q$PMBgbOlm" role="1Z2MuG">
              <ref role="1YBMHb" node="q$PMBgbOli" resolve="reference" />
            </node>
          </node>
        </node>
      </node>
    </node>
    <node concept="1YaCAy" id="q$PMBgbOli" role="1YuTPh">
      <property role="TrG5h" value="reference" />
      <ref role="1YaFvo" to="tp1h:5YKiRiBvdC6" resolve="RefactoringParameterReference" />
    </node>
  </node>
  <node concept="1YbPZF" id="6Tyhu1Fprxh">
    <property role="TrG5h" value="typeof_RefactoringContext_ConceptFunctionParameter" />
    <property role="3GE5qa" value="RefDecl.Methods" />
    <node concept="3clFbS" id="6Tyhu1Fprxi" role="18ibNy">
      <node concept="1Z5TYs" id="6Tyhu1Fprxo" role="3cqZAp">
        <node concept="mw_s8" id="6Tyhu1Fprxs" role="1ZfhKB">
          <node concept="2c44tf" id="6Tyhu1Fprxt" role="mwGJk">
            <node concept="51ZQE" id="6Tyhu1FpGri" role="2c44tc" />
          </node>
        </node>
        <node concept="mw_s8" id="6Tyhu1Fprxr" role="1ZfhK$">
          <node concept="1Z2H0r" id="6Tyhu1Fprxl" role="mwGJk">
            <node concept="1YBJjd" id="6Tyhu1Fprxn" role="1Z2MuG">
              <ref role="1YBMHb" node="6Tyhu1Fprxj" resolve="parameter" />
            </node>
          </node>
        </node>
      </node>
    </node>
    <node concept="1YaCAy" id="6Tyhu1Fprxj" role="1YuTPh">
      <property role="TrG5h" value="parameter" />
      <ref role="1YaFvo" to="tp1h:6Tyhu1Fon9a" resolve="RefactoringContext_ConceptFunctionParameter" />
    </node>
  </node>
  <node concept="1YbPZF" id="3P0Mnt4FwFK">
    <property role="TrG5h" value="typeof_ModuleTarget" />
    <property role="3GE5qa" value="RefDecl.Target.Module" />
    <node concept="3clFbS" id="3P0Mnt4FwFL" role="18ibNy">
      <node concept="2NvLDW" id="3P0Mnt4FwFW" role="3cqZAp">
        <property role="Ob790" value="0" />
        <property role="3wDh2S" value="true" />
        <node concept="mw_s8" id="3P0Mnt4FwG0" role="1ZfhKB">
          <node concept="2c44tf" id="3P0Mnt4FwG1" role="mwGJk">
            <node concept="3uibUv" id="3P0Mnt4FwG5" role="2c44tc">
              <ref role="3uigEE" to="lui2:~SModule" resolve="SModule" />
            </node>
          </node>
        </node>
        <node concept="mw_s8" id="3P0Mnt4FwFZ" role="1ZfhK$">
          <node concept="1Z2H0r" id="3P0Mnt4FwFO" role="mwGJk">
            <node concept="2OqwBi" id="3P0Mnt4FwFR" role="1Z2MuG">
              <node concept="1YBJjd" id="3P0Mnt4FwFQ" role="2Oq$k0">
                <ref role="1YBMHb" node="3P0Mnt4FwFM" resolve="target" />
              </node>
              <node concept="3TrEf2" id="3P0Mnt4FwFV" role="2OqNvi">
                <ref role="3Tt5mk" to="tp1h:5YKiRiBuwlJ" />
              </node>
            </node>
          </node>
        </node>
      </node>
      <node concept="3cpWs8" id="1$UaBONtt0j" role="3cqZAp">
        <node concept="3cpWsn" id="1$UaBONtt0k" role="3cpWs9">
          <property role="TrG5h" value="moduleType" />
          <node concept="3Tqbb2" id="1$UaBONtt0l" role="1tU5fm">
            <ref role="ehGHo" to="tpee:g7uibYu" resolve="ClassifierType" />
          </node>
          <node concept="2OqwBi" id="1$UaBONtt0m" role="33vP2m">
            <node concept="3TrEf2" id="1$UaBONtt0s" role="2OqNvi">
              <ref role="3Tt5mk" to="tp1h:5YKiRiBuwlJ" />
            </node>
            <node concept="1YBJjd" id="1$UaBONtt0L" role="2Oq$k0">
              <ref role="1YBMHb" node="3P0Mnt4FwFM" resolve="target" />
            </node>
          </node>
        </node>
      </node>
      <node concept="3clFbJ" id="1$UaBONtt0t" role="3cqZAp">
        <node concept="3clFbS" id="1$UaBONtt0u" role="3clFbx">
          <node concept="1Z5TYs" id="1$UaBONtt0v" role="3cqZAp">
            <node concept="mw_s8" id="1$UaBONtt0w" role="1ZfhKB">
              <node concept="37vLTw" id="3GM_nagTrZq" role="mwGJk">
                <ref role="3cqZAo" node="1$UaBONtt0k" resolve="moduleType" />
              </node>
            </node>
            <node concept="mw_s8" id="1$UaBONtt0y" role="1ZfhK$">
              <node concept="1Z2H0r" id="1$UaBONtt0z" role="mwGJk">
                <node concept="1YBJjd" id="1$UaBONtuY1" role="1Z2MuG">
                  <ref role="1YBMHb" node="3P0Mnt4FwFM" resolve="target" />
                </node>
              </node>
            </node>
          </node>
        </node>
        <node concept="2OqwBi" id="1$UaBONtt0_" role="3clFbw">
          <node concept="37vLTw" id="3GM_nagTrlU" role="2Oq$k0">
            <ref role="3cqZAo" node="1$UaBONtt0k" resolve="moduleType" />
          </node>
          <node concept="3x8VRR" id="1$UaBONtt0B" role="2OqNvi" />
        </node>
        <node concept="9aQIb" id="1$UaBONtt0C" role="9aQIa">
          <node concept="3clFbS" id="1$UaBONtt0D" role="9aQI4">
            <node concept="1Z5TYs" id="1$UaBONtt0E" role="3cqZAp">
              <node concept="mw_s8" id="1$UaBONtt0F" role="1ZfhKB">
                <node concept="2c44tf" id="1$UaBONtt0G" role="mwGJk">
                  <node concept="3uibUv" id="1$UaBONtt0H" role="2c44tc">
                    <ref role="3uigEE" to="lui2:~SModule" resolve="SModule" />
                  </node>
                </node>
              </node>
              <node concept="mw_s8" id="1$UaBONtt0I" role="1ZfhK$">
                <node concept="1Z2H0r" id="1$UaBONtt0J" role="mwGJk">
                  <node concept="1YBJjd" id="1$UaBONtuY2" role="1Z2MuG">
                    <ref role="1YBMHb" node="3P0Mnt4FwFM" resolve="target" />
                  </node>
                </node>
              </node>
            </node>
          </node>
        </node>
      </node>
      <node concept="3clFbH" id="1$UaBONtt0i" role="3cqZAp" />
    </node>
    <node concept="1YaCAy" id="3P0Mnt4FwFM" role="1YuTPh">
      <property role="TrG5h" value="target" />
      <ref role="1YaFvo" to="tp1h:5YKiRiBuwlF" resolve="ModuleTarget" />
    </node>
  </node>
  <node concept="1YbPZF" id="65fYhwGpPkD">
    <property role="TrG5h" value="typeof_ContextMemberOperation" />
    <node concept="3clFbS" id="65fYhwGpPkE" role="18ibNy">
      <node concept="1Z5TYs" id="65fYhwGpPkK" role="3cqZAp">
        <node concept="mw_s8" id="65fYhwGpPkN" role="1ZfhK$">
          <node concept="1Z2H0r" id="65fYhwGpPkH" role="mwGJk">
            <node concept="1YBJjd" id="65fYhwGpPkJ" role="1Z2MuG">
              <ref role="1YBMHb" node="65fYhwGpPkF" resolve="contextMemberOperation" />
            </node>
          </node>
        </node>
        <node concept="mw_s8" id="65fYhwGpPkO" role="1ZfhKB">
          <node concept="2OqwBi" id="65fYhwGpPkQ" role="mwGJk">
            <node concept="1YBJjd" id="65fYhwGpPkP" role="2Oq$k0">
              <ref role="1YBMHb" node="65fYhwGpPkF" resolve="contextMemberOperation" />
            </node>
            <node concept="2qgKlT" id="65fYhwGpPkU" role="2OqNvi">
              <ref role="37wK5l" to="tp1q:65fYhwGpPk$" resolve="createType" />
            </node>
          </node>
        </node>
      </node>
    </node>
    <node concept="1YaCAy" id="65fYhwGpPkF" role="1YuTPh">
      <property role="TrG5h" value="contextMemberOperation" />
      <ref role="1YaFvo" to="tp1h:6Tyhu1FomhH" resolve="ContextMemberOperation" />
    </node>
  </node>
  <node concept="1YbPZF" id="3LlWHEPrRRy">
    <property role="TrG5h" value="typeof_ModelsToGenerateByDefault" />
    <property role="3GE5qa" value="RefDecl.Methods" />
    <node concept="3clFbS" id="3LlWHEPrRRz" role="18ibNy">
      <node concept="1Z5TYs" id="3LlWHEPrT3i" role="3cqZAp">
        <node concept="mw_s8" id="3LlWHEPrT3l" role="1ZfhK$">
          <node concept="1Z2H0r" id="3LlWHEPrT0C" role="mwGJk">
            <node concept="1YBJjd" id="3LlWHEPrT3h" role="1Z2MuG">
              <ref role="1YBMHb" node="3LlWHEPrRR$" resolve="modelsToGenerateByDefault" />
            </node>
          </node>
        </node>
        <node concept="mw_s8" id="3LlWHEPrT3m" role="1ZfhKB">
          <node concept="2c44tf" id="3LlWHEPrT3n" role="mwGJk">
            <node concept="_YKpA" id="3LlWHEPrT3r" role="2c44tc">
              <node concept="H_c77" id="3LlWHEPrT3t" role="_ZDj9" />
            </node>
          </node>
        </node>
      </node>
    </node>
    <node concept="1YaCAy" id="3LlWHEPrRR$" role="1YuTPh">
      <property role="TrG5h" value="modelsToGenerateByDefault" />
      <ref role="1YaFvo" to="tp1h:3LlWHEPrkgt" resolve="ModelsToGenerateByDefault" />
    </node>
  </node>
  <node concept="2sgARr" id="L2MDnu8gKo">
    <property role="2RFo0w" value="true" />
    <property role="TrG5h" value="supertypeOf_ContextType_RefactoringContext" />
    <property role="3GE5qa" value="Context" />
    <node concept="3clFbS" id="L2MDnu8gKp" role="2sgrp5">
      <node concept="3cpWs6" id="L2MDnu8gKx" role="3cqZAp">
        <node concept="2c44tf" id="L2MDnu8gKz" role="3cqZAk">
          <node concept="3uibUv" id="L2MDnu8gK$" role="2c44tc">
            <ref role="3uigEE" to="ge2m:4a0HOMfn8yn" resolve="RefactoringContext" />
          </node>
        </node>
      </node>
    </node>
    <node concept="1YaCAy" id="L2MDnu8gKq" role="1YuTPh">
      <property role="TrG5h" value="node" />
      <ref role="1YaFvo" to="tp1h:6Tyhu1Fprxa" resolve="ContextType" />
    </node>
  </node>
  <node concept="1YbPZF" id="1$UaBONt0pL">
    <property role="TrG5h" value="typeof_CreateRefactoringContext" />
    <property role="3GE5qa" value="Context" />
    <node concept="3clFbS" id="1$UaBONt0pM" role="18ibNy">
      <node concept="3cpWs8" id="1$UaBONtrA$" role="3cqZAp">
        <node concept="3cpWsn" id="1$UaBONtrA_" role="3cpWs9">
          <property role="TrG5h" value="target" />
          <node concept="3Tqbb2" id="1$UaBONtrAD" role="1tU5fm">
            <ref role="ehGHo" to="tp1h:5YKiRiBuwlD" resolve="RefactoringTarget" />
          </node>
          <node concept="2OqwBi" id="1$UaBONtrAj" role="33vP2m">
            <node concept="2OqwBi" id="1$UaBONtrAe" role="2Oq$k0">
              <node concept="1YBJjd" id="1$UaBONtrAd" role="2Oq$k0">
                <ref role="1YBMHb" node="1$UaBONt0pN" resolve="createContextNode" />
              </node>
              <node concept="3TrEf2" id="1$UaBONtrAi" role="2OqNvi">
                <ref role="3Tt5mk" to="tp1h:3ds86G2JjiE" />
              </node>
            </node>
            <node concept="3TrEf2" id="1$UaBONtrAn" role="2OqNvi">
              <ref role="3Tt5mk" to="tp1h:5YKiRiBuwpm" />
            </node>
          </node>
        </node>
      </node>
      <node concept="3clFbJ" id="1$UaBONtrA9" role="3cqZAp">
        <node concept="3clFbS" id="1$UaBONtrAa" role="3clFbx">
          <node concept="1ZobV4" id="4WjcdlXS4cC" role="3cqZAp">
            <node concept="mw_s8" id="4WjcdlXS4cD" role="1ZfhK$">
              <node concept="1Z2H0r" id="4WjcdlXS4cE" role="mwGJk">
                <node concept="2OqwBi" id="4WjcdlXS4cF" role="1Z2MuG">
                  <node concept="1YBJjd" id="4WjcdlXS4cG" role="2Oq$k0">
                    <ref role="1YBMHb" node="1$UaBONt0pN" resolve="createContextNode" />
                  </node>
                  <node concept="3TrEf2" id="4WjcdlXS4cH" role="2OqNvi">
                    <ref role="3Tt5mk" to="tp1h:3ds86G2Jut5" />
                  </node>
                </node>
              </node>
            </node>
            <node concept="mw_s8" id="4WjcdlXS4cI" role="1ZfhKB">
              <node concept="1Z2H0r" id="4WjcdlXS4cJ" role="mwGJk">
                <node concept="37vLTw" id="3GM_nagTw2g" role="1Z2MuG">
                  <ref role="3cqZAo" node="1$UaBONtrA_" resolve="target" />
                </node>
              </node>
            </node>
          </node>
        </node>
        <node concept="3clFbC" id="1$UaBONtrAt" role="3clFbw">
          <node concept="3clFbT" id="1$UaBONtrAw" role="3uHU7w">
            <property role="3clFbU" value="false" />
          </node>
          <node concept="2OqwBi" id="1$UaBONtrAo" role="3uHU7B">
            <node concept="3TrcHB" id="1$UaBONtrAs" role="2OqNvi">
              <ref role="3TsBF5" to="tp1h:5YKiRiBuwpn" resolve="allowMultiple" />
            </node>
            <node concept="37vLTw" id="3GM_nagTAw1" role="2Oq$k0">
              <ref role="3cqZAo" node="1$UaBONtrA_" resolve="target" />
            </node>
          </node>
        </node>
        <node concept="9aQIb" id="1$UaBONtuYA" role="9aQIa">
          <node concept="3clFbS" id="1$UaBONtuYB" role="9aQI4">
            <node concept="1ZobV4" id="1$UaBONtGE1" role="3cqZAp">
              <node concept="mw_s8" id="1$UaBONtGE2" role="1ZfhK$">
                <node concept="1Z2H0r" id="1$UaBONtGE3" role="mwGJk">
                  <node concept="2OqwBi" id="1$UaBONtGE4" role="1Z2MuG">
                    <node concept="1YBJjd" id="1$UaBONtGE5" role="2Oq$k0">
                      <ref role="1YBMHb" node="1$UaBONt0pN" resolve="createContextNode" />
                    </node>
                    <node concept="3TrEf2" id="1$UaBONtGE6" role="2OqNvi">
                      <ref role="3Tt5mk" to="tp1h:3ds86G2Jut5" />
                    </node>
                  </node>
                </node>
              </node>
              <node concept="mw_s8" id="1$UaBONtGE7" role="1ZfhKB">
                <node concept="2c44tf" id="1$UaBONtGE8" role="mwGJk">
                  <node concept="_YKpA" id="1$UaBONtGE9" role="2c44tc">
                    <node concept="33vP2l" id="1$UaBONtGEa" role="_ZDj9">
                      <node concept="2c44te" id="1$UaBONtGEb" role="lGtFl">
                        <node concept="1Z2H0r" id="4WjcdlXRZHN" role="2c44t1">
                          <node concept="37vLTw" id="3GM_nagTBpb" role="1Z2MuG">
                            <ref role="3cqZAo" node="1$UaBONtrA_" resolve="target" />
                          </node>
                        </node>
                      </node>
                    </node>
                  </node>
                </node>
              </node>
            </node>
          </node>
        </node>
      </node>
      <node concept="1ZobV4" id="6nthb2Jwq2t" role="3cqZAp">
        <node concept="mw_s8" id="6nthb2Jwq2x" role="1ZfhKB">
          <node concept="2c44tf" id="6nthb2Jwq2y" role="mwGJk">
            <node concept="3uibUv" id="6nthb2Jx2TJ" role="2c44tc">
              <ref role="3uigEE" to="z1c3:~Project" resolve="Project" />
            </node>
          </node>
        </node>
        <node concept="mw_s8" id="6nthb2Jwq2w" role="1ZfhK$">
          <node concept="1Z2H0r" id="6nthb2Jwq2e" role="mwGJk">
            <node concept="2OqwBi" id="6nthb2Jwq2o" role="1Z2MuG">
              <node concept="1YBJjd" id="6nthb2Jwq2n" role="2Oq$k0">
                <ref role="1YBMHb" node="1$UaBONt0pN" resolve="createContextNode" />
              </node>
              <node concept="3TrEf2" id="6nthb2Jwq2s" role="2OqNvi">
                <ref role="3Tt5mk" to="tp1h:6nthb2Jwq26" />
              </node>
            </node>
          </node>
        </node>
      </node>
      <node concept="3clFbJ" id="1$UaBONt3u7" role="3cqZAp">
        <node concept="3clFbS" id="1$UaBONt3u8" role="3clFbx">
          <node concept="2MkqsV" id="1$UaBONt3uU" role="3cqZAp">
            <node concept="Xl_RD" id="1$UaBONt3uX" role="2MkJ7o">
              <property role="Xl_RC" value="wrong number of parameters" />
            </node>
            <node concept="1YBJjd" id="1$UaBONt3uY" role="2OEOjV">
              <ref role="1YBMHb" node="1$UaBONt0pN" resolve="createContextNode" />
            </node>
          </node>
        </node>
        <node concept="3y3z36" id="1$UaBONt3um" role="3clFbw">
          <node concept="2OqwBi" id="1$UaBONt3uE" role="3uHU7w">
            <node concept="2OqwBi" id="1$UaBONt3u_" role="2Oq$k0">
              <node concept="2OqwBi" id="1$UaBONt3uq" role="2Oq$k0">
                <node concept="1YBJjd" id="1$UaBONt3up" role="2Oq$k0">
                  <ref role="1YBMHb" node="1$UaBONt0pN" resolve="createContextNode" />
                </node>
                <node concept="3TrEf2" id="1$UaBONt3u$" role="2OqNvi">
                  <ref role="3Tt5mk" to="tp1h:3ds86G2JjiE" />
                </node>
              </node>
              <node concept="3Tsc0h" id="1$UaBONt3uD" role="2OqNvi">
                <ref role="3TtcxE" to="tp1h:5YKiRiBuebo" />
              </node>
            </node>
            <node concept="34oBXx" id="1$UaBONt3uI" role="2OqNvi" />
          </node>
          <node concept="2OqwBi" id="1$UaBONt3uJ" role="3uHU7B">
            <node concept="2OqwBi" id="1$UaBONt3uc" role="2Oq$k0">
              <node concept="1YBJjd" id="1$UaBONt3ub" role="2Oq$k0">
                <ref role="1YBMHb" node="1$UaBONt0pN" resolve="createContextNode" />
              </node>
              <node concept="3Tsc0h" id="1$UaBONt3ug" role="2OqNvi">
                <ref role="3TtcxE" to="tp1h:3ds86G2JHaE" />
              </node>
            </node>
            <node concept="34oBXx" id="1$UaBONt3uN" role="2OqNvi" />
          </node>
        </node>
      </node>
      <node concept="1_o_46" id="4WjcdlXS4d5" role="3cqZAp">
        <node concept="1_o_bx" id="4WjcdlXS4d6" role="1_o_by">
          <node concept="1_o_bG" id="4WjcdlXS4d7" role="1_o_aQ">
            <property role="TrG5h" value="inputParameter" />
          </node>
          <node concept="2OqwBi" id="4WjcdlXS6Sg" role="1_o_bz">
            <node concept="1YBJjd" id="4WjcdlXS6Sf" role="2Oq$k0">
              <ref role="1YBMHb" node="1$UaBONt0pN" resolve="createContextNode" />
            </node>
            <node concept="3Tsc0h" id="4WjcdlXS6Sk" role="2OqNvi">
              <ref role="3TtcxE" to="tp1h:3ds86G2JHaE" />
            </node>
          </node>
        </node>
        <node concept="1_o_bx" id="4WjcdlXS4da" role="1_o_by">
          <node concept="1_o_bG" id="4WjcdlXS4db" role="1_o_aQ">
            <property role="TrG5h" value="declaredParameter" />
          </node>
          <node concept="2OqwBi" id="4WjcdlXS6Sl" role="1_o_bz">
            <node concept="2OqwBi" id="4WjcdlXS6Sm" role="2Oq$k0">
              <node concept="1YBJjd" id="4WjcdlXS6Sn" role="2Oq$k0">
                <ref role="1YBMHb" node="1$UaBONt0pN" resolve="createContextNode" />
              </node>
              <node concept="3TrEf2" id="4WjcdlXS6So" role="2OqNvi">
                <ref role="3Tt5mk" to="tp1h:3ds86G2JjiE" />
              </node>
            </node>
            <node concept="3Tsc0h" id="4WjcdlXS6Sp" role="2OqNvi">
              <ref role="3TtcxE" to="tp1h:5YKiRiBuebo" />
            </node>
          </node>
        </node>
        <node concept="3clFbS" id="4WjcdlXS4d9" role="2LFqv$">
          <node concept="1ZobV4" id="6nthb2Jwq2g" role="3cqZAp">
            <node concept="mw_s8" id="6nthb2Jwq2h" role="1ZfhK$">
              <node concept="1Z2H0r" id="6nthb2Jwq2i" role="mwGJk">
                <node concept="3M$PaV" id="6nthb2Jwq2j" role="1Z2MuG">
                  <ref role="3M$S_o" node="4WjcdlXS4d7" resolve="inputParameter" />
                </node>
              </node>
            </node>
            <node concept="mw_s8" id="6nthb2Jwq2k" role="1ZfhKB">
              <node concept="1Z2H0r" id="6nthb2Jwq2l" role="mwGJk">
                <node concept="3M$PaV" id="6nthb2Jwq2m" role="1Z2MuG">
                  <ref role="3M$S_o" node="4WjcdlXS4db" resolve="declaredParameter" />
                </node>
              </node>
            </node>
          </node>
        </node>
      </node>
      <node concept="1Z5TYs" id="1$UaBONt0pS" role="3cqZAp">
        <node concept="mw_s8" id="1$UaBONt0pV" role="1ZfhK$">
          <node concept="1Z2H0r" id="1$UaBONt0pP" role="mwGJk">
            <node concept="1YBJjd" id="1$UaBONt0pR" role="1Z2MuG">
              <ref role="1YBMHb" node="1$UaBONt0pN" resolve="createContextNode" />
            </node>
          </node>
        </node>
        <node concept="mw_s8" id="1$UaBONtuZQ" role="1ZfhKB">
          <node concept="2c44tf" id="1$UaBONtuZR" role="mwGJk">
            <node concept="51ZQE" id="1$UaBONtuZT" role="2c44tc" />
          </node>
        </node>
      </node>
    </node>
    <node concept="1YaCAy" id="1$UaBONt0pN" role="1YuTPh">
      <property role="TrG5h" value="createContextNode" />
      <ref role="1YaFvo" to="tp1h:3ds86G2J2R_" resolve="CreateRefactoringContext" />
    </node>
  </node>
  <node concept="1YbPZF" id="1$UaBONtrBp">
    <property role="TrG5h" value="typeof_NodeTarget" />
    <property role="3GE5qa" value="RefDecl.Target.Node" />
    <node concept="3clFbS" id="1$UaBONtrBq" role="18ibNy">
      <node concept="3cpWs8" id="1$UaBONtsZK" role="3cqZAp">
        <node concept="3cpWsn" id="1$UaBONtsZL" role="3cpWs9">
          <property role="TrG5h" value="nodeConcept" />
          <node concept="3Tqbb2" id="1$UaBONtsZM" role="1tU5fm">
            <ref role="ehGHo" to="tpce:h0PkWnZ" resolve="AbstractConceptDeclaration" />
          </node>
          <node concept="2OqwBi" id="1$UaBONtsZN" role="33vP2m">
            <node concept="1YBJjd" id="1$UaBONtt0h" role="2Oq$k0">
              <ref role="1YBMHb" node="1$UaBONtrBr" resolve="nodeTarget" />
            </node>
            <node concept="3TrEf2" id="1$UaBONtsZT" role="2OqNvi">
              <ref role="3Tt5mk" to="tp1h:5YKiRiBuwmm" />
            </node>
          </node>
        </node>
      </node>
      <node concept="3clFbJ" id="1$UaBONtsZU" role="3cqZAp">
        <node concept="3clFbS" id="1$UaBONtsZV" role="3clFbx">
          <node concept="1Z5TYs" id="1$UaBONtsZW" role="3cqZAp">
            <node concept="mw_s8" id="1$UaBONtsZX" role="1ZfhKB">
              <node concept="2c44tf" id="1$UaBONtsZY" role="mwGJk">
                <node concept="3Tqbb2" id="1$UaBONtsZZ" role="2c44tc">
                  <ref role="ehGHo" to="tpck:gw2VY9q" resolve="BaseConcept" />
                  <node concept="2c44tb" id="1$UaBONtt00" role="lGtFl">
                    <property role="2qtEX8" value="concept" />
                    <property role="P3scX" value="7866978e-a0f0-4cc7-81bc-4d213d9375e1/1138055754698/1138405853777" />
                    <node concept="37vLTw" id="3GM_nagTz_k" role="2c44t1">
                      <ref role="3cqZAo" node="1$UaBONtsZL" resolve="nodeConcept" />
                    </node>
                  </node>
                </node>
              </node>
            </node>
            <node concept="mw_s8" id="1$UaBONtt02" role="1ZfhK$">
              <node concept="1Z2H0r" id="1$UaBONtt03" role="mwGJk">
                <node concept="1YBJjd" id="1$UaBONtt0M" role="1Z2MuG">
                  <ref role="1YBMHb" node="1$UaBONtrBr" resolve="nodeTarget" />
                </node>
              </node>
            </node>
          </node>
        </node>
        <node concept="2OqwBi" id="1$UaBONtt05" role="3clFbw">
          <node concept="37vLTw" id="3GM_nagTtjY" role="2Oq$k0">
            <ref role="3cqZAo" node="1$UaBONtsZL" resolve="nodeConcept" />
          </node>
          <node concept="3x8VRR" id="1$UaBONtt07" role="2OqNvi" />
        </node>
        <node concept="9aQIb" id="1$UaBONtt08" role="9aQIa">
          <node concept="3clFbS" id="1$UaBONtt09" role="9aQI4">
            <node concept="1Z5TYs" id="1$UaBONtt0a" role="3cqZAp">
              <node concept="mw_s8" id="1$UaBONtt0b" role="1ZfhKB">
                <node concept="2c44tf" id="1$UaBONtt0c" role="mwGJk">
                  <node concept="3Tqbb2" id="1$UaBONtt0d" role="2c44tc" />
                </node>
              </node>
              <node concept="mw_s8" id="1$UaBONtt0e" role="1ZfhK$">
                <node concept="1Z2H0r" id="1$UaBONtt0f" role="mwGJk">
                  <node concept="1YBJjd" id="1$UaBONtt0N" role="1Z2MuG">
                    <ref role="1YBMHb" node="1$UaBONtrBr" resolve="nodeTarget" />
                  </node>
                </node>
              </node>
            </node>
          </node>
        </node>
      </node>
    </node>
    <node concept="1YaCAy" id="1$UaBONtrBr" role="1YuTPh">
      <property role="TrG5h" value="nodeTarget" />
      <ref role="1YaFvo" to="tp1h:5YKiRiBuwlG" resolve="NodeTarget" />
    </node>
  </node>
  <node concept="1YbPZF" id="1$UaBONtuY3">
    <property role="TrG5h" value="typeof_ModelTarget" />
    <property role="3GE5qa" value="RefDecl.Target.Model" />
    <node concept="3clFbS" id="1$UaBONtuY4" role="18ibNy">
      <node concept="1Z5TYs" id="1$UaBONtuYa" role="3cqZAp">
        <node concept="mw_s8" id="1$UaBONtuYe" role="1ZfhKB">
          <node concept="2c44tf" id="1$UaBONtuYf" role="mwGJk">
            <node concept="H_c77" id="1$UaBONtuZX" role="2c44tc" />
          </node>
        </node>
        <node concept="mw_s8" id="1$UaBONtuYd" role="1ZfhK$">
          <node concept="1Z2H0r" id="1$UaBONtuY7" role="mwGJk">
            <node concept="1YBJjd" id="1$UaBONtuY9" role="1Z2MuG">
              <ref role="1YBMHb" node="1$UaBONtuY5" resolve="target" />
            </node>
          </node>
        </node>
      </node>
    </node>
    <node concept="1YaCAy" id="1$UaBONtuY5" role="1YuTPh">
      <property role="TrG5h" value="target" />
      <ref role="1YaFvo" to="tp1h:5YKiRiBuwlE" resolve="ModelTarget" />
    </node>
  </node>
  <node concept="1YbPZF" id="5Ij6cQ6ZpiZ">
    <property role="TrG5h" value="typeof_IsRefactoringApplicable" />
    <property role="3GE5qa" value="RefActions" />
    <node concept="3clFbS" id="5Ij6cQ6Zpj0" role="18ibNy">
      <node concept="3cpWs8" id="7jc1wOEAm8B" role="3cqZAp">
        <node concept="3cpWsn" id="7jc1wOEAm8C" role="3cpWs9">
          <property role="TrG5h" value="target" />
          <node concept="3Tqbb2" id="7jc1wOEAm8D" role="1tU5fm">
            <ref role="ehGHo" to="tp1h:5YKiRiBuwlD" resolve="RefactoringTarget" />
          </node>
          <node concept="2OqwBi" id="7jc1wOEAm8E" role="33vP2m">
            <node concept="2OqwBi" id="7jc1wOEAm8F" role="2Oq$k0">
              <node concept="3TrEf2" id="7jc1wOEAm8K" role="2OqNvi">
                <ref role="3Tt5mk" to="tp1h:5Ij6cQ6Zp5Y" />
              </node>
              <node concept="1YBJjd" id="7jc1wOEAm8J" role="2Oq$k0">
                <ref role="1YBMHb" node="5Ij6cQ6Zpj1" resolve="node" />
              </node>
            </node>
            <node concept="3TrEf2" id="7jc1wOEAm8I" role="2OqNvi">
              <ref role="3Tt5mk" to="tp1h:5YKiRiBuwpm" />
            </node>
          </node>
        </node>
      </node>
      <node concept="3clFbJ" id="7jc1wOEAm87" role="3cqZAp">
        <node concept="3clFbS" id="7jc1wOEAm88" role="3clFbx">
          <node concept="1ZobV4" id="7jc1wOEAm89" role="3cqZAp">
            <node concept="mw_s8" id="7jc1wOEAm8a" role="1ZfhK$">
              <node concept="1Z2H0r" id="7jc1wOEAm8b" role="mwGJk">
                <node concept="2OqwBi" id="7jc1wOEAm8c" role="1Z2MuG">
                  <node concept="3TrEf2" id="7jc1wOEAm8O" role="2OqNvi">
                    <ref role="3Tt5mk" to="tp1h:5Ij6cQ6ZpiA" />
                  </node>
                  <node concept="1YBJjd" id="7jc1wOEAm8M" role="2Oq$k0">
                    <ref role="1YBMHb" node="5Ij6cQ6Zpj1" resolve="node" />
                  </node>
                </node>
              </node>
            </node>
            <node concept="mw_s8" id="7jc1wOEAm8f" role="1ZfhKB">
              <node concept="1Z2H0r" id="7jc1wOEAm8g" role="mwGJk">
                <node concept="37vLTw" id="3GM_nagTwqL" role="1Z2MuG">
                  <ref role="3cqZAo" node="7jc1wOEAm8C" resolve="target" />
                </node>
              </node>
            </node>
          </node>
        </node>
        <node concept="3clFbC" id="7jc1wOEAm8i" role="3clFbw">
          <node concept="3clFbT" id="7jc1wOEAm8j" role="3uHU7w">
            <property role="3clFbU" value="false" />
          </node>
          <node concept="2OqwBi" id="7jc1wOEAm8k" role="3uHU7B">
            <node concept="3TrcHB" id="7jc1wOEAm8l" role="2OqNvi">
              <ref role="3TsBF5" to="tp1h:5YKiRiBuwpn" resolve="allowMultiple" />
            </node>
            <node concept="37vLTw" id="3GM_nagT_ee" role="2Oq$k0">
              <ref role="3cqZAo" node="7jc1wOEAm8C" resolve="target" />
            </node>
          </node>
        </node>
        <node concept="9aQIb" id="7jc1wOEAm8n" role="9aQIa">
          <node concept="3clFbS" id="7jc1wOEAm8o" role="9aQI4">
            <node concept="1ZobV4" id="7jc1wOEAm8p" role="3cqZAp">
              <node concept="mw_s8" id="7jc1wOEAm8q" role="1ZfhK$">
                <node concept="1Z2H0r" id="7jc1wOEAm8r" role="mwGJk">
                  <node concept="2OqwBi" id="7jc1wOEAm8s" role="1Z2MuG">
                    <node concept="1YBJjd" id="7jc1wOEAm8P" role="2Oq$k0">
                      <ref role="1YBMHb" node="5Ij6cQ6Zpj1" resolve="node" />
                    </node>
                    <node concept="3TrEf2" id="7jc1wOEAm8Q" role="2OqNvi">
                      <ref role="3Tt5mk" to="tp1h:5Ij6cQ6ZpiA" />
                    </node>
                  </node>
                </node>
              </node>
              <node concept="mw_s8" id="7jc1wOEAm8v" role="1ZfhKB">
                <node concept="2c44tf" id="7jc1wOEAm8w" role="mwGJk">
                  <node concept="_YKpA" id="7jc1wOEAm8x" role="2c44tc">
                    <node concept="33vP2l" id="7jc1wOEAm8y" role="_ZDj9">
                      <node concept="2c44te" id="7jc1wOEAm8z" role="lGtFl">
                        <node concept="1Z2H0r" id="7jc1wOEAm8$" role="2c44t1">
                          <node concept="37vLTw" id="3GM_nagTsUy" role="1Z2MuG">
                            <ref role="3cqZAo" node="7jc1wOEAm8C" resolve="target" />
                          </node>
                        </node>
                      </node>
                    </node>
                  </node>
                </node>
              </node>
            </node>
          </node>
        </node>
      </node>
      <node concept="1Z5TYs" id="5Ij6cQ6Zvuu" role="3cqZAp">
        <node concept="mw_s8" id="5Ij6cQ6Zvux" role="1ZfhK$">
          <node concept="1Z2H0r" id="5Ij6cQ6Zpj8" role="mwGJk">
            <node concept="1YBJjd" id="5Ij6cQ6Zvut" role="1Z2MuG">
              <ref role="1YBMHb" node="5Ij6cQ6Zpj1" resolve="node" />
            </node>
          </node>
        </node>
        <node concept="mw_s8" id="5Ij6cQ6Zvu_" role="1ZfhKB">
          <node concept="2c44tf" id="5Ij6cQ6ZvuA" role="mwGJk">
            <node concept="10P_77" id="5Ij6cQ6ZvuC" role="2c44tc" />
          </node>
        </node>
      </node>
    </node>
    <node concept="1YaCAy" id="5Ij6cQ6Zpj1" role="1YuTPh">
      <property role="TrG5h" value="node" />
      <ref role="1YaFvo" to="tp1h:5Ij6cQ6Zp5X" resolve="IsRefactoringApplicable" />
    </node>
  </node>
  <node concept="1YbPZF" id="1Z$ZeXyO1yh">
    <property role="TrG5h" value="typeof_ExecuteRefactoringStatement" />
    <property role="3GE5qa" value="Context" />
    <node concept="3clFbS" id="1Z$ZeXyO1yi" role="18ibNy">
      <node concept="3cpWs8" id="1Z$ZeXyO1yk" role="3cqZAp">
        <node concept="3cpWsn" id="1Z$ZeXyO1yl" role="3cpWs9">
          <property role="TrG5h" value="target" />
          <node concept="3Tqbb2" id="1Z$ZeXyO1ym" role="1tU5fm">
            <ref role="ehGHo" to="tp1h:5YKiRiBuwlD" resolve="RefactoringTarget" />
          </node>
          <node concept="2OqwBi" id="1Z$ZeXyO1yn" role="33vP2m">
            <node concept="2OqwBi" id="1Z$ZeXyO1yo" role="2Oq$k0">
              <node concept="1YBJjd" id="1Z$ZeXyO1zM" role="2Oq$k0">
                <ref role="1YBMHb" node="1Z$ZeXyO1yj" resolve="statement" />
              </node>
              <node concept="3TrEf2" id="1Z$ZeXyO1zN" role="2OqNvi">
                <ref role="3Tt5mk" to="tp1h:1Z$ZeXyO1xN" />
              </node>
            </node>
            <node concept="3TrEf2" id="1Z$ZeXyO1yr" role="2OqNvi">
              <ref role="3Tt5mk" to="tp1h:5YKiRiBuwpm" />
            </node>
          </node>
        </node>
      </node>
      <node concept="3clFbJ" id="1Z$ZeXyO1ys" role="3cqZAp">
        <node concept="3clFbS" id="1Z$ZeXyO1yt" role="3clFbx">
          <node concept="1ZobV4" id="1Z$ZeXyO1yu" role="3cqZAp">
            <node concept="mw_s8" id="1Z$ZeXyO1yv" role="1ZfhK$">
              <node concept="1Z2H0r" id="1Z$ZeXyO1yw" role="mwGJk">
                <node concept="2OqwBi" id="1Z$ZeXyO1yx" role="1Z2MuG">
                  <node concept="1YBJjd" id="1Z$ZeXyO1zO" role="2Oq$k0">
                    <ref role="1YBMHb" node="1Z$ZeXyO1yj" resolve="statement" />
                  </node>
                  <node concept="3TrEf2" id="1Z$ZeXyO1zP" role="2OqNvi">
                    <ref role="3Tt5mk" to="tp1h:1Z$ZeXyO1xK" />
                  </node>
                </node>
              </node>
            </node>
            <node concept="mw_s8" id="1Z$ZeXyO1y$" role="1ZfhKB">
              <node concept="1Z2H0r" id="1Z$ZeXyO1y_" role="mwGJk">
                <node concept="37vLTw" id="3GM_nagTwi0" role="1Z2MuG">
                  <ref role="3cqZAo" node="1Z$ZeXyO1yl" resolve="target" />
                </node>
              </node>
            </node>
          </node>
        </node>
        <node concept="3clFbC" id="1Z$ZeXyO1yB" role="3clFbw">
          <node concept="3clFbT" id="1Z$ZeXyO1yC" role="3uHU7w">
            <property role="3clFbU" value="false" />
          </node>
          <node concept="2OqwBi" id="1Z$ZeXyO1yD" role="3uHU7B">
            <node concept="3TrcHB" id="1Z$ZeXyO1yE" role="2OqNvi">
              <ref role="3TsBF5" to="tp1h:5YKiRiBuwpn" resolve="allowMultiple" />
            </node>
            <node concept="37vLTw" id="3GM_nagTw8n" role="2Oq$k0">
              <ref role="3cqZAo" node="1Z$ZeXyO1yl" resolve="target" />
            </node>
          </node>
        </node>
        <node concept="9aQIb" id="1Z$ZeXyO1yG" role="9aQIa">
          <node concept="3clFbS" id="1Z$ZeXyO1yH" role="9aQI4">
            <node concept="1ZobV4" id="1Z$ZeXyO1yI" role="3cqZAp">
              <node concept="mw_s8" id="1Z$ZeXyO1yJ" role="1ZfhK$">
                <node concept="1Z2H0r" id="1Z$ZeXyO1yK" role="mwGJk">
                  <node concept="2OqwBi" id="1Z$ZeXyO1yL" role="1Z2MuG">
                    <node concept="1YBJjd" id="1Z$ZeXyO1zQ" role="2Oq$k0">
                      <ref role="1YBMHb" node="1Z$ZeXyO1yj" resolve="statement" />
                    </node>
                    <node concept="3TrEf2" id="1Z$ZeXyO1zR" role="2OqNvi">
                      <ref role="3Tt5mk" to="tp1h:1Z$ZeXyO1xK" />
                    </node>
                  </node>
                </node>
              </node>
              <node concept="mw_s8" id="1Z$ZeXyO1yO" role="1ZfhKB">
                <node concept="2c44tf" id="1Z$ZeXyO1yP" role="mwGJk">
                  <node concept="_YKpA" id="1Z$ZeXyO1yQ" role="2c44tc">
                    <node concept="33vP2l" id="1Z$ZeXyO1yR" role="_ZDj9">
                      <node concept="2c44te" id="1Z$ZeXyO1yS" role="lGtFl">
                        <node concept="1Z2H0r" id="1Z$ZeXyO1yT" role="2c44t1">
                          <node concept="37vLTw" id="3GM_nagTBwT" role="1Z2MuG">
                            <ref role="3cqZAo" node="1Z$ZeXyO1yl" resolve="target" />
                          </node>
                        </node>
                      </node>
                    </node>
                  </node>
                </node>
              </node>
            </node>
          </node>
        </node>
      </node>
      <node concept="1ZobV4" id="1Z$ZeXyO1yV" role="3cqZAp">
        <node concept="mw_s8" id="1Z$ZeXyO1yW" role="1ZfhKB">
          <node concept="2c44tf" id="1Z$ZeXyO1yX" role="mwGJk">
            <node concept="3uibUv" id="1Z$ZeXyO1yY" role="2c44tc">
              <ref role="3uigEE" to="z1c3:~Project" resolve="Project" />
            </node>
          </node>
        </node>
        <node concept="mw_s8" id="1Z$ZeXyO1yZ" role="1ZfhK$">
          <node concept="1Z2H0r" id="1Z$ZeXyO1z0" role="mwGJk">
            <node concept="2OqwBi" id="1Z$ZeXyO1z1" role="1Z2MuG">
              <node concept="1YBJjd" id="1Z$ZeXyO1zS" role="2Oq$k0">
                <ref role="1YBMHb" node="1Z$ZeXyO1yj" resolve="statement" />
              </node>
              <node concept="3TrEf2" id="1Z$ZeXyO1zT" role="2OqNvi">
                <ref role="3Tt5mk" to="tp1h:1Z$ZeXyO1xM" />
              </node>
            </node>
          </node>
        </node>
      </node>
      <node concept="3clFbJ" id="1Z$ZeXyO1z4" role="3cqZAp">
        <node concept="3clFbS" id="1Z$ZeXyO1z5" role="3clFbx">
          <node concept="2MkqsV" id="1Z$ZeXyO1z6" role="3cqZAp">
            <node concept="Xl_RD" id="1Z$ZeXyO1z7" role="2MkJ7o">
              <property role="Xl_RC" value="wrong number of parameters" />
            </node>
            <node concept="1YBJjd" id="1Z$ZeXyO1zY" role="2OEOjV">
              <ref role="1YBMHb" node="1Z$ZeXyO1yj" resolve="statement" />
            </node>
            <node concept="2OE7Q9" id="1Z$ZeXyO1zZ" role="2OEWyd">
              <ref role="2OEe5H" to="tp1h:1Z$ZeXyO1xL" />
            </node>
          </node>
        </node>
        <node concept="3y3z36" id="1Z$ZeXyO1z9" role="3clFbw">
          <node concept="2OqwBi" id="1Z$ZeXyO1za" role="3uHU7w">
            <node concept="2OqwBi" id="1Z$ZeXyO1zb" role="2Oq$k0">
              <node concept="2OqwBi" id="1Z$ZeXyO1zc" role="2Oq$k0">
                <node concept="1YBJjd" id="1Z$ZeXyO1zW" role="2Oq$k0">
                  <ref role="1YBMHb" node="1Z$ZeXyO1yj" resolve="statement" />
                </node>
                <node concept="3TrEf2" id="1Z$ZeXyO1zX" role="2OqNvi">
                  <ref role="3Tt5mk" to="tp1h:1Z$ZeXyO1xN" />
                </node>
              </node>
              <node concept="3Tsc0h" id="1Z$ZeXyO1zf" role="2OqNvi">
                <ref role="3TtcxE" to="tp1h:5YKiRiBuebo" />
              </node>
            </node>
            <node concept="34oBXx" id="1Z$ZeXyO1zg" role="2OqNvi" />
          </node>
          <node concept="2OqwBi" id="1Z$ZeXyO1zh" role="3uHU7B">
            <node concept="2OqwBi" id="1Z$ZeXyO1zi" role="2Oq$k0">
              <node concept="1YBJjd" id="1Z$ZeXyO1zU" role="2Oq$k0">
                <ref role="1YBMHb" node="1Z$ZeXyO1yj" resolve="statement" />
              </node>
              <node concept="3Tsc0h" id="1Z$ZeXyO1zV" role="2OqNvi">
                <ref role="3TtcxE" to="tp1h:1Z$ZeXyO1xL" />
              </node>
            </node>
            <node concept="34oBXx" id="1Z$ZeXyO1zl" role="2OqNvi" />
          </node>
        </node>
      </node>
      <node concept="1_o_46" id="1Z$ZeXyO1zm" role="3cqZAp">
        <node concept="1_o_bx" id="1Z$ZeXyO1zn" role="1_o_by">
          <node concept="1_o_bG" id="1Z$ZeXyO1zo" role="1_o_aQ">
            <property role="TrG5h" value="inputParameter" />
          </node>
          <node concept="2OqwBi" id="1Z$ZeXyO1zp" role="1_o_bz">
            <node concept="1YBJjd" id="1Z$ZeXyO1$0" role="2Oq$k0">
              <ref role="1YBMHb" node="1Z$ZeXyO1yj" resolve="statement" />
            </node>
            <node concept="3Tsc0h" id="1Z$ZeXyO1$1" role="2OqNvi">
              <ref role="3TtcxE" to="tp1h:1Z$ZeXyO1xL" />
            </node>
          </node>
        </node>
        <node concept="1_o_bx" id="1Z$ZeXyO1zs" role="1_o_by">
          <node concept="1_o_bG" id="1Z$ZeXyO1zt" role="1_o_aQ">
            <property role="TrG5h" value="declaredParameter" />
          </node>
          <node concept="2OqwBi" id="1Z$ZeXyO1zu" role="1_o_bz">
            <node concept="2OqwBi" id="1Z$ZeXyO1zv" role="2Oq$k0">
              <node concept="1YBJjd" id="1Z$ZeXyO1$2" role="2Oq$k0">
                <ref role="1YBMHb" node="1Z$ZeXyO1yj" resolve="statement" />
              </node>
              <node concept="3TrEf2" id="1Z$ZeXyO1$3" role="2OqNvi">
                <ref role="3Tt5mk" to="tp1h:1Z$ZeXyO1xN" />
              </node>
            </node>
            <node concept="3Tsc0h" id="1Z$ZeXyO1zy" role="2OqNvi">
              <ref role="3TtcxE" to="tp1h:5YKiRiBuebo" />
            </node>
          </node>
        </node>
        <node concept="3clFbS" id="1Z$ZeXyO1zz" role="2LFqv$">
          <node concept="1ZobV4" id="1Z$ZeXyO1z$" role="3cqZAp">
            <node concept="mw_s8" id="1Z$ZeXyO1z_" role="1ZfhK$">
              <node concept="1Z2H0r" id="1Z$ZeXyO1zA" role="mwGJk">
                <node concept="3M$PaV" id="1Z$ZeXyO1zB" role="1Z2MuG">
                  <ref role="3M$S_o" node="1Z$ZeXyO1zo" resolve="inputParameter" />
                </node>
              </node>
            </node>
            <node concept="mw_s8" id="1Z$ZeXyO1zC" role="1ZfhKB">
              <node concept="1Z2H0r" id="1Z$ZeXyO1zD" role="mwGJk">
                <node concept="3M$PaV" id="1Z$ZeXyO1zE" role="1Z2MuG">
                  <ref role="3M$S_o" node="1Z$ZeXyO1zt" resolve="declaredParameter" />
                </node>
              </node>
            </node>
          </node>
        </node>
      </node>
      <node concept="1Z5TYs" id="1Z$ZeXyO1zF" role="3cqZAp">
        <node concept="mw_s8" id="1Z$ZeXyO1zG" role="1ZfhK$">
          <node concept="1Z2H0r" id="1Z$ZeXyO1zH" role="mwGJk">
            <node concept="1YBJjd" id="1Z$ZeXyO1$4" role="1Z2MuG">
              <ref role="1YBMHb" node="1Z$ZeXyO1yj" resolve="statement" />
            </node>
          </node>
        </node>
        <node concept="mw_s8" id="1Z$ZeXyO1zJ" role="1ZfhKB">
          <node concept="2c44tf" id="1Z$ZeXyO1zK" role="mwGJk">
            <node concept="3cqZAl" id="1Z$ZeXyO1$5" role="2c44tc" />
          </node>
        </node>
      </node>
    </node>
    <node concept="1YaCAy" id="1Z$ZeXyO1yj" role="1YuTPh">
      <property role="TrG5h" value="statement" />
      <ref role="1YaFvo" to="tp1h:1Z$ZeXyO1xG" resolve="ExecuteRefactoringStatement" />
    </node>
  </node>
</model>

