<?xml version="1.0" encoding="UTF-8"?>
<model ref="r:00000000-0000-4000-0000-011c8959043d(jetbrains.mps.samples.formulaLanguage.generator.baseLanguage@generator)">
  <persistence version="9" />
  <languages>
    <use id="b401a680-8325-4110-8fd3-84331ff25bef" name="jetbrains.mps.lang.generator" version="0" />
    <use id="d7706f63-9be2-479c-a3da-ae92af1e64d5" name="jetbrains.mps.lang.generator.generationContext" version="0" />
    <use id="7866978e-a0f0-4cc7-81bc-4d213d9375e1" name="jetbrains.mps.lang.smodel" version="4" />
    <use id="f3061a53-9226-4cc5-a443-f952ceaf5816" name="jetbrains.mps.baseLanguage" version="4" />
    <devkit ref="fbc25dd2-5da4-483a-8b19-70928e1b62d7(jetbrains.mps.devkit.general-purpose)" />
  </languages>
  <imports>
    <import index="tpee" ref="r:00000000-0000-4000-0000-011c895902ca(jetbrains.mps.baseLanguage.structure)" />
    <import index="tpnk" ref="r:00000000-0000-4000-0000-011c8959043c(jetbrains.mps.samples.formulaLanguage.structure)" />
    <import index="bbjx" ref="r:ba35e19a-8f05-4cae-a99b-d51695da551f(jetbrains.mps.samples.formulaLanguage.api)" />
    <import index="wyt6" ref="6354ebe7-c22a-4a0f-ac54-50b52ab9b065/java:java.lang(JDK/)" />
  </imports>
  <registry>
    <language id="f3061a53-9226-4cc5-a443-f952ceaf5816" name="jetbrains.mps.baseLanguage">
      <concept id="1197027756228" name="jetbrains.mps.baseLanguage.structure.DotExpression" flags="nn" index="2OqwBi">
        <child id="1197027771414" name="operand" index="2Oq$k0" />
        <child id="1197027833540" name="operation" index="2OqNvi" />
      </concept>
      <concept id="1145552977093" name="jetbrains.mps.baseLanguage.structure.GenericNewExpression" flags="nn" index="2ShNRf">
        <child id="1145553007750" name="creator" index="2ShVmc" />
      </concept>
      <concept id="1137021947720" name="jetbrains.mps.baseLanguage.structure.ConceptFunction" flags="in" index="2VMwT0">
        <child id="1137022507850" name="body" index="2VODD2" />
      </concept>
      <concept id="1070475926800" name="jetbrains.mps.baseLanguage.structure.StringLiteral" flags="nn" index="Xl_RD">
        <property id="1070475926801" name="value" index="Xl_RC" />
      </concept>
      <concept id="1070534058343" name="jetbrains.mps.baseLanguage.structure.NullLiteral" flags="nn" index="10Nm6u" />
      <concept id="1111509017652" name="jetbrains.mps.baseLanguage.structure.FloatingPointConstant" flags="nn" index="3b6qkQ">
        <property id="1113006610751" name="value" index="$nhwW" />
      </concept>
      <concept id="1068580123155" name="jetbrains.mps.baseLanguage.structure.ExpressionStatement" flags="nn" index="3clFbF">
        <child id="1068580123156" name="expression" index="3clFbG" />
      </concept>
      <concept id="1068580123136" name="jetbrains.mps.baseLanguage.structure.StatementList" flags="sn" stub="5293379017992965193" index="3clFbS">
        <child id="1068581517665" name="statement" index="3cqZAp" />
      </concept>
      <concept id="1068581242875" name="jetbrains.mps.baseLanguage.structure.PlusExpression" flags="nn" index="3cpWs3" />
      <concept id="1204053956946" name="jetbrains.mps.baseLanguage.structure.IMethodCall" flags="ng" index="1ndlxa">
        <reference id="1068499141037" name="baseMethodDeclaration" index="37wK5l" />
        <child id="1068499141038" name="actualArgument" index="37wK5m" />
      </concept>
      <concept id="1212685548494" name="jetbrains.mps.baseLanguage.structure.ClassCreator" flags="nn" index="1pGfFk">
        <child id="1212687122400" name="typeParameter" index="1pMfVU" />
      </concept>
      <concept id="1107535904670" name="jetbrains.mps.baseLanguage.structure.ClassifierType" flags="in" index="3uibUv">
        <reference id="1107535924139" name="classifier" index="3uigEE" />
      </concept>
      <concept id="1081773326031" name="jetbrains.mps.baseLanguage.structure.BinaryOperation" flags="nn" index="3uHJSO">
        <child id="1081773367579" name="rightExpression" index="3uHU7w" />
        <child id="1081773367580" name="leftExpression" index="3uHU7B" />
      </concept>
    </language>
    <language id="b401a680-8325-4110-8fd3-84331ff25bef" name="jetbrains.mps.lang.generator">
      <concept id="1168559333462" name="jetbrains.mps.lang.generator.structure.TemplateDeclarationReference" flags="ln" index="j$656" />
      <concept id="1112730859144" name="jetbrains.mps.lang.generator.structure.TemplateSwitch" flags="ig" index="jVnub">
        <child id="1167340453568" name="reductionMappingRule" index="3aUrZf" />
      </concept>
      <concept id="1095672379244" name="jetbrains.mps.lang.generator.structure.TemplateFragment" flags="ng" index="raruj" />
      <concept id="1722980698497626400" name="jetbrains.mps.lang.generator.structure.ITemplateCall" flags="ng" index="v9R3L">
        <reference id="1722980698497626483" name="template" index="v9R2y" />
      </concept>
      <concept id="1167169188348" name="jetbrains.mps.lang.generator.structure.TemplateFunctionParameter_sourceNode" flags="nn" index="30H73N" />
      <concept id="1167169308231" name="jetbrains.mps.lang.generator.structure.BaseMappingRule" flags="ng" index="30H$t8">
        <reference id="1167169349424" name="applicableConcept" index="30HIoZ" />
      </concept>
      <concept id="1092059087312" name="jetbrains.mps.lang.generator.structure.TemplateDeclaration" flags="ig" index="13MO4I">
        <reference id="1168285871518" name="applicableConcept" index="3gUMe" />
        <child id="1092060348987" name="contentNode" index="13RCb5" />
      </concept>
      <concept id="1087833241328" name="jetbrains.mps.lang.generator.structure.PropertyMacro" flags="ln" index="17Uvod">
        <child id="1167756362303" name="propertyValueFunction" index="3zH0cK" />
      </concept>
      <concept id="1167327847730" name="jetbrains.mps.lang.generator.structure.Reduction_MappingRule" flags="lg" index="3aamgX">
        <child id="1169672767469" name="ruleConsequence" index="1lVwrX" />
      </concept>
      <concept id="982871510068000147" name="jetbrains.mps.lang.generator.structure.TemplateSwitchMacro" flags="lg" index="1sPUBX">
        <child id="982871510068000158" name="sourceNodeQuery" index="1sPUBK" />
      </concept>
      <concept id="1167756080639" name="jetbrains.mps.lang.generator.structure.PropertyMacro_GetPropertyValue" flags="in" index="3zFVjK" />
      <concept id="1168024337012" name="jetbrains.mps.lang.generator.structure.SourceSubstituteMacro_SourceNodeQuery" flags="in" index="3NFfHV" />
    </language>
    <language id="7866978e-a0f0-4cc7-81bc-4d213d9375e1" name="jetbrains.mps.lang.smodel">
      <concept id="1138056022639" name="jetbrains.mps.lang.smodel.structure.SPropertyAccess" flags="nn" index="3TrcHB">
        <reference id="1138056395725" name="property" index="3TsBF5" />
      </concept>
      <concept id="1138056143562" name="jetbrains.mps.lang.smodel.structure.SLinkAccess" flags="nn" index="3TrEf2">
        <reference id="1138056516764" name="link" index="3Tt5mk" />
      </concept>
    </language>
    <language id="ceab5195-25ea-4f22-9b92-103b95ca8c0c" name="jetbrains.mps.lang.core">
      <concept id="1133920641626" name="jetbrains.mps.lang.core.structure.BaseConcept" flags="ng" index="2VYdi">
        <child id="5169995583184591170" name="smodelAttribute" index="lGtFl" />
      </concept>
      <concept id="3364660638048049750" name="jetbrains.mps.lang.core.structure.PropertyAttribute" flags="ng" index="A9Btg">
        <property id="1757699476691236117" name="propertyName" index="2qtEX9" />
        <property id="1341860900487648621" name="propertyId" index="P4ACc" />
      </concept>
      <concept id="1169194658468" name="jetbrains.mps.lang.core.structure.INamedConcept" flags="ng" index="TrEIO">
        <property id="1169194664001" name="name" index="TrG5h" />
      </concept>
    </language>
  </registry>
  <node concept="jVnub" id="gcpaY0h">
    <property role="TrG5h" value="SWITCH_Expression_NewFunction_Default" />
    <node concept="3aamgX" id="htZ4oNB" role="3aUrZf">
      <ref role="30HIoZ" to="tpnk:gbZh47t" resolve="MultOperation" />
      <node concept="j$656" id="htZ4DAQ" role="1lVwrX">
        <ref role="v9R2y" node="gcpdVYB" resolve="_new_MultiplyOperation" />
      </node>
    </node>
    <node concept="3aamgX" id="htZ4FzB" role="3aUrZf">
      <ref role="30HIoZ" to="tpnk:gbrzkao" resolve="IfFunction" />
      <node concept="j$656" id="htZ4HXG" role="1lVwrX">
        <ref role="v9R2y" node="gcpfEjA" resolve="_new_IfFunction_Default" />
      </node>
    </node>
    <node concept="3aamgX" id="htZ4TbJ" role="3aUrZf">
      <ref role="30HIoZ" to="tpnk:gbryUGW" resolve="FloatingPointConstant" />
      <node concept="j$656" id="htZ4XgK" role="1lVwrX">
        <ref role="v9R2y" node="gcpd2EM" resolve="_new_DoubleConstant_FromFloatingPointConstant" />
      </node>
    </node>
    <node concept="3aamgX" id="htZ50Qg" role="3aUrZf">
      <ref role="30HIoZ" to="tpnk:gbryEfT" resolve="IntegerConstant" />
      <node concept="j$656" id="htZ5e_s" role="1lVwrX">
        <ref role="v9R2y" node="gcyNCm7" resolve="_new_DoubleConstant_FromIntegerConstant" />
      </node>
    </node>
  </node>
  <node concept="13MO4I" id="gcpd2EM">
    <property role="TrG5h" value="_new_DoubleConstant_FromFloatingPointConstant" />
    <ref role="3gUMe" to="tpnk:gbryUGW" resolve="FloatingPointConstant" />
    <node concept="2ShNRf" id="hERvxf_" role="13RCb5">
      <node concept="raruj" id="hERvxfB" role="lGtFl" />
      <node concept="1pGfFk" id="hERvxfC" role="2ShVmc">
        <ref role="37wK5l" to="bbjx:7dakP4KK4pE" resolve="DoubleConstant" />
        <node concept="3b6qkQ" id="gczZxPo" role="37wK5m">
          <property role="$nhwW" value="0.0" />
          <node concept="17Uvod" id="gcNqLRR" role="lGtFl">
            <property role="2qtEX9" value="value" />
            <property role="P4ACc" value="f3061a53-9226-4cc5-a443-f952ceaf5816/1111509017652/1113006610751" />
            <node concept="3zFVjK" id="htZg0pS" role="3zH0cK">
              <node concept="3clFbS" id="htZg0pT" role="2VODD2">
                <node concept="3clFbF" id="htZg0YM" role="3cqZAp">
                  <node concept="2OqwBi" id="hERvwOK" role="3clFbG">
                    <node concept="30H73N" id="htZg0YN" role="2Oq$k0" />
                    <node concept="3TrcHB" id="htZg1EN" role="2OqNvi">
                      <ref role="3TsBF5" to="tpnk:gcNirUM" resolve="value" />
                    </node>
                  </node>
                </node>
              </node>
            </node>
          </node>
        </node>
      </node>
    </node>
  </node>
  <node concept="13MO4I" id="gcpdVYB">
    <property role="TrG5h" value="_new_MultiplyOperation" />
    <ref role="3gUMe" to="tpnk:gbZh47t" resolve="MultOperation" />
    <node concept="2ShNRf" id="hERvxeM" role="13RCb5">
      <node concept="raruj" id="hERvxeO" role="lGtFl" />
      <node concept="1pGfFk" id="hERvxeP" role="2ShVmc">
        <ref role="37wK5l" to="bbjx:7dakP4KK4nK" resolve="MultiplyOperation" />
        <node concept="10Nm6u" id="gcpeQ5I" role="37wK5m">
          <node concept="1sPUBX" id="1WfddY$XHP_" role="lGtFl">
            <ref role="v9R2y" node="gcyJcg0" resolve="SWITCH_Expression_NewFunction_Double" />
            <node concept="3NFfHV" id="htZeVhM" role="1sPUBK">
              <node concept="3clFbS" id="htZeVhN" role="2VODD2">
                <node concept="3clFbF" id="htZeW4Q" role="3cqZAp">
                  <node concept="2OqwBi" id="hERvx0F" role="3clFbG">
                    <node concept="30H73N" id="htZeW4R" role="2Oq$k0" />
                    <node concept="3TrEf2" id="htZf0$L" role="2OqNvi">
                      <ref role="3Tt5mk" to="tpnk:gbrxImN" />
                    </node>
                  </node>
                </node>
              </node>
            </node>
          </node>
        </node>
        <node concept="10Nm6u" id="gcpeReK" role="37wK5m">
          <node concept="1sPUBX" id="1WfddY$XHOl" role="lGtFl">
            <ref role="v9R2y" node="gcyJcg0" resolve="SWITCH_Expression_NewFunction_Double" />
            <node concept="3NFfHV" id="htZf3Oj" role="1sPUBK">
              <node concept="3clFbS" id="htZf3Ok" role="2VODD2">
                <node concept="3clFbF" id="htZf4h9" role="3cqZAp">
                  <node concept="2OqwBi" id="hERvwQy" role="3clFbG">
                    <node concept="30H73N" id="htZf4ha" role="2Oq$k0" />
                    <node concept="3TrEf2" id="htZf5gd" role="2OqNvi">
                      <ref role="3Tt5mk" to="tpnk:gbrxQ_F" />
                    </node>
                  </node>
                </node>
              </node>
            </node>
          </node>
        </node>
      </node>
    </node>
  </node>
  <node concept="13MO4I" id="gcpfEjA">
    <property role="TrG5h" value="_new_IfFunction_Default" />
    <ref role="3gUMe" to="tpnk:gbrzkao" resolve="IfFunction" />
    <node concept="2ShNRf" id="hERvxef" role="13RCb5">
      <node concept="raruj" id="hERvxeh" role="lGtFl" />
      <node concept="1pGfFk" id="hERvxei" role="2ShVmc">
        <ref role="37wK5l" to="bbjx:7dakP4KK4oF" resolve="IfFunction" />
        <node concept="10Nm6u" id="gcpfMB9" role="37wK5m">
          <node concept="1sPUBX" id="1WfddY$XI3q" role="lGtFl">
            <ref role="v9R2y" node="gcpaY0h" resolve="SWITCH_Expression_NewFunction_Default" />
            <node concept="3NFfHV" id="htZfiZn" role="1sPUBK">
              <node concept="3clFbS" id="htZfiZo" role="2VODD2">
                <node concept="3clFbF" id="htZfjtc" role="3cqZAp">
                  <node concept="2OqwBi" id="hERvwT4" role="3clFbG">
                    <node concept="30H73N" id="htZfjtd" role="2Oq$k0" />
                    <node concept="3TrEf2" id="htZflWV" role="2OqNvi">
                      <ref role="3Tt5mk" to="tpnk:gbrznGe" />
                    </node>
                  </node>
                </node>
              </node>
            </node>
          </node>
        </node>
        <node concept="10Nm6u" id="gcpfND5" role="37wK5m">
          <node concept="1sPUBX" id="1WfddY$XI3c" role="lGtFl">
            <ref role="v9R2y" node="gcpaY0h" resolve="SWITCH_Expression_NewFunction_Default" />
            <node concept="3NFfHV" id="htZfpsP" role="1sPUBK">
              <node concept="3clFbS" id="htZfpsQ" role="2VODD2">
                <node concept="3clFbF" id="htZfpUa" role="3cqZAp">
                  <node concept="2OqwBi" id="hERvwZ9" role="3clFbG">
                    <node concept="30H73N" id="htZfpUb" role="2Oq$k0" />
                    <node concept="3TrEf2" id="htZfr4W" role="2OqNvi">
                      <ref role="3Tt5mk" to="tpnk:gbrzza8" />
                    </node>
                  </node>
                </node>
              </node>
            </node>
          </node>
        </node>
        <node concept="10Nm6u" id="gcpfOSe" role="37wK5m">
          <node concept="1sPUBX" id="1WfddY$XHRn" role="lGtFl">
            <ref role="v9R2y" node="gcpaY0h" resolve="SWITCH_Expression_NewFunction_Default" />
            <node concept="3NFfHV" id="htZfsL7" role="1sPUBK">
              <node concept="3clFbS" id="htZfsL8" role="2VODD2">
                <node concept="3clFbF" id="htZftec" role="3cqZAp">
                  <node concept="2OqwBi" id="hERvx61" role="3clFbG">
                    <node concept="30H73N" id="htZfted" role="2Oq$k0" />
                    <node concept="3TrEf2" id="htZfuRv" role="2OqNvi">
                      <ref role="3Tt5mk" to="tpnk:gbrzF4J" />
                    </node>
                  </node>
                </node>
              </node>
            </node>
          </node>
        </node>
      </node>
    </node>
  </node>
  <node concept="jVnub" id="gcyJcg0">
    <property role="TrG5h" value="SWITCH_Expression_NewFunction_Double" />
    <node concept="3aamgX" id="htZ5oXx" role="3aUrZf">
      <ref role="30HIoZ" to="tpnk:gbZh47t" resolve="MultOperation" />
      <node concept="j$656" id="htZ5rL5" role="1lVwrX">
        <ref role="v9R2y" node="gcpdVYB" resolve="_new_MultiplyOperation" />
      </node>
    </node>
    <node concept="3aamgX" id="htZ5oXz" role="3aUrZf">
      <ref role="30HIoZ" to="tpnk:gbrzkao" resolve="IfFunction" />
      <node concept="j$656" id="htZ5t_k" role="1lVwrX">
        <ref role="v9R2y" node="gcyJNmK" resolve="_new_IfFunction_Double" />
      </node>
    </node>
    <node concept="3aamgX" id="htZ5oX_" role="3aUrZf">
      <ref role="30HIoZ" to="tpnk:gbryUGW" resolve="FloatingPointConstant" />
      <node concept="j$656" id="1$rO$QiIKoh" role="1lVwrX">
        <ref role="v9R2y" node="gcpd2EM" resolve="_new_DoubleConstant_FromFloatingPointConstant" />
      </node>
    </node>
    <node concept="3aamgX" id="htZ5oXB" role="3aUrZf">
      <ref role="30HIoZ" to="tpnk:gbryEfT" resolve="IntegerConstant" />
      <node concept="j$656" id="htZ5xYP" role="1lVwrX">
        <ref role="v9R2y" node="gcyNCm7" resolve="_new_DoubleConstant_FromIntegerConstant" />
      </node>
    </node>
  </node>
  <node concept="13MO4I" id="gcyJNmK">
    <property role="TrG5h" value="_new_IfFunction_Double" />
    <ref role="3gUMe" to="tpnk:gbrzkao" resolve="IfFunction" />
    <node concept="2ShNRf" id="hERvxdc" role="13RCb5">
      <node concept="raruj" id="hERvxde" role="lGtFl" />
      <node concept="1pGfFk" id="hERvxdf" role="2ShVmc">
        <ref role="37wK5l" to="bbjx:7dakP4KK4oF" resolve="IfFunction" />
        <node concept="3uibUv" id="gcyKfp$" role="1pMfVU">
          <ref role="3uigEE" to="wyt6:~Double" resolve="Double" />
        </node>
        <node concept="10Nm6u" id="gcyJQLL" role="37wK5m">
          <node concept="1sPUBX" id="1WfddY$XI48" role="lGtFl">
            <ref role="v9R2y" node="gcpaY0h" resolve="SWITCH_Expression_NewFunction_Default" />
            <node concept="3NFfHV" id="htZf$AW" role="1sPUBK">
              <node concept="3clFbS" id="htZf$AX" role="2VODD2">
                <node concept="3clFbF" id="htZf$YT" role="3cqZAp">
                  <node concept="2OqwBi" id="hERvxan" role="3clFbG">
                    <node concept="30H73N" id="htZf$YU" role="2Oq$k0" />
                    <node concept="3TrEf2" id="htZf_WZ" role="2OqNvi">
                      <ref role="3Tt5mk" to="tpnk:gbrznGe" />
                    </node>
                  </node>
                </node>
              </node>
            </node>
          </node>
        </node>
        <node concept="10Nm6u" id="gcyKkYM" role="37wK5m">
          <node concept="1sPUBX" id="1WfddY$XHOR" role="lGtFl">
            <ref role="v9R2y" node="gcyJcg0" resolve="SWITCH_Expression_NewFunction_Double" />
            <node concept="3NFfHV" id="htZfB2P" role="1sPUBK">
              <node concept="3clFbS" id="htZfB2Q" role="2VODD2">
                <node concept="3clFbF" id="htZfBsv" role="3cqZAp">
                  <node concept="2OqwBi" id="hERvx4v" role="3clFbG">
                    <node concept="30H73N" id="htZfBsw" role="2Oq$k0" />
                    <node concept="3TrEf2" id="htZfCFc" role="2OqNvi">
                      <ref role="3Tt5mk" to="tpnk:gbrzza8" />
                    </node>
                  </node>
                </node>
              </node>
            </node>
          </node>
        </node>
        <node concept="10Nm6u" id="gcyKkYO" role="37wK5m">
          <node concept="1sPUBX" id="1WfddY$XI68" role="lGtFl">
            <ref role="v9R2y" node="gcyJcg0" resolve="SWITCH_Expression_NewFunction_Double" />
            <node concept="3NFfHV" id="htZfDIP" role="1sPUBK">
              <node concept="3clFbS" id="htZfDIQ" role="2VODD2">
                <node concept="3clFbF" id="htZfE8Z" role="3cqZAp">
                  <node concept="2OqwBi" id="hERvwRj" role="3clFbG">
                    <node concept="30H73N" id="htZfE90" role="2Oq$k0" />
                    <node concept="3TrEf2" id="htZfFxG" role="2OqNvi">
                      <ref role="3Tt5mk" to="tpnk:gbrzF4J" />
                    </node>
                  </node>
                </node>
              </node>
            </node>
          </node>
        </node>
      </node>
    </node>
  </node>
  <node concept="13MO4I" id="gcyNCm7">
    <property role="TrG5h" value="_new_DoubleConstant_FromIntegerConstant" />
    <ref role="3gUMe" to="tpnk:gbryEfT" resolve="IntegerConstant" />
    <node concept="2ShNRf" id="hERvxcq" role="13RCb5">
      <node concept="raruj" id="hERvxcs" role="lGtFl" />
      <node concept="1pGfFk" id="hERvxcG" role="2ShVmc">
        <ref role="37wK5l" to="bbjx:7dakP4KK4pE" resolve="DoubleConstant" />
        <node concept="3b6qkQ" id="gc$0hHn" role="37wK5m">
          <property role="$nhwW" value="0.0" />
          <node concept="17Uvod" id="gcNqLRS" role="lGtFl">
            <property role="2qtEX9" value="value" />
            <property role="P4ACc" value="f3061a53-9226-4cc5-a443-f952ceaf5816/1111509017652/1113006610751" />
            <node concept="3zFVjK" id="htZgcM0" role="3zH0cK">
              <node concept="3clFbS" id="htZgcM1" role="2VODD2">
                <node concept="3clFbF" id="htZgdo7" role="3cqZAp">
                  <node concept="3cpWs3" id="htZge84" role="3clFbG">
                    <node concept="Xl_RD" id="htZgf3c" role="3uHU7w">
                      <property role="Xl_RC" value=".0" />
                    </node>
                    <node concept="2OqwBi" id="hERvwY9" role="3uHU7B">
                      <node concept="30H73N" id="htZgdo8" role="2Oq$k0" />
                      <node concept="3TrcHB" id="htZgdPv" role="2OqNvi">
                        <ref role="3TsBF5" to="tpnk:gbryI9r" resolve="value" />
                      </node>
                    </node>
                  </node>
                </node>
              </node>
            </node>
          </node>
        </node>
      </node>
    </node>
  </node>
</model>

