<?xml version="1.0" encoding="UTF-8"?>
<model ref="r:00000000-0000-4000-0000-011c89590376(jetbrains.mps.lang.dataFlow.behavior)">
  <persistence version="9" />
  <languages>
    <use id="af65afd8-f0dd-4942-87d9-63a55f2a9db1" name="jetbrains.mps.lang.behavior" version="0" />
    <use id="7866978e-a0f0-4cc7-81bc-4d213d9375e1" name="jetbrains.mps.lang.smodel" version="4" />
    <use id="f3061a53-9226-4cc5-a443-f952ceaf5816" name="jetbrains.mps.baseLanguage" version="4" />
    <devkit ref="fbc25dd2-5da4-483a-8b19-70928e1b62d7(jetbrains.mps.devkit.general-purpose)" />
  </languages>
  <imports>
    <import index="tp41" ref="r:00000000-0000-4000-0000-011c8959037d(jetbrains.mps.lang.dataFlow.structure)" />
    <import index="tpek" ref="r:00000000-0000-4000-0000-011c895902c0(jetbrains.mps.baseLanguage.behavior)" />
    <import index="tpee" ref="r:00000000-0000-4000-0000-011c895902ca(jetbrains.mps.baseLanguage.structure)" />
    <import index="tpcn" ref="r:00000000-0000-4000-0000-011c8959028b(jetbrains.mps.lang.structure.behavior)" />
    <import index="tpce" ref="r:00000000-0000-4000-0000-011c89590292(jetbrains.mps.lang.structure.structure)" />
    <import index="tpcu" ref="r:00000000-0000-4000-0000-011c89590282(jetbrains.mps.lang.core.behavior)" />
  </imports>
  <registry>
    <language id="af65afd8-f0dd-4942-87d9-63a55f2a9db1" name="jetbrains.mps.lang.behavior">
      <concept id="1225194240794" name="jetbrains.mps.lang.behavior.structure.ConceptBehavior" flags="ng" index="13h7C7">
        <reference id="1225194240799" name="concept" index="13h7C2" />
        <child id="1225194240805" name="method" index="13h7CS" />
        <child id="1225194240801" name="constructor" index="13h7CW" />
      </concept>
      <concept id="1225194413805" name="jetbrains.mps.lang.behavior.structure.ConceptConstructorDeclaration" flags="in" index="13hLZK" />
      <concept id="1225194472830" name="jetbrains.mps.lang.behavior.structure.ConceptMethodDeclaration" flags="ng" index="13i0hz">
        <property id="5864038008284099149" name="isStatic" index="2Ki8OM" />
        <property id="1225194472833" name="isPrivate" index="13i0is" />
        <property id="1225194472832" name="isVirtual" index="13i0it" />
        <property id="1225194472834" name="isAbstract" index="13i0iv" />
        <reference id="1225194472831" name="overriddenMethod" index="13i0hy" />
      </concept>
      <concept id="1225194628440" name="jetbrains.mps.lang.behavior.structure.SuperNodeExpression" flags="nn" index="13iAh5">
        <reference id="5299096511375896640" name="superConcept" index="3eA5LN" />
      </concept>
      <concept id="1225194691553" name="jetbrains.mps.lang.behavior.structure.ThisNodeExpression" flags="nn" index="13iPFW" />
    </language>
    <language id="f3061a53-9226-4cc5-a443-f952ceaf5816" name="jetbrains.mps.baseLanguage">
      <concept id="1197027756228" name="jetbrains.mps.baseLanguage.structure.DotExpression" flags="nn" index="2OqwBi">
        <child id="1197027771414" name="operand" index="2Oq$k0" />
        <child id="1197027833540" name="operation" index="2OqNvi" />
      </concept>
      <concept id="1137021947720" name="jetbrains.mps.baseLanguage.structure.ConceptFunction" flags="in" index="2VMwT0">
        <child id="1137022507850" name="body" index="2VODD2" />
      </concept>
      <concept id="1070475926800" name="jetbrains.mps.baseLanguage.structure.StringLiteral" flags="nn" index="Xl_RD">
        <property id="1070475926801" name="value" index="Xl_RC" />
      </concept>
      <concept id="1070534644030" name="jetbrains.mps.baseLanguage.structure.BooleanType" flags="in" index="10P_77" />
      <concept id="1068431474542" name="jetbrains.mps.baseLanguage.structure.VariableDeclaration" flags="ng" index="33uBYm">
        <child id="1068431790190" name="initializer" index="33vP2m" />
      </concept>
      <concept id="1068498886296" name="jetbrains.mps.baseLanguage.structure.VariableReference" flags="nn" index="37vLTw">
        <reference id="1068581517664" name="variableDeclaration" index="3cqZAo" />
      </concept>
      <concept id="1068498886292" name="jetbrains.mps.baseLanguage.structure.ParameterDeclaration" flags="ir" index="37vLTG" />
      <concept id="1225271177708" name="jetbrains.mps.baseLanguage.structure.StringType" flags="in" index="17QB3L" />
      <concept id="4972933694980447171" name="jetbrains.mps.baseLanguage.structure.BaseVariableDeclaration" flags="ng" index="19Szcq">
        <child id="5680397130376446158" name="type" index="1tU5fm" />
      </concept>
      <concept id="1068580123132" name="jetbrains.mps.baseLanguage.structure.BaseMethodDeclaration" flags="ng" index="3clF44">
        <child id="1068580123133" name="returnType" index="3clF45" />
        <child id="1068580123134" name="parameter" index="3clF46" />
        <child id="1068580123135" name="body" index="3clF47" />
      </concept>
      <concept id="1068580123155" name="jetbrains.mps.baseLanguage.structure.ExpressionStatement" flags="nn" index="3clFbF">
        <child id="1068580123156" name="expression" index="3clFbG" />
      </concept>
      <concept id="1068580123136" name="jetbrains.mps.baseLanguage.structure.StatementList" flags="sn" stub="5293379017992965193" index="3clFbS">
        <child id="1068581517665" name="statement" index="3cqZAp" />
      </concept>
      <concept id="1068580123137" name="jetbrains.mps.baseLanguage.structure.BooleanConstant" flags="nn" index="3clFbT">
        <property id="1068580123138" name="value" index="3clFbU" />
      </concept>
      <concept id="1068581242878" name="jetbrains.mps.baseLanguage.structure.ReturnStatement" flags="nn" index="3cpWs6">
        <child id="1068581517676" name="expression" index="3cqZAk" />
      </concept>
      <concept id="1068581242864" name="jetbrains.mps.baseLanguage.structure.LocalVariableDeclarationStatement" flags="nn" index="3cpWs8">
        <child id="1068581242865" name="localVariableDeclaration" index="3cpWs9" />
      </concept>
      <concept id="1068581242863" name="jetbrains.mps.baseLanguage.structure.LocalVariableDeclaration" flags="nr" index="3cpWsn" />
      <concept id="1068581517677" name="jetbrains.mps.baseLanguage.structure.VoidType" flags="in" index="3cqZAl" />
      <concept id="1204053956946" name="jetbrains.mps.baseLanguage.structure.IMethodCall" flags="ng" index="1ndlxa">
        <reference id="1068499141037" name="baseMethodDeclaration" index="37wK5l" />
      </concept>
      <concept id="1178549954367" name="jetbrains.mps.baseLanguage.structure.IVisible" flags="ng" index="1B3ioH">
        <child id="1178549979242" name="visibility" index="1B3o_S" />
      </concept>
      <concept id="1146644602865" name="jetbrains.mps.baseLanguage.structure.PublicVisibility" flags="nn" index="3Tm1VV" />
    </language>
    <language id="3a13115c-633c-4c5c-bbcc-75c4219e9555" name="jetbrains.mps.lang.quotation">
      <concept id="1196350785113" name="jetbrains.mps.lang.quotation.structure.Quotation" flags="nn" index="2c44tf">
        <child id="1196350785114" name="quotedNode" index="2c44tc" />
      </concept>
    </language>
    <language id="7866978e-a0f0-4cc7-81bc-4d213d9375e1" name="jetbrains.mps.lang.smodel">
      <concept id="1140725362528" name="jetbrains.mps.lang.smodel.structure.Link_SetTargetOperation" flags="nn" index="2oxUTD">
        <child id="1140725362529" name="linkTarget" index="2oxUTC" />
      </concept>
      <concept id="1179409122411" name="jetbrains.mps.lang.smodel.structure.Node_ConceptMethodCall" flags="nn" index="2qgKlT" />
      <concept id="1219352745532" name="jetbrains.mps.lang.smodel.structure.NodeRefExpression" flags="nn" index="3B5_sB">
        <reference id="1219352800908" name="referentNode" index="3B5MYn" />
      </concept>
      <concept id="1138055754698" name="jetbrains.mps.lang.smodel.structure.SNodeType" flags="in" index="3Tqbb2">
        <reference id="1138405853777" name="concept" index="ehGHo" />
      </concept>
      <concept id="1138056143562" name="jetbrains.mps.lang.smodel.structure.SLinkAccess" flags="nn" index="3TrEf2">
        <reference id="1138056516764" name="link" index="3Tt5mk" />
      </concept>
    </language>
    <language id="ceab5195-25ea-4f22-9b92-103b95ca8c0c" name="jetbrains.mps.lang.core">
      <concept id="1133920641626" name="jetbrains.mps.lang.core.structure.BaseConcept" flags="ng" index="2VYdi">
        <property id="1193676396447" name="virtualPackage" index="3GE5qa" />
      </concept>
      <concept id="1169194658468" name="jetbrains.mps.lang.core.structure.INamedConcept" flags="ng" index="TrEIO">
        <property id="1169194664001" name="name" index="TrG5h" />
      </concept>
    </language>
    <language id="83888646-71ce-4f1c-9c53-c54016f6ad4f" name="jetbrains.mps.baseLanguage.collections">
      <concept id="540871147943773365" name="jetbrains.mps.baseLanguage.collections.structure.SingleArgumentSequenceOperation" flags="nn" index="25WWJ4">
        <child id="540871147943773366" name="argument" index="25WWJ7" />
      </concept>
      <concept id="1151688443754" name="jetbrains.mps.baseLanguage.collections.structure.ListType" flags="in" index="_YKpA">
        <child id="1151688676805" name="elementType" index="_ZDj9" />
      </concept>
      <concept id="1160612413312" name="jetbrains.mps.baseLanguage.collections.structure.AddElementOperation" flags="nn" index="TSZUe" />
    </language>
  </registry>
  <node concept="13h7C7" id="hEwIiXD">
    <property role="3GE5qa" value="Instructions" />
    <ref role="13h7C2" to="tp41:hz_D2po" resolve="EmitStatement" />
    <node concept="13hLZK" id="hEwIiXE" role="13h7CW">
      <node concept="3clFbS" id="hEwIiXF" role="2VODD2" />
    </node>
  </node>
  <node concept="13h7C7" id="hEwIP6w">
    <property role="3GE5qa" value="BuilderBlock" />
    <ref role="13h7C2" to="tp41:hz__wXh" resolve="BuilderBlock" />
    <node concept="13i0hz" id="hEwIP6x" role="13h7CS">
      <property role="13i0is" value="false" />
      <property role="TrG5h" value="usesParameterObjectFor" />
      <ref role="13i0hy" to="tpek:hEwIGRw" resolve="usesParameterObjectFor" />
      <node concept="3clFbS" id="hEwIP6y" role="3clF47">
        <node concept="3cpWs6" id="hEwIP6z" role="3cqZAp">
          <node concept="3clFbT" id="hEwIP6$" role="3cqZAk">
            <property role="3clFbU" value="true" />
          </node>
        </node>
      </node>
      <node concept="37vLTG" id="hEwIP6_" role="3clF46">
        <property role="TrG5h" value="parameter" />
        <node concept="3Tqbb2" id="hEwIP6A" role="1tU5fm">
          <ref role="ehGHo" to="tpee:g76ryKb" resolve="ConceptFunctionParameter" />
        </node>
      </node>
      <node concept="10P_77" id="hEwIP6B" role="3clF45" />
      <node concept="3Tm1VV" id="hJrm0Bw" role="1B3o_S" />
    </node>
    <node concept="13hLZK" id="hEwIP6C" role="13h7CW">
      <node concept="3clFbS" id="hEwIP6D" role="2VODD2" />
    </node>
    <node concept="13i0hz" id="2D1PBM_bzHU" role="13h7CS">
      <property role="2Ki8OM" value="true" />
      <property role="13i0is" value="false" />
      <property role="TrG5h" value="getApplicableConceptFunctionParameter" />
      <property role="13i0it" value="false" />
      <ref role="13i0hy" to="tpek:2D1PBM_bxJg" resolve="getApplicableConceptFunctionParameter" />
      <node concept="3Tm1VV" id="2D1PBM_bzHV" role="1B3o_S" />
      <node concept="_YKpA" id="2D1PBM_bzHS" role="3clF45">
        <node concept="3Tqbb2" id="2D1PBM_bzHT" role="_ZDj9">
          <ref role="ehGHo" to="tpce:f_TIwhg" resolve="ConceptDeclaration" />
        </node>
      </node>
      <node concept="3clFbS" id="2D1PBM_bzHW" role="3clF47">
        <node concept="3cpWs8" id="2D1PBM_bzHX" role="3cqZAp">
          <node concept="3cpWsn" id="2D1PBM_bzHY" role="3cpWs9">
            <property role="TrG5h" value="result" />
            <node concept="_YKpA" id="2D1PBM_bzI2" role="1tU5fm">
              <node concept="3Tqbb2" id="2D1PBM_bzI3" role="_ZDj9">
                <ref role="ehGHo" to="tpce:f_TIwhg" resolve="ConceptDeclaration" />
              </node>
            </node>
            <node concept="2OqwBi" id="2D1PBM_bzIa" role="33vP2m">
              <node concept="13iAh5" id="2D1PBM_bzI6" role="2Oq$k0">
                <ref role="3eA5LN" to="tpee:gyVMwX8" resolve="ConceptFunction" />
              </node>
              <node concept="2qgKlT" id="2D1PBM_bzI5" role="2OqNvi">
                <ref role="37wK5l" to="tpek:2D1PBM_bxJg" resolve="getApplicableConceptFunctionParameter" />
              </node>
            </node>
          </node>
        </node>
        <node concept="3clFbF" id="2D1PBM_bzIc" role="3cqZAp">
          <node concept="2OqwBi" id="2D1PBM_bzId" role="3clFbG">
            <node concept="37vLTw" id="2D1PBM_bzIe" role="2Oq$k0">
              <ref role="3cqZAo" node="2D1PBM_bzHY" resolve="result" />
            </node>
            <node concept="TSZUe" id="2D1PBM_bzIf" role="2OqNvi">
              <node concept="3B5_sB" id="2D1PBM_bzIb" role="25WWJ7">
                <ref role="3B5MYn" to="tp41:hz__QpZ" resolve="NodeParameter" />
              </node>
            </node>
          </node>
        </node>
        <node concept="3cpWs6" id="2D1PBM_bzIg" role="3cqZAp">
          <node concept="37vLTw" id="2D1PBM_bzIh" role="3cqZAk">
            <ref role="3cqZAo" node="2D1PBM_bzHY" resolve="result" />
          </node>
        </node>
      </node>
    </node>
    <node concept="13i0hz" id="$yZ68hBhP$" role="13h7CS">
      <property role="13i0is" value="false" />
      <property role="TrG5h" value="getExpectedReturnType" />
      <property role="13i0it" value="false" />
      <property role="13i0iv" value="false" />
      <ref role="13i0hy" to="tpek:hEwIGRD" resolve="getExpectedReturnType" />
      <node concept="3Tm1VV" id="$yZ68hBhP_" role="1B3o_S" />
      <node concept="3clFbS" id="$yZ68hBhPA" role="3clF47">
        <node concept="3cpWs6" id="$yZ68hBhPB" role="3cqZAp">
          <node concept="2c44tf" id="$yZ68hBhOr" role="3cqZAk">
            <node concept="3cqZAl" id="hz__Jt3" role="2c44tc" />
          </node>
        </node>
      </node>
      <node concept="3Tqbb2" id="$yZ68hBhPC" role="3clF45" />
    </node>
  </node>
  <node concept="13h7C7" id="hEwIRF9">
    <property role="3GE5qa" value="BuilderBlock" />
    <ref role="13h7C2" to="tp41:hz__QpZ" resolve="NodeParameter" />
    <node concept="13hLZK" id="hEwIRFa" role="13h7CW">
      <node concept="3clFbS" id="hEwIRFb" role="2VODD2" />
    </node>
  </node>
  <node concept="13h7C7" id="hEwIWRU">
    <ref role="13h7C2" to="tp41:hz_zdoP" resolve="DataFlowBuilderDeclaration" />
    <node concept="13hLZK" id="hEwIWRV" role="13h7CW">
      <node concept="3clFbS" id="hEwIWRW" role="2VODD2" />
    </node>
    <node concept="13i0hz" id="7KX5Yh0wKus" role="13h7CS">
      <property role="TrG5h" value="getBaseConcept" />
      <property role="13i0it" value="true" />
      <ref role="13i0hy" to="tpcn:2hxg_BDjKM8" resolve="getBaseConcept" />
      <node concept="3Tm1VV" id="7KX5Yh0wKut" role="1B3o_S" />
      <node concept="3clFbS" id="7KX5Yh0wKuu" role="3clF47">
        <node concept="3clFbF" id="7KX5Yh0wKuC" role="3cqZAp">
          <node concept="2OqwBi" id="7KX5Yh0wKuD" role="3clFbG">
            <node concept="13iPFW" id="7KX5Yh0wKuE" role="2Oq$k0" />
            <node concept="3TrEf2" id="7KX5Yh0wKuF" role="2OqNvi">
              <ref role="3Tt5mk" to="tp41:hz_znqw" />
            </node>
          </node>
        </node>
      </node>
      <node concept="3Tqbb2" id="7KX5Yh0wKuv" role="3clF45">
        <ref role="ehGHo" to="tpce:h0PkWnZ" resolve="AbstractConceptDeclaration" />
      </node>
    </node>
    <node concept="13i0hz" id="5r_35Ihc8Xl" role="13h7CS">
      <property role="TrG5h" value="setBaseConcept" />
      <property role="13i0it" value="true" />
      <ref role="13i0hy" to="tpcn:5r_35Ihc58c" resolve="setBaseConcept" />
      <node concept="3Tm1VV" id="5r_35Ihc8Xm" role="1B3o_S" />
      <node concept="3clFbS" id="5r_35Ihc8Xn" role="3clF47">
        <node concept="3clFbF" id="5r_35Ihc8Xw" role="3cqZAp">
          <node concept="2OqwBi" id="5r_35Ihc8XB" role="3clFbG">
            <node concept="2OqwBi" id="5r_35Ihc8Xy" role="2Oq$k0">
              <node concept="13iPFW" id="5r_35Ihc8Xx" role="2Oq$k0" />
              <node concept="3TrEf2" id="5r_35Ihc8XA" role="2OqNvi">
                <ref role="3Tt5mk" to="tp41:hz_znqw" />
              </node>
            </node>
            <node concept="2oxUTD" id="5r_35Ihc8XF" role="2OqNvi">
              <node concept="37vLTw" id="2BHiRxgm8vF" role="2oxUTC">
                <ref role="3cqZAo" node="5r_35Ihc8Xo" resolve="baseConcept" />
              </node>
            </node>
          </node>
        </node>
      </node>
      <node concept="37vLTG" id="5r_35Ihc8Xo" role="3clF46">
        <property role="TrG5h" value="baseConcept" />
        <node concept="3Tqbb2" id="5r_35Ihc8Xp" role="1tU5fm">
          <ref role="ehGHo" to="tpce:h0PkWnZ" resolve="AbstractConceptDeclaration" />
        </node>
      </node>
      <node concept="3cqZAl" id="5r_35Ihc8Xq" role="3clF45" />
    </node>
  </node>
  <node concept="13h7C7" id="hEwJ6RG">
    <property role="3GE5qa" value="Positions" />
    <ref role="13h7C2" to="tp41:h$ayLkA" resolve="LabelPosition" />
    <node concept="13hLZK" id="hEwJ6RH" role="13h7CW">
      <node concept="3clFbS" id="hEwJ6RI" role="2VODD2" />
    </node>
  </node>
  <node concept="13h7C7" id="1_dIXlWBqX3">
    <ref role="13h7C2" to="tp41:4jPTTYuoj20" resolve="InstructionType" />
    <node concept="13i0hz" id="1_dIXlWBqX6" role="13h7CS">
      <property role="TrG5h" value="getPresentation" />
      <ref role="13i0hy" to="tpcu:hEwIMiw" resolve="getPresentation" />
      <node concept="3clFbS" id="1_dIXlWBqX9" role="3clF47">
        <node concept="3clFbF" id="1_dIXlWBqXd" role="3cqZAp">
          <node concept="Xl_RD" id="1_dIXlWBqXe" role="3clFbG">
            <property role="Xl_RC" value="instruction" />
          </node>
        </node>
      </node>
      <node concept="17QB3L" id="1_dIXlWBqXb" role="3clF45" />
      <node concept="3Tm1VV" id="1_dIXlWBqXc" role="1B3o_S" />
    </node>
    <node concept="13hLZK" id="1_dIXlWBqX4" role="13h7CW">
      <node concept="3clFbS" id="1_dIXlWBqX5" role="2VODD2" />
    </node>
  </node>
</model>

