<?xml version="1.0" encoding="UTF-8"?>
<model ref="r:00000000-0000-4000-0000-011c89590378(jetbrains.mps.lang.dataFlow.dataFlow)">
  <persistence version="9" />
  <languages>
    <use id="7fa12e9c-b949-4976-b4fa-19accbc320b4" name="jetbrains.mps.lang.dataFlow" version="0" />
    <use id="7866978e-a0f0-4cc7-81bc-4d213d9375e1" name="jetbrains.mps.lang.smodel" version="4" />
    <use id="f3061a53-9226-4cc5-a443-f952ceaf5816" name="jetbrains.mps.baseLanguage" version="4" />
    <devkit ref="fbc25dd2-5da4-483a-8b19-70928e1b62d7(jetbrains.mps.devkit.general-purpose)" />
  </languages>
  <imports>
    <import index="tp41" ref="r:00000000-0000-4000-0000-011c8959037d(jetbrains.mps.lang.dataFlow.structure)" />
  </imports>
  <registry>
    <language id="f3061a53-9226-4cc5-a443-f952ceaf5816" name="jetbrains.mps.baseLanguage">
      <concept id="1197027756228" name="jetbrains.mps.baseLanguage.structure.DotExpression" flags="nn" index="2OqwBi">
        <child id="1197027771414" name="operand" index="2Oq$k0" />
        <child id="1197027833540" name="operation" index="2OqNvi" />
      </concept>
      <concept id="1137021947720" name="jetbrains.mps.baseLanguage.structure.ConceptFunction" flags="in" index="2VMwT0">
        <child id="1137022507850" name="body" index="2VODD2" />
      </concept>
      <concept id="1068580123136" name="jetbrains.mps.baseLanguage.structure.StatementList" flags="sn" stub="5293379017992965193" index="3clFbS">
        <child id="1068581517665" name="statement" index="3cqZAp" />
      </concept>
    </language>
    <language id="7fa12e9c-b949-4976-b4fa-19accbc320b4" name="jetbrains.mps.lang.dataFlow">
      <concept id="1206442055221" name="jetbrains.mps.lang.dataFlow.structure.DataFlowBuilderDeclaration" flags="ig" index="3_zdsH">
        <reference id="1206442096288" name="conceptDeclaration" index="3_znuS" />
        <child id="1206442812839" name="builderBlock" index="3_A6iZ" />
      </concept>
      <concept id="1206442659665" name="jetbrains.mps.lang.dataFlow.structure.BuilderBlock" flags="in" index="3__wT9" />
      <concept id="1206442747519" name="jetbrains.mps.lang.dataFlow.structure.NodeParameter" flags="nn" index="3__QtB" />
      <concept id="1206454052847" name="jetbrains.mps.lang.dataFlow.structure.EmitCodeForStatement" flags="nn" index="3AgYrR">
        <child id="1206454079161" name="codeFor" index="3Ah4Yx" />
      </concept>
    </language>
    <language id="7866978e-a0f0-4cc7-81bc-4d213d9375e1" name="jetbrains.mps.lang.smodel">
      <concept id="1138056143562" name="jetbrains.mps.lang.smodel.structure.SLinkAccess" flags="nn" index="3TrEf2">
        <reference id="1138056516764" name="link" index="3Tt5mk" />
      </concept>
    </language>
    <language id="ceab5195-25ea-4f22-9b92-103b95ca8c0c" name="jetbrains.mps.lang.core">
      <concept id="1133920641626" name="jetbrains.mps.lang.core.structure.BaseConcept" flags="ng" index="2VYdi">
        <property id="1193676396447" name="virtualPackage" index="3GE5qa" />
      </concept>
    </language>
  </registry>
  <node concept="3_zdsH" id="h$9FJPE">
    <property role="3GE5qa" value="Positions" />
    <ref role="3_znuS" to="tp41:hz_I6pB" resolve="RelativePosition" />
    <node concept="3__wT9" id="h$9FJPF" role="3_A6iZ">
      <node concept="3clFbS" id="h$9FJPG" role="2VODD2">
        <node concept="3AgYrR" id="h$9FKrN" role="3cqZAp">
          <node concept="2OqwBi" id="h$9FKJR" role="3Ah4Yx">
            <node concept="3__QtB" id="h$9FKGF" role="2Oq$k0" />
            <node concept="3TrEf2" id="h$9FKWP" role="2OqNvi">
              <ref role="3Tt5mk" to="tp41:hz_I9J2" />
            </node>
          </node>
        </node>
      </node>
    </node>
  </node>
  <node concept="3_zdsH" id="h$9Fnpu">
    <property role="3GE5qa" value="Instructions" />
    <ref role="3_znuS" to="tp41:hzF2QpO" resolve="EmitMayBeUnreachable" />
    <node concept="3__wT9" id="h$9Fnpv" role="3_A6iZ">
      <node concept="3clFbS" id="h$9Fnpw" role="2VODD2">
        <node concept="3AgYrR" id="h$9FnP7" role="3cqZAp">
          <node concept="2OqwBi" id="h$9Fo7X" role="3Ah4Yx">
            <node concept="3__QtB" id="h$9Fo4L" role="2Oq$k0" />
            <node concept="3TrEf2" id="h$9FoVx" role="2OqNvi">
              <ref role="3Tt5mk" to="tp41:hzF2SsG" />
            </node>
          </node>
        </node>
      </node>
    </node>
  </node>
  <node concept="3_zdsH" id="h$9EKie">
    <property role="3GE5qa" value="Instructions" />
    <ref role="3_znuS" to="tp41:hzAgYvJ" resolve="EmitCodeForStatement" />
    <node concept="3__wT9" id="h$9EKif" role="3_A6iZ">
      <node concept="3clFbS" id="h$9EKig" role="2VODD2">
        <node concept="3AgYrR" id="h$9ELlU" role="3cqZAp">
          <node concept="2OqwBi" id="h$9F7tT" role="3Ah4Yx">
            <node concept="3__QtB" id="h$9ELCJ" role="2Oq$k0" />
            <node concept="3TrEf2" id="h$9F7Wt" role="2OqNvi">
              <ref role="3Tt5mk" to="tp41:hzAh4UT" />
            </node>
          </node>
        </node>
      </node>
    </node>
  </node>
  <node concept="3_zdsH" id="h$9Fs89">
    <property role="3GE5qa" value="Instructions.Variable" />
    <ref role="3_znuS" to="tp41:hz_H088" resolve="BaseEmitVariableStatement" />
    <node concept="3__wT9" id="h$9Fs8a" role="3_A6iZ">
      <node concept="3clFbS" id="h$9Fs8b" role="2VODD2">
        <node concept="3AgYrR" id="h$9FsHN" role="3cqZAp">
          <node concept="2OqwBi" id="h$9Ft0T" role="3Ah4Yx">
            <node concept="3__QtB" id="h$9FsXt" role="2Oq$k0" />
            <node concept="3TrEf2" id="h$9FtI_" role="2OqNvi">
              <ref role="3Tt5mk" to="tp41:hz_H1WB" />
            </node>
          </node>
        </node>
      </node>
    </node>
  </node>
  <node concept="3_zdsH" id="h$9FCAc">
    <property role="3GE5qa" value="Instructions.Jump" />
    <ref role="3_znuS" to="tp41:hz_J8Ep" resolve="BaseEmitJumpStatement" />
    <node concept="3__wT9" id="h$9FCAd" role="3_A6iZ">
      <node concept="3clFbS" id="h$9FCAe" role="2VODD2">
        <node concept="3AgYrR" id="h$9FDko" role="3cqZAp">
          <node concept="2OqwBi" id="h$9FDNs" role="3Ah4Yx">
            <node concept="3__QtB" id="h$9FDIy" role="2Oq$k0" />
            <node concept="3TrEf2" id="h$9FH4R" role="2OqNvi">
              <ref role="3Tt5mk" to="tp41:hz_JbE4" />
            </node>
          </node>
        </node>
      </node>
    </node>
  </node>
</model>

