<?xml version="1.0" encoding="UTF-8"?>
<model ref="r:00000000-0000-4000-0000-011c89590379(jetbrains.mps.lang.dataFlow.editor)">
  <persistence version="9" />
  <languages>
    <use id="aee9cad2-acd4-4608-aef2-0004f6a1cdbd" name="jetbrains.mps.lang.actions" version="0" />
    <use id="7866978e-a0f0-4cc7-81bc-4d213d9375e1" name="jetbrains.mps.lang.smodel" version="4" />
    <use id="18bc6592-03a6-4e29-a83a-7ff23bde13ba" name="jetbrains.mps.lang.editor" version="3" />
    <use id="f3061a53-9226-4cc5-a443-f952ceaf5816" name="jetbrains.mps.baseLanguage" version="4" />
    <devkit ref="fbc25dd2-5da4-483a-8b19-70928e1b62d7(jetbrains.mps.devkit.general-purpose)" />
  </languages>
  <imports>
    <import index="tp41" ref="r:00000000-0000-4000-0000-011c8959037d(jetbrains.mps.lang.dataFlow.structure)" />
    <import index="tpen" ref="r:00000000-0000-4000-0000-011c895902c3(jetbrains.mps.baseLanguage.editor)" />
    <import index="tpck" ref="r:00000000-0000-4000-0000-011c89590288(jetbrains.mps.lang.core.structure)" />
    <import index="tpco" ref="r:00000000-0000-4000-0000-011c89590284(jetbrains.mps.lang.core.editor)" />
  </imports>
  <registry>
    <language id="18bc6592-03a6-4e29-a83a-7ff23bde13ba" name="jetbrains.mps.lang.editor">
      <concept id="1402906326895675325" name="jetbrains.mps.lang.editor.structure.CellActionMap_FunctionParm_selectedNode" flags="nn" index="0IXxy" />
      <concept id="1071666914219" name="jetbrains.mps.lang.editor.structure.ConceptEditorDeclaration" flags="ig" index="24kQdi" />
      <concept id="1140524381322" name="jetbrains.mps.lang.editor.structure.CellModel_ListWithRole" flags="ng" index="2czfm3">
        <child id="1140524464360" name="cellLayout" index="2czzBx" />
      </concept>
      <concept id="1237303669825" name="jetbrains.mps.lang.editor.structure.CellLayout_Indent" flags="nn" index="l2Vlx" />
      <concept id="1237307900041" name="jetbrains.mps.lang.editor.structure.IndentLayoutIndentStyleClassItem" flags="ln" index="lj46D" />
      <concept id="1237308012275" name="jetbrains.mps.lang.editor.structure.IndentLayoutNewLineStyleClassItem" flags="ln" index="ljvvj" />
      <concept id="1142886221719" name="jetbrains.mps.lang.editor.structure.QueryFunction_NodeCondition" flags="in" index="pkWqt" />
      <concept id="1142886811589" name="jetbrains.mps.lang.editor.structure.ConceptFunctionParameter_node" flags="nn" index="pncrf" />
      <concept id="1080736578640" name="jetbrains.mps.lang.editor.structure.BaseEditorComponent" flags="ig" index="2wURMF">
        <child id="1080736633877" name="cellModel" index="2wV5jI" />
      </concept>
      <concept id="1164824717996" name="jetbrains.mps.lang.editor.structure.CellMenuDescriptor" flags="ng" index="OXEIz">
        <child id="1164824815888" name="cellMenuPart" index="OY2wv" />
      </concept>
      <concept id="1078939183254" name="jetbrains.mps.lang.editor.structure.CellModel_Component" flags="sg" stub="3162947552742194261" index="PMmxH">
        <reference id="1078939183255" name="editorComponent" index="PMmxG" />
      </concept>
      <concept id="1164914519156" name="jetbrains.mps.lang.editor.structure.CellMenuPart_ReplaceNode_CustomNodeConcept" flags="ng" index="UkePV">
        <reference id="1164914727930" name="replacementConcept" index="Ul1FP" />
      </concept>
      <concept id="1186402211651" name="jetbrains.mps.lang.editor.structure.StyleSheet" flags="ng" index="V5hpn">
        <child id="1186402402630" name="styleClass" index="V601i" />
      </concept>
      <concept id="1186403694788" name="jetbrains.mps.lang.editor.structure.ColorStyleClassItem" flags="ln" index="VaVBg">
        <property id="1186403713874" name="color" index="Vb096" />
      </concept>
      <concept id="1186404549998" name="jetbrains.mps.lang.editor.structure.ForegroundColorStyleClassItem" flags="ln" index="VechU" />
      <concept id="1186414536763" name="jetbrains.mps.lang.editor.structure.BooleanStyleSheetItem" flags="ln" index="VOi$J">
        <property id="1186414551515" name="flag" index="VOm3f" />
      </concept>
      <concept id="1186414860679" name="jetbrains.mps.lang.editor.structure.EditableStyleClassItem" flags="ln" index="VPxyj" />
      <concept id="1186414928363" name="jetbrains.mps.lang.editor.structure.SelectableStyleSheetItem" flags="ln" index="VPM3Z" />
      <concept id="1165004207520" name="jetbrains.mps.lang.editor.structure.CellMenuPart_ReplaceNode_Group" flags="ng" index="ZEniJ">
        <child id="1165004529293" name="createFunction" index="ZF_Y2" />
        <child id="1165004529292" name="parametersFunction" index="ZF_Y3" />
      </concept>
      <concept id="1233758997495" name="jetbrains.mps.lang.editor.structure.PunctuationLeftStyleClassItem" flags="ln" index="11L4FC" />
      <concept id="1233759184865" name="jetbrains.mps.lang.editor.structure.PunctuationRightStyleClassItem" flags="ln" index="11LMrY" />
      <concept id="3383245079137382180" name="jetbrains.mps.lang.editor.structure.StyleClass" flags="ig" index="14StLt" />
      <concept id="1165253627126" name="jetbrains.mps.lang.editor.structure.CellMenuPart_AbstractGroup" flags="ng" index="1exORT">
        <child id="1165253890469" name="parameterObjectType" index="1eyP2E" />
      </concept>
      <concept id="1139535219966" name="jetbrains.mps.lang.editor.structure.CellActionMapDeclaration" flags="ig" index="1h_SRR">
        <reference id="1139535219968" name="applicableConcept" index="1h_SK9" />
        <child id="1139535219969" name="item" index="1h_SK8" />
      </concept>
      <concept id="1139535280617" name="jetbrains.mps.lang.editor.structure.CellActionMapItem" flags="lg" index="1hA7zw">
        <property id="1139535298778" name="actionId" index="1hAc7j" />
        <child id="1139535280620" name="executeFunction" index="1hA7z_" />
      </concept>
      <concept id="1139535439104" name="jetbrains.mps.lang.editor.structure.CellActionMap_ExecuteFunction" flags="in" index="1hAIg9" />
      <concept id="1088013125922" name="jetbrains.mps.lang.editor.structure.CellModel_RefCell" flags="sg" stub="730538219795941030" index="1iCGBv">
        <child id="1088186146602" name="editorComponent" index="1sWHZn" />
      </concept>
      <concept id="1381004262292414836" name="jetbrains.mps.lang.editor.structure.ICellStyle" flags="ng" index="1k5N5V">
        <reference id="1381004262292426837" name="parentStyleClass" index="1k5W1q" />
      </concept>
      <concept id="1236262245656" name="jetbrains.mps.lang.editor.structure.MatchingLabelStyleClassItem" flags="ln" index="3mYdg7">
        <property id="1238091709220" name="labelName" index="1413C4" />
      </concept>
      <concept id="1088185857835" name="jetbrains.mps.lang.editor.structure.InlineEditorComponent" flags="ig" index="1sVBvm" />
      <concept id="1174088067129" name="jetbrains.mps.lang.editor.structure.CellMenuPart_ReplaceChildPrimary" flags="ng" index="1t6y$C" />
      <concept id="1139848536355" name="jetbrains.mps.lang.editor.structure.CellModel_WithRole" flags="ng" index="1$h60E">
        <property id="1139852716018" name="noTargetText" index="1$x2rV" />
        <property id="1140017977771" name="readOnly" index="1Intyy" />
        <reference id="1140103550593" name="relationDeclaration" index="1NtTu8" />
      </concept>
      <concept id="1073389214265" name="jetbrains.mps.lang.editor.structure.EditorCellModel" flags="ng" index="3EYTF0">
        <property id="1130859485024" name="attractsFocus" index="1cu_pB" />
        <reference id="1139959269582" name="actionMap" index="1ERwB7" />
        <child id="1142887637401" name="renderingCondition" index="pqm2j" />
        <child id="1164826688380" name="menuDescriptor" index="P5bDN" />
      </concept>
      <concept id="1073389446423" name="jetbrains.mps.lang.editor.structure.CellModel_Collection" flags="sn" stub="3013115976261988961" index="3EZMnI">
        <property id="1073389446425" name="vertical" index="3EZMnw" />
        <child id="1106270802874" name="cellLayout" index="2iSdaV" />
        <child id="1073389446424" name="childCellModel" index="3EZMnx" />
      </concept>
      <concept id="1073389577006" name="jetbrains.mps.lang.editor.structure.CellModel_Constant" flags="sn" stub="3610246225209162225" index="3F0ifn">
        <property id="1073389577007" name="text" index="3F0ifm" />
      </concept>
      <concept id="1073389658414" name="jetbrains.mps.lang.editor.structure.CellModel_Property" flags="sg" stub="730538219796134133" index="3F0A7n" />
      <concept id="1219418625346" name="jetbrains.mps.lang.editor.structure.IStyleContainer" flags="ng" index="3F0Thp">
        <child id="1219418656006" name="styleItem" index="3F10Kt" />
      </concept>
      <concept id="1073389882823" name="jetbrains.mps.lang.editor.structure.CellModel_RefNode" flags="sg" stub="730538219795960754" index="3F1sOY">
        <property id="16410578721444372" name="customizeEmptyCell" index="2ru_X1" />
        <child id="16410578721629643" name="emptyCellModel" index="2ruayu" />
      </concept>
      <concept id="1073390211982" name="jetbrains.mps.lang.editor.structure.CellModel_RefNodeList" flags="sg" stub="2794558372793454595" index="3F2HdR" />
      <concept id="1163613035599" name="jetbrains.mps.lang.editor.structure.CellMenuPart_AbstractGroup_Query" flags="in" index="3GJtP1" />
      <concept id="1163613131943" name="jetbrains.mps.lang.editor.structure.CellMenuPart_ReplaceNode_Group_Create" flags="in" index="3GJPmD" />
      <concept id="1166049232041" name="jetbrains.mps.lang.editor.structure.AbstractComponent" flags="ng" index="1XWOmA">
        <reference id="1166049300910" name="conceptDeclaration" index="1XX52x" />
      </concept>
    </language>
    <language id="f3061a53-9226-4cc5-a443-f952ceaf5816" name="jetbrains.mps.baseLanguage">
      <concept id="1215693861676" name="jetbrains.mps.baseLanguage.structure.BaseAssignmentExpression" flags="nn" index="d038R">
        <child id="1068498886297" name="rValue" index="37vLTx" />
        <child id="1068498886295" name="lValue" index="37vLTJ" />
      </concept>
      <concept id="1197027756228" name="jetbrains.mps.baseLanguage.structure.DotExpression" flags="nn" index="2OqwBi">
        <child id="1197027771414" name="operand" index="2Oq$k0" />
        <child id="1197027833540" name="operation" index="2OqNvi" />
      </concept>
      <concept id="1145552977093" name="jetbrains.mps.baseLanguage.structure.GenericNewExpression" flags="nn" index="2ShNRf">
        <child id="1145553007750" name="creator" index="2ShVmc" />
      </concept>
      <concept id="1137021947720" name="jetbrains.mps.baseLanguage.structure.ConceptFunction" flags="in" index="2VMwT0">
        <child id="1137022507850" name="body" index="2VODD2" />
      </concept>
      <concept id="1070475926800" name="jetbrains.mps.baseLanguage.structure.StringLiteral" flags="nn" index="Xl_RD">
        <property id="1070475926801" name="value" index="Xl_RC" />
      </concept>
      <concept id="1070534058343" name="jetbrains.mps.baseLanguage.structure.NullLiteral" flags="nn" index="10Nm6u" />
      <concept id="1068498886294" name="jetbrains.mps.baseLanguage.structure.AssignmentExpression" flags="nn" index="37vLTI" />
      <concept id="1225271177708" name="jetbrains.mps.baseLanguage.structure.StringType" flags="in" index="17QB3L" />
      <concept id="1068580123152" name="jetbrains.mps.baseLanguage.structure.EqualsExpression" flags="nn" index="3clFbC" />
      <concept id="1068580123155" name="jetbrains.mps.baseLanguage.structure.ExpressionStatement" flags="nn" index="3clFbF">
        <child id="1068580123156" name="expression" index="3clFbG" />
      </concept>
      <concept id="1068580123159" name="jetbrains.mps.baseLanguage.structure.IfStatement" flags="nn" index="3clFbJ">
        <child id="1068580123160" name="condition" index="3clFbw" />
        <child id="1068580123161" name="ifTrue" index="3clFbx" />
      </concept>
      <concept id="1068580123136" name="jetbrains.mps.baseLanguage.structure.StatementList" flags="sn" stub="5293379017992965193" index="3clFbS">
        <child id="1068581517665" name="statement" index="3cqZAp" />
      </concept>
      <concept id="1081773326031" name="jetbrains.mps.baseLanguage.structure.BinaryOperation" flags="nn" index="3uHJSO">
        <child id="1081773367579" name="rightExpression" index="3uHU7w" />
        <child id="1081773367580" name="leftExpression" index="3uHU7B" />
      </concept>
      <concept id="1073239437375" name="jetbrains.mps.baseLanguage.structure.NotEqualsExpression" flags="nn" index="3y3z36" />
    </language>
    <language id="aee9cad2-acd4-4608-aef2-0004f6a1cdbd" name="jetbrains.mps.lang.actions">
      <concept id="5979988948250981289" name="jetbrains.mps.lang.actions.structure.SNodeCreatorAndInitializer" flags="nn" index="2fJWfE" />
    </language>
    <language id="7866978e-a0f0-4cc7-81bc-4d213d9375e1" name="jetbrains.mps.lang.smodel">
      <concept id="1180636770613" name="jetbrains.mps.lang.smodel.structure.SNodeCreator" flags="nn" index="3zrR0B">
        <child id="1180636770616" name="createdType" index="3zrR0E" />
      </concept>
      <concept id="1140131837776" name="jetbrains.mps.lang.smodel.structure.Node_ReplaceWithAnotherOperation" flags="nn" index="1P9Npp">
        <child id="1140131861877" name="replacementNode" index="1P9ThW" />
      </concept>
      <concept id="1138055754698" name="jetbrains.mps.lang.smodel.structure.SNodeType" flags="in" index="3Tqbb2">
        <reference id="1138405853777" name="concept" index="ehGHo" />
      </concept>
      <concept id="1138056143562" name="jetbrains.mps.lang.smodel.structure.SLinkAccess" flags="nn" index="3TrEf2">
        <reference id="1138056516764" name="link" index="3Tt5mk" />
      </concept>
      <concept id="1138056282393" name="jetbrains.mps.lang.smodel.structure.SLinkListAccess" flags="nn" index="3Tsc0h">
        <reference id="1138056546658" name="link" index="3TtcxE" />
      </concept>
    </language>
    <language id="ceab5195-25ea-4f22-9b92-103b95ca8c0c" name="jetbrains.mps.lang.core">
      <concept id="1133920641626" name="jetbrains.mps.lang.core.structure.BaseConcept" flags="ng" index="2VYdi">
        <property id="1193676396447" name="virtualPackage" index="3GE5qa" />
      </concept>
      <concept id="1169194658468" name="jetbrains.mps.lang.core.structure.INamedConcept" flags="ng" index="TrEIO">
        <property id="1169194664001" name="name" index="TrG5h" />
      </concept>
    </language>
    <language id="83888646-71ce-4f1c-9c53-c54016f6ad4f" name="jetbrains.mps.baseLanguage.collections">
      <concept id="1237721394592" name="jetbrains.mps.baseLanguage.collections.structure.AbstractContainerCreator" flags="nn" index="HWqM0">
        <child id="1237721435808" name="initValue" index="HW$Y0" />
        <child id="1237721435807" name="elementType" index="HW$YZ" />
      </concept>
      <concept id="1160600644654" name="jetbrains.mps.baseLanguage.collections.structure.ListCreatorWithInit" flags="nn" index="Tc6Ow" />
      <concept id="1176501494711" name="jetbrains.mps.baseLanguage.collections.structure.IsNotEmptyOperation" flags="nn" index="3GX2aA" />
    </language>
  </registry>
  <node concept="24kQdi" id="hz_zu$2">
    <ref role="1XX52x" to="tp41:hz_zdoP" resolve="DataFlowBuilderDeclaration" />
    <node concept="3EZMnI" id="hz_zvhI" role="2wV5jI">
      <property role="3EZMnw" value="true" />
      <node concept="3F0ifn" id="hz_A8Xq" role="3EZMnx">
        <property role="3F0ifm" value="data flow builder for" />
      </node>
      <node concept="1iCGBv" id="hz_AbuV" role="3EZMnx">
        <ref role="1NtTu8" to="tp41:hz_znqw" />
        <node concept="1sVBvm" id="hz_AbuW" role="1sWHZn">
          <node concept="3F0A7n" id="hz_AbDe" role="2wV5jI">
            <property role="1Intyy" value="true" />
            <ref role="1NtTu8" to="tpck:h0TrG11" resolve="name" />
          </node>
        </node>
      </node>
      <node concept="3EZMnI" id="3nqUySdhmIN" role="3EZMnx">
        <node concept="VPM3Z" id="3nqUySdhmIP" role="3F10Kt">
          <property role="VOm3f" value="false" />
        </node>
        <node concept="3F0ifn" id="3nqUySdhmJa" role="3EZMnx">
          <property role="3F0ifm" value="mode:" />
        </node>
        <node concept="3F2HdR" id="3nqUySdhmJi" role="3EZMnx">
          <ref role="1NtTu8" to="tp41:6UdHCtZO4VV" />
          <node concept="l2Vlx" id="3nqUySdhmJk" role="2czzBx" />
        </node>
        <node concept="l2Vlx" id="3nqUySdhmIS" role="2iSdaV" />
        <node concept="pkWqt" id="3nqUySdhmJp" role="pqm2j">
          <node concept="3clFbS" id="3nqUySdhmJq" role="2VODD2">
            <node concept="3clFbF" id="3nqUySdhmQw" role="3cqZAp">
              <node concept="2OqwBi" id="3nqUySdhoGF" role="3clFbG">
                <node concept="2OqwBi" id="3nqUySdhn35" role="2Oq$k0">
                  <node concept="pncrf" id="3nqUySdhmQv" role="2Oq$k0" />
                  <node concept="3Tsc0h" id="3nqUySdhnpq" role="2OqNvi">
                    <ref role="3TtcxE" to="tp41:6UdHCtZO4VV" />
                  </node>
                </node>
                <node concept="3GX2aA" id="3nqUySdhrcb" role="2OqNvi" />
              </node>
            </node>
          </node>
        </node>
      </node>
      <node concept="3F0ifn" id="hz_AiRo" role="3EZMnx">
        <property role="3F0ifm" value="{" />
        <ref role="1k5W1q" to="tpen:hFD5onb" resolve="LeftBrace" />
        <node concept="ljvvj" id="i0N6BpP" role="3F10Kt">
          <property role="VOm3f" value="true" />
        </node>
      </node>
      <node concept="3F1sOY" id="hz_AgBz" role="3EZMnx">
        <ref role="1NtTu8" to="tp41:hz_A6mB" />
        <node concept="lj46D" id="i0N6Bq_" role="3F10Kt">
          <property role="VOm3f" value="true" />
        </node>
        <node concept="ljvvj" id="i0N6BqA" role="3F10Kt">
          <property role="VOm3f" value="true" />
        </node>
      </node>
      <node concept="3F0ifn" id="hz_AjyR" role="3EZMnx">
        <property role="3F0ifm" value="}" />
        <ref role="1k5W1q" to="tpen:hFD5_7H" resolve="RightBrace" />
        <node concept="ljvvj" id="i0N6BqC" role="3F10Kt">
          <property role="VOm3f" value="true" />
        </node>
      </node>
      <node concept="l2Vlx" id="i0N6BqF" role="2iSdaV" />
    </node>
  </node>
  <node concept="24kQdi" id="hz_DqiG">
    <property role="3GE5qa" value="Instructions" />
    <ref role="1XX52x" to="tp41:hz_DljO" resolve="EmitNopStatement" />
    <node concept="3EZMnI" id="4m2ztrVpxO" role="2wV5jI">
      <node concept="l2Vlx" id="4m2ztrVpxP" role="2iSdaV" />
      <node concept="3F0ifn" id="1efL_eBTI53" role="3EZMnx">
        <property role="3F0ifm" value="insert" />
        <ref role="1k5W1q" node="7n7cA7JTupR" resolve="InsertPosition" />
        <node concept="pkWqt" id="1efL_eBTI54" role="pqm2j">
          <node concept="3clFbS" id="1efL_eBTI55" role="2VODD2">
            <node concept="3clFbF" id="1efL_eBTI56" role="3cqZAp">
              <node concept="3y3z36" id="1efL_eBTI57" role="3clFbG">
                <node concept="10Nm6u" id="1efL_eBTI58" role="3uHU7w" />
                <node concept="2OqwBi" id="1efL_eBTI59" role="3uHU7B">
                  <node concept="pncrf" id="1efL_eBTI5a" role="2Oq$k0" />
                  <node concept="3TrEf2" id="1efL_eBTI5b" role="2OqNvi">
                    <ref role="3Tt5mk" to="tp41:4m2ztrU_46" />
                  </node>
                </node>
              </node>
            </node>
          </node>
        </node>
      </node>
      <node concept="3F0ifn" id="4m2ztrVpxQ" role="3EZMnx">
        <property role="3F0ifm" value="nop" />
        <ref role="1k5W1q" node="hz_DuTG" resolve="Instruction" />
      </node>
      <node concept="3F1sOY" id="7n7cA7JQiNS" role="3EZMnx">
        <property role="2ru_X1" value="true" />
        <ref role="1NtTu8" to="tp41:4m2ztrU_46" />
        <node concept="3EZMnI" id="7VkeY3lFk_G" role="2ruayu">
          <node concept="VPM3Z" id="7VkeY3lFk_H" role="3F10Kt">
            <property role="VOm3f" value="false" />
          </node>
          <node concept="l2Vlx" id="7VkeY3lFk_I" role="2iSdaV" />
        </node>
      </node>
    </node>
  </node>
  <node concept="V5hpn" id="hz_DtSf">
    <property role="TrG5h" value="DataFlow" />
    <node concept="14StLt" id="hz_DuTG" role="V601i">
      <property role="TrG5h" value="Instruction" />
      <node concept="VechU" id="hz_DvLQ" role="3F10Kt">
        <property role="Vb096" value="DARK_MAGENTA" />
      </node>
    </node>
    <node concept="14StLt" id="hz_IdTY" role="V601i">
      <property role="TrG5h" value="Position" />
      <node concept="VechU" id="hz_IeHw" role="3F10Kt">
        <property role="Vb096" value="blue" />
      </node>
    </node>
    <node concept="14StLt" id="hzF3cYD" role="V601i">
      <property role="TrG5h" value="MayBeUnreachable" />
      <node concept="3mYdg7" id="i17bYn4" role="3F10Kt">
        <property role="1413C4" value="MayBeUnreachable" />
      </node>
      <node concept="VechU" id="hzF3efH" role="3F10Kt">
        <property role="Vb096" value="lightGray" />
      </node>
    </node>
    <node concept="14StLt" id="h$ay11B" role="V601i">
      <property role="TrG5h" value="Label" />
      <node concept="VechU" id="h$ay1Ct" role="3F10Kt">
        <property role="Vb096" value="DARK_GREEN" />
      </node>
    </node>
    <node concept="14StLt" id="7n7cA7JTupR" role="V601i">
      <property role="TrG5h" value="InsertPosition" />
      <node concept="VechU" id="7n7cA7JTupS" role="3F10Kt">
        <property role="Vb096" value="DARK_GREEN" />
      </node>
    </node>
  </node>
  <node concept="24kQdi" id="hz_HfOP">
    <property role="3GE5qa" value="Instructions.Variable" />
    <ref role="1XX52x" to="tp41:hz_H088" resolve="BaseEmitVariableStatement" />
    <node concept="3EZMnI" id="hz_HgjR" role="2wV5jI">
      <property role="3EZMnw" value="false" />
      <node concept="PMmxH" id="2wdLO7KhY6b" role="3EZMnx">
        <property role="1cu_pB" value="0" />
        <ref role="PMmxG" to="tpco:2wZex4PafBj" resolve="alias" />
        <ref role="1k5W1q" node="hz_DuTG" resolve="Instruction" />
      </node>
      <node concept="3F1sOY" id="hz_HgYq" role="3EZMnx">
        <ref role="1NtTu8" to="tp41:hz_H1WB" />
      </node>
      <node concept="l2Vlx" id="i0N6BqI" role="2iSdaV" />
    </node>
  </node>
  <node concept="24kQdi" id="hz_IbD7">
    <property role="3GE5qa" value="Positions" />
    <ref role="1XX52x" to="tp41:hz_I6pB" resolve="RelativePosition" />
    <node concept="3EZMnI" id="hz_IchF" role="2wV5jI">
      <property role="3EZMnw" value="false" />
      <node concept="PMmxH" id="2wdLO7KhY1m" role="3EZMnx">
        <property role="1cu_pB" value="0" />
        <ref role="PMmxG" to="tpco:2wZex4PafBj" resolve="alias" />
        <ref role="1k5W1q" node="hz_IdTY" resolve="Position" />
      </node>
      <node concept="3F1sOY" id="hz_IiYY" role="3EZMnx">
        <ref role="1NtTu8" to="tp41:hz_I9J2" />
        <node concept="OXEIz" id="5LT5a5nU5mw" role="P5bDN">
          <node concept="1t6y$C" id="5LT5a5nUzMx" role="OY2wv" />
          <node concept="ZEniJ" id="5LT5a5nU5PH" role="OY2wv">
            <node concept="3GJtP1" id="5LT5a5nU5PI" role="ZF_Y3">
              <node concept="3clFbS" id="5LT5a5nU5PJ" role="2VODD2">
                <node concept="3clFbF" id="5LT5a5nU6uj" role="3cqZAp">
                  <node concept="2ShNRf" id="5LT5a5nU8RY" role="3clFbG">
                    <node concept="Tc6Ow" id="5LT5a5nU9r6" role="2ShVmc">
                      <node concept="17QB3L" id="5LT5a5nUaAF" role="HW$YZ" />
                      <node concept="Xl_RD" id="5LT5a5nUbh7" role="HW$Y0">
                        <property role="Xl_RC" value="label" />
                      </node>
                    </node>
                  </node>
                </node>
              </node>
            </node>
            <node concept="3GJPmD" id="5LT5a5nU5PK" role="ZF_Y2">
              <node concept="3clFbS" id="5LT5a5nU5PL" role="2VODD2">
                <node concept="3clFbF" id="5LT5a5nUcQn" role="3cqZAp">
                  <node concept="2ShNRf" id="5LT5a5nUcQl" role="3clFbG">
                    <node concept="3zrR0B" id="5LT5a5nUd3j" role="2ShVmc">
                      <node concept="3Tqbb2" id="5LT5a5nUd3l" role="3zrR0E">
                        <ref role="ehGHo" to="tp41:h$ayLkA" resolve="LabelPosition" />
                      </node>
                    </node>
                  </node>
                </node>
              </node>
            </node>
            <node concept="17QB3L" id="5LT5a5nU6ah" role="1eyP2E" />
          </node>
        </node>
      </node>
      <node concept="l2Vlx" id="i0N6Brc" role="2iSdaV" />
    </node>
  </node>
  <node concept="24kQdi" id="hz_Jf64">
    <property role="3GE5qa" value="Instructions.Jump" />
    <ref role="1XX52x" to="tp41:hz_J8Ep" resolve="BaseEmitJumpStatement" />
    <node concept="3EZMnI" id="hz_JfyE" role="2wV5jI">
      <property role="3EZMnw" value="false" />
      <node concept="3F0ifn" id="1efL_eBUpz2" role="3EZMnx">
        <property role="3F0ifm" value="insert" />
        <ref role="1k5W1q" node="7n7cA7JTupR" resolve="InsertPosition" />
        <node concept="pkWqt" id="1efL_eBUpz3" role="pqm2j">
          <node concept="3clFbS" id="1efL_eBUpz4" role="2VODD2">
            <node concept="3clFbF" id="1efL_eBUpz5" role="3cqZAp">
              <node concept="3y3z36" id="1efL_eBUpz6" role="3clFbG">
                <node concept="10Nm6u" id="1efL_eBUpz7" role="3uHU7w" />
                <node concept="2OqwBi" id="1efL_eBUpz8" role="3uHU7B">
                  <node concept="pncrf" id="1efL_eBUpz9" role="2Oq$k0" />
                  <node concept="3TrEf2" id="1efL_eBUpza" role="2OqNvi">
                    <ref role="3Tt5mk" to="tp41:4m2ztrU_46" />
                  </node>
                </node>
              </node>
            </node>
          </node>
        </node>
      </node>
      <node concept="PMmxH" id="2wdLO7KhY5D" role="3EZMnx">
        <property role="1cu_pB" value="0" />
        <ref role="PMmxG" to="tpco:2wZex4PafBj" resolve="alias" />
        <ref role="1k5W1q" node="hz_DuTG" resolve="Instruction" />
        <node concept="OXEIz" id="2dZyOCJQZP3" role="P5bDN">
          <node concept="UkePV" id="2dZyOCJQZP5" role="OY2wv">
            <ref role="Ul1FP" to="tp41:hz_J8Ep" resolve="BaseEmitJumpStatement" />
          </node>
        </node>
      </node>
      <node concept="3F1sOY" id="hz_Jhk0" role="3EZMnx">
        <ref role="1NtTu8" to="tp41:hz_JbE4" />
      </node>
      <node concept="3F1sOY" id="1efL_eBUpzb" role="3EZMnx">
        <property role="2ru_X1" value="true" />
        <ref role="1NtTu8" to="tp41:4m2ztrU_46" />
        <node concept="3EZMnI" id="7VkeY3lFk_J" role="2ruayu">
          <node concept="VPM3Z" id="7VkeY3lFk_K" role="3F10Kt">
            <property role="VOm3f" value="false" />
          </node>
          <node concept="l2Vlx" id="7VkeY3lFk_L" role="2iSdaV" />
        </node>
      </node>
      <node concept="l2Vlx" id="i0N6BqW" role="2iSdaV" />
    </node>
  </node>
  <node concept="24kQdi" id="hzAh6B4">
    <property role="3GE5qa" value="Instructions" />
    <ref role="1XX52x" to="tp41:hzAgYvJ" resolve="EmitCodeForStatement" />
    <node concept="3EZMnI" id="hzAh7oU" role="2wV5jI">
      <property role="3EZMnw" value="false" />
      <node concept="3F0ifn" id="hzAh7_9" role="3EZMnx">
        <property role="3F0ifm" value="code" />
        <ref role="1k5W1q" node="hz_DuTG" resolve="Instruction" />
      </node>
      <node concept="3F0ifn" id="hzAh7UT" role="3EZMnx">
        <property role="3F0ifm" value="for" />
        <ref role="1k5W1q" node="hz_DuTG" resolve="Instruction" />
      </node>
      <node concept="3F1sOY" id="hzAh8hD" role="3EZMnx">
        <ref role="1NtTu8" to="tp41:hzAh4UT" />
      </node>
      <node concept="l2Vlx" id="i0N6BqU" role="2iSdaV" />
    </node>
  </node>
  <node concept="24kQdi" id="hzAMKY$">
    <property role="3GE5qa" value="Instructions" />
    <ref role="1XX52x" to="tp41:hzAM$dR" resolve="EmitRetStatement" />
    <node concept="3F0ifn" id="hzAMLJs" role="2wV5jI">
      <property role="3F0ifm" value="ret" />
      <ref role="1k5W1q" node="hz_DuTG" resolve="Instruction" />
    </node>
  </node>
  <node concept="24kQdi" id="hzF2Vt6">
    <property role="3GE5qa" value="Instructions" />
    <ref role="1XX52x" to="tp41:hzF2QpO" resolve="EmitMayBeUnreachable" />
    <node concept="3EZMnI" id="hzF2VXm" role="2wV5jI">
      <property role="3EZMnw" value="false" />
      <node concept="3F0ifn" id="hzF38QG" role="3EZMnx">
        <property role="3F0ifm" value="{" />
        <ref role="1k5W1q" node="hzF3cYD" resolve="MayBeUnreachable" />
        <ref role="1ERwB7" node="h$pLd7p" resolve="DataFlowEditorAction_DeleteMayBeUnreachable" />
        <node concept="VPM3Z" id="hEU$PNe" role="3F10Kt">
          <property role="VOm3f" value="true" />
        </node>
      </node>
      <node concept="3F1sOY" id="hzF320m" role="3EZMnx">
        <ref role="1NtTu8" to="tp41:hzF2SsG" />
      </node>
      <node concept="3F0ifn" id="hzF3aQa" role="3EZMnx">
        <property role="3F0ifm" value="}" />
        <ref role="1k5W1q" node="hzF3cYD" resolve="MayBeUnreachable" />
        <ref role="1ERwB7" node="h$pLd7p" resolve="DataFlowEditorAction_DeleteMayBeUnreachable" />
        <node concept="VPM3Z" id="hEU$Phb" role="3F10Kt">
          <property role="VOm3f" value="true" />
        </node>
      </node>
      <node concept="l2Vlx" id="i0N6BqK" role="2iSdaV" />
    </node>
  </node>
  <node concept="24kQdi" id="h$4dRZ9">
    <property role="3GE5qa" value="Instructions" />
    <ref role="1XX52x" to="tp41:h$4dLjP" resolve="EmitTryFinallyStatement" />
    <node concept="3EZMnI" id="h$4dYtC" role="2wV5jI">
      <property role="3EZMnw" value="true" />
      <node concept="3F0ifn" id="h$4dYG5" role="3EZMnx">
        <property role="3F0ifm" value="try" />
        <ref role="1k5W1q" node="hz_DuTG" resolve="Instruction" />
        <node concept="ljvvj" id="i0N6Br0" role="3F10Kt">
          <property role="VOm3f" value="true" />
        </node>
      </node>
      <node concept="3F1sOY" id="h$4e1ZG" role="3EZMnx">
        <ref role="1NtTu8" to="tp41:h$4dSSC" />
        <node concept="lj46D" id="i0N6Br2" role="3F10Kt">
          <property role="VOm3f" value="true" />
        </node>
        <node concept="ljvvj" id="i0N6Br3" role="3F10Kt">
          <property role="VOm3f" value="true" />
        </node>
      </node>
      <node concept="3F0ifn" id="h$4e2rm" role="3EZMnx">
        <property role="3F0ifm" value="finally" />
        <ref role="1k5W1q" node="hz_DuTG" resolve="Instruction" />
        <node concept="ljvvj" id="i0N6Br4" role="3F10Kt">
          <property role="VOm3f" value="true" />
        </node>
      </node>
      <node concept="3F1sOY" id="h$4e39B" role="3EZMnx">
        <ref role="1NtTu8" to="tp41:h$4dUEO" />
        <node concept="lj46D" id="i0N6Br5" role="3F10Kt">
          <property role="VOm3f" value="true" />
        </node>
        <node concept="ljvvj" id="i0N6Br6" role="3F10Kt">
          <property role="VOm3f" value="true" />
        </node>
      </node>
      <node concept="3F0ifn" id="h$4e4uq" role="3EZMnx">
        <property role="3F0ifm" value="end" />
        <ref role="1k5W1q" node="hz_DuTG" resolve="Instruction" />
        <node concept="ljvvj" id="i0N6Br7" role="3F10Kt">
          <property role="VOm3f" value="true" />
        </node>
      </node>
      <node concept="l2Vlx" id="i0N6Bra" role="2iSdaV" />
    </node>
  </node>
  <node concept="24kQdi" id="h$axYrg">
    <property role="3GE5qa" value="Instructions" />
    <ref role="1XX52x" to="tp41:h$axUQH" resolve="EmitLabelStatement" />
    <node concept="3EZMnI" id="h$axZq3" role="2wV5jI">
      <property role="3EZMnw" value="false" />
      <node concept="3F0ifn" id="h$axZq4" role="3EZMnx">
        <property role="3F0ifm" value="label" />
        <ref role="1k5W1q" node="h$ay11B" resolve="Label" />
      </node>
      <node concept="3F0A7n" id="h$axZNf" role="3EZMnx">
        <ref role="1NtTu8" to="tpck:h0TrG11" resolve="name" />
      </node>
      <node concept="l2Vlx" id="i0N6Bp$" role="2iSdaV" />
    </node>
  </node>
  <node concept="24kQdi" id="h$ayPgN">
    <property role="3GE5qa" value="Positions" />
    <ref role="1XX52x" to="tp41:h$ayLkA" resolve="LabelPosition" />
    <node concept="3EZMnI" id="h$ayR0b" role="2wV5jI">
      <property role="3EZMnw" value="false" />
      <node concept="3F0ifn" id="h$ayR0c" role="3EZMnx">
        <property role="3F0ifm" value="after label" />
        <ref role="1k5W1q" node="hz_IdTY" resolve="Position" />
      </node>
      <node concept="1iCGBv" id="h$ayRkY" role="3EZMnx">
        <ref role="1NtTu8" to="tp41:h$ayMVo" />
        <node concept="1sVBvm" id="h$ayRkZ" role="1sWHZn">
          <node concept="3F0A7n" id="h$ayRys" role="2wV5jI">
            <property role="1Intyy" value="true" />
            <ref role="1NtTu8" to="tpck:h0TrG11" resolve="name" />
          </node>
        </node>
      </node>
      <node concept="l2Vlx" id="i0N6BqR" role="2iSdaV" />
    </node>
  </node>
  <node concept="1h_SRR" id="h$pLd7p">
    <property role="TrG5h" value="DataFlowEditorAction_DeleteMayBeUnreachable" />
    <ref role="1h_SK9" to="tp41:hzF2QpO" resolve="EmitMayBeUnreachable" />
    <node concept="1hA7zw" id="h$pLfWB" role="1h_SK8">
      <property role="1hAc7j" value="delete_action_id" />
      <node concept="1hAIg9" id="h$pLfWC" role="1hA7z_">
        <node concept="3clFbS" id="h$pLfWD" role="2VODD2">
          <node concept="3clFbF" id="h$pLn_c" role="3cqZAp">
            <node concept="2OqwBi" id="h$pLqHY" role="3clFbG">
              <node concept="0IXxy" id="h$pLn_d" role="2Oq$k0" />
              <node concept="1P9Npp" id="h$pLy0v" role="2OqNvi">
                <node concept="2OqwBi" id="h$pLyFh" role="1P9ThW">
                  <node concept="0IXxy" id="h$pLytl" role="2Oq$k0" />
                  <node concept="3TrEf2" id="h$pLyO6" role="2OqNvi">
                    <ref role="3Tt5mk" to="tp41:hzF2SsG" />
                  </node>
                </node>
              </node>
            </node>
          </node>
        </node>
      </node>
    </node>
  </node>
  <node concept="24kQdi" id="hTXC7KE">
    <property role="3GE5qa" value="Instructions.Variable" />
    <ref role="1XX52x" to="tp41:hz_FXzu" resolve="EmitWriteStatement" />
    <node concept="3EZMnI" id="hTXCdmn" role="2wV5jI">
      <property role="3EZMnw" value="false" />
      <node concept="PMmxH" id="2wdLO7KhY1c" role="3EZMnx">
        <property role="1cu_pB" value="0" />
        <ref role="PMmxG" to="tpco:2wZex4PafBj" resolve="alias" />
        <ref role="1k5W1q" node="hz_DuTG" resolve="Instruction" />
      </node>
      <node concept="3F1sOY" id="hTXCdmp" role="3EZMnx">
        <property role="1$x2rV" value="unknown" />
        <ref role="1NtTu8" to="tp41:hz_H1WB" />
      </node>
      <node concept="3F0ifn" id="hTXE8or" role="3EZMnx">
        <property role="3F0ifm" value="=" />
      </node>
      <node concept="3F1sOY" id="hTXDsTv" role="3EZMnx">
        <property role="1$x2rV" value="&lt;unknown&gt;" />
        <ref role="1NtTu8" to="tp41:hTXBRKV" />
      </node>
      <node concept="l2Vlx" id="i0N6BpE" role="2iSdaV" />
    </node>
  </node>
  <node concept="1h_SRR" id="7n7cA7JS0F3">
    <property role="TrG5h" value="AddPosition" />
    <property role="3GE5qa" value="Instructions" />
    <ref role="1h_SK9" to="tp41:hz_D2po" resolve="EmitStatement" />
    <node concept="1hA7zw" id="7n7cA7JS0F4" role="1h_SK8">
      <property role="1hAc7j" value="right_transform_action_id" />
      <node concept="1hAIg9" id="7n7cA7JS0F5" role="1hA7z_">
        <node concept="3clFbS" id="7n7cA7JS0F6" role="2VODD2">
          <node concept="3clFbJ" id="7n7cA7JS0F7" role="3cqZAp">
            <node concept="3clFbC" id="7n7cA7JS5Sz" role="3clFbw">
              <node concept="10Nm6u" id="7n7cA7JS5SA" role="3uHU7w" />
              <node concept="2OqwBi" id="7n7cA7JS0Fb" role="3uHU7B">
                <node concept="0IXxy" id="7n7cA7JS0Fa" role="2Oq$k0" />
                <node concept="3TrEf2" id="7n7cA7JS5Sy" role="2OqNvi">
                  <ref role="3Tt5mk" to="tp41:4m2ztrU_46" />
                </node>
              </node>
            </node>
            <node concept="3clFbS" id="7n7cA7JS0F9" role="3clFbx">
              <node concept="3clFbF" id="7n7cA7JS5SB" role="3cqZAp">
                <node concept="37vLTI" id="7n7cA7JS5SI" role="3clFbG">
                  <node concept="2ShNRf" id="7n7cA7JS5SL" role="37vLTx">
                    <node concept="2fJWfE" id="5wUAOoBBfnk" role="2ShVmc">
                      <node concept="3Tqbb2" id="5wUAOoBBfnl" role="3zrR0E">
                        <ref role="ehGHo" to="tp41:7n7cA7JTupA" resolve="InsertPosition" />
                      </node>
                    </node>
                  </node>
                  <node concept="2OqwBi" id="7n7cA7JS5SD" role="37vLTJ">
                    <node concept="0IXxy" id="7n7cA7JS5SC" role="2Oq$k0" />
                    <node concept="3TrEf2" id="7n7cA7JS5SH" role="2OqNvi">
                      <ref role="3Tt5mk" to="tp41:4m2ztrU_46" />
                    </node>
                  </node>
                </node>
              </node>
            </node>
          </node>
        </node>
      </node>
    </node>
  </node>
  <node concept="24kQdi" id="1efL_eBWZoL">
    <property role="3GE5qa" value="InsertPositions" />
    <ref role="1XX52x" to="tp41:7n7cA7JTup$" resolve="InsertBefore" />
    <node concept="3EZMnI" id="1efL_eBWZoT" role="2wV5jI">
      <node concept="PMmxH" id="2wdLO7KhY29" role="3EZMnx">
        <property role="1cu_pB" value="0" />
        <ref role="PMmxG" to="tpco:2wZex4PafBj" resolve="alias" />
        <ref role="1k5W1q" node="7n7cA7JTupR" resolve="InsertPosition" />
        <node concept="VPxyj" id="2wdLO7KhY2a" role="3F10Kt">
          <property role="VOm3f" value="false" />
        </node>
      </node>
      <node concept="3F1sOY" id="1efL_eBWZoV" role="3EZMnx">
        <ref role="1NtTu8" to="tp41:7n7cA7JTuq9" />
      </node>
      <node concept="l2Vlx" id="1efL_eBWZoW" role="2iSdaV" />
    </node>
  </node>
  <node concept="24kQdi" id="1efL_eBWZoN">
    <property role="3GE5qa" value="InsertPositions" />
    <ref role="1XX52x" to="tp41:7n7cA7JTupy" resolve="InsertAfter" />
    <node concept="3EZMnI" id="1efL_eBWZoP" role="2wV5jI">
      <node concept="PMmxH" id="2wdLO7KhYdv" role="3EZMnx">
        <property role="1cu_pB" value="0" />
        <ref role="PMmxG" to="tpco:2wZex4PafBj" resolve="alias" />
        <ref role="1k5W1q" node="7n7cA7JTupR" resolve="InsertPosition" />
        <node concept="VPxyj" id="2wdLO7KhYdw" role="3F10Kt">
          <property role="VOm3f" value="false" />
        </node>
      </node>
      <node concept="3F1sOY" id="1efL_eBWZoR" role="3EZMnx">
        <ref role="1NtTu8" to="tp41:7n7cA7JTuq9" />
      </node>
      <node concept="l2Vlx" id="1efL_eBWZoS" role="2iSdaV" />
    </node>
  </node>
  <node concept="24kQdi" id="2$iKY2cjNcB">
    <ref role="1XX52x" to="tp41:2$iKY2cjNc$" resolve="GetCodeForExpression" />
    <node concept="3EZMnI" id="2$iKY2cjNcD" role="2wV5jI">
      <node concept="3F0ifn" id="1Uu7q3RRL1N" role="3EZMnx">
        <property role="3F0ifm" value="get code for" />
      </node>
      <node concept="3F0ifn" id="2$iKY2ck0Px" role="3EZMnx">
        <property role="3F0ifm" value="(" />
        <ref role="1k5W1q" to="tpen:hFCSAw$" resolve="LeftParen" />
        <node concept="11LMrY" id="3IIpNG1VwKn" role="3F10Kt">
          <property role="VOm3f" value="true" />
        </node>
      </node>
      <node concept="3F1sOY" id="2$iKY2cjNcI" role="3EZMnx">
        <ref role="1NtTu8" to="tp41:2$iKY2cjNc_" />
      </node>
      <node concept="3F0ifn" id="2$iKY2ck0Pz" role="3EZMnx">
        <property role="3F0ifm" value=")" />
        <ref role="1k5W1q" to="tpen:hFCSUmN" resolve="RightParen" />
        <node concept="11L4FC" id="3IIpNG1VwKp" role="3F10Kt">
          <property role="VOm3f" value="true" />
        </node>
      </node>
      <node concept="l2Vlx" id="2$iKY2cjNcF" role="2iSdaV" />
    </node>
  </node>
  <node concept="24kQdi" id="6e$$c8H2kPu">
    <property role="3GE5qa" value="InstructionOperations" />
    <ref role="1XX52x" to="tp41:1_dIXlWBrH_" resolve="BaseInstructionOperation" />
    <node concept="PMmxH" id="2wdLO7KhY8c" role="2wV5jI">
      <property role="1cu_pB" value="0" />
      <ref role="PMmxG" to="tpco:2wZex4PafBj" resolve="alias" />
    </node>
  </node>
  <node concept="24kQdi" id="6UdHCtZMwVn">
    <property role="3GE5qa" value="Modes" />
    <ref role="1XX52x" to="tp41:6UdHCtZMvVl" resolve="IntraMode" />
    <node concept="PMmxH" id="6UdHCtZMwVp" role="2wV5jI">
      <ref role="PMmxG" to="tpco:2wZex4PafBj" resolve="alias" />
    </node>
  </node>
</model>

