<?xml version="1.0" encoding="UTF-8"?>
<model ref="r:00000000-0000-4000-0000-011c8959037d(jetbrains.mps.lang.dataFlow.structure)">
  <persistence version="9" />
  <languages>
    <use id="c72da2b9-7cce-4447-8389-f407dc1158b7" name="jetbrains.mps.lang.structure" version="3" />
    <use id="f3061a53-9226-4cc5-a443-f952ceaf5816" name="jetbrains.mps.baseLanguage" version="4" />
    <use id="982eb8df-2c96-4bd7-9963-11712ea622e5" name="jetbrains.mps.lang.resources" version="2" />
    <devkit ref="fbc25dd2-5da4-483a-8b19-70928e1b62d7(jetbrains.mps.devkit.general-purpose)" />
  </languages>
  <imports>
    <import index="tpce" ref="r:00000000-0000-4000-0000-011c89590292(jetbrains.mps.lang.structure.structure)" />
    <import index="tpee" ref="r:00000000-0000-4000-0000-011c895902ca(jetbrains.mps.baseLanguage.structure)" />
    <import index="tpck" ref="r:00000000-0000-4000-0000-011c89590288(jetbrains.mps.lang.core.structure)" />
  </imports>
  <registry>
    <language id="982eb8df-2c96-4bd7-9963-11712ea622e5" name="jetbrains.mps.lang.resources">
      <concept id="8974276187400029883" name="jetbrains.mps.lang.resources.structure.FileIcon" flags="ng" index="1QGGSu">
        <property id="2756621024541341363" name="file" index="1iqoE4" />
      </concept>
    </language>
    <language id="c72da2b9-7cce-4447-8389-f407dc1158b7" name="jetbrains.mps.lang.structure">
      <concept id="1169125787135" name="jetbrains.mps.lang.structure.structure.AbstractConceptDeclaration" flags="ig" index="PkWjJ">
        <property id="6714410169261853888" name="conceptId" index="EcuMT" />
        <property id="4628067390765907488" name="conceptShortDescription" index="R4oN_" />
        <property id="4628067390765956807" name="final" index="R5$K2" />
        <property id="4628067390765956802" name="abstract" index="R5$K7" />
        <property id="5092175715804935370" name="conceptAlias" index="34LRSv" />
        <child id="1071489727083" name="linkDeclaration" index="1TKVEi" />
      </concept>
      <concept id="1169125989551" name="jetbrains.mps.lang.structure.structure.InterfaceConceptDeclaration" flags="ig" index="PlHQZ" />
      <concept id="1169127622168" name="jetbrains.mps.lang.structure.structure.InterfaceConceptReference" flags="ig" index="PrWs8">
        <reference id="1169127628841" name="intfc" index="PrY4T" />
      </concept>
      <concept id="1071489090640" name="jetbrains.mps.lang.structure.structure.ConceptDeclaration" flags="ig" index="1TIwiD">
        <property id="5404671619616246344" name="staticScope" index="2_RsDV" />
        <property id="1096454100552" name="rootable" index="19KtqR" />
        <reference id="1071489389519" name="extends" index="1TJDcQ" />
        <child id="6327362524875300597" name="icon" index="rwd14" />
        <child id="1169129564478" name="implements" index="PzmwI" />
      </concept>
      <concept id="1071489288298" name="jetbrains.mps.lang.structure.structure.LinkDeclaration" flags="ig" index="1TJgyj">
        <property id="1071599776563" name="role" index="20kJfa" />
        <property id="1071599893252" name="sourceCardinality" index="20lbJX" />
        <property id="1071599937831" name="metaClass" index="20lmBu" />
        <property id="241647608299431140" name="linkId" index="IQ2ns" />
        <reference id="1071599976176" name="target" index="20lvS9" />
      </concept>
    </language>
    <language id="ceab5195-25ea-4f22-9b92-103b95ca8c0c" name="jetbrains.mps.lang.core">
      <concept id="1133920641626" name="jetbrains.mps.lang.core.structure.BaseConcept" flags="ng" index="2VYdi">
        <property id="1193676396447" name="virtualPackage" index="3GE5qa" />
      </concept>
      <concept id="1169194658468" name="jetbrains.mps.lang.core.structure.INamedConcept" flags="ng" index="TrEIO">
        <property id="1169194664001" name="name" index="TrG5h" />
      </concept>
    </language>
  </registry>
  <node concept="1TIwiD" id="hz_zdoP">
    <property role="R5$K7" value="false" />
    <property role="19KtqR" value="true" />
    <property role="R5$K2" value="false" />
    <property role="TrG5h" value="DataFlowBuilderDeclaration" />
    <property role="34LRSv" value="Data Flow Builder" />
    <property role="EcuMT" value="1206442055221" />
    <ref role="1TJDcQ" to="tpck:gw2VY9q" resolve="BaseConcept" />
    <node concept="1TJgyj" id="hz_A6mB" role="1TKVEi">
      <property role="20lmBu" value="aggregation" />
      <property role="20kJfa" value="builderBlock" />
      <property role="20lbJX" value="1" />
      <property role="IQ2ns" value="1206442812839" />
      <ref role="20lvS9" node="hz__wXh" resolve="BuilderBlock" />
    </node>
    <node concept="1TJgyj" id="6UdHCtZO4VV" role="1TKVEi">
      <property role="IQ2ns" value="7966224008969473787" />
      <property role="20lmBu" value="aggregation" />
      <property role="20kJfa" value="modes" />
      <property role="20lbJX" value="0..n" />
      <ref role="20lvS9" node="6UdHCtZMvVk" resolve="IBuilderMode" />
    </node>
    <node concept="1TJgyj" id="hz_znqw" role="1TKVEi">
      <property role="20kJfa" value="conceptDeclaration" />
      <property role="20lbJX" value="1" />
      <property role="IQ2ns" value="1206442096288" />
      <ref role="20lvS9" to="tpce:h0PkWnZ" resolve="AbstractConceptDeclaration" />
    </node>
    <node concept="PrWs8" id="hz_zjHa" role="PzmwI">
      <ref role="PrY4T" to="tpck:h0TrEE$" resolve="INamedConcept" />
    </node>
    <node concept="PrWs8" id="7KX5Yh0wKur" role="PzmwI">
      <ref role="PrY4T" to="tpce:2hxg_BDjKM4" resolve="IConceptAspect" />
    </node>
    <node concept="PrWs8" id="10PksoAO_du" role="PzmwI">
      <ref role="PrY4T" to="tpck:19gBtYEAf4C" resolve="InterfacePart" />
    </node>
    <node concept="1QGGSu" id="4Q8sAA5iJQ3" role="rwd14">
      <property role="1iqoE4" value="${module}/icons/goRound.png" />
    </node>
  </node>
  <node concept="1TIwiD" id="hz__wXh">
    <property role="TrG5h" value="BuilderBlock" />
    <property role="2_RsDV" value="none" />
    <property role="3GE5qa" value="BuilderBlock" />
    <property role="EcuMT" value="1206442659665" />
    <ref role="1TJDcQ" to="tpee:gyVMwX8" resolve="ConceptFunction" />
  </node>
  <node concept="1TIwiD" id="hz__QpZ">
    <property role="R5$K7" value="false" />
    <property role="R5$K2" value="false" />
    <property role="R4oN_" value="node to build DFA for" />
    <property role="TrG5h" value="NodeParameter" />
    <property role="2_RsDV" value="none" />
    <property role="3GE5qa" value="BuilderBlock" />
    <property role="34LRSv" value="node" />
    <property role="EcuMT" value="1206442747519" />
    <ref role="1TJDcQ" to="tpee:g76ryKb" resolve="ConceptFunctionParameter" />
    <node concept="PrWs8" id="1653mnvAMSU" role="PzmwI">
      <ref role="PrY4T" to="tpck:1_TrU5E6oyb" resolve="IDontSubstituteByDefault" />
    </node>
  </node>
  <node concept="1TIwiD" id="hz_D2po">
    <property role="R5$K7" value="true" />
    <property role="R5$K2" value="false" />
    <property role="TrG5h" value="EmitStatement" />
    <property role="2_RsDV" value="none" />
    <property role="3GE5qa" value="Instructions" />
    <property role="EcuMT" value="1206443583064" />
    <ref role="1TJDcQ" to="tpee:fzclF8l" resolve="Statement" />
    <node concept="1TJgyj" id="4m2ztrU_46" role="1TKVEi">
      <property role="20lmBu" value="aggregation" />
      <property role="20kJfa" value="position" />
      <property role="IQ2ns" value="78261276407124230" />
      <ref role="20lvS9" node="7n7cA7JTupA" resolve="InsertPosition" />
    </node>
  </node>
  <node concept="1TIwiD" id="hz_DljO">
    <property role="R5$K7" value="false" />
    <property role="R5$K2" value="false" />
    <property role="TrG5h" value="EmitNopStatement" />
    <property role="2_RsDV" value="none" />
    <property role="3GE5qa" value="Instructions" />
    <property role="34LRSv" value="nop" />
    <property role="EcuMT" value="1206443660532" />
    <ref role="1TJDcQ" node="hz_D2po" resolve="EmitStatement" />
  </node>
  <node concept="1TIwiD" id="hz_DX0E">
    <property role="R5$K7" value="false" />
    <property role="R5$K2" value="false" />
    <property role="TrG5h" value="EmitReadStatement" />
    <property role="2_RsDV" value="none" />
    <property role="3GE5qa" value="Instructions.Variable" />
    <property role="34LRSv" value="read" />
    <property role="EcuMT" value="1206443823146" />
    <ref role="1TJDcQ" node="hz_H088" resolve="BaseEmitVariableStatement" />
  </node>
  <node concept="1TIwiD" id="hz_FXzu">
    <property role="R5$K7" value="false" />
    <property role="R5$K2" value="false" />
    <property role="TrG5h" value="EmitWriteStatement" />
    <property role="2_RsDV" value="none" />
    <property role="3GE5qa" value="Instructions.Variable" />
    <property role="34LRSv" value="write" />
    <property role="EcuMT" value="1206444349662" />
    <ref role="1TJDcQ" node="hz_H088" resolve="BaseEmitVariableStatement" />
    <node concept="1TJgyj" id="hTXBRKV" role="1TKVEi">
      <property role="20lmBu" value="aggregation" />
      <property role="20kJfa" value="value" />
      <property role="IQ2ns" value="1230468250683" />
      <ref role="20lvS9" to="tpee:fz3vP1J" resolve="Expression" />
    </node>
  </node>
  <node concept="1TIwiD" id="hz_H088">
    <property role="R5$K7" value="true" />
    <property role="R5$K2" value="false" />
    <property role="TrG5h" value="BaseEmitVariableStatement" />
    <property role="2_RsDV" value="none" />
    <property role="3GE5qa" value="Instructions.Variable" />
    <property role="EcuMT" value="1206444622344" />
    <ref role="1TJDcQ" node="hz_D2po" resolve="EmitStatement" />
    <node concept="1TJgyj" id="hz_H1WB" role="1TKVEi">
      <property role="20lmBu" value="aggregation" />
      <property role="20kJfa" value="variable" />
      <property role="20lbJX" value="1" />
      <property role="IQ2ns" value="1206444629799" />
      <ref role="20lvS9" to="tpee:fz3vP1J" resolve="Expression" />
    </node>
  </node>
  <node concept="1TIwiD" id="hz_HXZ0">
    <property role="R5$K7" value="true" />
    <property role="R5$K2" value="false" />
    <property role="TrG5h" value="Position" />
    <property role="3GE5qa" value="Positions" />
    <property role="EcuMT" value="1206444875712" />
    <ref role="1TJDcQ" to="tpck:gw2VY9q" resolve="BaseConcept" />
  </node>
  <node concept="1TIwiD" id="hz_I6pB">
    <property role="R5$K7" value="true" />
    <property role="R5$K2" value="false" />
    <property role="TrG5h" value="RelativePosition" />
    <property role="3GE5qa" value="Positions" />
    <property role="EcuMT" value="1206444910183" />
    <ref role="1TJDcQ" node="hz_HXZ0" resolve="Position" />
    <node concept="1TJgyj" id="hz_I9J2" role="1TKVEi">
      <property role="20lmBu" value="aggregation" />
      <property role="20kJfa" value="relativeTo" />
      <property role="20lbJX" value="1" />
      <property role="IQ2ns" value="1206444923842" />
      <ref role="20lvS9" to="tpee:fz3vP1J" resolve="Expression" />
    </node>
  </node>
  <node concept="1TIwiD" id="hz_IHex">
    <property role="R5$K7" value="false" />
    <property role="R5$K2" value="false" />
    <property role="TrG5h" value="BeforePosition" />
    <property role="3GE5qa" value="Positions" />
    <property role="34LRSv" value="before" />
    <property role="EcuMT" value="1206445069217" />
    <ref role="1TJDcQ" node="hz_I6pB" resolve="RelativePosition" />
  </node>
  <node concept="1TIwiD" id="hz_IK$q">
    <property role="R5$K7" value="false" />
    <property role="R5$K2" value="false" />
    <property role="TrG5h" value="AfterPosition" />
    <property role="3GE5qa" value="Positions" />
    <property role="34LRSv" value="after" />
    <property role="EcuMT" value="1206445082906" />
    <ref role="1TJDcQ" node="hz_I6pB" resolve="RelativePosition" />
  </node>
  <node concept="1TIwiD" id="hz_J8Ep">
    <property role="R5$K7" value="true" />
    <property role="R5$K2" value="false" />
    <property role="TrG5h" value="BaseEmitJumpStatement" />
    <property role="2_RsDV" value="none" />
    <property role="3GE5qa" value="Instructions.Jump" />
    <property role="EcuMT" value="1206445181593" />
    <ref role="1TJDcQ" node="hz_D2po" resolve="EmitStatement" />
    <node concept="1TJgyj" id="hz_JbE4" role="1TKVEi">
      <property role="20lmBu" value="aggregation" />
      <property role="20kJfa" value="jumpTo" />
      <property role="20lbJX" value="1" />
      <property role="IQ2ns" value="1206445193860" />
      <ref role="20lvS9" node="hz_HXZ0" resolve="Position" />
    </node>
  </node>
  <node concept="1TIwiD" id="hz_J$v5">
    <property role="R5$K7" value="false" />
    <property role="R5$K2" value="false" />
    <property role="TrG5h" value="EmitIfJumpStatement" />
    <property role="2_RsDV" value="none" />
    <property role="3GE5qa" value="Instructions.Jump" />
    <property role="34LRSv" value="ifjump" />
    <property role="EcuMT" value="1206445295557" />
    <ref role="1TJDcQ" node="hz_J8Ep" resolve="BaseEmitJumpStatement" />
  </node>
  <node concept="1TIwiD" id="hz_JC5_">
    <property role="R5$K7" value="false" />
    <property role="R5$K2" value="false" />
    <property role="TrG5h" value="EmitJumpStatement" />
    <property role="2_RsDV" value="none" />
    <property role="3GE5qa" value="Instructions.Jump" />
    <property role="34LRSv" value="jump" />
    <property role="EcuMT" value="1206445310309" />
    <ref role="1TJDcQ" node="hz_J8Ep" resolve="BaseEmitJumpStatement" />
  </node>
  <node concept="1TIwiD" id="hzAgYvJ">
    <property role="R5$K7" value="false" />
    <property role="R5$K2" value="false" />
    <property role="TrG5h" value="EmitCodeForStatement" />
    <property role="2_RsDV" value="none" />
    <property role="3GE5qa" value="Instructions" />
    <property role="34LRSv" value="code for" />
    <property role="EcuMT" value="1206454052847" />
    <ref role="1TJDcQ" node="hz_D2po" resolve="EmitStatement" />
    <node concept="1TJgyj" id="hzAh4UT" role="1TKVEi">
      <property role="20lmBu" value="aggregation" />
      <property role="20kJfa" value="codeFor" />
      <property role="20lbJX" value="1" />
      <property role="IQ2ns" value="1206454079161" />
      <ref role="20lvS9" to="tpee:fz3vP1J" resolve="Expression" />
    </node>
  </node>
  <node concept="1TIwiD" id="hzAM$dR">
    <property role="R5$K7" value="false" />
    <property role="R5$K2" value="false" />
    <property role="TrG5h" value="EmitRetStatement" />
    <property role="2_RsDV" value="none" />
    <property role="3GE5qa" value="Instructions" />
    <property role="34LRSv" value="ret" />
    <property role="EcuMT" value="1206462858103" />
    <ref role="1TJDcQ" node="hz_D2po" resolve="EmitStatement" />
  </node>
  <node concept="1TIwiD" id="hzF2QpO">
    <property role="R5$K7" value="false" />
    <property role="R5$K2" value="false" />
    <property role="R4oN_" value="emit maybe unreachable command" />
    <property role="TrG5h" value="EmitMayBeUnreachable" />
    <property role="2_RsDV" value="none" />
    <property role="3GE5qa" value="Instructions" />
    <property role="34LRSv" value="{ &lt;emit&gt; }" />
    <property role="EcuMT" value="1206534235764" />
    <ref role="1TJDcQ" to="tpee:fzclF8l" resolve="Statement" />
    <node concept="1TJgyj" id="hzF2SsG" role="1TKVEi">
      <property role="20lmBu" value="aggregation" />
      <property role="20kJfa" value="emitStatement" />
      <property role="20lbJX" value="1" />
      <property role="IQ2ns" value="1206534244140" />
      <ref role="20lvS9" node="hz_D2po" resolve="EmitStatement" />
    </node>
    <node concept="PrWs8" id="2QBA9FvkNjQ" role="PzmwI">
      <ref role="PrY4T" to="tpee:h$IvvRh" resolve="Closureoid" />
    </node>
  </node>
  <node concept="1TIwiD" id="h$4dLjP">
    <property role="R5$K7" value="false" />
    <property role="R5$K2" value="false" />
    <property role="TrG5h" value="EmitTryFinallyStatement" />
    <property role="2_RsDV" value="none" />
    <property role="3GE5qa" value="Instructions" />
    <property role="34LRSv" value="try" />
    <property role="EcuMT" value="1206956528885" />
    <ref role="1TJDcQ" node="hz_D2po" resolve="EmitStatement" />
    <node concept="1TJgyj" id="h$4dSSC" role="1TKVEi">
      <property role="20lmBu" value="aggregation" />
      <property role="20kJfa" value="tryPart" />
      <property role="20lbJX" value="1" />
      <property role="IQ2ns" value="1206956559912" />
      <ref role="20lvS9" to="tpee:fzclF80" resolve="StatementList" />
    </node>
    <node concept="1TJgyj" id="h$4dUEO" role="1TKVEi">
      <property role="20lmBu" value="aggregation" />
      <property role="20kJfa" value="finallyPart" />
      <property role="20lbJX" value="1" />
      <property role="IQ2ns" value="1206956567220" />
      <ref role="20lvS9" to="tpee:fzclF80" resolve="StatementList" />
    </node>
  </node>
  <node concept="1TIwiD" id="h$axUQH">
    <property role="R5$K7" value="false" />
    <property role="R5$K2" value="false" />
    <property role="TrG5h" value="EmitLabelStatement" />
    <property role="3GE5qa" value="Instructions" />
    <property role="34LRSv" value="label" />
    <property role="EcuMT" value="1207062474157" />
    <ref role="1TJDcQ" node="hz_D2po" resolve="EmitStatement" />
    <node concept="PrWs8" id="h$axXPq" role="PzmwI">
      <ref role="PrY4T" to="tpck:h0TrEE$" resolve="INamedConcept" />
    </node>
  </node>
  <node concept="1TIwiD" id="h$ayLkA">
    <property role="R5$K7" value="false" />
    <property role="R5$K2" value="false" />
    <property role="TrG5h" value="LabelPosition" />
    <property role="3GE5qa" value="Positions" />
    <property role="34LRSv" value="after label" />
    <property role="EcuMT" value="1207062697254" />
    <ref role="1TJDcQ" node="hz_HXZ0" resolve="Position" />
    <node concept="1TJgyj" id="h$ayMVo" role="1TKVEi">
      <property role="20kJfa" value="label" />
      <property role="20lbJX" value="1" />
      <property role="IQ2ns" value="1207062703832" />
      <ref role="20lvS9" node="h$axUQH" resolve="EmitLabelStatement" />
    </node>
  </node>
  <node concept="1TIwiD" id="7n7cA7JTupy">
    <property role="R5$K7" value="false" />
    <property role="R5$K2" value="false" />
    <property role="TrG5h" value="InsertAfter" />
    <property role="3GE5qa" value="InsertPositions" />
    <property role="34LRSv" value="after" />
    <property role="EcuMT" value="8486807419021026914" />
    <ref role="1TJDcQ" node="7n7cA7JTupA" resolve="InsertPosition" />
  </node>
  <node concept="1TIwiD" id="7n7cA7JTup$">
    <property role="R5$K7" value="false" />
    <property role="R5$K2" value="false" />
    <property role="TrG5h" value="InsertBefore" />
    <property role="3GE5qa" value="InsertPositions" />
    <property role="34LRSv" value="before" />
    <property role="EcuMT" value="8486807419021026916" />
    <ref role="1TJDcQ" node="7n7cA7JTupA" resolve="InsertPosition" />
  </node>
  <node concept="1TIwiD" id="7n7cA7JTupA">
    <property role="R5$K7" value="true" />
    <property role="R5$K2" value="false" />
    <property role="TrG5h" value="InsertPosition" />
    <property role="3GE5qa" value="InsertPositions" />
    <property role="EcuMT" value="8486807419021026918" />
    <ref role="1TJDcQ" to="tpck:gw2VY9q" resolve="BaseConcept" />
    <node concept="1TJgyj" id="7n7cA7JTuq9" role="1TKVEi">
      <property role="20lmBu" value="aggregation" />
      <property role="20kJfa" value="instruction" />
      <property role="20lbJX" value="1" />
      <property role="IQ2ns" value="8486807419021026953" />
      <ref role="20lvS9" to="tpee:fz3vP1J" resolve="Expression" />
    </node>
  </node>
  <node concept="1TIwiD" id="2$iKY2cjNc$">
    <property role="R5$K7" value="false" />
    <property role="R5$K2" value="false" />
    <property role="TrG5h" value="GetCodeForExpression" />
    <property role="2_RsDV" value="none" />
    <property role="34LRSv" value="get code for" />
    <property role="EcuMT" value="2959643274329928484" />
    <ref role="1TJDcQ" to="tpee:fz3vP1J" resolve="Expression" />
    <node concept="1TJgyj" id="2$iKY2cjNc_" role="1TKVEi">
      <property role="20lmBu" value="aggregation" />
      <property role="20kJfa" value="expression" />
      <property role="20lbJX" value="1" />
      <property role="IQ2ns" value="2959643274329928485" />
      <ref role="20lvS9" to="tpee:fz3vP1J" resolve="Expression" />
    </node>
  </node>
  <node concept="1TIwiD" id="4jPTTYuoj20">
    <property role="R5$K7" value="false" />
    <property role="R5$K2" value="false" />
    <property role="TrG5h" value="InstructionType" />
    <property role="2_RsDV" value="none" />
    <property role="34LRSv" value="instruction" />
    <property role="EcuMT" value="4969132436616196224" />
    <ref role="1TJDcQ" to="tpee:fz3vP1H" resolve="Type" />
  </node>
  <node concept="1TIwiD" id="1_dIXlWBrH$">
    <property role="R5$K7" value="false" />
    <property role="R5$K2" value="false" />
    <property role="TrG5h" value="InstructionGetSourceOperation" />
    <property role="2_RsDV" value="none" />
    <property role="3GE5qa" value="InstructionOperations" />
    <property role="34LRSv" value="getSource" />
    <property role="EcuMT" value="1823319949748058980" />
    <ref role="1TJDcQ" node="1_dIXlWBrH_" resolve="BaseInstructionOperation" />
  </node>
  <node concept="1TIwiD" id="1_dIXlWBrH_">
    <property role="R5$K7" value="true" />
    <property role="R5$K2" value="false" />
    <property role="TrG5h" value="BaseInstructionOperation" />
    <property role="2_RsDV" value="none" />
    <property role="3GE5qa" value="InstructionOperations" />
    <property role="EcuMT" value="1823319949748058981" />
    <ref role="1TJDcQ" to="tpck:gw2VY9q" resolve="BaseConcept" />
    <node concept="PrWs8" id="1_dIXlWBrPP" role="PzmwI">
      <ref role="PrY4T" to="tpee:hqOqG0K" resolve="IOperation" />
    </node>
  </node>
  <node concept="1TIwiD" id="6e$$c8H2kPs">
    <property role="R5$K7" value="false" />
    <property role="R5$K2" value="false" />
    <property role="TrG5h" value="InstructionIsNop" />
    <property role="2_RsDV" value="none" />
    <property role="3GE5qa" value="InstructionOperations" />
    <property role="34LRSv" value="isNop" />
    <property role="EcuMT" value="7180022869589052764" />
    <ref role="1TJDcQ" node="6e$$c8H2kPz" resolve="BooleanInstructionOperation" />
  </node>
  <node concept="1TIwiD" id="6e$$c8H2kPt">
    <property role="R5$K7" value="false" />
    <property role="R5$K2" value="false" />
    <property role="TrG5h" value="InstructionIsRet" />
    <property role="2_RsDV" value="none" />
    <property role="3GE5qa" value="InstructionOperations" />
    <property role="34LRSv" value="isRet" />
    <property role="EcuMT" value="7180022869589052765" />
    <ref role="1TJDcQ" node="6e$$c8H2kPz" resolve="BooleanInstructionOperation" />
  </node>
  <node concept="1TIwiD" id="6e$$c8H2kPz">
    <property role="R5$K7" value="true" />
    <property role="R5$K2" value="false" />
    <property role="TrG5h" value="BooleanInstructionOperation" />
    <property role="2_RsDV" value="none" />
    <property role="3GE5qa" value="InstructionOperations" />
    <property role="EcuMT" value="7180022869589052771" />
    <ref role="1TJDcQ" node="1_dIXlWBrH_" resolve="BaseInstructionOperation" />
  </node>
  <node concept="1TIwiD" id="7_ZEXY1jBFP">
    <property role="R5$K7" value="false" />
    <property role="R5$K2" value="false" />
    <property role="TrG5h" value="InstructionIsJump" />
    <property role="2_RsDV" value="none" />
    <property role="3GE5qa" value="InstructionOperations" />
    <property role="34LRSv" value="isJump" />
    <property role="EcuMT" value="8754905177066994421" />
    <ref role="1TJDcQ" node="6e$$c8H2kPz" resolve="BooleanInstructionOperation" />
  </node>
  <node concept="PlHQZ" id="6UdHCtZMvVk">
    <property role="EcuMT" value="7966224008969060052" />
    <property role="TrG5h" value="IBuilderMode" />
    <property role="3GE5qa" value="Modes" />
  </node>
  <node concept="1TIwiD" id="6UdHCtZMvVl">
    <property role="EcuMT" value="7966224008969060053" />
    <property role="3GE5qa" value="Modes" />
    <property role="TrG5h" value="IntraProcedural_BuilderMode" />
    <property role="34LRSv" value="intra-procedural" />
    <ref role="1TJDcQ" to="tpck:gw2VY9q" resolve="BaseConcept" />
    <node concept="PrWs8" id="3nqUySdhDTf" role="PzmwI">
      <ref role="PrY4T" node="6UdHCtZMvVk" resolve="IBuilderMode" />
    </node>
  </node>
</model>

