<?xml version="1.0" encoding="UTF-8"?>
<model ref="r:dc013bd4-6bcf-44c3-9e08-a65e07c88df7(jetbrains.mps.internal.make.cfg)">
  <persistence version="9" />
  <languages>
    <use id="fd392034-7849-419d-9071-12563d152375" name="jetbrains.mps.baseLanguage.closures" version="0" />
    <use id="a247e09e-2435-45ba-b8d2-07e93feba96a" name="jetbrains.mps.baseLanguage.tuples" version="0" />
    <use id="696c1165-4a59-463b-bc5d-902caab85dd0" name="jetbrains.mps.make.facet" version="0" />
    <use id="f3061a53-9226-4cc5-a443-f952ceaf5816" name="jetbrains.mps.baseLanguage" version="4" />
  </languages>
  <imports>
    <import index="i9so" ref="r:9e5578e0-37f0-4c9b-a301-771bcb453678(jetbrains.mps.make.script)" />
    <import index="fy8e" ref="r:89c0fb70-0977-7777-a076-5906f9d8630f(jetbrains.mps.make.facets)" />
    <import index="3ju5" ref="6ed54515-acc8-4d1e-a16c-9fd6cfe951ea/java:jetbrains.mps.vfs(MPS.Core/)" />
    <import index="l46t" ref="6ed54515-acc8-4d1e-a16c-9fd6cfe951ea/java:jetbrains.mps.compiler(MPS.Core/)" />
    <import index="wyt6" ref="6354ebe7-c22a-4a0f-ac54-50b52ab9b065/java:java.lang(JDK/)" implicit="true" />
  </imports>
  <registry>
    <language id="a247e09e-2435-45ba-b8d2-07e93feba96a" name="jetbrains.mps.baseLanguage.tuples">
      <concept id="1238852151516" name="jetbrains.mps.baseLanguage.tuples.structure.IndexedTupleType" flags="in" index="1LlUBW">
        <child id="1238852204892" name="componentType" index="1Lm7xW" />
      </concept>
      <concept id="1238857743184" name="jetbrains.mps.baseLanguage.tuples.structure.IndexedTupleMemberAccessExpression" flags="nn" index="1LFfDK">
        <child id="1238857764950" name="tuple" index="1LFl5Q" />
        <child id="1238857834412" name="index" index="1LF_Uc" />
      </concept>
    </language>
    <language id="f3061a53-9226-4cc5-a443-f952ceaf5816" name="jetbrains.mps.baseLanguage">
      <concept id="1215693861676" name="jetbrains.mps.baseLanguage.structure.BaseAssignmentExpression" flags="nn" index="d038R">
        <child id="1068498886297" name="rValue" index="37vLTx" />
        <child id="1068498886295" name="lValue" index="37vLTJ" />
      </concept>
      <concept id="1202948039474" name="jetbrains.mps.baseLanguage.structure.InstanceMethodCallOperation" flags="nn" index="liA8E" />
      <concept id="1465982738277781862" name="jetbrains.mps.baseLanguage.structure.PlaceholderMember" flags="ng" index="2tJIrI" />
      <concept id="1197027756228" name="jetbrains.mps.baseLanguage.structure.DotExpression" flags="nn" index="2OqwBi">
        <child id="1197027771414" name="operand" index="2Oq$k0" />
        <child id="1197027833540" name="operation" index="2OqNvi" />
      </concept>
      <concept id="1070475354124" name="jetbrains.mps.baseLanguage.structure.ThisExpression" flags="nn" index="Xjq3P" />
      <concept id="1070534058343" name="jetbrains.mps.baseLanguage.structure.NullLiteral" flags="nn" index="10Nm6u" />
      <concept id="1070534934090" name="jetbrains.mps.baseLanguage.structure.CastExpression" flags="nn" index="10QFUN">
        <child id="1070534934091" name="type" index="10QFUM" />
        <child id="1070534934092" name="expression" index="10QFUP" />
      </concept>
      <concept id="1068390468200" name="jetbrains.mps.baseLanguage.structure.FieldDeclaration" flags="ig" index="312cEg">
        <property id="8606350594693632173" name="isTransient" index="eg7rD" />
        <property id="1240249534625" name="isVolatile" index="34CwA1" />
      </concept>
      <concept id="1068390468198" name="jetbrains.mps.baseLanguage.structure.ClassConcept" flags="ig" index="312cEu">
        <property id="1221565133444" name="isFinal" index="1EXbeo" />
      </concept>
      <concept id="1068431474542" name="jetbrains.mps.baseLanguage.structure.VariableDeclaration" flags="ng" index="33uBYm">
        <property id="1176718929932" name="isFinal" index="3TUv4t" />
        <child id="1068431790190" name="initializer" index="33vP2m" />
      </concept>
      <concept id="1068498886296" name="jetbrains.mps.baseLanguage.structure.VariableReference" flags="nn" index="37vLTw">
        <reference id="1068581517664" name="variableDeclaration" index="3cqZAo" />
      </concept>
      <concept id="1068498886292" name="jetbrains.mps.baseLanguage.structure.ParameterDeclaration" flags="ir" index="37vLTG" />
      <concept id="1068498886294" name="jetbrains.mps.baseLanguage.structure.AssignmentExpression" flags="nn" index="37vLTI" />
      <concept id="1225271177708" name="jetbrains.mps.baseLanguage.structure.StringType" flags="in" index="17QB3L" />
      <concept id="4972933694980447171" name="jetbrains.mps.baseLanguage.structure.BaseVariableDeclaration" flags="ng" index="19Szcq">
        <child id="5680397130376446158" name="type" index="1tU5fm" />
      </concept>
      <concept id="1068580123132" name="jetbrains.mps.baseLanguage.structure.BaseMethodDeclaration" flags="ng" index="3clF44">
        <property id="4276006055363816570" name="isSynchronized" index="od$2w" />
        <property id="1181808852946" name="isFinal" index="DiZV1" />
        <child id="1068580123133" name="returnType" index="3clF45" />
        <child id="1068580123134" name="parameter" index="3clF46" />
        <child id="1068580123135" name="body" index="3clF47" />
      </concept>
      <concept id="1068580123165" name="jetbrains.mps.baseLanguage.structure.InstanceMethodDeclaration" flags="ig" index="3clFb_">
        <property id="1178608670077" name="isAbstract" index="1EzhhJ" />
      </concept>
      <concept id="1068580123155" name="jetbrains.mps.baseLanguage.structure.ExpressionStatement" flags="nn" index="3clFbF">
        <child id="1068580123156" name="expression" index="3clFbG" />
      </concept>
      <concept id="1068580123159" name="jetbrains.mps.baseLanguage.structure.IfStatement" flags="nn" index="3clFbJ">
        <child id="1068580123160" name="condition" index="3clFbw" />
        <child id="1068580123161" name="ifTrue" index="3clFbx" />
      </concept>
      <concept id="1068580123136" name="jetbrains.mps.baseLanguage.structure.StatementList" flags="sn" stub="5293379017992965193" index="3clFbS">
        <child id="1068581517665" name="statement" index="3cqZAp" />
      </concept>
      <concept id="1068580123140" name="jetbrains.mps.baseLanguage.structure.ConstructorDeclaration" flags="ig" index="3clFbW" />
      <concept id="1068580320020" name="jetbrains.mps.baseLanguage.structure.IntegerConstant" flags="nn" index="3cmrfG">
        <property id="1068580320021" name="value" index="3cmrfH" />
      </concept>
      <concept id="1068581242878" name="jetbrains.mps.baseLanguage.structure.ReturnStatement" flags="nn" index="3cpWs6">
        <child id="1068581517676" name="expression" index="3cqZAk" />
      </concept>
      <concept id="1068581242864" name="jetbrains.mps.baseLanguage.structure.LocalVariableDeclarationStatement" flags="nn" index="3cpWs8">
        <child id="1068581242865" name="localVariableDeclaration" index="3cpWs9" />
      </concept>
      <concept id="1068581242863" name="jetbrains.mps.baseLanguage.structure.LocalVariableDeclaration" flags="nr" index="3cpWsn" />
      <concept id="1068581517677" name="jetbrains.mps.baseLanguage.structure.VoidType" flags="in" index="3cqZAl" />
      <concept id="1204053956946" name="jetbrains.mps.baseLanguage.structure.IMethodCall" flags="ng" index="1ndlxa">
        <reference id="1068499141037" name="baseMethodDeclaration" index="37wK5l" />
        <child id="1068499141038" name="actualArgument" index="37wK5m" />
      </concept>
      <concept id="1107461130800" name="jetbrains.mps.baseLanguage.structure.Classifier" flags="ng" index="3pOWGL">
        <child id="5375687026011219971" name="member" index="jymVt" unordered="true" />
      </concept>
      <concept id="7812454656619025416" name="jetbrains.mps.baseLanguage.structure.MethodDeclaration" flags="ng" index="1rXfSm">
        <property id="8355037393041754995" name="isNative" index="2aFKle" />
      </concept>
      <concept id="1107535904670" name="jetbrains.mps.baseLanguage.structure.ClassifierType" flags="in" index="3uibUv">
        <reference id="1107535924139" name="classifier" index="3uigEE" />
      </concept>
      <concept id="1081773326031" name="jetbrains.mps.baseLanguage.structure.BinaryOperation" flags="nn" index="3uHJSO">
        <child id="1081773367579" name="rightExpression" index="3uHU7w" />
        <child id="1081773367580" name="leftExpression" index="3uHU7B" />
      </concept>
      <concept id="1073239437375" name="jetbrains.mps.baseLanguage.structure.NotEqualsExpression" flags="nn" index="3y3z36" />
      <concept id="1178549954367" name="jetbrains.mps.baseLanguage.structure.IVisible" flags="ng" index="1B3ioH">
        <child id="1178549979242" name="visibility" index="1B3o_S" />
      </concept>
      <concept id="1146644602865" name="jetbrains.mps.baseLanguage.structure.PublicVisibility" flags="nn" index="3Tm1VV" />
      <concept id="1146644623116" name="jetbrains.mps.baseLanguage.structure.PrivateVisibility" flags="nn" index="3Tm6S6" />
      <concept id="1116615150612" name="jetbrains.mps.baseLanguage.structure.ClassifierClassExpression" flags="nn" index="3VsKOn">
        <reference id="1116615189566" name="classifier" index="3VsUkX" />
      </concept>
    </language>
    <language id="fd392034-7849-419d-9071-12563d152375" name="jetbrains.mps.baseLanguage.closures">
      <concept id="1046929382682558545" name="jetbrains.mps.baseLanguage.closures.structure.ClosureLiteralType" flags="ig" index="9cv3F" />
      <concept id="1199542442495" name="jetbrains.mps.baseLanguage.closures.structure.FunctionType" flags="in" index="1ajhzC">
        <child id="1199542457201" name="resultType" index="1ajl9A" />
        <child id="1199542501692" name="parameterType" index="1ajw0F" />
      </concept>
    </language>
    <language id="696c1165-4a59-463b-bc5d-902caab85dd0" name="jetbrains.mps.make.facet">
      <concept id="8703512757937156087" name="jetbrains.mps.make.facet.structure.TargetReferenceExpression" flags="nn" index="29r_a">
        <reference id="8703512757937161148" name="target" index="29tk1" />
        <child id="8703512757937161134" name="facetRef" index="29tkj" />
      </concept>
      <concept id="1919086248986845077" name="jetbrains.mps.make.facet.structure.NamedFacetReference" flags="ng" index="2e$Q_j" />
      <concept id="7178445679340358576" name="jetbrains.mps.make.facet.structure.FacetReferenceExpression" flags="nn" index="2n6ZRZ">
        <child id="7178445679340358578" name="reference" index="2n6ZRX" />
      </concept>
      <concept id="6447445394688422642" name="jetbrains.mps.make.facet.structure.FacetReference" flags="ng" index="1Mm5Yv">
        <reference id="6447445394688422643" name="facet" index="1Mm5Yu" />
      </concept>
    </language>
    <language id="ceab5195-25ea-4f22-9b92-103b95ca8c0c" name="jetbrains.mps.lang.core">
      <concept id="1169194658468" name="jetbrains.mps.lang.core.structure.INamedConcept" flags="ng" index="TrEIO">
        <property id="1169194664001" name="name" index="TrG5h" />
      </concept>
    </language>
  </registry>
  <node concept="312cEu" id="5OeL7nc7t8q">
    <property role="TrG5h" value="JavaCompileFacetInitializer" />
    <property role="1EXbeo" value="true" />
    <node concept="312cEg" id="5OeL7nc8E1x" role="jymVt">
      <property role="TrG5h" value="mySkipCompilation" />
      <node concept="3Tm6S6" id="5OeL7nc8E1y" role="1B3o_S" />
      <node concept="3uibUv" id="5OeL7nc8E1$" role="1tU5fm">
        <ref role="3uigEE" to="wyt6:~Boolean" resolve="Boolean" />
      </node>
    </node>
    <node concept="312cEg" id="bvkaYAGRqx" role="jymVt">
      <property role="34CwA1" value="false" />
      <property role="eg7rD" value="false" />
      <property role="TrG5h" value="myOptions" />
      <property role="3TUv4t" value="false" />
      <node concept="3Tm6S6" id="bvkaYAGQVv" role="1B3o_S" />
      <node concept="3uibUv" id="bvkaYAGRqm" role="1tU5fm">
        <ref role="3uigEE" to="l46t:~JavaCompilerOptions" resolve="JavaCompilerOptions" />
      </node>
    </node>
    <node concept="2tJIrI" id="5OeL7nc8EkL" role="jymVt" />
    <node concept="3clFbW" id="5OeL7nc8$v7" role="jymVt">
      <node concept="3cqZAl" id="5OeL7nc8$v9" role="3clF45" />
      <node concept="3Tm1VV" id="5OeL7nc8$va" role="1B3o_S" />
      <node concept="3clFbS" id="5OeL7nc8$vb" role="3clF47" />
    </node>
    <node concept="3clFb_" id="5OeL7nc8$wR" role="jymVt">
      <property role="TrG5h" value="skipCompilation" />
      <node concept="3uibUv" id="5OeL7nc8$xP" role="3clF45">
        <ref role="3uigEE" node="5OeL7nc7t8q" resolve="JavaCompileFacetInitializer" />
      </node>
      <node concept="3Tm1VV" id="5OeL7nc8$wU" role="1B3o_S" />
      <node concept="3clFbS" id="5OeL7nc8$wV" role="3clF47">
        <node concept="3clFbF" id="5OeL7nc8E1_" role="3cqZAp">
          <node concept="37vLTI" id="5OeL7nc8E1B" role="3clFbG">
            <node concept="37vLTw" id="5OeL7nc8GXV" role="37vLTJ">
              <ref role="3cqZAo" node="5OeL7nc8E1x" resolve="mySkipCompilation" />
            </node>
            <node concept="37vLTw" id="5OeL7nc8E1J" role="37vLTx">
              <ref role="3cqZAo" node="5OeL7nc8E12" resolve="skip" />
            </node>
          </node>
        </node>
        <node concept="3cpWs6" id="5OeL7nc8HC6" role="3cqZAp">
          <node concept="Xjq3P" id="5OeL7nc8HDO" role="3cqZAk" />
        </node>
      </node>
      <node concept="37vLTG" id="5OeL7nc8E12" role="3clF46">
        <property role="TrG5h" value="skip" />
        <node concept="3uibUv" id="5OeL7nc8E11" role="1tU5fm">
          <ref role="3uigEE" to="wyt6:~Boolean" resolve="Boolean" />
        </node>
      </node>
    </node>
    <node concept="2tJIrI" id="bvkaYAGODw" role="jymVt" />
    <node concept="3clFb_" id="bvkaYAGPPJ" role="jymVt">
      <property role="1EzhhJ" value="false" />
      <property role="TrG5h" value="setJavaCompileOptions" />
      <property role="od$2w" value="false" />
      <property role="DiZV1" value="false" />
      <property role="2aFKle" value="false" />
      <node concept="3clFbS" id="bvkaYAGPPM" role="3clF47">
        <node concept="3clFbF" id="bvkaYAGR_s" role="3cqZAp">
          <node concept="37vLTI" id="bvkaYAGRBd" role="3clFbG">
            <node concept="37vLTw" id="bvkaYAGRD5" role="37vLTx">
              <ref role="3cqZAo" node="bvkaYAGPZT" resolve="options" />
            </node>
            <node concept="37vLTw" id="bvkaYAGR_r" role="37vLTJ">
              <ref role="3cqZAo" node="bvkaYAGRqx" resolve="myOptions" />
            </node>
          </node>
        </node>
        <node concept="3cpWs6" id="bvkaYAGRGo" role="3cqZAp">
          <node concept="Xjq3P" id="bvkaYAGRQ_" role="3cqZAk" />
        </node>
      </node>
      <node concept="3Tm1VV" id="bvkaYAGOZQ" role="1B3o_S" />
      <node concept="3uibUv" id="bvkaYAGP9Q" role="3clF45">
        <ref role="3uigEE" node="5OeL7nc7t8q" resolve="JavaCompileFacetInitializer" />
      </node>
      <node concept="37vLTG" id="bvkaYAGPZT" role="3clF46">
        <property role="TrG5h" value="options" />
        <node concept="3uibUv" id="bvkaYAGPZS" role="1tU5fm">
          <ref role="3uigEE" to="l46t:~JavaCompilerOptions" resolve="JavaCompilerOptions" />
        </node>
      </node>
    </node>
    <node concept="3clFb_" id="5OeL7nc7t9L" role="jymVt">
      <property role="1EzhhJ" value="false" />
      <property role="TrG5h" value="populate" />
      <property role="od$2w" value="false" />
      <property role="DiZV1" value="false" />
      <node concept="3clFbS" id="5OeL7nc7t9O" role="3clF47">
        <node concept="3cpWs8" id="71egOude_N3" role="3cqZAp">
          <node concept="3cpWsn" id="71egOude_N4" role="3cpWs9">
            <property role="TrG5h" value="compileProps" />
            <node concept="1LlUBW" id="71egOude_N5" role="1tU5fm">
              <node concept="3uibUv" id="71egOude_N6" role="1Lm7xW">
                <ref role="3uigEE" to="wyt6:~Boolean" resolve="Boolean" />
              </node>
              <node concept="3uibUv" id="71egOude_N7" role="1Lm7xW">
                <ref role="3uigEE" to="wyt6:~Boolean" resolve="Boolean" />
              </node>
              <node concept="3uibUv" id="bvkaYAHOjI" role="1Lm7xW">
                <ref role="3uigEE" to="l46t:~JavaCompilerOptions" resolve="JavaCompilerOptions" />
              </node>
            </node>
            <node concept="10QFUN" id="71egOude_N8" role="33vP2m">
              <node concept="1LlUBW" id="71egOude_N9" role="10QFUM">
                <node concept="3uibUv" id="71egOude_Na" role="1Lm7xW">
                  <ref role="3uigEE" to="wyt6:~Boolean" resolve="Boolean" />
                </node>
                <node concept="3uibUv" id="71egOude_Nb" role="1Lm7xW">
                  <ref role="3uigEE" to="wyt6:~Boolean" resolve="Boolean" />
                </node>
                <node concept="3uibUv" id="bvkaYAHOFd" role="1Lm7xW">
                  <ref role="3uigEE" to="l46t:~JavaCompilerOptions" resolve="JavaCompilerOptions" />
                </node>
              </node>
              <node concept="2OqwBi" id="71egOude_Nc" role="10QFUP">
                <node concept="37vLTw" id="5OeL7nc8$oU" role="2Oq$k0">
                  <ref role="3cqZAo" node="5OeL7nc7t9Z" resolve="ppool" />
                </node>
                <node concept="liA8E" id="71egOude_Ne" role="2OqNvi">
                  <ref role="37wK5l" to="i9so:5XvfMqim0Fy" resolve="properties" />
                  <node concept="29r_a" id="71egOude_Nf" role="37wK5m">
                    <ref role="29tk1" to="fy8e:5L5h3brvDPy" resolve="compile" />
                    <node concept="2n6ZRZ" id="71egOude_Ng" role="29tkj">
                      <node concept="2e$Q_j" id="71egOude_Nh" role="2n6ZRX">
                        <ref role="1Mm5Yu" to="fy8e:5L5h3brvDPx" resolve="JavaCompile" />
                      </node>
                    </node>
                  </node>
                  <node concept="3VsKOn" id="71egOude_Ni" role="37wK5m">
                    <ref role="3VsUkX" to="wyt6:~Object" resolve="Object" />
                  </node>
                </node>
              </node>
            </node>
          </node>
        </node>
        <node concept="3clFbJ" id="71egOude_Nj" role="3cqZAp">
          <node concept="3clFbS" id="71egOude_Nk" role="3clFbx">
            <node concept="3clFbF" id="71egOude_Nl" role="3cqZAp">
              <node concept="37vLTI" id="71egOude_Nm" role="3clFbG">
                <node concept="37vLTw" id="5OeL7nc8HjT" role="37vLTx">
                  <ref role="3cqZAo" node="5OeL7nc8E1x" resolve="mySkipCompilation" />
                </node>
                <node concept="1LFfDK" id="71egOude_No" role="37vLTJ">
                  <node concept="3cmrfG" id="71egOude_Np" role="1LF_Uc">
                    <property role="3cmrfH" value="1" />
                  </node>
                  <node concept="37vLTw" id="3GM_nagTtA9" role="1LFl5Q">
                    <ref role="3cqZAo" node="71egOude_N4" resolve="compileProps" />
                  </node>
                </node>
              </node>
            </node>
            <node concept="3clFbF" id="bvkaYAHPb2" role="3cqZAp">
              <node concept="37vLTI" id="bvkaYAHPFl" role="3clFbG">
                <node concept="37vLTw" id="bvkaYAHPJz" role="37vLTx">
                  <ref role="3cqZAo" node="bvkaYAGRqx" resolve="myOptions" />
                </node>
                <node concept="1LFfDK" id="bvkaYAHPnm" role="37vLTJ">
                  <node concept="3cmrfG" id="bvkaYAHPnS" role="1LF_Uc">
                    <property role="3cmrfH" value="2" />
                  </node>
                  <node concept="37vLTw" id="bvkaYAHPb0" role="1LFl5Q">
                    <ref role="3cqZAo" node="71egOude_N4" resolve="compileProps" />
                  </node>
                </node>
              </node>
            </node>
          </node>
          <node concept="3y3z36" id="71egOude_Nr" role="3clFbw">
            <node concept="10Nm6u" id="71egOude_Ns" role="3uHU7w" />
            <node concept="37vLTw" id="3GM_nagTuV2" role="3uHU7B">
              <ref role="3cqZAo" node="71egOude_N4" resolve="compileProps" />
            </node>
          </node>
        </node>
      </node>
      <node concept="3Tm1VV" id="5OeL7nc7t9x" role="1B3o_S" />
      <node concept="3cqZAl" id="5OeL7nc7t9F" role="3clF45" />
      <node concept="37vLTG" id="5OeL7nc7t9Z" role="3clF46">
        <property role="TrG5h" value="ppool" />
        <node concept="3uibUv" id="5OeL7nc7t9Y" role="1tU5fm">
          <ref role="3uigEE" to="i9so:5XvfMqim0Fp" resolve="IPropertiesPool" />
        </node>
      </node>
    </node>
    <node concept="3Tm1VV" id="5OeL7nc7t8r" role="1B3o_S" />
  </node>
  <node concept="312cEu" id="5OeL7nc7B8$">
    <property role="TrG5h" value="MakeFacetInitializer" />
    <property role="1EXbeo" value="true" />
    <node concept="312cEg" id="5OeL7nc7QvJ" role="jymVt">
      <property role="34CwA1" value="false" />
      <property role="eg7rD" value="false" />
      <property role="TrG5h" value="myPathToFile" />
      <property role="3TUv4t" value="false" />
      <node concept="3Tm6S6" id="5OeL7nc7QqS" role="1B3o_S" />
      <node concept="9cv3F" id="7qWwyLT1vlb" role="1tU5fm">
        <node concept="17QB3L" id="7qWwyLT1vlc" role="1ajw0F" />
        <node concept="3uibUv" id="7qWwyLT1vld" role="1ajl9A">
          <ref role="3uigEE" to="3ju5:~IFile" resolve="IFile" />
        </node>
      </node>
    </node>
    <node concept="312cEg" id="5OeL7nca1st" role="jymVt">
      <property role="34CwA1" value="false" />
      <property role="eg7rD" value="false" />
      <property role="TrG5h" value="mySkipReconcile" />
      <property role="3TUv4t" value="false" />
      <node concept="3Tm6S6" id="5OeL7nca18I" role="1B3o_S" />
      <node concept="3uibUv" id="5OeL7nca1Ls" role="1tU5fm">
        <ref role="3uigEE" to="wyt6:~Boolean" resolve="Boolean" />
      </node>
    </node>
    <node concept="3clFbW" id="5OeL7nc7VFF" role="jymVt">
      <node concept="3cqZAl" id="5OeL7nc7VFH" role="3clF45" />
      <node concept="3Tm1VV" id="5OeL7nc7VFI" role="1B3o_S" />
      <node concept="3clFbS" id="5OeL7nc7VFJ" role="3clF47" />
    </node>
    <node concept="3clFb_" id="5OeL7nc7PFI" role="jymVt">
      <property role="TrG5h" value="setPathToFile" />
      <node concept="3uibUv" id="5OeL7nc7PJW" role="3clF45">
        <ref role="3uigEE" node="5OeL7nc7B8$" resolve="MakeFacetInitializer" />
      </node>
      <node concept="3Tm1VV" id="5OeL7nc7PFL" role="1B3o_S" />
      <node concept="3clFbS" id="5OeL7nc7PFM" role="3clF47">
        <node concept="3clFbF" id="5OeL7nc7U7r" role="3cqZAp">
          <node concept="37vLTI" id="5OeL7nc7Umd" role="3clFbG">
            <node concept="37vLTw" id="5OeL7nc7Usz" role="37vLTx">
              <ref role="3cqZAo" node="5OeL7nc7QcK" resolve="f" />
            </node>
            <node concept="37vLTw" id="5OeL7nc7U7q" role="37vLTJ">
              <ref role="3cqZAo" node="5OeL7nc7QvJ" resolve="myPathToFile" />
            </node>
          </node>
        </node>
        <node concept="3cpWs6" id="5OeL7nc7UPZ" role="3cqZAp">
          <node concept="Xjq3P" id="5OeL7nc7V6a" role="3cqZAk" />
        </node>
      </node>
      <node concept="37vLTG" id="5OeL7nc7QcK" role="3clF46">
        <property role="TrG5h" value="f" />
        <node concept="9cv3F" id="7qWwyLT1vpv" role="1tU5fm">
          <node concept="17QB3L" id="7qWwyLT1vpw" role="1ajw0F" />
          <node concept="3uibUv" id="7qWwyLT1vpx" role="1ajl9A">
            <ref role="3uigEE" to="3ju5:~IFile" resolve="IFile" />
          </node>
        </node>
      </node>
    </node>
    <node concept="3clFb_" id="5OeL7nc9XeK" role="jymVt">
      <property role="TrG5h" value="skipReconcile" />
      <node concept="3uibUv" id="5OeL7nc9XeL" role="3clF45">
        <ref role="3uigEE" node="5OeL7nc7B8$" resolve="MakeFacetInitializer" />
      </node>
      <node concept="3Tm1VV" id="5OeL7nc9XeM" role="1B3o_S" />
      <node concept="3clFbS" id="5OeL7nc9XeN" role="3clF47">
        <node concept="3clFbF" id="5OeL7nc9XeO" role="3cqZAp">
          <node concept="37vLTI" id="5OeL7nc9XeP" role="3clFbG">
            <node concept="37vLTw" id="5OeL7nc9XeQ" role="37vLTx">
              <ref role="3cqZAo" node="5OeL7nc9XeU" resolve="skip" />
            </node>
            <node concept="37vLTw" id="5OeL7nca1Nh" role="37vLTJ">
              <ref role="3cqZAo" node="5OeL7nca1st" resolve="mySkipReconcile" />
            </node>
          </node>
        </node>
        <node concept="3cpWs6" id="5OeL7nc9XeS" role="3cqZAp">
          <node concept="Xjq3P" id="5OeL7nc9XeT" role="3cqZAk" />
        </node>
      </node>
      <node concept="37vLTG" id="5OeL7nc9XeU" role="3clF46">
        <property role="TrG5h" value="skip" />
        <node concept="3uibUv" id="5OeL7nc9Z51" role="1tU5fm">
          <ref role="3uigEE" to="wyt6:~Boolean" resolve="Boolean" />
        </node>
      </node>
    </node>
    <node concept="3clFb_" id="5OeL7nc7B92" role="jymVt">
      <property role="TrG5h" value="populate" />
      <node concept="3cqZAl" id="5OeL7nc7B94" role="3clF45" />
      <node concept="3Tm1VV" id="5OeL7nc7B95" role="1B3o_S" />
      <node concept="3clFbS" id="5OeL7nc7B96" role="3clF47">
        <node concept="3clFbJ" id="5OeL7nc7Rvr" role="3cqZAp">
          <node concept="3clFbS" id="5OeL7nc7Rvu" role="3clFbx">
            <node concept="3cpWs8" id="4_Slee3u3Di" role="3cqZAp">
              <node concept="3cpWsn" id="4_Slee3u3Dj" role="3cpWs9">
                <property role="TrG5h" value="makeparams" />
                <node concept="1LlUBW" id="4_Slee3u3Dk" role="1tU5fm">
                  <node concept="1ajhzC" id="4_Slee3u3Dl" role="1Lm7xW">
                    <node concept="3uibUv" id="4_Slee3u3Dm" role="1ajl9A">
                      <ref role="3uigEE" to="3ju5:~IFile" resolve="IFile" />
                    </node>
                    <node concept="17QB3L" id="4_Slee3u3Dn" role="1ajw0F" />
                  </node>
                </node>
                <node concept="10QFUN" id="4_Slee3u3Dp" role="33vP2m">
                  <node concept="1LlUBW" id="4_Slee3u3Dq" role="10QFUM">
                    <node concept="1ajhzC" id="4_Slee3u3Dr" role="1Lm7xW">
                      <node concept="3uibUv" id="4_Slee3u3Ds" role="1ajl9A">
                        <ref role="3uigEE" to="3ju5:~IFile" resolve="IFile" />
                      </node>
                      <node concept="17QB3L" id="4_Slee3u3Dt" role="1ajw0F" />
                    </node>
                  </node>
                  <node concept="2OqwBi" id="4_Slee3u3Dv" role="10QFUP">
                    <node concept="37vLTw" id="2BHiRxglB3V" role="2Oq$k0">
                      <ref role="3cqZAo" node="5OeL7nc7B9n" resolve="ppool" />
                    </node>
                    <node concept="liA8E" id="4_Slee3u3Dx" role="2OqNvi">
                      <ref role="37wK5l" to="i9so:5XvfMqim0Fy" resolve="properties" />
                      <node concept="29r_a" id="4_Slee3u3Dy" role="37wK5m">
                        <ref role="29tk1" to="fy8e:taepSZ9rBr" resolve="make" />
                        <node concept="2n6ZRZ" id="4_Slee3u3Dz" role="29tkj">
                          <node concept="2e$Q_j" id="4_Slee3u3DS" role="2n6ZRX">
                            <ref role="1Mm5Yu" to="fy8e:taepSZ9r$V" resolve="Make" />
                          </node>
                        </node>
                      </node>
                      <node concept="3VsKOn" id="4_Slee3u3D_" role="37wK5m">
                        <ref role="3VsUkX" to="wyt6:~Object" resolve="Object" />
                      </node>
                    </node>
                  </node>
                </node>
              </node>
            </node>
            <node concept="3clFbJ" id="5OeL7nc7QMh" role="3cqZAp">
              <node concept="3clFbS" id="5OeL7nc7QMk" role="3clFbx">
                <node concept="3clFbF" id="4_Slee3u3DA" role="3cqZAp">
                  <node concept="37vLTI" id="4_Slee3u3DB" role="3clFbG">
                    <node concept="37vLTw" id="5OeL7nc7TKl" role="37vLTx">
                      <ref role="3cqZAo" node="5OeL7nc7QvJ" resolve="myPathToFile" />
                    </node>
                    <node concept="1LFfDK" id="4_Slee3u3DJ" role="37vLTJ">
                      <node concept="3cmrfG" id="4_Slee3u3DK" role="1LF_Uc">
                        <property role="3cmrfH" value="0" />
                      </node>
                      <node concept="37vLTw" id="3GM_nagTyzJ" role="1LFl5Q">
                        <ref role="3cqZAo" node="4_Slee3u3Dj" resolve="makeparams" />
                      </node>
                    </node>
                  </node>
                </node>
              </node>
              <node concept="3y3z36" id="5OeL7nc7RbD" role="3clFbw">
                <node concept="10Nm6u" id="5OeL7nc7Rko" role="3uHU7w" />
                <node concept="37vLTw" id="5OeL7nc7QV3" role="3uHU7B">
                  <ref role="3cqZAo" node="4_Slee3u3Dj" resolve="makeparams" />
                </node>
              </node>
            </node>
          </node>
          <node concept="3y3z36" id="5OeL7nca22J" role="3clFbw">
            <node concept="37vLTw" id="5OeL7nca22M" role="3uHU7B">
              <ref role="3cqZAo" node="5OeL7nc7QvJ" resolve="myPathToFile" />
            </node>
            <node concept="10Nm6u" id="5OeL7nca22L" role="3uHU7w" />
          </node>
        </node>
        <node concept="3clFbJ" id="5OeL7nca2KJ" role="3cqZAp">
          <node concept="3clFbS" id="5OeL7nca2KM" role="3clFbx">
            <node concept="3cpWs8" id="71egOude_Op" role="3cqZAp">
              <node concept="3cpWsn" id="71egOude_Oq" role="3cpWs9">
                <property role="TrG5h" value="skipReconcile" />
                <node concept="1LlUBW" id="71egOude_Or" role="1tU5fm">
                  <node concept="3uibUv" id="71egOude_Os" role="1Lm7xW">
                    <ref role="3uigEE" to="wyt6:~Boolean" resolve="Boolean" />
                  </node>
                </node>
                <node concept="10QFUN" id="71egOude_Ot" role="33vP2m">
                  <node concept="1LlUBW" id="71egOude_Ou" role="10QFUM">
                    <node concept="3uibUv" id="71egOude_Ov" role="1Lm7xW">
                      <ref role="3uigEE" to="wyt6:~Boolean" resolve="Boolean" />
                    </node>
                  </node>
                  <node concept="2OqwBi" id="71egOude_Ow" role="10QFUP">
                    <node concept="37vLTw" id="5OeL7nca5jQ" role="2Oq$k0">
                      <ref role="3cqZAo" node="5OeL7nc7B9n" resolve="ppool" />
                    </node>
                    <node concept="liA8E" id="71egOude_Oy" role="2OqNvi">
                      <ref role="37wK5l" to="i9so:5XvfMqim0Fy" resolve="properties" />
                      <node concept="29r_a" id="71egOude_Oz" role="37wK5m">
                        <ref role="29tk1" to="fy8e:taepSZ9r$W" resolve="reconcile" />
                        <node concept="2n6ZRZ" id="71egOude_O$" role="29tkj">
                          <node concept="2e$Q_j" id="71egOude_O_" role="2n6ZRX">
                            <ref role="1Mm5Yu" to="fy8e:taepSZ9r$V" resolve="Make" />
                          </node>
                        </node>
                      </node>
                      <node concept="3VsKOn" id="71egOude_OA" role="37wK5m">
                        <ref role="3VsUkX" to="wyt6:~Object" resolve="Object" />
                      </node>
                    </node>
                  </node>
                </node>
              </node>
            </node>
            <node concept="3clFbF" id="71egOude_OB" role="3cqZAp">
              <node concept="37vLTI" id="71egOude_OC" role="3clFbG">
                <node concept="37vLTw" id="5OeL7nca5qK" role="37vLTx">
                  <ref role="3cqZAo" node="5OeL7nca1st" resolve="mySkipReconcile" />
                </node>
                <node concept="1LFfDK" id="71egOude_OE" role="37vLTJ">
                  <node concept="3cmrfG" id="71egOude_OF" role="1LF_Uc">
                    <property role="3cmrfH" value="0" />
                  </node>
                  <node concept="37vLTw" id="3GM_nagTuDC" role="1LFl5Q">
                    <ref role="3cqZAo" node="71egOude_Oq" resolve="skipReconcile" />
                  </node>
                </node>
              </node>
            </node>
          </node>
          <node concept="3y3z36" id="5OeL7nca3gg" role="3clFbw">
            <node concept="10Nm6u" id="5OeL7nca3t4" role="3uHU7w" />
            <node concept="37vLTw" id="5OeL7nca2Zb" role="3uHU7B">
              <ref role="3cqZAo" node="5OeL7nca1st" resolve="mySkipReconcile" />
            </node>
          </node>
        </node>
      </node>
      <node concept="37vLTG" id="5OeL7nc7B9n" role="3clF46">
        <property role="TrG5h" value="ppool" />
        <node concept="3uibUv" id="5OeL7nc7B9m" role="1tU5fm">
          <ref role="3uigEE" to="i9so:5XvfMqim0Fp" resolve="IPropertiesPool" />
        </node>
      </node>
    </node>
    <node concept="3Tm1VV" id="5OeL7nc7B8_" role="1B3o_S" />
  </node>
</model>

