<?xml version="1.0" encoding="UTF-8"?>
<model ref="r:28e834a9-8b65-474e-9087-1e117e68bbbb(jetbrains.mps.baseLanguage.overloadedOperators.generator.template.main@generator)">
  <persistence version="9" />
  <languages>
    <use id="83888646-71ce-4f1c-9c53-c54016f6ad4f" name="jetbrains.mps.baseLanguage.collections" version="0" />
    <use id="fc8d557e-5de6-4dd8-b749-aab2fb23aefc" name="jetbrains.mps.baseLanguage.overloadedOperators" version="0" />
    <use id="df345b11-b8c7-4213-ac66-48d2a9b75d88" name="jetbrains.mps.baseLanguageInternal" version="0" />
    <use id="b401a680-8325-4110-8fd3-84331ff25bef" name="jetbrains.mps.lang.generator" version="0" />
    <use id="d7706f63-9be2-479c-a3da-ae92af1e64d5" name="jetbrains.mps.lang.generator.generationContext" version="0" />
    <use id="7a5dda62-9140-4668-ab76-d5ed1746f2b2" name="jetbrains.mps.lang.typesystem" version="0" />
    <use id="ceab5195-25ea-4f22-9b92-103b95ca8c0c" name="jetbrains.mps.lang.core" version="1" />
    <use id="7866978e-a0f0-4cc7-81bc-4d213d9375e1" name="jetbrains.mps.lang.smodel" version="4" />
    <use id="f3061a53-9226-4cc5-a443-f952ceaf5816" name="jetbrains.mps.baseLanguage" version="4" />
    <devkit ref="fbc25dd2-5da4-483a-8b19-70928e1b62d7(jetbrains.mps.devkit.general-purpose)" />
  </languages>
  <imports>
    <import index="vgj4" ref="r:a258f9a5-18d3-4bea-a833-20735290774c(jetbrains.mps.baseLanguage.overloadedOperators.structure)" />
    <import index="tpcu" ref="r:00000000-0000-4000-0000-011c89590282(jetbrains.mps.lang.core.behavior)" />
    <import index="p369" ref="r:9e7859f6-b0f4-49cf-8c48-60da2fce4fb2(jetbrains.mps.baseLanguage.overloadedOperators.behavior)" />
    <import index="tpee" ref="r:00000000-0000-4000-0000-011c895902ca(jetbrains.mps.baseLanguage.structure)" />
    <import index="wyt6" ref="6354ebe7-c22a-4a0f-ac54-50b52ab9b065/java:java.lang(JDK/)" />
    <import index="5q41" ref="r:9657ec16-7dab-4be4-9ea2-13982a8c441b(jetbrains.mps.baseLanguage.overloadedOperators.util)" />
    <import index="w1kc" ref="6ed54515-acc8-4d1e-a16c-9fd6cfe951ea/java:jetbrains.mps.smodel(MPS.Core/)" />
    <import index="mhbf" ref="8865b7a8-5271-43d3-884c-6fd1d9cfdd34/java:org.jetbrains.mps.openapi.model(MPS.OpenAPI/)" />
    <import index="tpck" ref="r:00000000-0000-4000-0000-011c89590288(jetbrains.mps.lang.core.structure)" implicit="true" />
  </imports>
  <registry>
    <language id="f3061a53-9226-4cc5-a443-f952ceaf5816" name="jetbrains.mps.baseLanguage">
      <concept id="1202948039474" name="jetbrains.mps.baseLanguage.structure.InstanceMethodCallOperation" flags="nn" index="liA8E" />
      <concept id="1197027756228" name="jetbrains.mps.baseLanguage.structure.DotExpression" flags="nn" index="2OqwBi">
        <child id="1197027771414" name="operand" index="2Oq$k0" />
        <child id="1197027833540" name="operation" index="2OqNvi" />
      </concept>
      <concept id="1145552977093" name="jetbrains.mps.baseLanguage.structure.GenericNewExpression" flags="nn" index="2ShNRf">
        <child id="1145553007750" name="creator" index="2ShVmc" />
      </concept>
      <concept id="1137021947720" name="jetbrains.mps.baseLanguage.structure.ConceptFunction" flags="in" index="2VMwT0">
        <child id="1137022507850" name="body" index="2VODD2" />
      </concept>
      <concept id="1070475926800" name="jetbrains.mps.baseLanguage.structure.StringLiteral" flags="nn" index="Xl_RD">
        <property id="1070475926801" name="value" index="Xl_RC" />
      </concept>
      <concept id="1081236700938" name="jetbrains.mps.baseLanguage.structure.StaticMethodDeclaration" flags="ig" index="2YIFZL" />
      <concept id="1070534370425" name="jetbrains.mps.baseLanguage.structure.IntegerType" flags="in" index="10Oyi0" />
      <concept id="1070534934090" name="jetbrains.mps.baseLanguage.structure.CastExpression" flags="nn" index="10QFUN">
        <child id="1070534934091" name="type" index="10QFUM" />
        <child id="1070534934092" name="expression" index="10QFUP" />
      </concept>
      <concept id="1068390468198" name="jetbrains.mps.baseLanguage.structure.ClassConcept" flags="ig" index="312cEu" />
      <concept id="1068431474542" name="jetbrains.mps.baseLanguage.structure.VariableDeclaration" flags="ng" index="33uBYm">
        <child id="1068431790190" name="initializer" index="33vP2m" />
      </concept>
      <concept id="1068431790189" name="jetbrains.mps.baseLanguage.structure.Type" flags="in" index="33vP2l" />
      <concept id="1068498886296" name="jetbrains.mps.baseLanguage.structure.VariableReference" flags="nn" index="37vLTw">
        <reference id="1068581517664" name="variableDeclaration" index="3cqZAo" />
      </concept>
      <concept id="1068498886292" name="jetbrains.mps.baseLanguage.structure.ParameterDeclaration" flags="ir" index="37vLTG" />
      <concept id="4972933694980447171" name="jetbrains.mps.baseLanguage.structure.BaseVariableDeclaration" flags="ng" index="19Szcq">
        <child id="5680397130376446158" name="type" index="1tU5fm" />
      </concept>
      <concept id="1068580123132" name="jetbrains.mps.baseLanguage.structure.BaseMethodDeclaration" flags="ng" index="3clF44">
        <child id="1068580123133" name="returnType" index="3clF45" />
        <child id="1068580123134" name="parameter" index="3clF46" />
        <child id="1068580123135" name="body" index="3clF47" />
      </concept>
      <concept id="1068580123165" name="jetbrains.mps.baseLanguage.structure.InstanceMethodDeclaration" flags="ig" index="3clFb_" />
      <concept id="1068580123155" name="jetbrains.mps.baseLanguage.structure.ExpressionStatement" flags="nn" index="3clFbF">
        <child id="1068580123156" name="expression" index="3clFbG" />
      </concept>
      <concept id="1068580123159" name="jetbrains.mps.baseLanguage.structure.IfStatement" flags="nn" index="3clFbJ">
        <child id="1068580123160" name="condition" index="3clFbw" />
        <child id="1068580123161" name="ifTrue" index="3clFbx" />
      </concept>
      <concept id="1068580123136" name="jetbrains.mps.baseLanguage.structure.StatementList" flags="sn" stub="5293379017992965193" index="3clFbS">
        <child id="1068581517665" name="statement" index="3cqZAp" />
      </concept>
      <concept id="1068580123140" name="jetbrains.mps.baseLanguage.structure.ConstructorDeclaration" flags="ig" index="3clFbW" />
      <concept id="1068580320020" name="jetbrains.mps.baseLanguage.structure.IntegerConstant" flags="nn" index="3cmrfG">
        <property id="1068580320021" name="value" index="3cmrfH" />
      </concept>
      <concept id="1068581242878" name="jetbrains.mps.baseLanguage.structure.ReturnStatement" flags="nn" index="3cpWs6">
        <child id="1068581517676" name="expression" index="3cqZAk" />
      </concept>
      <concept id="1068581242864" name="jetbrains.mps.baseLanguage.structure.LocalVariableDeclarationStatement" flags="nn" index="3cpWs8">
        <child id="1068581242865" name="localVariableDeclaration" index="3cpWs9" />
      </concept>
      <concept id="1068581242863" name="jetbrains.mps.baseLanguage.structure.LocalVariableDeclaration" flags="nr" index="3cpWsn" />
      <concept id="1068581517677" name="jetbrains.mps.baseLanguage.structure.VoidType" flags="in" index="3cqZAl" />
      <concept id="1079359253375" name="jetbrains.mps.baseLanguage.structure.ParenthesizedExpression" flags="nn" index="1eOMI4">
        <child id="1079359253376" name="expression" index="1eOMHV" />
      </concept>
      <concept id="1204053956946" name="jetbrains.mps.baseLanguage.structure.IMethodCall" flags="ng" index="1ndlxa">
        <reference id="1068499141037" name="baseMethodDeclaration" index="37wK5l" />
        <child id="1068499141038" name="actualArgument" index="37wK5m" />
      </concept>
      <concept id="1212685548494" name="jetbrains.mps.baseLanguage.structure.ClassCreator" flags="nn" index="1pGfFk" />
      <concept id="1107461130800" name="jetbrains.mps.baseLanguage.structure.Classifier" flags="ng" index="3pOWGL">
        <child id="5375687026011219971" name="member" index="jymVt" unordered="true" />
      </concept>
      <concept id="1107535904670" name="jetbrains.mps.baseLanguage.structure.ClassifierType" flags="in" index="3uibUv">
        <reference id="1107535924139" name="classifier" index="3uigEE" />
      </concept>
      <concept id="1178549954367" name="jetbrains.mps.baseLanguage.structure.IVisible" flags="ng" index="1B3ioH">
        <child id="1178549979242" name="visibility" index="1B3o_S" />
      </concept>
      <concept id="1146644602865" name="jetbrains.mps.baseLanguage.structure.PublicVisibility" flags="nn" index="3Tm1VV" />
    </language>
    <language id="b401a680-8325-4110-8fd3-84331ff25bef" name="jetbrains.mps.lang.generator">
      <concept id="1114706874351" name="jetbrains.mps.lang.generator.structure.CopySrcNodeMacro" flags="ln" index="29HgVG">
        <child id="1168024447342" name="sourceNodeQuery" index="3NFExx" />
      </concept>
      <concept id="1219952072943" name="jetbrains.mps.lang.generator.structure.DropRootRule" flags="lg" index="aNPBN">
        <reference id="1219952338328" name="applicableConcept" index="aOQi4" />
      </concept>
      <concept id="1095416546421" name="jetbrains.mps.lang.generator.structure.MappingConfiguration" flags="ig" index="bUwia">
        <child id="1219952894531" name="dropRootRule" index="aQYdv" />
        <child id="1167328349397" name="reductionMappingRule" index="3acgRq" />
        <child id="1167514678247" name="rootMappingRule" index="3lj3bC" />
      </concept>
      <concept id="1168559333462" name="jetbrains.mps.lang.generator.structure.TemplateDeclarationReference" flags="ln" index="j$656" />
      <concept id="1168619357332" name="jetbrains.mps.lang.generator.structure.RootTemplateAnnotation" flags="lg" index="n94m4">
        <reference id="1168619429071" name="applicableConcept" index="n9lRv" />
      </concept>
      <concept id="1095672379244" name="jetbrains.mps.lang.generator.structure.TemplateFragment" flags="ng" index="raruj" />
      <concept id="1722980698497626400" name="jetbrains.mps.lang.generator.structure.ITemplateCall" flags="ng" index="v9R3L">
        <reference id="1722980698497626483" name="template" index="v9R2y" />
      </concept>
      <concept id="1167168920554" name="jetbrains.mps.lang.generator.structure.BaseMappingRule_Condition" flags="in" index="30G5F_" />
      <concept id="1167169188348" name="jetbrains.mps.lang.generator.structure.TemplateFunctionParameter_sourceNode" flags="nn" index="30H73N" />
      <concept id="1167169308231" name="jetbrains.mps.lang.generator.structure.BaseMappingRule" flags="ng" index="30H$t8">
        <property id="1167272244852" name="applyToConceptInheritors" index="36QftV" />
        <reference id="1167169349424" name="applicableConcept" index="30HIoZ" />
        <child id="1167169362365" name="conditionFunction" index="30HLyM" />
      </concept>
      <concept id="1092059087312" name="jetbrains.mps.lang.generator.structure.TemplateDeclaration" flags="ig" index="13MO4I">
        <reference id="1168285871518" name="applicableConcept" index="3gUMe" />
        <child id="1092060348987" name="contentNode" index="13RCb5" />
      </concept>
      <concept id="1087833241328" name="jetbrains.mps.lang.generator.structure.PropertyMacro" flags="ln" index="17Uvod">
        <child id="1167756362303" name="propertyValueFunction" index="3zH0cK" />
      </concept>
      <concept id="1167327847730" name="jetbrains.mps.lang.generator.structure.Reduction_MappingRule" flags="lg" index="3aamgX">
        <child id="1169672767469" name="ruleConsequence" index="1lVwrX" />
      </concept>
      <concept id="1167514355419" name="jetbrains.mps.lang.generator.structure.Root_MappingRule" flags="lg" index="3lhOvk">
        <reference id="1167514355421" name="template" index="3lhOvi" />
      </concept>
      <concept id="1167756080639" name="jetbrains.mps.lang.generator.structure.PropertyMacro_GetPropertyValue" flags="in" index="3zFVjK" />
      <concept id="1167951910403" name="jetbrains.mps.lang.generator.structure.SourceSubstituteMacro_SourceNodesQuery" flags="in" index="3JmXsc" />
      <concept id="1168024337012" name="jetbrains.mps.lang.generator.structure.SourceSubstituteMacro_SourceNodeQuery" flags="in" index="3NFfHV" />
      <concept id="1118786554307" name="jetbrains.mps.lang.generator.structure.LoopMacro" flags="ln" index="1WS0z7">
        <child id="1167952069335" name="sourceNodesQuery" index="3Jn$fo" />
      </concept>
    </language>
    <language id="d7706f63-9be2-479c-a3da-ae92af1e64d5" name="jetbrains.mps.lang.generator.generationContext">
      <concept id="1216860049635" name="jetbrains.mps.lang.generator.generationContext.structure.TemplateFunctionParameter_generationContext" flags="nn" index="1iwH7S" />
      <concept id="1217004708011" name="jetbrains.mps.lang.generator.generationContext.structure.GenerationContextOp_GetInputModel" flags="nn" index="1r8y6K" />
    </language>
    <language id="7a5dda62-9140-4668-ab76-d5ed1746f2b2" name="jetbrains.mps.lang.typesystem">
      <concept id="1176544042499" name="jetbrains.mps.lang.typesystem.structure.Node_TypeOperation" flags="nn" index="3JvlWi" />
    </language>
    <language id="df345b11-b8c7-4213-ac66-48d2a9b75d88" name="jetbrains.mps.baseLanguageInternal">
      <concept id="1173990517731" name="jetbrains.mps.baseLanguageInternal.structure.InternalStaticMethodCall" flags="nn" index="1niqFM">
        <property id="1173992444083" name="methodName" index="1npL6y" />
        <property id="1173992483054" name="fqClassName" index="1npUBZ" />
        <child id="319021450862604085" name="actualArgument" index="2U24H$" />
        <child id="1175794062018" name="returnType" index="32Mpfj" />
      </concept>
    </language>
    <language id="7866978e-a0f0-4cc7-81bc-4d213d9375e1" name="jetbrains.mps.lang.smodel">
      <concept id="1179409122411" name="jetbrains.mps.lang.smodel.structure.Node_ConceptMethodCall" flags="nn" index="2qgKlT" />
      <concept id="2396822768958367367" name="jetbrains.mps.lang.smodel.structure.AbstractTypeCastExpression" flags="nn" index="$5XWr">
        <reference id="6733348108486823428" name="concept" index="1m5ApE" />
        <child id="6733348108486823193" name="leftExpression" index="1m5AlR" />
      </concept>
      <concept id="1143234257716" name="jetbrains.mps.lang.smodel.structure.Node_GetModelOperation" flags="nn" index="I4A8Y" />
      <concept id="1145404486709" name="jetbrains.mps.lang.smodel.structure.SemanticDowncastExpression" flags="nn" index="2JrnkZ">
        <child id="1145404616321" name="leftExpression" index="2JrQYb" />
      </concept>
      <concept id="1139613262185" name="jetbrains.mps.lang.smodel.structure.Node_GetParentOperation" flags="nn" index="1mfA1w" />
      <concept id="1140137987495" name="jetbrains.mps.lang.smodel.structure.SNodeTypeCastExpression" flags="nn" index="1PxgMI" />
      <concept id="1138055754698" name="jetbrains.mps.lang.smodel.structure.SNodeType" flags="in" index="3Tqbb2">
        <reference id="1138405853777" name="concept" index="ehGHo" />
      </concept>
      <concept id="1138056022639" name="jetbrains.mps.lang.smodel.structure.SPropertyAccess" flags="nn" index="3TrcHB">
        <reference id="1138056395725" name="property" index="3TsBF5" />
      </concept>
      <concept id="1138056143562" name="jetbrains.mps.lang.smodel.structure.SLinkAccess" flags="nn" index="3TrEf2">
        <reference id="1138056516764" name="link" index="3Tt5mk" />
      </concept>
      <concept id="1138056282393" name="jetbrains.mps.lang.smodel.structure.SLinkListAccess" flags="nn" index="3Tsc0h">
        <reference id="1138056546658" name="link" index="3TtcxE" />
      </concept>
    </language>
    <language id="ceab5195-25ea-4f22-9b92-103b95ca8c0c" name="jetbrains.mps.lang.core">
      <concept id="1133920641626" name="jetbrains.mps.lang.core.structure.BaseConcept" flags="ng" index="2VYdi">
        <child id="5169995583184591170" name="smodelAttribute" index="lGtFl" />
      </concept>
      <concept id="3364660638048049750" name="jetbrains.mps.lang.core.structure.PropertyAttribute" flags="ng" index="A9Btg">
        <property id="1757699476691236117" name="propertyName" index="2qtEX9" />
        <property id="1341860900487648621" name="propertyId" index="P4ACc" />
      </concept>
      <concept id="1169194658468" name="jetbrains.mps.lang.core.structure.INamedConcept" flags="ng" index="TrEIO">
        <property id="1169194664001" name="name" index="TrG5h" />
      </concept>
    </language>
  </registry>
  <node concept="bUwia" id="5MF4VwFY_A0">
    <property role="TrG5h" value="main" />
    <node concept="aNPBN" id="6oKb3MdYqO0" role="aQYdv">
      <ref role="aOQi4" to="vgj4:6oKb3MdXML9" resolve="ContainerImport" />
    </node>
    <node concept="3aamgX" id="2G6PgZGL8gP" role="3acgRq">
      <property role="36QftV" value="true" />
      <ref role="30HIoZ" to="tpee:fJuHJVf" resolve="BinaryOperation" />
      <node concept="30G5F_" id="2G6PgZGLece" role="30HLyM">
        <node concept="3clFbS" id="2G6PgZGLecf" role="2VODD2">
          <node concept="3cpWs6" id="6oKb3MdZbg5" role="3cqZAp">
            <node concept="2OqwBi" id="6oKb3MdZfqu" role="3cqZAk">
              <node concept="2ShNRf" id="6oKb3MdZbx9" role="2Oq$k0">
                <node concept="1pGfFk" id="6oKb3MdZdGx" role="2ShVmc">
                  <ref role="37wK5l" to="5q41:4nxgFhR8gP2" resolve="BinaryOperationUtil" />
                  <node concept="2OqwBi" id="6oKb3MdZeu7" role="37wK5m">
                    <node concept="1iwH7S" id="6oKb3MdZe6z" role="2Oq$k0" />
                    <node concept="1r8y6K" id="6oKb3MdZeZD" role="2OqNvi" />
                  </node>
                </node>
              </node>
              <node concept="liA8E" id="6oKb3MdZkbk" role="2OqNvi">
                <ref role="37wK5l" to="5q41:6oKb3MdZhMT" resolve="hasOverloadedOperators" />
                <node concept="30H73N" id="3ZfA410gznP" role="37wK5m" />
                <node concept="2OqwBi" id="3ZfA410gznQ" role="37wK5m">
                  <node concept="2OqwBi" id="3ZfA410gznR" role="2Oq$k0">
                    <node concept="30H73N" id="3ZfA410gznS" role="2Oq$k0" />
                    <node concept="3TrEf2" id="3ZfA410gznT" role="2OqNvi">
                      <ref role="3Tt5mk" to="tpee:fJuHU4s" />
                    </node>
                  </node>
                  <node concept="3JvlWi" id="3ZfA410gznU" role="2OqNvi" />
                </node>
                <node concept="2OqwBi" id="3ZfA410gznV" role="37wK5m">
                  <node concept="2OqwBi" id="3ZfA410gznW" role="2Oq$k0">
                    <node concept="30H73N" id="3ZfA410gznX" role="2Oq$k0" />
                    <node concept="3TrEf2" id="3ZfA410gznY" role="2OqNvi">
                      <ref role="3Tt5mk" to="tpee:fJuHU4r" />
                    </node>
                  </node>
                  <node concept="3JvlWi" id="3ZfA410gznZ" role="2OqNvi" />
                </node>
              </node>
            </node>
          </node>
        </node>
      </node>
      <node concept="j$656" id="75UE21SwCYe" role="1lVwrX">
        <ref role="v9R2y" node="2G6PgZGL8Dq" resolve="reduceOverloadedOperatorCall" />
      </node>
    </node>
    <node concept="3lhOvk" id="5MF4VwG1zuk" role="3lj3bC">
      <ref role="30HIoZ" to="vgj4:qQXsgj0h87" resolve="OverloadedOperatorContainer" />
      <ref role="3lhOvi" node="5MF4VwG11uw" resolve="OverloadedOperatorContainerImpl" />
    </node>
  </node>
  <node concept="312cEu" id="5MF4VwG11uw">
    <property role="TrG5h" value="OverloadedOperatorContainerImpl" />
    <node concept="3Tm1VV" id="5MF4VwG11ux" role="1B3o_S" />
    <node concept="n94m4" id="5MF4VwG11uA" role="lGtFl">
      <ref role="n9lRv" to="vgj4:qQXsgj0h87" resolve="OverloadedOperatorContainer" />
    </node>
    <node concept="17Uvod" id="5MF4VwG11QT" role="lGtFl">
      <property role="2qtEX9" value="name" />
      <property role="P4ACc" value="ceab5195-25ea-4f22-9b92-103b95ca8c0c/1169194658468/1169194664001" />
      <node concept="3zFVjK" id="5MF4VwG11QU" role="3zH0cK">
        <node concept="3clFbS" id="5MF4VwG11QV" role="2VODD2">
          <node concept="3clFbF" id="5MF4VwG11QW" role="3cqZAp">
            <node concept="2OqwBi" id="5MF4VwG11QY" role="3clFbG">
              <node concept="30H73N" id="5MF4VwG11QX" role="2Oq$k0" />
              <node concept="3TrcHB" id="5MF4VwG174l" role="2OqNvi">
                <ref role="3TsBF5" to="tpck:h0TrG11" resolve="name" />
              </node>
            </node>
          </node>
        </node>
      </node>
    </node>
    <node concept="3clFbW" id="5MF4VwG11uy" role="jymVt">
      <node concept="3cqZAl" id="5MF4VwG11uz" role="3clF45" />
      <node concept="3Tm1VV" id="5MF4VwG11u$" role="1B3o_S" />
      <node concept="3clFbS" id="5MF4VwG11u_" role="3clF47" />
    </node>
    <node concept="2YIFZL" id="5MF4VwG174m" role="jymVt">
      <property role="TrG5h" value="f" />
      <node concept="3cqZAl" id="5MF4VwG174n" role="3clF45">
        <node concept="29HgVG" id="5MF4VwG174W" role="lGtFl">
          <node concept="3NFfHV" id="5MF4VwG174X" role="3NFExx">
            <node concept="3clFbS" id="5MF4VwG174Y" role="2VODD2">
              <node concept="3clFbF" id="5MF4VwG174Z" role="3cqZAp">
                <node concept="2OqwBi" id="5MF4VwG1753" role="3clFbG">
                  <node concept="30H73N" id="5MF4VwG1750" role="2Oq$k0" />
                  <node concept="3TrEf2" id="5MF4VwG175a" role="2OqNvi">
                    <ref role="3Tt5mk" to="vgj4:5MF4VwFS3Cd" />
                  </node>
                </node>
              </node>
            </node>
          </node>
        </node>
      </node>
      <node concept="3Tm1VV" id="5MF4VwG174o" role="1B3o_S" />
      <node concept="3clFbS" id="5MF4VwG174p" role="3clF47">
        <node concept="29HgVG" id="5MF4VwG174r" role="lGtFl">
          <node concept="3NFfHV" id="5MF4VwG174s" role="3NFExx">
            <node concept="3clFbS" id="5MF4VwG174t" role="2VODD2">
              <node concept="3clFbF" id="5MF4VwG174u" role="3cqZAp">
                <node concept="2OqwBi" id="5MF4VwG174N" role="3clFbG">
                  <node concept="30H73N" id="5MF4VwG174v" role="2Oq$k0" />
                  <node concept="3TrEf2" id="5MF4VwG174T" role="2OqNvi">
                    <ref role="3Tt5mk" to="tpee:gyVODHa" />
                  </node>
                </node>
              </node>
            </node>
          </node>
        </node>
      </node>
      <node concept="1WS0z7" id="5MF4VwG174B" role="lGtFl">
        <node concept="3JmXsc" id="5MF4VwG174C" role="3Jn$fo">
          <node concept="3clFbS" id="5MF4VwG174D" role="2VODD2">
            <node concept="3clFbF" id="5MF4VwG174E" role="3cqZAp">
              <node concept="2OqwBi" id="5MF4VwG174G" role="3clFbG">
                <node concept="30H73N" id="5MF4VwG174F" role="2Oq$k0" />
                <node concept="3Tsc0h" id="5MF4VwG174K" role="2OqNvi">
                  <ref role="3TtcxE" to="vgj4:qQXsgj0h88" />
                </node>
              </node>
            </node>
          </node>
        </node>
      </node>
      <node concept="37vLTG" id="5MF4VwG175b" role="3clF46">
        <property role="TrG5h" value="left" />
        <node concept="10Oyi0" id="5MF4VwG175c" role="1tU5fm">
          <node concept="29HgVG" id="5MF4VwG175h" role="lGtFl">
            <node concept="3NFfHV" id="5MF4VwG175i" role="3NFExx">
              <node concept="3clFbS" id="5MF4VwG175j" role="2VODD2">
                <node concept="3clFbF" id="5MF4VwG175k" role="3cqZAp">
                  <node concept="2OqwBi" id="5MF4VwG175o" role="3clFbG">
                    <node concept="30H73N" id="5MF4VwG175l" role="2Oq$k0" />
                    <node concept="3TrEf2" id="5MF4VwG175v" role="2OqNvi">
                      <ref role="3Tt5mk" to="vgj4:5MF4VwFWPAL" />
                    </node>
                  </node>
                </node>
              </node>
            </node>
          </node>
        </node>
      </node>
      <node concept="37vLTG" id="5MF4VwG175d" role="3clF46">
        <property role="TrG5h" value="right" />
        <node concept="10Oyi0" id="5MF4VwG175f" role="1tU5fm">
          <node concept="29HgVG" id="5MF4VwG175x" role="lGtFl">
            <node concept="3NFfHV" id="5MF4VwG175y" role="3NFExx">
              <node concept="3clFbS" id="5MF4VwG175z" role="2VODD2">
                <node concept="3clFbF" id="5MF4VwG175$" role="3cqZAp">
                  <node concept="2OqwBi" id="5MF4VwG175C" role="3clFbG">
                    <node concept="30H73N" id="5MF4VwG175_" role="2Oq$k0" />
                    <node concept="3TrEf2" id="5MF4VwG175J" role="2OqNvi">
                      <ref role="3Tt5mk" to="vgj4:5MF4VwFWPAM" />
                    </node>
                  </node>
                </node>
              </node>
            </node>
          </node>
        </node>
      </node>
      <node concept="17Uvod" id="5MF4VwG175K" role="lGtFl">
        <property role="2qtEX9" value="name" />
        <property role="P4ACc" value="ceab5195-25ea-4f22-9b92-103b95ca8c0c/1169194658468/1169194664001" />
        <node concept="3zFVjK" id="5MF4VwG175L" role="3zH0cK">
          <node concept="3clFbS" id="5MF4VwG175M" role="2VODD2">
            <node concept="3clFbF" id="5MF4VwG18Ex" role="3cqZAp">
              <node concept="2OqwBi" id="5MF4VwG2xf9" role="3clFbG">
                <node concept="30H73N" id="5MF4VwG2xf6" role="2Oq$k0" />
                <node concept="2qgKlT" id="5MF4VwG2xfg" role="2OqNvi">
                  <ref role="37wK5l" to="p369:5MF4VwG2rD2" resolve="getFunctionName" />
                </node>
              </node>
            </node>
          </node>
        </node>
      </node>
    </node>
  </node>
  <node concept="13MO4I" id="2G6PgZGL8Dq">
    <property role="TrG5h" value="reduceOverloadedOperatorCall" />
    <ref role="3gUMe" to="tpee:fJuHJVf" resolve="BinaryOperation" />
    <node concept="312cEu" id="2G6PgZGL8Dv" role="13RCb5">
      <property role="TrG5h" value="F" />
      <node concept="3Tm1VV" id="2G6PgZGL8Dw" role="1B3o_S" />
      <node concept="3clFbW" id="2G6PgZGL8Dx" role="jymVt">
        <node concept="3cqZAl" id="2G6PgZGL8Dy" role="3clF45" />
        <node concept="3Tm1VV" id="2G6PgZGL8Dz" role="1B3o_S" />
        <node concept="3clFbS" id="2G6PgZGL8D$" role="3clF47" />
      </node>
      <node concept="3clFb_" id="2G6PgZGL8DD" role="jymVt">
        <property role="TrG5h" value="g" />
        <node concept="3cqZAl" id="2G6PgZGL8DE" role="3clF45" />
        <node concept="3Tm1VV" id="2G6PgZGL8DF" role="1B3o_S" />
        <node concept="3clFbS" id="2G6PgZGL8DG" role="3clF47">
          <node concept="3cpWs8" id="2G6PgZGL8DR" role="3cqZAp">
            <node concept="3cpWsn" id="2G6PgZGL8DS" role="3cpWs9">
              <property role="TrG5h" value="a" />
              <node concept="10Oyi0" id="2G6PgZGL8DT" role="1tU5fm" />
              <node concept="3cmrfG" id="2G6PgZGL8DV" role="33vP2m">
                <property role="3cmrfH" value="0" />
              </node>
            </node>
          </node>
          <node concept="3cpWs8" id="2G6PgZGL8DX" role="3cqZAp">
            <node concept="3cpWsn" id="2G6PgZGL8DY" role="3cpWs9">
              <property role="TrG5h" value="b" />
              <node concept="10Oyi0" id="2G6PgZGL8DZ" role="1tU5fm" />
              <node concept="3cmrfG" id="2G6PgZGL8E1" role="33vP2m">
                <property role="3cmrfH" value="0" />
              </node>
            </node>
          </node>
          <node concept="3clFbF" id="33Da_9PaoFo" role="3cqZAp">
            <node concept="1niqFM" id="33Da_9PaoFp" role="3clFbG">
              <property role="1npUBZ" value="classFQName" />
              <property role="1npL6y" value="methodName" />
              <node concept="37vLTw" id="3GM_nagTs5M" role="2U24H$">
                <ref role="3cqZAo" node="2G6PgZGL8DS" resolve="a" />
                <node concept="29HgVG" id="33Da_9PaoGQ" role="lGtFl">
                  <node concept="3NFfHV" id="33Da_9PaoGR" role="3NFExx">
                    <node concept="3clFbS" id="33Da_9PaoGS" role="2VODD2">
                      <node concept="3clFbF" id="6oKb3MdZTtC" role="3cqZAp">
                        <node concept="2OqwBi" id="6oKb3MdZUjd" role="3clFbG">
                          <node concept="2ShNRf" id="6oKb3MdZTt$" role="2Oq$k0">
                            <node concept="1pGfFk" id="6oKb3MdZTKJ" role="2ShVmc">
                              <ref role="37wK5l" to="5q41:4nxgFhR8gP2" resolve="BinaryOperationUtil" />
                              <node concept="2OqwBi" id="6oKb3MdZTWH" role="37wK5m">
                                <node concept="30H73N" id="6oKb3MdZTSb" role="2Oq$k0" />
                                <node concept="I4A8Y" id="6oKb3MdZUaT" role="2OqNvi" />
                              </node>
                            </node>
                          </node>
                          <node concept="liA8E" id="6oKb3MdZUuL" role="2OqNvi">
                            <ref role="37wK5l" to="5q41:6oKb3MdZuqN" resolve="getNearestOverloaded" />
                            <node concept="30H73N" id="6oKb3MdZVQM" role="37wK5m" />
                            <node concept="2OqwBi" id="6oKb3MdZVQN" role="37wK5m">
                              <node concept="2OqwBi" id="6oKb3MdZVQO" role="2Oq$k0">
                                <node concept="30H73N" id="6oKb3MdZVQP" role="2Oq$k0" />
                                <node concept="3TrEf2" id="6oKb3MdZVQQ" role="2OqNvi">
                                  <ref role="3Tt5mk" to="tpee:fJuHU4s" />
                                </node>
                              </node>
                              <node concept="3JvlWi" id="6oKb3MdZVQR" role="2OqNvi" />
                            </node>
                            <node concept="2OqwBi" id="6oKb3MdZVQS" role="37wK5m">
                              <node concept="2OqwBi" id="6oKb3MdZVQT" role="2Oq$k0">
                                <node concept="30H73N" id="6oKb3MdZVQU" role="2Oq$k0" />
                                <node concept="3TrEf2" id="6oKb3MdZVQV" role="2OqNvi">
                                  <ref role="3Tt5mk" to="tpee:fJuHU4r" />
                                </node>
                              </node>
                              <node concept="3JvlWi" id="6oKb3MdZVQW" role="2OqNvi" />
                            </node>
                          </node>
                        </node>
                      </node>
                      <node concept="3clFbJ" id="2kpoMNxbMKa" role="3cqZAp">
                        <node concept="3clFbS" id="2kpoMNxbMKb" role="3clFbx">
                          <node concept="3cpWs6" id="2kpoMNxbMKv" role="3cqZAp">
                            <node concept="2OqwBi" id="2kpoMNxbMKy" role="3cqZAk">
                              <node concept="30H73N" id="2kpoMNxbMKx" role="2Oq$k0" />
                              <node concept="3TrEf2" id="2kpoMNxbMKA" role="2OqNvi">
                                <ref role="3Tt5mk" to="tpee:fJuHU4r" />
                              </node>
                            </node>
                          </node>
                        </node>
                        <node concept="10QFUN" id="2kpoMNxbMKr" role="3clFbw">
                          <node concept="3uibUv" id="2kpoMNxbMKu" role="10QFUM">
                            <ref role="3uigEE" to="wyt6:~Boolean" resolve="Boolean" />
                          </node>
                          <node concept="1eOMI4" id="2kpoMNxbMKp" role="10QFUP">
                            <node concept="2OqwBi" id="2kpoMNxbMKf" role="1eOMHV">
                              <node concept="2JrnkZ" id="2kpoMNxbMKj" role="2Oq$k0">
                                <node concept="30H73N" id="2kpoMNxbNsM" role="2JrQYb" />
                              </node>
                              <node concept="liA8E" id="2kpoMNxbMKl" role="2OqNvi">
                                <ref role="37wK5l" to="mhbf:~SNode.getUserObject(java.lang.Object):java.lang.Object" resolve="getUserObject" />
                                <node concept="Xl_RD" id="2kpoMNxbMKm" role="37wK5m">
                                  <property role="Xl_RC" value="reversed" />
                                </node>
                              </node>
                            </node>
                          </node>
                        </node>
                      </node>
                      <node concept="3clFbF" id="33Da_9PaoGT" role="3cqZAp">
                        <node concept="2OqwBi" id="33Da_9PaoGU" role="3clFbG">
                          <node concept="30H73N" id="33Da_9PaoGV" role="2Oq$k0" />
                          <node concept="3TrEf2" id="33Da_9PaoGW" role="2OqNvi">
                            <ref role="3Tt5mk" to="tpee:fJuHU4s" />
                          </node>
                        </node>
                      </node>
                    </node>
                  </node>
                </node>
              </node>
              <node concept="37vLTw" id="3GM_nagT$GT" role="2U24H$">
                <ref role="3cqZAo" node="2G6PgZGL8DY" resolve="b" />
                <node concept="29HgVG" id="33Da_9PaoGZ" role="lGtFl">
                  <node concept="3NFfHV" id="33Da_9PaoH0" role="3NFExx">
                    <node concept="3clFbS" id="33Da_9PaoH1" role="2VODD2">
                      <node concept="3clFbF" id="6oKb3MdZWo5" role="3cqZAp">
                        <node concept="2OqwBi" id="6oKb3MdZWo6" role="3clFbG">
                          <node concept="2ShNRf" id="6oKb3MdZWo7" role="2Oq$k0">
                            <node concept="1pGfFk" id="6oKb3MdZWo8" role="2ShVmc">
                              <ref role="37wK5l" to="5q41:4nxgFhR8gP2" resolve="BinaryOperationUtil" />
                              <node concept="2OqwBi" id="6oKb3MdZWo9" role="37wK5m">
                                <node concept="30H73N" id="6oKb3MdZWoa" role="2Oq$k0" />
                                <node concept="I4A8Y" id="6oKb3MdZWob" role="2OqNvi" />
                              </node>
                            </node>
                          </node>
                          <node concept="liA8E" id="6oKb3MdZWoc" role="2OqNvi">
                            <ref role="37wK5l" to="5q41:6oKb3MdZuqN" resolve="getNearestOverloaded" />
                            <node concept="30H73N" id="6oKb3MdZWod" role="37wK5m" />
                            <node concept="2OqwBi" id="6oKb3MdZWoe" role="37wK5m">
                              <node concept="2OqwBi" id="6oKb3MdZWof" role="2Oq$k0">
                                <node concept="30H73N" id="6oKb3MdZWog" role="2Oq$k0" />
                                <node concept="3TrEf2" id="6oKb3MdZWoh" role="2OqNvi">
                                  <ref role="3Tt5mk" to="tpee:fJuHU4s" />
                                </node>
                              </node>
                              <node concept="3JvlWi" id="6oKb3MdZWoi" role="2OqNvi" />
                            </node>
                            <node concept="2OqwBi" id="6oKb3MdZWoj" role="37wK5m">
                              <node concept="2OqwBi" id="6oKb3MdZWok" role="2Oq$k0">
                                <node concept="30H73N" id="6oKb3MdZWol" role="2Oq$k0" />
                                <node concept="3TrEf2" id="6oKb3MdZWom" role="2OqNvi">
                                  <ref role="3Tt5mk" to="tpee:fJuHU4r" />
                                </node>
                              </node>
                              <node concept="3JvlWi" id="6oKb3MdZWon" role="2OqNvi" />
                            </node>
                          </node>
                        </node>
                      </node>
                      <node concept="3clFbJ" id="2kpoMNxbML3" role="3cqZAp">
                        <node concept="3clFbS" id="2kpoMNxbML4" role="3clFbx">
                          <node concept="3cpWs6" id="2kpoMNxbML5" role="3cqZAp">
                            <node concept="2OqwBi" id="2kpoMNxbML6" role="3cqZAk">
                              <node concept="30H73N" id="2kpoMNxbML7" role="2Oq$k0" />
                              <node concept="3TrEf2" id="2kpoMNxbMLl" role="2OqNvi">
                                <ref role="3Tt5mk" to="tpee:fJuHU4s" />
                              </node>
                            </node>
                          </node>
                        </node>
                        <node concept="10QFUN" id="2kpoMNxbML9" role="3clFbw">
                          <node concept="3uibUv" id="2kpoMNxbMLa" role="10QFUM">
                            <ref role="3uigEE" to="wyt6:~Boolean" resolve="Boolean" />
                          </node>
                          <node concept="1eOMI4" id="2kpoMNxbMLb" role="10QFUP">
                            <node concept="2OqwBi" id="2kpoMNxbMLc" role="1eOMHV">
                              <node concept="2JrnkZ" id="2kpoMNxbMLd" role="2Oq$k0">
                                <node concept="30H73N" id="2kpoMNxbNsN" role="2JrQYb" />
                              </node>
                              <node concept="liA8E" id="2kpoMNxbMLf" role="2OqNvi">
                                <ref role="37wK5l" to="mhbf:~SNode.getUserObject(java.lang.Object):java.lang.Object" resolve="getUserObject" />
                                <node concept="Xl_RD" id="2kpoMNxbMLg" role="37wK5m">
                                  <property role="Xl_RC" value="reversed" />
                                </node>
                              </node>
                            </node>
                          </node>
                        </node>
                      </node>
                      <node concept="3clFbF" id="2kpoMNxbMLh" role="3cqZAp">
                        <node concept="2OqwBi" id="2kpoMNxbMLi" role="3clFbG">
                          <node concept="30H73N" id="2kpoMNxbMLj" role="2Oq$k0" />
                          <node concept="3TrEf2" id="2kpoMNxbMLm" role="2OqNvi">
                            <ref role="3Tt5mk" to="tpee:fJuHU4r" />
                          </node>
                        </node>
                      </node>
                    </node>
                  </node>
                </node>
              </node>
              <node concept="33vP2l" id="33Da_9PaoFq" role="32Mpfj" />
              <node concept="raruj" id="33Da_9PaoFr" role="lGtFl" />
              <node concept="17Uvod" id="33Da_9PaoFs" role="lGtFl">
                <property role="2qtEX9" value="fqClassName" />
                <property role="P4ACc" value="df345b11-b8c7-4213-ac66-48d2a9b75d88/1173990517731/1173992483054" />
                <node concept="3zFVjK" id="33Da_9PaoFt" role="3zH0cK">
                  <node concept="3clFbS" id="33Da_9PaoFu" role="2VODD2">
                    <node concept="3cpWs8" id="33Da_9PaoFM" role="3cqZAp">
                      <node concept="3cpWsn" id="33Da_9PaoFN" role="3cpWs9">
                        <property role="TrG5h" value="op" />
                        <node concept="3Tqbb2" id="33Da_9PaoFO" role="1tU5fm">
                          <ref role="ehGHo" to="vgj4:qQXsgj0fxd" resolve="OverloadedBinaryOperator" />
                        </node>
                        <node concept="2OqwBi" id="6oKb3MdZXzd" role="33vP2m">
                          <node concept="2ShNRf" id="6oKb3MdZXze" role="2Oq$k0">
                            <node concept="1pGfFk" id="6oKb3MdZXzf" role="2ShVmc">
                              <ref role="37wK5l" to="5q41:4nxgFhR8gP2" resolve="BinaryOperationUtil" />
                              <node concept="2OqwBi" id="6oKb3MdZXzg" role="37wK5m">
                                <node concept="30H73N" id="6oKb3MdZXzh" role="2Oq$k0" />
                                <node concept="I4A8Y" id="6oKb3MdZXzi" role="2OqNvi" />
                              </node>
                            </node>
                          </node>
                          <node concept="liA8E" id="6oKb3MdZXzj" role="2OqNvi">
                            <ref role="37wK5l" to="5q41:6oKb3MdZuqN" resolve="getNearestOverloaded" />
                            <node concept="30H73N" id="6oKb3MdZXzk" role="37wK5m" />
                            <node concept="2OqwBi" id="6oKb3MdZXzl" role="37wK5m">
                              <node concept="2OqwBi" id="6oKb3MdZXzm" role="2Oq$k0">
                                <node concept="30H73N" id="6oKb3MdZXzn" role="2Oq$k0" />
                                <node concept="3TrEf2" id="6oKb3MdZXzo" role="2OqNvi">
                                  <ref role="3Tt5mk" to="tpee:fJuHU4s" />
                                </node>
                              </node>
                              <node concept="3JvlWi" id="6oKb3MdZXzp" role="2OqNvi" />
                            </node>
                            <node concept="2OqwBi" id="6oKb3MdZXzq" role="37wK5m">
                              <node concept="2OqwBi" id="6oKb3MdZXzr" role="2Oq$k0">
                                <node concept="30H73N" id="6oKb3MdZXzs" role="2Oq$k0" />
                                <node concept="3TrEf2" id="6oKb3MdZXzt" role="2OqNvi">
                                  <ref role="3Tt5mk" to="tpee:fJuHU4r" />
                                </node>
                              </node>
                              <node concept="3JvlWi" id="6oKb3MdZXzu" role="2OqNvi" />
                            </node>
                          </node>
                        </node>
                      </node>
                    </node>
                    <node concept="3clFbF" id="33Da_9PaoG4" role="3cqZAp">
                      <node concept="2OqwBi" id="33Da_9PaoG5" role="3clFbG">
                        <node concept="1PxgMI" id="33Da_9PaoG6" role="2Oq$k0">
                          <ref role="1m5ApE" to="vgj4:qQXsgj0h87" resolve="OverloadedOperatorContainer" />
                          <node concept="2OqwBi" id="33Da_9PaoG7" role="1m5AlR">
                            <node concept="37vLTw" id="3GM_nagT_O7" role="2Oq$k0">
                              <ref role="3cqZAo" node="33Da_9PaoFN" resolve="op" />
                            </node>
                            <node concept="1mfA1w" id="33Da_9PaoG9" role="2OqNvi" />
                          </node>
                        </node>
                        <node concept="2qgKlT" id="33Da_9PaoGa" role="2OqNvi">
                          <ref role="37wK5l" to="tpcu:hEwIO9y" resolve="getFqName" />
                        </node>
                      </node>
                    </node>
                  </node>
                </node>
              </node>
              <node concept="17Uvod" id="33Da_9PaoFv" role="lGtFl">
                <property role="2qtEX9" value="methodName" />
                <property role="P4ACc" value="df345b11-b8c7-4213-ac66-48d2a9b75d88/1173990517731/1173992444083" />
                <node concept="3zFVjK" id="33Da_9PaoFw" role="3zH0cK">
                  <node concept="3clFbS" id="33Da_9PaoFx" role="2VODD2">
                    <node concept="3cpWs8" id="2kpoMNxbMIp" role="3cqZAp">
                      <node concept="3cpWsn" id="2kpoMNxbMIq" role="3cpWs9">
                        <property role="TrG5h" value="op" />
                        <node concept="3Tqbb2" id="2kpoMNxbMIr" role="1tU5fm">
                          <ref role="ehGHo" to="vgj4:qQXsgj0fxd" resolve="OverloadedBinaryOperator" />
                        </node>
                        <node concept="2OqwBi" id="6oKb3MdZXTZ" role="33vP2m">
                          <node concept="2ShNRf" id="6oKb3MdZXU0" role="2Oq$k0">
                            <node concept="1pGfFk" id="6oKb3MdZXU1" role="2ShVmc">
                              <ref role="37wK5l" to="5q41:4nxgFhR8gP2" resolve="BinaryOperationUtil" />
                              <node concept="2OqwBi" id="6oKb3MdZXU2" role="37wK5m">
                                <node concept="30H73N" id="6oKb3MdZXU3" role="2Oq$k0" />
                                <node concept="I4A8Y" id="6oKb3MdZXU4" role="2OqNvi" />
                              </node>
                            </node>
                          </node>
                          <node concept="liA8E" id="6oKb3MdZXU5" role="2OqNvi">
                            <ref role="37wK5l" to="5q41:6oKb3MdZuqN" resolve="getNearestOverloaded" />
                            <node concept="30H73N" id="6oKb3MdZXU6" role="37wK5m" />
                            <node concept="2OqwBi" id="6oKb3MdZXU7" role="37wK5m">
                              <node concept="2OqwBi" id="6oKb3MdZXU8" role="2Oq$k0">
                                <node concept="30H73N" id="6oKb3MdZXU9" role="2Oq$k0" />
                                <node concept="3TrEf2" id="6oKb3MdZXUa" role="2OqNvi">
                                  <ref role="3Tt5mk" to="tpee:fJuHU4s" />
                                </node>
                              </node>
                              <node concept="3JvlWi" id="6oKb3MdZXUb" role="2OqNvi" />
                            </node>
                            <node concept="2OqwBi" id="6oKb3MdZXUc" role="37wK5m">
                              <node concept="2OqwBi" id="6oKb3MdZXUd" role="2Oq$k0">
                                <node concept="30H73N" id="6oKb3MdZXUe" role="2Oq$k0" />
                                <node concept="3TrEf2" id="6oKb3MdZXUf" role="2OqNvi">
                                  <ref role="3Tt5mk" to="tpee:fJuHU4r" />
                                </node>
                              </node>
                              <node concept="3JvlWi" id="6oKb3MdZXUg" role="2OqNvi" />
                            </node>
                          </node>
                        </node>
                      </node>
                    </node>
                    <node concept="3clFbF" id="33Da_9PaoGJ" role="3cqZAp">
                      <node concept="2OqwBi" id="33Da_9PaoGK" role="3clFbG">
                        <node concept="37vLTw" id="3GM_nagTrID" role="2Oq$k0">
                          <ref role="3cqZAo" node="2kpoMNxbMIq" resolve="op" />
                        </node>
                        <node concept="2qgKlT" id="33Da_9PaoGM" role="2OqNvi">
                          <ref role="37wK5l" to="p369:5MF4VwG2rD2" resolve="getFunctionName" />
                        </node>
                      </node>
                    </node>
                  </node>
                </node>
              </node>
            </node>
          </node>
        </node>
      </node>
    </node>
  </node>
</model>

