<?xml version="1.0" encoding="UTF-8"?>
<model ref="r:16afdd21-f72c-462f-ae60-d54c89cad9d3(jetbrains.mps.lang.traceable.operations.constraints)">
  <persistence version="9" />
  <languages>
    <use id="3f4bc5f5-c6c1-4a28-8b10-c83066ffa4a1" name="jetbrains.mps.lang.constraints" version="0" />
    <devkit ref="fbc25dd2-5da4-483a-8b19-70928e1b62d7(jetbrains.mps.devkit.general-purpose)" />
  </languages>
  <imports>
    <import index="lyxe" ref="r:1e4195e3-e1e5-4a37-8e8b-eab96753b17f(jetbrains.mps.lang.traceable.operations.structure)" />
  </imports>
  <registry />
</model>

