<?xml version="1.0" encoding="UTF-8"?>
<model ref="r:a19c7a5e-cab0-460e-b601-6f59c58fe5ce(jetbrains.mps.lang.traceable.operations.editor)">
  <persistence version="9" />
  <languages>
    <use id="18bc6592-03a6-4e29-a83a-7ff23bde13ba" name="jetbrains.mps.lang.editor" version="3" />
    <devkit ref="fbc25dd2-5da4-483a-8b19-70928e1b62d7(jetbrains.mps.devkit.general-purpose)" />
  </languages>
  <imports>
    <import index="lyxe" ref="r:1e4195e3-e1e5-4a37-8e8b-eab96753b17f(jetbrains.mps.lang.traceable.operations.structure)" />
    <import index="tpen" ref="r:00000000-0000-4000-0000-011c895902c3(jetbrains.mps.baseLanguage.editor)" />
  </imports>
  <registry>
    <language id="18bc6592-03a6-4e29-a83a-7ff23bde13ba" name="jetbrains.mps.lang.editor">
      <concept id="1071666914219" name="jetbrains.mps.lang.editor.structure.ConceptEditorDeclaration" flags="ig" index="24kQdi" />
      <concept id="1237303669825" name="jetbrains.mps.lang.editor.structure.CellLayout_Indent" flags="nn" index="l2Vlx" />
      <concept id="1080736578640" name="jetbrains.mps.lang.editor.structure.BaseEditorComponent" flags="ig" index="2wURMF">
        <child id="1080736633877" name="cellModel" index="2wV5jI" />
      </concept>
      <concept id="1186414536763" name="jetbrains.mps.lang.editor.structure.BooleanStyleSheetItem" flags="ln" index="VOi$J">
        <property id="1186414551515" name="flag" index="VOm3f" />
      </concept>
      <concept id="1381004262292414836" name="jetbrains.mps.lang.editor.structure.ICellStyle" flags="ng" index="1k5N5V">
        <reference id="1381004262292426837" name="parentStyleClass" index="1k5W1q" />
      </concept>
      <concept id="1223386653097" name="jetbrains.mps.lang.editor.structure.StrikeOutStyleSheet" flags="ln" index="3nxI2P" />
      <concept id="1215007762405" name="jetbrains.mps.lang.editor.structure.FloatStyleClassItem" flags="ln" index="3$6MrZ">
        <property id="1215007802031" name="value" index="3$6WeP" />
      </concept>
      <concept id="1215007883204" name="jetbrains.mps.lang.editor.structure.PaddingLeftStyleClassItem" flags="ln" index="3$7fVu" />
      <concept id="1215007897487" name="jetbrains.mps.lang.editor.structure.PaddingRightStyleClassItem" flags="ln" index="3$7jql" />
      <concept id="1139848536355" name="jetbrains.mps.lang.editor.structure.CellModel_WithRole" flags="ng" index="1$h60E">
        <reference id="1140103550593" name="relationDeclaration" index="1NtTu8" />
      </concept>
      <concept id="1073389214265" name="jetbrains.mps.lang.editor.structure.EditorCellModel" flags="ng" index="3EYTF0">
        <property id="1130859485024" name="attractsFocus" index="1cu_pB" />
      </concept>
      <concept id="1073389446423" name="jetbrains.mps.lang.editor.structure.CellModel_Collection" flags="sn" stub="3013115976261988961" index="3EZMnI">
        <child id="1106270802874" name="cellLayout" index="2iSdaV" />
        <child id="1073389446424" name="childCellModel" index="3EZMnx" />
      </concept>
      <concept id="1073389577006" name="jetbrains.mps.lang.editor.structure.CellModel_Constant" flags="sn" stub="3610246225209162225" index="3F0ifn">
        <property id="1073389577007" name="text" index="3F0ifm" />
      </concept>
      <concept id="1219418625346" name="jetbrains.mps.lang.editor.structure.IStyleContainer" flags="ng" index="3F0Thp">
        <child id="1219418656006" name="styleItem" index="3F10Kt" />
      </concept>
      <concept id="1073389882823" name="jetbrains.mps.lang.editor.structure.CellModel_RefNode" flags="sg" stub="730538219795960754" index="3F1sOY" />
      <concept id="1166049232041" name="jetbrains.mps.lang.editor.structure.AbstractComponent" flags="ng" index="1XWOmA">
        <reference id="1166049300910" name="conceptDeclaration" index="1XX52x" />
      </concept>
    </language>
  </registry>
  <node concept="24kQdi" id="61oOtBBBKv3">
    <ref role="1XX52x" to="lyxe:61oOtBBBIXV" resolve="Node_CopyWithTraceOperation" />
    <node concept="3F0ifn" id="gD$rYqB" role="2wV5jI">
      <property role="1cu_pB" value="1" />
      <property role="3F0ifm" value="copy with trace" />
      <node concept="3$7fVu" id="hFJlo2Q" role="3F10Kt">
        <property role="3$6WeP" value="0.0" />
      </node>
      <node concept="3$7jql" id="hFJloTl" role="3F10Kt">
        <property role="3$6WeP" value="0.0" />
      </node>
      <node concept="3nxI2P" id="5Ex$JzqgUiT" role="3F10Kt">
        <property role="VOm3f" value="true" />
      </node>
    </node>
  </node>
  <node concept="24kQdi" id="2gx$rhdCaWd">
    <ref role="1XX52x" to="lyxe:2gx$rhdCaW7" resolve="NList_CopyWithTraceOperation" />
    <node concept="3EZMnI" id="2gx$rhdCaWf" role="2wV5jI">
      <node concept="3F0ifn" id="2gx$rhdCaWi" role="3EZMnx">
        <property role="3F0ifm" value="copy with trace" />
        <node concept="3nxI2P" id="5Ex$JzqgUh6" role="3F10Kt">
          <property role="VOm3f" value="true" />
        </node>
      </node>
      <node concept="3F0ifn" id="2gx$rhdCaWk" role="3EZMnx">
        <property role="3F0ifm" value="(" />
        <ref role="1k5W1q" to="tpen:hY9fg1G" resolve="LeftParenAfterName" />
      </node>
      <node concept="3F1sOY" id="2gx$rhdCaWm" role="3EZMnx">
        <ref role="1NtTu8" to="lyxe:2gx$rhdCaWc" />
      </node>
      <node concept="3F0ifn" id="2gx$rhdCaWo" role="3EZMnx">
        <property role="3F0ifm" value=")" />
        <ref role="1k5W1q" to="tpen:hFCSUmN" resolve="RightParen" />
      </node>
      <node concept="l2Vlx" id="2gx$rhdCaWh" role="2iSdaV" />
    </node>
  </node>
</model>

