<?xml version="1.0" encoding="UTF-8"?>
<model ref="r:b19397cd-8ff5-4952-b32f-ca4bf390ff99(jetbrains.mps.lang.traceable.operations.migration)">
  <persistence version="9" />
  <languages>
    <use id="90746344-04fd-4286-97d5-b46ae6a81709" name="jetbrains.mps.lang.migration" version="0" />
    <use id="d4615e3b-d671-4ba9-af01-2b78369b0ba7" name="jetbrains.mps.lang.pattern" version="1" />
    <use id="eba1dbb3-0bc4-4ce9-a184-05c9135353be" name="jetbrains.mps.lang.traceable.operations" version="1" />
    <use id="1a8554c4-eb84-43ba-8c34-6f0d90c6e75a" name="jetbrains.mps.lang.smodel.query" version="2" />
    <devkit ref="fbc25dd2-5da4-483a-8b19-70928e1b62d7(jetbrains.mps.devkit.general-purpose)" />
  </languages>
  <imports>
    <import index="lui2" ref="8865b7a8-5271-43d3-884c-6fd1d9cfdd34/java:org.jetbrains.mps.openapi.module(MPS.OpenAPI/)" />
    <import index="tpee" ref="r:00000000-0000-4000-0000-011c895902ca(jetbrains.mps.baseLanguage.structure)" />
    <import index="tpf3" ref="r:00000000-0000-4000-0000-011c895902f3(jetbrains.mps.lang.generator.generationContext.structure)" />
    <import index="6f4m" ref="528ff3b9-5fc4-40dd-931f-c6ce3650640e/r:f69c3fa1-0e30-4980-84e2-190ae44e4c3d(jetbrains.mps.lang.migration.runtime/jetbrains.mps.lang.migration.runtime.base)" />
    <import index="lyxe" ref="r:1e4195e3-e1e5-4a37-8e8b-eab96753b17f(jetbrains.mps.lang.traceable.operations.structure)" />
    <import index="slm6" ref="90746344-04fd-4286-97d5-b46ae6a81709/r:52a3d974-bd4f-4651-ba6e-a2de5e336d95(jetbrains.mps.lang.migration/jetbrains.mps.lang.migration.methods)" implicit="true" />
  </imports>
  <registry>
    <language id="f3061a53-9226-4cc5-a443-f952ceaf5816" name="jetbrains.mps.baseLanguage">
      <concept id="4836112446988635817" name="jetbrains.mps.baseLanguage.structure.UndefinedType" flags="in" index="2jxLKc" />
      <concept id="1465982738277781862" name="jetbrains.mps.baseLanguage.structure.PlaceholderMember" flags="ng" index="2tJIrI" />
      <concept id="1197027756228" name="jetbrains.mps.baseLanguage.structure.DotExpression" flags="nn" index="2OqwBi">
        <child id="1197027771414" name="operand" index="2Oq$k0" />
        <child id="1197027833540" name="operation" index="2OqNvi" />
      </concept>
      <concept id="1145552977093" name="jetbrains.mps.baseLanguage.structure.GenericNewExpression" flags="nn" index="2ShNRf">
        <child id="1145553007750" name="creator" index="2ShVmc" />
      </concept>
      <concept id="1070534644030" name="jetbrains.mps.baseLanguage.structure.BooleanType" flags="in" index="10P_77" />
      <concept id="1070534934090" name="jetbrains.mps.baseLanguage.structure.CastExpression" flags="nn" index="10QFUN">
        <child id="1070534934091" name="type" index="10QFUM" />
        <child id="1070534934092" name="expression" index="10QFUP" />
      </concept>
      <concept id="1068431474542" name="jetbrains.mps.baseLanguage.structure.VariableDeclaration" flags="ng" index="33uBYm">
        <child id="1068431790190" name="initializer" index="33vP2m" />
      </concept>
      <concept id="1068431790191" name="jetbrains.mps.baseLanguage.structure.Expression" flags="nn" index="33vP2n" />
      <concept id="1068498886296" name="jetbrains.mps.baseLanguage.structure.VariableReference" flags="nn" index="37vLTw">
        <reference id="1068581517664" name="variableDeclaration" index="3cqZAo" />
      </concept>
      <concept id="1068498886292" name="jetbrains.mps.baseLanguage.structure.ParameterDeclaration" flags="ir" index="37vLTG" />
      <concept id="1225271177708" name="jetbrains.mps.baseLanguage.structure.StringType" flags="in" index="17QB3L" />
      <concept id="4972933694980447171" name="jetbrains.mps.baseLanguage.structure.BaseVariableDeclaration" flags="ng" index="19Szcq">
        <child id="5680397130376446158" name="type" index="1tU5fm" />
      </concept>
      <concept id="1068580123132" name="jetbrains.mps.baseLanguage.structure.BaseMethodDeclaration" flags="ng" index="3clF44">
        <child id="1068580123133" name="returnType" index="3clF45" />
        <child id="1068580123134" name="parameter" index="3clF46" />
        <child id="1068580123135" name="body" index="3clF47" />
      </concept>
      <concept id="1068580123155" name="jetbrains.mps.baseLanguage.structure.ExpressionStatement" flags="nn" index="3clFbF">
        <child id="1068580123156" name="expression" index="3clFbG" />
      </concept>
      <concept id="1068580123136" name="jetbrains.mps.baseLanguage.structure.StatementList" flags="sn" stub="5293379017992965193" index="3clFbS">
        <child id="1068581517665" name="statement" index="3cqZAp" />
      </concept>
      <concept id="1068581242878" name="jetbrains.mps.baseLanguage.structure.ReturnStatement" flags="nn" index="3cpWs6">
        <child id="1068581517676" name="expression" index="3cqZAk" />
      </concept>
      <concept id="1068581242864" name="jetbrains.mps.baseLanguage.structure.LocalVariableDeclarationStatement" flags="nn" index="3cpWs8">
        <child id="1068581242865" name="localVariableDeclaration" index="3cpWs9" />
      </concept>
      <concept id="1068581242863" name="jetbrains.mps.baseLanguage.structure.LocalVariableDeclaration" flags="nr" index="3cpWsn" />
      <concept id="1079359253375" name="jetbrains.mps.baseLanguage.structure.ParenthesizedExpression" flags="nn" index="1eOMI4">
        <child id="1079359253376" name="expression" index="1eOMHV" />
      </concept>
      <concept id="1204053956946" name="jetbrains.mps.baseLanguage.structure.IMethodCall" flags="ng" index="1ndlxa">
        <reference id="1068499141037" name="baseMethodDeclaration" index="37wK5l" />
        <child id="1068499141038" name="actualArgument" index="37wK5m" />
      </concept>
      <concept id="1212685548494" name="jetbrains.mps.baseLanguage.structure.ClassCreator" flags="nn" index="1pGfFk" />
      <concept id="1107461130800" name="jetbrains.mps.baseLanguage.structure.Classifier" flags="ng" index="3pOWGL">
        <child id="5375687026011219971" name="member" index="jymVt" unordered="true" />
      </concept>
      <concept id="1107535904670" name="jetbrains.mps.baseLanguage.structure.ClassifierType" flags="in" index="3uibUv">
        <reference id="1107535924139" name="classifier" index="3uigEE" />
      </concept>
      <concept id="1081773326031" name="jetbrains.mps.baseLanguage.structure.BinaryOperation" flags="nn" index="3uHJSO">
        <child id="1081773367579" name="rightExpression" index="3uHU7w" />
        <child id="1081773367580" name="leftExpression" index="3uHU7B" />
      </concept>
      <concept id="1073239437375" name="jetbrains.mps.baseLanguage.structure.NotEqualsExpression" flags="nn" index="3y3z36" />
      <concept id="1178549954367" name="jetbrains.mps.baseLanguage.structure.IVisible" flags="ng" index="1B3ioH">
        <child id="1178549979242" name="visibility" index="1B3o_S" />
      </concept>
      <concept id="1208623485264" name="jetbrains.mps.baseLanguage.structure.AbstractOperation" flags="nn" index="1B$H19" />
      <concept id="1146644602865" name="jetbrains.mps.baseLanguage.structure.PublicVisibility" flags="nn" index="3Tm1VV" />
    </language>
    <language id="d4615e3b-d671-4ba9-af01-2b78369b0ba7" name="jetbrains.mps.lang.pattern">
      <concept id="1136720037777" name="jetbrains.mps.lang.pattern.structure.PatternExpression" flags="in" index="2DMOqp">
        <child id="9046399079000773837" name="pattern" index="HM535" />
      </concept>
      <concept id="1136720037779" name="jetbrains.mps.lang.pattern.structure.PatternVariableDeclaration" flags="ng" index="2DMOqr">
        <property id="1136720037780" name="varName" index="2DMOqs" />
      </concept>
    </language>
    <language id="fd392034-7849-419d-9071-12563d152375" name="jetbrains.mps.baseLanguage.closures">
      <concept id="1199569711397" name="jetbrains.mps.baseLanguage.closures.structure.ClosureLiteral" flags="nn" index="1bVj0M">
        <property id="890797661671409019" name="forceMultiLine" index="3yWfEV" />
        <child id="1199569906740" name="parameter" index="1bW2Oz" />
        <child id="1199569916463" name="body" index="1bW5cS" />
      </concept>
    </language>
    <language id="c7d5b9dd-a05f-4be2-bc73-f2e16994cc67" name="jetbrains.mps.baseLanguage.lightweightdsl">
      <concept id="8880393040217246788" name="jetbrains.mps.baseLanguage.lightweightdsl.structure.MethodParameterInstance" flags="ig" index="ffn8J">
        <reference id="8880393040217294897" name="decl" index="ffrpq" />
      </concept>
      <concept id="3751132065236767083" name="jetbrains.mps.baseLanguage.lightweightdsl.structure.DependentTypeInstance" flags="ig" index="q3mfm">
        <reference id="3751132065236767084" name="decl" index="q3mfh" />
        <reference id="9097849371505568270" name="point" index="1QQUv3" />
      </concept>
      <concept id="3751132065236767060" name="jetbrains.mps.baseLanguage.lightweightdsl.structure.MethodInstance" flags="ig" index="q3mfD">
        <reference id="19209059688387895" name="decl" index="2VtyIY" />
      </concept>
      <concept id="6478870542308708689" name="jetbrains.mps.baseLanguage.lightweightdsl.structure.PropertyInstance" flags="ig" index="3tT0cZ">
        <reference id="8585153554445465961" name="decl" index="25KYV2" />
      </concept>
      <concept id="6478870542308703666" name="jetbrains.mps.baseLanguage.lightweightdsl.structure.MemberPlaceholder" flags="ng" index="3tTeZs">
        <property id="6478870542308703667" name="caption" index="3tTeZt" />
        <reference id="6478870542308703669" name="decl" index="3tTeZr" />
      </concept>
      <concept id="6478870542308871875" name="jetbrains.mps.baseLanguage.lightweightdsl.structure.BooleanPropertyInstance" flags="ig" index="3tYpMH">
        <property id="6478870542308871876" name="value" index="3tYpME" />
      </concept>
      <concept id="6478870542308871428" name="jetbrains.mps.baseLanguage.lightweightdsl.structure.StringPropertyInstance" flags="ig" index="3tYpXE">
        <property id="6478870542308871429" name="value" index="3tYpXF" />
      </concept>
    </language>
    <language id="3a13115c-633c-4c5c-bbcc-75c4219e9555" name="jetbrains.mps.lang.quotation">
      <concept id="1196350785113" name="jetbrains.mps.lang.quotation.structure.Quotation" flags="nn" index="2c44tf">
        <child id="1196350785114" name="quotedNode" index="2c44tc" />
      </concept>
      <concept id="5455284157994012186" name="jetbrains.mps.lang.quotation.structure.NodeBuilderInitLink" flags="ng" index="2pIpSj">
        <reference id="5455284157994012188" name="link" index="2pIpSl" />
      </concept>
      <concept id="5455284157993911097" name="jetbrains.mps.lang.quotation.structure.NodeBuilderInitPart" flags="ng" index="2pJxcK">
        <child id="5455284157993911094" name="expression" index="2pJxcZ" />
      </concept>
      <concept id="5455284157993863837" name="jetbrains.mps.lang.quotation.structure.NodeBuilder" flags="nn" index="2pJPEk">
        <child id="5455284157993863838" name="quotedNode" index="2pJPEn" />
      </concept>
      <concept id="5455284157993863840" name="jetbrains.mps.lang.quotation.structure.NodeBuilderNode" flags="nn" index="2pJPED">
        <reference id="5455284157993910961" name="concept" index="2pJxaS" />
        <child id="5455284157993911099" name="values" index="2pJxcM" />
      </concept>
      <concept id="8182547171709752110" name="jetbrains.mps.lang.quotation.structure.NodeBuilderExpression" flags="nn" index="36biLy">
        <child id="8182547171709752112" name="expression" index="36biLW" />
      </concept>
    </language>
    <language id="eba1dbb3-0bc4-4ce9-a184-05c9135353be" name="jetbrains.mps.lang.traceable.operations">
      <concept id="2603522263179374343" name="jetbrains.mps.lang.traceable.operations.structure.NList_CopyWithTraceOperation" flags="nn" index="1DwjUN">
        <child id="2603522263179374348" name="argument" index="1DwjUS" />
      </concept>
    </language>
    <language id="7866978e-a0f0-4cc7-81bc-4d213d9375e1" name="jetbrains.mps.lang.smodel">
      <concept id="1177026924588" name="jetbrains.mps.lang.smodel.structure.RefConcept_Reference" flags="nn" index="chp4Y">
        <reference id="1177026940964" name="conceptDeclaration" index="cht4Q" />
      </concept>
      <concept id="1171310072040" name="jetbrains.mps.lang.smodel.structure.Node_GetContainingRootOperation" flags="nn" index="2Rxl7S" />
      <concept id="1139621453865" name="jetbrains.mps.lang.smodel.structure.Node_IsInstanceOfOperation" flags="nn" index="1mIQ4w">
        <child id="1177027386292" name="conceptArgument" index="cj9EA" />
      </concept>
      <concept id="1219352745532" name="jetbrains.mps.lang.smodel.structure.NodeRefExpression" flags="nn" index="3B5_sB">
        <reference id="1219352800908" name="referentNode" index="3B5MYn" />
      </concept>
      <concept id="1138055754698" name="jetbrains.mps.lang.smodel.structure.SNodeType" flags="in" index="3Tqbb2">
        <reference id="1138405853777" name="concept" index="ehGHo" />
      </concept>
      <concept id="1138056143562" name="jetbrains.mps.lang.smodel.structure.SLinkAccess" flags="nn" index="3TrEf2">
        <reference id="1138056516764" name="link" index="3Tt5mk" />
      </concept>
    </language>
    <language id="ceab5195-25ea-4f22-9b92-103b95ca8c0c" name="jetbrains.mps.lang.core">
      <concept id="1133920641626" name="jetbrains.mps.lang.core.structure.BaseConcept" flags="ng" index="2VYdi">
        <child id="5169995583184591170" name="smodelAttribute" index="lGtFl" />
      </concept>
      <concept id="1169194658468" name="jetbrains.mps.lang.core.structure.INamedConcept" flags="ng" index="TrEIO">
        <property id="1169194664001" name="name" index="TrG5h" />
      </concept>
    </language>
    <language id="90746344-04fd-4286-97d5-b46ae6a81709" name="jetbrains.mps.lang.migration">
      <concept id="7527743013695058339" name="jetbrains.mps.lang.migration.structure.NodePatternVariableReference" flags="ng" index="1bNLJ0">
        <reference id="7527743013695058340" name="declaration" index="1bNLJ7" />
      </concept>
      <concept id="5636302460526173897" name="jetbrains.mps.lang.migration.structure.TransformStatement" flags="ng" index="3SqFnK">
        <child id="5636302460526173936" name="consequence" index="3SqFn9" />
        <child id="5636302460526173940" name="precondition" index="3SqFnd" />
        <child id="5636302460526173934" name="pattern" index="3SqFnn" />
      </concept>
      <concept id="5636302460526210743" name="jetbrains.mps.lang.migration.structure.ConsequenceFunction" flags="ng" index="3SqKme" />
      <concept id="8352104482584315555" name="jetbrains.mps.lang.migration.structure.MigrationScript" flags="ig" index="3SyAh_">
        <property id="5820409521797704727" name="fromVersion" index="qMTe8" />
      </concept>
    </language>
    <language id="1a8554c4-eb84-43ba-8c34-6f0d90c6e75a" name="jetbrains.mps.lang.smodel.query">
      <concept id="7738379549910147341" name="jetbrains.mps.lang.smodel.query.structure.InstancesExpression" flags="ng" index="qVDSY">
        <child id="7738379549910147342" name="conceptArg" index="qVDSX" />
      </concept>
      <concept id="4234138103881610891" name="jetbrains.mps.lang.smodel.query.structure.WithStatement" flags="ng" index="L3pyB">
        <child id="4234138103881610935" name="scope" index="L3pyr" />
        <child id="4234138103881610892" name="stmts" index="L3pyw" />
      </concept>
      <concept id="4307205004131544317" name="jetbrains.mps.lang.smodel.query.structure.QueryExpression" flags="ng" index="1dNuzs">
        <child id="4307205004132279624" name="parameter" index="1dOa5D" />
      </concept>
      <concept id="4307205004132277753" name="jetbrains.mps.lang.smodel.query.structure.QueryParameterList" flags="ng" index="1dO9Bo" />
    </language>
    <language id="83888646-71ce-4f1c-9c53-c54016f6ad4f" name="jetbrains.mps.baseLanguage.collections">
      <concept id="1204796164442" name="jetbrains.mps.baseLanguage.collections.structure.InternalSequenceOperation" flags="nn" index="23sCx2">
        <child id="1204796294226" name="closure" index="23t8la" />
      </concept>
      <concept id="540871147943773365" name="jetbrains.mps.baseLanguage.collections.structure.SingleArgumentSequenceOperation" flags="nn" index="25WWJ4">
        <child id="540871147943773366" name="argument" index="25WWJ7" />
      </concept>
      <concept id="1151688443754" name="jetbrains.mps.baseLanguage.collections.structure.ListType" flags="in" index="_YKpA">
        <child id="1151688676805" name="elementType" index="_ZDj9" />
      </concept>
      <concept id="1151689724996" name="jetbrains.mps.baseLanguage.collections.structure.SequenceType" flags="in" index="A3Dl8">
        <child id="1151689745422" name="elementType" index="A3Ik2" />
      </concept>
      <concept id="1237721394592" name="jetbrains.mps.baseLanguage.collections.structure.AbstractContainerCreator" flags="nn" index="HWqM0">
        <child id="1237721435807" name="elementType" index="HW$YZ" />
      </concept>
      <concept id="1203518072036" name="jetbrains.mps.baseLanguage.collections.structure.SmartClosureParameterDeclaration" flags="ig" index="Rh6nW" />
      <concept id="1160600644654" name="jetbrains.mps.baseLanguage.collections.structure.ListCreatorWithInit" flags="nn" index="Tc6Ow" />
      <concept id="1160666733551" name="jetbrains.mps.baseLanguage.collections.structure.AddAllElementsOperation" flags="nn" index="X8dFx" />
      <concept id="1202120902084" name="jetbrains.mps.baseLanguage.collections.structure.WhereOperation" flags="nn" index="3zZkjj" />
      <concept id="1202128969694" name="jetbrains.mps.baseLanguage.collections.structure.SelectOperation" flags="nn" index="3$u5V9" />
    </language>
  </registry>
  <node concept="3SyAh_" id="7Uml8TvjNgk">
    <property role="qMTe8" value="0" />
    <property role="TrG5h" value="ReplaceNodeOperationsWithGenContextOp" />
    <node concept="3Tm1VV" id="7Uml8TvjNgl" role="1B3o_S" />
    <node concept="3tTeZs" id="7Uml8TvjNgn" role="jymVt">
      <property role="3tTeZt" value="&lt;no execute after&gt;" />
      <ref role="3tTeZr" to="slm6:7ay_HjIMt1a" resolve="execute after" />
    </node>
    <node concept="3tTeZs" id="7Uml8TvjNgo" role="jymVt">
      <property role="3tTeZt" value="&lt;no required data&gt;" />
      <ref role="3tTeZr" to="slm6:3A3gNhf1WPI" resolve="requires data" />
    </node>
    <node concept="3tTeZs" id="7Uml8TvjNgp" role="jymVt">
      <property role="3tTeZt" value="&lt;no produced data&gt;" />
      <ref role="3tTeZr" to="slm6:536fTXa4WHO" resolve="produces data" />
    </node>
    <node concept="2tJIrI" id="7Uml8TvjNgq" role="jymVt" />
    <node concept="3tYpXE" id="7Uml8TvjNja" role="jymVt">
      <property role="TrG5h" value="description" />
      <property role="3tYpXF" value="Replace SNode 'copy with trace' operations with genContext counterpart" />
      <ref role="25KYV2" to="slm6:1_lSsE3RFpE" resolve="description" />
      <node concept="3Tm1VV" id="7Uml8TvjNjc" role="1B3o_S" />
      <node concept="17QB3L" id="7Uml8TvjNjd" role="1tU5fm" />
    </node>
    <node concept="q3mfD" id="7Uml8TvjNgs" role="jymVt">
      <property role="TrG5h" value="execute" />
      <ref role="2VtyIY" to="slm6:4ubqdNOF9cA" resolve="execute" />
      <node concept="3Tm1VV" id="7Uml8TvjNgu" role="1B3o_S" />
      <node concept="3clFbS" id="7Uml8TvjNgw" role="3clF47">
        <node concept="3SqFnK" id="7Uml8TvjPig" role="3cqZAp">
          <node concept="2DMOqp" id="7Uml8TvjPii" role="3SqFnn">
            <node concept="2c44tf" id="7oTZmjkCrb3" role="HM535">
              <node concept="2OqwBi" id="7Uml8TvjPiS" role="2c44tc">
                <node concept="33vP2n" id="7Uml8TvjPiT" role="2Oq$k0">
                  <node concept="2DMOqr" id="7Uml8TvjPmP" role="lGtFl">
                    <property role="2DMOqs" value="operand" />
                    <property role="TrG5h" value="#aoperand" />
                  </node>
                </node>
                <node concept="1B$H19" id="7Uml8TvjPrO" role="2OqNvi">
                  <node concept="2DMOqr" id="7Uml8TvjP$J" role="lGtFl">
                    <property role="2DMOqs" value="operation" />
                  </node>
                </node>
              </node>
            </node>
          </node>
          <node concept="3SqKme" id="7Uml8TvjPBl" role="3SqFnd">
            <property role="3yWfEV" value="true" />
            <node concept="37vLTG" id="7Uml8TvjPBm" role="1bW2Oz">
              <property role="TrG5h" value="node" />
              <node concept="3Tqbb2" id="7Uml8TvjPBn" role="1tU5fm">
                <ref role="ehGHo" to="tpee:hqOqwz4" resolve="DotExpression" />
              </node>
            </node>
            <node concept="3clFbS" id="7Uml8TvjPBo" role="1bW5cS">
              <node concept="3clFbF" id="7Uml8TvjPFO" role="3cqZAp">
                <node concept="2OqwBi" id="7Uml8TvjWUQ" role="3clFbG">
                  <node concept="2OqwBi" id="7Uml8TvjPJE" role="2Oq$k0">
                    <node concept="37vLTw" id="7Uml8TvjPFN" role="2Oq$k0">
                      <ref role="3cqZAo" node="7Uml8TvjPBm" resolve="node" />
                    </node>
                    <node concept="3TrEf2" id="7Uml8TvjWGa" role="2OqNvi">
                      <ref role="3Tt5mk" to="tpee:hqOqNr4" />
                    </node>
                  </node>
                  <node concept="1mIQ4w" id="7Uml8TvjX8_" role="2OqNvi">
                    <node concept="chp4Y" id="7Uml8TvkgHr" role="cj9EA">
                      <ref role="cht4Q" to="lyxe:61oOtBBBIXV" resolve="Node_CopyWithTraceOperation" />
                    </node>
                  </node>
                </node>
              </node>
            </node>
          </node>
          <node concept="3SqKme" id="7Uml8Tvkynk" role="3SqFn9">
            <property role="3yWfEV" value="true" />
            <node concept="37vLTG" id="7Uml8Tvkynm" role="1bW2Oz">
              <property role="TrG5h" value="node" />
              <node concept="3Tqbb2" id="7Uml8Tvkynn" role="1tU5fm">
                <ref role="ehGHo" to="tpee:hqOqwz4" resolve="DotExpression" />
              </node>
            </node>
            <node concept="3clFbS" id="7Uml8Tvkyno" role="1bW5cS">
              <node concept="3clFbF" id="7Uml8Tvkywt" role="3cqZAp">
                <node concept="2pJPEk" id="7Uml8Tvkywr" role="3clFbG">
                  <node concept="2pJPED" id="7Uml8TvkyBR" role="2pJPEn">
                    <ref role="2pJxaS" to="tpee:hqOqwz4" resolve="DotExpression" />
                    <node concept="2pIpSj" id="7Uml8TvkyHd" role="2pJxcM">
                      <ref role="2pIpSl" to="tpee:hqOq$gm" />
                      <node concept="2pJPED" id="7Uml8TvkyJp" role="2pJxcZ">
                        <ref role="2pJxaS" to="tpf3:hHiwH3z" resolve="TemplateFunctionParameter_generationContext" />
                      </node>
                    </node>
                    <node concept="2pIpSj" id="7Uml8TvkyOA" role="2pJxcM">
                      <ref role="2pIpSl" to="tpee:hqOqNr4" />
                      <node concept="2pJPED" id="7Uml8TvkyQq" role="2pJxcZ">
                        <ref role="2pJxaS" to="tpf3:2cPzl2lSH22" resolve="GenerationContextOp_CopyWithTrace" />
                        <node concept="2pIpSj" id="7Uml8TvkyTr" role="2pJxcM">
                          <ref role="2pIpSl" to="tpf3:2cPzl2lSLsJ" />
                          <node concept="36biLy" id="7Uml8TvkEd9" role="2pJxcZ">
                            <node concept="1bNLJ0" id="7Uml8TvkEv5" role="36biLW">
                              <ref role="1bNLJ7" node="7Uml8TvjPmP" resolve="#operand" />
                            </node>
                          </node>
                        </node>
                      </node>
                    </node>
                  </node>
                </node>
              </node>
            </node>
          </node>
        </node>
        <node concept="3SqFnK" id="5zq8XZ50Ysb" role="3cqZAp">
          <node concept="2DMOqp" id="5zq8XZ50Ysd" role="3SqFnn">
            <node concept="2c44tf" id="7oTZmjkCrb2" role="HM535">
              <node concept="1DwjUN" id="5zq8XZ50Yx1" role="2c44tc">
                <node concept="33vP2n" id="5zq8XZ50Yx2" role="1DwjUS">
                  <node concept="2DMOqr" id="5zq8XZ50YxX" role="lGtFl">
                    <property role="2DMOqs" value="args" />
                  </node>
                </node>
              </node>
            </node>
          </node>
          <node concept="3SqKme" id="5zq8XZ50Yzf" role="3SqFn9">
            <property role="3yWfEV" value="true" />
            <node concept="37vLTG" id="5zq8XZ50Yzh" role="1bW2Oz">
              <property role="TrG5h" value="node" />
              <node concept="3Tqbb2" id="5zq8XZ50Yzi" role="1tU5fm">
                <ref role="ehGHo" to="lyxe:2gx$rhdCaW7" resolve="NList_CopyWithTraceOperation" />
              </node>
            </node>
            <node concept="3clFbS" id="5zq8XZ50Yzj" role="1bW5cS">
              <node concept="3clFbF" id="5zq8XZ50YC9" role="3cqZAp">
                <node concept="2pJPEk" id="5zq8XZ50YCb" role="3clFbG">
                  <node concept="2pJPED" id="5zq8XZ50YCc" role="2pJPEn">
                    <ref role="2pJxaS" to="tpee:hqOqwz4" resolve="DotExpression" />
                    <node concept="2pIpSj" id="5zq8XZ50YCd" role="2pJxcM">
                      <ref role="2pIpSl" to="tpee:hqOq$gm" />
                      <node concept="2pJPED" id="5zq8XZ50YCe" role="2pJxcZ">
                        <ref role="2pJxaS" to="tpf3:hHiwH3z" resolve="TemplateFunctionParameter_generationContext" />
                      </node>
                    </node>
                    <node concept="2pIpSj" id="5zq8XZ50YCf" role="2pJxcM">
                      <ref role="2pIpSl" to="tpee:hqOqNr4" />
                      <node concept="2pJPED" id="5zq8XZ50YCg" role="2pJxcZ">
                        <ref role="2pJxaS" to="tpf3:2cPzl2lSH22" resolve="GenerationContextOp_CopyWithTrace" />
                        <node concept="2pIpSj" id="5zq8XZ50YCh" role="2pJxcM">
                          <ref role="2pIpSl" to="tpf3:2cPzl2lSLsJ" />
                          <node concept="36biLy" id="5zq8XZ50YCi" role="2pJxcZ">
                            <node concept="1bNLJ0" id="5zq8XZ50YLq" role="36biLW">
                              <ref role="1bNLJ7" node="5zq8XZ50YxX" resolve="#args" />
                            </node>
                          </node>
                        </node>
                      </node>
                    </node>
                  </node>
                </node>
              </node>
            </node>
          </node>
        </node>
      </node>
      <node concept="37vLTG" id="7Uml8TvjNgy" role="3clF46">
        <property role="TrG5h" value="m" />
        <node concept="3uibUv" id="7Uml8TvjNgx" role="1tU5fm">
          <ref role="3uigEE" to="lui2:~SModule" resolve="SModule" />
        </node>
      </node>
      <node concept="q3mfm" id="7Uml8TvjNgz" role="3clF45">
        <ref role="q3mfh" to="slm6:4F5w8gPXEEe" />
        <ref role="1QQUv3" node="7Uml8TvjNgs" resolve="execute" />
      </node>
    </node>
    <node concept="3tYpMH" id="6En3ZbjssFs" role="jymVt">
      <property role="TrG5h" value="isRerunnable" />
      <property role="3tYpME" value="true" />
      <ref role="25KYV2" to="slm6:1JWcQ2VeWIs" resolve="isRerunnable" />
      <node concept="3Tm1VV" id="6En3ZbjssFu" role="1B3o_S" />
      <node concept="10P_77" id="6En3ZbjssFv" role="1tU5fm" />
    </node>
    <node concept="q3mfD" id="6En3ZbjsfFu" role="jymVt">
      <property role="TrG5h" value="check" />
      <ref role="2VtyIY" to="slm6:1JWcQ2VeXpD" resolve="check" />
      <node concept="3Tm1VV" id="6En3ZbjsfFw" role="1B3o_S" />
      <node concept="3clFbS" id="6En3ZbjsfFy" role="3clF47">
        <node concept="L3pyB" id="6En3ZbjsfXe" role="3cqZAp">
          <node concept="3clFbS" id="6En3ZbjsfXf" role="L3pyw">
            <node concept="3cpWs8" id="6En3ZbjsgDY" role="3cqZAp">
              <node concept="3cpWsn" id="6En3ZbjsgDZ" role="3cpWs9">
                <property role="TrG5h" value="result" />
                <node concept="_YKpA" id="6En3ZbjsgPV" role="1tU5fm">
                  <node concept="3uibUv" id="13xmEyWwRuu" role="_ZDj9">
                    <ref role="3uigEE" to="6f4m:3n7MNzO_IjP" resolve="Problem" />
                  </node>
                </node>
                <node concept="2ShNRf" id="6En3Zbjsh0m" role="33vP2m">
                  <node concept="Tc6Ow" id="6En3Zbjsh0g" role="2ShVmc">
                    <node concept="3uibUv" id="13xmEyWwRux" role="HW$YZ">
                      <ref role="3uigEE" to="6f4m:3n7MNzO_IjP" resolve="Problem" />
                    </node>
                  </node>
                </node>
              </node>
            </node>
            <node concept="3clFbF" id="6En3Zbjsh1H" role="3cqZAp">
              <node concept="2OqwBi" id="6En3Zbjsh9P" role="3clFbG">
                <node concept="37vLTw" id="6En3Zbjsh1F" role="2Oq$k0">
                  <ref role="3cqZAo" node="6En3ZbjsgDZ" resolve="result" />
                </node>
                <node concept="X8dFx" id="6En3ZbjshqC" role="2OqNvi">
                  <node concept="2OqwBi" id="6En3ZbjsgE0" role="25WWJ7">
                    <node concept="2OqwBi" id="61H$Q7rOmGq" role="2Oq$k0">
                      <node concept="qVDSY" id="6En3ZbjsgE1" role="2Oq$k0">
                        <node concept="1dO9Bo" id="6En3ZbjsgE2" role="1dOa5D" />
                        <node concept="chp4Y" id="6En3ZbjsgE3" role="qVDSX">
                          <ref role="cht4Q" to="lyxe:61oOtBBBIXV" resolve="Node_CopyWithTraceOperation" />
                        </node>
                      </node>
                      <node concept="3zZkjj" id="61H$Q7rO5f0" role="2OqNvi">
                        <node concept="1bVj0M" id="61H$Q7rO5f2" role="23t8la">
                          <node concept="3clFbS" id="61H$Q7rO5f3" role="1bW5cS">
                            <node concept="3clFbF" id="61H$Q7rO5q3" role="3cqZAp">
                              <node concept="3y3z36" id="61H$Q7rO6tg" role="3clFbG">
                                <node concept="3B5_sB" id="61H$Q7rO6A5" role="3uHU7w">
                                  <ref role="3B5MYn" node="7Uml8TvjNgk" resolve="ReplaceNodeOperationsWithGenContextOp" />
                                </node>
                                <node concept="2OqwBi" id="61H$Q7rO5zk" role="3uHU7B">
                                  <node concept="37vLTw" id="61H$Q7rO5q2" role="2Oq$k0">
                                    <ref role="3cqZAo" node="61H$Q7rO5f4" resolve="it" />
                                  </node>
                                  <node concept="2Rxl7S" id="61H$Q7rO5Ro" role="2OqNvi" />
                                </node>
                              </node>
                            </node>
                          </node>
                          <node concept="Rh6nW" id="61H$Q7rO5f4" role="1bW2Oz">
                            <property role="TrG5h" value="it" />
                            <node concept="2jxLKc" id="61H$Q7rO5f5" role="1tU5fm" />
                          </node>
                        </node>
                      </node>
                    </node>
                    <node concept="3$u5V9" id="6En3ZbjshHG" role="2OqNvi">
                      <node concept="1bVj0M" id="6En3ZbjshHI" role="23t8la">
                        <node concept="3clFbS" id="6En3ZbjshHJ" role="1bW5cS">
                          <node concept="3clFbF" id="6En3ZbjshHK" role="3cqZAp">
                            <node concept="1eOMI4" id="6En3ZbjshHL" role="3clFbG">
                              <node concept="10QFUN" id="6En3ZbjshHM" role="1eOMHV">
                                <node concept="2ShNRf" id="6En3ZbjshHN" role="10QFUP">
                                  <node concept="1pGfFk" id="6En3ZbjshHO" role="2ShVmc">
                                    <ref role="37wK5l" to="6f4m:6oJSkzEcOjg" resolve="DeprecatedConceptNotMigratedProblem" />
                                    <node concept="37vLTw" id="6En3ZbjshHP" role="37wK5m">
                                      <ref role="3cqZAo" node="6En3ZbjshHR" resolve="it" />
                                    </node>
                                  </node>
                                </node>
                                <node concept="3uibUv" id="13xmEyWwRFC" role="10QFUM">
                                  <ref role="3uigEE" to="6f4m:3n7MNzO_IjP" resolve="Problem" />
                                </node>
                              </node>
                            </node>
                          </node>
                        </node>
                        <node concept="Rh6nW" id="6En3ZbjshHR" role="1bW2Oz">
                          <property role="TrG5h" value="it" />
                          <node concept="2jxLKc" id="6En3ZbjshHS" role="1tU5fm" />
                        </node>
                      </node>
                    </node>
                  </node>
                </node>
              </node>
            </node>
            <node concept="3clFbF" id="6En3Zbjsixp" role="3cqZAp">
              <node concept="2OqwBi" id="6En3Zbjsixq" role="3clFbG">
                <node concept="37vLTw" id="6En3Zbjsixr" role="2Oq$k0">
                  <ref role="3cqZAo" node="6En3ZbjsgDZ" resolve="result" />
                </node>
                <node concept="X8dFx" id="6En3Zbjsixs" role="2OqNvi">
                  <node concept="2OqwBi" id="6En3Zbjsixt" role="25WWJ7">
                    <node concept="2OqwBi" id="61H$Q7rOnc8" role="2Oq$k0">
                      <node concept="qVDSY" id="6En3Zbjsixu" role="2Oq$k0">
                        <node concept="1dO9Bo" id="6En3Zbjsixv" role="1dOa5D" />
                        <node concept="chp4Y" id="6En3ZbjsiE3" role="qVDSX">
                          <ref role="cht4Q" to="lyxe:2gx$rhdCaW7" resolve="NList_CopyWithTraceOperation" />
                        </node>
                      </node>
                      <node concept="3zZkjj" id="61H$Q7rOnh4" role="2OqNvi">
                        <node concept="1bVj0M" id="61H$Q7rOnh5" role="23t8la">
                          <node concept="3clFbS" id="61H$Q7rOnh6" role="1bW5cS">
                            <node concept="3clFbF" id="61H$Q7rOnh7" role="3cqZAp">
                              <node concept="3y3z36" id="61H$Q7rOnh8" role="3clFbG">
                                <node concept="3B5_sB" id="61H$Q7rOnh9" role="3uHU7w">
                                  <ref role="3B5MYn" node="7Uml8TvjNgk" resolve="ReplaceNodeOperationsWithGenContextOp" />
                                </node>
                                <node concept="2OqwBi" id="61H$Q7rOnha" role="3uHU7B">
                                  <node concept="37vLTw" id="61H$Q7rOnhb" role="2Oq$k0">
                                    <ref role="3cqZAo" node="61H$Q7rOnhd" resolve="it" />
                                  </node>
                                  <node concept="2Rxl7S" id="61H$Q7rOnhc" role="2OqNvi" />
                                </node>
                              </node>
                            </node>
                          </node>
                          <node concept="Rh6nW" id="61H$Q7rOnhd" role="1bW2Oz">
                            <property role="TrG5h" value="it" />
                            <node concept="2jxLKc" id="61H$Q7rOnhe" role="1tU5fm" />
                          </node>
                        </node>
                      </node>
                    </node>
                    <node concept="3$u5V9" id="6En3Zbjsixx" role="2OqNvi">
                      <node concept="1bVj0M" id="6En3Zbjsixy" role="23t8la">
                        <node concept="3clFbS" id="6En3Zbjsixz" role="1bW5cS">
                          <node concept="3clFbF" id="6En3Zbjsix$" role="3cqZAp">
                            <node concept="1eOMI4" id="6En3Zbjsix_" role="3clFbG">
                              <node concept="10QFUN" id="6En3ZbjsixA" role="1eOMHV">
                                <node concept="2ShNRf" id="6En3ZbjsixB" role="10QFUP">
                                  <node concept="1pGfFk" id="6En3ZbjsixC" role="2ShVmc">
                                    <ref role="37wK5l" to="6f4m:6oJSkzEcOjg" resolve="DeprecatedConceptNotMigratedProblem" />
                                    <node concept="37vLTw" id="6En3ZbjsixD" role="37wK5m">
                                      <ref role="3cqZAo" node="6En3ZbjsixF" resolve="it" />
                                    </node>
                                  </node>
                                </node>
                                <node concept="3uibUv" id="13xmEyWwRuB" role="10QFUM">
                                  <ref role="3uigEE" to="6f4m:3n7MNzO_IjP" resolve="Problem" />
                                </node>
                              </node>
                            </node>
                          </node>
                        </node>
                        <node concept="Rh6nW" id="6En3ZbjsixF" role="1bW2Oz">
                          <property role="TrG5h" value="it" />
                          <node concept="2jxLKc" id="6En3ZbjsixG" role="1tU5fm" />
                        </node>
                      </node>
                    </node>
                  </node>
                </node>
              </node>
            </node>
            <node concept="3cpWs6" id="6En3Zbjsi0B" role="3cqZAp">
              <node concept="37vLTw" id="6En3Zbjsi1q" role="3cqZAk">
                <ref role="3cqZAo" node="6En3ZbjsgDZ" resolve="result" />
              </node>
            </node>
          </node>
          <node concept="37vLTw" id="6En3ZbjsfXI" role="L3pyr">
            <ref role="3cqZAo" node="6En3ZbjsfF$" resolve="m" />
          </node>
        </node>
      </node>
      <node concept="ffn8J" id="6En3ZbjsfF$" role="3clF46">
        <property role="TrG5h" value="m" />
        <ref role="ffrpq" to="slm6:1JWcQ2VeXI5" resolve="m" />
        <node concept="3uibUv" id="6En3ZbjsfFz" role="1tU5fm">
          <ref role="3uigEE" to="lui2:~SModule" resolve="SModule" />
        </node>
      </node>
      <node concept="A3Dl8" id="6En3ZbjsfF_" role="3clF45">
        <node concept="3uibUv" id="13xmEyWwRLT" role="A3Ik2">
          <ref role="3uigEE" to="6f4m:3n7MNzO_IjP" resolve="Problem" />
        </node>
      </node>
    </node>
  </node>
</model>

