<?xml version="1.0" encoding="UTF-8"?>
<model ref="r:6b2f78f4-2a26-4d24-a407-0f91df0625ef(jetbrains.mps.lang.editor.imageGen.testLanguage.structure)">
  <persistence version="9" />
  <languages>
    <use id="c72da2b9-7cce-4447-8389-f407dc1158b7" name="jetbrains.mps.lang.structure" version="3" />
    <use id="982eb8df-2c96-4bd7-9963-11712ea622e5" name="jetbrains.mps.lang.resources" version="2" />
    <devkit ref="fbc25dd2-5da4-483a-8b19-70928e1b62d7(jetbrains.mps.devkit.general-purpose)" />
  </languages>
  <imports>
    <import index="tpck" ref="r:00000000-0000-4000-0000-011c89590288(jetbrains.mps.lang.core.structure)" implicit="true" />
  </imports>
  <registry>
    <language id="c72da2b9-7cce-4447-8389-f407dc1158b7" name="jetbrains.mps.lang.structure">
      <concept id="6054523464626862044" name="jetbrains.mps.lang.structure.structure.AttributeInfo_IsMultiple" flags="ng" index="tn0Fv">
        <property id="6054523464626875854" name="value" index="tnX3d" />
      </concept>
      <concept id="6054523464627964745" name="jetbrains.mps.lang.structure.structure.AttributeInfo_AttributedConcept" flags="ng" index="trNpa">
        <reference id="6054523464627965081" name="concept" index="trN6q" />
      </concept>
      <concept id="2992811758677295509" name="jetbrains.mps.lang.structure.structure.AttributeInfo" flags="ng" index="M6xJ_">
        <property id="7588428831955550663" name="role" index="Hh88m" />
        <child id="7588428831947959310" name="attributed" index="EQaZv" />
        <child id="7588428831955550186" name="multiple" index="HhnKV" />
      </concept>
      <concept id="1169125787135" name="jetbrains.mps.lang.structure.structure.AbstractConceptDeclaration" flags="ig" index="PkWjJ">
        <property id="6714410169261853888" name="conceptId" index="EcuMT" />
      </concept>
      <concept id="1071489090640" name="jetbrains.mps.lang.structure.structure.ConceptDeclaration" flags="ig" index="1TIwiD">
        <reference id="1071489389519" name="extends" index="1TJDcQ" />
      </concept>
    </language>
    <language id="ceab5195-25ea-4f22-9b92-103b95ca8c0c" name="jetbrains.mps.lang.core">
      <concept id="1133920641626" name="jetbrains.mps.lang.core.structure.BaseConcept" flags="ng" index="2VYdi">
        <child id="5169995583184591170" name="smodelAttribute" index="lGtFl" />
      </concept>
      <concept id="1169194658468" name="jetbrains.mps.lang.core.structure.INamedConcept" flags="ng" index="TrEIO">
        <property id="1169194664001" name="name" index="TrG5h" />
      </concept>
    </language>
  </registry>
  <node concept="1TIwiD" id="27Aw0E1zpvG">
    <property role="TrG5h" value="ExportAsImage" />
    <property role="EcuMT" value="2442780630506641388" />
    <ref role="1TJDcQ" to="tpck:2ULFgo8_XDk" resolve="NodeAttribute" />
    <node concept="M6xJ_" id="27Aw0E1zvAS" role="lGtFl">
      <property role="Hh88m" value="exportAsImage" />
      <node concept="trNpa" id="27Aw0E1zwha" role="EQaZv">
        <ref role="trN6q" to="tpck:h0TrEE$" resolve="INamedConcept" />
      </node>
      <node concept="tn0Fv" id="27Aw0E1zwhd" role="HhnKV">
        <property role="tnX3d" value="false" />
      </node>
    </node>
  </node>
</model>

