<?xml version="1.0" encoding="UTF-8"?>
<model ref="r:6f595bf3-27c5-4410-a8f0-094e3ff4d9f0(jetbrains.mps.baseLanguage.extensionMethods.scripts)">
  <persistence version="9" />
  <languages>
    <use id="83888646-71ce-4f1c-9c53-c54016f6ad4f" name="jetbrains.mps.baseLanguage.collections" version="0" />
    <use id="0eddeefa-c2d6-4437-bc2c-de50fd4ce470" name="jetbrains.mps.lang.script" version="0" />
    <use id="7866978e-a0f0-4cc7-81bc-4d213d9375e1" name="jetbrains.mps.lang.smodel" version="4" />
    <use id="f3061a53-9226-4cc5-a443-f952ceaf5816" name="jetbrains.mps.baseLanguage" version="4" />
    <devkit ref="fbc25dd2-5da4-483a-8b19-70928e1b62d7(jetbrains.mps.devkit.general-purpose)" />
  </languages>
  <imports>
    <import index="uigu" ref="r:4f6f8ed5-c3d7-49f4-b0dd-d70029feffdf(jetbrains.mps.baseLanguage.extensionMethods.structure)" />
    <import index="tpek" ref="r:00000000-0000-4000-0000-011c895902c0(jetbrains.mps.baseLanguage.behavior)" />
    <import index="tpee" ref="r:00000000-0000-4000-0000-011c895902ca(jetbrains.mps.baseLanguage.structure)" />
    <import index="5tns" ref="r:a5509d93-a6df-4356-9363-7de4efc47849(jetbrains.mps.baseLanguage.extensionMethods.behavior)" />
    <import index="wyt6" ref="6354ebe7-c22a-4a0f-ac54-50b52ab9b065/java:java.lang(JDK/)" />
    <import index="5h2r" ref="r:e985db5c-6ba2-43f6-94fe-1b4547c2cc5c(jetbrains.mps.baseLanguage.search)" />
    <import index="fnmy" ref="r:89c0fb70-0977-4113-a076-5906f9d8630f(jetbrains.mps.baseLanguage.scopes)" />
    <import index="tpck" ref="r:00000000-0000-4000-0000-011c89590288(jetbrains.mps.lang.core.structure)" implicit="true" />
  </imports>
  <registry>
    <language id="f3061a53-9226-4cc5-a443-f952ceaf5816" name="jetbrains.mps.baseLanguage">
      <concept id="1080223426719" name="jetbrains.mps.baseLanguage.structure.OrExpression" flags="nn" index="22lmx$" />
      <concept id="1215693861676" name="jetbrains.mps.baseLanguage.structure.BaseAssignmentExpression" flags="nn" index="d038R">
        <child id="1068498886297" name="rValue" index="37vLTx" />
        <child id="1068498886295" name="lValue" index="37vLTJ" />
      </concept>
      <concept id="1202948039474" name="jetbrains.mps.baseLanguage.structure.InstanceMethodCallOperation" flags="nn" index="liA8E" />
      <concept id="1076505808687" name="jetbrains.mps.baseLanguage.structure.WhileStatement" flags="nn" index="2$JKZl">
        <child id="1076505808688" name="condition" index="2$JKZa" />
      </concept>
      <concept id="1154032098014" name="jetbrains.mps.baseLanguage.structure.AbstractLoopStatement" flags="nn" index="2LF5Ji">
        <child id="1154032183016" name="body" index="2LFqv$" />
      </concept>
      <concept id="1197027756228" name="jetbrains.mps.baseLanguage.structure.DotExpression" flags="nn" index="2OqwBi">
        <child id="1197027771414" name="operand" index="2Oq$k0" />
        <child id="1197027833540" name="operation" index="2OqNvi" />
      </concept>
      <concept id="1137021947720" name="jetbrains.mps.baseLanguage.structure.ConceptFunction" flags="in" index="2VMwT0">
        <child id="1137022507850" name="body" index="2VODD2" />
      </concept>
      <concept id="1081236700937" name="jetbrains.mps.baseLanguage.structure.StaticMethodCall" flags="nn" index="2YIFZM">
        <reference id="1144433194310" name="classConcept" index="1Pybhc" />
      </concept>
      <concept id="1070534058343" name="jetbrains.mps.baseLanguage.structure.NullLiteral" flags="nn" index="10Nm6u" />
      <concept id="1068431474542" name="jetbrains.mps.baseLanguage.structure.VariableDeclaration" flags="ng" index="33uBYm">
        <child id="1068431790190" name="initializer" index="33vP2m" />
      </concept>
      <concept id="1068498886296" name="jetbrains.mps.baseLanguage.structure.VariableReference" flags="nn" index="37vLTw">
        <reference id="1068581517664" name="variableDeclaration" index="3cqZAo" />
      </concept>
      <concept id="1068498886294" name="jetbrains.mps.baseLanguage.structure.AssignmentExpression" flags="nn" index="37vLTI" />
      <concept id="4972933694980447171" name="jetbrains.mps.baseLanguage.structure.BaseVariableDeclaration" flags="ng" index="19Szcq">
        <child id="5680397130376446158" name="type" index="1tU5fm" />
      </concept>
      <concept id="1068580123152" name="jetbrains.mps.baseLanguage.structure.EqualsExpression" flags="nn" index="3clFbC" />
      <concept id="1068580123155" name="jetbrains.mps.baseLanguage.structure.ExpressionStatement" flags="nn" index="3clFbF">
        <child id="1068580123156" name="expression" index="3clFbG" />
      </concept>
      <concept id="1068580123159" name="jetbrains.mps.baseLanguage.structure.IfStatement" flags="nn" index="3clFbJ">
        <child id="1068580123160" name="condition" index="3clFbw" />
        <child id="1068580123161" name="ifTrue" index="3clFbx" />
      </concept>
      <concept id="1068580123136" name="jetbrains.mps.baseLanguage.structure.StatementList" flags="sn" stub="5293379017992965193" index="3clFbS">
        <child id="1068581517665" name="statement" index="3cqZAp" />
      </concept>
      <concept id="1068580123137" name="jetbrains.mps.baseLanguage.structure.BooleanConstant" flags="nn" index="3clFbT">
        <property id="1068580123138" name="value" index="3clFbU" />
      </concept>
      <concept id="1068581242878" name="jetbrains.mps.baseLanguage.structure.ReturnStatement" flags="nn" index="3cpWs6">
        <child id="1068581517676" name="expression" index="3cqZAk" />
      </concept>
      <concept id="1068581242864" name="jetbrains.mps.baseLanguage.structure.LocalVariableDeclarationStatement" flags="nn" index="3cpWs8">
        <child id="1068581242865" name="localVariableDeclaration" index="3cpWs9" />
      </concept>
      <concept id="1068581242863" name="jetbrains.mps.baseLanguage.structure.LocalVariableDeclaration" flags="nr" index="3cpWsn" />
      <concept id="1079359253375" name="jetbrains.mps.baseLanguage.structure.ParenthesizedExpression" flags="nn" index="1eOMI4">
        <child id="1079359253376" name="expression" index="1eOMHV" />
      </concept>
      <concept id="1081516740877" name="jetbrains.mps.baseLanguage.structure.NotExpression" flags="nn" index="3fqX7Q">
        <child id="1081516765348" name="expression" index="3fr31v" />
      </concept>
      <concept id="1204053956946" name="jetbrains.mps.baseLanguage.structure.IMethodCall" flags="ng" index="1ndlxa">
        <reference id="1068499141037" name="baseMethodDeclaration" index="37wK5l" />
        <child id="1068499141038" name="actualArgument" index="37wK5m" />
      </concept>
      <concept id="1081773326031" name="jetbrains.mps.baseLanguage.structure.BinaryOperation" flags="nn" index="3uHJSO">
        <child id="1081773367579" name="rightExpression" index="3uHU7w" />
        <child id="1081773367580" name="leftExpression" index="3uHU7B" />
      </concept>
      <concept id="1073239437375" name="jetbrains.mps.baseLanguage.structure.NotEqualsExpression" flags="nn" index="3y3z36" />
      <concept id="1144226303539" name="jetbrains.mps.baseLanguage.structure.ForeachStatement" flags="nn" index="1DcWWT">
        <child id="1144226360166" name="iterable" index="1DdaDG" />
      </concept>
      <concept id="1144230876926" name="jetbrains.mps.baseLanguage.structure.AbstractForStatement" flags="nn" index="1DupvO">
        <child id="1144230900587" name="variable" index="1Duv9x" />
      </concept>
    </language>
    <language id="0eddeefa-c2d6-4437-bc2c-de50fd4ce470" name="jetbrains.mps.lang.script">
      <concept id="1177457067821" name="jetbrains.mps.lang.script.structure.MigrationScript" flags="ig" index="_UgoZ">
        <property id="1177457669450" name="title" index="_Wzho" />
        <property id="1206123256132" name="migrationFromBuild" index="3iz5xs" />
        <property id="1206123296179" name="category" index="3izfiF" />
        <child id="1177458178889" name="part" index="_YvDr" />
      </concept>
      <concept id="1177457850499" name="jetbrains.mps.lang.script.structure.MigrationScriptPart_Instance" flags="lg" index="_XfAh">
        <property id="1177457972041" name="description" index="_XH9r" />
        <property id="1225457189692" name="showAsIntention" index="1iWc8x" />
        <reference id="1177457957477" name="affectedInstanceConcept" index="_XDHR" />
        <child id="1177457957478" name="affectedInstancePredicate" index="_XDHO" />
        <child id="1177458005323" name="affectedInstanceUpdater" index="_XPhp" />
      </concept>
      <concept id="1177458061340" name="jetbrains.mps.lang.script.structure.MigrationScriptPart_Instance_Predicate" flags="in" index="_Y34e" />
      <concept id="1177458237937" name="jetbrains.mps.lang.script.structure.MigrationScriptPart_node" flags="nn" index="_YI3z" />
      <concept id="1177458491964" name="jetbrains.mps.lang.script.structure.MigrationScriptPart_Instance_Updater" flags="in" index="_ZGcI" />
    </language>
    <language id="7866978e-a0f0-4cc7-81bc-4d213d9375e1" name="jetbrains.mps.lang.smodel">
      <concept id="1177026924588" name="jetbrains.mps.lang.smodel.structure.RefConcept_Reference" flags="nn" index="chp4Y">
        <reference id="1177026940964" name="conceptDeclaration" index="cht4Q" />
      </concept>
      <concept id="1138411891628" name="jetbrains.mps.lang.smodel.structure.SNodeOperation" flags="nn" index="eCIE_">
        <child id="1144104376918" name="parameter" index="1xVPHs" />
      </concept>
      <concept id="1179409122411" name="jetbrains.mps.lang.smodel.structure.Node_ConceptMethodCall" flags="nn" index="2qgKlT" />
      <concept id="1173122760281" name="jetbrains.mps.lang.smodel.structure.Node_GetAncestorsOperation" flags="nn" index="z$bX8" />
      <concept id="1171407110247" name="jetbrains.mps.lang.smodel.structure.Node_GetAncestorOperation" flags="nn" index="2Xjw5R" />
      <concept id="1139613262185" name="jetbrains.mps.lang.smodel.structure.Node_GetParentOperation" flags="nn" index="1mfA1w" />
      <concept id="1139621453865" name="jetbrains.mps.lang.smodel.structure.Node_IsInstanceOfOperation" flags="nn" index="1mIQ4w">
        <child id="1177027386292" name="conceptArgument" index="cj9EA" />
      </concept>
      <concept id="1144101972840" name="jetbrains.mps.lang.smodel.structure.OperationParm_Concept" flags="ng" index="1xMEDy">
        <child id="1207343664468" name="conceptArgument" index="ri$Ld" />
      </concept>
      <concept id="1139867745658" name="jetbrains.mps.lang.smodel.structure.Node_ReplaceWithNewOperation" flags="nn" index="1_qnLN">
        <reference id="1139867957129" name="concept" index="1_rbq0" />
      </concept>
      <concept id="1138055754698" name="jetbrains.mps.lang.smodel.structure.SNodeType" flags="in" index="3Tqbb2">
        <reference id="1138405853777" name="concept" index="ehGHo" />
      </concept>
      <concept id="1138056022639" name="jetbrains.mps.lang.smodel.structure.SPropertyAccess" flags="nn" index="3TrcHB">
        <reference id="1138056395725" name="property" index="3TsBF5" />
      </concept>
      <concept id="1138056143562" name="jetbrains.mps.lang.smodel.structure.SLinkAccess" flags="nn" index="3TrEf2">
        <reference id="1138056516764" name="link" index="3Tt5mk" />
      </concept>
      <concept id="1138056282393" name="jetbrains.mps.lang.smodel.structure.SLinkListAccess" flags="nn" index="3Tsc0h">
        <reference id="1138056546658" name="link" index="3TtcxE" />
      </concept>
    </language>
    <language id="ceab5195-25ea-4f22-9b92-103b95ca8c0c" name="jetbrains.mps.lang.core">
      <concept id="1169194658468" name="jetbrains.mps.lang.core.structure.INamedConcept" flags="ng" index="TrEIO">
        <property id="1169194664001" name="name" index="TrG5h" />
      </concept>
    </language>
    <language id="83888646-71ce-4f1c-9c53-c54016f6ad4f" name="jetbrains.mps.baseLanguage.collections">
      <concept id="540871147943773365" name="jetbrains.mps.baseLanguage.collections.structure.SingleArgumentSequenceOperation" flags="nn" index="25WWJ4">
        <child id="540871147943773366" name="argument" index="25WWJ7" />
      </concept>
      <concept id="1160666733551" name="jetbrains.mps.baseLanguage.collections.structure.AddAllElementsOperation" flags="nn" index="X8dFx" />
      <concept id="1172254888721" name="jetbrains.mps.baseLanguage.collections.structure.ContainsOperation" flags="nn" index="3JPx81" />
    </language>
  </registry>
  <node concept="_UgoZ" id="6xkNu_iwnE8">
    <property role="3izfiF" value="Extension Methods" />
    <property role="_Wzho" value="Convert ExtensionMethodCall to Local" />
    <property role="TrG5h" value="ConvertExtensionMethodCallToLocal" />
    <property role="3iz5xs" value="6252" />
    <node concept="_XfAh" id="6xkNu_iwnGd" role="_YvDr">
      <property role="_XH9r" value="ConvertLocalInstanceMethodCall" />
      <property role="1iWc8x" value="true" />
      <ref role="_XDHR" to="tpee:hwliAcM" resolve="InstanceMethodCallOperation" />
      <node concept="_ZGcI" id="6xkNu_iwnGe" role="_XPhp">
        <node concept="3clFbS" id="6xkNu_iwnGf" role="2VODD2">
          <node concept="3cpWs8" id="6xkNu_iwnGg" role="3cqZAp">
            <node concept="3cpWsn" id="6xkNu_iwnGh" role="3cpWs9">
              <property role="TrG5h" value="methodCall" />
              <node concept="3Tqbb2" id="6xkNu_iwnGi" role="1tU5fm">
                <ref role="ehGHo" to="uigu:6EBM_lhyT5K" resolve="LocalExtendedMethodCall" />
              </node>
              <node concept="2OqwBi" id="6xkNu_iwnGj" role="33vP2m">
                <node concept="2OqwBi" id="6xkNu_iwnGk" role="2Oq$k0">
                  <node concept="_YI3z" id="6xkNu_iwnGl" role="2Oq$k0" />
                  <node concept="1mfA1w" id="6xkNu_iwnGm" role="2OqNvi" />
                </node>
                <node concept="1_qnLN" id="6xkNu_iwnGn" role="2OqNvi">
                  <ref role="1_rbq0" to="uigu:6EBM_lhyT5K" resolve="LocalExtendedMethodCall" />
                </node>
              </node>
            </node>
          </node>
          <node concept="3clFbF" id="6xkNu_iwnGo" role="3cqZAp">
            <node concept="37vLTI" id="6xkNu_iwnGp" role="3clFbG">
              <node concept="2OqwBi" id="6xkNu_iwnGq" role="37vLTx">
                <node concept="_YI3z" id="6xkNu_iwnGr" role="2Oq$k0" />
                <node concept="3TrEf2" id="6xkNu_iwnGs" role="2OqNvi">
                  <ref role="3Tt5mk" to="tpee:hwllgre" />
                </node>
              </node>
              <node concept="2OqwBi" id="6xkNu_iwnGt" role="37vLTJ">
                <node concept="37vLTw" id="3GM_nagTxh0" role="2Oq$k0">
                  <ref role="3cqZAo" node="6xkNu_iwnGh" resolve="methodCall" />
                </node>
                <node concept="3TrEf2" id="6xkNu_iwnIg" role="2OqNvi">
                  <ref role="3Tt5mk" to="uigu:6EBM_lhyT5L" />
                </node>
              </node>
            </node>
          </node>
          <node concept="3clFbF" id="6xkNu_iwnGw" role="3cqZAp">
            <node concept="2OqwBi" id="6xkNu_iwnGx" role="3clFbG">
              <node concept="2OqwBi" id="6xkNu_iwnGy" role="2Oq$k0">
                <node concept="37vLTw" id="3GM_nagTwLz" role="2Oq$k0">
                  <ref role="3cqZAo" node="6xkNu_iwnGh" resolve="methodCall" />
                </node>
                <node concept="3Tsc0h" id="6xkNu_iwnG$" role="2OqNvi">
                  <ref role="3TtcxE" to="tpee:fz7wK6I" />
                </node>
              </node>
              <node concept="X8dFx" id="6xkNu_iwnG_" role="2OqNvi">
                <node concept="2OqwBi" id="6xkNu_iwnGA" role="25WWJ7">
                  <node concept="_YI3z" id="6xkNu_iwnGB" role="2Oq$k0" />
                  <node concept="3Tsc0h" id="6xkNu_iwnGC" role="2OqNvi">
                    <ref role="3TtcxE" to="tpee:fz7wK6I" />
                  </node>
                </node>
              </node>
            </node>
          </node>
        </node>
      </node>
      <node concept="_Y34e" id="6xkNu_iwnGD" role="_XDHO">
        <node concept="3clFbS" id="6xkNu_iwnGE" role="2VODD2">
          <node concept="3clFbJ" id="6xkNu_iwnGF" role="3cqZAp">
            <node concept="3clFbS" id="6xkNu_iwnGG" role="3clFbx">
              <node concept="3cpWs6" id="6xkNu_iwnGH" role="3cqZAp">
                <node concept="3clFbT" id="6xkNu_iwnGI" role="3cqZAk">
                  <property role="3clFbU" value="false" />
                </node>
              </node>
            </node>
            <node concept="3fqX7Q" id="6xkNu_iwnGJ" role="3clFbw">
              <node concept="2OqwBi" id="6xkNu_iwnGK" role="3fr31v">
                <node concept="2OqwBi" id="6xkNu_iwnGL" role="2Oq$k0">
                  <node concept="_YI3z" id="6xkNu_iwnGM" role="2Oq$k0" />
                  <node concept="2qgKlT" id="6xkNu_iwnGN" role="2OqNvi">
                    <ref role="37wK5l" to="tpek:hEwIP$m" resolve="getOperand" />
                  </node>
                </node>
                <node concept="1mIQ4w" id="6xkNu_iwnGO" role="2OqNvi">
                  <node concept="chp4Y" id="6xkNu_iwnIe" role="cj9EA">
                    <ref role="cht4Q" to="uigu:2S7riql$hcN" resolve="ThisExtensionExpression" />
                  </node>
                </node>
              </node>
            </node>
          </node>
          <node concept="3cpWs8" id="6xkNu_iwnH2" role="3cqZAp">
            <node concept="3cpWsn" id="6xkNu_iwnH3" role="3cpWs9">
              <property role="TrG5h" value="declaration" />
              <node concept="3Tqbb2" id="6xkNu_iwnH4" role="1tU5fm">
                <ref role="ehGHo" to="tpee:fzclF8t" resolve="InstanceMethodDeclaration" />
              </node>
              <node concept="2OqwBi" id="6xkNu_iwnH5" role="33vP2m">
                <node concept="_YI3z" id="6xkNu_iwnH6" role="2Oq$k0" />
                <node concept="3TrEf2" id="6xkNu_iwnH7" role="2OqNvi">
                  <ref role="3Tt5mk" to="tpee:hwllgre" />
                </node>
              </node>
            </node>
          </node>
          <node concept="3cpWs8" id="6xkNu_iwnIt" role="3cqZAp">
            <node concept="3cpWsn" id="6xkNu_iwnIu" role="3cpWs9">
              <property role="TrG5h" value="classifier" />
              <node concept="3Tqbb2" id="6xkNu_iwnIv" role="1tU5fm">
                <ref role="ehGHo" to="tpee:g7pOWCK" resolve="Classifier" />
              </node>
              <node concept="2OqwBi" id="6xkNu_iwnIw" role="33vP2m">
                <node concept="2OqwBi" id="6xkNu_iwnIx" role="2Oq$k0">
                  <node concept="_YI3z" id="6xkNu_iwnII" role="2Oq$k0" />
                  <node concept="2Xjw5R" id="6xkNu_iwnIz" role="2OqNvi">
                    <node concept="1xMEDy" id="6xkNu_iwnI$" role="1xVPHs">
                      <node concept="chp4Y" id="6xkNu_iwnI_" role="ri$Ld">
                        <ref role="cht4Q" to="uigu:1m3OroNpuvT" resolve="ExtensionMethodDeclaration" />
                      </node>
                    </node>
                  </node>
                </node>
                <node concept="2qgKlT" id="6xkNu_iwnIA" role="2OqNvi">
                  <ref role="37wK5l" to="5tns:6EBM_lhz9HU" resolve="getClassifier" />
                </node>
              </node>
            </node>
          </node>
          <node concept="3clFbJ" id="6xkNu_iwnIB" role="3cqZAp">
            <node concept="3clFbS" id="6xkNu_iwnIC" role="3clFbx">
              <node concept="3cpWs6" id="6xkNu_iwnID" role="3cqZAp">
                <node concept="3clFbT" id="6xkNu_iwnIK" role="3cqZAk">
                  <property role="3clFbU" value="false" />
                </node>
              </node>
            </node>
            <node concept="3clFbC" id="6xkNu_iwnIF" role="3clFbw">
              <node concept="10Nm6u" id="6xkNu_iwnIG" role="3uHU7w" />
              <node concept="37vLTw" id="3GM_nagTydu" role="3uHU7B">
                <ref role="3cqZAo" node="6xkNu_iwnIu" resolve="classifier" />
              </node>
            </node>
          </node>
          <node concept="3cpWs8" id="6xkNu_iwnHd" role="3cqZAp">
            <node concept="3cpWsn" id="6xkNu_iwnHe" role="3cpWs9">
              <property role="TrG5h" value="declarationClassifier" />
              <node concept="3Tqbb2" id="6xkNu_iwnHf" role="1tU5fm">
                <ref role="ehGHo" to="tpee:g7pOWCK" resolve="Classifier" />
              </node>
              <node concept="2OqwBi" id="6xkNu_iwnHg" role="33vP2m">
                <node concept="37vLTw" id="3GM_nagTupD" role="2Oq$k0">
                  <ref role="3cqZAo" node="6xkNu_iwnH3" resolve="declaration" />
                </node>
                <node concept="2Xjw5R" id="6xkNu_iwnHi" role="2OqNvi">
                  <node concept="1xMEDy" id="6xkNu_iwnHj" role="1xVPHs">
                    <node concept="chp4Y" id="6xkNu_iwnHk" role="ri$Ld">
                      <ref role="cht4Q" to="tpee:g7pOWCK" resolve="Classifier" />
                    </node>
                  </node>
                </node>
              </node>
            </node>
          </node>
          <node concept="3clFbJ" id="6xkNu_iwnHl" role="3cqZAp">
            <node concept="3clFbS" id="6xkNu_iwnHm" role="3clFbx">
              <node concept="3cpWs6" id="6xkNu_iwnHn" role="3cqZAp">
                <node concept="3clFbT" id="6xkNu_iwnHo" role="3cqZAk">
                  <property role="3clFbU" value="false" />
                </node>
              </node>
            </node>
            <node concept="3fqX7Q" id="6xkNu_iwnHp" role="3clFbw">
              <node concept="1eOMI4" id="3$myXoLqlo5" role="3fr31v">
                <node concept="22lmx$" id="6xkNu_iwnHq" role="1eOMHV">
                  <node concept="3clFbC" id="6xkNu_iwnHr" role="3uHU7B">
                    <node concept="37vLTw" id="3GM_nagTx$x" role="3uHU7B">
                      <ref role="3cqZAo" node="6xkNu_iwnIu" resolve="classifier" />
                    </node>
                    <node concept="37vLTw" id="3GM_nagTyHS" role="3uHU7w">
                      <ref role="3cqZAo" node="6xkNu_iwnHe" resolve="declarationClassifier" />
                    </node>
                  </node>
                  <node concept="2OqwBi" id="6xkNu_iwnHu" role="3uHU7w">
                    <node concept="2OqwBi" id="6xkNu_iwnHv" role="2Oq$k0">
                      <node concept="37vLTw" id="3GM_nagTxcn" role="2Oq$k0">
                        <ref role="3cqZAo" node="6xkNu_iwnIu" resolve="classifier" />
                      </node>
                      <node concept="z$bX8" id="6xkNu_iwnHx" role="2OqNvi" />
                    </node>
                    <node concept="3JPx81" id="6xkNu_iwnHy" role="2OqNvi">
                      <node concept="37vLTw" id="3GM_nagTty8" role="25WWJ7">
                        <ref role="3cqZAo" node="6xkNu_iwnHe" resolve="declarationClassifier" />
                      </node>
                    </node>
                  </node>
                </node>
              </node>
            </node>
          </node>
          <node concept="2$JKZl" id="6xkNu_iwnHC" role="3cqZAp">
            <node concept="3clFbS" id="6xkNu_iwnHD" role="2LFqv$">
              <node concept="1DcWWT" id="6xkNu_iwnHE" role="3cqZAp">
                <node concept="3cpWsn" id="6xkNu_iwnHF" role="1Duv9x">
                  <property role="TrG5h" value="method" />
                  <node concept="3Tqbb2" id="6xkNu_iwnHG" role="1tU5fm">
                    <ref role="ehGHo" to="tpee:fzclF8t" resolve="InstanceMethodDeclaration" />
                  </node>
                </node>
                <node concept="3clFbS" id="6xkNu_iwnHH" role="2LFqv$">
                  <node concept="3clFbJ" id="6xkNu_iwnHI" role="3cqZAp">
                    <node concept="2OqwBi" id="6xkNu_iwnHJ" role="3clFbw">
                      <node concept="2OqwBi" id="6xkNu_iwnHK" role="2Oq$k0">
                        <node concept="37vLTw" id="3GM_nagTxAd" role="2Oq$k0">
                          <ref role="3cqZAo" node="6xkNu_iwnHF" resolve="method" />
                        </node>
                        <node concept="3TrcHB" id="6xkNu_iwnHM" role="2OqNvi">
                          <ref role="3TsBF5" to="tpck:h0TrG11" resolve="name" />
                        </node>
                      </node>
                      <node concept="liA8E" id="6xkNu_iwnHN" role="2OqNvi">
                        <ref role="37wK5l" to="wyt6:~String.equals(java.lang.Object):boolean" resolve="equals" />
                        <node concept="2OqwBi" id="6xkNu_iwnHO" role="37wK5m">
                          <node concept="37vLTw" id="3GM_nagTz8Q" role="2Oq$k0">
                            <ref role="3cqZAo" node="6xkNu_iwnH3" resolve="declaration" />
                          </node>
                          <node concept="3TrcHB" id="6xkNu_iwnHQ" role="2OqNvi">
                            <ref role="3TsBF5" to="tpck:h0TrG11" resolve="name" />
                          </node>
                        </node>
                      </node>
                    </node>
                    <node concept="3clFbS" id="6xkNu_iwnHR" role="3clFbx">
                      <node concept="3cpWs6" id="6xkNu_iwnHS" role="3cqZAp">
                        <node concept="3clFbT" id="6xkNu_iwnHT" role="3cqZAk">
                          <property role="3clFbU" value="false" />
                        </node>
                      </node>
                    </node>
                  </node>
                </node>
                <node concept="2YIFZM" id="2BGX2rDHc61" role="1DdaDG">
                  <ref role="37wK5l" to="fnmy:2BGX2rDG44e" resolve="visibleInstanceMethods" />
                  <ref role="1Pybhc" to="fnmy:2BGX2rDG2lb" resolve="Members" />
                  <node concept="2OqwBi" id="2BGX2rDHc6p" role="37wK5m">
                    <node concept="37vLTw" id="3GM_nagTwae" role="2Oq$k0">
                      <ref role="3cqZAo" node="6xkNu_iwnIu" resolve="classifier" />
                    </node>
                    <node concept="2qgKlT" id="2BGX2rDHc6v" role="2OqNvi">
                      <ref role="37wK5l" to="tpek:6r77ob2UWbY" resolve="getThisType" />
                    </node>
                  </node>
                  <node concept="_YI3z" id="2BGX2rDHc64" role="37wK5m" />
                </node>
              </node>
              <node concept="3clFbF" id="6xkNu_iwnI1" role="3cqZAp">
                <node concept="37vLTI" id="6xkNu_iwnI2" role="3clFbG">
                  <node concept="2OqwBi" id="6xkNu_iwnI3" role="37vLTx">
                    <node concept="37vLTw" id="3GM_nagTA_G" role="2Oq$k0">
                      <ref role="3cqZAo" node="6xkNu_iwnIu" resolve="classifier" />
                    </node>
                    <node concept="2Xjw5R" id="6xkNu_iwnI5" role="2OqNvi">
                      <node concept="1xMEDy" id="6xkNu_iwnI6" role="1xVPHs">
                        <node concept="chp4Y" id="6xkNu_iwnI7" role="ri$Ld">
                          <ref role="cht4Q" to="tpee:g7pOWCK" resolve="Classifier" />
                        </node>
                      </node>
                    </node>
                  </node>
                  <node concept="37vLTw" id="3GM_nagTtqs" role="37vLTJ">
                    <ref role="3cqZAo" node="6xkNu_iwnIu" resolve="classifier" />
                  </node>
                </node>
              </node>
            </node>
            <node concept="3y3z36" id="6xkNu_iwnI9" role="2$JKZa">
              <node concept="37vLTw" id="3GM_nagTttN" role="3uHU7w">
                <ref role="3cqZAo" node="6xkNu_iwnHe" resolve="declarationClassifier" />
              </node>
              <node concept="37vLTw" id="3GM_nagTu69" role="3uHU7B">
                <ref role="3cqZAo" node="6xkNu_iwnIu" resolve="classifier" />
              </node>
            </node>
          </node>
          <node concept="3cpWs6" id="6xkNu_iwnIc" role="3cqZAp">
            <node concept="3clFbT" id="6xkNu_iwnId" role="3cqZAk">
              <property role="3clFbU" value="true" />
            </node>
          </node>
        </node>
      </node>
    </node>
  </node>
</model>

