<?xml version="1.0" encoding="UTF-8"?>
<model ref="r:4f6f8ed5-c3d7-49f4-b0dd-d70029feffdf(jetbrains.mps.baseLanguage.extensionMethods.structure)">
  <persistence version="9" />
  <languages>
    <use id="c72da2b9-7cce-4447-8389-f407dc1158b7" name="jetbrains.mps.lang.structure" version="3" />
    <use id="982eb8df-2c96-4bd7-9963-11712ea622e5" name="jetbrains.mps.lang.resources" version="2" />
  </languages>
  <imports>
    <import index="tpee" ref="r:00000000-0000-4000-0000-011c895902ca(jetbrains.mps.baseLanguage.structure)" />
    <import index="tpck" ref="r:00000000-0000-4000-0000-011c89590288(jetbrains.mps.lang.core.structure)" implicit="true" />
  </imports>
  <registry>
    <language id="c72da2b9-7cce-4447-8389-f407dc1158b7" name="jetbrains.mps.lang.structure">
      <concept id="1169125787135" name="jetbrains.mps.lang.structure.structure.AbstractConceptDeclaration" flags="ig" index="PkWjJ">
        <property id="6714410169261853888" name="conceptId" index="EcuMT" />
        <property id="4628067390765907488" name="conceptShortDescription" index="R4oN_" />
        <property id="4628067390765956807" name="final" index="R5$K2" />
        <property id="4628067390765956802" name="abstract" index="R5$K7" />
        <property id="5092175715804935370" name="conceptAlias" index="34LRSv" />
        <child id="1071489727083" name="linkDeclaration" index="1TKVEi" />
      </concept>
      <concept id="1169127622168" name="jetbrains.mps.lang.structure.structure.InterfaceConceptReference" flags="ig" index="PrWs8">
        <reference id="1169127628841" name="intfc" index="PrY4T" />
      </concept>
      <concept id="1071489090640" name="jetbrains.mps.lang.structure.structure.ConceptDeclaration" flags="ig" index="1TIwiD">
        <property id="5404671619616246344" name="staticScope" index="2_RsDV" />
        <property id="1096454100552" name="rootable" index="19KtqR" />
        <reference id="1071489389519" name="extends" index="1TJDcQ" />
        <child id="1169129564478" name="implements" index="PzmwI" />
      </concept>
      <concept id="1071489288298" name="jetbrains.mps.lang.structure.structure.LinkDeclaration" flags="ig" index="1TJgyj">
        <property id="1071599776563" name="role" index="20kJfa" />
        <property id="1071599893252" name="sourceCardinality" index="20lbJX" />
        <property id="1071599937831" name="metaClass" index="20lmBu" />
        <property id="241647608299431140" name="linkId" index="IQ2ns" />
        <reference id="1071599698500" name="specializedLink" index="20ksaX" />
        <reference id="1071599976176" name="target" index="20lvS9" />
      </concept>
    </language>
    <language id="ceab5195-25ea-4f22-9b92-103b95ca8c0c" name="jetbrains.mps.lang.core">
      <concept id="1133920641626" name="jetbrains.mps.lang.core.structure.BaseConcept" flags="ng" index="2VYdi">
        <property id="1193676396447" name="virtualPackage" index="3GE5qa" />
      </concept>
      <concept id="1169194658468" name="jetbrains.mps.lang.core.structure.INamedConcept" flags="ng" index="TrEIO">
        <property id="1169194664001" name="name" index="TrG5h" />
      </concept>
    </language>
  </registry>
  <node concept="1TIwiD" id="1DaIGCE_cSg">
    <property role="R5$K7" value="false" />
    <property role="19KtqR" value="true" />
    <property role="R5$K2" value="false" />
    <property role="TrG5h" value="TypeExtension" />
    <property role="3GE5qa" value="topLevel" />
    <property role="34LRSv" value="type extension" />
    <property role="EcuMT" value="1894531970723270160" />
    <ref role="1TJDcQ" node="6XkcKt_ivkp" resolve="BaseExtensionMethodContainer" />
    <node concept="1TJgyj" id="1DaIGCE_pNY" role="1TKVEi">
      <property role="20lmBu" value="aggregation" />
      <property role="20kJfa" value="type" />
      <property role="20lbJX" value="1" />
      <property role="IQ2ns" value="1894531970723323134" />
      <ref role="20lvS9" to="tpee:fz3vP1H" resolve="Type" />
    </node>
  </node>
  <node concept="1TIwiD" id="1m3OroNmkwV">
    <property role="TrG5h" value="ExtensionMethodCall" />
    <property role="2_RsDV" value="none" />
    <property role="EcuMT" value="1550313277221324859" />
    <ref role="1TJDcQ" to="tpck:gw2VY9q" resolve="BaseConcept" />
    <node concept="1TJgyj" id="1m3OroNmkwW" role="1TKVEi">
      <property role="20lmBu" value="reference" />
      <property role="20kJfa" value="extension" />
      <property role="20lbJX" value="1" />
      <property role="IQ2ns" value="1550313277221324860" />
      <ref role="20ksaX" to="tpee:fz7wK6H" />
      <ref role="20lvS9" node="1m3OroNpuvT" resolve="ExtensionMethodDeclaration" />
    </node>
    <node concept="PrWs8" id="1m3OroNnQsi" role="PzmwI">
      <ref role="PrY4T" to="tpee:hqOqG0K" resolve="IOperation" />
    </node>
    <node concept="PrWs8" id="6u8zwmiSuka" role="PzmwI">
      <ref role="PrY4T" to="tpee:hxndl_i" resolve="IMethodCall" />
    </node>
  </node>
  <node concept="1TIwiD" id="1m3OroNpuvT">
    <property role="TrG5h" value="ExtensionMethodDeclaration" />
    <property role="EcuMT" value="1550313277222152185" />
    <ref role="1TJDcQ" to="tpee:fzclF7W" resolve="BaseMethodDeclaration" />
    <node concept="PrWs8" id="7Efh19_rOdG" role="PzmwI">
      <ref role="PrY4T" to="tpee:h9ngReX" resolve="ClassifierMember" />
    </node>
    <node concept="1TJgyj" id="6XkcKt_dOwi" role="1TKVEi">
      <property role="20lmBu" value="aggregation" />
      <property role="20kJfa" value="extendedType" />
      <property role="IQ2ns" value="8022092943109605394" />
      <ref role="20lvS9" to="tpee:fz3vP1H" resolve="Type" />
    </node>
  </node>
  <node concept="1TIwiD" id="2S7riql$hcN">
    <property role="R5$K7" value="false" />
    <property role="R5$K2" value="false" />
    <property role="TrG5h" value="ThisExtensionExpression" />
    <property role="2_RsDV" value="none" />
    <property role="34LRSv" value="this" />
    <property role="EcuMT" value="3316739663067157299" />
    <ref role="1TJDcQ" to="tpee:fz3vP1J" resolve="Expression" />
  </node>
  <node concept="1TIwiD" id="6XkcKt_cJmj">
    <property role="R5$K7" value="false" />
    <property role="19KtqR" value="true" />
    <property role="R5$K2" value="false" />
    <property role="TrG5h" value="SimpleExtensionMethodsContainer" />
    <property role="3GE5qa" value="topLevel" />
    <property role="34LRSv" value="Simple Extension Method Container" />
    <property role="EcuMT" value="8022092943109322131" />
    <ref role="1TJDcQ" node="6XkcKt_ivkp" resolve="BaseExtensionMethodContainer" />
  </node>
  <node concept="1TIwiD" id="6XkcKt_ivkp">
    <property role="R5$K7" value="true" />
    <property role="R5$K2" value="false" />
    <property role="TrG5h" value="BaseExtensionMethodContainer" />
    <property role="3GE5qa" value="topLevel" />
    <property role="EcuMT" value="8022092943110829337" />
    <ref role="1TJDcQ" to="tpee:g96eOhU" resolve="GenericDeclaration" />
    <node concept="PrWs8" id="6XkcKt_ivkq" role="PzmwI">
      <ref role="PrY4T" to="tpee:h9B3isZ" resolve="IVisible" />
    </node>
    <node concept="PrWs8" id="7sbnZIAQ9Yh" role="PzmwI">
      <ref role="PrY4T" to="tpee:hoSGL_l" resolve="IMemberContainer" />
    </node>
    <node concept="1TJgyj" id="6XkcKt_ivkr" role="1TKVEi">
      <property role="20lmBu" value="aggregation" />
      <property role="20kJfa" value="methods" />
      <property role="20lbJX" value="0..n" />
      <property role="IQ2ns" value="8022092943110829339" />
      <ref role="20lvS9" node="1m3OroNpuvT" resolve="ExtensionMethodDeclaration" />
    </node>
    <node concept="1TJgyj" id="1HybphbILLv" role="1TKVEi">
      <property role="20lmBu" value="aggregation" />
      <property role="20kJfa" value="staticFields" />
      <property role="20lbJX" value="0..n" />
      <property role="IQ2ns" value="1973189701690661983" />
      <ref role="20lvS9" node="1HybphbKaZR" resolve="ExtensionStaticFieldDeclaration" />
    </node>
  </node>
  <node concept="1TIwiD" id="1HybphbJvJ7">
    <property role="TrG5h" value="ExtensionStaticFieldReference" />
    <property role="2_RsDV" value="none" />
    <property role="EcuMT" value="1973189701690850247" />
    <ref role="1TJDcQ" to="tpee:fz7vLUo" resolve="VariableReference" />
    <node concept="1TJgyj" id="1v5QYNcnuLX" role="1TKVEi">
      <property role="20lmBu" value="reference" />
      <property role="20kJfa" value="staticFieldDeclaration" />
      <property role="20lbJX" value="1" />
      <property role="IQ2ns" value="1713017043371814013" />
      <ref role="20lvS9" node="1HybphbKaZR" resolve="ExtensionStaticFieldDeclaration" />
      <ref role="20ksaX" to="tpee:fzcqZ_w" />
    </node>
  </node>
  <node concept="1TIwiD" id="1HybphbKaZR">
    <property role="TrG5h" value="ExtensionStaticFieldDeclaration" />
    <property role="EcuMT" value="1973189701691027447" />
    <ref role="1TJDcQ" to="tpee:fz3uBXI" resolve="VariableDeclaration" />
  </node>
  <node concept="1TIwiD" id="6EBM_lhyT5K">
    <property role="R5$K7" value="false" />
    <property role="R5$K2" value="false" />
    <property role="R4oN_" value="local extended method call" />
    <property role="TrG5h" value="LocalExtendedMethodCall" />
    <property role="2_RsDV" value="none" />
    <property role="EcuMT" value="7685333756920172912" />
    <ref role="1TJDcQ" to="tpee:fz7wK6G" resolve="BaseMethodCall" />
    <node concept="1TJgyj" id="6EBM_lhyT5L" role="1TKVEi">
      <property role="20lmBu" value="reference" />
      <property role="20kJfa" value="instanceMethodDeclaration" />
      <property role="20lbJX" value="1" />
      <property role="IQ2ns" value="7685333756920172913" />
      <ref role="20ksaX" to="tpee:fz7wK6H" />
      <ref role="20lvS9" to="tpee:fzclF8t" resolve="InstanceMethodDeclaration" />
    </node>
  </node>
</model>

