<?xml version="1.0" encoding="UTF-8"?>
<model ref="r:d9557470-9267-4b7b-ab45-4dc4cc5d697c(jetbrains.mps.baseLanguage.extensionMethods.typesystem)">
  <persistence version="9" />
  <languages>
    <use id="7a5dda62-9140-4668-ab76-d5ed1746f2b2" name="jetbrains.mps.lang.typesystem" version="0" />
    <devkit ref="fbc25dd2-5da4-483a-8b19-70928e1b62d7(jetbrains.mps.devkit.general-purpose)" />
  </languages>
  <imports>
    <import index="tpek" ref="r:00000000-0000-4000-0000-011c895902c0(jetbrains.mps.baseLanguage.behavior)" />
    <import index="tpee" ref="r:00000000-0000-4000-0000-011c895902ca(jetbrains.mps.baseLanguage.structure)" />
    <import index="uigu" ref="r:4f6f8ed5-c3d7-49f4-b0dd-d70029feffdf(jetbrains.mps.baseLanguage.extensionMethods.structure)" />
    <import index="5tns" ref="r:a5509d93-a6df-4356-9363-7de4efc47849(jetbrains.mps.baseLanguage.extensionMethods.behavior)" />
    <import index="tpd5" ref="r:00000000-0000-4000-0000-011c895902b5(jetbrains.mps.lang.typesystem.dependencies)" />
    <import index="tpeh" ref="r:00000000-0000-4000-0000-011c895902c5(jetbrains.mps.baseLanguage.typesystem)" />
    <import index="wyt6" ref="6354ebe7-c22a-4a0f-ac54-50b52ab9b065/java:java.lang(JDK/)" implicit="true" />
  </imports>
  <registry>
    <language id="f3061a53-9226-4cc5-a443-f952ceaf5816" name="jetbrains.mps.baseLanguage">
      <concept id="1082485599095" name="jetbrains.mps.baseLanguage.structure.BlockStatement" flags="nn" index="9aQIb">
        <child id="1082485599096" name="statements" index="9aQI4" />
      </concept>
      <concept id="1215693861676" name="jetbrains.mps.baseLanguage.structure.BaseAssignmentExpression" flags="nn" index="d038R">
        <child id="1068498886297" name="rValue" index="37vLTx" />
        <child id="1068498886295" name="lValue" index="37vLTJ" />
      </concept>
      <concept id="4836112446988635817" name="jetbrains.mps.baseLanguage.structure.UndefinedType" flags="in" index="2jxLKc" />
      <concept id="1188207840427" name="jetbrains.mps.baseLanguage.structure.AnnotationInstance" flags="nn" index="2AHcQZ">
        <reference id="1188208074048" name="annotation" index="2AI5Lk" />
      </concept>
      <concept id="1188208481402" name="jetbrains.mps.baseLanguage.structure.HasAnnotation" flags="ng" index="2AJDlI">
        <child id="1188208488637" name="annotation" index="2AJF6D" />
      </concept>
      <concept id="1154032098014" name="jetbrains.mps.baseLanguage.structure.AbstractLoopStatement" flags="nn" index="2LF5Ji">
        <child id="1154032183016" name="body" index="2LFqv$" />
      </concept>
      <concept id="1197027756228" name="jetbrains.mps.baseLanguage.structure.DotExpression" flags="nn" index="2OqwBi">
        <child id="1197027771414" name="operand" index="2Oq$k0" />
        <child id="1197027833540" name="operation" index="2OqNvi" />
      </concept>
      <concept id="1145552977093" name="jetbrains.mps.baseLanguage.structure.GenericNewExpression" flags="nn" index="2ShNRf">
        <child id="1145553007750" name="creator" index="2ShVmc" />
      </concept>
      <concept id="1070475926800" name="jetbrains.mps.baseLanguage.structure.StringLiteral" flags="nn" index="Xl_RD">
        <property id="1070475926801" name="value" index="Xl_RC" />
      </concept>
      <concept id="1081236700938" name="jetbrains.mps.baseLanguage.structure.StaticMethodDeclaration" flags="ig" index="2YIFZL" />
      <concept id="1081236700937" name="jetbrains.mps.baseLanguage.structure.StaticMethodCall" flags="nn" index="2YIFZM">
        <reference id="1144433194310" name="classConcept" index="1Pybhc" />
      </concept>
      <concept id="1070534058343" name="jetbrains.mps.baseLanguage.structure.NullLiteral" flags="nn" index="10Nm6u" />
      <concept id="1068390468198" name="jetbrains.mps.baseLanguage.structure.ClassConcept" flags="ig" index="312cEu" />
      <concept id="1068431474542" name="jetbrains.mps.baseLanguage.structure.VariableDeclaration" flags="ng" index="33uBYm">
        <property id="1176718929932" name="isFinal" index="3TUv4t" />
        <child id="1068431790190" name="initializer" index="33vP2m" />
      </concept>
      <concept id="1068498886296" name="jetbrains.mps.baseLanguage.structure.VariableReference" flags="nn" index="37vLTw">
        <reference id="1068581517664" name="variableDeclaration" index="3cqZAo" />
      </concept>
      <concept id="1068498886292" name="jetbrains.mps.baseLanguage.structure.ParameterDeclaration" flags="ir" index="37vLTG" />
      <concept id="1068498886294" name="jetbrains.mps.baseLanguage.structure.AssignmentExpression" flags="nn" index="37vLTI" />
      <concept id="4972933694980447171" name="jetbrains.mps.baseLanguage.structure.BaseVariableDeclaration" flags="ng" index="19Szcq">
        <child id="5680397130376446158" name="type" index="1tU5fm" />
      </concept>
      <concept id="1068580123132" name="jetbrains.mps.baseLanguage.structure.BaseMethodDeclaration" flags="ng" index="3clF44">
        <child id="1068580123133" name="returnType" index="3clF45" />
        <child id="1068580123134" name="parameter" index="3clF46" />
        <child id="1068580123135" name="body" index="3clF47" />
      </concept>
      <concept id="1068580123152" name="jetbrains.mps.baseLanguage.structure.EqualsExpression" flags="nn" index="3clFbC" />
      <concept id="1068580123155" name="jetbrains.mps.baseLanguage.structure.ExpressionStatement" flags="nn" index="3clFbF">
        <child id="1068580123156" name="expression" index="3clFbG" />
      </concept>
      <concept id="1068580123157" name="jetbrains.mps.baseLanguage.structure.Statement" flags="nn" index="3clFbH" />
      <concept id="1068580123159" name="jetbrains.mps.baseLanguage.structure.IfStatement" flags="nn" index="3clFbJ">
        <child id="1082485599094" name="ifFalseStatement" index="9aQIa" />
        <child id="1068580123160" name="condition" index="3clFbw" />
        <child id="1068580123161" name="ifTrue" index="3clFbx" />
      </concept>
      <concept id="1068580123136" name="jetbrains.mps.baseLanguage.structure.StatementList" flags="sn" stub="5293379017992965193" index="3clFbS">
        <child id="1068581517665" name="statement" index="3cqZAp" />
      </concept>
      <concept id="1068580123140" name="jetbrains.mps.baseLanguage.structure.ConstructorDeclaration" flags="ig" index="3clFbW" />
      <concept id="1068581242878" name="jetbrains.mps.baseLanguage.structure.ReturnStatement" flags="nn" index="3cpWs6" />
      <concept id="1068581242864" name="jetbrains.mps.baseLanguage.structure.LocalVariableDeclarationStatement" flags="nn" index="3cpWs8">
        <child id="1068581242865" name="localVariableDeclaration" index="3cpWs9" />
      </concept>
      <concept id="1068581242863" name="jetbrains.mps.baseLanguage.structure.LocalVariableDeclaration" flags="nr" index="3cpWsn" />
      <concept id="1068581517677" name="jetbrains.mps.baseLanguage.structure.VoidType" flags="in" index="3cqZAl" />
      <concept id="1081516740877" name="jetbrains.mps.baseLanguage.structure.NotExpression" flags="nn" index="3fqX7Q">
        <child id="1081516765348" name="expression" index="3fr31v" />
      </concept>
      <concept id="1204053956946" name="jetbrains.mps.baseLanguage.structure.IMethodCall" flags="ng" index="1ndlxa">
        <reference id="1068499141037" name="baseMethodDeclaration" index="37wK5l" />
        <child id="1068499141038" name="actualArgument" index="37wK5m" />
      </concept>
      <concept id="1107461130800" name="jetbrains.mps.baseLanguage.structure.Classifier" flags="ng" index="3pOWGL">
        <child id="5375687026011219971" name="member" index="jymVt" unordered="true" />
      </concept>
      <concept id="1081773326031" name="jetbrains.mps.baseLanguage.structure.BinaryOperation" flags="nn" index="3uHJSO">
        <child id="1081773367579" name="rightExpression" index="3uHU7w" />
        <child id="1081773367580" name="leftExpression" index="3uHU7B" />
      </concept>
      <concept id="1178549954367" name="jetbrains.mps.baseLanguage.structure.IVisible" flags="ng" index="1B3ioH">
        <child id="1178549979242" name="visibility" index="1B3o_S" />
      </concept>
      <concept id="6329021646629104957" name="jetbrains.mps.baseLanguage.structure.TextCommentPart" flags="nn" index="3SKdUq">
        <property id="6329021646629104958" name="text" index="3SKdUp" />
      </concept>
      <concept id="6329021646629104954" name="jetbrains.mps.baseLanguage.structure.SingleLineComment" flags="nn" index="3SKdUt">
        <child id="6329021646629175155" name="commentPart" index="3SKWNk" />
      </concept>
      <concept id="1146644602865" name="jetbrains.mps.baseLanguage.structure.PublicVisibility" flags="nn" index="3Tm1VV" />
      <concept id="1080120340718" name="jetbrains.mps.baseLanguage.structure.AndExpression" flags="nn" index="1Wc70l" />
    </language>
    <language id="f2801650-65d5-424e-bb1b-463a8781b786" name="jetbrains.mps.baseLanguage.javadoc">
      <concept id="5349172909345501395" name="jetbrains.mps.baseLanguage.javadoc.structure.BaseDocComment" flags="ng" index="P$AiS">
        <child id="8465538089690331502" name="body" index="TZ5H$" />
      </concept>
      <concept id="5349172909345532724" name="jetbrains.mps.baseLanguage.javadoc.structure.MethodDocComment" flags="ng" index="P$JXv" />
      <concept id="8465538089690331500" name="jetbrains.mps.baseLanguage.javadoc.structure.CommentLine" flags="ng" index="TZ5HA">
        <child id="8970989240999019149" name="part" index="1dT_Ay" />
      </concept>
      <concept id="8970989240999019143" name="jetbrains.mps.baseLanguage.javadoc.structure.TextCommentLinePart" flags="ng" index="1dT_AC">
        <property id="8970989240999019144" name="text" index="1dT_AB" />
      </concept>
    </language>
    <language id="7a5dda62-9140-4668-ab76-d5ed1746f2b2" name="jetbrains.mps.lang.typesystem">
      <concept id="1185788614172" name="jetbrains.mps.lang.typesystem.structure.NormalTypeClause" flags="ng" index="mw_s8">
        <child id="1185788644032" name="normalType" index="mwGJk" />
      </concept>
      <concept id="1185805035213" name="jetbrains.mps.lang.typesystem.structure.WhenConcreteStatement" flags="nn" index="nvevp">
        <property id="1227279857428" name="isShallow" index="2Z_7o9" />
        <child id="1185805047793" name="body" index="nvhr_" />
        <child id="1185805056450" name="argument" index="nvjzm" />
        <child id="1205761991995" name="argumentRepresentator" index="2X0Ygz" />
      </concept>
      <concept id="1175517400280" name="jetbrains.mps.lang.typesystem.structure.AssertStatement" flags="nn" index="2Mj0R9">
        <child id="1175517761460" name="condition" index="2MkoU_" />
      </concept>
      <concept id="1175517767210" name="jetbrains.mps.lang.typesystem.structure.ReportErrorStatement" flags="nn" index="2MkqsV">
        <child id="1175517851849" name="errorString" index="2MkJ7o" />
      </concept>
      <concept id="1179832490862" name="jetbrains.mps.lang.typesystem.structure.CreateStrongLessThanInequationStatement" flags="nn" index="2NvLDW" />
      <concept id="1212056081426" name="jetbrains.mps.lang.typesystem.structure.AbstractInequationStatement" flags="ng" index="Ob1k8">
        <property id="1212056105818" name="inequationPriority" index="Ob790" />
      </concept>
      <concept id="1227096774658" name="jetbrains.mps.lang.typesystem.structure.MessageStatement" flags="ng" index="2OEH$v">
        <child id="1227096802790" name="nodeToReport" index="2OEOjV" />
      </concept>
      <concept id="1205762105978" name="jetbrains.mps.lang.typesystem.structure.WhenConcreteVariableDeclaration" flags="ng" index="2X1qdy" />
      <concept id="1205762656241" name="jetbrains.mps.lang.typesystem.structure.WhenConcreteVariableReference" flags="nn" index="2X3wrD">
        <reference id="1205762683928" name="whenConcreteVar" index="2X3Bk0" />
      </concept>
      <concept id="1195213580585" name="jetbrains.mps.lang.typesystem.structure.AbstractCheckingRule" flags="ig" index="18hYwZ">
        <property id="1195213689297" name="overrides" index="18ip37" />
        <child id="1195213635060" name="body" index="18ibNy" />
      </concept>
      <concept id="1174642788531" name="jetbrains.mps.lang.typesystem.structure.ConceptReference" flags="ig" index="1YaCAy">
        <reference id="1174642800329" name="concept" index="1YaFvo" />
      </concept>
      <concept id="1174643105530" name="jetbrains.mps.lang.typesystem.structure.InferenceRule" flags="ig" index="1YbPZF" />
      <concept id="1174648085619" name="jetbrains.mps.lang.typesystem.structure.AbstractRule" flags="ng" index="1YuPPy">
        <child id="1174648101952" name="applicableNode" index="1YuTPh" />
      </concept>
      <concept id="1174650418652" name="jetbrains.mps.lang.typesystem.structure.ApplicableNodeReference" flags="nn" index="1YBJjd">
        <reference id="1174650432090" name="applicableNode" index="1YBMHb" />
      </concept>
      <concept id="1174657487114" name="jetbrains.mps.lang.typesystem.structure.TypeOfExpression" flags="nn" index="1Z2H0r">
        <property id="1195058053095" name="skipDependencyOnCurrent" index="Z0FVL" />
        <child id="1174657509053" name="term" index="1Z2MuG" />
      </concept>
      <concept id="1174658326157" name="jetbrains.mps.lang.typesystem.structure.CreateEquationStatement" flags="nn" index="1Z5TYs" />
      <concept id="1174660718586" name="jetbrains.mps.lang.typesystem.structure.AbstractEquationStatement" flags="nn" index="1Zf1VF">
        <property id="1206359757216" name="checkOnly" index="3wDh2S" />
        <child id="1174660783413" name="leftExpression" index="1ZfhK$" />
        <child id="1174660783414" name="rightExpression" index="1ZfhKB" />
      </concept>
      <concept id="1174663118805" name="jetbrains.mps.lang.typesystem.structure.CreateLessThanInequationStatement" flags="nn" index="1ZobV4" />
      <concept id="1174663239020" name="jetbrains.mps.lang.typesystem.structure.CreateGreaterThanInequationStatement" flags="nn" index="1ZoDhX" />
      <concept id="1174665551739" name="jetbrains.mps.lang.typesystem.structure.TypeVarDeclaration" flags="ng" index="1ZxtTE" />
      <concept id="1174666260556" name="jetbrains.mps.lang.typesystem.structure.TypeVarReference" flags="nn" index="1Z$b5t">
        <reference id="1174666276259" name="typeVarDeclaration" index="1Z$eMM" />
      </concept>
    </language>
    <language id="7866978e-a0f0-4cc7-81bc-4d213d9375e1" name="jetbrains.mps.lang.smodel">
      <concept id="1177026924588" name="jetbrains.mps.lang.smodel.structure.RefConcept_Reference" flags="nn" index="chp4Y">
        <reference id="1177026940964" name="conceptDeclaration" index="cht4Q" />
      </concept>
      <concept id="1138411891628" name="jetbrains.mps.lang.smodel.structure.SNodeOperation" flags="nn" index="eCIE_">
        <child id="1144104376918" name="parameter" index="1xVPHs" />
      </concept>
      <concept id="1179409122411" name="jetbrains.mps.lang.smodel.structure.Node_ConceptMethodCall" flags="nn" index="2qgKlT" />
      <concept id="2396822768958367367" name="jetbrains.mps.lang.smodel.structure.AbstractTypeCastExpression" flags="nn" index="$5XWr">
        <reference id="6733348108486823428" name="concept" index="1m5ApE" />
        <child id="6733348108486823193" name="leftExpression" index="1m5AlR" />
      </concept>
      <concept id="1145383075378" name="jetbrains.mps.lang.smodel.structure.SNodeListType" flags="in" index="2I9FWS">
        <reference id="1145383142433" name="elementConcept" index="2I9WkF" />
      </concept>
      <concept id="1145567426890" name="jetbrains.mps.lang.smodel.structure.SNodeListCreator" flags="nn" index="2T8Vx0">
        <child id="1145567471833" name="createdType" index="2T96Bj" />
      </concept>
      <concept id="1171407110247" name="jetbrains.mps.lang.smodel.structure.Node_GetAncestorOperation" flags="nn" index="2Xjw5R" />
      <concept id="1139621453865" name="jetbrains.mps.lang.smodel.structure.Node_IsInstanceOfOperation" flags="nn" index="1mIQ4w">
        <child id="1177027386292" name="conceptArgument" index="cj9EA" />
      </concept>
      <concept id="1171999116870" name="jetbrains.mps.lang.smodel.structure.Node_IsNullOperation" flags="nn" index="3w_OXm" />
      <concept id="1144101972840" name="jetbrains.mps.lang.smodel.structure.OperationParm_Concept" flags="ng" index="1xMEDy">
        <child id="1207343664468" name="conceptArgument" index="ri$Ld" />
      </concept>
      <concept id="1140137987495" name="jetbrains.mps.lang.smodel.structure.SNodeTypeCastExpression" flags="nn" index="1PxgMI" />
      <concept id="1138055754698" name="jetbrains.mps.lang.smodel.structure.SNodeType" flags="in" index="3Tqbb2">
        <reference id="1138405853777" name="concept" index="ehGHo" />
      </concept>
      <concept id="1138056143562" name="jetbrains.mps.lang.smodel.structure.SLinkAccess" flags="nn" index="3TrEf2">
        <reference id="1138056516764" name="link" index="3Tt5mk" />
      </concept>
      <concept id="1138056282393" name="jetbrains.mps.lang.smodel.structure.SLinkListAccess" flags="nn" index="3Tsc0h">
        <reference id="1138056546658" name="link" index="3TtcxE" />
      </concept>
    </language>
    <language id="ceab5195-25ea-4f22-9b92-103b95ca8c0c" name="jetbrains.mps.lang.core">
      <concept id="1133920641626" name="jetbrains.mps.lang.core.structure.BaseConcept" flags="ng" index="2VYdi">
        <child id="5169995583184591170" name="smodelAttribute" index="lGtFl" />
      </concept>
      <concept id="1169194658468" name="jetbrains.mps.lang.core.structure.INamedConcept" flags="ng" index="TrEIO">
        <property id="1169194664001" name="name" index="TrG5h" />
      </concept>
    </language>
    <language id="83888646-71ce-4f1c-9c53-c54016f6ad4f" name="jetbrains.mps.baseLanguage.collections">
      <concept id="540871147943773365" name="jetbrains.mps.baseLanguage.collections.structure.SingleArgumentSequenceOperation" flags="nn" index="25WWJ4">
        <child id="540871147943773366" name="argument" index="25WWJ7" />
      </concept>
      <concept id="1226516258405" name="jetbrains.mps.baseLanguage.collections.structure.HashSetCreator" flags="nn" index="2i4dXS" />
      <concept id="1153943597977" name="jetbrains.mps.baseLanguage.collections.structure.ForEachStatement" flags="nn" index="2Gpval">
        <child id="1153944400369" name="variable" index="2Gsz3X" />
        <child id="1153944424730" name="inputSequence" index="2GsD0m" />
      </concept>
      <concept id="1153944193378" name="jetbrains.mps.baseLanguage.collections.structure.ForEachVariable" flags="nr" index="2GrKxI" />
      <concept id="1153944233411" name="jetbrains.mps.baseLanguage.collections.structure.ForEachVariableReference" flags="nn" index="2GrUjf">
        <reference id="1153944258490" name="variable" index="2Gs0qQ" />
      </concept>
      <concept id="1237721394592" name="jetbrains.mps.baseLanguage.collections.structure.AbstractContainerCreator" flags="nn" index="HWqM0">
        <child id="1237721435807" name="elementType" index="HW$YZ" />
      </concept>
      <concept id="1201306600024" name="jetbrains.mps.baseLanguage.collections.structure.ContainsKeyOperation" flags="nn" index="2Nt0df">
        <child id="1201654602639" name="key" index="38cxEo" />
      </concept>
      <concept id="1160612413312" name="jetbrains.mps.baseLanguage.collections.structure.AddElementOperation" flags="nn" index="TSZUe" />
      <concept id="1162935959151" name="jetbrains.mps.baseLanguage.collections.structure.GetSizeOperation" flags="nn" index="34oBXx" />
      <concept id="1197683403723" name="jetbrains.mps.baseLanguage.collections.structure.MapType" flags="in" index="3rvAFt">
        <child id="1197683466920" name="keyType" index="3rvQeY" />
        <child id="1197683475734" name="valueType" index="3rvSg0" />
      </concept>
      <concept id="1197686869805" name="jetbrains.mps.baseLanguage.collections.structure.HashMapCreator" flags="nn" index="3rGOSV">
        <child id="1197687026896" name="keyType" index="3rHrn6" />
        <child id="1197687035757" name="valueType" index="3rHtpV" />
      </concept>
      <concept id="1165530316231" name="jetbrains.mps.baseLanguage.collections.structure.IsEmptyOperation" flags="nn" index="1v1jN8" />
      <concept id="9042586985346099698" name="jetbrains.mps.baseLanguage.collections.structure.MultiForEachStatement" flags="nn" index="1_o_46">
        <child id="9042586985346099734" name="forEach" index="1_o_by" />
      </concept>
      <concept id="9042586985346099733" name="jetbrains.mps.baseLanguage.collections.structure.MultiForEachPair" flags="ng" index="1_o_bx">
        <child id="9042586985346099778" name="variable" index="1_o_aQ" />
        <child id="9042586985346099735" name="input" index="1_o_bz" />
      </concept>
      <concept id="9042586985346099736" name="jetbrains.mps.baseLanguage.collections.structure.MultiForEachVariable" flags="ng" index="1_o_bG" />
      <concept id="1197932370469" name="jetbrains.mps.baseLanguage.collections.structure.MapElement" flags="nn" index="3EllGN">
        <child id="1197932505799" name="map" index="3ElQJh" />
        <child id="1197932525128" name="key" index="3ElVtu" />
      </concept>
      <concept id="1176501494711" name="jetbrains.mps.baseLanguage.collections.structure.IsNotEmptyOperation" flags="nn" index="3GX2aA" />
      <concept id="8293956702609956630" name="jetbrains.mps.baseLanguage.collections.structure.MultiForEachVariableReference" flags="nn" index="3M$PaV">
        <reference id="8293956702609966325" name="variable" index="3M$S_o" />
      </concept>
    </language>
  </registry>
  <node concept="1YbPZF" id="2S7riqlG0Bl">
    <property role="TrG5h" value="typeof_ExtensionThis" />
    <node concept="1YaCAy" id="2S7riqlG0Bn" role="1YuTPh">
      <property role="TrG5h" value="extensionThis" />
      <ref role="1YaFvo" to="uigu:2S7riql$hcN" resolve="ThisExtensionExpression" />
    </node>
    <node concept="3clFbS" id="2S7riqlG5MR" role="18ibNy">
      <node concept="1Z5TYs" id="2S7riqlG5MW" role="3cqZAp">
        <node concept="mw_s8" id="2S7riqlG5MZ" role="1ZfhK$">
          <node concept="1Z2H0r" id="2S7riqlG5MT" role="mwGJk">
            <node concept="1YBJjd" id="2S7riqlG5MV" role="1Z2MuG">
              <ref role="1YBMHb" node="2S7riqlG0Bn" resolve="extensionThis" />
            </node>
          </node>
        </node>
        <node concept="mw_s8" id="6XkcKt_fb1s" role="1ZfhKB">
          <node concept="2OqwBi" id="6XkcKt_fgzp" role="mwGJk">
            <node concept="2OqwBi" id="6XkcKt_fb1u" role="2Oq$k0">
              <node concept="1YBJjd" id="6XkcKt_fb1t" role="2Oq$k0">
                <ref role="1YBMHb" node="2S7riqlG0Bn" resolve="extensionThis" />
              </node>
              <node concept="2Xjw5R" id="6XkcKt_fgzk" role="2OqNvi">
                <node concept="1xMEDy" id="6XkcKt_fgzl" role="1xVPHs">
                  <node concept="chp4Y" id="6XkcKt_fgzo" role="ri$Ld">
                    <ref role="cht4Q" to="uigu:1m3OroNpuvT" resolve="ExtensionMethodDeclaration" />
                  </node>
                </node>
              </node>
            </node>
            <node concept="2qgKlT" id="6XkcKt_fgN9" role="2OqNvi">
              <ref role="37wK5l" to="5tns:6XkcKt_eUWM" resolve="getThisType" />
            </node>
          </node>
        </node>
      </node>
    </node>
  </node>
  <node concept="1YbPZF" id="4YTQtEKpo4F">
    <property role="18ip37" value="true" />
    <property role="TrG5h" value="typeof_ExtensionMethodCall" />
    <node concept="3clFbS" id="4YTQtEKpo4G" role="18ibNy">
      <node concept="3cpWs8" id="7PtaNzP6$cE" role="3cqZAp">
        <node concept="3cpWsn" id="7PtaNzP6$cF" role="3cpWs9">
          <property role="TrG5h" value="emdecl" />
          <property role="3TUv4t" value="true" />
          <node concept="3Tqbb2" id="7PtaNzP6$cG" role="1tU5fm">
            <ref role="ehGHo" to="uigu:1m3OroNpuvT" resolve="ExtensionMethodDeclaration" />
          </node>
          <node concept="2OqwBi" id="7PtaNzP6$cH" role="33vP2m">
            <node concept="1YBJjd" id="7PtaNzP6$cI" role="2Oq$k0">
              <ref role="1YBMHb" node="4YTQtEKpo4I" resolve="emcall" />
            </node>
            <node concept="3TrEf2" id="7PtaNzP6$cJ" role="2OqNvi">
              <ref role="3Tt5mk" to="uigu:1m3OroNmkwW" />
            </node>
          </node>
        </node>
      </node>
      <node concept="3clFbJ" id="4YTQtEKponn" role="3cqZAp">
        <node concept="3clFbS" id="4YTQtEKpono" role="3clFbx">
          <node concept="3cpWs6" id="4YTQtEKponp" role="3cqZAp" />
        </node>
        <node concept="3clFbC" id="4YTQtEKponq" role="3clFbw">
          <node concept="37vLTw" id="7PtaNzP6$cK" role="3uHU7B">
            <ref role="3cqZAo" node="7PtaNzP6$cF" resolve="emdecl" />
          </node>
          <node concept="10Nm6u" id="4YTQtEKponr" role="3uHU7w" />
        </node>
      </node>
      <node concept="3cpWs8" id="7PtaNzP6$sQ" role="3cqZAp">
        <node concept="3cpWsn" id="7PtaNzP6$sR" role="3cpWs9">
          <property role="TrG5h" value="thisType" />
          <node concept="3Tqbb2" id="7PtaNzP6$sL" role="1tU5fm">
            <ref role="ehGHo" to="tpee:fz3vP1H" resolve="Type" />
          </node>
          <node concept="2OqwBi" id="7PtaNzP6$sS" role="33vP2m">
            <node concept="37vLTw" id="7PtaNzP6$sT" role="2Oq$k0">
              <ref role="3cqZAo" node="7PtaNzP6$cF" resolve="emdecl" />
            </node>
            <node concept="2qgKlT" id="7PtaNzP6$sU" role="2OqNvi">
              <ref role="37wK5l" to="5tns:6XkcKt_eUWM" resolve="getThisType" />
            </node>
          </node>
        </node>
      </node>
      <node concept="3clFbJ" id="7PtaNzP6$ZI" role="3cqZAp">
        <node concept="2OqwBi" id="7PtaNzP6_nm" role="3clFbw">
          <node concept="3w_OXm" id="7PtaNzP6_vg" role="2OqNvi" />
          <node concept="37vLTw" id="7PtaNzP6_as" role="2Oq$k0">
            <ref role="3cqZAo" node="7PtaNzP6$sR" resolve="thisType" />
          </node>
        </node>
        <node concept="3clFbS" id="7PtaNzP6$ZK" role="3clFbx">
          <node concept="3cpWs6" id="7PtaNzP6_vj" role="3cqZAp" />
        </node>
      </node>
      <node concept="3clFbH" id="7PtaNzP7$fu" role="3cqZAp" />
      <node concept="3SKdUt" id="4YTQtEKponD" role="3cqZAp">
        <node concept="3SKdUq" id="4YTQtEKponE" role="3SKWNk">
          <property role="3SKdUp" value="---" />
        </node>
      </node>
      <node concept="1ZxtTE" id="4YTQtEKponF" role="3cqZAp">
        <property role="TrG5h" value="instanceType" />
      </node>
      <node concept="1Z5TYs" id="4YTQtEKponG" role="3cqZAp">
        <node concept="mw_s8" id="4YTQtEKponH" role="1ZfhK$">
          <node concept="1Z$b5t" id="4YTQtEKponI" role="mwGJk">
            <ref role="1Z$eMM" node="4YTQtEKponF" resolve="instanceType" />
          </node>
        </node>
        <node concept="mw_s8" id="4YTQtEKponJ" role="1ZfhKB">
          <node concept="1Z2H0r" id="4YTQtEKponK" role="mwGJk">
            <property role="Z0FVL" value="true" />
            <node concept="2OqwBi" id="4YTQtEKponL" role="1Z2MuG">
              <node concept="1YBJjd" id="4YTQtEKpoCg" role="2Oq$k0">
                <ref role="1YBMHb" node="4YTQtEKpo4I" resolve="emcall" />
              </node>
              <node concept="2qgKlT" id="4YTQtEKponN" role="2OqNvi">
                <ref role="37wK5l" to="tpek:hEwIP$m" resolve="getOperand" />
              </node>
            </node>
          </node>
        </node>
      </node>
      <node concept="2NvLDW" id="4YTQtEKponO" role="3cqZAp">
        <property role="Ob790" value="0" />
        <property role="3wDh2S" value="true" />
        <node concept="mw_s8" id="4YTQtEKponP" role="1ZfhK$">
          <node concept="1Z$b5t" id="4YTQtEKponQ" role="mwGJk">
            <ref role="1Z$eMM" node="4YTQtEKponF" resolve="instanceType" />
          </node>
        </node>
        <node concept="mw_s8" id="4YTQtEKpoCn" role="1ZfhKB">
          <node concept="2OqwBi" id="4YTQtEKpoCp" role="mwGJk">
            <node concept="37vLTw" id="7PtaNzP7zLC" role="2Oq$k0">
              <ref role="3cqZAo" node="7PtaNzP6$sR" resolve="thisType" />
            </node>
            <node concept="2qgKlT" id="4YTQtEKpoCt" role="2OqNvi">
              <ref role="37wK5l" to="tpek:4YTQtEKnnzf" resolve="getLooseType" />
              <node concept="2ShNRf" id="3drdR_YkeZY" role="37wK5m">
                <node concept="2i4dXS" id="3drdR_Yki3w" role="2ShVmc">
                  <node concept="3Tqbb2" id="3drdR_Yki3y" role="HW$YZ">
                    <ref role="ehGHo" to="tpee:fz3vP1H" resolve="Type" />
                  </node>
                </node>
              </node>
            </node>
          </node>
        </node>
      </node>
      <node concept="3clFbH" id="7PtaNzP6AqD" role="3cqZAp" />
      <node concept="3cpWs8" id="6TEiCA8ooBZ" role="3cqZAp">
        <node concept="3cpWsn" id="6TEiCA8ooC0" role="3cpWs9">
          <property role="TrG5h" value="argTypes" />
          <property role="3TUv4t" value="true" />
          <node concept="2I9FWS" id="6TEiCA8ooC1" role="1tU5fm" />
          <node concept="2ShNRf" id="6TEiCA8ooC3" role="33vP2m">
            <node concept="2T8Vx0" id="6TEiCA8ooC4" role="2ShVmc">
              <node concept="2I9FWS" id="6TEiCA8ooC5" role="2T96Bj" />
            </node>
          </node>
        </node>
      </node>
      <node concept="2Gpval" id="6TEiCA8o3gi" role="3cqZAp">
        <node concept="2GrKxI" id="6TEiCA8o3gj" role="2Gsz3X">
          <property role="TrG5h" value="a" />
        </node>
        <node concept="3clFbS" id="6TEiCA8o3gl" role="2LFqv$">
          <node concept="3clFbF" id="6TEiCA8ooC7" role="3cqZAp">
            <node concept="2OqwBi" id="6TEiCA8ooCt" role="3clFbG">
              <node concept="37vLTw" id="3GM_nagTzrV" role="2Oq$k0">
                <ref role="3cqZAo" node="6TEiCA8ooC0" resolve="argTypes" />
              </node>
              <node concept="TSZUe" id="6TEiCA8ooCz" role="2OqNvi">
                <node concept="1Z2H0r" id="2DLKo0SJUnc" role="25WWJ7">
                  <node concept="2GrUjf" id="2DLKo0SJUne" role="1Z2MuG">
                    <ref role="2Gs0qQ" node="6TEiCA8o3gj" resolve="a" />
                  </node>
                </node>
              </node>
            </node>
          </node>
        </node>
        <node concept="2OqwBi" id="6TEiCA8o3gm" role="2GsD0m">
          <node concept="1YBJjd" id="7PtaNzP7aAu" role="2Oq$k0">
            <ref role="1YBMHb" node="4YTQtEKpo4I" resolve="emcall" />
          </node>
          <node concept="3Tsc0h" id="6TEiCA8o3go" role="2OqNvi">
            <ref role="3TtcxE" to="tpee:fz7wK6I" />
          </node>
        </node>
      </node>
      <node concept="3clFbH" id="7PtaNzP77ek" role="3cqZAp" />
      <node concept="3cpWs8" id="3zZky3wHe6E" role="3cqZAp">
        <node concept="3cpWsn" id="3zZky3wHe6F" role="3cpWs9">
          <property role="TrG5h" value="subs" />
          <property role="3TUv4t" value="true" />
          <node concept="3rvAFt" id="3zZky3wHe6G" role="1tU5fm">
            <node concept="3Tqbb2" id="3zZky3wHe6H" role="3rvQeY" />
            <node concept="3Tqbb2" id="3zZky3wHe6I" role="3rvSg0" />
          </node>
          <node concept="2ShNRf" id="3zZky3wHe6J" role="33vP2m">
            <node concept="3rGOSV" id="3zZky3wHe6K" role="2ShVmc">
              <node concept="3Tqbb2" id="3zZky3wHe6L" role="3rHrn6" />
              <node concept="3Tqbb2" id="3zZky3wHe6M" role="3rHtpV" />
            </node>
          </node>
        </node>
      </node>
      <node concept="3clFbJ" id="6wkf71RoXsH" role="3cqZAp">
        <node concept="1Wc70l" id="6wkf71RoXsI" role="3clFbw">
          <node concept="2OqwBi" id="6wkf71RoXsJ" role="3uHU7B">
            <node concept="2OqwBi" id="6wkf71RoXsK" role="2Oq$k0">
              <node concept="1YBJjd" id="6wkf71Rprp7" role="2Oq$k0">
                <ref role="1YBMHb" node="4YTQtEKpo4I" resolve="emcall" />
              </node>
              <node concept="3Tsc0h" id="6wkf71RoXsL" role="2OqNvi">
                <ref role="3TtcxE" to="tpee:4k0WLUKaBu8" />
              </node>
            </node>
            <node concept="1v1jN8" id="6wkf71RoXsM" role="2OqNvi" />
          </node>
          <node concept="2OqwBi" id="6wkf71RoXsN" role="3uHU7w">
            <node concept="2OqwBi" id="6wkf71RoXsO" role="2Oq$k0">
              <node concept="37vLTw" id="6wkf71RprDb" role="2Oq$k0">
                <ref role="3cqZAo" node="7PtaNzP6$cF" resolve="emdecl" />
              </node>
              <node concept="3Tsc0h" id="6wkf71RoXsP" role="2OqNvi">
                <ref role="3TtcxE" to="tpee:g96eVAe" />
              </node>
            </node>
            <node concept="3GX2aA" id="6wkf71RoXsQ" role="2OqNvi" />
          </node>
        </node>
        <node concept="3clFbS" id="6wkf71RoXsR" role="3clFbx">
          <node concept="2Gpval" id="6wkf71RoXsS" role="3cqZAp">
            <node concept="2GrKxI" id="6wkf71RoXsT" role="2Gsz3X">
              <property role="TrG5h" value="tvd" />
            </node>
            <node concept="2OqwBi" id="6wkf71RoXsU" role="2GsD0m">
              <node concept="37vLTw" id="6wkf71RprGJ" role="2Oq$k0">
                <ref role="3cqZAo" node="7PtaNzP6$cF" resolve="emdecl" />
              </node>
              <node concept="3Tsc0h" id="6wkf71RoXsV" role="2OqNvi">
                <ref role="3TtcxE" to="tpee:g96eVAe" />
              </node>
            </node>
            <node concept="3clFbS" id="6wkf71RoXsW" role="2LFqv$">
              <node concept="3clFbJ" id="6wkf71RoXsX" role="3cqZAp">
                <node concept="3clFbS" id="6wkf71RoXsY" role="3clFbx">
                  <node concept="1ZxtTE" id="6wkf71RoXsZ" role="3cqZAp">
                    <property role="TrG5h" value="T" />
                  </node>
                  <node concept="3clFbF" id="6wkf71RoXt0" role="3cqZAp">
                    <node concept="37vLTI" id="6wkf71RoXt1" role="3clFbG">
                      <node concept="1Z$b5t" id="6wkf71RoXt2" role="37vLTx">
                        <ref role="1Z$eMM" node="6wkf71RoXsZ" resolve="T" />
                      </node>
                      <node concept="3EllGN" id="6wkf71RoXt3" role="37vLTJ">
                        <node concept="2GrUjf" id="6wkf71RoXt4" role="3ElVtu">
                          <ref role="2Gs0qQ" node="6wkf71RoXsT" resolve="tvd" />
                        </node>
                        <node concept="37vLTw" id="3GM_nagTBTf" role="3ElQJh">
                          <ref role="3cqZAo" node="3zZky3wHe6F" resolve="subs" />
                        </node>
                      </node>
                    </node>
                  </node>
                </node>
                <node concept="3fqX7Q" id="6wkf71RoXt6" role="3clFbw">
                  <node concept="2OqwBi" id="6wkf71RoXt7" role="3fr31v">
                    <node concept="37vLTw" id="3GM_nagTvOk" role="2Oq$k0">
                      <ref role="3cqZAo" node="3zZky3wHe6F" resolve="subs" />
                    </node>
                    <node concept="2Nt0df" id="6wkf71RoXt9" role="2OqNvi">
                      <node concept="2GrUjf" id="6wkf71RoXta" role="38cxEo">
                        <ref role="2Gs0qQ" node="6wkf71RoXsT" resolve="tvd" />
                      </node>
                    </node>
                  </node>
                </node>
              </node>
            </node>
          </node>
        </node>
        <node concept="9aQIb" id="6wkf71RoXtb" role="9aQIa">
          <node concept="3clFbS" id="6wkf71RoXtc" role="9aQI4">
            <node concept="1_o_46" id="6wkf71RoXtd" role="3cqZAp">
              <node concept="1_o_bx" id="6wkf71RoXte" role="1_o_by">
                <node concept="1_o_bG" id="6wkf71RoXtf" role="1_o_aQ">
                  <property role="TrG5h" value="tvd" />
                </node>
                <node concept="2OqwBi" id="6wkf71RoXtg" role="1_o_bz">
                  <node concept="37vLTw" id="6wkf71RprNY" role="2Oq$k0">
                    <ref role="3cqZAo" node="7PtaNzP6$cF" resolve="emdecl" />
                  </node>
                  <node concept="3Tsc0h" id="6wkf71RoXth" role="2OqNvi">
                    <ref role="3TtcxE" to="tpee:g96eVAe" />
                  </node>
                </node>
              </node>
              <node concept="1_o_bx" id="6wkf71RoXti" role="1_o_by">
                <node concept="1_o_bG" id="6wkf71RoXtj" role="1_o_aQ">
                  <property role="TrG5h" value="targ" />
                </node>
                <node concept="2OqwBi" id="6wkf71RoXtk" role="1_o_bz">
                  <node concept="1YBJjd" id="6wkf71Rprsh" role="2Oq$k0">
                    <ref role="1YBMHb" node="4YTQtEKpo4I" resolve="emcall" />
                  </node>
                  <node concept="3Tsc0h" id="6wkf71RoXtl" role="2OqNvi">
                    <ref role="3TtcxE" to="tpee:4k0WLUKaBu8" />
                  </node>
                </node>
              </node>
              <node concept="3clFbS" id="6wkf71RoXtn" role="2LFqv$">
                <node concept="3clFbF" id="6wkf71RoXto" role="3cqZAp">
                  <node concept="37vLTI" id="6wkf71RoXtp" role="3clFbG">
                    <node concept="3M$PaV" id="6wkf71RoXtq" role="37vLTx">
                      <ref role="3M$S_o" node="6wkf71RoXtj" resolve="targ" />
                    </node>
                    <node concept="3EllGN" id="6wkf71RoXtr" role="37vLTJ">
                      <node concept="3M$PaV" id="6wkf71RoXts" role="3ElVtu">
                        <ref role="3M$S_o" node="6wkf71RoXtf" resolve="tvd" />
                      </node>
                      <node concept="37vLTw" id="3GM_nagTrzB" role="3ElQJh">
                        <ref role="3cqZAo" node="3zZky3wHe6F" resolve="subs" />
                      </node>
                    </node>
                  </node>
                </node>
                <node concept="3clFbJ" id="6wkf71RoXtu" role="3cqZAp">
                  <node concept="3clFbS" id="6wkf71RoXtv" role="3clFbx">
                    <node concept="3clFbF" id="6wkf71RoXtw" role="3cqZAp">
                      <node concept="2OqwBi" id="6wkf71RoXtx" role="3clFbG">
                        <node concept="1PxgMI" id="6wkf71RoXty" role="2Oq$k0">
                          <ref role="1m5ApE" to="tpee:3zZky3wF74d" resolve="IGenericType" />
                          <node concept="3M$PaV" id="6wkf71RoXtz" role="1m5AlR">
                            <ref role="3M$S_o" node="6wkf71RoXtj" resolve="targ" />
                          </node>
                        </node>
                        <node concept="2qgKlT" id="6wkf71RoXt$" role="2OqNvi">
                          <ref role="37wK5l" to="tpek:3zZky3wF74h" resolve="collectGenericSubstitutions" />
                          <node concept="37vLTw" id="3GM_nagTBOA" role="37wK5m">
                            <ref role="3cqZAo" node="3zZky3wHe6F" resolve="subs" />
                          </node>
                        </node>
                      </node>
                    </node>
                  </node>
                  <node concept="2OqwBi" id="6wkf71RoXtA" role="3clFbw">
                    <node concept="3M$PaV" id="6wkf71RoXtB" role="2Oq$k0">
                      <ref role="3M$S_o" node="6wkf71RoXtj" resolve="targ" />
                    </node>
                    <node concept="1mIQ4w" id="6wkf71RoXtC" role="2OqNvi">
                      <node concept="chp4Y" id="6wkf71RoXtD" role="cj9EA">
                        <ref role="cht4Q" to="tpee:3zZky3wF74d" resolve="IGenericType" />
                      </node>
                    </node>
                  </node>
                </node>
              </node>
            </node>
          </node>
        </node>
      </node>
      <node concept="3clFbH" id="6wkf71RpqhF" role="3cqZAp" />
      <node concept="3clFbJ" id="3zZky3wI2K4" role="3cqZAp">
        <node concept="3clFbS" id="3zZky3wI2K5" role="3clFbx">
          <node concept="3clFbF" id="3zZky3wH7yF" role="3cqZAp">
            <node concept="2OqwBi" id="3zZky3wH7zn" role="3clFbG">
              <node concept="1PxgMI" id="3zZky3wH7z1" role="2Oq$k0">
                <ref role="1m5ApE" to="tpee:3zZky3wF74d" resolve="IGenericType" />
                <node concept="37vLTw" id="7PtaNzP7$a7" role="1m5AlR">
                  <ref role="3cqZAo" node="7PtaNzP6$sR" resolve="thisType" />
                </node>
              </node>
              <node concept="2qgKlT" id="3zZky3wH7zw" role="2OqNvi">
                <ref role="37wK5l" to="tpek:3zZky3wF74h" resolve="collectGenericSubstitutions" />
                <node concept="37vLTw" id="3GM_nagTrjT" role="37wK5m">
                  <ref role="3cqZAo" node="3zZky3wHe6F" resolve="subs" />
                </node>
              </node>
            </node>
          </node>
        </node>
        <node concept="2OqwBi" id="3zZky3wI2Kt" role="3clFbw">
          <node concept="37vLTw" id="7PtaNzP7$7n" role="2Oq$k0">
            <ref role="3cqZAo" node="7PtaNzP6$sR" resolve="thisType" />
          </node>
          <node concept="1mIQ4w" id="3zZky3wI2Ky" role="2OqNvi">
            <node concept="chp4Y" id="3zZky3wI2K$" role="cj9EA">
              <ref role="cht4Q" to="tpee:3zZky3wF74d" resolve="IGenericType" />
            </node>
          </node>
        </node>
      </node>
      <node concept="3clFbH" id="7PtaNzP77SJ" role="3cqZAp" />
      <node concept="3cpWs8" id="3zZky3wI2Lw" role="3cqZAp">
        <node concept="3cpWsn" id="3zZky3wI2Lx" role="3cpWs9">
          <property role="TrG5h" value="typel" />
          <node concept="2I9FWS" id="3zZky3wI2Ly" role="1tU5fm">
            <ref role="2I9WkF" to="tpee:fz3vP1H" resolve="Type" />
          </node>
          <node concept="2OqwBi" id="7bu6bIyRnS9" role="33vP2m">
            <node concept="37vLTw" id="7PtaNzP7aka" role="2Oq$k0">
              <ref role="3cqZAo" node="7PtaNzP6$cF" resolve="emdecl" />
            </node>
            <node concept="2qgKlT" id="7bu6bIyRnSf" role="2OqNvi">
              <ref role="37wK5l" to="tpek:7bu6bIyR2DR" resolve="getTypeApplicationParameters" />
              <node concept="2OqwBi" id="7bu6bIyRnS_" role="37wK5m">
                <node concept="2OqwBi" id="6TEiCA8ooCB" role="2Oq$k0">
                  <node concept="1YBJjd" id="7PtaNzP78Vr" role="2Oq$k0">
                    <ref role="1YBMHb" node="4YTQtEKpo4I" resolve="emcall" />
                  </node>
                  <node concept="3Tsc0h" id="6TEiCA8ooCD" role="2OqNvi">
                    <ref role="3TtcxE" to="tpee:fz7wK6I" />
                  </node>
                </node>
                <node concept="34oBXx" id="7bu6bIyRnSF" role="2OqNvi" />
              </node>
            </node>
          </node>
        </node>
      </node>
      <node concept="2Gpval" id="7bu6bIyRnSJ" role="3cqZAp">
        <node concept="2GrKxI" id="7bu6bIyRnSK" role="2Gsz3X">
          <property role="TrG5h" value="type" />
        </node>
        <node concept="37vLTw" id="3GM_nagTvPN" role="2GsD0m">
          <ref role="3cqZAo" node="3zZky3wI2Lx" resolve="typel" />
        </node>
        <node concept="3clFbS" id="7bu6bIyRnSM" role="2LFqv$">
          <node concept="3clFbJ" id="3zZky3wI35j" role="3cqZAp">
            <node concept="3clFbS" id="3zZky3wI35k" role="3clFbx">
              <node concept="3clFbF" id="3zZky3wI35_" role="3cqZAp">
                <node concept="2OqwBi" id="3zZky3wI35V" role="3clFbG">
                  <node concept="1PxgMI" id="3zZky3wI36q" role="2Oq$k0">
                    <ref role="1m5ApE" to="tpee:3zZky3wF74d" resolve="IGenericType" />
                    <node concept="2GrUjf" id="7bu6bIyR$Lm" role="1m5AlR">
                      <ref role="2Gs0qQ" node="7bu6bIyRnSK" resolve="type" />
                    </node>
                  </node>
                  <node concept="2qgKlT" id="3zZky3wI36u" role="2OqNvi">
                    <ref role="37wK5l" to="tpek:3zZky3wF74h" resolve="collectGenericSubstitutions" />
                    <node concept="37vLTw" id="3GM_nagT$WA" role="37wK5m">
                      <ref role="3cqZAo" node="3zZky3wHe6F" resolve="subs" />
                    </node>
                  </node>
                </node>
              </node>
            </node>
            <node concept="2OqwBi" id="3zZky3wI35u" role="3clFbw">
              <node concept="1mIQ4w" id="3zZky3wI35w" role="2OqNvi">
                <node concept="chp4Y" id="3zZky3wI35x" role="cj9EA">
                  <ref role="cht4Q" to="tpee:3zZky3wF74d" resolve="IGenericType" />
                </node>
              </node>
              <node concept="2GrUjf" id="7bu6bIyR$Li" role="2Oq$k0">
                <ref role="2Gs0qQ" node="7bu6bIyRnSK" resolve="type" />
              </node>
            </node>
          </node>
        </node>
      </node>
      <node concept="3clFbH" id="7PtaNzP7bbu" role="3cqZAp" />
      <node concept="3cpWs8" id="3zZky3wHTnG" role="3cqZAp">
        <node concept="3cpWsn" id="3zZky3wHTnH" role="3cpWs9">
          <property role="TrG5h" value="retType" />
          <node concept="3Tqbb2" id="3zZky3wHTnI" role="1tU5fm" />
          <node concept="2OqwBi" id="3zZky3wHTnJ" role="33vP2m">
            <node concept="37vLTw" id="7PtaNzP7dSw" role="2Oq$k0">
              <ref role="3cqZAo" node="7PtaNzP6$cF" resolve="emdecl" />
            </node>
            <node concept="3TrEf2" id="3zZky3wHTnL" role="2OqNvi">
              <ref role="3Tt5mk" to="tpee:fzclF7X" />
            </node>
          </node>
        </node>
      </node>
      <node concept="3clFbJ" id="3zZky3wI36L" role="3cqZAp">
        <node concept="3clFbS" id="3zZky3wI36M" role="3clFbx">
          <node concept="3clFbF" id="3zZky3wI371" role="3cqZAp">
            <node concept="2OqwBi" id="3zZky3wI37H" role="3clFbG">
              <node concept="1PxgMI" id="3zZky3wI37n" role="2Oq$k0">
                <ref role="1m5ApE" to="tpee:3zZky3wF74d" resolve="IGenericType" />
                <node concept="37vLTw" id="3GM_nagTsBg" role="1m5AlR">
                  <ref role="3cqZAo" node="3zZky3wHTnH" resolve="retType" />
                </node>
              </node>
              <node concept="2qgKlT" id="3zZky3wI37M" role="2OqNvi">
                <ref role="37wK5l" to="tpek:3zZky3wF74h" resolve="collectGenericSubstitutions" />
                <node concept="37vLTw" id="3GM_nagTs7P" role="37wK5m">
                  <ref role="3cqZAo" node="3zZky3wHe6F" resolve="subs" />
                </node>
              </node>
            </node>
          </node>
          <node concept="3clFbF" id="3zZky3wI37Q" role="3cqZAp">
            <node concept="37vLTI" id="3zZky3wI37R" role="3clFbG">
              <node concept="2OqwBi" id="3zZky3wI37T" role="37vLTx">
                <node concept="1PxgMI" id="3zZky3wI37U" role="2Oq$k0">
                  <ref role="1m5ApE" to="tpee:3zZky3wF74d" resolve="IGenericType" />
                  <node concept="37vLTw" id="3GM_nagT$E2" role="1m5AlR">
                    <ref role="3cqZAo" node="3zZky3wHTnH" resolve="retType" />
                  </node>
                </node>
                <node concept="2qgKlT" id="3zZky3wI37W" role="2OqNvi">
                  <ref role="37wK5l" to="tpek:3zZky3wFPhu" resolve="expandGenerics" />
                  <node concept="37vLTw" id="3GM_nagTtYO" role="37wK5m">
                    <ref role="3cqZAo" node="3zZky3wHe6F" resolve="subs" />
                  </node>
                </node>
              </node>
              <node concept="37vLTw" id="3GM_nagTBcG" role="37vLTJ">
                <ref role="3cqZAo" node="3zZky3wHTnH" resolve="retType" />
              </node>
            </node>
          </node>
        </node>
        <node concept="2OqwBi" id="3zZky3wI36W" role="3clFbw">
          <node concept="37vLTw" id="3GM_nagTszv" role="2Oq$k0">
            <ref role="3cqZAo" node="3zZky3wHTnH" resolve="retType" />
          </node>
          <node concept="1mIQ4w" id="3zZky3wI36Y" role="2OqNvi">
            <node concept="chp4Y" id="3zZky3wI36Z" role="cj9EA">
              <ref role="cht4Q" to="tpee:3zZky3wF74d" resolve="IGenericType" />
            </node>
          </node>
        </node>
      </node>
      <node concept="1ZobV4" id="44CoXJM3ruH" role="3cqZAp">
        <property role="Ob790" value="0" />
        <property role="3wDh2S" value="false" />
        <node concept="mw_s8" id="42GEWFmWjFk" role="1ZfhKB">
          <node concept="1Z2H0r" id="42GEWFmWjFl" role="mwGJk">
            <node concept="1YBJjd" id="7PtaNzP7d0Z" role="1Z2MuG">
              <ref role="1YBMHb" node="4YTQtEKpo4I" resolve="emcall" />
            </node>
          </node>
        </node>
        <node concept="mw_s8" id="42GEWFmWjFn" role="1ZfhK$">
          <node concept="37vLTw" id="3GM_nagTuBB" role="mwGJk">
            <ref role="3cqZAo" node="3zZky3wHTnH" resolve="retType" />
          </node>
        </node>
      </node>
      <node concept="3clFbH" id="7bu6bIyOWT7" role="3cqZAp" />
      <node concept="1_o_46" id="42GEWFmWpPv" role="3cqZAp">
        <node concept="1_o_bx" id="42GEWFmWpPw" role="1_o_by">
          <node concept="1_o_bG" id="42GEWFmWpPx" role="1_o_aQ">
            <property role="TrG5h" value="type" />
          </node>
          <node concept="37vLTw" id="3GM_nagTBZs" role="1_o_bz">
            <ref role="3cqZAo" node="3zZky3wI2Lx" resolve="typel" />
          </node>
        </node>
        <node concept="1_o_bx" id="42GEWFmWpPz" role="1_o_by">
          <node concept="1_o_bG" id="42GEWFmWpP$" role="1_o_aQ">
            <property role="TrG5h" value="argt" />
          </node>
          <node concept="37vLTw" id="3GM_nagTBP_" role="1_o_bz">
            <ref role="3cqZAo" node="6TEiCA8ooC0" resolve="argTypes" />
          </node>
        </node>
        <node concept="3clFbS" id="42GEWFmWpPA" role="2LFqv$">
          <node concept="3cpWs8" id="2DLKo0SKiCh" role="3cqZAp">
            <node concept="3cpWsn" id="2DLKo0SKiCi" role="3cpWs9">
              <property role="TrG5h" value="_type" />
              <property role="3TUv4t" value="true" />
              <node concept="3Tqbb2" id="2DLKo0SKiCj" role="1tU5fm">
                <ref role="ehGHo" to="tpee:fz3vP1H" resolve="Type" />
              </node>
              <node concept="3M$PaV" id="2DLKo0SKiCk" role="33vP2m">
                <ref role="3M$S_o" node="42GEWFmWpPx" resolve="type" />
              </node>
            </node>
          </node>
          <node concept="3clFbJ" id="42GEWFmWpPB" role="3cqZAp">
            <node concept="3clFbS" id="42GEWFmWpPC" role="3clFbx">
              <node concept="nvevp" id="2DLKo0SKgOR" role="3cqZAp">
                <property role="2Z_7o9" value="true" />
                <node concept="3clFbS" id="2DLKo0SKgOS" role="nvhr_">
                  <node concept="1ZoDhX" id="42GEWFmWpPD" role="3cqZAp">
                    <node concept="mw_s8" id="6TEiCA8ooCS" role="1ZfhKB">
                      <node concept="2X3wrD" id="2DLKo0SKgPp" role="mwGJk">
                        <ref role="2X3Bk0" node="2DLKo0SKgOU" resolve="A" />
                      </node>
                    </node>
                    <node concept="mw_s8" id="42GEWFmWpPH" role="1ZfhK$">
                      <node concept="2OqwBi" id="42GEWFmWpPI" role="mwGJk">
                        <node concept="1PxgMI" id="42GEWFmWpPJ" role="2Oq$k0">
                          <ref role="1m5ApE" to="tpee:3zZky3wF74d" resolve="IGenericType" />
                          <node concept="37vLTw" id="3GM_nagTzbz" role="1m5AlR">
                            <ref role="3cqZAo" node="2DLKo0SKiCi" resolve="_type" />
                          </node>
                        </node>
                        <node concept="2qgKlT" id="42GEWFmWpPL" role="2OqNvi">
                          <ref role="37wK5l" to="tpek:3zZky3wFPhu" resolve="expandGenerics" />
                          <node concept="37vLTw" id="3GM_nagTB97" role="37wK5m">
                            <ref role="3cqZAo" node="3zZky3wHe6F" resolve="subs" />
                          </node>
                        </node>
                      </node>
                    </node>
                  </node>
                </node>
                <node concept="2X1qdy" id="2DLKo0SKgOU" role="2X0Ygz">
                  <property role="TrG5h" value="A" />
                  <node concept="2jxLKc" id="2DLKo0SKgOV" role="1tU5fm" />
                </node>
                <node concept="3M$PaV" id="44CoXJM1F_I" role="nvjzm">
                  <ref role="3M$S_o" node="42GEWFmWpP$" resolve="argt" />
                </node>
              </node>
            </node>
            <node concept="2OqwBi" id="42GEWFmWpPN" role="3clFbw">
              <node concept="37vLTw" id="3GM_nagT_S4" role="2Oq$k0">
                <ref role="3cqZAo" node="2DLKo0SKiCi" resolve="_type" />
              </node>
              <node concept="1mIQ4w" id="42GEWFmWpPP" role="2OqNvi">
                <node concept="chp4Y" id="42GEWFmWpPQ" role="cj9EA">
                  <ref role="cht4Q" to="tpee:3zZky3wF74d" resolve="IGenericType" />
                </node>
              </node>
            </node>
            <node concept="9aQIb" id="42GEWFmWpPR" role="9aQIa">
              <node concept="3clFbS" id="42GEWFmWpPS" role="9aQI4">
                <node concept="1ZoDhX" id="42GEWFmWpPT" role="3cqZAp">
                  <property role="Ob790" value="0" />
                  <property role="3wDh2S" value="true" />
                  <node concept="mw_s8" id="42GEWFmWpPU" role="1ZfhKB">
                    <node concept="1Z2H0r" id="42GEWFmWpPV" role="mwGJk">
                      <node concept="3M$PaV" id="42GEWFmWpPW" role="1Z2MuG">
                        <ref role="3M$S_o" node="42GEWFmWpP$" resolve="argt" />
                      </node>
                    </node>
                  </node>
                  <node concept="mw_s8" id="42GEWFmWpPX" role="1ZfhK$">
                    <node concept="37vLTw" id="3GM_nagT_cO" role="mwGJk">
                      <ref role="3cqZAo" node="2DLKo0SKiCi" resolve="_type" />
                    </node>
                  </node>
                </node>
              </node>
            </node>
          </node>
        </node>
      </node>
    </node>
    <node concept="1YaCAy" id="4YTQtEKpo4I" role="1YuTPh">
      <property role="TrG5h" value="emcall" />
      <ref role="1YaFvo" to="uigu:1m3OroNmkwV" resolve="ExtensionMethodCall" />
    </node>
  </node>
  <node concept="312cEu" id="4YTQtEKpRF4">
    <property role="TrG5h" value="RulesFunctions_Extension" />
    <node concept="3Tm1VV" id="4YTQtEKpRF5" role="1B3o_S" />
    <node concept="3clFbW" id="4YTQtEKpRF6" role="jymVt">
      <node concept="3cqZAl" id="4YTQtEKpRF7" role="3clF45" />
      <node concept="3Tm1VV" id="4YTQtEKpRF8" role="1B3o_S" />
      <node concept="3clFbS" id="4YTQtEKpRF9" role="3clF47" />
    </node>
    <node concept="2YIFZL" id="4YTQtEKpRFa" role="jymVt">
      <property role="TrG5h" value="inference_equateApplicableType" />
      <node concept="P$JXv" id="7PtaNzU2kTm" role="lGtFl">
        <node concept="TZ5HA" id="7PtaNzU2kTn" role="TZ5H$">
          <node concept="1dT_AC" id="7PtaNzU2kTo" role="1dT_Ay">
            <property role="1dT_AB" value="@deprecated to be removed at some point after 3.0" />
          </node>
        </node>
      </node>
      <node concept="3cqZAl" id="4YTQtEKpRFb" role="3clF45" />
      <node concept="3Tm1VV" id="4YTQtEKpRFc" role="1B3o_S" />
      <node concept="3clFbS" id="4YTQtEKpRFd" role="3clF47">
        <node concept="3cpWs8" id="4YTQtEKpX9o" role="3cqZAp">
          <node concept="3cpWsn" id="4YTQtEKpX9p" role="3cpWs9">
            <property role="TrG5h" value="matchedType" />
            <node concept="3Tqbb2" id="4YTQtEKpX9q" role="1tU5fm" />
            <node concept="2YIFZM" id="4YTQtEKpX9r" role="33vP2m">
              <ref role="37wK5l" to="tpeh:hwM6QVQ" resolve="inference_matchTypeWithTypeVariables" />
              <ref role="1Pybhc" to="tpeh:h84y26V" resolve="RulesFunctions_BaseLanguage" />
              <node concept="2OqwBi" id="4YTQtEKpX9s" role="37wK5m">
                <node concept="37vLTw" id="2BHiRxghg20" role="2Oq$k0">
                  <ref role="3cqZAo" node="4YTQtEKpRFV" resolve="extensionMethod" />
                </node>
                <node concept="2qgKlT" id="4YTQtEKpX9u" role="2OqNvi">
                  <ref role="37wK5l" to="5tns:6XkcKt_eUWM" resolve="getThisType" />
                </node>
              </node>
              <node concept="37vLTw" id="2BHiRxgmaOD" role="37wK5m">
                <ref role="3cqZAo" node="4YTQtEKpRG0" resolve="mmap" />
              </node>
            </node>
          </node>
        </node>
        <node concept="1ZobV4" id="4YTQtEKpRFD" role="3cqZAp">
          <property role="Ob790" value="0" />
          <property role="3wDh2S" value="false" />
          <node concept="mw_s8" id="4YTQtEKpRFE" role="1ZfhKB">
            <node concept="37vLTw" id="3GM_nagTyIc" role="mwGJk">
              <ref role="3cqZAo" node="4YTQtEKpX9p" resolve="matchedType" />
            </node>
          </node>
          <node concept="mw_s8" id="4YTQtEKpX9z" role="1ZfhK$">
            <node concept="37vLTw" id="2BHiRxgmdci" role="mwGJk">
              <ref role="3cqZAo" node="4YTQtEKpRFN" resolve="instanceType" />
            </node>
          </node>
        </node>
      </node>
      <node concept="37vLTG" id="4YTQtEKpRFN" role="3clF46">
        <property role="TrG5h" value="instanceType" />
        <node concept="3Tqbb2" id="4YTQtEKpRFO" role="1tU5fm" />
      </node>
      <node concept="37vLTG" id="4YTQtEKpRFV" role="3clF46">
        <property role="TrG5h" value="extensionMethod" />
        <node concept="3Tqbb2" id="4YTQtEKpRFX" role="1tU5fm">
          <ref role="ehGHo" to="uigu:1m3OroNpuvT" resolve="ExtensionMethodDeclaration" />
        </node>
      </node>
      <node concept="37vLTG" id="4YTQtEKpRG0" role="3clF46">
        <property role="TrG5h" value="mmap" />
        <node concept="3rvAFt" id="4YTQtEKpRG1" role="1tU5fm">
          <node concept="3Tqbb2" id="4YTQtEKpRG2" role="3rvQeY">
            <ref role="ehGHo" to="tpee:g96euPO" resolve="TypeVariableDeclaration" />
          </node>
          <node concept="2I9FWS" id="4YTQtEKpRG3" role="3rvSg0" />
        </node>
      </node>
      <node concept="2AHcQZ" id="4YTQtEKpRFP" role="2AJF6D">
        <ref role="2AI5Lk" to="tpd5:hq1Hpmb" resolve="InferenceMethod" />
      </node>
      <node concept="2AHcQZ" id="7PtaNzU2l14" role="2AJF6D">
        <ref role="2AI5Lk" to="wyt6:~Deprecated" resolve="Deprecated" />
      </node>
    </node>
  </node>
  <node concept="1YbPZF" id="6EBM_lhz9pX">
    <property role="TrG5h" value="typeof_LocalExtendedMethodCall" />
    <node concept="3clFbS" id="6EBM_lhz9pY" role="18ibNy">
      <node concept="3cpWs8" id="7PtaNzTZGeH" role="3cqZAp">
        <node concept="3cpWsn" id="7PtaNzTZGeI" role="3cpWs9">
          <property role="TrG5h" value="imdecl" />
          <node concept="3Tqbb2" id="7PtaNzTZGeJ" role="1tU5fm">
            <ref role="ehGHo" to="tpee:fzclF8t" resolve="InstanceMethodDeclaration" />
          </node>
          <node concept="2OqwBi" id="7PtaNzTZGeK" role="33vP2m">
            <node concept="1YBJjd" id="7PtaNzTZGeL" role="2Oq$k0">
              <ref role="1YBMHb" node="6EBM_lhz9pZ" resolve="lexmcall" />
            </node>
            <node concept="3TrEf2" id="7PtaNzTZGeM" role="2OqNvi">
              <ref role="3Tt5mk" to="uigu:6EBM_lhyT5L" />
            </node>
          </node>
        </node>
      </node>
      <node concept="3clFbJ" id="6EBM_lhz9q0" role="3cqZAp">
        <node concept="3clFbS" id="6EBM_lhz9q1" role="3clFbx">
          <node concept="3cpWs6" id="6EBM_lhz9q2" role="3cqZAp" />
        </node>
        <node concept="3clFbC" id="6EBM_lhz9q3" role="3clFbw">
          <node concept="37vLTw" id="7PtaNzTZGeN" role="3uHU7B">
            <ref role="3cqZAo" node="7PtaNzTZGeI" resolve="imdecl" />
          </node>
          <node concept="10Nm6u" id="6EBM_lhz9q4" role="3uHU7w" />
        </node>
      </node>
      <node concept="3cpWs8" id="6EBM_lhz9qg" role="3cqZAp">
        <node concept="3cpWsn" id="6EBM_lhz9qh" role="3cpWs9">
          <property role="TrG5h" value="mclass" />
          <property role="3TUv4t" value="true" />
          <node concept="3Tqbb2" id="6EBM_lhz9qi" role="1tU5fm">
            <ref role="ehGHo" to="tpee:g7pOWCK" resolve="Classifier" />
          </node>
          <node concept="2OqwBi" id="6EBM_lhz9qj" role="33vP2m">
            <node concept="37vLTw" id="7PtaNzTZHKT" role="2Oq$k0">
              <ref role="3cqZAo" node="7PtaNzTZGeI" resolve="imdecl" />
            </node>
            <node concept="2Xjw5R" id="6EBM_lhz9qk" role="2OqNvi">
              <node concept="1xMEDy" id="6EBM_lhz9ql" role="1xVPHs">
                <node concept="chp4Y" id="6EBM_lhz9qm" role="ri$Ld">
                  <ref role="cht4Q" to="tpee:g7pOWCK" resolve="Classifier" />
                </node>
              </node>
            </node>
          </node>
        </node>
      </node>
      <node concept="3clFbJ" id="7PtaNzTZIFs" role="3cqZAp">
        <node concept="3clFbC" id="7PtaNzTZJgA" role="3clFbw">
          <node concept="10Nm6u" id="7PtaNzTZJgH" role="3uHU7w" />
          <node concept="37vLTw" id="7PtaNzTZIT5" role="3uHU7B">
            <ref role="3cqZAo" node="6EBM_lhz9qh" resolve="mclass" />
          </node>
        </node>
        <node concept="3clFbS" id="7PtaNzTZIFu" role="3clFbx">
          <node concept="3cpWs6" id="7PtaNzTZJgK" role="3cqZAp" />
        </node>
      </node>
      <node concept="3clFbH" id="7PtaNzTZJgV" role="3cqZAp" />
      <node concept="3cpWs8" id="7PtaNzTZUk8" role="3cqZAp">
        <node concept="3cpWsn" id="7PtaNzTZUk9" role="3cpWs9">
          <property role="TrG5h" value="exmdecl" />
          <node concept="3Tqbb2" id="7PtaNzTZUka" role="1tU5fm">
            <ref role="ehGHo" to="uigu:1m3OroNpuvT" resolve="ExtensionMethodDeclaration" />
          </node>
          <node concept="2OqwBi" id="7PtaNzTZUkb" role="33vP2m">
            <node concept="1YBJjd" id="7PtaNzTZUkc" role="2Oq$k0">
              <ref role="1YBMHb" node="6EBM_lhz9pZ" resolve="lexmcall" />
            </node>
            <node concept="2Xjw5R" id="7PtaNzTZUkd" role="2OqNvi">
              <node concept="1xMEDy" id="7PtaNzTZUke" role="1xVPHs">
                <node concept="chp4Y" id="7PtaNzTZUkf" role="ri$Ld">
                  <ref role="cht4Q" to="uigu:1m3OroNpuvT" resolve="ExtensionMethodDeclaration" />
                </node>
              </node>
            </node>
          </node>
        </node>
      </node>
      <node concept="3clFbJ" id="7PtaNzTZUrh" role="3cqZAp">
        <node concept="3clFbC" id="7PtaNzTZVk7" role="3clFbw">
          <node concept="10Nm6u" id="7PtaNzTZVnN" role="3uHU7w" />
          <node concept="37vLTw" id="7PtaNzTZUDN" role="3uHU7B">
            <ref role="3cqZAo" node="7PtaNzTZUk9" resolve="exmdecl" />
          </node>
        </node>
        <node concept="3clFbS" id="7PtaNzTZUrj" role="3clFbx">
          <node concept="3cpWs6" id="7PtaNzTZVnQ" role="3cqZAp" />
        </node>
      </node>
      <node concept="3clFbH" id="7PtaNzTZUoU" role="3cqZAp" />
      <node concept="3cpWs8" id="2W0rjiHmGxS" role="3cqZAp">
        <node concept="3cpWsn" id="2W0rjiHmGxT" role="3cpWs9">
          <property role="TrG5h" value="exclass" />
          <property role="3TUv4t" value="false" />
          <node concept="3Tqbb2" id="2W0rjiHmGxV" role="1tU5fm">
            <ref role="ehGHo" to="tpee:g7pOWCK" resolve="Classifier" />
          </node>
          <node concept="2OqwBi" id="2W0rjiHmGxX" role="33vP2m">
            <node concept="37vLTw" id="7PtaNzTZUkg" role="2Oq$k0">
              <ref role="3cqZAo" node="7PtaNzTZUk9" resolve="exmdecl" />
            </node>
            <node concept="2qgKlT" id="2W0rjiHmGy3" role="2OqNvi">
              <ref role="37wK5l" to="5tns:6EBM_lhz9HU" resolve="getClassifier" />
            </node>
          </node>
        </node>
      </node>
      <node concept="3clFbJ" id="2W0rjiHmG9H" role="3cqZAp">
        <node concept="3clFbS" id="2W0rjiHmG9I" role="3clFbx">
          <node concept="3clFbF" id="2W0rjiHmG9J" role="3cqZAp">
            <node concept="37vLTI" id="2W0rjiHmG9K" role="3clFbG">
              <node concept="37vLTw" id="3GM_nagTyP0" role="37vLTJ">
                <ref role="3cqZAo" node="2W0rjiHmGxT" resolve="exclass" />
              </node>
              <node concept="2OqwBi" id="2W0rjiHmG9M" role="37vLTx">
                <node concept="2Xjw5R" id="2W0rjiHmG9N" role="2OqNvi">
                  <node concept="1xMEDy" id="2W0rjiHmG9O" role="1xVPHs">
                    <node concept="chp4Y" id="2W0rjiHmG9P" role="ri$Ld">
                      <ref role="cht4Q" to="tpee:g7pOWCK" resolve="Classifier" />
                    </node>
                  </node>
                </node>
                <node concept="1YBJjd" id="2W0rjiHmG9Q" role="2Oq$k0">
                  <ref role="1YBMHb" node="6EBM_lhz9pZ" resolve="lexmcall" />
                </node>
              </node>
            </node>
          </node>
        </node>
        <node concept="3clFbC" id="2W0rjiHmG9R" role="3clFbw">
          <node concept="10Nm6u" id="2W0rjiHmG9S" role="3uHU7w" />
          <node concept="37vLTw" id="3GM_nagTtil" role="3uHU7B">
            <ref role="3cqZAo" node="2W0rjiHmGxT" resolve="exclass" />
          </node>
        </node>
      </node>
      <node concept="2Mj0R9" id="7PtaNzTZWAn" role="3cqZAp">
        <node concept="1YBJjd" id="7PtaNzTZYjD" role="2OEOjV">
          <ref role="1YBMHb" node="6EBM_lhz9pZ" resolve="lexmcall" />
        </node>
        <node concept="Xl_RD" id="7PtaNzTZY6k" role="2MkJ7o">
          <property role="Xl_RC" value="invalid operand type" />
        </node>
        <node concept="2OqwBi" id="7PtaNzTZX9H" role="2MkoU_">
          <node concept="2qgKlT" id="7PtaNzTZY5O" role="2OqNvi">
            <ref role="37wK5l" to="tpek:6dL7A1DpKo1" resolve="isDescendant" />
            <node concept="37vLTw" id="7PtaNzTZY6i" role="37wK5m">
              <ref role="3cqZAo" node="6EBM_lhz9qh" resolve="mclass" />
            </node>
          </node>
          <node concept="37vLTw" id="7PtaNzTZWM6" role="2Oq$k0">
            <ref role="3cqZAo" node="2W0rjiHmGxT" resolve="exclass" />
          </node>
        </node>
      </node>
      <node concept="3clFbJ" id="7PtaNzTZJj1" role="3cqZAp">
        <node concept="3clFbC" id="7PtaNzTZJSd" role="3clFbw">
          <node concept="10Nm6u" id="7PtaNzTZJSk" role="3uHU7w" />
          <node concept="37vLTw" id="7PtaNzTZJwG" role="3uHU7B">
            <ref role="3cqZAo" node="2W0rjiHmGxT" resolve="exclass" />
          </node>
        </node>
        <node concept="3clFbS" id="7PtaNzTZJj3" role="3clFbx">
          <node concept="3cpWs6" id="7PtaNzTZJSn" role="3cqZAp" />
        </node>
      </node>
      <node concept="3clFbH" id="7PtaNzTZI8F" role="3cqZAp" />
      <node concept="3cpWs8" id="7PtaNzU00AL" role="3cqZAp">
        <node concept="3cpWsn" id="7PtaNzU00AM" role="3cpWs9">
          <property role="TrG5h" value="thisType" />
          <node concept="3Tqbb2" id="7PtaNzU00AN" role="1tU5fm">
            <ref role="ehGHo" to="tpee:fz3vP1H" resolve="Type" />
          </node>
          <node concept="2OqwBi" id="7PtaNzU00AO" role="33vP2m">
            <node concept="2qgKlT" id="7PtaNzU00AP" role="2OqNvi">
              <ref role="37wK5l" to="5tns:6XkcKt_eUWM" resolve="getThisType" />
            </node>
            <node concept="37vLTw" id="7PtaNzU00AQ" role="2Oq$k0">
              <ref role="3cqZAo" node="7PtaNzTZUk9" resolve="exmdecl" />
            </node>
          </node>
        </node>
      </node>
      <node concept="3cpWs8" id="7PtaNzU00Kb" role="3cqZAp">
        <node concept="3cpWsn" id="7PtaNzU00Kc" role="3cpWs9">
          <property role="TrG5h" value="subs" />
          <property role="3TUv4t" value="true" />
          <node concept="3rvAFt" id="7PtaNzU00Kd" role="1tU5fm">
            <node concept="3Tqbb2" id="7PtaNzU00Ke" role="3rvQeY" />
            <node concept="3Tqbb2" id="7PtaNzU00Kf" role="3rvSg0" />
          </node>
          <node concept="2ShNRf" id="7PtaNzU00Kg" role="33vP2m">
            <node concept="3rGOSV" id="7PtaNzU00Kh" role="2ShVmc">
              <node concept="3Tqbb2" id="7PtaNzU00Ki" role="3rHrn6" />
              <node concept="3Tqbb2" id="7PtaNzU00Kj" role="3rHtpV" />
            </node>
          </node>
        </node>
      </node>
      <node concept="3clFbJ" id="7PtaNzU00Kk" role="3cqZAp">
        <node concept="3clFbS" id="7PtaNzU00Kl" role="3clFbx">
          <node concept="3clFbF" id="7PtaNzU00Km" role="3cqZAp">
            <node concept="2OqwBi" id="7PtaNzU00Kn" role="3clFbG">
              <node concept="1PxgMI" id="7PtaNzU00Ko" role="2Oq$k0">
                <ref role="1m5ApE" to="tpee:3zZky3wF74d" resolve="IGenericType" />
                <node concept="37vLTw" id="7PtaNzU00Kp" role="1m5AlR">
                  <ref role="3cqZAo" node="7PtaNzU00AM" resolve="thisType" />
                </node>
              </node>
              <node concept="2qgKlT" id="7PtaNzU00Kq" role="2OqNvi">
                <ref role="37wK5l" to="tpek:3zZky3wF74h" resolve="collectGenericSubstitutions" />
                <node concept="37vLTw" id="3GM_nagTw2m" role="37wK5m">
                  <ref role="3cqZAo" node="7PtaNzU00Kc" resolve="subs" />
                </node>
              </node>
            </node>
          </node>
        </node>
        <node concept="2OqwBi" id="7PtaNzU00Ks" role="3clFbw">
          <node concept="37vLTw" id="7PtaNzU00Kt" role="2Oq$k0">
            <ref role="3cqZAo" node="7PtaNzU00AM" resolve="thisType" />
          </node>
          <node concept="1mIQ4w" id="7PtaNzU00Ku" role="2OqNvi">
            <node concept="chp4Y" id="7PtaNzU00Kv" role="cj9EA">
              <ref role="cht4Q" to="tpee:3zZky3wF74d" resolve="IGenericType" />
            </node>
          </node>
        </node>
      </node>
      <node concept="3clFbH" id="7PtaNzU05th" role="3cqZAp" />
      <node concept="3cpWs8" id="7PtaNzU05oh" role="3cqZAp">
        <node concept="3cpWsn" id="7PtaNzU05oi" role="3cpWs9">
          <property role="TrG5h" value="argTypes" />
          <property role="3TUv4t" value="true" />
          <node concept="2I9FWS" id="7PtaNzU05oj" role="1tU5fm" />
          <node concept="2ShNRf" id="7PtaNzU05ok" role="33vP2m">
            <node concept="2T8Vx0" id="7PtaNzU05ol" role="2ShVmc">
              <node concept="2I9FWS" id="7PtaNzU05om" role="2T96Bj" />
            </node>
          </node>
        </node>
      </node>
      <node concept="2Gpval" id="7PtaNzU05on" role="3cqZAp">
        <node concept="2GrKxI" id="7PtaNzU05oo" role="2Gsz3X">
          <property role="TrG5h" value="a" />
        </node>
        <node concept="3clFbS" id="7PtaNzU05op" role="2LFqv$">
          <node concept="3clFbF" id="7PtaNzU05oq" role="3cqZAp">
            <node concept="2OqwBi" id="7PtaNzU05or" role="3clFbG">
              <node concept="37vLTw" id="3GM_nagT$bF" role="2Oq$k0">
                <ref role="3cqZAo" node="7PtaNzU05oi" resolve="argTypes" />
              </node>
              <node concept="TSZUe" id="7PtaNzU05ot" role="2OqNvi">
                <node concept="1Z2H0r" id="7PtaNzU05ou" role="25WWJ7">
                  <node concept="2GrUjf" id="7PtaNzU05ov" role="1Z2MuG">
                    <ref role="2Gs0qQ" node="7PtaNzU05oo" resolve="a" />
                  </node>
                </node>
              </node>
            </node>
          </node>
        </node>
        <node concept="2OqwBi" id="7PtaNzU05ow" role="2GsD0m">
          <node concept="1YBJjd" id="7PtaNzU06Ja" role="2Oq$k0">
            <ref role="1YBMHb" node="6EBM_lhz9pZ" resolve="lexmcall" />
          </node>
          <node concept="3Tsc0h" id="7PtaNzU05oy" role="2OqNvi">
            <ref role="3TtcxE" to="tpee:fz7wK6I" />
          </node>
        </node>
      </node>
      <node concept="3clFbH" id="7PtaNzU00Kw" role="3cqZAp" />
      <node concept="3cpWs8" id="7PtaNzU01XE" role="3cqZAp">
        <node concept="3cpWsn" id="7PtaNzU01XF" role="3cpWs9">
          <property role="TrG5h" value="typel" />
          <node concept="2I9FWS" id="7PtaNzU01XG" role="1tU5fm">
            <ref role="2I9WkF" to="tpee:fz3vP1H" resolve="Type" />
          </node>
          <node concept="2OqwBi" id="7PtaNzU01XH" role="33vP2m">
            <node concept="37vLTw" id="7PtaNzU02lV" role="2Oq$k0">
              <ref role="3cqZAo" node="7PtaNzTZGeI" resolve="imdecl" />
            </node>
            <node concept="2qgKlT" id="7PtaNzU01XJ" role="2OqNvi">
              <ref role="37wK5l" to="tpek:7bu6bIyR2DR" resolve="getTypeApplicationParameters" />
              <node concept="2OqwBi" id="7PtaNzU01XK" role="37wK5m">
                <node concept="2OqwBi" id="7PtaNzU01XL" role="2Oq$k0">
                  <node concept="1YBJjd" id="7PtaNzU02uo" role="2Oq$k0">
                    <ref role="1YBMHb" node="6EBM_lhz9pZ" resolve="lexmcall" />
                  </node>
                  <node concept="3Tsc0h" id="7PtaNzU01XN" role="2OqNvi">
                    <ref role="3TtcxE" to="tpee:fz7wK6I" />
                  </node>
                </node>
                <node concept="34oBXx" id="7PtaNzU01XO" role="2OqNvi" />
              </node>
            </node>
          </node>
        </node>
      </node>
      <node concept="2Gpval" id="7PtaNzU01XP" role="3cqZAp">
        <node concept="2GrKxI" id="7PtaNzU01XQ" role="2Gsz3X">
          <property role="TrG5h" value="type" />
        </node>
        <node concept="37vLTw" id="3GM_nagT_Ci" role="2GsD0m">
          <ref role="3cqZAo" node="7PtaNzU01XF" resolve="typel" />
        </node>
        <node concept="3clFbS" id="7PtaNzU01XS" role="2LFqv$">
          <node concept="3clFbJ" id="7PtaNzU01XT" role="3cqZAp">
            <node concept="3clFbS" id="7PtaNzU01XU" role="3clFbx">
              <node concept="3clFbF" id="7PtaNzU01XV" role="3cqZAp">
                <node concept="2OqwBi" id="7PtaNzU01XW" role="3clFbG">
                  <node concept="1PxgMI" id="7PtaNzU01XX" role="2Oq$k0">
                    <ref role="1m5ApE" to="tpee:3zZky3wF74d" resolve="IGenericType" />
                    <node concept="2GrUjf" id="7PtaNzU01XY" role="1m5AlR">
                      <ref role="2Gs0qQ" node="7PtaNzU01XQ" resolve="type" />
                    </node>
                  </node>
                  <node concept="2qgKlT" id="7PtaNzU01XZ" role="2OqNvi">
                    <ref role="37wK5l" to="tpek:3zZky3wF74h" resolve="collectGenericSubstitutions" />
                    <node concept="37vLTw" id="3GM_nagTy25" role="37wK5m">
                      <ref role="3cqZAo" node="7PtaNzU00Kc" resolve="subs" />
                    </node>
                  </node>
                </node>
              </node>
            </node>
            <node concept="2OqwBi" id="7PtaNzU01Y1" role="3clFbw">
              <node concept="1mIQ4w" id="7PtaNzU01Y2" role="2OqNvi">
                <node concept="chp4Y" id="7PtaNzU01Y3" role="cj9EA">
                  <ref role="cht4Q" to="tpee:3zZky3wF74d" resolve="IGenericType" />
                </node>
              </node>
              <node concept="2GrUjf" id="7PtaNzU01Y4" role="2Oq$k0">
                <ref role="2Gs0qQ" node="7PtaNzU01XQ" resolve="type" />
              </node>
            </node>
          </node>
        </node>
      </node>
      <node concept="3clFbH" id="7PtaNzU00FV" role="3cqZAp" />
      <node concept="3cpWs8" id="7PtaNzU03I5" role="3cqZAp">
        <node concept="3cpWsn" id="7PtaNzU03I6" role="3cpWs9">
          <property role="TrG5h" value="retType" />
          <node concept="3Tqbb2" id="7PtaNzU03I7" role="1tU5fm" />
          <node concept="2OqwBi" id="7PtaNzU03I8" role="33vP2m">
            <node concept="37vLTw" id="7PtaNzU049k" role="2Oq$k0">
              <ref role="3cqZAo" node="7PtaNzTZGeI" resolve="imdecl" />
            </node>
            <node concept="3TrEf2" id="7PtaNzU03Ia" role="2OqNvi">
              <ref role="3Tt5mk" to="tpee:fzclF7X" />
            </node>
          </node>
        </node>
      </node>
      <node concept="3clFbJ" id="7PtaNzU03Ib" role="3cqZAp">
        <node concept="3clFbS" id="7PtaNzU03Ic" role="3clFbx">
          <node concept="3clFbF" id="7PtaNzU03Id" role="3cqZAp">
            <node concept="2OqwBi" id="7PtaNzU03Ie" role="3clFbG">
              <node concept="1PxgMI" id="7PtaNzU03If" role="2Oq$k0">
                <ref role="1m5ApE" to="tpee:3zZky3wF74d" resolve="IGenericType" />
                <node concept="37vLTw" id="3GM_nagTyym" role="1m5AlR">
                  <ref role="3cqZAo" node="7PtaNzU03I6" resolve="retType" />
                </node>
              </node>
              <node concept="2qgKlT" id="7PtaNzU03Ih" role="2OqNvi">
                <ref role="37wK5l" to="tpek:3zZky3wF74h" resolve="collectGenericSubstitutions" />
                <node concept="37vLTw" id="3GM_nagTy8L" role="37wK5m">
                  <ref role="3cqZAo" node="7PtaNzU00Kc" resolve="subs" />
                </node>
              </node>
            </node>
          </node>
          <node concept="3clFbF" id="7PtaNzU03Ij" role="3cqZAp">
            <node concept="37vLTI" id="7PtaNzU03Ik" role="3clFbG">
              <node concept="2OqwBi" id="7PtaNzU03Il" role="37vLTx">
                <node concept="1PxgMI" id="7PtaNzU03Im" role="2Oq$k0">
                  <ref role="1m5ApE" to="tpee:3zZky3wF74d" resolve="IGenericType" />
                  <node concept="37vLTw" id="3GM_nagTBGY" role="1m5AlR">
                    <ref role="3cqZAo" node="7PtaNzU03I6" resolve="retType" />
                  </node>
                </node>
                <node concept="2qgKlT" id="7PtaNzU03Io" role="2OqNvi">
                  <ref role="37wK5l" to="tpek:3zZky3wFPhu" resolve="expandGenerics" />
                  <node concept="37vLTw" id="3GM_nagT_jT" role="37wK5m">
                    <ref role="3cqZAo" node="7PtaNzU00Kc" resolve="subs" />
                  </node>
                </node>
              </node>
              <node concept="37vLTw" id="3GM_nagTxyJ" role="37vLTJ">
                <ref role="3cqZAo" node="7PtaNzU03I6" resolve="retType" />
              </node>
            </node>
          </node>
        </node>
        <node concept="2OqwBi" id="7PtaNzU03Ir" role="3clFbw">
          <node concept="37vLTw" id="3GM_nagTsQI" role="2Oq$k0">
            <ref role="3cqZAo" node="7PtaNzU03I6" resolve="retType" />
          </node>
          <node concept="1mIQ4w" id="7PtaNzU03It" role="2OqNvi">
            <node concept="chp4Y" id="7PtaNzU03Iu" role="cj9EA">
              <ref role="cht4Q" to="tpee:3zZky3wF74d" resolve="IGenericType" />
            </node>
          </node>
        </node>
      </node>
      <node concept="1ZobV4" id="7PtaNzU03Iv" role="3cqZAp">
        <property role="Ob790" value="0" />
        <property role="3wDh2S" value="false" />
        <node concept="mw_s8" id="7PtaNzU03Iw" role="1ZfhKB">
          <node concept="1Z2H0r" id="7PtaNzU03Ix" role="mwGJk">
            <node concept="1YBJjd" id="7PtaNzU04ey" role="1Z2MuG">
              <ref role="1YBMHb" node="6EBM_lhz9pZ" resolve="lexmcall" />
            </node>
          </node>
        </node>
        <node concept="mw_s8" id="7PtaNzU03Iz" role="1ZfhK$">
          <node concept="37vLTw" id="3GM_nagTz33" role="mwGJk">
            <ref role="3cqZAo" node="7PtaNzU03I6" resolve="retType" />
          </node>
        </node>
      </node>
      <node concept="3clFbH" id="7PtaNzU03I_" role="3cqZAp" />
      <node concept="1_o_46" id="7PtaNzU05hx" role="3cqZAp">
        <node concept="1_o_bx" id="7PtaNzU05hy" role="1_o_by">
          <node concept="1_o_bG" id="7PtaNzU05hz" role="1_o_aQ">
            <property role="TrG5h" value="type" />
          </node>
          <node concept="37vLTw" id="3GM_nagTyhq" role="1_o_bz">
            <ref role="3cqZAo" node="7PtaNzU01XF" resolve="typel" />
          </node>
        </node>
        <node concept="1_o_bx" id="7PtaNzU05h_" role="1_o_by">
          <node concept="37vLTw" id="7PtaNzU07PM" role="1_o_bz">
            <ref role="3cqZAo" node="7PtaNzU05oi" resolve="argTypes" />
          </node>
          <node concept="1_o_bG" id="7PtaNzU05hA" role="1_o_aQ">
            <property role="TrG5h" value="argt" />
          </node>
        </node>
        <node concept="3clFbS" id="7PtaNzU05hC" role="2LFqv$">
          <node concept="3cpWs8" id="7PtaNzU05hD" role="3cqZAp">
            <node concept="3cpWsn" id="7PtaNzU05hE" role="3cpWs9">
              <property role="TrG5h" value="_type" />
              <property role="3TUv4t" value="true" />
              <node concept="3Tqbb2" id="7PtaNzU05hF" role="1tU5fm">
                <ref role="ehGHo" to="tpee:fz3vP1H" resolve="Type" />
              </node>
              <node concept="3M$PaV" id="7PtaNzU05hG" role="33vP2m">
                <ref role="3M$S_o" node="7PtaNzU05hz" resolve="type" />
              </node>
            </node>
          </node>
          <node concept="3clFbJ" id="7PtaNzU05hH" role="3cqZAp">
            <node concept="3clFbS" id="7PtaNzU05hI" role="3clFbx">
              <node concept="nvevp" id="7PtaNzU05hJ" role="3cqZAp">
                <property role="2Z_7o9" value="true" />
                <node concept="3clFbS" id="7PtaNzU05hK" role="nvhr_">
                  <node concept="1ZoDhX" id="7PtaNzU05hL" role="3cqZAp">
                    <node concept="mw_s8" id="7PtaNzU05hM" role="1ZfhKB">
                      <node concept="2X3wrD" id="7PtaNzU05hN" role="mwGJk">
                        <ref role="2X3Bk0" node="7PtaNzU05hU" resolve="A" />
                      </node>
                    </node>
                    <node concept="mw_s8" id="7PtaNzU05hO" role="1ZfhK$">
                      <node concept="2OqwBi" id="7PtaNzU05hP" role="mwGJk">
                        <node concept="1PxgMI" id="7PtaNzU05hQ" role="2Oq$k0">
                          <ref role="1m5ApE" to="tpee:3zZky3wF74d" resolve="IGenericType" />
                          <node concept="37vLTw" id="3GM_nagTzpk" role="1m5AlR">
                            <ref role="3cqZAo" node="7PtaNzU05hE" resolve="_type" />
                          </node>
                        </node>
                        <node concept="2qgKlT" id="7PtaNzU05hS" role="2OqNvi">
                          <ref role="37wK5l" to="tpek:3zZky3wFPhu" resolve="expandGenerics" />
                          <node concept="37vLTw" id="3GM_nagT$aA" role="37wK5m">
                            <ref role="3cqZAo" node="7PtaNzU00Kc" resolve="subs" />
                          </node>
                        </node>
                      </node>
                    </node>
                  </node>
                </node>
                <node concept="2X1qdy" id="7PtaNzU05hU" role="2X0Ygz">
                  <property role="TrG5h" value="A" />
                  <node concept="2jxLKc" id="7PtaNzU05hV" role="1tU5fm" />
                </node>
                <node concept="3M$PaV" id="7PtaNzU05hW" role="nvjzm">
                  <ref role="3M$S_o" node="7PtaNzU05hA" resolve="argt" />
                </node>
              </node>
            </node>
            <node concept="2OqwBi" id="7PtaNzU05hX" role="3clFbw">
              <node concept="37vLTw" id="3GM_nagT$Wf" role="2Oq$k0">
                <ref role="3cqZAo" node="7PtaNzU05hE" resolve="_type" />
              </node>
              <node concept="1mIQ4w" id="7PtaNzU05hZ" role="2OqNvi">
                <node concept="chp4Y" id="7PtaNzU05i0" role="cj9EA">
                  <ref role="cht4Q" to="tpee:3zZky3wF74d" resolve="IGenericType" />
                </node>
              </node>
            </node>
            <node concept="9aQIb" id="7PtaNzU05i1" role="9aQIa">
              <node concept="3clFbS" id="7PtaNzU05i2" role="9aQI4">
                <node concept="1ZoDhX" id="7PtaNzU05i3" role="3cqZAp">
                  <property role="Ob790" value="0" />
                  <property role="3wDh2S" value="true" />
                  <node concept="mw_s8" id="7PtaNzU05i4" role="1ZfhKB">
                    <node concept="1Z2H0r" id="7PtaNzU05i5" role="mwGJk">
                      <node concept="3M$PaV" id="7PtaNzU05i6" role="1Z2MuG">
                        <ref role="3M$S_o" node="7PtaNzU05hA" resolve="argt" />
                      </node>
                    </node>
                  </node>
                  <node concept="mw_s8" id="7PtaNzU05i7" role="1ZfhK$">
                    <node concept="37vLTw" id="3GM_nagTtkf" role="mwGJk">
                      <ref role="3cqZAo" node="7PtaNzU05hE" resolve="_type" />
                    </node>
                  </node>
                </node>
              </node>
            </node>
          </node>
        </node>
      </node>
    </node>
    <node concept="1YaCAy" id="6EBM_lhz9pZ" role="1YuTPh">
      <property role="TrG5h" value="lexmcall" />
      <ref role="1YaFvo" to="uigu:6EBM_lhyT5K" resolve="LocalExtendedMethodCall" />
    </node>
  </node>
</model>

