<?xml version="1.0" encoding="UTF-8"?>
<model ref="r:df7b9224-e397-4e2d-bdfc-e44150ec7d1a(jetbrains.mps.editor.contextActionsTool.lang.menus.runtime)">
  <persistence version="9" />
  <languages>
    <use id="f3061a53-9226-4cc5-a443-f952ceaf5816" name="jetbrains.mps.baseLanguage" version="4" />
  </languages>
  <imports>
    <import index="uddc" ref="1ed103c3-3aa6-49b7-9c21-6765ee11f224/java:jetbrains.mps.openapi.editor.menus.transformation(MPS.Editor/)" />
    <import index="wyt6" ref="6354ebe7-c22a-4a0f-ac54-50b52ab9b065/java:java.lang(JDK/)" />
    <import index="dxuu" ref="6354ebe7-c22a-4a0f-ac54-50b52ab9b065/java:javax.swing(JDK/)" />
    <import index="ze1i" ref="6ed54515-acc8-4d1e-a16c-9fd6cfe951ea/java:jetbrains.mps.smodel.runtime(MPS.Core/)" />
    <import index="mhfm" ref="3f233e7f-b8a6-46d2-a57f-795d56775243/java:org.jetbrains.annotations(Annotations/)" />
  </imports>
  <registry>
    <language id="f3061a53-9226-4cc5-a443-f952ceaf5816" name="jetbrains.mps.baseLanguage">
      <concept id="1465982738277781862" name="jetbrains.mps.baseLanguage.structure.PlaceholderMember" flags="ng" index="2tJIrI" />
      <concept id="1188207840427" name="jetbrains.mps.baseLanguage.structure.AnnotationInstance" flags="nn" index="2AHcQZ">
        <reference id="1188208074048" name="annotation" index="2AI5Lk" />
      </concept>
      <concept id="1188208481402" name="jetbrains.mps.baseLanguage.structure.HasAnnotation" flags="ng" index="2AJDlI">
        <child id="1188208488637" name="annotation" index="2AJF6D" />
      </concept>
      <concept id="1070462154015" name="jetbrains.mps.baseLanguage.structure.StaticFieldDeclaration" flags="ig" index="Wx3nA">
        <property id="6468716278899126575" name="isVolatile" index="2dlcS1" />
        <property id="6468716278899125786" name="isTransient" index="2dld4O" />
      </concept>
      <concept id="1070475926800" name="jetbrains.mps.baseLanguage.structure.StringLiteral" flags="nn" index="Xl_RD">
        <property id="1070475926801" name="value" index="Xl_RC" />
      </concept>
      <concept id="1068390468198" name="jetbrains.mps.baseLanguage.structure.ClassConcept" flags="ig" index="312cEu">
        <property id="1221565133444" name="isFinal" index="1EXbeo" />
      </concept>
      <concept id="1068431474542" name="jetbrains.mps.baseLanguage.structure.VariableDeclaration" flags="ng" index="33uBYm">
        <property id="1176718929932" name="isFinal" index="3TUv4t" />
        <child id="1068431790190" name="initializer" index="33vP2m" />
      </concept>
      <concept id="1225271177708" name="jetbrains.mps.baseLanguage.structure.StringType" flags="in" index="17QB3L" />
      <concept id="4972933694980447171" name="jetbrains.mps.baseLanguage.structure.BaseVariableDeclaration" flags="ng" index="19Szcq">
        <child id="5680397130376446158" name="type" index="1tU5fm" />
      </concept>
      <concept id="1068580123132" name="jetbrains.mps.baseLanguage.structure.BaseMethodDeclaration" flags="ng" index="3clF44">
        <property id="4276006055363816570" name="isSynchronized" index="od$2w" />
        <property id="1181808852946" name="isFinal" index="DiZV1" />
        <child id="1068580123133" name="returnType" index="3clF45" />
        <child id="1068580123135" name="body" index="3clF47" />
      </concept>
      <concept id="1068580123165" name="jetbrains.mps.baseLanguage.structure.InstanceMethodDeclaration" flags="ig" index="3clFb_">
        <property id="1178608670077" name="isAbstract" index="1EzhhJ" />
      </concept>
      <concept id="1068580123136" name="jetbrains.mps.baseLanguage.structure.StatementList" flags="sn" stub="5293379017992965193" index="3clFbS" />
      <concept id="1068580123140" name="jetbrains.mps.baseLanguage.structure.ConstructorDeclaration" flags="ig" index="3clFbW" />
      <concept id="1068581517677" name="jetbrains.mps.baseLanguage.structure.VoidType" flags="in" index="3cqZAl" />
      <concept id="1107461130800" name="jetbrains.mps.baseLanguage.structure.Classifier" flags="ng" index="3pOWGL">
        <property id="521412098689998745" name="nonStatic" index="2bfB8j" />
        <child id="5375687026011219971" name="member" index="jymVt" unordered="true" />
      </concept>
      <concept id="1107535904670" name="jetbrains.mps.baseLanguage.structure.ClassifierType" flags="in" index="3uibUv">
        <reference id="1107535924139" name="classifier" index="3uigEE" />
      </concept>
      <concept id="1178549954367" name="jetbrains.mps.baseLanguage.structure.IVisible" flags="ng" index="1B3ioH">
        <child id="1178549979242" name="visibility" index="1B3o_S" />
      </concept>
      <concept id="1107796713796" name="jetbrains.mps.baseLanguage.structure.Interface" flags="ig" index="3HP615">
        <child id="1107797138135" name="extendedInterface" index="3HQHJm" />
      </concept>
      <concept id="1146644602865" name="jetbrains.mps.baseLanguage.structure.PublicVisibility" flags="nn" index="3Tm1VV" />
      <concept id="1146644623116" name="jetbrains.mps.baseLanguage.structure.PrivateVisibility" flags="nn" index="3Tm6S6" />
    </language>
    <language id="ceab5195-25ea-4f22-9b92-103b95ca8c0c" name="jetbrains.mps.lang.core">
      <concept id="1169194658468" name="jetbrains.mps.lang.core.structure.INamedConcept" flags="ng" index="TrEIO">
        <property id="1169194664001" name="name" index="TrG5h" />
      </concept>
    </language>
  </registry>
  <node concept="312cEu" id="69nPU$vWSqd">
    <property role="TrG5h" value="MenuLocations" />
    <property role="1EXbeo" value="false" />
    <node concept="3clFbW" id="69nPU$vWZRZ" role="jymVt">
      <node concept="3cqZAl" id="69nPU$vWZS0" role="3clF45" />
      <node concept="3clFbS" id="69nPU$vWZS2" role="3clF47" />
      <node concept="3Tm6S6" id="69nPU$vWZOG" role="1B3o_S" />
    </node>
    <node concept="2tJIrI" id="69nPU$vWZSj" role="jymVt" />
    <node concept="Wx3nA" id="69nPU$vX00o" role="jymVt">
      <property role="2dlcS1" value="false" />
      <property role="2dld4O" value="false" />
      <property role="TrG5h" value="CONTEXT_ACTIONS_TOOL" />
      <property role="3TUv4t" value="true" />
      <node concept="3Tm1VV" id="69nPU$vWZUs" role="1B3o_S" />
      <node concept="17QB3L" id="69nPU$vX00k" role="1tU5fm" />
      <node concept="Xl_RD" id="69nPU$vX06x" role="33vP2m">
        <property role="Xl_RC" value="jetbrains.mps.editor.contextActionsTool.CONTEXT_ACTIONS_TOOL" />
      </node>
    </node>
    <node concept="3Tm1VV" id="69nPU$vWSqe" role="1B3o_S" />
  </node>
  <node concept="3HP615" id="601$vVQgJ24">
    <property role="TrG5h" value="SidebarActionItem" />
    <property role="2bfB8j" value="true" />
    <node concept="3Tm1VV" id="601$vVQgJ25" role="1B3o_S" />
    <node concept="3uibUv" id="601$vVQgJ26" role="3HQHJm">
      <ref role="3uigEE" to="uddc:~ActionItem" resolve="ActionItem" />
    </node>
    <node concept="3clFb_" id="601$vVQgJ27" role="jymVt">
      <property role="1EzhhJ" value="true" />
      <property role="TrG5h" value="getTooltipText" />
      <property role="DiZV1" value="false" />
      <property role="od$2w" value="false" />
      <node concept="3Tm1VV" id="601$vVQgJ28" role="1B3o_S" />
      <node concept="3clFbS" id="601$vVQgJ29" role="3clF47" />
      <node concept="17QB3L" id="3uJzduifiHI" role="3clF45" />
      <node concept="2AHcQZ" id="3uJzduifiI7" role="2AJF6D">
        <ref role="2AI5Lk" to="mhfm:~Nullable" resolve="Nullable" />
      </node>
    </node>
    <node concept="3clFb_" id="601$vVQgJ2b" role="jymVt">
      <property role="1EzhhJ" value="true" />
      <property role="TrG5h" value="getIcon" />
      <property role="DiZV1" value="false" />
      <property role="od$2w" value="false" />
      <node concept="3Tm1VV" id="601$vVQgJ2c" role="1B3o_S" />
      <node concept="3clFbS" id="601$vVQgJ2d" role="3clF47" />
      <node concept="3uibUv" id="3uJzduifiHl" role="3clF45">
        <ref role="3uigEE" to="ze1i:~IconResource" resolve="IconResource" />
      </node>
      <node concept="2AHcQZ" id="3uJzduifiIV" role="2AJF6D">
        <ref role="2AI5Lk" to="mhfm:~Nullable" resolve="Nullable" />
      </node>
    </node>
  </node>
</model>

