<?xml version="1.0" encoding="UTF-8"?>
<model ref="r:00000000-0000-4000-0000-011c895902ec(jetbrains.mps.lang.generator.generationContext.actions)">
  <persistence version="9" />
  <languages>
    <use id="fd392034-7849-419d-9071-12563d152375" name="jetbrains.mps.baseLanguage.closures" version="0" />
    <use id="83888646-71ce-4f1c-9c53-c54016f6ad4f" name="jetbrains.mps.baseLanguage.collections" version="0" />
    <use id="aee9cad2-acd4-4608-aef2-0004f6a1cdbd" name="jetbrains.mps.lang.actions" version="0" />
    <use id="13744753-c81f-424a-9c1b-cf8943bf4e86" name="jetbrains.mps.lang.sharedConcepts" version="0" />
    <use id="7a5dda62-9140-4668-ab76-d5ed1746f2b2" name="jetbrains.mps.lang.typesystem" version="0" />
    <use id="7866978e-a0f0-4cc7-81bc-4d213d9375e1" name="jetbrains.mps.lang.smodel" version="4" />
    <use id="f3061a53-9226-4cc5-a443-f952ceaf5816" name="jetbrains.mps.baseLanguage" version="4" />
  </languages>
  <imports>
    <import index="tpf3" ref="r:00000000-0000-4000-0000-011c895902f3(jetbrains.mps.lang.generator.generationContext.structure)" />
    <import index="tpee" ref="r:00000000-0000-4000-0000-011c895902ca(jetbrains.mps.baseLanguage.structure)" />
    <import index="tpck" ref="r:00000000-0000-4000-0000-011c89590288(jetbrains.mps.lang.core.structure)" />
    <import index="tpf6" ref="r:00000000-0000-4000-0000-011c895902ee(jetbrains.mps.lang.generator.generationContext.constraints)" />
    <import index="tpfh" ref="r:00000000-0000-4000-0000-011c895902e1(jetbrains.mps.lang.generator.behavior)" />
    <import index="tpf8" ref="r:00000000-0000-4000-0000-011c895902e8(jetbrains.mps.lang.generator.structure)" />
    <import index="c17a" ref="8865b7a8-5271-43d3-884c-6fd1d9cfdd34/java:org.jetbrains.mps.openapi.language(MPS.OpenAPI/)" implicit="true" />
  </imports>
  <registry>
    <language id="13744753-c81f-424a-9c1b-cf8943bf4e86" name="jetbrains.mps.lang.sharedConcepts">
      <concept id="1161622665029" name="jetbrains.mps.lang.sharedConcepts.structure.ConceptFunctionParameter_model" flags="nn" index="1Q6Npb" />
    </language>
    <language id="f3061a53-9226-4cc5-a443-f952ceaf5816" name="jetbrains.mps.baseLanguage">
      <concept id="1215693861676" name="jetbrains.mps.baseLanguage.structure.BaseAssignmentExpression" flags="nn" index="d038R">
        <child id="1068498886297" name="rValue" index="37vLTx" />
        <child id="1068498886295" name="lValue" index="37vLTJ" />
      </concept>
      <concept id="4836112446988635817" name="jetbrains.mps.baseLanguage.structure.UndefinedType" flags="in" index="2jxLKc" />
      <concept id="1202948039474" name="jetbrains.mps.baseLanguage.structure.InstanceMethodCallOperation" flags="nn" index="liA8E" />
      <concept id="1076505808687" name="jetbrains.mps.baseLanguage.structure.WhileStatement" flags="nn" index="2$JKZl">
        <child id="1076505808688" name="condition" index="2$JKZa" />
      </concept>
      <concept id="1154032098014" name="jetbrains.mps.baseLanguage.structure.AbstractLoopStatement" flags="nn" index="2LF5Ji">
        <child id="1154032183016" name="body" index="2LFqv$" />
      </concept>
      <concept id="1197027756228" name="jetbrains.mps.baseLanguage.structure.DotExpression" flags="nn" index="2OqwBi">
        <child id="1197027771414" name="operand" index="2Oq$k0" />
        <child id="1197027833540" name="operation" index="2OqNvi" />
      </concept>
      <concept id="1145552977093" name="jetbrains.mps.baseLanguage.structure.GenericNewExpression" flags="nn" index="2ShNRf">
        <child id="1145553007750" name="creator" index="2ShVmc" />
      </concept>
      <concept id="1137021947720" name="jetbrains.mps.baseLanguage.structure.ConceptFunction" flags="in" index="2VMwT0">
        <child id="1137022507850" name="body" index="2VODD2" />
      </concept>
      <concept id="1070475926800" name="jetbrains.mps.baseLanguage.structure.StringLiteral" flags="nn" index="Xl_RD">
        <property id="1070475926801" name="value" index="Xl_RC" />
      </concept>
      <concept id="1081236700937" name="jetbrains.mps.baseLanguage.structure.StaticMethodCall" flags="nn" index="2YIFZM">
        <reference id="1144433194310" name="classConcept" index="1Pybhc" />
      </concept>
      <concept id="1070534058343" name="jetbrains.mps.baseLanguage.structure.NullLiteral" flags="nn" index="10Nm6u" />
      <concept id="1070534934090" name="jetbrains.mps.baseLanguage.structure.CastExpression" flags="nn" index="10QFUN">
        <child id="1070534934091" name="type" index="10QFUM" />
        <child id="1070534934092" name="expression" index="10QFUP" />
      </concept>
      <concept id="1068431474542" name="jetbrains.mps.baseLanguage.structure.VariableDeclaration" flags="ng" index="33uBYm">
        <child id="1068431790190" name="initializer" index="33vP2m" />
      </concept>
      <concept id="1068498886296" name="jetbrains.mps.baseLanguage.structure.VariableReference" flags="nn" index="37vLTw">
        <reference id="1068581517664" name="variableDeclaration" index="3cqZAo" />
      </concept>
      <concept id="1068498886294" name="jetbrains.mps.baseLanguage.structure.AssignmentExpression" flags="nn" index="37vLTI" />
      <concept id="1225271177708" name="jetbrains.mps.baseLanguage.structure.StringType" flags="in" index="17QB3L" />
      <concept id="4972933694980447171" name="jetbrains.mps.baseLanguage.structure.BaseVariableDeclaration" flags="ng" index="19Szcq">
        <child id="5680397130376446158" name="type" index="1tU5fm" />
      </concept>
      <concept id="1068580123155" name="jetbrains.mps.baseLanguage.structure.ExpressionStatement" flags="nn" index="3clFbF">
        <child id="1068580123156" name="expression" index="3clFbG" />
      </concept>
      <concept id="1068580123159" name="jetbrains.mps.baseLanguage.structure.IfStatement" flags="nn" index="3clFbJ">
        <child id="1068580123160" name="condition" index="3clFbw" />
        <child id="1068580123161" name="ifTrue" index="3clFbx" />
      </concept>
      <concept id="1068580123136" name="jetbrains.mps.baseLanguage.structure.StatementList" flags="sn" stub="5293379017992965193" index="3clFbS">
        <child id="1068581517665" name="statement" index="3cqZAp" />
      </concept>
      <concept id="1068581242875" name="jetbrains.mps.baseLanguage.structure.PlusExpression" flags="nn" index="3cpWs3" />
      <concept id="1068581242878" name="jetbrains.mps.baseLanguage.structure.ReturnStatement" flags="nn" index="3cpWs6">
        <child id="1068581517676" name="expression" index="3cqZAk" />
      </concept>
      <concept id="1068581242864" name="jetbrains.mps.baseLanguage.structure.LocalVariableDeclarationStatement" flags="nn" index="3cpWs8">
        <child id="1068581242865" name="localVariableDeclaration" index="3cpWs9" />
      </concept>
      <concept id="1068581242863" name="jetbrains.mps.baseLanguage.structure.LocalVariableDeclaration" flags="nr" index="3cpWsn" />
      <concept id="1081516740877" name="jetbrains.mps.baseLanguage.structure.NotExpression" flags="nn" index="3fqX7Q">
        <child id="1081516765348" name="expression" index="3fr31v" />
      </concept>
      <concept id="1204053956946" name="jetbrains.mps.baseLanguage.structure.IMethodCall" flags="ng" index="1ndlxa">
        <reference id="1068499141037" name="baseMethodDeclaration" index="37wK5l" />
        <child id="1068499141038" name="actualArgument" index="37wK5m" />
      </concept>
      <concept id="1081773326031" name="jetbrains.mps.baseLanguage.structure.BinaryOperation" flags="nn" index="3uHJSO">
        <child id="1081773367579" name="rightExpression" index="3uHU7w" />
        <child id="1081773367580" name="leftExpression" index="3uHU7B" />
      </concept>
      <concept id="1073239437375" name="jetbrains.mps.baseLanguage.structure.NotEqualsExpression" flags="nn" index="3y3z36" />
      <concept id="1080120340718" name="jetbrains.mps.baseLanguage.structure.AndExpression" flags="nn" index="1Wc70l" />
    </language>
    <language id="fd392034-7849-419d-9071-12563d152375" name="jetbrains.mps.baseLanguage.closures">
      <concept id="1199569711397" name="jetbrains.mps.baseLanguage.closures.structure.ClosureLiteral" flags="nn" index="1bVj0M">
        <child id="1199569906740" name="parameter" index="1bW2Oz" />
        <child id="1199569916463" name="body" index="1bW5cS" />
      </concept>
    </language>
    <language id="7a5dda62-9140-4668-ab76-d5ed1746f2b2" name="jetbrains.mps.lang.typesystem">
      <concept id="1176544042499" name="jetbrains.mps.lang.typesystem.structure.Node_TypeOperation" flags="nn" index="3JvlWi" />
    </language>
    <language id="aee9cad2-acd4-4608-aef2-0004f6a1cdbd" name="jetbrains.mps.lang.actions">
      <concept id="1177323996388" name="jetbrains.mps.lang.actions.structure.AddMenuPart" flags="ng" index="tYCnQ" />
      <concept id="1177333529597" name="jetbrains.mps.lang.actions.structure.ConceptPart" flags="ng" index="uyZFJ">
        <reference id="1177333551023" name="concept" index="uz4UX" />
        <child id="1177333559040" name="part" index="uz6Si" />
      </concept>
      <concept id="1177337641126" name="jetbrains.mps.lang.actions.structure.ParameterizedSubstituteMenuPart" flags="ng" index="uMFAO">
        <child id="1177337679534" name="type" index="uMOYW" />
        <child id="1177338017561" name="query" index="uO7ob" />
        <child id="1177339186632" name="descriptionText" index="uS$Nq" />
        <child id="1177339421668" name="handler" index="uTubQ" />
      </concept>
      <concept id="1177337833147" name="jetbrains.mps.lang.actions.structure.ConceptFunctionParameter_parameterObject" flags="nn" index="uNquD" />
      <concept id="1177337890340" name="jetbrains.mps.lang.actions.structure.QueryFunction_ParameterizedSubstitute_Query" flags="in" index="uNCsQ" />
      <concept id="1177339114370" name="jetbrains.mps.lang.actions.structure.QueryFunction_ParameterizedSubstitute_String" flags="in" index="uSjag" />
      <concept id="1177339225103" name="jetbrains.mps.lang.actions.structure.QueryFunction_ParameterizedSubstitute_Handler" flags="in" index="uSIkt" />
      <concept id="1177398027324" name="jetbrains.mps.lang.actions.structure.ConceptsSubstituteMenuPart" flags="ng" index="yp2kI">
        <child id="1177398809232" name="query" index="ys1e2" />
      </concept>
      <concept id="5480835971642155304" name="jetbrains.mps.lang.actions.structure.NF_Model_CreateNewNodeOperation" flags="nn" index="15TzpJ" />
      <concept id="1158700664498" name="jetbrains.mps.lang.actions.structure.NodeFactories" flags="ng" index="37WguZ">
        <child id="1158700779049" name="nodeFactory" index="37WGs$" />
      </concept>
      <concept id="1158700725281" name="jetbrains.mps.lang.actions.structure.NodeFactory" flags="ig" index="37WvkG">
        <reference id="1158700943156" name="applicableConcept" index="37XkoT" />
        <child id="1158701448518" name="setupFunction" index="37ZfLb" />
      </concept>
      <concept id="1158701162220" name="jetbrains.mps.lang.actions.structure.NodeSetupFunction" flags="in" index="37Y9Zx" />
      <concept id="1154465102724" name="jetbrains.mps.lang.actions.structure.NodeSubstitutePreconditionFunction" flags="in" index="3buRE8" />
      <concept id="1154465273778" name="jetbrains.mps.lang.actions.structure.ConceptFunctionParameter_parentNode" flags="nn" index="3bvxqY" />
      <concept id="5584396657084912703" name="jetbrains.mps.lang.actions.structure.NodeSetupFunction_NewNode" flags="nn" index="1r4Lsj" />
      <concept id="5584396657084920413" name="jetbrains.mps.lang.actions.structure.NodeSetupFunction_SampleNode" flags="nn" index="1r4N5L" />
      <concept id="1112056943463" name="jetbrains.mps.lang.actions.structure.NodeSubstituteActions" flags="ng" index="3FK_9_">
        <child id="1112058057696" name="actionsBuilder" index="3FOPby" />
      </concept>
      <concept id="1112058030570" name="jetbrains.mps.lang.actions.structure.NodeSubstituteActionsBuilder" flags="ig" index="3FOIzC">
        <reference id="1112058088712" name="applicableConcept" index="3FOWKa" />
        <child id="1177324142645" name="part" index="tZc4B" />
        <child id="1154465386371" name="precondition" index="3bvWUf" />
      </concept>
    </language>
    <language id="7866978e-a0f0-4cc7-81bc-4d213d9375e1" name="jetbrains.mps.lang.smodel">
      <concept id="1177026924588" name="jetbrains.mps.lang.smodel.structure.RefConcept_Reference" flags="nn" index="chp4Y">
        <reference id="1177026940964" name="conceptDeclaration" index="cht4Q" />
      </concept>
      <concept id="1179409122411" name="jetbrains.mps.lang.smodel.structure.Node_ConceptMethodCall" flags="nn" index="2qgKlT" />
      <concept id="2396822768958367367" name="jetbrains.mps.lang.smodel.structure.AbstractTypeCastExpression" flags="nn" index="$5XWr">
        <reference id="6733348108486823428" name="concept" index="1m5ApE" />
        <child id="6733348108486823193" name="leftExpression" index="1m5AlR" />
      </concept>
      <concept id="8866923313515890008" name="jetbrains.mps.lang.smodel.structure.AsNodeOperation" flags="nn" index="FGMqu" />
      <concept id="1143235216708" name="jetbrains.mps.lang.smodel.structure.Model_CreateNewNodeOperation" flags="nn" index="I8ghe">
        <reference id="1143235391024" name="concept" index="I8UWU" />
      </concept>
      <concept id="1181952871644" name="jetbrains.mps.lang.smodel.structure.Concept_GetAllSubConcepts" flags="nn" index="LSoRf">
        <child id="1182506816063" name="smodel" index="1iTxcG" />
      </concept>
      <concept id="2644386474300074836" name="jetbrains.mps.lang.smodel.structure.ConceptIdRefExpression" flags="nn" index="35c_gC">
        <reference id="2644386474300074837" name="conceptDeclaration" index="35c_gD" />
      </concept>
      <concept id="6677504323281689838" name="jetbrains.mps.lang.smodel.structure.SConceptType" flags="in" index="3bZ5Sz">
        <reference id="6677504323281689839" name="conceptDeclaraton" index="3bZ5Sy" />
      </concept>
      <concept id="1139621453865" name="jetbrains.mps.lang.smodel.structure.Node_IsInstanceOfOperation" flags="nn" index="1mIQ4w">
        <child id="1177027386292" name="conceptArgument" index="cj9EA" />
      </concept>
      <concept id="1140137987495" name="jetbrains.mps.lang.smodel.structure.SNodeTypeCastExpression" flags="nn" index="1PxgMI" />
      <concept id="1138055754698" name="jetbrains.mps.lang.smodel.structure.SNodeType" flags="in" index="3Tqbb2">
        <reference id="1138405853777" name="concept" index="ehGHo" />
      </concept>
      <concept id="1138056022639" name="jetbrains.mps.lang.smodel.structure.SPropertyAccess" flags="nn" index="3TrcHB">
        <reference id="1138056395725" name="property" index="3TsBF5" />
      </concept>
      <concept id="1138056143562" name="jetbrains.mps.lang.smodel.structure.SLinkAccess" flags="nn" index="3TrEf2">
        <reference id="1138056516764" name="link" index="3Tt5mk" />
      </concept>
      <concept id="1172420572800" name="jetbrains.mps.lang.smodel.structure.ConceptNodeType" flags="in" index="3THzug">
        <reference id="1180481110358" name="conceptDeclaraton" index="3qa414" />
      </concept>
    </language>
    <language id="ceab5195-25ea-4f22-9b92-103b95ca8c0c" name="jetbrains.mps.lang.core">
      <concept id="1169194658468" name="jetbrains.mps.lang.core.structure.INamedConcept" flags="ng" index="TrEIO">
        <property id="1169194664001" name="name" index="TrG5h" />
      </concept>
    </language>
    <language id="83888646-71ce-4f1c-9c53-c54016f6ad4f" name="jetbrains.mps.baseLanguage.collections">
      <concept id="1204796164442" name="jetbrains.mps.baseLanguage.collections.structure.InternalSequenceOperation" flags="nn" index="23sCx2">
        <child id="1204796294226" name="closure" index="23t8la" />
      </concept>
      <concept id="1176906603202" name="jetbrains.mps.baseLanguage.collections.structure.BinaryOperation" flags="nn" index="56pJg">
        <child id="1176906787974" name="rightExpression" index="576Qk" />
      </concept>
      <concept id="540871147943773365" name="jetbrains.mps.baseLanguage.collections.structure.SingleArgumentSequenceOperation" flags="nn" index="25WWJ4">
        <child id="540871147943773366" name="argument" index="25WWJ7" />
      </concept>
      <concept id="1176923520476" name="jetbrains.mps.baseLanguage.collections.structure.ExcludeOperation" flags="nn" index="66VNe" />
      <concept id="1151688443754" name="jetbrains.mps.baseLanguage.collections.structure.ListType" flags="in" index="_YKpA">
        <child id="1151688676805" name="elementType" index="_ZDj9" />
      </concept>
      <concept id="1151689724996" name="jetbrains.mps.baseLanguage.collections.structure.SequenceType" flags="in" index="A3Dl8">
        <child id="1151689745422" name="elementType" index="A3Ik2" />
      </concept>
      <concept id="1151702311717" name="jetbrains.mps.baseLanguage.collections.structure.ToListOperation" flags="nn" index="ANE8D" />
      <concept id="1235573135402" name="jetbrains.mps.baseLanguage.collections.structure.SingletonSequenceCreator" flags="nn" index="2HTt$P">
        <child id="1235573175711" name="elementType" index="2HTBi0" />
        <child id="1235573187520" name="singletonValue" index="2HTEbv" />
      </concept>
      <concept id="1237721394592" name="jetbrains.mps.baseLanguage.collections.structure.AbstractContainerCreator" flags="nn" index="HWqM0">
        <child id="1237721435807" name="elementType" index="HW$YZ" />
      </concept>
      <concept id="1203518072036" name="jetbrains.mps.baseLanguage.collections.structure.SmartClosureParameterDeclaration" flags="ig" index="Rh6nW" />
      <concept id="1160600644654" name="jetbrains.mps.baseLanguage.collections.structure.ListCreatorWithInit" flags="nn" index="Tc6Ow" />
      <concept id="1160666733551" name="jetbrains.mps.baseLanguage.collections.structure.AddAllElementsOperation" flags="nn" index="X8dFx" />
      <concept id="1202120902084" name="jetbrains.mps.baseLanguage.collections.structure.WhereOperation" flags="nn" index="3zZkjj" />
      <concept id="1202128969694" name="jetbrains.mps.baseLanguage.collections.structure.SelectOperation" flags="nn" index="3$u5V9" />
    </language>
  </registry>
  <node concept="37WguZ" id="hHiAzjc">
    <property role="TrG5h" value="node_factories" />
    <node concept="37WvkG" id="hHiAC__" role="37WGs$">
      <ref role="37XkoT" to="tpf3:hHiwH3m" resolve="GenerationContextOp_GetOutputByLabel" />
      <node concept="37Y9Zx" id="hHiAC_A" role="37ZfLb">
        <node concept="3clFbS" id="hHiAC_B" role="2VODD2">
          <node concept="3clFbJ" id="hHiAC_C" role="3cqZAp">
            <node concept="2OqwBi" id="hHiAC_D" role="3clFbw">
              <node concept="1r4N5L" id="hHiAC_E" role="2Oq$k0" />
              <node concept="1mIQ4w" id="hHiAC_F" role="2OqNvi">
                <node concept="chp4Y" id="hHiAGIN" role="cj9EA">
                  <ref role="cht4Q" to="tpf3:hHiwH3r" resolve="GenerationContextOp_GetOutputByLabelAndInput" />
                </node>
              </node>
            </node>
            <node concept="3clFbS" id="hHiAC_H" role="3clFbx">
              <node concept="3clFbF" id="hHiAC_I" role="3cqZAp">
                <node concept="37vLTI" id="hHiAC_J" role="3clFbG">
                  <node concept="2OqwBi" id="hHiAC_K" role="37vLTJ">
                    <node concept="1r4Lsj" id="hHiAC_L" role="2Oq$k0" />
                    <node concept="3TrEf2" id="hHiAK7R" role="2OqNvi">
                      <ref role="3Tt5mk" to="tpf3:hHiwH3n" />
                    </node>
                  </node>
                  <node concept="2OqwBi" id="hHiAC_N" role="37vLTx">
                    <node concept="1PxgMI" id="hHiAC_O" role="2Oq$k0">
                      <ref role="1m5ApE" to="tpf3:hHiwH3r" resolve="GenerationContextOp_GetOutputByLabelAndInput" />
                      <node concept="1r4N5L" id="hHiAC_P" role="1m5AlR" />
                    </node>
                    <node concept="3TrEf2" id="hHiAKNO" role="2OqNvi">
                      <ref role="3Tt5mk" to="tpf3:hHiwH3s" />
                    </node>
                  </node>
                </node>
              </node>
            </node>
          </node>
          <node concept="3clFbJ" id="hLiEkfz" role="3cqZAp">
            <node concept="2OqwBi" id="hLiEkf$" role="3clFbw">
              <node concept="1r4N5L" id="hLiEkf_" role="2Oq$k0" />
              <node concept="1mIQ4w" id="hLiEkfA" role="2OqNvi">
                <node concept="chp4Y" id="hLiEp5Q" role="cj9EA">
                  <ref role="cht4Q" to="tpf3:hLiAAM3" resolve="GenerationContextOp_GetOutputListByLabelAndInput" />
                </node>
              </node>
            </node>
            <node concept="3clFbS" id="hLiEkfC" role="3clFbx">
              <node concept="3clFbF" id="hLiEkfD" role="3cqZAp">
                <node concept="37vLTI" id="hLiEkfE" role="3clFbG">
                  <node concept="2OqwBi" id="hLiEkfF" role="37vLTJ">
                    <node concept="1r4Lsj" id="hLiEkfG" role="2Oq$k0" />
                    <node concept="3TrEf2" id="hLiEkfH" role="2OqNvi">
                      <ref role="3Tt5mk" to="tpf3:hHiwH3n" />
                    </node>
                  </node>
                  <node concept="2OqwBi" id="hLiEkfI" role="37vLTx">
                    <node concept="1PxgMI" id="hLiEkfJ" role="2Oq$k0">
                      <ref role="1m5ApE" to="tpf3:hLiAAM3" resolve="GenerationContextOp_GetOutputListByLabelAndInput" />
                      <node concept="1r4N5L" id="hLiEkfK" role="1m5AlR" />
                    </node>
                    <node concept="3TrEf2" id="hLiEr3A" role="2OqNvi">
                      <ref role="3Tt5mk" to="tpf3:hLiAAM5" />
                    </node>
                  </node>
                </node>
              </node>
            </node>
          </node>
        </node>
      </node>
    </node>
    <node concept="37WvkG" id="hHiAC_R" role="37WGs$">
      <ref role="37XkoT" to="tpf3:hHiwH3r" resolve="GenerationContextOp_GetOutputByLabelAndInput" />
      <node concept="37Y9Zx" id="hHiAC_S" role="37ZfLb">
        <node concept="3clFbS" id="hHiAC_T" role="2VODD2">
          <node concept="3clFbJ" id="hHiAC_U" role="3cqZAp">
            <node concept="2OqwBi" id="hHiAC_V" role="3clFbw">
              <node concept="1r4N5L" id="hHiAC_W" role="2Oq$k0" />
              <node concept="1mIQ4w" id="hHiAC_X" role="2OqNvi">
                <node concept="chp4Y" id="hHiAC_Y" role="cj9EA">
                  <ref role="cht4Q" to="tpf3:hHiwH3m" resolve="GenerationContextOp_GetOutputByLabel" />
                </node>
              </node>
            </node>
            <node concept="3clFbS" id="hHiAC_Z" role="3clFbx">
              <node concept="3clFbF" id="hHiACA0" role="3cqZAp">
                <node concept="37vLTI" id="hHiACA1" role="3clFbG">
                  <node concept="2OqwBi" id="hHiACA2" role="37vLTJ">
                    <node concept="1r4Lsj" id="hHiACA3" role="2Oq$k0" />
                    <node concept="3TrEf2" id="hHiAOH6" role="2OqNvi">
                      <ref role="3Tt5mk" to="tpf3:hHiwH3s" />
                    </node>
                  </node>
                  <node concept="2OqwBi" id="hHiACA5" role="37vLTx">
                    <node concept="1PxgMI" id="hHiACA6" role="2Oq$k0">
                      <ref role="1m5ApE" to="tpf3:hHiwH3m" resolve="GenerationContextOp_GetOutputByLabel" />
                      <node concept="1r4N5L" id="hHiACA7" role="1m5AlR" />
                    </node>
                    <node concept="3TrEf2" id="hHiAPnQ" role="2OqNvi">
                      <ref role="3Tt5mk" to="tpf3:hHiwH3n" />
                    </node>
                  </node>
                </node>
              </node>
            </node>
          </node>
          <node concept="3clFbJ" id="hLiEIZN" role="3cqZAp">
            <node concept="2OqwBi" id="hLiEIZO" role="3clFbw">
              <node concept="1r4N5L" id="hLiEIZP" role="2Oq$k0" />
              <node concept="1mIQ4w" id="hLiEIZQ" role="2OqNvi">
                <node concept="chp4Y" id="hLiEKv0" role="cj9EA">
                  <ref role="cht4Q" to="tpf3:hLiAAM3" resolve="GenerationContextOp_GetOutputListByLabelAndInput" />
                </node>
              </node>
            </node>
            <node concept="3clFbS" id="hLiEIZS" role="3clFbx">
              <node concept="3clFbF" id="hLiEIZT" role="3cqZAp">
                <node concept="37vLTI" id="hLiEIZU" role="3clFbG">
                  <node concept="2OqwBi" id="hLiEIZV" role="37vLTJ">
                    <node concept="1r4Lsj" id="hLiEIZW" role="2Oq$k0" />
                    <node concept="3TrEf2" id="hLiEIZX" role="2OqNvi">
                      <ref role="3Tt5mk" to="tpf3:hHiwH3s" />
                    </node>
                  </node>
                  <node concept="2OqwBi" id="hLiEIZY" role="37vLTx">
                    <node concept="1PxgMI" id="hLiEIZZ" role="2Oq$k0">
                      <ref role="1m5ApE" to="tpf3:hLiAAM3" resolve="GenerationContextOp_GetOutputListByLabelAndInput" />
                      <node concept="1r4N5L" id="hLiEJ00" role="1m5AlR" />
                    </node>
                    <node concept="3TrEf2" id="hLiEMlr" role="2OqNvi">
                      <ref role="3Tt5mk" to="tpf3:hLiAAM5" />
                    </node>
                  </node>
                </node>
              </node>
            </node>
          </node>
        </node>
      </node>
    </node>
    <node concept="37WvkG" id="hLiEunL" role="37WGs$">
      <ref role="37XkoT" to="tpf3:hLiAAM3" resolve="GenerationContextOp_GetOutputListByLabelAndInput" />
      <node concept="37Y9Zx" id="hLiEunM" role="37ZfLb">
        <node concept="3clFbS" id="hLiEunN" role="2VODD2">
          <node concept="3clFbJ" id="hLiEunO" role="3cqZAp">
            <node concept="2OqwBi" id="hLiEunP" role="3clFbw">
              <node concept="1r4N5L" id="hLiEunQ" role="2Oq$k0" />
              <node concept="1mIQ4w" id="hLiEunR" role="2OqNvi">
                <node concept="chp4Y" id="hLiEunS" role="cj9EA">
                  <ref role="cht4Q" to="tpf3:hHiwH3m" resolve="GenerationContextOp_GetOutputByLabel" />
                </node>
              </node>
            </node>
            <node concept="3clFbS" id="hLiEunT" role="3clFbx">
              <node concept="3clFbF" id="hLiEunU" role="3cqZAp">
                <node concept="37vLTI" id="hLiEunV" role="3clFbG">
                  <node concept="2OqwBi" id="hLiEunW" role="37vLTJ">
                    <node concept="1r4Lsj" id="hLiEunX" role="2Oq$k0" />
                    <node concept="3TrEf2" id="hLiEw7B" role="2OqNvi">
                      <ref role="3Tt5mk" to="tpf3:hLiAAM5" />
                    </node>
                  </node>
                  <node concept="2OqwBi" id="hLiEunZ" role="37vLTx">
                    <node concept="1PxgMI" id="hLiEuo0" role="2Oq$k0">
                      <ref role="1m5ApE" to="tpf3:hHiwH3m" resolve="GenerationContextOp_GetOutputByLabel" />
                      <node concept="1r4N5L" id="hLiEuo1" role="1m5AlR" />
                    </node>
                    <node concept="3TrEf2" id="hLiEuo2" role="2OqNvi">
                      <ref role="3Tt5mk" to="tpf3:hHiwH3n" />
                    </node>
                  </node>
                </node>
              </node>
            </node>
          </node>
          <node concept="3clFbJ" id="hLiEybH" role="3cqZAp">
            <node concept="2OqwBi" id="hLiEybI" role="3clFbw">
              <node concept="1r4N5L" id="hLiEybJ" role="2Oq$k0" />
              <node concept="1mIQ4w" id="hLiEybK" role="2OqNvi">
                <node concept="chp4Y" id="hLiEB$V" role="cj9EA">
                  <ref role="cht4Q" to="tpf3:hHiwH3r" resolve="GenerationContextOp_GetOutputByLabelAndInput" />
                </node>
              </node>
            </node>
            <node concept="3clFbS" id="hLiEybM" role="3clFbx">
              <node concept="3clFbF" id="hLiEybN" role="3cqZAp">
                <node concept="37vLTI" id="hLiEybO" role="3clFbG">
                  <node concept="2OqwBi" id="hLiEybP" role="37vLTJ">
                    <node concept="1r4Lsj" id="hLiEybQ" role="2Oq$k0" />
                    <node concept="3TrEf2" id="hLiEybR" role="2OqNvi">
                      <ref role="3Tt5mk" to="tpf3:hLiAAM5" />
                    </node>
                  </node>
                  <node concept="2OqwBi" id="hLiEybS" role="37vLTx">
                    <node concept="1PxgMI" id="hLiEybT" role="2Oq$k0">
                      <ref role="1m5ApE" to="tpf3:hHiwH3r" resolve="GenerationContextOp_GetOutputByLabelAndInput" />
                      <node concept="1r4N5L" id="hLiEybU" role="1m5AlR" />
                    </node>
                    <node concept="3TrEf2" id="hLiEHuo" role="2OqNvi">
                      <ref role="3Tt5mk" to="tpf3:hHiwH3s" />
                    </node>
                  </node>
                </node>
              </node>
            </node>
          </node>
        </node>
      </node>
    </node>
    <node concept="37WvkG" id="hIgd7sC" role="37WGs$">
      <ref role="37XkoT" to="tpf3:hIfSARC" resolve="GenerationContextOp_SessionObjectAccess" />
      <node concept="37Y9Zx" id="hIgd7sS" role="37ZfLb">
        <node concept="3clFbS" id="hIgd7sT" role="2VODD2">
          <node concept="3clFbJ" id="hIgd9ZK" role="3cqZAp">
            <node concept="2OqwBi" id="hIgdb6R" role="3clFbw">
              <node concept="1r4N5L" id="hIgdaK9" role="2Oq$k0" />
              <node concept="1mIQ4w" id="hIgdblk" role="2OqNvi">
                <node concept="chp4Y" id="hIgddB$" role="cj9EA">
                  <ref role="cht4Q" to="tpf3:hIfTwd8" resolve="GenerationContextOp_UserObjectAccessBase" />
                </node>
              </node>
            </node>
            <node concept="3clFbS" id="hIgd9ZM" role="3clFbx">
              <node concept="3clFbF" id="hIgdeQW" role="3cqZAp">
                <node concept="37vLTI" id="hIgdgtO" role="3clFbG">
                  <node concept="2OqwBi" id="hIgdfaJ" role="37vLTJ">
                    <node concept="1r4Lsj" id="hIgdeQX" role="2Oq$k0" />
                    <node concept="3TrEf2" id="hIgdfWP" role="2OqNvi">
                      <ref role="3Tt5mk" to="tpf3:hIfWi7C" />
                    </node>
                  </node>
                  <node concept="2OqwBi" id="hIgdmeN" role="37vLTx">
                    <node concept="1PxgMI" id="hIgdiHF" role="2Oq$k0">
                      <ref role="1m5ApE" to="tpf3:hIfTwd8" resolve="GenerationContextOp_UserObjectAccessBase" />
                      <node concept="1r4N5L" id="hIgdhEL" role="1m5AlR" />
                    </node>
                    <node concept="3TrEf2" id="hIgdn0q" role="2OqNvi">
                      <ref role="3Tt5mk" to="tpf3:hIfWi7C" />
                    </node>
                  </node>
                </node>
              </node>
            </node>
          </node>
        </node>
      </node>
    </node>
    <node concept="37WvkG" id="hIgdnT4" role="37WGs$">
      <ref role="37XkoT" to="tpf3:hIg8Xag" resolve="GenerationContextOp_StepObjectAccess" />
      <node concept="37Y9Zx" id="hIgdnT5" role="37ZfLb">
        <node concept="3clFbS" id="hIgdnT6" role="2VODD2">
          <node concept="3clFbJ" id="hIgdnT7" role="3cqZAp">
            <node concept="2OqwBi" id="hIgdnT8" role="3clFbw">
              <node concept="1r4N5L" id="hIgdnT9" role="2Oq$k0" />
              <node concept="1mIQ4w" id="hIgdnTa" role="2OqNvi">
                <node concept="chp4Y" id="hIgdnTb" role="cj9EA">
                  <ref role="cht4Q" to="tpf3:hIfTwd8" resolve="GenerationContextOp_UserObjectAccessBase" />
                </node>
              </node>
            </node>
            <node concept="3clFbS" id="hIgdnTc" role="3clFbx">
              <node concept="3clFbF" id="hIgdnTd" role="3cqZAp">
                <node concept="37vLTI" id="hIgdnTe" role="3clFbG">
                  <node concept="2OqwBi" id="hIgdnTf" role="37vLTJ">
                    <node concept="1r4Lsj" id="hIgdnTg" role="2Oq$k0" />
                    <node concept="3TrEf2" id="hIgdnTh" role="2OqNvi">
                      <ref role="3Tt5mk" to="tpf3:hIfWi7C" />
                    </node>
                  </node>
                  <node concept="2OqwBi" id="hIgdnTi" role="37vLTx">
                    <node concept="1PxgMI" id="hIgdnTj" role="2Oq$k0">
                      <ref role="1m5ApE" to="tpf3:hIfTwd8" resolve="GenerationContextOp_UserObjectAccessBase" />
                      <node concept="1r4N5L" id="hIgdnTk" role="1m5AlR" />
                    </node>
                    <node concept="3TrEf2" id="hIgdnTl" role="2OqNvi">
                      <ref role="3Tt5mk" to="tpf3:hIfWi7C" />
                    </node>
                  </node>
                </node>
              </node>
            </node>
          </node>
        </node>
      </node>
    </node>
    <node concept="37WvkG" id="hIgdsnu" role="37WGs$">
      <ref role="37XkoT" to="tpf3:hIg92A3" resolve="GenerationContextOp_TransientObjectAccess" />
      <node concept="37Y9Zx" id="hIgdsnv" role="37ZfLb">
        <node concept="3clFbS" id="hIgdsnw" role="2VODD2">
          <node concept="3clFbJ" id="hIgdsnx" role="3cqZAp">
            <node concept="2OqwBi" id="hIgdsny" role="3clFbw">
              <node concept="1r4N5L" id="hIgdsnz" role="2Oq$k0" />
              <node concept="1mIQ4w" id="hIgdsn$" role="2OqNvi">
                <node concept="chp4Y" id="hIgdsn_" role="cj9EA">
                  <ref role="cht4Q" to="tpf3:hIfTwd8" resolve="GenerationContextOp_UserObjectAccessBase" />
                </node>
              </node>
            </node>
            <node concept="3clFbS" id="hIgdsnA" role="3clFbx">
              <node concept="3clFbF" id="hIgdsnB" role="3cqZAp">
                <node concept="37vLTI" id="hIgdsnC" role="3clFbG">
                  <node concept="2OqwBi" id="hIgdsnD" role="37vLTJ">
                    <node concept="1r4Lsj" id="hIgdsnE" role="2Oq$k0" />
                    <node concept="3TrEf2" id="hIgdsnF" role="2OqNvi">
                      <ref role="3Tt5mk" to="tpf3:hIfWi7C" />
                    </node>
                  </node>
                  <node concept="2OqwBi" id="hIgdsnG" role="37vLTx">
                    <node concept="1PxgMI" id="hIgdsnH" role="2Oq$k0">
                      <ref role="1m5ApE" to="tpf3:hIfTwd8" resolve="GenerationContextOp_UserObjectAccessBase" />
                      <node concept="1r4N5L" id="hIgdsnI" role="1m5AlR" />
                    </node>
                    <node concept="3TrEf2" id="hIgdsnJ" role="2OqNvi">
                      <ref role="3Tt5mk" to="tpf3:hIfWi7C" />
                    </node>
                  </node>
                </node>
              </node>
            </node>
          </node>
        </node>
      </node>
    </node>
  </node>
  <node concept="3FK_9_" id="hHiB3rK">
    <property role="TrG5h" value="dotOperation" />
    <node concept="3FOIzC" id="hHiB3rL" role="3FOPby">
      <ref role="3FOWKa" to="tpee:hqOqG0K" resolve="IOperation" />
      <node concept="3buRE8" id="hHiB3rM" role="3bvWUf">
        <node concept="3clFbS" id="hHiB3rN" role="2VODD2">
          <node concept="3clFbF" id="hHiB3rO" role="3cqZAp">
            <node concept="1Wc70l" id="30JB2NoMDtl" role="3clFbG">
              <node concept="2OqwBi" id="30JB2NoMDty" role="3uHU7B">
                <node concept="3bvxqY" id="30JB2NoMDtx" role="2Oq$k0" />
                <node concept="1mIQ4w" id="30JB2NoMDtA" role="2OqNvi">
                  <node concept="chp4Y" id="30JB2NoMDtC" role="cj9EA">
                    <ref role="cht4Q" to="tpee:hqOqwz4" resolve="DotExpression" />
                  </node>
                </node>
              </node>
              <node concept="2OqwBi" id="30JB2NoMDto" role="3uHU7w">
                <node concept="2OqwBi" id="30JB2NoMDtp" role="2Oq$k0">
                  <node concept="2OqwBi" id="30JB2NoMDtq" role="2Oq$k0">
                    <node concept="1PxgMI" id="30JB2NoMDtr" role="2Oq$k0">
                      <ref role="1m5ApE" to="tpee:hqOqwz4" resolve="DotExpression" />
                      <node concept="3bvxqY" id="30JB2NoMDts" role="1m5AlR" />
                    </node>
                    <node concept="3TrEf2" id="30JB2NoMDtt" role="2OqNvi">
                      <ref role="3Tt5mk" to="tpee:hqOq$gm" />
                    </node>
                  </node>
                  <node concept="3JvlWi" id="30JB2NoMDtu" role="2OqNvi" />
                </node>
                <node concept="1mIQ4w" id="30JB2NoMDtv" role="2OqNvi">
                  <node concept="chp4Y" id="30JB2NoMDtw" role="cj9EA">
                    <ref role="cht4Q" to="tpf3:hHiwH3x" resolve="GenerationContextType" />
                  </node>
                </node>
              </node>
            </node>
          </node>
        </node>
      </node>
      <node concept="tYCnQ" id="hHrFbJq" role="tZc4B">
        <ref role="uz4UX" to="tpf3:hHiwH3j" resolve="GenerationContextOp_Base" />
        <node concept="yp2kI" id="hHrFhzZ" role="uz6Si">
          <node concept="uNCsQ" id="hHrFh$0" role="ys1e2">
            <node concept="3clFbS" id="hHrFh$1" role="2VODD2">
              <node concept="3cpWs8" id="51O9KBJbI63" role="3cqZAp">
                <node concept="3cpWsn" id="51O9KBJbI64" role="3cpWs9">
                  <property role="TrG5h" value="seq" />
                  <node concept="A3Dl8" id="51O9KBJbI5U" role="1tU5fm">
                    <node concept="3bZ5Sz" id="4wz6$Jep31Y" role="A3Ik2">
                      <ref role="3bZ5Sy" to="tpf3:hHiwH3j" resolve="GenerationContextOp_Base" />
                    </node>
                  </node>
                  <node concept="2ShNRf" id="51O9KBJbI65" role="33vP2m">
                    <node concept="2HTt$P" id="51O9KBJbI66" role="2ShVmc">
                      <node concept="3bZ5Sz" id="4wz6$Jep3kN" role="2HTBi0">
                        <ref role="3bZ5Sy" to="tpf3:hHiwH3j" resolve="GenerationContextOp_Base" />
                      </node>
                      <node concept="35c_gC" id="4wz6$Jep3Cu" role="2HTEbv">
                        <ref role="35c_gD" to="tpf3:6suuiWXJvTY" resolve="GenerationContextOp_ContextVarRef" />
                      </node>
                    </node>
                  </node>
                </node>
              </node>
              <node concept="3clFbF" id="hHrFmlH" role="3cqZAp">
                <node concept="2OqwBi" id="hIfVLv7" role="3clFbG">
                  <node concept="2OqwBi" id="4wz6$Jep5eP" role="2Oq$k0">
                    <node concept="2OqwBi" id="51O9KBJbF4o" role="2Oq$k0">
                      <node concept="2OqwBi" id="hIfVFen" role="2Oq$k0">
                        <node concept="2OqwBi" id="hHrFp52" role="2Oq$k0">
                          <node concept="35c_gC" id="4wz6$Jep3Ws" role="2Oq$k0">
                            <ref role="35c_gD" to="tpf3:hHiwH3j" resolve="GenerationContextOp_Base" />
                          </node>
                          <node concept="LSoRf" id="hHrFpyR" role="2OqNvi">
                            <node concept="1Q6Npb" id="hHrFqwV" role="1iTxcG" />
                          </node>
                        </node>
                        <node concept="3zZkjj" id="hRzahv$" role="2OqNvi">
                          <node concept="1bVj0M" id="hRzahv_" role="23t8la">
                            <node concept="Rh6nW" id="hRzahvA" role="1bW2Oz">
                              <property role="TrG5h" value="it" />
                              <node concept="2jxLKc" id="1P4c1XrzT41" role="1tU5fm" />
                            </node>
                            <node concept="3clFbS" id="hRzahvC" role="1bW5cS">
                              <node concept="3clFbF" id="hRzahvD" role="3cqZAp">
                                <node concept="3fqX7Q" id="hRzahvE" role="3clFbG">
                                  <node concept="2OqwBi" id="2wdLO7KeM0w" role="3fr31v">
                                    <node concept="liA8E" id="4wz6$Jep49H" role="2OqNvi">
                                      <ref role="37wK5l" to="c17a:~SAbstractConcept.isAbstract():boolean" resolve="isAbstract" />
                                    </node>
                                    <node concept="37vLTw" id="2BHiRxglwuD" role="2Oq$k0">
                                      <ref role="3cqZAo" node="hRzahvA" resolve="it" />
                                    </node>
                                  </node>
                                </node>
                              </node>
                            </node>
                          </node>
                        </node>
                      </node>
                      <node concept="66VNe" id="51O9KBJbFwN" role="2OqNvi">
                        <node concept="37vLTw" id="51O9KBJbI69" role="576Qk">
                          <ref role="3cqZAo" node="51O9KBJbI64" resolve="seq" />
                        </node>
                      </node>
                    </node>
                    <node concept="3$u5V9" id="4wz6$Jep5qT" role="2OqNvi">
                      <node concept="1bVj0M" id="4wz6$Jep5qV" role="23t8la">
                        <node concept="3clFbS" id="4wz6$Jep5qW" role="1bW5cS">
                          <node concept="3clFbF" id="4wz6$Jep5_y" role="3cqZAp">
                            <node concept="10QFUN" id="4wz6$Jep6he" role="3clFbG">
                              <node concept="2OqwBi" id="4wz6$Jep6ha" role="10QFUP">
                                <node concept="37vLTw" id="4wz6$Jep6hb" role="2Oq$k0">
                                  <ref role="3cqZAo" node="4wz6$Jep5qX" resolve="it" />
                                </node>
                                <node concept="FGMqu" id="4wz6$Jep6hc" role="2OqNvi" />
                              </node>
                              <node concept="3THzug" id="4wz6$Jep6oV" role="10QFUM">
                                <ref role="3qa414" to="tpf3:hHiwH3j" resolve="GenerationContextOp_Base" />
                              </node>
                            </node>
                          </node>
                        </node>
                        <node concept="Rh6nW" id="4wz6$Jep5qX" role="1bW2Oz">
                          <property role="TrG5h" value="it" />
                          <node concept="2jxLKc" id="4wz6$Jep5qY" role="1tU5fm" />
                        </node>
                      </node>
                    </node>
                  </node>
                  <node concept="ANE8D" id="hIfVMaU" role="2OqNvi" />
                </node>
              </node>
            </node>
          </node>
        </node>
      </node>
    </node>
    <node concept="3FOIzC" id="51O9KBJakLp" role="3FOPby">
      <ref role="3FOWKa" to="tpf3:6suuiWXJvTY" resolve="GenerationContextOp_ContextVarRef" />
      <node concept="tYCnQ" id="51O9KBJakPm" role="tZc4B">
        <ref role="uz4UX" to="tpf3:6suuiWXJvTY" resolve="GenerationContextOp_ContextVarRef" />
        <node concept="uMFAO" id="51O9KBJakPq" role="uz6Si">
          <node concept="uSIkt" id="51O9KBJakPs" role="uTubQ">
            <node concept="3clFbS" id="51O9KBJakPu" role="2VODD2">
              <node concept="3cpWs8" id="51O9KBJalTe" role="3cqZAp">
                <node concept="3cpWsn" id="51O9KBJalTf" role="3cpWs9">
                  <property role="TrG5h" value="rv" />
                  <node concept="3Tqbb2" id="51O9KBJalTc" role="1tU5fm">
                    <ref role="ehGHo" to="tpf3:6suuiWXJvTY" resolve="GenerationContextOp_ContextVarRef" />
                  </node>
                  <node concept="2OqwBi" id="51O9KBJalTg" role="33vP2m">
                    <node concept="1Q6Npb" id="51O9KBJalTh" role="2Oq$k0" />
                    <node concept="15TzpJ" id="51O9KBJalTi" role="2OqNvi">
                      <ref role="I8UWU" to="tpf3:6suuiWXJvTY" resolve="GenerationContextOp_ContextVarRef" />
                    </node>
                  </node>
                </node>
              </node>
              <node concept="3clFbF" id="51O9KBJalYg" role="3cqZAp">
                <node concept="37vLTI" id="51O9KBJamDy" role="3clFbG">
                  <node concept="uNquD" id="51O9KBJamIo" role="37vLTx" />
                  <node concept="2OqwBi" id="51O9KBJam1l" role="37vLTJ">
                    <node concept="37vLTw" id="51O9KBJalYe" role="2Oq$k0">
                      <ref role="3cqZAo" node="51O9KBJalTf" resolve="rv" />
                    </node>
                    <node concept="3TrcHB" id="51O9KBJamn$" role="2OqNvi">
                      <ref role="3TsBF5" to="tpf3:6suuiWXJvYy" resolve="contextVarName" />
                    </node>
                  </node>
                </node>
              </node>
              <node concept="3cpWs6" id="51O9KBJamKV" role="3cqZAp">
                <node concept="37vLTw" id="51O9KBJamKX" role="3cqZAk">
                  <ref role="3cqZAo" node="51O9KBJalTf" resolve="rv" />
                </node>
              </node>
            </node>
          </node>
          <node concept="17QB3L" id="51O9KBJakVG" role="uMOYW" />
          <node concept="uNCsQ" id="51O9KBJakPy" role="uO7ob">
            <node concept="3clFbS" id="51O9KBJakP$" role="2VODD2">
              <node concept="3cpWs8" id="51O9KBJamZB" role="3cqZAp">
                <node concept="3cpWsn" id="51O9KBJamZE" role="3cpWs9">
                  <property role="TrG5h" value="n" />
                  <node concept="3Tqbb2" id="51O9KBJamZA" role="1tU5fm" />
                  <node concept="3bvxqY" id="51O9KBJaneI" role="33vP2m" />
                </node>
              </node>
              <node concept="3cpWs8" id="51O9KBJapJB" role="3cqZAp">
                <node concept="3cpWsn" id="51O9KBJapJE" role="3cpWs9">
                  <property role="TrG5h" value="rv" />
                  <node concept="_YKpA" id="51O9KBJaq71" role="1tU5fm">
                    <node concept="17QB3L" id="51O9KBJaqi8" role="_ZDj9" />
                  </node>
                  <node concept="2ShNRf" id="51O9KBJaqNL" role="33vP2m">
                    <node concept="Tc6Ow" id="51O9KBJarZl" role="2ShVmc">
                      <node concept="17QB3L" id="51O9KBJassR" role="HW$YZ" />
                    </node>
                  </node>
                </node>
              </node>
              <node concept="2$JKZl" id="51O9KBJanmn" role="3cqZAp">
                <node concept="3clFbS" id="51O9KBJanmp" role="2LFqv$">
                  <node concept="3clFbJ" id="6suuiWXKQwJ" role="3cqZAp">
                    <node concept="3clFbS" id="6suuiWXKQwK" role="3clFbx">
                      <node concept="3clFbF" id="51O9KBJasKY" role="3cqZAp">
                        <node concept="2OqwBi" id="51O9KBJatqa" role="3clFbG">
                          <node concept="37vLTw" id="51O9KBJasKW" role="2Oq$k0">
                            <ref role="3cqZAo" node="51O9KBJapJE" resolve="rv" />
                          </node>
                          <node concept="X8dFx" id="51O9KBJauCa" role="2OqNvi">
                            <node concept="2OqwBi" id="51O9KBJavFg" role="25WWJ7">
                              <node concept="2OqwBi" id="51O9KBJauQV" role="2Oq$k0">
                                <node concept="1PxgMI" id="51O9KBJauQW" role="2Oq$k0">
                                  <ref role="1m5ApE" to="tpf8:6suuiWX$OMG" resolve="ContextVariableProvider" />
                                  <node concept="37vLTw" id="51O9KBJauQX" role="1m5AlR">
                                    <ref role="3cqZAo" node="51O9KBJamZE" resolve="n" />
                                  </node>
                                </node>
                                <node concept="2qgKlT" id="51O9KBJauQY" role="2OqNvi">
                                  <ref role="37wK5l" to="tpfh:6suuiWX_oN7" resolve="contextVariables" />
                                </node>
                              </node>
                              <node concept="3$u5V9" id="51O9KBJaxkS" role="2OqNvi">
                                <node concept="1bVj0M" id="51O9KBJaxkU" role="23t8la">
                                  <node concept="3clFbS" id="51O9KBJaxkV" role="1bW5cS">
                                    <node concept="3clFbF" id="51O9KBJaxAI" role="3cqZAp">
                                      <node concept="2OqwBi" id="51O9KBJaxO4" role="3clFbG">
                                        <node concept="37vLTw" id="51O9KBJaxAH" role="2Oq$k0">
                                          <ref role="3cqZAo" node="51O9KBJaxkW" resolve="it" />
                                        </node>
                                        <node concept="3TrcHB" id="51O9KBJayru" role="2OqNvi">
                                          <ref role="3TsBF5" to="tpck:h0TrG11" resolve="name" />
                                        </node>
                                      </node>
                                    </node>
                                  </node>
                                  <node concept="Rh6nW" id="51O9KBJaxkW" role="1bW2Oz">
                                    <property role="TrG5h" value="it" />
                                    <node concept="2jxLKc" id="51O9KBJaxkX" role="1tU5fm" />
                                  </node>
                                </node>
                              </node>
                            </node>
                          </node>
                        </node>
                      </node>
                    </node>
                    <node concept="2OqwBi" id="6suuiWXKR8b" role="3clFbw">
                      <node concept="37vLTw" id="6suuiWXL8Tz" role="2Oq$k0">
                        <ref role="3cqZAo" node="51O9KBJamZE" resolve="n" />
                      </node>
                      <node concept="1mIQ4w" id="6suuiWXKRL_" role="2OqNvi">
                        <node concept="chp4Y" id="6suuiWXKSoP" role="cj9EA">
                          <ref role="cht4Q" to="tpf8:6suuiWX$OMG" resolve="ContextVariableProvider" />
                        </node>
                      </node>
                    </node>
                  </node>
                  <node concept="3clFbF" id="51O9KBJaoaD" role="3cqZAp">
                    <node concept="37vLTI" id="51O9KBJaoee" role="3clFbG">
                      <node concept="2YIFZM" id="51O9KBJaoMh" role="37vLTx">
                        <ref role="37wK5l" to="tpf6:5ed9yo03G1i" resolve="parent" />
                        <ref role="1Pybhc" to="tpf6:5ed9yo03G1c" resolve="TraverseUtil" />
                        <node concept="37vLTw" id="51O9KBJaoRF" role="37wK5m">
                          <ref role="3cqZAo" node="51O9KBJamZE" resolve="n" />
                        </node>
                      </node>
                      <node concept="37vLTw" id="51O9KBJaoaB" role="37vLTJ">
                        <ref role="3cqZAo" node="51O9KBJamZE" resolve="n" />
                      </node>
                    </node>
                  </node>
                </node>
                <node concept="3y3z36" id="51O9KBJanX_" role="2$JKZa">
                  <node concept="10Nm6u" id="51O9KBJao2J" role="3uHU7w" />
                  <node concept="37vLTw" id="51O9KBJanU0" role="3uHU7B">
                    <ref role="3cqZAo" node="51O9KBJamZE" resolve="n" />
                  </node>
                </node>
              </node>
              <node concept="3cpWs6" id="51O9KBJaD_z" role="3cqZAp">
                <node concept="37vLTw" id="51O9KBJaDIP" role="3cqZAk">
                  <ref role="3cqZAo" node="51O9KBJapJE" resolve="rv" />
                </node>
              </node>
            </node>
          </node>
          <node concept="uSjag" id="51O9KBJb4AJ" role="uS$Nq">
            <node concept="3clFbS" id="51O9KBJb4AK" role="2VODD2">
              <node concept="3clFbF" id="51O9KBJb4SZ" role="3cqZAp">
                <node concept="3cpWs3" id="51O9KBJb5PN" role="3clFbG">
                  <node concept="uNquD" id="51O9KBJb5V4" role="3uHU7w" />
                  <node concept="Xl_RD" id="51O9KBJb4SY" role="3uHU7B">
                    <property role="Xl_RC" value="Context variable " />
                  </node>
                </node>
              </node>
            </node>
          </node>
        </node>
      </node>
    </node>
  </node>
</model>

