<?xml version="1.0" encoding="UTF-8"?>
<model ref="r:00000000-0000-4000-0000-011c895902ee(jetbrains.mps.lang.generator.generationContext.constraints)">
  <persistence version="9" />
  <languages>
    <use id="83888646-71ce-4f1c-9c53-c54016f6ad4f" name="jetbrains.mps.baseLanguage.collections" version="0" />
    <use id="3f4bc5f5-c6c1-4a28-8b10-c83066ffa4a1" name="jetbrains.mps.lang.constraints" version="0" />
    <use id="13744753-c81f-424a-9c1b-cf8943bf4e86" name="jetbrains.mps.lang.sharedConcepts" version="0" />
    <use id="7866978e-a0f0-4cc7-81bc-4d213d9375e1" name="jetbrains.mps.lang.smodel" version="4" />
    <use id="f3061a53-9226-4cc5-a443-f952ceaf5816" name="jetbrains.mps.baseLanguage" version="4" />
    <devkit ref="fbc25dd2-5da4-483a-8b19-70928e1b62d7(jetbrains.mps.devkit.general-purpose)" />
  </languages>
  <imports>
    <import index="tp3t" ref="r:00000000-0000-4000-0000-011c89590345(jetbrains.mps.lang.pattern.structure)" />
    <import index="tpf8" ref="r:00000000-0000-4000-0000-011c895902e8(jetbrains.mps.lang.generator.structure)" />
    <import index="tpf3" ref="r:00000000-0000-4000-0000-011c895902f3(jetbrains.mps.lang.generator.generationContext.structure)" implicit="true" />
    <import index="tpck" ref="r:00000000-0000-4000-0000-011c89590288(jetbrains.mps.lang.core.structure)" implicit="true" />
    <import index="tpfh" ref="r:00000000-0000-4000-0000-011c895902e1(jetbrains.mps.lang.generator.behavior)" implicit="true" />
    <import index="wyt6" ref="6354ebe7-c22a-4a0f-ac54-50b52ab9b065/java:java.lang(JDK/)" implicit="true" />
  </imports>
  <registry>
    <language id="13744753-c81f-424a-9c1b-cf8943bf4e86" name="jetbrains.mps.lang.sharedConcepts">
      <concept id="1161622665029" name="jetbrains.mps.lang.sharedConcepts.structure.ConceptFunctionParameter_model" flags="nn" index="1Q6Npb" />
    </language>
    <language id="f3061a53-9226-4cc5-a443-f952ceaf5816" name="jetbrains.mps.baseLanguage">
      <concept id="1215693861676" name="jetbrains.mps.baseLanguage.structure.BaseAssignmentExpression" flags="nn" index="d038R">
        <child id="1068498886297" name="rValue" index="37vLTx" />
        <child id="1068498886295" name="lValue" index="37vLTJ" />
      </concept>
      <concept id="4836112446988635817" name="jetbrains.mps.baseLanguage.structure.UndefinedType" flags="in" index="2jxLKc" />
      <concept id="1202948039474" name="jetbrains.mps.baseLanguage.structure.InstanceMethodCallOperation" flags="nn" index="liA8E" />
      <concept id="1076505808687" name="jetbrains.mps.baseLanguage.structure.WhileStatement" flags="nn" index="2$JKZl">
        <child id="1076505808688" name="condition" index="2$JKZa" />
      </concept>
      <concept id="1154032098014" name="jetbrains.mps.baseLanguage.structure.AbstractLoopStatement" flags="nn" index="2LF5Ji">
        <child id="1154032183016" name="body" index="2LFqv$" />
      </concept>
      <concept id="1197027756228" name="jetbrains.mps.baseLanguage.structure.DotExpression" flags="nn" index="2OqwBi">
        <child id="1197027771414" name="operand" index="2Oq$k0" />
        <child id="1197027833540" name="operation" index="2OqNvi" />
      </concept>
      <concept id="1145552977093" name="jetbrains.mps.baseLanguage.structure.GenericNewExpression" flags="nn" index="2ShNRf">
        <child id="1145553007750" name="creator" index="2ShVmc" />
      </concept>
      <concept id="1137021947720" name="jetbrains.mps.baseLanguage.structure.ConceptFunction" flags="in" index="2VMwT0">
        <child id="1137022507850" name="body" index="2VODD2" />
      </concept>
      <concept id="1081236700938" name="jetbrains.mps.baseLanguage.structure.StaticMethodDeclaration" flags="ig" index="2YIFZL" />
      <concept id="1081236700937" name="jetbrains.mps.baseLanguage.structure.StaticMethodCall" flags="nn" index="2YIFZM">
        <reference id="1144433194310" name="classConcept" index="1Pybhc" />
      </concept>
      <concept id="1070534058343" name="jetbrains.mps.baseLanguage.structure.NullLiteral" flags="nn" index="10Nm6u" />
      <concept id="1068390468198" name="jetbrains.mps.baseLanguage.structure.ClassConcept" flags="ig" index="312cEu" />
      <concept id="1068431474542" name="jetbrains.mps.baseLanguage.structure.VariableDeclaration" flags="ng" index="33uBYm">
        <child id="1068431790190" name="initializer" index="33vP2m" />
      </concept>
      <concept id="1068498886296" name="jetbrains.mps.baseLanguage.structure.VariableReference" flags="nn" index="37vLTw">
        <reference id="1068581517664" name="variableDeclaration" index="3cqZAo" />
      </concept>
      <concept id="1068498886292" name="jetbrains.mps.baseLanguage.structure.ParameterDeclaration" flags="ir" index="37vLTG" />
      <concept id="1068498886294" name="jetbrains.mps.baseLanguage.structure.AssignmentExpression" flags="nn" index="37vLTI" />
      <concept id="4972933694980447171" name="jetbrains.mps.baseLanguage.structure.BaseVariableDeclaration" flags="ng" index="19Szcq">
        <child id="5680397130376446158" name="type" index="1tU5fm" />
      </concept>
      <concept id="1068580123132" name="jetbrains.mps.baseLanguage.structure.BaseMethodDeclaration" flags="ng" index="3clF44">
        <child id="1068580123133" name="returnType" index="3clF45" />
        <child id="1068580123134" name="parameter" index="3clF46" />
        <child id="1068580123135" name="body" index="3clF47" />
      </concept>
      <concept id="1068580123152" name="jetbrains.mps.baseLanguage.structure.EqualsExpression" flags="nn" index="3clFbC" />
      <concept id="1068580123155" name="jetbrains.mps.baseLanguage.structure.ExpressionStatement" flags="nn" index="3clFbF">
        <child id="1068580123156" name="expression" index="3clFbG" />
      </concept>
      <concept id="1068580123157" name="jetbrains.mps.baseLanguage.structure.Statement" flags="nn" index="3clFbH" />
      <concept id="1068580123159" name="jetbrains.mps.baseLanguage.structure.IfStatement" flags="nn" index="3clFbJ">
        <child id="1068580123160" name="condition" index="3clFbw" />
        <child id="1068580123161" name="ifTrue" index="3clFbx" />
      </concept>
      <concept id="1068580123136" name="jetbrains.mps.baseLanguage.structure.StatementList" flags="sn" stub="5293379017992965193" index="3clFbS">
        <child id="1068581517665" name="statement" index="3cqZAp" />
      </concept>
      <concept id="1068580123137" name="jetbrains.mps.baseLanguage.structure.BooleanConstant" flags="nn" index="3clFbT">
        <property id="1068580123138" name="value" index="3clFbU" />
      </concept>
      <concept id="1068580123140" name="jetbrains.mps.baseLanguage.structure.ConstructorDeclaration" flags="ig" index="3clFbW" />
      <concept id="1068581242878" name="jetbrains.mps.baseLanguage.structure.ReturnStatement" flags="nn" index="3cpWs6">
        <child id="1068581517676" name="expression" index="3cqZAk" />
      </concept>
      <concept id="1068581242864" name="jetbrains.mps.baseLanguage.structure.LocalVariableDeclarationStatement" flags="nn" index="3cpWs8">
        <child id="1068581242865" name="localVariableDeclaration" index="3cpWs9" />
      </concept>
      <concept id="1068581242863" name="jetbrains.mps.baseLanguage.structure.LocalVariableDeclaration" flags="nr" index="3cpWsn" />
      <concept id="1068581517677" name="jetbrains.mps.baseLanguage.structure.VoidType" flags="in" index="3cqZAl" />
      <concept id="1204053956946" name="jetbrains.mps.baseLanguage.structure.IMethodCall" flags="ng" index="1ndlxa">
        <reference id="1068499141037" name="baseMethodDeclaration" index="37wK5l" />
        <child id="1068499141038" name="actualArgument" index="37wK5m" />
      </concept>
      <concept id="1107461130800" name="jetbrains.mps.baseLanguage.structure.Classifier" flags="ng" index="3pOWGL">
        <child id="5375687026011219971" name="member" index="jymVt" unordered="true" />
      </concept>
      <concept id="1081773326031" name="jetbrains.mps.baseLanguage.structure.BinaryOperation" flags="nn" index="3uHJSO">
        <child id="1081773367579" name="rightExpression" index="3uHU7w" />
        <child id="1081773367580" name="leftExpression" index="3uHU7B" />
      </concept>
      <concept id="1073239437375" name="jetbrains.mps.baseLanguage.structure.NotEqualsExpression" flags="nn" index="3y3z36" />
      <concept id="1178549954367" name="jetbrains.mps.baseLanguage.structure.IVisible" flags="ng" index="1B3ioH">
        <child id="1178549979242" name="visibility" index="1B3o_S" />
      </concept>
      <concept id="1163668896201" name="jetbrains.mps.baseLanguage.structure.TernaryOperatorExpression" flags="nn" index="3K4zz7">
        <child id="1163668914799" name="condition" index="3K4Cdx" />
        <child id="1163668922816" name="ifTrue" index="3K4E3e" />
        <child id="1163668934364" name="ifFalse" index="3K4GZi" />
      </concept>
      <concept id="1146644602865" name="jetbrains.mps.baseLanguage.structure.PublicVisibility" flags="nn" index="3Tm1VV" />
      <concept id="1080120340718" name="jetbrains.mps.baseLanguage.structure.AndExpression" flags="nn" index="1Wc70l" />
    </language>
    <language id="3f4bc5f5-c6c1-4a28-8b10-c83066ffa4a1" name="jetbrains.mps.lang.constraints">
      <concept id="1148934636683" name="jetbrains.mps.lang.constraints.structure.ConceptParameter_ReferentSearchScope_enclosingNode" flags="nn" index="21POm0" />
      <concept id="3906442776579556545" name="jetbrains.mps.lang.constraints.structure.ConstraintFunction_ReferentSearchScope_Presentation" flags="in" index="Bn3R3" />
      <concept id="3906442776579549644" name="jetbrains.mps.lang.constraints.structure.ConstraintFunctionParameter_parameterNode" flags="nn" index="Bn53e" />
      <concept id="1147467115080" name="jetbrains.mps.lang.constraints.structure.NodePropertyConstraint" flags="ng" index="EnEH3">
        <reference id="1147467295099" name="applicableProperty" index="EomxK" />
        <child id="1212097481299" name="propertyValidator" index="QCWH9" />
      </concept>
      <concept id="1147468365020" name="jetbrains.mps.lang.constraints.structure.ConstraintsFunctionParameter_node" flags="nn" index="EsrRn" />
      <concept id="1212096972063" name="jetbrains.mps.lang.constraints.structure.ConstraintFunction_PropertyValidator" flags="in" index="QB0g5" />
      <concept id="1163200647017" name="jetbrains.mps.lang.constraints.structure.ConstraintFunctionParameter_referenceNode" flags="nn" index="3kakTB" />
      <concept id="1213093968558" name="jetbrains.mps.lang.constraints.structure.ConceptConstraints" flags="ng" index="1M2fIO">
        <reference id="1213093996982" name="concept" index="1M2myG" />
        <child id="1213098023997" name="property" index="1MhHOB" />
        <child id="1213100494875" name="referent" index="1Mr941" />
      </concept>
      <concept id="1148684180339" name="jetbrains.mps.lang.constraints.structure.ConstraintFunction_ReferentSearchScope_Factory" flags="in" index="1MUpDS" />
      <concept id="1148687176410" name="jetbrains.mps.lang.constraints.structure.NodeReferentConstraint" flags="ng" index="1N5Pfh">
        <reference id="1148687202698" name="applicableLink" index="1N5Vy1" />
        <child id="3906442776579556548" name="presentation" index="Bn3R6" />
        <child id="1148687345559" name="searchScopeFactory" index="1N6uqs" />
      </concept>
      <concept id="1153138554286" name="jetbrains.mps.lang.constraints.structure.ConstraintsFunctionParameter_propertyValue" flags="nn" index="1Wqviy" />
    </language>
    <language id="fd392034-7849-419d-9071-12563d152375" name="jetbrains.mps.baseLanguage.closures">
      <concept id="1199569711397" name="jetbrains.mps.baseLanguage.closures.structure.ClosureLiteral" flags="nn" index="1bVj0M">
        <child id="1199569906740" name="parameter" index="1bW2Oz" />
        <child id="1199569916463" name="body" index="1bW5cS" />
      </concept>
    </language>
    <language id="7866978e-a0f0-4cc7-81bc-4d213d9375e1" name="jetbrains.mps.lang.smodel">
      <concept id="1177026924588" name="jetbrains.mps.lang.smodel.structure.RefConcept_Reference" flags="nn" index="chp4Y">
        <reference id="1177026940964" name="conceptDeclaration" index="cht4Q" />
      </concept>
      <concept id="1138411891628" name="jetbrains.mps.lang.smodel.structure.SNodeOperation" flags="nn" index="eCIE_">
        <child id="1144104376918" name="parameter" index="1xVPHs" />
      </concept>
      <concept id="1179409122411" name="jetbrains.mps.lang.smodel.structure.Node_ConceptMethodCall" flags="nn" index="2qgKlT" />
      <concept id="4693937538533521280" name="jetbrains.mps.lang.smodel.structure.OfConceptOperation" flags="ng" index="v3k3i">
        <child id="4693937538533538124" name="requestedConcept" index="v3oSu" />
      </concept>
      <concept id="2396822768958367367" name="jetbrains.mps.lang.smodel.structure.AbstractTypeCastExpression" flags="nn" index="$5XWr">
        <reference id="6733348108486823428" name="concept" index="1m5ApE" />
        <child id="6733348108486823193" name="leftExpression" index="1m5AlR" />
      </concept>
      <concept id="1145383075378" name="jetbrains.mps.lang.smodel.structure.SNodeListType" flags="in" index="2I9FWS">
        <reference id="1145383142433" name="elementConcept" index="2I9WkF" />
      </concept>
      <concept id="1171305280644" name="jetbrains.mps.lang.smodel.structure.Node_GetDescendantsOperation" flags="nn" index="2Rf3mk" />
      <concept id="1171315804604" name="jetbrains.mps.lang.smodel.structure.Model_RootsOperation" flags="nn" index="2RRcyG">
        <reference id="1171315804605" name="concept" index="2RRcyH" />
      </concept>
      <concept id="1145567426890" name="jetbrains.mps.lang.smodel.structure.SNodeListCreator" flags="nn" index="2T8Vx0">
        <child id="1145567471833" name="createdType" index="2T96Bj" />
      </concept>
      <concept id="1171407110247" name="jetbrains.mps.lang.smodel.structure.Node_GetAncestorOperation" flags="nn" index="2Xjw5R" />
      <concept id="1143511969223" name="jetbrains.mps.lang.smodel.structure.Node_GetPrevSiblingOperation" flags="nn" index="YBYNd" />
      <concept id="1205861725686" name="jetbrains.mps.lang.smodel.structure.Node_IsAttributeOperation" flags="nn" index="32XrjI" />
      <concept id="3562215692195599741" name="jetbrains.mps.lang.smodel.structure.SLinkImplicitSelect" flags="nn" index="13MTOL">
        <reference id="3562215692195600259" name="link" index="13MTZf" />
      </concept>
      <concept id="1139613262185" name="jetbrains.mps.lang.smodel.structure.Node_GetParentOperation" flags="nn" index="1mfA1w" />
      <concept id="1139621453865" name="jetbrains.mps.lang.smodel.structure.Node_IsInstanceOfOperation" flags="nn" index="1mIQ4w">
        <child id="1177027386292" name="conceptArgument" index="cj9EA" />
      </concept>
      <concept id="1172008320231" name="jetbrains.mps.lang.smodel.structure.Node_IsNotNullOperation" flags="nn" index="3x8VRR" />
      <concept id="1144101972840" name="jetbrains.mps.lang.smodel.structure.OperationParm_Concept" flags="ng" index="1xMEDy">
        <child id="1207343664468" name="conceptArgument" index="ri$Ld" />
      </concept>
      <concept id="1140137987495" name="jetbrains.mps.lang.smodel.structure.SNodeTypeCastExpression" flags="nn" index="1PxgMI" />
      <concept id="1138055754698" name="jetbrains.mps.lang.smodel.structure.SNodeType" flags="in" index="3Tqbb2">
        <reference id="1138405853777" name="concept" index="ehGHo" />
      </concept>
      <concept id="1138056022639" name="jetbrains.mps.lang.smodel.structure.SPropertyAccess" flags="nn" index="3TrcHB">
        <reference id="1138056395725" name="property" index="3TsBF5" />
      </concept>
      <concept id="1138056143562" name="jetbrains.mps.lang.smodel.structure.SLinkAccess" flags="nn" index="3TrEf2">
        <reference id="1138056516764" name="link" index="3Tt5mk" />
      </concept>
      <concept id="1138056282393" name="jetbrains.mps.lang.smodel.structure.SLinkListAccess" flags="nn" index="3Tsc0h">
        <reference id="1138056546658" name="link" index="3TtcxE" />
      </concept>
    </language>
    <language id="ceab5195-25ea-4f22-9b92-103b95ca8c0c" name="jetbrains.mps.lang.core">
      <concept id="1169194658468" name="jetbrains.mps.lang.core.structure.INamedConcept" flags="ng" index="TrEIO">
        <property id="1169194664001" name="name" index="TrG5h" />
      </concept>
    </language>
    <language id="83888646-71ce-4f1c-9c53-c54016f6ad4f" name="jetbrains.mps.baseLanguage.collections">
      <concept id="1204796164442" name="jetbrains.mps.baseLanguage.collections.structure.InternalSequenceOperation" flags="nn" index="23sCx2">
        <child id="1204796294226" name="closure" index="23t8la" />
      </concept>
      <concept id="540871147943773365" name="jetbrains.mps.baseLanguage.collections.structure.SingleArgumentSequenceOperation" flags="nn" index="25WWJ4">
        <child id="540871147943773366" name="argument" index="25WWJ7" />
      </concept>
      <concept id="1235566554328" name="jetbrains.mps.baseLanguage.collections.structure.AnyOperation" flags="nn" index="2HwmR7" />
      <concept id="1203518072036" name="jetbrains.mps.baseLanguage.collections.structure.SmartClosureParameterDeclaration" flags="ig" index="Rh6nW" />
      <concept id="1160612413312" name="jetbrains.mps.baseLanguage.collections.structure.AddElementOperation" flags="nn" index="TSZUe" />
      <concept id="1160666733551" name="jetbrains.mps.baseLanguage.collections.structure.AddAllElementsOperation" flags="nn" index="X8dFx" />
      <concept id="1165595910856" name="jetbrains.mps.baseLanguage.collections.structure.GetLastOperation" flags="nn" index="1yVyf7" />
      <concept id="1176501494711" name="jetbrains.mps.baseLanguage.collections.structure.IsNotEmptyOperation" flags="nn" index="3GX2aA" />
    </language>
  </registry>
  <node concept="1M2fIO" id="3YMQ4vlnXNQ">
    <ref role="1M2myG" to="tpf3:3YMQ4vlnW8u" resolve="GenerationContextOp_NodePatternRef" />
    <node concept="1N5Pfh" id="3YMQ4vlnXNR" role="1Mr941">
      <ref role="1N5Vy1" to="tpf3:3YMQ4vlnXNl" />
      <node concept="1MUpDS" id="3YMQ4vlnXNS" role="1N6uqs">
        <node concept="3clFbS" id="3YMQ4vlnXNT" role="2VODD2">
          <node concept="3cpWs8" id="3YMQ4vlo40P" role="3cqZAp">
            <node concept="3cpWsn" id="3YMQ4vlo40Q" role="3cpWs9">
              <property role="TrG5h" value="result" />
              <node concept="2I9FWS" id="3YMQ4vlo40R" role="1tU5fm">
                <ref role="2I9WkF" to="tp3t:gyDMOuj" resolve="PatternVariableDeclaration" />
              </node>
              <node concept="2ShNRf" id="3YMQ4vlo40S" role="33vP2m">
                <node concept="2T8Vx0" id="3YMQ4vlo40T" role="2ShVmc">
                  <node concept="2I9FWS" id="3YMQ4vlo40U" role="2T96Bj">
                    <ref role="2I9WkF" to="tp3t:gyDMOuj" resolve="PatternVariableDeclaration" />
                  </node>
                </node>
              </node>
            </node>
          </node>
          <node concept="3cpWs8" id="3YMQ4vlo40V" role="3cqZAp">
            <node concept="3cpWsn" id="3YMQ4vlo40W" role="3cpWs9">
              <property role="TrG5h" value="rule" />
              <node concept="3Tqbb2" id="3YMQ4vlo40X" role="1tU5fm">
                <ref role="ehGHo" to="tpf8:1$dcvTE4IIO" resolve="PatternReduction_MappingRule" />
              </node>
              <node concept="2OqwBi" id="3YMQ4vlo40Y" role="33vP2m">
                <node concept="21POm0" id="3YMQ4vlo40Z" role="2Oq$k0" />
                <node concept="2Xjw5R" id="3YMQ4vlo410" role="2OqNvi">
                  <node concept="1xMEDy" id="3YMQ4vlo411" role="1xVPHs">
                    <node concept="chp4Y" id="3YMQ4vlo4Bw" role="ri$Ld">
                      <ref role="cht4Q" to="tpf8:1$dcvTE4IIO" resolve="PatternReduction_MappingRule" />
                    </node>
                  </node>
                </node>
              </node>
            </node>
          </node>
          <node concept="3clFbJ" id="3YMQ4vlo413" role="3cqZAp">
            <node concept="1Wc70l" id="3YMQ4vloaiy" role="3clFbw">
              <node concept="2OqwBi" id="3YMQ4vloaiA" role="3uHU7B">
                <node concept="37vLTw" id="3GM_nagTvEW" role="2Oq$k0">
                  <ref role="3cqZAo" node="3YMQ4vlo40W" resolve="rule" />
                </node>
                <node concept="3x8VRR" id="3YMQ4vloaiE" role="2OqNvi" />
              </node>
              <node concept="2OqwBi" id="3YMQ4vlo9OP" role="3uHU7w">
                <node concept="2OqwBi" id="3YMQ4vlo415" role="2Oq$k0">
                  <node concept="37vLTw" id="3GM_nagTukd" role="2Oq$k0">
                    <ref role="3cqZAo" node="3YMQ4vlo40W" resolve="rule" />
                  </node>
                  <node concept="3TrEf2" id="3YMQ4vlo9OO" role="2OqNvi">
                    <ref role="3Tt5mk" to="tpf8:1$dcvTE4S$q" />
                  </node>
                </node>
                <node concept="3x8VRR" id="3YMQ4vloa98" role="2OqNvi" />
              </node>
            </node>
            <node concept="3clFbS" id="3YMQ4vlo41a" role="3clFbx">
              <node concept="3clFbF" id="3YMQ4vlo41b" role="3cqZAp">
                <node concept="2OqwBi" id="3YMQ4vlo41c" role="3clFbG">
                  <node concept="37vLTw" id="3GM_nagT$As" role="2Oq$k0">
                    <ref role="3cqZAo" node="3YMQ4vlo40Q" resolve="result" />
                  </node>
                  <node concept="X8dFx" id="3YMQ4vlo41e" role="2OqNvi">
                    <node concept="2OqwBi" id="3YMQ4vlo41f" role="25WWJ7">
                      <node concept="2OqwBi" id="3YMQ4vlo41i" role="2Oq$k0">
                        <node concept="37vLTw" id="3GM_nagTsUw" role="2Oq$k0">
                          <ref role="3cqZAo" node="3YMQ4vlo40W" resolve="rule" />
                        </node>
                        <node concept="3TrEf2" id="3YMQ4vloaiM" role="2OqNvi">
                          <ref role="3Tt5mk" to="tpf8:1$dcvTE4S$q" />
                        </node>
                      </node>
                      <node concept="2Rf3mk" id="3YMQ4vloaj6" role="2OqNvi">
                        <node concept="1xMEDy" id="3YMQ4vloaj7" role="1xVPHs">
                          <node concept="chp4Y" id="3YMQ4vloaje" role="ri$Ld">
                            <ref role="cht4Q" to="tp3t:gyDMOuj" resolve="PatternVariableDeclaration" />
                          </node>
                        </node>
                      </node>
                    </node>
                  </node>
                </node>
              </node>
            </node>
          </node>
          <node concept="3clFbF" id="3YMQ4vloajm" role="3cqZAp">
            <node concept="37vLTw" id="3GM_nagT$Q8" role="3clFbG">
              <ref role="3cqZAo" node="3YMQ4vlo40Q" resolve="result" />
            </node>
          </node>
        </node>
      </node>
    </node>
  </node>
  <node concept="1M2fIO" id="4w6U_Q4Qw1G">
    <ref role="1M2myG" to="tpf3:4w6U_Q4Qaba" resolve="GenerationContextOp_ParameterRef" />
    <node concept="1N5Pfh" id="4w6U_Q4Qw1H" role="1Mr941">
      <ref role="1N5Vy1" to="tpf3:4w6U_Q4Qdka" />
      <node concept="1MUpDS" id="4w6U_Q4Qw1I" role="1N6uqs">
        <node concept="3clFbS" id="4w6U_Q4Qw1J" role="2VODD2">
          <node concept="3cpWs8" id="4w6U_Q4Qw1K" role="3cqZAp">
            <node concept="3cpWsn" id="4w6U_Q4Qw1L" role="3cpWs9">
              <property role="TrG5h" value="result" />
              <node concept="2I9FWS" id="4w6U_Q4Qw1M" role="1tU5fm">
                <ref role="2I9WkF" to="tpf8:1$dcvTE2mbA" resolve="TemplateParameterDeclaration" />
              </node>
              <node concept="2ShNRf" id="4w6U_Q4Qw1N" role="33vP2m">
                <node concept="2T8Vx0" id="4w6U_Q4Qw1O" role="2ShVmc">
                  <node concept="2I9FWS" id="4w6U_Q4Qw1P" role="2T96Bj">
                    <ref role="2I9WkF" to="tpf8:1$dcvTE2mbA" resolve="TemplateParameterDeclaration" />
                  </node>
                </node>
              </node>
            </node>
          </node>
          <node concept="3cpWs8" id="4w6U_Q4Qw1Q" role="3cqZAp">
            <node concept="3cpWsn" id="4w6U_Q4Qw1R" role="3cpWs9">
              <property role="TrG5h" value="templDeclaration" />
              <node concept="3Tqbb2" id="4w6U_Q4Qw1S" role="1tU5fm">
                <ref role="ehGHo" to="tpf8:QzR6ThdYAL" resolve="IParameterizedTemplate" />
              </node>
              <node concept="2OqwBi" id="4w6U_Q4Qw1T" role="33vP2m">
                <node concept="21POm0" id="4w6U_Q4QwbO" role="2Oq$k0" />
                <node concept="2Xjw5R" id="4w6U_Q4Qw1V" role="2OqNvi">
                  <node concept="1xMEDy" id="4w6U_Q4Qw1W" role="1xVPHs">
                    <node concept="chp4Y" id="QzR6ThYao_" role="ri$Ld">
                      <ref role="cht4Q" to="tpf8:QzR6ThdYAL" resolve="IParameterizedTemplate" />
                    </node>
                  </node>
                </node>
              </node>
            </node>
          </node>
          <node concept="3clFbJ" id="4w6U_Q4Qw1Y" role="3cqZAp">
            <node concept="1Wc70l" id="4w6U_Q4Qw1Z" role="3clFbw">
              <node concept="2OqwBi" id="4w6U_Q4Qw20" role="3uHU7B">
                <node concept="37vLTw" id="3GM_nagTBFV" role="2Oq$k0">
                  <ref role="3cqZAo" node="4w6U_Q4Qw1R" resolve="templDeclaration" />
                </node>
                <node concept="3x8VRR" id="4w6U_Q4Qw22" role="2OqNvi" />
              </node>
              <node concept="2OqwBi" id="4w6U_Q4Qw23" role="3uHU7w">
                <node concept="2OqwBi" id="4w6U_Q4Qw24" role="2Oq$k0">
                  <node concept="37vLTw" id="3GM_nagTtcI" role="2Oq$k0">
                    <ref role="3cqZAo" node="4w6U_Q4Qw1R" resolve="templDeclaration" />
                  </node>
                  <node concept="3Tsc0h" id="QzR6ThjV5o" role="2OqNvi">
                    <ref role="3TtcxE" to="tpf8:QzR6ThdYDm" />
                  </node>
                </node>
                <node concept="3GX2aA" id="4w6U_Q4Q_pa" role="2OqNvi" />
              </node>
            </node>
            <node concept="3clFbS" id="4w6U_Q4Qw28" role="3clFbx">
              <node concept="3clFbF" id="4w6U_Q4Qw29" role="3cqZAp">
                <node concept="2OqwBi" id="4w6U_Q4Qw2a" role="3clFbG">
                  <node concept="37vLTw" id="3GM_nagT_Nw" role="2Oq$k0">
                    <ref role="3cqZAo" node="4w6U_Q4Qw1L" resolve="result" />
                  </node>
                  <node concept="X8dFx" id="4w6U_Q4Qw2c" role="2OqNvi">
                    <node concept="2OqwBi" id="4w6U_Q4Q_pn" role="25WWJ7">
                      <node concept="37vLTw" id="3GM_nagTrR2" role="2Oq$k0">
                        <ref role="3cqZAo" node="4w6U_Q4Qw1R" resolve="templDeclaration" />
                      </node>
                      <node concept="3Tsc0h" id="QzR6ThjZfG" role="2OqNvi">
                        <ref role="3TtcxE" to="tpf8:QzR6ThdYDm" />
                      </node>
                    </node>
                  </node>
                </node>
              </node>
            </node>
          </node>
          <node concept="3clFbF" id="4w6U_Q4Qw2k" role="3cqZAp">
            <node concept="37vLTw" id="3GM_nagTx6r" role="3clFbG">
              <ref role="3cqZAo" node="4w6U_Q4Qw1L" resolve="result" />
            </node>
          </node>
        </node>
      </node>
    </node>
  </node>
  <node concept="1M2fIO" id="1xCtdgeQJeO">
    <ref role="1M2myG" to="tpf3:1xCtdgeQstn" resolve="GenerationContextOp_LinkPatternRef" />
    <node concept="1N5Pfh" id="1xCtdgeQJeP" role="1Mr941">
      <ref role="1N5Vy1" to="tpf3:1xCtdgeQstr" />
      <node concept="1MUpDS" id="1xCtdgeQJeQ" role="1N6uqs">
        <node concept="3clFbS" id="1xCtdgeQJeR" role="2VODD2">
          <node concept="3cpWs8" id="1xCtdgeQJeS" role="3cqZAp">
            <node concept="3cpWsn" id="1xCtdgeQJeT" role="3cpWs9">
              <property role="TrG5h" value="result" />
              <node concept="2I9FWS" id="1xCtdgeQJeU" role="1tU5fm">
                <ref role="2I9WkF" to="tp3t:gzjrplq" resolve="LinkPatternVariableDeclaration" />
              </node>
              <node concept="2ShNRf" id="1xCtdgeQJeV" role="33vP2m">
                <node concept="2T8Vx0" id="1xCtdgeQJeW" role="2ShVmc">
                  <node concept="2I9FWS" id="1xCtdgeQJeX" role="2T96Bj">
                    <ref role="2I9WkF" to="tp3t:gzjrplq" resolve="LinkPatternVariableDeclaration" />
                  </node>
                </node>
              </node>
            </node>
          </node>
          <node concept="3cpWs8" id="1xCtdgeQJeY" role="3cqZAp">
            <node concept="3cpWsn" id="1xCtdgeQJeZ" role="3cpWs9">
              <property role="TrG5h" value="rule" />
              <node concept="3Tqbb2" id="1xCtdgeQJf0" role="1tU5fm">
                <ref role="ehGHo" to="tpf8:1$dcvTE4IIO" resolve="PatternReduction_MappingRule" />
              </node>
              <node concept="2OqwBi" id="1xCtdgeQJf1" role="33vP2m">
                <node concept="21POm0" id="1xCtdgeQJf2" role="2Oq$k0" />
                <node concept="2Xjw5R" id="1xCtdgeQJf3" role="2OqNvi">
                  <node concept="1xMEDy" id="1xCtdgeQJf4" role="1xVPHs">
                    <node concept="chp4Y" id="1xCtdgeQJf5" role="ri$Ld">
                      <ref role="cht4Q" to="tpf8:1$dcvTE4IIO" resolve="PatternReduction_MappingRule" />
                    </node>
                  </node>
                </node>
              </node>
            </node>
          </node>
          <node concept="3clFbJ" id="1xCtdgeQJf6" role="3cqZAp">
            <node concept="1Wc70l" id="1xCtdgeQJf7" role="3clFbw">
              <node concept="2OqwBi" id="1xCtdgeQJf8" role="3uHU7B">
                <node concept="37vLTw" id="3GM_nagT$MM" role="2Oq$k0">
                  <ref role="3cqZAo" node="1xCtdgeQJeZ" resolve="rule" />
                </node>
                <node concept="3x8VRR" id="1xCtdgeQJfa" role="2OqNvi" />
              </node>
              <node concept="2OqwBi" id="1xCtdgeQJfb" role="3uHU7w">
                <node concept="2OqwBi" id="1xCtdgeQJfc" role="2Oq$k0">
                  <node concept="37vLTw" id="3GM_nagTxJI" role="2Oq$k0">
                    <ref role="3cqZAo" node="1xCtdgeQJeZ" resolve="rule" />
                  </node>
                  <node concept="3TrEf2" id="1xCtdgeQJfe" role="2OqNvi">
                    <ref role="3Tt5mk" to="tpf8:1$dcvTE4S$q" />
                  </node>
                </node>
                <node concept="3x8VRR" id="1xCtdgeQJff" role="2OqNvi" />
              </node>
            </node>
            <node concept="3clFbS" id="1xCtdgeQJfg" role="3clFbx">
              <node concept="3clFbF" id="1xCtdgeQJfh" role="3cqZAp">
                <node concept="2OqwBi" id="1xCtdgeQJfi" role="3clFbG">
                  <node concept="37vLTw" id="3GM_nagTBjV" role="2Oq$k0">
                    <ref role="3cqZAo" node="1xCtdgeQJeT" resolve="result" />
                  </node>
                  <node concept="X8dFx" id="1xCtdgeQJfk" role="2OqNvi">
                    <node concept="2OqwBi" id="1xCtdgeQJfl" role="25WWJ7">
                      <node concept="2OqwBi" id="1xCtdgeQJfm" role="2Oq$k0">
                        <node concept="37vLTw" id="3GM_nagT_BQ" role="2Oq$k0">
                          <ref role="3cqZAo" node="1xCtdgeQJeZ" resolve="rule" />
                        </node>
                        <node concept="3TrEf2" id="1xCtdgeQJfo" role="2OqNvi">
                          <ref role="3Tt5mk" to="tpf8:1$dcvTE4S$q" />
                        </node>
                      </node>
                      <node concept="2Rf3mk" id="1xCtdgeQJfp" role="2OqNvi">
                        <node concept="1xMEDy" id="1xCtdgeQJfq" role="1xVPHs">
                          <node concept="chp4Y" id="1xCtdgeQJfH" role="ri$Ld">
                            <ref role="cht4Q" to="tp3t:gzjrplq" resolve="LinkPatternVariableDeclaration" />
                          </node>
                        </node>
                      </node>
                    </node>
                  </node>
                </node>
              </node>
            </node>
          </node>
          <node concept="3clFbF" id="1xCtdgeQJfs" role="3cqZAp">
            <node concept="37vLTw" id="3GM_nagTtgD" role="3clFbG">
              <ref role="3cqZAo" node="1xCtdgeQJeT" resolve="result" />
            </node>
          </node>
        </node>
      </node>
    </node>
  </node>
  <node concept="1M2fIO" id="1xCtdgeQJfN">
    <ref role="1M2myG" to="tpf3:1xCtdgeQsto" resolve="GenerationContextOp_PropertyPatternRef" />
    <node concept="1N5Pfh" id="1xCtdgeQJfQ" role="1Mr941">
      <ref role="1N5Vy1" to="tpf3:1xCtdgeQsts" />
      <node concept="1MUpDS" id="1xCtdgeQJfT" role="1N6uqs">
        <node concept="3clFbS" id="1xCtdgeQJfU" role="2VODD2">
          <node concept="3cpWs8" id="1xCtdgeQJfV" role="3cqZAp">
            <node concept="3cpWsn" id="1xCtdgeQJfW" role="3cpWs9">
              <property role="TrG5h" value="result" />
              <node concept="2I9FWS" id="1xCtdgeQJfX" role="1tU5fm">
                <ref role="2I9WkF" to="tp3t:gyDMOul" resolve="PropertyPatternVariableDeclaration" />
              </node>
              <node concept="2ShNRf" id="1xCtdgeQJfY" role="33vP2m">
                <node concept="2T8Vx0" id="1xCtdgeQJfZ" role="2ShVmc">
                  <node concept="2I9FWS" id="1xCtdgeQJg0" role="2T96Bj">
                    <ref role="2I9WkF" to="tp3t:gyDMOul" resolve="PropertyPatternVariableDeclaration" />
                  </node>
                </node>
              </node>
            </node>
          </node>
          <node concept="3cpWs8" id="1xCtdgeQJg1" role="3cqZAp">
            <node concept="3cpWsn" id="1xCtdgeQJg2" role="3cpWs9">
              <property role="TrG5h" value="rule" />
              <node concept="3Tqbb2" id="1xCtdgeQJg3" role="1tU5fm">
                <ref role="ehGHo" to="tpf8:1$dcvTE4IIO" resolve="PatternReduction_MappingRule" />
              </node>
              <node concept="2OqwBi" id="1xCtdgeQJg4" role="33vP2m">
                <node concept="21POm0" id="1xCtdgeQJg5" role="2Oq$k0" />
                <node concept="2Xjw5R" id="1xCtdgeQJg6" role="2OqNvi">
                  <node concept="1xMEDy" id="1xCtdgeQJg7" role="1xVPHs">
                    <node concept="chp4Y" id="1xCtdgeQJg8" role="ri$Ld">
                      <ref role="cht4Q" to="tpf8:1$dcvTE4IIO" resolve="PatternReduction_MappingRule" />
                    </node>
                  </node>
                </node>
              </node>
            </node>
          </node>
          <node concept="3clFbJ" id="1xCtdgeQJg9" role="3cqZAp">
            <node concept="1Wc70l" id="1xCtdgeQJga" role="3clFbw">
              <node concept="2OqwBi" id="1xCtdgeQJgb" role="3uHU7B">
                <node concept="37vLTw" id="3GM_nagTsWC" role="2Oq$k0">
                  <ref role="3cqZAo" node="1xCtdgeQJg2" resolve="rule" />
                </node>
                <node concept="3x8VRR" id="1xCtdgeQJgd" role="2OqNvi" />
              </node>
              <node concept="2OqwBi" id="1xCtdgeQJge" role="3uHU7w">
                <node concept="2OqwBi" id="1xCtdgeQJgf" role="2Oq$k0">
                  <node concept="37vLTw" id="3GM_nagTxse" role="2Oq$k0">
                    <ref role="3cqZAo" node="1xCtdgeQJg2" resolve="rule" />
                  </node>
                  <node concept="3TrEf2" id="1xCtdgeQJgh" role="2OqNvi">
                    <ref role="3Tt5mk" to="tpf8:1$dcvTE4S$q" />
                  </node>
                </node>
                <node concept="3x8VRR" id="1xCtdgeQJgi" role="2OqNvi" />
              </node>
            </node>
            <node concept="3clFbS" id="1xCtdgeQJgj" role="3clFbx">
              <node concept="3clFbF" id="1xCtdgeQJgk" role="3cqZAp">
                <node concept="2OqwBi" id="1xCtdgeQJgl" role="3clFbG">
                  <node concept="37vLTw" id="3GM_nagT_PO" role="2Oq$k0">
                    <ref role="3cqZAo" node="1xCtdgeQJfW" resolve="result" />
                  </node>
                  <node concept="X8dFx" id="1xCtdgeQJgn" role="2OqNvi">
                    <node concept="2OqwBi" id="1xCtdgeQJgo" role="25WWJ7">
                      <node concept="2OqwBi" id="1xCtdgeQJgp" role="2Oq$k0">
                        <node concept="37vLTw" id="3GM_nagTsLK" role="2Oq$k0">
                          <ref role="3cqZAo" node="1xCtdgeQJg2" resolve="rule" />
                        </node>
                        <node concept="3TrEf2" id="1xCtdgeQJgr" role="2OqNvi">
                          <ref role="3Tt5mk" to="tpf8:1$dcvTE4S$q" />
                        </node>
                      </node>
                      <node concept="2Rf3mk" id="1xCtdgeQJgs" role="2OqNvi">
                        <node concept="1xMEDy" id="1xCtdgeQJgt" role="1xVPHs">
                          <node concept="chp4Y" id="1xCtdgeQJgK" role="ri$Ld">
                            <ref role="cht4Q" to="tp3t:gyDMOul" resolve="PropertyPatternVariableDeclaration" />
                          </node>
                        </node>
                      </node>
                    </node>
                  </node>
                </node>
              </node>
            </node>
          </node>
          <node concept="3clFbF" id="1xCtdgeQJgv" role="3cqZAp">
            <node concept="37vLTw" id="3GM_nagT_DS" role="3clFbG">
              <ref role="3cqZAo" node="1xCtdgeQJfW" resolve="result" />
            </node>
          </node>
        </node>
      </node>
    </node>
  </node>
  <node concept="1M2fIO" id="2bdIC8aAEXn">
    <ref role="1M2myG" to="tpf3:2bdIC8aAwm3" resolve="GenerationContextOp_GenParameterRef" />
    <node concept="1N5Pfh" id="2bdIC8aAEXo" role="1Mr941">
      <ref role="1N5Vy1" to="tpf3:2bdIC8aAwm4" />
      <node concept="1MUpDS" id="2bdIC8aAEXp" role="1N6uqs">
        <node concept="3clFbS" id="2bdIC8aAEXq" role="2VODD2">
          <node concept="3clFbF" id="2bdIC8aAEY1" role="3cqZAp">
            <node concept="2OqwBi" id="2bdIC8aAEY8" role="3clFbG">
              <node concept="2OqwBi" id="2bdIC8aAEY3" role="2Oq$k0">
                <node concept="1Q6Npb" id="2bdIC8aAEY2" role="2Oq$k0" />
                <node concept="2RRcyG" id="2bdIC8aAEY7" role="2OqNvi">
                  <ref role="2RRcyH" to="tpf8:fWbUwhP" resolve="MappingConfiguration" />
                </node>
              </node>
              <node concept="13MTOL" id="2bdIC8aAEYc" role="2OqNvi">
                <ref role="13MTZf" to="tpf8:28lK$1mBjJ2" />
              </node>
            </node>
          </node>
        </node>
      </node>
    </node>
  </node>
  <node concept="1M2fIO" id="2n6lsTIwfRz">
    <ref role="1M2myG" to="tpf3:2n6lsTIwfRo" resolve="GenerationContextOp_VarRef" />
    <node concept="1N5Pfh" id="2n6lsTIwfR$" role="1Mr941">
      <ref role="1N5Vy1" to="tpf3:2n6lsTIwfRq" />
      <node concept="1MUpDS" id="2n6lsTIwfR_" role="1N6uqs">
        <node concept="3clFbS" id="2n6lsTIwfRA" role="2VODD2">
          <node concept="3cpWs8" id="2n6lsTIwfS9" role="3cqZAp">
            <node concept="3cpWsn" id="2n6lsTIwfSa" role="3cpWs9">
              <property role="TrG5h" value="contextNode" />
              <node concept="3Tqbb2" id="2n6lsTIwfSb" role="1tU5fm" />
              <node concept="3K4zz7" id="2n6lsTIwfSi" role="33vP2m">
                <node concept="21POm0" id="2n6lsTIwfSm" role="3K4E3e" />
                <node concept="3kakTB" id="2n6lsTIwfSn" role="3K4GZi" />
                <node concept="3clFbC" id="2n6lsTIwfSe" role="3K4Cdx">
                  <node concept="10Nm6u" id="2n6lsTIwfSh" role="3uHU7w" />
                  <node concept="3kakTB" id="2n6lsTIwfSd" role="3uHU7B" />
                </node>
              </node>
            </node>
          </node>
          <node concept="3cpWs8" id="5ed9yo03NU_" role="3cqZAp">
            <node concept="3cpWsn" id="5ed9yo03NUA" role="3cpWs9">
              <property role="TrG5h" value="vars" />
              <node concept="2I9FWS" id="5ed9yo03NUB" role="1tU5fm">
                <ref role="2I9WkF" to="tpf8:4mp7qFmCXde" resolve="VarMacro" />
              </node>
              <node concept="2ShNRf" id="5ed9yo03NUD" role="33vP2m">
                <node concept="2T8Vx0" id="5ed9yo03Onz" role="2ShVmc">
                  <node concept="2I9FWS" id="5ed9yo03On$" role="2T96Bj">
                    <ref role="2I9WkF" to="tpf8:4mp7qFmCXde" resolve="VarMacro" />
                  </node>
                </node>
              </node>
            </node>
          </node>
          <node concept="2$JKZl" id="5ed9yo03OnG" role="3cqZAp">
            <node concept="2OqwBi" id="5ed9yo03OnK" role="2$JKZa">
              <node concept="37vLTw" id="3GM_nagTt4v" role="2Oq$k0">
                <ref role="3cqZAo" node="2n6lsTIwfSa" resolve="contextNode" />
              </node>
              <node concept="3x8VRR" id="5ed9yo03OnO" role="2OqNvi" />
            </node>
            <node concept="3clFbS" id="5ed9yo03OnI" role="2LFqv$">
              <node concept="3clFbJ" id="5ed9yo03OnP" role="3cqZAp">
                <node concept="3clFbS" id="5ed9yo03OnR" role="3clFbx">
                  <node concept="3clFbF" id="5ed9yo03Oo0" role="3cqZAp">
                    <node concept="2OqwBi" id="5ed9yo03Oo2" role="3clFbG">
                      <node concept="37vLTw" id="3GM_nagTtZw" role="2Oq$k0">
                        <ref role="3cqZAo" node="5ed9yo03NUA" resolve="vars" />
                      </node>
                      <node concept="TSZUe" id="5ed9yo03Oo6" role="2OqNvi">
                        <node concept="1PxgMI" id="5ed9yo03Oo9" role="25WWJ7">
                          <ref role="1m5ApE" to="tpf8:4mp7qFmCXde" resolve="VarMacro" />
                          <node concept="37vLTw" id="3GM_nagTvAX" role="1m5AlR">
                            <ref role="3cqZAo" node="2n6lsTIwfSa" resolve="contextNode" />
                          </node>
                        </node>
                      </node>
                    </node>
                  </node>
                </node>
                <node concept="2OqwBi" id="5ed9yo03OnT" role="3clFbw">
                  <node concept="37vLTw" id="3GM_nagTyr7" role="2Oq$k0">
                    <ref role="3cqZAo" node="2n6lsTIwfSa" resolve="contextNode" />
                  </node>
                  <node concept="1mIQ4w" id="5ed9yo03OnX" role="2OqNvi">
                    <node concept="chp4Y" id="5ed9yo03OnZ" role="cj9EA">
                      <ref role="cht4Q" to="tpf8:4mp7qFmCXde" resolve="VarMacro" />
                    </node>
                  </node>
                </node>
              </node>
              <node concept="3clFbF" id="5ed9yo03Ooc" role="3cqZAp">
                <node concept="37vLTI" id="5ed9yo03Ooe" role="3clFbG">
                  <node concept="37vLTw" id="3GM_nagT_VN" role="37vLTJ">
                    <ref role="3cqZAo" node="2n6lsTIwfSa" resolve="contextNode" />
                  </node>
                  <node concept="2YIFZM" id="5ed9yo03Ooj" role="37vLTx">
                    <ref role="37wK5l" node="5ed9yo03G1i" resolve="parent" />
                    <ref role="1Pybhc" node="5ed9yo03G1c" resolve="TraverseUtil" />
                    <node concept="37vLTw" id="3GM_nagTAZl" role="37wK5m">
                      <ref role="3cqZAo" node="2n6lsTIwfSa" resolve="contextNode" />
                    </node>
                  </node>
                </node>
              </node>
            </node>
          </node>
          <node concept="3clFbF" id="5ed9yo03Oon" role="3cqZAp">
            <node concept="37vLTw" id="3GM_nagTrKU" role="3clFbG">
              <ref role="3cqZAo" node="5ed9yo03NUA" resolve="vars" />
            </node>
          </node>
        </node>
      </node>
      <node concept="Bn3R3" id="2n6lsTIwVW6" role="Bn3R6">
        <node concept="3clFbS" id="2n6lsTIwVW7" role="2VODD2">
          <node concept="3clFbF" id="2n6lsTIwVW8" role="3cqZAp">
            <node concept="2OqwBi" id="2n6lsTIwVWa" role="3clFbG">
              <node concept="Bn53e" id="2n6lsTIwVW9" role="2Oq$k0" />
              <node concept="3TrcHB" id="2n6lsTIwVWe" role="2OqNvi">
                <ref role="3TsBF5" to="tpck:h0TrG11" resolve="name" />
              </node>
            </node>
          </node>
        </node>
      </node>
    </node>
  </node>
  <node concept="312cEu" id="5ed9yo03G1c">
    <property role="TrG5h" value="TraverseUtil" />
    <node concept="3Tm1VV" id="5ed9yo03G1d" role="1B3o_S" />
    <node concept="3clFbW" id="5ed9yo03G1e" role="jymVt">
      <node concept="3cqZAl" id="5ed9yo03G1f" role="3clF45" />
      <node concept="3Tm1VV" id="5ed9yo03G1g" role="1B3o_S" />
      <node concept="3clFbS" id="5ed9yo03G1h" role="3clF47" />
    </node>
    <node concept="2YIFZL" id="5ed9yo03G1i" role="jymVt">
      <property role="TrG5h" value="parent" />
      <node concept="37vLTG" id="5ed9yo03G1m" role="3clF46">
        <property role="TrG5h" value="n" />
        <node concept="3Tqbb2" id="5ed9yo03G1o" role="1tU5fm" />
      </node>
      <node concept="3Tm1VV" id="5ed9yo03G1k" role="1B3o_S" />
      <node concept="3clFbS" id="5ed9yo03G1l" role="3clF47">
        <node concept="3clFbJ" id="5ed9yo03G1q" role="3cqZAp">
          <node concept="2OqwBi" id="5ed9yo03G1u" role="3clFbw">
            <node concept="37vLTw" id="2BHiRxglnVC" role="2Oq$k0">
              <ref role="3cqZAo" node="5ed9yo03G1m" resolve="n" />
            </node>
            <node concept="32XrjI" id="5ed9yo03G1y" role="2OqNvi" />
          </node>
          <node concept="3clFbS" id="5ed9yo03G1s" role="3clFbx">
            <node concept="3clFbJ" id="5ed9yo03NS_" role="3cqZAp">
              <node concept="2OqwBi" id="5ed9yo03NSD" role="3clFbw">
                <node concept="37vLTw" id="2BHiRxglse0" role="2Oq$k0">
                  <ref role="3cqZAo" node="5ed9yo03G1m" resolve="n" />
                </node>
                <node concept="1mIQ4w" id="5ed9yo03NSH" role="2OqNvi">
                  <node concept="chp4Y" id="5ed9yo03NSJ" role="cj9EA">
                    <ref role="cht4Q" to="tpck:2ULFgo8_XDk" resolve="NodeAttribute" />
                  </node>
                </node>
              </node>
              <node concept="3clFbS" id="5ed9yo03NSB" role="3clFbx">
                <node concept="3cpWs8" id="5ed9yo03NSK" role="3cqZAp">
                  <node concept="3cpWsn" id="5ed9yo03NSL" role="3cpWs9">
                    <property role="TrG5h" value="next" />
                    <node concept="3Tqbb2" id="5ed9yo03NSM" role="1tU5fm" />
                    <node concept="2OqwBi" id="5ed9yo03NSP" role="33vP2m">
                      <node concept="37vLTw" id="2BHiRxghgfq" role="2Oq$k0">
                        <ref role="3cqZAo" node="5ed9yo03G1m" resolve="n" />
                      </node>
                      <node concept="YBYNd" id="5ed9yo03NST" role="2OqNvi" />
                    </node>
                  </node>
                </node>
                <node concept="2$JKZl" id="5ed9yo03NSV" role="3cqZAp">
                  <node concept="3y3z36" id="5ed9yo03NSZ" role="2$JKZa">
                    <node concept="10Nm6u" id="5ed9yo03NT2" role="3uHU7w" />
                    <node concept="37vLTw" id="3GM_nagTwWz" role="3uHU7B">
                      <ref role="3cqZAo" node="5ed9yo03NSL" resolve="next" />
                    </node>
                  </node>
                  <node concept="3clFbS" id="5ed9yo03NSX" role="2LFqv$">
                    <node concept="3clFbJ" id="5ed9yo03NT3" role="3cqZAp">
                      <node concept="2OqwBi" id="5ed9yo03NT7" role="3clFbw">
                        <node concept="37vLTw" id="3GM_nagTzH$" role="2Oq$k0">
                          <ref role="3cqZAo" node="5ed9yo03NSL" resolve="next" />
                        </node>
                        <node concept="1mIQ4w" id="5ed9yo03NTb" role="2OqNvi">
                          <node concept="chp4Y" id="5ed9yo03NTd" role="cj9EA">
                            <ref role="cht4Q" to="tpck:2ULFgo8_XDk" resolve="NodeAttribute" />
                          </node>
                        </node>
                      </node>
                      <node concept="3clFbS" id="5ed9yo03NT5" role="3clFbx">
                        <node concept="3cpWs6" id="5ed9yo03NTe" role="3cqZAp">
                          <node concept="37vLTw" id="3GM_nagTB35" role="3cqZAk">
                            <ref role="3cqZAo" node="5ed9yo03NSL" resolve="next" />
                          </node>
                        </node>
                      </node>
                    </node>
                    <node concept="3clFbF" id="5ed9yo03NTi" role="3cqZAp">
                      <node concept="37vLTI" id="5ed9yo03NTk" role="3clFbG">
                        <node concept="37vLTw" id="3GM_nagTrQb" role="37vLTJ">
                          <ref role="3cqZAo" node="5ed9yo03NSL" resolve="next" />
                        </node>
                        <node concept="2OqwBi" id="5ed9yo03NTo" role="37vLTx">
                          <node concept="37vLTw" id="3GM_nagTu_$" role="2Oq$k0">
                            <ref role="3cqZAo" node="5ed9yo03NSL" resolve="next" />
                          </node>
                          <node concept="YBYNd" id="5ed9yo03NTs" role="2OqNvi" />
                        </node>
                      </node>
                    </node>
                  </node>
                </node>
                <node concept="3clFbF" id="5ed9yo03NTu" role="3cqZAp">
                  <node concept="37vLTI" id="5ed9yo03NTw" role="3clFbG">
                    <node concept="37vLTw" id="2BHiRxgmyut" role="37vLTJ">
                      <ref role="3cqZAo" node="5ed9yo03G1m" resolve="n" />
                    </node>
                    <node concept="2OqwBi" id="5ed9yo03NT$" role="37vLTx">
                      <node concept="37vLTw" id="2BHiRxghfbt" role="2Oq$k0">
                        <ref role="3cqZAo" node="5ed9yo03G1m" resolve="n" />
                      </node>
                      <node concept="1mfA1w" id="5ed9yo03NTC" role="2OqNvi" />
                    </node>
                  </node>
                </node>
                <node concept="3cpWs6" id="5ed9yo03NTF" role="3cqZAp">
                  <node concept="3K4zz7" id="5ed9yo03NTN" role="3cqZAk">
                    <node concept="10Nm6u" id="5ed9yo03NTR" role="3K4E3e" />
                    <node concept="2OqwBi" id="5ed9yo03NTT" role="3K4GZi">
                      <node concept="37vLTw" id="2BHiRxgmurl" role="2Oq$k0">
                        <ref role="3cqZAo" node="5ed9yo03G1m" resolve="n" />
                      </node>
                      <node concept="1mfA1w" id="5ed9yo03NTX" role="2OqNvi" />
                    </node>
                    <node concept="3clFbC" id="5ed9yo03NTJ" role="3K4Cdx">
                      <node concept="10Nm6u" id="5ed9yo03NTM" role="3uHU7w" />
                      <node concept="37vLTw" id="2BHiRxgm6PV" role="3uHU7B">
                        <ref role="3cqZAo" node="5ed9yo03G1m" resolve="n" />
                      </node>
                    </node>
                  </node>
                </node>
              </node>
            </node>
            <node concept="3cpWs6" id="5ed9yo03NTZ" role="3cqZAp">
              <node concept="2OqwBi" id="5ed9yo03NU2" role="3cqZAk">
                <node concept="37vLTw" id="2BHiRxglPsp" role="2Oq$k0">
                  <ref role="3cqZAo" node="5ed9yo03G1m" resolve="n" />
                </node>
                <node concept="1mfA1w" id="5ed9yo03NU6" role="2OqNvi" />
              </node>
            </node>
          </node>
        </node>
        <node concept="3cpWs8" id="5ed9yo03G1$" role="3cqZAp">
          <node concept="3cpWsn" id="5ed9yo03G1_" role="3cpWs9">
            <property role="TrG5h" value="lastAttr" />
            <node concept="3Tqbb2" id="5ed9yo03G1A" role="1tU5fm" />
            <node concept="2OqwBi" id="5ed9yo03NU8" role="33vP2m">
              <node concept="2OqwBi" id="6suuiWXKi1i" role="2Oq$k0">
                <node concept="2OqwBi" id="5ed9yo03G1F" role="2Oq$k0">
                  <node concept="1PxgMI" id="5ed9yo03G1D" role="2Oq$k0">
                    <ref role="1m5ApE" to="tpck:gw2VY9q" resolve="BaseConcept" />
                    <node concept="37vLTw" id="2BHiRxgl7vM" role="1m5AlR">
                      <ref role="3cqZAo" node="5ed9yo03G1m" resolve="n" />
                    </node>
                  </node>
                  <node concept="3Tsc0h" id="5ed9yo03NSi" role="2OqNvi">
                    <ref role="3TtcxE" to="tpck:4uZwTti3__2" />
                  </node>
                </node>
                <node concept="v3k3i" id="6suuiWXKkzP" role="2OqNvi">
                  <node concept="chp4Y" id="6suuiWXKkHw" role="v3oSu">
                    <ref role="cht4Q" to="tpck:2ULFgo8_XDk" resolve="NodeAttribute" />
                  </node>
                </node>
              </node>
              <node concept="1yVyf7" id="5ed9yo03NUc" role="2OqNvi" />
            </node>
          </node>
        </node>
        <node concept="3clFbJ" id="5ed9yo03NUe" role="3cqZAp">
          <node concept="3clFbS" id="5ed9yo03NUf" role="3clFbx">
            <node concept="3cpWs6" id="5ed9yo03NUo" role="3cqZAp">
              <node concept="37vLTw" id="3GM_nagTBNQ" role="3cqZAk">
                <ref role="3cqZAo" node="5ed9yo03G1_" resolve="lastAttr" />
              </node>
            </node>
          </node>
          <node concept="2OqwBi" id="5ed9yo03NUj" role="3clFbw">
            <node concept="37vLTw" id="3GM_nagT$x2" role="2Oq$k0">
              <ref role="3cqZAo" node="5ed9yo03G1_" resolve="lastAttr" />
            </node>
            <node concept="3x8VRR" id="5ed9yo03NUn" role="2OqNvi" />
          </node>
        </node>
        <node concept="3clFbH" id="5ed9yo03NUr" role="3cqZAp" />
        <node concept="3clFbF" id="5ed9yo03NUt" role="3cqZAp">
          <node concept="2OqwBi" id="5ed9yo03NUv" role="3clFbG">
            <node concept="37vLTw" id="2BHiRxgm8zM" role="2Oq$k0">
              <ref role="3cqZAo" node="5ed9yo03G1m" resolve="n" />
            </node>
            <node concept="1mfA1w" id="5ed9yo03NUz" role="2OqNvi" />
          </node>
        </node>
      </node>
      <node concept="3Tqbb2" id="5ed9yo03G1p" role="3clF45" />
    </node>
  </node>
  <node concept="1M2fIO" id="6suuiWXK0xa">
    <ref role="1M2myG" to="tpf3:6suuiWXJvTY" resolve="GenerationContextOp_ContextVarRef" />
    <node concept="EnEH3" id="6suuiWXK0Ad" role="1MhHOB">
      <ref role="EomxK" to="tpf3:6suuiWXJvYy" resolve="contextVarName" />
      <node concept="QB0g5" id="6suuiWXK0Af" role="QCWH9">
        <node concept="3clFbS" id="6suuiWXK0Ag" role="2VODD2">
          <node concept="3cpWs8" id="6suuiWXL6fr" role="3cqZAp">
            <node concept="3cpWsn" id="6suuiWXKu5J" role="3cpWs9">
              <property role="TrG5h" value="n" />
              <node concept="3Tqbb2" id="6suuiWXKu5E" role="1tU5fm" />
              <node concept="EsrRn" id="6suuiWXL7Jw" role="33vP2m" />
            </node>
          </node>
          <node concept="2$JKZl" id="6suuiWXKPBo" role="3cqZAp">
            <node concept="3clFbS" id="6suuiWXKPBq" role="2LFqv$">
              <node concept="3clFbJ" id="6suuiWXKQwJ" role="3cqZAp">
                <node concept="3clFbS" id="6suuiWXKQwK" role="3clFbx">
                  <node concept="3clFbJ" id="6suuiWXKSF$" role="3cqZAp">
                    <node concept="3clFbS" id="6suuiWXKSF_" role="3clFbx">
                      <node concept="3cpWs6" id="6suuiWXKYU3" role="3cqZAp">
                        <node concept="3clFbT" id="6suuiWXKZj_" role="3cqZAk">
                          <property role="3clFbU" value="true" />
                        </node>
                      </node>
                    </node>
                    <node concept="2OqwBi" id="6suuiWXKW0p" role="3clFbw">
                      <node concept="2OqwBi" id="6suuiWXKUl2" role="2Oq$k0">
                        <node concept="1PxgMI" id="6suuiWXKTMe" role="2Oq$k0">
                          <ref role="1m5ApE" to="tpf8:6suuiWX$OMG" resolve="ContextVariableProvider" />
                          <node concept="37vLTw" id="6suuiWXL9gW" role="1m5AlR">
                            <ref role="3cqZAo" node="6suuiWXKu5J" resolve="n" />
                          </node>
                        </node>
                        <node concept="2qgKlT" id="6suuiWXKUVU" role="2OqNvi">
                          <ref role="37wK5l" to="tpfh:6suuiWX_oN7" resolve="contextVariables" />
                        </node>
                      </node>
                      <node concept="2HwmR7" id="6suuiWXKY5V" role="2OqNvi">
                        <node concept="1bVj0M" id="6suuiWXKY5X" role="23t8la">
                          <node concept="3clFbS" id="6suuiWXKY5Y" role="1bW5cS">
                            <node concept="3clFbF" id="6suuiWXKYvx" role="3cqZAp">
                              <node concept="2OqwBi" id="6suuiWXKYvy" role="3clFbG">
                                <node concept="2OqwBi" id="6suuiWXKYvz" role="2Oq$k0">
                                  <node concept="37vLTw" id="6suuiWXKYv$" role="2Oq$k0">
                                    <ref role="3cqZAo" node="6suuiWXKY5Z" resolve="it" />
                                  </node>
                                  <node concept="3TrcHB" id="6suuiWXKYv_" role="2OqNvi">
                                    <ref role="3TsBF5" to="tpck:h0TrG11" resolve="name" />
                                  </node>
                                </node>
                                <node concept="liA8E" id="6suuiWXKYvA" role="2OqNvi">
                                  <ref role="37wK5l" to="wyt6:~String.equals(java.lang.Object):boolean" resolve="equals" />
                                  <node concept="1Wqviy" id="6suuiWXKYvB" role="37wK5m" />
                                </node>
                              </node>
                            </node>
                          </node>
                          <node concept="Rh6nW" id="6suuiWXKY5Z" role="1bW2Oz">
                            <property role="TrG5h" value="it" />
                            <node concept="2jxLKc" id="6suuiWXKY60" role="1tU5fm" />
                          </node>
                        </node>
                      </node>
                    </node>
                  </node>
                </node>
                <node concept="2OqwBi" id="6suuiWXKR8b" role="3clFbw">
                  <node concept="37vLTw" id="6suuiWXL8Tz" role="2Oq$k0">
                    <ref role="3cqZAo" node="6suuiWXKu5J" resolve="n" />
                  </node>
                  <node concept="1mIQ4w" id="6suuiWXKRL_" role="2OqNvi">
                    <node concept="chp4Y" id="6suuiWXKSoP" role="cj9EA">
                      <ref role="cht4Q" to="tpf8:6suuiWX$OMG" resolve="ContextVariableProvider" />
                    </node>
                  </node>
                </node>
              </node>
              <node concept="3clFbF" id="6suuiWXL0QT" role="3cqZAp">
                <node concept="37vLTI" id="6suuiWXL1gK" role="3clFbG">
                  <node concept="2YIFZM" id="6suuiWXL2dv" role="37vLTx">
                    <ref role="37wK5l" node="5ed9yo03G1i" resolve="parent" />
                    <ref role="1Pybhc" node="5ed9yo03G1c" resolve="TraverseUtil" />
                    <node concept="37vLTw" id="6suuiWXL9Ys" role="37wK5m">
                      <ref role="3cqZAo" node="6suuiWXKu5J" resolve="n" />
                    </node>
                  </node>
                  <node concept="37vLTw" id="6suuiWXL9Cm" role="37vLTJ">
                    <ref role="3cqZAo" node="6suuiWXKu5J" resolve="n" />
                  </node>
                </node>
              </node>
            </node>
            <node concept="3y3z36" id="6suuiWXKQ5D" role="2$JKZa">
              <node concept="10Nm6u" id="6suuiWXKQfU" role="3uHU7w" />
              <node concept="37vLTw" id="6suuiWXL8x6" role="3uHU7B">
                <ref role="3cqZAo" node="6suuiWXKu5J" resolve="n" />
              </node>
            </node>
          </node>
          <node concept="3cpWs6" id="6suuiWXL08B" role="3cqZAp">
            <node concept="3clFbT" id="6suuiWXL09i" role="3cqZAk">
              <property role="3clFbU" value="false" />
            </node>
          </node>
        </node>
      </node>
    </node>
  </node>
</model>

