<?xml version="1.0" encoding="UTF-8"?>
<model ref="r:6bace024-8d21-4b10-a0fc-81e9abb14b9d(jetbrains.mps.ide.vcs.modelmetadata.behavior)">
  <persistence version="9" />
  <languages>
    <use id="af65afd8-f0dd-4942-87d9-63a55f2a9db1" name="jetbrains.mps.lang.behavior" version="0" />
    <devkit ref="fbc25dd2-5da4-483a-8b19-70928e1b62d7(jetbrains.mps.devkit.general-purpose)" />
  </languages>
  <imports>
    <import index="e4tq" ref="r:d1664c60-f6de-4b25-a874-54417df516ea(jetbrains.mps.ide.vcs.modelmetadata.structure)" />
  </imports>
  <registry />
</model>

