<?xml version="1.0" encoding="UTF-8"?>
<model ref="r:00000000-0000-4000-0000-011c895902bd(jetbrains.mps.lang.sharedConcepts.generator.baseLanguage.template.main@generator)">
  <persistence version="9" />
  <languages>
    <use id="b401a680-8325-4110-8fd3-84331ff25bef" name="jetbrains.mps.lang.generator" version="0" />
    <use id="d7706f63-9be2-479c-a3da-ae92af1e64d5" name="jetbrains.mps.lang.generator.generationContext" version="0" />
    <use id="13744753-c81f-424a-9c1b-cf8943bf4e86" name="jetbrains.mps.lang.sharedConcepts" version="0" />
    <use id="7866978e-a0f0-4cc7-81bc-4d213d9375e1" name="jetbrains.mps.lang.smodel" version="4" />
    <use id="f3061a53-9226-4cc5-a443-f952ceaf5816" name="jetbrains.mps.baseLanguage" version="4" />
    <devkit ref="fbc25dd2-5da4-483a-8b19-70928e1b62d7(jetbrains.mps.devkit.general-purpose)" />
  </languages>
  <imports>
    <import index="tpe8" ref="r:00000000-0000-4000-0000-011c895902cc(jetbrains.mps.baseLanguage.generator.java.conceptFunctionDefaults@generator)" />
    <import index="tpcw" ref="r:00000000-0000-4000-0000-011c895902bc(jetbrains.mps.lang.sharedConcepts.structure)" />
    <import index="tpek" ref="r:00000000-0000-4000-0000-011c895902c0(jetbrains.mps.baseLanguage.behavior)" />
  </imports>
  <registry>
    <language id="f3061a53-9226-4cc5-a443-f952ceaf5816" name="jetbrains.mps.baseLanguage">
      <concept id="1197027756228" name="jetbrains.mps.baseLanguage.structure.DotExpression" flags="nn" index="2OqwBi">
        <child id="1197027771414" name="operand" index="2Oq$k0" />
        <child id="1197027833540" name="operation" index="2OqNvi" />
      </concept>
      <concept id="1137021947720" name="jetbrains.mps.baseLanguage.structure.ConceptFunction" flags="in" index="2VMwT0">
        <child id="1137022507850" name="body" index="2VODD2" />
      </concept>
      <concept id="1068580123155" name="jetbrains.mps.baseLanguage.structure.ExpressionStatement" flags="nn" index="3clFbF">
        <child id="1068580123156" name="expression" index="3clFbG" />
      </concept>
      <concept id="1068580123136" name="jetbrains.mps.baseLanguage.structure.StatementList" flags="sn" stub="5293379017992965193" index="3clFbS">
        <child id="1068581517665" name="statement" index="3cqZAp" />
      </concept>
      <concept id="1081516740877" name="jetbrains.mps.baseLanguage.structure.NotExpression" flags="nn" index="3fqX7Q">
        <child id="1081516765348" name="expression" index="3fr31v" />
      </concept>
      <concept id="1204053956946" name="jetbrains.mps.baseLanguage.structure.IMethodCall" flags="ng" index="1ndlxa">
        <reference id="1068499141037" name="baseMethodDeclaration" index="37wK5l" />
      </concept>
    </language>
    <language id="b401a680-8325-4110-8fd3-84331ff25bef" name="jetbrains.mps.lang.generator">
      <concept id="1095416546421" name="jetbrains.mps.lang.generator.structure.MappingConfiguration" flags="ig" index="bUwia">
        <child id="1167328349397" name="reductionMappingRule" index="3acgRq" />
      </concept>
      <concept id="1168559333462" name="jetbrains.mps.lang.generator.structure.TemplateDeclarationReference" flags="ln" index="j$656" />
      <concept id="1722980698497626400" name="jetbrains.mps.lang.generator.structure.ITemplateCall" flags="ng" index="v9R3L">
        <reference id="1722980698497626483" name="template" index="v9R2y" />
      </concept>
      <concept id="1167168920554" name="jetbrains.mps.lang.generator.structure.BaseMappingRule_Condition" flags="in" index="30G5F_" />
      <concept id="1167169188348" name="jetbrains.mps.lang.generator.structure.TemplateFunctionParameter_sourceNode" flags="nn" index="30H73N" />
      <concept id="1167169308231" name="jetbrains.mps.lang.generator.structure.BaseMappingRule" flags="ng" index="30H$t8">
        <reference id="1167169349424" name="applicableConcept" index="30HIoZ" />
        <child id="1167169362365" name="conditionFunction" index="30HLyM" />
      </concept>
      <concept id="1167327847730" name="jetbrains.mps.lang.generator.structure.Reduction_MappingRule" flags="lg" index="3aamgX">
        <child id="1169672767469" name="ruleConsequence" index="1lVwrX" />
      </concept>
    </language>
    <language id="7866978e-a0f0-4cc7-81bc-4d213d9375e1" name="jetbrains.mps.lang.smodel">
      <concept id="1179409122411" name="jetbrains.mps.lang.smodel.structure.Node_ConceptMethodCall" flags="nn" index="2qgKlT" />
    </language>
    <language id="ceab5195-25ea-4f22-9b92-103b95ca8c0c" name="jetbrains.mps.lang.core">
      <concept id="1169194658468" name="jetbrains.mps.lang.core.structure.INamedConcept" flags="ng" index="TrEIO">
        <property id="1169194664001" name="name" index="TrG5h" />
      </concept>
    </language>
  </registry>
  <node concept="bUwia" id="gTQbri1">
    <property role="TrG5h" value="mc_conceptFunctionParameters" />
    <node concept="3aamgX" id="h3JLMaz" role="3acgRq">
      <ref role="30HIoZ" to="tpcw:gTQ6Nt5" resolve="ConceptFunctionParameter_model" />
      <node concept="j$656" id="h3JMfVd" role="1lVwrX">
        <ref role="v9R2y" to="tpe8:gCCYkhx" resolve="reduce_ConceptFunctionParameter_default" />
      </node>
    </node>
    <node concept="3aamgX" id="h3JLUk4" role="3acgRq">
      <ref role="30HIoZ" to="tpcw:gTQ799U" resolve="ConceptFunctionParameter_operationContext" />
      <node concept="j$656" id="h3JMgP_" role="1lVwrX">
        <ref role="v9R2y" to="tpe8:gCCYkhx" resolve="reduce_ConceptFunctionParameter_default" />
      </node>
    </node>
    <node concept="3aamgX" id="ho1Y0Vk" role="3acgRq">
      <ref role="30HIoZ" to="tpcw:ho1XNXU" resolve="ConceptFunctionParameter_editorContext" />
      <node concept="j$656" id="ho1Y4gI" role="1lVwrX">
        <ref role="v9R2y" to="tpe8:gCCYkhx" resolve="reduce_ConceptFunctionParameter_default" />
      </node>
    </node>
    <node concept="3aamgX" id="uYrIA37h9e" role="3acgRq">
      <ref role="30HIoZ" to="tpcw:uYrIA378mk" resolve="ConceptFunctionParameter_progressMonitor" />
      <node concept="j$656" id="uYrIA37h9f" role="1lVwrX">
        <ref role="v9R2y" to="tpe8:gCCYkhx" resolve="reduce_ConceptFunctionParameter_default" />
      </node>
    </node>
    <node concept="3aamgX" id="h3JLWme" role="3acgRq">
      <ref role="30HIoZ" to="tpcw:gTQ7B__" resolve="ConceptFunctionParameter_scope" />
      <node concept="j$656" id="h3JMhVb" role="1lVwrX">
        <ref role="v9R2y" to="tpe8:gCCYkhx" resolve="reduce_ConceptFunctionParameter_default" />
      </node>
      <node concept="30G5F_" id="htuwDvX" role="30HLyM">
        <node concept="3clFbS" id="htuwDvY" role="2VODD2">
          <node concept="3clFbF" id="htuwHh3" role="3cqZAp">
            <node concept="3fqX7Q" id="htuwNw7" role="3clFbG">
              <node concept="2OqwBi" id="hxx$D4f" role="3fr31v">
                <node concept="30H73N" id="htuwNw9" role="2Oq$k0" />
                <node concept="2qgKlT" id="htuwNwa" role="2OqNvi">
                  <ref role="37wK5l" to="tpek:hEwJh7s" resolve="getFromParameterObject" />
                </node>
              </node>
            </node>
          </node>
        </node>
      </node>
    </node>
  </node>
</model>

