<?xml version="1.0" encoding="UTF-8"?>
<model ref="r:74b3d011-b0fb-4dc0-ae17-fdfbde0e6086(jetbrains.mps.baseLanguage.lightweightdsl.util)">
  <persistence version="9" />
  <languages>
    <devkit ref="fbc25dd2-5da4-483a-8b19-70928e1b62d7(jetbrains.mps.devkit.general-purpose)" />
  </languages>
  <imports>
    <import index="oubp" ref="c7d5b9dd-a05f-4be2-bc73-f2e16994cc67/r:7cc2086d-c7d0-49c7-811c-ebbaf40d9195(jetbrains.mps.lang.classLike/jetbrains.mps.baseLanguage.lightweightdsl.structure)" implicit="true" />
    <import index="9nqt" ref="c7d5b9dd-a05f-4be2-bc73-f2e16994cc67/r:3d68296b-7ada-4491-8aa4-88e8ea6e4f67(jetbrains.mps.lang.classLike/jetbrains.mps.baseLanguage.lightweightdsl.behavior)" implicit="true" />
    <import index="tpee" ref="r:00000000-0000-4000-0000-011c895902ca(jetbrains.mps.baseLanguage.structure)" implicit="true" />
  </imports>
  <registry>
    <language id="f3061a53-9226-4cc5-a443-f952ceaf5816" name="jetbrains.mps.baseLanguage">
      <concept id="1197027756228" name="jetbrains.mps.baseLanguage.structure.DotExpression" flags="nn" index="2OqwBi">
        <child id="1197027771414" name="operand" index="2Oq$k0" />
        <child id="1197027833540" name="operation" index="2OqNvi" />
      </concept>
      <concept id="1081236700938" name="jetbrains.mps.baseLanguage.structure.StaticMethodDeclaration" flags="ig" index="2YIFZL" />
      <concept id="1068390468198" name="jetbrains.mps.baseLanguage.structure.ClassConcept" flags="ig" index="312cEu" />
      <concept id="1068498886296" name="jetbrains.mps.baseLanguage.structure.VariableReference" flags="nn" index="37vLTw">
        <reference id="1068581517664" name="variableDeclaration" index="3cqZAo" />
      </concept>
      <concept id="1068498886292" name="jetbrains.mps.baseLanguage.structure.ParameterDeclaration" flags="ir" index="37vLTG" />
      <concept id="4972933694980447171" name="jetbrains.mps.baseLanguage.structure.BaseVariableDeclaration" flags="ng" index="19Szcq">
        <child id="5680397130376446158" name="type" index="1tU5fm" />
      </concept>
      <concept id="1068580123132" name="jetbrains.mps.baseLanguage.structure.BaseMethodDeclaration" flags="ng" index="3clF44">
        <child id="1068580123133" name="returnType" index="3clF45" />
        <child id="1068580123134" name="parameter" index="3clF46" />
        <child id="1068580123135" name="body" index="3clF47" />
      </concept>
      <concept id="1068580123159" name="jetbrains.mps.baseLanguage.structure.IfStatement" flags="nn" index="3clFbJ">
        <property id="4467513934994662257" name="forceMultiLine" index="TyiWK" />
        <property id="4467513934994662256" name="forceOneLine" index="TyiWL" />
        <child id="1068580123160" name="condition" index="3clFbw" />
        <child id="1068580123161" name="ifTrue" index="3clFbx" />
      </concept>
      <concept id="1068580123136" name="jetbrains.mps.baseLanguage.structure.StatementList" flags="sn" stub="5293379017992965193" index="3clFbS">
        <child id="1068581517665" name="statement" index="3cqZAp" />
      </concept>
      <concept id="1068581242878" name="jetbrains.mps.baseLanguage.structure.ReturnStatement" flags="nn" index="3cpWs6">
        <child id="1068581517676" name="expression" index="3cqZAk" />
      </concept>
      <concept id="1204053956946" name="jetbrains.mps.baseLanguage.structure.IMethodCall" flags="ng" index="1ndlxa">
        <reference id="1068499141037" name="baseMethodDeclaration" index="37wK5l" />
      </concept>
      <concept id="1107461130800" name="jetbrains.mps.baseLanguage.structure.Classifier" flags="ng" index="3pOWGL">
        <child id="5375687026011219971" name="member" index="jymVt" unordered="true" />
      </concept>
      <concept id="1178549954367" name="jetbrains.mps.baseLanguage.structure.IVisible" flags="ng" index="1B3ioH">
        <child id="1178549979242" name="visibility" index="1B3o_S" />
      </concept>
      <concept id="1146644602865" name="jetbrains.mps.baseLanguage.structure.PublicVisibility" flags="nn" index="3Tm1VV" />
    </language>
    <language id="7866978e-a0f0-4cc7-81bc-4d213d9375e1" name="jetbrains.mps.lang.smodel">
      <concept id="1177026924588" name="jetbrains.mps.lang.smodel.structure.RefConcept_Reference" flags="nn" index="chp4Y">
        <reference id="1177026940964" name="conceptDeclaration" index="cht4Q" />
      </concept>
      <concept id="1179409122411" name="jetbrains.mps.lang.smodel.structure.Node_ConceptMethodCall" flags="nn" index="2qgKlT" />
      <concept id="2396822768958367367" name="jetbrains.mps.lang.smodel.structure.AbstractTypeCastExpression" flags="nn" index="$5XWr">
        <reference id="6733348108486823428" name="concept" index="1m5ApE" />
        <child id="6733348108486823193" name="leftExpression" index="1m5AlR" />
      </concept>
      <concept id="1139621453865" name="jetbrains.mps.lang.smodel.structure.Node_IsInstanceOfOperation" flags="nn" index="1mIQ4w">
        <child id="1177027386292" name="conceptArgument" index="cj9EA" />
      </concept>
      <concept id="6407023681583036853" name="jetbrains.mps.lang.smodel.structure.NodeAttributeQualifier" flags="ng" index="3CFYIy">
        <reference id="6407023681583036854" name="attributeConcept" index="3CFYIx" />
      </concept>
      <concept id="6407023681583031218" name="jetbrains.mps.lang.smodel.structure.AttributeAccess" flags="nn" index="3CFZ6_">
        <child id="6407023681583036852" name="qualifier" index="3CFYIz" />
      </concept>
      <concept id="1140137987495" name="jetbrains.mps.lang.smodel.structure.SNodeTypeCastExpression" flags="nn" index="1PxgMI" />
      <concept id="1138055754698" name="jetbrains.mps.lang.smodel.structure.SNodeType" flags="in" index="3Tqbb2">
        <reference id="1138405853777" name="concept" index="ehGHo" />
      </concept>
      <concept id="1138056143562" name="jetbrains.mps.lang.smodel.structure.SLinkAccess" flags="nn" index="3TrEf2">
        <reference id="1138056516764" name="link" index="3Tt5mk" />
      </concept>
    </language>
    <language id="ceab5195-25ea-4f22-9b92-103b95ca8c0c" name="jetbrains.mps.lang.core">
      <concept id="1169194658468" name="jetbrains.mps.lang.core.structure.INamedConcept" flags="ng" index="TrEIO">
        <property id="1169194664001" name="name" index="TrG5h" />
      </concept>
    </language>
  </registry>
  <node concept="312cEu" id="4oVmO$Dp23N">
    <property role="TrG5h" value="DSLDescriptorUtil" />
    <node concept="2YIFZL" id="4oVmO$Dp24i" role="jymVt">
      <property role="TrG5h" value="getDescriptor" />
      <node concept="3Tqbb2" id="4oVmO$Dp25v" role="3clF45">
        <ref role="ehGHo" to="oubp:3geGFOI0X5w" resolve="DSLDescriptor" />
      </node>
      <node concept="3Tm1VV" id="4oVmO$Dp24n" role="1B3o_S" />
      <node concept="3clFbS" id="4oVmO$Dp24o" role="3clF47">
        <node concept="3clFbJ" id="4oVmO$Dp4zY" role="3cqZAp">
          <property role="TyiWK" value="false" />
          <property role="TyiWL" value="true" />
          <node concept="3clFbS" id="4oVmO$Dp4$0" role="3clFbx">
            <node concept="3cpWs6" id="4oVmO$Dp5Tu" role="3cqZAp">
              <node concept="2OqwBi" id="4oVmO$Dp67o" role="3cqZAk">
                <node concept="1PxgMI" id="4oVmO$Dp7my" role="2Oq$k0">
                  <ref role="1m5ApE" to="oubp:UBgfI9exfH" resolve="AutoInitDSLClass" />
                  <node concept="37vLTw" id="4oVmO$Dp5XG" role="1m5AlR">
                    <ref role="3cqZAo" node="4oVmO$Dp28H" resolve="n" />
                  </node>
                </node>
                <node concept="2qgKlT" id="4oVmO$Dp7DD" role="2OqNvi">
                  <ref role="37wK5l" to="9nqt:UBgfI9eMAt" resolve="getDescriptor" />
                </node>
              </node>
            </node>
          </node>
          <node concept="2OqwBi" id="4oVmO$Dp4L1" role="3clFbw">
            <node concept="37vLTw" id="4oVmO$Dp4C4" role="2Oq$k0">
              <ref role="3cqZAo" node="4oVmO$Dp28H" resolve="n" />
            </node>
            <node concept="1mIQ4w" id="4oVmO$Dp5NP" role="2OqNvi">
              <node concept="chp4Y" id="4oVmO$Dp5Qr" role="cj9EA">
                <ref role="cht4Q" to="oubp:UBgfI9exfH" resolve="AutoInitDSLClass" />
              </node>
            </node>
          </node>
        </node>
        <node concept="3cpWs6" id="4oVmO$Dp39Z" role="3cqZAp">
          <node concept="2OqwBi" id="4oVmO$Dp44y" role="3cqZAk">
            <node concept="2OqwBi" id="4oVmO$Dp3p_" role="2Oq$k0">
              <node concept="37vLTw" id="4oVmO$Dp3gr" role="2Oq$k0">
                <ref role="3cqZAo" node="4oVmO$Dp28H" resolve="n" />
              </node>
              <node concept="3CFZ6_" id="4oVmO$Dp3Vl" role="2OqNvi">
                <node concept="3CFYIy" id="4oVmO$Dp3Z2" role="3CFYIz">
                  <ref role="3CFYIx" to="oubp:36gOZBLMF3a" resolve="DSLAnnotation" />
                </node>
              </node>
            </node>
            <node concept="3TrEf2" id="4oVmO$Dp4hc" role="2OqNvi">
              <ref role="3Tt5mk" to="oubp:36gOZBLMG9R" />
            </node>
          </node>
        </node>
      </node>
      <node concept="37vLTG" id="4oVmO$Dp28H" role="3clF46">
        <property role="TrG5h" value="n" />
        <node concept="3Tqbb2" id="4oVmO$Dp28G" role="1tU5fm">
          <ref role="ehGHo" to="tpee:fz12cDA" resolve="ClassConcept" />
        </node>
      </node>
    </node>
    <node concept="3Tm1VV" id="4oVmO$Dp23O" role="1B3o_S" />
  </node>
</model>

