<?xml version="1.0" encoding="UTF-8"?>
<model ref="r:59b8a6cf-a3a9-4109-98b7-d13bb426ef49(jetbrains.mps.execution.common.behavior)">
  <persistence version="9" />
  <languages>
    <use id="daafa647-f1f7-4b0b-b096-69cd7c8408c0" name="jetbrains.mps.baseLanguage.regexp" version="0" />
    <use id="af65afd8-f0dd-4942-87d9-63a55f2a9db1" name="jetbrains.mps.lang.behavior" version="0" />
    <use id="7866978e-a0f0-4cc7-81bc-4d213d9375e1" name="jetbrains.mps.lang.smodel" version="4" />
    <use id="f3061a53-9226-4cc5-a443-f952ceaf5816" name="jetbrains.mps.baseLanguage" version="4" />
    <devkit ref="fbc25dd2-5da4-483a-8b19-70928e1b62d7(jetbrains.mps.devkit.general-purpose)" />
  </languages>
  <imports>
    <import index="id7i" ref="r:29a26f36-0627-4505-9c3e-faf17694979c(jetbrains.mps.execution.common.structure)" />
    <import index="18ew" ref="6ed54515-acc8-4d1e-a16c-9fd6cfe951ea/java:jetbrains.mps.util(MPS.Core/)" />
    <import index="mhfm" ref="3f233e7f-b8a6-46d2-a57f-795d56775243/java:org.jetbrains.annotations(Annotations/)" />
    <import index="tpck" ref="r:00000000-0000-4000-0000-011c89590288(jetbrains.mps.lang.core.structure)" implicit="true" />
    <import index="tpcu" ref="r:00000000-0000-4000-0000-011c89590282(jetbrains.mps.lang.core.behavior)" implicit="true" />
    <import index="wyt6" ref="6354ebe7-c22a-4a0f-ac54-50b52ab9b065/java:java.lang(JDK/)" implicit="true" />
    <import index="tpfp" ref="r:00000000-0000-4000-0000-011c89590519(jetbrains.mps.baseLanguage.regexp.jetbrains.mps.regexp.accessory)" implicit="true" />
  </imports>
  <registry>
    <language id="af65afd8-f0dd-4942-87d9-63a55f2a9db1" name="jetbrains.mps.lang.behavior">
      <concept id="6496299201655527393" name="jetbrains.mps.lang.behavior.structure.LocalBehaviorMethodCall" flags="nn" index="BsUDl" />
      <concept id="1225194240794" name="jetbrains.mps.lang.behavior.structure.ConceptBehavior" flags="ng" index="13h7C7">
        <reference id="1225194240799" name="concept" index="13h7C2" />
        <child id="1225194240805" name="method" index="13h7CS" />
        <child id="1225194240801" name="constructor" index="13h7CW" />
      </concept>
      <concept id="1225194413805" name="jetbrains.mps.lang.behavior.structure.ConceptConstructorDeclaration" flags="in" index="13hLZK" />
      <concept id="1225194472830" name="jetbrains.mps.lang.behavior.structure.ConceptMethodDeclaration" flags="ng" index="13i0hz">
        <property id="5864038008284099149" name="isStatic" index="2Ki8OM" />
        <property id="1225194472833" name="isPrivate" index="13i0is" />
        <property id="1225194472832" name="isVirtual" index="13i0it" />
        <property id="1225194472834" name="isAbstract" index="13i0iv" />
      </concept>
      <concept id="1225194691553" name="jetbrains.mps.lang.behavior.structure.ThisNodeExpression" flags="nn" index="13iPFW" />
    </language>
    <language id="f3061a53-9226-4cc5-a443-f952ceaf5816" name="jetbrains.mps.baseLanguage">
      <concept id="1215693861676" name="jetbrains.mps.baseLanguage.structure.BaseAssignmentExpression" flags="nn" index="d038R">
        <child id="1068498886297" name="rValue" index="37vLTx" />
        <child id="1068498886295" name="lValue" index="37vLTJ" />
      </concept>
      <concept id="1153417849900" name="jetbrains.mps.baseLanguage.structure.GreaterThanOrEqualsExpression" flags="nn" index="2d3UOw" />
      <concept id="1202948039474" name="jetbrains.mps.baseLanguage.structure.InstanceMethodCallOperation" flags="nn" index="liA8E" />
      <concept id="1076505808687" name="jetbrains.mps.baseLanguage.structure.WhileStatement" flags="nn" index="2$JKZl">
        <child id="1076505808688" name="condition" index="2$JKZa" />
      </concept>
      <concept id="1188207840427" name="jetbrains.mps.baseLanguage.structure.AnnotationInstance" flags="nn" index="2AHcQZ">
        <reference id="1188208074048" name="annotation" index="2AI5Lk" />
      </concept>
      <concept id="1188208481402" name="jetbrains.mps.baseLanguage.structure.HasAnnotation" flags="ng" index="2AJDlI">
        <child id="1188208488637" name="annotation" index="2AJF6D" />
      </concept>
      <concept id="1154032098014" name="jetbrains.mps.baseLanguage.structure.AbstractLoopStatement" flags="nn" index="2LF5Ji">
        <child id="1154032183016" name="body" index="2LFqv$" />
      </concept>
      <concept id="1197027756228" name="jetbrains.mps.baseLanguage.structure.DotExpression" flags="nn" index="2OqwBi">
        <child id="1197027771414" name="operand" index="2Oq$k0" />
        <child id="1197027833540" name="operation" index="2OqNvi" />
      </concept>
      <concept id="1137021947720" name="jetbrains.mps.baseLanguage.structure.ConceptFunction" flags="in" index="2VMwT0">
        <child id="1137022507850" name="body" index="2VODD2" />
      </concept>
      <concept id="1070475926800" name="jetbrains.mps.baseLanguage.structure.StringLiteral" flags="nn" index="Xl_RD">
        <property id="1070475926801" name="value" index="Xl_RC" />
      </concept>
      <concept id="1081236700937" name="jetbrains.mps.baseLanguage.structure.StaticMethodCall" flags="nn" index="2YIFZM">
        <reference id="1144433194310" name="classConcept" index="1Pybhc" />
      </concept>
      <concept id="1070534058343" name="jetbrains.mps.baseLanguage.structure.NullLiteral" flags="nn" index="10Nm6u" />
      <concept id="1070534370425" name="jetbrains.mps.baseLanguage.structure.IntegerType" flags="in" index="10Oyi0" />
      <concept id="1068431474542" name="jetbrains.mps.baseLanguage.structure.VariableDeclaration" flags="ng" index="33uBYm">
        <child id="1068431790190" name="initializer" index="33vP2m" />
      </concept>
      <concept id="1068498886296" name="jetbrains.mps.baseLanguage.structure.VariableReference" flags="nn" index="37vLTw">
        <reference id="1068581517664" name="variableDeclaration" index="3cqZAo" />
      </concept>
      <concept id="1068498886292" name="jetbrains.mps.baseLanguage.structure.ParameterDeclaration" flags="ir" index="37vLTG" />
      <concept id="1068498886294" name="jetbrains.mps.baseLanguage.structure.AssignmentExpression" flags="nn" index="37vLTI" />
      <concept id="1225271177708" name="jetbrains.mps.baseLanguage.structure.StringType" flags="in" index="17QB3L" />
      <concept id="1225271369338" name="jetbrains.mps.baseLanguage.structure.IsEmptyOperation" flags="nn" index="17RlXB" />
      <concept id="4972933694980447171" name="jetbrains.mps.baseLanguage.structure.BaseVariableDeclaration" flags="ng" index="19Szcq">
        <child id="5680397130376446158" name="type" index="1tU5fm" />
      </concept>
      <concept id="1068580123132" name="jetbrains.mps.baseLanguage.structure.BaseMethodDeclaration" flags="ng" index="3clF44">
        <child id="1068580123133" name="returnType" index="3clF45" />
        <child id="1068580123134" name="parameter" index="3clF46" />
        <child id="1068580123135" name="body" index="3clF47" />
      </concept>
      <concept id="1068580123155" name="jetbrains.mps.baseLanguage.structure.ExpressionStatement" flags="nn" index="3clFbF">
        <child id="1068580123156" name="expression" index="3clFbG" />
      </concept>
      <concept id="1068580123159" name="jetbrains.mps.baseLanguage.structure.IfStatement" flags="nn" index="3clFbJ">
        <child id="1068580123160" name="condition" index="3clFbw" />
        <child id="1068580123161" name="ifTrue" index="3clFbx" />
      </concept>
      <concept id="1068580123136" name="jetbrains.mps.baseLanguage.structure.StatementList" flags="sn" stub="5293379017992965193" index="3clFbS">
        <child id="1068581517665" name="statement" index="3cqZAp" />
      </concept>
      <concept id="1068580320020" name="jetbrains.mps.baseLanguage.structure.IntegerConstant" flags="nn" index="3cmrfG">
        <property id="1068580320021" name="value" index="3cmrfH" />
      </concept>
      <concept id="1068581242875" name="jetbrains.mps.baseLanguage.structure.PlusExpression" flags="nn" index="3cpWs3" />
      <concept id="1068581242878" name="jetbrains.mps.baseLanguage.structure.ReturnStatement" flags="nn" index="3cpWs6">
        <child id="1068581517676" name="expression" index="3cqZAk" />
      </concept>
      <concept id="1068581242864" name="jetbrains.mps.baseLanguage.structure.LocalVariableDeclarationStatement" flags="nn" index="3cpWs8">
        <child id="1068581242865" name="localVariableDeclaration" index="3cpWs9" />
      </concept>
      <concept id="1068581242863" name="jetbrains.mps.baseLanguage.structure.LocalVariableDeclaration" flags="nr" index="3cpWsn" />
      <concept id="1079359253375" name="jetbrains.mps.baseLanguage.structure.ParenthesizedExpression" flags="nn" index="1eOMI4">
        <child id="1079359253376" name="expression" index="1eOMHV" />
      </concept>
      <concept id="1081506773034" name="jetbrains.mps.baseLanguage.structure.LessThanExpression" flags="nn" index="3eOVzh" />
      <concept id="1160998861373" name="jetbrains.mps.baseLanguage.structure.AssertStatement" flags="nn" index="1gVbGN">
        <child id="1160998896846" name="condition" index="1gVkn0" />
      </concept>
      <concept id="1204053956946" name="jetbrains.mps.baseLanguage.structure.IMethodCall" flags="ng" index="1ndlxa">
        <reference id="1068499141037" name="baseMethodDeclaration" index="37wK5l" />
        <child id="1068499141038" name="actualArgument" index="37wK5m" />
      </concept>
      <concept id="1081773326031" name="jetbrains.mps.baseLanguage.structure.BinaryOperation" flags="nn" index="3uHJSO">
        <child id="1081773367579" name="rightExpression" index="3uHU7w" />
        <child id="1081773367580" name="leftExpression" index="3uHU7B" />
      </concept>
      <concept id="1178549954367" name="jetbrains.mps.baseLanguage.structure.IVisible" flags="ng" index="1B3ioH">
        <child id="1178549979242" name="visibility" index="1B3o_S" />
      </concept>
      <concept id="1163668896201" name="jetbrains.mps.baseLanguage.structure.TernaryOperatorExpression" flags="nn" index="3K4zz7">
        <child id="1163668914799" name="condition" index="3K4Cdx" />
        <child id="1163668922816" name="ifTrue" index="3K4E3e" />
        <child id="1163668934364" name="ifFalse" index="3K4GZi" />
      </concept>
      <concept id="6329021646629104957" name="jetbrains.mps.baseLanguage.structure.TextCommentPart" flags="nn" index="3SKdUq">
        <property id="6329021646629104958" name="text" index="3SKdUp" />
      </concept>
      <concept id="6329021646629104954" name="jetbrains.mps.baseLanguage.structure.SingleLineComment" flags="nn" index="3SKdUt">
        <child id="6329021646629175155" name="commentPart" index="3SKWNk" />
      </concept>
      <concept id="1146644602865" name="jetbrains.mps.baseLanguage.structure.PublicVisibility" flags="nn" index="3Tm1VV" />
      <concept id="1146644641414" name="jetbrains.mps.baseLanguage.structure.ProtectedVisibility" flags="nn" index="3Tmbuc" />
      <concept id="1080120340718" name="jetbrains.mps.baseLanguage.structure.AndExpression" flags="nn" index="1Wc70l" />
    </language>
    <language id="7866978e-a0f0-4cc7-81bc-4d213d9375e1" name="jetbrains.mps.lang.smodel">
      <concept id="1179409122411" name="jetbrains.mps.lang.smodel.structure.Node_ConceptMethodCall" flags="nn" index="2qgKlT" />
      <concept id="1138056022639" name="jetbrains.mps.lang.smodel.structure.SPropertyAccess" flags="nn" index="3TrcHB">
        <reference id="1138056395725" name="property" index="3TsBF5" />
      </concept>
      <concept id="1172424058054" name="jetbrains.mps.lang.smodel.structure.ConceptRefExpression" flags="nn" index="3TUQnm">
        <reference id="1172424100906" name="conceptDeclaration" index="3TV0OU" />
      </concept>
    </language>
    <language id="ceab5195-25ea-4f22-9b92-103b95ca8c0c" name="jetbrains.mps.lang.core">
      <concept id="1169194658468" name="jetbrains.mps.lang.core.structure.INamedConcept" flags="ng" index="TrEIO">
        <property id="1169194664001" name="name" index="TrG5h" />
      </concept>
    </language>
    <language id="daafa647-f1f7-4b0b-b096-69cd7c8408c0" name="jetbrains.mps.baseLanguage.regexp">
      <concept id="1222260556146" name="jetbrains.mps.baseLanguage.regexp.structure.ReplaceWithRegexpOperation" flags="nn" index="2kq01I">
        <child id="1222261033031" name="replaceBlock" index="2krO_r" />
      </concept>
      <concept id="1175161264766" name="jetbrains.mps.baseLanguage.regexp.structure.LineStartRegexp" flags="ng" index="2t4tHJ" />
      <concept id="1175161300324" name="jetbrains.mps.baseLanguage.regexp.structure.LineEndRegexp" flags="ng" index="2t4AhP" />
      <concept id="1174482804200" name="jetbrains.mps.baseLanguage.regexp.structure.PlusRegexp" flags="ng" index="1OClNT" />
      <concept id="1174484562151" name="jetbrains.mps.baseLanguage.regexp.structure.SeqRegexp" flags="ng" index="1OJ37Q" />
      <concept id="1174485167097" name="jetbrains.mps.baseLanguage.regexp.structure.BinaryRegexp" flags="ng" index="1OLmFC">
        <child id="1174485176897" name="left" index="1OLpdg" />
        <child id="1174485181039" name="right" index="1OLqdY" />
      </concept>
      <concept id="1174485235885" name="jetbrains.mps.baseLanguage.regexp.structure.UnaryRegexp" flags="ng" index="1OLBAW">
        <child id="1174485243418" name="regexp" index="1OLDsb" />
      </concept>
      <concept id="1174510540317" name="jetbrains.mps.baseLanguage.regexp.structure.InlineRegexpExpression" flags="nn" index="1Qi9sc">
        <child id="1174510571016" name="regexp" index="1QigWp" />
      </concept>
      <concept id="1174555732504" name="jetbrains.mps.baseLanguage.regexp.structure.PredefinedSymbolClassRegexp" flags="ng" index="1SYyG9">
        <reference id="1174555843709" name="symbolClass" index="1SYXPG" />
      </concept>
      <concept id="1174556813606" name="jetbrains.mps.baseLanguage.regexp.structure.DotRegexp" flags="ng" index="1T2EwR" />
      <concept id="1174564062919" name="jetbrains.mps.baseLanguage.regexp.structure.MatchParensRegexp" flags="ng" index="1Tukvm">
        <child id="1174564160889" name="regexp" index="1TuGhC" />
      </concept>
      <concept id="1174565027678" name="jetbrains.mps.baseLanguage.regexp.structure.MatchVariableReference" flags="nn" index="1TxZTf">
        <reference id="1174565035929" name="match" index="1Ty1U8" />
      </concept>
      <concept id="1174653354106" name="jetbrains.mps.baseLanguage.regexp.structure.RegexpUsingConstruction" flags="ng" index="1YMW5F">
        <child id="1174653387388" name="regexp" index="1YN4dH" />
      </concept>
      <concept id="1174656254036" name="jetbrains.mps.baseLanguage.regexp.structure.ReplaceBlock" flags="in" index="1YY055" />
    </language>
  </registry>
  <node concept="13h7C7" id="O$iR4JBsQH">
    <ref role="13h7C2" to="id7i:O$iR4JBsQF" resolve="IGeneratedToClass" />
    <node concept="13i0hz" id="O$iR4JBsSb" role="13h7CS">
      <property role="13i0iv" value="true" />
      <property role="TrG5h" value="getSuffix" />
      <property role="13i0it" value="true" />
      <node concept="3Tm1VV" id="O$iR4JBsSc" role="1B3o_S" />
      <node concept="17QB3L" id="O$iR4JBsSd" role="3clF45" />
      <node concept="3clFbS" id="O$iR4JBsSe" role="3clF47" />
      <node concept="2AHcQZ" id="O$iR4JBsSf" role="2AJF6D">
        <ref role="2AI5Lk" to="mhfm:~NonNls" resolve="NonNls" />
      </node>
    </node>
    <node concept="13i0hz" id="O$iR4JBsSg" role="13h7CS">
      <property role="13i0iv" value="false" />
      <property role="TrG5h" value="getGeneratedClassName" />
      <property role="13i0it" value="true" />
      <node concept="3Tm1VV" id="O$iR4JBsSh" role="1B3o_S" />
      <node concept="17QB3L" id="O$iR4JBsSi" role="3clF45" />
      <node concept="3clFbS" id="O$iR4JBsSj" role="3clF47">
        <node concept="3cpWs8" id="O$iR4JBsSk" role="3cqZAp">
          <node concept="3cpWsn" id="O$iR4JBsSl" role="3cpWs9">
            <property role="TrG5h" value="name" />
            <node concept="BsUDl" id="3xwsMyQkEzk" role="33vP2m">
              <ref role="37wK5l" node="3MnZbusxcPI" resolve="getBaseName" />
            </node>
            <node concept="17QB3L" id="O$iR4JBsSm" role="1tU5fm" />
          </node>
        </node>
        <node concept="3cpWs6" id="O$iR4JBsSq" role="3cqZAp">
          <node concept="BsUDl" id="3xwsMyQkE$r" role="3cqZAk">
            <ref role="37wK5l" node="O$iR4JBsSG" resolve="getGeneratedClassName" />
            <node concept="37vLTw" id="3GM_nagT_n8" role="37wK5m">
              <ref role="3cqZAo" node="O$iR4JBsSl" resolve="name" />
            </node>
          </node>
        </node>
      </node>
    </node>
    <node concept="13i0hz" id="O$iR4JBsSv" role="13h7CS">
      <property role="13i0iv" value="false" />
      <property role="TrG5h" value="getFullName" />
      <property role="13i0it" value="true" />
      <node concept="3Tm1VV" id="O$iR4JBsSw" role="1B3o_S" />
      <node concept="17QB3L" id="O$iR4JBsSx" role="3clF45" />
      <node concept="3clFbS" id="O$iR4JBsSy" role="3clF47">
        <node concept="3clFbF" id="O$iR4JBsSz" role="3cqZAp">
          <node concept="3cpWs3" id="O$iR4JBsS$" role="3clFbG">
            <node concept="BsUDl" id="O$iR4JBsS_" role="3uHU7w">
              <ref role="37wK5l" node="O$iR4JBsSg" resolve="getGeneratedClassName" />
            </node>
            <node concept="3cpWs3" id="O$iR4JBsSA" role="3uHU7B">
              <node concept="BsUDl" id="3xwsMyQkEyF" role="3uHU7B">
                <ref role="37wK5l" node="1XgDflG1h$6" resolve="getNamespace" />
              </node>
              <node concept="Xl_RD" id="O$iR4JBsSD" role="3uHU7w">
                <property role="Xl_RC" value="." />
              </node>
            </node>
          </node>
        </node>
      </node>
    </node>
    <node concept="13i0hz" id="2eOtvO7hJjT" role="13h7CS">
      <property role="13i0iv" value="false" />
      <property role="TrG5h" value="getValidClassName" />
      <property role="13i0it" value="false" />
      <node concept="3Tmbuc" id="2eOtvO7hJjY" role="1B3o_S" />
      <node concept="17QB3L" id="2eOtvO7hJjX" role="3clF45" />
      <node concept="3clFbS" id="2eOtvO7hJjW" role="3clF47">
        <node concept="3clFbF" id="3gpm$NHlLiR" role="3cqZAp">
          <node concept="2OqwBi" id="L_Hr3kEsyN" role="3clFbG">
            <node concept="2qgKlT" id="L_Hr3kEsyO" role="2OqNvi">
              <ref role="37wK5l" node="3gpm$NHlLi1" resolve="getValidClassName" />
              <node concept="37vLTw" id="L_Hr3kEsyP" role="37wK5m">
                <ref role="3cqZAo" node="2eOtvO7hJjZ" resolve="name" />
              </node>
            </node>
            <node concept="3TUQnm" id="L_Hr3kEsyS" role="2Oq$k0">
              <ref role="3TV0OU" to="id7i:O$iR4JBsQF" resolve="IGeneratedToClass" />
            </node>
          </node>
        </node>
      </node>
      <node concept="37vLTG" id="2eOtvO7hJjZ" role="3clF46">
        <property role="TrG5h" value="name" />
        <node concept="17QB3L" id="2eOtvO7hJk0" role="1tU5fm" />
        <node concept="2AHcQZ" id="2eOtvO7hJkZ" role="2AJF6D">
          <ref role="2AI5Lk" to="mhfm:~NonNls" resolve="NonNls" />
        </node>
      </node>
    </node>
    <node concept="13hLZK" id="O$iR4JBsSE" role="13h7CW">
      <node concept="3clFbS" id="O$iR4JBsSF" role="2VODD2" />
    </node>
    <node concept="13i0hz" id="O$iR4JBsSG" role="13h7CS">
      <property role="TrG5h" value="getGeneratedClassName" />
      <node concept="3Tmbuc" id="O$iR4JBsSH" role="1B3o_S" />
      <node concept="17QB3L" id="O$iR4JBsSI" role="3clF45" />
      <node concept="37vLTG" id="O$iR4JBsSJ" role="3clF46">
        <property role="TrG5h" value="name" />
        <node concept="17QB3L" id="O$iR4JBsSK" role="1tU5fm" />
      </node>
      <node concept="3clFbS" id="O$iR4JBsSL" role="3clF47">
        <node concept="3clFbJ" id="2eOtvO7hJkS" role="3cqZAp">
          <node concept="2OqwBi" id="2eOtvO7hJkT" role="3clFbw">
            <node concept="37vLTw" id="2BHiRxgheYc" role="2Oq$k0">
              <ref role="3cqZAo" node="O$iR4JBsSJ" resolve="name" />
            </node>
            <node concept="17RlXB" id="2eOtvO7hJkV" role="2OqNvi" />
          </node>
          <node concept="3clFbS" id="2eOtvO7hJkW" role="3clFbx">
            <node concept="3cpWs6" id="2eOtvO7hJkX" role="3cqZAp">
              <node concept="10Nm6u" id="2eOtvO7hJkY" role="3cqZAk" />
            </node>
          </node>
        </node>
        <node concept="3clFbF" id="O$iR4JBsTu" role="3cqZAp">
          <node concept="3cpWs3" id="O$iR4JBsTv" role="3clFbG">
            <node concept="BsUDl" id="O$iR4JBsTw" role="3uHU7w">
              <ref role="37wK5l" node="O$iR4JBsSb" resolve="getSuffix" />
            </node>
            <node concept="3cpWs3" id="O$iR4JBsTx" role="3uHU7B">
              <node concept="BsUDl" id="2eOtvO7hJkP" role="3uHU7B">
                <ref role="37wK5l" node="2eOtvO7hJjT" resolve="getValidClassName" />
                <node concept="37vLTw" id="2BHiRxglgvi" role="37wK5m">
                  <ref role="3cqZAo" node="O$iR4JBsSJ" resolve="name" />
                </node>
              </node>
              <node concept="Xl_RD" id="O$iR4JBsT_" role="3uHU7w">
                <property role="Xl_RC" value="_" />
              </node>
            </node>
          </node>
        </node>
      </node>
    </node>
    <node concept="13i0hz" id="3MnZbusxcPI" role="13h7CS">
      <property role="TrG5h" value="getBaseName" />
      <property role="13i0it" value="true" />
      <node concept="3Tmbuc" id="3MnZbusxcPT" role="1B3o_S" />
      <node concept="17QB3L" id="3MnZbusxcPK" role="3clF45" />
      <node concept="3clFbS" id="3MnZbusxcPL" role="3clF47">
        <node concept="3cpWs6" id="3MnZbusxcPM" role="3cqZAp">
          <node concept="2OqwBi" id="3MnZbusxcPN" role="3cqZAk">
            <node concept="13iPFW" id="3MnZbusxcPO" role="2Oq$k0" />
            <node concept="3TrcHB" id="3MnZbusxcPP" role="2OqNvi">
              <ref role="3TsBF5" to="tpck:h0TrG11" resolve="name" />
            </node>
          </node>
        </node>
      </node>
    </node>
    <node concept="13i0hz" id="1XgDflG1h$6" role="13h7CS">
      <property role="TrG5h" value="getNamespace" />
      <node concept="3Tm1VV" id="1XgDflG1h$h" role="1B3o_S" />
      <node concept="17QB3L" id="1XgDflG1h$g" role="3clF45" />
      <node concept="3clFbS" id="1XgDflG1h$9" role="3clF47">
        <node concept="3cpWs6" id="1XgDflG1h$a" role="3cqZAp">
          <node concept="2YIFZM" id="1XgDflG1h$b" role="3cqZAk">
            <ref role="37wK5l" to="18ew:~NodeNameUtil.getNamespace(java.lang.String):java.lang.String" resolve="getNamespace" />
            <ref role="1Pybhc" to="18ew:~NodeNameUtil" resolve="NodeNameUtil" />
            <node concept="BsUDl" id="1XgDflG1h$c" role="37wK5m">
              <ref role="37wK5l" to="tpcu:hEwIO9y" resolve="getFqName" />
            </node>
          </node>
        </node>
      </node>
    </node>
    <node concept="13i0hz" id="O$iR4JBsQI" role="13h7CS">
      <property role="2Ki8OM" value="true" />
      <property role="13i0is" value="false" />
      <property role="13i0iv" value="false" />
      <property role="TrG5h" value="replaceProhibitedSymbol" />
      <node concept="3clFbS" id="O$iR4JBsQP" role="3clF47">
        <node concept="3cpWs8" id="O$iR4JBsQQ" role="3cqZAp">
          <node concept="3cpWsn" id="O$iR4JBsQR" role="3cpWs9">
            <property role="TrG5h" value="result" />
            <node concept="17QB3L" id="O$iR4JBsQS" role="1tU5fm" />
            <node concept="37vLTw" id="2BHiRxglp37" role="33vP2m">
              <ref role="3cqZAo" node="O$iR4JBsQJ" resolve="name" />
            </node>
          </node>
        </node>
        <node concept="2$JKZl" id="O$iR4JBsQU" role="3cqZAp">
          <node concept="2OqwBi" id="O$iR4JBsQV" role="2$JKZa">
            <node concept="37vLTw" id="3GM_nagTxk3" role="2Oq$k0">
              <ref role="3cqZAo" node="O$iR4JBsQR" resolve="result" />
            </node>
            <node concept="liA8E" id="O$iR4JBsQX" role="2OqNvi">
              <ref role="37wK5l" to="wyt6:~String.contains(java.lang.CharSequence):boolean" resolve="contains" />
              <node concept="37vLTw" id="2BHiRxgm6p3" role="37wK5m">
                <ref role="3cqZAo" node="O$iR4JBsQL" resolve="symbol" />
              </node>
            </node>
          </node>
          <node concept="3clFbS" id="O$iR4JBsQZ" role="2LFqv$">
            <node concept="3cpWs8" id="O$iR4JBsR0" role="3cqZAp">
              <node concept="3cpWsn" id="O$iR4JBsR1" role="3cpWs9">
                <property role="TrG5h" value="index" />
                <node concept="10Oyi0" id="O$iR4JBsR2" role="1tU5fm" />
                <node concept="2OqwBi" id="O$iR4JBsR3" role="33vP2m">
                  <node concept="37vLTw" id="3GM_nagTskZ" role="2Oq$k0">
                    <ref role="3cqZAo" node="O$iR4JBsQR" resolve="result" />
                  </node>
                  <node concept="liA8E" id="O$iR4JBsR5" role="2OqNvi">
                    <ref role="37wK5l" to="wyt6:~String.indexOf(java.lang.String):int" resolve="indexOf" />
                    <node concept="37vLTw" id="2BHiRxgheYy" role="37wK5m">
                      <ref role="3cqZAo" node="O$iR4JBsQL" resolve="symbol" />
                    </node>
                  </node>
                </node>
              </node>
            </node>
            <node concept="3clFbF" id="O$iR4JBsR7" role="3cqZAp">
              <node concept="37vLTI" id="O$iR4JBsR8" role="3clFbG">
                <node concept="37vLTw" id="3GM_nagT_lg" role="37vLTJ">
                  <ref role="3cqZAo" node="O$iR4JBsQR" resolve="result" />
                </node>
                <node concept="2OqwBi" id="O$iR4JBsRa" role="37vLTx">
                  <node concept="37vLTw" id="3GM_nagTAk6" role="2Oq$k0">
                    <ref role="3cqZAo" node="O$iR4JBsQR" resolve="result" />
                  </node>
                  <node concept="liA8E" id="O$iR4JBsRc" role="2OqNvi">
                    <ref role="37wK5l" to="wyt6:~String.replace(java.lang.CharSequence,java.lang.CharSequence):java.lang.String" resolve="replace" />
                    <node concept="37vLTw" id="2BHiRxgl0lu" role="37wK5m">
                      <ref role="3cqZAo" node="O$iR4JBsQL" resolve="symbol" />
                    </node>
                    <node concept="Xl_RD" id="O$iR4JBsRe" role="37wK5m">
                      <property role="Xl_RC" value="" />
                    </node>
                  </node>
                </node>
              </node>
            </node>
            <node concept="3clFbF" id="O$iR4JBsRf" role="3cqZAp">
              <node concept="37vLTI" id="O$iR4JBsRg" role="3clFbG">
                <node concept="2OqwBi" id="L_Hr3kEvA_" role="37vLTx">
                  <node concept="2qgKlT" id="L_Hr3kEvAA" role="2OqNvi">
                    <ref role="37wK5l" node="O$iR4JBsRn" resolve="makeUpperCase" />
                    <node concept="37vLTw" id="L_Hr3kEvAC" role="37wK5m">
                      <ref role="3cqZAo" node="O$iR4JBsQR" resolve="result" />
                    </node>
                    <node concept="37vLTw" id="L_Hr3kEvAE" role="37wK5m">
                      <ref role="3cqZAo" node="O$iR4JBsR1" resolve="index" />
                    </node>
                  </node>
                  <node concept="3TUQnm" id="L_Hr3kEvAG" role="2Oq$k0">
                    <ref role="3TV0OU" to="id7i:O$iR4JBsQF" resolve="IGeneratedToClass" />
                  </node>
                </node>
                <node concept="37vLTw" id="3GM_nagTsSY" role="37vLTJ">
                  <ref role="3cqZAo" node="O$iR4JBsQR" resolve="result" />
                </node>
              </node>
            </node>
          </node>
        </node>
        <node concept="3cpWs6" id="O$iR4JBsRl" role="3cqZAp">
          <node concept="37vLTw" id="3GM_nagTBT9" role="3cqZAk">
            <ref role="3cqZAo" node="O$iR4JBsQR" resolve="result" />
          </node>
        </node>
      </node>
      <node concept="17QB3L" id="O$iR4JBsQO" role="3clF45" />
      <node concept="37vLTG" id="O$iR4JBsQJ" role="3clF46">
        <property role="TrG5h" value="name" />
        <node concept="17QB3L" id="O$iR4JBsQK" role="1tU5fm" />
      </node>
      <node concept="37vLTG" id="O$iR4JBsQL" role="3clF46">
        <property role="TrG5h" value="symbol" />
        <node concept="17QB3L" id="O$iR4JBsQM" role="1tU5fm" />
      </node>
      <node concept="3Tm1VV" id="O$iR4JBsQN" role="1B3o_S" />
    </node>
    <node concept="13i0hz" id="O$iR4JBsRn" role="13h7CS">
      <property role="2Ki8OM" value="true" />
      <property role="13i0is" value="false" />
      <property role="13i0iv" value="false" />
      <property role="TrG5h" value="makeUpperCase" />
      <node concept="3clFbS" id="O$iR4JBsRv" role="3clF47">
        <node concept="1gVbGN" id="O$iR4JBsRw" role="3cqZAp">
          <node concept="1Wc70l" id="O$iR4JBsRx" role="1gVkn0">
            <node concept="3eOVzh" id="O$iR4JBsRy" role="3uHU7w">
              <node concept="2OqwBi" id="O$iR4JBsRz" role="3uHU7w">
                <node concept="37vLTw" id="2BHiRxgm5YR" role="2Oq$k0">
                  <ref role="3cqZAo" node="O$iR4JBsRo" resolve="string" />
                </node>
                <node concept="liA8E" id="O$iR4JBsR_" role="2OqNvi">
                  <ref role="37wK5l" to="wyt6:~String.length():int" resolve="length" />
                </node>
              </node>
              <node concept="37vLTw" id="2BHiRxgm8w_" role="3uHU7B">
                <ref role="3cqZAo" node="O$iR4JBsRr" resolve="index" />
              </node>
            </node>
            <node concept="2d3UOw" id="O$iR4JBsRB" role="3uHU7B">
              <node concept="37vLTw" id="2BHiRxgkX_X" role="3uHU7B">
                <ref role="3cqZAo" node="O$iR4JBsRr" resolve="index" />
              </node>
              <node concept="3cmrfG" id="O$iR4JBsRD" role="3uHU7w">
                <property role="3cmrfH" value="0" />
              </node>
            </node>
          </node>
        </node>
        <node concept="3clFbF" id="O$iR4JBsRE" role="3cqZAp">
          <node concept="3cpWs3" id="O$iR4JBsRF" role="3clFbG">
            <node concept="1eOMI4" id="O$iR4JBsRG" role="3uHU7w">
              <node concept="3K4zz7" id="O$iR4JBsRH" role="1eOMHV">
                <node concept="2OqwBi" id="O$iR4JBsRI" role="3K4E3e">
                  <node concept="37vLTw" id="2BHiRxgm7EM" role="2Oq$k0">
                    <ref role="3cqZAo" node="O$iR4JBsRo" resolve="string" />
                  </node>
                  <node concept="liA8E" id="O$iR4JBsRK" role="2OqNvi">
                    <ref role="37wK5l" to="wyt6:~String.substring(int):java.lang.String" resolve="substring" />
                    <node concept="3cpWs3" id="O$iR4JBsRL" role="37wK5m">
                      <node concept="3cmrfG" id="O$iR4JBsRM" role="3uHU7w">
                        <property role="3cmrfH" value="1" />
                      </node>
                      <node concept="37vLTw" id="2BHiRxgmnap" role="3uHU7B">
                        <ref role="3cqZAo" node="O$iR4JBsRr" resolve="index" />
                      </node>
                    </node>
                  </node>
                </node>
                <node concept="Xl_RD" id="O$iR4JBsRO" role="3K4GZi">
                  <property role="Xl_RC" value="" />
                </node>
                <node concept="3eOVzh" id="O$iR4JBsRP" role="3K4Cdx">
                  <node concept="2OqwBi" id="O$iR4JBsRQ" role="3uHU7w">
                    <node concept="37vLTw" id="2BHiRxgmOfr" role="2Oq$k0">
                      <ref role="3cqZAo" node="O$iR4JBsRo" resolve="string" />
                    </node>
                    <node concept="liA8E" id="O$iR4JBsRS" role="2OqNvi">
                      <ref role="37wK5l" to="wyt6:~String.length():int" resolve="length" />
                    </node>
                  </node>
                  <node concept="3cpWs3" id="O$iR4JBsRT" role="3uHU7B">
                    <node concept="37vLTw" id="2BHiRxglbWm" role="3uHU7B">
                      <ref role="3cqZAo" node="O$iR4JBsRr" resolve="index" />
                    </node>
                    <node concept="3cmrfG" id="O$iR4JBsRV" role="3uHU7w">
                      <property role="3cmrfH" value="1" />
                    </node>
                  </node>
                </node>
              </node>
            </node>
            <node concept="3cpWs3" id="O$iR4JBsRW" role="3uHU7B">
              <node concept="2OqwBi" id="O$iR4JBsRX" role="3uHU7B">
                <node concept="37vLTw" id="2BHiRxgmNCn" role="2Oq$k0">
                  <ref role="3cqZAo" node="O$iR4JBsRo" resolve="string" />
                </node>
                <node concept="liA8E" id="O$iR4JBsRZ" role="2OqNvi">
                  <ref role="37wK5l" to="wyt6:~String.substring(int,int):java.lang.String" resolve="substring" />
                  <node concept="3cmrfG" id="O$iR4JBsS0" role="37wK5m">
                    <property role="3cmrfH" value="0" />
                  </node>
                  <node concept="37vLTw" id="2BHiRxglI6i" role="37wK5m">
                    <ref role="3cqZAo" node="O$iR4JBsRr" resolve="index" />
                  </node>
                </node>
              </node>
              <node concept="2OqwBi" id="O$iR4JBsS2" role="3uHU7w">
                <node concept="2OqwBi" id="O$iR4JBsS3" role="2Oq$k0">
                  <node concept="liA8E" id="O$iR4JBsS4" role="2OqNvi">
                    <ref role="37wK5l" to="wyt6:~String.substring(int,int):java.lang.String" resolve="substring" />
                    <node concept="37vLTw" id="2BHiRxgm9BF" role="37wK5m">
                      <ref role="3cqZAo" node="O$iR4JBsRr" resolve="index" />
                    </node>
                    <node concept="3cpWs3" id="O$iR4JBsS6" role="37wK5m">
                      <node concept="3cmrfG" id="O$iR4JBsS7" role="3uHU7w">
                        <property role="3cmrfH" value="1" />
                      </node>
                      <node concept="37vLTw" id="2BHiRxgmKsN" role="3uHU7B">
                        <ref role="3cqZAo" node="O$iR4JBsRr" resolve="index" />
                      </node>
                    </node>
                  </node>
                  <node concept="37vLTw" id="2BHiRxglJTN" role="2Oq$k0">
                    <ref role="3cqZAo" node="O$iR4JBsRo" resolve="string" />
                  </node>
                </node>
                <node concept="liA8E" id="O$iR4JBsSa" role="2OqNvi">
                  <ref role="37wK5l" to="wyt6:~String.toUpperCase():java.lang.String" resolve="toUpperCase" />
                </node>
              </node>
            </node>
          </node>
        </node>
      </node>
      <node concept="17QB3L" id="O$iR4JBsRu" role="3clF45" />
      <node concept="37vLTG" id="O$iR4JBsRo" role="3clF46">
        <property role="TrG5h" value="string" />
        <node concept="17QB3L" id="O$iR4JBsRp" role="1tU5fm" />
        <node concept="2AHcQZ" id="O$iR4JBsRq" role="2AJF6D">
          <ref role="2AI5Lk" to="mhfm:~NonNls" resolve="NonNls" />
        </node>
      </node>
      <node concept="37vLTG" id="O$iR4JBsRr" role="3clF46">
        <property role="TrG5h" value="index" />
        <node concept="10Oyi0" id="O$iR4JBsRs" role="1tU5fm" />
      </node>
      <node concept="3Tm1VV" id="O$iR4JBsRt" role="1B3o_S" />
    </node>
    <node concept="13i0hz" id="3gpm$NHlLi1" role="13h7CS">
      <property role="2Ki8OM" value="true" />
      <property role="13i0is" value="false" />
      <property role="13i0iv" value="false" />
      <property role="TrG5h" value="getValidClassName" />
      <node concept="3clFbS" id="3gpm$NHlLi4" role="3clF47">
        <node concept="3SKdUt" id="3gpm$NHlP5l" role="3cqZAp">
          <node concept="3SKdUq" id="3gpm$NHlP5m" role="3SKWNk">
            <property role="3SKdUp" value="in between" />
          </node>
        </node>
        <node concept="3clFbF" id="3gpm$NHlLia" role="3cqZAp">
          <node concept="37vLTI" id="3gpm$NHlLib" role="3clFbG">
            <node concept="37vLTw" id="2BHiRxgkZlF" role="37vLTJ">
              <ref role="3cqZAo" node="3gpm$NHlLi6" resolve="name" />
            </node>
            <node concept="2OqwBi" id="3gpm$NHlLid" role="37vLTx">
              <node concept="37vLTw" id="2BHiRxgkZKd" role="2Oq$k0">
                <ref role="3cqZAo" node="3gpm$NHlLi6" resolve="name" />
              </node>
              <node concept="2kq01I" id="3gpm$NHlLif" role="2OqNvi">
                <node concept="1Qi9sc" id="3gpm$NHlLig" role="1YN4dH">
                  <node concept="1OJ37Q" id="3gpm$NHlLih" role="1QigWp">
                    <node concept="1OJ37Q" id="3gpm$NHlLii" role="1OLpdg">
                      <node concept="1Tukvm" id="3gpm$NHlLij" role="1OLpdg">
                        <property role="TrG5h" value="head" />
                        <node concept="1SYyG9" id="3gpm$NHlLik" role="1TuGhC">
                          <ref role="1SYXPG" to="tpfp:h5SUJUw" resolve="\w" />
                        </node>
                      </node>
                      <node concept="1OClNT" id="3gpm$NHlLil" role="1OLqdY">
                        <node concept="1SYyG9" id="3gpm$NHlLim" role="1OLDsb">
                          <ref role="1SYXPG" to="tpfp:h5SUNgp" resolve="\W" />
                        </node>
                      </node>
                    </node>
                    <node concept="1Tukvm" id="3gpm$NHlLin" role="1OLqdY">
                      <property role="TrG5h" value="tail" />
                      <node concept="1SYyG9" id="3gpm$NHlLio" role="1TuGhC">
                        <ref role="1SYXPG" to="tpfp:h5SUJUw" resolve="\w" />
                      </node>
                    </node>
                  </node>
                </node>
                <node concept="1YY055" id="3gpm$NHlLip" role="2krO_r">
                  <node concept="3clFbS" id="3gpm$NHlLiq" role="2VODD2">
                    <node concept="3clFbF" id="3gpm$NHlLir" role="3cqZAp">
                      <node concept="3cpWs3" id="3gpm$NHlLis" role="3clFbG">
                        <node concept="2OqwBi" id="3gpm$NHlLit" role="3uHU7w">
                          <node concept="1TxZTf" id="3gpm$NHlLiu" role="2Oq$k0">
                            <ref role="1Ty1U8" node="3gpm$NHlLin" resolve="tail" />
                          </node>
                          <node concept="liA8E" id="3gpm$NHlLiv" role="2OqNvi">
                            <ref role="37wK5l" to="wyt6:~String.toUpperCase():java.lang.String" resolve="toUpperCase" />
                          </node>
                        </node>
                        <node concept="1TxZTf" id="3gpm$NHlLiw" role="3uHU7B">
                          <ref role="1Ty1U8" node="3gpm$NHlLij" resolve="head" />
                        </node>
                      </node>
                    </node>
                  </node>
                </node>
              </node>
            </node>
          </node>
        </node>
        <node concept="3SKdUt" id="3gpm$NHlP5o" role="3cqZAp">
          <node concept="3SKdUq" id="3gpm$NHlP5p" role="3SKWNk">
            <property role="3SKdUp" value="in the end" />
          </node>
        </node>
        <node concept="3clFbF" id="3gpm$NHlLix" role="3cqZAp">
          <node concept="37vLTI" id="3gpm$NHlLiy" role="3clFbG">
            <node concept="2OqwBi" id="3gpm$NHlLiz" role="37vLTx">
              <node concept="37vLTw" id="2BHiRxgkWiJ" role="2Oq$k0">
                <ref role="3cqZAo" node="3gpm$NHlLi6" resolve="name" />
              </node>
              <node concept="2kq01I" id="3gpm$NHlLi_" role="2OqNvi">
                <node concept="1Qi9sc" id="3gpm$NHlLiA" role="1YN4dH">
                  <node concept="1OJ37Q" id="3gpm$NHlLiB" role="1QigWp">
                    <node concept="1Tukvm" id="3gpm$NHlLiC" role="1OLpdg">
                      <property role="TrG5h" value="head" />
                      <node concept="1T2EwR" id="3gpm$NHlLiD" role="1TuGhC" />
                    </node>
                    <node concept="1OJ37Q" id="3gpm$NHlLiE" role="1OLqdY">
                      <node concept="1OClNT" id="3gpm$NHlLiF" role="1OLpdg">
                        <node concept="1SYyG9" id="3gpm$NHlLiG" role="1OLDsb">
                          <ref role="1SYXPG" to="tpfp:h5SUNgp" resolve="\W" />
                        </node>
                      </node>
                      <node concept="2t4AhP" id="3gpm$NHlLiH" role="1OLqdY" />
                    </node>
                  </node>
                </node>
                <node concept="1YY055" id="3gpm$NHlLiI" role="2krO_r">
                  <node concept="3clFbS" id="3gpm$NHlLiJ" role="2VODD2">
                    <node concept="3clFbF" id="3gpm$NHlLiK" role="3cqZAp">
                      <node concept="1TxZTf" id="3gpm$NHlLiL" role="3clFbG">
                        <ref role="1Ty1U8" node="3gpm$NHlLiC" resolve="head" />
                      </node>
                    </node>
                  </node>
                </node>
              </node>
            </node>
            <node concept="37vLTw" id="2BHiRxglyH2" role="37vLTJ">
              <ref role="3cqZAo" node="3gpm$NHlLi6" resolve="name" />
            </node>
          </node>
        </node>
        <node concept="3SKdUt" id="3gpm$NHlP5r" role="3cqZAp">
          <node concept="3SKdUq" id="3gpm$NHlP5s" role="3SKWNk">
            <property role="3SKdUp" value="in the beggining" />
          </node>
        </node>
        <node concept="3clFbF" id="3gpm$NHlP4J" role="3cqZAp">
          <node concept="37vLTI" id="3gpm$NHlP4L" role="3clFbG">
            <node concept="2OqwBi" id="3gpm$NHlP4P" role="37vLTx">
              <node concept="37vLTw" id="2BHiRxgm9ds" role="2Oq$k0">
                <ref role="3cqZAo" node="3gpm$NHlLi6" resolve="name" />
              </node>
              <node concept="2kq01I" id="3gpm$NHlP4T" role="2OqNvi">
                <node concept="1Qi9sc" id="3gpm$NHlP4U" role="1YN4dH">
                  <node concept="1OJ37Q" id="3gpm$NHlP51" role="1QigWp">
                    <node concept="2t4tHJ" id="3gpm$NHlP4Z" role="1OLpdg" />
                    <node concept="1OJ37Q" id="3gpm$NHlP57" role="1OLqdY">
                      <node concept="1OClNT" id="3gpm$NHlP55" role="1OLpdg">
                        <node concept="1SYyG9" id="3gpm$NHlP54" role="1OLDsb">
                          <ref role="1SYXPG" to="tpfp:h5SUNgp" resolve="\W" />
                        </node>
                      </node>
                      <node concept="1Tukvm" id="3gpm$NHlP5a" role="1OLqdY">
                        <property role="TrG5h" value="letter" />
                        <node concept="1SYyG9" id="3gpm$NHlP5c" role="1TuGhC">
                          <ref role="1SYXPG" to="tpfp:h5SUJUw" resolve="\w" />
                        </node>
                      </node>
                    </node>
                  </node>
                </node>
                <node concept="1YY055" id="3gpm$NHlP4W" role="2krO_r">
                  <node concept="3clFbS" id="3gpm$NHlP4X" role="2VODD2">
                    <node concept="3clFbF" id="3gpm$NHlP5d" role="3cqZAp">
                      <node concept="2OqwBi" id="3gpm$NHlP5f" role="3clFbG">
                        <node concept="1TxZTf" id="3gpm$NHlP5e" role="2Oq$k0">
                          <ref role="1Ty1U8" node="3gpm$NHlP5a" resolve="letter" />
                        </node>
                        <node concept="liA8E" id="3gpm$NHlP5j" role="2OqNvi">
                          <ref role="37wK5l" to="wyt6:~String.toUpperCase():java.lang.String" resolve="toUpperCase" />
                        </node>
                      </node>
                    </node>
                  </node>
                </node>
              </node>
            </node>
            <node concept="37vLTw" id="2BHiRxglbnh" role="37vLTJ">
              <ref role="3cqZAo" node="3gpm$NHlLi6" resolve="name" />
            </node>
          </node>
        </node>
        <node concept="3clFbF" id="3gpm$NHlLiN" role="3cqZAp">
          <node concept="2OqwBi" id="L_Hr3kErYL" role="3clFbG">
            <node concept="2qgKlT" id="L_Hr3kErYM" role="2OqNvi">
              <ref role="37wK5l" node="O$iR4JBsRn" resolve="makeUpperCase" />
              <node concept="37vLTw" id="L_Hr3kErYN" role="37wK5m">
                <ref role="3cqZAo" node="3gpm$NHlLi6" resolve="name" />
              </node>
              <node concept="3cmrfG" id="L_Hr3kErYO" role="37wK5m">
                <property role="3cmrfH" value="0" />
              </node>
            </node>
            <node concept="3TUQnm" id="L_Hr3kErYP" role="2Oq$k0">
              <ref role="3TV0OU" to="id7i:O$iR4JBsQF" resolve="IGeneratedToClass" />
            </node>
          </node>
        </node>
      </node>
      <node concept="17QB3L" id="3gpm$NHlLi5" role="3clF45" />
      <node concept="37vLTG" id="3gpm$NHlLi6" role="3clF46">
        <property role="TrG5h" value="name" />
        <node concept="17QB3L" id="3gpm$NHlLi8" role="1tU5fm" />
        <node concept="2AHcQZ" id="3gpm$NHlLi9" role="2AJF6D">
          <ref role="2AI5Lk" to="mhfm:~NonNls" resolve="NonNls" />
        </node>
      </node>
      <node concept="3Tm1VV" id="3gpm$NHlLi2" role="1B3o_S" />
    </node>
  </node>
</model>

