<?xml version="1.0" encoding="UTF-8"?>
<model ref="r:7a1c88cb-66d9-4726-9b4a-d5dc6c544de7(jetbrains.mps.samples.SwingBuilder.constraints)">
  <persistence version="9" />
  <languages>
    <use id="3f4bc5f5-c6c1-4a28-8b10-c83066ffa4a1" name="jetbrains.mps.lang.constraints" version="0" />
    <use id="13744753-c81f-424a-9c1b-cf8943bf4e86" name="jetbrains.mps.lang.sharedConcepts" version="0" />
    <devkit ref="fbc25dd2-5da4-483a-8b19-70928e1b62d7(jetbrains.mps.devkit.general-purpose)" />
  </languages>
  <imports>
    <import index="o8zo" ref="r:314576fc-3aee-4386-a0a5-a38348ac317d(jetbrains.mps.scope)" />
    <import index="yo60" ref="r:f03fbd24-52ae-4ae3-8913-228f5120a390(jetbrains.mps.samples.SwingBuilder.structure)" implicit="true" />
    <import index="tpck" ref="r:00000000-0000-4000-0000-011c89590288(jetbrains.mps.lang.core.structure)" implicit="true" />
  </imports>
  <registry>
    <language id="13744753-c81f-424a-9c1b-cf8943bf4e86" name="jetbrains.mps.lang.sharedConcepts">
      <concept id="1161622665029" name="jetbrains.mps.lang.sharedConcepts.structure.ConceptFunctionParameter_model" flags="nn" index="1Q6Npb" />
    </language>
    <language id="f3061a53-9226-4cc5-a443-f952ceaf5816" name="jetbrains.mps.baseLanguage">
      <concept id="1197027756228" name="jetbrains.mps.baseLanguage.structure.DotExpression" flags="nn" index="2OqwBi">
        <child id="1197027771414" name="operand" index="2Oq$k0" />
        <child id="1197027833540" name="operation" index="2OqNvi" />
      </concept>
      <concept id="1145552977093" name="jetbrains.mps.baseLanguage.structure.GenericNewExpression" flags="nn" index="2ShNRf">
        <child id="1145553007750" name="creator" index="2ShVmc" />
      </concept>
      <concept id="1137021947720" name="jetbrains.mps.baseLanguage.structure.ConceptFunction" flags="in" index="2VMwT0">
        <child id="1137022507850" name="body" index="2VODD2" />
      </concept>
      <concept id="1182160077978" name="jetbrains.mps.baseLanguage.structure.AnonymousClassCreator" flags="nn" index="YeOm9">
        <child id="1182160096073" name="cls" index="YeSDq" />
      </concept>
      <concept id="1068498886296" name="jetbrains.mps.baseLanguage.structure.VariableReference" flags="nn" index="37vLTw">
        <reference id="1068581517664" name="variableDeclaration" index="3cqZAo" />
      </concept>
      <concept id="1068498886292" name="jetbrains.mps.baseLanguage.structure.ParameterDeclaration" flags="ir" index="37vLTG" />
      <concept id="1225271177708" name="jetbrains.mps.baseLanguage.structure.StringType" flags="in" index="17QB3L" />
      <concept id="4972933694980447171" name="jetbrains.mps.baseLanguage.structure.BaseVariableDeclaration" flags="ng" index="19Szcq">
        <child id="5680397130376446158" name="type" index="1tU5fm" />
      </concept>
      <concept id="1068580123132" name="jetbrains.mps.baseLanguage.structure.BaseMethodDeclaration" flags="ng" index="3clF44">
        <child id="1068580123133" name="returnType" index="3clF45" />
        <child id="1068580123134" name="parameter" index="3clF46" />
        <child id="1068580123135" name="body" index="3clF47" />
      </concept>
      <concept id="1068580123165" name="jetbrains.mps.baseLanguage.structure.InstanceMethodDeclaration" flags="ig" index="3clFb_">
        <property id="1178608670077" name="isAbstract" index="1EzhhJ" />
      </concept>
      <concept id="1068580123155" name="jetbrains.mps.baseLanguage.structure.ExpressionStatement" flags="nn" index="3clFbF">
        <child id="1068580123156" name="expression" index="3clFbG" />
      </concept>
      <concept id="1068580123136" name="jetbrains.mps.baseLanguage.structure.StatementList" flags="sn" stub="5293379017992965193" index="3clFbS">
        <child id="1068581517665" name="statement" index="3cqZAp" />
      </concept>
      <concept id="1204053956946" name="jetbrains.mps.baseLanguage.structure.IMethodCall" flags="ng" index="1ndlxa">
        <reference id="1068499141037" name="baseMethodDeclaration" index="37wK5l" />
        <child id="1068499141038" name="actualArgument" index="37wK5m" />
      </concept>
      <concept id="1107461130800" name="jetbrains.mps.baseLanguage.structure.Classifier" flags="ng" index="3pOWGL">
        <property id="521412098689998745" name="nonStatic" index="2bfB8j" />
        <child id="5375687026011219971" name="member" index="jymVt" unordered="true" />
      </concept>
      <concept id="1178549954367" name="jetbrains.mps.baseLanguage.structure.IVisible" flags="ng" index="1B3ioH">
        <child id="1178549979242" name="visibility" index="1B3o_S" />
      </concept>
      <concept id="1146644602865" name="jetbrains.mps.baseLanguage.structure.PublicVisibility" flags="nn" index="3Tm1VV" />
      <concept id="1170345865475" name="jetbrains.mps.baseLanguage.structure.AnonymousClass" flags="ig" index="1Y3b0j">
        <reference id="1170346070688" name="classifier" index="1Y3XeK" />
      </concept>
    </language>
    <language id="3f4bc5f5-c6c1-4a28-8b10-c83066ffa4a1" name="jetbrains.mps.lang.constraints">
      <concept id="5676632058862809931" name="jetbrains.mps.lang.constraints.structure.ConstraintFunction_ReferentSearchScope_Scope" flags="in" index="13QW63" />
      <concept id="1213093968558" name="jetbrains.mps.lang.constraints.structure.ConceptConstraints" flags="ng" index="1M2fIO">
        <reference id="1213093996982" name="concept" index="1M2myG" />
        <child id="1213100494875" name="referent" index="1Mr941" />
      </concept>
      <concept id="1148687176410" name="jetbrains.mps.lang.constraints.structure.NodeReferentConstraint" flags="ng" index="1N5Pfh">
        <reference id="1148687202698" name="applicableLink" index="1N5Vy1" />
        <child id="1148687345559" name="searchScopeFactory" index="1N6uqs" />
      </concept>
    </language>
    <language id="7866978e-a0f0-4cc7-81bc-4d213d9375e1" name="jetbrains.mps.lang.smodel">
      <concept id="2396822768958367367" name="jetbrains.mps.lang.smodel.structure.AbstractTypeCastExpression" flags="nn" index="$5XWr">
        <reference id="6733348108486823428" name="concept" index="1m5ApE" />
        <child id="6733348108486823193" name="leftExpression" index="1m5AlR" />
      </concept>
      <concept id="1171315804604" name="jetbrains.mps.lang.smodel.structure.Model_RootsOperation" flags="nn" index="2RRcyG">
        <reference id="1171315804605" name="concept" index="2RRcyH" />
      </concept>
      <concept id="1140137987495" name="jetbrains.mps.lang.smodel.structure.SNodeTypeCastExpression" flags="nn" index="1PxgMI" />
      <concept id="1138055754698" name="jetbrains.mps.lang.smodel.structure.SNodeType" flags="in" index="3Tqbb2" />
      <concept id="1138056022639" name="jetbrains.mps.lang.smodel.structure.SPropertyAccess" flags="nn" index="3TrcHB">
        <reference id="1138056395725" name="property" index="3TsBF5" />
      </concept>
    </language>
    <language id="ceab5195-25ea-4f22-9b92-103b95ca8c0c" name="jetbrains.mps.lang.core">
      <concept id="1133920641626" name="jetbrains.mps.lang.core.structure.BaseConcept" flags="ng" index="2VYdi">
        <property id="1193676396447" name="virtualPackage" index="3GE5qa" />
      </concept>
      <concept id="1169194658468" name="jetbrains.mps.lang.core.structure.INamedConcept" flags="ng" index="TrEIO">
        <property id="1169194664001" name="name" index="TrG5h" />
      </concept>
    </language>
    <language id="83888646-71ce-4f1c-9c53-c54016f6ad4f" name="jetbrains.mps.baseLanguage.collections">
      <concept id="1176903168877" name="jetbrains.mps.baseLanguage.collections.structure.UnionOperation" flags="nn" index="4Tj9Z" />
      <concept id="1176906603202" name="jetbrains.mps.baseLanguage.collections.structure.BinaryOperation" flags="nn" index="56pJg">
        <child id="1176906787974" name="rightExpression" index="576Qk" />
      </concept>
    </language>
  </registry>
  <node concept="1M2fIO" id="OfqpBCey1L">
    <property role="3GE5qa" value="transform" />
    <ref role="1M2myG" to="yo60:OfqpBCexUa" resolve="ElementReference" />
    <node concept="1N5Pfh" id="OfqpBCey1M" role="1Mr941">
      <ref role="1N5Vy1" to="yo60:OfqpBCexUb" />
      <node concept="13QW63" id="OfqpBCey1O" role="1N6uqs">
        <node concept="3clFbS" id="OfqpBCey1P" role="2VODD2">
          <node concept="3clFbF" id="OfqpBCeMGq" role="3cqZAp">
            <node concept="2ShNRf" id="OfqpBCeMGm" role="3clFbG">
              <node concept="YeOm9" id="OfqpBCeO5c" role="2ShVmc">
                <node concept="1Y3b0j" id="OfqpBCeO5f" role="YeSDq">
                  <property role="2bfB8j" value="true" />
                  <ref role="1Y3XeK" to="o8zo:4IP40Bi3e_R" resolve="ListScope" />
                  <ref role="37wK5l" to="o8zo:4IP40Bi3e_T" resolve="ListScope" />
                  <node concept="2OqwBi" id="OfqpBCe$Ss" role="37wK5m">
                    <node concept="2OqwBi" id="OfqpBCey4z" role="2Oq$k0">
                      <node concept="1Q6Npb" id="OfqpBCey3n" role="2Oq$k0" />
                      <node concept="2RRcyG" id="OfqpBCeya6" role="2OqNvi">
                        <ref role="2RRcyH" to="yo60:OfqpBCexLx" resolve="Filter" />
                      </node>
                    </node>
                    <node concept="4Tj9Z" id="OfqpBCeLMM" role="2OqNvi">
                      <node concept="2OqwBi" id="OfqpBCeLXW" role="576Qk">
                        <node concept="1Q6Npb" id="OfqpBCeLSg" role="2Oq$k0" />
                        <node concept="2RRcyG" id="OfqpBCeM8u" role="2OqNvi">
                          <ref role="2RRcyH" to="yo60:OfqpBCexQl" resolve="Map" />
                        </node>
                      </node>
                    </node>
                  </node>
                  <node concept="3Tm1VV" id="OfqpBCeO5g" role="1B3o_S" />
                  <node concept="3clFb_" id="OfqpBCeO5r" role="jymVt">
                    <property role="1EzhhJ" value="false" />
                    <property role="TrG5h" value="getName" />
                    <node concept="17QB3L" id="OfqpBCeO5s" role="3clF45" />
                    <node concept="3Tm1VV" id="OfqpBCeO5t" role="1B3o_S" />
                    <node concept="37vLTG" id="OfqpBCeO5v" role="3clF46">
                      <property role="TrG5h" value="child" />
                      <node concept="3Tqbb2" id="OfqpBCeO5w" role="1tU5fm" />
                    </node>
                    <node concept="3clFbS" id="OfqpBCeO5x" role="3clF47">
                      <node concept="3clFbF" id="OfqpBCeP2H" role="3cqZAp">
                        <node concept="2OqwBi" id="OfqpBCePbz" role="3clFbG">
                          <node concept="1PxgMI" id="OfqpBCeP8i" role="2Oq$k0">
                            <ref role="1m5ApE" to="tpck:h0TrEE$" resolve="INamedConcept" />
                            <node concept="37vLTw" id="OfqpBCeP2G" role="1m5AlR">
                              <ref role="3cqZAo" node="OfqpBCeO5v" resolve="child" />
                            </node>
                          </node>
                          <node concept="3TrcHB" id="OfqpBCePhs" role="2OqNvi">
                            <ref role="3TsBF5" to="tpck:h0TrG11" resolve="name" />
                          </node>
                        </node>
                      </node>
                    </node>
                  </node>
                </node>
              </node>
            </node>
          </node>
        </node>
      </node>
    </node>
  </node>
</model>

