<?xml version="1.0" encoding="UTF-8"?>
<model ref="r:e212bbf5-8b7a-4d76-a650-32f9b4ca3bc3(jetbrains.mps.transformation.test.errorReporting.editor)">
  <persistence version="9" />
  <languages>
    <use id="18bc6592-03a6-4e29-a83a-7ff23bde13ba" name="jetbrains.mps.lang.editor" version="3" />
  </languages>
  <imports>
    <import index="qq7j" ref="r:13099be6-e9be-4c1b-a5cd-d0d83a6c9f0a(jetbrains.mps.transformation.test.errorReporting.structure)" />
    <import index="tpck" ref="r:00000000-0000-4000-0000-011c89590288(jetbrains.mps.lang.core.structure)" implicit="true" />
  </imports>
  <registry>
    <language id="18bc6592-03a6-4e29-a83a-7ff23bde13ba" name="jetbrains.mps.lang.editor">
      <concept id="1071666914219" name="jetbrains.mps.lang.editor.structure.ConceptEditorDeclaration" flags="ig" index="24kQdi" />
      <concept id="1237303669825" name="jetbrains.mps.lang.editor.structure.CellLayout_Indent" flags="nn" index="l2Vlx" />
      <concept id="1237308012275" name="jetbrains.mps.lang.editor.structure.IndentLayoutNewLineStyleClassItem" flags="ln" index="ljvvj" />
      <concept id="1080736578640" name="jetbrains.mps.lang.editor.structure.BaseEditorComponent" flags="ig" index="2wURMF">
        <child id="1080736633877" name="cellModel" index="2wV5jI" />
      </concept>
      <concept id="1186414536763" name="jetbrains.mps.lang.editor.structure.BooleanStyleSheetItem" flags="ln" index="VOi$J">
        <property id="1186414551515" name="flag" index="VOm3f" />
      </concept>
      <concept id="1139848536355" name="jetbrains.mps.lang.editor.structure.CellModel_WithRole" flags="ng" index="1$h60E">
        <reference id="1140103550593" name="relationDeclaration" index="1NtTu8" />
      </concept>
      <concept id="1073389446423" name="jetbrains.mps.lang.editor.structure.CellModel_Collection" flags="sn" stub="3013115976261988961" index="3EZMnI">
        <child id="1106270802874" name="cellLayout" index="2iSdaV" />
        <child id="1073389446424" name="childCellModel" index="3EZMnx" />
      </concept>
      <concept id="1073389577006" name="jetbrains.mps.lang.editor.structure.CellModel_Constant" flags="sn" stub="3610246225209162225" index="3F0ifn">
        <property id="1073389577007" name="text" index="3F0ifm" />
      </concept>
      <concept id="1073389658414" name="jetbrains.mps.lang.editor.structure.CellModel_Property" flags="sg" stub="730538219796134133" index="3F0A7n" />
      <concept id="1219418625346" name="jetbrains.mps.lang.editor.structure.IStyleContainer" flags="ng" index="3F0Thp">
        <child id="1219418656006" name="styleItem" index="3F10Kt" />
      </concept>
      <concept id="1166049232041" name="jetbrains.mps.lang.editor.structure.AbstractComponent" flags="ng" index="1XWOmA">
        <reference id="1166049300910" name="conceptDeclaration" index="1XX52x" />
      </concept>
    </language>
  </registry>
  <node concept="24kQdi" id="6kxQP7CaD2$">
    <ref role="1XX52x" to="qq7j:6kxQP7CaBpj" resolve="ErrorReportingRoot" />
    <node concept="3EZMnI" id="6kxQP7CaD2A" role="2wV5jI">
      <node concept="3F0ifn" id="6kxQP7CaD2D" role="3EZMnx">
        <property role="3F0ifm" value="error reporting root" />
      </node>
      <node concept="3F0A7n" id="6kxQP7CaD2G" role="3EZMnx">
        <ref role="1NtTu8" to="tpck:h0TrG11" resolve="name" />
      </node>
      <node concept="3F0ifn" id="6kxQP7CaD2I" role="3EZMnx">
        <property role="3F0ifm" value="{" />
        <node concept="ljvvj" id="6kxQP7CaD82" role="3F10Kt">
          <property role="VOm3f" value="true" />
        </node>
      </node>
      <node concept="3F0ifn" id="5l9q_ciVEPO" role="3EZMnx">
        <property role="3F0ifm" value="intval =" />
      </node>
      <node concept="3F0A7n" id="5l9q_ciVEPQ" role="3EZMnx">
        <ref role="1NtTu8" to="qq7j:6kxQP7CaD88" resolve="intval" />
        <node concept="ljvvj" id="5l9q_ciVEPR" role="3F10Kt">
          <property role="VOm3f" value="true" />
        </node>
      </node>
      <node concept="3F0ifn" id="6kxQP7CaD84" role="3EZMnx">
        <property role="3F0ifm" value="}" />
      </node>
      <node concept="l2Vlx" id="6kxQP7CaD2C" role="2iSdaV" />
    </node>
  </node>
</model>

