<?xml version="1.0" encoding="UTF-8"?>
<model ref="r:211375ba-def6-476e-aef3-f53300581f0b(jetbrains.mps.lang.editor.diagram.behavior)">
  <persistence version="9" />
  <languages>
    <use id="af65afd8-f0dd-4942-87d9-63a55f2a9db1" name="jetbrains.mps.lang.behavior" version="0" />
    <devkit ref="fbc25dd2-5da4-483a-8b19-70928e1b62d7(jetbrains.mps.devkit.general-purpose)" />
  </languages>
  <imports>
    <import index="gbdf" ref="r:5181c66d-005f-421e-88f2-2c6d80a7738d(jetbrains.mps.lang.editor.diagram.structure)" />
    <import index="tpek" ref="r:00000000-0000-4000-0000-011c895902c0(jetbrains.mps.baseLanguage.behavior)" />
    <import index="tpee" ref="r:00000000-0000-4000-0000-011c895902ca(jetbrains.mps.baseLanguage.structure)" />
    <import index="vtq6" ref="r:3f785a51-2661-4a52-ae3d-a60205a4f73f(jetbrains.mps.lang.editor.figures.behavior)" />
    <import index="tpcb" ref="r:00000000-0000-4000-0000-011c89590297(jetbrains.mps.lang.editor.behavior)" />
    <import index="ny2" ref="r:64327a98-9d9a-43f9-aa56-fe3b1ee87c60(jetbrains.mps.lang.editor.figures.structure)" />
    <import index="tpck" ref="r:00000000-0000-4000-0000-011c89590288(jetbrains.mps.lang.core.structure)" implicit="true" />
    <import index="tp25" ref="r:00000000-0000-4000-0000-011c89590301(jetbrains.mps.lang.smodel.structure)" implicit="true" />
    <import index="tpce" ref="r:00000000-0000-4000-0000-011c89590292(jetbrains.mps.lang.structure.structure)" implicit="true" />
  </imports>
  <registry>
    <language id="af65afd8-f0dd-4942-87d9-63a55f2a9db1" name="jetbrains.mps.lang.behavior">
      <concept id="6496299201655527393" name="jetbrains.mps.lang.behavior.structure.LocalBehaviorMethodCall" flags="nn" index="BsUDl" />
      <concept id="1225194240794" name="jetbrains.mps.lang.behavior.structure.ConceptBehavior" flags="ng" index="13h7C7">
        <reference id="1225194240799" name="concept" index="13h7C2" />
        <child id="1225194240805" name="method" index="13h7CS" />
        <child id="1225194240801" name="constructor" index="13h7CW" />
      </concept>
      <concept id="1225194413805" name="jetbrains.mps.lang.behavior.structure.ConceptConstructorDeclaration" flags="in" index="13hLZK" />
      <concept id="1225194472830" name="jetbrains.mps.lang.behavior.structure.ConceptMethodDeclaration" flags="ng" index="13i0hz">
        <property id="1225194472833" name="isPrivate" index="13i0is" />
        <property id="1225194472832" name="isVirtual" index="13i0it" />
        <property id="1225194472834" name="isAbstract" index="13i0iv" />
        <reference id="1225194472831" name="overriddenMethod" index="13i0hy" />
      </concept>
      <concept id="1225194691553" name="jetbrains.mps.lang.behavior.structure.ThisNodeExpression" flags="nn" index="13iPFW" />
    </language>
    <language id="f3061a53-9226-4cc5-a443-f952ceaf5816" name="jetbrains.mps.baseLanguage">
      <concept id="4836112446988635817" name="jetbrains.mps.baseLanguage.structure.UndefinedType" flags="in" index="2jxLKc" />
      <concept id="1197027756228" name="jetbrains.mps.baseLanguage.structure.DotExpression" flags="nn" index="2OqwBi">
        <child id="1197027771414" name="operand" index="2Oq$k0" />
        <child id="1197027833540" name="operation" index="2OqNvi" />
      </concept>
      <concept id="1145552977093" name="jetbrains.mps.baseLanguage.structure.GenericNewExpression" flags="nn" index="2ShNRf">
        <child id="1145553007750" name="creator" index="2ShVmc" />
      </concept>
      <concept id="1137021947720" name="jetbrains.mps.baseLanguage.structure.ConceptFunction" flags="in" index="2VMwT0">
        <child id="1137022507850" name="body" index="2VODD2" />
      </concept>
      <concept id="1070475926800" name="jetbrains.mps.baseLanguage.structure.StringLiteral" flags="nn" index="Xl_RD">
        <property id="1070475926801" name="value" index="Xl_RC" />
      </concept>
      <concept id="1070534644030" name="jetbrains.mps.baseLanguage.structure.BooleanType" flags="in" index="10P_77" />
      <concept id="1068431474542" name="jetbrains.mps.baseLanguage.structure.VariableDeclaration" flags="ng" index="33uBYm">
        <child id="1068431790190" name="initializer" index="33vP2m" />
      </concept>
      <concept id="1068498886296" name="jetbrains.mps.baseLanguage.structure.VariableReference" flags="nn" index="37vLTw">
        <reference id="1068581517664" name="variableDeclaration" index="3cqZAo" />
      </concept>
      <concept id="1068498886292" name="jetbrains.mps.baseLanguage.structure.ParameterDeclaration" flags="ir" index="37vLTG" />
      <concept id="1225271177708" name="jetbrains.mps.baseLanguage.structure.StringType" flags="in" index="17QB3L" />
      <concept id="1225271283259" name="jetbrains.mps.baseLanguage.structure.NPEEqualsExpression" flags="nn" index="17R0WA" />
      <concept id="4972933694980447171" name="jetbrains.mps.baseLanguage.structure.BaseVariableDeclaration" flags="ng" index="19Szcq">
        <child id="5680397130376446158" name="type" index="1tU5fm" />
      </concept>
      <concept id="1068580123132" name="jetbrains.mps.baseLanguage.structure.BaseMethodDeclaration" flags="ng" index="3clF44">
        <child id="1068580123133" name="returnType" index="3clF45" />
        <child id="1068580123134" name="parameter" index="3clF46" />
        <child id="1068580123135" name="body" index="3clF47" />
      </concept>
      <concept id="1068580123155" name="jetbrains.mps.baseLanguage.structure.ExpressionStatement" flags="nn" index="3clFbF">
        <child id="1068580123156" name="expression" index="3clFbG" />
      </concept>
      <concept id="1068580123157" name="jetbrains.mps.baseLanguage.structure.Statement" flags="nn" index="3clFbH" />
      <concept id="1068580123136" name="jetbrains.mps.baseLanguage.structure.StatementList" flags="sn" stub="5293379017992965193" index="3clFbS">
        <child id="1068581517665" name="statement" index="3cqZAp" />
      </concept>
      <concept id="1068580123137" name="jetbrains.mps.baseLanguage.structure.BooleanConstant" flags="nn" index="3clFbT">
        <property id="1068580123138" name="value" index="3clFbU" />
      </concept>
      <concept id="1068581242878" name="jetbrains.mps.baseLanguage.structure.ReturnStatement" flags="nn" index="3cpWs6">
        <child id="1068581517676" name="expression" index="3cqZAk" />
      </concept>
      <concept id="1068581242864" name="jetbrains.mps.baseLanguage.structure.LocalVariableDeclarationStatement" flags="nn" index="3cpWs8">
        <child id="1068581242865" name="localVariableDeclaration" index="3cpWs9" />
      </concept>
      <concept id="1068581242863" name="jetbrains.mps.baseLanguage.structure.LocalVariableDeclaration" flags="nr" index="3cpWsn" />
      <concept id="1068581517677" name="jetbrains.mps.baseLanguage.structure.VoidType" flags="in" index="3cqZAl" />
      <concept id="1204053956946" name="jetbrains.mps.baseLanguage.structure.IMethodCall" flags="ng" index="1ndlxa">
        <reference id="1068499141037" name="baseMethodDeclaration" index="37wK5l" />
        <child id="1068499141038" name="actualArgument" index="37wK5m" />
      </concept>
      <concept id="1081773326031" name="jetbrains.mps.baseLanguage.structure.BinaryOperation" flags="nn" index="3uHJSO">
        <child id="1081773367579" name="rightExpression" index="3uHU7w" />
        <child id="1081773367580" name="leftExpression" index="3uHU7B" />
      </concept>
      <concept id="1178549954367" name="jetbrains.mps.baseLanguage.structure.IVisible" flags="ng" index="1B3ioH">
        <child id="1178549979242" name="visibility" index="1B3o_S" />
      </concept>
      <concept id="1163668896201" name="jetbrains.mps.baseLanguage.structure.TernaryOperatorExpression" flags="nn" index="3K4zz7">
        <child id="1163668914799" name="condition" index="3K4Cdx" />
        <child id="1163668922816" name="ifTrue" index="3K4E3e" />
        <child id="1163668934364" name="ifFalse" index="3K4GZi" />
      </concept>
      <concept id="1146644602865" name="jetbrains.mps.baseLanguage.structure.PublicVisibility" flags="nn" index="3Tm1VV" />
      <concept id="1146644623116" name="jetbrains.mps.baseLanguage.structure.PrivateVisibility" flags="nn" index="3Tm6S6" />
    </language>
    <language id="fd392034-7849-419d-9071-12563d152375" name="jetbrains.mps.baseLanguage.closures">
      <concept id="1199569711397" name="jetbrains.mps.baseLanguage.closures.structure.ClosureLiteral" flags="nn" index="1bVj0M">
        <child id="1199569906740" name="parameter" index="1bW2Oz" />
        <child id="1199569916463" name="body" index="1bW5cS" />
      </concept>
    </language>
    <language id="3a13115c-633c-4c5c-bbcc-75c4219e9555" name="jetbrains.mps.lang.quotation">
      <concept id="1196350785113" name="jetbrains.mps.lang.quotation.structure.Quotation" flags="nn" index="2c44tf">
        <child id="1196350785114" name="quotedNode" index="2c44tc" />
      </concept>
    </language>
    <language id="7866978e-a0f0-4cc7-81bc-4d213d9375e1" name="jetbrains.mps.lang.smodel">
      <concept id="1179409122411" name="jetbrains.mps.lang.smodel.structure.Node_ConceptMethodCall" flags="nn" index="2qgKlT" />
      <concept id="2396822768958367367" name="jetbrains.mps.lang.smodel.structure.AbstractTypeCastExpression" flags="nn" index="$5XWr">
        <reference id="6733348108486823428" name="concept" index="1m5ApE" />
        <child id="6733348108486823193" name="leftExpression" index="1m5AlR" />
      </concept>
      <concept id="1139613262185" name="jetbrains.mps.lang.smodel.structure.Node_GetParentOperation" flags="nn" index="1mfA1w" />
      <concept id="1172008320231" name="jetbrains.mps.lang.smodel.structure.Node_IsNotNullOperation" flags="nn" index="3x8VRR" />
      <concept id="1140137987495" name="jetbrains.mps.lang.smodel.structure.SNodeTypeCastExpression" flags="nn" index="1PxgMI">
        <property id="1238684351431" name="asCast" index="1BlNFB" />
      </concept>
      <concept id="1138055754698" name="jetbrains.mps.lang.smodel.structure.SNodeType" flags="in" index="3Tqbb2">
        <reference id="1138405853777" name="concept" index="ehGHo" />
      </concept>
      <concept id="1138056022639" name="jetbrains.mps.lang.smodel.structure.SPropertyAccess" flags="nn" index="3TrcHB">
        <reference id="1138056395725" name="property" index="3TsBF5" />
      </concept>
      <concept id="1138056143562" name="jetbrains.mps.lang.smodel.structure.SLinkAccess" flags="nn" index="3TrEf2">
        <reference id="1138056516764" name="link" index="3Tt5mk" />
      </concept>
      <concept id="1138056282393" name="jetbrains.mps.lang.smodel.structure.SLinkListAccess" flags="nn" index="3Tsc0h">
        <reference id="1138056546658" name="link" index="3TtcxE" />
      </concept>
      <concept id="1172420572800" name="jetbrains.mps.lang.smodel.structure.ConceptNodeType" flags="in" index="3THzug">
        <reference id="1180481110358" name="conceptDeclaraton" index="3qa414" />
      </concept>
      <concept id="1172424058054" name="jetbrains.mps.lang.smodel.structure.ConceptRefExpression" flags="nn" index="3TUQnm">
        <reference id="1172424100906" name="conceptDeclaration" index="3TV0OU" />
      </concept>
    </language>
    <language id="ceab5195-25ea-4f22-9b92-103b95ca8c0c" name="jetbrains.mps.lang.core">
      <concept id="1133920641626" name="jetbrains.mps.lang.core.structure.BaseConcept" flags="ng" index="2VYdi">
        <property id="1193676396447" name="virtualPackage" index="3GE5qa" />
      </concept>
      <concept id="1169194658468" name="jetbrains.mps.lang.core.structure.INamedConcept" flags="ng" index="TrEIO">
        <property id="1169194664001" name="name" index="TrG5h" />
      </concept>
    </language>
    <language id="83888646-71ce-4f1c-9c53-c54016f6ad4f" name="jetbrains.mps.baseLanguage.collections">
      <concept id="1204796164442" name="jetbrains.mps.baseLanguage.collections.structure.InternalSequenceOperation" flags="nn" index="23sCx2">
        <child id="1204796294226" name="closure" index="23t8la" />
      </concept>
      <concept id="540871147943773365" name="jetbrains.mps.baseLanguage.collections.structure.SingleArgumentSequenceOperation" flags="nn" index="25WWJ4">
        <child id="540871147943773366" name="argument" index="25WWJ7" />
      </concept>
      <concept id="1151688443754" name="jetbrains.mps.baseLanguage.collections.structure.ListType" flags="in" index="_YKpA">
        <child id="1151688676805" name="elementType" index="_ZDj9" />
      </concept>
      <concept id="1151702311717" name="jetbrains.mps.baseLanguage.collections.structure.ToListOperation" flags="nn" index="ANE8D" />
      <concept id="1237721394592" name="jetbrains.mps.baseLanguage.collections.structure.AbstractContainerCreator" flags="nn" index="HWqM0">
        <child id="1237721435807" name="elementType" index="HW$YZ" />
      </concept>
      <concept id="1203518072036" name="jetbrains.mps.baseLanguage.collections.structure.SmartClosureParameterDeclaration" flags="ig" index="Rh6nW" />
      <concept id="1160600644654" name="jetbrains.mps.baseLanguage.collections.structure.ListCreatorWithInit" flags="nn" index="Tc6Ow" />
      <concept id="1160612413312" name="jetbrains.mps.baseLanguage.collections.structure.AddElementOperation" flags="nn" index="TSZUe" />
      <concept id="1225727723840" name="jetbrains.mps.baseLanguage.collections.structure.FindFirstOperation" flags="nn" index="1z4cxt" />
      <concept id="1202128969694" name="jetbrains.mps.baseLanguage.collections.structure.SelectOperation" flags="nn" index="3$u5V9" />
    </language>
  </registry>
  <node concept="13h7C7" id="3g73hQq3LhO">
    <ref role="13h7C2" to="gbdf:WK6Z46CMrx" resolve="CellModel_DiagramNode" />
    <node concept="13hLZK" id="3g73hQq3Lkf" role="13h7CW">
      <node concept="3clFbS" id="3g73hQq3Lkg" role="2VODD2" />
    </node>
    <node concept="13i0hz" id="6cpoq00ZsmI" role="13h7CS">
      <property role="TrG5h" value="getOpeningText" />
      <property role="13i0it" value="false" />
      <property role="13i0iv" value="false" />
      <ref role="13i0hy" to="tpcb:hKxU$w9" resolve="getOpeningText" />
      <node concept="3Tm1VV" id="6cpoq00ZsmJ" role="1B3o_S" />
      <node concept="17QB3L" id="6cpoq00ZsmP" role="3clF45" />
      <node concept="3clFbS" id="6cpoq00ZtrM" role="3clF47">
        <node concept="3cpWs6" id="6cpoq00ZtrL" role="3cqZAp">
          <node concept="Xl_RD" id="6cpoq00ZtrV" role="3cqZAk">
            <property role="Xl_RC" value="{" />
          </node>
        </node>
      </node>
    </node>
    <node concept="13i0hz" id="6cpoq00Ztsx" role="13h7CS">
      <property role="TrG5h" value="getClosingText" />
      <property role="13i0it" value="false" />
      <property role="13i0iv" value="false" />
      <ref role="13i0hy" to="tpcb:hKxUEwj" resolve="getClosingText" />
      <node concept="3Tm1VV" id="6cpoq00Ztsy" role="1B3o_S" />
      <node concept="3clFbS" id="6cpoq00ZtsB" role="3clF47">
        <node concept="3cpWs6" id="6cpoq00ZtZh" role="3cqZAp">
          <node concept="Xl_RD" id="6cpoq00ZtZp" role="3cqZAk">
            <property role="Xl_RC" value="}" />
          </node>
        </node>
      </node>
      <node concept="17QB3L" id="6cpoq00ZtsC" role="3clF45" />
    </node>
    <node concept="13i0hz" id="3wXm3h1Bk$w" role="13h7CS">
      <property role="13i0iv" value="false" />
      <property role="13i0it" value="false" />
      <property role="TrG5h" value="canBeSynchronized" />
      <ref role="13i0hy" to="tpcb:3wXm3h1AYM7" resolve="canBeSynchronized" />
      <node concept="3Tm1VV" id="3wXm3h1Bk$x" role="1B3o_S" />
      <node concept="3clFbS" id="3wXm3h1Bk$$" role="3clF47">
        <node concept="3clFbF" id="3wXm3h1Bk$B" role="3cqZAp">
          <node concept="3clFbT" id="3wXm3h1Bk$A" role="3clFbG">
            <property role="3clFbU" value="true" />
          </node>
        </node>
      </node>
      <node concept="10P_77" id="3wXm3h1Bk$_" role="3clF45" />
    </node>
    <node concept="13i0hz" id="3TPTV99Ae$e" role="13h7CS">
      <property role="13i0iv" value="false" />
      <property role="13i0it" value="false" />
      <property role="TrG5h" value="shellBeSynchronized" />
      <ref role="13i0hy" to="tpcb:3TPTV99_TMT" resolve="shellBeSynchronized" />
      <node concept="3Tm1VV" id="3TPTV99Ae$f" role="1B3o_S" />
      <node concept="3clFbS" id="3TPTV99Ae$i" role="3clF47">
        <node concept="3clFbF" id="3TPTV99Ae$l" role="3cqZAp">
          <node concept="3clFbT" id="3TPTV99Ae$k" role="3clFbG">
            <property role="3clFbU" value="true" />
          </node>
        </node>
      </node>
      <node concept="10P_77" id="3TPTV99Ae$j" role="3clF45" />
    </node>
  </node>
  <node concept="13h7C7" id="3g73hQq6y4W">
    <ref role="13h7C2" to="gbdf:WK6Z46DXv7" resolve="FigureParameterMapping" />
    <node concept="13hLZK" id="3g73hQq6y4X" role="13h7CW">
      <node concept="3clFbS" id="3g73hQq6y4Y" role="2VODD2" />
    </node>
    <node concept="13i0hz" id="1iN4mn3k5m3" role="13h7CS">
      <property role="TrG5h" value="getDiagramNodeCell" />
      <node concept="3Tm1VV" id="1iN4mn3k5ou" role="1B3o_S" />
      <node concept="3Tqbb2" id="1iN4mn3k6mt" role="3clF45">
        <ref role="ehGHo" to="gbdf:WK6Z46CMrx" resolve="CellModel_DiagramNode" />
      </node>
      <node concept="3clFbS" id="1iN4mn3k5ow" role="3clF47">
        <node concept="3cpWs6" id="1iN4mn3k6t6" role="3cqZAp">
          <node concept="1PxgMI" id="1iN4mn3k7tu" role="3cqZAk">
            <ref role="1m5ApE" to="gbdf:WK6Z46CMrx" resolve="CellModel_DiagramNode" />
            <node concept="2OqwBi" id="1iN4mn3k6xl" role="1m5AlR">
              <node concept="13iPFW" id="1iN4mn3k6tt" role="2Oq$k0" />
              <node concept="1mfA1w" id="1iN4mn3k6Yo" role="2OqNvi" />
            </node>
          </node>
        </node>
      </node>
    </node>
    <node concept="13i0hz" id="3$rM_t_1zAw" role="13h7CS">
      <property role="TrG5h" value="getParameterDeclaration" />
      <node concept="3Tm1VV" id="3$rM_t_1zAx" role="1B3o_S" />
      <node concept="3Tqbb2" id="3$rM_t_1zD_" role="3clF45">
        <ref role="ehGHo" to="ny2:iZqVFYvB5l" resolve="FigureParameter" />
      </node>
      <node concept="3clFbS" id="3$rM_t_1zAz" role="3clF47">
        <node concept="3clFbF" id="1iN4mn3oaWg" role="3cqZAp">
          <node concept="2OqwBi" id="1iN4mn3p9FM" role="3clFbG">
            <node concept="2OqwBi" id="1iN4mn3oc5G" role="2Oq$k0">
              <node concept="2OqwBi" id="1iN4mn3ob0$" role="2Oq$k0">
                <node concept="13iPFW" id="3$rM_t_1$z3" role="2Oq$k0" />
                <node concept="2qgKlT" id="1iN4mn3obXn" role="2OqNvi">
                  <ref role="37wK5l" node="1iN4mn3k5m3" resolve="getDiagramNodeCell" />
                </node>
              </node>
              <node concept="3TrEf2" id="1iN4mn3oeXL" role="2OqNvi">
                <ref role="3Tt5mk" to="gbdf:WK6Z46CMBp" />
              </node>
            </node>
            <node concept="2qgKlT" id="1iN4mn3pasS" role="2OqNvi">
              <ref role="37wK5l" node="1iN4mn3oxt8" resolve="getFigureParameter" />
              <node concept="2OqwBi" id="1iN4mn3paBn" role="37wK5m">
                <node concept="13iPFW" id="3$rM_t_1$Aw" role="2Oq$k0" />
                <node concept="3TrcHB" id="1iN4mn3pbCl" role="2OqNvi">
                  <ref role="3TsBF5" to="tpck:h0TrG11" resolve="name" />
                </node>
              </node>
            </node>
          </node>
        </node>
      </node>
    </node>
  </node>
  <node concept="13h7C7" id="7dXLKi1qzai">
    <property role="3GE5qa" value="figureRefs" />
    <ref role="13h7C2" to="gbdf:WK6Z46D_nb" resolve="ExternalFigureReference" />
    <node concept="13hLZK" id="7dXLKi1q__t" role="13h7CW">
      <node concept="3clFbS" id="7dXLKi1q__u" role="2VODD2" />
    </node>
    <node concept="13i0hz" id="1iN4mn3lXkC" role="13h7CS">
      <property role="TrG5h" value="getFigureParameterNames" />
      <property role="13i0it" value="false" />
      <property role="13i0iv" value="false" />
      <ref role="13i0hy" node="1iN4mn3lWCq" resolve="getFigureParameterNames" />
      <node concept="3Tm1VV" id="1iN4mn3lXkD" role="1B3o_S" />
      <node concept="3clFbS" id="1iN4mn3lXkH" role="3clF47">
        <node concept="3cpWs6" id="1iN4mn3lZAa" role="3cqZAp">
          <node concept="2OqwBi" id="4H19mAwTFjG" role="3cqZAk">
            <node concept="2OqwBi" id="1iN4mn3mlDu" role="2Oq$k0">
              <node concept="2OqwBi" id="1iN4mn3m818" role="2Oq$k0">
                <node concept="2OqwBi" id="1iN4mn3m3IE" role="2Oq$k0">
                  <node concept="13iPFW" id="1iN4mn3m3Ar" role="2Oq$k0" />
                  <node concept="3TrEf2" id="1iN4mn3m4Hl" role="2OqNvi">
                    <ref role="3Tt5mk" to="gbdf:WK6Z46D_sj" />
                  </node>
                </node>
                <node concept="3Tsc0h" id="1iN4mn3mb2o" role="2OqNvi">
                  <ref role="3TtcxE" to="ny2:1SVBbIvt9h0" />
                </node>
              </node>
              <node concept="3$u5V9" id="1iN4mn3m_VY" role="2OqNvi">
                <node concept="1bVj0M" id="1iN4mn3m_W0" role="23t8la">
                  <node concept="3clFbS" id="1iN4mn3m_W1" role="1bW5cS">
                    <node concept="3clFbF" id="1iN4mn3mAcP" role="3cqZAp">
                      <node concept="2OqwBi" id="1iN4mn3mAn1" role="3clFbG">
                        <node concept="37vLTw" id="1iN4mn3mAcO" role="2Oq$k0">
                          <ref role="3cqZAo" node="1iN4mn3m_W2" resolve="it" />
                        </node>
                        <node concept="3TrcHB" id="1iN4mn3mBnB" role="2OqNvi">
                          <ref role="3TsBF5" to="tpck:h0TrG11" resolve="name" />
                        </node>
                      </node>
                    </node>
                  </node>
                  <node concept="Rh6nW" id="1iN4mn3m_W2" role="1bW2Oz">
                    <property role="TrG5h" value="it" />
                    <node concept="2jxLKc" id="1iN4mn3m_W3" role="1tU5fm" />
                  </node>
                </node>
              </node>
            </node>
            <node concept="ANE8D" id="4H19mAwTH1R" role="2OqNvi" />
          </node>
        </node>
      </node>
      <node concept="_YKpA" id="1iN4mn3lXkI" role="3clF45">
        <node concept="17QB3L" id="1iN4mn3lXkJ" role="_ZDj9" />
      </node>
    </node>
    <node concept="13i0hz" id="1iN4mn3oyAU" role="13h7CS">
      <property role="TrG5h" value="getFigureParameter" />
      <property role="13i0it" value="false" />
      <property role="13i0iv" value="false" />
      <ref role="13i0hy" node="1iN4mn3oxt8" resolve="getFigureParameter" />
      <node concept="3Tm1VV" id="1iN4mn3oyAX" role="1B3o_S" />
      <node concept="3clFbS" id="1iN4mn3oyB0" role="3clF47">
        <node concept="3clFbF" id="1iN4mn3oyEQ" role="3cqZAp">
          <node concept="2OqwBi" id="1iN4mn3oAEH" role="3clFbG">
            <node concept="2OqwBi" id="1iN4mn3ozG$" role="2Oq$k0">
              <node concept="2OqwBi" id="1iN4mn3oyI$" role="2Oq$k0">
                <node concept="13iPFW" id="1iN4mn3oyEP" role="2Oq$k0" />
                <node concept="3TrEf2" id="1iN4mn3ozbv" role="2OqNvi">
                  <ref role="3Tt5mk" to="gbdf:WK6Z46D_sj" />
                </node>
              </node>
              <node concept="3Tsc0h" id="1iN4mn3o$BY" role="2OqNvi">
                <ref role="3TtcxE" to="ny2:1SVBbIvt9h0" />
              </node>
            </node>
            <node concept="1z4cxt" id="1iN4mn3oHMd" role="2OqNvi">
              <node concept="1bVj0M" id="1iN4mn3oHMf" role="23t8la">
                <node concept="3clFbS" id="1iN4mn3oHMg" role="1bW5cS">
                  <node concept="3clFbF" id="1iN4mn3oHXx" role="3cqZAp">
                    <node concept="17R0WA" id="1iN4mn3oKrg" role="3clFbG">
                      <node concept="37vLTw" id="1iN4mn3oKDe" role="3uHU7w">
                        <ref role="3cqZAo" node="1iN4mn3oyB1" resolve="name" />
                      </node>
                      <node concept="2OqwBi" id="1iN4mn3oI5Q" role="3uHU7B">
                        <node concept="37vLTw" id="1iN4mn3oHXw" role="2Oq$k0">
                          <ref role="3cqZAo" node="1iN4mn3oHMh" resolve="it" />
                        </node>
                        <node concept="3TrcHB" id="1iN4mn3oIYF" role="2OqNvi">
                          <ref role="3TsBF5" to="tpck:h0TrG11" resolve="name" />
                        </node>
                      </node>
                    </node>
                  </node>
                </node>
                <node concept="Rh6nW" id="1iN4mn3oHMh" role="1bW2Oz">
                  <property role="TrG5h" value="it" />
                  <node concept="2jxLKc" id="1iN4mn3oHMi" role="1tU5fm" />
                </node>
              </node>
            </node>
          </node>
        </node>
      </node>
      <node concept="37vLTG" id="1iN4mn3oyB1" role="3clF46">
        <property role="TrG5h" value="name" />
        <node concept="17QB3L" id="1iN4mn3oyB2" role="1tU5fm" />
      </node>
      <node concept="3Tqbb2" id="1iN4mn3oyB3" role="3clF45">
        <ref role="ehGHo" to="ny2:iZqVFYvB5l" resolve="FigureParameter" />
      </node>
    </node>
  </node>
  <node concept="13h7C7" id="7dXLKi1rxzw">
    <property role="3GE5qa" value="figureRefs" />
    <ref role="13h7C2" to="gbdf:WK6Z46CMBm" resolve="AbstractFigureReference" />
    <node concept="13i0hz" id="1iN4mn3lWCq" role="13h7CS">
      <property role="TrG5h" value="getFigureParameterNames" />
      <property role="13i0it" value="true" />
      <property role="13i0iv" value="true" />
      <node concept="3Tm1VV" id="1iN4mn3lWCr" role="1B3o_S" />
      <node concept="_YKpA" id="1iN4mn3lWCC" role="3clF45">
        <node concept="17QB3L" id="1iN4mn3lWCI" role="_ZDj9" />
      </node>
      <node concept="3clFbS" id="1iN4mn3lWCt" role="3clF47" />
    </node>
    <node concept="13i0hz" id="1iN4mn3oxt8" role="13h7CS">
      <property role="TrG5h" value="getFigureParameter" />
      <property role="13i0it" value="true" />
      <property role="13i0iv" value="true" />
      <node concept="37vLTG" id="1iN4mn3oxxu" role="3clF46">
        <property role="TrG5h" value="name" />
        <node concept="17QB3L" id="1iN4mn3oxxA" role="1tU5fm" />
      </node>
      <node concept="3Tm1VV" id="1iN4mn3oxt9" role="1B3o_S" />
      <node concept="3Tqbb2" id="1iN4mn3oxxr" role="3clF45">
        <ref role="ehGHo" to="ny2:iZqVFYvB5l" resolve="FigureParameter" />
      </node>
      <node concept="3clFbS" id="1iN4mn3oxtb" role="3clF47" />
    </node>
    <node concept="13hLZK" id="7dXLKi1rxzx" role="13h7CW">
      <node concept="3clFbS" id="7dXLKi1rxzy" role="2VODD2" />
    </node>
  </node>
  <node concept="13h7C7" id="6cpoq00Zu0m">
    <ref role="13h7C2" to="gbdf:5u6$4zsyvJR" resolve="CellModel_Diagram" />
    <node concept="13hLZK" id="6cpoq00Zu0n" role="13h7CW">
      <node concept="3clFbS" id="6cpoq00Zu0o" role="2VODD2" />
    </node>
    <node concept="13i0hz" id="6cpoq00Zu0p" role="13h7CS">
      <property role="TrG5h" value="getOpeningText" />
      <property role="13i0it" value="false" />
      <property role="13i0iv" value="false" />
      <ref role="13i0hy" to="tpcb:hKxU$w9" resolve="getOpeningText" />
      <node concept="3Tm1VV" id="6cpoq00Zu0q" role="1B3o_S" />
      <node concept="3clFbS" id="6cpoq00Zu0v" role="3clF47">
        <node concept="3cpWs6" id="6cpoq00Zu4j" role="3cqZAp">
          <node concept="Xl_RD" id="6cpoq00Zu6r" role="3cqZAk">
            <property role="Xl_RC" value="{" />
          </node>
        </node>
      </node>
      <node concept="17QB3L" id="6cpoq00Zu0w" role="3clF45" />
    </node>
    <node concept="13i0hz" id="6cpoq00Zu0_" role="13h7CS">
      <property role="TrG5h" value="getClosingText" />
      <property role="13i0it" value="false" />
      <property role="13i0iv" value="false" />
      <ref role="13i0hy" to="tpcb:hKxUEwj" resolve="getClosingText" />
      <node concept="3Tm1VV" id="6cpoq00Zu0A" role="1B3o_S" />
      <node concept="3clFbS" id="6cpoq00Zu0F" role="3clF47">
        <node concept="3cpWs6" id="6cpoq00Zu7F" role="3cqZAp">
          <node concept="Xl_RD" id="6cpoq00Zu7N" role="3cqZAk">
            <property role="Xl_RC" value="}" />
          </node>
        </node>
      </node>
      <node concept="17QB3L" id="6cpoq00Zu0G" role="3clF45" />
    </node>
    <node concept="13i0hz" id="3wXm3h1Biuz" role="13h7CS">
      <property role="13i0iv" value="false" />
      <property role="13i0it" value="false" />
      <property role="TrG5h" value="canBeSynchronized" />
      <ref role="13i0hy" to="tpcb:3wXm3h1AYM7" resolve="canBeSynchronized" />
      <node concept="3Tm1VV" id="3wXm3h1Biu$" role="1B3o_S" />
      <node concept="3clFbS" id="3wXm3h1BiuB" role="3clF47">
        <node concept="3clFbF" id="3wXm3h1BiuE" role="3cqZAp">
          <node concept="3clFbT" id="3wXm3h1BiuD" role="3clFbG">
            <property role="3clFbU" value="true" />
          </node>
        </node>
      </node>
      <node concept="10P_77" id="3wXm3h1BiuC" role="3clF45" />
    </node>
    <node concept="13i0hz" id="3TPTV99Ae5y" role="13h7CS">
      <property role="13i0iv" value="false" />
      <property role="13i0it" value="false" />
      <property role="TrG5h" value="shellBeSynchronized" />
      <ref role="13i0hy" to="tpcb:3TPTV99_TMT" resolve="shellBeSynchronized" />
      <node concept="3Tm1VV" id="3TPTV99Ae5z" role="1B3o_S" />
      <node concept="3clFbS" id="3TPTV99Ae5A" role="3clF47">
        <node concept="3clFbF" id="3TPTV99Ae5D" role="3cqZAp">
          <node concept="3clFbT" id="3TPTV99Ae5C" role="3clFbG">
            <property role="3clFbU" value="true" />
          </node>
        </node>
      </node>
      <node concept="10P_77" id="3TPTV99Ae5B" role="3clF45" />
    </node>
  </node>
  <node concept="13h7C7" id="6cpoq00Zu8H">
    <ref role="13h7C2" to="gbdf:5yk3CzNVRj9" resolve="CellModel_DiagramConnector" />
    <node concept="13hLZK" id="6cpoq00Zu8I" role="13h7CW">
      <node concept="3clFbS" id="6cpoq00Zu8J" role="2VODD2" />
    </node>
    <node concept="13i0hz" id="6cpoq00Zu8K" role="13h7CS">
      <property role="TrG5h" value="getOpeningText" />
      <property role="13i0it" value="false" />
      <property role="13i0iv" value="false" />
      <ref role="13i0hy" to="tpcb:hKxU$w9" resolve="getOpeningText" />
      <node concept="3Tm1VV" id="6cpoq00Zu8L" role="1B3o_S" />
      <node concept="3clFbS" id="6cpoq00Zu8Q" role="3clF47">
        <node concept="3cpWs6" id="6cpoq00ZucE" role="3cqZAp">
          <node concept="Xl_RD" id="6cpoq00Zuex" role="3cqZAk">
            <property role="Xl_RC" value="{" />
          </node>
        </node>
      </node>
      <node concept="17QB3L" id="6cpoq00Zu8R" role="3clF45" />
    </node>
    <node concept="13i0hz" id="6cpoq00Zu8W" role="13h7CS">
      <property role="TrG5h" value="getClosingText" />
      <property role="13i0it" value="false" />
      <property role="13i0iv" value="false" />
      <ref role="13i0hy" to="tpcb:hKxUEwj" resolve="getClosingText" />
      <node concept="3Tm1VV" id="6cpoq00Zu8X" role="1B3o_S" />
      <node concept="3clFbS" id="6cpoq00Zu92" role="3clF47">
        <node concept="3cpWs6" id="6cpoq00Zufd" role="3cqZAp">
          <node concept="Xl_RD" id="6cpoq00Zufl" role="3cqZAk">
            <property role="Xl_RC" value="}" />
          </node>
        </node>
      </node>
      <node concept="17QB3L" id="6cpoq00Zu93" role="3clF45" />
    </node>
    <node concept="13i0hz" id="3wXm3h1BjBk" role="13h7CS">
      <property role="13i0iv" value="false" />
      <property role="13i0it" value="false" />
      <property role="TrG5h" value="canBeSynchronized" />
      <ref role="13i0hy" to="tpcb:3wXm3h1AYM7" resolve="canBeSynchronized" />
      <node concept="3Tm1VV" id="3wXm3h1BjBl" role="1B3o_S" />
      <node concept="3clFbS" id="3wXm3h1BjBo" role="3clF47">
        <node concept="3clFbF" id="3wXm3h1BjBr" role="3cqZAp">
          <node concept="3clFbT" id="3wXm3h1BjBq" role="3clFbG">
            <property role="3clFbU" value="true" />
          </node>
        </node>
      </node>
      <node concept="10P_77" id="3wXm3h1BjBp" role="3clF45" />
    </node>
    <node concept="13i0hz" id="3TPTV99Aesv" role="13h7CS">
      <property role="13i0iv" value="false" />
      <property role="13i0it" value="false" />
      <property role="TrG5h" value="shellBeSynchronized" />
      <ref role="13i0hy" to="tpcb:3TPTV99_TMT" resolve="shellBeSynchronized" />
      <node concept="3Tm1VV" id="3TPTV99Aesw" role="1B3o_S" />
      <node concept="3clFbS" id="3TPTV99Aesz" role="3clF47">
        <node concept="3clFbF" id="3TPTV99AesA" role="3cqZAp">
          <node concept="3clFbT" id="3TPTV99Aes_" role="3clFbG">
            <property role="3clFbU" value="true" />
          </node>
        </node>
      </node>
      <node concept="10P_77" id="3TPTV99Aes$" role="3clF45" />
    </node>
  </node>
  <node concept="13h7C7" id="4H19mAwT31V">
    <property role="3GE5qa" value="figureRefs" />
    <ref role="13h7C2" to="gbdf:4H19mAw_rje" resolve="AttributedFigureReference" />
    <node concept="13hLZK" id="4H19mAwT31W" role="13h7CW">
      <node concept="3clFbS" id="4H19mAwT31X" role="2VODD2" />
    </node>
    <node concept="13i0hz" id="4H19mAwT36L" role="13h7CS">
      <property role="TrG5h" value="getFigureParameterNames" />
      <property role="13i0it" value="false" />
      <property role="13i0iv" value="false" />
      <ref role="13i0hy" node="1iN4mn3lWCq" resolve="getFigureParameterNames" />
      <node concept="_YKpA" id="4H19mAwT36R" role="3clF45">
        <node concept="17QB3L" id="4H19mAwT36S" role="_ZDj9" />
      </node>
      <node concept="3Tm1VV" id="4H19mAwT36M" role="1B3o_S" />
      <node concept="3clFbS" id="4H19mAwT36Q" role="3clF47">
        <node concept="3clFbF" id="4H19mAwTdBe" role="3cqZAp">
          <node concept="2OqwBi" id="4H19mAwT_Db" role="3clFbG">
            <node concept="2OqwBi" id="4H19mAwThET" role="2Oq$k0">
              <node concept="2OqwBi" id="4H19mAwTf9H" role="2Oq$k0">
                <node concept="2OqwBi" id="4H19mAwTdGe" role="2Oq$k0">
                  <node concept="13iPFW" id="4H19mAwTdBc" role="2Oq$k0" />
                  <node concept="3TrEf2" id="4H19mAwTeAY" role="2OqNvi">
                    <ref role="3Tt5mk" to="gbdf:4H19mAwT311" />
                  </node>
                </node>
                <node concept="2qgKlT" id="4H19mAwTgkJ" role="2OqNvi">
                  <ref role="37wK5l" to="vtq6:4H19mAwT3wD" resolve="getPrameterAttributes" />
                </node>
              </node>
              <node concept="3$u5V9" id="4H19mAwTrLY" role="2OqNvi">
                <node concept="1bVj0M" id="4H19mAwTrM0" role="23t8la">
                  <node concept="3clFbS" id="4H19mAwTrM1" role="1bW5cS">
                    <node concept="3clFbF" id="4H19mAwTs3l" role="3cqZAp">
                      <node concept="2OqwBi" id="4H19mAwTuID" role="3clFbG">
                        <node concept="1PxgMI" id="1NIE5SZPqWz" role="2Oq$k0">
                          <ref role="1m5ApE" to="tpck:h0TrEE$" resolve="INamedConcept" />
                          <node concept="2OqwBi" id="4H19mAwTsew" role="1m5AlR">
                            <node concept="37vLTw" id="4H19mAwTs3k" role="2Oq$k0">
                              <ref role="3cqZAo" node="4H19mAwTrM2" resolve="it" />
                            </node>
                            <node concept="2qgKlT" id="4H19mAwTu8j" role="2OqNvi">
                              <ref role="37wK5l" to="vtq6:4H19mAwT7Py" resolve="getParameterMember" />
                            </node>
                          </node>
                        </node>
                        <node concept="3TrcHB" id="1NIE5SZPrOV" role="2OqNvi">
                          <ref role="3TsBF5" to="tpck:h0TrG11" resolve="name" />
                        </node>
                      </node>
                    </node>
                  </node>
                  <node concept="Rh6nW" id="4H19mAwTrM2" role="1bW2Oz">
                    <property role="TrG5h" value="it" />
                    <node concept="2jxLKc" id="4H19mAwTrM3" role="1tU5fm" />
                  </node>
                </node>
              </node>
            </node>
            <node concept="ANE8D" id="4H19mAwTBpb" role="2OqNvi" />
          </node>
        </node>
      </node>
    </node>
    <node concept="13i0hz" id="4H19mAwT36T" role="13h7CS">
      <property role="TrG5h" value="getFigureParameter" />
      <property role="13i0it" value="false" />
      <property role="13i0iv" value="false" />
      <ref role="13i0hy" node="1iN4mn3oxt8" resolve="getFigureParameter" />
      <node concept="3Tm1VV" id="4H19mAwT36W" role="1B3o_S" />
      <node concept="3clFbS" id="4H19mAwT36Z" role="3clF47">
        <node concept="3clFbF" id="4H19mAwTI6n" role="3cqZAp">
          <node concept="2OqwBi" id="4H19mAwTI6p" role="3clFbG">
            <node concept="2OqwBi" id="4H19mAwTI6r" role="2Oq$k0">
              <node concept="2OqwBi" id="4H19mAwTI6s" role="2Oq$k0">
                <node concept="13iPFW" id="4H19mAwTI6t" role="2Oq$k0" />
                <node concept="3TrEf2" id="4H19mAwTI6u" role="2OqNvi">
                  <ref role="3Tt5mk" to="gbdf:4H19mAwT311" />
                </node>
              </node>
              <node concept="2qgKlT" id="4H19mAwTI6v" role="2OqNvi">
                <ref role="37wK5l" to="vtq6:4H19mAwT3wD" resolve="getPrameterAttributes" />
              </node>
            </node>
            <node concept="1z4cxt" id="4H19mAwTTcK" role="2OqNvi">
              <node concept="1bVj0M" id="4H19mAwTTcM" role="23t8la">
                <node concept="3clFbS" id="4H19mAwTTcN" role="1bW5cS">
                  <node concept="3clFbF" id="4H19mAwTTpZ" role="3cqZAp">
                    <node concept="17R0WA" id="4H19mAwU90A" role="3clFbG">
                      <node concept="2OqwBi" id="4H19mAwTV5E" role="3uHU7B">
                        <node concept="1PxgMI" id="1NIE5SZPsak" role="2Oq$k0">
                          <ref role="1m5ApE" to="tpck:h0TrEE$" resolve="INamedConcept" />
                          <node concept="2OqwBi" id="4H19mAwTTzt" role="1m5AlR">
                            <node concept="37vLTw" id="4H19mAwTTpY" role="2Oq$k0">
                              <ref role="3cqZAo" node="4H19mAwTTcO" resolve="it" />
                            </node>
                            <node concept="2qgKlT" id="4H19mAwTU_D" role="2OqNvi">
                              <ref role="37wK5l" to="vtq6:4H19mAwT7Py" resolve="getParameterMember" />
                            </node>
                          </node>
                        </node>
                        <node concept="3TrcHB" id="1NIE5SZPsWh" role="2OqNvi">
                          <ref role="3TsBF5" to="tpck:h0TrG11" resolve="name" />
                        </node>
                      </node>
                      <node concept="37vLTw" id="4H19mAwU9kE" role="3uHU7w">
                        <ref role="3cqZAo" node="4H19mAwT370" resolve="name" />
                      </node>
                    </node>
                  </node>
                </node>
                <node concept="Rh6nW" id="4H19mAwTTcO" role="1bW2Oz">
                  <property role="TrG5h" value="it" />
                  <node concept="2jxLKc" id="4H19mAwTTcP" role="1tU5fm" />
                </node>
              </node>
            </node>
          </node>
        </node>
      </node>
      <node concept="37vLTG" id="4H19mAwT370" role="3clF46">
        <property role="TrG5h" value="name" />
        <node concept="17QB3L" id="4H19mAwT371" role="1tU5fm" />
      </node>
      <node concept="3Tqbb2" id="4H19mAwT372" role="3clF45">
        <ref role="ehGHo" to="ny2:iZqVFYvB5l" resolve="FigureParameter" />
      </node>
    </node>
  </node>
  <node concept="13h7C7" id="7rLMM2UtW4A">
    <property role="3GE5qa" value="creation" />
    <ref role="13h7C2" to="gbdf:7rLMM2UtMrR" resolve="DiagramElementCreationHandler" />
    <node concept="13i0hz" id="1KBnK_b_4tJ" role="13h7CS">
      <property role="13i0iv" value="false" />
      <property role="13i0is" value="false" />
      <property role="TrG5h" value="getParameters" />
      <property role="13i0it" value="false" />
      <ref role="13i0hy" to="tpek:hEwIGRM" resolve="getParameters" />
      <node concept="_YKpA" id="1KBnK_b_4tK" role="3clF45">
        <node concept="3THzug" id="1KBnK_b_4tL" role="_ZDj9">
          <ref role="3qa414" to="tpee:g76ryKb" resolve="ConceptFunctionParameter" />
        </node>
      </node>
      <node concept="3Tm1VV" id="1KBnK_b_4un" role="1B3o_S" />
      <node concept="3clFbS" id="1KBnK_b_4uo" role="3clF47">
        <node concept="3cpWs8" id="1KBnK_b_hcU" role="3cqZAp">
          <node concept="3cpWsn" id="1KBnK_b_hcV" role="3cpWs9">
            <property role="TrG5h" value="result" />
            <node concept="2ShNRf" id="1KBnK_b_hcW" role="33vP2m">
              <node concept="Tc6Ow" id="1KBnK_b_hcX" role="2ShVmc">
                <node concept="3THzug" id="1KBnK_b_hcY" role="HW$YZ">
                  <ref role="3qa414" to="tpee:g76ryKb" resolve="ConceptFunctionParameter" />
                </node>
              </node>
            </node>
            <node concept="_YKpA" id="1KBnK_b_hcZ" role="1tU5fm">
              <node concept="3THzug" id="1KBnK_b_hd0" role="_ZDj9">
                <ref role="3qa414" to="tpee:g76ryKb" resolve="ConceptFunctionParameter" />
              </node>
            </node>
          </node>
        </node>
        <node concept="3clFbF" id="1KBnK_b_hd6" role="3cqZAp">
          <node concept="2OqwBi" id="1KBnK_b_hd7" role="3clFbG">
            <node concept="TSZUe" id="1KBnK_b_hd8" role="2OqNvi">
              <node concept="3TUQnm" id="1KBnK_b_hd9" role="25WWJ7">
                <ref role="3TV0OU" to="gbdf:7rLMM2UuwVu" resolve="NodeFunctionParameter" />
              </node>
            </node>
            <node concept="37vLTw" id="1KBnK_b_hda" role="2Oq$k0">
              <ref role="3cqZAo" node="1KBnK_b_hcV" resolve="result" />
            </node>
          </node>
        </node>
        <node concept="3clFbF" id="1KBnK_b_hd1" role="3cqZAp">
          <node concept="2OqwBi" id="1KBnK_b_hd2" role="3clFbG">
            <node concept="TSZUe" id="1KBnK_b_hd3" role="2OqNvi">
              <node concept="3TUQnm" id="1KBnK_b_hd4" role="25WWJ7">
                <ref role="3TV0OU" to="gbdf:7rLMM2UuwVy" resolve="XFunctionParameter" />
              </node>
            </node>
            <node concept="37vLTw" id="1KBnK_b_hd5" role="2Oq$k0">
              <ref role="3cqZAo" node="1KBnK_b_hcV" resolve="result" />
            </node>
          </node>
        </node>
        <node concept="3clFbF" id="7rLMM2UuxjW" role="3cqZAp">
          <node concept="2OqwBi" id="7rLMM2UuxjX" role="3clFbG">
            <node concept="TSZUe" id="7rLMM2UuxjY" role="2OqNvi">
              <node concept="3TUQnm" id="7rLMM2UuxjZ" role="25WWJ7">
                <ref role="3TV0OU" to="gbdf:7rLMM2UuwVn" resolve="YFunctionParameter" />
              </node>
            </node>
            <node concept="37vLTw" id="7rLMM2Uuxk0" role="2Oq$k0">
              <ref role="3cqZAo" node="1KBnK_b_hcV" resolve="result" />
            </node>
          </node>
        </node>
        <node concept="3cpWs6" id="1KBnK_b_hdb" role="3cqZAp">
          <node concept="37vLTw" id="1KBnK_b_hdc" role="3cqZAk">
            <ref role="3cqZAo" node="1KBnK_b_hcV" resolve="result" />
          </node>
        </node>
        <node concept="3clFbH" id="1KBnK_b_goZ" role="3cqZAp" />
      </node>
    </node>
    <node concept="13i0hz" id="1KBnK_b_mih" role="13h7CS">
      <property role="13i0iv" value="false" />
      <property role="13i0is" value="false" />
      <property role="TrG5h" value="getExpectedReturnType" />
      <property role="13i0it" value="false" />
      <ref role="13i0hy" to="tpek:hEwIGRD" resolve="getExpectedReturnType" />
      <node concept="3Tm1VV" id="1KBnK_b_mip" role="1B3o_S" />
      <node concept="3Tqbb2" id="1KBnK_b_miq" role="3clF45" />
      <node concept="3clFbS" id="1KBnK_b_mir" role="3clF47">
        <node concept="3cpWs6" id="1KBnK_b_msK" role="3cqZAp">
          <node concept="2c44tf" id="1KBnK_b_msZ" role="3cqZAk">
            <node concept="3cqZAl" id="1KBnK_b_mtl" role="2c44tc" />
          </node>
        </node>
      </node>
    </node>
    <node concept="13hLZK" id="7rLMM2UtW6Y" role="13h7CW">
      <node concept="3clFbS" id="7rLMM2UtW6Z" role="2VODD2" />
    </node>
  </node>
  <node concept="13h7C7" id="ObbTRzsg4t">
    <property role="3GE5qa" value="creation" />
    <ref role="13h7C2" to="gbdf:ObbTRzsg1W" resolve="DiagramConnectorCreationHandler" />
    <node concept="13i0hz" id="ObbTRzsg4u" role="13h7CS">
      <property role="13i0iv" value="false" />
      <property role="13i0is" value="false" />
      <property role="TrG5h" value="getParameters" />
      <property role="13i0it" value="false" />
      <ref role="13i0hy" to="tpek:hEwIGRM" resolve="getParameters" />
      <node concept="_YKpA" id="ObbTRzsg4v" role="3clF45">
        <node concept="3THzug" id="ObbTRzsg4w" role="_ZDj9">
          <ref role="3qa414" to="tpee:g76ryKb" resolve="ConceptFunctionParameter" />
        </node>
      </node>
      <node concept="3Tm1VV" id="ObbTRzsg4x" role="1B3o_S" />
      <node concept="3clFbS" id="ObbTRzsg4y" role="3clF47">
        <node concept="3cpWs8" id="ObbTRzsg4z" role="3cqZAp">
          <node concept="3cpWsn" id="ObbTRzsg4$" role="3cpWs9">
            <property role="TrG5h" value="result" />
            <node concept="2ShNRf" id="ObbTRzsg4_" role="33vP2m">
              <node concept="Tc6Ow" id="ObbTRzsg4A" role="2ShVmc">
                <node concept="3THzug" id="ObbTRzsg4B" role="HW$YZ">
                  <ref role="3qa414" to="tpee:g76ryKb" resolve="ConceptFunctionParameter" />
                </node>
              </node>
            </node>
            <node concept="_YKpA" id="ObbTRzsg4C" role="1tU5fm">
              <node concept="3THzug" id="ObbTRzsg4D" role="_ZDj9">
                <ref role="3qa414" to="tpee:g76ryKb" resolve="ConceptFunctionParameter" />
              </node>
            </node>
          </node>
        </node>
        <node concept="3clFbF" id="ObbTRztU5G" role="3cqZAp">
          <node concept="2OqwBi" id="ObbTRztU5H" role="3clFbG">
            <node concept="TSZUe" id="ObbTRztU5I" role="2OqNvi">
              <node concept="3TUQnm" id="ObbTRztU5J" role="25WWJ7">
                <ref role="3TV0OU" to="gbdf:7rLMM2UuwVu" resolve="NodeFunctionParameter" />
              </node>
            </node>
            <node concept="37vLTw" id="ObbTRztU5K" role="2Oq$k0">
              <ref role="3cqZAo" node="ObbTRzsg4$" resolve="result" />
            </node>
          </node>
        </node>
        <node concept="3clFbF" id="ObbTRzuslq" role="3cqZAp">
          <node concept="2OqwBi" id="ObbTRzuslr" role="3clFbG">
            <node concept="TSZUe" id="ObbTRzusls" role="2OqNvi">
              <node concept="3TUQnm" id="ObbTRzuslt" role="25WWJ7">
                <ref role="3TV0OU" to="gbdf:ObbTRzs$Pp" resolve="FromNodeFunctionParameter" />
              </node>
            </node>
            <node concept="37vLTw" id="ObbTRzuslu" role="2Oq$k0">
              <ref role="3cqZAo" node="ObbTRzsg4$" resolve="result" />
            </node>
          </node>
        </node>
        <node concept="3clFbF" id="ObbTRztU5L" role="3cqZAp">
          <node concept="2OqwBi" id="ObbTRztU5M" role="3clFbG">
            <node concept="TSZUe" id="ObbTRztU5N" role="2OqNvi">
              <node concept="3TUQnm" id="ObbTRztU5O" role="25WWJ7">
                <ref role="3TV0OU" to="gbdf:ObbTRzs$Pz" resolve="FromIdFunctionParameter" />
              </node>
            </node>
            <node concept="37vLTw" id="ObbTRztU5P" role="2Oq$k0">
              <ref role="3cqZAo" node="ObbTRzsg4$" resolve="result" />
            </node>
          </node>
        </node>
        <node concept="3clFbF" id="ObbTRztU5Q" role="3cqZAp">
          <node concept="2OqwBi" id="ObbTRztU5R" role="3clFbG">
            <node concept="TSZUe" id="ObbTRztU5S" role="2OqNvi">
              <node concept="3TUQnm" id="ObbTRztU5T" role="25WWJ7">
                <ref role="3TV0OU" to="gbdf:ObbTRzs$Pu" resolve="ToNodeFunctionParameter" />
              </node>
            </node>
            <node concept="37vLTw" id="ObbTRztU5U" role="2Oq$k0">
              <ref role="3cqZAo" node="ObbTRzsg4$" resolve="result" />
            </node>
          </node>
        </node>
        <node concept="3clFbF" id="ObbTRztU5V" role="3cqZAp">
          <node concept="2OqwBi" id="ObbTRztU5W" role="3clFbG">
            <node concept="TSZUe" id="ObbTRztU5X" role="2OqNvi">
              <node concept="3TUQnm" id="ObbTRztU5Y" role="25WWJ7">
                <ref role="3TV0OU" to="gbdf:ObbTRzs$PC" resolve="ToIdFunctionParameter" />
              </node>
            </node>
            <node concept="37vLTw" id="ObbTRztU5Z" role="2Oq$k0">
              <ref role="3cqZAo" node="ObbTRzsg4$" resolve="result" />
            </node>
          </node>
        </node>
        <node concept="3clFbH" id="ObbTRztU3W" role="3cqZAp" />
        <node concept="3cpWs6" id="ObbTRzsg4T" role="3cqZAp">
          <node concept="37vLTw" id="ObbTRzsg4U" role="3cqZAk">
            <ref role="3cqZAo" node="ObbTRzsg4$" resolve="result" />
          </node>
        </node>
        <node concept="3clFbH" id="ObbTRzsg4V" role="3cqZAp" />
      </node>
    </node>
    <node concept="13i0hz" id="ObbTRzsg4W" role="13h7CS">
      <property role="13i0iv" value="false" />
      <property role="13i0is" value="false" />
      <property role="TrG5h" value="getExpectedReturnType" />
      <property role="13i0it" value="false" />
      <ref role="13i0hy" to="tpek:hEwIGRD" resolve="getExpectedReturnType" />
      <node concept="3Tm1VV" id="ObbTRzsg4X" role="1B3o_S" />
      <node concept="3Tqbb2" id="ObbTRzsg4Y" role="3clF45" />
      <node concept="3clFbS" id="ObbTRzsg4Z" role="3clF47">
        <node concept="3cpWs6" id="ObbTRzsg50" role="3cqZAp">
          <node concept="2c44tf" id="ObbTRzsg51" role="3cqZAk">
            <node concept="3cqZAl" id="ObbTRzsg52" role="2c44tc" />
          </node>
        </node>
      </node>
    </node>
    <node concept="13hLZK" id="ObbTRzsg53" role="13h7CW">
      <node concept="3clFbS" id="ObbTRzsg54" role="2VODD2" />
    </node>
  </node>
  <node concept="13h7C7" id="ObbTRzsmf7">
    <property role="3GE5qa" value="creation" />
    <ref role="13h7C2" to="gbdf:ObbTRzsmde" resolve="DiagramConnectorCanCreateHandler" />
    <node concept="13i0hz" id="ObbTRzsmf8" role="13h7CS">
      <property role="13i0iv" value="false" />
      <property role="13i0is" value="false" />
      <property role="TrG5h" value="getParameters" />
      <property role="13i0it" value="false" />
      <ref role="13i0hy" to="tpek:hEwIGRM" resolve="getParameters" />
      <node concept="_YKpA" id="ObbTRzsmf9" role="3clF45">
        <node concept="3THzug" id="ObbTRzsmfa" role="_ZDj9">
          <ref role="3qa414" to="tpee:g76ryKb" resolve="ConceptFunctionParameter" />
        </node>
      </node>
      <node concept="3Tm1VV" id="ObbTRzsmfb" role="1B3o_S" />
      <node concept="3clFbS" id="ObbTRzsmfc" role="3clF47">
        <node concept="3cpWs8" id="ObbTRzsmfd" role="3cqZAp">
          <node concept="3cpWsn" id="ObbTRzsmfe" role="3cpWs9">
            <property role="TrG5h" value="result" />
            <node concept="2ShNRf" id="ObbTRzsmff" role="33vP2m">
              <node concept="Tc6Ow" id="ObbTRzsmfg" role="2ShVmc">
                <node concept="3THzug" id="ObbTRzsmfh" role="HW$YZ">
                  <ref role="3qa414" to="tpee:g76ryKb" resolve="ConceptFunctionParameter" />
                </node>
              </node>
            </node>
            <node concept="_YKpA" id="ObbTRzsmfi" role="1tU5fm">
              <node concept="3THzug" id="ObbTRzsmfj" role="_ZDj9">
                <ref role="3qa414" to="tpee:g76ryKb" resolve="ConceptFunctionParameter" />
              </node>
            </node>
          </node>
        </node>
        <node concept="3clFbF" id="ObbTRzsmfk" role="3cqZAp">
          <node concept="2OqwBi" id="ObbTRzsmfl" role="3clFbG">
            <node concept="TSZUe" id="ObbTRzsmfm" role="2OqNvi">
              <node concept="3TUQnm" id="ObbTRzsmfn" role="25WWJ7">
                <ref role="3TV0OU" to="gbdf:ObbTRzs$Pp" resolve="FromNodeFunctionParameter" />
              </node>
            </node>
            <node concept="37vLTw" id="ObbTRzsmfo" role="2Oq$k0">
              <ref role="3cqZAo" node="ObbTRzsmfe" resolve="result" />
            </node>
          </node>
        </node>
        <node concept="3clFbF" id="ObbTRztT_c" role="3cqZAp">
          <node concept="2OqwBi" id="ObbTRztT_d" role="3clFbG">
            <node concept="TSZUe" id="ObbTRztT_e" role="2OqNvi">
              <node concept="3TUQnm" id="ObbTRztT_f" role="25WWJ7">
                <ref role="3TV0OU" to="gbdf:ObbTRzs$Pz" resolve="FromIdFunctionParameter" />
              </node>
            </node>
            <node concept="37vLTw" id="ObbTRztT_g" role="2Oq$k0">
              <ref role="3cqZAo" node="ObbTRzsmfe" resolve="result" />
            </node>
          </node>
        </node>
        <node concept="3clFbF" id="ObbTRztTGV" role="3cqZAp">
          <node concept="2OqwBi" id="ObbTRztTGW" role="3clFbG">
            <node concept="TSZUe" id="ObbTRztTGX" role="2OqNvi">
              <node concept="3TUQnm" id="ObbTRztTGY" role="25WWJ7">
                <ref role="3TV0OU" to="gbdf:ObbTRzs$Pu" resolve="ToNodeFunctionParameter" />
              </node>
            </node>
            <node concept="37vLTw" id="ObbTRztTGZ" role="2Oq$k0">
              <ref role="3cqZAo" node="ObbTRzsmfe" resolve="result" />
            </node>
          </node>
        </node>
        <node concept="3clFbF" id="ObbTRztTQT" role="3cqZAp">
          <node concept="2OqwBi" id="ObbTRztTQU" role="3clFbG">
            <node concept="TSZUe" id="ObbTRztTQV" role="2OqNvi">
              <node concept="3TUQnm" id="ObbTRztTQW" role="25WWJ7">
                <ref role="3TV0OU" to="gbdf:ObbTRzs$PC" resolve="ToIdFunctionParameter" />
              </node>
            </node>
            <node concept="37vLTw" id="ObbTRztTQX" role="2Oq$k0">
              <ref role="3cqZAo" node="ObbTRzsmfe" resolve="result" />
            </node>
          </node>
        </node>
        <node concept="3cpWs6" id="ObbTRzsmfp" role="3cqZAp">
          <node concept="37vLTw" id="ObbTRzsmfq" role="3cqZAk">
            <ref role="3cqZAo" node="ObbTRzsmfe" resolve="result" />
          </node>
        </node>
        <node concept="3clFbH" id="ObbTRzsmfr" role="3cqZAp" />
      </node>
    </node>
    <node concept="13i0hz" id="ObbTRzsmfs" role="13h7CS">
      <property role="13i0iv" value="false" />
      <property role="13i0is" value="false" />
      <property role="TrG5h" value="getExpectedReturnType" />
      <property role="13i0it" value="false" />
      <ref role="13i0hy" to="tpek:hEwIGRD" resolve="getExpectedReturnType" />
      <node concept="3Tm1VV" id="ObbTRzsmft" role="1B3o_S" />
      <node concept="3Tqbb2" id="ObbTRzsmfu" role="3clF45" />
      <node concept="3clFbS" id="ObbTRzsmfv" role="3clF47">
        <node concept="3cpWs6" id="ObbTRzsmfw" role="3cqZAp">
          <node concept="2c44tf" id="ObbTRzsmfx" role="3cqZAk">
            <node concept="10P_77" id="ObbTRzsniT" role="2c44tc" />
          </node>
        </node>
      </node>
    </node>
    <node concept="13hLZK" id="ObbTRzsmfz" role="13h7CW">
      <node concept="3clFbS" id="ObbTRzsmf$" role="2VODD2" />
    </node>
  </node>
  <node concept="13h7C7" id="3wXm3h1BlxK">
    <ref role="13h7C2" to="gbdf:fQU43X4wa2" resolve="CellModel_DiagramPort" />
    <node concept="13hLZK" id="3wXm3h1BlxL" role="13h7CW">
      <node concept="3clFbS" id="3wXm3h1BlxM" role="2VODD2" />
    </node>
    <node concept="13i0hz" id="3wXm3h1BlxN" role="13h7CS">
      <property role="13i0iv" value="false" />
      <property role="13i0it" value="false" />
      <property role="TrG5h" value="canBeSynchronized" />
      <ref role="13i0hy" to="tpcb:3wXm3h1AYM7" resolve="canBeSynchronized" />
      <node concept="3Tm1VV" id="3wXm3h1BlxO" role="1B3o_S" />
      <node concept="3clFbS" id="3wXm3h1BlxR" role="3clF47">
        <node concept="3clFbF" id="3wXm3h1BlxU" role="3cqZAp">
          <node concept="3clFbT" id="3wXm3h1BlxT" role="3clFbG">
            <property role="3clFbU" value="true" />
          </node>
        </node>
      </node>
      <node concept="10P_77" id="3wXm3h1BlxS" role="3clF45" />
    </node>
    <node concept="13i0hz" id="3TPTV99AeFv" role="13h7CS">
      <property role="13i0iv" value="false" />
      <property role="13i0it" value="false" />
      <property role="TrG5h" value="shellBeSynchronized" />
      <ref role="13i0hy" to="tpcb:3TPTV99_TMT" resolve="shellBeSynchronized" />
      <node concept="3Tm1VV" id="3TPTV99AeFw" role="1B3o_S" />
      <node concept="3clFbS" id="3TPTV99AeFz" role="3clF47">
        <node concept="3clFbF" id="3TPTV99AeFA" role="3cqZAp">
          <node concept="3clFbT" id="3TPTV99AeF_" role="3clFbG">
            <property role="3clFbU" value="true" />
          </node>
        </node>
      </node>
      <node concept="10P_77" id="3TPTV99AeF$" role="3clF45" />
    </node>
  </node>
  <node concept="13h7C7" id="1R$Mpy$x3Ye">
    <property role="3GE5qa" value="creation" />
    <ref role="13h7C2" to="gbdf:18ftwC4enam" resolve="AbstractDiagramCreation" />
    <node concept="13i0hz" id="1R$Mpy$x3Yh" role="13h7CS">
      <property role="TrG5h" value="getConceptForCreation" />
      <node concept="3Tm1VV" id="1R$Mpy$x3Yi" role="1B3o_S" />
      <node concept="3THzug" id="1R$Mpy$x59y" role="3clF45" />
      <node concept="3clFbS" id="1R$Mpy$x3Yk" role="3clF47">
        <node concept="3clFbF" id="1R$Mpy$xchs" role="3cqZAp">
          <node concept="3K4zz7" id="1R$Mpy$xd$c" role="3clFbG">
            <node concept="2OqwBi" id="1R$Mpy$xdGR" role="3K4E3e">
              <node concept="13iPFW" id="1R$Mpy$xdCh" role="2Oq$k0" />
              <node concept="3TrEf2" id="1R$Mpy$xdYV" role="2OqNvi">
                <ref role="3Tt5mk" to="gbdf:18ftwC4erGL" />
              </node>
            </node>
            <node concept="2OqwBi" id="1R$Mpy$xidd" role="3K4GZi">
              <node concept="2OqwBi" id="1R$Mpy$xh6I" role="2Oq$k0">
                <node concept="1PxgMI" id="1R$Mpy$xgre" role="2Oq$k0">
                  <property role="1BlNFB" value="true" />
                  <ref role="1m5ApE" to="tp25:gzTsc4p" resolve="SLinkListAccess" />
                  <node concept="2OqwBi" id="1R$Mpy$xfBh" role="1m5AlR">
                    <node concept="BsUDl" id="1R$Mpy$xfiu" role="2Oq$k0">
                      <ref role="37wK5l" node="1R$Mpy$xe1l" resolve="getQueryDotExpression" />
                    </node>
                    <node concept="3TrEf2" id="1R$Mpy$xg0H" role="2OqNvi">
                      <ref role="3Tt5mk" to="tpee:hqOqNr4" />
                    </node>
                  </node>
                </node>
                <node concept="3TrEf2" id="1R$Mpy$xhCk" role="2OqNvi">
                  <ref role="3Tt5mk" to="tp25:gzTtc_y" />
                </node>
              </node>
              <node concept="3TrEf2" id="1R$Mpy$xiG$" role="2OqNvi">
                <ref role="3Tt5mk" to="tpce:fA0lvVK" />
              </node>
            </node>
            <node concept="2OqwBi" id="1R$Mpy$xcVW" role="3K4Cdx">
              <node concept="2OqwBi" id="1R$Mpy$xcjt" role="2Oq$k0">
                <node concept="13iPFW" id="1R$Mpy$xchq" role="2Oq$k0" />
                <node concept="3TrEf2" id="1R$Mpy$xczp" role="2OqNvi">
                  <ref role="3Tt5mk" to="gbdf:18ftwC4erGL" />
                </node>
              </node>
              <node concept="3x8VRR" id="1R$Mpy$xdbv" role="2OqNvi" />
            </node>
          </node>
        </node>
      </node>
    </node>
    <node concept="13i0hz" id="1R$Mpy$x_vA" role="13h7CS">
      <property role="TrG5h" value="getContainmentLinkDeclaration" />
      <node concept="3Tm1VV" id="1R$Mpy$x_vB" role="1B3o_S" />
      <node concept="3Tqbb2" id="1R$Mpy$x_yx" role="3clF45">
        <ref role="ehGHo" to="tpce:f_TJgxE" resolve="LinkDeclaration" />
      </node>
      <node concept="3clFbS" id="1R$Mpy$x_vD" role="3clF47">
        <node concept="3clFbF" id="1R$Mpy$xC0E" role="3cqZAp">
          <node concept="2OqwBi" id="1R$Mpy$xC_d" role="3clFbG">
            <node concept="1PxgMI" id="1R$Mpy$xCuf" role="2Oq$k0">
              <property role="1BlNFB" value="true" />
              <ref role="1m5ApE" to="tp25:gzTsc4p" resolve="SLinkListAccess" />
              <node concept="2OqwBi" id="1R$Mpy$xC3m" role="1m5AlR">
                <node concept="BsUDl" id="1R$Mpy$xC0D" role="2Oq$k0">
                  <ref role="37wK5l" node="1R$Mpy$xe1l" resolve="getQueryDotExpression" />
                </node>
                <node concept="3TrEf2" id="1R$Mpy$xCqv" role="2OqNvi">
                  <ref role="3Tt5mk" to="tpee:hqOqNr4" />
                </node>
              </node>
            </node>
            <node concept="3TrEf2" id="1R$Mpy$xCOo" role="2OqNvi">
              <ref role="3Tt5mk" to="tp25:gzTtc_y" />
            </node>
          </node>
        </node>
      </node>
    </node>
    <node concept="13i0hz" id="1R$Mpy$x_JA" role="13h7CS">
      <property role="TrG5h" value="getContainerExpression" />
      <node concept="3Tm1VV" id="1R$Mpy$x_JB" role="1B3o_S" />
      <node concept="3Tqbb2" id="1R$Mpy$x_M_" role="3clF45">
        <ref role="ehGHo" to="tpee:fz3vP1J" resolve="Expression" />
      </node>
      <node concept="3clFbS" id="1R$Mpy$x_JD" role="3clF47">
        <node concept="3clFbF" id="1R$Mpy$xCZF" role="3cqZAp">
          <node concept="2OqwBi" id="1R$Mpy$xD1Y" role="3clFbG">
            <node concept="BsUDl" id="1R$Mpy$xCZE" role="2Oq$k0">
              <ref role="37wK5l" node="1R$Mpy$xe1l" resolve="getQueryDotExpression" />
            </node>
            <node concept="3TrEf2" id="1R$Mpy$xDnI" role="2OqNvi">
              <ref role="3Tt5mk" to="tpee:hqOq$gm" />
            </node>
          </node>
        </node>
      </node>
    </node>
    <node concept="13i0hz" id="1R$Mpy$xe1l" role="13h7CS">
      <property role="TrG5h" value="getQueryDotExpression" />
      <node concept="3Tm6S6" id="1R$Mpy$xeiP" role="1B3o_S" />
      <node concept="3Tqbb2" id="1R$Mpy$xeiS" role="3clF45">
        <ref role="ehGHo" to="tpee:hqOqwz4" resolve="DotExpression" />
      </node>
      <node concept="3clFbS" id="1R$Mpy$xe1o" role="3clF47">
        <node concept="3clFbF" id="1R$Mpy$xepy" role="3cqZAp">
          <node concept="1PxgMI" id="1R$Mpy$xf6W" role="3clFbG">
            <property role="1BlNFB" value="true" />
            <ref role="1m5ApE" to="tpee:hqOqwz4" resolve="DotExpression" />
            <node concept="2OqwBi" id="1R$Mpy$xer1" role="1m5AlR">
              <node concept="13iPFW" id="1R$Mpy$xepx" role="2Oq$k0" />
              <node concept="3TrEf2" id="1R$Mpy$xey$" role="2OqNvi">
                <ref role="3Tt5mk" to="gbdf:18ftwC4erGF" />
              </node>
            </node>
          </node>
        </node>
      </node>
    </node>
    <node concept="13hLZK" id="1R$Mpy$x3Yf" role="13h7CW">
      <node concept="3clFbS" id="1R$Mpy$x3Yg" role="2VODD2" />
    </node>
  </node>
</model>

