<?xml version="1.0" encoding="UTF-8"?>
<model ref="r:d64ba0fe-173d-44e2-ab7b-bde40d7e9b7e(jetbrains.mps.baseLanguage.collections.generator.baseLanguage.template.pre@generator)">
  <persistence version="9" />
  <languages>
    <use id="b401a680-8325-4110-8fd3-84331ff25bef" name="jetbrains.mps.lang.generator" version="0" />
    <use id="d7706f63-9be2-479c-a3da-ae92af1e64d5" name="jetbrains.mps.lang.generator.generationContext" version="0" />
    <use id="7a5dda62-9140-4668-ab76-d5ed1746f2b2" name="jetbrains.mps.lang.typesystem" version="0" />
    <use id="7866978e-a0f0-4cc7-81bc-4d213d9375e1" name="jetbrains.mps.lang.smodel" version="4" />
    <use id="f3061a53-9226-4cc5-a443-f952ceaf5816" name="jetbrains.mps.baseLanguage" version="4" />
    <devkit ref="fbc25dd2-5da4-483a-8b19-70928e1b62d7(jetbrains.mps.devkit.general-purpose)" />
  </languages>
  <imports>
    <import index="tpee" ref="r:00000000-0000-4000-0000-011c895902ca(jetbrains.mps.baseLanguage.structure)" />
    <import index="tp2q" ref="r:00000000-0000-4000-0000-011c8959032e(jetbrains.mps.baseLanguage.collections.structure)" />
    <import index="tp2k" ref="r:00000000-0000-4000-0000-011c89590330(jetbrains.mps.baseLanguage.collections.generator.baseLanguage.template.util)" />
  </imports>
  <registry>
    <language id="f3061a53-9226-4cc5-a443-f952ceaf5816" name="jetbrains.mps.baseLanguage">
      <concept id="1080223426719" name="jetbrains.mps.baseLanguage.structure.OrExpression" flags="nn" index="22lmx$" />
      <concept id="1154032098014" name="jetbrains.mps.baseLanguage.structure.AbstractLoopStatement" flags="nn" index="2LF5Ji">
        <child id="1154032183016" name="body" index="2LFqv$" />
      </concept>
      <concept id="1197027756228" name="jetbrains.mps.baseLanguage.structure.DotExpression" flags="nn" index="2OqwBi">
        <child id="1197027771414" name="operand" index="2Oq$k0" />
        <child id="1197027833540" name="operation" index="2OqNvi" />
      </concept>
      <concept id="1137021947720" name="jetbrains.mps.baseLanguage.structure.ConceptFunction" flags="in" index="2VMwT0">
        <child id="1137022507850" name="body" index="2VODD2" />
      </concept>
      <concept id="1081236700937" name="jetbrains.mps.baseLanguage.structure.StaticMethodCall" flags="nn" index="2YIFZM">
        <reference id="1144433194310" name="classConcept" index="1Pybhc" />
      </concept>
      <concept id="1070534934090" name="jetbrains.mps.baseLanguage.structure.CastExpression" flags="nn" index="10QFUN">
        <child id="1070534934091" name="type" index="10QFUM" />
        <child id="1070534934092" name="expression" index="10QFUP" />
      </concept>
      <concept id="1068431474542" name="jetbrains.mps.baseLanguage.structure.VariableDeclaration" flags="ng" index="33uBYm">
        <child id="1068431790190" name="initializer" index="33vP2m" />
      </concept>
      <concept id="1068431790189" name="jetbrains.mps.baseLanguage.structure.Type" flags="in" index="33vP2l" />
      <concept id="1068431790191" name="jetbrains.mps.baseLanguage.structure.Expression" flags="nn" index="33vP2n" />
      <concept id="1068498886296" name="jetbrains.mps.baseLanguage.structure.VariableReference" flags="nn" index="37vLTw">
        <reference id="1068581517664" name="variableDeclaration" index="3cqZAo" />
      </concept>
      <concept id="4972933694980447171" name="jetbrains.mps.baseLanguage.structure.BaseVariableDeclaration" flags="ng" index="19Szcq">
        <child id="5680397130376446158" name="type" index="1tU5fm" />
      </concept>
      <concept id="1068580123152" name="jetbrains.mps.baseLanguage.structure.EqualsExpression" flags="nn" index="3clFbC" />
      <concept id="1068580123155" name="jetbrains.mps.baseLanguage.structure.ExpressionStatement" flags="nn" index="3clFbF">
        <child id="1068580123156" name="expression" index="3clFbG" />
      </concept>
      <concept id="1068580123159" name="jetbrains.mps.baseLanguage.structure.IfStatement" flags="nn" index="3clFbJ">
        <child id="1068580123160" name="condition" index="3clFbw" />
        <child id="1068580123161" name="ifTrue" index="3clFbx" />
      </concept>
      <concept id="1068580123136" name="jetbrains.mps.baseLanguage.structure.StatementList" flags="sn" stub="5293379017992965193" index="3clFbS">
        <child id="1068581517665" name="statement" index="3cqZAp" />
      </concept>
      <concept id="1068580123137" name="jetbrains.mps.baseLanguage.structure.BooleanConstant" flags="nn" index="3clFbT">
        <property id="1068580123138" name="value" index="3clFbU" />
      </concept>
      <concept id="1068581242878" name="jetbrains.mps.baseLanguage.structure.ReturnStatement" flags="nn" index="3cpWs6">
        <child id="1068581517676" name="expression" index="3cqZAk" />
      </concept>
      <concept id="1068581242864" name="jetbrains.mps.baseLanguage.structure.LocalVariableDeclarationStatement" flags="nn" index="3cpWs8">
        <child id="1068581242865" name="localVariableDeclaration" index="3cpWs9" />
      </concept>
      <concept id="1068581242863" name="jetbrains.mps.baseLanguage.structure.LocalVariableDeclaration" flags="nr" index="3cpWsn" />
      <concept id="1079359253375" name="jetbrains.mps.baseLanguage.structure.ParenthesizedExpression" flags="nn" index="1eOMI4">
        <child id="1079359253376" name="expression" index="1eOMHV" />
      </concept>
      <concept id="1081516740877" name="jetbrains.mps.baseLanguage.structure.NotExpression" flags="nn" index="3fqX7Q">
        <child id="1081516765348" name="expression" index="3fr31v" />
      </concept>
      <concept id="1204053956946" name="jetbrains.mps.baseLanguage.structure.IMethodCall" flags="ng" index="1ndlxa">
        <reference id="1068499141037" name="baseMethodDeclaration" index="37wK5l" />
        <child id="1068499141038" name="actualArgument" index="37wK5m" />
      </concept>
      <concept id="1081773326031" name="jetbrains.mps.baseLanguage.structure.BinaryOperation" flags="nn" index="3uHJSO">
        <child id="1081773367579" name="rightExpression" index="3uHU7w" />
        <child id="1081773367580" name="leftExpression" index="3uHU7B" />
      </concept>
      <concept id="1144226303539" name="jetbrains.mps.baseLanguage.structure.ForeachStatement" flags="nn" index="1DcWWT">
        <child id="1144226360166" name="iterable" index="1DdaDG" />
      </concept>
      <concept id="1144230876926" name="jetbrains.mps.baseLanguage.structure.AbstractForStatement" flags="nn" index="1DupvO">
        <child id="1144230900587" name="variable" index="1Duv9x" />
      </concept>
      <concept id="1080120340718" name="jetbrains.mps.baseLanguage.structure.AndExpression" flags="nn" index="1Wc70l" />
    </language>
    <language id="b401a680-8325-4110-8fd3-84331ff25bef" name="jetbrains.mps.lang.generator">
      <concept id="1114706874351" name="jetbrains.mps.lang.generator.structure.CopySrcNodeMacro" flags="ln" index="29HgVG">
        <child id="1168024447342" name="sourceNodeQuery" index="3NFExx" />
      </concept>
      <concept id="7830515785164762753" name="jetbrains.mps.lang.generator.structure.MappingConfiguration_Condition" flags="in" index="avzCv" />
      <concept id="1095416546421" name="jetbrains.mps.lang.generator.structure.MappingConfiguration" flags="ig" index="bUwia">
        <child id="7830515785164764091" name="condition" index="avys_" />
        <child id="1167328349397" name="reductionMappingRule" index="3acgRq" />
      </concept>
      <concept id="1177093525992" name="jetbrains.mps.lang.generator.structure.InlineTemplate_RuleConsequence" flags="lg" index="gft3U">
        <child id="1177093586806" name="templateNode" index="gfFT$" />
      </concept>
      <concept id="1168559512253" name="jetbrains.mps.lang.generator.structure.DismissTopMappingRule" flags="lg" index="j$LIH" />
      <concept id="1167168920554" name="jetbrains.mps.lang.generator.structure.BaseMappingRule_Condition" flags="in" index="30G5F_" />
      <concept id="1167169188348" name="jetbrains.mps.lang.generator.structure.TemplateFunctionParameter_sourceNode" flags="nn" index="30H73N" />
      <concept id="1167169308231" name="jetbrains.mps.lang.generator.structure.BaseMappingRule" flags="ng" index="30H$t8">
        <reference id="1167169349424" name="applicableConcept" index="30HIoZ" />
        <child id="1167169362365" name="conditionFunction" index="30HLyM" />
      </concept>
      <concept id="1195158154974" name="jetbrains.mps.lang.generator.structure.InlineSwitch_RuleConsequence" flags="lg" index="14YyZ8">
        <child id="1195158241124" name="defaultConsequence" index="14YRTM" />
        <child id="1195158408710" name="case" index="14ZwWg" />
      </concept>
      <concept id="1195158388553" name="jetbrains.mps.lang.generator.structure.InlineSwitch_Case" flags="ng" index="14ZrTv">
        <child id="1195158608805" name="conditionFunction" index="150hEN" />
        <child id="1195158637244" name="caseConsequence" index="150oIE" />
      </concept>
      <concept id="1167327847730" name="jetbrains.mps.lang.generator.structure.Reduction_MappingRule" flags="lg" index="3aamgX">
        <child id="1169672767469" name="ruleConsequence" index="1lVwrX" />
      </concept>
      <concept id="1168024337012" name="jetbrains.mps.lang.generator.structure.SourceSubstituteMacro_SourceNodeQuery" flags="in" index="3NFfHV" />
    </language>
    <language id="d7706f63-9be2-479c-a3da-ae92af1e64d5" name="jetbrains.mps.lang.generator.generationContext">
      <concept id="1216860049635" name="jetbrains.mps.lang.generator.generationContext.structure.TemplateFunctionParameter_generationContext" flags="nn" index="1iwH7S" />
      <concept id="1217004708011" name="jetbrains.mps.lang.generator.generationContext.structure.GenerationContextOp_GetInputModel" flags="nn" index="1r8y6K" />
    </language>
    <language id="7a5dda62-9140-4668-ab76-d5ed1746f2b2" name="jetbrains.mps.lang.typesystem">
      <concept id="1176544042499" name="jetbrains.mps.lang.typesystem.structure.Node_TypeOperation" flags="nn" index="3JvlWi" />
    </language>
    <language id="7866978e-a0f0-4cc7-81bc-4d213d9375e1" name="jetbrains.mps.lang.smodel">
      <concept id="1177026924588" name="jetbrains.mps.lang.smodel.structure.RefConcept_Reference" flags="nn" index="chp4Y">
        <reference id="1177026940964" name="conceptDeclaration" index="cht4Q" />
      </concept>
      <concept id="1171323947159" name="jetbrains.mps.lang.smodel.structure.Model_NodesOperation" flags="nn" index="2SmgA7">
        <child id="1758937410080001570" name="conceptArgument" index="1dBWTz" />
      </concept>
      <concept id="1139621453865" name="jetbrains.mps.lang.smodel.structure.Node_IsInstanceOfOperation" flags="nn" index="1mIQ4w">
        <child id="1177027386292" name="conceptArgument" index="cj9EA" />
      </concept>
      <concept id="1138055754698" name="jetbrains.mps.lang.smodel.structure.SNodeType" flags="in" index="3Tqbb2">
        <reference id="1138405853777" name="concept" index="ehGHo" />
      </concept>
      <concept id="1138056143562" name="jetbrains.mps.lang.smodel.structure.SLinkAccess" flags="nn" index="3TrEf2">
        <reference id="1138056516764" name="link" index="3Tt5mk" />
      </concept>
    </language>
    <language id="ceab5195-25ea-4f22-9b92-103b95ca8c0c" name="jetbrains.mps.lang.core">
      <concept id="1133920641626" name="jetbrains.mps.lang.core.structure.BaseConcept" flags="ng" index="2VYdi">
        <child id="5169995583184591170" name="smodelAttribute" index="lGtFl" />
      </concept>
      <concept id="1169194658468" name="jetbrains.mps.lang.core.structure.INamedConcept" flags="ng" index="TrEIO">
        <property id="1169194664001" name="name" index="TrG5h" />
      </concept>
    </language>
  </registry>
  <node concept="bUwia" id="4yvVJ8UGzDe">
    <property role="TrG5h" value="primitive" />
    <node concept="3aamgX" id="4yvVJ8UGzDf" role="3acgRq">
      <ref role="30HIoZ" to="tpee:fzclF8g" resolve="EqualsExpression" />
      <node concept="14YyZ8" id="4yvVJ8UGzDg" role="1lVwrX">
        <node concept="14ZrTv" id="4yvVJ8UGzDh" role="14ZwWg">
          <node concept="30G5F_" id="4yvVJ8UGzDi" role="150hEN">
            <node concept="3clFbS" id="4yvVJ8UGzDj" role="2VODD2">
              <node concept="3cpWs8" id="4yvVJ8UGzDk" role="3cqZAp">
                <node concept="3cpWsn" id="4yvVJ8UGzDl" role="3cpWs9">
                  <property role="TrG5h" value="lt" />
                  <node concept="3Tqbb2" id="4yvVJ8UGzDm" role="1tU5fm" />
                  <node concept="2OqwBi" id="4yvVJ8UGzDn" role="33vP2m">
                    <node concept="2OqwBi" id="4yvVJ8UGzDo" role="2Oq$k0">
                      <node concept="30H73N" id="4yvVJ8UGzDp" role="2Oq$k0" />
                      <node concept="3TrEf2" id="4yvVJ8UGzDq" role="2OqNvi">
                        <ref role="3Tt5mk" to="tpee:fJuHU4s" />
                      </node>
                    </node>
                    <node concept="3JvlWi" id="4yvVJ8UGzDr" role="2OqNvi" />
                  </node>
                </node>
              </node>
              <node concept="3cpWs8" id="4yvVJ8UGzDs" role="3cqZAp">
                <node concept="3cpWsn" id="4yvVJ8UGzDt" role="3cpWs9">
                  <property role="TrG5h" value="rt" />
                  <node concept="3Tqbb2" id="4yvVJ8UGzDu" role="1tU5fm" />
                  <node concept="2OqwBi" id="4yvVJ8UGzDv" role="33vP2m">
                    <node concept="2OqwBi" id="4yvVJ8UGzDw" role="2Oq$k0">
                      <node concept="30H73N" id="4yvVJ8UGzDx" role="2Oq$k0" />
                      <node concept="3TrEf2" id="4yvVJ8UGzDy" role="2OqNvi">
                        <ref role="3Tt5mk" to="tpee:fJuHU4r" />
                      </node>
                    </node>
                    <node concept="3JvlWi" id="4yvVJ8UGzDz" role="2OqNvi" />
                  </node>
                </node>
              </node>
              <node concept="3clFbF" id="4yvVJ8UGzD$" role="3cqZAp">
                <node concept="1Wc70l" id="4yvVJ8UGzD_" role="3clFbG">
                  <node concept="3fqX7Q" id="4yvVJ8UGzDA" role="3uHU7w">
                    <node concept="1eOMI4" id="3$myXoLqleL" role="3fr31v">
                      <node concept="22lmx$" id="4yvVJ8UGzDB" role="1eOMHV">
                        <node concept="2OqwBi" id="4yvVJ8UGzDC" role="3uHU7w">
                          <node concept="37vLTw" id="3GM_nagTs08" role="2Oq$k0">
                            <ref role="3cqZAo" node="4yvVJ8UGzDt" resolve="rt" />
                          </node>
                          <node concept="1mIQ4w" id="4yvVJ8UGzDE" role="2OqNvi">
                            <node concept="chp4Y" id="4yvVJ8UGzDF" role="cj9EA">
                              <ref role="cht4Q" to="tpee:hxvX6za" resolve="NullType" />
                            </node>
                          </node>
                        </node>
                        <node concept="2OqwBi" id="4yvVJ8UGzDG" role="3uHU7B">
                          <node concept="37vLTw" id="3GM_nagTuHg" role="2Oq$k0">
                            <ref role="3cqZAo" node="4yvVJ8UGzDl" resolve="lt" />
                          </node>
                          <node concept="1mIQ4w" id="4yvVJ8UGzDI" role="2OqNvi">
                            <node concept="chp4Y" id="4yvVJ8UGzDJ" role="cj9EA">
                              <ref role="cht4Q" to="tpee:hxvX6za" resolve="NullType" />
                            </node>
                          </node>
                        </node>
                      </node>
                    </node>
                  </node>
                  <node concept="1eOMI4" id="4yvVJ8UGzDK" role="3uHU7B">
                    <node concept="22lmx$" id="4yvVJ8UGzDL" role="1eOMHV">
                      <node concept="2OqwBi" id="4yvVJ8UGzDM" role="3uHU7B">
                        <node concept="37vLTw" id="3GM_nagTxnI" role="2Oq$k0">
                          <ref role="3cqZAo" node="4yvVJ8UGzDl" resolve="lt" />
                        </node>
                        <node concept="1mIQ4w" id="4yvVJ8UGzDO" role="2OqNvi">
                          <node concept="chp4Y" id="4yvVJ8UGzDP" role="cj9EA">
                            <ref role="cht4Q" to="tpee:gWaQbR$" resolve="PrimitiveType" />
                          </node>
                        </node>
                      </node>
                      <node concept="2OqwBi" id="4yvVJ8UGzDQ" role="3uHU7w">
                        <node concept="37vLTw" id="3GM_nagTBsI" role="2Oq$k0">
                          <ref role="3cqZAo" node="4yvVJ8UGzDt" resolve="rt" />
                        </node>
                        <node concept="1mIQ4w" id="4yvVJ8UGzDS" role="2OqNvi">
                          <node concept="chp4Y" id="4yvVJ8UGzDT" role="cj9EA">
                            <ref role="cht4Q" to="tpee:gWaQbR$" resolve="PrimitiveType" />
                          </node>
                        </node>
                      </node>
                    </node>
                  </node>
                </node>
              </node>
            </node>
          </node>
          <node concept="gft3U" id="4yvVJ8UGzDU" role="150oIE">
            <node concept="3clFbC" id="4yvVJ8UGzDV" role="gfFT$">
              <node concept="33vP2n" id="4yvVJ8UGzDW" role="3uHU7w">
                <node concept="29HgVG" id="4yvVJ8UGzDX" role="lGtFl">
                  <node concept="3NFfHV" id="4yvVJ8UGzDY" role="3NFExx">
                    <node concept="3clFbS" id="4yvVJ8UGzDZ" role="2VODD2">
                      <node concept="3clFbF" id="4yvVJ8UGzE0" role="3cqZAp">
                        <node concept="2OqwBi" id="4yvVJ8UGzE1" role="3clFbG">
                          <node concept="3TrEf2" id="4yvVJ8UGzE2" role="2OqNvi">
                            <ref role="3Tt5mk" to="tpee:fJuHU4r" />
                          </node>
                          <node concept="30H73N" id="4yvVJ8UGzE3" role="2Oq$k0" />
                        </node>
                      </node>
                    </node>
                  </node>
                </node>
              </node>
              <node concept="10QFUN" id="4yvVJ8UGzE4" role="3uHU7B">
                <node concept="33vP2n" id="4yvVJ8UGzE5" role="10QFUP">
                  <node concept="29HgVG" id="4yvVJ8UGzE6" role="lGtFl">
                    <node concept="3NFfHV" id="4yvVJ8UGzE7" role="3NFExx">
                      <node concept="3clFbS" id="4yvVJ8UGzE8" role="2VODD2">
                        <node concept="3clFbF" id="4yvVJ8UGzE9" role="3cqZAp">
                          <node concept="2OqwBi" id="4yvVJ8UGzEa" role="3clFbG">
                            <node concept="3TrEf2" id="4yvVJ8UGzEb" role="2OqNvi">
                              <ref role="3Tt5mk" to="tpee:fJuHU4s" />
                            </node>
                            <node concept="30H73N" id="4yvVJ8UGzEc" role="2Oq$k0" />
                          </node>
                        </node>
                      </node>
                    </node>
                  </node>
                </node>
                <node concept="33vP2l" id="4yvVJ8UGzEd" role="10QFUM">
                  <node concept="29HgVG" id="4yvVJ8UGzEe" role="lGtFl">
                    <node concept="3NFfHV" id="4yvVJ8UGzEf" role="3NFExx">
                      <node concept="3clFbS" id="4yvVJ8UGzEg" role="2VODD2">
                        <node concept="3clFbF" id="4yvVJ8UGzEh" role="3cqZAp">
                          <node concept="2OqwBi" id="4yvVJ8UGzEi" role="3clFbG">
                            <node concept="2OqwBi" id="4yvVJ8UGzEj" role="2Oq$k0">
                              <node concept="3TrEf2" id="4yvVJ8UGzEk" role="2OqNvi">
                                <ref role="3Tt5mk" to="tpee:fJuHU4s" />
                              </node>
                              <node concept="30H73N" id="4yvVJ8UGzEl" role="2Oq$k0" />
                            </node>
                            <node concept="3JvlWi" id="4yvVJ8UGzEm" role="2OqNvi" />
                          </node>
                        </node>
                      </node>
                    </node>
                  </node>
                </node>
              </node>
            </node>
          </node>
        </node>
        <node concept="j$LIH" id="4yvVJ8UGzEn" role="14YRTM" />
      </node>
      <node concept="30G5F_" id="4yvVJ8UGzEo" role="30HLyM">
        <node concept="3clFbS" id="4yvVJ8UGzEp" role="2VODD2">
          <node concept="3cpWs6" id="2ZjKcncb3pL" role="3cqZAp">
            <node concept="2YIFZM" id="2ZjKcncb5vW" role="3cqZAk">
              <ref role="37wK5l" to="tp2k:2ZjKcncaxQk" resolve="isCollectionElementAccess" />
              <ref role="1Pybhc" to="tp2k:2ZjKcncar2h" resolve="Helper" />
              <node concept="2OqwBi" id="2ZjKcncb60L" role="37wK5m">
                <node concept="30H73N" id="2ZjKcncb5St" role="2Oq$k0" />
                <node concept="3TrEf2" id="2ZjKcncb6$0" role="2OqNvi">
                  <ref role="3Tt5mk" to="tpee:fJuHU4s" />
                </node>
              </node>
            </node>
          </node>
        </node>
      </node>
    </node>
    <node concept="3aamgX" id="4yvVJ8UGzF6" role="3acgRq">
      <ref role="30HIoZ" to="tpee:fzclF8g" resolve="EqualsExpression" />
      <node concept="14YyZ8" id="4yvVJ8UGzF7" role="1lVwrX">
        <node concept="14ZrTv" id="4yvVJ8UGzF8" role="14ZwWg">
          <node concept="30G5F_" id="4yvVJ8UGzF9" role="150hEN">
            <node concept="3clFbS" id="4yvVJ8UGzFa" role="2VODD2">
              <node concept="3cpWs8" id="4yvVJ8UGzFb" role="3cqZAp">
                <node concept="3cpWsn" id="4yvVJ8UGzFc" role="3cpWs9">
                  <property role="TrG5h" value="lt" />
                  <node concept="3Tqbb2" id="4yvVJ8UGzFd" role="1tU5fm" />
                  <node concept="2OqwBi" id="4yvVJ8UGzFe" role="33vP2m">
                    <node concept="2OqwBi" id="4yvVJ8UGzFf" role="2Oq$k0">
                      <node concept="30H73N" id="4yvVJ8UGzFg" role="2Oq$k0" />
                      <node concept="3TrEf2" id="4yvVJ8UGzFh" role="2OqNvi">
                        <ref role="3Tt5mk" to="tpee:fJuHU4s" />
                      </node>
                    </node>
                    <node concept="3JvlWi" id="4yvVJ8UGzFi" role="2OqNvi" />
                  </node>
                </node>
              </node>
              <node concept="3cpWs8" id="4yvVJ8UGzFj" role="3cqZAp">
                <node concept="3cpWsn" id="4yvVJ8UGzFk" role="3cpWs9">
                  <property role="TrG5h" value="rt" />
                  <node concept="3Tqbb2" id="4yvVJ8UGzFl" role="1tU5fm" />
                  <node concept="2OqwBi" id="4yvVJ8UGzFm" role="33vP2m">
                    <node concept="2OqwBi" id="4yvVJ8UGzFn" role="2Oq$k0">
                      <node concept="30H73N" id="4yvVJ8UGzFo" role="2Oq$k0" />
                      <node concept="3TrEf2" id="4yvVJ8UGzFp" role="2OqNvi">
                        <ref role="3Tt5mk" to="tpee:fJuHU4r" />
                      </node>
                    </node>
                    <node concept="3JvlWi" id="4yvVJ8UGzFq" role="2OqNvi" />
                  </node>
                </node>
              </node>
              <node concept="3clFbF" id="4yvVJ8UGzFr" role="3cqZAp">
                <node concept="1Wc70l" id="4yvVJ8UGzFs" role="3clFbG">
                  <node concept="3fqX7Q" id="4yvVJ8UGzFt" role="3uHU7w">
                    <node concept="1eOMI4" id="3$myXoLqkMm" role="3fr31v">
                      <node concept="22lmx$" id="4yvVJ8UGzFu" role="1eOMHV">
                        <node concept="2OqwBi" id="4yvVJ8UGzFv" role="3uHU7w">
                          <node concept="37vLTw" id="3GM_nagTshj" role="2Oq$k0">
                            <ref role="3cqZAo" node="4yvVJ8UGzFk" resolve="rt" />
                          </node>
                          <node concept="1mIQ4w" id="4yvVJ8UGzFx" role="2OqNvi">
                            <node concept="chp4Y" id="4yvVJ8UGzFy" role="cj9EA">
                              <ref role="cht4Q" to="tpee:hxvX6za" resolve="NullType" />
                            </node>
                          </node>
                        </node>
                        <node concept="2OqwBi" id="4yvVJ8UGzFz" role="3uHU7B">
                          <node concept="37vLTw" id="3GM_nagTrK4" role="2Oq$k0">
                            <ref role="3cqZAo" node="4yvVJ8UGzFc" resolve="lt" />
                          </node>
                          <node concept="1mIQ4w" id="4yvVJ8UGzF_" role="2OqNvi">
                            <node concept="chp4Y" id="4yvVJ8UGzFA" role="cj9EA">
                              <ref role="cht4Q" to="tpee:hxvX6za" resolve="NullType" />
                            </node>
                          </node>
                        </node>
                      </node>
                    </node>
                  </node>
                  <node concept="1eOMI4" id="4yvVJ8UGzFB" role="3uHU7B">
                    <node concept="22lmx$" id="4yvVJ8UGzFC" role="1eOMHV">
                      <node concept="2OqwBi" id="4yvVJ8UGzFD" role="3uHU7B">
                        <node concept="37vLTw" id="3GM_nagTyeQ" role="2Oq$k0">
                          <ref role="3cqZAo" node="4yvVJ8UGzFc" resolve="lt" />
                        </node>
                        <node concept="1mIQ4w" id="4yvVJ8UGzFF" role="2OqNvi">
                          <node concept="chp4Y" id="4yvVJ8UGzFG" role="cj9EA">
                            <ref role="cht4Q" to="tpee:gWaQbR$" resolve="PrimitiveType" />
                          </node>
                        </node>
                      </node>
                      <node concept="2OqwBi" id="4yvVJ8UGzFH" role="3uHU7w">
                        <node concept="37vLTw" id="3GM_nagTrPp" role="2Oq$k0">
                          <ref role="3cqZAo" node="4yvVJ8UGzFk" resolve="rt" />
                        </node>
                        <node concept="1mIQ4w" id="4yvVJ8UGzFJ" role="2OqNvi">
                          <node concept="chp4Y" id="4yvVJ8UGzFK" role="cj9EA">
                            <ref role="cht4Q" to="tpee:gWaQbR$" resolve="PrimitiveType" />
                          </node>
                        </node>
                      </node>
                    </node>
                  </node>
                </node>
              </node>
            </node>
          </node>
          <node concept="gft3U" id="4yvVJ8UGzFL" role="150oIE">
            <node concept="3clFbC" id="4yvVJ8UGzFM" role="gfFT$">
              <node concept="10QFUN" id="4yvVJ8UGzFN" role="3uHU7w">
                <node concept="33vP2n" id="4yvVJ8UGzFO" role="10QFUP">
                  <node concept="29HgVG" id="4yvVJ8UGzFP" role="lGtFl">
                    <node concept="3NFfHV" id="4yvVJ8UGzFQ" role="3NFExx">
                      <node concept="3clFbS" id="4yvVJ8UGzFR" role="2VODD2">
                        <node concept="3clFbF" id="4yvVJ8UGzFS" role="3cqZAp">
                          <node concept="2OqwBi" id="4yvVJ8UGzFT" role="3clFbG">
                            <node concept="3TrEf2" id="4yvVJ8UGzFU" role="2OqNvi">
                              <ref role="3Tt5mk" to="tpee:fJuHU4r" />
                            </node>
                            <node concept="30H73N" id="4yvVJ8UGzFV" role="2Oq$k0" />
                          </node>
                        </node>
                      </node>
                    </node>
                  </node>
                </node>
                <node concept="33vP2l" id="4yvVJ8UGzFW" role="10QFUM">
                  <node concept="29HgVG" id="4yvVJ8UGzFX" role="lGtFl">
                    <node concept="3NFfHV" id="4yvVJ8UGzFY" role="3NFExx">
                      <node concept="3clFbS" id="4yvVJ8UGzFZ" role="2VODD2">
                        <node concept="3clFbF" id="4yvVJ8UGzG0" role="3cqZAp">
                          <node concept="2OqwBi" id="4yvVJ8UGzG1" role="3clFbG">
                            <node concept="2OqwBi" id="4yvVJ8UGzG2" role="2Oq$k0">
                              <node concept="3TrEf2" id="4yvVJ8UGzG3" role="2OqNvi">
                                <ref role="3Tt5mk" to="tpee:fJuHU4r" />
                              </node>
                              <node concept="30H73N" id="4yvVJ8UGzG4" role="2Oq$k0" />
                            </node>
                            <node concept="3JvlWi" id="4yvVJ8UGzG5" role="2OqNvi" />
                          </node>
                        </node>
                      </node>
                    </node>
                  </node>
                </node>
              </node>
              <node concept="33vP2n" id="4yvVJ8UGzG6" role="3uHU7B">
                <node concept="29HgVG" id="4yvVJ8UGzG7" role="lGtFl">
                  <node concept="3NFfHV" id="4yvVJ8UGzG8" role="3NFExx">
                    <node concept="3clFbS" id="4yvVJ8UGzG9" role="2VODD2">
                      <node concept="3clFbF" id="4yvVJ8UGzGa" role="3cqZAp">
                        <node concept="2OqwBi" id="4yvVJ8UGzGb" role="3clFbG">
                          <node concept="3TrEf2" id="4yvVJ8UGzGc" role="2OqNvi">
                            <ref role="3Tt5mk" to="tpee:fJuHU4s" />
                          </node>
                          <node concept="30H73N" id="4yvVJ8UGzGd" role="2Oq$k0" />
                        </node>
                      </node>
                    </node>
                  </node>
                </node>
              </node>
            </node>
          </node>
        </node>
        <node concept="j$LIH" id="4yvVJ8UGzGe" role="14YRTM" />
      </node>
      <node concept="30G5F_" id="4yvVJ8UGzGf" role="30HLyM">
        <node concept="3clFbS" id="4yvVJ8UGzGg" role="2VODD2">
          <node concept="3cpWs6" id="2ZjKcncbf7I" role="3cqZAp">
            <node concept="2YIFZM" id="2ZjKcncbg3E" role="3cqZAk">
              <ref role="37wK5l" to="tp2k:2ZjKcncaxQk" resolve="isCollectionElementAccess" />
              <ref role="1Pybhc" to="tp2k:2ZjKcncar2h" resolve="Helper" />
              <node concept="2OqwBi" id="2ZjKcncbgzO" role="37wK5m">
                <node concept="30H73N" id="2ZjKcncbgrw" role="2Oq$k0" />
                <node concept="3TrEf2" id="2ZjKcncbh6e" role="2OqNvi">
                  <ref role="3Tt5mk" to="tpee:fJuHU4r" />
                </node>
              </node>
            </node>
          </node>
        </node>
      </node>
    </node>
    <node concept="avzCv" id="5W6Fqqv0gkf" role="avys_">
      <node concept="3clFbS" id="5W6Fqqv0gkg" role="2VODD2">
        <node concept="1DcWWT" id="5W6Fqqv0opt" role="3cqZAp">
          <node concept="3clFbS" id="5W6Fqqv0opu" role="2LFqv$">
            <node concept="3cpWs8" id="5W6FqqvasXh" role="3cqZAp">
              <node concept="3cpWsn" id="5W6FqqvasXi" role="3cpWs9">
                <property role="TrG5h" value="le" />
                <node concept="3Tqbb2" id="5W6FqqvasXd" role="1tU5fm">
                  <ref role="ehGHo" to="tpee:fz3vP1J" resolve="Expression" />
                </node>
                <node concept="2OqwBi" id="5W6FqqvasXj" role="33vP2m">
                  <node concept="37vLTw" id="5W6FqqvasXk" role="2Oq$k0">
                    <ref role="3cqZAo" node="5W6Fqqv0opx" resolve="node" />
                  </node>
                  <node concept="3TrEf2" id="5W6FqqvasXl" role="2OqNvi">
                    <ref role="3Tt5mk" to="tpee:fJuHU4s" />
                  </node>
                </node>
              </node>
            </node>
            <node concept="3cpWs8" id="5W6Fqqvav_w" role="3cqZAp">
              <node concept="3cpWsn" id="5W6Fqqvav_x" role="3cpWs9">
                <property role="TrG5h" value="re" />
                <node concept="3Tqbb2" id="5W6Fqqvav_v" role="1tU5fm">
                  <ref role="ehGHo" to="tpee:fz3vP1J" resolve="Expression" />
                </node>
                <node concept="2OqwBi" id="5W6Fqqvav_y" role="33vP2m">
                  <node concept="37vLTw" id="5W6Fqqvav_z" role="2Oq$k0">
                    <ref role="3cqZAo" node="5W6Fqqv0opx" resolve="node" />
                  </node>
                  <node concept="3TrEf2" id="5W6Fqqvav_$" role="2OqNvi">
                    <ref role="3Tt5mk" to="tpee:fJuHU4r" />
                  </node>
                </node>
              </node>
            </node>
            <node concept="3clFbJ" id="2ZjKcncbhNj" role="3cqZAp">
              <node concept="3clFbS" id="2ZjKcncbhNm" role="3clFbx">
                <node concept="3cpWs6" id="2ZjKcncbjJf" role="3cqZAp">
                  <node concept="3clFbT" id="2ZjKcncbjRE" role="3cqZAk">
                    <property role="3clFbU" value="true" />
                  </node>
                </node>
              </node>
              <node concept="22lmx$" id="2ZjKcncbiVh" role="3clFbw">
                <node concept="2YIFZM" id="2ZjKcncbjl8" role="3uHU7w">
                  <ref role="37wK5l" to="tp2k:2ZjKcncaxQk" resolve="isCollectionElementAccess" />
                  <ref role="1Pybhc" to="tp2k:2ZjKcncar2h" resolve="Helper" />
                  <node concept="37vLTw" id="2ZjKcncbjy7" role="37wK5m">
                    <ref role="3cqZAo" node="5W6Fqqvav_x" resolve="re" />
                  </node>
                </node>
                <node concept="2YIFZM" id="2ZjKcncbidm" role="3uHU7B">
                  <ref role="37wK5l" to="tp2k:2ZjKcncaxQk" resolve="isCollectionElementAccess" />
                  <ref role="1Pybhc" to="tp2k:2ZjKcncar2h" resolve="Helper" />
                  <node concept="37vLTw" id="2ZjKcncbipG" role="37wK5m">
                    <ref role="3cqZAo" node="5W6FqqvasXi" resolve="le" />
                  </node>
                </node>
              </node>
            </node>
          </node>
          <node concept="3cpWsn" id="5W6Fqqv0opx" role="1Duv9x">
            <property role="TrG5h" value="node" />
            <node concept="3Tqbb2" id="5W6Fqqv0q15" role="1tU5fm">
              <ref role="ehGHo" to="tpee:fzclF8g" resolve="EqualsExpression" />
            </node>
          </node>
          <node concept="2OqwBi" id="5W6Fqqv0opA" role="1DdaDG">
            <node concept="2OqwBi" id="5W6Fqqv0opB" role="2Oq$k0">
              <node concept="1iwH7S" id="5W6Fqqv0opC" role="2Oq$k0" />
              <node concept="1r8y6K" id="5W6Fqqv0opD" role="2OqNvi" />
            </node>
            <node concept="2SmgA7" id="5W6Fqqv0opE" role="2OqNvi">
              <node concept="chp4Y" id="1jixkkC_WJ9" role="1dBWTz">
                <ref role="cht4Q" to="tpee:fzclF8g" resolve="EqualsExpression" />
              </node>
            </node>
          </node>
        </node>
        <node concept="3cpWs6" id="5W6Fqqv2l1k" role="3cqZAp">
          <node concept="3clFbT" id="5W6Fqqv2l2t" role="3cqZAk">
            <property role="3clFbU" value="false" />
          </node>
        </node>
      </node>
    </node>
  </node>
</model>

