<?xml version="1.0" encoding="UTF-8"?>
<model ref="r:00000000-0000-4000-0000-011c89590330(jetbrains.mps.baseLanguage.collections.generator.baseLanguage.template.util)">
  <persistence version="9" />
  <languages>
    <use id="3a13115c-633c-4c5c-bbcc-75c4219e9555" name="jetbrains.mps.lang.quotation" version="0" />
    <use id="7a5dda62-9140-4668-ab76-d5ed1746f2b2" name="jetbrains.mps.lang.typesystem" version="0" />
    <use id="7866978e-a0f0-4cc7-81bc-4d213d9375e1" name="jetbrains.mps.lang.smodel" version="4" />
    <use id="f3061a53-9226-4cc5-a443-f952ceaf5816" name="jetbrains.mps.baseLanguage" version="4" />
  </languages>
  <imports>
    <import index="wyt6" ref="6354ebe7-c22a-4a0f-ac54-50b52ab9b065/java:java.lang(JDK/)" />
    <import index="w1kc" ref="6ed54515-acc8-4d1e-a16c-9fd6cfe951ea/java:jetbrains.mps.smodel(MPS.Core/)" />
    <import index="mhbf" ref="8865b7a8-5271-43d3-884c-6fd1d9cfdd34/java:org.jetbrains.mps.openapi.model(MPS.OpenAPI/)" />
    <import index="tpee" ref="r:00000000-0000-4000-0000-011c895902ca(jetbrains.mps.baseLanguage.structure)" implicit="true" />
    <import index="tp2q" ref="r:00000000-0000-4000-0000-011c8959032e(jetbrains.mps.baseLanguage.collections.structure)" implicit="true" />
  </imports>
  <registry>
    <language id="f3061a53-9226-4cc5-a443-f952ceaf5816" name="jetbrains.mps.baseLanguage">
      <concept id="1080223426719" name="jetbrains.mps.baseLanguage.structure.OrExpression" flags="nn" index="22lmx$" />
      <concept id="1215693861676" name="jetbrains.mps.baseLanguage.structure.BaseAssignmentExpression" flags="nn" index="d038R">
        <child id="1068498886297" name="rValue" index="37vLTx" />
        <child id="1068498886295" name="lValue" index="37vLTJ" />
      </concept>
      <concept id="1202948039474" name="jetbrains.mps.baseLanguage.structure.InstanceMethodCallOperation" flags="nn" index="liA8E" />
      <concept id="1224573963862" name="jetbrains.mps.baseLanguage.structure.EnumValuesExpression" flags="nn" index="uiWXb">
        <reference id="1224573974191" name="enumClass" index="uiZuM" />
      </concept>
      <concept id="1224848483129" name="jetbrains.mps.baseLanguage.structure.IBLDeprecatable" flags="ng" index="IEa8$">
        <property id="1224848525476" name="isDeprecated" index="IEkAT" />
      </concept>
      <concept id="1154032098014" name="jetbrains.mps.baseLanguage.structure.AbstractLoopStatement" flags="nn" index="2LF5Ji">
        <child id="1154032183016" name="body" index="2LFqv$" />
      </concept>
      <concept id="1197027756228" name="jetbrains.mps.baseLanguage.structure.DotExpression" flags="nn" index="2OqwBi">
        <child id="1197027771414" name="operand" index="2Oq$k0" />
        <child id="1197027833540" name="operation" index="2OqNvi" />
      </concept>
      <concept id="1197029447546" name="jetbrains.mps.baseLanguage.structure.FieldReferenceOperation" flags="nn" index="2OwXpG">
        <reference id="1197029500499" name="fieldDeclaration" index="2Oxat5" />
      </concept>
      <concept id="1083245097125" name="jetbrains.mps.baseLanguage.structure.EnumClass" flags="ig" index="Qs71p">
        <child id="1083245396908" name="enumConstant" index="Qtgdg" />
      </concept>
      <concept id="1083245299891" name="jetbrains.mps.baseLanguage.structure.EnumConstantDeclaration" flags="ig" index="QsSxf" />
      <concept id="1070475354124" name="jetbrains.mps.baseLanguage.structure.ThisExpression" flags="nn" index="Xjq3P" />
      <concept id="1070475926800" name="jetbrains.mps.baseLanguage.structure.StringLiteral" flags="nn" index="Xl_RD">
        <property id="1070475926801" name="value" index="Xl_RC" />
      </concept>
      <concept id="1081236700938" name="jetbrains.mps.baseLanguage.structure.StaticMethodDeclaration" flags="ig" index="2YIFZL" />
      <concept id="1081236700937" name="jetbrains.mps.baseLanguage.structure.StaticMethodCall" flags="nn" index="2YIFZM">
        <reference id="1144433194310" name="classConcept" index="1Pybhc" />
      </concept>
      <concept id="1070534058343" name="jetbrains.mps.baseLanguage.structure.NullLiteral" flags="nn" index="10Nm6u" />
      <concept id="1070534644030" name="jetbrains.mps.baseLanguage.structure.BooleanType" flags="in" index="10P_77" />
      <concept id="1068390468200" name="jetbrains.mps.baseLanguage.structure.FieldDeclaration" flags="ig" index="312cEg" />
      <concept id="1068390468198" name="jetbrains.mps.baseLanguage.structure.ClassConcept" flags="ig" index="312cEu" />
      <concept id="1068431474542" name="jetbrains.mps.baseLanguage.structure.VariableDeclaration" flags="ng" index="33uBYm">
        <child id="1068431790190" name="initializer" index="33vP2m" />
      </concept>
      <concept id="1068498886296" name="jetbrains.mps.baseLanguage.structure.VariableReference" flags="nn" index="37vLTw">
        <reference id="1068581517664" name="variableDeclaration" index="3cqZAo" />
      </concept>
      <concept id="1068498886292" name="jetbrains.mps.baseLanguage.structure.ParameterDeclaration" flags="ir" index="37vLTG" />
      <concept id="1068498886294" name="jetbrains.mps.baseLanguage.structure.AssignmentExpression" flags="nn" index="37vLTI" />
      <concept id="1225271177708" name="jetbrains.mps.baseLanguage.structure.StringType" flags="in" index="17QB3L" />
      <concept id="4972933694980447171" name="jetbrains.mps.baseLanguage.structure.BaseVariableDeclaration" flags="ng" index="19Szcq">
        <child id="5680397130376446158" name="type" index="1tU5fm" />
      </concept>
      <concept id="1068580123132" name="jetbrains.mps.baseLanguage.structure.BaseMethodDeclaration" flags="ng" index="3clF44">
        <child id="1068580123133" name="returnType" index="3clF45" />
        <child id="1068580123134" name="parameter" index="3clF46" />
        <child id="1068580123135" name="body" index="3clF47" />
      </concept>
      <concept id="1068580123165" name="jetbrains.mps.baseLanguage.structure.InstanceMethodDeclaration" flags="ig" index="3clFb_" />
      <concept id="1068580123155" name="jetbrains.mps.baseLanguage.structure.ExpressionStatement" flags="nn" index="3clFbF">
        <child id="1068580123156" name="expression" index="3clFbG" />
      </concept>
      <concept id="1068580123159" name="jetbrains.mps.baseLanguage.structure.IfStatement" flags="nn" index="3clFbJ">
        <child id="1068580123160" name="condition" index="3clFbw" />
        <child id="1068580123161" name="ifTrue" index="3clFbx" />
      </concept>
      <concept id="1068580123136" name="jetbrains.mps.baseLanguage.structure.StatementList" flags="sn" stub="5293379017992965193" index="3clFbS">
        <child id="1068581517665" name="statement" index="3cqZAp" />
      </concept>
      <concept id="1068580123137" name="jetbrains.mps.baseLanguage.structure.BooleanConstant" flags="nn" index="3clFbT">
        <property id="1068580123138" name="value" index="3clFbU" />
      </concept>
      <concept id="1068580123140" name="jetbrains.mps.baseLanguage.structure.ConstructorDeclaration" flags="ig" index="3clFbW" />
      <concept id="1068581242875" name="jetbrains.mps.baseLanguage.structure.PlusExpression" flags="nn" index="3cpWs3" />
      <concept id="1068581242878" name="jetbrains.mps.baseLanguage.structure.ReturnStatement" flags="nn" index="3cpWs6">
        <child id="1068581517676" name="expression" index="3cqZAk" />
      </concept>
      <concept id="1068581242864" name="jetbrains.mps.baseLanguage.structure.LocalVariableDeclarationStatement" flags="nn" index="3cpWs8">
        <child id="1068581242865" name="localVariableDeclaration" index="3cpWs9" />
      </concept>
      <concept id="1068581242863" name="jetbrains.mps.baseLanguage.structure.LocalVariableDeclaration" flags="nr" index="3cpWsn" />
      <concept id="1068581517677" name="jetbrains.mps.baseLanguage.structure.VoidType" flags="in" index="3cqZAl" />
      <concept id="1081516740877" name="jetbrains.mps.baseLanguage.structure.NotExpression" flags="nn" index="3fqX7Q">
        <child id="1081516765348" name="expression" index="3fr31v" />
      </concept>
      <concept id="1204053956946" name="jetbrains.mps.baseLanguage.structure.IMethodCall" flags="ng" index="1ndlxa">
        <reference id="1068499141037" name="baseMethodDeclaration" index="37wK5l" />
        <child id="1068499141038" name="actualArgument" index="37wK5m" />
      </concept>
      <concept id="1107461130800" name="jetbrains.mps.baseLanguage.structure.Classifier" flags="ng" index="3pOWGL">
        <child id="5375687026011219971" name="member" index="jymVt" unordered="true" />
      </concept>
      <concept id="7812454656619025412" name="jetbrains.mps.baseLanguage.structure.LocalMethodCall" flags="nn" index="1rXfSq" />
      <concept id="1107535904670" name="jetbrains.mps.baseLanguage.structure.ClassifierType" flags="in" index="3uibUv">
        <reference id="1107535924139" name="classifier" index="3uigEE" />
      </concept>
      <concept id="1081773326031" name="jetbrains.mps.baseLanguage.structure.BinaryOperation" flags="nn" index="3uHJSO">
        <child id="1081773367579" name="rightExpression" index="3uHU7w" />
        <child id="1081773367580" name="leftExpression" index="3uHU7B" />
      </concept>
      <concept id="1073239437375" name="jetbrains.mps.baseLanguage.structure.NotEqualsExpression" flags="nn" index="3y3z36" />
      <concept id="1178549954367" name="jetbrains.mps.baseLanguage.structure.IVisible" flags="ng" index="1B3ioH">
        <child id="1178549979242" name="visibility" index="1B3o_S" />
      </concept>
      <concept id="1144226303539" name="jetbrains.mps.baseLanguage.structure.ForeachStatement" flags="nn" index="1DcWWT">
        <child id="1144226360166" name="iterable" index="1DdaDG" />
      </concept>
      <concept id="1144230876926" name="jetbrains.mps.baseLanguage.structure.AbstractForStatement" flags="nn" index="1DupvO">
        <child id="1144230900587" name="variable" index="1Duv9x" />
      </concept>
      <concept id="6329021646629104957" name="jetbrains.mps.baseLanguage.structure.TextCommentPart" flags="nn" index="3SKdUq">
        <property id="6329021646629104958" name="text" index="3SKdUp" />
      </concept>
      <concept id="6329021646629104954" name="jetbrains.mps.baseLanguage.structure.SingleLineComment" flags="nn" index="3SKdUt">
        <child id="6329021646629175155" name="commentPart" index="3SKWNk" />
      </concept>
      <concept id="1146644602865" name="jetbrains.mps.baseLanguage.structure.PublicVisibility" flags="nn" index="3Tm1VV" />
      <concept id="1146644623116" name="jetbrains.mps.baseLanguage.structure.PrivateVisibility" flags="nn" index="3Tm6S6" />
      <concept id="1080120340718" name="jetbrains.mps.baseLanguage.structure.AndExpression" flags="nn" index="1Wc70l" />
    </language>
    <language id="7866978e-a0f0-4cc7-81bc-4d213d9375e1" name="jetbrains.mps.lang.smodel">
      <concept id="1177026924588" name="jetbrains.mps.lang.smodel.structure.RefConcept_Reference" flags="nn" index="chp4Y">
        <reference id="1177026940964" name="conceptDeclaration" index="cht4Q" />
      </concept>
      <concept id="2396822768958367367" name="jetbrains.mps.lang.smodel.structure.AbstractTypeCastExpression" flags="nn" index="$5XWr">
        <reference id="6733348108486823428" name="concept" index="1m5ApE" />
        <child id="6733348108486823193" name="leftExpression" index="1m5AlR" />
      </concept>
      <concept id="1145404486709" name="jetbrains.mps.lang.smodel.structure.SemanticDowncastExpression" flags="nn" index="2JrnkZ">
        <child id="1145404616321" name="leftExpression" index="2JrQYb" />
      </concept>
      <concept id="1139621453865" name="jetbrains.mps.lang.smodel.structure.Node_IsInstanceOfOperation" flags="nn" index="1mIQ4w">
        <child id="1177027386292" name="conceptArgument" index="cj9EA" />
      </concept>
      <concept id="1140137987495" name="jetbrains.mps.lang.smodel.structure.SNodeTypeCastExpression" flags="nn" index="1PxgMI" />
      <concept id="1138055754698" name="jetbrains.mps.lang.smodel.structure.SNodeType" flags="in" index="3Tqbb2">
        <reference id="1138405853777" name="concept" index="ehGHo" />
      </concept>
      <concept id="1138056143562" name="jetbrains.mps.lang.smodel.structure.SLinkAccess" flags="nn" index="3TrEf2">
        <reference id="1138056516764" name="link" index="3Tt5mk" />
      </concept>
    </language>
    <language id="ceab5195-25ea-4f22-9b92-103b95ca8c0c" name="jetbrains.mps.lang.core">
      <concept id="1169194658468" name="jetbrains.mps.lang.core.structure.INamedConcept" flags="ng" index="TrEIO">
        <property id="1169194664001" name="name" index="TrG5h" />
      </concept>
    </language>
  </registry>
  <node concept="Qs71p" id="i3QAlyk">
    <property role="TrG5h" value="Keys" />
    <node concept="QsSxf" id="i3QADIu" role="Qtgdg">
      <property role="TrG5h" value="WRAPPED_WITH_MAP_SEQUENCE" />
      <ref role="37wK5l" node="i3QAlyS" resolve="Keys" />
      <node concept="Xl_RD" id="i3QAFKL" role="37wK5m">
        <property role="Xl_RC" value="wrapped_with_map_sequence" />
      </node>
    </node>
    <node concept="3Tm1VV" id="i3QAlyR" role="1B3o_S" />
    <node concept="312cEg" id="i3QAlyE" role="jymVt">
      <property role="TrG5h" value="name" />
      <node concept="3Tm6S6" id="i3QAlyF" role="1B3o_S" />
      <node concept="17QB3L" id="i3QAlyG" role="1tU5fm" />
    </node>
    <node concept="3clFbW" id="i3QAlyS" role="jymVt">
      <node concept="3cqZAl" id="i3QAlyT" role="3clF45" />
      <node concept="3clFbS" id="i3QAlyV" role="3clF47">
        <node concept="3clFbF" id="i3QAlyW" role="3cqZAp">
          <node concept="37vLTI" id="i3QAlyX" role="3clFbG">
            <node concept="1rXfSq" id="4hiugqysqMe" role="37vLTx">
              <ref role="37wK5l" node="i3QAlyH" resolve="PREFIX" />
              <node concept="37vLTw" id="2BHiRxglGTe" role="37wK5m">
                <ref role="3cqZAo" node="i3QAlz3" resolve="name" />
              </node>
            </node>
            <node concept="2OqwBi" id="i3QAlz0" role="37vLTJ">
              <node concept="Xjq3P" id="i3QAlz1" role="2Oq$k0" />
              <node concept="2OwXpG" id="i3QAlz2" role="2OqNvi">
                <ref role="2Oxat5" node="i3QAlyE" resolve="name" />
              </node>
            </node>
          </node>
        </node>
      </node>
      <node concept="37vLTG" id="i3QAlz3" role="3clF46">
        <property role="TrG5h" value="name" />
        <node concept="17QB3L" id="i3QAlz4" role="1tU5fm" />
      </node>
    </node>
    <node concept="3clFb_" id="i3QAlyl" role="jymVt">
      <property role="TrG5h" value="compose" />
      <node concept="17QB3L" id="i3QAlym" role="3clF45" />
      <node concept="3Tm1VV" id="i3QAlyn" role="1B3o_S" />
      <node concept="3clFbS" id="i3QAlyo" role="3clF47">
        <node concept="3clFbF" id="i3QAlyp" role="3cqZAp">
          <node concept="3cpWs3" id="i3QAlyr" role="3clFbG">
            <node concept="2YIFZM" id="i3QAlys" role="3uHU7w">
              <ref role="1Pybhc" to="wyt6:~String" resolve="String" />
              <ref role="37wK5l" to="wyt6:~String.valueOf(java.lang.Object):java.lang.String" resolve="valueOf" />
              <node concept="37vLTw" id="2BHiRxghg9G" role="37wK5m">
                <ref role="3cqZAo" node="i3QAlyy" resolve="o" />
              </node>
            </node>
            <node concept="3cpWs3" id="i3QAlyq" role="3uHU7B">
              <node concept="2OqwBi" id="i3QAlyv" role="3uHU7B">
                <node concept="Xjq3P" id="i3QAlyw" role="2Oq$k0" />
                <node concept="2OwXpG" id="i3QAlyx" role="2OqNvi">
                  <ref role="2Oxat5" node="i3QAlyE" resolve="name" />
                </node>
              </node>
              <node concept="Xl_RD" id="i3QAlyu" role="3uHU7w">
                <property role="Xl_RC" value="." />
              </node>
            </node>
          </node>
        </node>
      </node>
      <node concept="37vLTG" id="i3QAlyy" role="3clF46">
        <property role="TrG5h" value="o" />
        <node concept="3uibUv" id="i3QAlyz" role="1tU5fm">
          <ref role="3uigEE" to="wyt6:~Object" resolve="Object" />
        </node>
      </node>
    </node>
    <node concept="2YIFZL" id="i3QAlyH" role="jymVt">
      <property role="TrG5h" value="PREFIX" />
      <node concept="3Tm6S6" id="i3QAlyI" role="1B3o_S" />
      <node concept="3clFbS" id="i3QAlyJ" role="3clF47">
        <node concept="3clFbF" id="i3QAlyK" role="3cqZAp">
          <node concept="3cpWs3" id="i3QAlyL" role="3clFbG">
            <node concept="37vLTw" id="2BHiRxgl01j" role="3uHU7w">
              <ref role="3cqZAo" node="i3QAlyP" resolve="str" />
            </node>
            <node concept="Xl_RD" id="i3QAlyN" role="3uHU7B">
              <property role="Xl_RC" value="jetbrains.mps.baselanguage.collections.generator." />
            </node>
          </node>
        </node>
      </node>
      <node concept="17QB3L" id="i3QAlyO" role="3clF45" />
      <node concept="37vLTG" id="i3QAlyP" role="3clF46">
        <property role="TrG5h" value="str" />
        <node concept="17QB3L" id="i3QAlyQ" role="1tU5fm" />
      </node>
    </node>
  </node>
  <node concept="Qs71p" id="2ZbXqoJYVfy">
    <property role="TrG5h" value="Values" />
    <node concept="QsSxf" id="2ZbXqoJYVgA" role="Qtgdg">
      <property role="TrG5h" value="CREATOR" />
      <ref role="37wK5l" node="2ZbXqoJYVgD" resolve="Values" />
      <node concept="Xl_RD" id="2ZbXqoJYVgB" role="37wK5m">
        <property role="Xl_RC" value="creator" />
      </node>
    </node>
    <node concept="QsSxf" id="2ZbXqoK4e4Z" role="Qtgdg">
      <property role="TrG5h" value="CREATOR_COPY_SEQUENCE" />
      <ref role="37wK5l" node="2ZbXqoJYVgD" resolve="Values" />
      <node concept="Xl_RD" id="2ZbXqoK4e51" role="37wK5m">
        <property role="Xl_RC" value="creator_copy_sequence" />
      </node>
    </node>
    <node concept="QsSxf" id="2ZbXqoK4e52" role="Qtgdg">
      <property role="TrG5h" value="CREATOR_COPY_ARRAY" />
      <ref role="37wK5l" node="2ZbXqoJYVgD" resolve="Values" />
      <node concept="Xl_RD" id="2ZbXqoK4e53" role="37wK5m">
        <property role="Xl_RC" value="creator_copy_array" />
      </node>
    </node>
    <node concept="QsSxf" id="2ZbXqoK4e54" role="Qtgdg">
      <property role="TrG5h" value="CREATOR_INIT_VALUES" />
      <ref role="37wK5l" node="2ZbXqoJYVgD" resolve="Values" />
      <node concept="Xl_RD" id="2ZbXqoK4e55" role="37wK5m">
        <property role="Xl_RC" value="creator_init_values" />
      </node>
    </node>
    <node concept="QsSxf" id="2AE0wHwLHSF" role="Qtgdg">
      <property role="TrG5h" value="ACTUAL_TYPE" />
      <ref role="37wK5l" node="2ZbXqoJYVgD" resolve="Values" />
      <node concept="Xl_RD" id="2AE0wHwLHSK" role="37wK5m">
        <property role="Xl_RC" value="actual_type" />
      </node>
    </node>
    <node concept="3Tm1VV" id="2ZbXqoJYVgC" role="1B3o_S" />
    <node concept="312cEg" id="2ZbXqoJYVgQ" role="jymVt">
      <property role="TrG5h" value="name" />
      <node concept="3Tm6S6" id="2ZbXqoJYVgR" role="1B3o_S" />
      <node concept="17QB3L" id="2ZbXqoJYVgS" role="1tU5fm" />
    </node>
    <node concept="3clFbW" id="2ZbXqoJYVgD" role="jymVt">
      <node concept="3cqZAl" id="2ZbXqoJYVgE" role="3clF45" />
      <node concept="3clFbS" id="2ZbXqoJYVgG" role="3clF47">
        <node concept="3clFbF" id="2ZbXqoJYVgH" role="3cqZAp">
          <node concept="37vLTI" id="2ZbXqoJYVgI" role="3clFbG">
            <node concept="1rXfSq" id="4hiugqysj1s" role="37vLTx">
              <ref role="37wK5l" node="2ZbXqoJYVgc" resolve="PREFIX" />
              <node concept="37vLTw" id="2BHiRxgm9X4" role="37wK5m">
                <ref role="3cqZAo" node="2ZbXqoJYVgO" resolve="name" />
              </node>
            </node>
            <node concept="2OqwBi" id="2ZbXqoJYVgL" role="37vLTJ">
              <node concept="Xjq3P" id="2ZbXqoJYVgM" role="2Oq$k0" />
              <node concept="2OwXpG" id="2ZbXqoJYVgN" role="2OqNvi">
                <ref role="2Oxat5" node="2ZbXqoJYVgQ" resolve="name" />
              </node>
            </node>
          </node>
        </node>
      </node>
      <node concept="37vLTG" id="2ZbXqoJYVgO" role="3clF46">
        <property role="TrG5h" value="name" />
        <node concept="17QB3L" id="2ZbXqoJYVgP" role="1tU5fm" />
      </node>
    </node>
    <node concept="3clFb_" id="2ZbXqoJYVfz" role="jymVt">
      <property role="TrG5h" value="set" />
      <node concept="37vLTG" id="2ZbXqoJYVf$" role="3clF46">
        <property role="TrG5h" value="node" />
        <node concept="3Tqbb2" id="2ZbXqoJYVf_" role="1tU5fm" />
      </node>
      <node concept="37vLTG" id="2ZbXqoJYVfA" role="3clF46">
        <property role="TrG5h" value="value" />
        <node concept="3uibUv" id="2ZbXqoJYVfB" role="1tU5fm">
          <ref role="3uigEE" to="wyt6:~Object" resolve="Object" />
        </node>
      </node>
      <node concept="3cqZAl" id="2ZbXqoJYVfC" role="3clF45" />
      <node concept="3Tm1VV" id="2ZbXqoJYVfD" role="1B3o_S" />
      <node concept="3clFbS" id="2ZbXqoJYVfE" role="3clF47">
        <node concept="3clFbF" id="2ZbXqoJYVfF" role="3cqZAp">
          <node concept="2OqwBi" id="2ZbXqoJYVfG" role="3clFbG">
            <node concept="2JrnkZ" id="2ZbXqoJYVfH" role="2Oq$k0">
              <node concept="37vLTw" id="2BHiRxglK$Z" role="2JrQYb">
                <ref role="3cqZAo" node="2ZbXqoJYVf$" resolve="node" />
              </node>
            </node>
            <node concept="liA8E" id="2ZbXqoJYVfJ" role="2OqNvi">
              <ref role="37wK5l" to="mhbf:~SNode.putUserObject(java.lang.Object,java.lang.Object):void" resolve="putUserObject" />
              <node concept="Xjq3P" id="2ZbXqoJYVfK" role="37wK5m" />
              <node concept="37vLTw" id="2BHiRxglbug" role="37wK5m">
                <ref role="3cqZAo" node="2ZbXqoJYVfA" resolve="value" />
              </node>
            </node>
          </node>
        </node>
      </node>
    </node>
    <node concept="3clFb_" id="2ZbXqoJYVfM" role="jymVt">
      <property role="TrG5h" value="get" />
      <node concept="3Tm1VV" id="2ZbXqoJYVfN" role="1B3o_S" />
      <node concept="3clFbS" id="2ZbXqoJYVfO" role="3clF47">
        <node concept="3clFbF" id="2ZbXqoJYVfP" role="3cqZAp">
          <node concept="2OqwBi" id="2ZbXqoJYVfQ" role="3clFbG">
            <node concept="2JrnkZ" id="2ZbXqoJYVfR" role="2Oq$k0">
              <node concept="37vLTw" id="2BHiRxgloun" role="2JrQYb">
                <ref role="3cqZAo" node="2ZbXqoJYVfW" resolve="node" />
              </node>
            </node>
            <node concept="liA8E" id="2ZbXqoJYVfT" role="2OqNvi">
              <ref role="37wK5l" to="mhbf:~SNode.getUserObject(java.lang.Object):java.lang.Object" resolve="getUserObject" />
              <node concept="Xjq3P" id="2ZbXqoJYVfU" role="37wK5m" />
            </node>
          </node>
        </node>
      </node>
      <node concept="3uibUv" id="2ZbXqoJYVfV" role="3clF45">
        <ref role="3uigEE" to="wyt6:~Object" resolve="Object" />
      </node>
      <node concept="37vLTG" id="2ZbXqoJYVfW" role="3clF46">
        <property role="TrG5h" value="node" />
        <node concept="3Tqbb2" id="2ZbXqoJYVfX" role="1tU5fm" />
      </node>
    </node>
    <node concept="3clFb_" id="2ZbXqoJYVfY" role="jymVt">
      <property role="TrG5h" value="isSet" />
      <node concept="3Tm1VV" id="2ZbXqoJYVfZ" role="1B3o_S" />
      <node concept="3clFbS" id="2ZbXqoJYVg0" role="3clF47">
        <node concept="3clFbF" id="2ZbXqoJYVg1" role="3cqZAp">
          <node concept="3y3z36" id="2ZbXqoJYVg2" role="3clFbG">
            <node concept="10Nm6u" id="2ZbXqoJYVg3" role="3uHU7w" />
            <node concept="2OqwBi" id="2ZbXqoJYVg4" role="3uHU7B">
              <node concept="2JrnkZ" id="2ZbXqoJYVg5" role="2Oq$k0">
                <node concept="37vLTw" id="2BHiRxgm$RG" role="2JrQYb">
                  <ref role="3cqZAo" node="2ZbXqoJYVga" resolve="node" />
                </node>
              </node>
              <node concept="liA8E" id="2ZbXqoJYVg7" role="2OqNvi">
                <ref role="37wK5l" to="mhbf:~SNode.getUserObject(java.lang.Object):java.lang.Object" resolve="getUserObject" />
                <node concept="Xjq3P" id="2ZbXqoJYVg8" role="37wK5m" />
              </node>
            </node>
          </node>
        </node>
      </node>
      <node concept="10P_77" id="2ZbXqoJYVg9" role="3clF45" />
      <node concept="37vLTG" id="2ZbXqoJYVga" role="3clF46">
        <property role="TrG5h" value="node" />
        <node concept="3Tqbb2" id="2ZbXqoJYVgb" role="1tU5fm" />
      </node>
    </node>
    <node concept="2YIFZL" id="2AE0wHwLHOr" role="jymVt">
      <property role="TrG5h" value="copy" />
      <node concept="37vLTG" id="2AE0wHwLHOv" role="3clF46">
        <property role="TrG5h" value="from" />
        <node concept="3Tqbb2" id="2AE0wHwLHOx" role="1tU5fm" />
      </node>
      <node concept="37vLTG" id="2AE0wHwLHOy" role="3clF46">
        <property role="TrG5h" value="to" />
        <node concept="3Tqbb2" id="2AE0wHwLHO$" role="1tU5fm" />
      </node>
      <node concept="3cqZAl" id="2AE0wHwLHOs" role="3clF45" />
      <node concept="3Tm1VV" id="2AE0wHwLHOt" role="1B3o_S" />
      <node concept="3clFbS" id="2AE0wHwLHOu" role="3clF47">
        <node concept="1DcWWT" id="2AE0wHwLHOF" role="3cqZAp">
          <node concept="3clFbS" id="2AE0wHwLHOG" role="2LFqv$">
            <node concept="3clFbF" id="2AE0wHwLHOY" role="3cqZAp">
              <node concept="2OqwBi" id="2AE0wHwLHP0" role="3clFbG">
                <node concept="37vLTw" id="3GM_nagTyMj" role="2Oq$k0">
                  <ref role="3cqZAo" node="2AE0wHwLHOJ" resolve="val" />
                </node>
                <node concept="liA8E" id="2AE0wHwLHP4" role="2OqNvi">
                  <ref role="37wK5l" node="2ZbXqoJYVfz" resolve="set" />
                  <node concept="37vLTw" id="2BHiRxghgdy" role="37wK5m">
                    <ref role="3cqZAo" node="2AE0wHwLHOy" resolve="to" />
                  </node>
                  <node concept="2OqwBi" id="2AE0wHwLHP8" role="37wK5m">
                    <node concept="37vLTw" id="3GM_nagTw9l" role="2Oq$k0">
                      <ref role="3cqZAo" node="2AE0wHwLHOJ" resolve="val" />
                    </node>
                    <node concept="liA8E" id="2AE0wHwLHPc" role="2OqNvi">
                      <ref role="37wK5l" node="2ZbXqoJYVfM" resolve="get" />
                      <node concept="37vLTw" id="2BHiRxgmerp" role="37wK5m">
                        <ref role="3cqZAo" node="2AE0wHwLHOv" resolve="from" />
                      </node>
                    </node>
                  </node>
                </node>
              </node>
            </node>
          </node>
          <node concept="uiWXb" id="2AE0wHwLHOT" role="1DdaDG">
            <ref role="uiZuM" node="2ZbXqoJYVfy" resolve="Values" />
          </node>
          <node concept="3cpWsn" id="2AE0wHwLHOJ" role="1Duv9x">
            <property role="TrG5h" value="val" />
            <node concept="3uibUv" id="2AE0wHwLHON" role="1tU5fm">
              <ref role="3uigEE" node="2ZbXqoJYVfy" resolve="Values" />
            </node>
          </node>
        </node>
      </node>
    </node>
    <node concept="2YIFZL" id="2ZbXqoJYVgc" role="jymVt">
      <property role="TrG5h" value="PREFIX" />
      <node concept="3Tm6S6" id="2ZbXqoJYVgd" role="1B3o_S" />
      <node concept="3clFbS" id="2ZbXqoJYVge" role="3clF47">
        <node concept="3clFbF" id="2ZbXqoJYVgf" role="3cqZAp">
          <node concept="3cpWs3" id="2ZbXqoJYVgg" role="3clFbG">
            <node concept="37vLTw" id="2BHiRxglB2c" role="3uHU7w">
              <ref role="3cqZAo" node="2ZbXqoJYVgk" resolve="str" />
            </node>
            <node concept="Xl_RD" id="2ZbXqoJYVgi" role="3uHU7B">
              <property role="Xl_RC" value="jetbrains.mps.baselanguage.collections.generator." />
            </node>
          </node>
        </node>
      </node>
      <node concept="17QB3L" id="2ZbXqoJYVgj" role="3clF45" />
      <node concept="37vLTG" id="2ZbXqoJYVgk" role="3clF46">
        <property role="TrG5h" value="str" />
        <node concept="17QB3L" id="2ZbXqoJYVgl" role="1tU5fm" />
      </node>
    </node>
  </node>
  <node concept="312cEu" id="2ZjKcncar2h">
    <property role="TrG5h" value="Helper" />
    <node concept="2YIFZL" id="2ZjKcncaxQk" role="jymVt">
      <property role="TrG5h" value="isCollectionElementAccess" />
      <property role="IEkAT" value="false" />
      <node concept="10P_77" id="2ZjKcncaLb6" role="3clF45" />
      <node concept="3Tm1VV" id="2ZjKcncaxQn" role="1B3o_S" />
      <node concept="3clFbS" id="2ZjKcncaxQo" role="3clF47">
        <node concept="3clFbJ" id="2ZjKcnca$y0" role="3cqZAp">
          <node concept="3clFbS" id="2ZjKcnca$y1" role="3clFbx">
            <node concept="3cpWs8" id="2ZjKcncb81f" role="3cqZAp">
              <node concept="3cpWsn" id="2ZjKcncb81i" role="3cpWs9">
                <property role="TrG5h" value="dotExpr" />
                <node concept="3Tqbb2" id="2ZjKcncb81d" role="1tU5fm">
                  <ref role="ehGHo" to="tpee:hqOqwz4" resolve="DotExpression" />
                </node>
                <node concept="1PxgMI" id="2ZjKcnca_0Y" role="33vP2m">
                  <ref role="1m5ApE" to="tpee:hqOqwz4" resolve="DotExpression" />
                  <node concept="37vLTw" id="2ZjKcnca$Uh" role="1m5AlR">
                    <ref role="3cqZAo" node="2ZjKcncazfD" resolve="expression" />
                  </node>
                </node>
              </node>
            </node>
            <node concept="3SKdUt" id="4PBFQs_gAJt" role="3cqZAp">
              <node concept="3SKdUq" id="4PBFQs_gAVo" role="3SKWNk">
                <property role="3SKdUp" value="of course, there's more than a .size operation that doesn't consistute sequence element access," />
              </node>
            </node>
            <node concept="3SKdUt" id="4PBFQs_gB3I" role="3cqZAp">
              <node concept="3SKdUq" id="4PBFQs_gBb_" role="3SKWNk">
                <property role="3SKdUp" value="but at the moment I cover only most wide-spread case - there seems to be no simple way to tell " />
              </node>
            </node>
            <node concept="3SKdUt" id="4PBFQs_gLge" role="3cqZAp">
              <node concept="3SKdUq" id="4PBFQs_gLgD" role="3SKWNk">
                <property role="3SKdUp" value="true element access operations from other." />
              </node>
            </node>
            <node concept="3cpWs6" id="2ZjKcncaL$b" role="3cqZAp">
              <node concept="1Wc70l" id="2ZjKcncaNZJ" role="3cqZAk">
                <node concept="3fqX7Q" id="2ZjKcncaZMx" role="3uHU7w">
                  <node concept="2OqwBi" id="2ZjKcncaZMz" role="3fr31v">
                    <node concept="2OqwBi" id="2ZjKcncaZM$" role="2Oq$k0">
                      <node concept="37vLTw" id="2ZjKcncaZM_" role="2Oq$k0">
                        <ref role="3cqZAo" node="2ZjKcncb81i" resolve="dotExpr" />
                      </node>
                      <node concept="3TrEf2" id="2ZjKcncaZMA" role="2OqNvi">
                        <ref role="3Tt5mk" to="tpee:hqOqNr4" />
                      </node>
                    </node>
                    <node concept="1mIQ4w" id="2ZjKcncaZMB" role="2OqNvi">
                      <node concept="chp4Y" id="2ZjKcncaZMC" role="cj9EA">
                        <ref role="cht4Q" to="tp2q:gV4oBTJ" resolve="GetSizeOperation" />
                      </node>
                    </node>
                  </node>
                </node>
                <node concept="2OqwBi" id="2ZjKcncaMYL" role="3uHU7B">
                  <node concept="2OqwBi" id="2ZjKcncaM7U" role="2Oq$k0">
                    <node concept="37vLTw" id="2ZjKcncaLVl" role="2Oq$k0">
                      <ref role="3cqZAo" node="2ZjKcncb81i" resolve="dotExpr" />
                    </node>
                    <node concept="3TrEf2" id="2ZjKcncaMDE" role="2OqNvi">
                      <ref role="3Tt5mk" to="tpee:hqOqNr4" />
                    </node>
                  </node>
                  <node concept="1mIQ4w" id="2ZjKcncaNj5" role="2OqNvi">
                    <node concept="chp4Y" id="2ZjKcncaNy2" role="cj9EA">
                      <ref role="cht4Q" to="tp2q:gKAMqbp" resolve="SequenceOperation" />
                    </node>
                  </node>
                </node>
              </node>
            </node>
          </node>
          <node concept="2OqwBi" id="2ZjKcnca$$c" role="3clFbw">
            <node concept="37vLTw" id="2ZjKcnca$yp" role="2Oq$k0">
              <ref role="3cqZAo" node="2ZjKcncazfD" resolve="expression" />
            </node>
            <node concept="1mIQ4w" id="2ZjKcnca$Ls" role="2OqNvi">
              <node concept="chp4Y" id="2ZjKcnca$MP" role="cj9EA">
                <ref role="cht4Q" to="tpee:hqOqwz4" resolve="DotExpression" />
              </node>
            </node>
          </node>
        </node>
        <node concept="3clFbJ" id="2ZjKcnca_dR" role="3cqZAp">
          <node concept="3clFbS" id="2ZjKcnca_dU" role="3clFbx">
            <node concept="3cpWs6" id="2ZjKcnca_vE" role="3cqZAp">
              <node concept="3clFbT" id="2ZjKcnca__e" role="3cqZAk">
                <property role="3clFbU" value="true" />
              </node>
            </node>
          </node>
          <node concept="2OqwBi" id="2ZjKcnca_ko" role="3clFbw">
            <node concept="37vLTw" id="2ZjKcnca_iE" role="2Oq$k0">
              <ref role="3cqZAo" node="2ZjKcncazfD" resolve="expression" />
            </node>
            <node concept="1mIQ4w" id="2ZjKcnca_rg" role="2OqNvi">
              <node concept="chp4Y" id="2ZjKcnca_sD" role="cj9EA">
                <ref role="cht4Q" to="tp2q:hrEllC_" resolve="MapElement" />
              </node>
            </node>
          </node>
        </node>
        <node concept="3clFbJ" id="2ZjKcnca_Ju" role="3cqZAp">
          <node concept="3clFbS" id="2ZjKcnca_Jx" role="3clFbx">
            <node concept="3cpWs6" id="2ZjKcncaBow" role="3cqZAp">
              <node concept="3clFbT" id="2ZjKcncaBoS" role="3cqZAk">
                <property role="3clFbU" value="true" />
              </node>
            </node>
          </node>
          <node concept="2OqwBi" id="2ZjKcnca_Qo" role="3clFbw">
            <node concept="37vLTw" id="2ZjKcnca_O_" role="2Oq$k0">
              <ref role="3cqZAo" node="2ZjKcncazfD" resolve="expression" />
            </node>
            <node concept="1mIQ4w" id="2ZjKcncaBjM" role="2OqNvi">
              <node concept="chp4Y" id="2ZjKcncaBlb" role="cj9EA">
                <ref role="cht4Q" to="tp2q:hPy4Wco" resolve="ListElementAccessExpression" />
              </node>
            </node>
          </node>
        </node>
        <node concept="3clFbJ" id="2ZjKcncaB_e" role="3cqZAp">
          <node concept="3clFbS" id="2ZjKcncaB_h" role="3clFbx">
            <node concept="3cpWs8" id="2ZjKcncaEZy" role="3cqZAp">
              <node concept="3cpWsn" id="2ZjKcncaEZ_" role="3cpWs9">
                <property role="TrG5h" value="oae" />
                <node concept="3Tqbb2" id="2ZjKcncaEZx" role="1tU5fm">
                  <ref role="ehGHo" to="tpee:4jccBOGDsG8" resolve="OperationAssignmentExpression" />
                </node>
                <node concept="1PxgMI" id="2ZjKcncaF2K" role="33vP2m">
                  <ref role="1m5ApE" to="tpee:4jccBOGDsG8" resolve="OperationAssignmentExpression" />
                  <node concept="37vLTw" id="2ZjKcncaF0Q" role="1m5AlR">
                    <ref role="3cqZAo" node="2ZjKcncazfD" resolve="expression" />
                  </node>
                </node>
              </node>
            </node>
            <node concept="3cpWs6" id="2ZjKcncaF8a" role="3cqZAp">
              <node concept="22lmx$" id="2ZjKcncaH60" role="3cqZAk">
                <node concept="2OqwBi" id="2ZjKcncaI54" role="3uHU7w">
                  <node concept="2OqwBi" id="2ZjKcncaHsh" role="2Oq$k0">
                    <node concept="37vLTw" id="2ZjKcncaHhk" role="2Oq$k0">
                      <ref role="3cqZAo" node="2ZjKcncaEZ_" resolve="oae" />
                    </node>
                    <node concept="3TrEf2" id="2ZjKcncaHLq" role="2OqNvi">
                      <ref role="3Tt5mk" to="tpee:fz7vLUn" />
                    </node>
                  </node>
                  <node concept="1mIQ4w" id="2ZjKcncaItJ" role="2OqNvi">
                    <node concept="chp4Y" id="2ZjKcncaKZy" role="cj9EA">
                      <ref role="cht4Q" to="tp2q:hPy4Wco" resolve="ListElementAccessExpression" />
                    </node>
                  </node>
                </node>
                <node concept="2OqwBi" id="2ZjKcncaGb6" role="3uHU7B">
                  <node concept="2OqwBi" id="2ZjKcncaFqv" role="2Oq$k0">
                    <node concept="37vLTw" id="2ZjKcncaFi0" role="2Oq$k0">
                      <ref role="3cqZAo" node="2ZjKcncaEZ_" resolve="oae" />
                    </node>
                    <node concept="3TrEf2" id="2ZjKcncaFRg" role="2OqNvi">
                      <ref role="3Tt5mk" to="tpee:fz7vLUn" />
                    </node>
                  </node>
                  <node concept="1mIQ4w" id="2ZjKcncaGyN" role="2OqNvi">
                    <node concept="chp4Y" id="2ZjKcncaGG$" role="cj9EA">
                      <ref role="cht4Q" to="tp2q:hrEllC_" resolve="MapElement" />
                    </node>
                  </node>
                </node>
              </node>
            </node>
          </node>
          <node concept="2OqwBi" id="2ZjKcncaBGC" role="3clFbw">
            <node concept="37vLTw" id="2ZjKcncaBEP" role="2Oq$k0">
              <ref role="3cqZAo" node="2ZjKcncazfD" resolve="expression" />
            </node>
            <node concept="1mIQ4w" id="2ZjKcncaBO$" role="2OqNvi">
              <node concept="chp4Y" id="2ZjKcncaDe3" role="cj9EA">
                <ref role="cht4Q" to="tpee:4jccBOGDsG8" resolve="OperationAssignmentExpression" />
              </node>
            </node>
          </node>
        </node>
        <node concept="3cpWs6" id="2ZjKcncaDnH" role="3cqZAp">
          <node concept="3clFbT" id="2ZjKcncaDun" role="3cqZAk">
            <property role="3clFbU" value="false" />
          </node>
        </node>
      </node>
      <node concept="37vLTG" id="2ZjKcncazfD" role="3clF46">
        <property role="TrG5h" value="expression" />
        <node concept="3Tqbb2" id="2ZjKcncazfC" role="1tU5fm">
          <ref role="ehGHo" to="tpee:fz3vP1J" resolve="Expression" />
        </node>
      </node>
    </node>
    <node concept="3Tm1VV" id="2ZjKcncar2i" role="1B3o_S" />
  </node>
</model>

