<?xml version="1.0" encoding="UTF-8"?>
<model ref="r:00000000-0000-4000-0000-011c895902fc(jetbrains.mps.lang.smodel.dataFlow)">
  <persistence version="9" />
  <languages>
    <use id="83888646-71ce-4f1c-9c53-c54016f6ad4f" name="jetbrains.mps.baseLanguage.collections" version="0" />
    <use id="7fa12e9c-b949-4976-b4fa-19accbc320b4" name="jetbrains.mps.lang.dataFlow" version="0" />
    <use id="7866978e-a0f0-4cc7-81bc-4d213d9375e1" name="jetbrains.mps.lang.smodel" version="4" />
    <use id="f3061a53-9226-4cc5-a443-f952ceaf5816" name="jetbrains.mps.baseLanguage" version="4" />
  </languages>
  <imports>
    <import index="tp25" ref="r:00000000-0000-4000-0000-011c89590301(jetbrains.mps.lang.smodel.structure)" />
    <import index="tpee" ref="r:00000000-0000-4000-0000-011c895902ca(jetbrains.mps.baseLanguage.structure)" />
  </imports>
  <registry>
    <language id="f3061a53-9226-4cc5-a443-f952ceaf5816" name="jetbrains.mps.baseLanguage">
      <concept id="1154032098014" name="jetbrains.mps.baseLanguage.structure.AbstractLoopStatement" flags="nn" index="2LF5Ji">
        <child id="1154032183016" name="body" index="2LFqv$" />
      </concept>
      <concept id="1197027756228" name="jetbrains.mps.baseLanguage.structure.DotExpression" flags="nn" index="2OqwBi">
        <child id="1197027771414" name="operand" index="2Oq$k0" />
        <child id="1197027833540" name="operation" index="2OqNvi" />
      </concept>
      <concept id="1137021947720" name="jetbrains.mps.baseLanguage.structure.ConceptFunction" flags="in" index="2VMwT0">
        <child id="1137022507850" name="body" index="2VODD2" />
      </concept>
      <concept id="1068498886296" name="jetbrains.mps.baseLanguage.structure.VariableReference" flags="nn" index="37vLTw">
        <reference id="1068581517664" name="variableDeclaration" index="3cqZAo" />
      </concept>
      <concept id="4972933694980447171" name="jetbrains.mps.baseLanguage.structure.BaseVariableDeclaration" flags="ng" index="19Szcq">
        <child id="5680397130376446158" name="type" index="1tU5fm" />
      </concept>
      <concept id="1068580123159" name="jetbrains.mps.baseLanguage.structure.IfStatement" flags="nn" index="3clFbJ">
        <child id="1068580123160" name="condition" index="3clFbw" />
        <child id="1068580123161" name="ifTrue" index="3clFbx" />
      </concept>
      <concept id="1068580123136" name="jetbrains.mps.baseLanguage.structure.StatementList" flags="sn" stub="5293379017992965193" index="3clFbS">
        <child id="1068581517665" name="statement" index="3cqZAp" />
      </concept>
      <concept id="1068581242863" name="jetbrains.mps.baseLanguage.structure.LocalVariableDeclaration" flags="nr" index="3cpWsn" />
      <concept id="1144226303539" name="jetbrains.mps.baseLanguage.structure.ForeachStatement" flags="nn" index="1DcWWT">
        <child id="1144226360166" name="iterable" index="1DdaDG" />
      </concept>
      <concept id="1144230876926" name="jetbrains.mps.baseLanguage.structure.AbstractForStatement" flags="nn" index="1DupvO">
        <child id="1144230900587" name="variable" index="1Duv9x" />
      </concept>
    </language>
    <language id="7fa12e9c-b949-4976-b4fa-19accbc320b4" name="jetbrains.mps.lang.dataFlow">
      <concept id="1207062474157" name="jetbrains.mps.lang.dataFlow.structure.EmitLabelStatement" flags="ng" index="axUMO" />
      <concept id="1207062697254" name="jetbrains.mps.lang.dataFlow.structure.LabelPosition" flags="ng" index="ayLgZ">
        <reference id="1207062703832" name="label" index="ayMZ1" />
      </concept>
      <concept id="1206442055221" name="jetbrains.mps.lang.dataFlow.structure.DataFlowBuilderDeclaration" flags="ig" index="3_zdsH">
        <reference id="1206442096288" name="conceptDeclaration" index="3_znuS" />
        <child id="1206442812839" name="builderBlock" index="3_A6iZ" />
      </concept>
      <concept id="1206442659665" name="jetbrains.mps.lang.dataFlow.structure.BuilderBlock" flags="in" index="3__wT9" />
      <concept id="1206442747519" name="jetbrains.mps.lang.dataFlow.structure.NodeParameter" flags="nn" index="3__QtB" />
      <concept id="1206443823146" name="jetbrains.mps.lang.dataFlow.structure.EmitReadStatement" flags="nn" index="3_DX4M" />
      <concept id="1206444349662" name="jetbrains.mps.lang.dataFlow.structure.EmitWriteStatement" flags="nn" index="3_FXB6" />
      <concept id="1206444622344" name="jetbrains.mps.lang.dataFlow.structure.BaseEmitVariableStatement" flags="nn" index="3_H0cg">
        <child id="1206444629799" name="variable" index="3_H1SZ" />
      </concept>
      <concept id="1206444910183" name="jetbrains.mps.lang.dataFlow.structure.RelativePosition" flags="ng" index="3_I6tZ">
        <child id="1206444923842" name="relativeTo" index="3_I9Fq" />
      </concept>
      <concept id="1206445069217" name="jetbrains.mps.lang.dataFlow.structure.BeforePosition" flags="ng" index="3_IHaT" />
      <concept id="1206445181593" name="jetbrains.mps.lang.dataFlow.structure.BaseEmitJumpStatement" flags="nn" index="3_J8I1">
        <child id="1206445193860" name="jumpTo" index="3_JbIs" />
      </concept>
      <concept id="1206445295557" name="jetbrains.mps.lang.dataFlow.structure.EmitIfJumpStatement" flags="nn" index="3_J$rt" />
      <concept id="1206454052847" name="jetbrains.mps.lang.dataFlow.structure.EmitCodeForStatement" flags="nn" index="3AgYrR">
        <child id="1206454079161" name="codeFor" index="3Ah4Yx" />
      </concept>
    </language>
    <language id="7866978e-a0f0-4cc7-81bc-4d213d9375e1" name="jetbrains.mps.lang.smodel">
      <concept id="1177026924588" name="jetbrains.mps.lang.smodel.structure.RefConcept_Reference" flags="nn" index="chp4Y">
        <reference id="1177026940964" name="conceptDeclaration" index="cht4Q" />
      </concept>
      <concept id="1171500988903" name="jetbrains.mps.lang.smodel.structure.Node_GetChildrenOperation" flags="nn" index="32TBzR" />
      <concept id="1139621453865" name="jetbrains.mps.lang.smodel.structure.Node_IsInstanceOfOperation" flags="nn" index="1mIQ4w">
        <child id="1177027386292" name="conceptArgument" index="cj9EA" />
      </concept>
      <concept id="1138055754698" name="jetbrains.mps.lang.smodel.structure.SNodeType" flags="in" index="3Tqbb2">
        <reference id="1138405853777" name="concept" index="ehGHo" />
      </concept>
      <concept id="1138056143562" name="jetbrains.mps.lang.smodel.structure.SLinkAccess" flags="nn" index="3TrEf2">
        <reference id="1138056516764" name="link" index="3Tt5mk" />
      </concept>
      <concept id="1138056282393" name="jetbrains.mps.lang.smodel.structure.SLinkListAccess" flags="nn" index="3Tsc0h">
        <reference id="1138056546658" name="link" index="3TtcxE" />
      </concept>
    </language>
    <language id="ceab5195-25ea-4f22-9b92-103b95ca8c0c" name="jetbrains.mps.lang.core">
      <concept id="1133920641626" name="jetbrains.mps.lang.core.structure.BaseConcept" flags="ng" index="2VYdi">
        <property id="1193676396447" name="virtualPackage" index="3GE5qa" />
      </concept>
      <concept id="1169194658468" name="jetbrains.mps.lang.core.structure.INamedConcept" flags="ng" index="TrEIO">
        <property id="1169194664001" name="name" index="TrG5h" />
      </concept>
    </language>
    <language id="83888646-71ce-4f1c-9c53-c54016f6ad4f" name="jetbrains.mps.baseLanguage.collections">
      <concept id="1153943597977" name="jetbrains.mps.baseLanguage.collections.structure.ForEachStatement" flags="nn" index="2Gpval">
        <child id="1153944400369" name="variable" index="2Gsz3X" />
        <child id="1153944424730" name="inputSequence" index="2GsD0m" />
      </concept>
      <concept id="1153944193378" name="jetbrains.mps.baseLanguage.collections.structure.ForEachVariable" flags="nr" index="2GrKxI" />
      <concept id="1153944233411" name="jetbrains.mps.baseLanguage.collections.structure.ForEachVariableReference" flags="nn" index="2GrUjf">
        <reference id="1153944258490" name="variable" index="2Gs0qQ" />
      </concept>
    </language>
  </registry>
  <node concept="3_zdsH" id="hBuXcJV">
    <property role="3GE5qa" value="operation" />
    <ref role="3_znuS" to="tp25:g$eCIIG" resolve="SNodeOperation" />
    <node concept="3__wT9" id="hBuXcJW" role="3_A6iZ">
      <node concept="3clFbS" id="hBuXcJX" role="2VODD2">
        <node concept="2Gpval" id="hBuXe0L" role="3cqZAp">
          <node concept="2GrKxI" id="hBuXe0M" role="2Gsz3X">
            <property role="TrG5h" value="expr" />
          </node>
          <node concept="2OqwBi" id="6R7OBNJx7$N" role="2GsD0m">
            <node concept="3__QtB" id="hBuXf9B" role="2Oq$k0" />
            <node concept="32TBzR" id="6R7OBNJx7$S" role="2OqNvi" />
          </node>
          <node concept="3clFbS" id="hBuXe0O" role="2LFqv$">
            <node concept="3clFbJ" id="6R7OBNJx7$V" role="3cqZAp">
              <node concept="3clFbS" id="6R7OBNJx7$W" role="3clFbx">
                <node concept="3AgYrR" id="6R7OBNJx7_h" role="3cqZAp">
                  <node concept="2GrUjf" id="6R7OBNJx7_i" role="3Ah4Yx">
                    <ref role="2Gs0qQ" node="hBuXe0M" resolve="expr" />
                  </node>
                </node>
              </node>
              <node concept="2OqwBi" id="6R7OBNJx7_5" role="3clFbw">
                <node concept="2GrUjf" id="6R7OBNJx7_1" role="2Oq$k0">
                  <ref role="2Gs0qQ" node="hBuXe0M" resolve="expr" />
                </node>
                <node concept="1mIQ4w" id="6R7OBNJx7_c" role="2OqNvi">
                  <node concept="chp4Y" id="6R7OBNJx7_f" role="cj9EA">
                    <ref role="cht4Q" to="tpee:fz3vP1J" resolve="Expression" />
                  </node>
                </node>
              </node>
            </node>
          </node>
        </node>
      </node>
    </node>
  </node>
  <node concept="3_zdsH" id="hCKoso8">
    <ref role="3_znuS" to="tp25:253epK5leq7" resolve="AbstractTypeCastExpression" />
    <node concept="3__wT9" id="hCKoso9" role="3_A6iZ">
      <node concept="3clFbS" id="hCKosoa" role="2VODD2">
        <node concept="3AgYrR" id="hCKotuv" role="3cqZAp">
          <node concept="2OqwBi" id="hCKov_4" role="3Ah4Yx">
            <node concept="3__QtB" id="hCKouC1" role="2Oq$k0" />
            <node concept="3TrEf2" id="hCKowlt" role="2OqNvi">
              <ref role="3Tt5mk" to="tp25:5PLE6SbpWOp" />
            </node>
          </node>
        </node>
      </node>
    </node>
  </node>
  <node concept="3_zdsH" id="hKuib5h">
    <ref role="3_znuS" to="tp25:gEJrngP" resolve="SemanticDowncastExpression" />
    <node concept="3__wT9" id="hKuib5i" role="3_A6iZ">
      <node concept="3clFbS" id="hKuib5j" role="2VODD2">
        <node concept="3AgYrR" id="hKuibHQ" role="3cqZAp">
          <node concept="2OqwBi" id="hKuic29" role="3Ah4Yx">
            <node concept="3__QtB" id="hKuibYI" role="2Oq$k0" />
            <node concept="3TrEf2" id="hKuieuE" role="2OqNvi">
              <ref role="3Tt5mk" to="tp25:gEJrQU1" />
            </node>
          </node>
        </node>
      </node>
    </node>
  </node>
  <node concept="3_zdsH" id="5TQ4ke85CSf">
    <property role="3GE5qa" value="operation.concept" />
    <ref role="3_znuS" to="tp25:haZo160" resolve="Concept_IsSubConceptOfOperation" />
    <node concept="3__wT9" id="5TQ4ke85CSg" role="3_A6iZ">
      <node concept="3clFbS" id="5TQ4ke85CSh" role="2VODD2">
        <node concept="3AgYrR" id="5TQ4ke85CSi" role="3cqZAp">
          <node concept="2OqwBi" id="5TQ4ke85CSl" role="3Ah4Yx">
            <node concept="3__QtB" id="5TQ4ke85CSk" role="2Oq$k0" />
            <node concept="3TrEf2" id="5TQ4ke85CSp" role="2OqNvi">
              <ref role="3Tt5mk" to="tp25:haZo161" />
            </node>
          </node>
        </node>
      </node>
    </node>
  </node>
  <node concept="3_zdsH" id="5TQ4ke85CSq">
    <property role="3GE5qa" value="operation.parameter" />
    <ref role="3_znuS" to="tp25:hy5Kd_5" resolve="PoundExpression" />
    <node concept="3__wT9" id="5TQ4ke85CSr" role="3_A6iZ">
      <node concept="3clFbS" id="5TQ4ke85CSs" role="2VODD2">
        <node concept="3AgYrR" id="5TQ4ke85CSt" role="3cqZAp">
          <node concept="2OqwBi" id="5TQ4ke85CSw" role="3Ah4Yx">
            <node concept="3__QtB" id="5TQ4ke85CSv" role="2Oq$k0" />
            <node concept="3TrEf2" id="5TQ4ke85CS$" role="2OqNvi">
              <ref role="3Tt5mk" to="tp25:hy5KhSf" />
            </node>
          </node>
        </node>
      </node>
    </node>
  </node>
  <node concept="3_zdsH" id="5eP9KU1iTUA">
    <property role="3GE5qa" value="operation.concept" />
    <ref role="3_znuS" to="tp25:haZa9Qk" resolve="Concept_IsSuperConceptOfOperation" />
    <node concept="3__wT9" id="5eP9KU1iTUB" role="3_A6iZ">
      <node concept="3clFbS" id="5eP9KU1iTUC" role="2VODD2">
        <node concept="3AgYrR" id="5eP9KU1iTUD" role="3cqZAp">
          <node concept="2OqwBi" id="5eP9KU1iTUG" role="3Ah4Yx">
            <node concept="3__QtB" id="5eP9KU1iTUF" role="2Oq$k0" />
            <node concept="3TrEf2" id="5eP9KU1iTUK" role="2OqNvi">
              <ref role="3Tt5mk" to="tp25:haZaTZ0" />
            </node>
          </node>
        </node>
      </node>
    </node>
  </node>
  <node concept="3_zdsH" id="7c4PJdbGewk">
    <property role="3GE5qa" value="operation.node" />
    <ref role="3_znuS" to="tp25:g_mIQ0D" resolve="Node_IsInstanceOfOperation" />
    <node concept="3__wT9" id="7c4PJdbGewl" role="3_A6iZ">
      <node concept="3clFbS" id="7c4PJdbGewm" role="2VODD2">
        <node concept="3AgYrR" id="7c4PJdbGewt" role="3cqZAp">
          <node concept="2OqwBi" id="7c4PJdbGeww" role="3Ah4Yx">
            <node concept="3__QtB" id="7c4PJdbGewv" role="2Oq$k0" />
            <node concept="3TrEf2" id="7c4PJdbGew$" role="2OqNvi">
              <ref role="3Tt5mk" to="tp25:h8cj9IO" />
            </node>
          </node>
        </node>
      </node>
    </node>
  </node>
  <node concept="3_zdsH" id="1Cyzq4PvWEl">
    <ref role="3_znuS" to="tp25:1Cyzq4PvWDN" resolve="IfInstanceOfVarReference" />
    <node concept="3__wT9" id="1Cyzq4PvWEm" role="3_A6iZ">
      <node concept="3clFbS" id="1Cyzq4PvWEn" role="2VODD2">
        <node concept="3_DX4M" id="1Cyzq4PvWEo" role="3cqZAp">
          <node concept="2OqwBi" id="1Cyzq4PvWEr" role="3_H1SZ">
            <node concept="3__QtB" id="1Cyzq4PvWEq" role="2Oq$k0" />
            <node concept="3TrEf2" id="1Cyzq4PvWEv" role="2OqNvi">
              <ref role="3Tt5mk" to="tp25:1Cyzq4PvWDO" />
            </node>
          </node>
        </node>
      </node>
    </node>
  </node>
  <node concept="3_zdsH" id="1Cyzq4PvWEw">
    <ref role="3_znuS" to="tp25:1Cyzq4Pv$D4" resolve="IfInstanceOfStatement" />
    <node concept="3__wT9" id="1Cyzq4PvWEx" role="3_A6iZ">
      <node concept="3clFbS" id="1Cyzq4PvWEy" role="2VODD2">
        <node concept="3AgYrR" id="1Cyzq4PvWEE" role="3cqZAp">
          <node concept="2OqwBi" id="1Cyzq4PvWEH" role="3Ah4Yx">
            <node concept="3__QtB" id="1Cyzq4PvWEG" role="2Oq$k0" />
            <node concept="3TrEf2" id="1Cyzq4PvWEL" role="2OqNvi">
              <ref role="3Tt5mk" to="tp25:1Cyzq4Pv$D6" />
            </node>
          </node>
        </node>
        <node concept="3_J$rt" id="1Cyzq4PvWEN" role="3cqZAp">
          <node concept="ayLgZ" id="1Cyzq4PvWFc" role="3_JbIs">
            <ref role="ayMZ1" node="1Cyzq4PvWF9" resolve="end" />
          </node>
        </node>
        <node concept="3_FXB6" id="1Cyzq4PvWER" role="3cqZAp">
          <node concept="2OqwBi" id="1Cyzq4PvWEU" role="3_H1SZ">
            <node concept="3__QtB" id="1Cyzq4PvWET" role="2Oq$k0" />
            <node concept="3TrEf2" id="1Cyzq4PvWEY" role="2OqNvi">
              <ref role="3Tt5mk" to="tp25:1Cyzq4Pv$D7" />
            </node>
          </node>
        </node>
        <node concept="3AgYrR" id="1Cyzq4PvWF0" role="3cqZAp">
          <node concept="2OqwBi" id="1Cyzq4PvWF3" role="3Ah4Yx">
            <node concept="3__QtB" id="1Cyzq4PvWF2" role="2Oq$k0" />
            <node concept="3TrEf2" id="1Cyzq4PvWF7" role="2OqNvi">
              <ref role="3Tt5mk" to="tp25:1Cyzq4Pv$D5" />
            </node>
          </node>
        </node>
        <node concept="axUMO" id="1Cyzq4PvWF9" role="3cqZAp">
          <property role="TrG5h" value="end" />
        </node>
      </node>
    </node>
  </node>
  <node concept="3_zdsH" id="3GXHsWRX597">
    <property role="3GE5qa" value="attributes" />
    <ref role="3_znuS" to="tp25:5zEkxuKhqeM" resolve="AttributeAccess" />
    <node concept="3__wT9" id="3GXHsWRX598" role="3_A6iZ">
      <node concept="3clFbS" id="3GXHsWRX599" role="2VODD2">
        <node concept="3AgYrR" id="3GXHsWRX5ri" role="3cqZAp">
          <node concept="2OqwBi" id="3GXHsWRX6Aj" role="3Ah4Yx">
            <node concept="3__QtB" id="3GXHsWRX6Ai" role="2Oq$k0" />
            <node concept="3TrEf2" id="3GXHsWRX6An" role="2OqNvi">
              <ref role="3Tt5mk" to="tp25:5zEkxuKhrAO" />
            </node>
          </node>
        </node>
      </node>
    </node>
  </node>
  <node concept="3_zdsH" id="3GXHsWRX6Ao">
    <property role="3GE5qa" value="attributes" />
    <ref role="3_znuS" to="tp25:5zEkxuKhsAT" resolve="PropertyAttributeQualifier" />
    <node concept="3__wT9" id="3GXHsWRX6Ap" role="3_A6iZ">
      <node concept="3clFbS" id="3GXHsWRX6Aq" role="2VODD2">
        <node concept="3AgYrR" id="3GXHsWRX6Ar" role="3cqZAp">
          <node concept="2OqwBi" id="3GXHsWRX6Au" role="3Ah4Yx">
            <node concept="3__QtB" id="3GXHsWRX6At" role="2Oq$k0" />
            <node concept="3TrEf2" id="3GXHsWRX6Ay" role="2OqNvi">
              <ref role="3Tt5mk" to="tp25:5zEkxuKhsAV" />
            </node>
          </node>
        </node>
      </node>
    </node>
  </node>
  <node concept="3_zdsH" id="3GXHsWRX6Az">
    <property role="3GE5qa" value="attributes" />
    <ref role="3_znuS" to="tp25:5zEkxuKhrAR" resolve="LinkAttributeQualifier" />
    <node concept="3__wT9" id="3GXHsWRX6A$" role="3_A6iZ">
      <node concept="3clFbS" id="3GXHsWRX6A_" role="2VODD2">
        <node concept="3AgYrR" id="3GXHsWRX6AA" role="3cqZAp">
          <node concept="2OqwBi" id="3GXHsWRX6AD" role="3Ah4Yx">
            <node concept="3__QtB" id="3GXHsWRX6AC" role="2Oq$k0" />
            <node concept="3TrEf2" id="3GXHsWRX6AH" role="2OqNvi">
              <ref role="3Tt5mk" to="tp25:5zEkxuKhrUi" />
            </node>
          </node>
        </node>
      </node>
    </node>
  </node>
  <node concept="3_zdsH" id="59YAasRtoHF">
    <property role="3GE5qa" value="conceptSwitch" />
    <ref role="3_znuS" to="tp25:59YAasRsvgH" resolve="ConceptSwitchStatement" />
    <node concept="3__wT9" id="59YAasRtoHG" role="3_A6iZ">
      <node concept="3clFbS" id="59YAasRtoHH" role="2VODD2">
        <node concept="3AgYrR" id="5ffMBkaC7Tk" role="3cqZAp">
          <node concept="2OqwBi" id="5ffMBkaC7Tl" role="3Ah4Yx">
            <node concept="3__QtB" id="5ffMBkaC7Tm" role="2Oq$k0" />
            <node concept="3TrEf2" id="1OybC9Ny4Xa" role="2OqNvi">
              <ref role="3Tt5mk" to="tp25:59YAasRsvgK" />
            </node>
          </node>
        </node>
        <node concept="1DcWWT" id="h$C6O0o" role="3cqZAp">
          <node concept="3clFbS" id="h$C6O0p" role="2LFqv$">
            <node concept="3_J$rt" id="h$C6Vjm" role="3cqZAp">
              <node concept="3_IHaT" id="h$C6V$u" role="3_JbIs">
                <node concept="37vLTw" id="3GM_nagTsHo" role="3_I9Fq">
                  <ref role="3cqZAo" node="h$C6O0s" resolve="switchCase" />
                </node>
              </node>
            </node>
          </node>
          <node concept="2OqwBi" id="h$C6QT4" role="1DdaDG">
            <node concept="3__QtB" id="h$C6QPD" role="2Oq$k0" />
            <node concept="3Tsc0h" id="5ffMBkaC9AH" role="2OqNvi">
              <ref role="3TtcxE" to="tp25:59YAasRsvgL" />
            </node>
          </node>
          <node concept="3cpWsn" id="h$C6O0s" role="1Duv9x">
            <property role="TrG5h" value="switchCase" />
            <node concept="3Tqbb2" id="h$C6P5$" role="1tU5fm">
              <ref role="ehGHo" to="tp25:5ffMBka$9Mm" resolve="IConceptSwitchCase" />
            </node>
          </node>
        </node>
        <node concept="3_J$rt" id="h$C6Wic" role="3cqZAp">
          <node concept="3_IHaT" id="h$C6WJ2" role="3_JbIs">
            <node concept="2OqwBi" id="h$C6Xnn" role="3_I9Fq">
              <node concept="3__QtB" id="h$C6Xit" role="2Oq$k0" />
              <node concept="3TrEf2" id="5ffMBkaCgGY" role="2OqNvi">
                <ref role="3Tt5mk" to="tp25:5ffMBkaCcrg" />
              </node>
            </node>
          </node>
        </node>
        <node concept="1DcWWT" id="5ffMBkaC7Tn" role="3cqZAp">
          <node concept="3clFbS" id="5ffMBkaC7To" role="2LFqv$">
            <node concept="3AgYrR" id="5ffMBkaC7Tp" role="3cqZAp">
              <node concept="37vLTw" id="3GM_nagTByJ" role="3Ah4Yx">
                <ref role="3cqZAo" node="5ffMBkaC7Ts" resolve="switchCase" />
              </node>
            </node>
          </node>
          <node concept="2OqwBi" id="5ffMBkaC7Tq" role="1DdaDG">
            <node concept="3__QtB" id="5ffMBkaC7Tr" role="2Oq$k0" />
            <node concept="3Tsc0h" id="5ffMBkaCagm" role="2OqNvi">
              <ref role="3TtcxE" to="tp25:59YAasRsvgL" />
            </node>
          </node>
          <node concept="3cpWsn" id="5ffMBkaC7Ts" role="1Duv9x">
            <property role="TrG5h" value="switchCase" />
            <node concept="3Tqbb2" id="5ffMBkaC7Tt" role="1tU5fm">
              <ref role="ehGHo" to="tp25:5ffMBka$9Mm" resolve="IConceptSwitchCase" />
            </node>
          </node>
        </node>
        <node concept="3AgYrR" id="h$C73MU" role="3cqZAp">
          <node concept="2OqwBi" id="h$C746Y" role="3Ah4Yx">
            <node concept="3__QtB" id="h$C742N" role="2Oq$k0" />
            <node concept="3TrEf2" id="5ffMBkaCguV" role="2OqNvi">
              <ref role="3Tt5mk" to="tp25:5ffMBkaCcrg" />
            </node>
          </node>
        </node>
      </node>
    </node>
  </node>
  <node concept="3_zdsH" id="1vlniYCgjeA">
    <property role="3GE5qa" value="conceptSwitch" />
    <ref role="3_znuS" to="tp25:59YAasRsvgM" resolve="SubconceptCase" />
    <node concept="3__wT9" id="1vlniYCgjeB" role="3_A6iZ">
      <node concept="3clFbS" id="1vlniYCgjeC" role="2VODD2">
        <node concept="3AgYrR" id="h$C8KXJ" role="3cqZAp">
          <node concept="2OqwBi" id="h$C8Lwe" role="3Ah4Yx">
            <node concept="3__QtB" id="h$C8LsM" role="2Oq$k0" />
            <node concept="3TrEf2" id="1vlniYCgjeF" role="2OqNvi">
              <ref role="3Tt5mk" to="tp25:gVKbo18" />
            </node>
          </node>
        </node>
      </node>
    </node>
  </node>
  <node concept="3_zdsH" id="5ffMBka$9Pf">
    <property role="3GE5qa" value="conceptSwitch" />
    <ref role="3_znuS" to="tp25:5ffMBka$9L$" resolve="ExactConceptCase" />
    <node concept="3__wT9" id="5ffMBka$9Pg" role="3_A6iZ">
      <node concept="3clFbS" id="5ffMBka$9Ph" role="2VODD2">
        <node concept="3AgYrR" id="5ffMBka$9Pi" role="3cqZAp">
          <node concept="2OqwBi" id="5ffMBka$9Pj" role="3Ah4Yx">
            <node concept="3__QtB" id="5ffMBka$9Pk" role="2Oq$k0" />
            <node concept="3TrEf2" id="5ffMBka$a0F" role="2OqNvi">
              <ref role="3Tt5mk" to="tp25:5ffMBka$9NO" />
            </node>
          </node>
        </node>
      </node>
    </node>
  </node>
</model>

