<?xml version="1.0" encoding="UTF-8"?>
<model ref="r:18ddb7a1-bae8-47e8-a653-f672ff99522d(jetbrains.mps.lang.smodel.migration)">
  <persistence version="9" />
  <languages>
    <use id="90746344-04fd-4286-97d5-b46ae6a81709" name="jetbrains.mps.lang.migration" version="-1" />
    <use id="d4615e3b-d671-4ba9-af01-2b78369b0ba7" name="jetbrains.mps.lang.pattern" version="-1" />
    <use id="c7d5b9dd-a05f-4be2-bc73-f2e16994cc67" name="jetbrains.mps.baseLanguage.lightweightdsl" version="-1" />
    <use id="1a8554c4-eb84-43ba-8c34-6f0d90c6e75a" name="jetbrains.mps.lang.smodel.query" version="2" />
    <use id="7a5dda62-9140-4668-ab76-d5ed1746f2b2" name="jetbrains.mps.lang.typesystem" version="-1" />
    <use id="7866978e-a0f0-4cc7-81bc-4d213d9375e1" name="jetbrains.mps.lang.smodel" version="4" />
    <devkit ref="fbc25dd2-5da4-483a-8b19-70928e1b62d7(jetbrains.mps.devkit.general-purpose)" />
  </languages>
  <imports>
    <import index="lui2" ref="8865b7a8-5271-43d3-884c-6fd1d9cfdd34/java:org.jetbrains.mps.openapi.module(MPS.OpenAPI/)" />
    <import index="tpck" ref="r:00000000-0000-4000-0000-011c89590288(jetbrains.mps.lang.core.structure)" />
    <import index="tp25" ref="r:00000000-0000-4000-0000-011c89590301(jetbrains.mps.lang.smodel.structure)" />
    <import index="tpcu" ref="r:00000000-0000-4000-0000-011c89590282(jetbrains.mps.lang.core.behavior)" />
    <import index="c17a" ref="8865b7a8-5271-43d3-884c-6fd1d9cfdd34/java:org.jetbrains.mps.openapi.language(MPS.OpenAPI/)" />
    <import index="6f4m" ref="528ff3b9-5fc4-40dd-931f-c6ce3650640e/r:f69c3fa1-0e30-4980-84e2-190ae44e4c3d(jetbrains.mps.lang.migration.runtime/jetbrains.mps.lang.migration.runtime.base)" />
    <import index="wyt6" ref="6354ebe7-c22a-4a0f-ac54-50b52ab9b065/java:java.lang(JDK/)" />
    <import index="slm6" ref="90746344-04fd-4286-97d5-b46ae6a81709/r:52a3d974-bd4f-4651-ba6e-a2de5e336d95(jetbrains.mps.lang.migration/jetbrains.mps.lang.migration.methods)" implicit="true" />
    <import index="tpee" ref="r:00000000-0000-4000-0000-011c895902ca(jetbrains.mps.baseLanguage.structure)" implicit="true" />
    <import index="tpeu" ref="r:00000000-0000-4000-0000-011c895902fa(jetbrains.mps.lang.smodel.behavior)" implicit="true" />
  </imports>
  <registry>
    <language id="f3061a53-9226-4cc5-a443-f952ceaf5816" name="jetbrains.mps.baseLanguage">
      <concept id="1080223426719" name="jetbrains.mps.baseLanguage.structure.OrExpression" flags="nn" index="22lmx$" />
      <concept id="1082485599095" name="jetbrains.mps.baseLanguage.structure.BlockStatement" flags="nn" index="9aQIb">
        <child id="1082485599096" name="statements" index="9aQI4" />
      </concept>
      <concept id="4836112446988635817" name="jetbrains.mps.baseLanguage.structure.UndefinedType" flags="in" index="2jxLKc" />
      <concept id="1465982738277781862" name="jetbrains.mps.baseLanguage.structure.PlaceholderMember" flags="ng" index="2tJIrI" />
      <concept id="1197027756228" name="jetbrains.mps.baseLanguage.structure.DotExpression" flags="nn" index="2OqwBi">
        <child id="1197027771414" name="operand" index="2Oq$k0" />
        <child id="1197027833540" name="operation" index="2OqNvi" />
      </concept>
      <concept id="1145552977093" name="jetbrains.mps.baseLanguage.structure.GenericNewExpression" flags="nn" index="2ShNRf">
        <child id="1145553007750" name="creator" index="2ShVmc" />
      </concept>
      <concept id="1070475926800" name="jetbrains.mps.baseLanguage.structure.StringLiteral" flags="nn" index="Xl_RD">
        <property id="1070475926801" name="value" index="Xl_RC" />
      </concept>
      <concept id="1182160077978" name="jetbrains.mps.baseLanguage.structure.AnonymousClassCreator" flags="nn" index="YeOm9">
        <child id="1182160096073" name="cls" index="YeSDq" />
      </concept>
      <concept id="1081236700937" name="jetbrains.mps.baseLanguage.structure.StaticMethodCall" flags="nn" index="2YIFZM">
        <reference id="1144433194310" name="classConcept" index="1Pybhc" />
      </concept>
      <concept id="1070534058343" name="jetbrains.mps.baseLanguage.structure.NullLiteral" flags="nn" index="10Nm6u" />
      <concept id="1070534644030" name="jetbrains.mps.baseLanguage.structure.BooleanType" flags="in" index="10P_77" />
      <concept id="1070534934090" name="jetbrains.mps.baseLanguage.structure.CastExpression" flags="nn" index="10QFUN">
        <child id="1070534934091" name="type" index="10QFUM" />
        <child id="1070534934092" name="expression" index="10QFUP" />
      </concept>
      <concept id="1068431474542" name="jetbrains.mps.baseLanguage.structure.VariableDeclaration" flags="ng" index="33uBYm">
        <child id="1068431790190" name="initializer" index="33vP2m" />
      </concept>
      <concept id="1068498886296" name="jetbrains.mps.baseLanguage.structure.VariableReference" flags="nn" index="37vLTw">
        <reference id="1068581517664" name="variableDeclaration" index="3cqZAo" />
      </concept>
      <concept id="1068498886292" name="jetbrains.mps.baseLanguage.structure.ParameterDeclaration" flags="ir" index="37vLTG" />
      <concept id="1225271177708" name="jetbrains.mps.baseLanguage.structure.StringType" flags="in" index="17QB3L" />
      <concept id="1225271283259" name="jetbrains.mps.baseLanguage.structure.NPEEqualsExpression" flags="nn" index="17R0WA" />
      <concept id="4972933694980447171" name="jetbrains.mps.baseLanguage.structure.BaseVariableDeclaration" flags="ng" index="19Szcq">
        <child id="5680397130376446158" name="type" index="1tU5fm" />
      </concept>
      <concept id="1068580123132" name="jetbrains.mps.baseLanguage.structure.BaseMethodDeclaration" flags="ng" index="3clF44">
        <child id="1068580123133" name="returnType" index="3clF45" />
        <child id="1068580123134" name="parameter" index="3clF46" />
        <child id="1068580123135" name="body" index="3clF47" />
      </concept>
      <concept id="1068580123165" name="jetbrains.mps.baseLanguage.structure.InstanceMethodDeclaration" flags="ig" index="3clFb_">
        <property id="1178608670077" name="isAbstract" index="1EzhhJ" />
      </concept>
      <concept id="1068580123152" name="jetbrains.mps.baseLanguage.structure.EqualsExpression" flags="nn" index="3clFbC" />
      <concept id="1068580123155" name="jetbrains.mps.baseLanguage.structure.ExpressionStatement" flags="nn" index="3clFbF">
        <child id="1068580123156" name="expression" index="3clFbG" />
      </concept>
      <concept id="1068580123157" name="jetbrains.mps.baseLanguage.structure.Statement" flags="nn" index="3clFbH" />
      <concept id="1068580123159" name="jetbrains.mps.baseLanguage.structure.IfStatement" flags="nn" index="3clFbJ">
        <child id="1082485599094" name="ifFalseStatement" index="9aQIa" />
        <child id="1068580123160" name="condition" index="3clFbw" />
        <child id="1068580123161" name="ifTrue" index="3clFbx" />
      </concept>
      <concept id="1068580123136" name="jetbrains.mps.baseLanguage.structure.StatementList" flags="sn" stub="5293379017992965193" index="3clFbS">
        <child id="1068581517665" name="statement" index="3cqZAp" />
      </concept>
      <concept id="1068580123137" name="jetbrains.mps.baseLanguage.structure.BooleanConstant" flags="nn" index="3clFbT">
        <property id="1068580123138" name="value" index="3clFbU" />
      </concept>
      <concept id="1068580320020" name="jetbrains.mps.baseLanguage.structure.IntegerConstant" flags="nn" index="3cmrfG">
        <property id="1068580320021" name="value" index="3cmrfH" />
      </concept>
      <concept id="1068581242878" name="jetbrains.mps.baseLanguage.structure.ReturnStatement" flags="nn" index="3cpWs6">
        <child id="1068581517676" name="expression" index="3cqZAk" />
      </concept>
      <concept id="1068581242864" name="jetbrains.mps.baseLanguage.structure.LocalVariableDeclarationStatement" flags="nn" index="3cpWs8">
        <child id="1068581242865" name="localVariableDeclaration" index="3cpWs9" />
      </concept>
      <concept id="1068581242863" name="jetbrains.mps.baseLanguage.structure.LocalVariableDeclaration" flags="nr" index="3cpWsn" />
      <concept id="1079359253375" name="jetbrains.mps.baseLanguage.structure.ParenthesizedExpression" flags="nn" index="1eOMI4">
        <child id="1079359253376" name="expression" index="1eOMHV" />
      </concept>
      <concept id="1081516740877" name="jetbrains.mps.baseLanguage.structure.NotExpression" flags="nn" index="3fqX7Q">
        <child id="1081516765348" name="expression" index="3fr31v" />
      </concept>
      <concept id="1204053956946" name="jetbrains.mps.baseLanguage.structure.IMethodCall" flags="ng" index="1ndlxa">
        <reference id="1068499141037" name="baseMethodDeclaration" index="37wK5l" />
        <child id="1068499141038" name="actualArgument" index="37wK5m" />
      </concept>
      <concept id="1107461130800" name="jetbrains.mps.baseLanguage.structure.Classifier" flags="ng" index="3pOWGL">
        <property id="521412098689998745" name="nonStatic" index="2bfB8j" />
        <child id="5375687026011219971" name="member" index="jymVt" unordered="true" />
      </concept>
      <concept id="1107535904670" name="jetbrains.mps.baseLanguage.structure.ClassifierType" flags="in" index="3uibUv">
        <reference id="1107535924139" name="classifier" index="3uigEE" />
      </concept>
      <concept id="1081773326031" name="jetbrains.mps.baseLanguage.structure.BinaryOperation" flags="nn" index="3uHJSO">
        <child id="1081773367579" name="rightExpression" index="3uHU7w" />
        <child id="1081773367580" name="leftExpression" index="3uHU7B" />
      </concept>
      <concept id="1073239437375" name="jetbrains.mps.baseLanguage.structure.NotEqualsExpression" flags="nn" index="3y3z36" />
      <concept id="1178549954367" name="jetbrains.mps.baseLanguage.structure.IVisible" flags="ng" index="1B3ioH">
        <child id="1178549979242" name="visibility" index="1B3o_S" />
      </concept>
      <concept id="1146644602865" name="jetbrains.mps.baseLanguage.structure.PublicVisibility" flags="nn" index="3Tm1VV" />
      <concept id="1080120340718" name="jetbrains.mps.baseLanguage.structure.AndExpression" flags="nn" index="1Wc70l" />
      <concept id="1170345865475" name="jetbrains.mps.baseLanguage.structure.AnonymousClass" flags="ig" index="1Y3b0j">
        <reference id="1170346070688" name="classifier" index="1Y3XeK" />
      </concept>
    </language>
    <language id="d4615e3b-d671-4ba9-af01-2b78369b0ba7" name="jetbrains.mps.lang.pattern">
      <concept id="1136720037777" name="jetbrains.mps.lang.pattern.structure.PatternExpression" flags="in" index="2DMOqp">
        <child id="9046399079000773837" name="pattern" index="HM535" />
      </concept>
      <concept id="1137418540378" name="jetbrains.mps.lang.pattern.structure.LinkPatternVariableDeclaration" flags="ng" index="3jrphi">
        <property id="1137418571428" name="varName" index="3jrwYG" />
      </concept>
    </language>
    <language id="fd392034-7849-419d-9071-12563d152375" name="jetbrains.mps.baseLanguage.closures">
      <concept id="1199569711397" name="jetbrains.mps.baseLanguage.closures.structure.ClosureLiteral" flags="nn" index="1bVj0M">
        <child id="1199569906740" name="parameter" index="1bW2Oz" />
        <child id="1199569916463" name="body" index="1bW5cS" />
      </concept>
    </language>
    <language id="c7d5b9dd-a05f-4be2-bc73-f2e16994cc67" name="jetbrains.mps.baseLanguage.lightweightdsl">
      <concept id="8880393040217246788" name="jetbrains.mps.baseLanguage.lightweightdsl.structure.MethodParameterInstance" flags="ig" index="ffn8J">
        <reference id="8880393040217294897" name="decl" index="ffrpq" />
      </concept>
      <concept id="3751132065236767083" name="jetbrains.mps.baseLanguage.lightweightdsl.structure.DependentTypeInstance" flags="ig" index="q3mfm">
        <reference id="3751132065236767084" name="decl" index="q3mfh" />
        <reference id="9097849371505568270" name="point" index="1QQUv3" />
      </concept>
      <concept id="3751132065236767060" name="jetbrains.mps.baseLanguage.lightweightdsl.structure.MethodInstance" flags="ig" index="q3mfD">
        <reference id="19209059688387895" name="decl" index="2VtyIY" />
      </concept>
      <concept id="6478870542308708689" name="jetbrains.mps.baseLanguage.lightweightdsl.structure.PropertyInstance" flags="ig" index="3tT0cZ">
        <reference id="8585153554445465961" name="decl" index="25KYV2" />
      </concept>
      <concept id="6478870542308703666" name="jetbrains.mps.baseLanguage.lightweightdsl.structure.MemberPlaceholder" flags="ng" index="3tTeZs">
        <property id="6478870542308703667" name="caption" index="3tTeZt" />
        <reference id="6478870542308703669" name="decl" index="3tTeZr" />
      </concept>
      <concept id="6478870542308871875" name="jetbrains.mps.baseLanguage.lightweightdsl.structure.BooleanPropertyInstance" flags="ig" index="3tYpMH">
        <property id="6478870542308871876" name="value" index="3tYpME" />
      </concept>
      <concept id="6478870542308871428" name="jetbrains.mps.baseLanguage.lightweightdsl.structure.StringPropertyInstance" flags="ig" index="3tYpXE">
        <property id="6478870542308871429" name="value" index="3tYpXF" />
      </concept>
    </language>
    <language id="3a13115c-633c-4c5c-bbcc-75c4219e9555" name="jetbrains.mps.lang.quotation">
      <concept id="1196350785110" name="jetbrains.mps.lang.quotation.structure.AbstractAntiquotation" flags="ng" index="2c44t0">
        <property id="6489343236075007666" name="label" index="3hQQBS" />
        <child id="1196350785111" name="expression" index="2c44t1" />
      </concept>
      <concept id="1196350785117" name="jetbrains.mps.lang.quotation.structure.ReferenceAntiquotation" flags="ng" index="2c44tb" />
      <concept id="1196350785112" name="jetbrains.mps.lang.quotation.structure.Antiquotation" flags="ng" index="2c44te" />
      <concept id="1196350785113" name="jetbrains.mps.lang.quotation.structure.Quotation" flags="nn" index="2c44tf">
        <child id="1196350785114" name="quotedNode" index="2c44tc" />
      </concept>
    </language>
    <language id="7a5dda62-9140-4668-ab76-d5ed1746f2b2" name="jetbrains.mps.lang.typesystem">
      <concept id="1176543928247" name="jetbrains.mps.lang.typesystem.structure.IsSubtypeExpression" flags="nn" index="3JuTUA">
        <child id="1176543945045" name="subtypeExpression" index="3JuY14" />
        <child id="1176543950311" name="supertypeExpression" index="3JuZjQ" />
      </concept>
      <concept id="1176544042499" name="jetbrains.mps.lang.typesystem.structure.Node_TypeOperation" flags="nn" index="3JvlWi" />
    </language>
    <language id="7866978e-a0f0-4cc7-81bc-4d213d9375e1" name="jetbrains.mps.lang.smodel">
      <concept id="1177026924588" name="jetbrains.mps.lang.smodel.structure.RefConcept_Reference" flags="nn" index="chp4Y">
        <reference id="1177026940964" name="conceptDeclaration" index="cht4Q" />
      </concept>
      <concept id="1179409122411" name="jetbrains.mps.lang.smodel.structure.Node_ConceptMethodCall" flags="nn" index="2qgKlT" />
      <concept id="4693937538533521280" name="jetbrains.mps.lang.smodel.structure.OfConceptOperation" flags="ng" index="v3k3i">
        <child id="4693937538533538124" name="requestedConcept" index="v3oSu" />
      </concept>
      <concept id="7453996997717780434" name="jetbrains.mps.lang.smodel.structure.Node_GetSConceptOperation" flags="nn" index="2yIwOk" />
      <concept id="2396822768958367367" name="jetbrains.mps.lang.smodel.structure.AbstractTypeCastExpression" flags="nn" index="$5XWr">
        <reference id="6733348108486823428" name="concept" index="1m5ApE" />
        <child id="6733348108486823193" name="leftExpression" index="1m5AlR" />
      </concept>
      <concept id="1171310072040" name="jetbrains.mps.lang.smodel.structure.Node_GetContainingRootOperation" flags="nn" index="2Rxl7S" />
      <concept id="1171323947159" name="jetbrains.mps.lang.smodel.structure.Model_NodesOperation" flags="nn" index="2SmgA7">
        <reference id="1171323947160" name="concept" index="2SmgA8" />
        <child id="1758937410080001570" name="conceptArgument" index="1dBWTz" />
      </concept>
      <concept id="2644386474301421077" name="jetbrains.mps.lang.smodel.structure.LinkIdRefExpression" flags="nn" index="359W_D">
        <reference id="2644386474301421078" name="conceptDeclaration" index="359W_E" />
        <reference id="2644386474301421079" name="linkDeclaration" index="359W_F" />
      </concept>
      <concept id="6677504323281689838" name="jetbrains.mps.lang.smodel.structure.SConceptType" flags="in" index="3bZ5Sz" />
      <concept id="1139621453865" name="jetbrains.mps.lang.smodel.structure.Node_IsInstanceOfOperation" flags="nn" index="1mIQ4w">
        <child id="1177027386292" name="conceptArgument" index="cj9EA" />
      </concept>
      <concept id="334628810661441841" name="jetbrains.mps.lang.smodel.structure.AsSConcept" flags="nn" index="1rGIog" />
      <concept id="1172008320231" name="jetbrains.mps.lang.smodel.structure.Node_IsNotNullOperation" flags="nn" index="3x8VRR" />
      <concept id="1180636770613" name="jetbrains.mps.lang.smodel.structure.SNodeCreator" flags="nn" index="3zrR0B">
        <child id="1180636770616" name="createdType" index="3zrR0E" />
      </concept>
      <concept id="1219352745532" name="jetbrains.mps.lang.smodel.structure.NodeRefExpression" flags="nn" index="3B5_sB">
        <reference id="1219352800908" name="referentNode" index="3B5MYn" />
      </concept>
      <concept id="1140131837776" name="jetbrains.mps.lang.smodel.structure.Node_ReplaceWithAnotherOperation" flags="nn" index="1P9Npp">
        <child id="1140131861877" name="replacementNode" index="1P9ThW" />
      </concept>
      <concept id="1140137987495" name="jetbrains.mps.lang.smodel.structure.SNodeTypeCastExpression" flags="nn" index="1PxgMI" />
      <concept id="1138055754698" name="jetbrains.mps.lang.smodel.structure.SNodeType" flags="in" index="3Tqbb2">
        <reference id="1138405853777" name="concept" index="ehGHo" />
      </concept>
      <concept id="1138056143562" name="jetbrains.mps.lang.smodel.structure.SLinkAccess" flags="nn" index="3TrEf2">
        <reference id="1138056516764" name="link" index="3Tt5mk" />
      </concept>
      <concept id="1138056282393" name="jetbrains.mps.lang.smodel.structure.SLinkListAccess" flags="nn" index="3Tsc0h">
        <reference id="1138056546658" name="link" index="3TtcxE" />
      </concept>
    </language>
    <language id="ceab5195-25ea-4f22-9b92-103b95ca8c0c" name="jetbrains.mps.lang.core">
      <concept id="1133920641626" name="jetbrains.mps.lang.core.structure.BaseConcept" flags="ng" index="2VYdi">
        <property id="1193676396447" name="virtualPackage" index="3GE5qa" />
        <child id="5169995583184591170" name="smodelAttribute" index="lGtFl" />
      </concept>
      <concept id="3364660638048049745" name="jetbrains.mps.lang.core.structure.LinkAttribute" flags="ng" index="A9Btn">
        <property id="1757699476691236116" name="linkRole" index="2qtEX8" />
        <property id="1341860900488019036" name="linkId" index="P3scX" />
      </concept>
      <concept id="1169194658468" name="jetbrains.mps.lang.core.structure.INamedConcept" flags="ng" index="TrEIO">
        <property id="1169194664001" name="name" index="TrG5h" />
      </concept>
    </language>
    <language id="90746344-04fd-4286-97d5-b46ae6a81709" name="jetbrains.mps.lang.migration">
      <concept id="3116305438947623354" name="jetbrains.mps.lang.migration.structure.MoveContainmentLink" flags="ng" index="7a1rN" />
      <concept id="3116305438947623351" name="jetbrains.mps.lang.migration.structure.MoveReferenceLink" flags="ng" index="7a1rY" />
      <concept id="3116305438947553624" name="jetbrains.mps.lang.migration.structure.RefactoringPart" flags="ng" index="7amoh">
        <property id="3628660716136424362" name="participant" index="hSBgo" />
        <child id="3628660716136424366" name="finalState" index="hSBgs" />
        <child id="3628660716136424364" name="initialState" index="hSBgu" />
      </concept>
      <concept id="2864063292004102367" name="jetbrains.mps.lang.migration.structure.ReflectionNodeReference" flags="ng" index="2pBcaW">
        <property id="2864063292004102809" name="nodeName" index="2pBc3U" />
        <property id="2864063292004103235" name="modelRef" index="2pBcow" />
        <property id="2864063292004103247" name="nodeId" index="2pBcoG" />
      </concept>
      <concept id="3220955710218421371" name="jetbrains.mps.lang.migration.structure.LinkPatternVariableReference" flags="ng" index="spIps">
        <reference id="3220955710218421372" name="declaration" index="spIpr" />
      </concept>
      <concept id="2015900981881695631" name="jetbrains.mps.lang.migration.structure.RefactoringLog" flags="ng" index="W$Crc">
        <property id="2015900981881695633" name="fromVersion" index="W$Cri" />
        <child id="2015900981881695634" name="part" index="W$Crh" />
        <child id="3597905718825595708" name="options" index="1w76sc" />
      </concept>
      <concept id="7431903976166007326" name="jetbrains.mps.lang.migration.structure.MoveNodeMigrationPart" flags="ng" index="Z4OXk">
        <child id="3116305438947564633" name="specialization" index="7agGg" />
        <child id="7431903976166276375" name="toNode" index="Z5P1t" />
        <child id="7431903976166276373" name="fromNode" index="Z5P1v" />
      </concept>
      <concept id="7431903976166443707" name="jetbrains.mps.lang.migration.structure.PureMigrationScript" flags="ng" index="Z5qvL">
        <property id="7431903976166443708" name="fromVersion" index="Z5qvQ" />
        <child id="7431903976166447091" name="part" index="Z5rET" />
      </concept>
      <concept id="3597905718825595712" name="jetbrains.mps.lang.migration.structure.RefactoringOptions" flags="ng" index="1w76tK">
        <child id="3597905718825595718" name="options" index="1w76tQ" />
      </concept>
      <concept id="3597905718825595715" name="jetbrains.mps.lang.migration.structure.RefactoringOption" flags="ng" index="1w76tN">
        <property id="3597905718825595716" name="optionId" index="1w76tO" />
        <property id="3597905718825650036" name="description" index="1w7ld4" />
      </concept>
      <concept id="5636302460526173897" name="jetbrains.mps.lang.migration.structure.TransformStatement" flags="ng" index="3SqFnK">
        <child id="5636302460526173944" name="postprocess" index="3SqFn1" />
        <child id="5636302460526173936" name="consequence" index="3SqFn9" />
        <child id="5636302460526173940" name="precondition" index="3SqFnd" />
        <child id="5636302460526173934" name="pattern" index="3SqFnn" />
      </concept>
      <concept id="5636302460526210369" name="jetbrains.mps.lang.migration.structure.QuotationConsequence" flags="ng" index="3SqKpS">
        <child id="6129256022887780734" name="quotation" index="2SEiMu" />
      </concept>
      <concept id="8352104482584315555" name="jetbrains.mps.lang.migration.structure.MigrationScript" flags="ig" index="3SyAh_">
        <property id="5820409521797704727" name="fromVersion" index="qMTe8" />
      </concept>
    </language>
    <language id="1a8554c4-eb84-43ba-8c34-6f0d90c6e75a" name="jetbrains.mps.lang.smodel.query">
      <concept id="7738379549910147341" name="jetbrains.mps.lang.smodel.query.structure.InstancesExpression" flags="ng" index="qVDSY">
        <child id="7738379549910147342" name="conceptArg" index="qVDSX" />
      </concept>
      <concept id="4234138103881610891" name="jetbrains.mps.lang.smodel.query.structure.WithStatement" flags="ng" index="L3pyB">
        <child id="4234138103881610935" name="scope" index="L3pyr" />
        <child id="4234138103881610892" name="stmts" index="L3pyw" />
      </concept>
      <concept id="4307205004131544317" name="jetbrains.mps.lang.smodel.query.structure.QueryExpression" flags="ng" index="1dNuzs">
        <child id="4307205004132279624" name="parameter" index="1dOa5D" />
      </concept>
      <concept id="4307205004132277753" name="jetbrains.mps.lang.smodel.query.structure.QueryParameterList" flags="ng" index="1dO9Bo" />
    </language>
    <language id="83888646-71ce-4f1c-9c53-c54016f6ad4f" name="jetbrains.mps.baseLanguage.collections">
      <concept id="1204796164442" name="jetbrains.mps.baseLanguage.collections.structure.InternalSequenceOperation" flags="nn" index="23sCx2">
        <child id="1204796294226" name="closure" index="23t8la" />
      </concept>
      <concept id="540871147943773365" name="jetbrains.mps.baseLanguage.collections.structure.SingleArgumentSequenceOperation" flags="nn" index="25WWJ4">
        <child id="540871147943773366" name="argument" index="25WWJ7" />
      </concept>
      <concept id="1204980550705" name="jetbrains.mps.baseLanguage.collections.structure.VisitAllOperation" flags="nn" index="2es0OD" />
      <concept id="1151688443754" name="jetbrains.mps.baseLanguage.collections.structure.ListType" flags="in" index="_YKpA">
        <child id="1151688676805" name="elementType" index="_ZDj9" />
      </concept>
      <concept id="1151689724996" name="jetbrains.mps.baseLanguage.collections.structure.SequenceType" flags="in" index="A3Dl8">
        <child id="1151689745422" name="elementType" index="A3Ik2" />
      </concept>
      <concept id="1151702311717" name="jetbrains.mps.baseLanguage.collections.structure.ToListOperation" flags="nn" index="ANE8D" />
      <concept id="1203518072036" name="jetbrains.mps.baseLanguage.collections.structure.SmartClosureParameterDeclaration" flags="ig" index="Rh6nW" />
      <concept id="1160666733551" name="jetbrains.mps.baseLanguage.collections.structure.AddAllElementsOperation" flags="nn" index="X8dFx" />
      <concept id="1202120902084" name="jetbrains.mps.baseLanguage.collections.structure.WhereOperation" flags="nn" index="3zZkjj" />
      <concept id="1202128969694" name="jetbrains.mps.baseLanguage.collections.structure.SelectOperation" flags="nn" index="3$u5V9" />
    </language>
  </registry>
  <node concept="3SyAh_" id="2JFJZufO6pp">
    <property role="qMTe8" value="0" />
    <property role="TrG5h" value="Migrate_ModelNodesOperation_concept" />
    <node concept="3Tm1VV" id="2JFJZufO6pq" role="1B3o_S" />
    <node concept="3tTeZs" id="2JFJZufO6ps" role="jymVt">
      <property role="3tTeZt" value="&lt;no execute after&gt;" />
      <ref role="3tTeZr" to="slm6:7ay_HjIMt1a" resolve="execute after" />
    </node>
    <node concept="3tTeZs" id="2JFJZufO6pt" role="jymVt">
      <property role="3tTeZt" value="&lt;no required data&gt;" />
      <ref role="3tTeZr" to="slm6:3A3gNhf1WPI" resolve="requires data" />
    </node>
    <node concept="3tTeZs" id="2JFJZufO6pu" role="jymVt">
      <property role="3tTeZt" value="&lt;no produced data&gt;" />
      <ref role="3tTeZr" to="slm6:536fTXa4WHO" resolve="produces data" />
    </node>
    <node concept="2tJIrI" id="2JFJZufO6pv" role="jymVt" />
    <node concept="3tTeZs" id="2JFJZufO6pw" role="jymVt">
      <property role="3tTeZt" value="&lt;description&gt;" />
      <ref role="3tTeZr" to="slm6:1_lSsE3RFpE" resolve="description" />
    </node>
    <node concept="q3mfD" id="2JFJZufO6px" role="jymVt">
      <property role="TrG5h" value="execute" />
      <ref role="2VtyIY" to="slm6:4ubqdNOF9cA" resolve="execute" />
      <node concept="3Tm1VV" id="2JFJZufO6pz" role="1B3o_S" />
      <node concept="3clFbS" id="2JFJZufO6p_" role="3clF47">
        <node concept="3SqFnK" id="2JFJZufP5k2" role="3cqZAp">
          <node concept="2DMOqp" id="2JFJZufP5k4" role="3SqFnn">
            <node concept="2c44tf" id="7oTZmjkCr7V" role="HM535">
              <node concept="2SmgA7" id="2JFJZufP55S" role="2c44tc">
                <ref role="2SmgA8" to="tpck:gw2VY9q" resolve="BaseConcept" />
                <node concept="3jrphi" id="2JFJZufP5we" role="lGtFl">
                  <property role="P3scX" value="7866978e-a0f0-4cc7-81bc-4d213d9375e1/1171323947159/1171323947160" />
                  <property role="2qtEX8" value="concept" />
                  <property role="3jrwYG" value="concept" />
                </node>
              </node>
            </node>
          </node>
          <node concept="3SqKpS" id="2JFJZufP5p2" role="3SqFn9">
            <node concept="2c44tf" id="2JFJZufP5p4" role="2SEiMu">
              <node concept="2SmgA7" id="2JFJZufP5xt" role="2c44tc">
                <node concept="chp4Y" id="2JFJZufP5y6" role="1dBWTz">
                  <ref role="cht4Q" to="tpck:gw2VY9q" resolve="BaseConcept" />
                  <node concept="2c44tb" id="2JFJZufP5yT" role="lGtFl">
                    <property role="P3scX" value="7866978e-a0f0-4cc7-81bc-4d213d9375e1/1177026924588/1177026940964" />
                    <property role="2qtEX8" value="conceptDeclaration" />
                    <property role="3hQQBS" value="RefConcept_Reference" />
                    <node concept="spIps" id="2JFJZufP5$a" role="2c44t1">
                      <ref role="spIpr" node="2JFJZufP5we" resolve="#concept" />
                    </node>
                  </node>
                </node>
              </node>
            </node>
          </node>
          <node concept="1bVj0M" id="5$kFC2QMtbK" role="3SqFnd">
            <node concept="3clFbS" id="5$kFC2QMtbL" role="1bW5cS">
              <node concept="3clFbJ" id="3jOwkUwSCgd" role="3cqZAp">
                <node concept="3clFbS" id="3jOwkUwSCgf" role="3clFbx">
                  <node concept="3cpWs6" id="3jOwkUwSCwx" role="3cqZAp">
                    <node concept="3clFbT" id="3jOwkUwSC_G" role="3cqZAk">
                      <property role="3clFbU" value="false" />
                    </node>
                  </node>
                </node>
                <node concept="3clFbC" id="3jOwkUwSCnM" role="3clFbw">
                  <node concept="spIps" id="5$kFC2QMtYQ" role="3uHU7B">
                    <ref role="spIpr" node="2JFJZufP5we" resolve="#concept" />
                  </node>
                  <node concept="10Nm6u" id="5$kFC2QMtV7" role="3uHU7w" />
                </node>
              </node>
              <node concept="3clFbJ" id="3jOwkUwSH5s" role="3cqZAp">
                <node concept="3clFbS" id="3jOwkUwSH5u" role="3clFbx">
                  <node concept="3cpWs6" id="3jOwkUwSICy" role="3cqZAp">
                    <node concept="3clFbT" id="3jOwkUwSIT5" role="3cqZAk">
                      <property role="3clFbU" value="false" />
                    </node>
                  </node>
                </node>
                <node concept="1Wc70l" id="3jOwkUwSGk6" role="3clFbw">
                  <node concept="3y3z36" id="3jOwkUwVnN0" role="3uHU7B">
                    <node concept="2OqwBi" id="3jOwkUwSCYH" role="3uHU7B">
                      <node concept="37vLTw" id="3jOwkUwSCHP" role="2Oq$k0">
                        <ref role="3cqZAo" node="5$kFC2QMtiq" resolve="op" />
                      </node>
                      <node concept="2qgKlT" id="3jOwkUwSDb6" role="2OqNvi">
                        <ref role="37wK5l" to="tpcu:3t0v3yFOD1A" resolve="getMetaLevel" />
                      </node>
                    </node>
                    <node concept="3cmrfG" id="3jOwkUwSFUj" role="3uHU7w">
                      <property role="3cmrfH" value="0" />
                    </node>
                  </node>
                  <node concept="3clFbC" id="3jOwkUwSIi2" role="3uHU7w">
                    <node concept="3B5_sB" id="3jOwkUwSInB" role="3uHU7w">
                      <ref role="3B5MYn" node="2JFJZufO6pp" resolve="Migrate_ModelNodesOperation_concept" />
                    </node>
                    <node concept="2OqwBi" id="3jOwkUwSHNT" role="3uHU7B">
                      <node concept="37vLTw" id="3jOwkUwSHGH" role="2Oq$k0">
                        <ref role="3cqZAo" node="5$kFC2QMtiq" resolve="op" />
                      </node>
                      <node concept="2Rxl7S" id="3jOwkUwSI2A" role="2OqNvi" />
                    </node>
                  </node>
                </node>
              </node>
              <node concept="3cpWs6" id="3jOwkUwSGzV" role="3cqZAp">
                <node concept="3clFbT" id="3jOwkUwSGKE" role="3cqZAk">
                  <property role="3clFbU" value="true" />
                </node>
              </node>
            </node>
            <node concept="37vLTG" id="5$kFC2QMtiq" role="1bW2Oz">
              <property role="TrG5h" value="op" />
              <node concept="3Tqbb2" id="5$kFC2QMtip" role="1tU5fm">
                <ref role="ehGHo" to="tp25:h2Smgyn" resolve="Model_NodesOperation" />
              </node>
            </node>
          </node>
          <node concept="1bVj0M" id="3jOwkUwSJaq" role="3SqFn1">
            <node concept="37vLTG" id="3jOwkUwSJkp" role="1bW2Oz">
              <property role="TrG5h" value="oldNode" />
              <node concept="3Tqbb2" id="3jOwkUwSJkq" role="1tU5fm">
                <ref role="ehGHo" to="tp25:h2Smgyn" resolve="Model_NodesOperation" />
              </node>
            </node>
            <node concept="37vLTG" id="3jOwkUwSLBA" role="1bW2Oz">
              <property role="TrG5h" value="newNode" />
              <node concept="3Tqbb2" id="3jOwkUwSLBB" role="1tU5fm">
                <ref role="ehGHo" to="tp25:h2Smgyn" resolve="Model_NodesOperation" />
              </node>
            </node>
            <node concept="3clFbS" id="3jOwkUwSJar" role="1bW5cS">
              <node concept="3cpWs8" id="3jOwkUwSXvb" role="3cqZAp">
                <node concept="3cpWsn" id="3jOwkUwSXvc" role="3cpWs9">
                  <property role="TrG5h" value="attributes" />
                  <node concept="_YKpA" id="1jixkkC_FpF" role="1tU5fm">
                    <node concept="3Tqbb2" id="1jixkkC_FpH" role="_ZDj9">
                      <ref role="ehGHo" to="tpck:2ULFgo8_XDh" resolve="LinkAttribute" />
                    </node>
                  </node>
                  <node concept="2OqwBi" id="1jixkkC_GzR" role="33vP2m">
                    <node concept="2OqwBi" id="3jOwkUwSXvd" role="2Oq$k0">
                      <node concept="2OqwBi" id="3jOwkUwSXve" role="2Oq$k0">
                        <node concept="2OqwBi" id="3jOwkUwSXvf" role="2Oq$k0">
                          <node concept="37vLTw" id="3jOwkUwSXvg" role="2Oq$k0">
                            <ref role="3cqZAo" node="3jOwkUwSJkp" resolve="oldNode" />
                          </node>
                          <node concept="3Tsc0h" id="3jOwkUwSXvh" role="2OqNvi">
                            <ref role="3TtcxE" to="tpck:4uZwTti3__2" />
                          </node>
                        </node>
                        <node concept="v3k3i" id="3jOwkUwSXvi" role="2OqNvi">
                          <node concept="chp4Y" id="3jOwkUwSXvj" role="v3oSu">
                            <ref role="cht4Q" to="tpck:2ULFgo8_XDh" resolve="LinkAttribute" />
                          </node>
                        </node>
                      </node>
                      <node concept="3zZkjj" id="3jOwkUwSXvk" role="2OqNvi">
                        <node concept="1bVj0M" id="3jOwkUwSXvl" role="23t8la">
                          <node concept="3clFbS" id="3jOwkUwSXvm" role="1bW5cS">
                            <node concept="3clFbF" id="3jOwkUwSXvn" role="3cqZAp">
                              <node concept="17R0WA" id="3jOwkUwSXvo" role="3clFbG">
                                <node concept="359W_D" id="3jOwkUwSXvp" role="3uHU7w">
                                  <ref role="359W_E" to="tp25:h2Smgyn" resolve="Model_NodesOperation" />
                                  <ref role="359W_F" to="tp25:h2Smgyo" />
                                </node>
                                <node concept="2OqwBi" id="3jOwkUwSXvq" role="3uHU7B">
                                  <node concept="37vLTw" id="3jOwkUwSXvr" role="2Oq$k0">
                                    <ref role="3cqZAo" node="3jOwkUwSXvt" resolve="attr" />
                                  </node>
                                  <node concept="2qgKlT" id="3jOwkUwSXvs" role="2OqNvi">
                                    <ref role="37wK5l" to="tpcu:1avfQ4BEFo6" resolve="getLink" />
                                  </node>
                                </node>
                              </node>
                            </node>
                          </node>
                          <node concept="Rh6nW" id="3jOwkUwSXvt" role="1bW2Oz">
                            <property role="TrG5h" value="attr" />
                            <node concept="2jxLKc" id="3jOwkUwSXvu" role="1tU5fm" />
                          </node>
                        </node>
                      </node>
                    </node>
                    <node concept="ANE8D" id="1jixkkC_HMJ" role="2OqNvi" />
                  </node>
                </node>
              </node>
              <node concept="3clFbF" id="3jOwkUwT2Px" role="3cqZAp">
                <node concept="2OqwBi" id="3jOwkUwT3sp" role="3clFbG">
                  <node concept="37vLTw" id="3jOwkUwT2Pv" role="2Oq$k0">
                    <ref role="3cqZAo" node="3jOwkUwSXvc" resolve="attributes" />
                  </node>
                  <node concept="2es0OD" id="3jOwkUwT5g5" role="2OqNvi">
                    <node concept="1bVj0M" id="3jOwkUwT5g7" role="23t8la">
                      <node concept="3clFbS" id="3jOwkUwT5g8" role="1bW5cS">
                        <node concept="3clFbF" id="3jOwkUwT7qQ" role="3cqZAp">
                          <node concept="2OqwBi" id="3jOwkUwT7_k" role="3clFbG">
                            <node concept="37vLTw" id="3jOwkUwT7qP" role="2Oq$k0">
                              <ref role="3cqZAo" node="3jOwkUwT5g9" resolve="it" />
                            </node>
                            <node concept="2qgKlT" id="3jOwkUwT8oR" role="2OqNvi">
                              <ref role="37wK5l" to="tpcu:6Gg5KlvuxxF" resolve="setLink" />
                              <node concept="359W_D" id="3jOwkUwT9gh" role="37wK5m">
                                <ref role="359W_E" to="tp25:h8chp0G" resolve="RefConcept_Reference" />
                                <ref role="359W_F" to="tp25:h8cht0$" />
                              </node>
                            </node>
                          </node>
                        </node>
                      </node>
                      <node concept="Rh6nW" id="3jOwkUwT5g9" role="1bW2Oz">
                        <property role="TrG5h" value="it" />
                        <node concept="2jxLKc" id="3jOwkUwT5ga" role="1tU5fm" />
                      </node>
                    </node>
                  </node>
                </node>
              </node>
              <node concept="3clFbF" id="3jOwkUwSYFW" role="3cqZAp">
                <node concept="2OqwBi" id="3jOwkUwT0wp" role="3clFbG">
                  <node concept="2OqwBi" id="3jOwkUwSZIF" role="2Oq$k0">
                    <node concept="1PxgMI" id="3jOwkUwSZCi" role="2Oq$k0">
                      <ref role="1m5ApE" to="tp25:h8chp0G" resolve="RefConcept_Reference" />
                      <node concept="2OqwBi" id="3jOwkUwSYJE" role="1m5AlR">
                        <node concept="37vLTw" id="3jOwkUwSYFU" role="2Oq$k0">
                          <ref role="3cqZAo" node="3jOwkUwSLBA" resolve="newNode" />
                        </node>
                        <node concept="3TrEf2" id="3jOwkUwSYUN" role="2OqNvi">
                          <ref role="3Tt5mk" to="tp25:1xD045lXGSy" />
                        </node>
                      </node>
                    </node>
                    <node concept="3Tsc0h" id="3jOwkUwSZTi" role="2OqNvi">
                      <ref role="3TtcxE" to="tpck:4uZwTti3__2" />
                    </node>
                  </node>
                  <node concept="X8dFx" id="3jOwkUwT1VD" role="2OqNvi">
                    <node concept="37vLTw" id="3jOwkUwT28E" role="25WWJ7">
                      <ref role="3cqZAo" node="3jOwkUwSXvc" resolve="attributes" />
                    </node>
                  </node>
                </node>
              </node>
            </node>
          </node>
        </node>
      </node>
      <node concept="37vLTG" id="2JFJZufO6pB" role="3clF46">
        <property role="TrG5h" value="m" />
        <node concept="3uibUv" id="2JFJZufO6pA" role="1tU5fm">
          <ref role="3uigEE" to="lui2:~SModule" resolve="SModule" />
        </node>
      </node>
      <node concept="q3mfm" id="2JFJZufO6pC" role="3clF45">
        <ref role="q3mfh" to="slm6:4F5w8gPXEEe" />
        <ref role="1QQUv3" node="2JFJZufO6px" resolve="execute" />
      </node>
    </node>
    <node concept="3tYpMH" id="6En3Zbjqnha" role="jymVt">
      <property role="TrG5h" value="isRerunnable" />
      <property role="3tYpME" value="true" />
      <ref role="25KYV2" to="slm6:1JWcQ2VeWIs" resolve="isRerunnable" />
      <node concept="3Tm1VV" id="6En3Zbjqnhc" role="1B3o_S" />
      <node concept="10P_77" id="6En3Zbjqnhd" role="1tU5fm" />
    </node>
    <node concept="q3mfD" id="6En3Zbjqnsx" role="jymVt">
      <property role="TrG5h" value="check" />
      <ref role="2VtyIY" to="slm6:1JWcQ2VeXpD" resolve="check" />
      <node concept="3Tm1VV" id="6En3Zbjqnsz" role="1B3o_S" />
      <node concept="3clFbS" id="6En3Zbjqns_" role="3clF47">
        <node concept="L3pyB" id="6En3ZbjqnyH" role="3cqZAp">
          <node concept="3clFbS" id="6En3ZbjqnyI" role="L3pyw">
            <node concept="3cpWs6" id="6En3Zbjqpxn" role="3cqZAp">
              <node concept="2OqwBi" id="6En3ZbjqoIa" role="3cqZAk">
                <node concept="2OqwBi" id="6En3ZbjqnOE" role="2Oq$k0">
                  <node concept="2OqwBi" id="61H$Q7rOkis" role="2Oq$k0">
                    <node concept="qVDSY" id="6En3Zbjqn$v" role="2Oq$k0">
                      <node concept="1dO9Bo" id="6En3Zbjqn$w" role="1dOa5D" />
                      <node concept="chp4Y" id="6En3ZbjqnA9" role="qVDSX">
                        <ref role="cht4Q" to="tp25:h2Smgyn" resolve="Model_NodesOperation" />
                      </node>
                    </node>
                    <node concept="3zZkjj" id="61H$Q7rO5f0" role="2OqNvi">
                      <node concept="1bVj0M" id="61H$Q7rO5f2" role="23t8la">
                        <node concept="3clFbS" id="61H$Q7rO5f3" role="1bW5cS">
                          <node concept="3clFbF" id="61H$Q7rO5q3" role="3cqZAp">
                            <node concept="3y3z36" id="61H$Q7rO6tg" role="3clFbG">
                              <node concept="3B5_sB" id="61H$Q7rO6A5" role="3uHU7w">
                                <ref role="3B5MYn" node="2JFJZufO6pp" resolve="Migrate_ModelNodesOperation_concept" />
                              </node>
                              <node concept="2OqwBi" id="61H$Q7rO5zk" role="3uHU7B">
                                <node concept="37vLTw" id="61H$Q7rO5q2" role="2Oq$k0">
                                  <ref role="3cqZAo" node="61H$Q7rO5f4" resolve="it" />
                                </node>
                                <node concept="2Rxl7S" id="61H$Q7rO5Ro" role="2OqNvi" />
                              </node>
                            </node>
                          </node>
                        </node>
                        <node concept="Rh6nW" id="61H$Q7rO5f4" role="1bW2Oz">
                          <property role="TrG5h" value="it" />
                          <node concept="2jxLKc" id="61H$Q7rO5f5" role="1tU5fm" />
                        </node>
                      </node>
                    </node>
                  </node>
                  <node concept="3zZkjj" id="6En3ZbjqnXN" role="2OqNvi">
                    <node concept="1bVj0M" id="6En3ZbjqnXP" role="23t8la">
                      <node concept="3clFbS" id="6En3ZbjqnXQ" role="1bW5cS">
                        <node concept="3clFbF" id="6En3Zbjqo08" role="3cqZAp">
                          <node concept="2OqwBi" id="6En3Zbjqov3" role="3clFbG">
                            <node concept="2OqwBi" id="6En3Zbjqo4T" role="2Oq$k0">
                              <node concept="37vLTw" id="6En3Zbjqo07" role="2Oq$k0">
                                <ref role="3cqZAo" node="6En3ZbjqnXR" resolve="it" />
                              </node>
                              <node concept="3TrEf2" id="6En3Zbjqojq" role="2OqNvi">
                                <ref role="3Tt5mk" to="tp25:h2Smgyo" />
                              </node>
                            </node>
                            <node concept="3x8VRR" id="6En3ZbjqoCW" role="2OqNvi" />
                          </node>
                        </node>
                      </node>
                      <node concept="Rh6nW" id="6En3ZbjqnXR" role="1bW2Oz">
                        <property role="TrG5h" value="it" />
                        <node concept="2jxLKc" id="6En3ZbjqnXS" role="1tU5fm" />
                      </node>
                    </node>
                  </node>
                </node>
                <node concept="3$u5V9" id="6En3ZbjqoQb" role="2OqNvi">
                  <node concept="1bVj0M" id="6En3ZbjqoQd" role="23t8la">
                    <node concept="3clFbS" id="6En3ZbjqoQe" role="1bW5cS">
                      <node concept="3clFbF" id="6En3ZbjqoSf" role="3cqZAp">
                        <node concept="2YIFZM" id="6En3ZbjqoYg" role="3clFbG">
                          <ref role="1Pybhc" to="6f4m:4JdgAL_4yNB" resolve="DeprecatedConceptMemberNotMigratedProblem" />
                          <ref role="37wK5l" to="6f4m:6En3ZbjkVnV" resolve="deprecatedReferenceLink" />
                          <node concept="37vLTw" id="6En3Zbjqp4c" role="37wK5m">
                            <ref role="3cqZAo" node="6En3ZbjqoQf" resolve="it" />
                          </node>
                          <node concept="359W_D" id="6En3ZbjqpeW" role="37wK5m">
                            <ref role="359W_F" to="tp25:h2Smgyo" />
                            <ref role="359W_E" to="tp25:h2Smgyn" resolve="Model_NodesOperation" />
                          </node>
                        </node>
                      </node>
                    </node>
                    <node concept="Rh6nW" id="6En3ZbjqoQf" role="1bW2Oz">
                      <property role="TrG5h" value="it" />
                      <node concept="2jxLKc" id="6En3ZbjqoQg" role="1tU5fm" />
                    </node>
                  </node>
                </node>
              </node>
            </node>
          </node>
          <node concept="37vLTw" id="6En3Zbjqnzd" role="L3pyr">
            <ref role="3cqZAo" node="6En3ZbjqnsB" resolve="m" />
          </node>
        </node>
      </node>
      <node concept="ffn8J" id="6En3ZbjqnsB" role="3clF46">
        <property role="TrG5h" value="m" />
        <ref role="ffrpq" to="slm6:1JWcQ2VeXI5" resolve="m" />
        <node concept="3uibUv" id="6En3ZbjqnsA" role="1tU5fm">
          <ref role="3uigEE" to="lui2:~SModule" resolve="SModule" />
        </node>
      </node>
      <node concept="A3Dl8" id="6En3ZbjqnsC" role="3clF45">
        <node concept="3uibUv" id="6En3ZbjqnsD" role="A3Ik2">
          <ref role="3uigEE" to="6f4m:3n7MNzO_IjP" resolve="Problem" />
        </node>
      </node>
    </node>
  </node>
  <node concept="3SyAh_" id="5fE6DchS$gW">
    <property role="qMTe8" value="1" />
    <property role="TrG5h" value="MigrateConceptSwitchToSConcept" />
    <node concept="3Tm1VV" id="5fE6DchS$gX" role="1B3o_S" />
    <node concept="3tTeZs" id="5fE6DchS$gY" role="jymVt">
      <property role="3tTeZt" value="&lt;no execute after&gt;" />
      <ref role="3tTeZr" to="slm6:7ay_HjIMt1a" resolve="execute after" />
    </node>
    <node concept="3tTeZs" id="5fE6DchS$gZ" role="jymVt">
      <property role="3tTeZt" value="&lt;no required data&gt;" />
      <ref role="3tTeZr" to="slm6:3A3gNhf1WPI" resolve="requires data" />
    </node>
    <node concept="3tTeZs" id="5fE6DchS$h0" role="jymVt">
      <property role="3tTeZt" value="&lt;no produced data&gt;" />
      <ref role="3tTeZr" to="slm6:536fTXa4WHO" resolve="produces data" />
    </node>
    <node concept="2tJIrI" id="5fE6DchS$h1" role="jymVt" />
    <node concept="3tYpXE" id="5fE6DchS$kH" role="jymVt">
      <property role="TrG5h" value="description" />
      <property role="3tYpXF" value="Migrate &quot;concept switch&quot; to SConcept" />
      <ref role="25KYV2" to="slm6:1_lSsE3RFpE" resolve="description" />
      <node concept="3Tm1VV" id="5fE6DchS$kJ" role="1B3o_S" />
      <node concept="17QB3L" id="5fE6DchS$kK" role="1tU5fm" />
    </node>
    <node concept="q3mfD" id="5fE6DchS$h3" role="jymVt">
      <property role="TrG5h" value="execute" />
      <ref role="2VtyIY" to="slm6:4ubqdNOF9cA" resolve="execute" />
      <node concept="3Tm1VV" id="5fE6DchS$h5" role="1B3o_S" />
      <node concept="3clFbS" id="5fE6DchS$h7" role="3clF47">
        <node concept="L3pyB" id="5fE6DchS$vf" role="3cqZAp">
          <node concept="37vLTw" id="5fE6DchS$xS" role="L3pyr">
            <ref role="3cqZAo" node="5fE6DchS$h9" resolve="m" />
          </node>
          <node concept="3clFbS" id="5fE6DchS$vh" role="L3pyw">
            <node concept="3clFbF" id="5fE6DchSEed" role="3cqZAp">
              <node concept="2OqwBi" id="5fE6DchSF4D" role="3clFbG">
                <node concept="2OqwBi" id="5fE6DchSEHJ" role="2Oq$k0">
                  <node concept="2OqwBi" id="4kHip93OiIH" role="2Oq$k0">
                    <node concept="qVDSY" id="5fE6DchSEe8" role="2Oq$k0">
                      <node concept="chp4Y" id="5fE6DchSEfk" role="qVDSX">
                        <ref role="cht4Q" to="tp25:59YAasRsvgH" resolve="ConceptSwitchStatement" />
                      </node>
                      <node concept="1dO9Bo" id="5fE6DchSEeb" role="1dOa5D" />
                    </node>
                    <node concept="3$u5V9" id="4kHip93OjhW" role="2OqNvi">
                      <node concept="1bVj0M" id="4kHip93OjhY" role="23t8la">
                        <node concept="3clFbS" id="4kHip93OjhZ" role="1bW5cS">
                          <node concept="3clFbF" id="4kHip93Ojt7" role="3cqZAp">
                            <node concept="2OqwBi" id="4kHip93OjAe" role="3clFbG">
                              <node concept="37vLTw" id="4kHip93Ojt6" role="2Oq$k0">
                                <ref role="3cqZAo" node="4kHip93Oji0" resolve="it" />
                              </node>
                              <node concept="3TrEf2" id="4kHip93Ok6n" role="2OqNvi">
                                <ref role="3Tt5mk" to="tp25:59YAasRsvgK" />
                              </node>
                            </node>
                          </node>
                        </node>
                        <node concept="Rh6nW" id="4kHip93Oji0" role="1bW2Oz">
                          <property role="TrG5h" value="it" />
                          <node concept="2jxLKc" id="4kHip93Oji1" role="1tU5fm" />
                        </node>
                      </node>
                    </node>
                  </node>
                  <node concept="3zZkjj" id="5fE6DchSEIK" role="2OqNvi">
                    <node concept="1bVj0M" id="5fE6DchSEIL" role="23t8la">
                      <node concept="3clFbS" id="5fE6DchSEIM" role="1bW5cS">
                        <node concept="3clFbF" id="5fE6DchSEIN" role="3cqZAp">
                          <node concept="2OqwBi" id="5fE6DchSEIO" role="3clFbG">
                            <node concept="2OqwBi" id="5fE6DchSEIP" role="2Oq$k0">
                              <node concept="37vLTw" id="5fE6DchSEIR" role="2Oq$k0">
                                <ref role="3cqZAo" node="5fE6DchSEIW" resolve="it" />
                              </node>
                              <node concept="3JvlWi" id="5fE6DchSEIT" role="2OqNvi" />
                            </node>
                            <node concept="1mIQ4w" id="5fE6DchSEIU" role="2OqNvi">
                              <node concept="chp4Y" id="5fE6DchSER0" role="cj9EA">
                                <ref role="cht4Q" to="tp25:h3THzq0" resolve="ConceptNodeType" />
                              </node>
                            </node>
                          </node>
                        </node>
                      </node>
                      <node concept="Rh6nW" id="5fE6DchSEIW" role="1bW2Oz">
                        <property role="TrG5h" value="it" />
                        <node concept="2jxLKc" id="5fE6DchSEIX" role="1tU5fm" />
                      </node>
                    </node>
                  </node>
                </node>
                <node concept="2es0OD" id="5fE6DchSFAT" role="2OqNvi">
                  <node concept="1bVj0M" id="5fE6DchSFAV" role="23t8la">
                    <node concept="3clFbS" id="5fE6DchSFAW" role="1bW5cS">
                      <node concept="3clFbJ" id="1qO9DUnsP2J" role="3cqZAp">
                        <node concept="3clFbS" id="1qO9DUnsP2L" role="3clFbx">
                          <node concept="3clFbF" id="1qO9DUnsSnl" role="3cqZAp">
                            <node concept="2OqwBi" id="1qO9DUnsSxB" role="3clFbG">
                              <node concept="37vLTw" id="1qO9DUnsSnj" role="2Oq$k0">
                                <ref role="3cqZAo" node="5fE6DchSFAX" resolve="it" />
                              </node>
                              <node concept="1P9Npp" id="1qO9DUnsSMd" role="2OqNvi">
                                <node concept="2OqwBi" id="1qO9DUnsT_t" role="1P9ThW">
                                  <node concept="1PxgMI" id="1qO9DUnsTbr" role="2Oq$k0">
                                    <ref role="1m5ApE" to="tpee:hqOqwz4" resolve="DotExpression" />
                                    <node concept="37vLTw" id="1qO9DUnsSYo" role="1m5AlR">
                                      <ref role="3cqZAo" node="5fE6DchSFAX" resolve="it" />
                                    </node>
                                  </node>
                                  <node concept="3TrEf2" id="1qO9DUnsTW9" role="2OqNvi">
                                    <ref role="3Tt5mk" to="tpee:hqOq$gm" />
                                  </node>
                                </node>
                              </node>
                            </node>
                          </node>
                        </node>
                        <node concept="1Wc70l" id="1qO9DUnsPVB" role="3clFbw">
                          <node concept="2OqwBi" id="1qO9DUnsRzk" role="3uHU7w">
                            <node concept="2OqwBi" id="1qO9DUnsR13" role="2Oq$k0">
                              <node concept="1PxgMI" id="1qO9DUnsQE5" role="2Oq$k0">
                                <ref role="1m5ApE" to="tpee:hqOqwz4" resolve="DotExpression" />
                                <node concept="37vLTw" id="1qO9DUnsQ6t" role="1m5AlR">
                                  <ref role="3cqZAo" node="5fE6DchSFAX" resolve="it" />
                                </node>
                              </node>
                              <node concept="3TrEf2" id="1qO9DUnsRhm" role="2OqNvi">
                                <ref role="3Tt5mk" to="tpee:hqOqNr4" />
                              </node>
                            </node>
                            <node concept="1mIQ4w" id="1qO9DUnsRN_" role="2OqNvi">
                              <node concept="chp4Y" id="1qO9DUnsW5Z" role="cj9EA">
                                <ref role="cht4Q" to="tp25:h3NT_Zs" resolve="Node_GetConceptOperation" />
                              </node>
                            </node>
                          </node>
                          <node concept="2OqwBi" id="1qO9DUnsPm5" role="3uHU7B">
                            <node concept="37vLTw" id="1qO9DUnsPco" role="2Oq$k0">
                              <ref role="3cqZAo" node="5fE6DchSFAX" resolve="it" />
                            </node>
                            <node concept="1mIQ4w" id="1qO9DUnsP$f" role="2OqNvi">
                              <node concept="chp4Y" id="1qO9DUnsPHT" role="cj9EA">
                                <ref role="cht4Q" to="tpee:hqOqwz4" resolve="DotExpression" />
                              </node>
                            </node>
                          </node>
                        </node>
                        <node concept="9aQIb" id="1qO9DUnsRZp" role="9aQIa">
                          <node concept="3clFbS" id="1qO9DUnsRZq" role="9aQI4">
                            <node concept="3clFbF" id="5fE6DchSG$f" role="3cqZAp">
                              <node concept="2OqwBi" id="5fE6DchSG$g" role="3clFbG">
                                <node concept="37vLTw" id="5fE6DchSG$h" role="2Oq$k0">
                                  <ref role="3cqZAo" node="5fE6DchSFAX" resolve="it" />
                                </node>
                                <node concept="1P9Npp" id="5fE6DchSG$i" role="2OqNvi">
                                  <node concept="2c44tf" id="5fE6DchSG$j" role="1P9ThW">
                                    <node concept="2OqwBi" id="5fE6DchSG$k" role="2c44tc">
                                      <node concept="1rGIog" id="5fE6DchSG$r" role="2OqNvi" />
                                      <node concept="1eOMI4" id="5fE6DchSH2C" role="2Oq$k0">
                                        <node concept="10Nm6u" id="5fE6DchSH2D" role="1eOMHV">
                                          <node concept="2c44te" id="5fE6DchSH8Y" role="lGtFl">
                                            <node concept="37vLTw" id="5fE6DchSHf5" role="2c44t1">
                                              <ref role="3cqZAo" node="5fE6DchSFAX" resolve="it" />
                                            </node>
                                          </node>
                                        </node>
                                      </node>
                                    </node>
                                  </node>
                                </node>
                              </node>
                            </node>
                          </node>
                        </node>
                      </node>
                    </node>
                    <node concept="Rh6nW" id="5fE6DchSFAX" role="1bW2Oz">
                      <property role="TrG5h" value="it" />
                      <node concept="2jxLKc" id="5fE6DchSFAY" role="1tU5fm" />
                    </node>
                  </node>
                </node>
              </node>
            </node>
            <node concept="3clFbH" id="5fE6DchSGs2" role="3cqZAp" />
            <node concept="3clFbF" id="5fE6DchS$D3" role="3cqZAp">
              <node concept="2OqwBi" id="5fE6DchSATO" role="3clFbG">
                <node concept="2OqwBi" id="5fE6DchS$LT" role="2Oq$k0">
                  <node concept="2OqwBi" id="4kHip93OkPd" role="2Oq$k0">
                    <node concept="qVDSY" id="5fE6DchS$D0" role="2Oq$k0">
                      <node concept="chp4Y" id="5fE6DchS$DA" role="qVDSX">
                        <ref role="cht4Q" to="tp25:59YAasRsvgH" resolve="ConceptSwitchStatement" />
                      </node>
                      <node concept="1dO9Bo" id="5fE6DchS$D2" role="1dOa5D" />
                    </node>
                    <node concept="3$u5V9" id="4kHip93OkUv" role="2OqNvi">
                      <node concept="1bVj0M" id="4kHip93OkUw" role="23t8la">
                        <node concept="3clFbS" id="4kHip93OkUx" role="1bW5cS">
                          <node concept="3clFbF" id="4kHip93OkUy" role="3cqZAp">
                            <node concept="2OqwBi" id="4kHip93OkUz" role="3clFbG">
                              <node concept="37vLTw" id="4kHip93OkU$" role="2Oq$k0">
                                <ref role="3cqZAo" node="4kHip93OkUA" resolve="it" />
                              </node>
                              <node concept="3TrEf2" id="4kHip93OkU_" role="2OqNvi">
                                <ref role="3Tt5mk" to="tp25:59YAasRsvgK" />
                              </node>
                            </node>
                          </node>
                        </node>
                        <node concept="Rh6nW" id="4kHip93OkUA" role="1bW2Oz">
                          <property role="TrG5h" value="it" />
                          <node concept="2jxLKc" id="4kHip93OkUB" role="1tU5fm" />
                        </node>
                      </node>
                    </node>
                  </node>
                  <node concept="3zZkjj" id="5fE6DchS_h_" role="2OqNvi">
                    <node concept="1bVj0M" id="5fE6DchS_hB" role="23t8la">
                      <node concept="3clFbS" id="5fE6DchS_hC" role="1bW5cS">
                        <node concept="3clFbF" id="5fE6DchS_my" role="3cqZAp">
                          <node concept="2OqwBi" id="5fE6DchSAsQ" role="3clFbG">
                            <node concept="2OqwBi" id="5fE6DchS_Wp" role="2Oq$k0">
                              <node concept="37vLTw" id="5fE6DchS_mx" role="2Oq$k0">
                                <ref role="3cqZAo" node="5fE6DchS_hD" resolve="it" />
                              </node>
                              <node concept="3JvlWi" id="5fE6DchSAid" role="2OqNvi" />
                            </node>
                            <node concept="1mIQ4w" id="5fE6DchSACX" role="2OqNvi">
                              <node concept="chp4Y" id="5fE6DchSAIz" role="cj9EA">
                                <ref role="cht4Q" to="tp25:gzTqbfa" resolve="SNodeType" />
                              </node>
                            </node>
                          </node>
                        </node>
                      </node>
                      <node concept="Rh6nW" id="5fE6DchS_hD" role="1bW2Oz">
                        <property role="TrG5h" value="it" />
                        <node concept="2jxLKc" id="5fE6DchS_hE" role="1tU5fm" />
                      </node>
                    </node>
                  </node>
                </node>
                <node concept="2es0OD" id="5fE6DchSBs4" role="2OqNvi">
                  <node concept="1bVj0M" id="5fE6DchSBs6" role="23t8la">
                    <node concept="3clFbS" id="5fE6DchSBs7" role="1bW5cS">
                      <node concept="3clFbF" id="5fE6DchSBwB" role="3cqZAp">
                        <node concept="2OqwBi" id="5fE6DchSBB6" role="3clFbG">
                          <node concept="37vLTw" id="5fE6DchSBwA" role="2Oq$k0">
                            <ref role="3cqZAo" node="5fE6DchSBs8" resolve="it" />
                          </node>
                          <node concept="1P9Npp" id="5fE6DchSC5O" role="2OqNvi">
                            <node concept="2c44tf" id="5fE6DchSD19" role="1P9ThW">
                              <node concept="2OqwBi" id="5ffMBkaAgnd" role="2c44tc">
                                <node concept="2ShNRf" id="5ffMBkaAg3n" role="2Oq$k0">
                                  <node concept="3zrR0B" id="5ffMBkaAgfo" role="2ShVmc">
                                    <node concept="3Tqbb2" id="5ffMBkaAgfq" role="3zrR0E">
                                      <ref role="ehGHo" to="tpck:gw2VY9q" resolve="BaseConcept" />
                                    </node>
                                  </node>
                                  <node concept="2c44te" id="5ffMBkaAhjF" role="lGtFl">
                                    <node concept="37vLTw" id="5ffMBkaAhrW" role="2c44t1">
                                      <ref role="3cqZAo" node="5fE6DchSBs8" resolve="it" />
                                    </node>
                                  </node>
                                </node>
                                <node concept="2yIwOk" id="5ffMBkaAgOt" role="2OqNvi" />
                              </node>
                            </node>
                          </node>
                        </node>
                      </node>
                    </node>
                    <node concept="Rh6nW" id="5fE6DchSBs8" role="1bW2Oz">
                      <property role="TrG5h" value="it" />
                      <node concept="2jxLKc" id="5fE6DchSBs9" role="1tU5fm" />
                    </node>
                  </node>
                </node>
              </node>
            </node>
          </node>
        </node>
      </node>
      <node concept="ffn8J" id="5fE6DchS$h9" role="3clF46">
        <property role="TrG5h" value="m" />
        <ref role="ffrpq" to="slm6:7fCCGqboj9J" resolve="m" />
        <node concept="3uibUv" id="5fE6DchS$h8" role="1tU5fm">
          <ref role="3uigEE" to="lui2:~SModule" resolve="SModule" />
        </node>
      </node>
      <node concept="q3mfm" id="5fE6DchS$ha" role="3clF45">
        <ref role="q3mfh" to="slm6:4F5w8gPXEEe" />
        <ref role="1QQUv3" node="5fE6DchS$h3" resolve="execute" />
      </node>
    </node>
    <node concept="3tYpMH" id="6En3Zbjqiv5" role="jymVt">
      <property role="TrG5h" value="isRerunnable" />
      <property role="3tYpME" value="true" />
      <ref role="25KYV2" to="slm6:1JWcQ2VeWIs" resolve="isRerunnable" />
      <node concept="3Tm1VV" id="6En3Zbjqiv7" role="1B3o_S" />
      <node concept="10P_77" id="6En3Zbjqiv8" role="1tU5fm" />
    </node>
    <node concept="q3mfD" id="6En3ZbjqiBf" role="jymVt">
      <property role="TrG5h" value="check" />
      <ref role="2VtyIY" to="slm6:1JWcQ2VeXpD" resolve="check" />
      <node concept="3Tm1VV" id="6En3ZbjqiBh" role="1B3o_S" />
      <node concept="3clFbS" id="6En3ZbjqiBj" role="3clF47">
        <node concept="L3pyB" id="6En3ZbjqiTO" role="3cqZAp">
          <node concept="3clFbS" id="6En3ZbjqiTQ" role="L3pyw">
            <node concept="3cpWs6" id="6En3ZbjrxKG" role="3cqZAp">
              <node concept="2OqwBi" id="6En3Zbjqj4L" role="3cqZAk">
                <node concept="2OqwBi" id="6En3ZbjqiKp" role="2Oq$k0">
                  <node concept="qVDSY" id="6En3ZbjqiKr" role="2Oq$k0">
                    <node concept="chp4Y" id="6En3ZbjqiKs" role="qVDSX">
                      <ref role="cht4Q" to="tp25:59YAasRsvgH" resolve="ConceptSwitchStatement" />
                    </node>
                    <node concept="1dO9Bo" id="6En3ZbjqiKt" role="1dOa5D" />
                  </node>
                  <node concept="3zZkjj" id="6En3ZbjqiKB" role="2OqNvi">
                    <node concept="1bVj0M" id="6En3ZbjqiKC" role="23t8la">
                      <node concept="3clFbS" id="6En3ZbjqiKD" role="1bW5cS">
                        <node concept="3clFbF" id="13xmEyWxWTz" role="3cqZAp">
                          <node concept="1Wc70l" id="61H$Q7rNI1i" role="3clFbG">
                            <node concept="3fqX7Q" id="13xmEyWxXN4" role="3uHU7B">
                              <node concept="3JuTUA" id="13xmEyWxXN6" role="3fr31v">
                                <node concept="2OqwBi" id="5WxjnAPtphR" role="3JuY14">
                                  <node concept="2OqwBi" id="13xmEyWxXN9" role="2Oq$k0">
                                    <node concept="37vLTw" id="13xmEyWxXNa" role="2Oq$k0">
                                      <ref role="3cqZAo" node="6En3ZbjqiKL" resolve="it" />
                                    </node>
                                    <node concept="3TrEf2" id="13xmEyWxXNb" role="2OqNvi">
                                      <ref role="3Tt5mk" to="tp25:59YAasRsvgK" />
                                    </node>
                                  </node>
                                  <node concept="3JvlWi" id="5WxjnAPtpvF" role="2OqNvi" />
                                </node>
                                <node concept="2c44tf" id="13xmEyWxXN7" role="3JuZjQ">
                                  <node concept="3uibUv" id="13xmEyWxXN8" role="2c44tc">
                                    <ref role="3uigEE" to="c17a:~SConcept" resolve="SConcept" />
                                  </node>
                                </node>
                              </node>
                            </node>
                            <node concept="3fqX7Q" id="61H$Q7rNI9K" role="3uHU7w">
                              <node concept="3JuTUA" id="61H$Q7rNI9L" role="3fr31v">
                                <node concept="2OqwBi" id="5WxjnAPtpK8" role="3JuY14">
                                  <node concept="2OqwBi" id="61H$Q7rNI9O" role="2Oq$k0">
                                    <node concept="37vLTw" id="61H$Q7rNI9P" role="2Oq$k0">
                                      <ref role="3cqZAo" node="6En3ZbjqiKL" resolve="it" />
                                    </node>
                                    <node concept="3TrEf2" id="61H$Q7rNI9Q" role="2OqNvi">
                                      <ref role="3Tt5mk" to="tp25:59YAasRsvgK" />
                                    </node>
                                  </node>
                                  <node concept="3JvlWi" id="5WxjnAPtpVE" role="2OqNvi" />
                                </node>
                                <node concept="2c44tf" id="61H$Q7rNI9M" role="3JuZjQ">
                                  <node concept="3bZ5Sz" id="61H$Q7rNIiS" role="2c44tc" />
                                </node>
                              </node>
                            </node>
                          </node>
                        </node>
                      </node>
                      <node concept="Rh6nW" id="6En3ZbjqiKL" role="1bW2Oz">
                        <property role="TrG5h" value="it" />
                        <node concept="2jxLKc" id="6En3ZbjqiKM" role="1tU5fm" />
                      </node>
                    </node>
                  </node>
                </node>
                <node concept="3$u5V9" id="6En3ZbjqjPc" role="2OqNvi">
                  <node concept="1bVj0M" id="6En3ZbjqjPe" role="23t8la">
                    <node concept="3clFbS" id="6En3ZbjqjPf" role="1bW5cS">
                      <node concept="3clFbF" id="6En3ZbjqjRs" role="3cqZAp">
                        <node concept="1eOMI4" id="6En3ZbjrxUp" role="3clFbG">
                          <node concept="10QFUN" id="6En3ZbjrxUq" role="1eOMHV">
                            <node concept="2ShNRf" id="6En3ZbjrxUe" role="10QFUP">
                              <node concept="YeOm9" id="6En3ZbjrxUf" role="2ShVmc">
                                <node concept="1Y3b0j" id="6En3ZbjrxUg" role="YeSDq">
                                  <property role="2bfB8j" value="true" />
                                  <ref role="1Y3XeK" to="6f4m:4JdgAL_5vM9" resolve="NotMigratedNode" />
                                  <ref role="37wK5l" to="6f4m:4JdgAL_5wEf" resolve="NotMigratedNode" />
                                  <node concept="3Tm1VV" id="6En3ZbjrxUh" role="1B3o_S" />
                                  <node concept="3clFb_" id="6En3ZbjrxUi" role="jymVt">
                                    <property role="TrG5h" value="getMessage" />
                                    <property role="1EzhhJ" value="false" />
                                    <node concept="3uibUv" id="6En3ZbjrxUj" role="3clF45">
                                      <ref role="3uigEE" to="wyt6:~String" resolve="String" />
                                    </node>
                                    <node concept="3Tm1VV" id="6En3ZbjrxUk" role="1B3o_S" />
                                    <node concept="3clFbS" id="6En3ZbjrxUl" role="3clF47">
                                      <node concept="3clFbF" id="6En3ZbjrxUm" role="3cqZAp">
                                        <node concept="Xl_RD" id="6En3ZbjrxUn" role="3clFbG">
                                          <property role="Xl_RC" value="Concept switch with type other than concept&lt;&gt;" />
                                        </node>
                                      </node>
                                    </node>
                                  </node>
                                  <node concept="37vLTw" id="6En3ZbjrxUo" role="37wK5m">
                                    <ref role="3cqZAo" node="6En3ZbjqjPg" resolve="it" />
                                  </node>
                                </node>
                              </node>
                            </node>
                            <node concept="3uibUv" id="6En3Zbjry08" role="10QFUM">
                              <ref role="3uigEE" to="6f4m:3n7MNzO_IjP" resolve="Problem" />
                            </node>
                          </node>
                        </node>
                      </node>
                    </node>
                    <node concept="Rh6nW" id="6En3ZbjqjPg" role="1bW2Oz">
                      <property role="TrG5h" value="it" />
                      <node concept="2jxLKc" id="6En3ZbjqjPh" role="1tU5fm" />
                    </node>
                  </node>
                </node>
              </node>
            </node>
          </node>
          <node concept="37vLTw" id="6En3ZbjqiVd" role="L3pyr">
            <ref role="3cqZAo" node="6En3ZbjqiBl" resolve="m" />
          </node>
        </node>
      </node>
      <node concept="ffn8J" id="6En3ZbjqiBl" role="3clF46">
        <property role="TrG5h" value="m" />
        <ref role="ffrpq" to="slm6:1JWcQ2VeXI5" resolve="m" />
        <node concept="3uibUv" id="6En3ZbjqiBk" role="1tU5fm">
          <ref role="3uigEE" to="lui2:~SModule" resolve="SModule" />
        </node>
      </node>
      <node concept="A3Dl8" id="6En3ZbjqiBm" role="3clF45">
        <node concept="3uibUv" id="6En3ZbjqiDR" role="A3Ik2">
          <ref role="3uigEE" to="6f4m:3n7MNzO_IjP" resolve="Problem" />
        </node>
      </node>
    </node>
  </node>
  <node concept="Z5qvL" id="5PLE6SbpWOq">
    <property role="Z5qvQ" value="2" />
    <property role="TrG5h" value="SNodeTypeCastExpression" />
    <node concept="Z4OXk" id="5PLE6SbpWOv" role="Z5rET">
      <node concept="2pBcaW" id="5PLE6SbpWOt" role="Z5P1v">
        <property role="2pBcoG" value="1140138123956" />
        <property role="2pBcow" value="r:00000000-0000-4000-0000-011c89590301(jetbrains.mps.lang.smodel.structure)" />
        <property role="2pBc3U" value="leftExpression_old" />
      </node>
      <node concept="2pBcaW" id="5PLE6SbpWOu" role="Z5P1t">
        <property role="2pBcoG" value="6733348108486823193" />
        <property role="2pBcow" value="r:00000000-0000-4000-0000-011c89590301(jetbrains.mps.lang.smodel.structure)" />
        <property role="2pBc3U" value="leftExpression" />
      </node>
      <node concept="7a1rN" id="5PLE6SbpWOs" role="7agGg" />
    </node>
    <node concept="Z4OXk" id="5PLE6SbpWSg" role="Z5rET">
      <node concept="2pBcaW" id="5PLE6SbpWSe" role="Z5P1v">
        <property role="2pBcoG" value="1140138128738" />
        <property role="2pBcow" value="r:00000000-0000-4000-0000-011c89590301(jetbrains.mps.lang.smodel.structure)" />
        <property role="2pBc3U" value="concept_old" />
      </node>
      <node concept="2pBcaW" id="5PLE6SbpWSf" role="Z5P1t">
        <property role="2pBcoG" value="6733348108486823428" />
        <property role="2pBcow" value="r:00000000-0000-4000-0000-011c89590301(jetbrains.mps.lang.smodel.structure)" />
        <property role="2pBc3U" value="concept" />
      </node>
      <node concept="7a1rY" id="5PLE6SbpWSd" role="7agGg" />
    </node>
  </node>
  <node concept="W$Crc" id="5PLE6SbpWOx">
    <property role="3GE5qa" value="refactoring" />
    <property role="W$Cri" value="0" />
    <property role="TrG5h" value="SNodeTypeCastExpression" />
    <node concept="1w76tK" id="5PLE6SbpWOy" role="1w76sc">
      <node concept="1w76tN" id="5PLE6SbpWO$" role="1w76tQ">
        <property role="1w76tO" value="moveNode.options.updateReferencesParticipant" />
        <property role="1w7ld4" value="Update references" />
      </node>
    </node>
    <node concept="7amoh" id="5PLE6SbpWO_" role="W$Crh">
      <property role="hSBgo" value="moveNode.updateReferences" />
      <node concept="2pBcaW" id="5PLE6SbpWOn" role="hSBgu">
        <property role="2pBcoG" value="1140138123956" />
        <property role="2pBcow" value="r:00000000-0000-4000-0000-011c89590301(jetbrains.mps.lang.smodel.structure)" />
        <property role="2pBc3U" value="leftExpression" />
      </node>
      <node concept="2pBcaW" id="5PLE6SbpWOw" role="hSBgs">
        <property role="2pBcoG" value="6733348108486823193" />
        <property role="2pBcow" value="r:00000000-0000-4000-0000-011c89590301(jetbrains.mps.lang.smodel.structure)" />
        <property role="2pBc3U" value="leftExpression" />
      </node>
    </node>
    <node concept="7amoh" id="5PLE6SbpWSa" role="W$Crh">
      <property role="hSBgo" value="moveNode.updateReferences" />
      <node concept="2pBcaW" id="5PLE6SbpWS2" role="hSBgu">
        <property role="2pBcoG" value="1140138128738" />
        <property role="2pBcow" value="r:00000000-0000-4000-0000-011c89590301(jetbrains.mps.lang.smodel.structure)" />
        <property role="2pBc3U" value="concept" />
      </node>
      <node concept="2pBcaW" id="5PLE6SbpWS5" role="hSBgs">
        <property role="2pBcoG" value="6733348108486823428" />
        <property role="2pBcow" value="r:00000000-0000-4000-0000-011c89590301(jetbrains.mps.lang.smodel.structure)" />
        <property role="2pBc3U" value="concept" />
      </node>
    </node>
  </node>
  <node concept="3SyAh_" id="5nUWeBp5gQP">
    <property role="qMTe8" value="3" />
    <property role="TrG5h" value="ConceptNodeCheck" />
    <node concept="3Tm1VV" id="5nUWeBp5gQQ" role="1B3o_S" />
    <node concept="2tJIrI" id="5nUWeBp5gQU" role="jymVt" />
    <node concept="3tYpMH" id="5nUWeBp5gVd" role="jymVt">
      <property role="TrG5h" value="isRerunnable" />
      <ref role="25KYV2" to="slm6:1JWcQ2VeWIs" resolve="isRerunnable" />
      <node concept="3Tm1VV" id="5nUWeBp5gVf" role="1B3o_S" />
      <node concept="10P_77" id="5nUWeBp5gVg" role="1tU5fm" />
    </node>
    <node concept="3tYpXE" id="5nUWeBp5gVz" role="jymVt">
      <property role="TrG5h" value="description" />
      <property role="3tYpXF" value="Check " />
      <ref role="25KYV2" to="slm6:1_lSsE3RFpE" resolve="description" />
      <node concept="3Tm1VV" id="5nUWeBp5gV_" role="1B3o_S" />
      <node concept="17QB3L" id="5nUWeBp5gVA" role="1tU5fm" />
    </node>
    <node concept="q3mfD" id="5nUWeBp5gQX" role="jymVt">
      <property role="TrG5h" value="execute" />
      <ref role="2VtyIY" to="slm6:4ubqdNOF9cA" resolve="execute" />
      <node concept="3Tm1VV" id="5nUWeBp5gQZ" role="1B3o_S" />
      <node concept="3clFbS" id="5nUWeBp5gR1" role="3clF47" />
      <node concept="ffn8J" id="5nUWeBp5gR3" role="3clF46">
        <property role="TrG5h" value="m" />
        <ref role="ffrpq" to="slm6:7fCCGqboj9J" resolve="m" />
        <node concept="3uibUv" id="5nUWeBp5gR2" role="1tU5fm">
          <ref role="3uigEE" to="lui2:~SModule" resolve="SModule" />
        </node>
      </node>
      <node concept="q3mfm" id="5nUWeBp5gR4" role="3clF45">
        <ref role="q3mfh" to="slm6:4F5w8gPXEEe" />
        <ref role="1QQUv3" node="5nUWeBp5gQX" resolve="execute" />
      </node>
    </node>
    <node concept="q3mfD" id="5nUWeBp5gX2" role="jymVt">
      <property role="TrG5h" value="check" />
      <ref role="2VtyIY" to="slm6:1JWcQ2VeXpD" resolve="check" />
      <node concept="3Tm1VV" id="5nUWeBp5gX4" role="1B3o_S" />
      <node concept="3clFbS" id="5nUWeBp5gX6" role="3clF47">
        <node concept="L3pyB" id="5nUWeBp5h4v" role="3cqZAp">
          <node concept="3clFbS" id="5nUWeBp5h4w" role="L3pyw">
            <node concept="3cpWs6" id="5nUWeBp5l02" role="3cqZAp">
              <node concept="2OqwBi" id="5nUWeBp5hUE" role="3cqZAk">
                <node concept="2OqwBi" id="5nUWeBp5hij" role="2Oq$k0">
                  <node concept="qVDSY" id="5nUWeBp5hc9" role="2Oq$k0">
                    <node concept="1dO9Bo" id="5nUWeBp5hca" role="1dOa5D" />
                    <node concept="chp4Y" id="5nUWeBp5hd3" role="qVDSX">
                      <ref role="cht4Q" to="tp25:g_PxgQB" resolve="SNodeTypeCastExpression" />
                    </node>
                  </node>
                  <node concept="3zZkjj" id="5nUWeBp5htI" role="2OqNvi">
                    <node concept="1bVj0M" id="5nUWeBp5htK" role="23t8la">
                      <node concept="3clFbS" id="5nUWeBp5htL" role="1bW5cS">
                        <node concept="3clFbF" id="5nUWeBp5hz3" role="3cqZAp">
                          <node concept="22lmx$" id="3$jHpAYjS_O" role="3clFbG">
                            <node concept="3fqX7Q" id="3$jHpAYjTaE" role="3uHU7w">
                              <node concept="2OqwBi" id="3$jHpAYjTaG" role="3fr31v">
                                <node concept="37vLTw" id="3$jHpAYjTaH" role="2Oq$k0">
                                  <ref role="3cqZAo" node="5nUWeBp5htM" resolve="it" />
                                </node>
                                <node concept="2qgKlT" id="3$jHpAYjTaI" role="2OqNvi">
                                  <ref role="37wK5l" to="tpeu:3$jHpAYjQYh" resolve="hasValidType" />
                                </node>
                              </node>
                            </node>
                            <node concept="3fqX7Q" id="5nUWeBp5hPL" role="3uHU7B">
                              <node concept="2OqwBi" id="5nUWeBp5hPN" role="3fr31v">
                                <node concept="37vLTw" id="5nUWeBp5hPO" role="2Oq$k0">
                                  <ref role="3cqZAo" node="5nUWeBp5htM" resolve="it" />
                                </node>
                                <node concept="2qgKlT" id="5nUWeBp5hPP" role="2OqNvi">
                                  <ref role="37wK5l" to="tpeu:i1Btg5H" resolve="isSNodeCast" />
                                </node>
                              </node>
                            </node>
                          </node>
                        </node>
                      </node>
                      <node concept="Rh6nW" id="5nUWeBp5htM" role="1bW2Oz">
                        <property role="TrG5h" value="it" />
                        <node concept="2jxLKc" id="5nUWeBp5htN" role="1tU5fm" />
                      </node>
                    </node>
                  </node>
                </node>
                <node concept="3$u5V9" id="5nUWeBp5i2e" role="2OqNvi">
                  <node concept="1bVj0M" id="5nUWeBp5i2g" role="23t8la">
                    <node concept="3clFbS" id="5nUWeBp5i2h" role="1bW5cS">
                      <node concept="3clFbF" id="5nUWeBp5i7e" role="3cqZAp">
                        <node concept="1eOMI4" id="5nUWeBp5YFG" role="3clFbG">
                          <node concept="10QFUN" id="5nUWeBp5YFH" role="1eOMHV">
                            <node concept="2ShNRf" id="5nUWeBp5YFx" role="10QFUP">
                              <node concept="YeOm9" id="5nUWeBp5YFy" role="2ShVmc">
                                <node concept="1Y3b0j" id="5nUWeBp5YFz" role="YeSDq">
                                  <property role="2bfB8j" value="true" />
                                  <ref role="1Y3XeK" to="6f4m:4JdgAL_5vM9" resolve="NotMigratedNode" />
                                  <ref role="37wK5l" to="6f4m:4JdgAL_5wEf" resolve="NotMigratedNode" />
                                  <node concept="3Tm1VV" id="5nUWeBp5YF$" role="1B3o_S" />
                                  <node concept="3clFb_" id="5nUWeBp5YF_" role="jymVt">
                                    <property role="TrG5h" value="getMessage" />
                                    <property role="1EzhhJ" value="false" />
                                    <node concept="3uibUv" id="5nUWeBp5YFA" role="3clF45">
                                      <ref role="3uigEE" to="wyt6:~String" resolve="String" />
                                    </node>
                                    <node concept="3Tm1VV" id="5nUWeBp5YFB" role="1B3o_S" />
                                    <node concept="3clFbS" id="5nUWeBp5YFC" role="3clF47">
                                      <node concept="3clFbF" id="5nUWeBp5YFD" role="3cqZAp">
                                        <node concept="Xl_RD" id="5nUWeBp5YFE" role="3clFbG">
                                          <property role="Xl_RC" value="conceptNode&lt;&gt; casts will not be supported in next MPS release" />
                                        </node>
                                      </node>
                                    </node>
                                  </node>
                                  <node concept="37vLTw" id="5nUWeBp5YFF" role="37wK5m">
                                    <ref role="3cqZAo" node="5nUWeBp5i2i" resolve="it" />
                                  </node>
                                </node>
                              </node>
                            </node>
                            <node concept="3uibUv" id="5nUWeBp5YNO" role="10QFUM">
                              <ref role="3uigEE" to="6f4m:3n7MNzO_IjP" resolve="Problem" />
                            </node>
                          </node>
                        </node>
                      </node>
                    </node>
                    <node concept="Rh6nW" id="5nUWeBp5i2i" role="1bW2Oz">
                      <property role="TrG5h" value="it" />
                      <node concept="2jxLKc" id="5nUWeBp5i2j" role="1tU5fm" />
                    </node>
                  </node>
                </node>
              </node>
            </node>
          </node>
          <node concept="37vLTw" id="5nUWeBp5h4Z" role="L3pyr">
            <ref role="3cqZAo" node="5nUWeBp5gX8" resolve="m" />
          </node>
        </node>
      </node>
      <node concept="ffn8J" id="5nUWeBp5gX8" role="3clF46">
        <property role="TrG5h" value="m" />
        <ref role="ffrpq" to="slm6:1JWcQ2VeXI5" resolve="m" />
        <node concept="3uibUv" id="5nUWeBp5gX7" role="1tU5fm">
          <ref role="3uigEE" to="lui2:~SModule" resolve="SModule" />
        </node>
      </node>
      <node concept="A3Dl8" id="5nUWeBp5gX9" role="3clF45">
        <node concept="3uibUv" id="5nUWeBp5gXa" role="A3Ik2">
          <ref role="3uigEE" to="6f4m:3n7MNzO_IjP" resolve="Problem" />
        </node>
      </node>
    </node>
  </node>
</model>

