<?xml version="1.0" encoding="UTF-8"?>
<model ref="r:470fa7be-e760-4359-9d80-fc3ff0249d52(jetbrains.mps.execution.settings.dataFlow)">
  <persistence version="9" />
  <languages>
    <use id="7fa12e9c-b949-4976-b4fa-19accbc320b4" name="jetbrains.mps.lang.dataFlow" version="0" />
    <devkit ref="fbc25dd2-5da4-483a-8b19-70928e1b62d7(jetbrains.mps.devkit.general-purpose)" />
  </languages>
  <imports>
    <import index="fb9u" ref="r:0194e190-08ef-44f6-ab95-d9cffdb7e27b(jetbrains.mps.execution.settings.structure)" />
  </imports>
  <registry>
    <language id="f3061a53-9226-4cc5-a443-f952ceaf5816" name="jetbrains.mps.baseLanguage">
      <concept id="1197027756228" name="jetbrains.mps.baseLanguage.structure.DotExpression" flags="nn" index="2OqwBi">
        <child id="1197027771414" name="operand" index="2Oq$k0" />
        <child id="1197027833540" name="operation" index="2OqNvi" />
      </concept>
      <concept id="1137021947720" name="jetbrains.mps.baseLanguage.structure.ConceptFunction" flags="in" index="2VMwT0">
        <child id="1137022507850" name="body" index="2VODD2" />
      </concept>
      <concept id="1068580123136" name="jetbrains.mps.baseLanguage.structure.StatementList" flags="sn" stub="5293379017992965193" index="3clFbS">
        <child id="1068581517665" name="statement" index="3cqZAp" />
      </concept>
    </language>
    <language id="7fa12e9c-b949-4976-b4fa-19accbc320b4" name="jetbrains.mps.lang.dataFlow">
      <concept id="1206442055221" name="jetbrains.mps.lang.dataFlow.structure.DataFlowBuilderDeclaration" flags="ig" index="3_zdsH">
        <reference id="1206442096288" name="conceptDeclaration" index="3_znuS" />
        <child id="1206442812839" name="builderBlock" index="3_A6iZ" />
      </concept>
      <concept id="1206442659665" name="jetbrains.mps.lang.dataFlow.structure.BuilderBlock" flags="in" index="3__wT9" />
      <concept id="1206442747519" name="jetbrains.mps.lang.dataFlow.structure.NodeParameter" flags="nn" index="3__QtB" />
      <concept id="1206454052847" name="jetbrains.mps.lang.dataFlow.structure.EmitCodeForStatement" flags="nn" index="3AgYrR">
        <child id="1206454079161" name="codeFor" index="3Ah4Yx" />
      </concept>
      <concept id="1206462858103" name="jetbrains.mps.lang.dataFlow.structure.EmitRetStatement" flags="nn" index="3AM$9J" />
    </language>
    <language id="7866978e-a0f0-4cc7-81bc-4d213d9375e1" name="jetbrains.mps.lang.smodel">
      <concept id="1138056143562" name="jetbrains.mps.lang.smodel.structure.SLinkAccess" flags="nn" index="3TrEf2">
        <reference id="1138056516764" name="link" index="3Tt5mk" />
      </concept>
    </language>
  </registry>
  <node concept="3_zdsH" id="O$iR4J$ge8">
    <ref role="3_znuS" to="fb9u:O$iR4J$g43" resolve="ReportConfigurationErrorStatement" />
    <node concept="3__wT9" id="O$iR4J$ge9" role="3_A6iZ">
      <node concept="3clFbS" id="O$iR4J$gea" role="2VODD2">
        <node concept="3AgYrR" id="O$iR4J$geb" role="3cqZAp">
          <node concept="2OqwBi" id="O$iR4J$gec" role="3Ah4Yx">
            <node concept="3__QtB" id="O$iR4J$ged" role="2Oq$k0" />
            <node concept="3TrEf2" id="O$iR4J$gee" role="2OqNvi">
              <ref role="3Tt5mk" to="fb9u:O$iR4J$g45" />
            </node>
          </node>
        </node>
        <node concept="3AM$9J" id="O$iR4J$gef" role="3cqZAp" />
      </node>
    </node>
  </node>
</model>

