<?xml version="1.0" encoding="UTF-8"?>
<model ref="r:e115237b-80f4-4ca3-87d6-2ac891492994(jetbrains.mps.execution.settings.typesystem)">
  <persistence version="9" />
  <languages>
    <use id="7a5dda62-9140-4668-ab76-d5ed1746f2b2" name="jetbrains.mps.lang.typesystem" version="0" />
    <devkit ref="fbc25dd2-5da4-483a-8b19-70928e1b62d7(jetbrains.mps.devkit.general-purpose)" />
  </languages>
  <imports>
    <import index="fb9u" ref="r:0194e190-08ef-44f6-ab95-d9cffdb7e27b(jetbrains.mps.execution.settings.structure)" />
    <import index="33ny" ref="6354ebe7-c22a-4a0f-ac54-50b52ab9b065/java:java.util(JDK/)" />
    <import index="tpek" ref="r:00000000-0000-4000-0000-011c895902c0(jetbrains.mps.baseLanguage.behavior)" />
    <import index="z60i" ref="6354ebe7-c22a-4a0f-ac54-50b52ab9b065/java:java.awt(JDK/)" />
    <import index="wyt6" ref="6354ebe7-c22a-4a0f-ac54-50b52ab9b065/java:java.lang(JDK/)" />
    <import index="ic0f" ref="r:76273c4a-4818-4f7c-8673-bfc2aeb6debb(jetbrains.mps.execution.api.settings)" />
    <import index="hilv" ref="r:afd0247c-5ce3-4424-8951-51083e421123(jetbrains.mps.execution.settings.behavior)" />
    <import index="tpd4" ref="r:00000000-0000-4000-0000-011c895902b4(jetbrains.mps.lang.typesystem.structure)" />
    <import index="tpee" ref="r:00000000-0000-4000-0000-011c895902ca(jetbrains.mps.baseLanguage.structure)" />
  </imports>
  <registry>
    <language id="f3061a53-9226-4cc5-a443-f952ceaf5816" name="jetbrains.mps.baseLanguage">
      <concept id="1153417849900" name="jetbrains.mps.baseLanguage.structure.GreaterThanOrEqualsExpression" flags="nn" index="2d3UOw" />
      <concept id="1202948039474" name="jetbrains.mps.baseLanguage.structure.InstanceMethodCallOperation" flags="nn" index="liA8E" />
      <concept id="1239714755177" name="jetbrains.mps.baseLanguage.structure.AbstractUnaryNumberOperation" flags="nn" index="2$Kvd9">
        <child id="1239714902950" name="expression" index="2$L3a6" />
      </concept>
      <concept id="1154032098014" name="jetbrains.mps.baseLanguage.structure.AbstractLoopStatement" flags="nn" index="2LF5Ji">
        <child id="1154032183016" name="body" index="2LFqv$" />
      </concept>
      <concept id="1197027756228" name="jetbrains.mps.baseLanguage.structure.DotExpression" flags="nn" index="2OqwBi">
        <child id="1197027771414" name="operand" index="2Oq$k0" />
        <child id="1197027833540" name="operation" index="2OqNvi" />
      </concept>
      <concept id="1070475926800" name="jetbrains.mps.baseLanguage.structure.StringLiteral" flags="nn" index="Xl_RD">
        <property id="1070475926801" name="value" index="Xl_RC" />
      </concept>
      <concept id="1070534370425" name="jetbrains.mps.baseLanguage.structure.IntegerType" flags="in" index="10Oyi0" />
      <concept id="1068431474542" name="jetbrains.mps.baseLanguage.structure.VariableDeclaration" flags="ng" index="33uBYm">
        <child id="1068431790190" name="initializer" index="33vP2m" />
      </concept>
      <concept id="1068498886296" name="jetbrains.mps.baseLanguage.structure.VariableReference" flags="nn" index="37vLTw">
        <reference id="1068581517664" name="variableDeclaration" index="3cqZAo" />
      </concept>
      <concept id="1225271177708" name="jetbrains.mps.baseLanguage.structure.StringType" flags="in" index="17QB3L" />
      <concept id="4972933694980447171" name="jetbrains.mps.baseLanguage.structure.BaseVariableDeclaration" flags="ng" index="19Szcq">
        <child id="5680397130376446158" name="type" index="1tU5fm" />
      </concept>
      <concept id="1068580123157" name="jetbrains.mps.baseLanguage.structure.Statement" flags="nn" index="3clFbH" />
      <concept id="1068580123159" name="jetbrains.mps.baseLanguage.structure.IfStatement" flags="nn" index="3clFbJ">
        <child id="1068580123160" name="condition" index="3clFbw" />
        <child id="1068580123161" name="ifTrue" index="3clFbx" />
      </concept>
      <concept id="1068580123136" name="jetbrains.mps.baseLanguage.structure.StatementList" flags="sn" stub="5293379017992965193" index="3clFbS">
        <child id="1068581517665" name="statement" index="3cqZAp" />
      </concept>
      <concept id="1068580320020" name="jetbrains.mps.baseLanguage.structure.IntegerConstant" flags="nn" index="3cmrfG">
        <property id="1068580320021" name="value" index="3cmrfH" />
      </concept>
      <concept id="1068581242878" name="jetbrains.mps.baseLanguage.structure.ReturnStatement" flags="nn" index="3cpWs6">
        <child id="1068581517676" name="expression" index="3cqZAk" />
      </concept>
      <concept id="1068581242864" name="jetbrains.mps.baseLanguage.structure.LocalVariableDeclarationStatement" flags="nn" index="3cpWs8">
        <child id="1068581242865" name="localVariableDeclaration" index="3cpWs9" />
      </concept>
      <concept id="1068581242863" name="jetbrains.mps.baseLanguage.structure.LocalVariableDeclaration" flags="nr" index="3cpWsn" />
      <concept id="1081506773034" name="jetbrains.mps.baseLanguage.structure.LessThanExpression" flags="nn" index="3eOVzh" />
      <concept id="1204053956946" name="jetbrains.mps.baseLanguage.structure.IMethodCall" flags="ng" index="1ndlxa">
        <reference id="1068499141037" name="baseMethodDeclaration" index="37wK5l" />
        <child id="1068499141038" name="actualArgument" index="37wK5m" />
      </concept>
      <concept id="1107535904670" name="jetbrains.mps.baseLanguage.structure.ClassifierType" flags="in" index="3uibUv">
        <reference id="1107535924139" name="classifier" index="3uigEE" />
      </concept>
      <concept id="1081773326031" name="jetbrains.mps.baseLanguage.structure.BinaryOperation" flags="nn" index="3uHJSO">
        <child id="1081773367579" name="rightExpression" index="3uHU7w" />
        <child id="1081773367580" name="leftExpression" index="3uHU7B" />
      </concept>
      <concept id="1214918800624" name="jetbrains.mps.baseLanguage.structure.PostfixIncrementExpression" flags="nn" index="3uNrnE" />
      <concept id="1144230876926" name="jetbrains.mps.baseLanguage.structure.AbstractForStatement" flags="nn" index="1DupvO">
        <child id="1144230900587" name="variable" index="1Duv9x" />
      </concept>
      <concept id="1144231330558" name="jetbrains.mps.baseLanguage.structure.ForStatement" flags="nn" index="1Dw8fO">
        <child id="1144231399730" name="condition" index="1Dwp0S" />
        <child id="1144231408325" name="iteration" index="1Dwrff" />
      </concept>
      <concept id="6329021646629104957" name="jetbrains.mps.baseLanguage.structure.TextCommentPart" flags="nn" index="3SKdUq">
        <property id="6329021646629104958" name="text" index="3SKdUp" />
      </concept>
      <concept id="6329021646629104954" name="jetbrains.mps.baseLanguage.structure.SingleLineComment" flags="nn" index="3SKdUt">
        <child id="6329021646629175155" name="commentPart" index="3SKWNk" />
      </concept>
    </language>
    <language id="3a13115c-633c-4c5c-bbcc-75c4219e9555" name="jetbrains.mps.lang.quotation">
      <concept id="1196350785113" name="jetbrains.mps.lang.quotation.structure.Quotation" flags="nn" index="2c44tf">
        <child id="1196350785114" name="quotedNode" index="2c44tc" />
      </concept>
      <concept id="5455284157994012186" name="jetbrains.mps.lang.quotation.structure.NodeBuilderInitLink" flags="ng" index="2pIpSj">
        <reference id="5455284157994012188" name="link" index="2pIpSl" />
      </concept>
      <concept id="5455284157993911097" name="jetbrains.mps.lang.quotation.structure.NodeBuilderInitPart" flags="ng" index="2pJxcK">
        <child id="5455284157993911094" name="expression" index="2pJxcZ" />
      </concept>
      <concept id="5455284157993863837" name="jetbrains.mps.lang.quotation.structure.NodeBuilder" flags="nn" index="2pJPEk">
        <child id="5455284157993863838" name="quotedNode" index="2pJPEn" />
      </concept>
      <concept id="5455284157993863840" name="jetbrains.mps.lang.quotation.structure.NodeBuilderNode" flags="nn" index="2pJPED">
        <reference id="5455284157993910961" name="concept" index="2pJxaS" />
        <child id="5455284157993911099" name="values" index="2pJxcM" />
      </concept>
      <concept id="8182547171709738802" name="jetbrains.mps.lang.quotation.structure.NodeBuilderList" flags="nn" index="36be1Y">
        <child id="8182547171709738803" name="nodes" index="36be1Z" />
      </concept>
      <concept id="8182547171709752110" name="jetbrains.mps.lang.quotation.structure.NodeBuilderExpression" flags="nn" index="36biLy">
        <child id="8182547171709752112" name="expression" index="36biLW" />
      </concept>
      <concept id="8182547171709614739" name="jetbrains.mps.lang.quotation.structure.NodeBuilderRef" flags="nn" index="36bGnv">
        <reference id="8182547171709614741" name="target" index="36bGnp" />
      </concept>
    </language>
    <language id="7a5dda62-9140-4668-ab76-d5ed1746f2b2" name="jetbrains.mps.lang.typesystem">
      <concept id="1185788614172" name="jetbrains.mps.lang.typesystem.structure.NormalTypeClause" flags="ng" index="mw_s8">
        <child id="1185788644032" name="normalType" index="mwGJk" />
      </concept>
      <concept id="1175147569072" name="jetbrains.mps.lang.typesystem.structure.AbstractSubtypingRule" flags="ig" index="2sgdUx">
        <property id="1175607673137" name="isWeak" index="2RFo0w" />
        <child id="1175147624276" name="body" index="2sgrp5" />
      </concept>
      <concept id="1175147670730" name="jetbrains.mps.lang.typesystem.structure.SubtypingRule" flags="ig" index="2sgARr" />
      <concept id="1179479408386" name="jetbrains.mps.lang.typesystem.structure.JoinType" flags="ng" index="2usRSg">
        <child id="1179479418730" name="argument" index="2usUpS" />
      </concept>
      <concept id="1175517767210" name="jetbrains.mps.lang.typesystem.structure.ReportErrorStatement" flags="nn" index="2MkqsV">
        <child id="1175517851849" name="errorString" index="2MkJ7o" />
      </concept>
      <concept id="1179832490862" name="jetbrains.mps.lang.typesystem.structure.CreateStrongLessThanInequationStatement" flags="nn" index="2NvLDW" />
      <concept id="1212056081426" name="jetbrains.mps.lang.typesystem.structure.AbstractInequationStatement" flags="ng" index="Ob1k8">
        <property id="1212056105818" name="inequationPriority" index="Ob790" />
      </concept>
      <concept id="1227096774658" name="jetbrains.mps.lang.typesystem.structure.MessageStatement" flags="ng" index="2OEH$v">
        <child id="1227096802790" name="nodeToReport" index="2OEOjV" />
      </concept>
      <concept id="1195213580585" name="jetbrains.mps.lang.typesystem.structure.AbstractCheckingRule" flags="ig" index="18hYwZ">
        <child id="1195213635060" name="body" index="18ibNy" />
      </concept>
      <concept id="1174642788531" name="jetbrains.mps.lang.typesystem.structure.ConceptReference" flags="ig" index="1YaCAy">
        <reference id="1174642800329" name="concept" index="1YaFvo" />
      </concept>
      <concept id="1174643105530" name="jetbrains.mps.lang.typesystem.structure.InferenceRule" flags="ig" index="1YbPZF" />
      <concept id="1174648085619" name="jetbrains.mps.lang.typesystem.structure.AbstractRule" flags="ng" index="1YuPPy">
        <child id="1174648101952" name="applicableNode" index="1YuTPh" />
      </concept>
      <concept id="1174650418652" name="jetbrains.mps.lang.typesystem.structure.ApplicableNodeReference" flags="nn" index="1YBJjd">
        <reference id="1174650432090" name="applicableNode" index="1YBMHb" />
      </concept>
      <concept id="1174657487114" name="jetbrains.mps.lang.typesystem.structure.TypeOfExpression" flags="nn" index="1Z2H0r">
        <child id="1174657509053" name="term" index="1Z2MuG" />
      </concept>
      <concept id="1174658326157" name="jetbrains.mps.lang.typesystem.structure.CreateEquationStatement" flags="nn" index="1Z5TYs" />
      <concept id="1174660718586" name="jetbrains.mps.lang.typesystem.structure.AbstractEquationStatement" flags="nn" index="1Zf1VF">
        <property id="1206359757216" name="checkOnly" index="3wDh2S" />
        <child id="1174660783413" name="leftExpression" index="1ZfhK$" />
        <child id="1174660783414" name="rightExpression" index="1ZfhKB" />
      </concept>
      <concept id="1174663118805" name="jetbrains.mps.lang.typesystem.structure.CreateLessThanInequationStatement" flags="nn" index="1ZobV4" />
      <concept id="1174665551739" name="jetbrains.mps.lang.typesystem.structure.TypeVarDeclaration" flags="ng" index="1ZxtTE" />
      <concept id="1174666260556" name="jetbrains.mps.lang.typesystem.structure.TypeVarReference" flags="nn" index="1Z$b5t">
        <reference id="1174666276259" name="typeVarDeclaration" index="1Z$eMM" />
      </concept>
    </language>
    <language id="7866978e-a0f0-4cc7-81bc-4d213d9375e1" name="jetbrains.mps.lang.smodel">
      <concept id="1179409122411" name="jetbrains.mps.lang.smodel.structure.Node_ConceptMethodCall" flags="nn" index="2qgKlT" />
      <concept id="2396822768958367367" name="jetbrains.mps.lang.smodel.structure.AbstractTypeCastExpression" flags="nn" index="$5XWr">
        <reference id="6733348108486823428" name="concept" index="1m5ApE" />
        <child id="6733348108486823193" name="leftExpression" index="1m5AlR" />
      </concept>
      <concept id="1145383075378" name="jetbrains.mps.lang.smodel.structure.SNodeListType" flags="in" index="2I9FWS">
        <reference id="1145383142433" name="elementConcept" index="2I9WkF" />
      </concept>
      <concept id="1139613262185" name="jetbrains.mps.lang.smodel.structure.Node_GetParentOperation" flags="nn" index="1mfA1w" />
      <concept id="1140137987495" name="jetbrains.mps.lang.smodel.structure.SNodeTypeCastExpression" flags="nn" index="1PxgMI" />
      <concept id="1138056143562" name="jetbrains.mps.lang.smodel.structure.SLinkAccess" flags="nn" index="3TrEf2">
        <reference id="1138056516764" name="link" index="3Tt5mk" />
      </concept>
      <concept id="1138056282393" name="jetbrains.mps.lang.smodel.structure.SLinkListAccess" flags="nn" index="3Tsc0h">
        <reference id="1138056546658" name="link" index="3TtcxE" />
      </concept>
      <concept id="1172420572800" name="jetbrains.mps.lang.smodel.structure.ConceptNodeType" flags="in" index="3THzug">
        <reference id="1180481110358" name="conceptDeclaraton" index="3qa414" />
      </concept>
      <concept id="1172424058054" name="jetbrains.mps.lang.smodel.structure.ConceptRefExpression" flags="nn" index="3TUQnm">
        <reference id="1172424100906" name="conceptDeclaration" index="3TV0OU" />
      </concept>
    </language>
    <language id="ceab5195-25ea-4f22-9b92-103b95ca8c0c" name="jetbrains.mps.lang.core">
      <concept id="1133920641626" name="jetbrains.mps.lang.core.structure.BaseConcept" flags="ng" index="2VYdi">
        <property id="1193676396447" name="virtualPackage" index="3GE5qa" />
      </concept>
      <concept id="1169194658468" name="jetbrains.mps.lang.core.structure.INamedConcept" flags="ng" index="TrEIO">
        <property id="1169194664001" name="name" index="TrG5h" />
      </concept>
    </language>
    <language id="83888646-71ce-4f1c-9c53-c54016f6ad4f" name="jetbrains.mps.baseLanguage.collections">
      <concept id="540871147943773365" name="jetbrains.mps.baseLanguage.collections.structure.SingleArgumentSequenceOperation" flags="nn" index="25WWJ4">
        <child id="540871147943773366" name="argument" index="25WWJ7" />
      </concept>
      <concept id="1151688443754" name="jetbrains.mps.baseLanguage.collections.structure.ListType" flags="in" index="_YKpA">
        <child id="1151688676805" name="elementType" index="_ZDj9" />
      </concept>
      <concept id="1162934736510" name="jetbrains.mps.baseLanguage.collections.structure.GetElementOperation" flags="nn" index="34jXtK" />
      <concept id="1162935959151" name="jetbrains.mps.baseLanguage.collections.structure.GetSizeOperation" flags="nn" index="34oBXx" />
    </language>
  </registry>
  <node concept="1YbPZF" id="63yBSeEXd9B">
    <property role="TrG5h" value="typeof_GetEditorOperation" />
    <node concept="3clFbS" id="63yBSeEXd9C" role="18ibNy">
      <node concept="1ZxtTE" id="63yBSeEXfsa" role="3cqZAp">
        <property role="TrG5h" value="T" />
      </node>
      <node concept="1ZobV4" id="2F8bNQtx5a" role="3cqZAp">
        <property role="3wDh2S" value="false" />
        <node concept="mw_s8" id="2F8bNQtx5i" role="1ZfhK$">
          <node concept="1Z2H0r" id="2F8bNQtx5j" role="mwGJk">
            <node concept="2OqwBi" id="2F8bNQtx5k" role="1Z2MuG">
              <node concept="1PxgMI" id="2F8bNQtx5l" role="2Oq$k0">
                <ref role="1m5ApE" to="tpee:hqOqwz4" resolve="DotExpression" />
                <node concept="2OqwBi" id="2F8bNQtx5m" role="1m5AlR">
                  <node concept="1YBJjd" id="2F8bNQtx5n" role="2Oq$k0">
                    <ref role="1YBMHb" node="63yBSeEXd9D" resolve="operation" />
                  </node>
                  <node concept="1mfA1w" id="2F8bNQtx5o" role="2OqNvi" />
                </node>
              </node>
              <node concept="3TrEf2" id="2F8bNQtx5p" role="2OqNvi">
                <ref role="3Tt5mk" to="tpee:hqOq$gm" />
              </node>
            </node>
          </node>
        </node>
        <node concept="mw_s8" id="2F8bNQtx5c" role="1ZfhKB">
          <node concept="2pJPEk" id="2F8bNQtx5d" role="mwGJk">
            <node concept="2pJPED" id="2F8bNQtx5e" role="2pJPEn">
              <ref role="2pJxaS" to="fb9u:O$iR4J$g0s" resolve="PersistentConfigurationType" />
              <node concept="2pIpSj" id="2F8bNQtx5f" role="2pJxcM">
                <ref role="2pIpSl" to="fb9u:O$iR4J$g0t" />
                <node concept="36biLy" id="2F8bNQtx5g" role="2pJxcZ">
                  <node concept="1Z$b5t" id="2F8bNQtx5h" role="36biLW">
                    <ref role="1Z$eMM" node="63yBSeEXfsa" resolve="T" />
                  </node>
                </node>
              </node>
            </node>
          </node>
        </node>
      </node>
      <node concept="1Z5TYs" id="63yBSeEXfs1" role="3cqZAp">
        <node concept="mw_s8" id="63yBSeEXfs5" role="1ZfhKB">
          <node concept="2pJPEk" id="2F8bNQtzZC" role="mwGJk">
            <node concept="2pJPED" id="2F8bNQtzZ_" role="2pJPEn">
              <ref role="2pJxaS" to="fb9u:O$iR4J$g4U" resolve="SettingsEditorType" />
              <node concept="2pIpSj" id="2F8bNQtzZA" role="2pJxcM">
                <ref role="2pIpSl" to="fb9u:O$iR4J$g4V" />
                <node concept="36biLy" id="2F8bNQtzZB" role="2pJxcZ">
                  <node concept="1Z$b5t" id="63yBSeEXfsE" role="36biLW">
                    <ref role="1Z$eMM" node="63yBSeEXfsa" resolve="T" />
                  </node>
                </node>
              </node>
            </node>
          </node>
        </node>
        <node concept="mw_s8" id="63yBSeEXfs4" role="1ZfhK$">
          <node concept="1Z2H0r" id="63yBSeEXfrY" role="mwGJk">
            <node concept="1YBJjd" id="63yBSeEXfs0" role="1Z2MuG">
              <ref role="1YBMHb" node="63yBSeEXd9D" resolve="operation" />
            </node>
          </node>
        </node>
      </node>
    </node>
    <node concept="1YaCAy" id="63yBSeEXd9D" role="1YuTPh">
      <property role="TrG5h" value="operation" />
      <ref role="1YaFvo" to="fb9u:4DPUXm60GE_" resolve="GetEditorOperation" />
    </node>
  </node>
  <node concept="2sgARr" id="63yBSeEXxF_">
    <property role="2RFo0w" value="true" />
    <property role="TrG5h" value="PersistentConfigurationIsPersistentConfiguration" />
    <node concept="3clFbS" id="63yBSeEXxFA" role="2sgrp5">
      <node concept="3cpWs6" id="63yBSeEXxFB" role="3cqZAp">
        <node concept="2pJPEk" id="2F8bNQsIPl" role="3cqZAk">
          <node concept="2pJPED" id="2F8bNQsIPk" role="2pJPEn">
            <ref role="2pJxaS" to="fb9u:O$iR4J$g0s" resolve="PersistentConfigurationType" />
          </node>
        </node>
      </node>
    </node>
    <node concept="1YaCAy" id="63yBSeEXxFE" role="1YuTPh">
      <property role="TrG5h" value="persistentConfigurationType" />
      <ref role="1YaFvo" to="fb9u:O$iR4J$g0s" resolve="PersistentConfigurationType" />
    </node>
  </node>
  <node concept="1YbPZF" id="63yBSeEXxFF">
    <property role="TrG5h" value="typeof_ReportConfigurationErrorStatement" />
    <node concept="3clFbS" id="63yBSeEXxFG" role="18ibNy">
      <node concept="1ZobV4" id="63yBSeEXxFH" role="3cqZAp">
        <property role="Ob790" value="0" />
        <node concept="mw_s8" id="63yBSeEXxFJ" role="1ZfhK$">
          <node concept="1Z2H0r" id="63yBSeEXxFK" role="mwGJk">
            <node concept="2OqwBi" id="63yBSeEXxFL" role="1Z2MuG">
              <node concept="1YBJjd" id="63yBSeEXxFM" role="2Oq$k0">
                <ref role="1YBMHb" node="63yBSeEXxFR" resolve="reportConfigurationErrorStatement" />
              </node>
              <node concept="3TrEf2" id="63yBSeEXxFN" role="2OqNvi">
                <ref role="3Tt5mk" to="fb9u:O$iR4J$g45" />
              </node>
            </node>
          </node>
        </node>
        <node concept="mw_s8" id="63yBSeEXxFO" role="1ZfhKB">
          <node concept="2c44tf" id="63yBSeEXxFP" role="mwGJk">
            <node concept="17QB3L" id="63yBSeEXxFQ" role="2c44tc" />
          </node>
        </node>
      </node>
    </node>
    <node concept="1YaCAy" id="63yBSeEXxFR" role="1YuTPh">
      <property role="TrG5h" value="reportConfigurationErrorStatement" />
      <ref role="1YaFvo" to="fb9u:O$iR4J$g43" resolve="ReportConfigurationErrorStatement" />
    </node>
  </node>
  <node concept="1YbPZF" id="63yBSeEXxFS">
    <property role="TrG5h" value="typeof_PersistentPropertyDeclaration" />
    <property role="3GE5qa" value="properties" />
    <node concept="3clFbS" id="63yBSeEXxFT" role="18ibNy">
      <node concept="3SKdUt" id="7dr0Sif0NRP" role="3cqZAp">
        <node concept="3SKdUq" id="7dr0Sif0NSk" role="3SKWNk">
          <property role="3SKdUp" value="unfortunately, can't use superclass of all primitives, PrimitiveType," />
        </node>
      </node>
      <node concept="3SKdUt" id="7dr0Sif0NSQ" role="3cqZAp">
        <node concept="3SKdUq" id="7dr0Sif0NTn" role="3SKWNk">
          <property role="3SKdUp" value="as there's no 'supertype' relation between specific primitive type (e.g. IntegerType) and PrimitiveType" />
        </node>
      </node>
      <node concept="3SKdUt" id="7dr0Sif0NTV" role="3cqZAp">
        <node concept="3SKdUq" id="7dr0Sif0NUu" role="3SKWNk">
          <property role="3SKdUp" value="There's indeed such relation with blTypes.PrimitiveTypeDescriptor (which in fact was in use here initially)," />
        </node>
      </node>
      <node concept="3SKdUt" id="7dr0Sif0NV4" role="3cqZAp">
        <node concept="3SKdUq" id="7dr0Sif0NVD" role="3SKWNk">
          <property role="3SKdUp" value="however, PrimitiveTypeDescriptor is not an IType (required by JoinType.argument), and I don't want neither" />
        </node>
      </node>
      <node concept="3SKdUt" id="7dr0Sif0NWh" role="3cqZAp">
        <node concept="3SKdUq" id="7dr0Sif0NWS" role="3SKWNk">
          <property role="3SKdUp" value="to push incompatible value into model (could do using smodel lang, as light quotation force cast and fails at exec)," />
        </node>
      </node>
      <node concept="3SKdUt" id="7dr0Sif0NXy" role="3cqZAp">
        <node concept="3SKdUq" id="7dr0Sif0NYb" role="3SKWNk">
          <property role="3SKdUp" value="nor to make PrimitiveTypeDescriptor to implement IType (which it should, but it would yield another dependency cycle I" />
        </node>
      </node>
      <node concept="3SKdUt" id="7dr0Sif0NYR" role="3cqZAp">
        <node concept="3SKdUq" id="7dr0Sif0NZy" role="3SKWNk">
          <property role="3SKdUp" value="can't afford dealing with right now." />
        </node>
      </node>
      <node concept="3SKdUt" id="7dr0Sif0O0g" role="3cqZAp">
        <node concept="3SKdUq" id="7dr0Sif0O0X" role="3SKWNk">
          <property role="3SKdUp" value="Thus, I've just listed all subtypes of PrimitiveType deemed reasonable at the moment." />
        </node>
      </node>
      <node concept="1ZobV4" id="63yBSeEXxG1" role="3cqZAp">
        <property role="Ob790" value="0" />
        <node concept="mw_s8" id="63yBSeEXxG3" role="1ZfhK$">
          <node concept="2OqwBi" id="63yBSeEXxG4" role="mwGJk">
            <node concept="1YBJjd" id="63yBSeEXxG5" role="2Oq$k0">
              <ref role="1YBMHb" node="63yBSeEXxGh" resolve="persistentPropertyDeclaration" />
            </node>
            <node concept="3TrEf2" id="63yBSeEXxG6" role="2OqNvi">
              <ref role="3Tt5mk" to="tpee:4VkOLwjf83e" />
            </node>
          </node>
        </node>
        <node concept="mw_s8" id="63yBSeEXxG7" role="1ZfhKB">
          <node concept="2pJPEk" id="2F8bNQsJlB" role="mwGJk">
            <node concept="2pJPED" id="2F8bNQsJlp" role="2pJPEn">
              <ref role="2pJxaS" to="tpd4:hausRW2" resolve="JoinType" />
              <node concept="2pIpSj" id="2F8bNQsJlt" role="2pJxcM">
                <ref role="2pIpSl" to="tpd4:hausUtE" />
                <node concept="36be1Y" id="2F8bNQsJlu" role="2pJxcZ">
                  <node concept="2pJPED" id="2F8bNQsJlq" role="36be1Z">
                    <ref role="2pJxaS" to="tpee:g7uibYu" resolve="ClassifierType" />
                    <node concept="2pIpSj" id="2F8bNQsJlr" role="2pJxcM">
                      <ref role="2pIpSl" to="tpee:g7uigIF" />
                      <node concept="36bGnv" id="2F8bNQsJls" role="2pJxcZ">
                        <ref role="36bGnp" to="wyt6:~Cloneable" resolve="Cloneable" />
                      </node>
                    </node>
                  </node>
                  <node concept="2pJPED" id="2F8bNQsJlv" role="36be1Z">
                    <ref role="2pJxaS" to="tpee:g7uibYu" resolve="ClassifierType" />
                    <node concept="2pIpSj" id="2F8bNQsJlw" role="2pJxcM">
                      <ref role="2pIpSl" to="tpee:g7uigIF" />
                      <node concept="36bGnv" id="2F8bNQsJlx" role="2pJxcZ">
                        <ref role="36bGnp" to="wyt6:~Enum" resolve="Enum" />
                      </node>
                    </node>
                  </node>
                  <node concept="2pJPED" id="2F8bNQsJly" role="36be1Z">
                    <ref role="2pJxaS" to="tpee:g7uibYu" resolve="ClassifierType" />
                    <node concept="2pIpSj" id="2F8bNQsJlz" role="2pJxcM">
                      <ref role="2pIpSl" to="tpee:g7uigIF" />
                      <node concept="36bGnv" id="2F8bNQsJl$" role="2pJxcZ">
                        <ref role="36bGnp" to="wyt6:~String" resolve="String" />
                      </node>
                    </node>
                  </node>
                  <node concept="2pJPED" id="7dr0Sif0Nwu" role="36be1Z">
                    <ref role="2pJxaS" to="tpee:f_0P_4Y" resolve="BooleanType" />
                  </node>
                  <node concept="2pJPED" id="7dr0Sif0NyO" role="36be1Z">
                    <ref role="2pJxaS" to="tpee:f_0OyhT" resolve="IntegerType" />
                  </node>
                  <node concept="2pJPED" id="7dr0Sif0N_o" role="36be1Z">
                    <ref role="2pJxaS" to="tpee:f_0OMvX" resolve="FloatType" />
                  </node>
                  <node concept="2pJPED" id="7dr0Sif0NCa" role="36be1Z">
                    <ref role="2pJxaS" to="tpee:f_0P56A" resolve="DoubleType" />
                  </node>
                  <node concept="2pJPED" id="7dr0Sif0NFa" role="36be1Z">
                    <ref role="2pJxaS" to="tpee:f_0PfwA" resolve="CharType" />
                  </node>
                  <node concept="2pJPED" id="7dr0Sif0NIo" role="36be1Z">
                    <ref role="2pJxaS" to="tpee:f_0Pron" resolve="ByteType" />
                  </node>
                  <node concept="2pJPED" id="7dr0Sif0NLO" role="36be1Z">
                    <ref role="2pJxaS" to="tpee:fzcpWvN" resolve="LongType" />
                  </node>
                  <node concept="2pJPED" id="7dr0Sif0NPu" role="36be1Z">
                    <ref role="2pJxaS" to="tpee:f_0N3wd" resolve="ShortType" />
                  </node>
                  <node concept="2pJPED" id="2F8bNQsJlA" role="36be1Z">
                    <ref role="2pJxaS" to="fb9u:O$iR4J$g3X" resolve="TemplatePersistentConfigurationType" />
                  </node>
                </node>
              </node>
            </node>
          </node>
        </node>
      </node>
    </node>
    <node concept="1YaCAy" id="63yBSeEXxGh" role="1YuTPh">
      <property role="TrG5h" value="persistentPropertyDeclaration" />
      <ref role="1YaFvo" to="fb9u:O$iR4J$g4p" resolve="PersistentPropertyDeclaration" />
    </node>
  </node>
  <node concept="1YbPZF" id="63yBSeEXxGi">
    <property role="TrG5h" value="typeof_PersistentPropertyReferenceOperation" />
    <property role="3GE5qa" value="properties" />
    <node concept="3clFbS" id="63yBSeEXxGj" role="18ibNy">
      <node concept="1Z5TYs" id="63yBSeEXxGk" role="3cqZAp">
        <node concept="mw_s8" id="63yBSeEXxGl" role="1ZfhKB">
          <node concept="2OqwBi" id="63yBSeEXxGm" role="mwGJk">
            <node concept="2OqwBi" id="63yBSeEXxGn" role="2Oq$k0">
              <node concept="1YBJjd" id="63yBSeEXxGo" role="2Oq$k0">
                <ref role="1YBMHb" node="63yBSeEXxGu" resolve="persistentPropertyReferenceOperation" />
              </node>
              <node concept="3TrEf2" id="63yBSeEXxGp" role="2OqNvi">
                <ref role="3Tt5mk" to="fb9u:O$iR4J$g4f" />
              </node>
            </node>
            <node concept="3TrEf2" id="63yBSeEXxGq" role="2OqNvi">
              <ref role="3Tt5mk" to="tpee:4VkOLwjf83e" />
            </node>
          </node>
        </node>
        <node concept="mw_s8" id="63yBSeEXxGr" role="1ZfhK$">
          <node concept="1Z2H0r" id="63yBSeEXxGs" role="mwGJk">
            <node concept="1YBJjd" id="63yBSeEXxGt" role="1Z2MuG">
              <ref role="1YBMHb" node="63yBSeEXxGu" resolve="persistentPropertyReferenceOperation" />
            </node>
          </node>
        </node>
      </node>
    </node>
    <node concept="1YaCAy" id="63yBSeEXxGu" role="1YuTPh">
      <property role="TrG5h" value="persistentPropertyReferenceOperation" />
      <ref role="1YaFvo" to="fb9u:O$iR4J$g4e" resolve="PersistentPropertyReferenceOperation" />
    </node>
  </node>
  <node concept="2sgARr" id="63yBSeEXxGv">
    <property role="TrG5h" value="TemplatePersistentPropertyIsSubtypeOfPersistentConfiguration" />
    <property role="3GE5qa" value="template" />
    <node concept="3clFbS" id="63yBSeEXxGw" role="2sgrp5">
      <node concept="3cpWs6" id="63yBSeEXxGx" role="3cqZAp">
        <node concept="2pJPEk" id="2F8bNQsIRl" role="3cqZAk">
          <node concept="2pJPED" id="2F8bNQsIRi" role="2pJPEn">
            <ref role="2pJxaS" to="fb9u:O$iR4J$g0s" resolve="PersistentConfigurationType" />
            <node concept="2pIpSj" id="2F8bNQsIRj" role="2pJxcM">
              <ref role="2pIpSl" to="fb9u:O$iR4J$g0t" />
              <node concept="36biLy" id="2F8bNQsIRk" role="2pJxcZ">
                <node concept="2OqwBi" id="63yBSeEXxG_" role="36biLW">
                  <node concept="1YBJjd" id="63yBSeEXxGA" role="2Oq$k0">
                    <ref role="1YBMHb" node="63yBSeEXxGC" resolve="templatePersistentPropertyType" />
                  </node>
                  <node concept="3TrEf2" id="63yBSeEXxGB" role="2OqNvi">
                    <ref role="3Tt5mk" to="fb9u:O$iR4J$g3Y" />
                  </node>
                </node>
              </node>
            </node>
          </node>
        </node>
      </node>
    </node>
    <node concept="1YaCAy" id="63yBSeEXxGC" role="1YuTPh">
      <property role="TrG5h" value="templatePersistentPropertyType" />
      <ref role="1YaFvo" to="fb9u:O$iR4J$g3X" resolve="TemplatePersistentConfigurationType" />
    </node>
  </node>
  <node concept="1YbPZF" id="63yBSeEXxGJ">
    <property role="TrG5h" value="typeof_PersistentConfigurationTemplateInitializer" />
    <property role="3GE5qa" value="template" />
    <node concept="3clFbS" id="63yBSeEXxGK" role="18ibNy">
      <node concept="1Z5TYs" id="63yBSeEXxGL" role="3cqZAp">
        <node concept="mw_s8" id="63yBSeEXxGM" role="1ZfhKB">
          <node concept="2pJPEk" id="2F8bNQsJaX" role="mwGJk">
            <node concept="2pJPED" id="2F8bNQsJaU" role="2pJPEn">
              <ref role="2pJxaS" to="fb9u:O$iR4J$g3X" resolve="TemplatePersistentConfigurationType" />
              <node concept="2pIpSj" id="2F8bNQsJaV" role="2pJxcM">
                <ref role="2pIpSl" to="fb9u:O$iR4J$g3Y" />
                <node concept="36biLy" id="2F8bNQsJaW" role="2pJxcZ">
                  <node concept="2OqwBi" id="63yBSeEXMyb" role="36biLW">
                    <node concept="1YBJjd" id="63yBSeEXMya" role="2Oq$k0">
                      <ref role="1YBMHb" node="63yBSeEXxHI" resolve="configurationTemplateInitializer" />
                    </node>
                    <node concept="3TrEf2" id="63yBSeEXMyf" role="2OqNvi">
                      <ref role="3Tt5mk" to="fb9u:O$iR4J$g4n" />
                    </node>
                  </node>
                </node>
              </node>
            </node>
          </node>
        </node>
        <node concept="mw_s8" id="63yBSeEXxGT" role="1ZfhK$">
          <node concept="1Z2H0r" id="63yBSeEXxGU" role="mwGJk">
            <node concept="1YBJjd" id="63yBSeEXxGV" role="1Z2MuG">
              <ref role="1YBMHb" node="63yBSeEXxHI" resolve="configurationTemplateInitializer" />
            </node>
          </node>
        </node>
      </node>
      <node concept="3cpWs8" id="63yBSeEXxGW" role="3cqZAp">
        <node concept="3cpWsn" id="63yBSeEXxGX" role="3cpWs9">
          <property role="TrG5h" value="parameters" />
          <node concept="2I9FWS" id="63yBSeEXxGY" role="1tU5fm">
            <ref role="2I9WkF" to="fb9u:O$iR4J$g4q" resolve="TemplateParameter" />
          </node>
          <node concept="2OqwBi" id="63yBSeEXxGZ" role="33vP2m">
            <node concept="2OqwBi" id="63yBSeEXxH0" role="2Oq$k0">
              <node concept="1YBJjd" id="63yBSeEXxH1" role="2Oq$k0">
                <ref role="1YBMHb" node="63yBSeEXxHI" resolve="configurationTemplateInitializer" />
              </node>
              <node concept="3TrEf2" id="63yBSeEXxH2" role="2OqNvi">
                <ref role="3Tt5mk" to="fb9u:O$iR4J$g4n" />
              </node>
            </node>
            <node concept="3Tsc0h" id="63yBSeEXxH3" role="2OqNvi">
              <ref role="3TtcxE" to="fb9u:O$iR4J$g4l" />
            </node>
          </node>
        </node>
      </node>
      <node concept="1Dw8fO" id="63yBSeEXxH4" role="3cqZAp">
        <node concept="3uNrnE" id="63yBSeEXxH5" role="1Dwrff">
          <node concept="37vLTw" id="3GM_nagTwAq" role="2$L3a6">
            <ref role="3cqZAo" node="63yBSeEXxHz" resolve="i" />
          </node>
        </node>
        <node concept="3clFbS" id="63yBSeEXxH7" role="2LFqv$">
          <node concept="3clFbJ" id="63yBSeEXxH8" role="3cqZAp">
            <node concept="3clFbS" id="63yBSeEXxH9" role="3clFbx">
              <node concept="2MkqsV" id="63yBSeEXxHa" role="3cqZAp">
                <node concept="1YBJjd" id="63yBSeEXxHb" role="2OEOjV">
                  <ref role="1YBMHb" node="63yBSeEXxHI" resolve="configurationTemplateInitializer" />
                </node>
                <node concept="Xl_RD" id="63yBSeEXxHc" role="2MkJ7o">
                  <property role="Xl_RC" value="Incompatible number of parameters" />
                </node>
              </node>
              <node concept="3cpWs6" id="63yBSeEXxHd" role="3cqZAp" />
            </node>
            <node concept="2d3UOw" id="63yBSeEXxHe" role="3clFbw">
              <node concept="2OqwBi" id="63yBSeEXxHf" role="3uHU7w">
                <node concept="37vLTw" id="3GM_nagTrxA" role="2Oq$k0">
                  <ref role="3cqZAo" node="63yBSeEXxGX" resolve="parameters" />
                </node>
                <node concept="34oBXx" id="63yBSeEXxHh" role="2OqNvi" />
              </node>
              <node concept="37vLTw" id="3GM_nagTyDN" role="3uHU7B">
                <ref role="3cqZAo" node="63yBSeEXxHz" resolve="i" />
              </node>
            </node>
          </node>
          <node concept="2NvLDW" id="63yBSeEXxHj" role="3cqZAp">
            <property role="Ob790" value="0" />
            <node concept="mw_s8" id="63yBSeEXxHl" role="1ZfhKB">
              <node concept="1Z2H0r" id="63yBSeEXxHm" role="mwGJk">
                <node concept="2OqwBi" id="63yBSeEXxHn" role="1Z2MuG">
                  <node concept="37vLTw" id="3GM_nagTx0L" role="2Oq$k0">
                    <ref role="3cqZAo" node="63yBSeEXxGX" resolve="parameters" />
                  </node>
                  <node concept="34jXtK" id="63yBSeEXxHp" role="2OqNvi">
                    <node concept="37vLTw" id="3GM_nagTvDW" role="25WWJ7">
                      <ref role="3cqZAo" node="63yBSeEXxHz" resolve="i" />
                    </node>
                  </node>
                </node>
              </node>
            </node>
            <node concept="mw_s8" id="63yBSeEXxHr" role="1ZfhK$">
              <node concept="1Z2H0r" id="63yBSeEXxHs" role="mwGJk">
                <node concept="2OqwBi" id="63yBSeEXxHt" role="1Z2MuG">
                  <node concept="2OqwBi" id="63yBSeEXxHu" role="2Oq$k0">
                    <node concept="1YBJjd" id="63yBSeEXxHv" role="2Oq$k0">
                      <ref role="1YBMHb" node="63yBSeEXxHI" resolve="configurationTemplateInitializer" />
                    </node>
                    <node concept="3Tsc0h" id="63yBSeEXxHw" role="2OqNvi">
                      <ref role="3TtcxE" to="fb9u:O$iR4J$g4o" />
                    </node>
                  </node>
                  <node concept="liA8E" id="63yBSeEXxHx" role="2OqNvi">
                    <ref role="37wK5l" to="33ny:~List.get(int):java.lang.Object" resolve="get" />
                    <node concept="37vLTw" id="3GM_nagTwYj" role="37wK5m">
                      <ref role="3cqZAo" node="63yBSeEXxHz" resolve="i" />
                    </node>
                  </node>
                </node>
              </node>
            </node>
          </node>
        </node>
        <node concept="3cpWsn" id="63yBSeEXxHz" role="1Duv9x">
          <property role="TrG5h" value="i" />
          <node concept="10Oyi0" id="63yBSeEXxH$" role="1tU5fm" />
          <node concept="3cmrfG" id="63yBSeEXxH_" role="33vP2m">
            <property role="3cmrfH" value="0" />
          </node>
        </node>
        <node concept="3eOVzh" id="63yBSeEXxHA" role="1Dwp0S">
          <node concept="2OqwBi" id="63yBSeEXxHB" role="3uHU7w">
            <node concept="2OqwBi" id="63yBSeEXxHC" role="2Oq$k0">
              <node concept="1YBJjd" id="63yBSeEXxHD" role="2Oq$k0">
                <ref role="1YBMHb" node="63yBSeEXxHI" resolve="configurationTemplateInitializer" />
              </node>
              <node concept="3Tsc0h" id="63yBSeEXxHE" role="2OqNvi">
                <ref role="3TtcxE" to="fb9u:O$iR4J$g4o" />
              </node>
            </node>
            <node concept="34oBXx" id="63yBSeEXxHF" role="2OqNvi" />
          </node>
          <node concept="37vLTw" id="3GM_nagTsaT" role="3uHU7B">
            <ref role="3cqZAo" node="63yBSeEXxHz" resolve="i" />
          </node>
        </node>
      </node>
      <node concept="3clFbH" id="63yBSeEXxHH" role="3cqZAp" />
    </node>
    <node concept="1YaCAy" id="63yBSeEXxHI" role="1YuTPh">
      <property role="TrG5h" value="configurationTemplateInitializer" />
      <ref role="1YaFvo" to="fb9u:O$iR4J$g4m" resolve="PersistentConfigurationTemplateInitializer" />
    </node>
  </node>
  <node concept="2sgARr" id="63yBSeEXxHK">
    <property role="TrG5h" value="EditorIsSusbtypeOfEditor" />
    <property role="3GE5qa" value="editor" />
    <node concept="3clFbS" id="63yBSeEXxHL" role="2sgrp5">
      <node concept="3cpWs6" id="63yBSeEXxHM" role="3cqZAp">
        <node concept="2pJPEk" id="2F8bNQsIOW" role="3cqZAk">
          <node concept="2pJPED" id="2F8bNQsIOV" role="2pJPEn">
            <ref role="2pJxaS" to="fb9u:O$iR4J$g4U" resolve="SettingsEditorType" />
          </node>
        </node>
      </node>
    </node>
    <node concept="1YaCAy" id="63yBSeEXxHP" role="1YuTPh">
      <property role="TrG5h" value="settingsEditorType" />
      <ref role="1YaFvo" to="fb9u:O$iR4J$g4U" resolve="SettingsEditorType" />
    </node>
  </node>
  <node concept="1YbPZF" id="63yBSeEXxHQ">
    <property role="TrG5h" value="typeof_EditorExpression" />
    <property role="3GE5qa" value="editor" />
    <node concept="3clFbS" id="63yBSeEXxHR" role="18ibNy">
      <node concept="1ZxtTE" id="63yBSeEXxHS" role="3cqZAp">
        <property role="TrG5h" value="T" />
      </node>
      <node concept="2NvLDW" id="63yBSeEXxHT" role="3cqZAp">
        <property role="Ob790" value="0" />
        <node concept="mw_s8" id="63yBSeEXxHU" role="1ZfhK$">
          <node concept="1Z2H0r" id="63yBSeEXxHV" role="mwGJk">
            <node concept="2OqwBi" id="63yBSeEXxHW" role="1Z2MuG">
              <node concept="1YBJjd" id="63yBSeEXxHX" role="2Oq$k0">
                <ref role="1YBMHb" node="63yBSeEXxIe" resolve="editorExpression" />
              </node>
              <node concept="3TrEf2" id="63yBSeEXxHY" role="2OqNvi">
                <ref role="3Tt5mk" to="fb9u:O$iR4J$g4t" />
              </node>
            </node>
          </node>
        </node>
        <node concept="mw_s8" id="63yBSeEXxHZ" role="1ZfhKB">
          <node concept="2pJPEk" id="2F8bNQsIUX" role="mwGJk">
            <node concept="2pJPED" id="2F8bNQsIUU" role="2pJPEn">
              <ref role="2pJxaS" to="fb9u:O$iR4J$g0s" resolve="PersistentConfigurationType" />
              <node concept="2pIpSj" id="2F8bNQsIUV" role="2pJxcM">
                <ref role="2pIpSl" to="fb9u:O$iR4J$g0t" />
                <node concept="36biLy" id="2F8bNQsIUW" role="2pJxcZ">
                  <node concept="1Z$b5t" id="63yBSeEXxI3" role="36biLW">
                    <ref role="1Z$eMM" node="63yBSeEXxHS" resolve="T" />
                  </node>
                </node>
              </node>
            </node>
          </node>
        </node>
      </node>
      <node concept="1Z5TYs" id="63yBSeEXxI5" role="3cqZAp">
        <node concept="mw_s8" id="63yBSeEXxI6" role="1ZfhKB">
          <node concept="2pJPEk" id="2F8bNQsIVL" role="mwGJk">
            <node concept="2pJPED" id="2F8bNQsIVI" role="2pJPEn">
              <ref role="2pJxaS" to="fb9u:O$iR4J$g4U" resolve="SettingsEditorType" />
              <node concept="2pIpSj" id="2F8bNQsIVJ" role="2pJxcM">
                <ref role="2pIpSl" to="fb9u:O$iR4J$g4V" />
                <node concept="36biLy" id="2F8bNQsIVK" role="2pJxcZ">
                  <node concept="1Z$b5t" id="63yBSeEXxIa" role="36biLW">
                    <ref role="1Z$eMM" node="63yBSeEXxHS" resolve="T" />
                  </node>
                </node>
              </node>
            </node>
          </node>
        </node>
        <node concept="mw_s8" id="63yBSeEXxIb" role="1ZfhK$">
          <node concept="1Z2H0r" id="63yBSeEXxIc" role="mwGJk">
            <node concept="1YBJjd" id="63yBSeEXxId" role="1Z2MuG">
              <ref role="1YBMHb" node="63yBSeEXxIe" resolve="editorExpression" />
            </node>
          </node>
        </node>
      </node>
    </node>
    <node concept="1YaCAy" id="63yBSeEXxIe" role="1YuTPh">
      <property role="TrG5h" value="editorExpression" />
      <ref role="1YaFvo" to="fb9u:O$iR4J$g4s" resolve="EditorExpression" />
    </node>
  </node>
  <node concept="1YbPZF" id="63yBSeEXxIf">
    <property role="TrG5h" value="typeof_EditorOperation" />
    <property role="3GE5qa" value="editor" />
    <node concept="3clFbS" id="63yBSeEXxIg" role="18ibNy">
      <node concept="1Z5TYs" id="63yBSeEXxIh" role="3cqZAp">
        <node concept="mw_s8" id="63yBSeEXxIi" role="1ZfhKB">
          <node concept="1Z2H0r" id="63yBSeEXxIj" role="mwGJk">
            <node concept="2OqwBi" id="63yBSeEXxIk" role="1Z2MuG">
              <node concept="1YBJjd" id="63yBSeEXxIl" role="2Oq$k0">
                <ref role="1YBMHb" node="63yBSeEXxJc" resolve="editorOperation" />
              </node>
              <node concept="3TrEf2" id="63yBSeEXxIm" role="2OqNvi">
                <ref role="3Tt5mk" to="fb9u:O$iR4J$g4L" />
              </node>
            </node>
          </node>
        </node>
        <node concept="mw_s8" id="63yBSeEXxIn" role="1ZfhK$">
          <node concept="1Z2H0r" id="63yBSeEXxIo" role="mwGJk">
            <node concept="1YBJjd" id="63yBSeEXxIp" role="1Z2MuG">
              <ref role="1YBMHb" node="63yBSeEXxJc" resolve="editorOperation" />
            </node>
          </node>
        </node>
      </node>
      <node concept="3cpWs8" id="63yBSeEXxIq" role="3cqZAp">
        <node concept="3cpWsn" id="63yBSeEXxIr" role="3cpWs9">
          <property role="TrG5h" value="parameters" />
          <node concept="_YKpA" id="63yBSeEXxIs" role="1tU5fm">
            <node concept="3THzug" id="63yBSeEXxIt" role="_ZDj9">
              <ref role="3qa414" to="tpee:g76ryKb" resolve="ConceptFunctionParameter" />
            </node>
          </node>
          <node concept="2OqwBi" id="63yBSeEXxIu" role="33vP2m">
            <node concept="2OqwBi" id="63yBSeEXxIv" role="2Oq$k0">
              <node concept="1YBJjd" id="63yBSeEXxIw" role="2Oq$k0">
                <ref role="1YBMHb" node="63yBSeEXxJc" resolve="editorOperation" />
              </node>
              <node concept="3TrEf2" id="63yBSeEXxIx" role="2OqNvi">
                <ref role="3Tt5mk" to="fb9u:O$iR4J$g4L" />
              </node>
            </node>
            <node concept="2qgKlT" id="63yBSeEXxIy" role="2OqNvi">
              <ref role="37wK5l" to="tpek:hEwIGRM" resolve="getParameters" />
            </node>
          </node>
        </node>
      </node>
      <node concept="3clFbH" id="63yBSeEY95w" role="3cqZAp" />
      <node concept="3SKdUt" id="63yBSeEY95u" role="3cqZAp">
        <node concept="3SKdUq" id="63yBSeEY95v" role="3SKWNk">
          <property role="3SKdUp" value="all editor operation parameters are declared" />
        </node>
      </node>
      <node concept="1Dw8fO" id="63yBSeEXxIz" role="3cqZAp">
        <node concept="3uNrnE" id="63yBSeEXxI$" role="1Dwrff">
          <node concept="37vLTw" id="3GM_nagTv6W" role="2$L3a6">
            <ref role="3cqZAo" node="63yBSeEXxJ2" resolve="i" />
          </node>
        </node>
        <node concept="3clFbS" id="63yBSeEXxIA" role="2LFqv$">
          <node concept="3clFbJ" id="63yBSeEXxIB" role="3cqZAp">
            <node concept="3clFbS" id="63yBSeEXxIC" role="3clFbx">
              <node concept="2MkqsV" id="63yBSeEXxID" role="3cqZAp">
                <node concept="1YBJjd" id="63yBSeEXxIE" role="2OEOjV">
                  <ref role="1YBMHb" node="63yBSeEXxJc" resolve="editorOperation" />
                </node>
                <node concept="Xl_RD" id="63yBSeEXxIF" role="2MkJ7o">
                  <property role="Xl_RC" value="Incompatible number of parameters" />
                </node>
              </node>
              <node concept="3cpWs6" id="63yBSeEXxIG" role="3cqZAp" />
            </node>
            <node concept="2d3UOw" id="63yBSeEXxIH" role="3clFbw">
              <node concept="2OqwBi" id="63yBSeEXxII" role="3uHU7w">
                <node concept="37vLTw" id="3GM_nagTri3" role="2Oq$k0">
                  <ref role="3cqZAo" node="63yBSeEXxIr" resolve="parameters" />
                </node>
                <node concept="34oBXx" id="63yBSeEXxIK" role="2OqNvi" />
              </node>
              <node concept="37vLTw" id="3GM_nagTzeQ" role="3uHU7B">
                <ref role="3cqZAo" node="63yBSeEXxJ2" resolve="i" />
              </node>
            </node>
          </node>
          <node concept="1ZobV4" id="4AWjvCLCF3H" role="3cqZAp">
            <property role="Ob790" value="0" />
            <node concept="mw_s8" id="4AWjvCLCF3I" role="1ZfhK$">
              <node concept="1Z2H0r" id="4AWjvCLCF3J" role="mwGJk">
                <node concept="2OqwBi" id="4AWjvCLCF3K" role="1Z2MuG">
                  <node concept="2OqwBi" id="4AWjvCLCF3L" role="2Oq$k0">
                    <node concept="1YBJjd" id="4AWjvCLCF3M" role="2Oq$k0">
                      <ref role="1YBMHb" node="63yBSeEXxJc" resolve="editorOperation" />
                    </node>
                    <node concept="3Tsc0h" id="4AWjvCLCF3N" role="2OqNvi">
                      <ref role="3TtcxE" to="fb9u:O$iR4J$g4J" />
                    </node>
                  </node>
                  <node concept="liA8E" id="4AWjvCLCF3O" role="2OqNvi">
                    <ref role="37wK5l" to="33ny:~List.get(int):java.lang.Object" resolve="get" />
                    <node concept="37vLTw" id="3GM_nagTunk" role="37wK5m">
                      <ref role="3cqZAo" node="63yBSeEXxJ2" resolve="i" />
                    </node>
                  </node>
                </node>
              </node>
            </node>
            <node concept="mw_s8" id="4AWjvCLCF3Q" role="1ZfhKB">
              <node concept="1Z2H0r" id="4AWjvCLCF3R" role="mwGJk">
                <node concept="2OqwBi" id="4AWjvCLCF3S" role="1Z2MuG">
                  <node concept="37vLTw" id="3GM_nagTrXk" role="2Oq$k0">
                    <ref role="3cqZAo" node="63yBSeEXxIr" resolve="parameters" />
                  </node>
                  <node concept="34jXtK" id="4AWjvCLCF3U" role="2OqNvi">
                    <node concept="37vLTw" id="3GM_nagTBOj" role="25WWJ7">
                      <ref role="3cqZAo" node="63yBSeEXxJ2" resolve="i" />
                    </node>
                  </node>
                </node>
              </node>
            </node>
          </node>
        </node>
        <node concept="3cpWsn" id="63yBSeEXxJ2" role="1Duv9x">
          <property role="TrG5h" value="i" />
          <node concept="10Oyi0" id="63yBSeEXxJ3" role="1tU5fm" />
          <node concept="3cmrfG" id="63yBSeEXxJ4" role="33vP2m">
            <property role="3cmrfH" value="0" />
          </node>
        </node>
        <node concept="3eOVzh" id="63yBSeEXxJ5" role="1Dwp0S">
          <node concept="2OqwBi" id="63yBSeEXxJ6" role="3uHU7w">
            <node concept="2OqwBi" id="63yBSeEXxJ7" role="2Oq$k0">
              <node concept="1YBJjd" id="63yBSeEXxJ8" role="2Oq$k0">
                <ref role="1YBMHb" node="63yBSeEXxJc" resolve="editorOperation" />
              </node>
              <node concept="3Tsc0h" id="63yBSeEXxJ9" role="2OqNvi">
                <ref role="3TtcxE" to="fb9u:O$iR4J$g4J" />
              </node>
            </node>
            <node concept="34oBXx" id="63yBSeEXxJa" role="2OqNvi" />
          </node>
          <node concept="37vLTw" id="3GM_nagTsdW" role="3uHU7B">
            <ref role="3cqZAo" node="63yBSeEXxJ2" resolve="i" />
          </node>
        </node>
      </node>
      <node concept="3clFbH" id="63yBSeEY95y" role="3cqZAp" />
      <node concept="3SKdUt" id="63yBSeEY95$" role="3cqZAp">
        <node concept="3SKdUq" id="63yBSeEY95_" role="3SKWNk">
          <property role="3SKdUp" value="all declared parameters present" />
        </node>
      </node>
      <node concept="3clFbJ" id="63yBSeEY95p" role="3cqZAp">
        <node concept="3clFbS" id="63yBSeEY95q" role="3clFbx">
          <node concept="2MkqsV" id="63yBSeEY95U" role="3cqZAp">
            <node concept="Xl_RD" id="63yBSeEY95X" role="2MkJ7o">
              <property role="Xl_RC" value="Incompatible number of parameters" />
            </node>
            <node concept="1YBJjd" id="63yBSeEY95Y" role="2OEOjV">
              <ref role="1YBMHb" node="63yBSeEXxJc" resolve="editorOperation" />
            </node>
          </node>
        </node>
        <node concept="3eOVzh" id="63yBSeEY95L" role="3clFbw">
          <node concept="2OqwBi" id="63yBSeEY95P" role="3uHU7w">
            <node concept="37vLTw" id="3GM_nagTBoz" role="2Oq$k0">
              <ref role="3cqZAo" node="63yBSeEXxIr" resolve="parameters" />
            </node>
            <node concept="34oBXx" id="63yBSeEY95T" role="2OqNvi" />
          </node>
          <node concept="2OqwBi" id="63yBSeEY95G" role="3uHU7B">
            <node concept="2OqwBi" id="63yBSeEY95B" role="2Oq$k0">
              <node concept="1YBJjd" id="63yBSeEY95A" role="2Oq$k0">
                <ref role="1YBMHb" node="63yBSeEXxJc" resolve="editorOperation" />
              </node>
              <node concept="3Tsc0h" id="63yBSeEY95F" role="2OqNvi">
                <ref role="3TtcxE" to="fb9u:O$iR4J$g4J" />
              </node>
            </node>
            <node concept="34oBXx" id="63yBSeEY95K" role="2OqNvi" />
          </node>
        </node>
      </node>
    </node>
    <node concept="1YaCAy" id="63yBSeEXxJc" role="1YuTPh">
      <property role="TrG5h" value="editorOperation" />
      <ref role="1YaFvo" to="fb9u:O$iR4J$g4I" resolve="EditorOperationCall" />
    </node>
  </node>
  <node concept="1YbPZF" id="63yBSeEXAqO">
    <property role="TrG5h" value="typeof_Configuration_Parameter" />
    <node concept="3clFbS" id="63yBSeEXAqP" role="18ibNy">
      <node concept="1Z5TYs" id="63yBSeEXAqQ" role="3cqZAp">
        <node concept="mw_s8" id="63yBSeEXAqR" role="1ZfhKB">
          <node concept="2OqwBi" id="L_Hr3kEs0r" role="mwGJk">
            <node concept="2qgKlT" id="L_Hr3kEs0s" role="2OqNvi">
              <ref role="37wK5l" to="hilv:O$iR4J$g1l" resolve="getContextPersistentConfigurationType" />
              <node concept="1YBJjd" id="L_Hr3kEs0t" role="37wK5m">
                <ref role="1YBMHb" node="63yBSeEXAqX" resolve="configurationParameter" />
              </node>
            </node>
            <node concept="3TUQnm" id="L_Hr3kEs0u" role="2Oq$k0">
              <ref role="3TV0OU" to="fb9u:O$iR4J$g0w" resolve="PersistentConfiguration" />
            </node>
          </node>
        </node>
        <node concept="mw_s8" id="63yBSeEXAqU" role="1ZfhK$">
          <node concept="1Z2H0r" id="63yBSeEXAqV" role="mwGJk">
            <node concept="1YBJjd" id="63yBSeEXAqW" role="1Z2MuG">
              <ref role="1YBMHb" node="63yBSeEXAqX" resolve="configurationParameter" />
            </node>
          </node>
        </node>
      </node>
    </node>
    <node concept="1YaCAy" id="63yBSeEXAqX" role="1YuTPh">
      <property role="TrG5h" value="configurationParameter" />
      <ref role="1YaFvo" to="fb9u:O$iR4J$geg" resolve="Configuration_Parameter" />
    </node>
  </node>
  <node concept="2sgARr" id="5QxK6Ad4yYw">
    <property role="TrG5h" value="TemplatePersistentConfigurationIsITemplatePersistentConfigurationClassifier" />
    <property role="3GE5qa" value="template" />
    <node concept="3clFbS" id="5QxK6Ad4yYx" role="2sgrp5">
      <node concept="3cpWs6" id="5QxK6Ad4zkD" role="3cqZAp">
        <node concept="2c44tf" id="5QxK6Ad4zkF" role="3cqZAk">
          <node concept="3uibUv" id="1X8FusB82aT" role="2c44tc">
            <ref role="3uigEE" to="ic0f:3oW7HLfqDre" resolve="ITemplatePersistentConfiguration" />
          </node>
        </node>
      </node>
    </node>
    <node concept="1YaCAy" id="5QxK6Ad4yYy" role="1YuTPh">
      <property role="TrG5h" value="templatePersistentConfigurationType" />
      <ref role="1YaFvo" to="fb9u:O$iR4J$g3X" resolve="TemplatePersistentConfigurationType" />
    </node>
  </node>
  <node concept="2sgARr" id="5QxK6Ad4_Da">
    <property role="2RFo0w" value="true" />
    <property role="TrG5h" value="TemplatePersistentConfigurationTypeIsTemplatePersistentConfiguration" />
    <property role="3GE5qa" value="template" />
    <node concept="3clFbS" id="5QxK6Ad4_Db" role="2sgrp5">
      <node concept="3cpWs6" id="5QxK6Ad4AOk" role="3cqZAp">
        <node concept="2pJPEk" id="2F8bNQsIPI" role="3cqZAk">
          <node concept="2pJPED" id="2F8bNQsIPH" role="2pJPEn">
            <ref role="2pJxaS" to="fb9u:O$iR4J$g3X" resolve="TemplatePersistentConfigurationType" />
          </node>
        </node>
      </node>
    </node>
    <node concept="1YaCAy" id="5QxK6Ad4_Dc" role="1YuTPh">
      <property role="TrG5h" value="templatePersistentConfigurationType" />
      <ref role="1YaFvo" to="fb9u:O$iR4J$g3X" resolve="TemplatePersistentConfigurationType" />
    </node>
  </node>
  <node concept="1YbPZF" id="2n8I3DYjuYj">
    <property role="TrG5h" value="typeof_GridBagConstraints" />
    <property role="3GE5qa" value="editor.ui" />
    <node concept="3clFbS" id="2n8I3DYjuYk" role="18ibNy">
      <node concept="1Z5TYs" id="2n8I3DYjuYq" role="3cqZAp">
        <node concept="mw_s8" id="2n8I3DYjuYu" role="1ZfhKB">
          <node concept="2c44tf" id="2n8I3DYjuYv" role="mwGJk">
            <node concept="3uibUv" id="2n8I3DYjuYy" role="2c44tc">
              <ref role="3uigEE" to="z60i:~GridBagConstraints" resolve="GridBagConstraints" />
            </node>
          </node>
        </node>
        <node concept="mw_s8" id="2n8I3DYjuYt" role="1ZfhK$">
          <node concept="1Z2H0r" id="2n8I3DYjuYn" role="mwGJk">
            <node concept="1YBJjd" id="2n8I3DYjuYp" role="1Z2MuG">
              <ref role="1YBMHb" node="2n8I3DYjuYl" resolve="gridBagConstraints" />
            </node>
          </node>
        </node>
      </node>
      <node concept="2NvLDW" id="1RNUzzI3z8w" role="3cqZAp">
        <property role="Ob790" value="0" />
        <node concept="mw_s8" id="1RNUzzI3z8x" role="1ZfhK$">
          <node concept="1Z2H0r" id="1RNUzzI3z8y" role="mwGJk">
            <node concept="2OqwBi" id="1RNUzzI3z8z" role="1Z2MuG">
              <node concept="1YBJjd" id="1RNUzzI3z8$" role="2Oq$k0">
                <ref role="1YBMHb" node="2n8I3DYjuYl" resolve="gridBagConstraints" />
              </node>
              <node concept="3TrEf2" id="1RNUzzI3z8_" role="2OqNvi">
                <ref role="3Tt5mk" to="fb9u:2n8I3DYjA96" />
              </node>
            </node>
          </node>
        </node>
        <node concept="mw_s8" id="1RNUzzI3z8A" role="1ZfhKB">
          <node concept="2c44tf" id="1RNUzzI3z8B" role="mwGJk">
            <node concept="2usRSg" id="1RNUzzI3z8C" role="2c44tc">
              <node concept="10Oyi0" id="1RNUzzI3z8D" role="2usUpS" />
              <node concept="3uibUv" id="1RNUzzI3z8E" role="2usUpS">
                <ref role="3uigEE" to="wyt6:~Integer" resolve="Integer" />
              </node>
            </node>
          </node>
        </node>
      </node>
    </node>
    <node concept="1YaCAy" id="2n8I3DYjuYl" role="1YuTPh">
      <property role="TrG5h" value="gridBagConstraints" />
      <ref role="1YaFvo" to="fb9u:2n8I3DYiVi8" resolve="GridBagConstraints" />
    </node>
  </node>
  <node concept="2sgARr" id="1glKvNTAkm4">
    <property role="TrG5h" value="PersistentConfigurationIsObject" />
    <node concept="3clFbS" id="1glKvNTAkm5" role="2sgrp5">
      <node concept="3cpWs6" id="1glKvNTAkm7" role="3cqZAp">
        <node concept="2c44tf" id="1glKvNTAkm9" role="3cqZAk">
          <node concept="3uibUv" id="1glKvNTAkmc" role="2c44tc">
            <ref role="3uigEE" to="wyt6:~Object" resolve="Object" />
          </node>
        </node>
      </node>
    </node>
    <node concept="1YaCAy" id="1glKvNTAkm6" role="1YuTPh">
      <property role="TrG5h" value="configurationType" />
      <ref role="1YaFvo" to="fb9u:O$iR4J$g0s" resolve="PersistentConfigurationType" />
    </node>
  </node>
</model>

