<?xml version="1.0" encoding="UTF-8"?>
<model ref="r:0c365ddc-206e-4ac6-a508-02b1e8512b59(jetbrains.mps.lang.editor.menus.substitute.testExtendingLanguage.structure)">
  <persistence version="9" />
  <languages>
    <use id="c72da2b9-7cce-4447-8389-f407dc1158b7" name="jetbrains.mps.lang.structure" version="3" />
    <devkit ref="fbc25dd2-5da4-483a-8b19-70928e1b62d7(jetbrains.mps.devkit.general-purpose)" />
  </languages>
  <imports />
  <registry />
</model>

