<?xml version="1.0" encoding="UTF-8"?>
<model ref="r:eb0b6cd1-0bdf-4a1a-8733-63a29997aa32(jetbrains.mps.lang.editor.menus.substitute.testExtendingLanguage.typesystem)">
  <persistence version="9" />
  <languages>
    <use id="7a5dda62-9140-4668-ab76-d5ed1746f2b2" name="jetbrains.mps.lang.typesystem" version="0" />
    <devkit ref="fbc25dd2-5da4-483a-8b19-70928e1b62d7(jetbrains.mps.devkit.general-purpose)" />
  </languages>
  <imports />
  <registry />
</model>

