<?xml version="1.0" encoding="UTF-8"?>
<model ref="r:808f1f1e-f967-49c8-941b-338ff6a3fd2d(jetbrains.mps.lang.editor.menus.testExtendingLanguage.behavior)">
  <persistence version="9" />
  <languages>
    <use id="af65afd8-f0dd-4942-87d9-63a55f2a9db1" name="jetbrains.mps.lang.behavior" version="0" />
    <devkit ref="fbc25dd2-5da4-483a-8b19-70928e1b62d7(jetbrains.mps.devkit.general-purpose)" />
  </languages>
  <imports />
  <registry />
</model>

