<?xml version="1.0" encoding="UTF-8"?>
<model ref="r:bb453d77-eb85-42b8-93b6-78b580d8b4d0(jetbrains.mps.lang.editor.menus.testExtendingLanguage.typesystem)">
  <persistence version="9" />
  <languages>
    <use id="7a5dda62-9140-4668-ab76-d5ed1746f2b2" name="jetbrains.mps.lang.typesystem" version="0" />
    <devkit ref="fbc25dd2-5da4-483a-8b19-70928e1b62d7(jetbrains.mps.devkit.general-purpose)" />
  </languages>
  <imports />
  <registry />
</model>

