<?xml version="1.0" encoding="UTF-8"?>
<model ref="r:377d10f7-3b25-4fc8-965d-ff71d05a8c05(jetbrains.mps.debugger.java.evaluation.textGen)">
  <persistence version="9" />
  <languages>
    <use id="b83431fe-5c8f-40bc-8a36-65e25f4dd253" name="jetbrains.mps.lang.textGen" version="0" />
    <use id="f3061a53-9226-4cc5-a443-f952ceaf5816" name="jetbrains.mps.baseLanguage" version="4" />
    <devkit ref="fbc25dd2-5da4-483a-8b19-70928e1b62d7(jetbrains.mps.devkit.general-purpose)" />
  </languages>
  <imports>
    <import index="8sls" ref="r:3a27a6eb-dfce-419d-9e4c-ca44cc01a2e2(jetbrains.mps.debugger.java.evaluation.structure)" />
    <import index="dmyu" ref="r:c6eeedda-084d-4659-9c4d-80b7768f2bb2(jetbrains.mps.baseLanguage.textGen)" />
  </imports>
  <registry>
    <language id="f3061a53-9226-4cc5-a443-f952ceaf5816" name="jetbrains.mps.baseLanguage">
      <concept id="1137021947720" name="jetbrains.mps.baseLanguage.structure.ConceptFunction" flags="in" index="2VMwT0">
        <child id="1137022507850" name="body" index="2VODD2" />
      </concept>
      <concept id="1068580123136" name="jetbrains.mps.baseLanguage.structure.StatementList" flags="sn" stub="5293379017992965193" index="3clFbS" />
    </language>
    <language id="b83431fe-5c8f-40bc-8a36-65e25f4dd253" name="jetbrains.mps.lang.textGen">
      <concept id="1233670071145" name="jetbrains.mps.lang.textGen.structure.ConceptTextGenDeclaration" flags="ig" index="WtQ9Q">
        <reference id="1233670257997" name="conceptDeclaration" index="WuzLi" />
        <child id="1233749296504" name="textGenBlock" index="11c4hB" />
      </concept>
      <concept id="1233749247888" name="jetbrains.mps.lang.textGen.structure.GenerateTextDeclaration" flags="in" index="11bSqf" />
      <concept id="1233921373471" name="jetbrains.mps.lang.textGen.structure.LanguageTextGenDeclaration" flags="ig" index="1bsvg0">
        <reference id="1234781160172" name="baseTextGen" index="1YGkfN" />
      </concept>
    </language>
    <language id="ceab5195-25ea-4f22-9b92-103b95ca8c0c" name="jetbrains.mps.lang.core">
      <concept id="1133920641626" name="jetbrains.mps.lang.core.structure.BaseConcept" flags="ng" index="2VYdi">
        <property id="1193676396447" name="virtualPackage" index="3GE5qa" />
      </concept>
      <concept id="1169194658468" name="jetbrains.mps.lang.core.structure.INamedConcept" flags="ng" index="TrEIO">
        <property id="1169194664001" name="name" index="TrG5h" />
      </concept>
    </language>
  </registry>
  <node concept="WtQ9Q" id="OEyzfTAyzE">
    <property role="3GE5qa" value="old" />
    <ref role="WuzLi" to="8sls:5f51wLF6d$A" resolve="LowLevelVariable" />
    <node concept="11bSqf" id="OEyzfTAyzF" role="11c4hB">
      <node concept="3clFbS" id="OEyzfTAyzG" role="2VODD2" />
    </node>
  </node>
  <node concept="1bsvg0" id="OEyzfTAyCl">
    <property role="TrG5h" value="EvaluationTextGen" />
    <ref role="1YGkfN" to="dmyu:hXZ_k_W" resolve="BaseLanguageTextGen" />
  </node>
</model>

