<?xml version="1.0" encoding="UTF-8"?>
<model ref="r:00000000-0000-4000-0000-011c89590283(jetbrains.mps.lang.core.constraints)">
  <persistence version="9" />
  <languages>
    <use id="3f4bc5f5-c6c1-4a28-8b10-c83066ffa4a1" name="jetbrains.mps.lang.constraints" version="0" />
    <use id="7866978e-a0f0-4cc7-81bc-4d213d9375e1" name="jetbrains.mps.lang.smodel" version="4" />
    <use id="f3061a53-9226-4cc5-a443-f952ceaf5816" name="jetbrains.mps.baseLanguage" version="4" />
    <devkit ref="fbc25dd2-5da4-483a-8b19-70928e1b62d7(jetbrains.mps.devkit.general-purpose)" />
  </languages>
  <imports>
    <import index="tpck" ref="r:00000000-0000-4000-0000-011c89590288(jetbrains.mps.lang.core.structure)" />
    <import index="mhbf" ref="8865b7a8-5271-43d3-884c-6fd1d9cfdd34/java:org.jetbrains.mps.openapi.model(MPS.OpenAPI/)" />
  </imports>
  <registry>
    <language id="f3061a53-9226-4cc5-a443-f952ceaf5816" name="jetbrains.mps.baseLanguage">
      <concept id="1202948039474" name="jetbrains.mps.baseLanguage.structure.InstanceMethodCallOperation" flags="nn" index="liA8E" />
      <concept id="1197027756228" name="jetbrains.mps.baseLanguage.structure.DotExpression" flags="nn" index="2OqwBi">
        <child id="1197027771414" name="operand" index="2Oq$k0" />
        <child id="1197027833540" name="operation" index="2OqNvi" />
      </concept>
      <concept id="1137021947720" name="jetbrains.mps.baseLanguage.structure.ConceptFunction" flags="in" index="2VMwT0">
        <child id="1137022507850" name="body" index="2VODD2" />
      </concept>
      <concept id="1068580123136" name="jetbrains.mps.baseLanguage.structure.StatementList" flags="sn" stub="5293379017992965193" index="3clFbS">
        <child id="1068581517665" name="statement" index="3cqZAp" />
      </concept>
      <concept id="1068581242878" name="jetbrains.mps.baseLanguage.structure.ReturnStatement" flags="nn" index="3cpWs6">
        <child id="1068581517676" name="expression" index="3cqZAk" />
      </concept>
      <concept id="1204053956946" name="jetbrains.mps.baseLanguage.structure.IMethodCall" flags="ng" index="1ndlxa">
        <reference id="1068499141037" name="baseMethodDeclaration" index="37wK5l" />
      </concept>
      <concept id="6329021646629104957" name="jetbrains.mps.baseLanguage.structure.TextCommentPart" flags="nn" index="3SKdUq">
        <property id="6329021646629104958" name="text" index="3SKdUp" />
      </concept>
      <concept id="6329021646629104954" name="jetbrains.mps.baseLanguage.structure.SingleLineComment" flags="nn" index="3SKdUt">
        <child id="6329021646629175155" name="commentPart" index="3SKWNk" />
      </concept>
    </language>
    <language id="3f4bc5f5-c6c1-4a28-8b10-c83066ffa4a1" name="jetbrains.mps.lang.constraints">
      <concept id="1147467115080" name="jetbrains.mps.lang.constraints.structure.NodePropertyConstraint" flags="ng" index="EnEH3">
        <reference id="1147467295099" name="applicableProperty" index="EomxK" />
        <child id="1147468630220" name="propertyGetter" index="EtsB7" />
        <child id="1152963095733" name="propertySetter" index="1LXaQT" />
      </concept>
      <concept id="1147467790433" name="jetbrains.mps.lang.constraints.structure.ConstraintFunction_PropertyGetter" flags="in" index="Eqf_E" />
      <concept id="1147468365020" name="jetbrains.mps.lang.constraints.structure.ConstraintsFunctionParameter_node" flags="nn" index="EsrRn" />
      <concept id="1152959968041" name="jetbrains.mps.lang.constraints.structure.ConstraintFunction_PropertySetter" flags="in" index="1LLf8_" />
      <concept id="1213093968558" name="jetbrains.mps.lang.constraints.structure.ConceptConstraints" flags="ng" index="1M2fIO">
        <reference id="1213093996982" name="concept" index="1M2myG" />
        <child id="1213098023997" name="property" index="1MhHOB" />
      </concept>
    </language>
    <language id="7866978e-a0f0-4cc7-81bc-4d213d9375e1" name="jetbrains.mps.lang.smodel">
      <concept id="1145404486709" name="jetbrains.mps.lang.smodel.structure.SemanticDowncastExpression" flags="nn" index="2JrnkZ">
        <child id="1145404616321" name="leftExpression" index="2JrQYb" />
      </concept>
    </language>
  </registry>
  <node concept="1M2fIO" id="hDMFLMr">
    <ref role="1M2myG" to="tpck:gw2VY9q" resolve="BaseConcept" />
  </node>
  <node concept="1M2fIO" id="hDMFLVS">
    <ref role="1M2myG" to="tpck:hqLv6T6" resolve="IResolveInfo" />
    <node concept="EnEH3" id="hDMFLVT" role="1MhHOB">
      <ref role="EomxK" to="tpck:hqLvdgl" resolve="resolveInfo" />
      <node concept="Eqf_E" id="hDMFLVU" role="EtsB7">
        <node concept="3clFbS" id="hDMFLVV" role="2VODD2">
          <node concept="3cpWs6" id="hDMFLVW" role="3cqZAp">
            <node concept="2OqwBi" id="hDMFLVX" role="3cqZAk">
              <node concept="2JrnkZ" id="hDMFLVY" role="2Oq$k0">
                <node concept="EsrRn" id="hDMFLVZ" role="2JrQYb" />
              </node>
              <node concept="liA8E" id="hDMFLW0" role="2OqNvi">
                <ref role="37wK5l" to="mhbf:~SNode.getName():java.lang.String" resolve="getName" />
              </node>
            </node>
          </node>
        </node>
      </node>
      <node concept="1LLf8_" id="hDMFLW1" role="1LXaQT">
        <node concept="3clFbS" id="hDMFLW2" role="2VODD2">
          <node concept="3SKdUt" id="6pumIWoCG65" role="3cqZAp">
            <node concept="3SKdUq" id="6pumIWoCG66" role="3SKWNk">
              <property role="3SKdUp" value="nothing - resolveInfo is read-only" />
            </node>
          </node>
        </node>
      </node>
    </node>
  </node>
</model>

