<?xml version="1.0" encoding="UTF-8"?>
<model ref="r:00000000-0000-4000-0000-011c89590284(jetbrains.mps.lang.core.editor)">
  <persistence version="9" />
  <languages>
    <use id="18bc6592-03a6-4e29-a83a-7ff23bde13ba" name="jetbrains.mps.lang.editor" version="3" />
    <use id="774bf8a0-62e5-41e1-af63-f4812e60e48b" name="jetbrains.mps.baseLanguage.checkedDots" version="0" />
    <devkit ref="fbc25dd2-5da4-483a-8b19-70928e1b62d7(jetbrains.mps.devkit.general-purpose)" />
  </languages>
  <imports>
    <import index="tpck" ref="r:00000000-0000-4000-0000-011c89590288(jetbrains.mps.lang.core.structure)" />
    <import index="unno" ref="r:61e3d524-8c49-4491-b5e3-f6d6e9364527(jetbrains.mps.util)" />
    <import index="b3bi" ref="1ed103c3-3aa6-49b7-9c21-6765ee11f224/java:jetbrains.mps.editor.runtime.impl.cellActions(MPS.Editor/)" />
    <import index="wcxw" ref="r:b9f36c08-4a75-4513-9277-a390d3426e0f(jetbrains.mps.editor.runtime.impl.cellActions)" />
    <import index="5b0" ref="6ed54515-acc8-4d1e-a16c-9fd6cfe951ea/java:jetbrains.mps.smodel.presentation(MPS.Core/)" />
    <import index="c17a" ref="8865b7a8-5271-43d3-884c-6fd1d9cfdd34/java:org.jetbrains.mps.openapi.language(MPS.OpenAPI/)" />
    <import index="wyt6" ref="6354ebe7-c22a-4a0f-ac54-50b52ab9b065/java:java.lang(JDK/)" />
    <import index="18ew" ref="6ed54515-acc8-4d1e-a16c-9fd6cfe951ea/java:jetbrains.mps.util(MPS.Core/)" />
    <import index="y4ob" ref="1ed103c3-3aa6-49b7-9c21-6765ee11f224/java:jetbrains.mps.nodeEditor.menus(MPS.Editor/)" />
    <import index="vndm" ref="6ed54515-acc8-4d1e-a16c-9fd6cfe951ea/java:jetbrains.mps.smodel.language(MPS.Core/)" />
    <import index="ze1i" ref="6ed54515-acc8-4d1e-a16c-9fd6cfe951ea/java:jetbrains.mps.smodel.runtime(MPS.Core/)" />
    <import index="tpce" ref="r:00000000-0000-4000-0000-011c89590292(jetbrains.mps.lang.structure.structure)" implicit="true" />
    <import index="mhbf" ref="8865b7a8-5271-43d3-884c-6fd1d9cfdd34/java:org.jetbrains.mps.openapi.model(MPS.OpenAPI/)" implicit="true" />
  </imports>
  <registry>
    <language id="18bc6592-03a6-4e29-a83a-7ff23bde13ba" name="jetbrains.mps.lang.editor">
      <concept id="1402906326895675325" name="jetbrains.mps.lang.editor.structure.CellActionMap_FunctionParm_selectedNode" flags="nn" index="0IXxy" />
      <concept id="2000375450116454183" name="jetbrains.mps.lang.editor.structure.ISubstituteMenu" flags="ng" index="22mbnS">
        <child id="414384289274416996" name="parts" index="3ft7WO" />
      </concept>
      <concept id="540685334799947899" name="jetbrains.mps.lang.editor.structure.SubstituteMenuVariableDeclaration" flags="ig" index="23wRS9">
        <child id="540685334802085316" name="initializerBlock" index="23DdeQ" />
      </concept>
      <concept id="540685334799947902" name="jetbrains.mps.lang.editor.structure.SubstituteMenuVariableReference" flags="ng" index="23wRSc" />
      <concept id="540685334802085318" name="jetbrains.mps.lang.editor.structure.QueryFunction_SubstituteMenuVariable_Initializer" flags="ig" index="23DdeO" />
      <concept id="1071666914219" name="jetbrains.mps.lang.editor.structure.ConceptEditorDeclaration" flags="ig" index="24kQdi">
        <child id="1078153129734" name="inspectedCellModel" index="6VMZX" />
        <child id="2597348684684069742" name="contextHints" index="CpUAK" />
      </concept>
      <concept id="6822301196700715228" name="jetbrains.mps.lang.editor.structure.ConceptEditorHintDeclarationReference" flags="ig" index="2aJ2om">
        <reference id="5944657839026714445" name="hint" index="2$4xQ3" />
      </concept>
      <concept id="3459162043708467089" name="jetbrains.mps.lang.editor.structure.CellActionMap_CanExecuteFunction" flags="in" index="jK8Ss" />
      <concept id="1237303669825" name="jetbrains.mps.lang.editor.structure.CellLayout_Indent" flags="nn" index="l2Vlx" />
      <concept id="2491174914159318432" name="jetbrains.mps.lang.editor.structure.DominatesRecord" flags="lg" index="2lhJJ2" />
      <concept id="1237308012275" name="jetbrains.mps.lang.editor.structure.IndentLayoutNewLineStyleClassItem" flags="ln" index="ljvvj" />
      <concept id="1142886811589" name="jetbrains.mps.lang.editor.structure.ConceptFunctionParameter_node" flags="nn" index="pncrf" />
      <concept id="8478191136886962269" name="jetbrains.mps.lang.editor.structure.SubstituteFeature_Icon" flags="ng" index="pEUQQ">
        <child id="8478191136886962270" name="query" index="pEUQP" />
      </concept>
      <concept id="8478191136886971898" name="jetbrains.mps.lang.editor.structure.QueryFunction_SubstituteMenu_Icon" flags="in" index="pEWwh" />
      <concept id="4820515453818318288" name="jetbrains.mps.lang.editor.structure.ConceptEditorHintDeclarationReferenceExpression" flags="ng" index="2pYGij">
        <reference id="4820515453818318891" name="hint" index="2pYH_C" />
      </concept>
      <concept id="1177327570013" name="jetbrains.mps.lang.editor.structure.QueryFunction_SubstituteMenu_Substitute" flags="in" index="ucgPf" />
      <concept id="7671875129586001610" name="jetbrains.mps.lang.editor.structure.TransformationMenuPart_IncludeSubstituteMenu" flags="ng" index="ulPW2" />
      <concept id="8478191136883534237" name="jetbrains.mps.lang.editor.structure.IExtensibleSubstituteMenuPart" flags="ng" index="upBLQ">
        <child id="8478191136883534238" name="features" index="upBLP" />
      </concept>
      <concept id="1177335944525" name="jetbrains.mps.lang.editor.structure.QueryFunction_SubstituteMenu_SubstituteString" flags="in" index="uGdhv" />
      <concept id="4242538589859161874" name="jetbrains.mps.lang.editor.structure.ExplicitHintsSpecification" flags="ng" index="2w$q5c">
        <child id="4242538589859162459" name="hints" index="2w$qW5" />
      </concept>
      <concept id="1080736578640" name="jetbrains.mps.lang.editor.structure.BaseEditorComponent" flags="ig" index="2wURMF">
        <child id="1080736633877" name="cellModel" index="2wV5jI" />
      </concept>
      <concept id="8371900013785948369" name="jetbrains.mps.lang.editor.structure.QueryFunction_SubstituteMenu_Parameter" flags="ig" index="2$S_p_" />
      <concept id="5944657839000868711" name="jetbrains.mps.lang.editor.structure.ConceptEditorContextHints" flags="ig" index="2ABfQD">
        <child id="5944657839000877563" name="hints" index="2ABdcP" />
      </concept>
      <concept id="2857509971901907635" name="jetbrains.mps.lang.editor.structure.QueryFunction_SubstituteMenu_Concepts" flags="ig" index="AZAyt" />
      <concept id="5944657839003601246" name="jetbrains.mps.lang.editor.structure.ConceptEditorHintDeclaration" flags="ig" index="2BsEeg">
        <property id="5944657839012629576" name="presentation" index="2BUmq6" />
      </concept>
      <concept id="8383079901754291618" name="jetbrains.mps.lang.editor.structure.CellModel_NextEditor" flags="ng" index="B$lHz">
        <child id="8383079901754291620" name="removeHints" index="B$lH_" />
      </concept>
      <concept id="308059530142752797" name="jetbrains.mps.lang.editor.structure.SubstituteMenuPart_Parameterized" flags="ng" index="2F$Pav">
        <child id="8371900013785948359" name="part" index="2$S_pN" />
        <child id="8371900013785948365" name="parameterQuery" index="2$S_pT" />
      </concept>
      <concept id="6150987479542522273" name="jetbrains.mps.lang.editor.structure.QueryHintsSpecification" flags="ig" index="2Hnlc$" />
      <concept id="1638911550608571617" name="jetbrains.mps.lang.editor.structure.TransformationMenu_Default" flags="ng" index="IW6AY" />
      <concept id="4151393920374910634" name="jetbrains.mps.lang.editor.structure.StyleKey" flags="ng" index="2NdhxG" />
      <concept id="4151393920374910722" name="jetbrains.mps.lang.editor.structure.StyleKeyPack" flags="ng" index="2NdhB4">
        <child id="4151393920375014512" name="styleKey" index="2NdZaQ" />
      </concept>
      <concept id="1078938745671" name="jetbrains.mps.lang.editor.structure.EditorComponentDeclaration" flags="ig" index="PKFIW" />
      <concept id="1078939183254" name="jetbrains.mps.lang.editor.structure.CellModel_Component" flags="sg" stub="3162947552742194261" index="PMmxH">
        <reference id="1078939183255" name="editorComponent" index="PMmxG" />
      </concept>
      <concept id="4323500428121233431" name="jetbrains.mps.lang.editor.structure.EditorCellId" flags="ng" index="2SqB2G" />
      <concept id="1149850725784" name="jetbrains.mps.lang.editor.structure.CellModel_AttributedNodeCell" flags="ng" index="2SsqMj" />
      <concept id="1186402211651" name="jetbrains.mps.lang.editor.structure.StyleSheet" flags="ng" index="V5hpn">
        <child id="1186402402630" name="styleClass" index="V601i" />
      </concept>
      <concept id="1186403751766" name="jetbrains.mps.lang.editor.structure.FontStyleStyleClassItem" flags="ln" index="Vb9p2">
        <property id="1186403771423" name="style" index="Vbekb" />
      </concept>
      <concept id="1186414536763" name="jetbrains.mps.lang.editor.structure.BooleanStyleSheetItem" flags="ln" index="VOi$J">
        <property id="1186414551515" name="flag" index="VOm3f" />
        <child id="1223387335081" name="query" index="3n$kyP" />
      </concept>
      <concept id="1630016958697344083" name="jetbrains.mps.lang.editor.structure.IMenu_Concept" flags="ng" index="2ZABuq">
        <reference id="6591946374543067572" name="conceptDeclaration" index="aqKnT" />
      </concept>
      <concept id="1630016958697286851" name="jetbrains.mps.lang.editor.structure.QueryFunctionParameter_parameterObject" flags="ng" index="2ZBlsa" />
      <concept id="1630016958697057551" name="jetbrains.mps.lang.editor.structure.IMenuPartParameterized" flags="ng" index="2ZBHr6">
        <child id="1630016958697057552" name="parameterType" index="2ZBHrp" />
      </concept>
      <concept id="1233758997495" name="jetbrains.mps.lang.editor.structure.PunctuationLeftStyleClassItem" flags="ln" index="11L4FC" />
      <concept id="1233759184865" name="jetbrains.mps.lang.editor.structure.PunctuationRightStyleClassItem" flags="ln" index="11LMrY" />
      <concept id="3383245079137382180" name="jetbrains.mps.lang.editor.structure.StyleClass" flags="ig" index="14StLt">
        <child id="3383245079137422296" name="dominates" index="14Sbyx" />
      </concept>
      <concept id="8998492695583125082" name="jetbrains.mps.lang.editor.structure.SubstituteFeature_MatchingText" flags="ng" index="16NfWO">
        <child id="8998492695583129244" name="query" index="16NeZM" />
      </concept>
      <concept id="8998492695583129971" name="jetbrains.mps.lang.editor.structure.SubstituteFeature_DescriptionText" flags="ng" index="16NL0t">
        <child id="8998492695583129972" name="query" index="16NL0q" />
      </concept>
      <concept id="1154465273778" name="jetbrains.mps.lang.editor.structure.QueryFunctionParameter_SubstituteMenu_ParentNode" flags="nn" index="3bvxqY" />
      <concept id="7342352913006985500" name="jetbrains.mps.lang.editor.structure.TransformationLocation_Completion" flags="ng" index="3eGOoe" />
      <concept id="7342352913006985483" name="jetbrains.mps.lang.editor.structure.SubstituteMenuPart_Action" flags="ng" index="3eGOop">
        <child id="8612453216082699922" name="substituteHandler" index="3aKz83" />
      </concept>
      <concept id="414384289274418283" name="jetbrains.mps.lang.editor.structure.SubstituteMenuPart_Group" flags="ng" index="3ft6gV">
        <child id="540685334802084769" name="variables" index="23Ddnj" />
        <child id="414384289274424750" name="condition" index="3ft5RY" />
        <child id="414384289274424751" name="parts" index="3ft5RZ" />
      </concept>
      <concept id="414384289274418284" name="jetbrains.mps.lang.editor.structure.QueryFunction_SubstituteMenu_Condition" flags="ig" index="3ft6gW" />
      <concept id="1139535219966" name="jetbrains.mps.lang.editor.structure.CellActionMapDeclaration" flags="ig" index="1h_SRR">
        <reference id="1139535219968" name="applicableConcept" index="1h_SK9" />
        <child id="1139535219969" name="item" index="1h_SK8" />
      </concept>
      <concept id="1139535280617" name="jetbrains.mps.lang.editor.structure.CellActionMapItem" flags="lg" index="1hA7zw">
        <property id="1139535298778" name="actionId" index="1hAc7j" />
        <property id="1139537298254" name="description" index="1hHO97" />
        <child id="3459162043708468028" name="canExecuteFunction" index="jK8aL" />
        <child id="1139535280620" name="executeFunction" index="1hA7z_" />
      </concept>
      <concept id="1139535439104" name="jetbrains.mps.lang.editor.structure.CellActionMap_ExecuteFunction" flags="in" index="1hAIg9" />
      <concept id="1381004262292414836" name="jetbrains.mps.lang.editor.structure.ICellStyle" flags="ng" index="1k5N5V">
        <reference id="1381004262292426837" name="parentStyleClass" index="1k5W1q" />
      </concept>
      <concept id="1236262245656" name="jetbrains.mps.lang.editor.structure.MatchingLabelStyleClassItem" flags="ln" index="3mYdg7">
        <property id="1238091709220" name="labelName" index="1413C4" />
      </concept>
      <concept id="1223387125302" name="jetbrains.mps.lang.editor.structure.QueryFunction_Boolean" flags="in" index="3nzxsE" />
      <concept id="3308396621974580100" name="jetbrains.mps.lang.editor.structure.SubstituteMenu_Default" flags="ng" index="3p36aQ" />
      <concept id="5329678514806335510" name="jetbrains.mps.lang.editor.structure.SubstituteMenuPart_Concepts" flags="ng" index="1rTJD9">
        <child id="2857509971901910028" name="concepts" index="AZAoy" />
      </concept>
      <concept id="9122903797312246523" name="jetbrains.mps.lang.editor.structure.StyleReference" flags="ng" index="1wgc9g">
        <reference id="9122903797312247166" name="style" index="1wgcnl" />
      </concept>
      <concept id="5425882385312046132" name="jetbrains.mps.lang.editor.structure.QueryFunctionParameter_SubstituteMenu_CurrentTargetNode" flags="nn" index="1yR$tW" />
      <concept id="1139848536355" name="jetbrains.mps.lang.editor.structure.CellModel_WithRole" flags="ng" index="1$h60E">
        <property id="1139852716018" name="noTargetText" index="1$x2rV" />
        <property id="1140114345053" name="allowEmptyText" index="1O74Pk" />
        <reference id="1140103550593" name="relationDeclaration" index="1NtTu8" />
      </concept>
      <concept id="1073389214265" name="jetbrains.mps.lang.editor.structure.EditorCellModel" flags="ng" index="3EYTF0">
        <property id="1130859485024" name="attractsFocus" index="1cu_pB" />
        <reference id="1139959269582" name="actionMap" index="1ERwB7" />
        <child id="4323500428121274054" name="id" index="2SqHTX" />
      </concept>
      <concept id="1073389446423" name="jetbrains.mps.lang.editor.structure.CellModel_Collection" flags="sn" stub="3013115976261988961" index="3EZMnI">
        <child id="1106270802874" name="cellLayout" index="2iSdaV" />
        <child id="1073389446424" name="childCellModel" index="3EZMnx" />
      </concept>
      <concept id="1073389577006" name="jetbrains.mps.lang.editor.structure.CellModel_Constant" flags="sn" stub="3610246225209162225" index="3F0ifn">
        <property id="1073389577007" name="text" index="3F0ifm" />
      </concept>
      <concept id="1073389658414" name="jetbrains.mps.lang.editor.structure.CellModel_Property" flags="sg" stub="730538219796134133" index="3F0A7n" />
      <concept id="1219418625346" name="jetbrains.mps.lang.editor.structure.IStyleContainer" flags="ng" index="3F0Thp">
        <child id="1219418656006" name="styleItem" index="3F10Kt" />
      </concept>
      <concept id="1073389882823" name="jetbrains.mps.lang.editor.structure.CellModel_RefNode" flags="sg" stub="730538219795960754" index="3F1sOY">
        <child id="5861024100072578575" name="addHints" index="3xwHhi" />
      </concept>
      <concept id="1225898583838" name="jetbrains.mps.lang.editor.structure.ReadOnlyModelAccessor" flags="ng" index="1HfYo3">
        <child id="1225898971709" name="getter" index="1Hhtcw" />
      </concept>
      <concept id="1225900081164" name="jetbrains.mps.lang.editor.structure.CellModel_ReadOnlyModelAccessor" flags="sg" stub="3708815482283559694" index="1HlG4h">
        <child id="1225900141900" name="modelAccessor" index="1HlULh" />
      </concept>
      <concept id="5624877018228267058" name="jetbrains.mps.lang.editor.structure.ITransformationMenu" flags="ng" index="3INCJE">
        <child id="1638911550608572412" name="sections" index="IW6Ez" />
      </concept>
      <concept id="1161622981231" name="jetbrains.mps.lang.editor.structure.ConceptFunctionParameter_editorContext" flags="nn" index="1Q80Hx" />
      <concept id="7980428675268276156" name="jetbrains.mps.lang.editor.structure.TransformationMenuSection" flags="ng" index="1Qtc8_">
        <child id="7980428675268276157" name="locations" index="1Qtc8$" />
        <child id="7980428675268276159" name="parts" index="1Qtc8A" />
      </concept>
      <concept id="1176717841777" name="jetbrains.mps.lang.editor.structure.QueryFunction_ModelAccess_Getter" flags="in" index="3TQlhw" />
      <concept id="1950447826681509042" name="jetbrains.mps.lang.editor.structure.ApplyStyleClass" flags="lg" index="3Xmtl4">
        <child id="1950447826683828796" name="target" index="3XvnJa" />
      </concept>
      <concept id="1166049232041" name="jetbrains.mps.lang.editor.structure.AbstractComponent" flags="ng" index="1XWOmA">
        <reference id="1166049300910" name="conceptDeclaration" index="1XX52x" />
      </concept>
    </language>
    <language id="f3061a53-9226-4cc5-a443-f952ceaf5816" name="jetbrains.mps.baseLanguage">
      <concept id="1080223426719" name="jetbrains.mps.baseLanguage.structure.OrExpression" flags="nn" index="22lmx$" />
      <concept id="1202948039474" name="jetbrains.mps.baseLanguage.structure.InstanceMethodCallOperation" flags="nn" index="liA8E" />
      <concept id="1197027756228" name="jetbrains.mps.baseLanguage.structure.DotExpression" flags="nn" index="2OqwBi">
        <child id="1197027771414" name="operand" index="2Oq$k0" />
        <child id="1197027833540" name="operation" index="2OqNvi" />
      </concept>
      <concept id="1145552977093" name="jetbrains.mps.baseLanguage.structure.GenericNewExpression" flags="nn" index="2ShNRf">
        <child id="1145553007750" name="creator" index="2ShVmc" />
      </concept>
      <concept id="1137021947720" name="jetbrains.mps.baseLanguage.structure.ConceptFunction" flags="in" index="2VMwT0">
        <child id="1137022507850" name="body" index="2VODD2" />
      </concept>
      <concept id="1070475926800" name="jetbrains.mps.baseLanguage.structure.StringLiteral" flags="nn" index="Xl_RD">
        <property id="1070475926801" name="value" index="Xl_RC" />
      </concept>
      <concept id="1081236700937" name="jetbrains.mps.baseLanguage.structure.StaticMethodCall" flags="nn" index="2YIFZM">
        <reference id="1144433194310" name="classConcept" index="1Pybhc" />
      </concept>
      <concept id="1070534644030" name="jetbrains.mps.baseLanguage.structure.BooleanType" flags="in" index="10P_77" />
      <concept id="1070534934090" name="jetbrains.mps.baseLanguage.structure.CastExpression" flags="nn" index="10QFUN">
        <child id="1070534934091" name="type" index="10QFUM" />
        <child id="1070534934092" name="expression" index="10QFUP" />
      </concept>
      <concept id="1068431474542" name="jetbrains.mps.baseLanguage.structure.VariableDeclaration" flags="ng" index="33uBYm">
        <property id="1176718929932" name="isFinal" index="3TUv4t" />
        <child id="1068431790190" name="initializer" index="33vP2m" />
      </concept>
      <concept id="1068498886296" name="jetbrains.mps.baseLanguage.structure.VariableReference" flags="nn" index="37vLTw">
        <reference id="1068581517664" name="variableDeclaration" index="3cqZAo" />
      </concept>
      <concept id="1225271177708" name="jetbrains.mps.baseLanguage.structure.StringType" flags="in" index="17QB3L" />
      <concept id="4972933694980447171" name="jetbrains.mps.baseLanguage.structure.BaseVariableDeclaration" flags="ng" index="19Szcq">
        <child id="5680397130376446158" name="type" index="1tU5fm" />
      </concept>
      <concept id="1068580123155" name="jetbrains.mps.baseLanguage.structure.ExpressionStatement" flags="nn" index="3clFbF">
        <child id="1068580123156" name="expression" index="3clFbG" />
      </concept>
      <concept id="1068580123159" name="jetbrains.mps.baseLanguage.structure.IfStatement" flags="nn" index="3clFbJ">
        <child id="1068580123160" name="condition" index="3clFbw" />
        <child id="1068580123161" name="ifTrue" index="3clFbx" />
      </concept>
      <concept id="1068580123136" name="jetbrains.mps.baseLanguage.structure.StatementList" flags="sn" stub="5293379017992965193" index="3clFbS">
        <child id="1068581517665" name="statement" index="3cqZAp" />
      </concept>
      <concept id="1068581242875" name="jetbrains.mps.baseLanguage.structure.PlusExpression" flags="nn" index="3cpWs3" />
      <concept id="1068581242878" name="jetbrains.mps.baseLanguage.structure.ReturnStatement" flags="nn" index="3cpWs6">
        <child id="1068581517676" name="expression" index="3cqZAk" />
      </concept>
      <concept id="1068581242864" name="jetbrains.mps.baseLanguage.structure.LocalVariableDeclarationStatement" flags="nn" index="3cpWs8">
        <child id="1068581242865" name="localVariableDeclaration" index="3cpWs9" />
      </concept>
      <concept id="1068581242863" name="jetbrains.mps.baseLanguage.structure.LocalVariableDeclaration" flags="nr" index="3cpWsn" />
      <concept id="1079359253375" name="jetbrains.mps.baseLanguage.structure.ParenthesizedExpression" flags="nn" index="1eOMI4">
        <child id="1079359253376" name="expression" index="1eOMHV" />
      </concept>
      <concept id="1081516740877" name="jetbrains.mps.baseLanguage.structure.NotExpression" flags="nn" index="3fqX7Q">
        <child id="1081516765348" name="expression" index="3fr31v" />
      </concept>
      <concept id="1204053956946" name="jetbrains.mps.baseLanguage.structure.IMethodCall" flags="ng" index="1ndlxa">
        <reference id="1068499141037" name="baseMethodDeclaration" index="37wK5l" />
        <child id="1068499141038" name="actualArgument" index="37wK5m" />
      </concept>
      <concept id="1212685548494" name="jetbrains.mps.baseLanguage.structure.ClassCreator" flags="nn" index="1pGfFk" />
      <concept id="1107535904670" name="jetbrains.mps.baseLanguage.structure.ClassifierType" flags="in" index="3uibUv">
        <reference id="1107535924139" name="classifier" index="3uigEE" />
      </concept>
      <concept id="1081773326031" name="jetbrains.mps.baseLanguage.structure.BinaryOperation" flags="nn" index="3uHJSO">
        <child id="1081773367579" name="rightExpression" index="3uHU7w" />
        <child id="1081773367580" name="leftExpression" index="3uHU7B" />
      </concept>
      <concept id="1080120340718" name="jetbrains.mps.baseLanguage.structure.AndExpression" flags="nn" index="1Wc70l" />
    </language>
    <language id="774bf8a0-62e5-41e1-af63-f4812e60e48b" name="jetbrains.mps.baseLanguage.checkedDots">
      <concept id="4079382982702596667" name="jetbrains.mps.baseLanguage.checkedDots.structure.CheckedDotExpression" flags="nn" index="2EnYce" />
    </language>
    <language id="7866978e-a0f0-4cc7-81bc-4d213d9375e1" name="jetbrains.mps.lang.smodel">
      <concept id="1177026924588" name="jetbrains.mps.lang.smodel.structure.RefConcept_Reference" flags="nn" index="chp4Y">
        <reference id="1177026940964" name="conceptDeclaration" index="cht4Q" />
      </concept>
      <concept id="7453996997717780434" name="jetbrains.mps.lang.smodel.structure.Node_GetSConceptOperation" flags="nn" index="2yIwOk" />
      <concept id="1143234257716" name="jetbrains.mps.lang.smodel.structure.Node_GetModelOperation" flags="nn" index="I4A8Y" />
      <concept id="1145404486709" name="jetbrains.mps.lang.smodel.structure.SemanticDowncastExpression" flags="nn" index="2JrnkZ">
        <child id="1145404616321" name="leftExpression" index="2JrQYb" />
      </concept>
      <concept id="1181949435690" name="jetbrains.mps.lang.smodel.structure.Concept_NewInstance" flags="nn" index="LFhST" />
      <concept id="1181952871644" name="jetbrains.mps.lang.smodel.structure.Concept_GetAllSubConcepts" flags="nn" index="LSoRf">
        <child id="1182506816063" name="smodel" index="1iTxcG" />
      </concept>
      <concept id="2644386474301421077" name="jetbrains.mps.lang.smodel.structure.LinkIdRefExpression" flags="nn" index="359W_D">
        <reference id="2644386474301421078" name="conceptDeclaration" index="359W_E" />
        <reference id="2644386474301421079" name="linkDeclaration" index="359W_F" />
      </concept>
      <concept id="2644386474300074836" name="jetbrains.mps.lang.smodel.structure.ConceptIdRefExpression" flags="nn" index="35c_gC">
        <reference id="2644386474300074837" name="conceptDeclaration" index="35c_gD" />
      </concept>
      <concept id="6677504323281689838" name="jetbrains.mps.lang.smodel.structure.SConceptType" flags="in" index="3bZ5Sz">
        <reference id="6677504323281689839" name="conceptDeclaraton" index="3bZ5Sy" />
      </concept>
      <concept id="1139613262185" name="jetbrains.mps.lang.smodel.structure.Node_GetParentOperation" flags="nn" index="1mfA1w" />
      <concept id="1139621453865" name="jetbrains.mps.lang.smodel.structure.Node_IsInstanceOfOperation" flags="nn" index="1mIQ4w">
        <child id="1177027386292" name="conceptArgument" index="cj9EA" />
      </concept>
      <concept id="6870613620390542976" name="jetbrains.mps.lang.smodel.structure.ConceptAliasOperation" flags="ng" index="3n3YKJ" />
      <concept id="1171999116870" name="jetbrains.mps.lang.smodel.structure.Node_IsNullOperation" flags="nn" index="3w_OXm" />
      <concept id="1172008320231" name="jetbrains.mps.lang.smodel.structure.Node_IsNotNullOperation" flags="nn" index="3x8VRR" />
      <concept id="1172323065820" name="jetbrains.mps.lang.smodel.structure.Node_GetConceptOperation" flags="nn" index="3NT_Vc" />
      <concept id="1172326502327" name="jetbrains.mps.lang.smodel.structure.Concept_IsExactlyOperation" flags="nn" index="3O6GUB">
        <child id="1206733650006" name="conceptArgument" index="3QVz_e" />
      </concept>
      <concept id="1140133623887" name="jetbrains.mps.lang.smodel.structure.Node_DeleteOperation" flags="nn" index="1PgB_6" />
      <concept id="1138056022639" name="jetbrains.mps.lang.smodel.structure.SPropertyAccess" flags="nn" index="3TrcHB">
        <reference id="1138056395725" name="property" index="3TsBF5" />
      </concept>
    </language>
    <language id="ceab5195-25ea-4f22-9b92-103b95ca8c0c" name="jetbrains.mps.lang.core">
      <concept id="1133920641626" name="jetbrains.mps.lang.core.structure.BaseConcept" flags="ng" index="2VYdi">
        <property id="1193676396447" name="virtualPackage" index="3GE5qa" />
      </concept>
      <concept id="1169194658468" name="jetbrains.mps.lang.core.structure.INamedConcept" flags="ng" index="TrEIO">
        <property id="1169194664001" name="name" index="TrG5h" />
      </concept>
    </language>
    <language id="83888646-71ce-4f1c-9c53-c54016f6ad4f" name="jetbrains.mps.baseLanguage.collections">
      <concept id="540871147943773365" name="jetbrains.mps.baseLanguage.collections.structure.SingleArgumentSequenceOperation" flags="nn" index="25WWJ4">
        <child id="540871147943773366" name="argument" index="25WWJ7" />
      </concept>
      <concept id="1151688443754" name="jetbrains.mps.baseLanguage.collections.structure.ListType" flags="in" index="_YKpA">
        <child id="1151688676805" name="elementType" index="_ZDj9" />
      </concept>
      <concept id="1151689724996" name="jetbrains.mps.baseLanguage.collections.structure.SequenceType" flags="in" index="A3Dl8">
        <child id="1151689745422" name="elementType" index="A3Ik2" />
      </concept>
      <concept id="1237721394592" name="jetbrains.mps.baseLanguage.collections.structure.AbstractContainerCreator" flags="nn" index="HWqM0">
        <child id="1237721435807" name="elementType" index="HW$YZ" />
      </concept>
      <concept id="1160600644654" name="jetbrains.mps.baseLanguage.collections.structure.ListCreatorWithInit" flags="nn" index="Tc6Ow" />
      <concept id="1160612413312" name="jetbrains.mps.baseLanguage.collections.structure.AddElementOperation" flags="nn" index="TSZUe" />
    </language>
  </registry>
  <node concept="24kQdi" id="2erkSmBSEUV">
    <property role="3GE5qa" value="export" />
    <ref role="1XX52x" to="tpck:2erkSmBSEUQ" resolve="ExportScopePublic" />
    <node concept="3EZMnI" id="2erkSmBSEUX" role="2wV5jI">
      <node concept="PMmxH" id="2wdLO7KhYbX" role="3EZMnx">
        <property role="1cu_pB" value="0" />
        <ref role="PMmxG" node="2wZex4PafBj" resolve="alias" />
        <node concept="ljvvj" id="2islW_IrJp8" role="3F10Kt">
          <property role="VOm3f" value="true" />
        </node>
      </node>
      <node concept="2SsqMj" id="2erkSmBSEV3" role="3EZMnx" />
      <node concept="l2Vlx" id="2erkSmBSEUZ" role="2iSdaV" />
    </node>
  </node>
  <node concept="24kQdi" id="2erkSmBSEV4">
    <property role="3GE5qa" value="export" />
    <ref role="1XX52x" to="tpck:2erkSmBSEUU" resolve="ExportScopeModule" />
    <node concept="3EZMnI" id="2erkSmBSEV6" role="2wV5jI">
      <node concept="PMmxH" id="2wdLO7KhY7I" role="3EZMnx">
        <property role="1cu_pB" value="0" />
        <ref role="PMmxG" node="2wZex4PafBj" resolve="alias" />
        <node concept="ljvvj" id="2islW_IrJF9" role="3F10Kt">
          <property role="VOm3f" value="true" />
        </node>
      </node>
      <node concept="2SsqMj" id="2erkSmBSEVb" role="3EZMnx" />
      <node concept="l2Vlx" id="2erkSmBSEV8" role="2iSdaV" />
    </node>
  </node>
  <node concept="24kQdi" id="2erkSmBSEVc">
    <property role="3GE5qa" value="export" />
    <ref role="1XX52x" to="tpck:2erkSmBSEUR" resolve="ExportScopeNamespace" />
    <node concept="3EZMnI" id="2erkSmBSEVe" role="2wV5jI">
      <node concept="3F0ifn" id="2erkSmBSEVh" role="3EZMnx">
        <property role="3F0ifm" value="@export(namespace =" />
        <ref role="1ERwB7" node="2erkSmBSMUb" resolve="DeleteExportScope" />
      </node>
      <node concept="3F0A7n" id="2erkSmBSEVl" role="3EZMnx">
        <ref role="1NtTu8" to="tpck:2erkSmBSEUT" resolve="namespace" />
      </node>
      <node concept="3F0ifn" id="2erkSmBSEVn" role="3EZMnx">
        <property role="3F0ifm" value=")" />
        <node concept="11L4FC" id="5PMtikBaptz" role="3F10Kt">
          <property role="VOm3f" value="true" />
        </node>
        <node concept="ljvvj" id="2islW_IrHNx" role="3F10Kt">
          <property role="VOm3f" value="true" />
          <node concept="3nzxsE" id="2islW_IrHNy" role="3n$kyP">
            <node concept="3clFbS" id="2islW_IrHNz" role="2VODD2">
              <node concept="3clFbF" id="2islW_IrHN$" role="3cqZAp">
                <node concept="1Wc70l" id="2islW_IrHNK" role="3clFbG">
                  <node concept="2YIFZM" id="2k9fL4dT0$m" role="3uHU7w">
                    <ref role="37wK5l" to="unno:2k9fL4dNTIq" resolve="isRoot" />
                    <ref role="1Pybhc" to="unno:1NYD3hytmTa" resolve="SNodeOperations" />
                    <node concept="2JrnkZ" id="2k9fL4dT0$n" role="37wK5m">
                      <node concept="2OqwBi" id="2k9fL4dT0$o" role="2JrQYb">
                        <node concept="pncrf" id="2k9fL4dT0$p" role="2Oq$k0" />
                        <node concept="1mfA1w" id="2k9fL4dT0$q" role="2OqNvi" />
                      </node>
                    </node>
                  </node>
                  <node concept="2OqwBi" id="2islW_IrHNF" role="3uHU7B">
                    <node concept="2OqwBi" id="2islW_IrHNA" role="2Oq$k0">
                      <node concept="pncrf" id="2islW_IrHN_" role="2Oq$k0" />
                      <node concept="1mfA1w" id="2islW_IrHNE" role="2OqNvi" />
                    </node>
                    <node concept="3x8VRR" id="2islW_IrHNJ" role="2OqNvi" />
                  </node>
                </node>
              </node>
            </node>
          </node>
        </node>
      </node>
      <node concept="2SsqMj" id="2erkSmBSEVj" role="3EZMnx" />
      <node concept="l2Vlx" id="2erkSmBSEVg" role="2iSdaV" />
    </node>
  </node>
  <node concept="1h_SRR" id="2erkSmBSMUb">
    <property role="TrG5h" value="DeleteExportScope" />
    <property role="3GE5qa" value="export" />
    <ref role="1h_SK9" to="tpck:4H9z7u7GMNF" resolve="ExportScope" />
    <node concept="1hA7zw" id="2erkSmBSMUc" role="1h_SK8">
      <property role="1hHO97" value="Delete export" />
      <property role="1hAc7j" value="delete_action_id" />
      <node concept="1hAIg9" id="2erkSmBSMUd" role="1hA7z_">
        <node concept="3clFbS" id="2erkSmBSMUe" role="2VODD2">
          <node concept="3clFbF" id="2erkSmBSNxD" role="3cqZAp">
            <node concept="2OqwBi" id="2erkSmBSNxF" role="3clFbG">
              <node concept="0IXxy" id="2erkSmBSNxE" role="2Oq$k0" />
              <node concept="1PgB_6" id="2erkSmBSOA2" role="2OqNvi" />
            </node>
          </node>
        </node>
      </node>
    </node>
  </node>
  <node concept="24kQdi" id="4uZwTti3__3">
    <property role="3GE5qa" value="attributes" />
    <ref role="1XX52x" to="tpck:4uZwTti3_$T" resolve="Attribute" />
    <node concept="3EZMnI" id="2ZnZLV$deS2" role="2wV5jI">
      <node concept="1HlG4h" id="2ZnZLV$dMjt" role="3EZMnx">
        <node concept="1HfYo3" id="2ZnZLV$dMjv" role="1HlULh">
          <node concept="3TQlhw" id="2ZnZLV$dMjx" role="1Hhtcw">
            <node concept="3clFbS" id="2ZnZLV$dMjz" role="2VODD2">
              <node concept="3clFbF" id="2ZnZLV$dN1y" role="3cqZAp">
                <node concept="2OqwBi" id="2ZnZLV$dXyn" role="3clFbG">
                  <node concept="2OqwBi" id="2ZnZLV$dN5s" role="2Oq$k0">
                    <node concept="pncrf" id="2ZnZLV$dN1x" role="2Oq$k0" />
                    <node concept="3NT_Vc" id="2ZnZLV$dXgb" role="2OqNvi" />
                  </node>
                  <node concept="3TrcHB" id="2ZnZLV$dY25" role="2OqNvi">
                    <ref role="3TsBF5" to="tpck:h0TrG11" resolve="name" />
                  </node>
                </node>
              </node>
            </node>
          </node>
        </node>
      </node>
      <node concept="3F0ifn" id="2ZnZLV$dfh7" role="3EZMnx">
        <property role="3F0ifm" value="{" />
        <node concept="11L4FC" id="2ZnZLV$e8Nl" role="3F10Kt">
          <property role="VOm3f" value="true" />
        </node>
        <node concept="3mYdg7" id="2ZnZLV$e5dA" role="3F10Kt">
          <property role="1413C4" value="attribute_brace" />
        </node>
        <node concept="Vb9p2" id="2ZnZLV$e4UR" role="3F10Kt" />
      </node>
      <node concept="l2Vlx" id="2ZnZLV$deS3" role="2iSdaV" />
      <node concept="2SsqMj" id="4uZwTti3BDS" role="3EZMnx" />
      <node concept="3F0ifn" id="2ZnZLV$dfhf" role="3EZMnx">
        <property role="3F0ifm" value="}" />
        <node concept="3mYdg7" id="2ZnZLV$e5dV" role="3F10Kt">
          <property role="1413C4" value="attribute_brace" />
        </node>
        <node concept="Vb9p2" id="2ZnZLV$e58P" role="3F10Kt" />
      </node>
    </node>
  </node>
  <node concept="PKFIW" id="5K$8XMPc9pW">
    <property role="TrG5h" value="ShortDescriptionEditorComponent" />
    <ref role="1XX52x" to="tpck:gw2VY9q" resolve="BaseConcept" />
    <node concept="1HlG4h" id="5K$8XMPcbrm" role="2wV5jI">
      <node concept="1HfYo3" id="5K$8XMPcbrn" role="1HlULh">
        <node concept="3TQlhw" id="5K$8XMPcbro" role="1Hhtcw">
          <node concept="3clFbS" id="5K$8XMPcbrp" role="2VODD2">
            <node concept="3clFbF" id="5K$8XMPcbuq" role="3cqZAp">
              <node concept="2OqwBi" id="5K$8XMPcc5k" role="3clFbG">
                <node concept="3TrcHB" id="2wdLO7LUnVP" role="2OqNvi">
                  <ref role="3TsBF5" to="tpce:40UcGlRaVSw" resolve="conceptShortDescription" />
                </node>
                <node concept="2OqwBi" id="5K$8XMPcbzc" role="2Oq$k0">
                  <node concept="3NT_Vc" id="5K$8XMPcbN_" role="2OqNvi" />
                  <node concept="pncrf" id="5K$8XMPcbup" role="2Oq$k0" />
                </node>
              </node>
            </node>
          </node>
        </node>
      </node>
    </node>
  </node>
  <node concept="PKFIW" id="2wZex4PafBj">
    <property role="TrG5h" value="alias" />
    <ref role="1XX52x" to="tpck:gw2VY9q" resolve="BaseConcept" />
    <node concept="1HlG4h" id="2wZex4PafBl" role="2wV5jI">
      <node concept="1HfYo3" id="2wZex4PafBm" role="1HlULh">
        <node concept="3TQlhw" id="2wZex4PafBn" role="1Hhtcw">
          <node concept="3clFbS" id="2wZex4PafBo" role="2VODD2">
            <node concept="3clFbF" id="78qF3pqaZ9v" role="3cqZAp">
              <node concept="2OqwBi" id="78qF3pqb02d" role="3clFbG">
                <node concept="2OqwBi" id="78qF3pqaZiM" role="2Oq$k0">
                  <node concept="pncrf" id="78qF3pqaZ9t" role="2Oq$k0" />
                  <node concept="2yIwOk" id="78qF3pqaZAF" role="2OqNvi" />
                </node>
                <node concept="3n3YKJ" id="78qF3pqb0x$" role="2OqNvi" />
              </node>
            </node>
          </node>
        </node>
      </node>
      <node concept="Vb9p2" id="4W7TaJQkr65" role="3F10Kt">
        <property role="Vbekb" value="BOLD" />
      </node>
      <node concept="2SqB2G" id="1USvB3ZvF7B" role="2SqHTX">
        <property role="TrG5h" value="ALIAS_EDITOR_COMPONENT" />
      </node>
    </node>
  </node>
  <node concept="24kQdi" id="_mhz_5U$MB">
    <property role="3GE5qa" value="types" />
    <ref role="1XX52x" to="tpck:3EoG9lZUeni" resolve="SuppressErrorsAnnotation" />
    <node concept="2SsqMj" id="_mhz_5U_X3" role="2wV5jI" />
  </node>
  <node concept="PKFIW" id="37EzmTDC95l">
    <property role="TrG5h" value="ImplementationRemovedInStubMessage" />
    <ref role="1XX52x" to="tpck:gw2VY9q" resolve="BaseConcept" />
    <node concept="3F0ifn" id="37EzmTDC9aV" role="2wV5jI">
      <property role="3F0ifm" value="/* compiled code */" />
      <ref role="1k5W1q" node="hshO_Yc" resolve="StubImplementation" />
    </node>
  </node>
  <node concept="V5hpn" id="2BgJggCahQS">
    <property role="TrG5h" value="BaseStyles" />
    <node concept="14StLt" id="hshO_Yc" role="V601i">
      <property role="TrG5h" value="StubImplementation" />
      <node concept="3Xmtl4" id="3HPX3xRcOHI" role="3F10Kt">
        <node concept="1wgc9g" id="2BgJggCaJyt" role="3XvnJa">
          <ref role="1wgcnl" node="2BgJggCaJy6" />
        </node>
      </node>
      <node concept="2lhJJ2" id="4IkflqMjM1L" role="14Sbyx" />
    </node>
  </node>
  <node concept="2NdhB4" id="2BgJggCaJdK">
    <property role="TrG5h" value="BaseKeyPack" />
    <node concept="2NdhxG" id="2BgJggCaJy6" role="2NdZaQ">
      <property role="Xl_RC" value="LINE_COMMENT" />
    </node>
  </node>
  <node concept="PKFIW" id="1GOfCi7TDXl">
    <property role="TrG5h" value="VirtualPackage" />
    <ref role="1XX52x" to="tpck:gw2VY9q" resolve="BaseConcept" />
    <node concept="3EZMnI" id="1GOfCi7TEno" role="2wV5jI">
      <node concept="l2Vlx" id="1GOfCi7TEnp" role="2iSdaV" />
      <node concept="3F0ifn" id="1GOfCi7TEns" role="3EZMnx">
        <property role="3F0ifm" value="virtual package:" />
      </node>
      <node concept="3F0A7n" id="1GOfCi7TEnk" role="3EZMnx">
        <property role="1O74Pk" value="true" />
        <property role="1$x2rV" value="none" />
        <ref role="1NtTu8" to="tpck:hnGE5uv" resolve="virtualPackage" />
      </node>
    </node>
  </node>
  <node concept="24kQdi" id="5op3ZHNnIJA">
    <property role="3GE5qa" value="attributes.editing" />
    <ref role="1XX52x" to="tpck:Fg1jLUUh_d" resolve="SideTransformInfo" />
    <node concept="2SsqMj" id="Fg1jLUYiLQ" role="2wV5jI" />
  </node>
  <node concept="2ABfQD" id="3Rc6kd0K$RP">
    <property role="TrG5h" value="BaseEditorContextHints" />
    <node concept="2BsEeg" id="3Rc6kd0K$RQ" role="2ABdcP">
      <property role="TrG5h" value="comment" />
      <property role="2BUmq6" value="comment" />
    </node>
    <node concept="2BsEeg" id="3YRgRgnTV5p" role="2ABdcP">
      <property role="2BUmq6" value="reflectiveEditor" />
      <property role="TrG5h" value="reflectiveEditor" />
    </node>
  </node>
  <node concept="24kQdi" id="2ETBKOyksop">
    <property role="3GE5qa" value="attributes.editing" />
    <ref role="1XX52x" to="tpck:3Rc6kd0K$RF" resolve="BaseCommentAttribute" />
    <node concept="3EZMnI" id="43t9AOLcZPi" role="2wV5jI">
      <ref role="1ERwB7" node="5FzO4t9jA_b" resolve="BaseCommentAttribute_Actions" />
      <node concept="l2Vlx" id="43t9AOLcZPj" role="2iSdaV" />
      <node concept="3F1sOY" id="4NfTi62PfCN" role="3EZMnx">
        <ref role="1ERwB7" node="5FzO4t9jA_b" resolve="BaseCommentAttribute_Actions" />
        <ref role="1NtTu8" to="tpck:2ETBKOyieyt" resolve="commentedNode" />
        <node concept="2w$q5c" id="5FKjex9hEng" role="3xwHhi">
          <node concept="2aJ2om" id="5FKjex9hEnh" role="2w$qW5">
            <ref role="2$4xQ3" node="3Rc6kd0K$RQ" resolve="comment" />
          </node>
        </node>
      </node>
    </node>
  </node>
  <node concept="1h_SRR" id="5FzO4t9jA_b">
    <property role="3GE5qa" value="attributes.editing" />
    <property role="TrG5h" value="BaseCommentAttribute_Actions" />
    <ref role="1h_SK9" to="tpck:3Rc6kd0K$RF" resolve="BaseCommentAttribute" />
    <node concept="1hA7zw" id="6cD7K5bTsay" role="1h_SK8">
      <property role="1hAc7j" value="delete_action_id" />
      <node concept="1hAIg9" id="6cD7K5bTsaz" role="1hA7z_">
        <node concept="3clFbS" id="6cD7K5bTsa$" role="2VODD2">
          <node concept="3clFbF" id="6cD7K5bTsby" role="3cqZAp">
            <node concept="2OqwBi" id="6cD7K5bTsdj" role="3clFbG">
              <node concept="0IXxy" id="6cD7K5bTsbx" role="2Oq$k0" />
              <node concept="1PgB_6" id="6cD7K5bTwLI" role="2OqNvi" />
            </node>
          </node>
        </node>
      </node>
    </node>
  </node>
  <node concept="V5hpn" id="3VARyd8XcQl">
    <property role="TrG5h" value="BaseStyleSheet" />
    <node concept="14StLt" id="3VARyd8XcQs" role="V601i">
      <property role="TrG5h" value="Comment" />
      <node concept="2lhJJ2" id="3VARyd8XcQy" role="14Sbyx" />
      <node concept="3Xmtl4" id="3VARyd8XcSu" role="3F10Kt">
        <node concept="1wgc9g" id="3VARyd8XcS$" role="3XvnJa">
          <ref role="1wgcnl" node="2BgJggCaJy6" />
        </node>
      </node>
    </node>
  </node>
  <node concept="24kQdi" id="7hmFG5jQPyy">
    <ref role="1XX52x" to="tpck:gw2VY9q" resolve="BaseConcept" />
    <node concept="3EZMnI" id="7hmFG5jQPBs" role="2wV5jI">
      <ref role="1k5W1q" node="3VARyd8XcQs" resolve="Comment" />
      <node concept="3F0ifn" id="7hmFG5jQPBz" role="3EZMnx">
        <property role="3F0ifm" value="/*" />
        <ref role="1ERwB7" node="3kgLzc6vspC" resolve="BaseConcept_comment_Actions" />
        <node concept="2SqB2G" id="6EsXCvAxypg" role="2SqHTX">
          <property role="TrG5h" value="LEFT_COMMENT_ANCHOR" />
        </node>
        <node concept="11LMrY" id="3VARyd8Xg0r" role="3F10Kt">
          <property role="VOm3f" value="true" />
        </node>
      </node>
      <node concept="l2Vlx" id="7hmFG5jQPBv" role="2iSdaV" />
      <node concept="B$lHz" id="5DmTQrINSQQ" role="3EZMnx">
        <node concept="2w$q5c" id="5FS0W4V2r66" role="B$lH_">
          <node concept="2aJ2om" id="5FS0W4V2r67" role="2w$qW5">
            <ref role="2$4xQ3" node="3Rc6kd0K$RQ" resolve="comment" />
          </node>
        </node>
      </node>
      <node concept="3F0ifn" id="3VARyd8X5Rv" role="3EZMnx">
        <property role="3F0ifm" value="*/" />
        <ref role="1ERwB7" node="3kgLzc6vspC" resolve="BaseConcept_comment_Actions" />
        <node concept="2SqB2G" id="6EsXCvAxypj" role="2SqHTX">
          <property role="TrG5h" value="RIGHT_COMMENT_ANCHOR" />
        </node>
        <node concept="11L4FC" id="3VARyd8Xg26" role="3F10Kt">
          <property role="VOm3f" value="true" />
        </node>
      </node>
    </node>
    <node concept="2aJ2om" id="7hmFG5jQPBm" role="CpUAK">
      <ref role="2$4xQ3" node="3Rc6kd0K$RQ" resolve="comment" />
    </node>
    <node concept="B$lHz" id="7B8ZS0iLo7m" role="6VMZX">
      <node concept="2w$q5c" id="7B8ZS0iLo7n" role="B$lH_">
        <node concept="2aJ2om" id="7B8ZS0iLo7o" role="2w$qW5">
          <ref role="2$4xQ3" node="3Rc6kd0K$RQ" resolve="comment" />
        </node>
      </node>
    </node>
  </node>
  <node concept="1h_SRR" id="3kgLzc6vspC">
    <property role="TrG5h" value="BaseConcept_comment_Actions" />
    <ref role="1h_SK9" to="tpck:gw2VY9q" resolve="BaseConcept" />
    <node concept="1hA7zw" id="3kgLzc6vspD" role="1h_SK8">
      <property role="1hAc7j" value="backspace_action_id" />
      <node concept="1hAIg9" id="3kgLzc6vspE" role="1hA7z_">
        <node concept="3clFbS" id="3kgLzc6vspF" role="2VODD2">
          <node concept="3clFbF" id="3kgLzc6vsIA" role="3cqZAp">
            <node concept="2OqwBi" id="3kgLzc6vu4R" role="3clFbG">
              <node concept="2ShNRf" id="3kgLzc6vsI$" role="2Oq$k0">
                <node concept="1pGfFk" id="3kgLzc6vtXI" role="2ShVmc">
                  <ref role="37wK5l" to="b3bi:~CellAction_Uncomment.&lt;init&gt;(org.jetbrains.mps.openapi.model.SNode)" resolve="CellAction_Uncomment" />
                  <node concept="2OqwBi" id="3kgLzc6vtZU" role="37wK5m">
                    <node concept="0IXxy" id="3kgLzc6vtXS" role="2Oq$k0" />
                    <node concept="1mfA1w" id="3kgLzc6vu3_" role="2OqNvi" />
                  </node>
                </node>
              </node>
              <node concept="liA8E" id="3kgLzc6vu8d" role="2OqNvi">
                <ref role="37wK5l" to="b3bi:~AbstractCommentAction.execute(jetbrains.mps.openapi.editor.EditorContext):void" resolve="execute" />
                <node concept="1Q80Hx" id="3kgLzc6vu8Q" role="37wK5m" />
              </node>
            </node>
          </node>
        </node>
      </node>
      <node concept="jK8Ss" id="3kgLzc6vspJ" role="jK8aL">
        <node concept="3clFbS" id="3kgLzc6vspK" role="2VODD2">
          <node concept="3clFbF" id="3kgLzc6vsqP" role="3cqZAp">
            <node concept="2OqwBi" id="3kgLzc6vs_c" role="3clFbG">
              <node concept="2OqwBi" id="3kgLzc6vss$" role="2Oq$k0">
                <node concept="0IXxy" id="3kgLzc6vsqO" role="2Oq$k0" />
                <node concept="1mfA1w" id="3kgLzc6vsxc" role="2OqNvi" />
              </node>
              <node concept="1mIQ4w" id="3kgLzc6vsE1" role="2OqNvi">
                <node concept="chp4Y" id="3kgLzc6vsGd" role="cj9EA">
                  <ref role="cht4Q" to="tpck:3Rc6kd0K$RF" resolve="BaseCommentAttribute" />
                </node>
              </node>
            </node>
          </node>
        </node>
      </node>
    </node>
    <node concept="1hA7zw" id="3kgLzc6vu9I" role="1h_SK8">
      <property role="1hAc7j" value="delete_action_id" />
      <node concept="1hAIg9" id="3kgLzc6vu9J" role="1hA7z_">
        <node concept="3clFbS" id="3kgLzc6vu9K" role="2VODD2">
          <node concept="3clFbF" id="3kgLzc6vufL" role="3cqZAp">
            <node concept="2OqwBi" id="3kgLzc6vufM" role="3clFbG">
              <node concept="2ShNRf" id="3kgLzc6vufN" role="2Oq$k0">
                <node concept="1pGfFk" id="3kgLzc6vufO" role="2ShVmc">
                  <ref role="37wK5l" to="b3bi:~CellAction_Uncomment.&lt;init&gt;(org.jetbrains.mps.openapi.model.SNode)" resolve="CellAction_Uncomment" />
                  <node concept="2OqwBi" id="3kgLzc6vufP" role="37wK5m">
                    <node concept="0IXxy" id="3kgLzc6vufQ" role="2Oq$k0" />
                    <node concept="1mfA1w" id="3kgLzc6vufR" role="2OqNvi" />
                  </node>
                </node>
              </node>
              <node concept="liA8E" id="3kgLzc6vufS" role="2OqNvi">
                <ref role="37wK5l" to="b3bi:~AbstractCommentAction.execute(jetbrains.mps.openapi.editor.EditorContext):void" resolve="execute" />
                <node concept="1Q80Hx" id="3kgLzc6vufT" role="37wK5m" />
              </node>
            </node>
          </node>
        </node>
      </node>
      <node concept="jK8Ss" id="3kgLzc6vud3" role="jK8aL">
        <node concept="3clFbS" id="3kgLzc6vud4" role="2VODD2">
          <node concept="3clFbF" id="3kgLzc6vud5" role="3cqZAp">
            <node concept="2OqwBi" id="3kgLzc6vud6" role="3clFbG">
              <node concept="2OqwBi" id="3kgLzc6vud7" role="2Oq$k0">
                <node concept="0IXxy" id="3kgLzc6vud8" role="2Oq$k0" />
                <node concept="1mfA1w" id="3kgLzc6vud9" role="2OqNvi" />
              </node>
              <node concept="1mIQ4w" id="3kgLzc6vuda" role="2OqNvi">
                <node concept="chp4Y" id="3kgLzc6vudb" role="cj9EA">
                  <ref role="cht4Q" to="tpck:3Rc6kd0K$RF" resolve="BaseCommentAttribute" />
                </node>
              </node>
            </node>
          </node>
        </node>
      </node>
    </node>
  </node>
  <node concept="24kQdi" id="2Jn37$FZlEb">
    <property role="3GE5qa" value="attributes" />
    <ref role="1XX52x" to="tpck:2ULFgo8_XDk" resolve="NodeAttribute" />
    <node concept="B$lHz" id="2Jn37$FZlMc" role="2wV5jI">
      <node concept="2Hnlc$" id="2Jn37$FZlMf" role="B$lH_">
        <node concept="3clFbS" id="2Jn37$FZlMg" role="2VODD2">
          <node concept="3cpWs8" id="2Jn37$FZocj" role="3cqZAp">
            <node concept="3cpWsn" id="2Jn37$FZock" role="3cpWs9">
              <property role="TrG5h" value="result" />
              <node concept="_YKpA" id="2Jn37$FZocf" role="1tU5fm">
                <node concept="17QB3L" id="2Jn37$FZoci" role="_ZDj9" />
              </node>
              <node concept="2ShNRf" id="2Jn37$FZocl" role="33vP2m">
                <node concept="Tc6Ow" id="2Jn37$FZocm" role="2ShVmc">
                  <node concept="17QB3L" id="2Jn37$FZocn" role="HW$YZ" />
                </node>
              </node>
            </node>
          </node>
          <node concept="3clFbJ" id="2Jn37$FZlNk" role="3cqZAp">
            <node concept="3clFbS" id="2Jn37$FZlNl" role="3clFbx">
              <node concept="3clFbF" id="2Jn37$FZopm" role="3cqZAp">
                <node concept="2OqwBi" id="2Jn37$FZoyW" role="3clFbG">
                  <node concept="37vLTw" id="2Jn37$FZopl" role="2Oq$k0">
                    <ref role="3cqZAo" node="2Jn37$FZock" resolve="result" />
                  </node>
                  <node concept="TSZUe" id="2Jn37$FZpcz" role="2OqNvi">
                    <node concept="2pYGij" id="2Jn37$FZpou" role="25WWJ7">
                      <ref role="2pYH_C" node="3Rc6kd0K$RQ" resolve="comment" />
                    </node>
                  </node>
                </node>
              </node>
            </node>
            <node concept="2EnYce" id="2Jn37$G05IY" role="3clFbw">
              <node concept="2OqwBi" id="2Jn37$FZmoS" role="2Oq$k0">
                <node concept="2JrnkZ" id="2Jn37$FZmn8" role="2Oq$k0">
                  <node concept="pncrf" id="2Jn37$FZlOx" role="2JrQYb" />
                </node>
                <node concept="liA8E" id="2Jn37$FZmrX" role="2OqNvi">
                  <ref role="37wK5l" to="mhbf:~SNode.getContainmentLink():org.jetbrains.mps.openapi.language.SContainmentLink" resolve="getContainmentLink" />
                </node>
              </node>
              <node concept="liA8E" id="2Jn37$FZmA7" role="2OqNvi">
                <ref role="37wK5l" to="wyt6:~Object.equals(java.lang.Object):boolean" resolve="equals" />
                <node concept="359W_D" id="2Jn37$FZmBN" role="37wK5m">
                  <ref role="359W_E" to="tpck:gw2VY9q" resolve="BaseConcept" />
                  <ref role="359W_F" to="tpck:4uZwTti3__2" resolve="smodelAttribute" />
                </node>
              </node>
            </node>
          </node>
          <node concept="3cpWs6" id="2Jn37$FZpzC" role="3cqZAp">
            <node concept="37vLTw" id="2Jn37$FZpAE" role="3cqZAk">
              <ref role="3cqZAo" node="2Jn37$FZock" resolve="result" />
            </node>
          </node>
        </node>
      </node>
    </node>
    <node concept="2aJ2om" id="2Jn37$FZlMa" role="CpUAK">
      <ref role="2$4xQ3" node="3Rc6kd0K$RQ" resolve="comment" />
    </node>
    <node concept="B$lHz" id="7B8ZS0iM6tn" role="6VMZX">
      <node concept="2Hnlc$" id="7B8ZS0iM6to" role="B$lH_">
        <node concept="3clFbS" id="7B8ZS0iM6tp" role="2VODD2">
          <node concept="3cpWs8" id="7B8ZS0iM6tq" role="3cqZAp">
            <node concept="3cpWsn" id="7B8ZS0iM6tr" role="3cpWs9">
              <property role="TrG5h" value="result" />
              <node concept="_YKpA" id="7B8ZS0iM6ts" role="1tU5fm">
                <node concept="17QB3L" id="7B8ZS0iM6tt" role="_ZDj9" />
              </node>
              <node concept="2ShNRf" id="7B8ZS0iM6tu" role="33vP2m">
                <node concept="Tc6Ow" id="7B8ZS0iM6tv" role="2ShVmc">
                  <node concept="17QB3L" id="7B8ZS0iM6tw" role="HW$YZ" />
                </node>
              </node>
            </node>
          </node>
          <node concept="3clFbJ" id="7B8ZS0iM6tx" role="3cqZAp">
            <node concept="3clFbS" id="7B8ZS0iM6ty" role="3clFbx">
              <node concept="3clFbF" id="7B8ZS0iM6tz" role="3cqZAp">
                <node concept="2OqwBi" id="7B8ZS0iM6t$" role="3clFbG">
                  <node concept="37vLTw" id="7B8ZS0iM6t_" role="2Oq$k0">
                    <ref role="3cqZAo" node="7B8ZS0iM6tr" resolve="result" />
                  </node>
                  <node concept="TSZUe" id="7B8ZS0iM6tA" role="2OqNvi">
                    <node concept="2pYGij" id="7B8ZS0iM6tB" role="25WWJ7">
                      <ref role="2pYH_C" node="3Rc6kd0K$RQ" resolve="comment" />
                    </node>
                  </node>
                </node>
              </node>
            </node>
            <node concept="2EnYce" id="7B8ZS0iM6tC" role="3clFbw">
              <node concept="2OqwBi" id="7B8ZS0iM6tD" role="2Oq$k0">
                <node concept="2JrnkZ" id="7B8ZS0iM6tE" role="2Oq$k0">
                  <node concept="pncrf" id="7B8ZS0iM6tF" role="2JrQYb" />
                </node>
                <node concept="liA8E" id="7B8ZS0iM6tG" role="2OqNvi">
                  <ref role="37wK5l" to="mhbf:~SNode.getContainmentLink():org.jetbrains.mps.openapi.language.SContainmentLink" resolve="getContainmentLink" />
                </node>
              </node>
              <node concept="liA8E" id="7B8ZS0iM6tH" role="2OqNvi">
                <ref role="37wK5l" to="wyt6:~Object.equals(java.lang.Object):boolean" resolve="equals" />
                <node concept="359W_D" id="7B8ZS0iM6tI" role="37wK5m">
                  <ref role="359W_E" to="tpck:gw2VY9q" resolve="BaseConcept" />
                  <ref role="359W_F" to="tpck:4uZwTti3__2" resolve="smodelAttribute" />
                </node>
              </node>
            </node>
          </node>
          <node concept="3cpWs6" id="7B8ZS0iM6tJ" role="3cqZAp">
            <node concept="37vLTw" id="7B8ZS0iM6tK" role="3cqZAk">
              <ref role="3cqZAo" node="7B8ZS0iM6tr" resolve="result" />
            </node>
          </node>
        </node>
      </node>
    </node>
  </node>
  <node concept="3p36aQ" id="PjG4KWRFxL">
    <ref role="aqKnT" to="tpck:gw2VY9q" resolve="BaseConcept" />
    <node concept="3ft6gV" id="5EbKzCm8jo3" role="3ft7WO">
      <node concept="23wRS9" id="5EbKzCm8jvQ" role="23Ddnj">
        <property role="TrG5h" value="isChildNullOrExactlyBaseConcept" />
        <node concept="23DdeO" id="5EbKzCm8jvR" role="23DdeQ">
          <node concept="3clFbS" id="5EbKzCm8jvS" role="2VODD2">
            <node concept="3clFbF" id="2jnOeKLbeno" role="3cqZAp">
              <node concept="22lmx$" id="2jnOeKLbfh1" role="3clFbG">
                <node concept="2OqwBi" id="2jnOeKLbglY" role="3uHU7w">
                  <node concept="2OqwBi" id="2jnOeKLbfDw" role="2Oq$k0">
                    <node concept="1yR$tW" id="2jnOeKLbfqf" role="2Oq$k0" />
                    <node concept="2yIwOk" id="2jnOeKLbg1Y" role="2OqNvi" />
                  </node>
                  <node concept="3O6GUB" id="2jnOeKLbgTs" role="2OqNvi">
                    <node concept="chp4Y" id="2jnOeKLbh8f" role="3QVz_e">
                      <ref role="cht4Q" to="tpck:gw2VY9q" resolve="BaseConcept" />
                    </node>
                  </node>
                </node>
                <node concept="2OqwBi" id="2jnOeKLbexl" role="3uHU7B">
                  <node concept="1yR$tW" id="2jnOeKLbenn" role="2Oq$k0" />
                  <node concept="3w_OXm" id="2jnOeKLbeO$" role="2OqNvi" />
                </node>
              </node>
            </node>
          </node>
        </node>
        <node concept="10P_77" id="5EbKzCm8jwd" role="1tU5fm" />
      </node>
      <node concept="3ft6gV" id="2jnOeKLbd$w" role="3ft5RZ">
        <node concept="2F$Pav" id="6D0QE9BxB9Z" role="3ft5RZ">
          <node concept="3eGOop" id="6D0QE9BxDvW" role="2$S_pN">
            <node concept="ucgPf" id="6D0QE9BxDvY" role="3aKz83">
              <node concept="3clFbS" id="6D0QE9BxDw0" role="2VODD2">
                <node concept="3clFbF" id="6D0QE9BxY6Z" role="3cqZAp">
                  <node concept="2OqwBi" id="6D0QE9BxYiR" role="3clFbG">
                    <node concept="2ZBlsa" id="6D0QE9BxY6Y" role="2Oq$k0" />
                    <node concept="LFhST" id="6D0QE9BxYxL" role="2OqNvi" />
                  </node>
                </node>
              </node>
            </node>
            <node concept="16NfWO" id="7Nx4mSUpKRY" role="upBLP">
              <node concept="uGdhv" id="7Nx4mSUpLd$" role="16NeZM">
                <node concept="3clFbS" id="7Nx4mSUpLdA" role="2VODD2">
                  <node concept="3clFbF" id="2jnOeKLamaK" role="3cqZAp">
                    <node concept="2OqwBi" id="2jnOeKLampa" role="3clFbG">
                      <node concept="2ZBlsa" id="2jnOeKLamaJ" role="2Oq$k0" />
                      <node concept="liA8E" id="2jnOeKLamH8" role="2OqNvi">
                        <ref role="37wK5l" to="c17a:~SAbstractConcept.getName():java.lang.String" resolve="getName" />
                      </node>
                    </node>
                  </node>
                </node>
              </node>
            </node>
            <node concept="16NL0t" id="7Nx4mSUpMnf" role="upBLP">
              <node concept="uGdhv" id="7Nx4mSUpMGW" role="16NL0q">
                <node concept="3clFbS" id="7Nx4mSUpMGY" role="2VODD2">
                  <node concept="3cpWs8" id="2jnOeKLan3d" role="3cqZAp">
                    <node concept="3cpWsn" id="2jnOeKLan3c" role="3cpWs9">
                      <property role="3TUv4t" value="false" />
                      <property role="TrG5h" value="fqName" />
                      <node concept="3uibUv" id="2jnOeKLan3e" role="1tU5fm">
                        <ref role="3uigEE" to="wyt6:~String" resolve="String" />
                      </node>
                      <node concept="2OqwBi" id="3FNV1f3zfbL" role="33vP2m">
                        <node concept="2OqwBi" id="3FNV1f3zega" role="2Oq$k0">
                          <node concept="2YIFZM" id="3FNV1f3zdZ5" role="2Oq$k0">
                            <ref role="1Pybhc" to="vndm:~ConceptRegistry" resolve="ConceptRegistry" />
                            <ref role="37wK5l" to="vndm:~ConceptRegistry.getInstance():jetbrains.mps.smodel.language.ConceptRegistry" resolve="getInstance" />
                          </node>
                          <node concept="liA8E" id="3FNV1f3zeGA" role="2OqNvi">
                            <ref role="37wK5l" to="vndm:~ConceptRegistry.getConceptDescriptor(org.jetbrains.mps.openapi.language.SAbstractConcept):jetbrains.mps.smodel.runtime.ConceptDescriptor" resolve="getConceptDescriptor" />
                            <node concept="2ZBlsa" id="3FNV1f3zeTX" role="37wK5m" />
                          </node>
                        </node>
                        <node concept="liA8E" id="3FNV1f3zfxB" role="2OqNvi">
                          <ref role="37wK5l" to="ze1i:~ConceptDescriptor.getConceptFqName():java.lang.String" resolve="getConceptFqName" />
                        </node>
                      </node>
                    </node>
                  </node>
                  <node concept="3cpWs6" id="2jnOeKLan3h" role="3cqZAp">
                    <node concept="3cpWs3" id="2jnOeKLan3i" role="3cqZAk">
                      <node concept="Xl_RD" id="2jnOeKLan3j" role="3uHU7B">
                        <property role="Xl_RC" value="lang: " />
                      </node>
                      <node concept="2YIFZM" id="2jnOeKLaqez" role="3uHU7w">
                        <ref role="37wK5l" to="18ew:~NameUtil.compactNamespace(java.lang.String):java.lang.String" resolve="compactNamespace" />
                        <ref role="1Pybhc" to="18ew:~NameUtil" resolve="NameUtil" />
                        <node concept="2YIFZM" id="2jnOeKLaqen" role="37wK5m">
                          <ref role="1Pybhc" to="18ew:~NameUtil" resolve="NameUtil" />
                          <ref role="37wK5l" to="18ew:~NameUtil.namespaceFromConceptFQName(java.lang.String):java.lang.String" resolve="namespaceFromConceptFQName" />
                          <node concept="37vLTw" id="2jnOeKLan3m" role="37wK5m">
                            <ref role="3cqZAo" node="2jnOeKLan3c" resolve="fqName" />
                          </node>
                        </node>
                      </node>
                    </node>
                  </node>
                </node>
              </node>
            </node>
            <node concept="pEUQQ" id="3FNV1f3zNhY" role="upBLP">
              <node concept="pEWwh" id="3FNV1f3zNhZ" role="pEUQP">
                <node concept="3clFbS" id="3FNV1f3zNi0" role="2VODD2">
                  <node concept="3clFbF" id="3FNV1f3_6Ar" role="3cqZAp">
                    <node concept="2YIFZM" id="3FNV1f3_6Gt" role="3clFbG">
                      <ref role="37wK5l" to="ze1i:~IconResourceUtil.getIconResourceForConcept(org.jetbrains.mps.openapi.language.SAbstractConcept):jetbrains.mps.smodel.runtime.IconResource" resolve="getIconResourceForConcept" />
                      <ref role="1Pybhc" to="ze1i:~IconResourceUtil" resolve="IconResourceUtil" />
                      <node concept="35c_gC" id="7Nx4mSUb5yy" role="37wK5m">
                        <ref role="35c_gD" to="tpce:f_TIwhg" resolve="ConceptDeclaration" />
                      </node>
                    </node>
                  </node>
                </node>
              </node>
            </node>
          </node>
          <node concept="3bZ5Sz" id="6D0QE9BxBlk" role="2ZBHrp" />
          <node concept="2$S_p_" id="6D0QE9BxBln" role="2$S_pT">
            <node concept="3clFbS" id="6D0QE9BxBlo" role="2VODD2">
              <node concept="3clFbF" id="6D0QE9BxBq9" role="3cqZAp">
                <node concept="1eOMI4" id="3FNV1f3zJwV" role="3clFbG">
                  <node concept="10QFUN" id="3FNV1f3zJwW" role="1eOMHV">
                    <node concept="2OqwBi" id="3FNV1f3zJwP" role="10QFUP">
                      <node concept="35c_gC" id="3FNV1f3zJwQ" role="2Oq$k0">
                        <ref role="35c_gD" to="tpck:gw2VY9q" resolve="BaseConcept" />
                      </node>
                      <node concept="LSoRf" id="3FNV1f3zJwR" role="2OqNvi">
                        <node concept="2OqwBi" id="3FNV1f3zJwS" role="1iTxcG">
                          <node concept="3bvxqY" id="3FNV1f3zJwT" role="2Oq$k0" />
                          <node concept="I4A8Y" id="3FNV1f3zJwU" role="2OqNvi" />
                        </node>
                      </node>
                    </node>
                    <node concept="A3Dl8" id="3FNV1f3zJGX" role="10QFUM">
                      <node concept="3bZ5Sz" id="3FNV1f3zJWR" role="A3Ik2">
                        <ref role="3bZ5Sy" to="tpck:gw2VY9q" resolve="BaseConcept" />
                      </node>
                    </node>
                  </node>
                </node>
              </node>
            </node>
          </node>
        </node>
        <node concept="3ft6gW" id="5EbKzCmg4eV" role="3ft5RY">
          <node concept="3clFbS" id="5EbKzCmg4eW" role="2VODD2">
            <node concept="3clFbF" id="5EbKzCmu72w" role="3cqZAp">
              <node concept="23wRSc" id="5EbKzCmu72u" role="3clFbG">
                <ref role="3cqZAo" node="5EbKzCm8jvQ" resolve="isChildNullOrExactlyBaseConcept" />
              </node>
            </node>
          </node>
        </node>
      </node>
      <node concept="3ft6gV" id="PjG4KWRFxO" role="3ft5RZ">
        <node concept="3ft6gW" id="PjG4KWRFxQ" role="3ft5RY">
          <node concept="3clFbS" id="PjG4KWRFxS" role="2VODD2">
            <node concept="3clFbF" id="5EbKzCmu7xn" role="3cqZAp">
              <node concept="3fqX7Q" id="5EbKzCmu7xl" role="3clFbG">
                <node concept="23wRSc" id="5EbKzCmu7Gf" role="3fr31v">
                  <ref role="3cqZAo" node="5EbKzCm8jvQ" resolve="isChildNullOrExactlyBaseConcept" />
                </node>
              </node>
            </node>
          </node>
        </node>
        <node concept="1rTJD9" id="PjG4KWTghl" role="3ft5RZ">
          <node concept="AZAyt" id="PjG4KWTghm" role="AZAoy">
            <node concept="3clFbS" id="PjG4KWTghn" role="2VODD2">
              <node concept="3cpWs8" id="PjG4KWTgxx" role="3cqZAp">
                <node concept="3cpWsn" id="PjG4KWTgx$" role="3cpWs9">
                  <property role="TrG5h" value="result" />
                  <node concept="_YKpA" id="PjG4KWTgxv" role="1tU5fm">
                    <node concept="3bZ5Sz" id="PjG4KWTgLK" role="_ZDj9" />
                  </node>
                  <node concept="2ShNRf" id="PjG4KWThMA" role="33vP2m">
                    <node concept="Tc6Ow" id="PjG4KWTj9D" role="2ShVmc">
                      <node concept="3bZ5Sz" id="PjG4KWTjVw" role="HW$YZ" />
                    </node>
                  </node>
                </node>
              </node>
              <node concept="3clFbF" id="PjG4KWTlAv" role="3cqZAp">
                <node concept="2OqwBi" id="PjG4KWTmf1" role="3clFbG">
                  <node concept="37vLTw" id="PjG4KWTlAt" role="2Oq$k0">
                    <ref role="3cqZAo" node="PjG4KWTgx$" resolve="result" />
                  </node>
                  <node concept="TSZUe" id="PjG4KWTngf" role="2OqNvi">
                    <node concept="2OqwBi" id="PjG4KWTnOE" role="25WWJ7">
                      <node concept="1yR$tW" id="PjG4KWTn$L" role="2Oq$k0" />
                      <node concept="2yIwOk" id="PjG4KWTofk" role="2OqNvi" />
                    </node>
                  </node>
                </node>
              </node>
              <node concept="3cpWs6" id="PjG4KWTkOs" role="3cqZAp">
                <node concept="37vLTw" id="PjG4KWTl4V" role="3cqZAk">
                  <ref role="3cqZAo" node="PjG4KWTgx$" resolve="result" />
                </node>
              </node>
            </node>
          </node>
        </node>
      </node>
    </node>
  </node>
  <node concept="IW6AY" id="5Ygr$oBdnjL">
    <ref role="aqKnT" to="tpck:gw2VY9q" resolve="BaseConcept" />
    <node concept="1Qtc8_" id="5Ygr$oBdnjM" role="IW6Ez">
      <node concept="3eGOoe" id="5Ygr$oBdnjS" role="1Qtc8$" />
      <node concept="ulPW2" id="5Ygr$oBdnk8" role="1Qtc8A" />
    </node>
  </node>
</model>

