<?xml version="1.0" encoding="UTF-8"?>
<model ref="r:6e2f6b6c-c426-4c13-8373-566bf53f96f9(jetbrains.mps.lang.core.migration)">
  <persistence version="9" />
  <languages>
    <use id="90746344-04fd-4286-97d5-b46ae6a81709" name="jetbrains.mps.lang.migration" version="0" />
    <use id="c7d5b9dd-a05f-4be2-bc73-f2e16994cc67" name="jetbrains.mps.baseLanguage.lightweightdsl" version="1" />
    <use id="1a8554c4-eb84-43ba-8c34-6f0d90c6e75a" name="jetbrains.mps.lang.smodel.query" version="2" />
    <devkit ref="fbc25dd2-5da4-483a-8b19-70928e1b62d7(jetbrains.mps.devkit.general-purpose)" />
  </languages>
  <imports>
    <import index="lui2" ref="8865b7a8-5271-43d3-884c-6fd1d9cfdd34/java:org.jetbrains.mps.openapi.module(MPS.OpenAPI/)" />
    <import index="mhbf" ref="8865b7a8-5271-43d3-884c-6fd1d9cfdd34/java:org.jetbrains.mps.openapi.model(MPS.OpenAPI/)" />
    <import index="tpck" ref="r:00000000-0000-4000-0000-011c89590288(jetbrains.mps.lang.core.structure)" />
    <import index="pwx" ref="6ed54515-acc8-4d1e-a16c-9fd6cfe951ea/java:jetbrains.mps.smodel.adapter.structure.property(MPS.Core/)" />
    <import index="rzjr" ref="6ed54515-acc8-4d1e-a16c-9fd6cfe951ea/java:jetbrains.mps.smodel.adapter.structure.ref(MPS.Core/)" />
    <import index="6f4m" ref="528ff3b9-5fc4-40dd-931f-c6ce3650640e/r:f69c3fa1-0e30-4980-84e2-190ae44e4c3d(jetbrains.mps.lang.migration.runtime/jetbrains.mps.lang.migration.runtime.base)" />
    <import index="wyt6" ref="6354ebe7-c22a-4a0f-ac54-50b52ab9b065/java:java.lang(JDK/)" />
    <import index="e8bb" ref="6ed54515-acc8-4d1e-a16c-9fd6cfe951ea/java:jetbrains.mps.smodel.adapter.ids(MPS.Core/)" />
    <import index="slm6" ref="90746344-04fd-4286-97d5-b46ae6a81709/r:52a3d974-bd4f-4651-ba6e-a2de5e336d95(jetbrains.mps.lang.migration/jetbrains.mps.lang.migration.methods)" implicit="true" />
    <import index="tpcu" ref="r:00000000-0000-4000-0000-011c89590282(jetbrains.mps.lang.core.behavior)" implicit="true" />
  </imports>
  <registry>
    <language id="f3061a53-9226-4cc5-a443-f952ceaf5816" name="jetbrains.mps.baseLanguage">
      <concept id="4836112446988635817" name="jetbrains.mps.baseLanguage.structure.UndefinedType" flags="in" index="2jxLKc" />
      <concept id="1202948039474" name="jetbrains.mps.baseLanguage.structure.InstanceMethodCallOperation" flags="nn" index="liA8E" />
      <concept id="1465982738277781862" name="jetbrains.mps.baseLanguage.structure.PlaceholderMember" flags="ng" index="2tJIrI" />
      <concept id="1197027756228" name="jetbrains.mps.baseLanguage.structure.DotExpression" flags="nn" index="2OqwBi">
        <child id="1197027771414" name="operand" index="2Oq$k0" />
        <child id="1197027833540" name="operation" index="2OqNvi" />
      </concept>
      <concept id="1145552977093" name="jetbrains.mps.baseLanguage.structure.GenericNewExpression" flags="nn" index="2ShNRf">
        <child id="1145553007750" name="creator" index="2ShVmc" />
      </concept>
      <concept id="1070475926800" name="jetbrains.mps.baseLanguage.structure.StringLiteral" flags="nn" index="Xl_RD">
        <property id="1070475926801" name="value" index="Xl_RC" />
      </concept>
      <concept id="1182160077978" name="jetbrains.mps.baseLanguage.structure.AnonymousClassCreator" flags="nn" index="YeOm9">
        <child id="1182160096073" name="cls" index="YeSDq" />
      </concept>
      <concept id="1081236700937" name="jetbrains.mps.baseLanguage.structure.StaticMethodCall" flags="nn" index="2YIFZM">
        <reference id="1144433194310" name="classConcept" index="1Pybhc" />
      </concept>
      <concept id="1070534644030" name="jetbrains.mps.baseLanguage.structure.BooleanType" flags="in" index="10P_77" />
      <concept id="1070534934090" name="jetbrains.mps.baseLanguage.structure.CastExpression" flags="nn" index="10QFUN">
        <child id="1070534934091" name="type" index="10QFUM" />
        <child id="1070534934092" name="expression" index="10QFUP" />
      </concept>
      <concept id="1068431474542" name="jetbrains.mps.baseLanguage.structure.VariableDeclaration" flags="ng" index="33uBYm">
        <child id="1068431790190" name="initializer" index="33vP2m" />
      </concept>
      <concept id="1068498886296" name="jetbrains.mps.baseLanguage.structure.VariableReference" flags="nn" index="37vLTw">
        <reference id="1068581517664" name="variableDeclaration" index="3cqZAo" />
      </concept>
      <concept id="1068498886292" name="jetbrains.mps.baseLanguage.structure.ParameterDeclaration" flags="ir" index="37vLTG" />
      <concept id="1225271177708" name="jetbrains.mps.baseLanguage.structure.StringType" flags="in" index="17QB3L" />
      <concept id="1225271369338" name="jetbrains.mps.baseLanguage.structure.IsEmptyOperation" flags="nn" index="17RlXB" />
      <concept id="4972933694980447171" name="jetbrains.mps.baseLanguage.structure.BaseVariableDeclaration" flags="ng" index="19Szcq">
        <child id="5680397130376446158" name="type" index="1tU5fm" />
      </concept>
      <concept id="1068580123132" name="jetbrains.mps.baseLanguage.structure.BaseMethodDeclaration" flags="ng" index="3clF44">
        <child id="1068580123133" name="returnType" index="3clF45" />
        <child id="1068580123134" name="parameter" index="3clF46" />
        <child id="1068580123135" name="body" index="3clF47" />
      </concept>
      <concept id="1068580123165" name="jetbrains.mps.baseLanguage.structure.InstanceMethodDeclaration" flags="ig" index="3clFb_">
        <property id="1178608670077" name="isAbstract" index="1EzhhJ" />
      </concept>
      <concept id="1068580123155" name="jetbrains.mps.baseLanguage.structure.ExpressionStatement" flags="nn" index="3clFbF">
        <child id="1068580123156" name="expression" index="3clFbG" />
      </concept>
      <concept id="1068580123157" name="jetbrains.mps.baseLanguage.structure.Statement" flags="nn" index="3clFbH" />
      <concept id="1068580123136" name="jetbrains.mps.baseLanguage.structure.StatementList" flags="sn" stub="5293379017992965193" index="3clFbS">
        <child id="1068581517665" name="statement" index="3cqZAp" />
      </concept>
      <concept id="1068581242878" name="jetbrains.mps.baseLanguage.structure.ReturnStatement" flags="nn" index="3cpWs6">
        <child id="1068581517676" name="expression" index="3cqZAk" />
      </concept>
      <concept id="1068581242864" name="jetbrains.mps.baseLanguage.structure.LocalVariableDeclarationStatement" flags="nn" index="3cpWs8">
        <child id="1068581242865" name="localVariableDeclaration" index="3cpWs9" />
      </concept>
      <concept id="1068581242863" name="jetbrains.mps.baseLanguage.structure.LocalVariableDeclaration" flags="nr" index="3cpWsn" />
      <concept id="1079359253375" name="jetbrains.mps.baseLanguage.structure.ParenthesizedExpression" flags="nn" index="1eOMI4">
        <child id="1079359253376" name="expression" index="1eOMHV" />
      </concept>
      <concept id="1204053956946" name="jetbrains.mps.baseLanguage.structure.IMethodCall" flags="ng" index="1ndlxa">
        <reference id="1068499141037" name="baseMethodDeclaration" index="37wK5l" />
        <child id="1068499141038" name="actualArgument" index="37wK5m" />
      </concept>
      <concept id="1107461130800" name="jetbrains.mps.baseLanguage.structure.Classifier" flags="ng" index="3pOWGL">
        <property id="521412098689998745" name="nonStatic" index="2bfB8j" />
        <child id="5375687026011219971" name="member" index="jymVt" unordered="true" />
      </concept>
      <concept id="1107535904670" name="jetbrains.mps.baseLanguage.structure.ClassifierType" flags="in" index="3uibUv">
        <reference id="1107535924139" name="classifier" index="3uigEE" />
      </concept>
      <concept id="1178549954367" name="jetbrains.mps.baseLanguage.structure.IVisible" flags="ng" index="1B3ioH">
        <child id="1178549979242" name="visibility" index="1B3o_S" />
      </concept>
      <concept id="1146644602865" name="jetbrains.mps.baseLanguage.structure.PublicVisibility" flags="nn" index="3Tm1VV" />
      <concept id="1146644623116" name="jetbrains.mps.baseLanguage.structure.PrivateVisibility" flags="nn" index="3Tm6S6" />
      <concept id="1170345865475" name="jetbrains.mps.baseLanguage.structure.AnonymousClass" flags="ig" index="1Y3b0j">
        <reference id="1170346070688" name="classifier" index="1Y3XeK" />
      </concept>
    </language>
    <language id="fd392034-7849-419d-9071-12563d152375" name="jetbrains.mps.baseLanguage.closures">
      <concept id="1199569711397" name="jetbrains.mps.baseLanguage.closures.structure.ClosureLiteral" flags="nn" index="1bVj0M">
        <child id="1199569906740" name="parameter" index="1bW2Oz" />
        <child id="1199569916463" name="body" index="1bW5cS" />
      </concept>
    </language>
    <language id="c7d5b9dd-a05f-4be2-bc73-f2e16994cc67" name="jetbrains.mps.baseLanguage.lightweightdsl">
      <concept id="8880393040217246788" name="jetbrains.mps.baseLanguage.lightweightdsl.structure.MethodParameterInstance" flags="ig" index="ffn8J">
        <reference id="8880393040217294897" name="decl" index="ffrpq" />
      </concept>
      <concept id="3751132065236767083" name="jetbrains.mps.baseLanguage.lightweightdsl.structure.DependentTypeInstance" flags="ig" index="q3mfm">
        <reference id="3751132065236767084" name="decl" index="q3mfh" />
        <reference id="9097849371505568270" name="point" index="1QQUv3" />
      </concept>
      <concept id="3751132065236767060" name="jetbrains.mps.baseLanguage.lightweightdsl.structure.MethodInstance" flags="ig" index="q3mfD">
        <reference id="19209059688387895" name="decl" index="2VtyIY" />
      </concept>
      <concept id="6478870542308708689" name="jetbrains.mps.baseLanguage.lightweightdsl.structure.PropertyInstance" flags="ig" index="3tT0cZ">
        <reference id="8585153554445465961" name="decl" index="25KYV2" />
      </concept>
      <concept id="6478870542308703666" name="jetbrains.mps.baseLanguage.lightweightdsl.structure.MemberPlaceholder" flags="ng" index="3tTeZs">
        <property id="6478870542308703667" name="caption" index="3tTeZt" />
        <reference id="6478870542308703669" name="decl" index="3tTeZr" />
      </concept>
      <concept id="6478870542308871875" name="jetbrains.mps.baseLanguage.lightweightdsl.structure.BooleanPropertyInstance" flags="ig" index="3tYpMH">
        <property id="6478870542308871876" name="value" index="3tYpME" />
      </concept>
      <concept id="6478870542308871428" name="jetbrains.mps.baseLanguage.lightweightdsl.structure.StringPropertyInstance" flags="ig" index="3tYpXE">
        <property id="6478870542308871429" name="value" index="3tYpXF" />
      </concept>
    </language>
    <language id="7866978e-a0f0-4cc7-81bc-4d213d9375e1" name="jetbrains.mps.lang.smodel">
      <concept id="1177026924588" name="jetbrains.mps.lang.smodel.structure.RefConcept_Reference" flags="nn" index="chp4Y">
        <reference id="1177026940964" name="conceptDeclaration" index="cht4Q" />
      </concept>
      <concept id="1179409122411" name="jetbrains.mps.lang.smodel.structure.Node_ConceptMethodCall" flags="nn" index="2qgKlT" />
      <concept id="1143226024141" name="jetbrains.mps.lang.smodel.structure.SModelType" flags="in" index="H_c77" />
      <concept id="1145404486709" name="jetbrains.mps.lang.smodel.structure.SemanticDowncastExpression" flags="nn" index="2JrnkZ">
        <child id="1145404616321" name="leftExpression" index="2JrQYb" />
      </concept>
      <concept id="1171323947159" name="jetbrains.mps.lang.smodel.structure.Model_NodesOperation" flags="nn" index="2SmgA7">
        <child id="1758937410080001570" name="conceptArgument" index="1dBWTz" />
      </concept>
      <concept id="2644386474302386080" name="jetbrains.mps.lang.smodel.structure.PropertyIdRefExpression" flags="nn" index="355D3s">
        <reference id="2644386474302386081" name="conceptDeclaration" index="355D3t" />
        <reference id="2644386474302386082" name="propertyDeclaration" index="355D3u" />
      </concept>
      <concept id="1138055754698" name="jetbrains.mps.lang.smodel.structure.SNodeType" flags="in" index="3Tqbb2">
        <reference id="1138405853777" name="concept" index="ehGHo" />
      </concept>
      <concept id="1138056022639" name="jetbrains.mps.lang.smodel.structure.SPropertyAccess" flags="nn" index="3TrcHB">
        <reference id="1138056395725" name="property" index="3TsBF5" />
      </concept>
    </language>
    <language id="ceab5195-25ea-4f22-9b92-103b95ca8c0c" name="jetbrains.mps.lang.core">
      <concept id="1169194658468" name="jetbrains.mps.lang.core.structure.INamedConcept" flags="ng" index="TrEIO">
        <property id="1169194664001" name="name" index="TrG5h" />
      </concept>
    </language>
    <language id="90746344-04fd-4286-97d5-b46ae6a81709" name="jetbrains.mps.lang.migration">
      <concept id="8352104482584315555" name="jetbrains.mps.lang.migration.structure.MigrationScript" flags="ig" index="3SyAh_">
        <property id="5820409521797704727" name="fromVersion" index="qMTe8" />
      </concept>
    </language>
    <language id="1a8554c4-eb84-43ba-8c34-6f0d90c6e75a" name="jetbrains.mps.lang.smodel.query">
      <concept id="7738379549910147341" name="jetbrains.mps.lang.smodel.query.structure.InstancesExpression" flags="ng" index="qVDSY">
        <child id="7738379549910147342" name="conceptArg" index="qVDSX" />
      </concept>
      <concept id="4234138103881610891" name="jetbrains.mps.lang.smodel.query.structure.WithStatement" flags="ng" index="L3pyB">
        <child id="4234138103881610935" name="scope" index="L3pyr" />
        <child id="4234138103881610892" name="stmts" index="L3pyw" />
      </concept>
      <concept id="4307205004131544317" name="jetbrains.mps.lang.smodel.query.structure.QueryExpression" flags="ng" index="1dNuzs">
        <child id="4307205004132279624" name="parameter" index="1dOa5D" />
      </concept>
      <concept id="4307205004132277753" name="jetbrains.mps.lang.smodel.query.structure.QueryParameterList" flags="ng" index="1dO9Bo" />
    </language>
    <language id="83888646-71ce-4f1c-9c53-c54016f6ad4f" name="jetbrains.mps.baseLanguage.collections">
      <concept id="1204796164442" name="jetbrains.mps.baseLanguage.collections.structure.InternalSequenceOperation" flags="nn" index="23sCx2">
        <child id="1204796294226" name="closure" index="23t8la" />
      </concept>
      <concept id="540871147943773365" name="jetbrains.mps.baseLanguage.collections.structure.SingleArgumentSequenceOperation" flags="nn" index="25WWJ4">
        <child id="540871147943773366" name="argument" index="25WWJ7" />
      </concept>
      <concept id="1204980550705" name="jetbrains.mps.baseLanguage.collections.structure.VisitAllOperation" flags="nn" index="2es0OD" />
      <concept id="1151688443754" name="jetbrains.mps.baseLanguage.collections.structure.ListType" flags="in" index="_YKpA">
        <child id="1151688676805" name="elementType" index="_ZDj9" />
      </concept>
      <concept id="1151689724996" name="jetbrains.mps.baseLanguage.collections.structure.SequenceType" flags="in" index="A3Dl8">
        <child id="1151689745422" name="elementType" index="A3Ik2" />
      </concept>
      <concept id="1237721394592" name="jetbrains.mps.baseLanguage.collections.structure.AbstractContainerCreator" flags="nn" index="HWqM0">
        <child id="1237721435807" name="elementType" index="HW$YZ" />
      </concept>
      <concept id="1203518072036" name="jetbrains.mps.baseLanguage.collections.structure.SmartClosureParameterDeclaration" flags="ig" index="Rh6nW" />
      <concept id="1160600644654" name="jetbrains.mps.baseLanguage.collections.structure.ListCreatorWithInit" flags="nn" index="Tc6Ow" />
      <concept id="1160666733551" name="jetbrains.mps.baseLanguage.collections.structure.AddAllElementsOperation" flags="nn" index="X8dFx" />
      <concept id="1201792049884" name="jetbrains.mps.baseLanguage.collections.structure.TranslateOperation" flags="nn" index="3goQfb" />
      <concept id="1202120902084" name="jetbrains.mps.baseLanguage.collections.structure.WhereOperation" flags="nn" index="3zZkjj" />
      <concept id="1202128969694" name="jetbrains.mps.baseLanguage.collections.structure.SelectOperation" flags="nn" index="3$u5V9" />
    </language>
  </registry>
  <node concept="3SyAh_" id="7_qPA17IYpP">
    <property role="qMTe8" value="0" />
    <property role="TrG5h" value="PropertyAttributeId" />
    <node concept="3Tm1VV" id="7_qPA17IYpQ" role="1B3o_S" />
    <node concept="3tTeZs" id="7_qPA17IYDi" role="jymVt">
      <property role="3tTeZt" value="&lt;no execute after&gt;" />
      <ref role="3tTeZr" to="slm6:7ay_HjIMt1a" resolve="execute after" />
    </node>
    <node concept="3tTeZs" id="7_qPA17IYDj" role="jymVt">
      <property role="3tTeZt" value="&lt;no required data&gt;" />
      <ref role="3tTeZr" to="slm6:3A3gNhf1WPI" resolve="requires data" />
    </node>
    <node concept="3tTeZs" id="7_qPA17IYDk" role="jymVt">
      <property role="3tTeZt" value="&lt;no produced data&gt;" />
      <ref role="3tTeZr" to="slm6:536fTXa4WHO" resolve="produces data" />
    </node>
    <node concept="2tJIrI" id="7_qPA17IYDl" role="jymVt" />
    <node concept="3tYpXE" id="7_qPA17IYJ8" role="jymVt">
      <property role="TrG5h" value="description" />
      <property role="3tYpXF" value="add id to property/link attributes" />
      <ref role="25KYV2" to="slm6:1_lSsE3RFpE" resolve="description" />
      <node concept="3Tm6S6" id="7_qPA17IYJ9" role="1B3o_S" />
      <node concept="17QB3L" id="7_qPA17IYJa" role="1tU5fm" />
    </node>
    <node concept="q3mfD" id="7_qPA17IYDn" role="jymVt">
      <property role="TrG5h" value="execute" />
      <ref role="2VtyIY" to="slm6:4ubqdNOF9cA" resolve="execute" />
      <node concept="3Tm1VV" id="7_qPA17IYDL" role="1B3o_S" />
      <node concept="3clFbS" id="7_qPA17IYDN" role="3clF47">
        <node concept="3cpWs8" id="7_qPA17J8Yx" role="3cqZAp">
          <node concept="3cpWsn" id="7_qPA17J8Yy" role="3cpWs9">
            <property role="TrG5h" value="models" />
            <node concept="A3Dl8" id="7_qPA17J9cO" role="1tU5fm">
              <node concept="3uibUv" id="7_qPA17J9cQ" role="A3Ik2">
                <ref role="3uigEE" to="mhbf:~SModel" resolve="SModel" />
              </node>
            </node>
            <node concept="2OqwBi" id="7_qPA17J8Yz" role="33vP2m">
              <node concept="37vLTw" id="7_qPA17J8Y$" role="2Oq$k0">
                <ref role="3cqZAo" node="7_qPA17IYDP" resolve="m" />
              </node>
              <node concept="liA8E" id="7_qPA17J8Y_" role="2OqNvi">
                <ref role="37wK5l" to="lui2:~SModule.getModels():java.lang.Iterable" resolve="getModels" />
              </node>
            </node>
          </node>
        </node>
        <node concept="3cpWs8" id="7_qPA17JbQF" role="3cqZAp">
          <node concept="3cpWsn" id="7_qPA17JbQG" role="3cpWs9">
            <property role="TrG5h" value="propertyAttributes" />
            <node concept="A3Dl8" id="7_qPA17JbQl" role="1tU5fm">
              <node concept="3Tqbb2" id="7_qPA17JbQo" role="A3Ik2">
                <ref role="ehGHo" to="tpck:2ULFgo8_XDm" resolve="PropertyAttribute" />
              </node>
            </node>
            <node concept="2OqwBi" id="7_qPA17JbQH" role="33vP2m">
              <node concept="37vLTw" id="7_qPA17JbQI" role="2Oq$k0">
                <ref role="3cqZAo" node="7_qPA17J8Yy" resolve="models" />
              </node>
              <node concept="3goQfb" id="7_qPA17JbQJ" role="2OqNvi">
                <node concept="1bVj0M" id="7_qPA17JbQK" role="23t8la">
                  <node concept="3clFbS" id="7_qPA17JbQL" role="1bW5cS">
                    <node concept="3clFbF" id="7_qPA17JbQM" role="3cqZAp">
                      <node concept="2OqwBi" id="7_qPA17JbQN" role="3clFbG">
                        <node concept="1eOMI4" id="7_qPA17JbQO" role="2Oq$k0">
                          <node concept="10QFUN" id="7_qPA17JbQP" role="1eOMHV">
                            <node concept="H_c77" id="7_qPA17JbQQ" role="10QFUM" />
                            <node concept="37vLTw" id="7_qPA17JbQR" role="10QFUP">
                              <ref role="3cqZAo" node="7_qPA17JbQT" resolve="model" />
                            </node>
                          </node>
                        </node>
                        <node concept="2SmgA7" id="7_qPA17JbQS" role="2OqNvi">
                          <node concept="chp4Y" id="1jixkkC_WKt" role="1dBWTz">
                            <ref role="cht4Q" to="tpck:2ULFgo8_XDm" resolve="PropertyAttribute" />
                          </node>
                        </node>
                      </node>
                    </node>
                  </node>
                  <node concept="Rh6nW" id="7_qPA17JbQT" role="1bW2Oz">
                    <property role="TrG5h" value="model" />
                    <node concept="2jxLKc" id="7_qPA17JbQU" role="1tU5fm" />
                  </node>
                </node>
              </node>
            </node>
          </node>
        </node>
        <node concept="3clFbF" id="7_qPA17KbEx" role="3cqZAp">
          <node concept="2OqwBi" id="7_qPA17KbEy" role="3clFbG">
            <node concept="37vLTw" id="7_qPA17KbEz" role="2Oq$k0">
              <ref role="3cqZAo" node="7_qPA17JbQG" resolve="propertyAttributes" />
            </node>
            <node concept="2es0OD" id="7_qPA17KbE$" role="2OqNvi">
              <node concept="1bVj0M" id="7_qPA17KbE_" role="23t8la">
                <node concept="3clFbS" id="7_qPA17KbEA" role="1bW5cS">
                  <node concept="3clFbF" id="7_qPA17KbEB" role="3cqZAp">
                    <node concept="2OqwBi" id="7_qPA17KbEC" role="3clFbG">
                      <node concept="2JrnkZ" id="7_qPA17KbED" role="2Oq$k0">
                        <node concept="37vLTw" id="7_qPA17KbEE" role="2JrQYb">
                          <ref role="3cqZAo" node="7_qPA17KbER" resolve="attribute" />
                        </node>
                      </node>
                      <node concept="liA8E" id="7_qPA17KbEF" role="2OqNvi">
                        <ref role="37wK5l" to="mhbf:~SNode.setProperty(org.jetbrains.mps.openapi.language.SProperty,java.lang.String):void" resolve="setProperty" />
                        <node concept="355D3s" id="7_qPA17KbEG" role="37wK5m">
                          <ref role="355D3t" to="tpck:2ULFgo8_XDm" resolve="PropertyAttribute" />
                          <ref role="355D3u" to="tpck:1avfQ4BzllH" resolve="propertyId" />
                        </node>
                        <node concept="2OqwBi" id="7_qPA17KbEH" role="37wK5m">
                          <node concept="liA8E" id="7_qPA17KbEQ" role="2OqNvi">
                            <ref role="37wK5l" to="e8bb:~SPropertyId.serialize():java.lang.String" resolve="serialize" />
                          </node>
                          <node concept="2YIFZM" id="7bsIVfo62q2" role="2Oq$k0">
                            <ref role="37wK5l" to="e8bb:~MetaIdHelper.getProperty(org.jetbrains.mps.openapi.language.SProperty):jetbrains.mps.smodel.adapter.ids.SPropertyId" resolve="getProperty" />
                            <ref role="1Pybhc" to="e8bb:~MetaIdHelper" resolve="MetaIdHelper" />
                            <node concept="2OqwBi" id="7_qPA17KbEM" role="37wK5m">
                              <node concept="37vLTw" id="7_qPA17KbEN" role="2Oq$k0">
                                <ref role="3cqZAo" node="7_qPA17KbER" resolve="attribute" />
                              </node>
                              <node concept="2qgKlT" id="7_qPA17KbEO" role="2OqNvi">
                                <ref role="37wK5l" to="tpcu:1avfQ4BBzOo" resolve="getProperty" />
                              </node>
                            </node>
                          </node>
                        </node>
                      </node>
                    </node>
                  </node>
                </node>
                <node concept="Rh6nW" id="7_qPA17KbER" role="1bW2Oz">
                  <property role="TrG5h" value="attribute" />
                  <node concept="2jxLKc" id="7_qPA17KbES" role="1tU5fm" />
                </node>
              </node>
            </node>
          </node>
        </node>
        <node concept="3clFbH" id="7_qPA17Ke0G" role="3cqZAp" />
        <node concept="3cpWs8" id="7_qPA17Kdvi" role="3cqZAp">
          <node concept="3cpWsn" id="7_qPA17Kdvj" role="3cpWs9">
            <property role="TrG5h" value="referenceAttributes" />
            <node concept="A3Dl8" id="7_qPA17Kdvk" role="1tU5fm">
              <node concept="3Tqbb2" id="7_qPA17Kdvl" role="A3Ik2">
                <ref role="ehGHo" to="tpck:2ULFgo8_XDh" resolve="LinkAttribute" />
              </node>
            </node>
            <node concept="2OqwBi" id="7_qPA17Kdvm" role="33vP2m">
              <node concept="37vLTw" id="7_qPA17Kdvn" role="2Oq$k0">
                <ref role="3cqZAo" node="7_qPA17J8Yy" resolve="models" />
              </node>
              <node concept="3goQfb" id="7_qPA17Kdvo" role="2OqNvi">
                <node concept="1bVj0M" id="7_qPA17Kdvp" role="23t8la">
                  <node concept="3clFbS" id="7_qPA17Kdvq" role="1bW5cS">
                    <node concept="3clFbF" id="7_qPA17Kdvr" role="3cqZAp">
                      <node concept="2OqwBi" id="7_qPA17Kdvs" role="3clFbG">
                        <node concept="1eOMI4" id="7_qPA17Kdvt" role="2Oq$k0">
                          <node concept="10QFUN" id="7_qPA17Kdvu" role="1eOMHV">
                            <node concept="H_c77" id="7_qPA17Kdvv" role="10QFUM" />
                            <node concept="37vLTw" id="7_qPA17Kdvw" role="10QFUP">
                              <ref role="3cqZAo" node="7_qPA17Kdvy" resolve="model" />
                            </node>
                          </node>
                        </node>
                        <node concept="2SmgA7" id="7_qPA17Kdvx" role="2OqNvi">
                          <node concept="chp4Y" id="1jixkkC_WKv" role="1dBWTz">
                            <ref role="cht4Q" to="tpck:2ULFgo8_XDh" resolve="LinkAttribute" />
                          </node>
                        </node>
                      </node>
                    </node>
                  </node>
                  <node concept="Rh6nW" id="7_qPA17Kdvy" role="1bW2Oz">
                    <property role="TrG5h" value="model" />
                    <node concept="2jxLKc" id="7_qPA17Kdvz" role="1tU5fm" />
                  </node>
                </node>
              </node>
            </node>
          </node>
        </node>
        <node concept="3clFbH" id="7_qPA17Kd7$" role="3cqZAp" />
        <node concept="3clFbF" id="7_qPA17J7pZ" role="3cqZAp">
          <node concept="2OqwBi" id="7_qPA17Jc9R" role="3clFbG">
            <node concept="37vLTw" id="7_qPA17KeQ4" role="2Oq$k0">
              <ref role="3cqZAo" node="7_qPA17Kdvj" resolve="referenceAttributes" />
            </node>
            <node concept="2es0OD" id="7_qPA17JcPv" role="2OqNvi">
              <node concept="1bVj0M" id="7_qPA17JcPx" role="23t8la">
                <node concept="3clFbS" id="7_qPA17JcPy" role="1bW5cS">
                  <node concept="3clFbF" id="7_qPA17JcVb" role="3cqZAp">
                    <node concept="2OqwBi" id="1avfQ4BFAoc" role="3clFbG">
                      <node concept="2JrnkZ" id="7_qPA17K2OK" role="2Oq$k0">
                        <node concept="37vLTw" id="7_qPA17K2zf" role="2JrQYb">
                          <ref role="3cqZAo" node="7_qPA17JcPz" resolve="attribute" />
                        </node>
                      </node>
                      <node concept="liA8E" id="1avfQ4BFAoe" role="2OqNvi">
                        <ref role="37wK5l" to="mhbf:~SNode.setProperty(org.jetbrains.mps.openapi.language.SProperty,java.lang.String):void" resolve="setProperty" />
                        <node concept="355D3s" id="1avfQ4BFAof" role="37wK5m">
                          <ref role="355D3t" to="tpck:2ULFgo8_XDh" resolve="LinkAttribute" />
                          <ref role="355D3u" to="tpck:1avfQ4B$JLs" resolve="linkId" />
                        </node>
                        <node concept="2OqwBi" id="7_qPA17K7ND" role="37wK5m">
                          <node concept="2YIFZM" id="3HmgCTBoERU" role="2Oq$k0">
                            <ref role="37wK5l" to="e8bb:~MetaIdHelper.getAssociation(org.jetbrains.mps.openapi.language.SReferenceLink):jetbrains.mps.smodel.adapter.ids.SReferenceLinkId" resolve="getAssociation" />
                            <ref role="1Pybhc" to="e8bb:~MetaIdHelper" resolve="MetaIdHelper" />
                            <node concept="2OqwBi" id="3HmgCTBoERX" role="37wK5m">
                              <node concept="37vLTw" id="3HmgCTBoERY" role="2Oq$k0">
                                <ref role="3cqZAo" node="7_qPA17JcPz" resolve="attribute" />
                              </node>
                              <node concept="2qgKlT" id="3HmgCTBoERZ" role="2OqNvi">
                                <ref role="37wK5l" to="tpcu:1avfQ4BEFo6" resolve="getLink" />
                              </node>
                            </node>
                          </node>
                          <node concept="liA8E" id="7_qPA17K8fs" role="2OqNvi">
                            <ref role="37wK5l" to="e8bb:~SReferenceLinkId.serialize():java.lang.String" resolve="serialize" />
                          </node>
                        </node>
                      </node>
                    </node>
                  </node>
                </node>
                <node concept="Rh6nW" id="7_qPA17JcPz" role="1bW2Oz">
                  <property role="TrG5h" value="attribute" />
                  <node concept="2jxLKc" id="7_qPA17JcP$" role="1tU5fm" />
                </node>
              </node>
            </node>
          </node>
        </node>
      </node>
      <node concept="37vLTG" id="7_qPA17IYDP" role="3clF46">
        <property role="TrG5h" value="m" />
        <node concept="3uibUv" id="7_qPA17IYDO" role="1tU5fm">
          <ref role="3uigEE" to="lui2:~SModule" resolve="SModule" />
        </node>
      </node>
      <node concept="q3mfm" id="7_qPA17IYDQ" role="3clF45">
        <ref role="q3mfh" to="slm6:4F5w8gPXEEe" />
        <ref role="1QQUv3" node="7_qPA17IYDn" resolve="execute" />
      </node>
    </node>
    <node concept="3tYpMH" id="4JdgAL_7e0j" role="jymVt">
      <property role="TrG5h" value="isRerunnable" />
      <property role="3tYpME" value="true" />
      <ref role="25KYV2" to="slm6:1JWcQ2VeWIs" resolve="isRerunnable" />
      <node concept="3Tm1VV" id="4JdgAL_7e0l" role="1B3o_S" />
      <node concept="10P_77" id="4JdgAL_7e0m" role="1tU5fm" />
    </node>
    <node concept="q3mfD" id="4JdgAL_7e7A" role="jymVt">
      <property role="TrG5h" value="check" />
      <ref role="2VtyIY" to="slm6:1JWcQ2VeXpD" resolve="check" />
      <node concept="3Tm1VV" id="4JdgAL_7e7C" role="1B3o_S" />
      <node concept="3clFbS" id="4JdgAL_7e7E" role="3clF47">
        <node concept="L3pyB" id="4JdgAL_7enG" role="3cqZAp">
          <node concept="3clFbS" id="4JdgAL_7enH" role="L3pyw">
            <node concept="3cpWs8" id="4JdgAL_7hkY" role="3cqZAp">
              <node concept="3cpWsn" id="4JdgAL_7hkZ" role="3cpWs9">
                <property role="TrG5h" value="result" />
                <node concept="_YKpA" id="4JdgAL_7hEa" role="1tU5fm">
                  <node concept="3uibUv" id="4JdgAL_7hEc" role="_ZDj9">
                    <ref role="3uigEE" to="6f4m:3n7MNzO_IjP" resolve="Problem" />
                  </node>
                </node>
                <node concept="2ShNRf" id="4JdgAL_7hOb" role="33vP2m">
                  <node concept="Tc6Ow" id="4JdgAL_7hNT" role="2ShVmc">
                    <node concept="3uibUv" id="4JdgAL_7hNU" role="HW$YZ">
                      <ref role="3uigEE" to="6f4m:3n7MNzO_IjP" resolve="Problem" />
                    </node>
                  </node>
                </node>
              </node>
            </node>
            <node concept="3clFbF" id="4JdgAL_7hXg" role="3cqZAp">
              <node concept="2OqwBi" id="4JdgAL_7i6s" role="3clFbG">
                <node concept="37vLTw" id="4JdgAL_7hXe" role="2Oq$k0">
                  <ref role="3cqZAo" node="4JdgAL_7hkZ" resolve="result" />
                </node>
                <node concept="X8dFx" id="4JdgAL_7iJs" role="2OqNvi">
                  <node concept="2OqwBi" id="4JdgAL_7hl0" role="25WWJ7">
                    <node concept="2OqwBi" id="4JdgAL_7hl1" role="2Oq$k0">
                      <node concept="qVDSY" id="4JdgAL_7hl2" role="2Oq$k0">
                        <node concept="1dO9Bo" id="4JdgAL_7hl3" role="1dOa5D" />
                        <node concept="chp4Y" id="4JdgAL_7hl4" role="qVDSX">
                          <ref role="cht4Q" to="tpck:2ULFgo8_XDm" resolve="PropertyAttribute" />
                        </node>
                      </node>
                      <node concept="3zZkjj" id="4JdgAL_7hl5" role="2OqNvi">
                        <node concept="1bVj0M" id="4JdgAL_7hl6" role="23t8la">
                          <node concept="3clFbS" id="4JdgAL_7hl7" role="1bW5cS">
                            <node concept="3clFbF" id="4JdgAL_7hl8" role="3cqZAp">
                              <node concept="2OqwBi" id="4JdgAL_7hl9" role="3clFbG">
                                <node concept="2OqwBi" id="4JdgAL_7hla" role="2Oq$k0">
                                  <node concept="37vLTw" id="4JdgAL_7hlb" role="2Oq$k0">
                                    <ref role="3cqZAo" node="4JdgAL_7hle" resolve="it" />
                                  </node>
                                  <node concept="3TrcHB" id="4JdgAL_7hlc" role="2OqNvi">
                                    <ref role="3TsBF5" to="tpck:1avfQ4BzllH" resolve="propertyId" />
                                  </node>
                                </node>
                                <node concept="17RlXB" id="4JdgAL_7m4R" role="2OqNvi" />
                              </node>
                            </node>
                          </node>
                          <node concept="Rh6nW" id="4JdgAL_7hle" role="1bW2Oz">
                            <property role="TrG5h" value="it" />
                            <node concept="2jxLKc" id="4JdgAL_7hlf" role="1tU5fm" />
                          </node>
                        </node>
                      </node>
                    </node>
                    <node concept="3$u5V9" id="4JdgAL_7hlg" role="2OqNvi">
                      <node concept="1bVj0M" id="4JdgAL_7hlh" role="23t8la">
                        <node concept="3clFbS" id="4JdgAL_7hli" role="1bW5cS">
                          <node concept="3clFbF" id="4JdgAL_7hlj" role="3cqZAp">
                            <node concept="2ShNRf" id="4JdgAL_7hlk" role="3clFbG">
                              <node concept="YeOm9" id="4JdgAL_7hll" role="2ShVmc">
                                <node concept="1Y3b0j" id="4JdgAL_7hlm" role="YeSDq">
                                  <property role="2bfB8j" value="true" />
                                  <ref role="37wK5l" to="6f4m:4JdgAL_5wEf" resolve="NotMigratedNode" />
                                  <ref role="1Y3XeK" to="6f4m:4JdgAL_5vM9" resolve="NotMigratedNode" />
                                  <node concept="3Tm1VV" id="4JdgAL_7hln" role="1B3o_S" />
                                  <node concept="3clFb_" id="4JdgAL_7hlo" role="jymVt">
                                    <property role="TrG5h" value="getMessage" />
                                    <property role="1EzhhJ" value="false" />
                                    <node concept="3uibUv" id="4JdgAL_7hlp" role="3clF45">
                                      <ref role="3uigEE" to="wyt6:~String" resolve="String" />
                                    </node>
                                    <node concept="3Tm1VV" id="4JdgAL_7hlq" role="1B3o_S" />
                                    <node concept="3clFbS" id="4JdgAL_7hlr" role="3clF47">
                                      <node concept="3clFbF" id="4JdgAL_7hls" role="3cqZAp">
                                        <node concept="Xl_RD" id="4JdgAL_7hlt" role="3clFbG">
                                          <property role="Xl_RC" value="Property id is not set for property attribute" />
                                        </node>
                                      </node>
                                    </node>
                                  </node>
                                  <node concept="37vLTw" id="4JdgAL_7hlu" role="37wK5m">
                                    <ref role="3cqZAo" node="4JdgAL_7hlv" resolve="it" />
                                  </node>
                                </node>
                              </node>
                            </node>
                          </node>
                        </node>
                        <node concept="Rh6nW" id="4JdgAL_7hlv" role="1bW2Oz">
                          <property role="TrG5h" value="it" />
                          <node concept="2jxLKc" id="4JdgAL_7hlw" role="1tU5fm" />
                        </node>
                      </node>
                    </node>
                  </node>
                </node>
              </node>
            </node>
            <node concept="3clFbF" id="4JdgAL_7j4T" role="3cqZAp">
              <node concept="2OqwBi" id="4JdgAL_7j4U" role="3clFbG">
                <node concept="37vLTw" id="4JdgAL_7j4V" role="2Oq$k0">
                  <ref role="3cqZAo" node="4JdgAL_7hkZ" resolve="result" />
                </node>
                <node concept="X8dFx" id="4JdgAL_7j4W" role="2OqNvi">
                  <node concept="2OqwBi" id="4JdgAL_7j4X" role="25WWJ7">
                    <node concept="2OqwBi" id="4JdgAL_7j4Y" role="2Oq$k0">
                      <node concept="qVDSY" id="4JdgAL_7j4Z" role="2Oq$k0">
                        <node concept="1dO9Bo" id="4JdgAL_7j50" role="1dOa5D" />
                        <node concept="chp4Y" id="4JdgAL_7jIq" role="qVDSX">
                          <ref role="cht4Q" to="tpck:2ULFgo8_XDh" resolve="LinkAttribute" />
                        </node>
                      </node>
                      <node concept="3zZkjj" id="4JdgAL_7j52" role="2OqNvi">
                        <node concept="1bVj0M" id="4JdgAL_7j53" role="23t8la">
                          <node concept="3clFbS" id="4JdgAL_7j54" role="1bW5cS">
                            <node concept="3clFbF" id="4JdgAL_7j55" role="3cqZAp">
                              <node concept="2OqwBi" id="4JdgAL_7j56" role="3clFbG">
                                <node concept="2OqwBi" id="4JdgAL_7j57" role="2Oq$k0">
                                  <node concept="37vLTw" id="4JdgAL_7j58" role="2Oq$k0">
                                    <ref role="3cqZAo" node="4JdgAL_7j5b" resolve="it" />
                                  </node>
                                  <node concept="3TrcHB" id="4JdgAL_7lP2" role="2OqNvi">
                                    <ref role="3TsBF5" to="tpck:1avfQ4B$JLs" resolve="linkId" />
                                  </node>
                                </node>
                                <node concept="17RlXB" id="4JdgAL_7mkD" role="2OqNvi" />
                              </node>
                            </node>
                          </node>
                          <node concept="Rh6nW" id="4JdgAL_7j5b" role="1bW2Oz">
                            <property role="TrG5h" value="it" />
                            <node concept="2jxLKc" id="4JdgAL_7j5c" role="1tU5fm" />
                          </node>
                        </node>
                      </node>
                    </node>
                    <node concept="3$u5V9" id="4JdgAL_7j5d" role="2OqNvi">
                      <node concept="1bVj0M" id="4JdgAL_7j5e" role="23t8la">
                        <node concept="3clFbS" id="4JdgAL_7j5f" role="1bW5cS">
                          <node concept="3clFbF" id="4JdgAL_7j5g" role="3cqZAp">
                            <node concept="2ShNRf" id="4JdgAL_7j5h" role="3clFbG">
                              <node concept="YeOm9" id="4JdgAL_7j5i" role="2ShVmc">
                                <node concept="1Y3b0j" id="4JdgAL_7j5j" role="YeSDq">
                                  <property role="2bfB8j" value="true" />
                                  <ref role="37wK5l" to="6f4m:4JdgAL_5wEf" resolve="NotMigratedNode" />
                                  <ref role="1Y3XeK" to="6f4m:4JdgAL_5vM9" resolve="NotMigratedNode" />
                                  <node concept="3Tm1VV" id="4JdgAL_7j5k" role="1B3o_S" />
                                  <node concept="3clFb_" id="4JdgAL_7j5l" role="jymVt">
                                    <property role="TrG5h" value="getMessage" />
                                    <property role="1EzhhJ" value="false" />
                                    <node concept="3uibUv" id="4JdgAL_7j5m" role="3clF45">
                                      <ref role="3uigEE" to="wyt6:~String" resolve="String" />
                                    </node>
                                    <node concept="3Tm1VV" id="4JdgAL_7j5n" role="1B3o_S" />
                                    <node concept="3clFbS" id="4JdgAL_7j5o" role="3clF47">
                                      <node concept="3clFbF" id="4JdgAL_7j5p" role="3cqZAp">
                                        <node concept="Xl_RD" id="4JdgAL_7j5q" role="3clFbG">
                                          <property role="Xl_RC" value="Link id is not set for link attribute" />
                                        </node>
                                      </node>
                                    </node>
                                  </node>
                                  <node concept="37vLTw" id="4JdgAL_7j5r" role="37wK5m">
                                    <ref role="3cqZAo" node="4JdgAL_7j5s" resolve="it" />
                                  </node>
                                </node>
                              </node>
                            </node>
                          </node>
                        </node>
                        <node concept="Rh6nW" id="4JdgAL_7j5s" role="1bW2Oz">
                          <property role="TrG5h" value="it" />
                          <node concept="2jxLKc" id="4JdgAL_7j5t" role="1tU5fm" />
                        </node>
                      </node>
                    </node>
                  </node>
                </node>
              </node>
            </node>
            <node concept="3cpWs6" id="4JdgAL_7gyb" role="3cqZAp">
              <node concept="37vLTw" id="4JdgAL_7hlx" role="3cqZAk">
                <ref role="3cqZAo" node="4JdgAL_7hkZ" resolve="result" />
              </node>
            </node>
          </node>
          <node concept="37vLTw" id="4JdgAL_7eoc" role="L3pyr">
            <ref role="3cqZAo" node="4JdgAL_7e7G" resolve="m" />
          </node>
        </node>
      </node>
      <node concept="ffn8J" id="4JdgAL_7e7G" role="3clF46">
        <property role="TrG5h" value="m" />
        <ref role="ffrpq" to="slm6:1JWcQ2VeXI5" resolve="m" />
        <node concept="3uibUv" id="4JdgAL_7e7F" role="1tU5fm">
          <ref role="3uigEE" to="lui2:~SModule" resolve="SModule" />
        </node>
      </node>
      <node concept="A3Dl8" id="4JdgAL_7e7H" role="3clF45">
        <node concept="3uibUv" id="4JdgAL_7e7I" role="A3Ik2">
          <ref role="3uigEE" to="6f4m:3n7MNzO_IjP" resolve="Problem" />
        </node>
      </node>
    </node>
  </node>
</model>

