<?xml version="1.0" encoding="UTF-8"?>
<model ref="r:d9efd362-28b8-4f70-9bcd-fb582528d11c(jetbrains.mps.lang.core.refactorings)">
  <persistence version="9" />
  <languages>
    <use id="64d34fcd-ad02-4e73-aff8-a581124c2e30" name="jetbrains.mps.lang.findUsages" version="0" />
    <use id="3ecd7c84-cde3-45de-886c-135ecc69b742" name="jetbrains.mps.lang.refactoring" version="0" />
    <devkit ref="fbc25dd2-5da4-483a-8b19-70928e1b62d7(jetbrains.mps.devkit.general-purpose)" />
  </languages>
  <imports>
    <import index="tpck" ref="r:00000000-0000-4000-0000-011c89590288(jetbrains.mps.lang.core.structure)" />
    <import index="tpci" ref="r:00000000-0000-4000-0000-011c8959028e(jetbrains.mps.lang.structure.findUsages)" />
    <import index="iwwu" ref="r:2c4d9270-b6d6-44af-aecd-e01a223680db(jetbrains.mps.kernel.model)" />
    <import index="tpce" ref="r:00000000-0000-4000-0000-011c89590292(jetbrains.mps.lang.structure.structure)" />
    <import index="wyt6" ref="6354ebe7-c22a-4a0f-ac54-50b52ab9b065/java:java.lang(JDK/)" />
    <import index="9erk" ref="6ed54515-acc8-4d1e-a16c-9fd6cfe951ea/java:jetbrains.mps.ide.findusages.model(MPS.Core/)" />
    <import index="w1kc" ref="6ed54515-acc8-4d1e-a16c-9fd6cfe951ea/java:jetbrains.mps.smodel(MPS.Core/)" />
    <import index="k6ay" ref="6ed54515-acc8-4d1e-a16c-9fd6cfe951ea/java:jetbrains.mps.smodel.search(MPS.Core/)" />
    <import index="mhbf" ref="8865b7a8-5271-43d3-884c-6fd1d9cfdd34/java:org.jetbrains.mps.openapi.model(MPS.OpenAPI/)" />
    <import index="c17a" ref="8865b7a8-5271-43d3-884c-6fd1d9cfdd34/java:org.jetbrains.mps.openapi.language(MPS.OpenAPI/)" />
  </imports>
  <registry>
    <language id="f3061a53-9226-4cc5-a443-f952ceaf5816" name="jetbrains.mps.baseLanguage">
      <concept id="1215693861676" name="jetbrains.mps.baseLanguage.structure.BaseAssignmentExpression" flags="nn" index="d038R">
        <child id="1068498886297" name="rValue" index="37vLTx" />
        <child id="1068498886295" name="lValue" index="37vLTJ" />
      </concept>
      <concept id="1197027756228" name="jetbrains.mps.baseLanguage.structure.DotExpression" flags="nn" index="2OqwBi">
        <child id="1197027771414" name="operand" index="2Oq$k0" />
        <child id="1197027833540" name="operation" index="2OqNvi" />
      </concept>
      <concept id="1145552977093" name="jetbrains.mps.baseLanguage.structure.GenericNewExpression" flags="nn" index="2ShNRf">
        <child id="1145553007750" name="creator" index="2ShVmc" />
      </concept>
      <concept id="1137021947720" name="jetbrains.mps.baseLanguage.structure.ConceptFunction" flags="in" index="2VMwT0">
        <child id="1137022507850" name="body" index="2VODD2" />
      </concept>
      <concept id="1164991038168" name="jetbrains.mps.baseLanguage.structure.ThrowStatement" flags="nn" index="YS8fn">
        <child id="1164991057263" name="throwable" index="YScLw" />
      </concept>
      <concept id="1068498886294" name="jetbrains.mps.baseLanguage.structure.AssignmentExpression" flags="nn" index="37vLTI" />
      <concept id="1225271177708" name="jetbrains.mps.baseLanguage.structure.StringType" flags="in" index="17QB3L" />
      <concept id="4972933694980447171" name="jetbrains.mps.baseLanguage.structure.BaseVariableDeclaration" flags="ng" index="19Szcq">
        <child id="5680397130376446158" name="type" index="1tU5fm" />
      </concept>
      <concept id="1068580123155" name="jetbrains.mps.baseLanguage.structure.ExpressionStatement" flags="nn" index="3clFbF">
        <child id="1068580123156" name="expression" index="3clFbG" />
      </concept>
      <concept id="1068580123136" name="jetbrains.mps.baseLanguage.structure.StatementList" flags="sn" stub="5293379017992965193" index="3clFbS">
        <child id="1068581517665" name="statement" index="3cqZAp" />
      </concept>
      <concept id="1068580123137" name="jetbrains.mps.baseLanguage.structure.BooleanConstant" flags="nn" index="3clFbT">
        <property id="1068580123138" name="value" index="3clFbU" />
      </concept>
      <concept id="1068581242878" name="jetbrains.mps.baseLanguage.structure.ReturnStatement" flags="nn" index="3cpWs6">
        <child id="1068581517676" name="expression" index="3cqZAk" />
      </concept>
      <concept id="1204053956946" name="jetbrains.mps.baseLanguage.structure.IMethodCall" flags="ng" index="1ndlxa">
        <reference id="1068499141037" name="baseMethodDeclaration" index="37wK5l" />
      </concept>
      <concept id="1212685548494" name="jetbrains.mps.baseLanguage.structure.ClassCreator" flags="nn" index="1pGfFk" />
    </language>
    <language id="3ecd7c84-cde3-45de-886c-135ecc69b742" name="jetbrains.mps.lang.refactoring">
      <concept id="7953996722066252915" name="jetbrains.mps.lang.refactoring.structure.NodeOperation" flags="nn" index="50M6j" />
      <concept id="7953996722066256458" name="jetbrains.mps.lang.refactoring.structure.RefactoringContext_ConceptFunctionParameter" flags="nn" index="50NuE" />
      <concept id="4347648036456711197" name="jetbrains.mps.lang.refactoring.structure.ModelsToGenerateByDefault" flags="nn" index="29ebr7" />
      <concept id="1200932465350" name="jetbrains.mps.lang.refactoring.structure.AffectedNodesClause" flags="in" index="2t9MJh" />
      <concept id="1682834381185132063" name="jetbrains.mps.lang.refactoring.structure.ModelsToGenerateClause" flags="in" index="P00rF" />
      <concept id="5497648299878741970" name="jetbrains.mps.lang.refactoring.structure.InitClause" flags="in" index="1M1Ini" />
      <concept id="6895093993902236229" name="jetbrains.mps.lang.refactoring.structure.Refactoring" flags="ig" index="3SMa$L">
        <property id="6895093993902236371" name="userFriendlyName" index="3SMaAB" />
        <child id="616550569928923871" name="modelsToGenerateBlock" index="28Zu_" />
        <child id="1347577327951503399" name="affectedNodesBlock" index="2LmeTn" />
        <child id="5497648299878741976" name="initBlock" index="1M1Ino" />
        <child id="6895093993902236381" name="doRefactorBlock" index="3SMaAD" />
        <child id="6895093993902236376" name="parameter" index="3SMaAG" />
        <child id="6895093993902310998" name="target" index="3SM$Oy" />
      </concept>
      <concept id="6895093993902311012" name="jetbrains.mps.lang.refactoring.structure.RefactoringParameter" flags="ng" index="3SM$Og" />
      <concept id="6895093993902310764" name="jetbrains.mps.lang.refactoring.structure.NodeTarget" flags="ng" index="3SM$So">
        <reference id="6895093993902310806" name="concept" index="3SM$Vy" />
      </concept>
      <concept id="6895093993902310761" name="jetbrains.mps.lang.refactoring.structure.RefactoringTarget" flags="ng" index="3SM$St">
        <property id="6895093993902310999" name="allowMultiple" index="3SM$Oz" />
      </concept>
      <concept id="6895093993902496262" name="jetbrains.mps.lang.refactoring.structure.RefactoringParameterReference" flags="nn" index="3SN95M">
        <reference id="6895093993902496263" name="refactoringParameter" index="3SN95N" />
      </concept>
      <concept id="1189694053795" name="jetbrains.mps.lang.refactoring.structure.DoRefactorClause" flags="in" index="3ZiDMR" />
    </language>
    <language id="c72da2b9-7cce-4447-8389-f407dc1158b7" name="jetbrains.mps.lang.structure">
      <concept id="1224240836180" name="jetbrains.mps.lang.structure.structure.DeprecatedNodeAnnotation" flags="ig" index="asaX9">
        <property id="1225118929411" name="build" index="YLPcu" />
        <property id="1225118933224" name="comment" index="YLQ7P" />
      </concept>
    </language>
    <language id="7866978e-a0f0-4cc7-81bc-4d213d9375e1" name="jetbrains.mps.lang.smodel">
      <concept id="1138056022639" name="jetbrains.mps.lang.smodel.structure.SPropertyAccess" flags="nn" index="3TrcHB">
        <reference id="1138056395725" name="property" index="3TsBF5" />
      </concept>
    </language>
    <language id="ceab5195-25ea-4f22-9b92-103b95ca8c0c" name="jetbrains.mps.lang.core">
      <concept id="1133920641626" name="jetbrains.mps.lang.core.structure.BaseConcept" flags="ng" index="2VYdi">
        <child id="5169995583184591170" name="smodelAttribute" index="lGtFl" />
      </concept>
      <concept id="1169194658468" name="jetbrains.mps.lang.core.structure.INamedConcept" flags="ng" index="TrEIO">
        <property id="1169194664001" name="name" index="TrG5h" />
      </concept>
    </language>
    <language id="64d34fcd-ad02-4e73-aff8-a581124c2e30" name="jetbrains.mps.lang.findUsages">
      <concept id="2005690715325995359" name="jetbrains.mps.lang.findUsages.structure.FinderReference" flags="ng" index="zAVLb">
        <reference id="7222148688691763792" name="finder" index="2$JaeB" />
      </concept>
      <concept id="2005690715325995353" name="jetbrains.mps.lang.findUsages.structure.ExecuteFindersGetSearchResults" flags="nn" index="zAVLd">
        <child id="6366407517031970110" name="queryNode" index="2GiN3p" />
        <child id="8150507060913099385" name="finder" index="1C5ry4" />
      </concept>
    </language>
  </registry>
  <node concept="3SMa$L" id="1aNzB2zVRgC">
    <property role="3SMaAB" value="Rename" />
    <property role="TrG5h" value="Rename" />
    <node concept="3SM$Og" id="1aNzB2zVTDC" role="3SMaAG">
      <property role="TrG5h" value="newName" />
      <node concept="17QB3L" id="3iH6jrksVrg" role="1tU5fm" />
    </node>
    <node concept="3SM$So" id="1aNzB2zVRgG" role="3SM$Oy">
      <ref role="3SM$Vy" to="tpck:h0TrEE$" resolve="INamedConcept" />
    </node>
    <node concept="3ZiDMR" id="1aNzB2zVRgE" role="3SMaAD">
      <node concept="3clFbS" id="1aNzB2zVRgF" role="2VODD2">
        <node concept="3clFbF" id="1aNzB2zVTEe" role="3cqZAp">
          <node concept="37vLTI" id="1aNzB2zVTEf" role="3clFbG">
            <node concept="3SN95M" id="1aNzB2zVTEg" role="37vLTx">
              <ref role="3SN95N" node="1aNzB2zVTDC" resolve="newName" />
            </node>
            <node concept="2OqwBi" id="1aNzB2zVTEh" role="37vLTJ">
              <node concept="2OqwBi" id="1aNzB2zVTEi" role="2Oq$k0">
                <node concept="50NuE" id="1aNzB2zVTEj" role="2Oq$k0" />
                <node concept="50M6j" id="1aNzB2zVTEk" role="2OqNvi" />
              </node>
              <node concept="3TrcHB" id="1aNzB2zVTEl" role="2OqNvi">
                <ref role="3TsBF5" to="tpck:h0TrG11" resolve="name" />
              </node>
            </node>
          </node>
        </node>
      </node>
    </node>
    <node concept="1M1Ini" id="1aNzB2zVTDP" role="1M1Ino">
      <node concept="3clFbS" id="1aNzB2zVTDQ" role="2VODD2">
        <node concept="3cpWs6" id="3E0VHwoHv7k" role="3cqZAp">
          <node concept="3clFbT" id="3E0VHwoHv7m" role="3cqZAk">
            <property role="3clFbU" value="true" />
          </node>
        </node>
      </node>
    </node>
    <node concept="2t9MJh" id="1aNzB2zVTEm" role="2LmeTn">
      <node concept="3clFbS" id="1aNzB2zVTEn" role="2VODD2">
        <node concept="3clFbF" id="1aNzB2zVTEp" role="3cqZAp">
          <node concept="zAVLd" id="3X$1g2TxRCt" role="3clFbG">
            <node concept="zAVLb" id="3X$1g2TxRCu" role="1C5ry4">
              <ref role="2$JaeB" to="tpci:hs82Tlp" resolve="NodeAndDescendantsUsages" />
            </node>
            <node concept="2OqwBi" id="3X$1g2TxRCv" role="2GiN3p">
              <node concept="50NuE" id="3X$1g2TxRCw" role="2Oq$k0" />
              <node concept="50M6j" id="3X$1g2TxRCx" role="2OqNvi" />
            </node>
          </node>
        </node>
      </node>
    </node>
    <node concept="P00rF" id="5r8cKKQV$ox" role="28Zu_">
      <node concept="3clFbS" id="5r8cKKQV$oy" role="2VODD2">
        <node concept="3clFbF" id="5r8cKKQV_oG" role="3cqZAp">
          <node concept="29ebr7" id="5r8cKKQV_oH" role="3clFbG" />
        </node>
      </node>
    </node>
  </node>
  <node concept="3SMa$L" id="65fYhwGpKCS">
    <property role="3SMaAB" value="Move Nodes" />
    <property role="TrG5h" value="MoveNodes" />
    <node concept="3SM$So" id="65fYhwGpKLe" role="3SM$Oy">
      <property role="3SM$Oz" value="true" />
    </node>
    <node concept="3ZiDMR" id="65fYhwGpKCU" role="3SMaAD">
      <node concept="3clFbS" id="65fYhwGpKCV" role="2VODD2">
        <node concept="YS8fn" id="6uoOrkm6ASq" role="3cqZAp">
          <node concept="2ShNRf" id="6uoOrkm6AZF" role="YScLw">
            <node concept="1pGfFk" id="6uoOrkm6CpM" role="2ShVmc">
              <ref role="37wK5l" to="wyt6:~UnsupportedOperationException.&lt;init&gt;()" resolve="UnsupportedOperationException" />
            </node>
          </node>
        </node>
      </node>
    </node>
    <node concept="asaX9" id="30kw7F07uUh" role="lGtFl">
      <property role="YLPcu" value="3.4" />
      <property role="YLQ7P" value="Use MoveNodeParticipantEP extensinon point to handle special kinds of usages, or use MoveNodesActionEP to implement special moving/UI behavior" />
    </node>
  </node>
</model>

