<?xml version="1.0" encoding="UTF-8"?>
<model ref="r:d919e39e-ef97-4541-8872-046b24e3733c(jetbrains.mps.lang.slanguage.editor)">
  <persistence version="9" />
  <languages>
    <use id="18bc6592-03a6-4e29-a83a-7ff23bde13ba" name="jetbrains.mps.lang.editor" version="3" />
    <devkit ref="fbc25dd2-5da4-483a-8b19-70928e1b62d7(jetbrains.mps.devkit.general-purpose)" />
  </languages>
  <imports>
    <import index="5ds8" ref="r:00d5aa52-8575-44dd-8a7e-68abaac24f2c(jetbrains.mps.lang.slanguage.structure)" implicit="true" />
    <import index="tpco" ref="r:00000000-0000-4000-0000-011c89590284(jetbrains.mps.lang.core.editor)" implicit="true" />
    <import index="tpen" ref="r:00000000-0000-4000-0000-011c895902c3(jetbrains.mps.baseLanguage.editor)" implicit="true" />
    <import index="tpck" ref="r:00000000-0000-4000-0000-011c89590288(jetbrains.mps.lang.core.structure)" implicit="true" />
    <import index="tpep" ref="r:00000000-0000-4000-0000-011c895902fd(jetbrains.mps.lang.smodel.editor)" implicit="true" />
  </imports>
  <registry>
    <language id="18bc6592-03a6-4e29-a83a-7ff23bde13ba" name="jetbrains.mps.lang.editor">
      <concept id="1071666914219" name="jetbrains.mps.lang.editor.structure.ConceptEditorDeclaration" flags="ig" index="24kQdi" />
      <concept id="1106270549637" name="jetbrains.mps.lang.editor.structure.CellLayout_Horizontal" flags="nn" index="2iRfu4" />
      <concept id="1237303669825" name="jetbrains.mps.lang.editor.structure.CellLayout_Indent" flags="nn" index="l2Vlx" />
      <concept id="1080736578640" name="jetbrains.mps.lang.editor.structure.BaseEditorComponent" flags="ig" index="2wURMF">
        <child id="1080736633877" name="cellModel" index="2wV5jI" />
      </concept>
      <concept id="1078939183254" name="jetbrains.mps.lang.editor.structure.CellModel_Component" flags="sg" stub="3162947552742194261" index="PMmxH">
        <reference id="1078939183255" name="editorComponent" index="PMmxG" />
      </concept>
      <concept id="1088013125922" name="jetbrains.mps.lang.editor.structure.CellModel_RefCell" flags="sg" stub="730538219795941030" index="1iCGBv">
        <child id="1088186146602" name="editorComponent" index="1sWHZn" />
      </concept>
      <concept id="1381004262292414836" name="jetbrains.mps.lang.editor.structure.ICellStyle" flags="ng" index="1k5N5V">
        <reference id="1381004262292426837" name="parentStyleClass" index="1k5W1q" />
      </concept>
      <concept id="1088185857835" name="jetbrains.mps.lang.editor.structure.InlineEditorComponent" flags="ig" index="1sVBvm" />
      <concept id="1139848536355" name="jetbrains.mps.lang.editor.structure.CellModel_WithRole" flags="ng" index="1$h60E">
        <property id="1140017977771" name="readOnly" index="1Intyy" />
        <reference id="1140103550593" name="relationDeclaration" index="1NtTu8" />
      </concept>
      <concept id="1073389446423" name="jetbrains.mps.lang.editor.structure.CellModel_Collection" flags="sn" stub="3013115976261988961" index="3EZMnI">
        <child id="1106270802874" name="cellLayout" index="2iSdaV" />
        <child id="1073389446424" name="childCellModel" index="3EZMnx" />
      </concept>
      <concept id="1073389577006" name="jetbrains.mps.lang.editor.structure.CellModel_Constant" flags="sn" stub="3610246225209162225" index="3F0ifn">
        <property id="1073389577007" name="text" index="3F0ifm" />
      </concept>
      <concept id="1073389658414" name="jetbrains.mps.lang.editor.structure.CellModel_Property" flags="sg" stub="730538219796134133" index="3F0A7n" />
      <concept id="1073389882823" name="jetbrains.mps.lang.editor.structure.CellModel_RefNode" flags="sg" stub="730538219795960754" index="3F1sOY" />
      <concept id="1166049232041" name="jetbrains.mps.lang.editor.structure.AbstractComponent" flags="ng" index="1XWOmA">
        <reference id="1166049300910" name="conceptDeclaration" index="1XX52x" />
      </concept>
    </language>
    <language id="ceab5195-25ea-4f22-9b92-103b95ca8c0c" name="jetbrains.mps.lang.core">
      <concept id="1133920641626" name="jetbrains.mps.lang.core.structure.BaseConcept" flags="ng" index="2VYdi">
        <property id="1193676396447" name="virtualPackage" index="3GE5qa" />
      </concept>
    </language>
  </registry>
  <node concept="24kQdi" id="5m$620fQi28">
    <property role="3GE5qa" value="reference" />
    <ref role="1XX52x" to="5ds8:5m$620fQi1E" resolve="AspectModelRefExpression" />
    <node concept="3EZMnI" id="5m$620fQi2a" role="2wV5jI">
      <node concept="PMmxH" id="5m$620fQi2k" role="3EZMnx">
        <ref role="PMmxG" to="tpco:2wZex4PafBj" resolve="alias" />
      </node>
      <node concept="3F0ifn" id="5m$620fQiaz" role="3EZMnx">
        <property role="3F0ifm" value="/" />
        <ref role="1k5W1q" to="tpen:hY9fg1G" resolve="LeftParenAfterName" />
      </node>
      <node concept="3F1sOY" id="5m$620fQikd" role="3EZMnx">
        <ref role="1NtTu8" to="5ds8:5m$620fQi1F" />
      </node>
      <node concept="3F0ifn" id="5m$620fQikM" role="3EZMnx">
        <property role="3F0ifm" value=":" />
      </node>
      <node concept="1iCGBv" id="5m$620fRjop" role="3EZMnx">
        <ref role="1NtTu8" to="5ds8:5m$620fRjo7" />
        <node concept="1sVBvm" id="5m$620fRjor" role="1sWHZn">
          <node concept="3F0A7n" id="5m$620fRjoE" role="2wV5jI">
            <property role="1Intyy" value="true" />
            <ref role="1NtTu8" to="tpck:h0TrG11" resolve="name" />
          </node>
        </node>
      </node>
      <node concept="3F0ifn" id="5m$620fQib3" role="3EZMnx">
        <property role="3F0ifm" value="/" />
        <ref role="1k5W1q" to="tpen:hFCSUmN" resolve="RightParen" />
      </node>
      <node concept="2iRfu4" id="5m$620fQi2d" role="2iSdaV" />
    </node>
  </node>
  <node concept="24kQdi" id="1KHvivZHjWl">
    <property role="3GE5qa" value="operation.model" />
    <ref role="1XX52x" to="5ds8:1KHvivZHjVV" resolve="Model_IsAspectOperation" />
    <node concept="3EZMnI" id="1KHvivZHjWn" role="2wV5jI">
      <node concept="PMmxH" id="1KHvivZHjWo" role="3EZMnx">
        <ref role="PMmxG" to="tpep:hzBPeWP" resolve="ReplaceableAlias_Comp" />
      </node>
      <node concept="3F0ifn" id="1KHvivZHjWp" role="3EZMnx">
        <property role="3F0ifm" value="(" />
        <ref role="1k5W1q" to="tpen:hY9fg1G" resolve="LeftParenAfterName" />
      </node>
      <node concept="1iCGBv" id="1KHvivZHjYZ" role="3EZMnx">
        <ref role="1NtTu8" to="5ds8:1KHvivZHjYS" />
        <node concept="1sVBvm" id="1KHvivZHjZ1" role="1sWHZn">
          <node concept="3F0A7n" id="1KHvivZHjZb" role="2wV5jI">
            <property role="1Intyy" value="true" />
            <ref role="1NtTu8" to="tpck:h0TrG11" resolve="name" />
          </node>
        </node>
      </node>
      <node concept="3F0ifn" id="1KHvivZHjWr" role="3EZMnx">
        <property role="3F0ifm" value=")" />
        <ref role="1k5W1q" to="tpen:hFCSUmN" resolve="RightParen" />
      </node>
      <node concept="l2Vlx" id="1KHvivZHjWs" role="2iSdaV" />
    </node>
  </node>
</model>

