<?xml version="1.0" encoding="UTF-8"?>
<model ref="r:6f85713e-cea3-45a9-84b5-17320f53325d(jetbrains.mps.traceInfo.tracemacro.testlang.behavior)">
  <persistence version="9" />
  <languages>
    <use id="af65afd8-f0dd-4942-87d9-63a55f2a9db1" name="jetbrains.mps.lang.behavior" version="0" />
    <devkit ref="fbc25dd2-5da4-483a-8b19-70928e1b62d7(jetbrains.mps.devkit.general-purpose)" />
  </languages>
  <imports>
    <import index="nac4" ref="r:9250e562-77b8-46ca-b96b-24ddc8274461(jetbrains.mps.traceInfo.tracemacro.testlang.structure)" />
  </imports>
  <registry />
</model>

