<?xml version="1.0" encoding="UTF-8"?>
<model ref="r:3c5c2287-454d-47c6-87da-b63f6fee004b(jetbrains.mps.traceInfo.tracemacro.testlang.constraints)">
  <persistence version="9" />
  <languages>
    <use id="3f4bc5f5-c6c1-4a28-8b10-c83066ffa4a1" name="jetbrains.mps.lang.constraints" version="0" />
    <devkit ref="fbc25dd2-5da4-483a-8b19-70928e1b62d7(jetbrains.mps.devkit.general-purpose)" />
  </languages>
  <imports>
    <import index="nac4" ref="r:9250e562-77b8-46ca-b96b-24ddc8274461(jetbrains.mps.traceInfo.tracemacro.testlang.structure)" />
  </imports>
  <registry />
</model>

