<?xml version="1.0" encoding="UTF-8"?>
<model ref="r:3a5df19a-24e4-45dd-b626-7b1cda9f9622(jetbrains.mps.traceInfo.tracemacro.testlang.editor)">
  <persistence version="9" />
  <languages>
    <use id="18bc6592-03a6-4e29-a83a-7ff23bde13ba" name="jetbrains.mps.lang.editor" version="3" />
    <devkit ref="fbc25dd2-5da4-483a-8b19-70928e1b62d7(jetbrains.mps.devkit.general-purpose)" />
  </languages>
  <imports>
    <import index="nac4" ref="r:9250e562-77b8-46ca-b96b-24ddc8274461(jetbrains.mps.traceInfo.tracemacro.testlang.structure)" />
  </imports>
  <registry />
</model>

