<?xml version="1.0" encoding="UTF-8"?>
<model ref="r:b40e53b8-8ee8-490c-ac75-eb2133c3f7c1(jetbrains.mps.traceInfo.tracemacro.testlang.typesystem)">
  <persistence version="9" />
  <languages>
    <use id="7a5dda62-9140-4668-ab76-d5ed1746f2b2" name="jetbrains.mps.lang.typesystem" version="0" />
    <use id="140c4818-bfbc-4850-bf7c-e3d80739a03c" name="jetbrains.mps.traceInfo.tracemacro.testlang" version="0" />
    <devkit ref="fbc25dd2-5da4-483a-8b19-70928e1b62d7(jetbrains.mps.devkit.general-purpose)" />
  </languages>
  <imports>
    <import index="nac4" ref="r:9250e562-77b8-46ca-b96b-24ddc8274461(jetbrains.mps.traceInfo.tracemacro.testlang.structure)" />
  </imports>
  <registry />
</model>

