<?xml version="1.0" encoding="UTF-8"?>
<model ref="r:35cb2ec8-e48a-4bb2-9313-f7255fe04158(jetbrains.mps.samples.customizedDebugger.Bottomline.behavior)">
  <persistence version="9" />
  <languages>
    <use id="af65afd8-f0dd-4942-87d9-63a55f2a9db1" name="jetbrains.mps.lang.behavior" version="0" />
    <devkit ref="fbc25dd2-5da4-483a-8b19-70928e1b62d7(jetbrains.mps.devkit.general-purpose)" />
  </languages>
  <imports>
    <import index="if8w" ref="r:95397225-9080-48bc-b1aa-0ce7c4f3d2ce(jetbrains.mps.lang.traceable.behavior)" />
    <import index="mhfm" ref="3f233e7f-b8a6-46d2-a57f-795d56775243/java:org.jetbrains.annotations(Annotations/)" />
    <import index="356a" ref="r:3b7ed80f-6cfd-45bc-b051-2f66c620dd27(jetbrains.mps.lang.traceable.structure)" />
    <import index="mlwq" ref="r:a4d9660d-2a29-4de5-9b2f-b601f2b0ff83(jetbrains.mps.samples.customizedDebugger.Bottomline.structure)" implicit="true" />
    <import index="tpcu" ref="r:00000000-0000-4000-0000-011c89590282(jetbrains.mps.lang.core.behavior)" implicit="true" />
  </imports>
  <registry>
    <language id="af65afd8-f0dd-4942-87d9-63a55f2a9db1" name="jetbrains.mps.lang.behavior">
      <concept id="1225194240794" name="jetbrains.mps.lang.behavior.structure.ConceptBehavior" flags="ng" index="13h7C7">
        <reference id="1225194240799" name="concept" index="13h7C2" />
        <child id="1225194240805" name="method" index="13h7CS" />
        <child id="1225194240801" name="constructor" index="13h7CW" />
      </concept>
      <concept id="1225194413805" name="jetbrains.mps.lang.behavior.structure.ConceptConstructorDeclaration" flags="in" index="13hLZK" />
      <concept id="1225194472830" name="jetbrains.mps.lang.behavior.structure.ConceptMethodDeclaration" flags="ng" index="13i0hz">
        <property id="1225194472832" name="isVirtual" index="13i0it" />
        <property id="1225194472834" name="isAbstract" index="13i0iv" />
        <reference id="1225194472831" name="overriddenMethod" index="13i0hy" />
      </concept>
      <concept id="1225194691553" name="jetbrains.mps.lang.behavior.structure.ThisNodeExpression" flags="nn" index="13iPFW" />
    </language>
    <language id="f3061a53-9226-4cc5-a443-f952ceaf5816" name="jetbrains.mps.baseLanguage">
      <concept id="1188207840427" name="jetbrains.mps.baseLanguage.structure.AnnotationInstance" flags="nn" index="2AHcQZ">
        <reference id="1188208074048" name="annotation" index="2AI5Lk" />
      </concept>
      <concept id="1188208481402" name="jetbrains.mps.baseLanguage.structure.HasAnnotation" flags="ng" index="2AJDlI">
        <child id="1188208488637" name="annotation" index="2AJF6D" />
      </concept>
      <concept id="1197027756228" name="jetbrains.mps.baseLanguage.structure.DotExpression" flags="nn" index="2OqwBi">
        <child id="1197027771414" name="operand" index="2Oq$k0" />
        <child id="1197027833540" name="operation" index="2OqNvi" />
      </concept>
      <concept id="1137021947720" name="jetbrains.mps.baseLanguage.structure.ConceptFunction" flags="in" index="2VMwT0">
        <child id="1137022507850" name="body" index="2VODD2" />
      </concept>
      <concept id="1225271177708" name="jetbrains.mps.baseLanguage.structure.StringType" flags="in" index="17QB3L" />
      <concept id="1068580123132" name="jetbrains.mps.baseLanguage.structure.BaseMethodDeclaration" flags="ng" index="3clF44">
        <child id="1068580123133" name="returnType" index="3clF45" />
        <child id="1068580123135" name="body" index="3clF47" />
      </concept>
      <concept id="1068580123155" name="jetbrains.mps.baseLanguage.structure.ExpressionStatement" flags="nn" index="3clFbF">
        <child id="1068580123156" name="expression" index="3clFbG" />
      </concept>
      <concept id="1068580123136" name="jetbrains.mps.baseLanguage.structure.StatementList" flags="sn" stub="5293379017992965193" index="3clFbS">
        <child id="1068581517665" name="statement" index="3cqZAp" />
      </concept>
      <concept id="1068581242878" name="jetbrains.mps.baseLanguage.structure.ReturnStatement" flags="nn" index="3cpWs6">
        <child id="1068581517676" name="expression" index="3cqZAk" />
      </concept>
      <concept id="1204053956946" name="jetbrains.mps.baseLanguage.structure.IMethodCall" flags="ng" index="1ndlxa">
        <reference id="1068499141037" name="baseMethodDeclaration" index="37wK5l" />
      </concept>
      <concept id="1178549954367" name="jetbrains.mps.baseLanguage.structure.IVisible" flags="ng" index="1B3ioH">
        <child id="1178549979242" name="visibility" index="1B3o_S" />
      </concept>
      <concept id="1146644602865" name="jetbrains.mps.baseLanguage.structure.PublicVisibility" flags="nn" index="3Tm1VV" />
    </language>
    <language id="7866978e-a0f0-4cc7-81bc-4d213d9375e1" name="jetbrains.mps.lang.smodel">
      <concept id="1179409122411" name="jetbrains.mps.lang.smodel.structure.Node_ConceptMethodCall" flags="nn" index="2qgKlT" />
      <concept id="1138056022639" name="jetbrains.mps.lang.smodel.structure.SPropertyAccess" flags="nn" index="3TrcHB">
        <reference id="1138056395725" name="property" index="3TsBF5" />
      </concept>
    </language>
    <language id="ceab5195-25ea-4f22-9b92-103b95ca8c0c" name="jetbrains.mps.lang.core">
      <concept id="1169194658468" name="jetbrains.mps.lang.core.structure.INamedConcept" flags="ng" index="TrEIO">
        <property id="1169194664001" name="name" index="TrG5h" />
      </concept>
    </language>
  </registry>
  <node concept="13h7C7" id="vvfLbL9CSt">
    <ref role="13h7C2" to="mlwq:vvfLbL9an$" resolve="OutputMessage" />
    <node concept="13hLZK" id="vvfLbL9CSu" role="13h7CW">
      <node concept="3clFbS" id="vvfLbL9CSv" role="2VODD2" />
    </node>
    <node concept="13i0hz" id="vvfLbL9CSI" role="13h7CS">
      <property role="13i0iv" value="false" />
      <property role="TrG5h" value="getTraceableProperty" />
      <property role="13i0it" value="false" />
      <ref role="13i0hy" to="if8w:4pl5GY7LKmH" resolve="getTraceableProperty" />
      <node concept="3Tm1VV" id="vvfLbL9CSJ" role="1B3o_S" />
      <node concept="2AHcQZ" id="vvfLbL9CSO" role="2AJF6D">
        <ref role="2AI5Lk" to="mhfm:~Nullable" resolve="Nullable" />
      </node>
      <node concept="3clFbS" id="vvfLbL9CSP" role="3clF47">
        <node concept="3cpWs6" id="vvfLbL9D5y" role="3cqZAp">
          <node concept="2OqwBi" id="vvfLbL9Dhs" role="3cqZAk">
            <node concept="13iPFW" id="vvfLbL9D9A" role="2Oq$k0" />
            <node concept="3TrcHB" id="vvfLbL9DoS" role="2OqNvi">
              <ref role="3TsBF5" to="mlwq:vvfLbL9aoD" resolve="value" />
            </node>
          </node>
        </node>
      </node>
      <node concept="17QB3L" id="vvfLbL9CSQ" role="3clF45" />
    </node>
  </node>
  <node concept="13h7C7" id="vvfLbL9DIy">
    <ref role="13h7C2" to="mlwq:vvfLbL9amK" resolve="MessageSequence" />
    <node concept="13hLZK" id="vvfLbL9DIz" role="13h7CW">
      <node concept="3clFbS" id="vvfLbL9DI$" role="2VODD2" />
    </node>
    <node concept="13i0hz" id="vvfLbL9DIH" role="13h7CS">
      <property role="13i0iv" value="false" />
      <property role="TrG5h" value="getUnitName" />
      <property role="13i0it" value="false" />
      <ref role="13i0hy" to="if8w:4pl5GY7LKmR" resolve="getUnitName" />
      <node concept="3Tm1VV" id="vvfLbL9DII" role="1B3o_S" />
      <node concept="3clFbS" id="vvfLbL9DIL" role="3clF47">
        <node concept="3clFbF" id="vvfLbL9DJ0" role="3cqZAp">
          <node concept="2OqwBi" id="vvfLbL9DRq" role="3clFbG">
            <node concept="13iPFW" id="vvfLbL9DIZ" role="2Oq$k0" />
            <node concept="2qgKlT" id="vvfLbL9EkA" role="2OqNvi">
              <ref role="37wK5l" to="tpcu:hEwIO9y" resolve="getFqName" />
            </node>
          </node>
        </node>
      </node>
      <node concept="17QB3L" id="vvfLbL9DIM" role="3clF45" />
    </node>
  </node>
</model>

