<?xml version="1.0" encoding="UTF-8"?>
<model ref="r:d0a40f1c-b135-423d-8161-ea939e4c8473(jetbrains.mps.samples.customizedDebugger.Bottomline.constraints)">
  <persistence version="9" />
  <languages>
    <use id="3f4bc5f5-c6c1-4a28-8b10-c83066ffa4a1" name="jetbrains.mps.lang.constraints" version="0" />
    <devkit ref="fbc25dd2-5da4-483a-8b19-70928e1b62d7(jetbrains.mps.devkit.general-purpose)" />
  </languages>
  <imports />
  <registry />
</model>

