<?xml version="1.0" encoding="UTF-8"?>
<model ref="r:1e861091-fdeb-4a6c-af9e-2a43f8775320(jetbrains.mps.samples.customizedDebugger.Bottomline.editor)">
  <persistence version="9" />
  <languages>
    <use id="18bc6592-03a6-4e29-a83a-7ff23bde13ba" name="jetbrains.mps.lang.editor" version="3" />
    <devkit ref="fbc25dd2-5da4-483a-8b19-70928e1b62d7(jetbrains.mps.devkit.general-purpose)" />
  </languages>
  <imports>
    <import index="mlwq" ref="r:a4d9660d-2a29-4de5-9b2f-b601f2b0ff83(jetbrains.mps.samples.customizedDebugger.Bottomline.structure)" implicit="true" />
    <import index="tpck" ref="r:00000000-0000-4000-0000-011c89590288(jetbrains.mps.lang.core.structure)" implicit="true" />
  </imports>
  <registry>
    <language id="18bc6592-03a6-4e29-a83a-7ff23bde13ba" name="jetbrains.mps.lang.editor">
      <concept id="1071666914219" name="jetbrains.mps.lang.editor.structure.ConceptEditorDeclaration" flags="ig" index="24kQdi" />
      <concept id="1140524381322" name="jetbrains.mps.lang.editor.structure.CellModel_ListWithRole" flags="ng" index="2czfm3">
        <child id="1140524464360" name="cellLayout" index="2czzBx" />
      </concept>
      <concept id="1106270571710" name="jetbrains.mps.lang.editor.structure.CellLayout_Vertical" flags="nn" index="2iRkQZ" />
      <concept id="1237303669825" name="jetbrains.mps.lang.editor.structure.CellLayout_Indent" flags="nn" index="l2Vlx" />
      <concept id="1237307900041" name="jetbrains.mps.lang.editor.structure.IndentLayoutIndentStyleClassItem" flags="ln" index="lj46D" />
      <concept id="1237308012275" name="jetbrains.mps.lang.editor.structure.IndentLayoutNewLineStyleClassItem" flags="ln" index="ljvvj" />
      <concept id="1080736578640" name="jetbrains.mps.lang.editor.structure.BaseEditorComponent" flags="ig" index="2wURMF">
        <child id="1080736633877" name="cellModel" index="2wV5jI" />
      </concept>
      <concept id="1186414536763" name="jetbrains.mps.lang.editor.structure.BooleanStyleSheetItem" flags="ln" index="VOi$J">
        <property id="1186414551515" name="flag" index="VOm3f" />
      </concept>
      <concept id="1139848536355" name="jetbrains.mps.lang.editor.structure.CellModel_WithRole" flags="ng" index="1$h60E">
        <reference id="1140103550593" name="relationDeclaration" index="1NtTu8" />
      </concept>
      <concept id="1073389446423" name="jetbrains.mps.lang.editor.structure.CellModel_Collection" flags="sn" stub="3013115976261988961" index="3EZMnI">
        <child id="1106270802874" name="cellLayout" index="2iSdaV" />
        <child id="1073389446424" name="childCellModel" index="3EZMnx" />
      </concept>
      <concept id="1073389577006" name="jetbrains.mps.lang.editor.structure.CellModel_Constant" flags="sn" stub="3610246225209162225" index="3F0ifn">
        <property id="1073389577007" name="text" index="3F0ifm" />
      </concept>
      <concept id="1073389658414" name="jetbrains.mps.lang.editor.structure.CellModel_Property" flags="sg" stub="730538219796134133" index="3F0A7n" />
      <concept id="1219418625346" name="jetbrains.mps.lang.editor.structure.IStyleContainer" flags="ng" index="3F0Thp">
        <child id="1219418656006" name="styleItem" index="3F10Kt" />
      </concept>
      <concept id="1073390211982" name="jetbrains.mps.lang.editor.structure.CellModel_RefNodeList" flags="sg" stub="2794558372793454595" index="3F2HdR" />
      <concept id="1166049232041" name="jetbrains.mps.lang.editor.structure.AbstractComponent" flags="ng" index="1XWOmA">
        <reference id="1166049300910" name="conceptDeclaration" index="1XX52x" />
      </concept>
    </language>
  </registry>
  <node concept="24kQdi" id="vvfLbL9ao2">
    <ref role="1XX52x" to="mlwq:vvfLbL9amK" resolve="MessageSequence" />
    <node concept="3EZMnI" id="vvfLbL9ao4" role="2wV5jI">
      <node concept="3F0ifn" id="vvfLbL9aob" role="3EZMnx">
        <property role="3F0ifm" value="Output messages" />
      </node>
      <node concept="3F0A7n" id="vvfLbL9aoh" role="3EZMnx">
        <ref role="1NtTu8" to="tpck:h0TrG11" resolve="name" />
        <node concept="ljvvj" id="vvfLbL9aol" role="3F10Kt">
          <property role="VOm3f" value="true" />
        </node>
      </node>
      <node concept="3F2HdR" id="vvfLbL9aos" role="3EZMnx">
        <ref role="1NtTu8" to="mlwq:vvfLbL9anB" />
        <node concept="2iRkQZ" id="vvfLbL9aoA" role="2czzBx" />
        <node concept="lj46D" id="vvfLbL9ao$" role="3F10Kt">
          <property role="VOm3f" value="true" />
        </node>
      </node>
      <node concept="l2Vlx" id="vvfLbL9ao7" role="2iSdaV" />
    </node>
  </node>
  <node concept="24kQdi" id="vvfLbL9ap4">
    <ref role="1XX52x" to="mlwq:vvfLbL9an$" resolve="OutputMessage" />
    <node concept="3EZMnI" id="vvfLbL9ap6" role="2wV5jI">
      <node concept="3F0ifn" id="vvfLbL9apd" role="3EZMnx">
        <property role="3F0ifm" value="Output:" />
      </node>
      <node concept="3F0A7n" id="vvfLbL9apj" role="3EZMnx">
        <ref role="1NtTu8" to="mlwq:vvfLbL9aoD" resolve="value" />
      </node>
      <node concept="l2Vlx" id="vvfLbL9ap9" role="2iSdaV" />
    </node>
  </node>
</model>

