<?xml version="1.0" encoding="UTF-8"?>
<model ref="r:a4d9660d-2a29-4de5-9b2f-b601f2b0ff83(jetbrains.mps.samples.customizedDebugger.Bottomline.structure)">
  <persistence version="9" />
  <languages>
    <use id="c72da2b9-7cce-4447-8389-f407dc1158b7" name="jetbrains.mps.lang.structure" version="3" />
    <use id="982eb8df-2c96-4bd7-9963-11712ea622e5" name="jetbrains.mps.lang.resources" version="2" />
    <devkit ref="fbc25dd2-5da4-483a-8b19-70928e1b62d7(jetbrains.mps.devkit.general-purpose)" />
  </languages>
  <imports>
    <import index="356a" ref="r:3b7ed80f-6cfd-45bc-b051-2f66c620dd27(jetbrains.mps.lang.traceable.structure)" />
    <import index="4fqr" ref="r:fa713d69-08ea-4732-b1f2-cb07f9e103ef(jetbrains.mps.execution.util.structure)" />
    <import index="tpck" ref="r:00000000-0000-4000-0000-011c89590288(jetbrains.mps.lang.core.structure)" implicit="true" />
  </imports>
  <registry>
    <language id="c72da2b9-7cce-4447-8389-f407dc1158b7" name="jetbrains.mps.lang.structure">
      <concept id="1169125787135" name="jetbrains.mps.lang.structure.structure.AbstractConceptDeclaration" flags="ig" index="PkWjJ">
        <property id="6714410169261853888" name="conceptId" index="EcuMT" />
        <property id="5092175715804935370" name="conceptAlias" index="34LRSv" />
        <child id="1071489727083" name="linkDeclaration" index="1TKVEi" />
        <child id="1071489727084" name="propertyDeclaration" index="1TKVEl" />
      </concept>
      <concept id="1169127622168" name="jetbrains.mps.lang.structure.structure.InterfaceConceptReference" flags="ig" index="PrWs8">
        <reference id="1169127628841" name="intfc" index="PrY4T" />
      </concept>
      <concept id="1071489090640" name="jetbrains.mps.lang.structure.structure.ConceptDeclaration" flags="ig" index="1TIwiD">
        <property id="1096454100552" name="rootable" index="19KtqR" />
        <reference id="1071489389519" name="extends" index="1TJDcQ" />
        <child id="1169129564478" name="implements" index="PzmwI" />
      </concept>
      <concept id="1071489288299" name="jetbrains.mps.lang.structure.structure.PropertyDeclaration" flags="ig" index="1TJgyi">
        <property id="241647608299431129" name="propertyId" index="IQ2nx" />
        <reference id="1082985295845" name="dataType" index="AX2Wp" />
      </concept>
      <concept id="1071489288298" name="jetbrains.mps.lang.structure.structure.LinkDeclaration" flags="ig" index="1TJgyj">
        <property id="1071599776563" name="role" index="20kJfa" />
        <property id="1071599893252" name="sourceCardinality" index="20lbJX" />
        <property id="1071599937831" name="metaClass" index="20lmBu" />
        <property id="241647608299431140" name="linkId" index="IQ2ns" />
        <reference id="1071599976176" name="target" index="20lvS9" />
      </concept>
    </language>
    <language id="ceab5195-25ea-4f22-9b92-103b95ca8c0c" name="jetbrains.mps.lang.core">
      <concept id="1169194658468" name="jetbrains.mps.lang.core.structure.INamedConcept" flags="ng" index="TrEIO">
        <property id="1169194664001" name="name" index="TrG5h" />
      </concept>
    </language>
  </registry>
  <node concept="1TIwiD" id="vvfLbL9amK">
    <property role="EcuMT" value="567241428659643824" />
    <property role="TrG5h" value="MessageSequence" />
    <property role="19KtqR" value="true" />
    <property role="34LRSv" value="message sequence" />
    <ref role="1TJDcQ" to="tpck:gw2VY9q" resolve="BaseConcept" />
    <node concept="1TJgyj" id="vvfLbL9anB" role="1TKVEi">
      <property role="IQ2ns" value="567241428659643879" />
      <property role="20lmBu" value="aggregation" />
      <property role="20kJfa" value="messages" />
      <property role="20lbJX" value="0..n" />
      <ref role="20lvS9" node="vvfLbL9an$" resolve="OutputMessage" />
    </node>
    <node concept="PrWs8" id="vvfLbL9an_" role="PzmwI">
      <ref role="PrY4T" to="tpck:h0TrEE$" resolve="INamedConcept" />
    </node>
    <node concept="PrWs8" id="vvfLbLaJry" role="PzmwI">
      <ref role="PrY4T" to="4fqr:431DWIovi3l" resolve="IMainClass" />
    </node>
    <node concept="PrWs8" id="vvfLbL9DI5" role="PzmwI">
      <ref role="PrY4T" to="356a:4pl5GY7LKm$" resolve="UnitConcept" />
    </node>
  </node>
  <node concept="1TIwiD" id="vvfLbL9an$">
    <property role="EcuMT" value="567241428659643876" />
    <property role="TrG5h" value="OutputMessage" />
    <property role="34LRSv" value="output message" />
    <ref role="1TJDcQ" to="tpck:gw2VY9q" resolve="BaseConcept" />
    <node concept="1TJgyi" id="vvfLbL9aoD" role="1TKVEl">
      <property role="IQ2nx" value="567241428659643945" />
      <property role="TrG5h" value="value" />
      <ref role="AX2Wp" to="tpck:fKAOsGN" resolve="string" />
    </node>
    <node concept="PrWs8" id="vvfLbL9CRQ" role="PzmwI">
      <ref role="PrY4T" to="356a:4pl5GY7LKmz" resolve="TraceableConcept" />
    </node>
  </node>
</model>

