<?xml version="1.0" encoding="UTF-8"?>
<model ref="r:2f48a1e0-29c6-465b-b158-4cba88c0e4a6(jetbrains.mps.testbench.suite.behavior)">
  <persistence version="9" />
  <languages>
    <use id="af65afd8-f0dd-4942-87d9-63a55f2a9db1" name="jetbrains.mps.lang.behavior" version="0" />
    <use id="f2801650-65d5-424e-bb1b-463a8781b786" name="jetbrains.mps.baseLanguage.javadoc" version="2" />
    <devkit ref="fbc25dd2-5da4-483a-8b19-70928e1b62d7(jetbrains.mps.devkit.general-purpose)" />
  </languages>
  <imports>
    <import index="pop3" ref="r:c8b27be8-26f9-4593-9ae5-f70dd005d131(jetbrains.mps.testbench.suite.structure)" />
    <import index="tpee" ref="r:00000000-0000-4000-0000-011c895902ca(jetbrains.mps.baseLanguage.structure)" />
    <import index="tpe3" ref="r:00000000-0000-4000-0000-011c895902d7(jetbrains.mps.baseLanguage.unitTest.structure)" />
    <import index="tp5g" ref="r:00000000-0000-4000-0000-011c89590388(jetbrains.mps.lang.test.structure)" />
    <import index="z1c3" ref="6ed54515-acc8-4d1e-a16c-9fd6cfe951ea/java:jetbrains.mps.project(MPS.Core/)" />
    <import index="w1kc" ref="6ed54515-acc8-4d1e-a16c-9fd6cfe951ea/java:jetbrains.mps.smodel(MPS.Core/)" />
    <import index="w0gx" ref="6ed54515-acc8-4d1e-a16c-9fd6cfe951ea/java:jetbrains.mps.project.structure.modules(MPS.Core/)" />
    <import index="rjhg" ref="83f155ff-422c-4b5a-a2f2-b459302dd215/java:org.junit(jetbrains.mps.baseLanguage.unitTest.libs/)" />
    <import index="if8w" ref="r:95397225-9080-48bc-b1aa-0ce7c4f3d2ce(jetbrains.mps.lang.traceable.behavior)" />
    <import index="tpe5" ref="r:00000000-0000-4000-0000-011c895902d1(jetbrains.mps.baseLanguage.unitTest.behavior)" />
    <import index="mhbf" ref="8865b7a8-5271-43d3-884c-6fd1d9cfdd34/java:org.jetbrains.mps.openapi.model(MPS.OpenAPI/)" />
    <import index="lui2" ref="8865b7a8-5271-43d3-884c-6fd1d9cfdd34/java:org.jetbrains.mps.openapi.module(MPS.OpenAPI/)" />
    <import index="tpek" ref="r:00000000-0000-4000-0000-011c895902c0(jetbrains.mps.baseLanguage.behavior)" />
    <import index="5o51" ref="r:137cc691-13a2-4fdd-885a-88f9405e83c0(jetbrains.mps.testbench.suite.constraints)" />
    <import index="u132" ref="83f155ff-422c-4b5a-a2f2-b459302dd215/java:junit.framework(jetbrains.mps.baseLanguage.unitTest.libs/)" />
    <import index="tpck" ref="r:00000000-0000-4000-0000-011c89590288(jetbrains.mps.lang.core.structure)" />
    <import index="wyt6" ref="6354ebe7-c22a-4a0f-ac54-50b52ab9b065/java:java.lang(JDK/)" />
  </imports>
  <registry>
    <language id="af65afd8-f0dd-4942-87d9-63a55f2a9db1" name="jetbrains.mps.lang.behavior">
      <concept id="6496299201655527393" name="jetbrains.mps.lang.behavior.structure.LocalBehaviorMethodCall" flags="nn" index="BsUDl" />
      <concept id="1225194240794" name="jetbrains.mps.lang.behavior.structure.ConceptBehavior" flags="ng" index="13h7C7">
        <reference id="1225194240799" name="concept" index="13h7C2" />
        <child id="1225194240805" name="method" index="13h7CS" />
        <child id="1225194240801" name="constructor" index="13h7CW" />
      </concept>
      <concept id="1225194413805" name="jetbrains.mps.lang.behavior.structure.ConceptConstructorDeclaration" flags="in" index="13hLZK" />
      <concept id="1225194472830" name="jetbrains.mps.lang.behavior.structure.ConceptMethodDeclaration" flags="ng" index="13i0hz">
        <property id="5864038008284099149" name="isStatic" index="2Ki8OM" />
        <property id="1225194472832" name="isVirtual" index="13i0it" />
        <property id="1225194472834" name="isAbstract" index="13i0iv" />
        <reference id="1225194472831" name="overriddenMethod" index="13i0hy" />
      </concept>
      <concept id="1225194691553" name="jetbrains.mps.lang.behavior.structure.ThisNodeExpression" flags="nn" index="13iPFW" />
    </language>
    <language id="f3061a53-9226-4cc5-a443-f952ceaf5816" name="jetbrains.mps.baseLanguage">
      <concept id="1082485599095" name="jetbrains.mps.baseLanguage.structure.BlockStatement" flags="nn" index="9aQIb">
        <child id="1082485599096" name="statements" index="9aQI4" />
      </concept>
      <concept id="1215693861676" name="jetbrains.mps.baseLanguage.structure.BaseAssignmentExpression" flags="nn" index="d038R">
        <child id="1068498886297" name="rValue" index="37vLTx" />
        <child id="1068498886295" name="lValue" index="37vLTJ" />
      </concept>
      <concept id="4836112446988635817" name="jetbrains.mps.baseLanguage.structure.UndefinedType" flags="in" index="2jxLKc" />
      <concept id="1202948039474" name="jetbrains.mps.baseLanguage.structure.InstanceMethodCallOperation" flags="nn" index="liA8E" />
      <concept id="1188207840427" name="jetbrains.mps.baseLanguage.structure.AnnotationInstance" flags="nn" index="2AHcQZ">
        <reference id="1188208074048" name="annotation" index="2AI5Lk" />
      </concept>
      <concept id="1197027756228" name="jetbrains.mps.baseLanguage.structure.DotExpression" flags="nn" index="2OqwBi">
        <child id="1197027771414" name="operand" index="2Oq$k0" />
        <child id="1197027833540" name="operation" index="2OqNvi" />
      </concept>
      <concept id="1145552977093" name="jetbrains.mps.baseLanguage.structure.GenericNewExpression" flags="nn" index="2ShNRf">
        <child id="1145553007750" name="creator" index="2ShVmc" />
      </concept>
      <concept id="1137021947720" name="jetbrains.mps.baseLanguage.structure.ConceptFunction" flags="in" index="2VMwT0">
        <child id="1137022507850" name="body" index="2VODD2" />
      </concept>
      <concept id="1070475926800" name="jetbrains.mps.baseLanguage.structure.StringLiteral" flags="nn" index="Xl_RD">
        <property id="1070475926801" name="value" index="Xl_RC" />
      </concept>
      <concept id="1081236700937" name="jetbrains.mps.baseLanguage.structure.StaticMethodCall" flags="nn" index="2YIFZM">
        <reference id="1144433194310" name="classConcept" index="1Pybhc" />
      </concept>
      <concept id="1070534058343" name="jetbrains.mps.baseLanguage.structure.NullLiteral" flags="nn" index="10Nm6u" />
      <concept id="1070534644030" name="jetbrains.mps.baseLanguage.structure.BooleanType" flags="in" index="10P_77" />
      <concept id="1070534934090" name="jetbrains.mps.baseLanguage.structure.CastExpression" flags="nn" index="10QFUN">
        <child id="1070534934091" name="type" index="10QFUM" />
        <child id="1070534934092" name="expression" index="10QFUP" />
      </concept>
      <concept id="1068431474542" name="jetbrains.mps.baseLanguage.structure.VariableDeclaration" flags="ng" index="33uBYm">
        <child id="1068431790190" name="initializer" index="33vP2m" />
      </concept>
      <concept id="1068498886296" name="jetbrains.mps.baseLanguage.structure.VariableReference" flags="nn" index="37vLTw">
        <reference id="1068581517664" name="variableDeclaration" index="3cqZAo" />
      </concept>
      <concept id="1068498886292" name="jetbrains.mps.baseLanguage.structure.ParameterDeclaration" flags="ir" index="37vLTG" />
      <concept id="1068498886294" name="jetbrains.mps.baseLanguage.structure.AssignmentExpression" flags="nn" index="37vLTI" />
      <concept id="1225271177708" name="jetbrains.mps.baseLanguage.structure.StringType" flags="in" index="17QB3L" />
      <concept id="4972933694980447171" name="jetbrains.mps.baseLanguage.structure.BaseVariableDeclaration" flags="ng" index="19Szcq">
        <child id="5680397130376446158" name="type" index="1tU5fm" />
      </concept>
      <concept id="1068580123132" name="jetbrains.mps.baseLanguage.structure.BaseMethodDeclaration" flags="ng" index="3clF44">
        <child id="1068580123133" name="returnType" index="3clF45" />
        <child id="1068580123134" name="parameter" index="3clF46" />
        <child id="1068580123135" name="body" index="3clF47" />
      </concept>
      <concept id="1068580123152" name="jetbrains.mps.baseLanguage.structure.EqualsExpression" flags="nn" index="3clFbC" />
      <concept id="1068580123155" name="jetbrains.mps.baseLanguage.structure.ExpressionStatement" flags="nn" index="3clFbF">
        <child id="1068580123156" name="expression" index="3clFbG" />
      </concept>
      <concept id="1068580123157" name="jetbrains.mps.baseLanguage.structure.Statement" flags="nn" index="3clFbH" />
      <concept id="1068580123159" name="jetbrains.mps.baseLanguage.structure.IfStatement" flags="nn" index="3clFbJ">
        <child id="1082485599094" name="ifFalseStatement" index="9aQIa" />
        <child id="1068580123160" name="condition" index="3clFbw" />
        <child id="1068580123161" name="ifTrue" index="3clFbx" />
      </concept>
      <concept id="1068580123136" name="jetbrains.mps.baseLanguage.structure.StatementList" flags="sn" stub="5293379017992965193" index="3clFbS">
        <child id="1068581517665" name="statement" index="3cqZAp" />
      </concept>
      <concept id="1068581242878" name="jetbrains.mps.baseLanguage.structure.ReturnStatement" flags="nn" index="3cpWs6">
        <child id="1068581517676" name="expression" index="3cqZAk" />
      </concept>
      <concept id="1068581242864" name="jetbrains.mps.baseLanguage.structure.LocalVariableDeclarationStatement" flags="nn" index="3cpWs8">
        <child id="1068581242865" name="localVariableDeclaration" index="3cpWs9" />
      </concept>
      <concept id="1068581242863" name="jetbrains.mps.baseLanguage.structure.LocalVariableDeclaration" flags="nr" index="3cpWsn" />
      <concept id="1079359253375" name="jetbrains.mps.baseLanguage.structure.ParenthesizedExpression" flags="nn" index="1eOMI4">
        <child id="1079359253376" name="expression" index="1eOMHV" />
      </concept>
      <concept id="1081516740877" name="jetbrains.mps.baseLanguage.structure.NotExpression" flags="nn" index="3fqX7Q">
        <child id="1081516765348" name="expression" index="3fr31v" />
      </concept>
      <concept id="1204053956946" name="jetbrains.mps.baseLanguage.structure.IMethodCall" flags="ng" index="1ndlxa">
        <reference id="1068499141037" name="baseMethodDeclaration" index="37wK5l" />
        <child id="1068499141038" name="actualArgument" index="37wK5m" />
      </concept>
      <concept id="1212685548494" name="jetbrains.mps.baseLanguage.structure.ClassCreator" flags="nn" index="1pGfFk" />
      <concept id="1107535904670" name="jetbrains.mps.baseLanguage.structure.ClassifierType" flags="in" index="3uibUv">
        <reference id="1107535924139" name="classifier" index="3uigEE" />
      </concept>
      <concept id="1081773326031" name="jetbrains.mps.baseLanguage.structure.BinaryOperation" flags="nn" index="3uHJSO">
        <child id="1081773367579" name="rightExpression" index="3uHU7w" />
        <child id="1081773367580" name="leftExpression" index="3uHU7B" />
      </concept>
      <concept id="1178549954367" name="jetbrains.mps.baseLanguage.structure.IVisible" flags="ng" index="1B3ioH">
        <child id="1178549979242" name="visibility" index="1B3o_S" />
      </concept>
      <concept id="1146644602865" name="jetbrains.mps.baseLanguage.structure.PublicVisibility" flags="nn" index="3Tm1VV" />
      <concept id="1080120340718" name="jetbrains.mps.baseLanguage.structure.AndExpression" flags="nn" index="1Wc70l" />
    </language>
    <language id="fd392034-7849-419d-9071-12563d152375" name="jetbrains.mps.baseLanguage.closures">
      <concept id="1199569711397" name="jetbrains.mps.baseLanguage.closures.structure.ClosureLiteral" flags="nn" index="1bVj0M">
        <child id="1199569906740" name="parameter" index="1bW2Oz" />
        <child id="1199569916463" name="body" index="1bW5cS" />
      </concept>
    </language>
    <language id="3a13115c-633c-4c5c-bbcc-75c4219e9555" name="jetbrains.mps.lang.quotation">
      <concept id="1196350785113" name="jetbrains.mps.lang.quotation.structure.Quotation" flags="nn" index="2c44tf">
        <child id="1196350785114" name="quotedNode" index="2c44tc" />
      </concept>
    </language>
    <language id="7866978e-a0f0-4cc7-81bc-4d213d9375e1" name="jetbrains.mps.lang.smodel">
      <concept id="1177026924588" name="jetbrains.mps.lang.smodel.structure.RefConcept_Reference" flags="nn" index="chp4Y">
        <reference id="1177026940964" name="conceptDeclaration" index="cht4Q" />
      </concept>
      <concept id="1179409122411" name="jetbrains.mps.lang.smodel.structure.Node_ConceptMethodCall" flags="nn" index="2qgKlT" />
      <concept id="2396822768958367367" name="jetbrains.mps.lang.smodel.structure.AbstractTypeCastExpression" flags="nn" index="$5XWr">
        <reference id="6733348108486823428" name="concept" index="1m5ApE" />
        <child id="6733348108486823193" name="leftExpression" index="1m5AlR" />
      </concept>
      <concept id="1143226024141" name="jetbrains.mps.lang.smodel.structure.SModelType" flags="in" index="H_c77" />
      <concept id="1145383075378" name="jetbrains.mps.lang.smodel.structure.SNodeListType" flags="in" index="2I9FWS">
        <reference id="1145383142433" name="elementConcept" index="2I9WkF" />
      </concept>
      <concept id="1171315804604" name="jetbrains.mps.lang.smodel.structure.Model_RootsOperation" flags="nn" index="2RRcyG">
        <reference id="1171315804605" name="concept" index="2RRcyH" />
      </concept>
      <concept id="1139621453865" name="jetbrains.mps.lang.smodel.structure.Node_IsInstanceOfOperation" flags="nn" index="1mIQ4w">
        <child id="1177027386292" name="conceptArgument" index="cj9EA" />
      </concept>
      <concept id="1140137987495" name="jetbrains.mps.lang.smodel.structure.SNodeTypeCastExpression" flags="nn" index="1PxgMI">
        <property id="1238684351431" name="asCast" index="1BlNFB" />
      </concept>
      <concept id="1138055754698" name="jetbrains.mps.lang.smodel.structure.SNodeType" flags="in" index="3Tqbb2">
        <reference id="1138405853777" name="concept" index="ehGHo" />
      </concept>
      <concept id="1138056022639" name="jetbrains.mps.lang.smodel.structure.SPropertyAccess" flags="nn" index="3TrcHB">
        <reference id="1138056395725" name="property" index="3TsBF5" />
      </concept>
      <concept id="1138056143562" name="jetbrains.mps.lang.smodel.structure.SLinkAccess" flags="nn" index="3TrEf2">
        <reference id="1138056516764" name="link" index="3Tt5mk" />
      </concept>
      <concept id="1138056282393" name="jetbrains.mps.lang.smodel.structure.SLinkListAccess" flags="nn" index="3Tsc0h">
        <reference id="1138056546658" name="link" index="3TtcxE" />
      </concept>
    </language>
    <language id="ceab5195-25ea-4f22-9b92-103b95ca8c0c" name="jetbrains.mps.lang.core">
      <concept id="1169194658468" name="jetbrains.mps.lang.core.structure.INamedConcept" flags="ng" index="TrEIO">
        <property id="1169194664001" name="name" index="TrG5h" />
      </concept>
    </language>
    <language id="83888646-71ce-4f1c-9c53-c54016f6ad4f" name="jetbrains.mps.baseLanguage.collections">
      <concept id="1204796164442" name="jetbrains.mps.baseLanguage.collections.structure.InternalSequenceOperation" flags="nn" index="23sCx2">
        <child id="1204796294226" name="closure" index="23t8la" />
      </concept>
      <concept id="1151689724996" name="jetbrains.mps.baseLanguage.collections.structure.SequenceType" flags="in" index="A3Dl8">
        <child id="1151689745422" name="elementType" index="A3Ik2" />
      </concept>
      <concept id="1235566554328" name="jetbrains.mps.baseLanguage.collections.structure.AnyOperation" flags="nn" index="2HwmR7" />
      <concept id="1203518072036" name="jetbrains.mps.baseLanguage.collections.structure.SmartClosureParameterDeclaration" flags="ig" index="Rh6nW" />
      <concept id="1201792049884" name="jetbrains.mps.baseLanguage.collections.structure.TranslateOperation" flags="nn" index="3goQfb" />
      <concept id="1202120902084" name="jetbrains.mps.baseLanguage.collections.structure.WhereOperation" flags="nn" index="3zZkjj" />
      <concept id="1202128969694" name="jetbrains.mps.baseLanguage.collections.structure.SelectOperation" flags="nn" index="3$u5V9" />
    </language>
  </registry>
  <node concept="13h7C7" id="173Z5qAOsHY">
    <ref role="13h7C2" to="pop3:3U1VhSFTRMP" resolve="ModuleSuite" />
    <node concept="13i0hz" id="173Z5qAOyPn" role="13h7CS">
      <property role="TrG5h" value="models" />
      <node concept="3Tm1VV" id="173Z5qAOyPo" role="1B3o_S" />
      <node concept="A3Dl8" id="173Z5qAOyPr" role="3clF45">
        <node concept="3uibUv" id="173Z5qAOyPv" role="A3Ik2">
          <ref role="3uigEE" to="mhbf:~SModel" resolve="SModel" />
        </node>
      </node>
      <node concept="3clFbS" id="173Z5qAOyPq" role="3clF47">
        <node concept="3cpWs8" id="7A48itizrYp" role="3cqZAp">
          <node concept="3cpWsn" id="7A48itizrYq" role="3cpWs9">
            <property role="TrG5h" value="m" />
            <node concept="3uibUv" id="7A48itizrYr" role="1tU5fm">
              <ref role="3uigEE" to="lui2:~SModule" resolve="SModule" />
            </node>
            <node concept="BsUDl" id="7A48itizslF" role="33vP2m">
              <ref role="37wK5l" node="7A48itizp2R" resolve="module" />
            </node>
          </node>
        </node>
        <node concept="3clFbJ" id="173Z5qAOyPT" role="3cqZAp">
          <node concept="3clFbS" id="173Z5qAOyPU" role="3clFbx">
            <node concept="3cpWs6" id="173Z5qAOyPV" role="3cqZAp">
              <node concept="10Nm6u" id="173Z5qAOyPW" role="3cqZAk" />
            </node>
          </node>
          <node concept="3clFbC" id="173Z5qAOyPX" role="3clFbw">
            <node concept="10Nm6u" id="173Z5qAOyPY" role="3uHU7w" />
            <node concept="37vLTw" id="3GM_nagTwMz" role="3uHU7B">
              <ref role="3cqZAo" node="7A48itizrYq" resolve="m" />
            </node>
          </node>
        </node>
        <node concept="3cpWs6" id="7A48itiztg0" role="3cqZAp">
          <node concept="2OqwBi" id="7A48itiztg1" role="3cqZAk">
            <node concept="liA8E" id="7A48itiztg2" role="2OqNvi">
              <ref role="37wK5l" to="lui2:~SModule.getModels():java.lang.Iterable" resolve="getModels" />
            </node>
            <node concept="37vLTw" id="7A48itiztg3" role="2Oq$k0">
              <ref role="3cqZAo" node="7A48itizrYq" resolve="m" />
            </node>
          </node>
        </node>
      </node>
    </node>
    <node concept="13i0hz" id="7A48itizp2R" role="13h7CS">
      <property role="TrG5h" value="module" />
      <node concept="3Tm1VV" id="7A48itizp2S" role="1B3o_S" />
      <node concept="3uibUv" id="7A48itizpnf" role="3clF45">
        <ref role="3uigEE" to="lui2:~SModule" resolve="SModule" />
      </node>
      <node concept="3clFbS" id="7A48itizp2U" role="3clF47">
        <node concept="3cpWs8" id="173Z5qAOyPy" role="3cqZAp">
          <node concept="3cpWsn" id="173Z5qAOyPz" role="3cpWs9">
            <property role="TrG5h" value="moduleReference" />
            <node concept="3uibUv" id="173Z5qAOyP$" role="1tU5fm">
              <ref role="3uigEE" to="lui2:~SModuleReference" resolve="SModuleReference" />
            </node>
            <node concept="2OqwBi" id="173Z5qAOyP_" role="33vP2m">
              <node concept="2OqwBi" id="173Z5qAOyPA" role="2Oq$k0">
                <node concept="13iPFW" id="173Z5qAOyPB" role="2Oq$k0" />
                <node concept="3TrEf2" id="173Z5qAOyPC" role="2OqNvi">
                  <ref role="3Tt5mk" to="pop3:173Z5qAOsM8" />
                </node>
              </node>
              <node concept="2qgKlT" id="173Z5qAOyPD" role="2OqNvi">
                <ref role="37wK5l" node="173Z5qAOun8" resolve="moduleReference" />
              </node>
            </node>
          </node>
        </node>
        <node concept="3clFbJ" id="173Z5qAOyPE" role="3cqZAp">
          <node concept="3clFbS" id="173Z5qAOyPF" role="3clFbx">
            <node concept="3cpWs6" id="173Z5qAOyPG" role="3cqZAp">
              <node concept="10Nm6u" id="173Z5qAOyPH" role="3cqZAk" />
            </node>
          </node>
          <node concept="3clFbC" id="173Z5qAOyPI" role="3clFbw">
            <node concept="10Nm6u" id="173Z5qAOyPJ" role="3uHU7w" />
            <node concept="37vLTw" id="3GM_nagT_3S" role="3uHU7B">
              <ref role="3cqZAo" node="173Z5qAOyPz" resolve="moduleReference" />
            </node>
          </node>
        </node>
        <node concept="3cpWs6" id="7A48itiztug" role="3cqZAp">
          <node concept="2OqwBi" id="7A48itiztuh" role="3cqZAk">
            <node concept="37vLTw" id="7A48itiztui" role="2Oq$k0">
              <ref role="3cqZAo" node="173Z5qAOyPz" resolve="moduleReference" />
            </node>
            <node concept="liA8E" id="7A48itiztuj" role="2OqNvi">
              <ref role="37wK5l" to="lui2:~SModuleReference.resolve(org.jetbrains.mps.openapi.module.SRepository):org.jetbrains.mps.openapi.module.SModule" resolve="resolve" />
              <node concept="2YIFZM" id="7A48itiztuk" role="37wK5m">
                <ref role="37wK5l" to="w1kc:~MPSModuleRepository.getInstance():jetbrains.mps.smodel.MPSModuleRepository" resolve="getInstance" />
                <ref role="1Pybhc" to="w1kc:~MPSModuleRepository" resolve="MPSModuleRepository" />
              </node>
            </node>
          </node>
        </node>
      </node>
    </node>
    <node concept="13i0hz" id="7tF7F0nXrAX" role="13h7CS">
      <property role="TrG5h" value="getNotMutedTests" />
      <node concept="3Tm1VV" id="7tF7F0nXrAY" role="1B3o_S" />
      <node concept="A3Dl8" id="7tF7F0nXuOj" role="3clF45">
        <node concept="3Tqbb2" id="7tF7F0nXuOm" role="A3Ik2">
          <ref role="ehGHo" to="pop3:3U1VhSFTRMU" resolve="ITestRef" />
        </node>
      </node>
      <node concept="3clFbS" id="7tF7F0nXrB0" role="3clF47">
        <node concept="3clFbF" id="7tF7F0nXrL6" role="3cqZAp">
          <node concept="2OqwBi" id="7tF7F0nXrLd" role="3clFbG">
            <node concept="2OqwBi" id="7tF7F0nXrL8" role="2Oq$k0">
              <node concept="13iPFW" id="7tF7F0nXrL7" role="2Oq$k0" />
              <node concept="3Tsc0h" id="7tF7F0nXrLc" role="2OqNvi">
                <ref role="3TtcxE" to="pop3:3U1VhSFTRMY" />
              </node>
            </node>
            <node concept="3zZkjj" id="7tF7F0nXrLh" role="2OqNvi">
              <node concept="1bVj0M" id="7tF7F0nXrLi" role="23t8la">
                <node concept="3clFbS" id="7tF7F0nXrLj" role="1bW5cS">
                  <node concept="3clFbF" id="7tF7F0nXrLm" role="3cqZAp">
                    <node concept="3fqX7Q" id="7tF7F0nXuOn" role="3clFbG">
                      <node concept="2OqwBi" id="7tF7F0nXrLo" role="3fr31v">
                        <node concept="37vLTw" id="2BHiRxgll66" role="2Oq$k0">
                          <ref role="3cqZAo" node="7tF7F0nXrLk" resolve="it" />
                        </node>
                        <node concept="3TrcHB" id="7tF7F0nXuOf" role="2OqNvi">
                          <ref role="3TsBF5" to="pop3:7tF7F0nXrLu" resolve="muted" />
                        </node>
                      </node>
                    </node>
                  </node>
                </node>
                <node concept="Rh6nW" id="7tF7F0nXrLk" role="1bW2Oz">
                  <property role="TrG5h" value="it" />
                  <node concept="2jxLKc" id="7tF7F0nXrLl" role="1tU5fm" />
                </node>
              </node>
            </node>
          </node>
        </node>
      </node>
    </node>
    <node concept="13hLZK" id="173Z5qAOsHZ" role="13h7CW">
      <node concept="3clFbS" id="173Z5qAOsI0" role="2VODD2" />
    </node>
  </node>
  <node concept="13h7C7" id="173Z5qAOsJv">
    <ref role="13h7C2" to="pop3:173Z5qAOsJs" resolve="SolutionRef" />
    <node concept="13hLZK" id="173Z5qAOsJw" role="13h7CW">
      <node concept="3clFbS" id="173Z5qAOsJx" role="2VODD2" />
    </node>
    <node concept="13i0hz" id="173Z5qAOunn" role="13h7CS">
      <property role="13i0iv" value="false" />
      <property role="TrG5h" value="moduleReference" />
      <property role="13i0it" value="false" />
      <ref role="13i0hy" node="173Z5qAOun8" resolve="moduleReference" />
      <node concept="3Tm1VV" id="173Z5qAOuno" role="1B3o_S" />
      <node concept="3clFbS" id="173Z5qAOunp" role="3clF47">
        <node concept="3clFbF" id="173Z5qAOunt" role="3cqZAp">
          <node concept="2ShNRf" id="173Z5qAOunu" role="3clFbG">
            <node concept="1pGfFk" id="173Z5qAOunv" role="2ShVmc">
              <ref role="37wK5l" to="w0gx:~ModuleReference.&lt;init&gt;(java.lang.String,java.lang.String)" resolve="ModuleReference" />
              <node concept="2OqwBi" id="173Z5qAOunw" role="37wK5m">
                <node concept="13iPFW" id="173Z5qAOunx" role="2Oq$k0" />
                <node concept="3TrcHB" id="173Z5qAOuny" role="2OqNvi">
                  <ref role="3TsBF5" to="pop3:173Z5qAOsJt" resolve="moduleFQName" />
                </node>
              </node>
              <node concept="2OqwBi" id="173Z5qAOunz" role="37wK5m">
                <node concept="13iPFW" id="173Z5qAOun$" role="2Oq$k0" />
                <node concept="3TrcHB" id="173Z5qAOun_" role="2OqNvi">
                  <ref role="3TsBF5" to="pop3:173Z5qAOsJu" resolve="moduleID" />
                </node>
              </node>
            </node>
          </node>
        </node>
      </node>
      <node concept="3uibUv" id="173Z5qAOunq" role="3clF45">
        <ref role="3uigEE" to="lui2:~SModuleReference" resolve="SModuleReference" />
      </node>
    </node>
    <node concept="13i0hz" id="173Z5qAPmZ9" role="13h7CS">
      <property role="13i0iv" value="false" />
      <property role="TrG5h" value="presentation" />
      <property role="13i0it" value="false" />
      <ref role="13i0hy" node="173Z5qAPmZ2" resolve="presentation" />
      <node concept="3Tm1VV" id="173Z5qAPmZa" role="1B3o_S" />
      <node concept="3clFbS" id="173Z5qAPmZb" role="3clF47">
        <node concept="3clFbF" id="173Z5qAPmZd" role="3cqZAp">
          <node concept="2OqwBi" id="173Z5qAPmZf" role="3clFbG">
            <node concept="13iPFW" id="173Z5qAPmZe" role="2Oq$k0" />
            <node concept="3TrcHB" id="173Z5qAPmZj" role="2OqNvi">
              <ref role="3TsBF5" to="pop3:173Z5qAOsJt" resolve="moduleFQName" />
            </node>
          </node>
        </node>
      </node>
      <node concept="17QB3L" id="173Z5qAPmZc" role="3clF45" />
    </node>
  </node>
  <node concept="13h7C7" id="173Z5qAOun5">
    <ref role="13h7C2" to="pop3:173Z5qAOtuz" resolve="IModuleRef" />
    <node concept="13hLZK" id="173Z5qAOun6" role="13h7CW">
      <node concept="3clFbS" id="173Z5qAOun7" role="2VODD2" />
    </node>
    <node concept="13i0hz" id="173Z5qAOun8" role="13h7CS">
      <property role="13i0iv" value="true" />
      <property role="TrG5h" value="moduleReference" />
      <property role="13i0it" value="true" />
      <node concept="3Tm1VV" id="173Z5qAOun9" role="1B3o_S" />
      <node concept="3uibUv" id="173Z5qAOuna" role="3clF45">
        <ref role="3uigEE" to="lui2:~SModuleReference" resolve="SModuleReference" />
      </node>
      <node concept="3clFbS" id="173Z5qAOunb" role="3clF47" />
    </node>
    <node concept="13i0hz" id="173Z5qAPmZ2" role="13h7CS">
      <property role="13i0iv" value="false" />
      <property role="TrG5h" value="presentation" />
      <property role="13i0it" value="true" />
      <node concept="3Tm1VV" id="173Z5qAPmZ3" role="1B3o_S" />
      <node concept="17QB3L" id="173Z5qAPmZ6" role="3clF45" />
      <node concept="3clFbS" id="173Z5qAPmZ5" role="3clF47">
        <node concept="3cpWs6" id="6UxfsZdl9Gt" role="3cqZAp">
          <node concept="Xl_RD" id="6UxfsZdl9GE" role="3cqZAk">
            <property role="Xl_RC" value="IModuleRef default presentation" />
          </node>
        </node>
      </node>
    </node>
  </node>
  <node concept="13h7C7" id="2$98zG5liRQ">
    <ref role="13h7C2" to="pop3:3U1VhSFTRMU" resolve="ITestRef" />
    <node concept="13i0hz" id="1ouvi_ymQH" role="13h7CS">
      <property role="13i0iv" value="true" />
      <property role="13i0it" value="true" />
      <property role="TrG5h" value="isSame" />
      <node concept="37vLTG" id="1ouvi_ymRe" role="3clF46">
        <property role="TrG5h" value="testRef" />
        <node concept="3Tqbb2" id="1ouvi_ymRk" role="1tU5fm">
          <ref role="ehGHo" to="pop3:3U1VhSFTRMU" resolve="ITestRef" />
        </node>
      </node>
      <node concept="3Tm1VV" id="1ouvi_ymQI" role="1B3o_S" />
      <node concept="3clFbS" id="1ouvi_ymQJ" role="3clF47" />
      <node concept="10P_77" id="1ouvi_ymRb" role="3clF45" />
    </node>
    <node concept="13i0hz" id="2$98zG5liRT" role="13h7CS">
      <property role="13i0iv" value="true" />
      <property role="TrG5h" value="fqClassName" />
      <property role="13i0it" value="true" />
      <node concept="3Tm1VV" id="2$98zG5liRU" role="1B3o_S" />
      <node concept="17QB3L" id="2$98zG5liRX" role="3clF45" />
      <node concept="3clFbS" id="2$98zG5liRW" role="3clF47" />
    </node>
    <node concept="13i0hz" id="3z1mdFUF$j3" role="13h7CS">
      <property role="13i0iv" value="true" />
      <property role="TrG5h" value="testNames" />
      <property role="13i0it" value="true" />
      <node concept="3Tm1VV" id="3z1mdFUF$j4" role="1B3o_S" />
      <node concept="A3Dl8" id="3z1mdFUF$j7" role="3clF45">
        <node concept="17QB3L" id="3z1mdFUF$j9" role="A3Ik2" />
      </node>
      <node concept="3clFbS" id="3z1mdFUF$j6" role="3clF47" />
    </node>
    <node concept="13hLZK" id="2$98zG5liRR" role="13h7CW">
      <node concept="3clFbS" id="2$98zG5liRS" role="2VODD2" />
    </node>
  </node>
  <node concept="13h7C7" id="2$98zG5liRY">
    <ref role="13h7C2" to="pop3:3U1VhSFTRMR" resolve="TestCaseRef" />
    <node concept="13hLZK" id="2$98zG5liRZ" role="13h7CW">
      <node concept="3clFbS" id="2$98zG5liS0" role="2VODD2" />
    </node>
    <node concept="13i0hz" id="1ouvi_yueK" role="13h7CS">
      <property role="13i0iv" value="false" />
      <property role="13i0it" value="false" />
      <property role="TrG5h" value="isSame" />
      <ref role="13i0hy" node="1ouvi_ymQH" resolve="isSame" />
      <node concept="3Tm1VV" id="1ouvi_yueN" role="1B3o_S" />
      <node concept="3clFbS" id="1ouvi_yueQ" role="3clF47">
        <node concept="3clFbF" id="1ouvi_yupd" role="3cqZAp">
          <node concept="3clFbC" id="1ouvi_yv3b" role="3clFbG">
            <node concept="2OqwBi" id="1ouvi_yv7R" role="3uHU7w">
              <node concept="13iPFW" id="1ouvi_yv63" role="2Oq$k0" />
              <node concept="3TrEf2" id="1ouvi_yvi5" role="2OqNvi">
                <ref role="3Tt5mk" to="pop3:3U1VhSFTRN0" />
              </node>
            </node>
            <node concept="2OqwBi" id="1ouvi_yvmP" role="3uHU7B">
              <node concept="1PxgMI" id="1ouvi_yurE" role="2Oq$k0">
                <property role="1BlNFB" value="true" />
                <ref role="1m5ApE" to="pop3:3U1VhSFTRMR" resolve="TestCaseRef" />
                <node concept="37vLTw" id="1ouvi_yupc" role="1m5AlR">
                  <ref role="3cqZAo" node="1ouvi_yueR" resolve="testRef" />
                </node>
              </node>
              <node concept="3TrEf2" id="1ouvi_yvAw" role="2OqNvi">
                <ref role="3Tt5mk" to="pop3:3U1VhSFTRN0" />
              </node>
            </node>
          </node>
        </node>
      </node>
      <node concept="37vLTG" id="1ouvi_yueR" role="3clF46">
        <property role="TrG5h" value="testRef" />
        <node concept="3Tqbb2" id="1ouvi_yueS" role="1tU5fm">
          <ref role="ehGHo" to="pop3:3U1VhSFTRMU" resolve="ITestRef" />
        </node>
      </node>
      <node concept="10P_77" id="1ouvi_yueT" role="3clF45" />
    </node>
    <node concept="13i0hz" id="2$98zG5liS1" role="13h7CS">
      <property role="13i0iv" value="false" />
      <property role="TrG5h" value="fqClassName" />
      <property role="13i0it" value="false" />
      <ref role="13i0hy" node="2$98zG5liRT" resolve="fqClassName" />
      <node concept="3Tm1VV" id="2$98zG5liS2" role="1B3o_S" />
      <node concept="3clFbS" id="2$98zG5liS3" role="3clF47">
        <node concept="3clFbF" id="2$98zG5liS5" role="3cqZAp">
          <node concept="2OqwBi" id="2$98zG5liSc" role="3clFbG">
            <node concept="2OqwBi" id="2$98zG5liS7" role="2Oq$k0">
              <node concept="13iPFW" id="2$98zG5liS6" role="2Oq$k0" />
              <node concept="3TrEf2" id="2$98zG5liSb" role="2OqNvi">
                <ref role="3Tt5mk" to="pop3:3U1VhSFTRN0" />
              </node>
            </node>
            <node concept="2qgKlT" id="2$98zG5liSg" role="2OqNvi">
              <ref role="37wK5l" to="tpe5:hGBnqtL" resolve="getClassName" />
            </node>
          </node>
        </node>
      </node>
      <node concept="17QB3L" id="2$98zG5liS4" role="3clF45" />
    </node>
    <node concept="13i0hz" id="3z1mdFUFFNu" role="13h7CS">
      <property role="13i0iv" value="false" />
      <property role="TrG5h" value="testNames" />
      <property role="13i0it" value="false" />
      <ref role="13i0hy" node="3z1mdFUF$j3" resolve="testNames" />
      <node concept="3Tm1VV" id="3z1mdFUFFNv" role="1B3o_S" />
      <node concept="3clFbS" id="3z1mdFUFFNw" role="3clF47">
        <node concept="3cpWs8" id="1wIGzOAqLlx" role="3cqZAp">
          <node concept="3cpWsn" id="1wIGzOAqLly" role="3cpWs9">
            <property role="TrG5h" value="testMethods" />
            <node concept="2I9FWS" id="1wIGzOAqLlz" role="1tU5fm">
              <ref role="2I9WkF" to="tpe3:hGBgSCX" resolve="ITestMethod" />
            </node>
          </node>
        </node>
        <node concept="3clFbJ" id="1wIGzOAqLl$" role="3cqZAp">
          <node concept="3clFbS" id="1wIGzOAqLl_" role="3clFbx">
            <node concept="3clFbF" id="1wIGzOAqLpl" role="3cqZAp">
              <node concept="37vLTI" id="1wIGzOAqLpn" role="3clFbG">
                <node concept="2OqwBi" id="1wIGzOAqLpw" role="37vLTx">
                  <node concept="2OqwBi" id="1wIGzOAqLpr" role="2Oq$k0">
                    <node concept="13iPFW" id="1wIGzOAqLpq" role="2Oq$k0" />
                    <node concept="3TrEf2" id="1wIGzOAqLpv" role="2OqNvi">
                      <ref role="3Tt5mk" to="pop3:3U1VhSFTRN0" />
                    </node>
                  </node>
                  <node concept="2qgKlT" id="1wIGzOAqLp$" role="2OqNvi">
                    <ref role="37wK5l" to="tpe5:hGB2z8L" resolve="getTestSet" />
                  </node>
                </node>
                <node concept="37vLTw" id="3GM_nagTxGC" role="37vLTJ">
                  <ref role="3cqZAo" node="1wIGzOAqLly" resolve="testMethods" />
                </node>
              </node>
            </node>
          </node>
          <node concept="2OqwBi" id="1wIGzOAqLlI" role="3clFbw">
            <node concept="2OqwBi" id="1wIGzOAqLlD" role="2Oq$k0">
              <node concept="13iPFW" id="1wIGzOAqLlC" role="2Oq$k0" />
              <node concept="3TrEf2" id="1wIGzOAqLlH" role="2OqNvi">
                <ref role="3Tt5mk" to="pop3:3U1VhSFTRN0" />
              </node>
            </node>
            <node concept="1mIQ4w" id="1wIGzOAqLlM" role="2OqNvi">
              <node concept="chp4Y" id="1wIGzOAqLpk" role="cj9EA">
                <ref role="cht4Q" to="tp5g:hHlH9T6" resolve="NodesTestCase" />
              </node>
            </node>
          </node>
          <node concept="9aQIb" id="1wIGzOAqLp_" role="9aQIa">
            <node concept="3clFbS" id="1wIGzOAqLpA" role="9aQI4">
              <node concept="3clFbF" id="1wIGzOAqLpB" role="3cqZAp">
                <node concept="37vLTI" id="1wIGzOAqLpD" role="3clFbG">
                  <node concept="2OqwBi" id="1wIGzOAqLpM" role="37vLTx">
                    <node concept="2OqwBi" id="1wIGzOAqLpH" role="2Oq$k0">
                      <node concept="13iPFW" id="1wIGzOAqLpG" role="2Oq$k0" />
                      <node concept="3TrEf2" id="1wIGzOAqLpL" role="2OqNvi">
                        <ref role="3Tt5mk" to="pop3:3U1VhSFTRN0" />
                      </node>
                    </node>
                    <node concept="2qgKlT" id="1wIGzOAqLpQ" role="2OqNvi">
                      <ref role="37wK5l" to="tpe5:1RfJDyhAUar" resolve="getTestMethods" />
                    </node>
                  </node>
                  <node concept="37vLTw" id="3GM_nagTuOx" role="37vLTJ">
                    <ref role="3cqZAo" node="1wIGzOAqLly" resolve="testMethods" />
                  </node>
                </node>
              </node>
            </node>
          </node>
        </node>
        <node concept="3clFbF" id="3z1mdFUFFNz" role="3cqZAp">
          <node concept="2OqwBi" id="3z1mdFUFFNJ" role="3clFbG">
            <node concept="37vLTw" id="3GM_nagTvQx" role="2Oq$k0">
              <ref role="3cqZAo" node="1wIGzOAqLly" resolve="testMethods" />
            </node>
            <node concept="3$u5V9" id="3z1mdFUFFNN" role="2OqNvi">
              <node concept="1bVj0M" id="3z1mdFUFFNO" role="23t8la">
                <node concept="3clFbS" id="3z1mdFUFFNP" role="1bW5cS">
                  <node concept="3clFbF" id="3z1mdFUFFNS" role="3cqZAp">
                    <node concept="2OqwBi" id="3z1mdFUFFNU" role="3clFbG">
                      <node concept="37vLTw" id="2BHiRxgh9V5" role="2Oq$k0">
                        <ref role="3cqZAo" node="3z1mdFUFFNQ" resolve="m" />
                      </node>
                      <node concept="2qgKlT" id="3z1mdFUFFNY" role="2OqNvi">
                        <ref role="37wK5l" to="tpe5:hGBohAB" resolve="getTestName" />
                      </node>
                    </node>
                  </node>
                </node>
                <node concept="Rh6nW" id="3z1mdFUFFNQ" role="1bW2Oz">
                  <property role="TrG5h" value="m" />
                  <node concept="2jxLKc" id="3z1mdFUFFNR" role="1tU5fm" />
                </node>
              </node>
            </node>
          </node>
        </node>
      </node>
      <node concept="A3Dl8" id="3z1mdFUFFNx" role="3clF45">
        <node concept="17QB3L" id="3z1mdFUFFNy" role="A3Ik2" />
      </node>
    </node>
  </node>
  <node concept="13h7C7" id="2$98zG5liSh">
    <ref role="13h7C2" to="pop3:3U1VhSFTRMT" resolve="JUnit3TestCaseRef" />
    <node concept="13hLZK" id="2$98zG5liSi" role="13h7CW">
      <node concept="3clFbS" id="2$98zG5liSj" role="2VODD2" />
    </node>
    <node concept="13i0hz" id="1ouvi_yne$" role="13h7CS">
      <property role="13i0iv" value="false" />
      <property role="13i0it" value="false" />
      <property role="TrG5h" value="isSame" />
      <ref role="13i0hy" node="1ouvi_ymQH" resolve="isSame" />
      <node concept="3Tm1VV" id="1ouvi_yneB" role="1B3o_S" />
      <node concept="3clFbS" id="1ouvi_yneE" role="3clF47">
        <node concept="3clFbF" id="1ouvi_yo4P" role="3cqZAp">
          <node concept="3clFbC" id="1ouvi_yqtv" role="3clFbG">
            <node concept="2OqwBi" id="1ouvi_yq$_" role="3uHU7w">
              <node concept="13iPFW" id="1ouvi_yqx0" role="2Oq$k0" />
              <node concept="3TrEf2" id="1ouvi_yqGH" role="2OqNvi">
                <ref role="3Tt5mk" to="pop3:173Z5qAOgIZ" />
              </node>
            </node>
            <node concept="2OqwBi" id="1ouvi_yogR" role="3uHU7B">
              <node concept="1PxgMI" id="1ouvi_yo72" role="2Oq$k0">
                <property role="1BlNFB" value="true" />
                <ref role="1m5ApE" to="pop3:3U1VhSFTRMT" resolve="JUnit3TestCaseRef" />
                <node concept="37vLTw" id="1ouvi_yo4O" role="1m5AlR">
                  <ref role="3cqZAo" node="1ouvi_yneF" resolve="testRef" />
                </node>
              </node>
              <node concept="3TrEf2" id="1ouvi_yooE" role="2OqNvi">
                <ref role="3Tt5mk" to="pop3:173Z5qAOgIZ" />
              </node>
            </node>
          </node>
        </node>
      </node>
      <node concept="37vLTG" id="1ouvi_yneF" role="3clF46">
        <property role="TrG5h" value="testRef" />
        <node concept="3Tqbb2" id="1ouvi_yneG" role="1tU5fm">
          <ref role="ehGHo" to="pop3:3U1VhSFTRMU" resolve="ITestRef" />
        </node>
      </node>
      <node concept="10P_77" id="1ouvi_yneH" role="3clF45" />
    </node>
    <node concept="13i0hz" id="2$98zG5liSk" role="13h7CS">
      <property role="13i0iv" value="false" />
      <property role="TrG5h" value="fqClassName" />
      <property role="13i0it" value="false" />
      <ref role="13i0hy" node="2$98zG5liRT" resolve="fqClassName" />
      <node concept="3Tm1VV" id="2$98zG5liSl" role="1B3o_S" />
      <node concept="3clFbS" id="2$98zG5liSm" role="3clF47">
        <node concept="3clFbF" id="2$98zG5llRn" role="3cqZAp">
          <node concept="2OqwBi" id="2$98zG5llRu" role="3clFbG">
            <node concept="2OqwBi" id="2$98zG5llRp" role="2Oq$k0">
              <node concept="13iPFW" id="2$98zG5llRo" role="2Oq$k0" />
              <node concept="3TrEf2" id="2$98zG5llRt" role="2OqNvi">
                <ref role="3Tt5mk" to="pop3:173Z5qAOgIZ" />
              </node>
            </node>
            <node concept="2qgKlT" id="2$98zG5llRz" role="2OqNvi">
              <ref role="37wK5l" to="if8w:4pl5GY7LKmR" resolve="getUnitName" />
            </node>
          </node>
        </node>
      </node>
      <node concept="17QB3L" id="2$98zG5liSn" role="3clF45" />
    </node>
    <node concept="13i0hz" id="3z1mdFUF$ja" role="13h7CS">
      <property role="13i0iv" value="false" />
      <property role="TrG5h" value="testNames" />
      <property role="13i0it" value="false" />
      <ref role="13i0hy" node="3z1mdFUF$j3" resolve="testNames" />
      <node concept="3Tm1VV" id="3z1mdFUF$jb" role="1B3o_S" />
      <node concept="3clFbS" id="3z1mdFUF$jc" role="3clF47">
        <node concept="3cpWs8" id="11r0PW4U$Tn" role="3cqZAp">
          <node concept="3cpWsn" id="11r0PW4U$To" role="3cpWs9">
            <property role="TrG5h" value="ignoreAnn" />
            <node concept="3Tqbb2" id="11r0PW4U$Tp" role="1tU5fm">
              <ref role="ehGHo" to="tpee:hiABswc" resolve="Annotation" />
            </node>
            <node concept="2OqwBi" id="11r0PW4U$Tq" role="33vP2m">
              <node concept="2c44tf" id="11r0PW4U$Tr" role="2Oq$k0">
                <node concept="2AHcQZ" id="11r0PW4U$Ts" role="2c44tc">
                  <ref role="2AI5Lk" to="rjhg:~Ignore" resolve="Ignore" />
                </node>
              </node>
              <node concept="3TrEf2" id="11r0PW4U$Tt" role="2OqNvi">
                <ref role="3Tt5mk" to="tpee:hiAI5P0" />
              </node>
            </node>
          </node>
        </node>
        <node concept="3clFbH" id="11r0PW4U$Tm" role="3cqZAp" />
        <node concept="3clFbF" id="3z1mdFUF$jf" role="3cqZAp">
          <node concept="2OqwBi" id="3z1mdFUF$kq" role="3clFbG">
            <node concept="2OqwBi" id="3z1mdFUF$jr" role="2Oq$k0">
              <node concept="2OqwBi" id="3z1mdFUF$jm" role="2Oq$k0">
                <node concept="2qgKlT" id="2oLu0Jc29yk" role="2OqNvi">
                  <ref role="37wK5l" to="tpek:4_LVZ3pBKCn" resolve="methods" />
                </node>
                <node concept="2OqwBi" id="3z1mdFUF$jh" role="2Oq$k0">
                  <node concept="13iPFW" id="3z1mdFUF$jg" role="2Oq$k0" />
                  <node concept="3TrEf2" id="3z1mdFUF$jl" role="2OqNvi">
                    <ref role="3Tt5mk" to="pop3:173Z5qAOgIZ" />
                  </node>
                </node>
              </node>
              <node concept="3zZkjj" id="3z1mdFUF$jv" role="2OqNvi">
                <node concept="1bVj0M" id="3z1mdFUF$jw" role="23t8la">
                  <node concept="3clFbS" id="3z1mdFUF$jx" role="1bW5cS">
                    <node concept="3clFbF" id="3z1mdFUF$j$" role="3cqZAp">
                      <node concept="1Wc70l" id="11r0PW4U$Tu" role="3clFbG">
                        <node concept="3fqX7Q" id="11r0PW4U$Tx" role="3uHU7w">
                          <node concept="2OqwBi" id="11r0PW4U$TD" role="3fr31v">
                            <node concept="2OqwBi" id="11r0PW4U$T$" role="2Oq$k0">
                              <node concept="37vLTw" id="2BHiRxgmclH" role="2Oq$k0">
                                <ref role="3cqZAo" node="3z1mdFUF$jy" resolve="m" />
                              </node>
                              <node concept="3Tsc0h" id="11r0PW4U$TC" role="2OqNvi">
                                <ref role="3TtcxE" to="tpee:hiAJF2X" />
                              </node>
                            </node>
                            <node concept="2HwmR7" id="11r0PW4U$TH" role="2OqNvi">
                              <node concept="1bVj0M" id="11r0PW4U$TI" role="23t8la">
                                <node concept="3clFbS" id="11r0PW4U$TJ" role="1bW5cS">
                                  <node concept="3clFbF" id="11r0PW4U$TM" role="3cqZAp">
                                    <node concept="3clFbC" id="11r0PW4U$TT" role="3clFbG">
                                      <node concept="37vLTw" id="3GM_nagTBN5" role="3uHU7w">
                                        <ref role="3cqZAo" node="11r0PW4U$To" resolve="ignoreAnn" />
                                      </node>
                                      <node concept="2OqwBi" id="11r0PW4U$TO" role="3uHU7B">
                                        <node concept="37vLTw" id="2BHiRxgm82f" role="2Oq$k0">
                                          <ref role="3cqZAo" node="11r0PW4U$TK" resolve="mann" />
                                        </node>
                                        <node concept="3TrEf2" id="11r0PW4U$TS" role="2OqNvi">
                                          <ref role="3Tt5mk" to="tpee:hiAI5P0" />
                                        </node>
                                      </node>
                                    </node>
                                  </node>
                                </node>
                                <node concept="Rh6nW" id="11r0PW4U$TK" role="1bW2Oz">
                                  <property role="TrG5h" value="mann" />
                                  <node concept="2jxLKc" id="11r0PW4U$TL" role="1tU5fm" />
                                </node>
                              </node>
                            </node>
                          </node>
                        </node>
                        <node concept="1Wc70l" id="3z1mdFUF$k8" role="3uHU7B">
                          <node concept="1Wc70l" id="3z1mdFUF$jS" role="3uHU7B">
                            <node concept="2OqwBi" id="3z1mdFUF$jL" role="3uHU7B">
                              <node concept="2OqwBi" id="3z1mdFUF$jA" role="2Oq$k0">
                                <node concept="37vLTw" id="2BHiRxgheoh" role="2Oq$k0">
                                  <ref role="3cqZAo" node="3z1mdFUF$jy" resolve="m" />
                                </node>
                                <node concept="3TrEf2" id="3z1mdFUF$jE" role="2OqNvi">
                                  <ref role="3Tt5mk" to="tpee:h9B3oxE" />
                                </node>
                              </node>
                              <node concept="1mIQ4w" id="3z1mdFUF$jP" role="2OqNvi">
                                <node concept="chp4Y" id="3z1mdFUF$jR" role="cj9EA">
                                  <ref role="cht4Q" to="tpee:gFTm1ZL" resolve="PublicVisibility" />
                                </node>
                              </node>
                            </node>
                            <node concept="2OqwBi" id="3z1mdFUF$k1" role="3uHU7w">
                              <node concept="2OqwBi" id="3z1mdFUF$jW" role="2Oq$k0">
                                <node concept="37vLTw" id="2BHiRxgmwV3" role="2Oq$k0">
                                  <ref role="3cqZAo" node="3z1mdFUF$jy" resolve="m" />
                                </node>
                                <node concept="3TrEf2" id="3z1mdFUF$k0" role="2OqNvi">
                                  <ref role="3Tt5mk" to="tpee:fzclF7X" />
                                </node>
                              </node>
                              <node concept="1mIQ4w" id="3z1mdFUF$k5" role="2OqNvi">
                                <node concept="chp4Y" id="3z1mdFUF$k7" role="cj9EA">
                                  <ref role="cht4Q" to="tpee:fzcqZ_H" resolve="VoidType" />
                                </node>
                              </node>
                            </node>
                          </node>
                          <node concept="2OqwBi" id="3z1mdFUF$kh" role="3uHU7w">
                            <node concept="2OqwBi" id="3z1mdFUF$kc" role="2Oq$k0">
                              <node concept="37vLTw" id="2BHiRxgllg_" role="2Oq$k0">
                                <ref role="3cqZAo" node="3z1mdFUF$jy" resolve="m" />
                              </node>
                              <node concept="3TrcHB" id="3z1mdFUF$kg" role="2OqNvi">
                                <ref role="3TsBF5" to="tpck:h0TrG11" resolve="name" />
                              </node>
                            </node>
                            <node concept="liA8E" id="3z1mdFUF$kl" role="2OqNvi">
                              <ref role="37wK5l" to="wyt6:~String.startsWith(java.lang.String):boolean" resolve="startsWith" />
                              <node concept="Xl_RD" id="3z1mdFUF$km" role="37wK5m">
                                <property role="Xl_RC" value="test" />
                              </node>
                            </node>
                          </node>
                        </node>
                      </node>
                    </node>
                  </node>
                  <node concept="Rh6nW" id="3z1mdFUF$jy" role="1bW2Oz">
                    <property role="TrG5h" value="m" />
                    <node concept="2jxLKc" id="3z1mdFUF$jz" role="1tU5fm" />
                  </node>
                </node>
              </node>
            </node>
            <node concept="3$u5V9" id="3z1mdFUF$ku" role="2OqNvi">
              <node concept="1bVj0M" id="3z1mdFUF$kv" role="23t8la">
                <node concept="3clFbS" id="3z1mdFUF$kw" role="1bW5cS">
                  <node concept="3clFbF" id="3z1mdFUF$kz" role="3cqZAp">
                    <node concept="2OqwBi" id="3z1mdFUF$k_" role="3clFbG">
                      <node concept="37vLTw" id="2BHiRxgmpuK" role="2Oq$k0">
                        <ref role="3cqZAo" node="3z1mdFUF$kx" resolve="m" />
                      </node>
                      <node concept="3TrcHB" id="3z1mdFUF$kD" role="2OqNvi">
                        <ref role="3TsBF5" to="tpck:h0TrG11" resolve="name" />
                      </node>
                    </node>
                  </node>
                </node>
                <node concept="Rh6nW" id="3z1mdFUF$kx" role="1bW2Oz">
                  <property role="TrG5h" value="m" />
                  <node concept="2jxLKc" id="3z1mdFUF$ky" role="1tU5fm" />
                </node>
              </node>
            </node>
          </node>
        </node>
      </node>
      <node concept="A3Dl8" id="3z1mdFUF$jd" role="3clF45">
        <node concept="17QB3L" id="3z1mdFUF$je" role="A3Ik2" />
      </node>
    </node>
    <node concept="13i0hz" id="1k5vvhzzWoK" role="13h7CS">
      <property role="TrG5h" value="getTestClassesForModule" />
      <property role="2Ki8OM" value="true" />
      <node concept="3Tm1VV" id="1k5vvhzzWr8" role="1B3o_S" />
      <node concept="3clFbS" id="1k5vvhzzWra" role="3clF47">
        <node concept="3clFbF" id="7A48iti$ljq" role="3cqZAp">
          <node concept="2OqwBi" id="1k5vvhzzvD7" role="3clFbG">
            <node concept="2OqwBi" id="7A48iti$m3h" role="2Oq$k0">
              <node concept="2OqwBi" id="7A48itizwWT" role="2Oq$k0">
                <node concept="37vLTw" id="1k5vvhz$1yl" role="2Oq$k0">
                  <ref role="3cqZAo" node="1k5vvhzzZMm" resolve="module" />
                </node>
                <node concept="2qgKlT" id="7A48iti$gLd" role="2OqNvi">
                  <ref role="37wK5l" node="173Z5qAOyPn" resolve="models" />
                </node>
              </node>
              <node concept="3goQfb" id="7A48iti$nOS" role="2OqNvi">
                <node concept="1bVj0M" id="7A48iti$nOU" role="23t8la">
                  <node concept="3clFbS" id="7A48iti$nOV" role="1bW5cS">
                    <node concept="3clFbF" id="7A48iti$opt" role="3cqZAp">
                      <node concept="2OqwBi" id="7A48iti$zbn" role="3clFbG">
                        <node concept="2OqwBi" id="7A48iti$o_B" role="2Oq$k0">
                          <node concept="1eOMI4" id="7A48iti$tAQ" role="2Oq$k0">
                            <node concept="10QFUN" id="7A48iti$tAR" role="1eOMHV">
                              <node concept="37vLTw" id="7A48iti$tAP" role="10QFUP">
                                <ref role="3cqZAo" node="7A48iti$nOW" resolve="it" />
                              </node>
                              <node concept="H_c77" id="7A48iti$uaX" role="10QFUM" />
                            </node>
                          </node>
                          <node concept="2RRcyG" id="7A48iti$uSf" role="2OqNvi">
                            <ref role="2RRcyH" to="tpee:fz12cDA" resolve="ClassConcept" />
                          </node>
                        </node>
                        <node concept="3zZkjj" id="7A48iti$J6E" role="2OqNvi">
                          <node concept="1bVj0M" id="7A48iti$J6G" role="23t8la">
                            <node concept="3clFbS" id="7A48iti$J6H" role="1bW5cS">
                              <node concept="3clFbF" id="7A48iti$K59" role="3cqZAp">
                                <node concept="2OqwBi" id="7A48iti$KH6" role="3clFbG">
                                  <node concept="37vLTw" id="7A48iti$K58" role="2Oq$k0">
                                    <ref role="3cqZAo" node="7A48iti$J6I" resolve="it" />
                                  </node>
                                  <node concept="2qgKlT" id="7A48iti$QCr" role="2OqNvi">
                                    <ref role="37wK5l" to="tpek:6dL7A1DpKo1" resolve="isDescendant" />
                                    <node concept="2OqwBi" id="7A48iti$RHh" role="37wK5m">
                                      <node concept="2c44tf" id="7A48iti$RHi" role="2Oq$k0">
                                        <node concept="3uibUv" id="7A48iti$RHj" role="2c44tc">
                                          <ref role="3uigEE" to="u132:~TestCase" resolve="TestCase" />
                                        </node>
                                      </node>
                                      <node concept="3TrEf2" id="7A48iti$RHk" role="2OqNvi">
                                        <ref role="3Tt5mk" to="tpee:g7uigIF" />
                                      </node>
                                    </node>
                                  </node>
                                </node>
                              </node>
                            </node>
                            <node concept="Rh6nW" id="7A48iti$J6I" role="1bW2Oz">
                              <property role="TrG5h" value="it" />
                              <node concept="2jxLKc" id="7A48iti$J6J" role="1tU5fm" />
                            </node>
                          </node>
                        </node>
                      </node>
                    </node>
                  </node>
                  <node concept="Rh6nW" id="7A48iti$nOW" role="1bW2Oz">
                    <property role="TrG5h" value="it" />
                    <node concept="2jxLKc" id="7A48iti$nOX" role="1tU5fm" />
                  </node>
                </node>
              </node>
            </node>
            <node concept="3zZkjj" id="1k5vvhzzz6z" role="2OqNvi">
              <node concept="1bVj0M" id="1k5vvhzzz6_" role="23t8la">
                <node concept="3clFbS" id="1k5vvhzzz6A" role="1bW5cS">
                  <node concept="3clFbF" id="1k5vvhzz_2F" role="3cqZAp">
                    <node concept="3fqX7Q" id="1k5vvhzz_2D" role="3clFbG">
                      <node concept="2OqwBi" id="1k5vvhzzBSL" role="3fr31v">
                        <node concept="37vLTw" id="1k5vvhzzAh$" role="2Oq$k0">
                          <ref role="3cqZAo" node="1k5vvhzzz6B" resolve="it" />
                        </node>
                        <node concept="3TrcHB" id="1k5vvhzzQCb" role="2OqNvi">
                          <ref role="3TsBF5" to="tpee:fDsVARU" resolve="abstractClass" />
                        </node>
                      </node>
                    </node>
                  </node>
                </node>
                <node concept="Rh6nW" id="1k5vvhzzz6B" role="1bW2Oz">
                  <property role="TrG5h" value="it" />
                  <node concept="2jxLKc" id="1k5vvhzzz6C" role="1tU5fm" />
                </node>
              </node>
            </node>
          </node>
        </node>
      </node>
      <node concept="37vLTG" id="1k5vvhzzZMm" role="3clF46">
        <property role="TrG5h" value="module" />
        <node concept="3Tqbb2" id="1k5vvhzzZMl" role="1tU5fm">
          <ref role="ehGHo" to="pop3:3U1VhSFTRMP" resolve="ModuleSuite" />
        </node>
      </node>
      <node concept="A3Dl8" id="1k5vvhz$1Je" role="3clF45">
        <node concept="3Tqbb2" id="1k5vvhz$1Jh" role="A3Ik2">
          <ref role="ehGHo" to="tpee:fz12cDA" resolve="ClassConcept" />
        </node>
      </node>
    </node>
  </node>
  <node concept="13h7C7" id="2$98zG5llR$">
    <ref role="13h7C2" to="pop3:3U1VhSFTRMS" resolve="JUnit4TestCaseRef" />
    <node concept="13hLZK" id="2$98zG5llR_" role="13h7CW">
      <node concept="3clFbS" id="2$98zG5llRA" role="2VODD2" />
    </node>
    <node concept="13i0hz" id="1ouvi_yrCj" role="13h7CS">
      <property role="13i0iv" value="false" />
      <property role="13i0it" value="false" />
      <property role="TrG5h" value="isSame" />
      <ref role="13i0hy" node="1ouvi_ymQH" resolve="isSame" />
      <node concept="3Tm1VV" id="1ouvi_yrCm" role="1B3o_S" />
      <node concept="3clFbS" id="1ouvi_yrCp" role="3clF47">
        <node concept="3clFbF" id="1ouvi_yslp" role="3cqZAp">
          <node concept="3clFbC" id="1ouvi_ysUc" role="3clFbG">
            <node concept="2OqwBi" id="1ouvi_yt1i" role="3uHU7w">
              <node concept="13iPFW" id="1ouvi_ysXH" role="2Oq$k0" />
              <node concept="3TrEf2" id="1ouvi_ytbL" role="2OqNvi">
                <ref role="3Tt5mk" to="pop3:3U1VhSFTRN1" />
              </node>
            </node>
            <node concept="2OqwBi" id="1ouvi_ysqb" role="3uHU7B">
              <node concept="1PxgMI" id="1ouvi_ysnA" role="2Oq$k0">
                <property role="1BlNFB" value="true" />
                <ref role="1m5ApE" to="pop3:3U1VhSFTRMS" resolve="JUnit4TestCaseRef" />
                <node concept="37vLTw" id="1ouvi_yslo" role="1m5AlR">
                  <ref role="3cqZAo" node="1ouvi_yrCq" resolve="testRef" />
                </node>
              </node>
              <node concept="3TrEf2" id="1ouvi_ysDv" role="2OqNvi">
                <ref role="3Tt5mk" to="pop3:3U1VhSFTRN1" />
              </node>
            </node>
          </node>
        </node>
      </node>
      <node concept="37vLTG" id="1ouvi_yrCq" role="3clF46">
        <property role="TrG5h" value="testRef" />
        <node concept="3Tqbb2" id="1ouvi_yrCr" role="1tU5fm">
          <ref role="ehGHo" to="pop3:3U1VhSFTRMU" resolve="ITestRef" />
        </node>
      </node>
      <node concept="10P_77" id="1ouvi_yrCs" role="3clF45" />
    </node>
    <node concept="13i0hz" id="2$98zG5llRB" role="13h7CS">
      <property role="13i0iv" value="false" />
      <property role="TrG5h" value="fqClassName" />
      <property role="13i0it" value="false" />
      <ref role="13i0hy" node="2$98zG5liRT" resolve="fqClassName" />
      <node concept="3Tm1VV" id="2$98zG5llRC" role="1B3o_S" />
      <node concept="3clFbS" id="2$98zG5llRD" role="3clF47">
        <node concept="3clFbF" id="2$98zG5llRF" role="3cqZAp">
          <node concept="2OqwBi" id="2$98zG5llRG" role="3clFbG">
            <node concept="2OqwBi" id="2$98zG5llRH" role="2Oq$k0">
              <node concept="13iPFW" id="2$98zG5llRI" role="2Oq$k0" />
              <node concept="3TrEf2" id="2$98zG5llRL" role="2OqNvi">
                <ref role="3Tt5mk" to="pop3:3U1VhSFTRN1" />
              </node>
            </node>
            <node concept="2qgKlT" id="2$98zG5llRK" role="2OqNvi">
              <ref role="37wK5l" to="if8w:4pl5GY7LKmR" resolve="getUnitName" />
            </node>
          </node>
        </node>
      </node>
      <node concept="17QB3L" id="2$98zG5llRE" role="3clF45" />
    </node>
    <node concept="13i0hz" id="3z1mdFUF$kE" role="13h7CS">
      <property role="13i0iv" value="false" />
      <property role="TrG5h" value="testNames" />
      <property role="13i0it" value="false" />
      <ref role="13i0hy" node="3z1mdFUF$j3" resolve="testNames" />
      <node concept="3Tm1VV" id="3z1mdFUF$kF" role="1B3o_S" />
      <node concept="3clFbS" id="3z1mdFUF$kG" role="3clF47">
        <node concept="3cpWs8" id="3z1mdFUFFN3" role="3cqZAp">
          <node concept="3cpWsn" id="3z1mdFUFFN4" role="3cpWs9">
            <property role="TrG5h" value="testAnn" />
            <node concept="3Tqbb2" id="3z1mdFUFFN5" role="1tU5fm">
              <ref role="ehGHo" to="tpee:hiABswc" resolve="Annotation" />
            </node>
            <node concept="2OqwBi" id="3z1mdFUFFN6" role="33vP2m">
              <node concept="2c44tf" id="3z1mdFUFFN7" role="2Oq$k0">
                <node concept="2AHcQZ" id="3z1mdFUFFN8" role="2c44tc">
                  <ref role="2AI5Lk" to="rjhg:~Test" resolve="Test" />
                </node>
              </node>
              <node concept="3TrEf2" id="3z1mdFUFFN9" role="2OqNvi">
                <ref role="3Tt5mk" to="tpee:hiAI5P0" />
              </node>
            </node>
          </node>
        </node>
        <node concept="3cpWs8" id="11r0PW4U$SK" role="3cqZAp">
          <node concept="3cpWsn" id="11r0PW4U$SL" role="3cpWs9">
            <property role="TrG5h" value="ignoreAnn" />
            <node concept="3Tqbb2" id="11r0PW4U$SM" role="1tU5fm">
              <ref role="ehGHo" to="tpee:hiABswc" resolve="Annotation" />
            </node>
            <node concept="2OqwBi" id="11r0PW4U$SN" role="33vP2m">
              <node concept="2c44tf" id="11r0PW4U$SO" role="2Oq$k0">
                <node concept="2AHcQZ" id="11r0PW4U$SP" role="2c44tc">
                  <ref role="2AI5Lk" to="rjhg:~Ignore" resolve="Ignore" />
                </node>
              </node>
              <node concept="3TrEf2" id="11r0PW4U$SQ" role="2OqNvi">
                <ref role="3Tt5mk" to="tpee:hiAI5P0" />
              </node>
            </node>
          </node>
        </node>
        <node concept="3clFbH" id="11r0PW4U$SJ" role="3cqZAp" />
        <node concept="3clFbF" id="3z1mdFUF$kJ" role="3cqZAp">
          <node concept="2OqwBi" id="3z1mdFUFFNd" role="3clFbG">
            <node concept="2OqwBi" id="3z1mdFUF$kV" role="2Oq$k0">
              <node concept="2OqwBi" id="3z1mdFUF$kQ" role="2Oq$k0">
                <node concept="2qgKlT" id="2oLu0Jc29yi" role="2OqNvi">
                  <ref role="37wK5l" to="tpek:4_LVZ3pBKCn" resolve="methods" />
                </node>
                <node concept="2OqwBi" id="3z1mdFUF$kL" role="2Oq$k0">
                  <node concept="13iPFW" id="3z1mdFUF$kK" role="2Oq$k0" />
                  <node concept="3TrEf2" id="3z1mdFUF$kP" role="2OqNvi">
                    <ref role="3Tt5mk" to="pop3:3U1VhSFTRN1" />
                  </node>
                </node>
              </node>
              <node concept="3zZkjj" id="3z1mdFUF$kZ" role="2OqNvi">
                <node concept="1bVj0M" id="3z1mdFUF$l0" role="23t8la">
                  <node concept="3clFbS" id="3z1mdFUF$l1" role="1bW5cS">
                    <node concept="3clFbF" id="3z1mdFUF$l4" role="3cqZAp">
                      <node concept="1Wc70l" id="11r0PW4U$SR" role="3clFbG">
                        <node concept="3fqX7Q" id="11r0PW4U$SU" role="3uHU7w">
                          <node concept="2OqwBi" id="11r0PW4U$T2" role="3fr31v">
                            <node concept="2OqwBi" id="11r0PW4U$SX" role="2Oq$k0">
                              <node concept="37vLTw" id="2BHiRxglyL3" role="2Oq$k0">
                                <ref role="3cqZAo" node="3z1mdFUF$l2" resolve="m" />
                              </node>
                              <node concept="3Tsc0h" id="11r0PW4U$T1" role="2OqNvi">
                                <ref role="3TtcxE" to="tpee:hiAJF2X" />
                              </node>
                            </node>
                            <node concept="2HwmR7" id="11r0PW4U$T6" role="2OqNvi">
                              <node concept="1bVj0M" id="11r0PW4U$T7" role="23t8la">
                                <node concept="3clFbS" id="11r0PW4U$T8" role="1bW5cS">
                                  <node concept="3clFbF" id="11r0PW4U$Tb" role="3cqZAp">
                                    <node concept="3clFbC" id="11r0PW4U$Ti" role="3clFbG">
                                      <node concept="37vLTw" id="3GM_nagTt_Z" role="3uHU7w">
                                        <ref role="3cqZAo" node="11r0PW4U$SL" resolve="ignoreAnn" />
                                      </node>
                                      <node concept="2OqwBi" id="11r0PW4U$Td" role="3uHU7B">
                                        <node concept="37vLTw" id="2BHiRxgm8sv" role="2Oq$k0">
                                          <ref role="3cqZAo" node="11r0PW4U$T9" resolve="mann" />
                                        </node>
                                        <node concept="3TrEf2" id="11r0PW4U$Th" role="2OqNvi">
                                          <ref role="3Tt5mk" to="tpee:hiAI5P0" />
                                        </node>
                                      </node>
                                    </node>
                                  </node>
                                </node>
                                <node concept="Rh6nW" id="11r0PW4U$T9" role="1bW2Oz">
                                  <property role="TrG5h" value="mann" />
                                  <node concept="2jxLKc" id="11r0PW4U$Ta" role="1tU5fm" />
                                </node>
                              </node>
                            </node>
                          </node>
                        </node>
                        <node concept="2OqwBi" id="3z1mdFUF$lb" role="3uHU7B">
                          <node concept="2OqwBi" id="3z1mdFUF$l6" role="2Oq$k0">
                            <node concept="37vLTw" id="2BHiRxgmwRw" role="2Oq$k0">
                              <ref role="3cqZAo" node="3z1mdFUF$l2" resolve="m" />
                            </node>
                            <node concept="3Tsc0h" id="3z1mdFUF$la" role="2OqNvi">
                              <ref role="3TtcxE" to="tpee:hiAJF2X" />
                            </node>
                          </node>
                          <node concept="2HwmR7" id="3z1mdFUF$lf" role="2OqNvi">
                            <node concept="1bVj0M" id="3z1mdFUF$lg" role="23t8la">
                              <node concept="3clFbS" id="3z1mdFUF$lh" role="1bW5cS">
                                <node concept="3clFbF" id="3z1mdFUFFMH" role="3cqZAp">
                                  <node concept="3clFbC" id="3z1mdFUFFMO" role="3clFbG">
                                    <node concept="37vLTw" id="3GM_nagTzWa" role="3uHU7w">
                                      <ref role="3cqZAo" node="3z1mdFUFFN4" resolve="testAnn" />
                                    </node>
                                    <node concept="2OqwBi" id="3z1mdFUFFMJ" role="3uHU7B">
                                      <node concept="37vLTw" id="2BHiRxgm9BK" role="2Oq$k0">
                                        <ref role="3cqZAo" node="3z1mdFUF$li" resolve="mann" />
                                      </node>
                                      <node concept="3TrEf2" id="3z1mdFUFFMN" role="2OqNvi">
                                        <ref role="3Tt5mk" to="tpee:hiAI5P0" />
                                      </node>
                                    </node>
                                  </node>
                                </node>
                              </node>
                              <node concept="Rh6nW" id="3z1mdFUF$li" role="1bW2Oz">
                                <property role="TrG5h" value="mann" />
                                <node concept="2jxLKc" id="3z1mdFUF$lj" role="1tU5fm" />
                              </node>
                            </node>
                          </node>
                        </node>
                      </node>
                    </node>
                  </node>
                  <node concept="Rh6nW" id="3z1mdFUF$l2" role="1bW2Oz">
                    <property role="TrG5h" value="m" />
                    <node concept="2jxLKc" id="3z1mdFUF$l3" role="1tU5fm" />
                  </node>
                </node>
              </node>
            </node>
            <node concept="3$u5V9" id="3z1mdFUFFNh" role="2OqNvi">
              <node concept="1bVj0M" id="3z1mdFUFFNi" role="23t8la">
                <node concept="3clFbS" id="3z1mdFUFFNj" role="1bW5cS">
                  <node concept="3clFbF" id="3z1mdFUFFNm" role="3cqZAp">
                    <node concept="2OqwBi" id="3z1mdFUFFNo" role="3clFbG">
                      <node concept="37vLTw" id="2BHiRxghiPU" role="2Oq$k0">
                        <ref role="3cqZAo" node="3z1mdFUFFNk" resolve="m" />
                      </node>
                      <node concept="3TrcHB" id="3z1mdFUFFNs" role="2OqNvi">
                        <ref role="3TsBF5" to="tpck:h0TrG11" resolve="name" />
                      </node>
                    </node>
                  </node>
                </node>
                <node concept="Rh6nW" id="3z1mdFUFFNk" role="1bW2Oz">
                  <property role="TrG5h" value="m" />
                  <node concept="2jxLKc" id="3z1mdFUFFNl" role="1tU5fm" />
                </node>
              </node>
            </node>
          </node>
        </node>
      </node>
      <node concept="A3Dl8" id="3z1mdFUF$kH" role="3clF45">
        <node concept="17QB3L" id="3z1mdFUF$kI" role="A3Ik2" />
      </node>
    </node>
    <node concept="13i0hz" id="1k5vvhz$GBa" role="13h7CS">
      <property role="TrG5h" value="getTestClassesForModule" />
      <property role="2Ki8OM" value="true" />
      <node concept="3Tm1VV" id="1k5vvhz$GBb" role="1B3o_S" />
      <node concept="3clFbS" id="1k5vvhz$GBc" role="3clF47">
        <node concept="3clFbF" id="7A48iti$Xzp" role="3cqZAp">
          <node concept="2OqwBi" id="7A48iti$Xzq" role="3clFbG">
            <node concept="2OqwBi" id="7A48iti$Xzr" role="2Oq$k0">
              <node concept="37vLTw" id="7A48iti$Xzs" role="2Oq$k0">
                <ref role="3cqZAo" node="1k5vvhz$GBR" resolve="module" />
              </node>
              <node concept="2qgKlT" id="7A48iti$Xzt" role="2OqNvi">
                <ref role="37wK5l" node="173Z5qAOyPn" resolve="models" />
              </node>
            </node>
            <node concept="3goQfb" id="7A48iti$Xzu" role="2OqNvi">
              <node concept="1bVj0M" id="7A48iti$Xzv" role="23t8la">
                <node concept="3clFbS" id="7A48iti$Xzw" role="1bW5cS">
                  <node concept="3clFbF" id="7A48iti$Xzx" role="3cqZAp">
                    <node concept="2OqwBi" id="7A48iti$Xzy" role="3clFbG">
                      <node concept="2OqwBi" id="7A48iti$Xzz" role="2Oq$k0">
                        <node concept="1eOMI4" id="7A48iti$Xz$" role="2Oq$k0">
                          <node concept="10QFUN" id="7A48iti$Xz_" role="1eOMHV">
                            <node concept="37vLTw" id="7A48iti$XzA" role="10QFUP">
                              <ref role="3cqZAo" node="7A48iti$XzQ" resolve="it" />
                            </node>
                            <node concept="H_c77" id="7A48iti$XzB" role="10QFUM" />
                          </node>
                        </node>
                        <node concept="2RRcyG" id="7A48iti$XzC" role="2OqNvi">
                          <ref role="2RRcyH" to="tpee:fz12cDA" resolve="ClassConcept" />
                        </node>
                      </node>
                      <node concept="3zZkjj" id="7A48iti$XzD" role="2OqNvi">
                        <node concept="1bVj0M" id="7A48iti$XzE" role="23t8la">
                          <node concept="3clFbS" id="7A48iti$XzF" role="1bW5cS">
                            <node concept="3clFbF" id="7A48iti$XzG" role="3cqZAp">
                              <node concept="2OqwBi" id="173Z5qAOgK$" role="3clFbG">
                                <node concept="2OqwBi" id="173Z5qAOgKP" role="2Oq$k0">
                                  <node concept="2OqwBi" id="173Z5qAOgKv" role="2Oq$k0">
                                    <node concept="2qgKlT" id="2oLu0Jc27zY" role="2OqNvi">
                                      <ref role="37wK5l" to="tpek:4_LVZ3pBKCn" resolve="methods" />
                                    </node>
                                    <node concept="37vLTw" id="3GM_nagTzdc" role="2Oq$k0">
                                      <ref role="3cqZAo" node="7A48iti$XzO" resolve="it" />
                                    </node>
                                  </node>
                                  <node concept="3goQfb" id="173Z5qAOgKT" role="2OqNvi">
                                    <node concept="1bVj0M" id="173Z5qAOgKU" role="23t8la">
                                      <node concept="3clFbS" id="173Z5qAOgKV" role="1bW5cS">
                                        <node concept="3clFbF" id="173Z5qAOgKY" role="3cqZAp">
                                          <node concept="2OqwBi" id="173Z5qAOgL0" role="3clFbG">
                                            <node concept="37vLTw" id="2BHiRxgm9l5" role="2Oq$k0">
                                              <ref role="3cqZAo" node="173Z5qAOgKW" resolve="m" />
                                            </node>
                                            <node concept="3Tsc0h" id="173Z5qAOgL4" role="2OqNvi">
                                              <ref role="3TtcxE" to="tpee:hiAJF2X" />
                                            </node>
                                          </node>
                                        </node>
                                      </node>
                                      <node concept="Rh6nW" id="173Z5qAOgKW" role="1bW2Oz">
                                        <property role="TrG5h" value="m" />
                                        <node concept="2jxLKc" id="173Z5qAOgKX" role="1tU5fm" />
                                      </node>
                                    </node>
                                  </node>
                                </node>
                                <node concept="2HwmR7" id="173Z5qAOgKC" role="2OqNvi">
                                  <node concept="1bVj0M" id="173Z5qAOgKD" role="23t8la">
                                    <node concept="3clFbS" id="173Z5qAOgKE" role="1bW5cS">
                                      <node concept="3clFbF" id="173Z5qAOgL5" role="3cqZAp">
                                        <node concept="3clFbC" id="173Z5qAOgLd" role="3clFbG">
                                          <node concept="2OqwBi" id="173Z5qAOgL7" role="3uHU7B">
                                            <node concept="37vLTw" id="2BHiRxgmLrR" role="2Oq$k0">
                                              <ref role="3cqZAo" node="173Z5qAOgKF" resolve="ann" />
                                            </node>
                                            <node concept="3TrEf2" id="173Z5qAOgLb" role="2OqNvi">
                                              <ref role="3Tt5mk" to="tpee:hiAI5P0" />
                                            </node>
                                          </node>
                                          <node concept="2OqwBi" id="173Z5qAOgKr" role="3uHU7w">
                                            <node concept="2c44tf" id="173Z5qAOgKs" role="2Oq$k0">
                                              <node concept="2AHcQZ" id="173Z5qAOgKt" role="2c44tc">
                                                <ref role="2AI5Lk" to="rjhg:~Test" resolve="Test" />
                                              </node>
                                            </node>
                                            <node concept="3TrEf2" id="173Z5qAOgKu" role="2OqNvi">
                                              <ref role="3Tt5mk" to="tpee:hiAI5P0" />
                                            </node>
                                          </node>
                                        </node>
                                      </node>
                                    </node>
                                    <node concept="Rh6nW" id="173Z5qAOgKF" role="1bW2Oz">
                                      <property role="TrG5h" value="ann" />
                                      <node concept="2jxLKc" id="173Z5qAOgKG" role="1tU5fm" />
                                    </node>
                                  </node>
                                </node>
                              </node>
                            </node>
                          </node>
                          <node concept="Rh6nW" id="7A48iti$XzO" role="1bW2Oz">
                            <property role="TrG5h" value="it" />
                            <node concept="2jxLKc" id="7A48iti$XzP" role="1tU5fm" />
                          </node>
                        </node>
                      </node>
                    </node>
                  </node>
                </node>
                <node concept="Rh6nW" id="7A48iti$XzQ" role="1bW2Oz">
                  <property role="TrG5h" value="it" />
                  <node concept="2jxLKc" id="7A48iti$XzR" role="1tU5fm" />
                </node>
              </node>
            </node>
          </node>
        </node>
      </node>
      <node concept="37vLTG" id="1k5vvhz$GBR" role="3clF46">
        <property role="TrG5h" value="module" />
        <node concept="3Tqbb2" id="1k5vvhz$GBS" role="1tU5fm">
          <ref role="ehGHo" to="pop3:3U1VhSFTRMP" resolve="ModuleSuite" />
        </node>
      </node>
      <node concept="A3Dl8" id="1k5vvhz$GBT" role="3clF45">
        <node concept="3Tqbb2" id="1k5vvhz$GBU" role="A3Ik2">
          <ref role="ehGHo" to="tpee:fz12cDA" resolve="ClassConcept" />
        </node>
      </node>
    </node>
  </node>
</model>

