<?xml version="1.0" encoding="UTF-8"?>
<model ref="r:d37d8304-386b-47d4-9fb0-209be430470a(org.jetbrains.mps.samples.ParallelFor.actions)">
  <persistence version="9" />
  <languages>
    <use id="aee9cad2-acd4-4608-aef2-0004f6a1cdbd" name="jetbrains.mps.lang.actions" version="0" />
    <devkit ref="fbc25dd2-5da4-483a-8b19-70928e1b62d7(jetbrains.mps.devkit.general-purpose)" />
  </languages>
  <imports>
    <import index="cgfx" ref="r:10e9da27-7113-45e6-9477-92c95760f135(org.jetbrains.mps.samples.ParallelFor.structure)" />
    <import index="tpee" ref="r:00000000-0000-4000-0000-011c895902ca(jetbrains.mps.baseLanguage.structure)" />
    <import index="cihk" ref="r:66b9b377-244a-48b9-abf9-631a9c4ec34c(org.jetbrains.mps.samples.ParallelFor.behavior)" />
    <import index="tpck" ref="r:00000000-0000-4000-0000-011c89590288(jetbrains.mps.lang.core.structure)" implicit="true" />
  </imports>
  <registry>
    <language id="f3061a53-9226-4cc5-a443-f952ceaf5816" name="jetbrains.mps.baseLanguage">
      <concept id="1082485599095" name="jetbrains.mps.baseLanguage.structure.BlockStatement" flags="nn" index="9aQIb">
        <child id="1082485599096" name="statements" index="9aQI4" />
      </concept>
      <concept id="1215693861676" name="jetbrains.mps.baseLanguage.structure.BaseAssignmentExpression" flags="nn" index="d038R">
        <child id="1068498886297" name="rValue" index="37vLTx" />
        <child id="1068498886295" name="lValue" index="37vLTJ" />
      </concept>
      <concept id="1197027756228" name="jetbrains.mps.baseLanguage.structure.DotExpression" flags="nn" index="2OqwBi">
        <child id="1197027771414" name="operand" index="2Oq$k0" />
        <child id="1197027833540" name="operation" index="2OqNvi" />
      </concept>
      <concept id="1145552977093" name="jetbrains.mps.baseLanguage.structure.GenericNewExpression" flags="nn" index="2ShNRf">
        <child id="1145553007750" name="creator" index="2ShVmc" />
      </concept>
      <concept id="1137021947720" name="jetbrains.mps.baseLanguage.structure.ConceptFunction" flags="in" index="2VMwT0">
        <child id="1137022507850" name="body" index="2VODD2" />
      </concept>
      <concept id="1070475926800" name="jetbrains.mps.baseLanguage.structure.StringLiteral" flags="nn" index="Xl_RD">
        <property id="1070475926801" name="value" index="Xl_RC" />
      </concept>
      <concept id="1070534058343" name="jetbrains.mps.baseLanguage.structure.NullLiteral" flags="nn" index="10Nm6u" />
      <concept id="1068431474542" name="jetbrains.mps.baseLanguage.structure.VariableDeclaration" flags="ng" index="33uBYm">
        <child id="1068431790190" name="initializer" index="33vP2m" />
      </concept>
      <concept id="1068498886296" name="jetbrains.mps.baseLanguage.structure.VariableReference" flags="nn" index="37vLTw">
        <reference id="1068581517664" name="variableDeclaration" index="3cqZAo" />
      </concept>
      <concept id="1068498886294" name="jetbrains.mps.baseLanguage.structure.AssignmentExpression" flags="nn" index="37vLTI" />
      <concept id="4972933694980447171" name="jetbrains.mps.baseLanguage.structure.BaseVariableDeclaration" flags="ng" index="19Szcq">
        <child id="5680397130376446158" name="type" index="1tU5fm" />
      </concept>
      <concept id="1068580123152" name="jetbrains.mps.baseLanguage.structure.EqualsExpression" flags="nn" index="3clFbC" />
      <concept id="1068580123155" name="jetbrains.mps.baseLanguage.structure.ExpressionStatement" flags="nn" index="3clFbF">
        <child id="1068580123156" name="expression" index="3clFbG" />
      </concept>
      <concept id="1068580123159" name="jetbrains.mps.baseLanguage.structure.IfStatement" flags="nn" index="3clFbJ">
        <child id="1082485599094" name="ifFalseStatement" index="9aQIa" />
        <child id="1068580123160" name="condition" index="3clFbw" />
        <child id="1068580123161" name="ifTrue" index="3clFbx" />
      </concept>
      <concept id="1068580123136" name="jetbrains.mps.baseLanguage.structure.StatementList" flags="sn" stub="5293379017992965193" index="3clFbS">
        <child id="1068581517665" name="statement" index="3cqZAp" />
      </concept>
      <concept id="1068580123137" name="jetbrains.mps.baseLanguage.structure.BooleanConstant" flags="nn" index="3clFbT">
        <property id="1068580123138" name="value" index="3clFbU" />
      </concept>
      <concept id="1068581242864" name="jetbrains.mps.baseLanguage.structure.LocalVariableDeclarationStatement" flags="nn" index="3cpWs8">
        <child id="1068581242865" name="localVariableDeclaration" index="3cpWs9" />
      </concept>
      <concept id="1068581242863" name="jetbrains.mps.baseLanguage.structure.LocalVariableDeclaration" flags="nr" index="3cpWsn" />
      <concept id="1081516740877" name="jetbrains.mps.baseLanguage.structure.NotExpression" flags="nn" index="3fqX7Q">
        <child id="1081516765348" name="expression" index="3fr31v" />
      </concept>
      <concept id="1204053956946" name="jetbrains.mps.baseLanguage.structure.IMethodCall" flags="ng" index="1ndlxa">
        <reference id="1068499141037" name="baseMethodDeclaration" index="37wK5l" />
      </concept>
      <concept id="1081773326031" name="jetbrains.mps.baseLanguage.structure.BinaryOperation" flags="nn" index="3uHJSO">
        <child id="1081773367579" name="rightExpression" index="3uHU7w" />
        <child id="1081773367580" name="leftExpression" index="3uHU7B" />
      </concept>
      <concept id="1080120340718" name="jetbrains.mps.baseLanguage.structure.AndExpression" flags="nn" index="1Wc70l" />
    </language>
    <language id="aee9cad2-acd4-4608-aef2-0004f6a1cdbd" name="jetbrains.mps.lang.actions">
      <concept id="1196433923911" name="jetbrains.mps.lang.actions.structure.SideTransform_SimpleString" flags="nn" index="2h1dTh">
        <property id="1196433942569" name="text" index="2h1i$Z" />
      </concept>
      <concept id="1177323996388" name="jetbrains.mps.lang.actions.structure.AddMenuPart" flags="ng" index="tYCnQ" />
      <concept id="1177333529597" name="jetbrains.mps.lang.actions.structure.ConceptPart" flags="ng" index="uyZFJ">
        <reference id="1177333551023" name="concept" index="uz4UX" />
        <child id="1177333559040" name="part" index="uz6Si" />
      </concept>
      <concept id="1177497140107" name="jetbrains.mps.lang.actions.structure.ConceptFunctionParameter_sourceNode" flags="nn" index="Cj7Ep" />
      <concept id="1177498013932" name="jetbrains.mps.lang.actions.structure.SimpleSideTransformMenuPart" flags="ng" index="Cmt7Y">
        <child id="1177498166690" name="matchingText" index="Cn2iK" />
        <child id="1177498207384" name="handler" index="Cncma" />
      </concept>
      <concept id="1177498227294" name="jetbrains.mps.lang.actions.structure.QueryFunction_SideTransform_Handler" flags="in" index="Cnhdc" />
      <concept id="1180111159572" name="jetbrains.mps.lang.actions.structure.IncludeRightTransformForNodePart" flags="ng" index="346O06">
        <child id="1180111489972" name="nodeBlock" index="3484EA" />
      </concept>
      <concept id="1158700664498" name="jetbrains.mps.lang.actions.structure.NodeFactories" flags="ng" index="37WguZ">
        <child id="1158700779049" name="nodeFactory" index="37WGs$" />
      </concept>
      <concept id="1158700725281" name="jetbrains.mps.lang.actions.structure.NodeFactory" flags="ig" index="37WvkG">
        <reference id="1158700943156" name="applicableConcept" index="37XkoT" />
        <child id="1158701448518" name="setupFunction" index="37ZfLb" />
      </concept>
      <concept id="1158701162220" name="jetbrains.mps.lang.actions.structure.NodeSetupFunction" flags="in" index="37Y9Zx" />
      <concept id="1154622616118" name="jetbrains.mps.lang.actions.structure.SideTransformHintSubstitutePreconditionFunction" flags="in" index="3kRJcU" />
      <concept id="5584396657084912703" name="jetbrains.mps.lang.actions.structure.NodeSetupFunction_NewNode" flags="nn" index="1r4Lsj" />
      <concept id="1178537049112" name="jetbrains.mps.lang.actions.structure.QueryFunction_SideTransform_NodeQuery" flags="in" index="1Ai3Oa" />
      <concept id="1138079221458" name="jetbrains.mps.lang.actions.structure.SideTransformHintSubstituteActionsBuilder" flags="ig" index="3UNGvq">
        <property id="1215605257730" name="side" index="7I3sp" />
        <property id="1140829165817" name="transformTag" index="2uHTBK" />
        <property id="1158952484319" name="description" index="3mWRNi" />
        <reference id="1138079221462" name="applicableConcept" index="3UNGvu" />
        <child id="1177442283389" name="part" index="_1QTJ" />
        <child id="1154622757656" name="precondition" index="3kShCk" />
      </concept>
      <concept id="1138079416598" name="jetbrains.mps.lang.actions.structure.SideTransformHintSubstituteActions" flags="ng" index="3UOs0u">
        <child id="1138079416599" name="actionsBuilder" index="3UOs0v" />
      </concept>
    </language>
    <language id="7866978e-a0f0-4cc7-81bc-4d213d9375e1" name="jetbrains.mps.lang.smodel">
      <concept id="1177026924588" name="jetbrains.mps.lang.smodel.structure.RefConcept_Reference" flags="nn" index="chp4Y">
        <reference id="1177026940964" name="conceptDeclaration" index="cht4Q" />
      </concept>
      <concept id="1179409122411" name="jetbrains.mps.lang.smodel.structure.Node_ConceptMethodCall" flags="nn" index="2qgKlT" />
      <concept id="2396822768958367367" name="jetbrains.mps.lang.smodel.structure.AbstractTypeCastExpression" flags="nn" index="$5XWr">
        <reference id="6733348108486823428" name="concept" index="1m5ApE" />
        <child id="6733348108486823193" name="leftExpression" index="1m5AlR" />
      </concept>
      <concept id="1139613262185" name="jetbrains.mps.lang.smodel.structure.Node_GetParentOperation" flags="nn" index="1mfA1w" />
      <concept id="1139621453865" name="jetbrains.mps.lang.smodel.structure.Node_IsInstanceOfOperation" flags="nn" index="1mIQ4w">
        <child id="1177027386292" name="conceptArgument" index="cj9EA" />
      </concept>
      <concept id="1180636770613" name="jetbrains.mps.lang.smodel.structure.SNodeCreator" flags="nn" index="3zrR0B">
        <child id="1180636770616" name="createdType" index="3zrR0E" />
      </concept>
      <concept id="1144195091934" name="jetbrains.mps.lang.smodel.structure.Node_IsRoleOperation" flags="nn" index="1BlSNk">
        <reference id="1144195362400" name="conceptOfParent" index="1BmUXE" />
        <reference id="1144195396777" name="linkInParent" index="1Bn3mz" />
      </concept>
      <concept id="1140137987495" name="jetbrains.mps.lang.smodel.structure.SNodeTypeCastExpression" flags="nn" index="1PxgMI" />
      <concept id="1138055754698" name="jetbrains.mps.lang.smodel.structure.SNodeType" flags="in" index="3Tqbb2">
        <reference id="1138405853777" name="concept" index="ehGHo" />
      </concept>
      <concept id="1138056022639" name="jetbrains.mps.lang.smodel.structure.SPropertyAccess" flags="nn" index="3TrcHB">
        <reference id="1138056395725" name="property" index="3TsBF5" />
      </concept>
      <concept id="1138056143562" name="jetbrains.mps.lang.smodel.structure.SLinkAccess" flags="nn" index="3TrEf2">
        <reference id="1138056516764" name="link" index="3Tt5mk" />
      </concept>
    </language>
    <language id="ceab5195-25ea-4f22-9b92-103b95ca8c0c" name="jetbrains.mps.lang.core">
      <concept id="1169194658468" name="jetbrains.mps.lang.core.structure.INamedConcept" flags="ng" index="TrEIO">
        <property id="1169194664001" name="name" index="TrG5h" />
      </concept>
    </language>
  </registry>
  <node concept="37WguZ" id="7Joh5OuydtW">
    <property role="TrG5h" value="ParallelLoopVariable_Factory" />
    <node concept="37WvkG" id="7Joh5OuydtX" role="37WGs$">
      <ref role="37XkoT" to="cgfx:7Joh5OuxR2F" resolve="ParallelLoopVariable" />
      <node concept="37Y9Zx" id="7Joh5OuydtY" role="37ZfLb">
        <node concept="3clFbS" id="7Joh5OuydtZ" role="2VODD2">
          <node concept="3clFbF" id="7Joh5Ouygyy" role="3cqZAp">
            <node concept="37vLTI" id="7Joh5OuygyI" role="3clFbG">
              <node concept="3clFbT" id="7Joh5OuygyL" role="37vLTx">
                <property role="3clFbU" value="true" />
              </node>
              <node concept="2OqwBi" id="7Joh5OuygyD" role="37vLTJ">
                <node concept="1r4Lsj" id="7Joh5Ouygyz" role="2Oq$k0" />
                <node concept="3TrcHB" id="6KBb0wH6Mbl" role="2OqNvi">
                  <ref role="3TsBF5" to="tpee:h7TUv0c" resolve="isFinal" />
                </node>
              </node>
            </node>
          </node>
          <node concept="3clFbF" id="6KBb0wH6Md8" role="3cqZAp">
            <node concept="37vLTI" id="6KBb0wH6Mdk" role="3clFbG">
              <node concept="2OqwBi" id="6KBb0wH6Mdf" role="37vLTJ">
                <node concept="1r4Lsj" id="6KBb0wH6Md9" role="2Oq$k0" />
                <node concept="3TrcHB" id="6KBb0wH6Mdj" role="2OqNvi">
                  <ref role="3TsBF5" to="tpck:h0TrG11" resolve="name" />
                </node>
              </node>
              <node concept="Xl_RD" id="6KBb0wH6Mdn" role="37vLTx">
                <property role="Xl_RC" value="a" />
              </node>
            </node>
          </node>
        </node>
      </node>
    </node>
  </node>
  <node concept="3UOs0u" id="6FH9fpzZx2F">
    <property role="TrG5h" value="ThreadPoolTransforms" />
    <node concept="3UNGvq" id="6FH9fpzZx6n" role="3UOs0v">
      <property role="3mWRNi" value="Append using threadPool" />
      <property role="2uHTBK" value="default_RTransform" />
      <ref role="3UNGvu" to="cgfx:7Joh5OuxR2E" resolve="ParallelFor" />
      <node concept="3kRJcU" id="6FH9fpzZx7r" role="3kShCk">
        <node concept="3clFbS" id="6FH9fpzZx7s" role="2VODD2">
          <node concept="3clFbF" id="6FH9fpzZxaL" role="3cqZAp">
            <node concept="3clFbC" id="6FH9fpzZAJ6" role="3clFbG">
              <node concept="10Nm6u" id="6FH9fpzZAMW" role="3uHU7w" />
              <node concept="2OqwBi" id="6FH9fpzZxuP" role="3uHU7B">
                <node concept="3TrEf2" id="6FH9fpzZ$3C" role="2OqNvi">
                  <ref role="3Tt5mk" to="cgfx:42COxuQQ87Y" />
                </node>
                <node concept="Cj7Ep" id="6FH9fpzZxaK" role="2Oq$k0" />
              </node>
            </node>
          </node>
        </node>
      </node>
      <node concept="tYCnQ" id="6FH9fpzZC0C" role="_1QTJ">
        <ref role="uz4UX" to="cgfx:7Joh5OuxR2E" resolve="ParallelFor" />
        <node concept="Cmt7Y" id="6FH9fpzZC4f" role="uz6Si">
          <node concept="Cnhdc" id="6FH9fpzZC4g" role="Cncma">
            <node concept="3clFbS" id="6FH9fpzZC4h" role="2VODD2">
              <node concept="3cpWs8" id="6FH9fp$tO0x" role="3cqZAp">
                <node concept="3cpWsn" id="6FH9fp$tO0y" role="3cpWs9">
                  <property role="TrG5h" value="candidate" />
                  <node concept="3Tqbb2" id="6FH9fp$tO0z" role="1tU5fm">
                    <ref role="ehGHo" to="tpee:fz3uBXI" resolve="VariableDeclaration" />
                  </node>
                  <node concept="2OqwBi" id="6FH9fp$tO0$" role="33vP2m">
                    <node concept="2qgKlT" id="6FH9fp$tO0_" role="2OqNvi">
                      <ref role="37wK5l" to="cihk:6FH9fp$mItT" resolve="findPoolDeclaration" />
                    </node>
                    <node concept="Cj7Ep" id="6FH9fp$tO0A" role="2Oq$k0" />
                  </node>
                </node>
              </node>
              <node concept="3clFbJ" id="6FH9fp$tO0B" role="3cqZAp">
                <node concept="3clFbC" id="6FH9fp$tO0C" role="3clFbw">
                  <node concept="10Nm6u" id="6FH9fp$tO0D" role="3uHU7w" />
                  <node concept="37vLTw" id="6FH9fp$tO0E" role="3uHU7B">
                    <ref role="3cqZAo" node="6FH9fp$tO0y" resolve="candidate" />
                  </node>
                </node>
                <node concept="3clFbS" id="6FH9fp$tO0F" role="3clFbx">
                  <node concept="3clFbF" id="6FH9fp$tO0G" role="3cqZAp">
                    <node concept="37vLTI" id="6FH9fp$tO0H" role="3clFbG">
                      <node concept="2ShNRf" id="6FH9fp$tO0I" role="37vLTx">
                        <node concept="3zrR0B" id="6FH9fp$tO0J" role="2ShVmc">
                          <node concept="3Tqbb2" id="6FH9fp$tO0K" role="3zrR0E">
                            <ref role="ehGHo" to="tpee:fz3vP1J" resolve="Expression" />
                          </node>
                        </node>
                      </node>
                      <node concept="2OqwBi" id="6FH9fp$tO0L" role="37vLTJ">
                        <node concept="3TrEf2" id="6FH9fp$tO0M" role="2OqNvi">
                          <ref role="3Tt5mk" to="cgfx:42COxuQQ87Y" />
                        </node>
                        <node concept="Cj7Ep" id="6FH9fp$tO0N" role="2Oq$k0" />
                      </node>
                    </node>
                  </node>
                </node>
                <node concept="9aQIb" id="6FH9fp$tO0O" role="9aQIa">
                  <node concept="3clFbS" id="6FH9fp$tO0P" role="9aQI4">
                    <node concept="3clFbF" id="6FH9fp$tO0Q" role="3cqZAp">
                      <node concept="37vLTI" id="6FH9fp$tO0R" role="3clFbG">
                        <node concept="2ShNRf" id="6FH9fp$tO0S" role="37vLTx">
                          <node concept="3zrR0B" id="6FH9fp$tO0T" role="2ShVmc">
                            <node concept="3Tqbb2" id="6FH9fp$tO0U" role="3zrR0E">
                              <ref role="ehGHo" to="tpee:fz7vLUo" resolve="VariableReference" />
                            </node>
                          </node>
                        </node>
                        <node concept="2OqwBi" id="6FH9fp$tO0V" role="37vLTJ">
                          <node concept="3TrEf2" id="6FH9fp$tO0W" role="2OqNvi">
                            <ref role="3Tt5mk" to="cgfx:42COxuQQ87Y" />
                          </node>
                          <node concept="Cj7Ep" id="6FH9fp$tO0X" role="2Oq$k0" />
                        </node>
                      </node>
                    </node>
                    <node concept="3clFbF" id="6FH9fp$tO0Y" role="3cqZAp">
                      <node concept="37vLTI" id="6FH9fp$tO0Z" role="3clFbG">
                        <node concept="37vLTw" id="6FH9fp$tO10" role="37vLTx">
                          <ref role="3cqZAo" node="6FH9fp$tO0y" resolve="candidate" />
                        </node>
                        <node concept="2OqwBi" id="6FH9fp$tO11" role="37vLTJ">
                          <node concept="3TrEf2" id="6FH9fp$tO12" role="2OqNvi">
                            <ref role="3Tt5mk" to="tpee:fzcqZ_w" />
                          </node>
                          <node concept="1PxgMI" id="6FH9fp$tO13" role="2Oq$k0">
                            <ref role="1m5ApE" to="tpee:fz7vLUo" resolve="VariableReference" />
                            <node concept="2OqwBi" id="6FH9fp$tO14" role="1m5AlR">
                              <node concept="3TrEf2" id="6FH9fp$tO15" role="2OqNvi">
                                <ref role="3Tt5mk" to="cgfx:42COxuQQ87Y" />
                              </node>
                              <node concept="Cj7Ep" id="6FH9fp$tO16" role="2Oq$k0" />
                            </node>
                          </node>
                        </node>
                      </node>
                    </node>
                  </node>
                </node>
              </node>
              <node concept="3clFbF" id="6FH9fp$tO17" role="3cqZAp">
                <node concept="2OqwBi" id="4SIZTAdlztG" role="3clFbG">
                  <node concept="3TrEf2" id="4SIZTAdlAnh" role="2OqNvi">
                    <ref role="3Tt5mk" to="cgfx:42COxuQQ87Y" />
                  </node>
                  <node concept="Cj7Ep" id="4SIZTAdlyQ2" role="2Oq$k0" />
                </node>
              </node>
            </node>
          </node>
          <node concept="2h1dTh" id="6FH9fpzZChz" role="Cn2iK">
            <property role="2h1i$Z" value="using" />
          </node>
        </node>
      </node>
    </node>
    <node concept="3UNGvq" id="6FH9fpzZJ1L" role="3UOs0v">
      <property role="7I3sp" value="left" />
      <property role="3mWRNi" value="Prepend using threadPool" />
      <property role="2uHTBK" value="ext_3_RTransform" />
      <ref role="3UNGvu" to="cgfx:7Joh5OuxR2E" resolve="ParallelFor" />
      <node concept="3kRJcU" id="6FH9fpzZJ1M" role="3kShCk">
        <node concept="3clFbS" id="6FH9fpzZJ1N" role="2VODD2">
          <node concept="3clFbF" id="6FH9fpzZJ1O" role="3cqZAp">
            <node concept="3clFbC" id="6FH9fpzZJ1P" role="3clFbG">
              <node concept="10Nm6u" id="6FH9fpzZJ1Q" role="3uHU7w" />
              <node concept="2OqwBi" id="6FH9fpzZJ1R" role="3uHU7B">
                <node concept="3TrEf2" id="6FH9fpzZJ1S" role="2OqNvi">
                  <ref role="3Tt5mk" to="cgfx:42COxuQQ87Y" />
                </node>
                <node concept="Cj7Ep" id="6FH9fpzZJ1T" role="2Oq$k0" />
              </node>
            </node>
          </node>
        </node>
      </node>
      <node concept="tYCnQ" id="6FH9fpzZJ1U" role="_1QTJ">
        <ref role="uz4UX" to="cgfx:7Joh5OuxR2E" resolve="ParallelFor" />
        <node concept="Cmt7Y" id="6FH9fpzZJ1V" role="uz6Si">
          <node concept="Cnhdc" id="6FH9fpzZJ1W" role="Cncma">
            <node concept="3clFbS" id="6FH9fpzZJ1X" role="2VODD2">
              <node concept="3cpWs8" id="6FH9fp$t4m1" role="3cqZAp">
                <node concept="3cpWsn" id="6FH9fp$t4m2" role="3cpWs9">
                  <property role="TrG5h" value="candidate" />
                  <node concept="3Tqbb2" id="6FH9fp$t4lY" role="1tU5fm">
                    <ref role="ehGHo" to="tpee:fz3uBXI" resolve="VariableDeclaration" />
                  </node>
                  <node concept="2OqwBi" id="6FH9fp$t4m3" role="33vP2m">
                    <node concept="2qgKlT" id="6FH9fp$t4m4" role="2OqNvi">
                      <ref role="37wK5l" to="cihk:6FH9fp$mItT" resolve="findPoolDeclaration" />
                    </node>
                    <node concept="Cj7Ep" id="6FH9fp$t4m5" role="2Oq$k0" />
                  </node>
                </node>
              </node>
              <node concept="3clFbJ" id="6FH9fp$t8pi" role="3cqZAp">
                <node concept="3clFbC" id="6FH9fp$t8MS" role="3clFbw">
                  <node concept="10Nm6u" id="6FH9fp$t8RW" role="3uHU7w" />
                  <node concept="37vLTw" id="6FH9fp$t8u_" role="3uHU7B">
                    <ref role="3cqZAo" node="6FH9fp$t4m2" resolve="candidate" />
                  </node>
                </node>
                <node concept="3clFbS" id="6FH9fp$t8pk" role="3clFbx">
                  <node concept="3clFbF" id="6FH9fpzZJ1Y" role="3cqZAp">
                    <node concept="37vLTI" id="6FH9fpzZJ1Z" role="3clFbG">
                      <node concept="2ShNRf" id="6FH9fpzZJ20" role="37vLTx">
                        <node concept="3zrR0B" id="6FH9fpzZJ21" role="2ShVmc">
                          <node concept="3Tqbb2" id="6FH9fpzZJ22" role="3zrR0E">
                            <ref role="ehGHo" to="tpee:fz3vP1J" resolve="Expression" />
                          </node>
                        </node>
                      </node>
                      <node concept="2OqwBi" id="6FH9fpzZJ23" role="37vLTJ">
                        <node concept="3TrEf2" id="6FH9fpzZJ24" role="2OqNvi">
                          <ref role="3Tt5mk" to="cgfx:42COxuQQ87Y" />
                        </node>
                        <node concept="Cj7Ep" id="6FH9fpzZJ25" role="2Oq$k0" />
                      </node>
                    </node>
                  </node>
                </node>
                <node concept="9aQIb" id="6FH9fp$t9D8" role="9aQIa">
                  <node concept="3clFbS" id="6FH9fp$t9D9" role="9aQI4">
                    <node concept="3clFbF" id="6FH9fp$t9HV" role="3cqZAp">
                      <node concept="37vLTI" id="6FH9fp$tfrl" role="3clFbG">
                        <node concept="2ShNRf" id="6FH9fp$tfyQ" role="37vLTx">
                          <node concept="3zrR0B" id="6FH9fp$tg6Z" role="2ShVmc">
                            <node concept="3Tqbb2" id="6FH9fp$tg70" role="3zrR0E">
                              <ref role="ehGHo" to="tpee:fz7vLUo" resolve="VariableReference" />
                            </node>
                          </node>
                        </node>
                        <node concept="2OqwBi" id="6FH9fp$ta0N" role="37vLTJ">
                          <node concept="3TrEf2" id="6FH9fp$tcAY" role="2OqNvi">
                            <ref role="3Tt5mk" to="cgfx:42COxuQQ87Y" />
                          </node>
                          <node concept="Cj7Ep" id="6FH9fp$t9HU" role="2Oq$k0" />
                        </node>
                      </node>
                    </node>
                    <node concept="3clFbF" id="6FH9fp$tgtt" role="3cqZAp">
                      <node concept="37vLTI" id="6FH9fp$trOd" role="3clFbG">
                        <node concept="37vLTw" id="6FH9fp$trZX" role="37vLTx">
                          <ref role="3cqZAo" node="6FH9fp$t4m2" resolve="candidate" />
                        </node>
                        <node concept="2OqwBi" id="6FH9fp$tmYx" role="37vLTJ">
                          <node concept="3TrEf2" id="6FH9fp$tpUn" role="2OqNvi">
                            <ref role="3Tt5mk" to="tpee:fzcqZ_w" />
                          </node>
                          <node concept="1PxgMI" id="6FH9fp$tmiq" role="2Oq$k0">
                            <ref role="1m5ApE" to="tpee:fz7vLUo" resolve="VariableReference" />
                            <node concept="2OqwBi" id="6FH9fp$tgMl" role="1m5AlR">
                              <node concept="3TrEf2" id="6FH9fp$tjqo" role="2OqNvi">
                                <ref role="3Tt5mk" to="cgfx:42COxuQQ87Y" />
                              </node>
                              <node concept="Cj7Ep" id="6FH9fp$tgtr" role="2Oq$k0" />
                            </node>
                          </node>
                        </node>
                      </node>
                    </node>
                  </node>
                </node>
              </node>
              <node concept="3clFbF" id="6FH9fp$tt7x" role="3cqZAp">
                <node concept="2OqwBi" id="4SIZTAdluRq" role="3clFbG">
                  <node concept="3TrEf2" id="4SIZTAdlxIy" role="2OqNvi">
                    <ref role="3Tt5mk" to="cgfx:42COxuQQ87Y" />
                  </node>
                  <node concept="Cj7Ep" id="4SIZTAdlui5" role="2Oq$k0" />
                </node>
              </node>
            </node>
          </node>
          <node concept="2h1dTh" id="6FH9fpzZJ26" role="Cn2iK">
            <property role="2h1i$Z" value="using" />
          </node>
        </node>
      </node>
    </node>
  </node>
  <node concept="3UOs0u" id="6FH9fpzZY3J">
    <property role="TrG5h" value="NoWaitTransforms" />
    <node concept="3UNGvq" id="6FH9fpzZY3K" role="3UOs0v">
      <property role="3mWRNi" value="Append NoWait" />
      <property role="2uHTBK" value="default_RTransform" />
      <ref role="3UNGvu" to="cgfx:7Joh5OuxR2E" resolve="ParallelFor" />
      <node concept="3kRJcU" id="6FH9fpzZY3L" role="3kShCk">
        <node concept="3clFbS" id="6FH9fpzZY3M" role="2VODD2">
          <node concept="3clFbF" id="6FH9fpzZY77" role="3cqZAp">
            <node concept="3fqX7Q" id="6FH9fp$01ak" role="3clFbG">
              <node concept="2OqwBi" id="6FH9fp$01am" role="3fr31v">
                <node concept="3TrcHB" id="6FH9fp$01an" role="2OqNvi">
                  <ref role="3TsBF5" to="cgfx:7gT79pF3Lc4" resolve="nowait" />
                </node>
                <node concept="Cj7Ep" id="6FH9fp$01ao" role="2Oq$k0" />
              </node>
            </node>
          </node>
        </node>
      </node>
      <node concept="tYCnQ" id="6FH9fp$02DB" role="_1QTJ">
        <ref role="uz4UX" to="cgfx:7Joh5OuxR2E" resolve="ParallelFor" />
        <node concept="Cmt7Y" id="6FH9fp$02H9" role="uz6Si">
          <node concept="Cnhdc" id="6FH9fp$02Ha" role="Cncma">
            <node concept="3clFbS" id="6FH9fp$02Hb" role="2VODD2">
              <node concept="3clFbF" id="6FH9fp$03b0" role="3cqZAp">
                <node concept="37vLTI" id="6FH9fp$08SU" role="3clFbG">
                  <node concept="3clFbT" id="6FH9fp$0904" role="37vLTx">
                    <property role="3clFbU" value="true" />
                  </node>
                  <node concept="2OqwBi" id="6FH9fp$03qZ" role="37vLTJ">
                    <node concept="3TrcHB" id="6FH9fp$05WX" role="2OqNvi">
                      <ref role="3TsBF5" to="cgfx:7gT79pF3Lc4" resolve="nowait" />
                    </node>
                    <node concept="Cj7Ep" id="6FH9fp$03aZ" role="2Oq$k0" />
                  </node>
                </node>
              </node>
              <node concept="3clFbF" id="6FH9fp$09Pv" role="3cqZAp">
                <node concept="10Nm6u" id="6FH9fp$8Jg5" role="3clFbG" />
              </node>
            </node>
          </node>
          <node concept="2h1dTh" id="6FH9fp$037X" role="Cn2iK">
            <property role="2h1i$Z" value="no wait" />
          </node>
        </node>
      </node>
    </node>
    <node concept="3UNGvq" id="6FH9fp$0b1k" role="3UOs0v">
      <property role="7I3sp" value="left" />
      <property role="3mWRNi" value="Prepend NoWait" />
      <property role="2uHTBK" value="ext_3_RTransform" />
      <ref role="3UNGvu" to="cgfx:7Joh5OuxR2E" resolve="ParallelFor" />
      <node concept="3kRJcU" id="6FH9fp$0b1l" role="3kShCk">
        <node concept="3clFbS" id="6FH9fp$0b1m" role="2VODD2">
          <node concept="3clFbF" id="6FH9fp$0b1n" role="3cqZAp">
            <node concept="3fqX7Q" id="6FH9fp$0b1o" role="3clFbG">
              <node concept="2OqwBi" id="6FH9fp$0b1p" role="3fr31v">
                <node concept="3TrcHB" id="6FH9fp$0b1q" role="2OqNvi">
                  <ref role="3TsBF5" to="cgfx:7gT79pF3Lc4" resolve="nowait" />
                </node>
                <node concept="Cj7Ep" id="6FH9fp$0b1r" role="2Oq$k0" />
              </node>
            </node>
          </node>
        </node>
      </node>
      <node concept="tYCnQ" id="6FH9fp$0b1s" role="_1QTJ">
        <ref role="uz4UX" to="cgfx:7Joh5OuxR2E" resolve="ParallelFor" />
        <node concept="Cmt7Y" id="6FH9fp$0b1t" role="uz6Si">
          <node concept="Cnhdc" id="6FH9fp$0b1u" role="Cncma">
            <node concept="3clFbS" id="6FH9fp$0b1v" role="2VODD2">
              <node concept="3clFbF" id="6FH9fp$0b1w" role="3cqZAp">
                <node concept="37vLTI" id="6FH9fp$0b1x" role="3clFbG">
                  <node concept="3clFbT" id="6FH9fp$0b1y" role="37vLTx">
                    <property role="3clFbU" value="true" />
                  </node>
                  <node concept="2OqwBi" id="6FH9fp$0b1z" role="37vLTJ">
                    <node concept="3TrcHB" id="6FH9fp$0b1$" role="2OqNvi">
                      <ref role="3TsBF5" to="cgfx:7gT79pF3Lc4" resolve="nowait" />
                    </node>
                    <node concept="Cj7Ep" id="6FH9fp$0b1_" role="2Oq$k0" />
                  </node>
                </node>
              </node>
              <node concept="3clFbF" id="6FH9fp$8r$D" role="3cqZAp">
                <node concept="10Nm6u" id="6FH9fp$8r$A" role="3clFbG" />
              </node>
            </node>
          </node>
          <node concept="2h1dTh" id="6FH9fp$0b1C" role="Cn2iK">
            <property role="2h1i$Z" value="no wait" />
          </node>
        </node>
      </node>
    </node>
    <node concept="3UNGvq" id="6FH9fp$22vf" role="3UOs0v">
      <property role="3mWRNi" value="Inherit transforms into the thread pool reference" />
      <property role="2uHTBK" value="default_RTransform" />
      <ref role="3UNGvu" to="tpee:fz3vP1J" resolve="Expression" />
      <node concept="3kRJcU" id="6FH9fp$22w3" role="3kShCk">
        <node concept="3clFbS" id="6FH9fp$22w4" role="2VODD2">
          <node concept="3clFbF" id="6FH9fp$22zp" role="3cqZAp">
            <node concept="1Wc70l" id="6FH9fp$8W_w" role="3clFbG">
              <node concept="2OqwBi" id="6FH9fp$8WVG" role="3uHU7w">
                <node concept="1BlSNk" id="6FH9fp$8XCY" role="2OqNvi">
                  <ref role="1BmUXE" to="cgfx:7Joh5OuxR2E" resolve="ParallelFor" />
                  <ref role="1Bn3mz" to="cgfx:42COxuQQ87Y" />
                </node>
                <node concept="Cj7Ep" id="6FH9fp$8WHM" role="2Oq$k0" />
              </node>
              <node concept="2OqwBi" id="6FH9fp$24I3" role="3uHU7B">
                <node concept="1mIQ4w" id="6FH9fp$25aK" role="2OqNvi">
                  <node concept="chp4Y" id="6FH9fp$25en" role="cj9EA">
                    <ref role="cht4Q" to="cgfx:7Joh5OuxR2E" resolve="ParallelFor" />
                  </node>
                </node>
                <node concept="2OqwBi" id="6FH9fp$22Hc" role="2Oq$k0">
                  <node concept="1mfA1w" id="6FH9fp$23ZH" role="2OqNvi" />
                  <node concept="Cj7Ep" id="6FH9fp$22zo" role="2Oq$k0" />
                </node>
              </node>
            </node>
          </node>
        </node>
      </node>
      <node concept="346O06" id="6FH9fp$lhSc" role="_1QTJ">
        <node concept="1Ai3Oa" id="6FH9fp$lhSd" role="3484EA">
          <node concept="3clFbS" id="6FH9fp$lhSe" role="2VODD2">
            <node concept="3clFbF" id="6FH9fp$li1m" role="3cqZAp">
              <node concept="2OqwBi" id="6FH9fp$li89" role="3clFbG">
                <node concept="1mfA1w" id="6FH9fp$liI1" role="2OqNvi" />
                <node concept="Cj7Ep" id="6FH9fp$li1l" role="2Oq$k0" />
              </node>
            </node>
          </node>
        </node>
      </node>
    </node>
  </node>
</model>

