<?xml version="1.0" encoding="UTF-8"?>
<model ref="r:66b9b377-244a-48b9-abf9-631a9c4ec34c(org.jetbrains.mps.samples.ParallelFor.behavior)">
  <persistence version="9" />
  <languages>
    <use id="83888646-71ce-4f1c-9c53-c54016f6ad4f" name="jetbrains.mps.baseLanguage.collections" version="0" />
    <use id="af65afd8-f0dd-4942-87d9-63a55f2a9db1" name="jetbrains.mps.lang.behavior" version="0" />
    <use id="3a13115c-633c-4c5c-bbcc-75c4219e9555" name="jetbrains.mps.lang.quotation" version="0" />
    <use id="d8f591ec-4d86-4af2-9f92-a9e93c803ffa" name="jetbrains.mps.lang.scopes" version="0" />
    <use id="7a5dda62-9140-4668-ab76-d5ed1746f2b2" name="jetbrains.mps.lang.typesystem" version="0" />
    <use id="7866978e-a0f0-4cc7-81bc-4d213d9375e1" name="jetbrains.mps.lang.smodel" version="4" />
    <use id="f3061a53-9226-4cc5-a443-f952ceaf5816" name="jetbrains.mps.baseLanguage" version="4" />
  </languages>
  <imports>
    <import index="o8zo" ref="r:314576fc-3aee-4386-a0a5-a38348ac317d(jetbrains.mps.scope)" />
    <import index="fnmy" ref="r:89c0fb70-0977-4113-a076-5906f9d8630f(jetbrains.mps.baseLanguage.scopes)" />
    <import index="tpee" ref="r:00000000-0000-4000-0000-011c895902ca(jetbrains.mps.baseLanguage.structure)" />
    <import index="5zyv" ref="6354ebe7-c22a-4a0f-ac54-50b52ab9b065/java:java.util.concurrent(JDK/)" />
    <import index="cgfx" ref="r:10e9da27-7113-45e6-9477-92c95760f135(org.jetbrains.mps.samples.ParallelFor.structure)" />
    <import index="tpcu" ref="r:00000000-0000-4000-0000-011c89590282(jetbrains.mps.lang.core.behavior)" />
    <import index="tpek" ref="r:00000000-0000-4000-0000-011c895902c0(jetbrains.mps.baseLanguage.behavior)" />
  </imports>
  <registry>
    <language id="af65afd8-f0dd-4942-87d9-63a55f2a9db1" name="jetbrains.mps.lang.behavior">
      <concept id="1225194240794" name="jetbrains.mps.lang.behavior.structure.ConceptBehavior" flags="ng" index="13h7C7">
        <reference id="1225194240799" name="concept" index="13h7C2" />
        <child id="1225194240805" name="method" index="13h7CS" />
        <child id="1225194240801" name="constructor" index="13h7CW" />
      </concept>
      <concept id="1225194413805" name="jetbrains.mps.lang.behavior.structure.ConceptConstructorDeclaration" flags="in" index="13hLZK" />
      <concept id="1225194472830" name="jetbrains.mps.lang.behavior.structure.ConceptMethodDeclaration" flags="ng" index="13i0hz">
        <property id="1225194472832" name="isVirtual" index="13i0it" />
        <property id="1225194472834" name="isAbstract" index="13i0iv" />
        <reference id="1225194472831" name="overriddenMethod" index="13i0hy" />
      </concept>
      <concept id="1225194628440" name="jetbrains.mps.lang.behavior.structure.SuperNodeExpression" flags="nn" index="13iAh5" />
      <concept id="1225194691553" name="jetbrains.mps.lang.behavior.structure.ThisNodeExpression" flags="nn" index="13iPFW" />
    </language>
    <language id="f3061a53-9226-4cc5-a443-f952ceaf5816" name="jetbrains.mps.baseLanguage">
      <concept id="1215693861676" name="jetbrains.mps.baseLanguage.structure.BaseAssignmentExpression" flags="nn" index="d038R">
        <child id="1068498886297" name="rValue" index="37vLTx" />
        <child id="1068498886295" name="lValue" index="37vLTJ" />
      </concept>
      <concept id="1076505808687" name="jetbrains.mps.baseLanguage.structure.WhileStatement" flags="nn" index="2$JKZl">
        <child id="1076505808688" name="condition" index="2$JKZa" />
      </concept>
      <concept id="1154032098014" name="jetbrains.mps.baseLanguage.structure.AbstractLoopStatement" flags="nn" index="2LF5Ji">
        <child id="1154032183016" name="body" index="2LFqv$" />
      </concept>
      <concept id="1197027756228" name="jetbrains.mps.baseLanguage.structure.DotExpression" flags="nn" index="2OqwBi">
        <child id="1197027771414" name="operand" index="2Oq$k0" />
        <child id="1197027833540" name="operation" index="2OqNvi" />
      </concept>
      <concept id="1145552977093" name="jetbrains.mps.baseLanguage.structure.GenericNewExpression" flags="nn" index="2ShNRf">
        <child id="1145553007750" name="creator" index="2ShVmc" />
      </concept>
      <concept id="1137021947720" name="jetbrains.mps.baseLanguage.structure.ConceptFunction" flags="in" index="2VMwT0">
        <child id="1137022507850" name="body" index="2VODD2" />
      </concept>
      <concept id="1081236700937" name="jetbrains.mps.baseLanguage.structure.StaticMethodCall" flags="nn" index="2YIFZM">
        <reference id="1144433194310" name="classConcept" index="1Pybhc" />
      </concept>
      <concept id="1070534058343" name="jetbrains.mps.baseLanguage.structure.NullLiteral" flags="nn" index="10Nm6u" />
      <concept id="1070534644030" name="jetbrains.mps.baseLanguage.structure.BooleanType" flags="in" index="10P_77" />
      <concept id="1068431474542" name="jetbrains.mps.baseLanguage.structure.VariableDeclaration" flags="ng" index="33uBYm">
        <child id="1068431790190" name="initializer" index="33vP2m" />
      </concept>
      <concept id="1068498886296" name="jetbrains.mps.baseLanguage.structure.VariableReference" flags="nn" index="37vLTw">
        <reference id="1068581517664" name="variableDeclaration" index="3cqZAo" />
      </concept>
      <concept id="1068498886292" name="jetbrains.mps.baseLanguage.structure.ParameterDeclaration" flags="ir" index="37vLTG" />
      <concept id="1068498886294" name="jetbrains.mps.baseLanguage.structure.AssignmentExpression" flags="nn" index="37vLTI" />
      <concept id="4972933694980447171" name="jetbrains.mps.baseLanguage.structure.BaseVariableDeclaration" flags="ng" index="19Szcq">
        <child id="5680397130376446158" name="type" index="1tU5fm" />
      </concept>
      <concept id="1068580123132" name="jetbrains.mps.baseLanguage.structure.BaseMethodDeclaration" flags="ng" index="3clF44">
        <child id="1068580123133" name="returnType" index="3clF45" />
        <child id="1068580123134" name="parameter" index="3clF46" />
        <child id="1068580123135" name="body" index="3clF47" />
      </concept>
      <concept id="1068580123152" name="jetbrains.mps.baseLanguage.structure.EqualsExpression" flags="nn" index="3clFbC" />
      <concept id="1068580123155" name="jetbrains.mps.baseLanguage.structure.ExpressionStatement" flags="nn" index="3clFbF">
        <child id="1068580123156" name="expression" index="3clFbG" />
      </concept>
      <concept id="1068580123157" name="jetbrains.mps.baseLanguage.structure.Statement" flags="nn" index="3clFbH" />
      <concept id="1068580123159" name="jetbrains.mps.baseLanguage.structure.IfStatement" flags="nn" index="3clFbJ">
        <child id="1068580123160" name="condition" index="3clFbw" />
        <child id="1068580123161" name="ifTrue" index="3clFbx" />
      </concept>
      <concept id="1068580123136" name="jetbrains.mps.baseLanguage.structure.StatementList" flags="sn" stub="5293379017992965193" index="3clFbS">
        <child id="1068581517665" name="statement" index="3cqZAp" />
      </concept>
      <concept id="1068580123137" name="jetbrains.mps.baseLanguage.structure.BooleanConstant" flags="nn" index="3clFbT">
        <property id="1068580123138" name="value" index="3clFbU" />
      </concept>
      <concept id="1068581242878" name="jetbrains.mps.baseLanguage.structure.ReturnStatement" flags="nn" index="3cpWs6">
        <child id="1068581517676" name="expression" index="3cqZAk" />
      </concept>
      <concept id="1068581242864" name="jetbrains.mps.baseLanguage.structure.LocalVariableDeclarationStatement" flags="nn" index="3cpWs8">
        <child id="1068581242865" name="localVariableDeclaration" index="3cpWs9" />
      </concept>
      <concept id="1068581242863" name="jetbrains.mps.baseLanguage.structure.LocalVariableDeclaration" flags="nr" index="3cpWsn" />
      <concept id="1068581517677" name="jetbrains.mps.baseLanguage.structure.VoidType" flags="in" index="3cqZAl" />
      <concept id="1081516740877" name="jetbrains.mps.baseLanguage.structure.NotExpression" flags="nn" index="3fqX7Q">
        <child id="1081516765348" name="expression" index="3fr31v" />
      </concept>
      <concept id="1204053956946" name="jetbrains.mps.baseLanguage.structure.IMethodCall" flags="ng" index="1ndlxa">
        <reference id="1068499141037" name="baseMethodDeclaration" index="37wK5l" />
        <child id="1068499141038" name="actualArgument" index="37wK5m" />
      </concept>
      <concept id="1107535904670" name="jetbrains.mps.baseLanguage.structure.ClassifierType" flags="in" index="3uibUv">
        <reference id="1107535924139" name="classifier" index="3uigEE" />
      </concept>
      <concept id="1081773326031" name="jetbrains.mps.baseLanguage.structure.BinaryOperation" flags="nn" index="3uHJSO">
        <child id="1081773367579" name="rightExpression" index="3uHU7w" />
        <child id="1081773367580" name="leftExpression" index="3uHU7B" />
      </concept>
      <concept id="1073239437375" name="jetbrains.mps.baseLanguage.structure.NotEqualsExpression" flags="nn" index="3y3z36" />
      <concept id="1178549954367" name="jetbrains.mps.baseLanguage.structure.IVisible" flags="ng" index="1B3ioH">
        <child id="1178549979242" name="visibility" index="1B3o_S" />
      </concept>
      <concept id="1146644602865" name="jetbrains.mps.baseLanguage.structure.PublicVisibility" flags="nn" index="3Tm1VV" />
      <concept id="1080120340718" name="jetbrains.mps.baseLanguage.structure.AndExpression" flags="nn" index="1Wc70l" />
    </language>
    <language id="d8f591ec-4d86-4af2-9f92-a9e93c803ffa" name="jetbrains.mps.lang.scopes">
      <concept id="8077936094962944991" name="jetbrains.mps.lang.scopes.structure.ComeFromExpression" flags="nn" index="iy1fb">
        <reference id="8077936094962945822" name="link" index="iy1sa" />
      </concept>
      <concept id="8077936094962911282" name="jetbrains.mps.lang.scopes.structure.ParentScope" flags="nn" index="iy90A" />
    </language>
    <language id="3a13115c-633c-4c5c-bbcc-75c4219e9555" name="jetbrains.mps.lang.quotation">
      <concept id="1196350785113" name="jetbrains.mps.lang.quotation.structure.Quotation" flags="nn" index="2c44tf">
        <child id="1196350785114" name="quotedNode" index="2c44tc" />
      </concept>
    </language>
    <language id="7a5dda62-9140-4668-ab76-d5ed1746f2b2" name="jetbrains.mps.lang.typesystem">
      <concept id="1178870617262" name="jetbrains.mps.lang.typesystem.structure.CoerceExpression" flags="nn" index="1UaxmW">
        <child id="1178870894644" name="pattern" index="1Ub_4A" />
        <child id="1178870894645" name="nodeToCoerce" index="1Ub_4B" />
      </concept>
      <concept id="1174642788531" name="jetbrains.mps.lang.typesystem.structure.ConceptReference" flags="ig" index="1YaCAy">
        <reference id="1174642800329" name="concept" index="1YaFvo" />
      </concept>
    </language>
    <language id="7866978e-a0f0-4cc7-81bc-4d213d9375e1" name="jetbrains.mps.lang.smodel">
      <concept id="1177026924588" name="jetbrains.mps.lang.smodel.structure.RefConcept_Reference" flags="nn" index="chp4Y">
        <reference id="1177026940964" name="conceptDeclaration" index="cht4Q" />
      </concept>
      <concept id="1179409122411" name="jetbrains.mps.lang.smodel.structure.Node_ConceptMethodCall" flags="nn" index="2qgKlT" />
      <concept id="2396822768958367367" name="jetbrains.mps.lang.smodel.structure.AbstractTypeCastExpression" flags="nn" index="$5XWr">
        <reference id="6733348108486823428" name="concept" index="1m5ApE" />
        <child id="6733348108486823193" name="leftExpression" index="1m5AlR" />
      </concept>
      <concept id="1145383075378" name="jetbrains.mps.lang.smodel.structure.SNodeListType" flags="in" index="2I9FWS">
        <reference id="1145383142433" name="elementConcept" index="2I9WkF" />
      </concept>
      <concept id="1145567426890" name="jetbrains.mps.lang.smodel.structure.SNodeListCreator" flags="nn" index="2T8Vx0">
        <child id="1145567471833" name="createdType" index="2T96Bj" />
      </concept>
      <concept id="1143511969223" name="jetbrains.mps.lang.smodel.structure.Node_GetPrevSiblingOperation" flags="nn" index="YBYNd" />
      <concept id="1139621453865" name="jetbrains.mps.lang.smodel.structure.Node_IsInstanceOfOperation" flags="nn" index="1mIQ4w">
        <child id="1177027386292" name="conceptArgument" index="cj9EA" />
      </concept>
      <concept id="1172326502327" name="jetbrains.mps.lang.smodel.structure.Concept_IsExactlyOperation" flags="nn" index="3O6GUB">
        <child id="1206733650006" name="conceptArgument" index="3QVz_e" />
      </concept>
      <concept id="1140137987495" name="jetbrains.mps.lang.smodel.structure.SNodeTypeCastExpression" flags="nn" index="1PxgMI" />
      <concept id="1138055754698" name="jetbrains.mps.lang.smodel.structure.SNodeType" flags="in" index="3Tqbb2">
        <reference id="1138405853777" name="concept" index="ehGHo" />
      </concept>
      <concept id="1138056143562" name="jetbrains.mps.lang.smodel.structure.SLinkAccess" flags="nn" index="3TrEf2">
        <reference id="1138056516764" name="link" index="3Tt5mk" />
      </concept>
      <concept id="1172420572800" name="jetbrains.mps.lang.smodel.structure.ConceptNodeType" flags="in" index="3THzug" />
    </language>
    <language id="ceab5195-25ea-4f22-9b92-103b95ca8c0c" name="jetbrains.mps.lang.core">
      <concept id="1169194658468" name="jetbrains.mps.lang.core.structure.INamedConcept" flags="ng" index="TrEIO">
        <property id="1169194664001" name="name" index="TrG5h" />
      </concept>
    </language>
    <language id="83888646-71ce-4f1c-9c53-c54016f6ad4f" name="jetbrains.mps.baseLanguage.collections">
      <concept id="540871147943773365" name="jetbrains.mps.baseLanguage.collections.structure.SingleArgumentSequenceOperation" flags="nn" index="25WWJ4">
        <child id="540871147943773366" name="argument" index="25WWJ7" />
      </concept>
      <concept id="1226511727824" name="jetbrains.mps.baseLanguage.collections.structure.SetType" flags="in" index="2hMVRd">
        <child id="1226511765987" name="elementType" index="2hN53Y" />
      </concept>
      <concept id="1226516258405" name="jetbrains.mps.baseLanguage.collections.structure.HashSetCreator" flags="nn" index="2i4dXS" />
      <concept id="1237721394592" name="jetbrains.mps.baseLanguage.collections.structure.AbstractContainerCreator" flags="nn" index="HWqM0">
        <child id="1237721435807" name="elementType" index="HW$YZ" />
      </concept>
      <concept id="1160612413312" name="jetbrains.mps.baseLanguage.collections.structure.AddElementOperation" flags="nn" index="TSZUe" />
    </language>
  </registry>
  <node concept="13h7C7" id="3$IEDVoTkVF">
    <ref role="13h7C2" to="cgfx:7Joh5OuxR2E" resolve="ParallelFor" />
    <node concept="13hLZK" id="3$IEDVoTkVG" role="13h7CW">
      <node concept="3clFbS" id="3$IEDVoTkVH" role="2VODD2" />
    </node>
    <node concept="13i0hz" id="3$IEDVoTlMX" role="13h7CS">
      <property role="13i0iv" value="false" />
      <property role="TrG5h" value="getScope" />
      <property role="13i0it" value="false" />
      <ref role="13i0hy" to="tpcu:3fifI_xCJOQ" resolve="getScope" />
      <node concept="3Tm1VV" id="3$IEDVoTlMY" role="1B3o_S" />
      <node concept="3clFbS" id="3$IEDVoTlMZ" role="3clF47">
        <node concept="3clFbJ" id="2tdmu1MbMOh" role="3cqZAp">
          <node concept="3clFbS" id="2tdmu1MbMOi" role="3clFbx">
            <node concept="3cpWs8" id="2tdmu1MbMOL" role="3cqZAp">
              <node concept="3cpWsn" id="2tdmu1MbMOM" role="3cpWs9">
                <property role="TrG5h" value="variables" />
                <node concept="2I9FWS" id="2tdmu1MbMON" role="1tU5fm">
                  <ref role="2I9WkF" to="tpee:fzcpWvJ" resolve="LocalVariableDeclaration" />
                </node>
                <node concept="2ShNRf" id="2tdmu1MbMOO" role="33vP2m">
                  <node concept="2T8Vx0" id="2tdmu1MbMOP" role="2ShVmc">
                    <node concept="2I9FWS" id="2tdmu1MbMOQ" role="2T96Bj">
                      <ref role="2I9WkF" to="tpee:fzcpWvJ" resolve="LocalVariableDeclaration" />
                    </node>
                  </node>
                </node>
              </node>
            </node>
            <node concept="3clFbJ" id="2tdmu1MbMOS" role="3cqZAp">
              <node concept="3clFbS" id="2tdmu1MbMOT" role="3clFbx">
                <node concept="3clFbF" id="2tdmu1MbMOU" role="3cqZAp">
                  <node concept="2OqwBi" id="2tdmu1MbMOV" role="3clFbG">
                    <node concept="37vLTw" id="3GM_nagTx3w" role="2Oq$k0">
                      <ref role="3cqZAo" node="2tdmu1MbMOM" resolve="variables" />
                    </node>
                    <node concept="TSZUe" id="2tdmu1MbMOX" role="2OqNvi">
                      <node concept="2OqwBi" id="2tdmu1MbMOY" role="25WWJ7">
                        <node concept="13iPFW" id="2tdmu1MbMOZ" role="2Oq$k0" />
                        <node concept="3TrEf2" id="3$IEDVoTlOE" role="2OqNvi">
                          <ref role="3Tt5mk" to="cgfx:7Joh5Ouy132" />
                        </node>
                      </node>
                    </node>
                  </node>
                </node>
              </node>
              <node concept="3fqX7Q" id="2tdmu1MbMP7" role="3clFbw">
                <node concept="iy1fb" id="2tdmu1MbMQq" role="3fr31v">
                  <ref role="iy1sa" to="cgfx:7Joh5Ouy132" />
                </node>
              </node>
            </node>
            <node concept="3cpWs6" id="6wd6AyorpwE" role="3cqZAp">
              <node concept="2YIFZM" id="3A2qfoxXw4K" role="3cqZAk">
                <ref role="37wK5l" to="fnmy:3A2qfoxVU7a" resolve="forVariables" />
                <ref role="1Pybhc" to="fnmy:3A2qfoxVUBF" resolve="Scopes" />
                <node concept="37vLTw" id="2BHiRxglbnO" role="37wK5m">
                  <ref role="3cqZAo" node="3$IEDVoTlN0" resolve="kind" />
                </node>
                <node concept="37vLTw" id="3GM_nagTyJ6" role="37wK5m">
                  <ref role="3cqZAo" node="2tdmu1MbMOM" resolve="variables" />
                </node>
                <node concept="iy90A" id="3A2qfoxXw4P" role="37wK5m" />
              </node>
            </node>
          </node>
          <node concept="2OqwBi" id="gVddlT4SjJ" role="3clFbw">
            <node concept="37vLTw" id="2BHiRxgm9Nr" role="2Oq$k0">
              <ref role="3cqZAo" node="3$IEDVoTlN0" resolve="kind" />
            </node>
            <node concept="3O6GUB" id="gVddlT4SjO" role="2OqNvi">
              <node concept="chp4Y" id="gVddlT4SjQ" role="3QVz_e">
                <ref role="cht4Q" to="tpee:fz3uBXI" resolve="VariableDeclaration" />
              </node>
            </node>
          </node>
        </node>
        <node concept="3clFbH" id="3$IEDVoTlNg" role="3cqZAp" />
        <node concept="3clFbF" id="6oIBdQGQEW0" role="3cqZAp">
          <node concept="2OqwBi" id="59YAasRrTG7" role="3clFbG">
            <node concept="13iAh5" id="59YAasRrTFQ" role="2Oq$k0" />
            <node concept="2qgKlT" id="59YAasRrTGf" role="2OqNvi">
              <ref role="37wK5l" to="tpcu:3fifI_xCJOQ" resolve="getScope" />
              <node concept="37vLTw" id="2BHiRxgmqZW" role="37wK5m">
                <ref role="3cqZAo" node="3$IEDVoTlN0" resolve="kind" />
              </node>
              <node concept="37vLTw" id="2BHiRxglrf8" role="37wK5m">
                <ref role="3cqZAo" node="3$IEDVoTlN2" resolve="child" />
              </node>
            </node>
          </node>
        </node>
      </node>
      <node concept="37vLTG" id="3$IEDVoTlN0" role="3clF46">
        <property role="TrG5h" value="kind" />
        <node concept="3THzug" id="3$IEDVoTlN1" role="1tU5fm" />
      </node>
      <node concept="37vLTG" id="3$IEDVoTlN2" role="3clF46">
        <property role="TrG5h" value="child" />
        <node concept="3Tqbb2" id="3$IEDVoTlN3" role="1tU5fm" />
      </node>
      <node concept="3uibUv" id="3$IEDVoTlN4" role="3clF45">
        <ref role="3uigEE" to="o8zo:3fifI_xCtN$" resolve="Scope" />
      </node>
    </node>
    <node concept="13i0hz" id="4CgZIKbobIp" role="13h7CS">
      <property role="13i0iv" value="false" />
      <property role="TrG5h" value="collectUncaughtMethodThrowables" />
      <property role="13i0it" value="false" />
      <ref role="13i0hy" to="tpek:4Gt7ANIVH8f" resolve="collectUncaughtMethodThrowables" />
      <node concept="3Tm1VV" id="4CgZIKbobIq" role="1B3o_S" />
      <node concept="3clFbS" id="4CgZIKbobIr" role="3clF47" />
      <node concept="37vLTG" id="4CgZIKbobIs" role="3clF46">
        <property role="TrG5h" value="throwables" />
        <node concept="2hMVRd" id="4CgZIKbobIt" role="1tU5fm">
          <node concept="3Tqbb2" id="4CgZIKbobIu" role="2hN53Y">
            <ref role="ehGHo" to="tpee:g7pOWCK" resolve="Classifier" />
          </node>
        </node>
      </node>
      <node concept="37vLTG" id="4CgZIKbobIv" role="3clF46">
        <property role="TrG5h" value="ignoreMayBeThrowables" />
        <node concept="10P_77" id="4CgZIKbobIw" role="1tU5fm" />
      </node>
      <node concept="3cqZAl" id="4CgZIKbobIx" role="3clF45" />
    </node>
    <node concept="13i0hz" id="2SVUfbZ9Qq1" role="13h7CS">
      <property role="TrG5h" value="uncaughtThrowables" />
      <node concept="37vLTG" id="2SVUfbZ9RNn" role="3clF46">
        <property role="TrG5h" value="ignoreMayBeThrowables" />
        <node concept="10P_77" id="2SVUfbZ9RNo" role="1tU5fm" />
      </node>
      <node concept="3Tm1VV" id="2SVUfbZ9Qq2" role="1B3o_S" />
      <node concept="2hMVRd" id="2SVUfbZ9RNk" role="3clF45">
        <node concept="3Tqbb2" id="2SVUfbZ9RNm" role="2hN53Y">
          <ref role="ehGHo" to="tpee:g7pOWCK" resolve="Classifier" />
        </node>
      </node>
      <node concept="3clFbS" id="2SVUfbZ9Qq4" role="3clF47">
        <node concept="3cpWs8" id="2SVUfbZ9RNp" role="3cqZAp">
          <node concept="3cpWsn" id="2SVUfbZ9RNq" role="3cpWs9">
            <property role="TrG5h" value="result" />
            <node concept="2hMVRd" id="2SVUfbZ9RNr" role="1tU5fm">
              <node concept="3Tqbb2" id="2SVUfbZ9RNt" role="2hN53Y">
                <ref role="ehGHo" to="tpee:g7pOWCK" resolve="Classifier" />
              </node>
            </node>
            <node concept="2ShNRf" id="2SVUfbZ9RNv" role="33vP2m">
              <node concept="2i4dXS" id="2SVUfbZ9RNw" role="2ShVmc">
                <node concept="3Tqbb2" id="2SVUfbZ9RNx" role="HW$YZ">
                  <ref role="ehGHo" to="tpee:g7pOWCK" resolve="Classifier" />
                </node>
              </node>
            </node>
          </node>
        </node>
        <node concept="3clFbF" id="2SVUfbZ9RNz" role="3cqZAp">
          <node concept="37vLTw" id="3GM_nagT$44" role="3clFbG">
            <ref role="3cqZAo" node="2SVUfbZ9RNq" resolve="result" />
          </node>
        </node>
      </node>
    </node>
    <node concept="13i0hz" id="4CgZIKbpe9Q" role="13h7CS">
      <property role="13i0iv" value="false" />
      <property role="TrG5h" value="getThrowableTypes" />
      <property role="13i0it" value="false" />
      <ref role="13i0hy" to="tpek:5op8ooRkkc7" resolve="getThrowableTypes" />
      <node concept="3Tm1VV" id="4CgZIKbpe9R" role="1B3o_S" />
      <node concept="3clFbS" id="4CgZIKbpe9S" role="3clF47">
        <node concept="3clFbF" id="4CgZIKbpe9U" role="3cqZAp">
          <node concept="2ShNRf" id="4CgZIKbpe9V" role="3clFbG">
            <node concept="2T8Vx0" id="4CgZIKbpea1" role="2ShVmc">
              <node concept="2I9FWS" id="4CgZIKbpea2" role="2T96Bj">
                <ref role="2I9WkF" to="tpee:fz3vP1H" resolve="Type" />
              </node>
            </node>
          </node>
        </node>
      </node>
      <node concept="2I9FWS" id="4CgZIKbpe9T" role="3clF45">
        <ref role="2I9WkF" to="tpee:fz3vP1H" resolve="Type" />
      </node>
    </node>
    <node concept="13i0hz" id="4CgZIKbpe9M" role="13h7CS">
      <property role="13i0iv" value="false" />
      <property role="TrG5h" value="getBody" />
      <property role="13i0it" value="false" />
      <ref role="13i0hy" to="tpek:i2fhZ_m" resolve="getBody" />
      <node concept="3Tm1VV" id="4CgZIKbpe9N" role="1B3o_S" />
      <node concept="3clFbS" id="4CgZIKbpe9O" role="3clF47">
        <node concept="3clFbF" id="4CgZIKbpea3" role="3cqZAp">
          <node concept="2OqwBi" id="4CgZIKbpeaj" role="3clFbG">
            <node concept="13iPFW" id="4CgZIKbpea4" role="2Oq$k0" />
            <node concept="3TrEf2" id="4CgZIKbpeao" role="2OqNvi">
              <ref role="3Tt5mk" to="tpee:gMLFqrC" />
            </node>
          </node>
        </node>
      </node>
      <node concept="3Tqbb2" id="4CgZIKbpe9P" role="3clF45">
        <ref role="ehGHo" to="tpee:fzclF80" resolve="StatementList" />
      </node>
    </node>
    <node concept="13i0hz" id="4CgZIKbpe9I" role="13h7CS">
      <property role="13i0iv" value="false" />
      <property role="TrG5h" value="getExpectedRetType" />
      <property role="13i0it" value="false" />
      <ref role="13i0hy" to="tpek:i2fhBNC" resolve="getExpectedRetType" />
      <node concept="3Tm1VV" id="4CgZIKbpe9J" role="1B3o_S" />
      <node concept="3clFbS" id="4CgZIKbpe9K" role="3clF47">
        <node concept="3clFbF" id="4CgZIKbpeap" role="3cqZAp">
          <node concept="10Nm6u" id="3Rhnz24oZAZ" role="3clFbG" />
        </node>
      </node>
      <node concept="3Tqbb2" id="4CgZIKbpe9L" role="3clF45" />
    </node>
    <node concept="13i0hz" id="4CgZIKbpeqR" role="13h7CS">
      <property role="13i0iv" value="false" />
      <property role="TrG5h" value="implicitThrows" />
      <property role="13i0it" value="false" />
      <ref role="13i0hy" to="tpek:4kX30tnJ9kz" resolve="implicitThrows" />
      <node concept="3Tm1VV" id="4CgZIKbpeqS" role="1B3o_S" />
      <node concept="3clFbS" id="4CgZIKbpeqT" role="3clF47">
        <node concept="3clFbF" id="4CgZIKbper5" role="3cqZAp">
          <node concept="3clFbT" id="4CgZIKbper6" role="3clFbG">
            <property role="3clFbU" value="true" />
          </node>
        </node>
      </node>
      <node concept="10P_77" id="4CgZIKbpeqU" role="3clF45" />
    </node>
    <node concept="13i0hz" id="6FH9fp$mItT" role="13h7CS">
      <property role="TrG5h" value="findPoolDeclaration" />
      <node concept="3Tqbb2" id="6FH9fp$mJkI" role="3clF45">
        <ref role="ehGHo" to="tpee:fz3uBXI" resolve="VariableDeclaration" />
      </node>
      <node concept="3Tm1VV" id="6FH9fp$mIwt" role="1B3o_S" />
      <node concept="3clFbS" id="6FH9fp$mIwv" role="3clF47">
        <node concept="3cpWs8" id="6FH9fp$mOzy" role="3cqZAp">
          <node concept="3cpWsn" id="6FH9fp$mOzz" role="3cpWs9">
            <property role="TrG5h" value="prevSibling" />
            <node concept="3Tqbb2" id="6FH9fp$mOzu" role="1tU5fm" />
            <node concept="2OqwBi" id="6FH9fp$mOz$" role="33vP2m">
              <node concept="13iPFW" id="6FH9fp$sScl" role="2Oq$k0" />
              <node concept="YBYNd" id="6FH9fp$mOz_" role="2OqNvi" />
            </node>
          </node>
        </node>
        <node concept="2$JKZl" id="6FH9fp$mOIY" role="3cqZAp">
          <node concept="3y3z36" id="6FH9fp$mOPL" role="2$JKZa">
            <node concept="10Nm6u" id="6FH9fp$mOQA" role="3uHU7w" />
            <node concept="37vLTw" id="6FH9fp$mOJM" role="3uHU7B">
              <ref role="3cqZAo" node="6FH9fp$mOzz" resolve="prevSibling" />
            </node>
          </node>
          <node concept="3clFbS" id="6FH9fp$mOJ2" role="2LFqv$">
            <node concept="3clFbJ" id="6FH9fp$mORR" role="3cqZAp">
              <node concept="1Wc70l" id="6FH9fp$mPQn" role="3clFbw">
                <node concept="3clFbC" id="6FH9fp$sr9H" role="3uHU7w">
                  <node concept="2OqwBi" id="6FH9fp$srFX" role="3uHU7w">
                    <node concept="3TrEf2" id="6FH9fp$suOZ" role="2OqNvi">
                      <ref role="3Tt5mk" to="tpee:g7uigIF" />
                    </node>
                    <node concept="2c44tf" id="6FH9fp$srjb" role="2Oq$k0">
                      <node concept="3uibUv" id="6FH9fp$srsb" role="2c44tc">
                        <ref role="3uigEE" to="5zyv:~ExecutorService" resolve="ExecutorService" />
                      </node>
                    </node>
                  </node>
                  <node concept="2OqwBi" id="6FH9fp$sm6H" role="3uHU7B">
                    <node concept="3TrEf2" id="6FH9fp$spgC" role="2OqNvi">
                      <ref role="3Tt5mk" to="tpee:g7uigIF" />
                    </node>
                    <node concept="1UaxmW" id="6FH9fp$skDJ" role="2Oq$k0">
                      <node concept="1YaCAy" id="6FH9fp$sljS" role="1Ub_4A">
                        <property role="TrG5h" value="classifierType" />
                        <ref role="1YaFvo" to="tpee:g7uibYu" resolve="ClassifierType" />
                      </node>
                      <node concept="2OqwBi" id="6FH9fp$mVuO" role="1Ub_4B">
                        <node concept="3TrEf2" id="6FH9fp$mYAg" role="2OqNvi">
                          <ref role="3Tt5mk" to="tpee:4VkOLwjf83e" />
                        </node>
                        <node concept="2OqwBi" id="6FH9fp$mQrQ" role="2Oq$k0">
                          <node concept="3TrEf2" id="6FH9fp$mTAk" role="2OqNvi">
                            <ref role="3Tt5mk" to="tpee:fzcpWvL" />
                          </node>
                          <node concept="1PxgMI" id="6FH9fp$mQ3L" role="2Oq$k0">
                            <ref role="1m5ApE" to="tpee:fzcpWvK" resolve="LocalVariableDeclarationStatement" />
                            <node concept="37vLTw" id="6FH9fp$mPSB" role="1m5AlR">
                              <ref role="3cqZAo" node="6FH9fp$mOzz" resolve="prevSibling" />
                            </node>
                          </node>
                        </node>
                      </node>
                    </node>
                  </node>
                </node>
                <node concept="2OqwBi" id="6FH9fp$mP2D" role="3uHU7B">
                  <node concept="1mIQ4w" id="6FH9fp$mPs2" role="2OqNvi">
                    <node concept="chp4Y" id="6FH9fp$mPtc" role="cj9EA">
                      <ref role="cht4Q" to="tpee:fzcpWvK" resolve="LocalVariableDeclarationStatement" />
                    </node>
                  </node>
                  <node concept="37vLTw" id="6FH9fp$mOSH" role="2Oq$k0">
                    <ref role="3cqZAo" node="6FH9fp$mOzz" resolve="prevSibling" />
                  </node>
                </node>
              </node>
              <node concept="3clFbS" id="6FH9fp$mORT" role="3clFbx">
                <node concept="3cpWs6" id="6FH9fp$nuRA" role="3cqZAp">
                  <node concept="2OqwBi" id="6FH9fp$nvEf" role="3cqZAk">
                    <node concept="3TrEf2" id="6FH9fp$nxgj" role="2OqNvi">
                      <ref role="3Tt5mk" to="tpee:fzcpWvL" />
                    </node>
                    <node concept="1PxgMI" id="6FH9fp$nviX" role="2Oq$k0">
                      <ref role="1m5ApE" to="tpee:fzcpWvK" resolve="LocalVariableDeclarationStatement" />
                      <node concept="37vLTw" id="6FH9fp$nuUo" role="1m5AlR">
                        <ref role="3cqZAo" node="6FH9fp$mOzz" resolve="prevSibling" />
                      </node>
                    </node>
                  </node>
                </node>
              </node>
            </node>
            <node concept="3clFbF" id="4SIZTAdkyqd" role="3cqZAp">
              <node concept="37vLTI" id="4SIZTAdkzaK" role="3clFbG">
                <node concept="2OqwBi" id="4SIZTAdkzzk" role="37vLTx">
                  <node concept="YBYNd" id="4SIZTAdk$uz" role="2OqNvi" />
                  <node concept="37vLTw" id="4SIZTAdkzkW" role="2Oq$k0">
                    <ref role="3cqZAo" node="6FH9fp$mOzz" resolve="prevSibling" />
                  </node>
                </node>
                <node concept="37vLTw" id="4SIZTAdkyqc" role="37vLTJ">
                  <ref role="3cqZAo" node="6FH9fp$mOzz" resolve="prevSibling" />
                </node>
              </node>
            </node>
          </node>
        </node>
        <node concept="3cpWs6" id="6FH9fp$nbty" role="3cqZAp">
          <node concept="10Nm6u" id="6FH9fp$nbA8" role="3cqZAk" />
        </node>
      </node>
    </node>
  </node>
  <node concept="13h7C7" id="1653mnvAOJh">
    <ref role="13h7C2" to="cgfx:2_c7diShge0" resolve="NonThreadSafeClass" />
    <node concept="13hLZK" id="1653mnvAOJi" role="13h7CW">
      <node concept="3clFbS" id="1653mnvAOJj" role="2VODD2" />
    </node>
  </node>
  <node concept="13h7C7" id="1653mnvAOSk">
    <ref role="13h7C2" to="cgfx:2_c7diSgNbA" resolve="ThreadSafe" />
    <node concept="13hLZK" id="1653mnvAOSl" role="13h7CW">
      <node concept="3clFbS" id="1653mnvAOSm" role="2VODD2" />
    </node>
  </node>
</model>

