<?xml version="1.0" encoding="UTF-8"?>
<model ref="r:2614090b-4018-4457-8ad5-c503bc8936fb(org.jetbrains.mps.samples.ParallelFor.intentions)">
  <persistence version="9" />
  <languages>
    <use id="aee9cad2-acd4-4608-aef2-0004f6a1cdbd" name="jetbrains.mps.lang.actions" version="0" />
    <use id="d7a92d38-f7db-40d0-8431-763b0c3c9f20" name="jetbrains.mps.lang.intentions" version="0" />
    <use id="13744753-c81f-424a-9c1b-cf8943bf4e86" name="jetbrains.mps.lang.sharedConcepts" version="0" />
    <use id="7a5dda62-9140-4668-ab76-d5ed1746f2b2" name="jetbrains.mps.lang.typesystem" version="0" />
    <devkit ref="fbc25dd2-5da4-483a-8b19-70928e1b62d7(jetbrains.mps.devkit.general-purpose)" />
  </languages>
  <imports>
    <import index="cgfx" ref="r:10e9da27-7113-45e6-9477-92c95760f135(org.jetbrains.mps.samples.ParallelFor.structure)" />
    <import index="tpee" ref="r:00000000-0000-4000-0000-011c895902ca(jetbrains.mps.baseLanguage.structure)" />
    <import index="tp2q" ref="r:00000000-0000-4000-0000-011c8959032e(jetbrains.mps.baseLanguage.collections.structure)" />
    <import index="exr9" ref="1ed103c3-3aa6-49b7-9c21-6765ee11f224/java:jetbrains.mps.nodeEditor(MPS.Editor/)" />
    <import index="cj4x" ref="1ed103c3-3aa6-49b7-9c21-6765ee11f224/java:jetbrains.mps.openapi.editor(MPS.Editor/)" />
    <import index="tpck" ref="r:00000000-0000-4000-0000-011c89590288(jetbrains.mps.lang.core.structure)" implicit="true" />
  </imports>
  <registry>
    <language id="13744753-c81f-424a-9c1b-cf8943bf4e86" name="jetbrains.mps.lang.sharedConcepts">
      <concept id="1194033889146" name="jetbrains.mps.lang.sharedConcepts.structure.ConceptFunctionParameter_editorContext" flags="nn" index="1XNTG" />
    </language>
    <language id="f3061a53-9226-4cc5-a443-f952ceaf5816" name="jetbrains.mps.baseLanguage">
      <concept id="1215693861676" name="jetbrains.mps.baseLanguage.structure.BaseAssignmentExpression" flags="nn" index="d038R">
        <child id="1068498886297" name="rValue" index="37vLTx" />
        <child id="1068498886295" name="lValue" index="37vLTJ" />
      </concept>
      <concept id="4836112446988635817" name="jetbrains.mps.baseLanguage.structure.UndefinedType" flags="in" index="2jxLKc" />
      <concept id="1202948039474" name="jetbrains.mps.baseLanguage.structure.InstanceMethodCallOperation" flags="nn" index="liA8E" />
      <concept id="1197027756228" name="jetbrains.mps.baseLanguage.structure.DotExpression" flags="nn" index="2OqwBi">
        <child id="1197027771414" name="operand" index="2Oq$k0" />
        <child id="1197027833540" name="operation" index="2OqNvi" />
      </concept>
      <concept id="1145552977093" name="jetbrains.mps.baseLanguage.structure.GenericNewExpression" flags="nn" index="2ShNRf">
        <child id="1145553007750" name="creator" index="2ShVmc" />
      </concept>
      <concept id="1137021947720" name="jetbrains.mps.baseLanguage.structure.ConceptFunction" flags="in" index="2VMwT0">
        <child id="1137022507850" name="body" index="2VODD2" />
      </concept>
      <concept id="1070475926800" name="jetbrains.mps.baseLanguage.structure.StringLiteral" flags="nn" index="Xl_RD">
        <property id="1070475926801" name="value" index="Xl_RC" />
      </concept>
      <concept id="1070534058343" name="jetbrains.mps.baseLanguage.structure.NullLiteral" flags="nn" index="10Nm6u" />
      <concept id="1068431474542" name="jetbrains.mps.baseLanguage.structure.VariableDeclaration" flags="ng" index="33uBYm">
        <child id="1068431790190" name="initializer" index="33vP2m" />
      </concept>
      <concept id="1068498886296" name="jetbrains.mps.baseLanguage.structure.VariableReference" flags="nn" index="37vLTw">
        <reference id="1068581517664" name="variableDeclaration" index="3cqZAo" />
      </concept>
      <concept id="1068498886294" name="jetbrains.mps.baseLanguage.structure.AssignmentExpression" flags="nn" index="37vLTI" />
      <concept id="1225271283259" name="jetbrains.mps.baseLanguage.structure.NPEEqualsExpression" flags="nn" index="17R0WA" />
      <concept id="4972933694980447171" name="jetbrains.mps.baseLanguage.structure.BaseVariableDeclaration" flags="ng" index="19Szcq">
        <child id="5680397130376446158" name="type" index="1tU5fm" />
      </concept>
      <concept id="1068580123152" name="jetbrains.mps.baseLanguage.structure.EqualsExpression" flags="nn" index="3clFbC" />
      <concept id="1068580123155" name="jetbrains.mps.baseLanguage.structure.ExpressionStatement" flags="nn" index="3clFbF">
        <child id="1068580123156" name="expression" index="3clFbG" />
      </concept>
      <concept id="1068580123159" name="jetbrains.mps.baseLanguage.structure.IfStatement" flags="nn" index="3clFbJ">
        <child id="1068580123160" name="condition" index="3clFbw" />
        <child id="1068580123161" name="ifTrue" index="3clFbx" />
      </concept>
      <concept id="1068580123136" name="jetbrains.mps.baseLanguage.structure.StatementList" flags="sn" stub="5293379017992965193" index="3clFbS">
        <child id="1068581517665" name="statement" index="3cqZAp" />
      </concept>
      <concept id="1068580123137" name="jetbrains.mps.baseLanguage.structure.BooleanConstant" flags="nn" index="3clFbT">
        <property id="1068580123138" name="value" index="3clFbU" />
      </concept>
      <concept id="1068581242878" name="jetbrains.mps.baseLanguage.structure.ReturnStatement" flags="nn" index="3cpWs6">
        <child id="1068581517676" name="expression" index="3cqZAk" />
      </concept>
      <concept id="1068581242864" name="jetbrains.mps.baseLanguage.structure.LocalVariableDeclarationStatement" flags="nn" index="3cpWs8">
        <child id="1068581242865" name="localVariableDeclaration" index="3cpWs9" />
      </concept>
      <concept id="1068581242863" name="jetbrains.mps.baseLanguage.structure.LocalVariableDeclaration" flags="nr" index="3cpWsn" />
      <concept id="1081516740877" name="jetbrains.mps.baseLanguage.structure.NotExpression" flags="nn" index="3fqX7Q">
        <child id="1081516765348" name="expression" index="3fr31v" />
      </concept>
      <concept id="1204053956946" name="jetbrains.mps.baseLanguage.structure.IMethodCall" flags="ng" index="1ndlxa">
        <reference id="1068499141037" name="baseMethodDeclaration" index="37wK5l" />
        <child id="1068499141038" name="actualArgument" index="37wK5m" />
      </concept>
      <concept id="1081773326031" name="jetbrains.mps.baseLanguage.structure.BinaryOperation" flags="nn" index="3uHJSO">
        <child id="1081773367579" name="rightExpression" index="3uHU7w" />
        <child id="1081773367580" name="leftExpression" index="3uHU7B" />
      </concept>
      <concept id="1073239437375" name="jetbrains.mps.baseLanguage.structure.NotEqualsExpression" flags="nn" index="3y3z36" />
      <concept id="1080120340718" name="jetbrains.mps.baseLanguage.structure.AndExpression" flags="nn" index="1Wc70l" />
    </language>
    <language id="fd392034-7849-419d-9071-12563d152375" name="jetbrains.mps.baseLanguage.closures">
      <concept id="1199569711397" name="jetbrains.mps.baseLanguage.closures.structure.ClosureLiteral" flags="nn" index="1bVj0M">
        <child id="1199569906740" name="parameter" index="1bW2Oz" />
        <child id="1199569916463" name="body" index="1bW5cS" />
      </concept>
    </language>
    <language id="d7a92d38-f7db-40d0-8431-763b0c3c9f20" name="jetbrains.mps.lang.intentions">
      <concept id="3618415754251190715" name="jetbrains.mps.lang.intentions.structure.ChildFilterFunction" flags="in" index="zTJ1e" />
      <concept id="3618415754251192144" name="jetbrains.mps.lang.intentions.structure.ConceptFunctionParameter_childNode" flags="nn" index="zTJq_" />
      <concept id="1192794744107" name="jetbrains.mps.lang.intentions.structure.IntentionDeclaration" flags="ig" index="2S6QgY" />
      <concept id="1192794782375" name="jetbrains.mps.lang.intentions.structure.DescriptionBlock" flags="in" index="2S6ZIM" />
      <concept id="1192795771125" name="jetbrains.mps.lang.intentions.structure.IsApplicableBlock" flags="in" index="2SaL7w" />
      <concept id="1192795911897" name="jetbrains.mps.lang.intentions.structure.ExecuteBlock" flags="in" index="2Sbjvc" />
      <concept id="1192796902958" name="jetbrains.mps.lang.intentions.structure.ConceptFunctionParameter_node" flags="nn" index="2Sf5sV" />
      <concept id="2522969319638091381" name="jetbrains.mps.lang.intentions.structure.BaseIntentionDeclaration" flags="ig" index="2ZfUlf">
        <property id="2522969319638091386" name="isAvailableInChildNodes" index="2ZfUl0" />
        <reference id="2522969319638198290" name="forConcept" index="2ZfgGC" />
        <child id="2522969319638198291" name="executeFunction" index="2ZfgGD" />
        <child id="2522969319638093994" name="childFilterFunction" index="2ZfVeg" />
        <child id="2522969319638093995" name="isApplicableFunction" index="2ZfVeh" />
        <child id="2522969319638093993" name="descriptionFunction" index="2ZfVej" />
      </concept>
    </language>
    <language id="7a5dda62-9140-4668-ab76-d5ed1746f2b2" name="jetbrains.mps.lang.typesystem">
      <concept id="1176544042499" name="jetbrains.mps.lang.typesystem.structure.Node_TypeOperation" flags="nn" index="3JvlWi" />
    </language>
    <language id="aee9cad2-acd4-4608-aef2-0004f6a1cdbd" name="jetbrains.mps.lang.actions">
      <concept id="5979988948250981289" name="jetbrains.mps.lang.actions.structure.SNodeCreatorAndInitializer" flags="nn" index="2fJWfE" />
      <concept id="767145758118872830" name="jetbrains.mps.lang.actions.structure.NF_Link_SetNewChildOperation" flags="nn" index="2DeJnY" />
    </language>
    <language id="7866978e-a0f0-4cc7-81bc-4d213d9375e1" name="jetbrains.mps.lang.smodel">
      <concept id="1177026924588" name="jetbrains.mps.lang.smodel.structure.RefConcept_Reference" flags="nn" index="chp4Y">
        <reference id="1177026940964" name="conceptDeclaration" index="cht4Q" />
      </concept>
      <concept id="1138411891628" name="jetbrains.mps.lang.smodel.structure.SNodeOperation" flags="nn" index="eCIE_">
        <child id="1144104376918" name="parameter" index="1xVPHs" />
      </concept>
      <concept id="1140725362528" name="jetbrains.mps.lang.smodel.structure.Link_SetTargetOperation" flags="nn" index="2oxUTD">
        <child id="1140725362529" name="linkTarget" index="2oxUTC" />
      </concept>
      <concept id="1138757581985" name="jetbrains.mps.lang.smodel.structure.Link_SetNewChildOperation" flags="nn" index="zfrQC">
        <reference id="1139880128956" name="concept" index="1A9B2P" />
      </concept>
      <concept id="2396822768958367367" name="jetbrains.mps.lang.smodel.structure.AbstractTypeCastExpression" flags="nn" index="$5XWr">
        <reference id="6733348108486823428" name="concept" index="1m5ApE" />
        <child id="6733348108486823193" name="leftExpression" index="1m5AlR" />
      </concept>
      <concept id="1171305280644" name="jetbrains.mps.lang.smodel.structure.Node_GetDescendantsOperation" flags="nn" index="2Rf3mk" />
      <concept id="1139613262185" name="jetbrains.mps.lang.smodel.structure.Node_GetParentOperation" flags="nn" index="1mfA1w" />
      <concept id="1139621453865" name="jetbrains.mps.lang.smodel.structure.Node_IsInstanceOfOperation" flags="nn" index="1mIQ4w">
        <child id="1177027386292" name="conceptArgument" index="cj9EA" />
      </concept>
      <concept id="1144101972840" name="jetbrains.mps.lang.smodel.structure.OperationParm_Concept" flags="ng" index="1xMEDy">
        <child id="1207343664468" name="conceptArgument" index="ri$Ld" />
      </concept>
      <concept id="1180636770613" name="jetbrains.mps.lang.smodel.structure.SNodeCreator" flags="nn" index="3zrR0B">
        <child id="1180636770616" name="createdType" index="3zrR0E" />
      </concept>
      <concept id="1144146199828" name="jetbrains.mps.lang.smodel.structure.Node_CopyOperation" flags="nn" index="1$rogu" />
      <concept id="1219352745532" name="jetbrains.mps.lang.smodel.structure.NodeRefExpression" flags="nn" index="3B5_sB">
        <reference id="1219352800908" name="referentNode" index="3B5MYn" />
      </concept>
      <concept id="6407023681583036853" name="jetbrains.mps.lang.smodel.structure.NodeAttributeQualifier" flags="ng" index="3CFYIy">
        <reference id="6407023681583036854" name="attributeConcept" index="3CFYIx" />
      </concept>
      <concept id="6407023681583031218" name="jetbrains.mps.lang.smodel.structure.AttributeAccess" flags="nn" index="3CFZ6_">
        <child id="6407023681583036852" name="qualifier" index="3CFYIz" />
      </concept>
      <concept id="1140131837776" name="jetbrains.mps.lang.smodel.structure.Node_ReplaceWithAnotherOperation" flags="nn" index="1P9Npp">
        <child id="1140131861877" name="replacementNode" index="1P9ThW" />
      </concept>
      <concept id="1140137987495" name="jetbrains.mps.lang.smodel.structure.SNodeTypeCastExpression" flags="nn" index="1PxgMI" />
      <concept id="1138055754698" name="jetbrains.mps.lang.smodel.structure.SNodeType" flags="in" index="3Tqbb2">
        <reference id="1138405853777" name="concept" index="ehGHo" />
      </concept>
      <concept id="1138056022639" name="jetbrains.mps.lang.smodel.structure.SPropertyAccess" flags="nn" index="3TrcHB">
        <reference id="1138056395725" name="property" index="3TsBF5" />
      </concept>
      <concept id="1138056143562" name="jetbrains.mps.lang.smodel.structure.SLinkAccess" flags="nn" index="3TrEf2">
        <reference id="1138056516764" name="link" index="3Tt5mk" />
      </concept>
    </language>
    <language id="ceab5195-25ea-4f22-9b92-103b95ca8c0c" name="jetbrains.mps.lang.core">
      <concept id="1169194658468" name="jetbrains.mps.lang.core.structure.INamedConcept" flags="ng" index="TrEIO">
        <property id="1169194664001" name="name" index="TrG5h" />
      </concept>
    </language>
    <language id="83888646-71ce-4f1c-9c53-c54016f6ad4f" name="jetbrains.mps.baseLanguage.collections">
      <concept id="1204796164442" name="jetbrains.mps.baseLanguage.collections.structure.InternalSequenceOperation" flags="nn" index="23sCx2">
        <child id="1204796294226" name="closure" index="23t8la" />
      </concept>
      <concept id="1204980550705" name="jetbrains.mps.baseLanguage.collections.structure.VisitAllOperation" flags="nn" index="2es0OD" />
      <concept id="1151702311717" name="jetbrains.mps.baseLanguage.collections.structure.ToListOperation" flags="nn" index="ANE8D" />
      <concept id="1203518072036" name="jetbrains.mps.baseLanguage.collections.structure.SmartClosureParameterDeclaration" flags="ig" index="Rh6nW" />
      <concept id="1202120902084" name="jetbrains.mps.baseLanguage.collections.structure.WhereOperation" flags="nn" index="3zZkjj" />
    </language>
  </registry>
  <node concept="2S6QgY" id="z9$5E0Wdif">
    <property role="TrG5h" value="DetachFromThreadPool" />
    <ref role="2ZfgGC" to="cgfx:7Joh5OuxR2E" resolve="ParallelFor" />
    <node concept="2S6ZIM" id="z9$5E0Wdig" role="2ZfVej">
      <node concept="3clFbS" id="z9$5E0Wdih" role="2VODD2">
        <node concept="3clFbF" id="z9$5E0Wdpm" role="3cqZAp">
          <node concept="Xl_RD" id="z9$5E0Wdpn" role="3clFbG">
            <property role="Xl_RC" value="Detach from Thread Pool" />
          </node>
        </node>
      </node>
    </node>
    <node concept="2Sbjvc" id="z9$5E0Wdii" role="2ZfgGD">
      <node concept="3clFbS" id="z9$5E0Wdij" role="2VODD2">
        <node concept="3clFbF" id="z9$5E0WdpG" role="3cqZAp">
          <node concept="37vLTI" id="z9$5E0WdpT" role="3clFbG">
            <node concept="10Nm6u" id="z9$5E0WdpW" role="37vLTx" />
            <node concept="2OqwBi" id="z9$5E0WdpK" role="37vLTJ">
              <node concept="2Sf5sV" id="z9$5E0WdpH" role="2Oq$k0" />
              <node concept="3TrEf2" id="42COxuQQgGH" role="2OqNvi">
                <ref role="3Tt5mk" to="cgfx:42COxuQQ87Y" />
              </node>
            </node>
          </node>
        </node>
      </node>
    </node>
    <node concept="2SaL7w" id="z9$5E0Wdpo" role="2ZfVeh">
      <node concept="3clFbS" id="z9$5E0Wdpp" role="2VODD2">
        <node concept="3clFbF" id="z9$5E0Wdpq" role="3cqZAp">
          <node concept="3y3z36" id="z9$5E0WdpC" role="3clFbG">
            <node concept="10Nm6u" id="z9$5E0WdpF" role="3uHU7w" />
            <node concept="2OqwBi" id="z9$5E0Wdpu" role="3uHU7B">
              <node concept="2Sf5sV" id="z9$5E0Wdpr" role="2Oq$k0" />
              <node concept="3TrEf2" id="42COxuQQgGF" role="2OqNvi">
                <ref role="3Tt5mk" to="cgfx:42COxuQQ87Y" />
              </node>
            </node>
          </node>
        </node>
      </node>
    </node>
  </node>
  <node concept="2S6QgY" id="2_c7diShaR1">
    <property role="TrG5h" value="MarkAsThreadSafe" />
    <ref role="2ZfgGC" to="tpee:fz12cDA" resolve="ClassConcept" />
    <node concept="2S6ZIM" id="2_c7diShaR2" role="2ZfVej">
      <node concept="3clFbS" id="2_c7diShaR3" role="2VODD2">
        <node concept="3clFbF" id="2_c7diShaR6" role="3cqZAp">
          <node concept="Xl_RD" id="2_c7diShaR7" role="3clFbG">
            <property role="Xl_RC" value="Mark as Thread Safe" />
          </node>
        </node>
      </node>
    </node>
    <node concept="2Sbjvc" id="2_c7diShaR4" role="2ZfgGD">
      <node concept="3clFbS" id="2_c7diShaR5" role="2VODD2">
        <node concept="3clFbF" id="2_c7diShdIR" role="3cqZAp">
          <node concept="2OqwBi" id="2_c7diShdJR" role="3clFbG">
            <node concept="2OqwBi" id="2_c7diShdJ7" role="2Oq$k0">
              <node concept="2Sf5sV" id="2_c7diShdIS" role="2Oq$k0" />
              <node concept="3CFZ6_" id="2_c7diShdJc" role="2OqNvi">
                <node concept="3CFYIy" id="2_c7diShdJg" role="3CFYIz">
                  <ref role="3CFYIx" to="cgfx:2_c7diSgNbA" resolve="ThreadSafe" />
                </node>
              </node>
            </node>
            <node concept="2DeJnY" id="2_c7diShdJX" role="2OqNvi">
              <ref role="1A9B2P" to="cgfx:2_c7diSgNbA" resolve="ThreadSafe" />
            </node>
          </node>
        </node>
        <node concept="3clFbF" id="2_c7diShhzR" role="3cqZAp">
          <node concept="2OqwBi" id="2_c7diShh$v" role="3clFbG">
            <node concept="2OqwBi" id="2_c7diShh$7" role="2Oq$k0">
              <node concept="2Sf5sV" id="2_c7diShhzS" role="2Oq$k0" />
              <node concept="3CFZ6_" id="2_c7diShh$c" role="2OqNvi">
                <node concept="3CFYIy" id="2_c7diShh$f" role="3CFYIz">
                  <ref role="3CFYIx" to="cgfx:2_c7diShge0" resolve="NonThreadSafeClass" />
                </node>
              </node>
            </node>
            <node concept="2oxUTD" id="2_c7diShh$_" role="2OqNvi">
              <node concept="10Nm6u" id="2_c7diShh$C" role="2oxUTC" />
            </node>
          </node>
        </node>
      </node>
    </node>
    <node concept="2SaL7w" id="2_c7diShaR8" role="2ZfVeh">
      <node concept="3clFbS" id="2_c7diShaR9" role="2VODD2">
        <node concept="3clFbF" id="2_c7diShaRa" role="3cqZAp">
          <node concept="3clFbC" id="2_c7diShaRP" role="3clFbG">
            <node concept="2OqwBi" id="2_c7diShaRq" role="3uHU7B">
              <node concept="2Sf5sV" id="2_c7diShaRb" role="2Oq$k0" />
              <node concept="3CFZ6_" id="2_c7diShaRx" role="2OqNvi">
                <node concept="3CFYIy" id="2_c7diShaR_" role="3CFYIz">
                  <ref role="3CFYIx" to="cgfx:2_c7diSgNbA" resolve="ThreadSafe" />
                </node>
              </node>
            </node>
            <node concept="10Nm6u" id="2_c7diShaRS" role="3uHU7w" />
          </node>
        </node>
      </node>
    </node>
  </node>
  <node concept="2S6QgY" id="2_c7diShee5">
    <property role="2ZfUl0" value="true" />
    <property role="TrG5h" value="UnmarkAsThreadSafe" />
    <ref role="2ZfgGC" to="tpee:fz12cDA" resolve="ClassConcept" />
    <node concept="2S6ZIM" id="2_c7diShee6" role="2ZfVej">
      <node concept="3clFbS" id="2_c7diShee7" role="2VODD2">
        <node concept="3clFbF" id="2_c7diSheea" role="3cqZAp">
          <node concept="Xl_RD" id="2_c7diSheeb" role="3clFbG">
            <property role="Xl_RC" value="Unmark as Thread Safe" />
          </node>
        </node>
      </node>
    </node>
    <node concept="2Sbjvc" id="2_c7diShee8" role="2ZfgGD">
      <node concept="3clFbS" id="2_c7diShee9" role="2VODD2">
        <node concept="3clFbF" id="2_c7diSheeU" role="3cqZAp">
          <node concept="2OqwBi" id="2_c7diShefy" role="3clFbG">
            <node concept="2OqwBi" id="2_c7diShefa" role="2Oq$k0">
              <node concept="2Sf5sV" id="2_c7diSheeV" role="2Oq$k0" />
              <node concept="3CFZ6_" id="2_c7diSheff" role="2OqNvi">
                <node concept="3CFYIy" id="2_c7diShefi" role="3CFYIz">
                  <ref role="3CFYIx" to="cgfx:2_c7diSgNbA" resolve="ThreadSafe" />
                </node>
              </node>
            </node>
            <node concept="2oxUTD" id="2_c7diShefC" role="2OqNvi">
              <node concept="10Nm6u" id="2_c7diShefF" role="2oxUTC" />
            </node>
          </node>
        </node>
      </node>
    </node>
    <node concept="2SaL7w" id="2_c7diSheec" role="2ZfVeh">
      <node concept="3clFbS" id="2_c7diSheed" role="2VODD2">
        <node concept="3clFbF" id="2_c7diSheee" role="3cqZAp">
          <node concept="3y3z36" id="2_c7diSheeQ" role="3clFbG">
            <node concept="10Nm6u" id="2_c7diSheeT" role="3uHU7w" />
            <node concept="2OqwBi" id="2_c7diSheeu" role="3uHU7B">
              <node concept="2Sf5sV" id="2_c7diSheef" role="2Oq$k0" />
              <node concept="3CFZ6_" id="2_c7diSheez" role="2OqNvi">
                <node concept="3CFYIy" id="2_c7diSheeA" role="3CFYIz">
                  <ref role="3CFYIx" to="cgfx:2_c7diSgNbA" resolve="ThreadSafe" />
                </node>
              </node>
            </node>
          </node>
        </node>
      </node>
    </node>
    <node concept="zTJ1e" id="2_c7diShw2T" role="2ZfVeg">
      <node concept="3clFbS" id="2_c7diShw2U" role="2VODD2">
        <node concept="3clFbF" id="2_c7diShw2V" role="3cqZAp">
          <node concept="2OqwBi" id="2_c7diShw3b" role="3clFbG">
            <node concept="zTJq_" id="2_c7diShw2W" role="2Oq$k0" />
            <node concept="1mIQ4w" id="2_c7diShw3g" role="2OqNvi">
              <node concept="chp4Y" id="2_c7diShw3i" role="cj9EA">
                <ref role="cht4Q" to="cgfx:2_c7diSgNbA" resolve="ThreadSafe" />
              </node>
            </node>
          </node>
        </node>
      </node>
    </node>
  </node>
  <node concept="2S6QgY" id="2_c7diShgeb">
    <property role="TrG5h" value="MarkAsNonThreadSafe" />
    <ref role="2ZfgGC" to="tpee:fz12cDA" resolve="ClassConcept" />
    <node concept="2S6ZIM" id="2_c7diShgec" role="2ZfVej">
      <node concept="3clFbS" id="2_c7diShged" role="2VODD2">
        <node concept="3clFbF" id="2_c7diShgeg" role="3cqZAp">
          <node concept="Xl_RD" id="2_c7diShgeh" role="3clFbG">
            <property role="Xl_RC" value="Mark as Non Thread Safe" />
          </node>
        </node>
      </node>
    </node>
    <node concept="2Sbjvc" id="2_c7diShgee" role="2ZfgGD">
      <node concept="3clFbS" id="2_c7diShgef" role="2VODD2">
        <node concept="3clFbF" id="2_c7diShh$E" role="3cqZAp">
          <node concept="2OqwBi" id="2_c7diShh_j" role="3clFbG">
            <node concept="2OqwBi" id="2_c7diShh$U" role="2Oq$k0">
              <node concept="2Sf5sV" id="2_c7diShh$F" role="2Oq$k0" />
              <node concept="3CFZ6_" id="2_c7diShh$Z" role="2OqNvi">
                <node concept="3CFYIy" id="2_c7diShh_3" role="3CFYIz">
                  <ref role="3CFYIx" to="cgfx:2_c7diShge0" resolve="NonThreadSafeClass" />
                </node>
              </node>
            </node>
            <node concept="2oxUTD" id="2_c7diShh_p" role="2OqNvi">
              <node concept="2ShNRf" id="2_c7diShh_s" role="2oxUTC">
                <node concept="2fJWfE" id="2_c7diShh_v" role="2ShVmc">
                  <node concept="3Tqbb2" id="2_c7diShh_w" role="3zrR0E">
                    <ref role="ehGHo" to="cgfx:2_c7diShge0" resolve="NonThreadSafeClass" />
                  </node>
                </node>
              </node>
            </node>
          </node>
        </node>
        <node concept="3clFbF" id="2_c7diShh__" role="3cqZAp">
          <node concept="2OqwBi" id="2_c7diShhAe" role="3clFbG">
            <node concept="2OqwBi" id="2_c7diShh_Q" role="2Oq$k0">
              <node concept="2Sf5sV" id="2_c7diShh_A" role="2Oq$k0" />
              <node concept="3CFZ6_" id="2_c7diShh_V" role="2OqNvi">
                <node concept="3CFYIy" id="2_c7diShh_Y" role="3CFYIz">
                  <ref role="3CFYIx" to="cgfx:2_c7diSgNbA" resolve="ThreadSafe" />
                </node>
              </node>
            </node>
            <node concept="2oxUTD" id="2_c7diShhAj" role="2OqNvi">
              <node concept="10Nm6u" id="2_c7diShhAm" role="2oxUTC" />
            </node>
          </node>
        </node>
      </node>
    </node>
    <node concept="2SaL7w" id="2_c7diShgei" role="2ZfVeh">
      <node concept="3clFbS" id="2_c7diShgej" role="2VODD2">
        <node concept="3clFbF" id="2_c7diShhkq" role="3cqZAp">
          <node concept="3clFbC" id="2_c7diShhl4" role="3clFbG">
            <node concept="10Nm6u" id="2_c7diShhl7" role="3uHU7w" />
            <node concept="2OqwBi" id="2_c7diShhkF" role="3uHU7B">
              <node concept="2Sf5sV" id="2_c7diShhkr" role="2Oq$k0" />
              <node concept="3CFZ6_" id="2_c7diShhkK" role="2OqNvi">
                <node concept="3CFYIy" id="2_c7diShhAp" role="3CFYIz">
                  <ref role="3CFYIx" to="cgfx:2_c7diShge0" resolve="NonThreadSafeClass" />
                </node>
              </node>
            </node>
          </node>
        </node>
      </node>
    </node>
  </node>
  <node concept="2S6QgY" id="2_c7diShhAr">
    <property role="2ZfUl0" value="true" />
    <property role="TrG5h" value="UnmarkAsNonThreadSafe" />
    <ref role="2ZfgGC" to="tpee:fz12cDA" resolve="ClassConcept" />
    <node concept="2S6ZIM" id="2_c7diShhAs" role="2ZfVej">
      <node concept="3clFbS" id="2_c7diShhAt" role="2VODD2">
        <node concept="3clFbF" id="2_c7diShhAw" role="3cqZAp">
          <node concept="Xl_RD" id="2_c7diShhAx" role="3clFbG">
            <property role="Xl_RC" value="Unmark as Non Thread Safe" />
          </node>
        </node>
      </node>
    </node>
    <node concept="2Sbjvc" id="2_c7diShhAu" role="2ZfgGD">
      <node concept="3clFbS" id="2_c7diShhAv" role="2VODD2">
        <node concept="3clFbF" id="2_c7diShhBg" role="3cqZAp">
          <node concept="2OqwBi" id="2_c7diShhBS" role="3clFbG">
            <node concept="2OqwBi" id="2_c7diShhBw" role="2Oq$k0">
              <node concept="2Sf5sV" id="2_c7diShhBh" role="2Oq$k0" />
              <node concept="3CFZ6_" id="2_c7diShhB_" role="2OqNvi">
                <node concept="3CFYIy" id="2_c7diShhBC" role="3CFYIz">
                  <ref role="3CFYIx" to="cgfx:2_c7diShge0" resolve="NonThreadSafeClass" />
                </node>
              </node>
            </node>
            <node concept="2oxUTD" id="2_c7diShhBX" role="2OqNvi">
              <node concept="10Nm6u" id="2_c7diShhC0" role="2oxUTC" />
            </node>
          </node>
        </node>
      </node>
    </node>
    <node concept="2SaL7w" id="2_c7diShhAy" role="2ZfVeh">
      <node concept="3clFbS" id="2_c7diShhAz" role="2VODD2">
        <node concept="3clFbF" id="2_c7diShhA$" role="3cqZAp">
          <node concept="3y3z36" id="2_c7diShhBc" role="3clFbG">
            <node concept="10Nm6u" id="2_c7diShhBf" role="3uHU7w" />
            <node concept="2OqwBi" id="2_c7diShhAO" role="3uHU7B">
              <node concept="2Sf5sV" id="2_c7diShhA_" role="2Oq$k0" />
              <node concept="3CFZ6_" id="2_c7diShhAT" role="2OqNvi">
                <node concept="3CFYIy" id="2_c7diShhAW" role="3CFYIz">
                  <ref role="3CFYIx" to="cgfx:2_c7diShge0" resolve="NonThreadSafeClass" />
                </node>
              </node>
            </node>
          </node>
        </node>
      </node>
    </node>
    <node concept="zTJ1e" id="2_c7diShw2u" role="2ZfVeg">
      <node concept="3clFbS" id="2_c7diShw2v" role="2VODD2">
        <node concept="3clFbF" id="2_c7diShw2w" role="3cqZAp">
          <node concept="2OqwBi" id="2_c7diShw2K" role="3clFbG">
            <node concept="zTJq_" id="2_c7diShw2x" role="2Oq$k0" />
            <node concept="1mIQ4w" id="2_c7diShw2P" role="2OqNvi">
              <node concept="chp4Y" id="2_c7diShw2R" role="cj9EA">
                <ref role="cht4Q" to="cgfx:2_c7diSgNbA" resolve="ThreadSafe" />
              </node>
            </node>
          </node>
        </node>
      </node>
    </node>
  </node>
  <node concept="2S6QgY" id="2_c7diShuOr">
    <property role="TrG5h" value="MarkVariableDeclarationAsThreadSafe" />
    <ref role="2ZfgGC" to="tpee:fz3uBXI" resolve="VariableDeclaration" />
    <node concept="2S6ZIM" id="2_c7diShuOs" role="2ZfVej">
      <node concept="3clFbS" id="2_c7diShuOt" role="2VODD2">
        <node concept="3clFbF" id="2_c7diShuOw" role="3cqZAp">
          <node concept="Xl_RD" id="2_c7diShuOx" role="3clFbG">
            <property role="Xl_RC" value="Mark as Thread Safe" />
          </node>
        </node>
      </node>
    </node>
    <node concept="2Sbjvc" id="2_c7diShuOu" role="2ZfgGD">
      <node concept="3clFbS" id="2_c7diShuOv" role="2VODD2">
        <node concept="3clFbF" id="2_c7diShuPg" role="3cqZAp">
          <node concept="2OqwBi" id="2_c7diShuPS" role="3clFbG">
            <node concept="2OqwBi" id="2_c7diShuPw" role="2Oq$k0">
              <node concept="2Sf5sV" id="2_c7diShuPh" role="2Oq$k0" />
              <node concept="3CFZ6_" id="2_c7diShuP_" role="2OqNvi">
                <node concept="3CFYIy" id="2_c7diShuPC" role="3CFYIz">
                  <ref role="3CFYIx" to="cgfx:2_c7diSgNbA" resolve="ThreadSafe" />
                </node>
              </node>
            </node>
            <node concept="2DeJnY" id="2_c7diShuPY" role="2OqNvi">
              <ref role="1A9B2P" to="cgfx:2_c7diSgNbA" resolve="ThreadSafe" />
            </node>
          </node>
        </node>
      </node>
    </node>
    <node concept="2SaL7w" id="2_c7diShuOy" role="2ZfVeh">
      <node concept="3clFbS" id="2_c7diShuOz" role="2VODD2">
        <node concept="3clFbF" id="2_c7diShuO$" role="3cqZAp">
          <node concept="3clFbC" id="2_c7diShuPc" role="3clFbG">
            <node concept="10Nm6u" id="2_c7diShuPf" role="3uHU7w" />
            <node concept="2OqwBi" id="2_c7diShuOO" role="3uHU7B">
              <node concept="2Sf5sV" id="2_c7diShuO_" role="2Oq$k0" />
              <node concept="3CFZ6_" id="2_c7diShuOT" role="2OqNvi">
                <node concept="3CFYIy" id="2_c7diShuOW" role="3CFYIz">
                  <ref role="3CFYIx" to="cgfx:2_c7diSgNbA" resolve="ThreadSafe" />
                </node>
              </node>
            </node>
          </node>
        </node>
      </node>
    </node>
  </node>
  <node concept="2S6QgY" id="2_c7diShv8P">
    <property role="2ZfUl0" value="true" />
    <property role="TrG5h" value="UnmarkVariableAsThreadSafe" />
    <ref role="2ZfgGC" to="tpee:fz3uBXI" resolve="VariableDeclaration" />
    <node concept="2S6ZIM" id="2_c7diShv8Q" role="2ZfVej">
      <node concept="3clFbS" id="2_c7diShv8R" role="2VODD2">
        <node concept="3clFbF" id="2_c7diShv8U" role="3cqZAp">
          <node concept="Xl_RD" id="2_c7diShv8V" role="3clFbG">
            <property role="Xl_RC" value="Unmark as Thread Safe" />
          </node>
        </node>
      </node>
    </node>
    <node concept="2Sbjvc" id="2_c7diShv8S" role="2ZfgGD">
      <node concept="3clFbS" id="2_c7diShv8T" role="2VODD2">
        <node concept="3clFbF" id="2_c7diShv9E" role="3cqZAp">
          <node concept="2OqwBi" id="2_c7diShvai" role="3clFbG">
            <node concept="2OqwBi" id="2_c7diShv9U" role="2Oq$k0">
              <node concept="2Sf5sV" id="2_c7diShv9F" role="2Oq$k0" />
              <node concept="3CFZ6_" id="2_c7diShv9Z" role="2OqNvi">
                <node concept="3CFYIy" id="2_c7diShva2" role="3CFYIz">
                  <ref role="3CFYIx" to="cgfx:2_c7diSgNbA" resolve="ThreadSafe" />
                </node>
              </node>
            </node>
            <node concept="2oxUTD" id="2_c7diShvan" role="2OqNvi">
              <node concept="10Nm6u" id="2_c7diShw1Z" role="2oxUTC" />
            </node>
          </node>
        </node>
      </node>
    </node>
    <node concept="2SaL7w" id="2_c7diShv8W" role="2ZfVeh">
      <node concept="3clFbS" id="2_c7diShv8X" role="2VODD2">
        <node concept="3clFbF" id="2_c7diShv8Y" role="3cqZAp">
          <node concept="3y3z36" id="2_c7diShv9A" role="3clFbG">
            <node concept="10Nm6u" id="2_c7diShv9D" role="3uHU7w" />
            <node concept="2OqwBi" id="2_c7diShv9e" role="3uHU7B">
              <node concept="2Sf5sV" id="2_c7diShv8Z" role="2Oq$k0" />
              <node concept="3CFZ6_" id="2_c7diShv9j" role="2OqNvi">
                <node concept="3CFYIy" id="2_c7diShv9m" role="3CFYIz">
                  <ref role="3CFYIx" to="cgfx:2_c7diSgNbA" resolve="ThreadSafe" />
                </node>
              </node>
            </node>
          </node>
        </node>
      </node>
    </node>
    <node concept="zTJ1e" id="2_c7diShw23" role="2ZfVeg">
      <node concept="3clFbS" id="2_c7diShw24" role="2VODD2">
        <node concept="3clFbF" id="2_c7diShw25" role="3cqZAp">
          <node concept="2OqwBi" id="2_c7diShw2l" role="3clFbG">
            <node concept="zTJq_" id="2_c7diShw26" role="2Oq$k0" />
            <node concept="1mIQ4w" id="2_c7diShw2q" role="2OqNvi">
              <node concept="chp4Y" id="2_c7diShw2s" role="cj9EA">
                <ref role="cht4Q" to="cgfx:2_c7diSgNbA" resolve="ThreadSafe" />
              </node>
            </node>
          </node>
        </node>
      </node>
    </node>
  </node>
  <node concept="2S6QgY" id="4ERQEDB1Bxa">
    <property role="2ZfUl0" value="true" />
    <property role="TrG5h" value="MarkInstanceMethodCallAsThreadSafe" />
    <ref role="2ZfgGC" to="tpee:hqOqwz4" resolve="DotExpression" />
    <node concept="2S6ZIM" id="4ERQEDB1Bxb" role="2ZfVej">
      <node concept="3clFbS" id="4ERQEDB1Bxc" role="2VODD2">
        <node concept="3clFbF" id="4ERQEDB1Bxf" role="3cqZAp">
          <node concept="Xl_RD" id="4ERQEDB1Bxg" role="3clFbG">
            <property role="Xl_RC" value="Mark as Thread Safe" />
          </node>
        </node>
      </node>
    </node>
    <node concept="2Sbjvc" id="4ERQEDB1Bxd" role="2ZfgGD">
      <node concept="3clFbS" id="4ERQEDB1Bxe" role="2VODD2">
        <node concept="3clFbF" id="4ERQEDB1Bxl" role="3cqZAp">
          <node concept="2OqwBi" id="4ERQEDB1BxX" role="3clFbG">
            <node concept="2OqwBi" id="4ERQEDB1Bx_" role="2Oq$k0">
              <node concept="2Sf5sV" id="4ERQEDB1Mx0" role="2Oq$k0" />
              <node concept="3CFZ6_" id="4ERQEDB1BxE" role="2OqNvi">
                <node concept="3CFYIy" id="4ERQEDB1BxH" role="3CFYIz">
                  <ref role="3CFYIx" to="cgfx:2_c7diSgNbA" resolve="ThreadSafe" />
                </node>
              </node>
            </node>
            <node concept="2oxUTD" id="4ERQEDB1By2" role="2OqNvi">
              <node concept="2ShNRf" id="4ERQEDB1By5" role="2oxUTC">
                <node concept="2fJWfE" id="4ERQEDB1By8" role="2ShVmc">
                  <node concept="3Tqbb2" id="4ERQEDB1By9" role="3zrR0E">
                    <ref role="ehGHo" to="cgfx:2_c7diSgNbA" resolve="ThreadSafe" />
                  </node>
                </node>
              </node>
            </node>
          </node>
        </node>
      </node>
    </node>
    <node concept="2SaL7w" id="4ERQEDB1Bxh" role="2ZfVeh">
      <node concept="3clFbS" id="4ERQEDB1Bxi" role="2VODD2">
        <node concept="3clFbF" id="4ERQEDB1C$W" role="3cqZAp">
          <node concept="1Wc70l" id="4ERQEDB1C_Z" role="3clFbG">
            <node concept="2OqwBi" id="4ERQEDB1C_y" role="3uHU7B">
              <node concept="2OqwBi" id="4ERQEDB1Mx4" role="2Oq$k0">
                <node concept="2Sf5sV" id="4ERQEDB1Mx5" role="2Oq$k0" />
                <node concept="3TrEf2" id="4ERQEDB1Mx6" role="2OqNvi">
                  <ref role="3Tt5mk" to="tpee:hqOqNr4" />
                </node>
              </node>
              <node concept="1mIQ4w" id="4ERQEDB1C_B" role="2OqNvi">
                <node concept="chp4Y" id="4ERQEDB1C_D" role="cj9EA">
                  <ref role="cht4Q" to="tpee:hwliAcM" resolve="InstanceMethodCallOperation" />
                </node>
              </node>
            </node>
            <node concept="3clFbC" id="4ERQEDB1ByN" role="3uHU7w">
              <node concept="10Nm6u" id="4ERQEDB1ByQ" role="3uHU7w" />
              <node concept="2OqwBi" id="4ERQEDB1Byr" role="3uHU7B">
                <node concept="2Sf5sV" id="4ERQEDB1Mx3" role="2Oq$k0" />
                <node concept="3CFZ6_" id="4ERQEDB1Byw" role="2OqNvi">
                  <node concept="3CFYIy" id="4ERQEDB1Byz" role="3CFYIz">
                    <ref role="3CFYIx" to="cgfx:2_c7diSgNbA" resolve="ThreadSafe" />
                  </node>
                </node>
              </node>
            </node>
          </node>
        </node>
      </node>
    </node>
    <node concept="zTJ1e" id="4ERQEDB1Doh" role="2ZfVeg">
      <node concept="3clFbS" id="4ERQEDB1Doi" role="2VODD2">
        <node concept="3clFbF" id="4ERQEDB1Doj" role="3cqZAp">
          <node concept="3clFbC" id="4ERQEDB1Dpc" role="3clFbG">
            <node concept="2Sf5sV" id="4ERQEDB1Dpf" role="3uHU7w" />
            <node concept="2OqwBi" id="4ERQEDB1DoR" role="3uHU7B">
              <node concept="zTJq_" id="4ERQEDB1DoC" role="2Oq$k0" />
              <node concept="1mfA1w" id="4ERQEDB1DoW" role="2OqNvi" />
            </node>
          </node>
        </node>
      </node>
    </node>
  </node>
  <node concept="2S6QgY" id="4ERQEDB1DEK">
    <property role="2ZfUl0" value="true" />
    <property role="TrG5h" value="MarkStaticMethodCallAsThreadSafe" />
    <ref role="2ZfgGC" to="tpee:fIYIFW9" resolve="StaticMethodCall" />
    <node concept="2S6ZIM" id="4ERQEDB1DEL" role="2ZfVej">
      <node concept="3clFbS" id="4ERQEDB1DEM" role="2VODD2">
        <node concept="3clFbF" id="4ERQEDB1DEN" role="3cqZAp">
          <node concept="Xl_RD" id="4ERQEDB1DEO" role="3clFbG">
            <property role="Xl_RC" value="Mark as Thread Safe" />
          </node>
        </node>
      </node>
    </node>
    <node concept="2Sbjvc" id="4ERQEDB1DEP" role="2ZfgGD">
      <node concept="3clFbS" id="4ERQEDB1DEQ" role="2VODD2">
        <node concept="3clFbF" id="4ERQEDB1DER" role="3cqZAp">
          <node concept="2OqwBi" id="4ERQEDB1DES" role="3clFbG">
            <node concept="2OqwBi" id="4ERQEDB1DET" role="2Oq$k0">
              <node concept="2Sf5sV" id="4ERQEDB1DFD" role="2Oq$k0" />
              <node concept="3CFZ6_" id="4ERQEDB1DEY" role="2OqNvi">
                <node concept="3CFYIy" id="4ERQEDB1DEZ" role="3CFYIz">
                  <ref role="3CFYIx" to="cgfx:2_c7diSgNbA" resolve="ThreadSafe" />
                </node>
              </node>
            </node>
            <node concept="2oxUTD" id="4ERQEDB1DF0" role="2OqNvi">
              <node concept="2ShNRf" id="4ERQEDB1DF1" role="2oxUTC">
                <node concept="2fJWfE" id="4ERQEDB1DF2" role="2ShVmc">
                  <node concept="3Tqbb2" id="4ERQEDB1DF3" role="3zrR0E">
                    <ref role="ehGHo" to="cgfx:2_c7diSgNbA" resolve="ThreadSafe" />
                  </node>
                </node>
              </node>
            </node>
          </node>
        </node>
      </node>
    </node>
    <node concept="2SaL7w" id="4ERQEDB1DF4" role="2ZfVeh">
      <node concept="3clFbS" id="4ERQEDB1DF5" role="2VODD2">
        <node concept="3clFbF" id="4ERQEDB1DFc" role="3cqZAp">
          <node concept="3clFbC" id="4ERQEDB1DFi" role="3clFbG">
            <node concept="10Nm6u" id="4ERQEDB1DFj" role="3uHU7w" />
            <node concept="2OqwBi" id="4ERQEDB1DFk" role="3uHU7B">
              <node concept="2Sf5sV" id="4ERQEDB1DFA" role="2Oq$k0" />
              <node concept="3CFZ6_" id="4ERQEDB1DFn" role="2OqNvi">
                <node concept="3CFYIy" id="4ERQEDB1DFo" role="3CFYIz">
                  <ref role="3CFYIx" to="cgfx:2_c7diSgNbA" resolve="ThreadSafe" />
                </node>
              </node>
            </node>
          </node>
        </node>
      </node>
    </node>
    <node concept="zTJ1e" id="4ERQEDB1DFp" role="2ZfVeg">
      <node concept="3clFbS" id="4ERQEDB1DFq" role="2VODD2">
        <node concept="3clFbF" id="4ERQEDB1DFr" role="3cqZAp">
          <node concept="3clFbC" id="4ERQEDB1DFs" role="3clFbG">
            <node concept="2Sf5sV" id="4ERQEDB1DFt" role="3uHU7w" />
            <node concept="2OqwBi" id="4ERQEDB1DFu" role="3uHU7B">
              <node concept="zTJq_" id="4ERQEDB1DFv" role="2Oq$k0" />
              <node concept="1mfA1w" id="4ERQEDB1DFw" role="2OqNvi" />
            </node>
          </node>
        </node>
      </node>
    </node>
  </node>
  <node concept="2S6QgY" id="4ERQEDB1EI9">
    <property role="2ZfUl0" value="true" />
    <property role="TrG5h" value="UnmarkStaticMethodCallAsThreadSafe" />
    <ref role="2ZfgGC" to="tpee:fIYIFW9" resolve="StaticMethodCall" />
    <node concept="2S6ZIM" id="4ERQEDB1EIa" role="2ZfVej">
      <node concept="3clFbS" id="4ERQEDB1EIb" role="2VODD2">
        <node concept="3clFbF" id="4ERQEDB1EIc" role="3cqZAp">
          <node concept="Xl_RD" id="4ERQEDB1EId" role="3clFbG">
            <property role="Xl_RC" value="Unmark as Thread Safe" />
          </node>
        </node>
      </node>
    </node>
    <node concept="2Sbjvc" id="4ERQEDB1EIe" role="2ZfgGD">
      <node concept="3clFbS" id="4ERQEDB1EIf" role="2VODD2">
        <node concept="3clFbF" id="4ERQEDB1EIg" role="3cqZAp">
          <node concept="2OqwBi" id="4ERQEDB1EIh" role="3clFbG">
            <node concept="2OqwBi" id="4ERQEDB1EIi" role="2Oq$k0">
              <node concept="2Sf5sV" id="4ERQEDB1EIj" role="2Oq$k0" />
              <node concept="3CFZ6_" id="4ERQEDB1EIk" role="2OqNvi">
                <node concept="3CFYIy" id="4ERQEDB1EIl" role="3CFYIz">
                  <ref role="3CFYIx" to="cgfx:2_c7diSgNbA" resolve="ThreadSafe" />
                </node>
              </node>
            </node>
            <node concept="2oxUTD" id="4ERQEDB1EIm" role="2OqNvi">
              <node concept="10Nm6u" id="4ERQEDB1EIU" role="2oxUTC" />
            </node>
          </node>
        </node>
      </node>
    </node>
    <node concept="2SaL7w" id="4ERQEDB1EIq" role="2ZfVeh">
      <node concept="3clFbS" id="4ERQEDB1EIr" role="2VODD2">
        <node concept="3clFbF" id="4ERQEDB1EIs" role="3cqZAp">
          <node concept="3y3z36" id="4ERQEDB1EIM" role="3clFbG">
            <node concept="2OqwBi" id="4ERQEDB1EIN" role="3uHU7B">
              <node concept="2Sf5sV" id="4ERQEDB1EIO" role="2Oq$k0" />
              <node concept="3CFZ6_" id="4ERQEDB1EIP" role="2OqNvi">
                <node concept="3CFYIy" id="4ERQEDB1EIQ" role="3CFYIz">
                  <ref role="3CFYIx" to="cgfx:2_c7diSgNbA" resolve="ThreadSafe" />
                </node>
              </node>
            </node>
            <node concept="10Nm6u" id="4ERQEDB1EIR" role="3uHU7w" />
          </node>
        </node>
      </node>
    </node>
    <node concept="zTJ1e" id="4ERQEDB1EIz" role="2ZfVeg">
      <node concept="3clFbS" id="4ERQEDB1EI$" role="2VODD2">
        <node concept="3clFbF" id="4ERQEDB1EI_" role="3cqZAp">
          <node concept="3clFbC" id="4ERQEDB1EIA" role="3clFbG">
            <node concept="2Sf5sV" id="4ERQEDB1EIB" role="3uHU7w" />
            <node concept="2OqwBi" id="4ERQEDB1EIC" role="3uHU7B">
              <node concept="zTJq_" id="4ERQEDB1EID" role="2Oq$k0" />
              <node concept="1mfA1w" id="4ERQEDB1EIE" role="2OqNvi" />
            </node>
          </node>
        </node>
      </node>
    </node>
  </node>
  <node concept="2S6QgY" id="4ERQEDB1F6b">
    <property role="TrG5h" value="TurnToForEachStatement" />
    <ref role="2ZfgGC" to="cgfx:7Joh5OuxR2E" resolve="ParallelFor" />
    <node concept="2S6ZIM" id="4ERQEDB1F6c" role="2ZfVej">
      <node concept="3clFbS" id="4ERQEDB1F6d" role="2VODD2">
        <node concept="3clFbF" id="4ERQEDB1F6g" role="3cqZAp">
          <node concept="Xl_RD" id="4ERQEDB1F6h" role="3clFbG">
            <property role="Xl_RC" value="Turn to Sequential" />
          </node>
        </node>
      </node>
    </node>
    <node concept="2Sbjvc" id="4ERQEDB1F6e" role="2ZfgGD">
      <node concept="3clFbS" id="4ERQEDB1F6f" role="2VODD2">
        <node concept="3cpWs8" id="4ERQEDB1F6p" role="3cqZAp">
          <node concept="3cpWsn" id="4ERQEDB1F6q" role="3cpWs9">
            <property role="TrG5h" value="forStatement" />
            <node concept="3Tqbb2" id="4ERQEDB1F6r" role="1tU5fm">
              <ref role="ehGHo" to="tp2q:gMGpvep" resolve="ForEachStatement" />
            </node>
            <node concept="2ShNRf" id="4ERQEDB1F6s" role="33vP2m">
              <node concept="2fJWfE" id="4ERQEDB1F6t" role="2ShVmc">
                <node concept="3Tqbb2" id="4ERQEDB1F6u" role="3zrR0E">
                  <ref role="ehGHo" to="tp2q:gMGpvep" resolve="ForEachStatement" />
                </node>
              </node>
            </node>
          </node>
        </node>
        <node concept="3cpWs8" id="4ERQEDB1F7_" role="3cqZAp">
          <node concept="3cpWsn" id="4ERQEDB1F7A" role="3cpWs9">
            <property role="TrG5h" value="variable" />
            <node concept="3Tqbb2" id="4ERQEDB1F7B" role="1tU5fm">
              <ref role="ehGHo" to="tp2q:gMGrK_y" resolve="ForEachVariable" />
            </node>
            <node concept="2ShNRf" id="4ERQEDB1F7C" role="33vP2m">
              <node concept="2fJWfE" id="4ERQEDB1F7D" role="2ShVmc">
                <node concept="3Tqbb2" id="4ERQEDB1F7E" role="3zrR0E">
                  <ref role="ehGHo" to="tp2q:gMGrK_y" resolve="ForEachVariable" />
                </node>
              </node>
            </node>
          </node>
        </node>
        <node concept="3clFbF" id="4ERQEDB1F7w" role="3cqZAp">
          <node concept="37vLTI" id="4ERQEDB1F8f" role="3clFbG">
            <node concept="2OqwBi" id="4ERQEDB1F8Q" role="37vLTx">
              <node concept="2OqwBi" id="4ERQEDB1F8x" role="2Oq$k0">
                <node concept="2Sf5sV" id="4ERQEDB1F8i" role="2Oq$k0" />
                <node concept="3TrEf2" id="4ERQEDB1F8A" role="2OqNvi">
                  <ref role="3Tt5mk" to="cgfx:7Joh5Ouy132" />
                </node>
              </node>
              <node concept="3TrcHB" id="4ERQEDB1F8V" role="2OqNvi">
                <ref role="3TsBF5" to="tpck:h0TrG11" resolve="name" />
              </node>
            </node>
            <node concept="2OqwBi" id="4ERQEDB1F7U" role="37vLTJ">
              <node concept="37vLTw" id="3GM_nagTBtG" role="2Oq$k0">
                <ref role="3cqZAo" node="4ERQEDB1F7A" resolve="variable" />
              </node>
              <node concept="3TrcHB" id="4ERQEDB1F7Z" role="2OqNvi">
                <ref role="3TsBF5" to="tpck:h0TrG11" resolve="name" />
              </node>
            </node>
          </node>
        </node>
        <node concept="3clFbF" id="4ERQEDB1F6i" role="3cqZAp">
          <node concept="37vLTI" id="4ERQEDB1F76" role="3clFbG">
            <node concept="37vLTw" id="3GM_nagTC0X" role="37vLTx">
              <ref role="3cqZAo" node="4ERQEDB1F7A" resolve="variable" />
            </node>
            <node concept="2OqwBi" id="4ERQEDB1F6I" role="37vLTJ">
              <node concept="37vLTw" id="3GM_nagTysq" role="2Oq$k0">
                <ref role="3cqZAo" node="4ERQEDB1F6q" resolve="forStatement" />
              </node>
              <node concept="3TrEf2" id="4ERQEDB1F6Q" role="2OqNvi">
                <ref role="3Tt5mk" to="tp2q:gMGsz7L" />
              </node>
            </node>
          </node>
        </node>
        <node concept="3clFbF" id="4ERQEDB1F8Z" role="3cqZAp">
          <node concept="37vLTI" id="4ERQEDB1F9_" role="3clFbG">
            <node concept="2OqwBi" id="4ERQEDB1F9R" role="37vLTx">
              <node concept="2Sf5sV" id="4ERQEDB1F9C" role="2Oq$k0" />
              <node concept="3TrEf2" id="4ERQEDB1F9X" role="2OqNvi">
                <ref role="3Tt5mk" to="cgfx:7Joh5Ouy8LY" />
              </node>
            </node>
            <node concept="2OqwBi" id="4ERQEDB1F9f" role="37vLTJ">
              <node concept="37vLTw" id="3GM_nagTtnx" role="2Oq$k0">
                <ref role="3cqZAo" node="4ERQEDB1F6q" resolve="forStatement" />
              </node>
              <node concept="3TrEf2" id="4ERQEDB1F9l" role="2OqNvi">
                <ref role="3Tt5mk" to="tp2q:gMGsD4q" />
              </node>
            </node>
          </node>
        </node>
        <node concept="3clFbF" id="4ERQEDB1Fzq" role="3cqZAp">
          <node concept="2OqwBi" id="4ERQEDB1F_J" role="3clFbG">
            <node concept="2OqwBi" id="4ERQEDB1F$n" role="2Oq$k0">
              <node concept="2OqwBi" id="AVI$K8_YX7" role="2Oq$k0">
                <node concept="2OqwBi" id="AVI$K8_YX8" role="2Oq$k0">
                  <node concept="2OqwBi" id="AVI$K8_YX9" role="2Oq$k0">
                    <node concept="2OqwBi" id="AVI$K8_YXa" role="2Oq$k0">
                      <node concept="2Sf5sV" id="AVI$K8_YXb" role="2Oq$k0" />
                      <node concept="3TrEf2" id="AVI$K8_YXc" role="2OqNvi">
                        <ref role="3Tt5mk" to="tpee:gMLFqrC" />
                      </node>
                    </node>
                    <node concept="2Rf3mk" id="AVI$K8_YXd" role="2OqNvi">
                      <node concept="1xMEDy" id="AVI$K8_YXe" role="1xVPHs">
                        <node concept="chp4Y" id="AVI$K8_YXf" role="ri$Ld">
                          <ref role="cht4Q" to="tpee:fz7vLUo" resolve="VariableReference" />
                        </node>
                      </node>
                    </node>
                  </node>
                  <node concept="3zZkjj" id="AVI$K8_YXg" role="2OqNvi">
                    <node concept="1bVj0M" id="AVI$K8_YXh" role="23t8la">
                      <node concept="3clFbS" id="AVI$K8_YXi" role="1bW5cS">
                        <node concept="3clFbF" id="AVI$K8_YXj" role="3cqZAp">
                          <node concept="2OqwBi" id="AVI$K8_YXk" role="3clFbG">
                            <node concept="2OqwBi" id="AVI$K8_YXl" role="2Oq$k0">
                              <node concept="1PxgMI" id="AVI$K8_YXm" role="2Oq$k0">
                                <ref role="1m5ApE" to="tpee:fz7vLUo" resolve="VariableReference" />
                                <node concept="37vLTw" id="AVI$K8_YXn" role="1m5AlR">
                                  <ref role="3cqZAo" node="AVI$K8_YXr" resolve="it" />
                                </node>
                              </node>
                              <node concept="3TrEf2" id="AVI$K8_YXo" role="2OqNvi">
                                <ref role="3Tt5mk" to="tpee:fzcqZ_w" />
                              </node>
                            </node>
                            <node concept="1mIQ4w" id="AVI$K8_YXp" role="2OqNvi">
                              <node concept="chp4Y" id="AVI$K8_YXq" role="cj9EA">
                                <ref role="cht4Q" to="tpee:fzcpWvJ" resolve="LocalVariableDeclaration" />
                              </node>
                            </node>
                          </node>
                        </node>
                      </node>
                      <node concept="Rh6nW" id="AVI$K8_YXr" role="1bW2Oz">
                        <property role="TrG5h" value="it" />
                        <node concept="2jxLKc" id="AVI$K8_YXs" role="1tU5fm" />
                      </node>
                    </node>
                  </node>
                </node>
                <node concept="ANE8D" id="AVI$K8_YXt" role="2OqNvi" />
              </node>
              <node concept="3zZkjj" id="4ERQEDB1F$s" role="2OqNvi">
                <node concept="1bVj0M" id="4ERQEDB1F$t" role="23t8la">
                  <node concept="3clFbS" id="4ERQEDB1F$u" role="1bW5cS">
                    <node concept="3clFbF" id="4ERQEDB1F$x" role="3cqZAp">
                      <node concept="3clFbC" id="4ERQEDB1F_7" role="3clFbG">
                        <node concept="2OqwBi" id="4ERQEDB1F_p" role="3uHU7w">
                          <node concept="2Sf5sV" id="4ERQEDB1F_a" role="2Oq$k0" />
                          <node concept="3TrEf2" id="4ERQEDB1F_v" role="2OqNvi">
                            <ref role="3Tt5mk" to="cgfx:7Joh5Ouy132" />
                          </node>
                        </node>
                        <node concept="2OqwBi" id="4ERQEDB1F$L" role="3uHU7B">
                          <node concept="37vLTw" id="2BHiRxgm8OK" role="2Oq$k0">
                            <ref role="3cqZAo" node="4ERQEDB1F$v" resolve="it" />
                          </node>
                          <node concept="3TrEf2" id="4ERQEDB1F$R" role="2OqNvi">
                            <ref role="3Tt5mk" to="tpee:fzcqZ_w" />
                          </node>
                        </node>
                      </node>
                    </node>
                  </node>
                  <node concept="Rh6nW" id="4ERQEDB1F$v" role="1bW2Oz">
                    <property role="TrG5h" value="it" />
                    <node concept="2jxLKc" id="4ERQEDB1F$w" role="1tU5fm" />
                  </node>
                </node>
              </node>
            </node>
            <node concept="2es0OD" id="4ERQEDB1F_P" role="2OqNvi">
              <node concept="1bVj0M" id="4ERQEDB1F_Q" role="23t8la">
                <node concept="3clFbS" id="4ERQEDB1F_R" role="1bW5cS">
                  <node concept="3cpWs8" id="4ERQEDB1Kom" role="3cqZAp">
                    <node concept="3cpWsn" id="4ERQEDB1Kon" role="3cpWs9">
                      <property role="TrG5h" value="newReference" />
                      <node concept="3Tqbb2" id="4ERQEDB1Koo" role="1tU5fm">
                        <ref role="ehGHo" to="tp2q:gMGrUn3" resolve="ForEachVariableReference" />
                      </node>
                      <node concept="2ShNRf" id="4ERQEDB1Kop" role="33vP2m">
                        <node concept="2fJWfE" id="4ERQEDB1Koq" role="2ShVmc">
                          <node concept="3Tqbb2" id="4ERQEDB1Kor" role="3zrR0E">
                            <ref role="ehGHo" to="tp2q:gMGrUn3" resolve="ForEachVariableReference" />
                          </node>
                        </node>
                      </node>
                    </node>
                  </node>
                  <node concept="3clFbF" id="4ERQEDB1Koh" role="3cqZAp">
                    <node concept="37vLTI" id="4ERQEDB1Kp2" role="3clFbG">
                      <node concept="37vLTw" id="3GM_nagTxAy" role="37vLTx">
                        <ref role="3cqZAo" node="4ERQEDB1F7A" resolve="variable" />
                      </node>
                      <node concept="2OqwBi" id="4ERQEDB1KoF" role="37vLTJ">
                        <node concept="37vLTw" id="3GM_nagTsKN" role="2Oq$k0">
                          <ref role="3cqZAo" node="4ERQEDB1Kon" resolve="newReference" />
                        </node>
                        <node concept="3TrEf2" id="4ERQEDB1KoM" role="2OqNvi">
                          <ref role="3Tt5mk" to="tp2q:gMGs0uU" />
                        </node>
                      </node>
                    </node>
                  </node>
                  <node concept="3clFbF" id="4ERQEDB1Kp7" role="3cqZAp">
                    <node concept="2OqwBi" id="4ERQEDB1Kpn" role="3clFbG">
                      <node concept="37vLTw" id="2BHiRxghfhs" role="2Oq$k0">
                        <ref role="3cqZAo" node="4ERQEDB1F_S" resolve="it" />
                      </node>
                      <node concept="1P9Npp" id="4ERQEDB1Kpt" role="2OqNvi">
                        <node concept="37vLTw" id="3GM_nagT_Uh" role="1P9ThW">
                          <ref role="3cqZAo" node="4ERQEDB1Kon" resolve="newReference" />
                        </node>
                      </node>
                    </node>
                  </node>
                </node>
                <node concept="Rh6nW" id="4ERQEDB1F_S" role="1bW2Oz">
                  <property role="TrG5h" value="it" />
                  <node concept="2jxLKc" id="4ERQEDB1F_T" role="1tU5fm" />
                </node>
              </node>
            </node>
          </node>
        </node>
        <node concept="3clFbF" id="4ERQEDB1F9Z" role="3cqZAp">
          <node concept="37vLTI" id="4ERQEDB1Fa$" role="3clFbG">
            <node concept="2OqwBi" id="4ERQEDB1FaQ" role="37vLTx">
              <node concept="2Sf5sV" id="4ERQEDB1FaB" role="2Oq$k0" />
              <node concept="3TrEf2" id="4ERQEDB1FaV" role="2OqNvi">
                <ref role="3Tt5mk" to="tpee:gMLFqrC" />
              </node>
            </node>
            <node concept="2OqwBi" id="4ERQEDB1Faf" role="37vLTJ">
              <node concept="37vLTw" id="3GM_nagT$sL" role="2Oq$k0">
                <ref role="3cqZAo" node="4ERQEDB1F6q" resolve="forStatement" />
              </node>
              <node concept="3TrEf2" id="4ERQEDB1Fak" role="2OqNvi">
                <ref role="3Tt5mk" to="tpee:gMLFqrC" />
              </node>
            </node>
          </node>
        </node>
        <node concept="3clFbF" id="4ERQEDB1FaX" role="3cqZAp">
          <node concept="2OqwBi" id="4ERQEDB1Fbd" role="3clFbG">
            <node concept="2Sf5sV" id="4ERQEDB1FaY" role="2Oq$k0" />
            <node concept="1P9Npp" id="4ERQEDB1Fbj" role="2OqNvi">
              <node concept="37vLTw" id="3GM_nagTA5n" role="1P9ThW">
                <ref role="3cqZAo" node="4ERQEDB1F6q" resolve="forStatement" />
              </node>
            </node>
          </node>
        </node>
        <node concept="3clFbF" id="32jmVfUB5qQ" role="3cqZAp">
          <node concept="2OqwBi" id="32jmVfUB5r6" role="3clFbG">
            <node concept="1XNTG" id="32jmVfUB5qR" role="2Oq$k0" />
            <node concept="liA8E" id="32jmVfUB5rc" role="2OqNvi">
              <ref role="37wK5l" to="cj4x:~EditorContext.selectWRTFocusPolicy(org.jetbrains.mps.openapi.model.SNode):void" resolve="selectWRTFocusPolicy" />
              <node concept="37vLTw" id="3GM_nagT$im" role="37wK5m">
                <ref role="3cqZAo" node="4ERQEDB1F7A" resolve="variable" />
              </node>
            </node>
          </node>
        </node>
      </node>
    </node>
  </node>
  <node concept="2S6QgY" id="4ERQEDB1Leo">
    <property role="TrG5h" value="TurnToParallelForEachStatement" />
    <ref role="2ZfgGC" to="tp2q:gMGpvep" resolve="ForEachStatement" />
    <node concept="2S6ZIM" id="4ERQEDB1Lep" role="2ZfVej">
      <node concept="3clFbS" id="4ERQEDB1Leq" role="2VODD2">
        <node concept="3clFbF" id="4ERQEDB1Ler" role="3cqZAp">
          <node concept="Xl_RD" id="4ERQEDB1Les" role="3clFbG">
            <property role="Xl_RC" value="Turn to Parallel" />
          </node>
        </node>
      </node>
    </node>
    <node concept="2Sbjvc" id="4ERQEDB1Let" role="2ZfgGD">
      <node concept="3clFbS" id="4ERQEDB1Leu" role="2VODD2">
        <node concept="3cpWs8" id="4ERQEDB1Lev" role="3cqZAp">
          <node concept="3cpWsn" id="4ERQEDB1Lew" role="3cpWs9">
            <property role="TrG5h" value="parallelFor" />
            <node concept="3Tqbb2" id="4ERQEDB1Lex" role="1tU5fm">
              <ref role="ehGHo" to="cgfx:7Joh5OuxR2E" resolve="ParallelFor" />
            </node>
            <node concept="2ShNRf" id="4ERQEDB1Ley" role="33vP2m">
              <node concept="2fJWfE" id="4ERQEDB1Lez" role="2ShVmc">
                <node concept="3Tqbb2" id="4ERQEDB1Le$" role="3zrR0E">
                  <ref role="ehGHo" to="cgfx:7Joh5OuxR2E" resolve="ParallelFor" />
                </node>
              </node>
            </node>
          </node>
        </node>
        <node concept="3cpWs8" id="4ERQEDB1Le_" role="3cqZAp">
          <node concept="3cpWsn" id="4ERQEDB1LeA" role="3cpWs9">
            <property role="TrG5h" value="variable" />
            <node concept="3Tqbb2" id="4ERQEDB1LeB" role="1tU5fm">
              <ref role="ehGHo" to="cgfx:7Joh5OuxR2F" resolve="ParallelLoopVariable" />
            </node>
            <node concept="2ShNRf" id="4ERQEDB1LeC" role="33vP2m">
              <node concept="2fJWfE" id="4ERQEDB1LeD" role="2ShVmc">
                <node concept="3Tqbb2" id="4ERQEDB1LeE" role="3zrR0E">
                  <ref role="ehGHo" to="cgfx:7Joh5OuxR2F" resolve="ParallelLoopVariable" />
                </node>
              </node>
            </node>
          </node>
        </node>
        <node concept="3clFbF" id="4ERQEDB1LeF" role="3cqZAp">
          <node concept="37vLTI" id="4ERQEDB1LeG" role="3clFbG">
            <node concept="2OqwBi" id="4ERQEDB1LeH" role="37vLTx">
              <node concept="2OqwBi" id="4ERQEDB1LeI" role="2Oq$k0">
                <node concept="2Sf5sV" id="4ERQEDB1LeJ" role="2Oq$k0" />
                <node concept="3TrEf2" id="4ERQEDB1LfY" role="2OqNvi">
                  <ref role="3Tt5mk" to="tp2q:gMGsz7L" />
                </node>
              </node>
              <node concept="3TrcHB" id="4ERQEDB1LeL" role="2OqNvi">
                <ref role="3TsBF5" to="tpck:h0TrG11" resolve="name" />
              </node>
            </node>
            <node concept="2OqwBi" id="4ERQEDB1LeM" role="37vLTJ">
              <node concept="37vLTw" id="3GM_nagTua3" role="2Oq$k0">
                <ref role="3cqZAo" node="4ERQEDB1LeA" resolve="variable" />
              </node>
              <node concept="3TrcHB" id="4ERQEDB1LeO" role="2OqNvi">
                <ref role="3TsBF5" to="tpck:h0TrG11" resolve="name" />
              </node>
            </node>
          </node>
        </node>
        <node concept="3clFbF" id="4ERQEDB1LIz" role="3cqZAp">
          <node concept="37vLTI" id="4ERQEDB1Mw0" role="3clFbG">
            <node concept="2OqwBi" id="32jmVfUAMw3" role="37vLTx">
              <node concept="1PxgMI" id="32jmVfUAMwc" role="2Oq$k0">
                <ref role="1m5ApE" to="tpee:fz3vP1H" resolve="Type" />
                <node concept="2OqwBi" id="32jmVfUAMwd" role="1m5AlR">
                  <node concept="2OqwBi" id="32jmVfUAMwe" role="2Oq$k0">
                    <node concept="2Sf5sV" id="32jmVfUAMwf" role="2Oq$k0" />
                    <node concept="3TrEf2" id="32jmVfUAMwg" role="2OqNvi">
                      <ref role="3Tt5mk" to="tp2q:gMGsz7L" />
                    </node>
                  </node>
                  <node concept="3JvlWi" id="32jmVfUAMwh" role="2OqNvi" />
                </node>
              </node>
              <node concept="1$rogu" id="32jmVfUAMw9" role="2OqNvi" />
            </node>
            <node concept="2OqwBi" id="4ERQEDB1LIN" role="37vLTJ">
              <node concept="37vLTw" id="3GM_nagTtEt" role="2Oq$k0">
                <ref role="3cqZAo" node="4ERQEDB1LeA" resolve="variable" />
              </node>
              <node concept="3TrEf2" id="4ERQEDB1LIT" role="2OqNvi">
                <ref role="3Tt5mk" to="tpee:4VkOLwjf83e" />
              </node>
            </node>
          </node>
        </node>
        <node concept="3clFbF" id="4ERQEDB1LeP" role="3cqZAp">
          <node concept="37vLTI" id="4ERQEDB1LeQ" role="3clFbG">
            <node concept="37vLTw" id="3GM_nagTyKY" role="37vLTx">
              <ref role="3cqZAo" node="4ERQEDB1LeA" resolve="variable" />
            </node>
            <node concept="2OqwBi" id="4ERQEDB1LeS" role="37vLTJ">
              <node concept="37vLTw" id="3GM_nagTBMF" role="2Oq$k0">
                <ref role="3cqZAo" node="4ERQEDB1Lew" resolve="parallelFor" />
              </node>
              <node concept="3TrEf2" id="4ERQEDB1Lg1" role="2OqNvi">
                <ref role="3Tt5mk" to="cgfx:7Joh5Ouy132" />
              </node>
            </node>
          </node>
        </node>
        <node concept="3clFbF" id="4ERQEDB1LeV" role="3cqZAp">
          <node concept="37vLTI" id="4ERQEDB1LeW" role="3clFbG">
            <node concept="2OqwBi" id="4ERQEDB1LLF" role="37vLTx">
              <node concept="2Sf5sV" id="4ERQEDB1LLs" role="2Oq$k0" />
              <node concept="3TrEf2" id="4ERQEDB1LLL" role="2OqNvi">
                <ref role="3Tt5mk" to="tp2q:gMGsD4q" />
              </node>
            </node>
            <node concept="2OqwBi" id="4ERQEDB1Lf0" role="37vLTJ">
              <node concept="37vLTw" id="3GM_nagT$Tt" role="2Oq$k0">
                <ref role="3cqZAo" node="4ERQEDB1Lew" resolve="parallelFor" />
              </node>
              <node concept="3TrEf2" id="4ERQEDB1Lg4" role="2OqNvi">
                <ref role="3Tt5mk" to="cgfx:7Joh5Ouy8LY" />
              </node>
            </node>
          </node>
        </node>
        <node concept="3clFbF" id="4ERQEDB1Lf3" role="3cqZAp">
          <node concept="2OqwBi" id="4ERQEDB1Lf4" role="3clFbG">
            <node concept="2OqwBi" id="4ERQEDB1Lf5" role="2Oq$k0">
              <node concept="2OqwBi" id="4ERQEDB1Lf6" role="2Oq$k0">
                <node concept="2OqwBi" id="4ERQEDB1Lf7" role="2Oq$k0">
                  <node concept="2Sf5sV" id="4ERQEDB1Lf8" role="2Oq$k0" />
                  <node concept="3TrEf2" id="4ERQEDB1Lf9" role="2OqNvi">
                    <ref role="3Tt5mk" to="tpee:gMLFqrC" />
                  </node>
                </node>
                <node concept="2Rf3mk" id="4ERQEDB1Lfa" role="2OqNvi">
                  <node concept="1xMEDy" id="4ERQEDB1Lfb" role="1xVPHs">
                    <node concept="chp4Y" id="4ERQEDB1Lg7" role="ri$Ld">
                      <ref role="cht4Q" to="tp2q:gMGrUn3" resolve="ForEachVariableReference" />
                    </node>
                  </node>
                </node>
              </node>
              <node concept="3zZkjj" id="4ERQEDB1Lfd" role="2OqNvi">
                <node concept="1bVj0M" id="4ERQEDB1Lfe" role="23t8la">
                  <node concept="3clFbS" id="4ERQEDB1Lff" role="1bW5cS">
                    <node concept="3clFbF" id="4ERQEDB1Lfg" role="3cqZAp">
                      <node concept="3clFbC" id="4ERQEDB1Lfh" role="3clFbG">
                        <node concept="2OqwBi" id="4ERQEDB1Lfi" role="3uHU7w">
                          <node concept="2Sf5sV" id="4ERQEDB1Lfj" role="2Oq$k0" />
                          <node concept="3TrEf2" id="4ERQEDB1Lgc" role="2OqNvi">
                            <ref role="3Tt5mk" to="tp2q:gMGsz7L" />
                          </node>
                        </node>
                        <node concept="2OqwBi" id="4ERQEDB1Lfl" role="3uHU7B">
                          <node concept="37vLTw" id="2BHiRxgmFmw" role="2Oq$k0">
                            <ref role="3cqZAo" node="4ERQEDB1Lfo" resolve="it" />
                          </node>
                          <node concept="3TrEf2" id="4ERQEDB1Lg9" role="2OqNvi">
                            <ref role="3Tt5mk" to="tp2q:gMGs0uU" />
                          </node>
                        </node>
                      </node>
                    </node>
                  </node>
                  <node concept="Rh6nW" id="4ERQEDB1Lfo" role="1bW2Oz">
                    <property role="TrG5h" value="it" />
                    <node concept="2jxLKc" id="4ERQEDB1Lfp" role="1tU5fm" />
                  </node>
                </node>
              </node>
            </node>
            <node concept="2es0OD" id="4ERQEDB1Lfq" role="2OqNvi">
              <node concept="1bVj0M" id="4ERQEDB1Lfr" role="23t8la">
                <node concept="3clFbS" id="4ERQEDB1Lfs" role="1bW5cS">
                  <node concept="3cpWs8" id="4ERQEDB1Lft" role="3cqZAp">
                    <node concept="3cpWsn" id="4ERQEDB1Lfu" role="3cpWs9">
                      <property role="TrG5h" value="newReference" />
                      <node concept="3Tqbb2" id="4ERQEDB1Lfv" role="1tU5fm">
                        <ref role="ehGHo" to="tpee:fz7vLUo" resolve="VariableReference" />
                      </node>
                      <node concept="2ShNRf" id="4ERQEDB1Lfw" role="33vP2m">
                        <node concept="2fJWfE" id="4ERQEDB1Lfx" role="2ShVmc">
                          <node concept="3Tqbb2" id="4ERQEDB1Lfy" role="3zrR0E">
                            <ref role="ehGHo" to="tpee:fz7vLUo" resolve="VariableReference" />
                          </node>
                        </node>
                      </node>
                    </node>
                  </node>
                  <node concept="3clFbF" id="4ERQEDB1Lfz" role="3cqZAp">
                    <node concept="37vLTI" id="4ERQEDB1Lf$" role="3clFbG">
                      <node concept="37vLTw" id="3GM_nagTBeu" role="37vLTx">
                        <ref role="3cqZAo" node="4ERQEDB1LeA" resolve="variable" />
                      </node>
                      <node concept="2OqwBi" id="4ERQEDB1LfA" role="37vLTJ">
                        <node concept="37vLTw" id="3GM_nagTxqw" role="2Oq$k0">
                          <ref role="3cqZAo" node="4ERQEDB1Lfu" resolve="newReference" />
                        </node>
                        <node concept="3TrEf2" id="4ERQEDB1Lgf" role="2OqNvi">
                          <ref role="3Tt5mk" to="tpee:fzcqZ_w" />
                        </node>
                      </node>
                    </node>
                  </node>
                  <node concept="3clFbF" id="4ERQEDB1LfD" role="3cqZAp">
                    <node concept="2OqwBi" id="4ERQEDB1LfE" role="3clFbG">
                      <node concept="37vLTw" id="2BHiRxgmE84" role="2Oq$k0">
                        <ref role="3cqZAo" node="4ERQEDB1LfI" resolve="it" />
                      </node>
                      <node concept="1P9Npp" id="4ERQEDB1LfG" role="2OqNvi">
                        <node concept="37vLTw" id="3GM_nagTt2w" role="1P9ThW">
                          <ref role="3cqZAo" node="4ERQEDB1Lfu" resolve="newReference" />
                        </node>
                      </node>
                    </node>
                  </node>
                </node>
                <node concept="Rh6nW" id="4ERQEDB1LfI" role="1bW2Oz">
                  <property role="TrG5h" value="it" />
                  <node concept="2jxLKc" id="4ERQEDB1LfJ" role="1tU5fm" />
                </node>
              </node>
            </node>
          </node>
        </node>
        <node concept="3clFbF" id="4ERQEDB1LfK" role="3cqZAp">
          <node concept="37vLTI" id="4ERQEDB1LfL" role="3clFbG">
            <node concept="2OqwBi" id="4ERQEDB1LfM" role="37vLTx">
              <node concept="2Sf5sV" id="4ERQEDB1LfN" role="2Oq$k0" />
              <node concept="3TrEf2" id="4ERQEDB1LfO" role="2OqNvi">
                <ref role="3Tt5mk" to="tpee:gMLFqrC" />
              </node>
            </node>
            <node concept="2OqwBi" id="4ERQEDB1LfP" role="37vLTJ">
              <node concept="37vLTw" id="3GM_nagT_1N" role="2Oq$k0">
                <ref role="3cqZAo" node="4ERQEDB1Lew" resolve="parallelFor" />
              </node>
              <node concept="3TrEf2" id="4ERQEDB1LfR" role="2OqNvi">
                <ref role="3Tt5mk" to="tpee:gMLFqrC" />
              </node>
            </node>
          </node>
        </node>
        <node concept="3clFbF" id="4ERQEDB1LfS" role="3cqZAp">
          <node concept="2OqwBi" id="4ERQEDB1LfT" role="3clFbG">
            <node concept="2Sf5sV" id="4ERQEDB1LfU" role="2Oq$k0" />
            <node concept="1P9Npp" id="4ERQEDB1LfV" role="2OqNvi">
              <node concept="37vLTw" id="3GM_nagTyNP" role="1P9ThW">
                <ref role="3cqZAo" node="4ERQEDB1Lew" resolve="parallelFor" />
              </node>
            </node>
          </node>
        </node>
        <node concept="3clFbF" id="32jmVfUAQuL" role="3cqZAp">
          <node concept="2OqwBi" id="32jmVfUAQx2" role="3clFbG">
            <node concept="1XNTG" id="32jmVfUAQuM" role="2Oq$k0" />
            <node concept="liA8E" id="32jmVfUAXB6" role="2OqNvi">
              <ref role="37wK5l" to="cj4x:~EditorContext.selectWRTFocusPolicy(org.jetbrains.mps.openapi.model.SNode):void" resolve="selectWRTFocusPolicy" />
              <node concept="37vLTw" id="3GM_nagTBBM" role="37wK5m">
                <ref role="3cqZAo" node="4ERQEDB1LeA" resolve="variable" />
              </node>
            </node>
          </node>
        </node>
      </node>
    </node>
    <node concept="2SaL7w" id="32jmVfUAELH" role="2ZfVeh">
      <node concept="3clFbS" id="32jmVfUAELI" role="2VODD2">
        <node concept="3clFbF" id="32jmVfUAELJ" role="3cqZAp">
          <node concept="17R0WA" id="2XA_ayKgEvi" role="3clFbG">
            <node concept="3B5_sB" id="2XA_ayKgEMk" role="3uHU7w">
              <ref role="3B5MYn" to="tpee:fz3vP1H" resolve="Type" />
            </node>
            <node concept="2OqwBi" id="32jmVfUAMuW" role="3uHU7B">
              <node concept="2OqwBi" id="32jmVfUAELZ" role="2Oq$k0">
                <node concept="2Sf5sV" id="32jmVfUAELK" role="2Oq$k0" />
                <node concept="3TrEf2" id="32jmVfUAMuG" role="2OqNvi">
                  <ref role="3Tt5mk" to="tp2q:gMGsz7L" />
                </node>
              </node>
              <node concept="3JvlWi" id="32jmVfUAMv1" role="2OqNvi" />
            </node>
          </node>
        </node>
      </node>
    </node>
  </node>
  <node concept="2S6QgY" id="4ERQEDB1N7_">
    <property role="2ZfUl0" value="true" />
    <property role="TrG5h" value="UnmarkInstanceMethodCallAsThreadSafe" />
    <ref role="2ZfgGC" to="tpee:hqOqwz4" resolve="DotExpression" />
    <node concept="2S6ZIM" id="4ERQEDB1N7A" role="2ZfVej">
      <node concept="3clFbS" id="4ERQEDB1N7B" role="2VODD2">
        <node concept="3clFbF" id="4ERQEDB1N7C" role="3cqZAp">
          <node concept="Xl_RD" id="4ERQEDB1N7D" role="3clFbG">
            <property role="Xl_RC" value="Unmark as Thread Safe" />
          </node>
        </node>
      </node>
    </node>
    <node concept="2Sbjvc" id="4ERQEDB1N7E" role="2ZfgGD">
      <node concept="3clFbS" id="4ERQEDB1N7F" role="2VODD2">
        <node concept="3clFbF" id="4ERQEDB1N7G" role="3cqZAp">
          <node concept="2OqwBi" id="4ERQEDB1N7H" role="3clFbG">
            <node concept="2OqwBi" id="4ERQEDB1N7I" role="2Oq$k0">
              <node concept="2Sf5sV" id="4ERQEDB1N7J" role="2Oq$k0" />
              <node concept="3CFZ6_" id="4ERQEDB1N7K" role="2OqNvi">
                <node concept="3CFYIy" id="4ERQEDB1N7L" role="3CFYIz">
                  <ref role="3CFYIx" to="cgfx:2_c7diSgNbA" resolve="ThreadSafe" />
                </node>
              </node>
            </node>
            <node concept="2oxUTD" id="4ERQEDB1N7M" role="2OqNvi">
              <node concept="10Nm6u" id="4ERQEDB1N8p" role="2oxUTC" />
            </node>
          </node>
        </node>
      </node>
    </node>
    <node concept="2SaL7w" id="4ERQEDB1N7Q" role="2ZfVeh">
      <node concept="3clFbS" id="4ERQEDB1N7R" role="2VODD2">
        <node concept="3clFbF" id="4ERQEDB1N7S" role="3cqZAp">
          <node concept="1Wc70l" id="4ERQEDB1N7T" role="3clFbG">
            <node concept="2OqwBi" id="4ERQEDB1N7U" role="3uHU7B">
              <node concept="2OqwBi" id="4ERQEDB1N7V" role="2Oq$k0">
                <node concept="2Sf5sV" id="4ERQEDB1N7W" role="2Oq$k0" />
                <node concept="3TrEf2" id="4ERQEDB1N7X" role="2OqNvi">
                  <ref role="3Tt5mk" to="tpee:hqOqNr4" />
                </node>
              </node>
              <node concept="1mIQ4w" id="4ERQEDB1N7Y" role="2OqNvi">
                <node concept="chp4Y" id="4ERQEDB1N7Z" role="cj9EA">
                  <ref role="cht4Q" to="tpee:hwliAcM" resolve="InstanceMethodCallOperation" />
                </node>
              </node>
            </node>
            <node concept="3y3z36" id="4ERQEDB1N8h" role="3uHU7w">
              <node concept="2OqwBi" id="4ERQEDB1N8i" role="3uHU7B">
                <node concept="2Sf5sV" id="4ERQEDB1N8j" role="2Oq$k0" />
                <node concept="3CFZ6_" id="4ERQEDB1N8k" role="2OqNvi">
                  <node concept="3CFYIy" id="4ERQEDB1N8l" role="3CFYIz">
                    <ref role="3CFYIx" to="cgfx:2_c7diSgNbA" resolve="ThreadSafe" />
                  </node>
                </node>
              </node>
              <node concept="10Nm6u" id="4ERQEDB1N8m" role="3uHU7w" />
            </node>
          </node>
        </node>
      </node>
    </node>
    <node concept="zTJ1e" id="4ERQEDB1N86" role="2ZfVeg">
      <node concept="3clFbS" id="4ERQEDB1N87" role="2VODD2">
        <node concept="3clFbF" id="4ERQEDB1N88" role="3cqZAp">
          <node concept="3clFbC" id="4ERQEDB1N89" role="3clFbG">
            <node concept="2Sf5sV" id="4ERQEDB1N8a" role="3uHU7w" />
            <node concept="2OqwBi" id="4ERQEDB1N8b" role="3uHU7B">
              <node concept="zTJq_" id="4ERQEDB1N8c" role="2Oq$k0" />
              <node concept="1mfA1w" id="4ERQEDB1N8d" role="2OqNvi" />
            </node>
          </node>
        </node>
      </node>
    </node>
  </node>
  <node concept="2S6QgY" id="34zgNsMHOiD">
    <property role="2ZfUl0" value="true" />
    <property role="TrG5h" value="MarkLocalStaticMethodCallAsThreadSafe" />
    <ref role="2ZfgGC" to="tpee:6LFqxSRBTg4" resolve="LocalMethodCall" />
    <node concept="2S6ZIM" id="34zgNsMHOiE" role="2ZfVej">
      <node concept="3clFbS" id="34zgNsMHOiF" role="2VODD2">
        <node concept="3clFbF" id="34zgNsMHOjA" role="3cqZAp">
          <node concept="Xl_RD" id="34zgNsMHOjB" role="3clFbG">
            <property role="Xl_RC" value="Mark as Thread Safe" />
          </node>
        </node>
      </node>
    </node>
    <node concept="2Sbjvc" id="34zgNsMHOiG" role="2ZfgGD">
      <node concept="3clFbS" id="34zgNsMHOiH" role="2VODD2">
        <node concept="3clFbF" id="34zgNsMHW80" role="3cqZAp">
          <node concept="2OqwBi" id="34zgNsMHW81" role="3clFbG">
            <node concept="2OqwBi" id="34zgNsMHW82" role="2Oq$k0">
              <node concept="2Sf5sV" id="34zgNsMHW83" role="2Oq$k0" />
              <node concept="3CFZ6_" id="34zgNsMHW84" role="2OqNvi">
                <node concept="3CFYIy" id="34zgNsMHW85" role="3CFYIz">
                  <ref role="3CFYIx" to="cgfx:2_c7diSgNbA" resolve="ThreadSafe" />
                </node>
              </node>
            </node>
            <node concept="2oxUTD" id="34zgNsMHW86" role="2OqNvi">
              <node concept="2ShNRf" id="34zgNsMHW87" role="2oxUTC">
                <node concept="2fJWfE" id="34zgNsMHW88" role="2ShVmc">
                  <node concept="3Tqbb2" id="34zgNsMHW89" role="3zrR0E">
                    <ref role="ehGHo" to="cgfx:2_c7diSgNbA" resolve="ThreadSafe" />
                  </node>
                </node>
              </node>
            </node>
          </node>
        </node>
      </node>
    </node>
    <node concept="zTJ1e" id="34zgNsMHOiJ" role="2ZfVeg">
      <node concept="3clFbS" id="34zgNsMHOiK" role="2VODD2">
        <node concept="3clFbF" id="34zgNsMHOiL" role="3cqZAp">
          <node concept="3clFbC" id="34zgNsMHOjy" role="3clFbG">
            <node concept="2Sf5sV" id="34zgNsMHOj_" role="3uHU7w" />
            <node concept="2OqwBi" id="34zgNsMHOj7" role="3uHU7B">
              <node concept="zTJq_" id="34zgNsMHOiM" role="2Oq$k0" />
              <node concept="1mfA1w" id="34zgNsMHOjc" role="2OqNvi" />
            </node>
          </node>
        </node>
      </node>
    </node>
    <node concept="2SaL7w" id="34zgNsMHOjC" role="2ZfVeh">
      <node concept="3clFbS" id="34zgNsMHOjD" role="2VODD2">
        <node concept="3clFbJ" id="M1_F_cev9x" role="3cqZAp">
          <node concept="3clFbS" id="M1_F_cev9y" role="3clFbx">
            <node concept="3cpWs6" id="M1_F_cev9z" role="3cqZAp">
              <node concept="3clFbT" id="M1_F_cev9$" role="3cqZAk">
                <property role="3clFbU" value="false" />
              </node>
            </node>
          </node>
          <node concept="3fqX7Q" id="M1_F_cev9_" role="3clFbw">
            <node concept="2OqwBi" id="M1_F_cev9A" role="3fr31v">
              <node concept="1mIQ4w" id="M1_F_cev9B" role="2OqNvi">
                <node concept="chp4Y" id="M1_F_cev9C" role="cj9EA">
                  <ref role="cht4Q" to="tpee:fIYIFWa" resolve="StaticMethodDeclaration" />
                </node>
              </node>
              <node concept="2OqwBi" id="M1_F_cev9D" role="2Oq$k0">
                <node concept="3TrEf2" id="M1_F_cev9E" role="2OqNvi">
                  <ref role="3Tt5mk" to="tpee:6LFqxSRBTg7" />
                </node>
                <node concept="2Sf5sV" id="M1_F_cev9F" role="2Oq$k0" />
              </node>
            </node>
          </node>
        </node>
        <node concept="3clFbF" id="34zgNsMHOjE" role="3cqZAp">
          <node concept="3clFbC" id="34zgNsMHW7W" role="3clFbG">
            <node concept="10Nm6u" id="34zgNsMHW7Z" role="3uHU7w" />
            <node concept="2OqwBi" id="34zgNsMHOk0" role="3uHU7B">
              <node concept="2Sf5sV" id="34zgNsMHOjF" role="2Oq$k0" />
              <node concept="3CFZ6_" id="34zgNsMHW7z" role="2OqNvi">
                <node concept="3CFYIy" id="34zgNsMHW7A" role="3CFYIz">
                  <ref role="3CFYIx" to="cgfx:2_c7diSgNbA" resolve="ThreadSafe" />
                </node>
              </node>
            </node>
          </node>
        </node>
      </node>
    </node>
  </node>
  <node concept="2S6QgY" id="34zgNsMIbbx">
    <property role="2ZfUl0" value="true" />
    <property role="TrG5h" value="UnmarkLocalStaticMethodCallAsThreadSafe" />
    <ref role="2ZfgGC" to="tpee:6LFqxSRBTg4" resolve="LocalMethodCall" />
    <node concept="2S6ZIM" id="34zgNsMIbby" role="2ZfVej">
      <node concept="3clFbS" id="34zgNsMIbbz" role="2VODD2">
        <node concept="3clFbF" id="34zgNsMIbb$" role="3cqZAp">
          <node concept="Xl_RD" id="34zgNsMIbb_" role="3clFbG">
            <property role="Xl_RC" value="Unmark as Thread Safe" />
          </node>
        </node>
      </node>
    </node>
    <node concept="2Sbjvc" id="34zgNsMIbbA" role="2ZfgGD">
      <node concept="3clFbS" id="34zgNsMIbbB" role="2VODD2">
        <node concept="3clFbF" id="34zgNsMIbbC" role="3cqZAp">
          <node concept="2OqwBi" id="34zgNsMIbbD" role="3clFbG">
            <node concept="2OqwBi" id="34zgNsMIbbE" role="2Oq$k0">
              <node concept="2Sf5sV" id="34zgNsMIbbF" role="2Oq$k0" />
              <node concept="3CFZ6_" id="34zgNsMIbbG" role="2OqNvi">
                <node concept="3CFYIy" id="34zgNsMIbbH" role="3CFYIz">
                  <ref role="3CFYIx" to="cgfx:2_c7diSgNbA" resolve="ThreadSafe" />
                </node>
              </node>
            </node>
            <node concept="2oxUTD" id="34zgNsMIbbI" role="2OqNvi">
              <node concept="10Nm6u" id="34zgNsMIbbJ" role="2oxUTC" />
            </node>
          </node>
        </node>
      </node>
    </node>
    <node concept="2SaL7w" id="34zgNsMIbbK" role="2ZfVeh">
      <node concept="3clFbS" id="34zgNsMIbbL" role="2VODD2">
        <node concept="3clFbJ" id="M1_F_cev9G" role="3cqZAp">
          <node concept="3clFbS" id="M1_F_cev9H" role="3clFbx">
            <node concept="3cpWs6" id="M1_F_cev9I" role="3cqZAp">
              <node concept="3clFbT" id="M1_F_cev9J" role="3cqZAk">
                <property role="3clFbU" value="false" />
              </node>
            </node>
          </node>
          <node concept="3fqX7Q" id="M1_F_cev9K" role="3clFbw">
            <node concept="2OqwBi" id="M1_F_cev9L" role="3fr31v">
              <node concept="1mIQ4w" id="M1_F_cev9M" role="2OqNvi">
                <node concept="chp4Y" id="M1_F_cev9N" role="cj9EA">
                  <ref role="cht4Q" to="tpee:fIYIFWa" resolve="StaticMethodDeclaration" />
                </node>
              </node>
              <node concept="2OqwBi" id="M1_F_cev9O" role="2Oq$k0">
                <node concept="3TrEf2" id="M1_F_cev9P" role="2OqNvi">
                  <ref role="3Tt5mk" to="tpee:6LFqxSRBTg7" />
                </node>
                <node concept="2Sf5sV" id="M1_F_cev9Q" role="2Oq$k0" />
              </node>
            </node>
          </node>
        </node>
        <node concept="3clFbF" id="34zgNsMIbbM" role="3cqZAp">
          <node concept="3y3z36" id="34zgNsMIbbN" role="3clFbG">
            <node concept="2OqwBi" id="34zgNsMIbbO" role="3uHU7B">
              <node concept="2Sf5sV" id="34zgNsMIbbP" role="2Oq$k0" />
              <node concept="3CFZ6_" id="34zgNsMIbbQ" role="2OqNvi">
                <node concept="3CFYIy" id="34zgNsMIbbR" role="3CFYIz">
                  <ref role="3CFYIx" to="cgfx:2_c7diSgNbA" resolve="ThreadSafe" />
                </node>
              </node>
            </node>
            <node concept="10Nm6u" id="34zgNsMIbbS" role="3uHU7w" />
          </node>
        </node>
      </node>
    </node>
    <node concept="zTJ1e" id="34zgNsMIbbT" role="2ZfVeg">
      <node concept="3clFbS" id="34zgNsMIbbU" role="2VODD2">
        <node concept="3clFbF" id="34zgNsMIbbV" role="3cqZAp">
          <node concept="3clFbC" id="34zgNsMIbbW" role="3clFbG">
            <node concept="2Sf5sV" id="34zgNsMIbbX" role="3uHU7w" />
            <node concept="2OqwBi" id="34zgNsMIbbY" role="3uHU7B">
              <node concept="zTJq_" id="34zgNsMIbbZ" role="2Oq$k0" />
              <node concept="1mfA1w" id="34zgNsMIbc0" role="2OqNvi" />
            </node>
          </node>
        </node>
      </node>
    </node>
  </node>
  <node concept="2S6QgY" id="34zgNsMIbc5">
    <property role="2ZfUl0" value="true" />
    <property role="TrG5h" value="UnmarkLocalInstanceMethodCallAsThreadSafe" />
    <ref role="2ZfgGC" to="tpee:6LFqxSRBTg4" resolve="LocalMethodCall" />
    <node concept="2S6ZIM" id="34zgNsMIbc6" role="2ZfVej">
      <node concept="3clFbS" id="34zgNsMIbc7" role="2VODD2">
        <node concept="3clFbF" id="34zgNsMIbc8" role="3cqZAp">
          <node concept="Xl_RD" id="34zgNsMIbc9" role="3clFbG">
            <property role="Xl_RC" value="Unmark as Thread Safe" />
          </node>
        </node>
      </node>
    </node>
    <node concept="2Sbjvc" id="34zgNsMIbca" role="2ZfgGD">
      <node concept="3clFbS" id="34zgNsMIbcb" role="2VODD2">
        <node concept="3clFbF" id="34zgNsMIbcc" role="3cqZAp">
          <node concept="2OqwBi" id="34zgNsMIbcd" role="3clFbG">
            <node concept="2OqwBi" id="34zgNsMIbce" role="2Oq$k0">
              <node concept="2Sf5sV" id="34zgNsMIbcf" role="2Oq$k0" />
              <node concept="3CFZ6_" id="34zgNsMIbcg" role="2OqNvi">
                <node concept="3CFYIy" id="34zgNsMIbch" role="3CFYIz">
                  <ref role="3CFYIx" to="cgfx:2_c7diSgNbA" resolve="ThreadSafe" />
                </node>
              </node>
            </node>
            <node concept="2oxUTD" id="34zgNsMIbci" role="2OqNvi">
              <node concept="10Nm6u" id="34zgNsMIbcj" role="2oxUTC" />
            </node>
          </node>
        </node>
      </node>
    </node>
    <node concept="2SaL7w" id="34zgNsMIbck" role="2ZfVeh">
      <node concept="3clFbS" id="34zgNsMIbcl" role="2VODD2">
        <node concept="3clFbJ" id="M1_F_ceZXw" role="3cqZAp">
          <node concept="3clFbS" id="M1_F_ceZXx" role="3clFbx">
            <node concept="3cpWs6" id="M1_F_ceZXy" role="3cqZAp">
              <node concept="3clFbT" id="M1_F_ceZXz" role="3cqZAk">
                <property role="3clFbU" value="false" />
              </node>
            </node>
          </node>
          <node concept="3fqX7Q" id="M1_F_ceZX$" role="3clFbw">
            <node concept="2OqwBi" id="M1_F_ceZX_" role="3fr31v">
              <node concept="1mIQ4w" id="M1_F_ceZXA" role="2OqNvi">
                <node concept="chp4Y" id="M1_F_ceZXB" role="cj9EA">
                  <ref role="cht4Q" to="tpee:fzclF8t" resolve="InstanceMethodDeclaration" />
                </node>
              </node>
              <node concept="2OqwBi" id="M1_F_ceZXC" role="2Oq$k0">
                <node concept="3TrEf2" id="M1_F_ceZXD" role="2OqNvi">
                  <ref role="3Tt5mk" to="tpee:6LFqxSRBTg7" />
                </node>
                <node concept="2Sf5sV" id="M1_F_ceZXE" role="2Oq$k0" />
              </node>
            </node>
          </node>
        </node>
        <node concept="3clFbF" id="34zgNsMIbcm" role="3cqZAp">
          <node concept="3y3z36" id="34zgNsMIbcu" role="3clFbG">
            <node concept="2OqwBi" id="34zgNsMIbcv" role="3uHU7B">
              <node concept="2Sf5sV" id="34zgNsMIbcw" role="2Oq$k0" />
              <node concept="3CFZ6_" id="34zgNsMIbcx" role="2OqNvi">
                <node concept="3CFYIy" id="34zgNsMIbcy" role="3CFYIz">
                  <ref role="3CFYIx" to="cgfx:2_c7diSgNbA" resolve="ThreadSafe" />
                </node>
              </node>
            </node>
            <node concept="10Nm6u" id="34zgNsMIbcz" role="3uHU7w" />
          </node>
        </node>
      </node>
    </node>
    <node concept="zTJ1e" id="34zgNsMIbc$" role="2ZfVeg">
      <node concept="3clFbS" id="34zgNsMIbc_" role="2VODD2">
        <node concept="3clFbF" id="34zgNsMIbcA" role="3cqZAp">
          <node concept="3clFbC" id="34zgNsMIbcB" role="3clFbG">
            <node concept="2Sf5sV" id="34zgNsMIbcC" role="3uHU7w" />
            <node concept="2OqwBi" id="34zgNsMIbcD" role="3uHU7B">
              <node concept="zTJq_" id="34zgNsMIbcE" role="2Oq$k0" />
              <node concept="1mfA1w" id="34zgNsMIbcF" role="2OqNvi" />
            </node>
          </node>
        </node>
      </node>
    </node>
  </node>
  <node concept="2S6QgY" id="34zgNsMIe3F">
    <property role="2ZfUl0" value="true" />
    <property role="TrG5h" value="MarkLocalInstanceMethodCallAsThreadSafe" />
    <ref role="2ZfgGC" to="tpee:6LFqxSRBTg4" resolve="LocalMethodCall" />
    <node concept="2S6ZIM" id="34zgNsMIe3G" role="2ZfVej">
      <node concept="3clFbS" id="34zgNsMIe3H" role="2VODD2">
        <node concept="3clFbF" id="34zgNsMIe3I" role="3cqZAp">
          <node concept="Xl_RD" id="34zgNsMIe3J" role="3clFbG">
            <property role="Xl_RC" value="Mark as Thread Safe" />
          </node>
        </node>
      </node>
    </node>
    <node concept="2Sbjvc" id="34zgNsMIe3K" role="2ZfgGD">
      <node concept="3clFbS" id="34zgNsMIe3L" role="2VODD2">
        <node concept="3clFbF" id="34zgNsMIe3M" role="3cqZAp">
          <node concept="2OqwBi" id="34zgNsMIe3N" role="3clFbG">
            <node concept="2OqwBi" id="34zgNsMIe3O" role="2Oq$k0">
              <node concept="2Sf5sV" id="34zgNsMIe3P" role="2Oq$k0" />
              <node concept="3CFZ6_" id="34zgNsMIe3Q" role="2OqNvi">
                <node concept="3CFYIy" id="34zgNsMIe3R" role="3CFYIz">
                  <ref role="3CFYIx" to="cgfx:2_c7diSgNbA" resolve="ThreadSafe" />
                </node>
              </node>
            </node>
            <node concept="2oxUTD" id="34zgNsMIe3S" role="2OqNvi">
              <node concept="2ShNRf" id="34zgNsMIe3T" role="2oxUTC">
                <node concept="2fJWfE" id="34zgNsMIe3U" role="2ShVmc">
                  <node concept="3Tqbb2" id="34zgNsMIe3V" role="3zrR0E">
                    <ref role="ehGHo" to="cgfx:2_c7diSgNbA" resolve="ThreadSafe" />
                  </node>
                </node>
              </node>
            </node>
          </node>
        </node>
      </node>
    </node>
    <node concept="2SaL7w" id="34zgNsMIe3W" role="2ZfVeh">
      <node concept="3clFbS" id="34zgNsMIe3X" role="2VODD2">
        <node concept="3clFbJ" id="M1_F_ceZXl" role="3cqZAp">
          <node concept="3clFbS" id="M1_F_ceZXm" role="3clFbx">
            <node concept="3cpWs6" id="M1_F_ceZXn" role="3cqZAp">
              <node concept="3clFbT" id="M1_F_ceZXo" role="3cqZAk">
                <property role="3clFbU" value="false" />
              </node>
            </node>
          </node>
          <node concept="3fqX7Q" id="M1_F_ceZXp" role="3clFbw">
            <node concept="2OqwBi" id="M1_F_ceZXq" role="3fr31v">
              <node concept="1mIQ4w" id="M1_F_ceZXr" role="2OqNvi">
                <node concept="chp4Y" id="M1_F_ceZXs" role="cj9EA">
                  <ref role="cht4Q" to="tpee:fzclF8t" resolve="InstanceMethodDeclaration" />
                </node>
              </node>
              <node concept="2OqwBi" id="M1_F_ceZXt" role="2Oq$k0">
                <node concept="3TrEf2" id="M1_F_ceZXu" role="2OqNvi">
                  <ref role="3Tt5mk" to="tpee:6LFqxSRBTg7" />
                </node>
                <node concept="2Sf5sV" id="M1_F_ceZXv" role="2Oq$k0" />
              </node>
            </node>
          </node>
        </node>
        <node concept="3clFbF" id="34zgNsMIe3Y" role="3cqZAp">
          <node concept="3clFbC" id="34zgNsMIe46" role="3clFbG">
            <node concept="10Nm6u" id="34zgNsMIe47" role="3uHU7w" />
            <node concept="2OqwBi" id="34zgNsMIe48" role="3uHU7B">
              <node concept="2Sf5sV" id="34zgNsMIe49" role="2Oq$k0" />
              <node concept="3CFZ6_" id="34zgNsMIe4a" role="2OqNvi">
                <node concept="3CFYIy" id="34zgNsMIe4b" role="3CFYIz">
                  <ref role="3CFYIx" to="cgfx:2_c7diSgNbA" resolve="ThreadSafe" />
                </node>
              </node>
            </node>
          </node>
        </node>
      </node>
    </node>
    <node concept="zTJ1e" id="34zgNsMIe4c" role="2ZfVeg">
      <node concept="3clFbS" id="34zgNsMIe4d" role="2VODD2">
        <node concept="3clFbF" id="34zgNsMIe4e" role="3cqZAp">
          <node concept="3clFbC" id="34zgNsMIe4f" role="3clFbG">
            <node concept="2Sf5sV" id="34zgNsMIe4g" role="3uHU7w" />
            <node concept="2OqwBi" id="34zgNsMIe4h" role="3uHU7B">
              <node concept="zTJq_" id="34zgNsMIe4i" role="2Oq$k0" />
              <node concept="1mfA1w" id="34zgNsMIe4j" role="2OqNvi" />
            </node>
          </node>
        </node>
      </node>
    </node>
  </node>
</model>

