<?xml version="1.0" encoding="UTF-8"?>
<model ref="r:e1acdb32-2aee-4485-9fb3-7df994baeae3(jetbrains.mps.baseLanguage.extensionMethods.generator.template.main@generator)">
  <persistence version="9" />
  <languages>
    <use id="83888646-71ce-4f1c-9c53-c54016f6ad4f" name="jetbrains.mps.baseLanguage.collections" version="0" />
    <use id="df345b11-b8c7-4213-ac66-48d2a9b75d88" name="jetbrains.mps.baseLanguageInternal" version="0" />
    <use id="b401a680-8325-4110-8fd3-84331ff25bef" name="jetbrains.mps.lang.generator" version="0" />
    <use id="d7706f63-9be2-479c-a3da-ae92af1e64d5" name="jetbrains.mps.lang.generator.generationContext" version="0" />
    <use id="7a5dda62-9140-4668-ab76-d5ed1746f2b2" name="jetbrains.mps.lang.typesystem" version="0" />
    <use id="ceab5195-25ea-4f22-9b92-103b95ca8c0c" name="jetbrains.mps.lang.core" version="1" />
    <use id="7866978e-a0f0-4cc7-81bc-4d213d9375e1" name="jetbrains.mps.lang.smodel" version="4" />
    <use id="f3061a53-9226-4cc5-a443-f952ceaf5816" name="jetbrains.mps.baseLanguage" version="4" />
    <devkit ref="fbc25dd2-5da4-483a-8b19-70928e1b62d7(jetbrains.mps.devkit.general-purpose)" />
  </languages>
  <imports>
    <import index="uigu" ref="r:4f6f8ed5-c3d7-49f4-b0dd-d70029feffdf(jetbrains.mps.baseLanguage.extensionMethods.structure)" />
    <import index="5tns" ref="r:a5509d93-a6df-4356-9363-7de4efc47849(jetbrains.mps.baseLanguage.extensionMethods.behavior)" />
    <import index="tpee" ref="r:00000000-0000-4000-0000-011c895902ca(jetbrains.mps.baseLanguage.structure)" />
    <import index="wyt6" ref="6354ebe7-c22a-4a0f-ac54-50b52ab9b065/java:java.lang(JDK/)" />
    <import index="w1kc" ref="6ed54515-acc8-4d1e-a16c-9fd6cfe951ea/java:jetbrains.mps.smodel(MPS.Core/)" />
    <import index="tpck" ref="r:00000000-0000-4000-0000-011c89590288(jetbrains.mps.lang.core.structure)" implicit="true" />
  </imports>
  <registry>
    <language id="f3061a53-9226-4cc5-a443-f952ceaf5816" name="jetbrains.mps.baseLanguage">
      <concept id="1202948039474" name="jetbrains.mps.baseLanguage.structure.InstanceMethodCallOperation" flags="nn" index="liA8E" />
      <concept id="1197027756228" name="jetbrains.mps.baseLanguage.structure.DotExpression" flags="nn" index="2OqwBi">
        <child id="1197027771414" name="operand" index="2Oq$k0" />
        <child id="1197027833540" name="operation" index="2OqNvi" />
      </concept>
      <concept id="1137021947720" name="jetbrains.mps.baseLanguage.structure.ConceptFunction" flags="in" index="2VMwT0">
        <child id="1137022507850" name="body" index="2VODD2" />
      </concept>
      <concept id="1070462154015" name="jetbrains.mps.baseLanguage.structure.StaticFieldDeclaration" flags="ig" index="Wx3nA" />
      <concept id="1081236700938" name="jetbrains.mps.baseLanguage.structure.StaticMethodDeclaration" flags="ig" index="2YIFZL" />
      <concept id="1070534058343" name="jetbrains.mps.baseLanguage.structure.NullLiteral" flags="nn" index="10Nm6u" />
      <concept id="1070534370425" name="jetbrains.mps.baseLanguage.structure.IntegerType" flags="in" index="10Oyi0" />
      <concept id="1068390468198" name="jetbrains.mps.baseLanguage.structure.ClassConcept" flags="ig" index="312cEu" />
      <concept id="1068431474542" name="jetbrains.mps.baseLanguage.structure.VariableDeclaration" flags="ng" index="33uBYm">
        <property id="1176718929932" name="isFinal" index="3TUv4t" />
        <child id="1068431790190" name="initializer" index="33vP2m" />
      </concept>
      <concept id="1068431790189" name="jetbrains.mps.baseLanguage.structure.Type" flags="in" index="33vP2l" />
      <concept id="1109279763828" name="jetbrains.mps.baseLanguage.structure.TypeVariableDeclaration" flags="ng" index="16euLQ" />
      <concept id="1109279851642" name="jetbrains.mps.baseLanguage.structure.GenericDeclaration" flags="ng" index="16eOlS">
        <child id="1109279881614" name="typeVariableDeclaration" index="16eVyc" />
      </concept>
      <concept id="1068498886296" name="jetbrains.mps.baseLanguage.structure.VariableReference" flags="nn" index="37vLTw">
        <reference id="1068581517664" name="variableDeclaration" index="3cqZAo" />
      </concept>
      <concept id="1068498886292" name="jetbrains.mps.baseLanguage.structure.ParameterDeclaration" flags="ir" index="37vLTG" />
      <concept id="1225271177708" name="jetbrains.mps.baseLanguage.structure.StringType" flags="in" index="17QB3L" />
      <concept id="4972933694980447171" name="jetbrains.mps.baseLanguage.structure.BaseVariableDeclaration" flags="ng" index="19Szcq">
        <child id="5680397130376446158" name="type" index="1tU5fm" />
      </concept>
      <concept id="1068580123132" name="jetbrains.mps.baseLanguage.structure.BaseMethodDeclaration" flags="ng" index="3clF44">
        <child id="1164879685961" name="throwsItem" index="Sfmx6" />
        <child id="1068580123133" name="returnType" index="3clF45" />
        <child id="1068580123134" name="parameter" index="3clF46" />
        <child id="1068580123135" name="body" index="3clF47" />
      </concept>
      <concept id="1068580123165" name="jetbrains.mps.baseLanguage.structure.InstanceMethodDeclaration" flags="ig" index="3clFb_" />
      <concept id="1068580123155" name="jetbrains.mps.baseLanguage.structure.ExpressionStatement" flags="nn" index="3clFbF">
        <child id="1068580123156" name="expression" index="3clFbG" />
      </concept>
      <concept id="1068580123157" name="jetbrains.mps.baseLanguage.structure.Statement" flags="nn" index="3clFbH" />
      <concept id="1068580123136" name="jetbrains.mps.baseLanguage.structure.StatementList" flags="sn" stub="5293379017992965193" index="3clFbS">
        <child id="1068581517665" name="statement" index="3cqZAp" />
      </concept>
      <concept id="1068580123140" name="jetbrains.mps.baseLanguage.structure.ConstructorDeclaration" flags="ig" index="3clFbW" />
      <concept id="1068580320020" name="jetbrains.mps.baseLanguage.structure.IntegerConstant" flags="nn" index="3cmrfG">
        <property id="1068580320021" name="value" index="3cmrfH" />
      </concept>
      <concept id="1068581242875" name="jetbrains.mps.baseLanguage.structure.PlusExpression" flags="nn" index="3cpWs3" />
      <concept id="1068581242878" name="jetbrains.mps.baseLanguage.structure.ReturnStatement" flags="nn" index="3cpWs6">
        <child id="1068581517676" name="expression" index="3cqZAk" />
      </concept>
      <concept id="1068581242864" name="jetbrains.mps.baseLanguage.structure.LocalVariableDeclarationStatement" flags="nn" index="3cpWs8">
        <child id="1068581242865" name="localVariableDeclaration" index="3cpWs9" />
      </concept>
      <concept id="1068581242863" name="jetbrains.mps.baseLanguage.structure.LocalVariableDeclaration" flags="nr" index="3cpWsn" />
      <concept id="1068581517677" name="jetbrains.mps.baseLanguage.structure.VoidType" flags="in" index="3cqZAl" />
      <concept id="1204053956946" name="jetbrains.mps.baseLanguage.structure.IMethodCall" flags="ng" index="1ndlxa">
        <reference id="1068499141037" name="baseMethodDeclaration" index="37wK5l" />
        <child id="1068499141038" name="actualArgument" index="37wK5m" />
      </concept>
      <concept id="1107461130800" name="jetbrains.mps.baseLanguage.structure.Classifier" flags="ng" index="3pOWGL">
        <child id="5375687026011219971" name="member" index="jymVt" unordered="true" />
      </concept>
      <concept id="1107535904670" name="jetbrains.mps.baseLanguage.structure.ClassifierType" flags="in" index="3uibUv">
        <reference id="1107535924139" name="classifier" index="3uigEE" />
      </concept>
      <concept id="1081773326031" name="jetbrains.mps.baseLanguage.structure.BinaryOperation" flags="nn" index="3uHJSO">
        <child id="1081773367579" name="rightExpression" index="3uHU7w" />
        <child id="1081773367580" name="leftExpression" index="3uHU7B" />
      </concept>
      <concept id="1178549954367" name="jetbrains.mps.baseLanguage.structure.IVisible" flags="ng" index="1B3ioH">
        <child id="1178549979242" name="visibility" index="1B3o_S" />
      </concept>
      <concept id="1146644602865" name="jetbrains.mps.baseLanguage.structure.PublicVisibility" flags="nn" index="3Tm1VV" />
      <concept id="1146644623116" name="jetbrains.mps.baseLanguage.structure.PrivateVisibility" flags="nn" index="3Tm6S6" />
      <concept id="1200397529627" name="jetbrains.mps.baseLanguage.structure.CharConstant" flags="nn" index="1Xhbcc">
        <property id="1200397540847" name="charConstant" index="1XhdNS" />
      </concept>
    </language>
    <language id="b401a680-8325-4110-8fd3-84331ff25bef" name="jetbrains.mps.lang.generator">
      <concept id="1114706874351" name="jetbrains.mps.lang.generator.structure.CopySrcNodeMacro" flags="ln" index="29HgVG">
        <child id="1168024447342" name="sourceNodeQuery" index="3NFExx" />
      </concept>
      <concept id="1114729360583" name="jetbrains.mps.lang.generator.structure.CopySrcListMacro" flags="ln" index="2b32R4">
        <child id="1168278589236" name="sourceNodesQuery" index="2P8S$" />
      </concept>
      <concept id="1095416546421" name="jetbrains.mps.lang.generator.structure.MappingConfiguration" flags="ig" index="bUwia">
        <child id="1200911492601" name="mappingLabel" index="2rTMjI" />
        <child id="1167328349397" name="reductionMappingRule" index="3acgRq" />
        <child id="1167514678247" name="rootMappingRule" index="3lj3bC" />
      </concept>
      <concept id="1177093525992" name="jetbrains.mps.lang.generator.structure.InlineTemplate_RuleConsequence" flags="lg" index="gft3U">
        <child id="1177093586806" name="templateNode" index="gfFT$" />
      </concept>
      <concept id="1168559333462" name="jetbrains.mps.lang.generator.structure.TemplateDeclarationReference" flags="ln" index="j$656" />
      <concept id="1168619357332" name="jetbrains.mps.lang.generator.structure.RootTemplateAnnotation" flags="lg" index="n94m4">
        <reference id="1168619429071" name="applicableConcept" index="n9lRv" />
      </concept>
      <concept id="1095672379244" name="jetbrains.mps.lang.generator.structure.TemplateFragment" flags="ng" index="raruj" />
      <concept id="1200911316486" name="jetbrains.mps.lang.generator.structure.MappingLabelDeclaration" flags="lg" index="2rT7sh">
        <reference id="1200911342686" name="sourceConcept" index="2rTdP9" />
        <reference id="1200913004646" name="targetConcept" index="2rZz_L" />
      </concept>
      <concept id="1722980698497626400" name="jetbrains.mps.lang.generator.structure.ITemplateCall" flags="ng" index="v9R3L">
        <reference id="1722980698497626483" name="template" index="v9R2y" />
      </concept>
      <concept id="5133195082121471908" name="jetbrains.mps.lang.generator.structure.LabelMacro" flags="ln" index="2ZBi8u" />
      <concept id="1167168920554" name="jetbrains.mps.lang.generator.structure.BaseMappingRule_Condition" flags="in" index="30G5F_" />
      <concept id="1167169188348" name="jetbrains.mps.lang.generator.structure.TemplateFunctionParameter_sourceNode" flags="nn" index="30H73N" />
      <concept id="1167169308231" name="jetbrains.mps.lang.generator.structure.BaseMappingRule" flags="ng" index="30H$t8">
        <property id="1167272244852" name="applyToConceptInheritors" index="36QftV" />
        <reference id="1167169349424" name="applicableConcept" index="30HIoZ" />
        <child id="1167169362365" name="conditionFunction" index="30HLyM" />
      </concept>
      <concept id="1092059087312" name="jetbrains.mps.lang.generator.structure.TemplateDeclaration" flags="ig" index="13MO4I">
        <reference id="1168285871518" name="applicableConcept" index="3gUMe" />
        <child id="1092060348987" name="contentNode" index="13RCb5" />
      </concept>
      <concept id="1087833241328" name="jetbrains.mps.lang.generator.structure.PropertyMacro" flags="ln" index="17Uvod">
        <child id="1167756362303" name="propertyValueFunction" index="3zH0cK" />
      </concept>
      <concept id="1087833466690" name="jetbrains.mps.lang.generator.structure.NodeMacro" flags="lg" index="17VmuZ">
        <reference id="1200912223215" name="mappingLabel" index="2rW$FS" />
      </concept>
      <concept id="1167327847730" name="jetbrains.mps.lang.generator.structure.Reduction_MappingRule" flags="lg" index="3aamgX">
        <child id="1169672767469" name="ruleConsequence" index="1lVwrX" />
      </concept>
      <concept id="1167514355419" name="jetbrains.mps.lang.generator.structure.Root_MappingRule" flags="lg" index="3lhOvk">
        <reference id="1167514355421" name="template" index="3lhOvi" />
      </concept>
      <concept id="1167756080639" name="jetbrains.mps.lang.generator.structure.PropertyMacro_GetPropertyValue" flags="in" index="3zFVjK" />
      <concept id="1167770111131" name="jetbrains.mps.lang.generator.structure.ReferenceMacro_GetReferent" flags="in" index="3$xsQk" />
      <concept id="1167951910403" name="jetbrains.mps.lang.generator.structure.SourceSubstituteMacro_SourceNodesQuery" flags="in" index="3JmXsc" />
      <concept id="1168024337012" name="jetbrains.mps.lang.generator.structure.SourceSubstituteMacro_SourceNodeQuery" flags="in" index="3NFfHV" />
      <concept id="1118786554307" name="jetbrains.mps.lang.generator.structure.LoopMacro" flags="ln" index="1WS0z7">
        <child id="1167952069335" name="sourceNodesQuery" index="3Jn$fo" />
      </concept>
      <concept id="1088761943574" name="jetbrains.mps.lang.generator.structure.ReferenceMacro" flags="ln" index="1ZhdrF">
        <child id="1167770376702" name="referentFunction" index="3$ytzL" />
      </concept>
    </language>
    <language id="d7706f63-9be2-479c-a3da-ae92af1e64d5" name="jetbrains.mps.lang.generator.generationContext">
      <concept id="1216860049627" name="jetbrains.mps.lang.generator.generationContext.structure.GenerationContextOp_GetOutputByLabelAndInput" flags="nn" index="1iwH70">
        <reference id="1216860049628" name="label" index="1iwH77" />
        <child id="1216860049632" name="inputNode" index="1iwH7V" />
      </concept>
      <concept id="1216860049635" name="jetbrains.mps.lang.generator.generationContext.structure.TemplateFunctionParameter_generationContext" flags="nn" index="1iwH7S" />
    </language>
    <language id="df345b11-b8c7-4213-ac66-48d2a9b75d88" name="jetbrains.mps.baseLanguageInternal">
      <concept id="1173990517731" name="jetbrains.mps.baseLanguageInternal.structure.InternalStaticMethodCall" flags="nn" index="1niqFM">
        <property id="1173992444083" name="methodName" index="1npL6y" />
        <property id="1173992483054" name="fqClassName" index="1npUBZ" />
        <child id="1200499032583" name="typeParameter" index="23kocg" />
        <child id="319021450862604085" name="actualArgument" index="2U24H$" />
        <child id="1175794062018" name="returnType" index="32Mpfj" />
      </concept>
    </language>
    <language id="7866978e-a0f0-4cc7-81bc-4d213d9375e1" name="jetbrains.mps.lang.smodel">
      <concept id="1177026924588" name="jetbrains.mps.lang.smodel.structure.RefConcept_Reference" flags="nn" index="chp4Y">
        <reference id="1177026940964" name="conceptDeclaration" index="cht4Q" />
      </concept>
      <concept id="1138411891628" name="jetbrains.mps.lang.smodel.structure.SNodeOperation" flags="nn" index="eCIE_">
        <child id="1144104376918" name="parameter" index="1xVPHs" />
      </concept>
      <concept id="1179409122411" name="jetbrains.mps.lang.smodel.structure.Node_ConceptMethodCall" flags="nn" index="2qgKlT" />
      <concept id="2396822768958367367" name="jetbrains.mps.lang.smodel.structure.AbstractTypeCastExpression" flags="nn" index="$5XWr">
        <reference id="6733348108486823428" name="concept" index="1m5ApE" />
        <child id="6733348108486823193" name="leftExpression" index="1m5AlR" />
      </concept>
      <concept id="1143234257716" name="jetbrains.mps.lang.smodel.structure.Node_GetModelOperation" flags="nn" index="I4A8Y" />
      <concept id="1212008292747" name="jetbrains.mps.lang.smodel.structure.Model_GetLongNameOperation" flags="nn" index="LkI2h" />
      <concept id="1171407110247" name="jetbrains.mps.lang.smodel.structure.Node_GetAncestorOperation" flags="nn" index="2Xjw5R" />
      <concept id="1139613262185" name="jetbrains.mps.lang.smodel.structure.Node_GetParentOperation" flags="nn" index="1mfA1w" />
      <concept id="1139621453865" name="jetbrains.mps.lang.smodel.structure.Node_IsInstanceOfOperation" flags="nn" index="1mIQ4w">
        <child id="1177027386292" name="conceptArgument" index="cj9EA" />
      </concept>
      <concept id="1144101972840" name="jetbrains.mps.lang.smodel.structure.OperationParm_Concept" flags="ng" index="1xMEDy">
        <child id="1207343664468" name="conceptArgument" index="ri$Ld" />
      </concept>
      <concept id="1140137987495" name="jetbrains.mps.lang.smodel.structure.SNodeTypeCastExpression" flags="nn" index="1PxgMI" />
      <concept id="1138055754698" name="jetbrains.mps.lang.smodel.structure.SNodeType" flags="in" index="3Tqbb2">
        <reference id="1138405853777" name="concept" index="ehGHo" />
      </concept>
      <concept id="1138056022639" name="jetbrains.mps.lang.smodel.structure.SPropertyAccess" flags="nn" index="3TrcHB">
        <reference id="1138056395725" name="property" index="3TsBF5" />
      </concept>
      <concept id="1138056143562" name="jetbrains.mps.lang.smodel.structure.SLinkAccess" flags="nn" index="3TrEf2">
        <reference id="1138056516764" name="link" index="3Tt5mk" />
      </concept>
      <concept id="1138056282393" name="jetbrains.mps.lang.smodel.structure.SLinkListAccess" flags="nn" index="3Tsc0h">
        <reference id="1138056546658" name="link" index="3TtcxE" />
      </concept>
    </language>
    <language id="ceab5195-25ea-4f22-9b92-103b95ca8c0c" name="jetbrains.mps.lang.core">
      <concept id="1133920641626" name="jetbrains.mps.lang.core.structure.BaseConcept" flags="ng" index="2VYdi">
        <property id="1193676396447" name="virtualPackage" index="3GE5qa" />
        <child id="5169995583184591170" name="smodelAttribute" index="lGtFl" />
      </concept>
      <concept id="3364660638048049750" name="jetbrains.mps.lang.core.structure.PropertyAttribute" flags="ng" index="A9Btg">
        <property id="1757699476691236117" name="propertyName" index="2qtEX9" />
        <property id="1341860900487648621" name="propertyId" index="P4ACc" />
      </concept>
      <concept id="3364660638048049745" name="jetbrains.mps.lang.core.structure.LinkAttribute" flags="ng" index="A9Btn">
        <property id="1757699476691236116" name="linkRole" index="2qtEX8" />
        <property id="1341860900488019036" name="linkId" index="P3scX" />
      </concept>
      <concept id="1169194658468" name="jetbrains.mps.lang.core.structure.INamedConcept" flags="ng" index="TrEIO">
        <property id="1169194664001" name="name" index="TrG5h" />
      </concept>
    </language>
  </registry>
  <node concept="bUwia" id="5pAyBIe8fYb">
    <property role="TrG5h" value="main" />
    <node concept="2rT7sh" id="6xkNu_iwk3A" role="2rTMjI">
      <property role="TrG5h" value="thisParam" />
      <ref role="2rZz_L" to="tpee:fz7vLUk" resolve="ParameterDeclaration" />
      <ref role="2rTdP9" to="uigu:1m3OroNpuvT" resolve="ExtensionMethodDeclaration" />
    </node>
    <node concept="3aamgX" id="3KvXVy5iJ3M" role="3acgRq">
      <ref role="30HIoZ" to="uigu:1m3OroNpuvT" resolve="ExtensionMethodDeclaration" />
      <node concept="gft3U" id="1OExPF_EZ0Q" role="1lVwrX">
        <node concept="2VYdi" id="1OExPF_EZ0R" role="gfFT$" />
      </node>
    </node>
    <node concept="3aamgX" id="3KvXVy5j4By" role="3acgRq">
      <ref role="30HIoZ" to="uigu:2S7riql$hcN" resolve="ThisExtensionExpression" />
      <node concept="j$656" id="idJwCzryRB" role="1lVwrX">
        <ref role="v9R2y" node="idJwCzrym7" resolve="reduce_ThisExtention" />
      </node>
    </node>
    <node concept="3aamgX" id="44eH7NDrTay" role="3acgRq">
      <property role="36QftV" value="true" />
      <ref role="30HIoZ" to="tpee:hqOqwz4" resolve="DotExpression" />
      <node concept="30G5F_" id="44eH7NDrTFl" role="30HLyM">
        <node concept="3clFbS" id="44eH7NDrTFm" role="2VODD2">
          <node concept="3clFbF" id="44eH7NDrTFn" role="3cqZAp">
            <node concept="2OqwBi" id="44eH7NDuC_U" role="3clFbG">
              <node concept="2OqwBi" id="44eH7NDuCkh" role="2Oq$k0">
                <node concept="30H73N" id="44eH7NDuCkg" role="2Oq$k0" />
                <node concept="3TrEf2" id="44eH7NDv1Dv" role="2OqNvi">
                  <ref role="3Tt5mk" to="tpee:hqOqNr4" />
                </node>
              </node>
              <node concept="1mIQ4w" id="44eH7NDuC_Y" role="2OqNvi">
                <node concept="chp4Y" id="44eH7NDv1Dw" role="cj9EA">
                  <ref role="cht4Q" to="uigu:1m3OroNmkwV" resolve="ExtensionMethodCall" />
                </node>
              </node>
            </node>
          </node>
        </node>
      </node>
      <node concept="j$656" id="2vnlDaKwT9f" role="1lVwrX">
        <ref role="v9R2y" node="2vnlDaKwSZx" resolve="reduce_ExtensionMethodReference" />
      </node>
    </node>
    <node concept="3aamgX" id="4HvovyApTaV" role="3acgRq">
      <ref role="30HIoZ" to="uigu:1HybphbJvJ7" resolve="ExtensionStaticFieldReference" />
      <node concept="gft3U" id="4HvovyApTzf" role="1lVwrX">
        <node concept="37vLTw" id="2BHiRxeon4r" role="gfFT$">
          <node concept="1ZhdrF" id="4HvovyApTzk" role="lGtFl">
            <property role="2qtEX8" value="variableDeclaration" />
            <property role="P3scX" value="f3061a53-9226-4cc5-a443-f952ceaf5816/1068498886296/1068581517664" />
            <node concept="3$xsQk" id="4HvovyApTzl" role="3$ytzL">
              <node concept="3clFbS" id="4HvovyApTzm" role="2VODD2">
                <node concept="3clFbF" id="4HvovyApUsN" role="3cqZAp">
                  <node concept="2OqwBi" id="4HvovyApUsV" role="3clFbG">
                    <node concept="2OqwBi" id="4HvovyApUsP" role="2Oq$k0">
                      <node concept="30H73N" id="4HvovyApUsO" role="2Oq$k0" />
                      <node concept="3TrEf2" id="4HvovyApUsU" role="2OqNvi">
                        <ref role="3Tt5mk" to="uigu:1v5QYNcnuLX" />
                      </node>
                    </node>
                    <node concept="3TrcHB" id="4HvovyApUsZ" role="2OqNvi">
                      <ref role="3TsBF5" to="tpck:h0TrG11" resolve="name" />
                    </node>
                  </node>
                </node>
              </node>
            </node>
          </node>
        </node>
      </node>
    </node>
    <node concept="3aamgX" id="6xkNu_iwk3E" role="3acgRq">
      <ref role="30HIoZ" to="uigu:6EBM_lhyT5K" resolve="LocalExtendedMethodCall" />
      <node concept="j$656" id="6xkNu_iwlJk" role="1lVwrX">
        <ref role="v9R2y" node="6xkNu_iwkds" resolve="reduce_LocalExtendedMethodCall" />
      </node>
    </node>
    <node concept="3lhOvk" id="6XkcKt_hy24" role="3lj3bC">
      <property role="36QftV" value="true" />
      <ref role="30HIoZ" to="uigu:6XkcKt_ivkp" resolve="BaseExtensionMethodContainer" />
      <ref role="3lhOvi" node="6XkcKt_hpJe" resolve="BaseExtensionMethodContainerImpl" />
    </node>
  </node>
  <node concept="312cEu" id="5pAyBIe9wM0">
    <property role="TrG5h" value="ExtensionMethodCallImpl" />
    <node concept="3Tm1VV" id="5pAyBIe9wM1" role="1B3o_S" />
    <node concept="n94m4" id="5pAyBIe9wM6" role="lGtFl">
      <ref role="n9lRv" to="uigu:1m3OroNmkwV" resolve="ExtensionMethodCall" />
    </node>
    <node concept="3clFbW" id="5pAyBIe9wM2" role="jymVt">
      <node concept="3cqZAl" id="5pAyBIe9wM3" role="3clF45" />
      <node concept="3Tm1VV" id="5pAyBIe9wM4" role="1B3o_S" />
      <node concept="3clFbS" id="5pAyBIe9wM5" role="3clF47" />
    </node>
  </node>
  <node concept="13MO4I" id="idJwCzrym7">
    <property role="TrG5h" value="reduce_ThisExtention" />
    <node concept="2YIFZL" id="idJwCzryRu" role="13RCb5">
      <property role="TrG5h" value="e" />
      <node concept="3uibUv" id="63hMjyLSlBs" role="3clF45">
        <ref role="3uigEE" to="wyt6:~Object" resolve="Object" />
      </node>
      <node concept="3Tm1VV" id="idJwCzryRw" role="1B3o_S" />
      <node concept="3clFbS" id="idJwCzryRx" role="3clF47">
        <node concept="3clFbF" id="idJwCzryR$" role="3cqZAp">
          <node concept="37vLTw" id="2BHiRxgllkX" role="3clFbG">
            <ref role="3cqZAo" node="idJwCzryRy" resolve="_this" />
            <node concept="raruj" id="idJwCzryRA" role="lGtFl" />
            <node concept="1ZhdrF" id="63hMjyLSlBt" role="lGtFl">
              <property role="2qtEX8" value="variableDeclaration" />
              <property role="P3scX" value="f3061a53-9226-4cc5-a443-f952ceaf5816/1068498886296/1068581517664" />
              <node concept="3$xsQk" id="63hMjyLSlBu" role="3$ytzL">
                <node concept="3clFbS" id="63hMjyLSlBv" role="2VODD2">
                  <node concept="3clFbF" id="63hMjyLSlBK" role="3cqZAp">
                    <node concept="2OqwBi" id="63hMjyLSlBM" role="3clFbG">
                      <node concept="1iwH7S" id="63hMjyLSlBL" role="2Oq$k0" />
                      <node concept="1iwH70" id="63hMjyLSlBQ" role="2OqNvi">
                        <ref role="1iwH77" node="6xkNu_iwk3A" resolve="thisParam" />
                        <node concept="2OqwBi" id="63hMjyLSlBT" role="1iwH7V">
                          <node concept="30H73N" id="63hMjyLSlBS" role="2Oq$k0" />
                          <node concept="2Xjw5R" id="63hMjyLSlBX" role="2OqNvi">
                            <node concept="1xMEDy" id="63hMjyLSlBY" role="1xVPHs">
                              <node concept="chp4Y" id="63hMjyLSlC1" role="ri$Ld">
                                <ref role="cht4Q" to="uigu:1m3OroNpuvT" resolve="ExtensionMethodDeclaration" />
                              </node>
                            </node>
                          </node>
                        </node>
                      </node>
                    </node>
                  </node>
                </node>
              </node>
            </node>
          </node>
        </node>
      </node>
      <node concept="37vLTG" id="idJwCzryRy" role="3clF46">
        <property role="TrG5h" value="_this" />
        <node concept="3uibUv" id="idJwCzryRz" role="1tU5fm">
          <ref role="3uigEE" to="wyt6:~Object" resolve="Object" />
        </node>
      </node>
    </node>
  </node>
  <node concept="13MO4I" id="2vnlDaKwSZx">
    <property role="TrG5h" value="reduce_ExtensionMethodReference" />
    <ref role="3gUMe" to="tpee:hqOqwz4" resolve="DotExpression" />
    <node concept="312cEu" id="NHlUfyGAOu" role="13RCb5">
      <property role="TrG5h" value="_class_" />
      <node concept="3Tm1VV" id="NHlUfyGAOv" role="1B3o_S" />
      <node concept="3clFbW" id="NHlUfyGAOw" role="jymVt">
        <node concept="3cqZAl" id="NHlUfyGAOx" role="3clF45" />
        <node concept="3Tm1VV" id="NHlUfyGAOy" role="1B3o_S" />
        <node concept="3clFbS" id="NHlUfyGAOz" role="3clF47">
          <node concept="3clFbF" id="NHlUfyGAO$" role="3cqZAp">
            <node concept="1niqFM" id="NHlUfyGAO_" role="3clFbG">
              <property role="1npUBZ" value="Class" />
              <property role="1npL6y" value="methodName" />
              <node concept="33vP2l" id="3VdvqYUdfnJ" role="23kocg">
                <node concept="2b32R4" id="3VdvqYUdn8n" role="lGtFl">
                  <node concept="3JmXsc" id="3VdvqYUdn8o" role="2P8S$">
                    <node concept="3clFbS" id="3VdvqYUdn8p" role="2VODD2">
                      <node concept="3clFbF" id="3VdvqYUdn96" role="3cqZAp">
                        <node concept="2OqwBi" id="3VdvqYUdnay" role="3clFbG">
                          <node concept="1PxgMI" id="3VdvqYUdna4" role="2Oq$k0">
                            <ref role="1m5ApE" to="uigu:1m3OroNmkwV" resolve="ExtensionMethodCall" />
                            <node concept="2OqwBi" id="3VdvqYUdn9s" role="1m5AlR">
                              <node concept="30H73N" id="3VdvqYUdn97" role="2Oq$k0" />
                              <node concept="3TrEf2" id="3VdvqYUdn9A" role="2OqNvi">
                                <ref role="3Tt5mk" to="tpee:hqOqNr4" />
                              </node>
                            </node>
                          </node>
                          <node concept="3Tsc0h" id="3VdvqYUdnaK" role="2OqNvi">
                            <ref role="3TtcxE" to="tpee:4k0WLUKaBu8" />
                          </node>
                        </node>
                      </node>
                    </node>
                  </node>
                </node>
              </node>
              <node concept="10Nm6u" id="1OExPF_ExwW" role="2U24H$">
                <node concept="29HgVG" id="1OExPF_ExwY" role="lGtFl">
                  <node concept="3NFfHV" id="1OExPF_Exx1" role="3NFExx">
                    <node concept="3clFbS" id="1OExPF_Exx2" role="2VODD2">
                      <node concept="3clFbF" id="1OExPF_ECSQ" role="3cqZAp">
                        <node concept="2OqwBi" id="1OExPF_ECST" role="3clFbG">
                          <node concept="30H73N" id="1OExPF_ECSS" role="2Oq$k0" />
                          <node concept="3TrEf2" id="1OExPF_ECSX" role="2OqNvi">
                            <ref role="3Tt5mk" to="tpee:hqOq$gm" />
                          </node>
                        </node>
                      </node>
                    </node>
                  </node>
                </node>
              </node>
              <node concept="10Nm6u" id="6As03Bmd8lp" role="2U24H$">
                <node concept="2b32R4" id="6As03Bmd8lI" role="lGtFl">
                  <node concept="3JmXsc" id="6As03Bmd8lJ" role="2P8S$">
                    <node concept="3clFbS" id="6As03Bmd8lK" role="2VODD2">
                      <node concept="3clFbF" id="6As03Bmd8lL" role="3cqZAp">
                        <node concept="2OqwBi" id="6As03Bmd8Dk" role="3clFbG">
                          <node concept="1PxgMI" id="6As03Bmd8Di" role="2Oq$k0">
                            <ref role="1m5ApE" to="uigu:1m3OroNmkwV" resolve="ExtensionMethodCall" />
                            <node concept="2OqwBi" id="6As03Bmd8lN" role="1m5AlR">
                              <node concept="30H73N" id="6As03Bmd8lM" role="2Oq$k0" />
                              <node concept="3TrEf2" id="6As03Bmd8Dh" role="2OqNvi">
                                <ref role="3Tt5mk" to="tpee:hqOqNr4" />
                              </node>
                            </node>
                          </node>
                          <node concept="3Tsc0h" id="6As03BmdapP" role="2OqNvi">
                            <ref role="3TtcxE" to="tpee:fz7wK6I" />
                          </node>
                        </node>
                      </node>
                    </node>
                  </node>
                </node>
              </node>
              <node concept="33vP2l" id="NHlUfyGAOA" role="32Mpfj">
                <node concept="29HgVG" id="NHlUfyGClM" role="lGtFl">
                  <node concept="3NFfHV" id="NHlUfyGClP" role="3NFExx">
                    <node concept="3clFbS" id="NHlUfyGClQ" role="2VODD2">
                      <node concept="3clFbF" id="6XkcKt_hYh6" role="3cqZAp">
                        <node concept="2OqwBi" id="6XkcKt_i5vW" role="3clFbG">
                          <node concept="2OqwBi" id="6XkcKt_hYhb" role="2Oq$k0">
                            <node concept="1PxgMI" id="6XkcKt_hYh7" role="2Oq$k0">
                              <ref role="1m5ApE" to="uigu:1m3OroNmkwV" resolve="ExtensionMethodCall" />
                              <node concept="2OqwBi" id="6XkcKt_hYh8" role="1m5AlR">
                                <node concept="30H73N" id="6XkcKt_hYh9" role="2Oq$k0" />
                                <node concept="3TrEf2" id="6XkcKt_hYha" role="2OqNvi">
                                  <ref role="3Tt5mk" to="tpee:hqOqNr4" />
                                </node>
                              </node>
                            </node>
                            <node concept="3TrEf2" id="6XkcKt_i5vV" role="2OqNvi">
                              <ref role="3Tt5mk" to="uigu:1m3OroNmkwW" />
                            </node>
                          </node>
                          <node concept="2qgKlT" id="6XkcKt_i5JG" role="2OqNvi">
                            <ref role="37wK5l" to="5tns:6XkcKt_eUWM" resolve="getThisType" />
                          </node>
                        </node>
                      </node>
                    </node>
                  </node>
                </node>
              </node>
              <node concept="raruj" id="NHlUfyGAOG" role="lGtFl" />
              <node concept="17Uvod" id="NHlUfyGAOH" role="lGtFl">
                <property role="2qtEX9" value="fqClassName" />
                <property role="P4ACc" value="df345b11-b8c7-4213-ac66-48d2a9b75d88/1173990517731/1173992483054" />
                <node concept="3zFVjK" id="NHlUfyGAOI" role="3zH0cK">
                  <node concept="3clFbS" id="NHlUfyGAOJ" role="2VODD2">
                    <node concept="3cpWs8" id="6As03BmdRgR" role="3cqZAp">
                      <node concept="3cpWsn" id="6As03BmdRgS" role="3cpWs9">
                        <property role="TrG5h" value="extension" />
                        <node concept="3Tqbb2" id="6As03BmdRgT" role="1tU5fm">
                          <ref role="ehGHo" to="uigu:1m3OroNpuvT" resolve="ExtensionMethodDeclaration" />
                        </node>
                        <node concept="2OqwBi" id="6As03BmdRgU" role="33vP2m">
                          <node concept="1PxgMI" id="6As03BmdRgV" role="2Oq$k0">
                            <ref role="1m5ApE" to="uigu:1m3OroNmkwV" resolve="ExtensionMethodCall" />
                            <node concept="2OqwBi" id="6As03BmdRgW" role="1m5AlR">
                              <node concept="30H73N" id="6As03BmdRgX" role="2Oq$k0" />
                              <node concept="3TrEf2" id="6As03BmdRgY" role="2OqNvi">
                                <ref role="3Tt5mk" to="tpee:hqOqNr4" />
                              </node>
                            </node>
                          </node>
                          <node concept="3TrEf2" id="6As03BmdRgZ" role="2OqNvi">
                            <ref role="3Tt5mk" to="uigu:1m3OroNmkwW" />
                          </node>
                        </node>
                      </node>
                    </node>
                    <node concept="3cpWs8" id="6As03BmdRh2" role="3cqZAp">
                      <node concept="3cpWsn" id="6As03BmdRh3" role="3cpWs9">
                        <property role="TrG5h" value="namespace" />
                        <node concept="17QB3L" id="6As03BmdRh4" role="1tU5fm" />
                        <node concept="2OqwBi" id="6cEFRXI_uT_" role="33vP2m">
                          <node concept="2OqwBi" id="4DcpLEzkRW" role="2Oq$k0">
                            <node concept="37vLTw" id="3GM_nagTAA$" role="2Oq$k0">
                              <ref role="3cqZAo" node="6As03BmdRgS" resolve="extension" />
                            </node>
                            <node concept="I4A8Y" id="4DcpLEzkRY" role="2OqNvi" />
                          </node>
                          <node concept="LkI2h" id="6cEFRXI_v1n" role="2OqNvi" />
                        </node>
                      </node>
                    </node>
                    <node concept="3cpWs8" id="NHlUfyGC5$" role="3cqZAp">
                      <node concept="3cpWsn" id="NHlUfyGC5_" role="3cpWs9">
                        <property role="TrG5h" value="className" />
                        <node concept="17QB3L" id="NHlUfyGC5A" role="1tU5fm" />
                        <node concept="2OqwBi" id="6XkcKt_h0gE" role="33vP2m">
                          <node concept="1PxgMI" id="6XkcKt_h0gC" role="2Oq$k0">
                            <ref role="1m5ApE" to="tpck:h0TrEE$" resolve="INamedConcept" />
                            <node concept="2OqwBi" id="NHlUfyGC5P" role="1m5AlR">
                              <node concept="37vLTw" id="3GM_nagTyZZ" role="2Oq$k0">
                                <ref role="3cqZAo" node="6As03BmdRgS" resolve="extension" />
                              </node>
                              <node concept="1mfA1w" id="NHlUfyGCls" role="2OqNvi" />
                            </node>
                          </node>
                          <node concept="3TrcHB" id="6XkcKt_h0gI" role="2OqNvi">
                            <ref role="3TsBF5" to="tpck:h0TrG11" resolve="name" />
                          </node>
                        </node>
                      </node>
                    </node>
                    <node concept="3cpWs6" id="NHlUfyGClA" role="3cqZAp">
                      <node concept="3cpWs3" id="NHlUfyGClH" role="3cqZAk">
                        <node concept="37vLTw" id="3GM_nagTttO" role="3uHU7w">
                          <ref role="3cqZAo" node="NHlUfyGC5_" resolve="className" />
                        </node>
                        <node concept="3cpWs3" id="NHlUfyGClD" role="3uHU7B">
                          <node concept="37vLTw" id="3GM_nagTs25" role="3uHU7B">
                            <ref role="3cqZAo" node="6As03BmdRh3" resolve="namespace" />
                          </node>
                          <node concept="1Xhbcc" id="6cEFRXI_v99" role="3uHU7w">
                            <property role="1XhdNS" value="." />
                          </node>
                        </node>
                      </node>
                    </node>
                  </node>
                </node>
              </node>
              <node concept="17Uvod" id="NHlUfyGCm8" role="lGtFl">
                <property role="2qtEX9" value="methodName" />
                <property role="P4ACc" value="df345b11-b8c7-4213-ac66-48d2a9b75d88/1173990517731/1173992444083" />
                <node concept="3zFVjK" id="NHlUfyGCm9" role="3zH0cK">
                  <node concept="3clFbS" id="NHlUfyGCma" role="2VODD2">
                    <node concept="3clFbF" id="NHlUfyGCmb" role="3cqZAp">
                      <node concept="2OqwBi" id="NHlUfyGCmp" role="3clFbG">
                        <node concept="2OqwBi" id="NHlUfyGCmk" role="2Oq$k0">
                          <node concept="1PxgMI" id="NHlUfyGCmi" role="2Oq$k0">
                            <ref role="1m5ApE" to="uigu:1m3OroNmkwV" resolve="ExtensionMethodCall" />
                            <node concept="2OqwBi" id="NHlUfyGCmd" role="1m5AlR">
                              <node concept="30H73N" id="NHlUfyGCmc" role="2Oq$k0" />
                              <node concept="3TrEf2" id="NHlUfyGCmh" role="2OqNvi">
                                <ref role="3Tt5mk" to="tpee:hqOqNr4" />
                              </node>
                            </node>
                          </node>
                          <node concept="3TrEf2" id="NHlUfyGCmo" role="2OqNvi">
                            <ref role="3Tt5mk" to="uigu:1m3OroNmkwW" />
                          </node>
                        </node>
                        <node concept="3TrcHB" id="NHlUfyGCmu" role="2OqNvi">
                          <ref role="3TsBF5" to="tpck:h0TrG11" resolve="name" />
                        </node>
                      </node>
                    </node>
                  </node>
                </node>
              </node>
            </node>
          </node>
        </node>
      </node>
    </node>
  </node>
  <node concept="312cEu" id="6XkcKt_hpJe">
    <property role="TrG5h" value="BaseExtensionMethodContainerImpl" />
    <property role="3GE5qa" value="topLevel" />
    <node concept="3Tm1VV" id="6XkcKt_hpKv" role="1B3o_S" />
    <node concept="n94m4" id="6XkcKt_hpK$" role="lGtFl">
      <ref role="n9lRv" to="uigu:6XkcKt_ivkp" resolve="BaseExtensionMethodContainer" />
    </node>
    <node concept="17Uvod" id="6XkcKt_hpK_" role="lGtFl">
      <property role="2qtEX9" value="name" />
      <property role="P4ACc" value="ceab5195-25ea-4f22-9b92-103b95ca8c0c/1169194658468/1169194664001" />
      <node concept="3zFVjK" id="6XkcKt_hpKA" role="3zH0cK">
        <node concept="3clFbS" id="6XkcKt_hpKB" role="2VODD2">
          <node concept="3clFbF" id="6XkcKt_hpKC" role="3cqZAp">
            <node concept="2OqwBi" id="6XkcKt_hpKD" role="3clFbG">
              <node concept="30H73N" id="6XkcKt_hpKE" role="2Oq$k0" />
              <node concept="3TrcHB" id="6XkcKt_hpKF" role="2OqNvi">
                <ref role="3TsBF5" to="tpck:h0TrG11" resolve="name" />
              </node>
            </node>
          </node>
        </node>
      </node>
    </node>
    <node concept="Wx3nA" id="4HvovyAphwI" role="jymVt">
      <property role="TrG5h" value="a" />
      <property role="3TUv4t" value="true" />
      <node concept="3Tm6S6" id="4HvovyAphwJ" role="1B3o_S" />
      <node concept="10Oyi0" id="4HvovyAphTd" role="1tU5fm">
        <node concept="29HgVG" id="4HvovyAphVv" role="lGtFl">
          <node concept="3NFfHV" id="4HvovyAphVw" role="3NFExx">
            <node concept="3clFbS" id="4HvovyAphVx" role="2VODD2">
              <node concept="3clFbF" id="4HvovyAphVy" role="3cqZAp">
                <node concept="2OqwBi" id="4HvovyAphVA" role="3clFbG">
                  <node concept="30H73N" id="4HvovyAphVz" role="2Oq$k0" />
                  <node concept="3TrEf2" id="4HvovyAphVH" role="2OqNvi">
                    <ref role="3Tt5mk" to="tpee:4VkOLwjf83e" />
                  </node>
                </node>
              </node>
            </node>
          </node>
        </node>
      </node>
      <node concept="1WS0z7" id="4HvovyAphV6" role="lGtFl">
        <node concept="3JmXsc" id="4HvovyAphV7" role="3Jn$fo">
          <node concept="3clFbS" id="4HvovyAphV8" role="2VODD2">
            <node concept="3clFbF" id="4HvovyAphV9" role="3cqZAp">
              <node concept="2OqwBi" id="4HvovyAphVb" role="3clFbG">
                <node concept="30H73N" id="4HvovyAphVa" role="2Oq$k0" />
                <node concept="3Tsc0h" id="4HvovyAphVf" role="2OqNvi">
                  <ref role="3TtcxE" to="uigu:1HybphbILLv" />
                </node>
              </node>
            </node>
          </node>
        </node>
      </node>
      <node concept="17Uvod" id="4HvovyAphVg" role="lGtFl">
        <property role="2qtEX9" value="name" />
        <property role="P4ACc" value="ceab5195-25ea-4f22-9b92-103b95ca8c0c/1169194658468/1169194664001" />
        <node concept="3zFVjK" id="4HvovyAphVh" role="3zH0cK">
          <node concept="3clFbS" id="4HvovyAphVi" role="2VODD2">
            <node concept="3clFbF" id="4HvovyAphVk" role="3cqZAp">
              <node concept="2OqwBi" id="4HvovyAphVo" role="3clFbG">
                <node concept="30H73N" id="4HvovyAphVl" role="2Oq$k0" />
                <node concept="3TrcHB" id="4HvovyAphVu" role="2OqNvi">
                  <ref role="3TsBF5" to="tpck:h0TrG11" resolve="name" />
                </node>
              </node>
            </node>
          </node>
        </node>
      </node>
      <node concept="3cmrfG" id="4HvovyAphVY" role="33vP2m">
        <property role="3cmrfH" value="1" />
        <node concept="29HgVG" id="4HvovyAphW0" role="lGtFl">
          <node concept="3NFfHV" id="4HvovyAphW1" role="3NFExx">
            <node concept="3clFbS" id="4HvovyAphW2" role="2VODD2">
              <node concept="3clFbF" id="4HvovyAphW3" role="3cqZAp">
                <node concept="2OqwBi" id="4HvovyAphW7" role="3clFbG">
                  <node concept="30H73N" id="4HvovyAphW4" role="2Oq$k0" />
                  <node concept="3TrEf2" id="4HvovyAphWe" role="2OqNvi">
                    <ref role="3Tt5mk" to="tpee:fz3vP1I" />
                  </node>
                </node>
              </node>
            </node>
          </node>
        </node>
      </node>
    </node>
    <node concept="3clFbW" id="6XkcKt_hpKw" role="jymVt">
      <node concept="3cqZAl" id="6XkcKt_hpKx" role="3clF45" />
      <node concept="3Tm1VV" id="6XkcKt_hpKy" role="1B3o_S" />
      <node concept="3clFbS" id="6XkcKt_hpKz" role="3clF47" />
    </node>
    <node concept="2YIFZL" id="6XkcKt_hpJf" role="jymVt">
      <property role="TrG5h" value="name" />
      <node concept="37vLTG" id="6XkcKt_hpJg" role="3clF46">
        <property role="TrG5h" value="_this" />
        <property role="3TUv4t" value="true" />
        <node concept="2ZBi8u" id="63hMjyLSlBH" role="lGtFl">
          <ref role="2rW$FS" node="6xkNu_iwk3A" resolve="thisParam" />
        </node>
        <node concept="3uibUv" id="6XkcKt_hpJh" role="1tU5fm">
          <ref role="3uigEE" to="wyt6:~Object" resolve="Object" />
          <node concept="29HgVG" id="6XkcKt_hpJi" role="lGtFl">
            <node concept="3NFfHV" id="6XkcKt_hpJj" role="3NFExx">
              <node concept="3clFbS" id="6XkcKt_hpJk" role="2VODD2">
                <node concept="3clFbF" id="6XkcKt_hxMa" role="3cqZAp">
                  <node concept="2OqwBi" id="6XkcKt_hxMf" role="3clFbG">
                    <node concept="30H73N" id="6XkcKt_hxMb" role="2Oq$k0" />
                    <node concept="2qgKlT" id="6XkcKt_hy22" role="2OqNvi">
                      <ref role="37wK5l" to="5tns:6XkcKt_eUWM" resolve="getThisType" />
                    </node>
                  </node>
                </node>
              </node>
            </node>
          </node>
        </node>
      </node>
      <node concept="37vLTG" id="6XkcKt_hpJs" role="3clF46">
        <property role="TrG5h" value="a" />
        <node concept="3uibUv" id="6XkcKt_hpJt" role="1tU5fm">
          <ref role="3uigEE" to="wyt6:~Object" resolve="Object" />
        </node>
        <node concept="2b32R4" id="6XkcKt_hpJu" role="lGtFl">
          <node concept="3JmXsc" id="6XkcKt_hpJv" role="2P8S$">
            <node concept="3clFbS" id="6XkcKt_hpJw" role="2VODD2">
              <node concept="3clFbF" id="6XkcKt_hpJx" role="3cqZAp">
                <node concept="2OqwBi" id="6XkcKt_hpJy" role="3clFbG">
                  <node concept="3Tsc0h" id="6XkcKt_hpJz" role="2OqNvi">
                    <ref role="3TtcxE" to="tpee:fzclF7Y" />
                  </node>
                  <node concept="30H73N" id="6XkcKt_hpJ$" role="2Oq$k0" />
                </node>
              </node>
            </node>
          </node>
        </node>
      </node>
      <node concept="3cqZAl" id="6XkcKt_hpJ_" role="3clF45">
        <node concept="29HgVG" id="6XkcKt_hpJA" role="lGtFl">
          <node concept="3NFfHV" id="6XkcKt_hpJB" role="3NFExx">
            <node concept="3clFbS" id="6XkcKt_hpJC" role="2VODD2">
              <node concept="3clFbF" id="6XkcKt_hpJD" role="3cqZAp">
                <node concept="2OqwBi" id="6XkcKt_hpJE" role="3clFbG">
                  <node concept="3TrEf2" id="6XkcKt_hpJF" role="2OqNvi">
                    <ref role="3Tt5mk" to="tpee:fzclF7X" />
                  </node>
                  <node concept="30H73N" id="6XkcKt_hpJG" role="2Oq$k0" />
                </node>
              </node>
            </node>
          </node>
        </node>
      </node>
      <node concept="3Tm1VV" id="6XkcKt_hpJH" role="1B3o_S">
        <node concept="29HgVG" id="6XkcKt_hpJI" role="lGtFl">
          <node concept="3NFfHV" id="6XkcKt_hpJJ" role="3NFExx">
            <node concept="3clFbS" id="6XkcKt_hpJK" role="2VODD2">
              <node concept="3clFbF" id="6XkcKt_hpJL" role="3cqZAp">
                <node concept="2OqwBi" id="6XkcKt_hpJM" role="3clFbG">
                  <node concept="3TrEf2" id="6XkcKt_hpJN" role="2OqNvi">
                    <ref role="3Tt5mk" to="tpee:h9B3oxE" />
                  </node>
                  <node concept="30H73N" id="6XkcKt_hpJO" role="2Oq$k0" />
                </node>
              </node>
            </node>
          </node>
        </node>
      </node>
      <node concept="3clFbS" id="6XkcKt_hpJP" role="3clF47">
        <node concept="29HgVG" id="6XkcKt_hpJQ" role="lGtFl">
          <node concept="3NFfHV" id="6XkcKt_hpJR" role="3NFExx">
            <node concept="3clFbS" id="6XkcKt_hpJS" role="2VODD2">
              <node concept="3clFbF" id="6XkcKt_hpJT" role="3cqZAp">
                <node concept="2OqwBi" id="6XkcKt_hpJU" role="3clFbG">
                  <node concept="3TrEf2" id="6XkcKt_hpJV" role="2OqNvi">
                    <ref role="3Tt5mk" to="tpee:fzclF7Z" />
                  </node>
                  <node concept="30H73N" id="6XkcKt_hpJW" role="2Oq$k0" />
                </node>
              </node>
            </node>
          </node>
        </node>
      </node>
      <node concept="1WS0z7" id="6XkcKt_hpJX" role="lGtFl">
        <node concept="3JmXsc" id="6XkcKt_hpJY" role="3Jn$fo">
          <node concept="3clFbS" id="6XkcKt_hpJZ" role="2VODD2">
            <node concept="3clFbF" id="6XkcKt_hpK0" role="3cqZAp">
              <node concept="2OqwBi" id="6XkcKt_hpK1" role="3clFbG">
                <node concept="30H73N" id="6XkcKt_hpK2" role="2Oq$k0" />
                <node concept="3Tsc0h" id="6XkcKt_jY7r" role="2OqNvi">
                  <ref role="3TtcxE" to="uigu:6XkcKt_ivkr" />
                </node>
              </node>
            </node>
          </node>
        </node>
      </node>
      <node concept="17Uvod" id="6XkcKt_hpK4" role="lGtFl">
        <property role="2qtEX9" value="name" />
        <property role="P4ACc" value="ceab5195-25ea-4f22-9b92-103b95ca8c0c/1169194658468/1169194664001" />
        <node concept="3zFVjK" id="6XkcKt_hpK5" role="3zH0cK">
          <node concept="3clFbS" id="6XkcKt_hpK6" role="2VODD2">
            <node concept="3clFbF" id="6XkcKt_hpK7" role="3cqZAp">
              <node concept="2OqwBi" id="6XkcKt_hpK8" role="3clFbG">
                <node concept="3TrcHB" id="6XkcKt_hpK9" role="2OqNvi">
                  <ref role="3TsBF5" to="tpck:h0TrG11" resolve="name" />
                </node>
                <node concept="30H73N" id="6XkcKt_hpKa" role="2Oq$k0" />
              </node>
            </node>
          </node>
        </node>
      </node>
      <node concept="16euLQ" id="6XkcKt_hpKb" role="16eVyc">
        <property role="TrG5h" value="extensionGeneric" />
        <node concept="2b32R4" id="6XkcKt_hpKc" role="lGtFl">
          <node concept="3JmXsc" id="6XkcKt_hpKd" role="2P8S$">
            <node concept="3clFbS" id="6XkcKt_hpKe" role="2VODD2">
              <node concept="3clFbF" id="6XkcKt_hpKf" role="3cqZAp">
                <node concept="2OqwBi" id="6XkcKt_hpKg" role="3clFbG">
                  <node concept="2OqwBi" id="6XkcKt_hpKh" role="2Oq$k0">
                    <node concept="30H73N" id="6XkcKt_hpKi" role="2Oq$k0" />
                    <node concept="2Xjw5R" id="6XkcKt_hpKj" role="2OqNvi">
                      <node concept="1xMEDy" id="6XkcKt_hpKk" role="1xVPHs">
                        <node concept="chp4Y" id="6XkcKt_hpKl" role="ri$Ld">
                          <ref role="cht4Q" to="uigu:1DaIGCE_cSg" resolve="TypeExtension" />
                        </node>
                      </node>
                    </node>
                  </node>
                  <node concept="3Tsc0h" id="6XkcKt_hpKm" role="2OqNvi">
                    <ref role="3TtcxE" to="tpee:g96eVAe" />
                  </node>
                </node>
              </node>
            </node>
          </node>
        </node>
      </node>
      <node concept="16euLQ" id="6XkcKt_hpKn" role="16eVyc">
        <property role="TrG5h" value="name" />
        <node concept="2b32R4" id="6XkcKt_hpKo" role="lGtFl">
          <node concept="3JmXsc" id="6XkcKt_hpKp" role="2P8S$">
            <node concept="3clFbS" id="6XkcKt_hpKq" role="2VODD2">
              <node concept="3clFbF" id="6XkcKt_hpKr" role="3cqZAp">
                <node concept="2OqwBi" id="6XkcKt_hpKs" role="3clFbG">
                  <node concept="3Tsc0h" id="6XkcKt_hpKt" role="2OqNvi">
                    <ref role="3TtcxE" to="tpee:g96eVAe" />
                  </node>
                  <node concept="30H73N" id="6XkcKt_hpKu" role="2Oq$k0" />
                </node>
              </node>
            </node>
          </node>
        </node>
      </node>
      <node concept="3uibUv" id="57zizmanwOK" role="Sfmx6">
        <ref role="3uigEE" to="wyt6:~Exception" resolve="Exception" />
        <node concept="1WS0z7" id="57zizmanwOQ" role="lGtFl">
          <node concept="3JmXsc" id="57zizmanwOR" role="3Jn$fo">
            <node concept="3clFbS" id="57zizmanwOS" role="2VODD2">
              <node concept="3clFbF" id="57zizmanwOT" role="3cqZAp">
                <node concept="2OqwBi" id="57zizmanwOX" role="3clFbG">
                  <node concept="30H73N" id="57zizmanwOU" role="2Oq$k0" />
                  <node concept="3Tsc0h" id="57zizmanwP4" role="2OqNvi">
                    <ref role="3TtcxE" to="tpee:gWSfm_9" />
                  </node>
                </node>
              </node>
            </node>
          </node>
        </node>
        <node concept="29HgVG" id="57zizmanwON" role="lGtFl" />
      </node>
    </node>
  </node>
  <node concept="13MO4I" id="6xkNu_iwkds">
    <property role="TrG5h" value="reduce_LocalExtendedMethodCall" />
    <ref role="3gUMe" to="uigu:6EBM_lhyT5K" resolve="LocalExtendedMethodCall" />
    <node concept="3clFb_" id="6xkNu_iwkdu" role="13RCb5">
      <property role="TrG5h" value="f" />
      <node concept="3cqZAl" id="6xkNu_iwkdv" role="3clF45" />
      <node concept="3Tm1VV" id="6xkNu_iwkdw" role="1B3o_S" />
      <node concept="3clFbS" id="6xkNu_iwkdx" role="3clF47">
        <node concept="3clFbF" id="6xkNu_iwkdA" role="3cqZAp">
          <node concept="2OqwBi" id="6xkNu_iwkdC" role="3clFbG">
            <node concept="37vLTw" id="2BHiRxglYCb" role="2Oq$k0">
              <ref role="3cqZAo" node="6xkNu_iwkdy" resolve="_this" />
              <node concept="1ZhdrF" id="63hMjyLSlC2" role="lGtFl">
                <property role="2qtEX8" value="variableDeclaration" />
                <property role="P3scX" value="f3061a53-9226-4cc5-a443-f952ceaf5816/1068498886296/1068581517664" />
                <node concept="3$xsQk" id="63hMjyLSlC3" role="3$ytzL">
                  <node concept="3clFbS" id="63hMjyLSlC4" role="2VODD2">
                    <node concept="3clFbF" id="63hMjyLSlC5" role="3cqZAp">
                      <node concept="2OqwBi" id="63hMjyLSlC6" role="3clFbG">
                        <node concept="1iwH7S" id="63hMjyLSlC7" role="2Oq$k0" />
                        <node concept="1iwH70" id="63hMjyLSlC8" role="2OqNvi">
                          <ref role="1iwH77" node="6xkNu_iwk3A" resolve="thisParam" />
                          <node concept="2OqwBi" id="63hMjyLSlC9" role="1iwH7V">
                            <node concept="30H73N" id="63hMjyLSlCa" role="2Oq$k0" />
                            <node concept="2Xjw5R" id="63hMjyLSlCb" role="2OqNvi">
                              <node concept="1xMEDy" id="63hMjyLSlCc" role="1xVPHs">
                                <node concept="chp4Y" id="63hMjyLSlCd" role="ri$Ld">
                                  <ref role="cht4Q" to="uigu:1m3OroNpuvT" resolve="ExtensionMethodDeclaration" />
                                </node>
                              </node>
                            </node>
                          </node>
                        </node>
                      </node>
                    </node>
                  </node>
                </node>
              </node>
            </node>
            <node concept="liA8E" id="6xkNu_iwkdG" role="2OqNvi">
              <ref role="37wK5l" to="wyt6:~String.charAt(int):char" resolve="charAt" />
              <node concept="3cmrfG" id="63hMjyLSlCf" role="37wK5m">
                <property role="3cmrfH" value="0" />
                <node concept="2b32R4" id="63hMjyLSlCh" role="lGtFl">
                  <node concept="3JmXsc" id="63hMjyLSlCk" role="2P8S$">
                    <node concept="3clFbS" id="63hMjyLSlCl" role="2VODD2">
                      <node concept="3clFbF" id="63hMjyLSlCm" role="3cqZAp">
                        <node concept="2OqwBi" id="63hMjyLSlCn" role="3clFbG">
                          <node concept="3Tsc0h" id="63hMjyLSlCo" role="2OqNvi">
                            <ref role="3TtcxE" to="tpee:fz7wK6I" />
                          </node>
                          <node concept="30H73N" id="63hMjyLSlCp" role="2Oq$k0" />
                        </node>
                      </node>
                    </node>
                  </node>
                </node>
              </node>
              <node concept="1ZhdrF" id="6xkNu_iwndA" role="lGtFl">
                <property role="2qtEX8" value="baseMethodDeclaration" />
                <property role="P3scX" value="f3061a53-9226-4cc5-a443-f952ceaf5816/1204053956946/1068499141037" />
                <node concept="3$xsQk" id="6xkNu_iwndB" role="3$ytzL">
                  <node concept="3clFbS" id="6xkNu_iwndC" role="2VODD2">
                    <node concept="3clFbF" id="6xkNu_iwndE" role="3cqZAp">
                      <node concept="2OqwBi" id="6xkNu_iwndL" role="3clFbG">
                        <node concept="2OqwBi" id="6xkNu_iwndG" role="2Oq$k0">
                          <node concept="30H73N" id="6xkNu_iwndF" role="2Oq$k0" />
                          <node concept="3TrEf2" id="6xkNu_iwndK" role="2OqNvi">
                            <ref role="3Tt5mk" to="uigu:6EBM_lhyT5L" />
                          </node>
                        </node>
                        <node concept="3TrcHB" id="6xkNu_iwndP" role="2OqNvi">
                          <ref role="3TsBF5" to="tpck:h0TrG11" resolve="name" />
                        </node>
                      </node>
                    </node>
                  </node>
                </node>
              </node>
            </node>
            <node concept="raruj" id="6xkNu_iwkdJ" role="lGtFl" />
          </node>
        </node>
        <node concept="3clFbH" id="6xkNu_iwndD" role="3cqZAp" />
      </node>
      <node concept="37vLTG" id="6xkNu_iwkdy" role="3clF46">
        <property role="TrG5h" value="_this" />
        <node concept="17QB3L" id="6xkNu_iwkd_" role="1tU5fm" />
      </node>
    </node>
  </node>
</model>

