<?xml version="1.0" encoding="UTF-8"?>
<model ref="r:0ae9068e-ff36-49f1-b852-e23f63981832(jetbrains.mps.samples.generator_demo.demoLang4.structure)">
  <persistence version="9" />
  <languages>
    <use id="982eb8df-2c96-4bd7-9963-11712ea622e5" name="jetbrains.mps.lang.resources" version="2" />
  </languages>
  <imports />
  <registry />
</model>

