<?xml version="1.0" encoding="UTF-8"?>
<model ref="r:38e64454-bd7a-45b9-8394-d534cb1010ca(org.jetbrains.mps.samples.IfAndUnless.dataFlow)">
  <persistence version="9" />
  <languages>
    <use id="7fa12e9c-b949-4976-b4fa-19accbc320b4" name="jetbrains.mps.lang.dataFlow" version="0" />
    <devkit ref="fbc25dd2-5da4-483a-8b19-70928e1b62d7(jetbrains.mps.devkit.general-purpose)" />
  </languages>
  <imports>
    <import index="3v68" ref="r:47174b35-df1c-485d-9362-8e3256f44aca(org.jetbrains.mps.samples.IfAndUnless.structure)" />
    <import index="tpee" ref="r:00000000-0000-4000-0000-011c895902ca(jetbrains.mps.baseLanguage.structure)" />
  </imports>
  <registry>
    <language id="f3061a53-9226-4cc5-a443-f952ceaf5816" name="jetbrains.mps.baseLanguage">
      <concept id="1082485599095" name="jetbrains.mps.baseLanguage.structure.BlockStatement" flags="nn" index="9aQIb">
        <child id="1082485599096" name="statements" index="9aQI4" />
      </concept>
      <concept id="1197027756228" name="jetbrains.mps.baseLanguage.structure.DotExpression" flags="nn" index="2OqwBi">
        <child id="1197027771414" name="operand" index="2Oq$k0" />
        <child id="1197027833540" name="operation" index="2OqNvi" />
      </concept>
      <concept id="1137021947720" name="jetbrains.mps.baseLanguage.structure.ConceptFunction" flags="in" index="2VMwT0">
        <child id="1137022507850" name="body" index="2VODD2" />
      </concept>
      <concept id="1068431474542" name="jetbrains.mps.baseLanguage.structure.VariableDeclaration" flags="ng" index="33uBYm">
        <child id="1068431790190" name="initializer" index="33vP2m" />
      </concept>
      <concept id="1068498886296" name="jetbrains.mps.baseLanguage.structure.VariableReference" flags="nn" index="37vLTw">
        <reference id="1068581517664" name="variableDeclaration" index="3cqZAo" />
      </concept>
      <concept id="4972933694980447171" name="jetbrains.mps.baseLanguage.structure.BaseVariableDeclaration" flags="ng" index="19Szcq">
        <child id="5680397130376446158" name="type" index="1tU5fm" />
      </concept>
      <concept id="1068580123157" name="jetbrains.mps.baseLanguage.structure.Statement" flags="nn" index="3clFbH" />
      <concept id="1068580123159" name="jetbrains.mps.baseLanguage.structure.IfStatement" flags="nn" index="3clFbJ">
        <child id="1082485599094" name="ifFalseStatement" index="9aQIa" />
        <child id="1068580123160" name="condition" index="3clFbw" />
        <child id="1068580123161" name="ifTrue" index="3clFbx" />
      </concept>
      <concept id="1068580123136" name="jetbrains.mps.baseLanguage.structure.StatementList" flags="sn" stub="5293379017992965193" index="3clFbS">
        <child id="1068581517665" name="statement" index="3cqZAp" />
      </concept>
      <concept id="1068581242864" name="jetbrains.mps.baseLanguage.structure.LocalVariableDeclarationStatement" flags="nn" index="3cpWs8">
        <child id="1068581242865" name="localVariableDeclaration" index="3cpWs9" />
      </concept>
      <concept id="1068581242863" name="jetbrains.mps.baseLanguage.structure.LocalVariableDeclaration" flags="nr" index="3cpWsn" />
    </language>
    <language id="7fa12e9c-b949-4976-b4fa-19accbc320b4" name="jetbrains.mps.lang.dataFlow">
      <concept id="1207062474157" name="jetbrains.mps.lang.dataFlow.structure.EmitLabelStatement" flags="ng" index="axUMO" />
      <concept id="1207062697254" name="jetbrains.mps.lang.dataFlow.structure.LabelPosition" flags="ng" index="ayLgZ">
        <reference id="1207062703832" name="label" index="ayMZ1" />
      </concept>
      <concept id="1206442055221" name="jetbrains.mps.lang.dataFlow.structure.DataFlowBuilderDeclaration" flags="ig" index="3_zdsH">
        <reference id="1206442096288" name="conceptDeclaration" index="3_znuS" />
        <child id="1206442812839" name="builderBlock" index="3_A6iZ" />
      </concept>
      <concept id="1206442659665" name="jetbrains.mps.lang.dataFlow.structure.BuilderBlock" flags="in" index="3__wT9" />
      <concept id="1206442747519" name="jetbrains.mps.lang.dataFlow.structure.NodeParameter" flags="nn" index="3__QtB" />
      <concept id="1206445181593" name="jetbrains.mps.lang.dataFlow.structure.BaseEmitJumpStatement" flags="nn" index="3_J8I1">
        <child id="1206445193860" name="jumpTo" index="3_JbIs" />
      </concept>
      <concept id="1206445295557" name="jetbrains.mps.lang.dataFlow.structure.EmitIfJumpStatement" flags="nn" index="3_J$rt" />
      <concept id="1206445310309" name="jetbrains.mps.lang.dataFlow.structure.EmitJumpStatement" flags="nn" index="3_JC1X" />
      <concept id="1206454052847" name="jetbrains.mps.lang.dataFlow.structure.EmitCodeForStatement" flags="nn" index="3AgYrR">
        <child id="1206454079161" name="codeFor" index="3Ah4Yx" />
      </concept>
    </language>
    <language id="7866978e-a0f0-4cc7-81bc-4d213d9375e1" name="jetbrains.mps.lang.smodel">
      <concept id="1177026924588" name="jetbrains.mps.lang.smodel.structure.RefConcept_Reference" flags="nn" index="chp4Y">
        <reference id="1177026940964" name="conceptDeclaration" index="cht4Q" />
      </concept>
      <concept id="2396822768958367367" name="jetbrains.mps.lang.smodel.structure.AbstractTypeCastExpression" flags="nn" index="$5XWr">
        <reference id="6733348108486823428" name="concept" index="1m5ApE" />
        <child id="6733348108486823193" name="leftExpression" index="1m5AlR" />
      </concept>
      <concept id="1139621453865" name="jetbrains.mps.lang.smodel.structure.Node_IsInstanceOfOperation" flags="nn" index="1mIQ4w">
        <child id="1177027386292" name="conceptArgument" index="cj9EA" />
      </concept>
      <concept id="1140137987495" name="jetbrains.mps.lang.smodel.structure.SNodeTypeCastExpression" flags="nn" index="1PxgMI" />
      <concept id="1138055754698" name="jetbrains.mps.lang.smodel.structure.SNodeType" flags="in" index="3Tqbb2">
        <reference id="1138405853777" name="concept" index="ehGHo" />
      </concept>
      <concept id="1138056022639" name="jetbrains.mps.lang.smodel.structure.SPropertyAccess" flags="nn" index="3TrcHB">
        <reference id="1138056395725" name="property" index="3TsBF5" />
      </concept>
      <concept id="1138056143562" name="jetbrains.mps.lang.smodel.structure.SLinkAccess" flags="nn" index="3TrEf2">
        <reference id="1138056516764" name="link" index="3Tt5mk" />
      </concept>
    </language>
    <language id="ceab5195-25ea-4f22-9b92-103b95ca8c0c" name="jetbrains.mps.lang.core">
      <concept id="1169194658468" name="jetbrains.mps.lang.core.structure.INamedConcept" flags="ng" index="TrEIO">
        <property id="1169194664001" name="name" index="TrG5h" />
      </concept>
    </language>
  </registry>
  <node concept="3_zdsH" id="2ZjivXYZx1H">
    <ref role="3_znuS" to="3v68:lPhVsfdHKd" resolve="UnlessStatement" />
    <node concept="3__wT9" id="2ZjivXYZx1I" role="3_A6iZ">
      <node concept="3clFbS" id="2ZjivXYZx1J" role="2VODD2">
        <node concept="3AgYrR" id="2ZjivXYZR5W" role="3cqZAp">
          <node concept="2OqwBi" id="2ZjivXYZR5Z" role="3Ah4Yx">
            <node concept="3__QtB" id="2ZjivXYZR5Y" role="2Oq$k0" />
            <node concept="3TrEf2" id="2ZjivXYZR63" role="2OqNvi">
              <ref role="3Tt5mk" to="3v68:lPhVsfdHKe" />
            </node>
          </node>
        </node>
        <node concept="3clFbJ" id="2ZjivXYZR65" role="3cqZAp">
          <node concept="3clFbS" id="2ZjivXYZR66" role="3clFbx">
            <node concept="3cpWs8" id="2ZjivXYZR6$" role="3cqZAp">
              <node concept="3cpWsn" id="2ZjivXYZR6_" role="3cpWs9">
                <property role="TrG5h" value="constant" />
                <node concept="3Tqbb2" id="2ZjivXYZR6A" role="1tU5fm">
                  <ref role="ehGHo" to="tpee:fzclF81" resolve="BooleanConstant" />
                </node>
                <node concept="1PxgMI" id="2ZjivXYZR6B" role="33vP2m">
                  <ref role="1m5ApE" to="tpee:fzclF81" resolve="BooleanConstant" />
                  <node concept="2OqwBi" id="2ZjivXYZR6C" role="1m5AlR">
                    <node concept="3__QtB" id="2ZjivXYZR6D" role="2Oq$k0" />
                    <node concept="3TrEf2" id="2ZjivXYZR6E" role="2OqNvi">
                      <ref role="3Tt5mk" to="3v68:lPhVsfdHKe" />
                    </node>
                  </node>
                </node>
              </node>
            </node>
            <node concept="3clFbJ" id="2ZjivXYZR6G" role="3cqZAp">
              <node concept="3clFbS" id="2ZjivXYZR6H" role="3clFbx">
                <node concept="3_JC1X" id="2ZjivXYZR6Q" role="3cqZAp">
                  <node concept="ayLgZ" id="2ZjivXYZR6S" role="3_JbIs">
                    <ref role="ayMZ1" node="2ZjivXYZR7a" resolve="endOfBody" />
                  </node>
                </node>
                <node concept="3clFbH" id="2ZjivXYZR6T" role="3cqZAp" />
              </node>
              <node concept="2OqwBi" id="2ZjivXYZR6L" role="3clFbw">
                <node concept="37vLTw" id="3GM_nagTtp3" role="2Oq$k0">
                  <ref role="3cqZAo" node="2ZjivXYZR6_" resolve="constant" />
                </node>
                <node concept="3TrcHB" id="2ZjivXYZR6P" role="2OqNvi">
                  <ref role="3TsBF5" to="tpee:fzclF82" resolve="value" />
                </node>
              </node>
            </node>
          </node>
          <node concept="2OqwBi" id="2ZjivXYZR6j" role="3clFbw">
            <node concept="2OqwBi" id="2ZjivXYZR6a" role="2Oq$k0">
              <node concept="3__QtB" id="2ZjivXYZR69" role="2Oq$k0" />
              <node concept="3TrEf2" id="2ZjivXYZR6e" role="2OqNvi">
                <ref role="3Tt5mk" to="3v68:lPhVsfdHKe" />
              </node>
            </node>
            <node concept="1mIQ4w" id="2ZjivXYZR6n" role="2OqNvi">
              <node concept="chp4Y" id="2ZjivXYZR6p" role="cj9EA">
                <ref role="cht4Q" to="tpee:fzclF81" resolve="BooleanConstant" />
              </node>
            </node>
          </node>
          <node concept="9aQIb" id="2ZjivXYZR6Y" role="9aQIa">
            <node concept="3clFbS" id="2ZjivXYZR6Z" role="9aQI4">
              <node concept="3_J$rt" id="2ZjivXYZR6W" role="3cqZAp">
                <node concept="ayLgZ" id="2ZjivXYZR7b" role="3_JbIs">
                  <ref role="ayMZ1" node="2ZjivXYZR7a" resolve="endOfBody" />
                </node>
              </node>
            </node>
          </node>
        </node>
        <node concept="3AgYrR" id="2ZjivXYZR71" role="3cqZAp">
          <node concept="2OqwBi" id="2ZjivXYZR74" role="3Ah4Yx">
            <node concept="3__QtB" id="2ZjivXYZR73" role="2Oq$k0" />
            <node concept="3TrEf2" id="2ZjivXYZR78" role="2OqNvi">
              <ref role="3Tt5mk" to="3v68:lPhVsfdHKs" />
            </node>
          </node>
        </node>
        <node concept="axUMO" id="2ZjivXYZR7a" role="3cqZAp">
          <property role="TrG5h" value="endOfBody" />
        </node>
      </node>
    </node>
  </node>
</model>

