<?xml version="1.0" encoding="UTF-8"?>
<model ref="r:c94a864e-ad51-4b38-a592-c0d7623187a1(org.jetbrains.mps.samples.IfAndUnless.intentions)">
  <persistence version="9" />
  <languages>
    <use id="aee9cad2-acd4-4608-aef2-0004f6a1cdbd" name="jetbrains.mps.lang.actions" version="0" />
    <use id="d7a92d38-f7db-40d0-8431-763b0c3c9f20" name="jetbrains.mps.lang.intentions" version="0" />
    <use id="13744753-c81f-424a-9c1b-cf8943bf4e86" name="jetbrains.mps.lang.sharedConcepts" version="0" />
    <devkit ref="fbc25dd2-5da4-483a-8b19-70928e1b62d7(jetbrains.mps.devkit.general-purpose)" />
  </languages>
  <imports>
    <import index="3v68" ref="r:47174b35-df1c-485d-9362-8e3256f44aca(org.jetbrains.mps.samples.IfAndUnless.structure)" />
    <import index="tpee" ref="r:00000000-0000-4000-0000-011c895902ca(jetbrains.mps.baseLanguage.structure)" />
    <import index="exr9" ref="1ed103c3-3aa6-49b7-9c21-6765ee11f224/java:jetbrains.mps.nodeEditor(MPS.Editor/)" />
    <import index="cj4x" ref="1ed103c3-3aa6-49b7-9c21-6765ee11f224/java:jetbrains.mps.openapi.editor(MPS.Editor/)" />
  </imports>
  <registry>
    <language id="13744753-c81f-424a-9c1b-cf8943bf4e86" name="jetbrains.mps.lang.sharedConcepts">
      <concept id="1194033889146" name="jetbrains.mps.lang.sharedConcepts.structure.ConceptFunctionParameter_editorContext" flags="nn" index="1XNTG" />
    </language>
    <language id="f3061a53-9226-4cc5-a443-f952ceaf5816" name="jetbrains.mps.baseLanguage">
      <concept id="1082485599095" name="jetbrains.mps.baseLanguage.structure.BlockStatement" flags="nn" index="9aQIb">
        <child id="1082485599096" name="statements" index="9aQI4" />
      </concept>
      <concept id="1215693861676" name="jetbrains.mps.baseLanguage.structure.BaseAssignmentExpression" flags="nn" index="d038R">
        <child id="1068498886297" name="rValue" index="37vLTx" />
        <child id="1068498886295" name="lValue" index="37vLTJ" />
      </concept>
      <concept id="1215695189714" name="jetbrains.mps.baseLanguage.structure.PlusAssignmentExpression" flags="nn" index="d57v9" />
      <concept id="4836112446988635817" name="jetbrains.mps.baseLanguage.structure.UndefinedType" flags="in" index="2jxLKc" />
      <concept id="1202948039474" name="jetbrains.mps.baseLanguage.structure.InstanceMethodCallOperation" flags="nn" index="liA8E" />
      <concept id="1154032098014" name="jetbrains.mps.baseLanguage.structure.AbstractLoopStatement" flags="nn" index="2LF5Ji">
        <child id="1154032183016" name="body" index="2LFqv$" />
      </concept>
      <concept id="1197027756228" name="jetbrains.mps.baseLanguage.structure.DotExpression" flags="nn" index="2OqwBi">
        <child id="1197027771414" name="operand" index="2Oq$k0" />
        <child id="1197027833540" name="operation" index="2OqNvi" />
      </concept>
      <concept id="1145552977093" name="jetbrains.mps.baseLanguage.structure.GenericNewExpression" flags="nn" index="2ShNRf">
        <child id="1145553007750" name="creator" index="2ShVmc" />
      </concept>
      <concept id="1137021947720" name="jetbrains.mps.baseLanguage.structure.ConceptFunction" flags="in" index="2VMwT0">
        <child id="1137022507850" name="body" index="2VODD2" />
      </concept>
      <concept id="1070475926800" name="jetbrains.mps.baseLanguage.structure.StringLiteral" flags="nn" index="Xl_RD">
        <property id="1070475926801" name="value" index="Xl_RC" />
      </concept>
      <concept id="1070534058343" name="jetbrains.mps.baseLanguage.structure.NullLiteral" flags="nn" index="10Nm6u" />
      <concept id="1070534370425" name="jetbrains.mps.baseLanguage.structure.IntegerType" flags="in" index="10Oyi0" />
      <concept id="1068431474542" name="jetbrains.mps.baseLanguage.structure.VariableDeclaration" flags="ng" index="33uBYm">
        <property id="1176718929932" name="isFinal" index="3TUv4t" />
        <child id="1068431790190" name="initializer" index="33vP2m" />
      </concept>
      <concept id="1068498886296" name="jetbrains.mps.baseLanguage.structure.VariableReference" flags="nn" index="37vLTw">
        <reference id="1068581517664" name="variableDeclaration" index="3cqZAo" />
      </concept>
      <concept id="1068498886294" name="jetbrains.mps.baseLanguage.structure.AssignmentExpression" flags="nn" index="37vLTI" />
      <concept id="1225271283259" name="jetbrains.mps.baseLanguage.structure.NPEEqualsExpression" flags="nn" index="17R0WA" />
      <concept id="4972933694980447171" name="jetbrains.mps.baseLanguage.structure.BaseVariableDeclaration" flags="ng" index="19Szcq">
        <child id="5680397130376446158" name="type" index="1tU5fm" />
      </concept>
      <concept id="1068580123155" name="jetbrains.mps.baseLanguage.structure.ExpressionStatement" flags="nn" index="3clFbF">
        <child id="1068580123156" name="expression" index="3clFbG" />
      </concept>
      <concept id="1068580123157" name="jetbrains.mps.baseLanguage.structure.Statement" flags="nn" index="3clFbH" />
      <concept id="1068580123159" name="jetbrains.mps.baseLanguage.structure.IfStatement" flags="nn" index="3clFbJ">
        <child id="1082485599094" name="ifFalseStatement" index="9aQIa" />
        <child id="1068580123160" name="condition" index="3clFbw" />
        <child id="1068580123161" name="ifTrue" index="3clFbx" />
      </concept>
      <concept id="1068580123136" name="jetbrains.mps.baseLanguage.structure.StatementList" flags="sn" stub="5293379017992965193" index="3clFbS">
        <child id="1068581517665" name="statement" index="3cqZAp" />
      </concept>
      <concept id="1068580123137" name="jetbrains.mps.baseLanguage.structure.BooleanConstant" flags="nn" index="3clFbT">
        <property id="1068580123138" name="value" index="3clFbU" />
      </concept>
      <concept id="1068580320020" name="jetbrains.mps.baseLanguage.structure.IntegerConstant" flags="nn" index="3cmrfG">
        <property id="1068580320021" name="value" index="3cmrfH" />
      </concept>
      <concept id="1068581242878" name="jetbrains.mps.baseLanguage.structure.ReturnStatement" flags="nn" index="3cpWs6">
        <child id="1068581517676" name="expression" index="3cqZAk" />
      </concept>
      <concept id="1068581242864" name="jetbrains.mps.baseLanguage.structure.LocalVariableDeclarationStatement" flags="nn" index="3cpWs8">
        <child id="1068581242865" name="localVariableDeclaration" index="3cpWs9" />
      </concept>
      <concept id="1068581242863" name="jetbrains.mps.baseLanguage.structure.LocalVariableDeclaration" flags="nr" index="3cpWsn" />
      <concept id="1204053956946" name="jetbrains.mps.baseLanguage.structure.IMethodCall" flags="ng" index="1ndlxa">
        <reference id="1068499141037" name="baseMethodDeclaration" index="37wK5l" />
        <child id="1068499141038" name="actualArgument" index="37wK5m" />
      </concept>
      <concept id="1081773326031" name="jetbrains.mps.baseLanguage.structure.BinaryOperation" flags="nn" index="3uHJSO">
        <child id="1081773367579" name="rightExpression" index="3uHU7w" />
        <child id="1081773367580" name="leftExpression" index="3uHU7B" />
      </concept>
      <concept id="1073239437375" name="jetbrains.mps.baseLanguage.structure.NotEqualsExpression" flags="nn" index="3y3z36" />
      <concept id="6329021646629104957" name="jetbrains.mps.baseLanguage.structure.TextCommentPart" flags="nn" index="3SKdUq">
        <property id="6329021646629104958" name="text" index="3SKdUp" />
      </concept>
      <concept id="6329021646629104954" name="jetbrains.mps.baseLanguage.structure.SingleLineComment" flags="nn" index="3SKdUt">
        <child id="6329021646629175155" name="commentPart" index="3SKWNk" />
      </concept>
    </language>
    <language id="fd392034-7849-419d-9071-12563d152375" name="jetbrains.mps.baseLanguage.closures">
      <concept id="1199569711397" name="jetbrains.mps.baseLanguage.closures.structure.ClosureLiteral" flags="nn" index="1bVj0M">
        <child id="1199569906740" name="parameter" index="1bW2Oz" />
        <child id="1199569916463" name="body" index="1bW5cS" />
      </concept>
    </language>
    <language id="d7a92d38-f7db-40d0-8431-763b0c3c9f20" name="jetbrains.mps.lang.intentions">
      <concept id="1192794744107" name="jetbrains.mps.lang.intentions.structure.IntentionDeclaration" flags="ig" index="2S6QgY" />
      <concept id="1192794782375" name="jetbrains.mps.lang.intentions.structure.DescriptionBlock" flags="in" index="2S6ZIM" />
      <concept id="1192795771125" name="jetbrains.mps.lang.intentions.structure.IsApplicableBlock" flags="in" index="2SaL7w" />
      <concept id="1192795911897" name="jetbrains.mps.lang.intentions.structure.ExecuteBlock" flags="in" index="2Sbjvc" />
      <concept id="1192796902958" name="jetbrains.mps.lang.intentions.structure.ConceptFunctionParameter_node" flags="nn" index="2Sf5sV" />
      <concept id="2522969319638198293" name="jetbrains.mps.lang.intentions.structure.SurroundWithIntentionDeclaration" flags="ig" index="2ZfgGJ" />
      <concept id="2522969319638091381" name="jetbrains.mps.lang.intentions.structure.BaseIntentionDeclaration" flags="ig" index="2ZfUlf">
        <reference id="2522969319638198290" name="forConcept" index="2ZfgGC" />
        <child id="2522969319638198291" name="executeFunction" index="2ZfgGD" />
        <child id="2522969319638093995" name="isApplicableFunction" index="2ZfVeh" />
        <child id="2522969319638093993" name="descriptionFunction" index="2ZfVej" />
      </concept>
    </language>
    <language id="aee9cad2-acd4-4608-aef2-0004f6a1cdbd" name="jetbrains.mps.lang.actions">
      <concept id="5979988948250981289" name="jetbrains.mps.lang.actions.structure.SNodeCreatorAndInitializer" flags="nn" index="2fJWfE" />
      <concept id="767145758118872828" name="jetbrains.mps.lang.actions.structure.NF_Node_ReplaceWithNewOperation" flags="nn" index="2DeJnW" />
    </language>
    <language id="7866978e-a0f0-4cc7-81bc-4d213d9375e1" name="jetbrains.mps.lang.smodel">
      <concept id="1177026924588" name="jetbrains.mps.lang.smodel.structure.RefConcept_Reference" flags="nn" index="chp4Y">
        <reference id="1177026940964" name="conceptDeclaration" index="cht4Q" />
      </concept>
      <concept id="1138411891628" name="jetbrains.mps.lang.smodel.structure.SNodeOperation" flags="nn" index="eCIE_">
        <child id="1144104376918" name="parameter" index="1xVPHs" />
      </concept>
      <concept id="1140725362528" name="jetbrains.mps.lang.smodel.structure.Link_SetTargetOperation" flags="nn" index="2oxUTD">
        <child id="1140725362529" name="linkTarget" index="2oxUTC" />
      </concept>
      <concept id="1173122760281" name="jetbrains.mps.lang.smodel.structure.Node_GetAncestorsOperation" flags="nn" index="z$bX8" />
      <concept id="2396822768958367367" name="jetbrains.mps.lang.smodel.structure.AbstractTypeCastExpression" flags="nn" index="$5XWr">
        <reference id="6733348108486823428" name="concept" index="1m5ApE" />
        <child id="6733348108486823193" name="leftExpression" index="1m5AlR" />
      </concept>
      <concept id="1143224066846" name="jetbrains.mps.lang.smodel.structure.Node_InsertNextSiblingOperation" flags="nn" index="HtI8k">
        <child id="1143224066849" name="insertedNode" index="HtI8F" />
      </concept>
      <concept id="1145383075378" name="jetbrains.mps.lang.smodel.structure.SNodeListType" flags="in" index="2I9FWS" />
      <concept id="1171407110247" name="jetbrains.mps.lang.smodel.structure.Node_GetAncestorOperation" flags="nn" index="2Xjw5R" />
      <concept id="1139613262185" name="jetbrains.mps.lang.smodel.structure.Node_GetParentOperation" flags="nn" index="1mfA1w" />
      <concept id="1139621453865" name="jetbrains.mps.lang.smodel.structure.Node_IsInstanceOfOperation" flags="nn" index="1mIQ4w">
        <child id="1177027386292" name="conceptArgument" index="cj9EA" />
      </concept>
      <concept id="1172008320231" name="jetbrains.mps.lang.smodel.structure.Node_IsNotNullOperation" flags="nn" index="3x8VRR" />
      <concept id="1144100932627" name="jetbrains.mps.lang.smodel.structure.OperationParm_Inclusion" flags="ng" index="1xIGOp" />
      <concept id="1144101972840" name="jetbrains.mps.lang.smodel.structure.OperationParm_Concept" flags="ng" index="1xMEDy">
        <child id="1207343664468" name="conceptArgument" index="ri$Ld" />
      </concept>
      <concept id="1180636770613" name="jetbrains.mps.lang.smodel.structure.SNodeCreator" flags="nn" index="3zrR0B">
        <child id="1180636770616" name="createdType" index="3zrR0E" />
      </concept>
      <concept id="1139867745658" name="jetbrains.mps.lang.smodel.structure.Node_ReplaceWithNewOperation" flags="nn" index="1_qnLN">
        <reference id="1139867957129" name="concept" index="1_rbq0" />
      </concept>
      <concept id="1140131837776" name="jetbrains.mps.lang.smodel.structure.Node_ReplaceWithAnotherOperation" flags="nn" index="1P9Npp">
        <child id="1140131861877" name="replacementNode" index="1P9ThW" />
      </concept>
      <concept id="1140133623887" name="jetbrains.mps.lang.smodel.structure.Node_DeleteOperation" flags="nn" index="1PgB_6" />
      <concept id="1140137987495" name="jetbrains.mps.lang.smodel.structure.SNodeTypeCastExpression" flags="nn" index="1PxgMI">
        <property id="1238684351431" name="asCast" index="1BlNFB" />
      </concept>
      <concept id="1138055754698" name="jetbrains.mps.lang.smodel.structure.SNodeType" flags="in" index="3Tqbb2">
        <reference id="1138405853777" name="concept" index="ehGHo" />
      </concept>
      <concept id="1138056143562" name="jetbrains.mps.lang.smodel.structure.SLinkAccess" flags="nn" index="3TrEf2">
        <reference id="1138056516764" name="link" index="3Tt5mk" />
      </concept>
      <concept id="1138056282393" name="jetbrains.mps.lang.smodel.structure.SLinkListAccess" flags="nn" index="3Tsc0h">
        <reference id="1138056546658" name="link" index="3TtcxE" />
      </concept>
    </language>
    <language id="ceab5195-25ea-4f22-9b92-103b95ca8c0c" name="jetbrains.mps.lang.core">
      <concept id="1169194658468" name="jetbrains.mps.lang.core.structure.INamedConcept" flags="ng" index="TrEIO">
        <property id="1169194664001" name="name" index="TrG5h" />
      </concept>
    </language>
    <language id="83888646-71ce-4f1c-9c53-c54016f6ad4f" name="jetbrains.mps.baseLanguage.collections">
      <concept id="1204796164442" name="jetbrains.mps.baseLanguage.collections.structure.InternalSequenceOperation" flags="nn" index="23sCx2">
        <child id="1204796294226" name="closure" index="23t8la" />
      </concept>
      <concept id="540871147943773365" name="jetbrains.mps.baseLanguage.collections.structure.SingleArgumentSequenceOperation" flags="nn" index="25WWJ4">
        <child id="540871147943773366" name="argument" index="25WWJ7" />
      </concept>
      <concept id="1204980550705" name="jetbrains.mps.baseLanguage.collections.structure.VisitAllOperation" flags="nn" index="2es0OD" />
      <concept id="1153943597977" name="jetbrains.mps.baseLanguage.collections.structure.ForEachStatement" flags="nn" index="2Gpval">
        <child id="1153944400369" name="variable" index="2Gsz3X" />
        <child id="1153944424730" name="inputSequence" index="2GsD0m" />
      </concept>
      <concept id="1153944193378" name="jetbrains.mps.baseLanguage.collections.structure.ForEachVariable" flags="nr" index="2GrKxI" />
      <concept id="1153944233411" name="jetbrains.mps.baseLanguage.collections.structure.ForEachVariableReference" flags="nn" index="2GrUjf">
        <reference id="1153944258490" name="variable" index="2Gs0qQ" />
      </concept>
      <concept id="1227022196108" name="jetbrains.mps.baseLanguage.collections.structure.RemoveAtElementOperation" flags="nn" index="2KedMh">
        <child id="1227022274197" name="index" index="2KewY8" />
      </concept>
      <concept id="1203518072036" name="jetbrains.mps.baseLanguage.collections.structure.SmartClosureParameterDeclaration" flags="ig" index="Rh6nW" />
      <concept id="1160612413312" name="jetbrains.mps.baseLanguage.collections.structure.AddElementOperation" flags="nn" index="TSZUe" />
      <concept id="1171391069720" name="jetbrains.mps.baseLanguage.collections.structure.GetIndexOfOperation" flags="nn" index="2WmjW8" />
      <concept id="1160666733551" name="jetbrains.mps.baseLanguage.collections.structure.AddAllElementsOperation" flags="nn" index="X8dFx" />
      <concept id="1225621920911" name="jetbrains.mps.baseLanguage.collections.structure.InsertElementOperation" flags="nn" index="1sK_Qi">
        <child id="1225621943565" name="element" index="1sKFgg" />
        <child id="1225621960341" name="index" index="1sKJu8" />
      </concept>
      <concept id="1165595910856" name="jetbrains.mps.baseLanguage.collections.structure.GetLastOperation" flags="nn" index="1yVyf7" />
    </language>
  </registry>
  <node concept="2S6QgY" id="lPhVsfdRuG">
    <property role="TrG5h" value="UnwrapUnlessBlock" />
    <ref role="2ZfgGC" to="3v68:lPhVsfdHKd" resolve="UnlessStatement" />
    <node concept="2S6ZIM" id="lPhVsfdRuH" role="2ZfVej">
      <node concept="3clFbS" id="lPhVsfdRuI" role="2VODD2">
        <node concept="3clFbF" id="lPhVsfdRuL" role="3cqZAp">
          <node concept="Xl_RD" id="lPhVsfdRuM" role="3clFbG">
            <property role="Xl_RC" value="Unwrap Unless Block" />
          </node>
        </node>
      </node>
    </node>
    <node concept="2Sbjvc" id="lPhVsfdRuJ" role="2ZfgGD">
      <node concept="3clFbS" id="lPhVsfdRuK" role="2VODD2">
        <node concept="3clFbJ" id="MUruhJCgms" role="3cqZAp">
          <node concept="3clFbS" id="MUruhJCgmz" role="3clFbx">
            <node concept="3cpWs8" id="MUruhJCgn0" role="3cqZAp">
              <node concept="3cpWsn" id="MUruhJCgn1" role="3cpWs9">
                <property role="TrG5h" value="statementList" />
                <node concept="3Tqbb2" id="MUruhJCgn2" role="1tU5fm">
                  <ref role="ehGHo" to="tpee:fzclF80" resolve="StatementList" />
                </node>
                <node concept="1PxgMI" id="MUruhJCgn3" role="33vP2m">
                  <property role="1BlNFB" value="false" />
                  <ref role="1m5ApE" to="tpee:fzclF80" resolve="StatementList" />
                  <node concept="2OqwBi" id="MUruhJCgn4" role="1m5AlR">
                    <node concept="2Sf5sV" id="1MaJY6V5WHo" role="2Oq$k0" />
                    <node concept="1mfA1w" id="MUruhJCgn6" role="2OqNvi" />
                  </node>
                </node>
              </node>
            </node>
            <node concept="3cpWs8" id="MUruhJCgn_" role="3cqZAp">
              <node concept="3cpWsn" id="MUruhJCgnA" role="3cpWs9">
                <property role="TrG5h" value="index" />
                <property role="3TUv4t" value="false" />
                <node concept="10Oyi0" id="MUruhJCgnB" role="1tU5fm" />
                <node concept="2OqwBi" id="MUruhJCgnC" role="33vP2m">
                  <node concept="2OqwBi" id="MUruhJCgnD" role="2Oq$k0">
                    <node concept="37vLTw" id="3GM_nagT$iJ" role="2Oq$k0">
                      <ref role="3cqZAo" node="MUruhJCgn1" resolve="statementList" />
                    </node>
                    <node concept="3Tsc0h" id="MUruhJCgnF" role="2OqNvi">
                      <ref role="3TtcxE" to="tpee:fzcqZ_x" />
                    </node>
                  </node>
                  <node concept="2WmjW8" id="MUruhJCgnG" role="2OqNvi">
                    <node concept="2Sf5sV" id="1MaJY6V5WHt" role="25WWJ7" />
                  </node>
                </node>
              </node>
            </node>
            <node concept="3clFbF" id="MUruhJCgnJ" role="3cqZAp">
              <node concept="2OqwBi" id="MUruhJCgnQ" role="3clFbG">
                <node concept="2OqwBi" id="MUruhJCgnL" role="2Oq$k0">
                  <node concept="37vLTw" id="3GM_nagT$vh" role="2Oq$k0">
                    <ref role="3cqZAo" node="MUruhJCgn1" resolve="statementList" />
                  </node>
                  <node concept="3Tsc0h" id="MUruhJCgnP" role="2OqNvi">
                    <ref role="3TtcxE" to="tpee:fzcqZ_x" />
                  </node>
                </node>
                <node concept="2KedMh" id="MUruhJCgnU" role="2OqNvi">
                  <node concept="37vLTw" id="3GM_nagT_0g" role="2KewY8">
                    <ref role="3cqZAo" node="MUruhJCgnA" resolve="index" />
                  </node>
                </node>
              </node>
            </node>
            <node concept="3clFbF" id="MUruhJCgnY" role="3cqZAp">
              <node concept="2OqwBi" id="MUruhJCgoa" role="3clFbG">
                <node concept="2OqwBi" id="MUruhJCgo5" role="2Oq$k0">
                  <node concept="2OqwBi" id="MUruhJCgo0" role="2Oq$k0">
                    <node concept="2Sf5sV" id="1MaJY6V5WHr" role="2Oq$k0" />
                    <node concept="3TrEf2" id="lPhVsfdRuV" role="2OqNvi">
                      <ref role="3Tt5mk" to="3v68:lPhVsfdHKs" />
                    </node>
                  </node>
                  <node concept="3Tsc0h" id="MUruhJCgo9" role="2OqNvi">
                    <ref role="3TtcxE" to="tpee:fzcqZ_x" />
                  </node>
                </node>
                <node concept="2es0OD" id="MUruhJCgoe" role="2OqNvi">
                  <node concept="1bVj0M" id="MUruhJCgof" role="23t8la">
                    <node concept="3clFbS" id="MUruhJCgog" role="1bW5cS">
                      <node concept="3clFbF" id="MUruhJCgoj" role="3cqZAp">
                        <node concept="2OqwBi" id="MUruhJCgok" role="3clFbG">
                          <node concept="2OqwBi" id="MUruhJCgol" role="2Oq$k0">
                            <node concept="37vLTw" id="3GM_nagTshD" role="2Oq$k0">
                              <ref role="3cqZAo" node="MUruhJCgn1" resolve="statementList" />
                            </node>
                            <node concept="3Tsc0h" id="MUruhJCgon" role="2OqNvi">
                              <ref role="3TtcxE" to="tpee:fzcqZ_x" />
                            </node>
                          </node>
                          <node concept="1sK_Qi" id="MUruhJCgoo" role="2OqNvi">
                            <node concept="37vLTw" id="3GM_nagTw5f" role="1sKJu8">
                              <ref role="3cqZAo" node="MUruhJCgnA" resolve="index" />
                            </node>
                            <node concept="37vLTw" id="2BHiRxgm8Jn" role="1sKFgg">
                              <ref role="3cqZAo" node="MUruhJCgoh" resolve="it" />
                            </node>
                          </node>
                        </node>
                      </node>
                      <node concept="3clFbF" id="MUruhJCgou" role="3cqZAp">
                        <node concept="d57v9" id="MUruhJCgow" role="3clFbG">
                          <node concept="3cmrfG" id="MUruhJCgoz" role="37vLTx">
                            <property role="3cmrfH" value="1" />
                          </node>
                          <node concept="37vLTw" id="3GM_nagT_xT" role="37vLTJ">
                            <ref role="3cqZAo" node="MUruhJCgnA" resolve="index" />
                          </node>
                        </node>
                      </node>
                    </node>
                    <node concept="Rh6nW" id="MUruhJCgoh" role="1bW2Oz">
                      <property role="TrG5h" value="it" />
                      <node concept="2jxLKc" id="1P4c1XrzTiP" role="1tU5fm" />
                    </node>
                  </node>
                </node>
              </node>
            </node>
          </node>
          <node concept="2OqwBi" id="MUruhJCgmf" role="3clFbw">
            <node concept="2OqwBi" id="MUruhJCgma" role="2Oq$k0">
              <node concept="2Sf5sV" id="1MaJY6V5WHq" role="2Oq$k0" />
              <node concept="1mfA1w" id="MUruhJCgme" role="2OqNvi" />
            </node>
            <node concept="1mIQ4w" id="MUruhJCgmj" role="2OqNvi">
              <node concept="chp4Y" id="MUruhJCgml" role="cj9EA">
                <ref role="cht4Q" to="tpee:fzclF80" resolve="StatementList" />
              </node>
            </node>
          </node>
          <node concept="9aQIb" id="MUruhJCgo$" role="9aQIa">
            <node concept="3clFbS" id="MUruhJCgo_" role="9aQI4">
              <node concept="3cpWs8" id="MUruhJC8Ke" role="3cqZAp">
                <node concept="3cpWsn" id="MUruhJC8Kf" role="3cpWs9">
                  <property role="TrG5h" value="statement" />
                  <node concept="3Tqbb2" id="MUruhJC8Kg" role="1tU5fm">
                    <ref role="ehGHo" to="tpee:fK9aQHR" resolve="BlockStatement" />
                  </node>
                  <node concept="2OqwBi" id="MUruhJC8Kh" role="33vP2m">
                    <node concept="2Sf5sV" id="1MaJY6V5WHu" role="2Oq$k0" />
                    <node concept="2DeJnW" id="3nElHYn1gtR" role="2OqNvi">
                      <ref role="1_rbq0" to="tpee:fK9aQHR" resolve="BlockStatement" />
                    </node>
                  </node>
                </node>
              </node>
              <node concept="3clFbF" id="MUruhJC8Km" role="3cqZAp">
                <node concept="37vLTI" id="MUruhJC8Kx" role="3clFbG">
                  <node concept="2OqwBi" id="MUruhJC8K_" role="37vLTx">
                    <node concept="2Sf5sV" id="1MaJY6V5WHs" role="2Oq$k0" />
                    <node concept="3TrEf2" id="lPhVsfdRuW" role="2OqNvi">
                      <ref role="3Tt5mk" to="3v68:lPhVsfdHKs" />
                    </node>
                  </node>
                  <node concept="2OqwBi" id="MUruhJC8Ko" role="37vLTJ">
                    <node concept="37vLTw" id="3GM_nagTBV_" role="2Oq$k0">
                      <ref role="3cqZAo" node="MUruhJC8Kf" resolve="statement" />
                    </node>
                    <node concept="3TrEf2" id="MUruhJC8Ks" role="2OqNvi">
                      <ref role="3Tt5mk" to="tpee:fK9aQHS" />
                    </node>
                  </node>
                </node>
              </node>
            </node>
          </node>
        </node>
        <node concept="3clFbF" id="lPhVsfdRuO" role="3cqZAp">
          <node concept="2OqwBi" id="lPhVsfdRuQ" role="3clFbG">
            <node concept="2Sf5sV" id="lPhVsfdRuP" role="2Oq$k0" />
            <node concept="1PgB_6" id="lPhVsfdRuU" role="2OqNvi" />
          </node>
        </node>
      </node>
    </node>
    <node concept="2SaL7w" id="lPhVsfdRSm" role="2ZfVeh">
      <node concept="3clFbS" id="lPhVsfdRSn" role="2VODD2">
        <node concept="3cpWs8" id="4CxnSKED7de" role="3cqZAp">
          <node concept="3cpWsn" id="4CxnSKED7df" role="3cpWs9">
            <property role="TrG5h" value="selectedNode" />
            <node concept="3Tqbb2" id="4CxnSKEDiU_" role="1tU5fm" />
            <node concept="2OqwBi" id="4CxnSKED7dh" role="33vP2m">
              <node concept="1XNTG" id="4CxnSKED7di" role="2Oq$k0" />
              <node concept="liA8E" id="4CxnSKED7dj" role="2OqNvi">
                <ref role="37wK5l" to="cj4x:~EditorContext.getSelectedNode():org.jetbrains.mps.openapi.model.SNode" resolve="getSelectedNode" />
              </node>
            </node>
          </node>
        </node>
        <node concept="2Gpval" id="4CxnSKEDwzO" role="3cqZAp">
          <node concept="2GrKxI" id="4CxnSKEDwzP" role="2Gsz3X">
            <property role="TrG5h" value="ancestor" />
          </node>
          <node concept="3clFbS" id="4CxnSKEDwzR" role="2LFqv$">
            <node concept="3clFbJ" id="4CxnSKEDwzS" role="3cqZAp">
              <node concept="2OqwBi" id="4CxnSKEDwzT" role="3clFbw">
                <node concept="2GrUjf" id="4CxnSKEDw$2" role="2Oq$k0">
                  <ref role="2Gs0qQ" node="4CxnSKEDwzP" resolve="ancestor" />
                </node>
                <node concept="1mIQ4w" id="4CxnSKEDwzV" role="2OqNvi">
                  <node concept="chp4Y" id="lPhVsfdRSo" role="cj9EA">
                    <ref role="cht4Q" to="3v68:lPhVsfdHKd" resolve="UnlessStatement" />
                  </node>
                </node>
              </node>
              <node concept="3clFbS" id="4CxnSKEDwzX" role="3clFbx">
                <node concept="3cpWs6" id="4CxnSKEDwzY" role="3cqZAp">
                  <node concept="17R0WA" id="4CxnSKEDwzZ" role="3cqZAk">
                    <node concept="2Sf5sV" id="4CxnSKEDw$0" role="3uHU7w" />
                    <node concept="2GrUjf" id="4CxnSKEDw$3" role="3uHU7B">
                      <ref role="2Gs0qQ" node="4CxnSKEDwzP" resolve="ancestor" />
                    </node>
                  </node>
                </node>
              </node>
            </node>
          </node>
          <node concept="2OqwBi" id="4CxnSKEDiUA" role="2GsD0m">
            <node concept="37vLTw" id="3GM_nagTs9u" role="2Oq$k0">
              <ref role="3cqZAo" node="4CxnSKED7df" resolve="selectedNode" />
            </node>
            <node concept="z$bX8" id="4CxnSKEDiUE" role="2OqNvi">
              <node concept="1xIGOp" id="4CxnSKEDBVL" role="1xVPHs" />
            </node>
          </node>
        </node>
        <node concept="3clFbF" id="1MaJY6V5WHd" role="3cqZAp">
          <node concept="3clFbT" id="4CxnSKEDiV9" role="3clFbG">
            <property role="3clFbU" value="false" />
          </node>
        </node>
      </node>
    </node>
  </node>
  <node concept="2S6QgY" id="lPhVsfdRWV">
    <property role="TrG5h" value="TurnToIfStatement" />
    <ref role="2ZfgGC" to="3v68:lPhVsfdHKd" resolve="UnlessStatement" />
    <node concept="2S6ZIM" id="lPhVsfdRWW" role="2ZfVej">
      <node concept="3clFbS" id="lPhVsfdRWX" role="2VODD2">
        <node concept="3clFbF" id="lPhVsfdRX0" role="3cqZAp">
          <node concept="Xl_RD" id="lPhVsfdRX1" role="3clFbG">
            <property role="Xl_RC" value="Turn to an If Statement" />
          </node>
        </node>
      </node>
    </node>
    <node concept="2Sbjvc" id="lPhVsfdRWY" role="2ZfgGD">
      <node concept="3clFbS" id="lPhVsfdRWZ" role="2VODD2">
        <node concept="3SKdUt" id="6pumIWoCFZ3" role="3cqZAp">
          <node concept="3SKdUq" id="6pumIWoCFZ4" role="3SKWNk">
            <property role="3SKdUp" value="Invert condition" />
          </node>
        </node>
        <node concept="3cpWs8" id="hpy8HC2" role="3cqZAp">
          <node concept="3cpWsn" id="hpy8HC3" role="3cpWs9">
            <property role="TrG5h" value="condition" />
            <node concept="3Tqbb2" id="hpy8HC4" role="1tU5fm">
              <ref role="ehGHo" to="tpee:fz3vP1J" resolve="Expression" />
            </node>
            <node concept="2OqwBi" id="hxiFqAR" role="33vP2m">
              <node concept="2Sf5sV" id="hpy8HC6" role="2Oq$k0" />
              <node concept="3TrEf2" id="lPhVsfdRX9" role="2OqNvi">
                <ref role="3Tt5mk" to="3v68:lPhVsfdHKe" />
              </node>
            </node>
          </node>
        </node>
        <node concept="3clFbJ" id="hpy8HC8" role="3cqZAp">
          <node concept="3clFbS" id="hpy8HC9" role="3clFbx">
            <node concept="3clFbJ" id="hpy8HCa" role="3cqZAp">
              <node concept="3clFbS" id="hpy8HCb" role="3clFbx">
                <node concept="3clFbF" id="hpy8HCc" role="3cqZAp">
                  <node concept="37vLTI" id="hpy8HCd" role="3clFbG">
                    <node concept="37vLTw" id="3GM_nagTypd" role="37vLTJ">
                      <ref role="3cqZAo" node="hpy8HC3" resolve="condition" />
                    </node>
                    <node concept="2OqwBi" id="hxiFt_b" role="37vLTx">
                      <node concept="1PxgMI" id="hpy8HCg" role="2Oq$k0">
                        <ref role="1m5ApE" to="tpee:fJfqX4d" resolve="NotExpression" />
                        <node concept="37vLTw" id="3GM_nagTzfT" role="1m5AlR">
                          <ref role="3cqZAo" node="hpy8HC3" resolve="condition" />
                        </node>
                      </node>
                      <node concept="3TrEf2" id="hpy8HCi" role="2OqNvi">
                        <ref role="3Tt5mk" to="tpee:fJfr32$" />
                      </node>
                    </node>
                  </node>
                </node>
              </node>
              <node concept="9aQIb" id="hpy8HCj" role="9aQIa">
                <node concept="3clFbS" id="hpy8HCk" role="9aQI4">
                  <node concept="3cpWs8" id="hx_P8rb" role="3cqZAp">
                    <node concept="3cpWsn" id="hx_P8rc" role="3cpWs9">
                      <property role="TrG5h" value="newCondition" />
                      <node concept="3Tqbb2" id="hx_P8rd" role="1tU5fm">
                        <ref role="ehGHo" to="tpee:fJuHJVf" resolve="BinaryOperation" />
                      </node>
                      <node concept="10Nm6u" id="hx_PxQy" role="33vP2m" />
                    </node>
                  </node>
                  <node concept="3clFbJ" id="hx_OpYF" role="3cqZAp">
                    <node concept="3clFbS" id="hx_OpYG" role="3clFbx">
                      <node concept="3clFbF" id="hx_Punz" role="3cqZAp">
                        <node concept="37vLTI" id="hx_Pun$" role="3clFbG">
                          <node concept="2ShNRf" id="hx_P8re" role="37vLTx">
                            <node concept="2fJWfE" id="3nElHYn1gs_" role="2ShVmc">
                              <node concept="3Tqbb2" id="3nElHYn1gsA" role="3zrR0E">
                                <ref role="ehGHo" to="tpee:fBy3z0Z" resolve="NotEqualsExpression" />
                              </node>
                            </node>
                          </node>
                          <node concept="37vLTw" id="3GM_nagTyW_" role="37vLTJ">
                            <ref role="3cqZAo" node="hx_P8rc" resolve="newCondition" />
                          </node>
                        </node>
                      </node>
                    </node>
                    <node concept="2OqwBi" id="hx_OrgY" role="3clFbw">
                      <node concept="37vLTw" id="3GM_nagTwOD" role="2Oq$k0">
                        <ref role="3cqZAo" node="hpy8HC3" resolve="condition" />
                      </node>
                      <node concept="1mIQ4w" id="hx_Or$t" role="2OqNvi">
                        <node concept="chp4Y" id="hx_Otq3" role="cj9EA">
                          <ref role="cht4Q" to="tpee:fzclF8g" resolve="EqualsExpression" />
                        </node>
                      </node>
                    </node>
                    <node concept="3clFbJ" id="hx_PyF6" role="9aQIa">
                      <node concept="3clFbS" id="hx_PyF7" role="3clFbx">
                        <node concept="3clFbF" id="hx_P$K5" role="3cqZAp">
                          <node concept="37vLTI" id="hx_P_2Z" role="3clFbG">
                            <node concept="2ShNRf" id="hx_P_wH" role="37vLTx">
                              <node concept="2fJWfE" id="3nElHYn1gqF" role="2ShVmc">
                                <node concept="3Tqbb2" id="3nElHYn1gqG" role="3zrR0E">
                                  <ref role="ehGHo" to="tpee:fzclF8g" resolve="EqualsExpression" />
                                </node>
                              </node>
                            </node>
                            <node concept="37vLTw" id="3GM_nagTupi" role="37vLTJ">
                              <ref role="3cqZAo" node="hx_P8rc" resolve="newCondition" />
                            </node>
                          </node>
                        </node>
                      </node>
                      <node concept="2OqwBi" id="hx_Pzj9" role="3clFbw">
                        <node concept="37vLTw" id="3GM_nagTsbU" role="2Oq$k0">
                          <ref role="3cqZAo" node="hpy8HC3" resolve="condition" />
                        </node>
                        <node concept="1mIQ4w" id="hx_PzHn" role="2OqNvi">
                          <node concept="chp4Y" id="hx_P$bO" role="cj9EA">
                            <ref role="cht4Q" to="tpee:fBy3z0Z" resolve="NotEqualsExpression" />
                          </node>
                        </node>
                      </node>
                      <node concept="3clFbJ" id="hx_PBOw" role="9aQIa">
                        <node concept="3clFbS" id="hx_PBOx" role="3clFbx">
                          <node concept="3clFbF" id="hx_PBOy" role="3cqZAp">
                            <node concept="37vLTI" id="hx_PBOz" role="3clFbG">
                              <node concept="2ShNRf" id="hx_PBO$" role="37vLTx">
                                <node concept="2fJWfE" id="3nElHYn1grz" role="2ShVmc">
                                  <node concept="3Tqbb2" id="3nElHYn1gr$" role="3zrR0E">
                                    <ref role="ehGHo" to="tpee:gMdkU$l" resolve="LessThanOrEqualsExpression" />
                                  </node>
                                </node>
                              </node>
                              <node concept="37vLTw" id="3GM_nagT$kE" role="37vLTJ">
                                <ref role="3cqZAo" node="hx_P8rc" resolve="newCondition" />
                              </node>
                            </node>
                          </node>
                        </node>
                        <node concept="2OqwBi" id="hx_PBOC" role="3clFbw">
                          <node concept="37vLTw" id="3GM_nagT$ey" role="2Oq$k0">
                            <ref role="3cqZAo" node="hpy8HC3" resolve="condition" />
                          </node>
                          <node concept="1mIQ4w" id="hx_PBOE" role="2OqNvi">
                            <node concept="chp4Y" id="hx_PDbO" role="cj9EA">
                              <ref role="cht4Q" to="tpee:fJeOSZf" resolve="GreaterThanExpression" />
                            </node>
                          </node>
                        </node>
                        <node concept="3clFbJ" id="hx_PFnx" role="9aQIa">
                          <node concept="3clFbS" id="hx_PFny" role="3clFbx">
                            <node concept="3clFbF" id="hx_PFnz" role="3cqZAp">
                              <node concept="37vLTI" id="hx_PFn$" role="3clFbG">
                                <node concept="2ShNRf" id="hx_PFn_" role="37vLTx">
                                  <node concept="2fJWfE" id="3nElHYn1gsb" role="2ShVmc">
                                    <node concept="3Tqbb2" id="3nElHYn1gsc" role="3zrR0E">
                                      <ref role="ehGHo" to="tpee:fJeOVwE" resolve="LessThanExpression" />
                                    </node>
                                  </node>
                                </node>
                                <node concept="37vLTw" id="3GM_nagT_b9" role="37vLTJ">
                                  <ref role="3cqZAo" node="hx_P8rc" resolve="newCondition" />
                                </node>
                              </node>
                            </node>
                          </node>
                          <node concept="2OqwBi" id="hx_PFnD" role="3clFbw">
                            <node concept="37vLTw" id="3GM_nagTw57" role="2Oq$k0">
                              <ref role="3cqZAo" node="hpy8HC3" resolve="condition" />
                            </node>
                            <node concept="1mIQ4w" id="hx_PFnF" role="2OqNvi">
                              <node concept="chp4Y" id="hx_PGSx" role="cj9EA">
                                <ref role="cht4Q" to="tpee:gMd3UKG" resolve="GreaterThanOrEqualsExpression" />
                              </node>
                            </node>
                          </node>
                          <node concept="3clFbJ" id="hx_PIym" role="9aQIa">
                            <node concept="3clFbS" id="hx_PIyn" role="3clFbx">
                              <node concept="3clFbF" id="hx_PIyo" role="3cqZAp">
                                <node concept="37vLTI" id="hx_PIyp" role="3clFbG">
                                  <node concept="2ShNRf" id="hx_PIyq" role="37vLTx">
                                    <node concept="2fJWfE" id="3nElHYn1gsn" role="2ShVmc">
                                      <node concept="3Tqbb2" id="3nElHYn1gso" role="3zrR0E">
                                        <ref role="ehGHo" to="tpee:gMd3UKG" resolve="GreaterThanOrEqualsExpression" />
                                      </node>
                                    </node>
                                  </node>
                                  <node concept="37vLTw" id="3GM_nagTtG9" role="37vLTJ">
                                    <ref role="3cqZAo" node="hx_P8rc" resolve="newCondition" />
                                  </node>
                                </node>
                              </node>
                            </node>
                            <node concept="2OqwBi" id="hx_PIyu" role="3clFbw">
                              <node concept="37vLTw" id="3GM_nagTAIg" role="2Oq$k0">
                                <ref role="3cqZAo" node="hpy8HC3" resolve="condition" />
                              </node>
                              <node concept="1mIQ4w" id="hx_PIyw" role="2OqNvi">
                                <node concept="chp4Y" id="hx_PJEa" role="cj9EA">
                                  <ref role="cht4Q" to="tpee:fJeOVwE" resolve="LessThanExpression" />
                                </node>
                              </node>
                            </node>
                            <node concept="3clFbJ" id="hx_PMcn" role="9aQIa">
                              <node concept="3clFbS" id="hx_PMco" role="3clFbx">
                                <node concept="3clFbF" id="hx_PMcp" role="3cqZAp">
                                  <node concept="37vLTI" id="hx_PMcq" role="3clFbG">
                                    <node concept="2ShNRf" id="hx_PMcr" role="37vLTx">
                                      <node concept="2fJWfE" id="3nElHYn1grx" role="2ShVmc">
                                        <node concept="3Tqbb2" id="3nElHYn1gry" role="3zrR0E">
                                          <ref role="ehGHo" to="tpee:fJeOSZf" resolve="GreaterThanExpression" />
                                        </node>
                                      </node>
                                    </node>
                                    <node concept="37vLTw" id="3GM_nagT_9e" role="37vLTJ">
                                      <ref role="3cqZAo" node="hx_P8rc" resolve="newCondition" />
                                    </node>
                                  </node>
                                </node>
                              </node>
                              <node concept="2OqwBi" id="hx_PMcv" role="3clFbw">
                                <node concept="37vLTw" id="3GM_nagTzLa" role="2Oq$k0">
                                  <ref role="3cqZAo" node="hpy8HC3" resolve="condition" />
                                </node>
                                <node concept="1mIQ4w" id="hx_PMcx" role="2OqNvi">
                                  <node concept="chp4Y" id="hx_POXL" role="cj9EA">
                                    <ref role="cht4Q" to="tpee:gMdkU$l" resolve="LessThanOrEqualsExpression" />
                                  </node>
                                </node>
                              </node>
                            </node>
                          </node>
                        </node>
                      </node>
                    </node>
                  </node>
                  <node concept="3clFbJ" id="hx_PSwq" role="3cqZAp">
                    <node concept="3clFbS" id="hx_PSwr" role="3clFbx">
                      <node concept="3clFbF" id="hx_ODV$" role="3cqZAp">
                        <node concept="2OqwBi" id="hx_OK1X" role="3clFbG">
                          <node concept="2OqwBi" id="hx_OG$C" role="2Oq$k0">
                            <node concept="37vLTw" id="3GM_nagTyxz" role="2Oq$k0">
                              <ref role="3cqZAo" node="hx_P8rc" resolve="newCondition" />
                            </node>
                            <node concept="3TrEf2" id="hx_OJNV" role="2OqNvi">
                              <ref role="3Tt5mk" to="tpee:fJuHU4s" />
                            </node>
                          </node>
                          <node concept="2oxUTD" id="hx_OKp8" role="2OqNvi">
                            <node concept="2OqwBi" id="hx_OUYg" role="2oxUTC">
                              <node concept="1PxgMI" id="hx_OR90" role="2Oq$k0">
                                <ref role="1m5ApE" to="tpee:fJuHJVf" resolve="BinaryOperation" />
                                <node concept="37vLTw" id="3GM_nagTyUO" role="1m5AlR">
                                  <ref role="3cqZAo" node="hpy8HC3" resolve="condition" />
                                </node>
                              </node>
                              <node concept="3TrEf2" id="hx_P1DI" role="2OqNvi">
                                <ref role="3Tt5mk" to="tpee:fJuHU4s" />
                              </node>
                            </node>
                          </node>
                        </node>
                      </node>
                      <node concept="3clFbF" id="hx_PfMd" role="3cqZAp">
                        <node concept="2OqwBi" id="hx_Ph2G" role="3clFbG">
                          <node concept="2OqwBi" id="hx_PfTo" role="2Oq$k0">
                            <node concept="37vLTw" id="3GM_nagTs$T" role="2Oq$k0">
                              <ref role="3cqZAo" node="hx_P8rc" resolve="newCondition" />
                            </node>
                            <node concept="3TrEf2" id="hx_PgTG" role="2OqNvi">
                              <ref role="3Tt5mk" to="tpee:fJuHU4r" />
                            </node>
                          </node>
                          <node concept="2oxUTD" id="hx_Phnx" role="2OqNvi">
                            <node concept="2OqwBi" id="hx_Pjdl" role="2oxUTC">
                              <node concept="1PxgMI" id="hx_Piea" role="2Oq$k0">
                                <ref role="1m5ApE" to="tpee:fJuHJVf" resolve="BinaryOperation" />
                                <node concept="37vLTw" id="3GM_nagTwdZ" role="1m5AlR">
                                  <ref role="3cqZAo" node="hpy8HC3" resolve="condition" />
                                </node>
                              </node>
                              <node concept="3TrEf2" id="hx_PkqJ" role="2OqNvi">
                                <ref role="3Tt5mk" to="tpee:fJuHU4r" />
                              </node>
                            </node>
                          </node>
                        </node>
                      </node>
                      <node concept="3clFbF" id="hx_PX4M" role="3cqZAp">
                        <node concept="37vLTI" id="hx_PXsW" role="3clFbG">
                          <node concept="37vLTw" id="3GM_nagTuJa" role="37vLTx">
                            <ref role="3cqZAo" node="hx_P8rc" resolve="newCondition" />
                          </node>
                          <node concept="37vLTw" id="3GM_nagTwPS" role="37vLTJ">
                            <ref role="3cqZAo" node="hpy8HC3" resolve="condition" />
                          </node>
                        </node>
                      </node>
                    </node>
                    <node concept="3y3z36" id="hx_PTN4" role="3clFbw">
                      <node concept="10Nm6u" id="hx_PU9D" role="3uHU7w" />
                      <node concept="37vLTw" id="3GM_nagTtOm" role="3uHU7B">
                        <ref role="3cqZAo" node="hx_P8rc" resolve="newCondition" />
                      </node>
                    </node>
                    <node concept="9aQIb" id="hx_PYMU" role="9aQIa">
                      <node concept="3clFbS" id="hx_PYMV" role="9aQI4">
                        <node concept="3cpWs8" id="hpy8HCl" role="3cqZAp">
                          <node concept="3cpWsn" id="hpy8HCm" role="3cpWs9">
                            <property role="TrG5h" value="notExpression" />
                            <node concept="3Tqbb2" id="hpy8HCn" role="1tU5fm">
                              <ref role="ehGHo" to="tpee:fJfqX4d" resolve="NotExpression" />
                            </node>
                            <node concept="2ShNRf" id="hpy8HCo" role="33vP2m">
                              <node concept="2fJWfE" id="3nElHYn1gqB" role="2ShVmc">
                                <node concept="3Tqbb2" id="3nElHYn1gqC" role="3zrR0E">
                                  <ref role="ehGHo" to="tpee:fJfqX4d" resolve="NotExpression" />
                                </node>
                              </node>
                            </node>
                          </node>
                        </node>
                        <node concept="3clFbF" id="hpy8HCr" role="3cqZAp">
                          <node concept="2OqwBi" id="hxiFtmD" role="3clFbG">
                            <node concept="2OqwBi" id="hxiFtcu" role="2Oq$k0">
                              <node concept="37vLTw" id="3GM_nagTtNN" role="2Oq$k0">
                                <ref role="3cqZAo" node="hpy8HCm" resolve="notExpression" />
                              </node>
                              <node concept="3TrEf2" id="hpy8HCv" role="2OqNvi">
                                <ref role="3Tt5mk" to="tpee:fJfr32$" />
                              </node>
                            </node>
                            <node concept="2oxUTD" id="hpy8HCw" role="2OqNvi">
                              <node concept="37vLTw" id="3GM_nagTwvO" role="2oxUTC">
                                <ref role="3cqZAo" node="hpy8HC3" resolve="condition" />
                              </node>
                            </node>
                          </node>
                        </node>
                        <node concept="3clFbF" id="hpy8HCy" role="3cqZAp">
                          <node concept="37vLTI" id="hpy8HCz" role="3clFbG">
                            <node concept="37vLTw" id="3GM_nagTvZl" role="37vLTJ">
                              <ref role="3cqZAo" node="hpy8HC3" resolve="condition" />
                            </node>
                            <node concept="37vLTw" id="3GM_nagTrOx" role="37vLTx">
                              <ref role="3cqZAo" node="hpy8HCm" resolve="notExpression" />
                            </node>
                          </node>
                        </node>
                      </node>
                    </node>
                  </node>
                </node>
              </node>
              <node concept="2OqwBi" id="hxiFq_d" role="3clFbw">
                <node concept="37vLTw" id="3GM_nagTBjl" role="2Oq$k0">
                  <ref role="3cqZAo" node="hpy8HC3" resolve="condition" />
                </node>
                <node concept="1mIQ4w" id="hpy8HCC" role="2OqNvi">
                  <node concept="chp4Y" id="hpy8HCD" role="cj9EA">
                    <ref role="cht4Q" to="tpee:fJfqX4d" resolve="NotExpression" />
                  </node>
                </node>
              </node>
            </node>
            <node concept="3cpWs8" id="lPhVsfdRXs" role="3cqZAp">
              <node concept="3cpWsn" id="lPhVsfdRXt" role="3cpWs9">
                <property role="TrG5h" value="ifStatement" />
                <node concept="3Tqbb2" id="lPhVsfdRXu" role="1tU5fm">
                  <ref role="ehGHo" to="tpee:fzclF8n" resolve="IfStatement" />
                </node>
                <node concept="2ShNRf" id="lPhVsfdRXv" role="33vP2m">
                  <node concept="3zrR0B" id="lPhVsfdRXw" role="2ShVmc">
                    <node concept="3Tqbb2" id="lPhVsfdRXx" role="3zrR0E">
                      <ref role="ehGHo" to="tpee:fzclF8n" resolve="IfStatement" />
                    </node>
                  </node>
                </node>
              </node>
            </node>
            <node concept="3clFbF" id="lPhVsfdRXz" role="3cqZAp">
              <node concept="37vLTI" id="lPhVsfdRXE" role="3clFbG">
                <node concept="37vLTw" id="3GM_nagT$XQ" role="37vLTx">
                  <ref role="3cqZAo" node="hpy8HC3" resolve="condition" />
                </node>
                <node concept="2OqwBi" id="lPhVsfdRX_" role="37vLTJ">
                  <node concept="37vLTw" id="3GM_nagTxul" role="2Oq$k0">
                    <ref role="3cqZAo" node="lPhVsfdRXt" resolve="ifStatement" />
                  </node>
                  <node concept="3TrEf2" id="lPhVsfdRXD" role="2OqNvi">
                    <ref role="3Tt5mk" to="tpee:fzclF8o" />
                  </node>
                </node>
              </node>
            </node>
            <node concept="3clFbF" id="lPhVsfdRXJ" role="3cqZAp">
              <node concept="37vLTI" id="lPhVsfdRXQ" role="3clFbG">
                <node concept="2OqwBi" id="lPhVsfdRXU" role="37vLTx">
                  <node concept="2Sf5sV" id="lPhVsfdRXT" role="2Oq$k0" />
                  <node concept="3TrEf2" id="lPhVsfdRXY" role="2OqNvi">
                    <ref role="3Tt5mk" to="3v68:lPhVsfdHKs" />
                  </node>
                </node>
                <node concept="2OqwBi" id="lPhVsfdRXL" role="37vLTJ">
                  <node concept="37vLTw" id="3GM_nagTyB4" role="2Oq$k0">
                    <ref role="3cqZAo" node="lPhVsfdRXt" resolve="ifStatement" />
                  </node>
                  <node concept="3TrEf2" id="lPhVsfdRXP" role="2OqNvi">
                    <ref role="3Tt5mk" to="tpee:fzclF8p" />
                  </node>
                </node>
              </node>
            </node>
            <node concept="3clFbF" id="lPhVsfdRY0" role="3cqZAp">
              <node concept="2OqwBi" id="lPhVsfdRY2" role="3clFbG">
                <node concept="2Sf5sV" id="lPhVsfdRY1" role="2Oq$k0" />
                <node concept="1P9Npp" id="lPhVsfdRY7" role="2OqNvi">
                  <node concept="37vLTw" id="3GM_nagTvT8" role="1P9ThW">
                    <ref role="3cqZAo" node="lPhVsfdRXt" resolve="ifStatement" />
                  </node>
                </node>
              </node>
            </node>
          </node>
          <node concept="2OqwBi" id="hxiFpEv" role="3clFbw">
            <node concept="37vLTw" id="3GM_nagTzy1" role="2Oq$k0">
              <ref role="3cqZAo" node="hpy8HC3" resolve="condition" />
            </node>
            <node concept="3x8VRR" id="hpy8HCN" role="2OqNvi" />
          </node>
        </node>
      </node>
    </node>
  </node>
  <node concept="2S6QgY" id="P0flyHhGvN">
    <property role="TrG5h" value="ConvertMyIfToIf" />
    <ref role="2ZfgGC" to="3v68:P0flyHh8Na" resolve="MyIfStatement" />
    <node concept="2S6ZIM" id="P0flyHhGvO" role="2ZfVej">
      <node concept="3clFbS" id="P0flyHhGvP" role="2VODD2">
        <node concept="3clFbF" id="P0flyHhI$8" role="3cqZAp">
          <node concept="Xl_RD" id="P0flyHhI$9" role="3clFbG">
            <property role="Xl_RC" value="Convert to If" />
          </node>
        </node>
      </node>
    </node>
    <node concept="2Sbjvc" id="P0flyHhGvQ" role="2ZfgGD">
      <node concept="3clFbS" id="P0flyHhGvR" role="2VODD2">
        <node concept="3cpWs8" id="P0flyHhI$f" role="3cqZAp">
          <node concept="3cpWsn" id="P0flyHhI$g" role="3cpWs9">
            <property role="TrG5h" value="statement" />
            <node concept="3Tqbb2" id="P0flyHhI$h" role="1tU5fm">
              <ref role="ehGHo" to="tpee:fzclF8n" resolve="IfStatement" />
            </node>
            <node concept="2ShNRf" id="P0flyHhI$i" role="33vP2m">
              <node concept="3zrR0B" id="P0flyHhI$j" role="2ShVmc">
                <node concept="3Tqbb2" id="P0flyHhI$k" role="3zrR0E">
                  <ref role="ehGHo" to="tpee:fzclF8n" resolve="IfStatement" />
                </node>
              </node>
            </node>
          </node>
        </node>
        <node concept="3clFbF" id="P0flyHhI$m" role="3cqZAp">
          <node concept="37vLTI" id="P0flyHhILU" role="3clFbG">
            <node concept="2OqwBi" id="P0flyHhMlg" role="37vLTx">
              <node concept="2Sf5sV" id="P0flyHhMlf" role="2Oq$k0" />
              <node concept="3TrEf2" id="P0flyHhMlk" role="2OqNvi">
                <ref role="3Tt5mk" to="3v68:P0flyHh8Nd" />
              </node>
            </node>
            <node concept="2OqwBi" id="P0flyHhI$o" role="37vLTJ">
              <node concept="37vLTw" id="3GM_nagTBjY" role="2Oq$k0">
                <ref role="3cqZAo" node="P0flyHhI$g" resolve="statement" />
              </node>
              <node concept="3TrEf2" id="P0flyHhILT" role="2OqNvi">
                <ref role="3Tt5mk" to="tpee:fzclF8o" />
              </node>
            </node>
          </node>
        </node>
        <node concept="3cpWs8" id="P0flyHhMDR" role="3cqZAp">
          <node concept="3cpWsn" id="P0flyHhMDS" role="3cpWs9">
            <property role="TrG5h" value="ifBody" />
            <node concept="3Tqbb2" id="P0flyHhMDT" role="1tU5fm">
              <ref role="ehGHo" to="tpee:fzclF80" resolve="StatementList" />
            </node>
            <node concept="2ShNRf" id="P0flyHhMDU" role="33vP2m">
              <node concept="3zrR0B" id="P0flyHhMDV" role="2ShVmc">
                <node concept="3Tqbb2" id="P0flyHhMDW" role="3zrR0E">
                  <ref role="ehGHo" to="tpee:fzclF80" resolve="StatementList" />
                </node>
              </node>
            </node>
          </node>
        </node>
        <node concept="3clFbF" id="P0flyHhMEF" role="3cqZAp">
          <node concept="2OqwBi" id="P0flyHhMEt" role="3clFbG">
            <node concept="2OqwBi" id="P0flyHhME1" role="2Oq$k0">
              <node concept="37vLTw" id="3GM_nagTs1e" role="2Oq$k0">
                <ref role="3cqZAo" node="P0flyHhMDS" resolve="ifBody" />
              </node>
              <node concept="3Tsc0h" id="P0flyHhME5" role="2OqNvi">
                <ref role="3TtcxE" to="tpee:fzcqZ_x" />
              </node>
            </node>
            <node concept="X8dFx" id="P0flyHhMEx" role="2OqNvi">
              <node concept="2OqwBi" id="P0flyHhMEG" role="25WWJ7">
                <node concept="2OqwBi" id="P0flyHhME$" role="2Oq$k0">
                  <node concept="2Sf5sV" id="P0flyHhMEz" role="2Oq$k0" />
                  <node concept="3TrEf2" id="P0flyHhMEC" role="2OqNvi">
                    <ref role="3Tt5mk" to="3v68:P0flyHh8Ne" />
                  </node>
                </node>
                <node concept="3Tsc0h" id="P0flyHhMEK" role="2OqNvi">
                  <ref role="3TtcxE" to="tpee:fzcqZ_x" />
                </node>
              </node>
            </node>
          </node>
        </node>
        <node concept="3clFbF" id="P0flyHhMlm" role="3cqZAp">
          <node concept="37vLTI" id="P0flyHhMlt" role="3clFbG">
            <node concept="2OqwBi" id="P0flyHhMlo" role="37vLTJ">
              <node concept="37vLTw" id="3GM_nagTycS" role="2Oq$k0">
                <ref role="3cqZAo" node="P0flyHhI$g" resolve="statement" />
              </node>
              <node concept="3TrEf2" id="P0flyHhMls" role="2OqNvi">
                <ref role="3Tt5mk" to="tpee:fzclF8p" />
              </node>
            </node>
            <node concept="37vLTw" id="3GM_nagTt8S" role="37vLTx">
              <ref role="3cqZAo" node="P0flyHhMDS" resolve="ifBody" />
            </node>
          </node>
        </node>
        <node concept="3clFbH" id="P0flyHhMEL" role="3cqZAp" />
        <node concept="3cpWs8" id="P0flyHhMES" role="3cqZAp">
          <node concept="3cpWsn" id="P0flyHhMET" role="3cpWs9">
            <property role="TrG5h" value="ifFalseBody" />
            <node concept="3Tqbb2" id="P0flyHhMEU" role="1tU5fm">
              <ref role="ehGHo" to="tpee:fzclF80" resolve="StatementList" />
            </node>
            <node concept="2ShNRf" id="P0flyHhMEV" role="33vP2m">
              <node concept="3zrR0B" id="P0flyHhMEW" role="2ShVmc">
                <node concept="3Tqbb2" id="P0flyHhMEX" role="3zrR0E">
                  <ref role="ehGHo" to="tpee:fzclF80" resolve="StatementList" />
                </node>
              </node>
            </node>
          </node>
        </node>
        <node concept="3clFbF" id="P0flyHhMEZ" role="3cqZAp">
          <node concept="2OqwBi" id="P0flyHhMF6" role="3clFbG">
            <node concept="2OqwBi" id="P0flyHhMF1" role="2Oq$k0">
              <node concept="37vLTw" id="3GM_nagTrdj" role="2Oq$k0">
                <ref role="3cqZAo" node="P0flyHhMET" resolve="ifFalseBody" />
              </node>
              <node concept="3Tsc0h" id="P0flyHhMF5" role="2OqNvi">
                <ref role="3TtcxE" to="tpee:fzcqZ_x" />
              </node>
            </node>
            <node concept="X8dFx" id="P0flyHhMFa" role="2OqNvi">
              <node concept="2OqwBi" id="P0flyHhMFi" role="25WWJ7">
                <node concept="2OqwBi" id="P0flyHhMFd" role="2Oq$k0">
                  <node concept="2Sf5sV" id="P0flyHhMFc" role="2Oq$k0" />
                  <node concept="3TrEf2" id="P0flyHhMFh" role="2OqNvi">
                    <ref role="3Tt5mk" to="3v68:P0flyHhnTd" />
                  </node>
                </node>
                <node concept="3Tsc0h" id="P0flyHhMFm" role="2OqNvi">
                  <ref role="3TtcxE" to="tpee:fzcqZ_x" />
                </node>
              </node>
            </node>
          </node>
        </node>
        <node concept="3clFbF" id="P0flyHhMlB" role="3cqZAp">
          <node concept="37vLTI" id="P0flyHhMlS" role="3clFbG">
            <node concept="2ShNRf" id="P0flyHhMlV" role="37vLTx">
              <node concept="3zrR0B" id="P0flyHhMlX" role="2ShVmc">
                <node concept="3Tqbb2" id="P0flyHhMlY" role="3zrR0E">
                  <ref role="ehGHo" to="tpee:fK9aQHR" resolve="BlockStatement" />
                </node>
              </node>
            </node>
            <node concept="2OqwBi" id="P0flyHhMlD" role="37vLTJ">
              <node concept="37vLTw" id="3GM_nagTrJ4" role="2Oq$k0">
                <ref role="3cqZAo" node="P0flyHhI$g" resolve="statement" />
              </node>
              <node concept="3TrEf2" id="P0flyHhMlZ" role="2OqNvi">
                <ref role="3Tt5mk" to="tpee:fK9aQHQ" />
              </node>
            </node>
          </node>
        </node>
        <node concept="3clFbF" id="P0flyHhMm5" role="3cqZAp">
          <node concept="37vLTI" id="P0flyHhMmn" role="3clFbG">
            <node concept="37vLTw" id="3GM_nagTzX_" role="37vLTx">
              <ref role="3cqZAo" node="P0flyHhMET" resolve="ifFalseBody" />
            </node>
            <node concept="2OqwBi" id="P0flyHhMmi" role="37vLTJ">
              <node concept="1PxgMI" id="P0flyHhMmg" role="2Oq$k0">
                <ref role="1m5ApE" to="tpee:fK9aQHR" resolve="BlockStatement" />
                <node concept="2OqwBi" id="P0flyHhMm7" role="1m5AlR">
                  <node concept="37vLTw" id="3GM_nagTAtC" role="2Oq$k0">
                    <ref role="3cqZAo" node="P0flyHhI$g" resolve="statement" />
                  </node>
                  <node concept="3TrEf2" id="P0flyHhMmb" role="2OqNvi">
                    <ref role="3Tt5mk" to="tpee:fK9aQHQ" />
                  </node>
                </node>
              </node>
              <node concept="3TrEf2" id="P0flyHhMmm" role="2OqNvi">
                <ref role="3Tt5mk" to="tpee:fK9aQHS" />
              </node>
            </node>
          </node>
        </node>
        <node concept="3clFbF" id="P0flyHhMvf" role="3cqZAp">
          <node concept="2OqwBi" id="P0flyHhMvh" role="3clFbG">
            <node concept="2Sf5sV" id="P0flyHhMvg" role="2Oq$k0" />
            <node concept="1P9Npp" id="P0flyHhMvl" role="2OqNvi">
              <node concept="37vLTw" id="3GM_nagTA9x" role="1P9ThW">
                <ref role="3cqZAo" node="P0flyHhI$g" resolve="statement" />
              </node>
            </node>
          </node>
        </node>
        <node concept="3clFbF" id="3itTNQrsGsW" role="3cqZAp">
          <node concept="2OqwBi" id="3itTNQrsGsY" role="3clFbG">
            <node concept="1XNTG" id="3itTNQrsGsX" role="2Oq$k0" />
            <node concept="liA8E" id="3itTNQrsGNx" role="2OqNvi">
              <ref role="37wK5l" to="cj4x:~EditorContext.select(org.jetbrains.mps.openapi.model.SNode):void" resolve="select" />
              <node concept="2OqwBi" id="3itTNQrsNSo" role="37wK5m">
                <node concept="37vLTw" id="3GM_nagT_cw" role="2Oq$k0">
                  <ref role="3cqZAo" node="P0flyHhI$g" resolve="statement" />
                </node>
                <node concept="3TrEf2" id="3itTNQrsVIl" role="2OqNvi">
                  <ref role="3Tt5mk" to="tpee:fzclF8o" />
                </node>
              </node>
            </node>
          </node>
        </node>
      </node>
    </node>
  </node>
  <node concept="2ZfgGJ" id="lPhVsfdMIG">
    <property role="TrG5h" value="SurroundWithUnless" />
    <ref role="2ZfgGC" to="tpee:fzclF8l" resolve="Statement" />
    <node concept="2S6ZIM" id="lPhVsfdMIH" role="2ZfVej">
      <node concept="3clFbS" id="lPhVsfdMII" role="2VODD2">
        <node concept="3clFbF" id="lPhVsfdOU3" role="3cqZAp">
          <node concept="Xl_RD" id="lPhVsfdOU4" role="3clFbG">
            <property role="Xl_RC" value="Unless" />
          </node>
        </node>
      </node>
    </node>
    <node concept="2Sbjvc" id="lPhVsfdMIJ" role="2ZfgGD">
      <node concept="3clFbS" id="lPhVsfdMIK" role="2VODD2">
        <node concept="3cpWs8" id="7_IUqRBKur4" role="3cqZAp">
          <node concept="3cpWsn" id="7_IUqRBKur5" role="3cpWs9">
            <property role="TrG5h" value="unlessStatement" />
            <node concept="3Tqbb2" id="7_IUqRBKur6" role="1tU5fm">
              <ref role="ehGHo" to="3v68:lPhVsfdHKd" resolve="UnlessStatement" />
            </node>
            <node concept="2ShNRf" id="7_IUqRBKur7" role="33vP2m">
              <node concept="2fJWfE" id="3nElHYn1gqx" role="2ShVmc">
                <node concept="3Tqbb2" id="3nElHYn1gqy" role="3zrR0E">
                  <ref role="ehGHo" to="3v68:lPhVsfdHKd" resolve="UnlessStatement" />
                </node>
              </node>
            </node>
          </node>
        </node>
        <node concept="3cpWs8" id="7_IUqRBKvtQ" role="3cqZAp">
          <node concept="3cpWsn" id="7_IUqRBKvtR" role="3cpWs9">
            <property role="TrG5h" value="selectedNodes" />
            <node concept="2I9FWS" id="7_IUqRBKvtS" role="1tU5fm" />
            <node concept="2OqwBi" id="7_IUqRBKvtV" role="33vP2m">
              <node concept="1XNTG" id="2A0RSQDIqrx" role="2Oq$k0" />
              <node concept="liA8E" id="7_IUqRBKvtZ" role="2OqNvi">
                <ref role="37wK5l" to="cj4x:~EditorContext.getSelectedNodes():java.util.List" resolve="getSelectedNodes" />
              </node>
            </node>
          </node>
        </node>
        <node concept="3clFbF" id="7_IUqRBKura" role="3cqZAp">
          <node concept="2OqwBi" id="7_IUqRBKurb" role="3clFbG">
            <node concept="2OqwBi" id="7_IUqRBKurc" role="2Oq$k0">
              <node concept="37vLTw" id="3GM_nagTxqV" role="2Oq$k0">
                <ref role="3cqZAo" node="7_IUqRBKvtR" resolve="selectedNodes" />
              </node>
              <node concept="1yVyf7" id="1gkKVo23$QM" role="2OqNvi" />
            </node>
            <node concept="HtI8k" id="7_IUqRBKurf" role="2OqNvi">
              <node concept="37vLTw" id="3GM_nagTBol" role="HtI8F">
                <ref role="3cqZAo" node="7_IUqRBKur5" resolve="unlessStatement" />
              </node>
            </node>
          </node>
        </node>
        <node concept="2Gpval" id="7_IUqRBKurh" role="3cqZAp">
          <node concept="2GrKxI" id="7_IUqRBKuri" role="2Gsz3X">
            <property role="TrG5h" value="selectedNode" />
          </node>
          <node concept="37vLTw" id="3GM_nagTxHl" role="2GsD0m">
            <ref role="3cqZAo" node="7_IUqRBKvtR" resolve="selectedNodes" />
          </node>
          <node concept="3clFbS" id="7_IUqRBKurk" role="2LFqv$">
            <node concept="3clFbF" id="7_IUqRBKurl" role="3cqZAp">
              <node concept="2OqwBi" id="7_IUqRBKurm" role="3clFbG">
                <node concept="2OqwBi" id="7_IUqRBKurn" role="2Oq$k0">
                  <node concept="2OqwBi" id="7_IUqRBKuro" role="2Oq$k0">
                    <node concept="37vLTw" id="3GM_nagTvtx" role="2Oq$k0">
                      <ref role="3cqZAo" node="7_IUqRBKur5" resolve="unlessStatement" />
                    </node>
                    <node concept="3TrEf2" id="1gkKVo23Jmc" role="2OqNvi">
                      <ref role="3Tt5mk" to="3v68:lPhVsfdHKs" />
                    </node>
                  </node>
                  <node concept="3Tsc0h" id="7_IUqRBKurr" role="2OqNvi">
                    <ref role="3TtcxE" to="tpee:fzcqZ_x" />
                  </node>
                </node>
                <node concept="TSZUe" id="2fLCP33Emnx" role="2OqNvi">
                  <node concept="2OqwBi" id="7_IUqRBKvuc" role="25WWJ7">
                    <node concept="2GrUjf" id="7_IUqRBKvu9" role="2Oq$k0">
                      <ref role="2Gs0qQ" node="7_IUqRBKuri" resolve="selectedNode" />
                    </node>
                    <node concept="2Xjw5R" id="7_IUqRBKvuk" role="2OqNvi">
                      <node concept="1xMEDy" id="7_IUqRBKvul" role="1xVPHs">
                        <node concept="chp4Y" id="7_IUqRBKvuq" role="ri$Ld">
                          <ref role="cht4Q" to="tpee:fzclF8l" resolve="Statement" />
                        </node>
                      </node>
                      <node concept="1xIGOp" id="7_IUqRBKvuz" role="1xVPHs" />
                    </node>
                  </node>
                </node>
              </node>
            </node>
          </node>
        </node>
        <node concept="3clFbF" id="7_IUqRBKurv" role="3cqZAp">
          <node concept="2OqwBi" id="7_IUqRBKurw" role="3clFbG">
            <node concept="1XNTG" id="7_IUqRBKvu5" role="2Oq$k0" />
            <node concept="liA8E" id="7_IUqRBKury" role="2OqNvi">
              <ref role="37wK5l" to="cj4x:~EditorContext.select(org.jetbrains.mps.openapi.model.SNode):void" resolve="select" />
              <node concept="2OqwBi" id="7_IUqRBKurz" role="37wK5m">
                <node concept="37vLTw" id="3GM_nagTtIa" role="2Oq$k0">
                  <ref role="3cqZAo" node="7_IUqRBKur5" resolve="unlessStatement" />
                </node>
                <node concept="3TrEf2" id="1gkKVo23Kcr" role="2OqNvi">
                  <ref role="3Tt5mk" to="3v68:lPhVsfdHKe" />
                </node>
              </node>
            </node>
          </node>
        </node>
        <node concept="3clFbH" id="lPhVsfdP7L" role="3cqZAp" />
      </node>
    </node>
  </node>
</model>

