<?xml version="1.0" encoding="UTF-8"?>
<model ref="r:47174b35-df1c-485d-9362-8e3256f44aca(org.jetbrains.mps.samples.IfAndUnless.structure)">
  <persistence version="9" />
  <languages>
    <use id="c72da2b9-7cce-4447-8389-f407dc1158b7" name="jetbrains.mps.lang.structure" version="3" />
    <use id="982eb8df-2c96-4bd7-9963-11712ea622e5" name="jetbrains.mps.lang.resources" version="2" />
  </languages>
  <imports>
    <import index="tpee" ref="r:00000000-0000-4000-0000-011c895902ca(jetbrains.mps.baseLanguage.structure)" implicit="true" />
    <import index="tpck" ref="r:00000000-0000-4000-0000-011c89590288(jetbrains.mps.lang.core.structure)" implicit="true" />
  </imports>
  <registry>
    <language id="c72da2b9-7cce-4447-8389-f407dc1158b7" name="jetbrains.mps.lang.structure">
      <concept id="1169125787135" name="jetbrains.mps.lang.structure.structure.AbstractConceptDeclaration" flags="ig" index="PkWjJ">
        <property id="6714410169261853888" name="conceptId" index="EcuMT" />
        <property id="4628067390765956807" name="final" index="R5$K2" />
        <property id="4628067390765956802" name="abstract" index="R5$K7" />
        <property id="5092175715804935370" name="conceptAlias" index="34LRSv" />
        <child id="1071489727083" name="linkDeclaration" index="1TKVEi" />
      </concept>
      <concept id="1169127622168" name="jetbrains.mps.lang.structure.structure.InterfaceConceptReference" flags="ig" index="PrWs8">
        <reference id="1169127628841" name="intfc" index="PrY4T" />
      </concept>
      <concept id="1071489090640" name="jetbrains.mps.lang.structure.structure.ConceptDeclaration" flags="ig" index="1TIwiD">
        <property id="5404671619616246344" name="staticScope" index="2_RsDV" />
        <reference id="1071489389519" name="extends" index="1TJDcQ" />
        <child id="1169129564478" name="implements" index="PzmwI" />
      </concept>
      <concept id="1071489288298" name="jetbrains.mps.lang.structure.structure.LinkDeclaration" flags="ig" index="1TJgyj">
        <property id="1071599776563" name="role" index="20kJfa" />
        <property id="1071599893252" name="sourceCardinality" index="20lbJX" />
        <property id="1071599937831" name="metaClass" index="20lmBu" />
        <property id="241647608299431140" name="linkId" index="IQ2ns" />
        <reference id="1071599976176" name="target" index="20lvS9" />
      </concept>
    </language>
    <language id="ceab5195-25ea-4f22-9b92-103b95ca8c0c" name="jetbrains.mps.lang.core">
      <concept id="1169194658468" name="jetbrains.mps.lang.core.structure.INamedConcept" flags="ng" index="TrEIO">
        <property id="1169194664001" name="name" index="TrG5h" />
      </concept>
    </language>
  </registry>
  <node concept="1TIwiD" id="lPhVsfdHKd">
    <property role="R5$K7" value="false" />
    <property role="R5$K2" value="false" />
    <property role="TrG5h" value="UnlessStatement" />
    <property role="2_RsDV" value="none" />
    <property role="34LRSv" value="unless" />
    <property role="EcuMT" value="393299394024627213" />
    <ref role="1TJDcQ" to="tpee:fzclF8l" resolve="Statement" />
    <node concept="1TJgyj" id="lPhVsfdHKe" role="1TKVEi">
      <property role="20lmBu" value="aggregation" />
      <property role="20kJfa" value="condition" />
      <property role="20lbJX" value="1" />
      <property role="IQ2ns" value="393299394024627214" />
      <ref role="20lvS9" to="tpee:fz3vP1J" resolve="Expression" />
    </node>
    <node concept="1TJgyj" id="lPhVsfdHKs" role="1TKVEi">
      <property role="20lmBu" value="aggregation" />
      <property role="20kJfa" value="body" />
      <property role="20lbJX" value="1" />
      <property role="IQ2ns" value="393299394024627228" />
      <ref role="20lvS9" to="tpee:fzclF80" resolve="StatementList" />
    </node>
  </node>
  <node concept="1TIwiD" id="P0flyHh8Na">
    <property role="R5$K7" value="false" />
    <property role="R5$K2" value="false" />
    <property role="TrG5h" value="MyIfStatement" />
    <property role="2_RsDV" value="none" />
    <property role="34LRSv" value="my_if" />
    <property role="EcuMT" value="954830572075912394" />
    <ref role="1TJDcQ" to="tpee:fzclF8l" resolve="Statement" />
    <node concept="1TJgyj" id="P0flyHh8Nd" role="1TKVEi">
      <property role="20lmBu" value="aggregation" />
      <property role="20kJfa" value="condition" />
      <property role="20lbJX" value="1" />
      <property role="IQ2ns" value="954830572075912397" />
      <ref role="20lvS9" to="tpee:fz3vP1J" resolve="Expression" />
    </node>
    <node concept="1TJgyj" id="P0flyHh8Ne" role="1TKVEi">
      <property role="20lmBu" value="aggregation" />
      <property role="20kJfa" value="body" />
      <property role="20lbJX" value="1" />
      <property role="IQ2ns" value="954830572075912398" />
      <ref role="20lvS9" node="P0flyHhtOv" resolve="TrueFlow" />
    </node>
    <node concept="1TJgyj" id="P0flyHhnTd" role="1TKVEi">
      <property role="20lmBu" value="aggregation" />
      <property role="20kJfa" value="alternative" />
      <property role="20lbJX" value="1" />
      <property role="IQ2ns" value="954830572075974221" />
      <ref role="20lvS9" node="P0flyHhtO$" resolve="FalseFlow" />
    </node>
  </node>
  <node concept="1TIwiD" id="P0flyHh8Nf">
    <property role="R5$K7" value="true" />
    <property role="R5$K2" value="false" />
    <property role="TrG5h" value="Flow" />
    <property role="EcuMT" value="954830572075912399" />
    <ref role="1TJDcQ" to="tpee:fzclF80" resolve="StatementList" />
    <node concept="PrWs8" id="2XA_ayKmfQA" role="PzmwI">
      <ref role="PrY4T" to="tpck:19gBtYEAf4C" resolve="InterfacePart" />
    </node>
  </node>
  <node concept="1TIwiD" id="P0flyHhtOv">
    <property role="TrG5h" value="TrueFlow" />
    <property role="EcuMT" value="954830572075998495" />
    <ref role="1TJDcQ" node="P0flyHh8Nf" resolve="Flow" />
  </node>
  <node concept="1TIwiD" id="P0flyHhtO$">
    <property role="TrG5h" value="FalseFlow" />
    <property role="EcuMT" value="954830572075998500" />
    <ref role="1TJDcQ" node="P0flyHh8Nf" resolve="Flow" />
  </node>
</model>

