<?xml version="1.0" encoding="UTF-8"?>
<model ref="r:af5f8eb9-49c0-4279-87d3-3c80b1a56988(jetbrains.mps.samples.Kaja.typesystem)">
  <persistence version="9" />
  <languages>
    <use id="7a5dda62-9140-4668-ab76-d5ed1746f2b2" name="jetbrains.mps.lang.typesystem" version="0" />
    <devkit ref="fbc25dd2-5da4-483a-8b19-70928e1b62d7(jetbrains.mps.devkit.general-purpose)" />
  </languages>
  <imports>
    <import index="c2kz" ref="r:b567205c-7e17-4168-b413-945a6e17f37d(jetbrains.mps.samples.Kaja.structure)" />
    <import index="tpck" ref="r:00000000-0000-4000-0000-011c89590288(jetbrains.mps.lang.core.structure)" />
    <import index="aplb" ref="2af156ab-65c1-4a62-bd0d-ea734f71eab6/r:a1d8bbbf-d4f0-431f-8dcd-a6badc777315(jetbrains.mps.dataFlow.runtime/jetbrains.mps.lang.dataFlow)" />
    <import index="1fjm" ref="6ed54515-acc8-4d1e-a16c-9fd6cfe951ea/java:jetbrains.mps.lang.dataFlow.framework(MPS.Core/)" />
    <import index="33ny" ref="6354ebe7-c22a-4a0f-ac54-50b52ab9b065/java:java.util(JDK/)" />
    <import index="mhbf" ref="8865b7a8-5271-43d3-884c-6fd1d9cfdd34/java:org.jetbrains.mps.openapi.model(MPS.OpenAPI/)" />
    <import index="dau9" ref="6ed54515-acc8-4d1e-a16c-9fd6cfe951ea/java:jetbrains.mps.lang.dataFlow.framework.instructions(MPS.Core/)" />
    <import index="wyt6" ref="6354ebe7-c22a-4a0f-ac54-50b52ab9b065/java:java.lang(JDK/)" />
  </imports>
  <registry>
    <language id="f3061a53-9226-4cc5-a443-f952ceaf5816" name="jetbrains.mps.baseLanguage">
      <concept id="1080223426719" name="jetbrains.mps.baseLanguage.structure.OrExpression" flags="nn" index="22lmx$" />
      <concept id="1082485599095" name="jetbrains.mps.baseLanguage.structure.BlockStatement" flags="nn" index="9aQIb">
        <child id="1082485599096" name="statements" index="9aQI4" />
      </concept>
      <concept id="1215693861676" name="jetbrains.mps.baseLanguage.structure.BaseAssignmentExpression" flags="nn" index="d038R">
        <child id="1068498886297" name="rValue" index="37vLTx" />
        <child id="1068498886295" name="lValue" index="37vLTJ" />
      </concept>
      <concept id="4836112446988635817" name="jetbrains.mps.baseLanguage.structure.UndefinedType" flags="in" index="2jxLKc" />
      <concept id="1202948039474" name="jetbrains.mps.baseLanguage.structure.InstanceMethodCallOperation" flags="nn" index="liA8E" />
      <concept id="1154032098014" name="jetbrains.mps.baseLanguage.structure.AbstractLoopStatement" flags="nn" index="2LF5Ji">
        <child id="1154032183016" name="body" index="2LFqv$" />
      </concept>
      <concept id="1197027756228" name="jetbrains.mps.baseLanguage.structure.DotExpression" flags="nn" index="2OqwBi">
        <child id="1197027771414" name="operand" index="2Oq$k0" />
        <child id="1197027833540" name="operation" index="2OqNvi" />
      </concept>
      <concept id="1164879751025" name="jetbrains.mps.baseLanguage.structure.TryCatchStatement" flags="nn" index="SfApY">
        <child id="1164879758292" name="body" index="SfCbr" />
        <child id="1164903496223" name="catchClause" index="TEbGg" />
      </concept>
      <concept id="1145552977093" name="jetbrains.mps.baseLanguage.structure.GenericNewExpression" flags="nn" index="2ShNRf">
        <child id="1145553007750" name="creator" index="2ShVmc" />
      </concept>
      <concept id="1164903280175" name="jetbrains.mps.baseLanguage.structure.CatchClause" flags="nn" index="TDmWw">
        <child id="1164903359218" name="catchBody" index="TDEfX" />
        <child id="1164903359217" name="throwable" index="TDEfY" />
      </concept>
      <concept id="1137021947720" name="jetbrains.mps.baseLanguage.structure.ConceptFunction" flags="in" index="2VMwT0">
        <child id="1137022507850" name="body" index="2VODD2" />
      </concept>
      <concept id="1070475926800" name="jetbrains.mps.baseLanguage.structure.StringLiteral" flags="nn" index="Xl_RD">
        <property id="1070475926801" name="value" index="Xl_RC" />
      </concept>
      <concept id="1081236700937" name="jetbrains.mps.baseLanguage.structure.StaticMethodCall" flags="nn" index="2YIFZM">
        <reference id="1144433194310" name="classConcept" index="1Pybhc" />
      </concept>
      <concept id="1164991038168" name="jetbrains.mps.baseLanguage.structure.ThrowStatement" flags="nn" index="YS8fn">
        <child id="1164991057263" name="throwable" index="YScLw" />
      </concept>
      <concept id="1070534058343" name="jetbrains.mps.baseLanguage.structure.NullLiteral" flags="nn" index="10Nm6u" />
      <concept id="1070534934090" name="jetbrains.mps.baseLanguage.structure.CastExpression" flags="nn" index="10QFUN">
        <child id="1070534934091" name="type" index="10QFUM" />
        <child id="1070534934092" name="expression" index="10QFUP" />
      </concept>
      <concept id="1068431474542" name="jetbrains.mps.baseLanguage.structure.VariableDeclaration" flags="ng" index="33uBYm">
        <child id="1068431790190" name="initializer" index="33vP2m" />
      </concept>
      <concept id="1068498886296" name="jetbrains.mps.baseLanguage.structure.VariableReference" flags="nn" index="37vLTw">
        <reference id="1068581517664" name="variableDeclaration" index="3cqZAo" />
      </concept>
      <concept id="1068498886294" name="jetbrains.mps.baseLanguage.structure.AssignmentExpression" flags="nn" index="37vLTI" />
      <concept id="1225271177708" name="jetbrains.mps.baseLanguage.structure.StringType" flags="in" index="17QB3L" />
      <concept id="1225271283259" name="jetbrains.mps.baseLanguage.structure.NPEEqualsExpression" flags="nn" index="17R0WA" />
      <concept id="4972933694980447171" name="jetbrains.mps.baseLanguage.structure.BaseVariableDeclaration" flags="ng" index="19Szcq">
        <child id="5680397130376446158" name="type" index="1tU5fm" />
      </concept>
      <concept id="1068580123152" name="jetbrains.mps.baseLanguage.structure.EqualsExpression" flags="nn" index="3clFbC" />
      <concept id="1068580123155" name="jetbrains.mps.baseLanguage.structure.ExpressionStatement" flags="nn" index="3clFbF">
        <child id="1068580123156" name="expression" index="3clFbG" />
      </concept>
      <concept id="1068580123157" name="jetbrains.mps.baseLanguage.structure.Statement" flags="nn" index="3clFbH" />
      <concept id="1068580123159" name="jetbrains.mps.baseLanguage.structure.IfStatement" flags="nn" index="3clFbJ">
        <child id="1082485599094" name="ifFalseStatement" index="9aQIa" />
        <child id="1068580123160" name="condition" index="3clFbw" />
        <child id="1068580123161" name="ifTrue" index="3clFbx" />
      </concept>
      <concept id="1068580123136" name="jetbrains.mps.baseLanguage.structure.StatementList" flags="sn" stub="5293379017992965193" index="3clFbS">
        <child id="1068581517665" name="statement" index="3cqZAp" />
      </concept>
      <concept id="1068580320020" name="jetbrains.mps.baseLanguage.structure.IntegerConstant" flags="nn" index="3cmrfG">
        <property id="1068580320021" name="value" index="3cmrfH" />
      </concept>
      <concept id="1068581242875" name="jetbrains.mps.baseLanguage.structure.PlusExpression" flags="nn" index="3cpWs3" />
      <concept id="1068581242878" name="jetbrains.mps.baseLanguage.structure.ReturnStatement" flags="nn" index="3cpWs6" />
      <concept id="1068581242864" name="jetbrains.mps.baseLanguage.structure.LocalVariableDeclarationStatement" flags="nn" index="3cpWs8">
        <child id="1068581242865" name="localVariableDeclaration" index="3cpWs9" />
      </concept>
      <concept id="1068581242863" name="jetbrains.mps.baseLanguage.structure.LocalVariableDeclaration" flags="nr" index="3cpWsn" />
      <concept id="1079359253375" name="jetbrains.mps.baseLanguage.structure.ParenthesizedExpression" flags="nn" index="1eOMI4">
        <child id="1079359253376" name="expression" index="1eOMHV" />
      </concept>
      <concept id="1081506762703" name="jetbrains.mps.baseLanguage.structure.GreaterThanExpression" flags="nn" index="3eOSWO" />
      <concept id="1081516740877" name="jetbrains.mps.baseLanguage.structure.NotExpression" flags="nn" index="3fqX7Q">
        <child id="1081516765348" name="expression" index="3fr31v" />
      </concept>
      <concept id="1204053956946" name="jetbrains.mps.baseLanguage.structure.IMethodCall" flags="ng" index="1ndlxa">
        <reference id="1068499141037" name="baseMethodDeclaration" index="37wK5l" />
        <child id="1068499141038" name="actualArgument" index="37wK5m" />
      </concept>
      <concept id="1212685548494" name="jetbrains.mps.baseLanguage.structure.ClassCreator" flags="nn" index="1pGfFk" />
      <concept id="1107535904670" name="jetbrains.mps.baseLanguage.structure.ClassifierType" flags="in" index="3uibUv">
        <reference id="1107535924139" name="classifier" index="3uigEE" />
        <child id="1109201940907" name="parameter" index="11_B2D" />
      </concept>
      <concept id="1081773326031" name="jetbrains.mps.baseLanguage.structure.BinaryOperation" flags="nn" index="3uHJSO">
        <child id="1081773367579" name="rightExpression" index="3uHU7w" />
        <child id="1081773367580" name="leftExpression" index="3uHU7B" />
      </concept>
      <concept id="1073239437375" name="jetbrains.mps.baseLanguage.structure.NotEqualsExpression" flags="nn" index="3y3z36" />
      <concept id="1144226303539" name="jetbrains.mps.baseLanguage.structure.ForeachStatement" flags="nn" index="1DcWWT">
        <child id="1144226360166" name="iterable" index="1DdaDG" />
      </concept>
      <concept id="1144230876926" name="jetbrains.mps.baseLanguage.structure.AbstractForStatement" flags="nn" index="1DupvO">
        <child id="1144230900587" name="variable" index="1Duv9x" />
      </concept>
      <concept id="1082113931046" name="jetbrains.mps.baseLanguage.structure.ContinueStatement" flags="nn" index="3N13vt" />
      <concept id="1080120340718" name="jetbrains.mps.baseLanguage.structure.AndExpression" flags="nn" index="1Wc70l" />
    </language>
    <language id="fd392034-7849-419d-9071-12563d152375" name="jetbrains.mps.baseLanguage.closures">
      <concept id="1199569711397" name="jetbrains.mps.baseLanguage.closures.structure.ClosureLiteral" flags="nn" index="1bVj0M">
        <child id="1199569906740" name="parameter" index="1bW2Oz" />
        <child id="1199569916463" name="body" index="1bW5cS" />
      </concept>
    </language>
    <language id="7a5dda62-9140-4668-ab76-d5ed1746f2b2" name="jetbrains.mps.lang.typesystem">
      <concept id="1207055528241" name="jetbrains.mps.lang.typesystem.structure.WarningStatement" flags="nn" index="a7r0C">
        <child id="1207055552304" name="warningText" index="a7wSD" />
      </concept>
      <concept id="1224760201579" name="jetbrains.mps.lang.typesystem.structure.InfoStatement" flags="nn" index="Dpp1Q">
        <child id="1224760230762" name="infoText" index="Dpw9R" />
      </concept>
      <concept id="1175517767210" name="jetbrains.mps.lang.typesystem.structure.ReportErrorStatement" flags="nn" index="2MkqsV">
        <child id="1175517851849" name="errorString" index="2MkJ7o" />
      </concept>
      <concept id="1227096774658" name="jetbrains.mps.lang.typesystem.structure.MessageStatement" flags="ng" index="2OEH$v">
        <child id="1227096802791" name="helginsIntention" index="2OEOjU" />
        <child id="1227096802790" name="nodeToReport" index="2OEOjV" />
      </concept>
      <concept id="1216383170661" name="jetbrains.mps.lang.typesystem.structure.TypesystemQuickFix" flags="ng" index="Q5z_Y">
        <child id="1216383424566" name="executeBlock" index="Q6x$H" />
        <child id="1216391046856" name="descriptionBlock" index="QzAvj" />
      </concept>
      <concept id="1216383287005" name="jetbrains.mps.lang.typesystem.structure.QuickFixExecuteBlock" flags="in" index="Q5ZZ6" />
      <concept id="1216383337216" name="jetbrains.mps.lang.typesystem.structure.ConceptFunctionParameter_node" flags="nn" index="Q6c8r" />
      <concept id="1216390987552" name="jetbrains.mps.lang.typesystem.structure.QuickFixDescriptionBlock" flags="in" index="QznSV" />
      <concept id="1195213580585" name="jetbrains.mps.lang.typesystem.structure.AbstractCheckingRule" flags="ig" index="18hYwZ">
        <child id="1195213635060" name="body" index="18ibNy" />
      </concept>
      <concept id="1195214364922" name="jetbrains.mps.lang.typesystem.structure.NonTypesystemRule" flags="ig" index="18kY7G" />
      <concept id="1210784285454" name="jetbrains.mps.lang.typesystem.structure.TypesystemIntention" flags="ng" index="3Cnw8n">
        <reference id="1216388525179" name="quickFix" index="QpYPw" />
      </concept>
      <concept id="1174642788531" name="jetbrains.mps.lang.typesystem.structure.ConceptReference" flags="ig" index="1YaCAy">
        <reference id="1174642800329" name="concept" index="1YaFvo" />
      </concept>
      <concept id="1174648085619" name="jetbrains.mps.lang.typesystem.structure.AbstractRule" flags="ng" index="1YuPPy">
        <child id="1174648101952" name="applicableNode" index="1YuTPh" />
      </concept>
      <concept id="1174650418652" name="jetbrains.mps.lang.typesystem.structure.ApplicableNodeReference" flags="nn" index="1YBJjd">
        <reference id="1174650432090" name="applicableNode" index="1YBMHb" />
      </concept>
    </language>
    <language id="7866978e-a0f0-4cc7-81bc-4d213d9375e1" name="jetbrains.mps.lang.smodel">
      <concept id="1177026924588" name="jetbrains.mps.lang.smodel.structure.RefConcept_Reference" flags="nn" index="chp4Y">
        <reference id="1177026940964" name="conceptDeclaration" index="cht4Q" />
      </concept>
      <concept id="1138411891628" name="jetbrains.mps.lang.smodel.structure.SNodeOperation" flags="nn" index="eCIE_">
        <child id="1144104376918" name="parameter" index="1xVPHs" />
      </concept>
      <concept id="7453996997717780434" name="jetbrains.mps.lang.smodel.structure.Node_GetSConceptOperation" flags="nn" index="2yIwOk" />
      <concept id="2396822768958367367" name="jetbrains.mps.lang.smodel.structure.AbstractTypeCastExpression" flags="nn" index="$5XWr">
        <reference id="6733348108486823428" name="concept" index="1m5ApE" />
        <child id="6733348108486823193" name="leftExpression" index="1m5AlR" />
      </concept>
      <concept id="1143234257716" name="jetbrains.mps.lang.smodel.structure.Node_GetModelOperation" flags="nn" index="I4A8Y" />
      <concept id="1145404486709" name="jetbrains.mps.lang.smodel.structure.SemanticDowncastExpression" flags="nn" index="2JrnkZ">
        <child id="1145404616321" name="leftExpression" index="2JrQYb" />
      </concept>
      <concept id="1171305280644" name="jetbrains.mps.lang.smodel.structure.Node_GetDescendantsOperation" flags="nn" index="2Rf3mk" />
      <concept id="1171315804604" name="jetbrains.mps.lang.smodel.structure.Model_RootsOperation" flags="nn" index="2RRcyG">
        <reference id="1171315804605" name="concept" index="2RRcyH" />
      </concept>
      <concept id="1171407110247" name="jetbrains.mps.lang.smodel.structure.Node_GetAncestorOperation" flags="nn" index="2Xjw5R" />
      <concept id="1143511969223" name="jetbrains.mps.lang.smodel.structure.Node_GetPrevSiblingOperation" flags="nn" index="YBYNd" />
      <concept id="1143512015885" name="jetbrains.mps.lang.smodel.structure.Node_GetNextSiblingOperation" flags="nn" index="YCak7" />
      <concept id="1139613262185" name="jetbrains.mps.lang.smodel.structure.Node_GetParentOperation" flags="nn" index="1mfA1w" />
      <concept id="1139621453865" name="jetbrains.mps.lang.smodel.structure.Node_IsInstanceOfOperation" flags="nn" index="1mIQ4w">
        <child id="1177027386292" name="conceptArgument" index="cj9EA" />
      </concept>
      <concept id="1144101972840" name="jetbrains.mps.lang.smodel.structure.OperationParm_Concept" flags="ng" index="1xMEDy">
        <child id="1207343664468" name="conceptArgument" index="ri$Ld" />
      </concept>
      <concept id="1180636770613" name="jetbrains.mps.lang.smodel.structure.SNodeCreator" flags="nn" index="3zrR0B">
        <child id="1180636770616" name="createdType" index="3zrR0E" />
      </concept>
      <concept id="1139867745658" name="jetbrains.mps.lang.smodel.structure.Node_ReplaceWithNewOperation" flags="nn" index="1_qnLN">
        <reference id="1139867957129" name="concept" index="1_rbq0" />
      </concept>
      <concept id="1140133623887" name="jetbrains.mps.lang.smodel.structure.Node_DeleteOperation" flags="nn" index="1PgB_6" />
      <concept id="1140137987495" name="jetbrains.mps.lang.smodel.structure.SNodeTypeCastExpression" flags="nn" index="1PxgMI">
        <property id="1238684351431" name="asCast" index="1BlNFB" />
      </concept>
      <concept id="1138055754698" name="jetbrains.mps.lang.smodel.structure.SNodeType" flags="in" index="3Tqbb2">
        <reference id="1138405853777" name="concept" index="ehGHo" />
      </concept>
      <concept id="1138056022639" name="jetbrains.mps.lang.smodel.structure.SPropertyAccess" flags="nn" index="3TrcHB">
        <reference id="1138056395725" name="property" index="3TsBF5" />
      </concept>
      <concept id="1138056143562" name="jetbrains.mps.lang.smodel.structure.SLinkAccess" flags="nn" index="3TrEf2">
        <reference id="1138056516764" name="link" index="3Tt5mk" />
      </concept>
      <concept id="1138056282393" name="jetbrains.mps.lang.smodel.structure.SLinkListAccess" flags="nn" index="3Tsc0h">
        <reference id="1138056546658" name="link" index="3TtcxE" />
      </concept>
    </language>
    <language id="ceab5195-25ea-4f22-9b92-103b95ca8c0c" name="jetbrains.mps.lang.core">
      <concept id="1169194658468" name="jetbrains.mps.lang.core.structure.INamedConcept" flags="ng" index="TrEIO">
        <property id="1169194664001" name="name" index="TrG5h" />
      </concept>
    </language>
    <language id="83888646-71ce-4f1c-9c53-c54016f6ad4f" name="jetbrains.mps.baseLanguage.collections">
      <concept id="1204796164442" name="jetbrains.mps.baseLanguage.collections.structure.InternalSequenceOperation" flags="nn" index="23sCx2">
        <child id="1204796294226" name="closure" index="23t8la" />
      </concept>
      <concept id="540871147943773365" name="jetbrains.mps.baseLanguage.collections.structure.SingleArgumentSequenceOperation" flags="nn" index="25WWJ4">
        <child id="540871147943773366" name="argument" index="25WWJ7" />
      </concept>
      <concept id="1151688443754" name="jetbrains.mps.baseLanguage.collections.structure.ListType" flags="in" index="_YKpA">
        <child id="1151688676805" name="elementType" index="_ZDj9" />
      </concept>
      <concept id="1151689724996" name="jetbrains.mps.baseLanguage.collections.structure.SequenceType" flags="in" index="A3Dl8">
        <child id="1151689745422" name="elementType" index="A3Ik2" />
      </concept>
      <concept id="1237721394592" name="jetbrains.mps.baseLanguage.collections.structure.AbstractContainerCreator" flags="nn" index="HWqM0">
        <child id="1237721435807" name="elementType" index="HW$YZ" />
        <child id="1237731803878" name="copyFrom" index="I$8f6" />
      </concept>
      <concept id="1203518072036" name="jetbrains.mps.baseLanguage.collections.structure.SmartClosureParameterDeclaration" flags="ig" index="Rh6nW" />
      <concept id="1160600644654" name="jetbrains.mps.baseLanguage.collections.structure.ListCreatorWithInit" flags="nn" index="Tc6Ow" />
      <concept id="1160612413312" name="jetbrains.mps.baseLanguage.collections.structure.AddElementOperation" flags="nn" index="TSZUe" />
      <concept id="1160666733551" name="jetbrains.mps.baseLanguage.collections.structure.AddAllElementsOperation" flags="nn" index="X8dFx" />
      <concept id="1162935959151" name="jetbrains.mps.baseLanguage.collections.structure.GetSizeOperation" flags="nn" index="34oBXx" />
      <concept id="1202120902084" name="jetbrains.mps.baseLanguage.collections.structure.WhereOperation" flags="nn" index="3zZkjj" />
      <concept id="1202128969694" name="jetbrains.mps.baseLanguage.collections.structure.SelectOperation" flags="nn" index="3$u5V9" />
    </language>
  </registry>
  <node concept="18kY7G" id="1DJg4Tz22kB">
    <property role="TrG5h" value="RoutineUniqueness" />
    <node concept="3clFbS" id="1DJg4Tz22kC" role="18ibNy">
      <node concept="3clFbJ" id="2MeG3eCdOLY" role="3cqZAp">
        <node concept="3clFbS" id="2MeG3eCdOLZ" role="3clFbx">
          <node concept="3cpWs6" id="2MeG3eCdOMQ" role="3cqZAp" />
        </node>
        <node concept="3clFbC" id="2MeG3eCdOMM" role="3clFbw">
          <node concept="10Nm6u" id="2MeG3eCdOMP" role="3uHU7w" />
          <node concept="2OqwBi" id="2MeG3eCdOMn" role="3uHU7B">
            <node concept="1YBJjd" id="2MeG3eCdOM2" role="2Oq$k0">
              <ref role="1YBMHb" node="1DJg4Tz22kE" resolve="routineDefinition" />
            </node>
            <node concept="3TrcHB" id="2MeG3eCdOMs" role="2OqNvi">
              <ref role="3TsBF5" to="tpck:h0TrG11" resolve="name" />
            </node>
          </node>
        </node>
      </node>
      <node concept="3cpWs8" id="1DJg4Tz25Uu" role="3cqZAp">
        <node concept="3cpWsn" id="1DJg4Tz25Uv" role="3cpWs9">
          <property role="TrG5h" value="defs" />
          <node concept="A3Dl8" id="1DJg4Tz25Uw" role="1tU5fm">
            <node concept="3Tqbb2" id="1DJg4Tz25Ux" role="A3Ik2">
              <ref role="ehGHo" to="c2kz:2RDssu5VmXT" resolve="RoutineDefinition" />
            </node>
          </node>
        </node>
      </node>
      <node concept="3cpWs8" id="3NWQyev7yRu" role="3cqZAp">
        <node concept="3cpWsn" id="3NWQyev7yRv" role="3cpWs9">
          <property role="TrG5h" value="parentScript" />
          <node concept="3Tqbb2" id="3NWQyev7yRw" role="1tU5fm">
            <ref role="ehGHo" to="c2kz:2Pif5TcL5t6" resolve="Script" />
          </node>
          <node concept="2OqwBi" id="3NWQyev7yRx" role="33vP2m">
            <node concept="1YBJjd" id="1DJg4Tz22kJ" role="2Oq$k0">
              <ref role="1YBMHb" node="1DJg4Tz22kE" resolve="routineDefinition" />
            </node>
            <node concept="2Xjw5R" id="3NWQyev7yRz" role="2OqNvi">
              <node concept="1xMEDy" id="3NWQyev7yR$" role="1xVPHs">
                <node concept="chp4Y" id="3NWQyev7yR_" role="ri$Ld">
                  <ref role="cht4Q" to="c2kz:2Pif5TcL5t6" resolve="Script" />
                </node>
              </node>
            </node>
          </node>
        </node>
      </node>
      <node concept="3clFbJ" id="3NWQyev7yRC" role="3cqZAp">
        <node concept="3clFbS" id="3NWQyev7yRD" role="3clFbx">
          <node concept="3clFbF" id="1DJg4Tz25UT" role="3cqZAp">
            <node concept="37vLTI" id="1DJg4Tz25Vz" role="3clFbG">
              <node concept="37vLTw" id="3GM_nagTvXm" role="37vLTJ">
                <ref role="3cqZAo" node="1DJg4Tz25Uv" resolve="defs" />
              </node>
              <node concept="2OqwBi" id="3NWQyev7yU1" role="37vLTx">
                <node concept="2OqwBi" id="3NWQyev7yU2" role="2Oq$k0">
                  <node concept="37vLTw" id="3GM_nagTyg_" role="2Oq$k0">
                    <ref role="3cqZAo" node="3NWQyev7yRv" resolve="parentScript" />
                  </node>
                  <node concept="2Rf3mk" id="3NWQyev7yU4" role="2OqNvi">
                    <node concept="1xMEDy" id="3NWQyev7yU5" role="1xVPHs">
                      <node concept="chp4Y" id="3NWQyev7yU6" role="ri$Ld">
                        <ref role="cht4Q" to="c2kz:2RDssu5VmXT" resolve="RoutineDefinition" />
                      </node>
                    </node>
                  </node>
                </node>
                <node concept="3zZkjj" id="3NWQyev7yU7" role="2OqNvi">
                  <node concept="1bVj0M" id="3NWQyev7yU8" role="23t8la">
                    <node concept="3clFbS" id="3NWQyev7yU9" role="1bW5cS">
                      <node concept="3clFbF" id="1DJg4Tz22vO" role="3cqZAp">
                        <node concept="2OqwBi" id="1DJg4Tz22w_" role="3clFbG">
                          <node concept="liA8E" id="1DJg4Tz22wG" role="2OqNvi">
                            <ref role="37wK5l" to="wyt6:~String.equals(java.lang.Object):boolean" resolve="equals" />
                            <node concept="2OqwBi" id="1DJg4Tz22wa" role="37wK5m">
                              <node concept="37vLTw" id="2BHiRxglCtw" role="2Oq$k0">
                                <ref role="3cqZAo" node="3NWQyev7yUh" resolve="it" />
                              </node>
                              <node concept="3TrcHB" id="1DJg4Tz22wf" role="2OqNvi">
                                <ref role="3TsBF5" to="tpck:h0TrG11" resolve="name" />
                              </node>
                            </node>
                          </node>
                          <node concept="2OqwBi" id="1DJg4Tz22x2" role="2Oq$k0">
                            <node concept="1YBJjd" id="1DJg4Tz22wH" role="2Oq$k0">
                              <ref role="1YBMHb" node="1DJg4Tz22kE" resolve="routineDefinition" />
                            </node>
                            <node concept="3TrcHB" id="1DJg4Tz22x7" role="2OqNvi">
                              <ref role="3TsBF5" to="tpck:h0TrG11" resolve="name" />
                            </node>
                          </node>
                        </node>
                      </node>
                    </node>
                    <node concept="Rh6nW" id="3NWQyev7yUh" role="1bW2Oz">
                      <property role="TrG5h" value="it" />
                      <node concept="2jxLKc" id="3NWQyev7yUi" role="1tU5fm" />
                    </node>
                  </node>
                </node>
              </node>
            </node>
          </node>
        </node>
        <node concept="3y3z36" id="3NWQyev7yS1" role="3clFbw">
          <node concept="10Nm6u" id="3NWQyev7yS4" role="3uHU7w" />
          <node concept="37vLTw" id="3GM_nagTxHb" role="3uHU7B">
            <ref role="3cqZAo" node="3NWQyev7yRv" resolve="parentScript" />
          </node>
        </node>
        <node concept="9aQIb" id="3NWQyev7yVY" role="9aQIa">
          <node concept="3clFbS" id="3NWQyev7yVZ" role="9aQI4">
            <node concept="3clFbF" id="1DJg4Tz25VC" role="3cqZAp">
              <node concept="37vLTI" id="1DJg4Tz25VY" role="3clFbG">
                <node concept="37vLTw" id="3GM_nagTsaQ" role="37vLTJ">
                  <ref role="3cqZAo" node="1DJg4Tz25Uv" resolve="defs" />
                </node>
                <node concept="2OqwBi" id="3NWQyev7yXh" role="37vLTx">
                  <node concept="2OqwBi" id="3NWQyev7yWP" role="2Oq$k0">
                    <node concept="2OqwBi" id="3NWQyev7yWm" role="2Oq$k0">
                      <node concept="1YBJjd" id="1DJg4Tz22x8" role="2Oq$k0">
                        <ref role="1YBMHb" node="1DJg4Tz22kE" resolve="routineDefinition" />
                      </node>
                      <node concept="2Xjw5R" id="3NWQyev7yWs" role="2OqNvi">
                        <node concept="1xMEDy" id="3NWQyev7yWt" role="1xVPHs">
                          <node concept="chp4Y" id="3NWQyev7yWw" role="ri$Ld">
                            <ref role="cht4Q" to="c2kz:3NWQyev6tcm" resolve="Library" />
                          </node>
                        </node>
                      </node>
                    </node>
                    <node concept="3Tsc0h" id="3NWQyev7yWV" role="2OqNvi">
                      <ref role="3TtcxE" to="c2kz:3NWQyev6tcn" />
                    </node>
                  </node>
                  <node concept="3zZkjj" id="3NWQyev7yXm" role="2OqNvi">
                    <node concept="1bVj0M" id="3NWQyev7yXn" role="23t8la">
                      <node concept="3clFbS" id="3NWQyev7yXo" role="1bW5cS">
                        <node concept="3clFbF" id="3NWQyev7yXr" role="3cqZAp">
                          <node concept="2OqwBi" id="1DJg4Tz22xU" role="3clFbG">
                            <node concept="liA8E" id="1DJg4Tz22y0" role="2OqNvi">
                              <ref role="37wK5l" to="wyt6:~String.equals(java.lang.Object):boolean" resolve="equals" />
                              <node concept="2OqwBi" id="1DJg4Tz22xv" role="37wK5m">
                                <node concept="37vLTw" id="2BHiRxghisZ" role="2Oq$k0">
                                  <ref role="3cqZAo" node="3NWQyev7yXp" resolve="it" />
                                </node>
                                <node concept="3TrcHB" id="1DJg4Tz22x$" role="2OqNvi">
                                  <ref role="3TsBF5" to="tpck:h0TrG11" resolve="name" />
                                </node>
                              </node>
                            </node>
                            <node concept="2OqwBi" id="1DJg4Tz22ym" role="2Oq$k0">
                              <node concept="1YBJjd" id="1DJg4Tz22y1" role="2Oq$k0">
                                <ref role="1YBMHb" node="1DJg4Tz22kE" resolve="routineDefinition" />
                              </node>
                              <node concept="3TrcHB" id="1DJg4Tz22yr" role="2OqNvi">
                                <ref role="3TsBF5" to="tpck:h0TrG11" resolve="name" />
                              </node>
                            </node>
                          </node>
                        </node>
                      </node>
                      <node concept="Rh6nW" id="3NWQyev7yXp" role="1bW2Oz">
                        <property role="TrG5h" value="it" />
                        <node concept="2jxLKc" id="3NWQyev7yXq" role="1tU5fm" />
                      </node>
                    </node>
                  </node>
                </node>
              </node>
            </node>
          </node>
        </node>
      </node>
      <node concept="3clFbJ" id="1DJg4Tz25W4" role="3cqZAp">
        <node concept="3clFbS" id="1DJg4Tz25W5" role="3clFbx">
          <node concept="2MkqsV" id="1DJg4Tz25WW" role="3cqZAp">
            <node concept="Xl_RD" id="1DJg4Tz25WZ" role="2MkJ7o">
              <property role="Xl_RC" value="Routine names must be unique within a Script or a Library" />
            </node>
            <node concept="1YBJjd" id="1DJg4Tz25X0" role="2OEOjV">
              <ref role="1YBMHb" node="1DJg4Tz22kE" resolve="routineDefinition" />
            </node>
          </node>
        </node>
        <node concept="3eOSWO" id="1DJg4Tz25WS" role="3clFbw">
          <node concept="3cmrfG" id="1DJg4Tz25WV" role="3uHU7w">
            <property role="3cmrfH" value="1" />
          </node>
          <node concept="2OqwBi" id="1DJg4Tz25Wt" role="3uHU7B">
            <node concept="37vLTw" id="3GM_nagTxzh" role="2Oq$k0">
              <ref role="3cqZAo" node="1DJg4Tz25Uv" resolve="defs" />
            </node>
            <node concept="34oBXx" id="1DJg4Tz25Wy" role="2OqNvi" />
          </node>
        </node>
      </node>
    </node>
    <node concept="1YaCAy" id="1DJg4Tz22kE" role="1YuTPh">
      <property role="TrG5h" value="routineDefinition" />
      <ref role="1YaFvo" to="c2kz:2RDssu5VmXT" resolve="RoutineDefinition" />
    </node>
  </node>
  <node concept="18kY7G" id="1DJg4Tz2fsE">
    <property role="TrG5h" value="ScriptNameUniqueness" />
    <node concept="3clFbS" id="1DJg4Tz2fsF" role="18ibNy">
      <node concept="3cpWs8" id="1DJg4Tz2fuA" role="3cqZAp">
        <node concept="3cpWsn" id="1DJg4Tz2fuB" role="3cpWs9">
          <property role="TrG5h" value="scriptNames" />
          <node concept="A3Dl8" id="1DJg4Tz2fuC" role="1tU5fm">
            <node concept="17QB3L" id="1DJg4Tz2fuD" role="A3Ik2" />
          </node>
          <node concept="2OqwBi" id="1DJg4Tz2fuE" role="33vP2m">
            <node concept="2OqwBi" id="1DJg4Tz2fuF" role="2Oq$k0">
              <node concept="2OqwBi" id="1DJg4Tz2fuG" role="2Oq$k0">
                <node concept="1YBJjd" id="1DJg4Tz2fuH" role="2Oq$k0">
                  <ref role="1YBMHb" node="1DJg4Tz2fsH" resolve="script" />
                </node>
                <node concept="I4A8Y" id="1DJg4Tz2fuI" role="2OqNvi" />
              </node>
              <node concept="2RRcyG" id="1DJg4Tz2fuJ" role="2OqNvi">
                <ref role="2RRcyH" to="c2kz:2Pif5TcL5t6" resolve="Script" />
              </node>
            </node>
            <node concept="3$u5V9" id="1DJg4Tz2fuK" role="2OqNvi">
              <node concept="1bVj0M" id="1DJg4Tz2fuL" role="23t8la">
                <node concept="3clFbS" id="1DJg4Tz2fuM" role="1bW5cS">
                  <node concept="3clFbF" id="1DJg4Tz2fuN" role="3cqZAp">
                    <node concept="2OqwBi" id="1DJg4Tz2fuO" role="3clFbG">
                      <node concept="37vLTw" id="2BHiRxgm8wa" role="2Oq$k0">
                        <ref role="3cqZAo" node="1DJg4Tz2fuR" resolve="it" />
                      </node>
                      <node concept="3TrcHB" id="1DJg4Tz2fuQ" role="2OqNvi">
                        <ref role="3TsBF5" to="tpck:h0TrG11" resolve="name" />
                      </node>
                    </node>
                  </node>
                </node>
                <node concept="Rh6nW" id="1DJg4Tz2fuR" role="1bW2Oz">
                  <property role="TrG5h" value="it" />
                  <node concept="2jxLKc" id="1DJg4Tz2fuS" role="1tU5fm" />
                </node>
              </node>
            </node>
          </node>
        </node>
      </node>
      <node concept="3cpWs8" id="1DJg4Tz2fuU" role="3cqZAp">
        <node concept="3cpWsn" id="1DJg4Tz2fuV" role="3cpWs9">
          <property role="TrG5h" value="libraryNames" />
          <node concept="A3Dl8" id="1DJg4Tz2fuW" role="1tU5fm">
            <node concept="17QB3L" id="1DJg4Tz2fuX" role="A3Ik2" />
          </node>
          <node concept="2OqwBi" id="1DJg4Tz2fuY" role="33vP2m">
            <node concept="2OqwBi" id="1DJg4Tz2fuZ" role="2Oq$k0">
              <node concept="2OqwBi" id="1DJg4Tz2fv0" role="2Oq$k0">
                <node concept="1YBJjd" id="1DJg4Tz2fv1" role="2Oq$k0">
                  <ref role="1YBMHb" node="1DJg4Tz2fsH" resolve="script" />
                </node>
                <node concept="I4A8Y" id="1DJg4Tz2fv2" role="2OqNvi" />
              </node>
              <node concept="2RRcyG" id="1DJg4Tz2fv3" role="2OqNvi">
                <ref role="2RRcyH" to="c2kz:3NWQyev6tcm" resolve="Library" />
              </node>
            </node>
            <node concept="3$u5V9" id="1DJg4Tz2fv4" role="2OqNvi">
              <node concept="1bVj0M" id="1DJg4Tz2fv5" role="23t8la">
                <node concept="3clFbS" id="1DJg4Tz2fv6" role="1bW5cS">
                  <node concept="3clFbF" id="1DJg4Tz2fv7" role="3cqZAp">
                    <node concept="2OqwBi" id="1DJg4Tz2fv8" role="3clFbG">
                      <node concept="37vLTw" id="2BHiRxglBv4" role="2Oq$k0">
                        <ref role="3cqZAo" node="1DJg4Tz2fvb" resolve="it" />
                      </node>
                      <node concept="3TrcHB" id="1DJg4Tz2fva" role="2OqNvi">
                        <ref role="3TsBF5" to="tpck:h0TrG11" resolve="name" />
                      </node>
                    </node>
                  </node>
                </node>
                <node concept="Rh6nW" id="1DJg4Tz2fvb" role="1bW2Oz">
                  <property role="TrG5h" value="it" />
                  <node concept="2jxLKc" id="1DJg4Tz2fvc" role="1tU5fm" />
                </node>
              </node>
            </node>
          </node>
        </node>
      </node>
      <node concept="3cpWs8" id="1DJg4Tz2tJw" role="3cqZAp">
        <node concept="3cpWsn" id="1DJg4Tz2tJx" role="3cpWs9">
          <property role="TrG5h" value="allNames" />
          <node concept="_YKpA" id="1DJg4Tz2tJy" role="1tU5fm">
            <node concept="17QB3L" id="1DJg4Tz2tJz" role="_ZDj9" />
          </node>
          <node concept="2ShNRf" id="1DJg4Tz2tJ$" role="33vP2m">
            <node concept="Tc6Ow" id="1DJg4Tz2tJ_" role="2ShVmc">
              <node concept="37vLTw" id="3GM_nagTvcd" role="I$8f6">
                <ref role="3cqZAo" node="1DJg4Tz2fuB" resolve="scriptNames" />
              </node>
              <node concept="17QB3L" id="1DJg4Tz2tJB" role="HW$YZ" />
            </node>
          </node>
        </node>
      </node>
      <node concept="3clFbF" id="1DJg4Tz2tJC" role="3cqZAp">
        <node concept="2OqwBi" id="1DJg4Tz2tJD" role="3clFbG">
          <node concept="37vLTw" id="3GM_nagTxIb" role="2Oq$k0">
            <ref role="3cqZAo" node="1DJg4Tz2tJx" resolve="allNames" />
          </node>
          <node concept="X8dFx" id="1DJg4Tz2tJF" role="2OqNvi">
            <node concept="37vLTw" id="3GM_nagT_uu" role="25WWJ7">
              <ref role="3cqZAo" node="1DJg4Tz2fuV" resolve="libraryNames" />
            </node>
          </node>
        </node>
      </node>
      <node concept="3clFbH" id="1DJg4Tz2tJv" role="3cqZAp" />
      <node concept="3clFbJ" id="1DJg4Tz2fx4" role="3cqZAp">
        <node concept="3clFbS" id="1DJg4Tz2fx5" role="3clFbx">
          <node concept="2MkqsV" id="1DJg4Tz2fxZ" role="3cqZAp">
            <node concept="Xl_RD" id="1DJg4Tz2fy2" role="2MkJ7o">
              <property role="Xl_RC" value="Script and Library names must be unique" />
            </node>
            <node concept="1YBJjd" id="1DJg4Tz2fy3" role="2OEOjV">
              <ref role="1YBMHb" node="1DJg4Tz2fsH" resolve="script" />
            </node>
          </node>
        </node>
        <node concept="3eOSWO" id="1DJg4Tz2fxt" role="3clFbw">
          <node concept="3cmrfG" id="1DJg4Tz2fxw" role="3uHU7w">
            <property role="3cmrfH" value="1" />
          </node>
          <node concept="2OqwBi" id="1DJg4Tz2fxQ" role="3uHU7B">
            <node concept="2OqwBi" id="1DJg4Tz2fw1" role="2Oq$k0">
              <node concept="37vLTw" id="3GM_nagTxJK" role="2Oq$k0">
                <ref role="3cqZAo" node="1DJg4Tz2tJx" resolve="allNames" />
              </node>
              <node concept="3zZkjj" id="1DJg4Tz2fw6" role="2OqNvi">
                <node concept="1bVj0M" id="1DJg4Tz2fw7" role="23t8la">
                  <node concept="3clFbS" id="1DJg4Tz2fw8" role="1bW5cS">
                    <node concept="3clFbF" id="1DJg4Tz2fwb" role="3cqZAp">
                      <node concept="1Wc70l" id="1DJg4Tz2iN5" role="3clFbG">
                        <node concept="3y3z36" id="1DJg4Tz2iNt" role="3uHU7B">
                          <node concept="10Nm6u" id="1DJg4Tz2iNw" role="3uHU7w" />
                          <node concept="37vLTw" id="2BHiRxgm5JD" role="3uHU7B">
                            <ref role="3cqZAo" node="1DJg4Tz2fw9" resolve="it" />
                          </node>
                        </node>
                        <node concept="2OqwBi" id="1DJg4Tz2fwx" role="3uHU7w">
                          <node concept="37vLTw" id="2BHiRxglCtj" role="2Oq$k0">
                            <ref role="3cqZAo" node="1DJg4Tz2fw9" resolve="it" />
                          </node>
                          <node concept="liA8E" id="1DJg4Tz2fwB" role="2OqNvi">
                            <ref role="37wK5l" to="wyt6:~String.equals(java.lang.Object):boolean" resolve="equals" />
                            <node concept="2OqwBi" id="1DJg4Tz2fwX" role="37wK5m">
                              <node concept="1YBJjd" id="1DJg4Tz2fwC" role="2Oq$k0">
                                <ref role="1YBMHb" node="1DJg4Tz2fsH" resolve="script" />
                              </node>
                              <node concept="3TrcHB" id="1DJg4Tz2fx2" role="2OqNvi">
                                <ref role="3TsBF5" to="tpck:h0TrG11" resolve="name" />
                              </node>
                            </node>
                          </node>
                        </node>
                      </node>
                    </node>
                  </node>
                  <node concept="Rh6nW" id="1DJg4Tz2fw9" role="1bW2Oz">
                    <property role="TrG5h" value="it" />
                    <node concept="2jxLKc" id="1DJg4Tz2fwa" role="1tU5fm" />
                  </node>
                </node>
              </node>
            </node>
            <node concept="34oBXx" id="1DJg4Tz2fxV" role="2OqNvi" />
          </node>
        </node>
      </node>
    </node>
    <node concept="1YaCAy" id="1DJg4Tz2fsH" role="1YuTPh">
      <property role="TrG5h" value="script" />
      <ref role="1YaFvo" to="c2kz:2Pif5TcL5t6" resolve="Script" />
    </node>
  </node>
  <node concept="18kY7G" id="1DJg4Tz2fy5">
    <property role="TrG5h" value="LibraryNameUniqueness" />
    <node concept="3clFbS" id="1DJg4Tz2fy6" role="18ibNy">
      <node concept="3cpWs8" id="1DJg4Tz2fya" role="3cqZAp">
        <node concept="3cpWsn" id="1DJg4Tz2fyb" role="3cpWs9">
          <property role="TrG5h" value="scriptNames" />
          <node concept="A3Dl8" id="1DJg4Tz2fyc" role="1tU5fm">
            <node concept="17QB3L" id="1DJg4Tz2fyd" role="A3Ik2" />
          </node>
          <node concept="2OqwBi" id="1DJg4Tz2fye" role="33vP2m">
            <node concept="2OqwBi" id="1DJg4Tz2fyf" role="2Oq$k0">
              <node concept="2OqwBi" id="1DJg4Tz2fyg" role="2Oq$k0">
                <node concept="1YBJjd" id="1DJg4Tz2fzd" role="2Oq$k0">
                  <ref role="1YBMHb" node="1DJg4Tz2fy9" resolve="library" />
                </node>
                <node concept="I4A8Y" id="1DJg4Tz2fyi" role="2OqNvi" />
              </node>
              <node concept="2RRcyG" id="1DJg4Tz2fyj" role="2OqNvi">
                <ref role="2RRcyH" to="c2kz:2Pif5TcL5t6" resolve="Script" />
              </node>
            </node>
            <node concept="3$u5V9" id="1DJg4Tz2fyk" role="2OqNvi">
              <node concept="1bVj0M" id="1DJg4Tz2fyl" role="23t8la">
                <node concept="3clFbS" id="1DJg4Tz2fym" role="1bW5cS">
                  <node concept="3clFbF" id="1DJg4Tz2fyn" role="3cqZAp">
                    <node concept="2OqwBi" id="1DJg4Tz2fyo" role="3clFbG">
                      <node concept="37vLTw" id="2BHiRxgmFdO" role="2Oq$k0">
                        <ref role="3cqZAo" node="1DJg4Tz2fyr" resolve="it" />
                      </node>
                      <node concept="3TrcHB" id="1DJg4Tz2fyq" role="2OqNvi">
                        <ref role="3TsBF5" to="tpck:h0TrG11" resolve="name" />
                      </node>
                    </node>
                  </node>
                </node>
                <node concept="Rh6nW" id="1DJg4Tz2fyr" role="1bW2Oz">
                  <property role="TrG5h" value="it" />
                  <node concept="2jxLKc" id="1DJg4Tz2fys" role="1tU5fm" />
                </node>
              </node>
            </node>
          </node>
        </node>
      </node>
      <node concept="3cpWs8" id="1DJg4Tz2fyt" role="3cqZAp">
        <node concept="3cpWsn" id="1DJg4Tz2fyu" role="3cpWs9">
          <property role="TrG5h" value="libraryNames" />
          <node concept="A3Dl8" id="1DJg4Tz2fyv" role="1tU5fm">
            <node concept="17QB3L" id="1DJg4Tz2fyw" role="A3Ik2" />
          </node>
          <node concept="2OqwBi" id="1DJg4Tz2fyx" role="33vP2m">
            <node concept="2OqwBi" id="1DJg4Tz2fyy" role="2Oq$k0">
              <node concept="2OqwBi" id="1DJg4Tz2fyz" role="2Oq$k0">
                <node concept="1YBJjd" id="1DJg4Tz2fze" role="2Oq$k0">
                  <ref role="1YBMHb" node="1DJg4Tz2fy9" resolve="library" />
                </node>
                <node concept="I4A8Y" id="1DJg4Tz2fy_" role="2OqNvi" />
              </node>
              <node concept="2RRcyG" id="1DJg4Tz2fyA" role="2OqNvi">
                <ref role="2RRcyH" to="c2kz:3NWQyev6tcm" resolve="Library" />
              </node>
            </node>
            <node concept="3$u5V9" id="1DJg4Tz2fyB" role="2OqNvi">
              <node concept="1bVj0M" id="1DJg4Tz2fyC" role="23t8la">
                <node concept="3clFbS" id="1DJg4Tz2fyD" role="1bW5cS">
                  <node concept="3clFbF" id="1DJg4Tz2fyE" role="3cqZAp">
                    <node concept="2OqwBi" id="1DJg4Tz2fyF" role="3clFbG">
                      <node concept="37vLTw" id="2BHiRxgmaMy" role="2Oq$k0">
                        <ref role="3cqZAo" node="1DJg4Tz2fyI" resolve="it" />
                      </node>
                      <node concept="3TrcHB" id="1DJg4Tz2fyH" role="2OqNvi">
                        <ref role="3TsBF5" to="tpck:h0TrG11" resolve="name" />
                      </node>
                    </node>
                  </node>
                </node>
                <node concept="Rh6nW" id="1DJg4Tz2fyI" role="1bW2Oz">
                  <property role="TrG5h" value="it" />
                  <node concept="2jxLKc" id="1DJg4Tz2fyJ" role="1tU5fm" />
                </node>
              </node>
            </node>
          </node>
        </node>
      </node>
      <node concept="3cpWs8" id="1DJg4Tz2toS" role="3cqZAp">
        <node concept="3cpWsn" id="1DJg4Tz2toT" role="3cpWs9">
          <property role="TrG5h" value="allNames" />
          <node concept="_YKpA" id="1DJg4Tz2toU" role="1tU5fm">
            <node concept="17QB3L" id="1DJg4Tz2toY" role="_ZDj9" />
          </node>
          <node concept="2ShNRf" id="1DJg4Tz2toV" role="33vP2m">
            <node concept="Tc6Ow" id="1DJg4Tz2toW" role="2ShVmc">
              <node concept="37vLTw" id="3GM_nagTBPG" role="I$8f6">
                <ref role="3cqZAo" node="1DJg4Tz2fyb" resolve="scriptNames" />
              </node>
              <node concept="17QB3L" id="1DJg4Tz2tp2" role="HW$YZ" />
            </node>
          </node>
        </node>
      </node>
      <node concept="3clFbF" id="1DJg4Tz2toO" role="3cqZAp">
        <node concept="2OqwBi" id="1DJg4Tz2tpn" role="3clFbG">
          <node concept="37vLTw" id="3GM_nagTv09" role="2Oq$k0">
            <ref role="3cqZAo" node="1DJg4Tz2toT" resolve="allNames" />
          </node>
          <node concept="X8dFx" id="1DJg4Tz2tpt" role="2OqNvi">
            <node concept="37vLTw" id="3GM_nagTymu" role="25WWJ7">
              <ref role="3cqZAo" node="1DJg4Tz2fyu" resolve="libraryNames" />
            </node>
          </node>
        </node>
      </node>
      <node concept="3clFbJ" id="1DJg4Tz2fyK" role="3cqZAp">
        <node concept="3clFbS" id="1DJg4Tz2fyL" role="3clFbx">
          <node concept="2MkqsV" id="1DJg4Tz2fyM" role="3cqZAp">
            <node concept="Xl_RD" id="1DJg4Tz2fyN" role="2MkJ7o">
              <property role="Xl_RC" value="Script and Library names must be unique" />
            </node>
            <node concept="1YBJjd" id="1DJg4Tz2fzg" role="2OEOjV">
              <ref role="1YBMHb" node="1DJg4Tz2fy9" resolve="library" />
            </node>
          </node>
        </node>
        <node concept="3eOSWO" id="1DJg4Tz2fyP" role="3clFbw">
          <node concept="3cmrfG" id="1DJg4Tz2fyQ" role="3uHU7w">
            <property role="3cmrfH" value="1" />
          </node>
          <node concept="2OqwBi" id="1DJg4Tz2fyR" role="3uHU7B">
            <node concept="2OqwBi" id="1DJg4Tz2fyS" role="2Oq$k0">
              <node concept="37vLTw" id="3GM_nagTBDf" role="2Oq$k0">
                <ref role="3cqZAo" node="1DJg4Tz2toT" resolve="allNames" />
              </node>
              <node concept="3zZkjj" id="1DJg4Tz2fyX" role="2OqNvi">
                <node concept="1bVj0M" id="1DJg4Tz2fyY" role="23t8la">
                  <node concept="3clFbS" id="1DJg4Tz2fyZ" role="1bW5cS">
                    <node concept="3clFbF" id="1DJg4Tz2fz0" role="3cqZAp">
                      <node concept="1Wc70l" id="1DJg4Tz2iNz" role="3clFbG">
                        <node concept="2OqwBi" id="1DJg4Tz2fz1" role="3uHU7w">
                          <node concept="37vLTw" id="2BHiRxgmkje" role="2Oq$k0">
                            <ref role="3cqZAo" node="1DJg4Tz2fz7" resolve="it" />
                          </node>
                          <node concept="liA8E" id="1DJg4Tz2fz3" role="2OqNvi">
                            <ref role="37wK5l" to="wyt6:~String.equals(java.lang.Object):boolean" resolve="equals" />
                            <node concept="2OqwBi" id="1DJg4Tz2fz4" role="37wK5m">
                              <node concept="1YBJjd" id="1DJg4Tz2fzf" role="2Oq$k0">
                                <ref role="1YBMHb" node="1DJg4Tz2fy9" resolve="library" />
                              </node>
                              <node concept="3TrcHB" id="1DJg4Tz2fz6" role="2OqNvi">
                                <ref role="3TsBF5" to="tpck:h0TrG11" resolve="name" />
                              </node>
                            </node>
                          </node>
                        </node>
                        <node concept="3y3z36" id="1DJg4Tz2iNA" role="3uHU7B">
                          <node concept="10Nm6u" id="1DJg4Tz2iNB" role="3uHU7w" />
                          <node concept="37vLTw" id="2BHiRxgkZ1U" role="3uHU7B">
                            <ref role="3cqZAo" node="1DJg4Tz2fz7" resolve="it" />
                          </node>
                        </node>
                      </node>
                    </node>
                  </node>
                  <node concept="Rh6nW" id="1DJg4Tz2fz7" role="1bW2Oz">
                    <property role="TrG5h" value="it" />
                    <node concept="2jxLKc" id="1DJg4Tz2fz8" role="1tU5fm" />
                  </node>
                </node>
              </node>
            </node>
            <node concept="34oBXx" id="1DJg4Tz2fz9" role="2OqNvi" />
          </node>
        </node>
      </node>
    </node>
    <node concept="1YaCAy" id="1DJg4Tz2fy9" role="1YuTPh">
      <property role="TrG5h" value="library" />
      <ref role="1YaFvo" to="c2kz:3NWQyev6tcm" resolve="Library" />
    </node>
  </node>
  <node concept="18kY7G" id="5K3A7hVdncg">
    <property role="TrG5h" value="check_KajaDataflow" />
    <node concept="1YaCAy" id="5K3A7hVdnnE" role="1YuTPh">
      <property role="TrG5h" value="commandList" />
      <ref role="1YaFvo" to="c2kz:2RDssu5W6CZ" resolve="CommandList" />
    </node>
    <node concept="3clFbS" id="5K3A7hVdngo" role="18ibNy">
      <node concept="3clFbJ" id="79XQS8VgL8S" role="3cqZAp">
        <node concept="3clFbC" id="79XQS8VgL8V" role="3clFbw">
          <node concept="1YBJjd" id="5K3A7hVfEGa" role="3uHU7B">
            <ref role="1YBMHb" node="5K3A7hVdnnE" resolve="commandList" />
          </node>
          <node concept="10Nm6u" id="79XQS8VgL8W" role="3uHU7w" />
        </node>
        <node concept="3clFbS" id="79XQS8VgL8T" role="3clFbx">
          <node concept="3cpWs6" id="79XQS8VgL8U" role="3cqZAp" />
        </node>
      </node>
      <node concept="SfApY" id="5K3A7hVg6j3" role="3cqZAp">
        <node concept="3clFbS" id="5K3A7hVg6j5" role="SfCbr">
          <node concept="3cpWs8" id="5K3A7hVfeyL" role="3cqZAp">
            <node concept="3cpWsn" id="5K3A7hVfeyM" role="3cpWs9">
              <property role="TrG5h" value="program" />
              <node concept="3uibUv" id="5K3A7hVfeyI" role="1tU5fm">
                <ref role="3uigEE" to="1fjm:~Program" resolve="Program" />
              </node>
              <node concept="2YIFZM" id="5K3A7hVfeyN" role="33vP2m">
                <ref role="1Pybhc" to="aplb:3HJD4JbIw9v" resolve="DataFlow" />
                <ref role="37wK5l" to="aplb:3HJD4JbIw9P" resolve="buildProgram" />
                <node concept="1YBJjd" id="5K3A7hVfeyO" role="37wK5m">
                  <ref role="1YBMHb" node="5K3A7hVdnnE" resolve="commandList" />
                </node>
              </node>
            </node>
          </node>
          <node concept="3clFbJ" id="5gPwU2XAv7G" role="3cqZAp">
            <node concept="3clFbS" id="5gPwU2XAv7H" role="3clFbx">
              <node concept="Dpp1Q" id="5gPwU2XAv85" role="3cqZAp">
                <node concept="Xl_RD" id="5gPwU2XAv88" role="Dpw9R">
                  <property role="Xl_RC" value="This node is too complex too analyze by data flow algorithm" />
                </node>
                <node concept="2OqwBi" id="5gPwU2XAJ0M" role="2OEOjV">
                  <node concept="1YBJjd" id="5K3A7hVfyBi" role="2Oq$k0">
                    <ref role="1YBMHb" node="5K3A7hVdnnE" resolve="commandList" />
                  </node>
                  <node concept="1mfA1w" id="5gPwU2XAJ0Q" role="2OqNvi" />
                </node>
              </node>
              <node concept="3cpWs6" id="5gPwU2XAv7N" role="3cqZAp" />
            </node>
            <node concept="3eOSWO" id="5gPwU2XAv7A" role="3clFbw">
              <node concept="3cmrfG" id="5K3A7hVfysl" role="3uHU7w">
                <property role="3cmrfH" value="400" />
              </node>
              <node concept="2OqwBi" id="5gPwU2XAv7C" role="3uHU7B">
                <node concept="37vLTw" id="5K3A7hVfxn9" role="2Oq$k0">
                  <ref role="3cqZAo" node="5K3A7hVfeyM" resolve="program" />
                </node>
                <node concept="liA8E" id="5gPwU2XAv7E" role="2OqNvi">
                  <ref role="37wK5l" to="1fjm:~Program.size():int" resolve="size" />
                </node>
              </node>
            </node>
          </node>
          <node concept="3cpWs8" id="5K3A7hVk5Am" role="3cqZAp">
            <node concept="3cpWsn" id="5K3A7hVk5An" role="3cpWs9">
              <property role="TrG5h" value="unreachableInstructions" />
              <node concept="3uibUv" id="5K3A7hVk5Aa" role="1tU5fm">
                <ref role="3uigEE" to="33ny:~Set" resolve="Set" />
                <node concept="3uibUv" id="5K3A7hVk5Ad" role="11_B2D">
                  <ref role="3uigEE" to="dau9:~Instruction" resolve="Instruction" />
                </node>
              </node>
              <node concept="2OqwBi" id="5K3A7hVk5Ao" role="33vP2m">
                <node concept="37vLTw" id="5K3A7hVk5Ap" role="2Oq$k0">
                  <ref role="3cqZAo" node="5K3A7hVfeyM" resolve="program" />
                </node>
                <node concept="liA8E" id="5K3A7hVk5Aq" role="2OqNvi">
                  <ref role="37wK5l" to="1fjm:~Program.getUnreachableInstructions():java.util.Set" resolve="getUnreachableInstructions" />
                </node>
              </node>
            </node>
          </node>
          <node concept="3clFbH" id="5K3A7hVkjj9" role="3cqZAp" />
          <node concept="1DcWWT" id="hNAEdLS" role="3cqZAp">
            <node concept="37vLTw" id="5K3A7hVk5Ar" role="1DdaDG">
              <ref role="3cqZAo" node="5K3A7hVk5An" resolve="unreachableInstructions" />
            </node>
            <node concept="3cpWsn" id="hNAEdLY" role="1Duv9x">
              <property role="TrG5h" value="n" />
              <node concept="3uibUv" id="5K3A7hVk$Af" role="1tU5fm">
                <ref role="3uigEE" to="dau9:~Instruction" resolve="Instruction" />
              </node>
            </node>
            <node concept="3clFbS" id="hNAEdLT" role="2LFqv$">
              <node concept="3cpWs8" id="5K3A7hVkAPB" role="3cqZAp">
                <node concept="3cpWsn" id="5K3A7hVkAPC" role="3cpWs9">
                  <property role="TrG5h" value="source" />
                  <node concept="10QFUN" id="5K3A7hVkILD" role="33vP2m">
                    <node concept="3Tqbb2" id="5K3A7hVkJ6K" role="10QFUM" />
                    <node concept="2OqwBi" id="5K3A7hVkAPD" role="10QFUP">
                      <node concept="liA8E" id="5K3A7hVkAPE" role="2OqNvi">
                        <ref role="37wK5l" to="dau9:~Instruction.getSource():java.lang.Object" resolve="getSource" />
                      </node>
                      <node concept="37vLTw" id="5K3A7hVkAPF" role="2Oq$k0">
                        <ref role="3cqZAo" node="hNAEdLY" resolve="n" />
                      </node>
                    </node>
                  </node>
                  <node concept="3Tqbb2" id="5K3A7hVkI42" role="1tU5fm" />
                </node>
              </node>
              <node concept="3clFbJ" id="5K3A7hVhP9C" role="3cqZAp">
                <node concept="22lmx$" id="4bovhxIiY$f" role="3clFbw">
                  <node concept="2OqwBi" id="4bovhxIiZJl" role="3uHU7w">
                    <node concept="1mIQ4w" id="4bovhxIj0Ry" role="2OqNvi">
                      <node concept="chp4Y" id="4bovhxIj1ed" role="cj9EA">
                        <ref role="cht4Q" to="c2kz:5z_BEsjYyH3" resolve="CommentLine" />
                      </node>
                    </node>
                    <node concept="37vLTw" id="4bovhxIiZgq" role="2Oq$k0">
                      <ref role="3cqZAo" node="5K3A7hVkAPC" resolve="source" />
                    </node>
                  </node>
                  <node concept="22lmx$" id="4bovhxIiW1p" role="3uHU7B">
                    <node concept="3clFbC" id="5K3A7hVhPuu" role="3uHU7B">
                      <node concept="37vLTw" id="5K3A7hVkByK" role="3uHU7B">
                        <ref role="3cqZAo" node="5K3A7hVkAPC" resolve="source" />
                      </node>
                      <node concept="10Nm6u" id="5K3A7hVhPJ_" role="3uHU7w" />
                    </node>
                    <node concept="2OqwBi" id="4bovhxIiWpP" role="3uHU7w">
                      <node concept="1mIQ4w" id="4bovhxIiX71" role="2OqNvi">
                        <node concept="chp4Y" id="4bovhxIiXry" role="cj9EA">
                          <ref role="cht4Q" to="c2kz:2RDssu5VwCm" resolve="EmptyLine" />
                        </node>
                      </node>
                      <node concept="37vLTw" id="4bovhxIiWkR" role="2Oq$k0">
                        <ref role="3cqZAo" node="5K3A7hVkAPC" resolve="source" />
                      </node>
                    </node>
                  </node>
                </node>
                <node concept="3clFbS" id="5K3A7hVhP9E" role="3clFbx">
                  <node concept="3N13vt" id="4bovhxIjclZ" role="3cqZAp" />
                </node>
              </node>
              <node concept="3clFbJ" id="5K3A7hVkEiE" role="3cqZAp">
                <node concept="2OqwBi" id="5K3A7hVkJD2" role="3clFbw">
                  <node concept="1mIQ4w" id="5K3A7hVkKIt" role="2OqNvi">
                    <node concept="chp4Y" id="5K3A7hVkLnk" role="cj9EA">
                      <ref role="cht4Q" to="c2kz:2Pif5TcL5ta" resolve="AbstractCommand" />
                    </node>
                  </node>
                  <node concept="37vLTw" id="5K3A7hVkEC3" role="2Oq$k0">
                    <ref role="3cqZAo" node="5K3A7hVkAPC" resolve="source" />
                  </node>
                </node>
                <node concept="3clFbS" id="5K3A7hVkEiG" role="3clFbx">
                  <node concept="2MkqsV" id="hNAEdLU" role="3cqZAp">
                    <node concept="Xl_RD" id="hNAEdLV" role="2MkJ7o">
                      <property role="Xl_RC" value="Unreachable command" />
                    </node>
                    <node concept="37vLTw" id="5K3A7hVkN56" role="2OEOjV">
                      <ref role="3cqZAo" node="5K3A7hVkAPC" resolve="source" />
                    </node>
                  </node>
                </node>
                <node concept="9aQIb" id="5K3A7hVkP5V" role="9aQIa">
                  <node concept="3clFbS" id="5K3A7hVkP5W" role="9aQI4">
                    <node concept="2MkqsV" id="5K3A7hVkPqJ" role="3cqZAp">
                      <node concept="2OqwBi" id="5K3A7hVkS37" role="2OEOjV">
                        <node concept="1mfA1w" id="5K3A7hVkSKS" role="2OqNvi" />
                        <node concept="37vLTw" id="5K3A7hVkRBi" role="2Oq$k0">
                          <ref role="3cqZAo" node="5K3A7hVkAPC" resolve="source" />
                        </node>
                      </node>
                      <node concept="Xl_RD" id="5K3A7hVkPIC" role="2MkJ7o">
                        <property role="Xl_RC" value="Unreachable command" />
                      </node>
                    </node>
                  </node>
                </node>
              </node>
            </node>
          </node>
        </node>
        <node concept="TDmWw" id="5K3A7hVg6j6" role="TEbGg">
          <node concept="3cpWsn" id="5K3A7hVg6j8" role="TDEfY">
            <property role="TrG5h" value="e" />
            <node concept="3uibUv" id="5K3A7hVgeou" role="1tU5fm">
              <ref role="3uigEE" to="aplb:3HJD4JbIw7C" resolve="DataflowBuilderException" />
            </node>
          </node>
          <node concept="3clFbS" id="5K3A7hVg6jc" role="TDEfX">
            <node concept="YS8fn" id="79XQS8VgL9w" role="3cqZAp">
              <node concept="2ShNRf" id="79XQS8VgL9x" role="YScLw">
                <node concept="1pGfFk" id="79XQS8VgL9y" role="2ShVmc">
                  <ref role="37wK5l" to="wyt6:~RuntimeException.&lt;init&gt;(java.lang.String,java.lang.Throwable)" resolve="RuntimeException" />
                  <node concept="3cpWs3" id="79XQS8VgL9z" role="37wK5m">
                    <node concept="2OqwBi" id="79XQS8VgL9$" role="3uHU7w">
                      <node concept="liA8E" id="79XQS8VgL9B" role="2OqNvi">
                        <ref role="37wK5l" to="mhbf:~SNode.getModel():org.jetbrains.mps.openapi.model.SModel" resolve="getModel" />
                      </node>
                      <node concept="2JrnkZ" id="79XQS8VgL9_" role="2Oq$k0">
                        <node concept="1YBJjd" id="5K3A7hVgkNM" role="2JrQYb">
                          <ref role="1YBMHb" node="5K3A7hVdnnE" resolve="commandList" />
                        </node>
                      </node>
                    </node>
                    <node concept="3cpWs3" id="79XQS8VgL9C" role="3uHU7B">
                      <node concept="Xl_RD" id="79XQS8VgL9J" role="3uHU7w">
                        <property role="Xl_RC" value=" model: " />
                      </node>
                      <node concept="3cpWs3" id="79XQS8VgL9D" role="3uHU7B">
                        <node concept="Xl_RD" id="79XQS8VgL9E" role="3uHU7B">
                          <property role="Xl_RC" value="Building dataflow for node: " />
                        </node>
                        <node concept="2OqwBi" id="5nAzUdZieYm" role="3uHU7w">
                          <node concept="2OqwBi" id="5nAzUdZieYn" role="2Oq$k0">
                            <node concept="liA8E" id="24cAaiUz$lD" role="2OqNvi">
                              <ref role="37wK5l" to="mhbf:~SNode.getNodeId():org.jetbrains.mps.openapi.model.SNodeId" resolve="getNodeId" />
                            </node>
                            <node concept="2JrnkZ" id="5nAzUdZieYo" role="2Oq$k0">
                              <node concept="1YBJjd" id="5K3A7hVgk_0" role="2JrQYb">
                                <ref role="1YBMHb" node="5K3A7hVdnnE" resolve="commandList" />
                              </node>
                            </node>
                          </node>
                          <node concept="liA8E" id="5nAzUdZieYr" role="2OqNvi">
                            <ref role="37wK5l" to="wyt6:~Object.toString():java.lang.String" resolve="toString" />
                          </node>
                        </node>
                      </node>
                    </node>
                  </node>
                  <node concept="37vLTw" id="3GM_nagTwxJ" role="37wK5m">
                    <ref role="3cqZAo" node="5K3A7hVg6j8" resolve="e" />
                  </node>
                </node>
              </node>
            </node>
          </node>
        </node>
      </node>
      <node concept="3clFbH" id="5K3A7hVf_sX" role="3cqZAp" />
    </node>
  </node>
  <node concept="18kY7G" id="1rlDGctti68">
    <property role="TrG5h" value="RepetitionCheck" />
    <node concept="3clFbS" id="1rlDGcttkz0" role="18ibNy">
      <node concept="3clFbJ" id="1rlDGcttK6$" role="3cqZAp">
        <node concept="3clFbS" id="1rlDGcttK6B" role="3clFbx">
          <node concept="3cpWs6" id="1rlDGctu4n2" role="3cqZAp" />
        </node>
        <node concept="3fqX7Q" id="1rlDGcttK70" role="3clFbw">
          <node concept="1eOMI4" id="3$myXoLqnbO" role="3fr31v">
            <node concept="22lmx$" id="1rlDGctu2Fm" role="1eOMHV">
              <node concept="22lmx$" id="1rlDGctu29k" role="3uHU7B">
                <node concept="22lmx$" id="1rlDGctu1Fo" role="3uHU7B">
                  <node concept="22lmx$" id="1rlDGctu1dA" role="3uHU7B">
                    <node concept="2OqwBi" id="1rlDGcttKbn" role="3uHU7B">
                      <node concept="1YBJjd" id="1rlDGcttK7s" role="2Oq$k0">
                        <ref role="1YBMHb" node="1rlDGcttlXj" resolve="command" />
                      </node>
                      <node concept="1mIQ4w" id="1rlDGcttLn8" role="2OqNvi">
                        <node concept="chp4Y" id="1rlDGcttLvk" role="cj9EA">
                          <ref role="cht4Q" to="c2kz:2RDssu5VmYi" resolve="RoutineCall" />
                        </node>
                      </node>
                    </node>
                    <node concept="2OqwBi" id="1rlDGctu1hV" role="3uHU7w">
                      <node concept="1YBJjd" id="1rlDGctu1hW" role="2Oq$k0">
                        <ref role="1YBMHb" node="1rlDGcttlXj" resolve="command" />
                      </node>
                      <node concept="1mIQ4w" id="1rlDGctu1hX" role="2OqNvi">
                        <node concept="chp4Y" id="1rlDGctu3aS" role="cj9EA">
                          <ref role="cht4Q" to="c2kz:2Pif5TcL5ty" resolve="Step" />
                        </node>
                      </node>
                    </node>
                  </node>
                  <node concept="2OqwBi" id="1rlDGctu1Kt" role="3uHU7w">
                    <node concept="1YBJjd" id="1rlDGctu1Ku" role="2Oq$k0">
                      <ref role="1YBMHb" node="1rlDGcttlXj" resolve="command" />
                    </node>
                    <node concept="1mIQ4w" id="1rlDGctu1Kv" role="2OqNvi">
                      <node concept="chp4Y" id="1rlDGctu3qQ" role="cj9EA">
                        <ref role="cht4Q" to="c2kz:2RDssu5V9Yb" resolve="LeftTurn" />
                      </node>
                    </node>
                  </node>
                </node>
                <node concept="2OqwBi" id="1rlDGctu2gx" role="3uHU7w">
                  <node concept="1YBJjd" id="1rlDGctu2gy" role="2Oq$k0">
                    <ref role="1YBMHb" node="1rlDGcttlXj" resolve="command" />
                  </node>
                  <node concept="1mIQ4w" id="1rlDGctu2gz" role="2OqNvi">
                    <node concept="chp4Y" id="1rlDGctu3KX" role="cj9EA">
                      <ref role="cht4Q" to="c2kz:5z_BEsjXTWB" resolve="Drop" />
                    </node>
                  </node>
                </node>
              </node>
              <node concept="2OqwBi" id="1rlDGctu2OF" role="3uHU7w">
                <node concept="1YBJjd" id="1rlDGctu2OG" role="2Oq$k0">
                  <ref role="1YBMHb" node="1rlDGcttlXj" resolve="command" />
                </node>
                <node concept="1mIQ4w" id="1rlDGctu2OH" role="2OqNvi">
                  <node concept="chp4Y" id="1rlDGctu40V" role="cj9EA">
                    <ref role="cht4Q" to="c2kz:5z_BEsjY5Wt" resolve="Pick" />
                  </node>
                </node>
              </node>
            </node>
          </node>
        </node>
      </node>
      <node concept="3clFbJ" id="1rlDGctu4HJ" role="3cqZAp">
        <node concept="3clFbS" id="1rlDGctu4HM" role="3clFbx">
          <node concept="3clFbJ" id="1rlDGctuaRs" role="3cqZAp">
            <node concept="3clFbS" id="1rlDGctuaRt" role="3clFbx">
              <node concept="3cpWs6" id="1rlDGctumDy" role="3cqZAp" />
            </node>
            <node concept="1Wc70l" id="1rlDGctuci5" role="3clFbw">
              <node concept="3y3z36" id="1rlDGctugzq" role="3uHU7w">
                <node concept="2OqwBi" id="1rlDGctukSG" role="3uHU7w">
                  <node concept="1PxgMI" id="1rlDGctujY4" role="2Oq$k0">
                    <ref role="1m5ApE" to="c2kz:2RDssu5VmYi" resolve="RoutineCall" />
                    <node concept="2OqwBi" id="1rlDGctuhoV" role="1m5AlR">
                      <node concept="1YBJjd" id="1rlDGctugWU" role="2Oq$k0">
                        <ref role="1YBMHb" node="1rlDGcttlXj" resolve="command" />
                      </node>
                      <node concept="YCak7" id="1rlDGctuiWK" role="2OqNvi" />
                    </node>
                  </node>
                  <node concept="3TrEf2" id="1rlDGctum6P" role="2OqNvi">
                    <ref role="3Tt5mk" to="c2kz:2RDssu5Vufc" />
                  </node>
                </node>
                <node concept="2OqwBi" id="1rlDGctudXK" role="3uHU7B">
                  <node concept="1PxgMI" id="1rlDGctud9i" role="2Oq$k0">
                    <ref role="1m5ApE" to="c2kz:2RDssu5VmYi" resolve="RoutineCall" />
                    <node concept="1YBJjd" id="1rlDGctucJf" role="1m5AlR">
                      <ref role="1YBMHb" node="1rlDGcttlXj" resolve="command" />
                    </node>
                  </node>
                  <node concept="3TrEf2" id="1rlDGctufg4" role="2OqNvi">
                    <ref role="3Tt5mk" to="c2kz:2RDssu5Vufc" />
                  </node>
                </node>
              </node>
              <node concept="2OqwBi" id="1rlDGctub1P" role="3uHU7B">
                <node concept="1YBJjd" id="1rlDGctuaY6" role="2Oq$k0">
                  <ref role="1YBMHb" node="1rlDGcttlXj" resolve="command" />
                </node>
                <node concept="1mIQ4w" id="1rlDGctubUQ" role="2OqNvi">
                  <node concept="chp4Y" id="1rlDGctubWw" role="cj9EA">
                    <ref role="cht4Q" to="c2kz:2RDssu5VmYi" resolve="RoutineCall" />
                  </node>
                </node>
              </node>
            </node>
          </node>
          <node concept="a7r0C" id="1rlDGctunit" role="3cqZAp">
            <node concept="Xl_RD" id="1rlDGctunIV" role="a7wSD">
              <property role="Xl_RC" value="Consider using repeat to avoid repetition" />
            </node>
            <node concept="2OqwBi" id="1rlDGctuobI" role="2OEOjV">
              <node concept="1YBJjd" id="1rlDGctuo8d" role="2Oq$k0">
                <ref role="1YBMHb" node="1rlDGcttlXj" resolve="command" />
              </node>
              <node concept="YCak7" id="1rlDGctupSW" role="2OqNvi" />
            </node>
            <node concept="3Cnw8n" id="1rlDGctuTaK" role="2OEOjU">
              <ref role="QpYPw" node="1rlDGctuq0v" resolve="RemoveRepetition" />
            </node>
          </node>
        </node>
        <node concept="17R0WA" id="2XA_ayKpHzi" role="3clFbw">
          <node concept="2OqwBi" id="1rlDGctu58v" role="3uHU7B">
            <node concept="1YBJjd" id="1rlDGctu4Yz" role="2Oq$k0">
              <ref role="1YBMHb" node="1rlDGcttlXj" resolve="command" />
            </node>
            <node concept="2yIwOk" id="2XA_ayKpGQm" role="2OqNvi" />
          </node>
          <node concept="2OqwBi" id="1rlDGctu9sa" role="3uHU7w">
            <node concept="2OqwBi" id="1rlDGctu75h" role="2Oq$k0">
              <node concept="1YBJjd" id="1rlDGctu6XU" role="2Oq$k0">
                <ref role="1YBMHb" node="1rlDGcttlXj" resolve="command" />
              </node>
              <node concept="YCak7" id="1rlDGctu8xQ" role="2OqNvi" />
            </node>
            <node concept="2yIwOk" id="2XA_ayKpHkk" role="2OqNvi" />
          </node>
        </node>
      </node>
    </node>
    <node concept="1YaCAy" id="1rlDGcttlXj" role="1YuTPh">
      <property role="TrG5h" value="command" />
      <ref role="1YaFvo" to="c2kz:2Pif5TcL5ta" resolve="AbstractCommand" />
    </node>
  </node>
  <node concept="Q5z_Y" id="1rlDGctuq0v">
    <property role="TrG5h" value="RemoveRepetition" />
    <node concept="Q5ZZ6" id="1rlDGctuq0w" role="Q6x$H">
      <node concept="3clFbS" id="1rlDGctuq0x" role="2VODD2">
        <node concept="3cpWs8" id="1rlDGctuwq4" role="3cqZAp">
          <node concept="3cpWsn" id="1rlDGctuwq5" role="3cpWs9">
            <property role="TrG5h" value="repeat" />
            <node concept="3Tqbb2" id="1rlDGctuwq1" role="1tU5fm">
              <ref role="ehGHo" to="c2kz:2RDssu5Vd5c" resolve="Repeat" />
            </node>
            <node concept="2OqwBi" id="1rlDGctuwq6" role="33vP2m">
              <node concept="Q6c8r" id="1rlDGctuwq7" role="2Oq$k0" />
              <node concept="1_qnLN" id="1rlDGctuwq8" role="2OqNvi">
                <ref role="1_rbq0" to="c2kz:2RDssu5Vd5c" resolve="Repeat" />
              </node>
            </node>
          </node>
        </node>
        <node concept="3clFbF" id="1rlDGctuvuS" role="3cqZAp">
          <node concept="37vLTI" id="1rlDGctuygH" role="3clFbG">
            <node concept="2ShNRf" id="1rlDGctuylE" role="37vLTx">
              <node concept="3zrR0B" id="1rlDGctuylC" role="2ShVmc">
                <node concept="3Tqbb2" id="1rlDGctuylD" role="3zrR0E">
                  <ref role="ehGHo" to="c2kz:2RDssu5W6CZ" resolve="CommandList" />
                </node>
              </node>
            </node>
            <node concept="2OqwBi" id="1rlDGctuwCC" role="37vLTJ">
              <node concept="37vLTw" id="1rlDGctuwq9" role="2Oq$k0">
                <ref role="3cqZAo" node="1rlDGctuwq5" resolve="repeat" />
              </node>
              <node concept="3TrEf2" id="1rlDGctuxpP" role="2OqNvi">
                <ref role="3Tt5mk" to="c2kz:2RDssu5Vd5f" />
              </node>
            </node>
          </node>
        </node>
        <node concept="3clFbF" id="1rlDGctuyoS" role="3cqZAp">
          <node concept="2OqwBi" id="1rlDGctuBzk" role="3clFbG">
            <node concept="2OqwBi" id="1rlDGctu$cE" role="2Oq$k0">
              <node concept="2OqwBi" id="1rlDGctuysU" role="2Oq$k0">
                <node concept="37vLTw" id="1rlDGctuyoR" role="2Oq$k0">
                  <ref role="3cqZAo" node="1rlDGctuwq5" resolve="repeat" />
                </node>
                <node concept="3TrEf2" id="1rlDGctuze7" role="2OqNvi">
                  <ref role="3Tt5mk" to="c2kz:2RDssu5Vd5f" />
                </node>
              </node>
              <node concept="3Tsc0h" id="1rlDGctu_dH" role="2OqNvi">
                <ref role="3TtcxE" to="c2kz:2RDssu5W6D0" />
              </node>
            </node>
            <node concept="TSZUe" id="1rlDGctuMhN" role="2OqNvi">
              <node concept="1PxgMI" id="1rlDGctuN5K" role="25WWJ7">
                <property role="1BlNFB" value="true" />
                <ref role="1m5ApE" to="c2kz:2Pif5TcL5ta" resolve="AbstractCommand" />
                <node concept="Q6c8r" id="1rlDGctuMw4" role="1m5AlR" />
              </node>
            </node>
          </node>
        </node>
        <node concept="3clFbF" id="1rlDGctuN$P" role="3cqZAp">
          <node concept="37vLTI" id="1rlDGctuPQ3" role="3clFbG">
            <node concept="3cmrfG" id="1rlDGctuPQi" role="37vLTx">
              <property role="3cmrfH" value="2" />
            </node>
            <node concept="2OqwBi" id="1rlDGctuND0" role="37vLTJ">
              <node concept="37vLTw" id="1rlDGctuN$O" role="2Oq$k0">
                <ref role="3cqZAo" node="1rlDGctuwq5" resolve="repeat" />
              </node>
              <node concept="3TrcHB" id="1rlDGctuOqd" role="2OqNvi">
                <ref role="3TsBF5" to="c2kz:2RDssu5Vd5e" resolve="count" />
              </node>
            </node>
          </node>
        </node>
        <node concept="3clFbF" id="1rlDGctuQdw" role="3cqZAp">
          <node concept="2OqwBi" id="1rlDGctuSJ_" role="3clFbG">
            <node concept="2OqwBi" id="1rlDGctuQih" role="2Oq$k0">
              <node concept="37vLTw" id="1rlDGctuQdv" role="2Oq$k0">
                <ref role="3cqZAo" node="1rlDGctuwq5" resolve="repeat" />
              </node>
              <node concept="YBYNd" id="1rlDGctuROi" role="2OqNvi" />
            </node>
            <node concept="1PgB_6" id="1rlDGctuT9C" role="2OqNvi" />
          </node>
        </node>
      </node>
    </node>
    <node concept="QznSV" id="1rlDGctuq0A" role="QzAvj">
      <node concept="3clFbS" id="1rlDGctuq0B" role="2VODD2">
        <node concept="3clFbF" id="1rlDGctuqdl" role="3cqZAp">
          <node concept="Xl_RD" id="1rlDGctuqdk" role="3clFbG">
            <property role="Xl_RC" value="Replace with the repeat command" />
          </node>
        </node>
      </node>
    </node>
  </node>
</model>

