<?xml version="1.0" encoding="UTF-8"?>
<model ref="r:7167ea39-4474-4333-92a9-38da0777e4f4(jetbrains.mps.samples.Shapes.generator.template.main@generator)">
  <persistence version="9" />
  <languages>
    <use id="b401a680-8325-4110-8fd3-84331ff25bef" name="jetbrains.mps.lang.generator" version="0" />
    <devkit ref="fbc25dd2-5da4-483a-8b19-70928e1b62d7(jetbrains.mps.devkit.general-purpose)" />
  </languages>
  <imports>
    <import index="dxuu" ref="6354ebe7-c22a-4a0f-ac54-50b52ab9b065/java:javax.swing(JDK/)" />
    <import index="z60i" ref="6354ebe7-c22a-4a0f-ac54-50b52ab9b065/java:java.awt(JDK/)" />
    <import index="lpry" ref="r:c5af9f55-6095-48ca-b66b-70da9c3f57fb(jetbrains.mps.samples.Shapes.structure)" />
    <import index="tpck" ref="r:00000000-0000-4000-0000-011c89590288(jetbrains.mps.lang.core.structure)" />
    <import index="wyt6" ref="6354ebe7-c22a-4a0f-ac54-50b52ab9b065/java:java.lang(JDK/)" implicit="true" />
    <import index="guwi" ref="6354ebe7-c22a-4a0f-ac54-50b52ab9b065/java:java.io(JDK/)" implicit="true" />
  </imports>
  <registry>
    <language id="f3061a53-9226-4cc5-a443-f952ceaf5816" name="jetbrains.mps.baseLanguage">
      <concept id="1082485599095" name="jetbrains.mps.baseLanguage.structure.BlockStatement" flags="nn" index="9aQIb">
        <child id="1082485599096" name="statements" index="9aQI4" />
      </concept>
      <concept id="1202948039474" name="jetbrains.mps.baseLanguage.structure.InstanceMethodCallOperation" flags="nn" index="liA8E" />
      <concept id="1465982738277781862" name="jetbrains.mps.baseLanguage.structure.PlaceholderMember" flags="ng" index="2tJIrI" />
      <concept id="1188207840427" name="jetbrains.mps.baseLanguage.structure.AnnotationInstance" flags="nn" index="2AHcQZ">
        <reference id="1188208074048" name="annotation" index="2AI5Lk" />
      </concept>
      <concept id="1188208481402" name="jetbrains.mps.baseLanguage.structure.HasAnnotation" flags="ng" index="2AJDlI">
        <child id="1188208488637" name="annotation" index="2AJF6D" />
      </concept>
      <concept id="2820489544401957797" name="jetbrains.mps.baseLanguage.structure.DefaultClassCreator" flags="nn" index="HV5vD">
        <reference id="2820489544401957798" name="classifier" index="HV5vE" />
      </concept>
      <concept id="1224848483129" name="jetbrains.mps.baseLanguage.structure.IBLDeprecatable" flags="ng" index="IEa8$">
        <property id="1224848525476" name="isDeprecated" index="IEkAT" />
      </concept>
      <concept id="1197027756228" name="jetbrains.mps.baseLanguage.structure.DotExpression" flags="nn" index="2OqwBi">
        <child id="1197027771414" name="operand" index="2Oq$k0" />
        <child id="1197027833540" name="operation" index="2OqNvi" />
      </concept>
      <concept id="1145552977093" name="jetbrains.mps.baseLanguage.structure.GenericNewExpression" flags="nn" index="2ShNRf">
        <child id="1145553007750" name="creator" index="2ShVmc" />
      </concept>
      <concept id="1137021947720" name="jetbrains.mps.baseLanguage.structure.ConceptFunction" flags="in" index="2VMwT0">
        <child id="1137022507850" name="body" index="2VODD2" />
      </concept>
      <concept id="1070475354124" name="jetbrains.mps.baseLanguage.structure.ThisExpression" flags="nn" index="Xjq3P" />
      <concept id="1070475926800" name="jetbrains.mps.baseLanguage.structure.StringLiteral" flags="nn" index="Xl_RD">
        <property id="1070475926801" name="value" index="Xl_RC" />
      </concept>
      <concept id="1182160077978" name="jetbrains.mps.baseLanguage.structure.AnonymousClassCreator" flags="nn" index="YeOm9">
        <child id="1182160096073" name="cls" index="YeSDq" />
      </concept>
      <concept id="1081236700938" name="jetbrains.mps.baseLanguage.structure.StaticMethodDeclaration" flags="ig" index="2YIFZL" />
      <concept id="1070533707846" name="jetbrains.mps.baseLanguage.structure.StaticFieldReference" flags="nn" index="10M0yZ">
        <reference id="1144433057691" name="classifier" index="1PxDUh" />
      </concept>
      <concept id="1070534058343" name="jetbrains.mps.baseLanguage.structure.NullLiteral" flags="nn" index="10Nm6u" />
      <concept id="1070534760951" name="jetbrains.mps.baseLanguage.structure.ArrayType" flags="in" index="10Q1$e">
        <child id="1070534760952" name="componentType" index="10Q1$1" />
      </concept>
      <concept id="1068390468200" name="jetbrains.mps.baseLanguage.structure.FieldDeclaration" flags="ig" index="312cEg">
        <property id="8606350594693632173" name="isTransient" index="eg7rD" />
        <property id="1240249534625" name="isVolatile" index="34CwA1" />
      </concept>
      <concept id="1068390468198" name="jetbrains.mps.baseLanguage.structure.ClassConcept" flags="ig" index="312cEu">
        <child id="1165602531693" name="superclass" index="1zkMxy" />
      </concept>
      <concept id="1068431474542" name="jetbrains.mps.baseLanguage.structure.VariableDeclaration" flags="ng" index="33uBYm">
        <property id="1176718929932" name="isFinal" index="3TUv4t" />
        <child id="1068431790190" name="initializer" index="33vP2m" />
      </concept>
      <concept id="1068498886296" name="jetbrains.mps.baseLanguage.structure.VariableReference" flags="nn" index="37vLTw">
        <reference id="1068581517664" name="variableDeclaration" index="3cqZAo" />
      </concept>
      <concept id="1068498886292" name="jetbrains.mps.baseLanguage.structure.ParameterDeclaration" flags="ir" index="37vLTG" />
      <concept id="1225271177708" name="jetbrains.mps.baseLanguage.structure.StringType" flags="in" index="17QB3L" />
      <concept id="4972933694980447171" name="jetbrains.mps.baseLanguage.structure.BaseVariableDeclaration" flags="ng" index="19Szcq">
        <child id="5680397130376446158" name="type" index="1tU5fm" />
      </concept>
      <concept id="1068580123132" name="jetbrains.mps.baseLanguage.structure.BaseMethodDeclaration" flags="ng" index="3clF44">
        <property id="4276006055363816570" name="isSynchronized" index="od$2w" />
        <property id="1181808852946" name="isFinal" index="DiZV1" />
        <child id="1068580123133" name="returnType" index="3clF45" />
        <child id="1068580123134" name="parameter" index="3clF46" />
        <child id="1068580123135" name="body" index="3clF47" />
      </concept>
      <concept id="1068580123165" name="jetbrains.mps.baseLanguage.structure.InstanceMethodDeclaration" flags="ig" index="3clFb_">
        <property id="1178608670077" name="isAbstract" index="1EzhhJ" />
      </concept>
      <concept id="1068580123155" name="jetbrains.mps.baseLanguage.structure.ExpressionStatement" flags="nn" index="3clFbF">
        <child id="1068580123156" name="expression" index="3clFbG" />
      </concept>
      <concept id="1068580123157" name="jetbrains.mps.baseLanguage.structure.Statement" flags="nn" index="3clFbH" />
      <concept id="1068580123136" name="jetbrains.mps.baseLanguage.structure.StatementList" flags="sn" stub="5293379017992965193" index="3clFbS">
        <child id="1068581517665" name="statement" index="3cqZAp" />
      </concept>
      <concept id="1068580123137" name="jetbrains.mps.baseLanguage.structure.BooleanConstant" flags="nn" index="3clFbT">
        <property id="1068580123138" name="value" index="3clFbU" />
      </concept>
      <concept id="1068580320020" name="jetbrains.mps.baseLanguage.structure.IntegerConstant" flags="nn" index="3cmrfG">
        <property id="1068580320021" name="value" index="3cmrfH" />
      </concept>
      <concept id="1068581242864" name="jetbrains.mps.baseLanguage.structure.LocalVariableDeclarationStatement" flags="nn" index="3cpWs8">
        <child id="1068581242865" name="localVariableDeclaration" index="3cpWs9" />
      </concept>
      <concept id="1068581242863" name="jetbrains.mps.baseLanguage.structure.LocalVariableDeclaration" flags="nr" index="3cpWsn" />
      <concept id="1068581517677" name="jetbrains.mps.baseLanguage.structure.VoidType" flags="in" index="3cqZAl" />
      <concept id="1204053956946" name="jetbrains.mps.baseLanguage.structure.IMethodCall" flags="ng" index="1ndlxa">
        <reference id="1068499141037" name="baseMethodDeclaration" index="37wK5l" />
        <child id="1068499141038" name="actualArgument" index="37wK5m" />
      </concept>
      <concept id="1073063089578" name="jetbrains.mps.baseLanguage.structure.SuperMethodCall" flags="nn" index="3nyPlj" />
      <concept id="1212685548494" name="jetbrains.mps.baseLanguage.structure.ClassCreator" flags="nn" index="1pGfFk" />
      <concept id="1107461130800" name="jetbrains.mps.baseLanguage.structure.Classifier" flags="ng" index="3pOWGL">
        <property id="521412098689998745" name="nonStatic" index="2bfB8j" />
        <child id="5375687026011219971" name="member" index="jymVt" unordered="true" />
      </concept>
      <concept id="1107535904670" name="jetbrains.mps.baseLanguage.structure.ClassifierType" flags="in" index="3uibUv">
        <reference id="1107535924139" name="classifier" index="3uigEE" />
      </concept>
      <concept id="1178549954367" name="jetbrains.mps.baseLanguage.structure.IVisible" flags="ng" index="1B3ioH">
        <child id="1178549979242" name="visibility" index="1B3o_S" />
      </concept>
      <concept id="1146644602865" name="jetbrains.mps.baseLanguage.structure.PublicVisibility" flags="nn" index="3Tm1VV" />
      <concept id="1146644623116" name="jetbrains.mps.baseLanguage.structure.PrivateVisibility" flags="nn" index="3Tm6S6" />
      <concept id="1146644641414" name="jetbrains.mps.baseLanguage.structure.ProtectedVisibility" flags="nn" index="3Tmbuc" />
      <concept id="1170345865475" name="jetbrains.mps.baseLanguage.structure.AnonymousClass" flags="ig" index="1Y3b0j">
        <reference id="1170346070688" name="classifier" index="1Y3XeK" />
      </concept>
    </language>
    <language id="b401a680-8325-4110-8fd3-84331ff25bef" name="jetbrains.mps.lang.generator">
      <concept id="1114706874351" name="jetbrains.mps.lang.generator.structure.CopySrcNodeMacro" flags="ln" index="29HgVG" />
      <concept id="1095416546421" name="jetbrains.mps.lang.generator.structure.MappingConfiguration" flags="ig" index="bUwia">
        <child id="1167328349397" name="reductionMappingRule" index="3acgRq" />
        <child id="1167514678247" name="rootMappingRule" index="3lj3bC" />
      </concept>
      <concept id="1168559333462" name="jetbrains.mps.lang.generator.structure.TemplateDeclarationReference" flags="ln" index="j$656" />
      <concept id="1168619357332" name="jetbrains.mps.lang.generator.structure.RootTemplateAnnotation" flags="lg" index="n94m4">
        <reference id="1168619429071" name="applicableConcept" index="n9lRv" />
      </concept>
      <concept id="1095672379244" name="jetbrains.mps.lang.generator.structure.TemplateFragment" flags="ng" index="raruj" />
      <concept id="1722980698497626400" name="jetbrains.mps.lang.generator.structure.ITemplateCall" flags="ng" index="v9R3L">
        <reference id="1722980698497626483" name="template" index="v9R2y" />
      </concept>
      <concept id="1167169188348" name="jetbrains.mps.lang.generator.structure.TemplateFunctionParameter_sourceNode" flags="nn" index="30H73N" />
      <concept id="1167169308231" name="jetbrains.mps.lang.generator.structure.BaseMappingRule" flags="ng" index="30H$t8">
        <reference id="1167169349424" name="applicableConcept" index="30HIoZ" />
      </concept>
      <concept id="1092059087312" name="jetbrains.mps.lang.generator.structure.TemplateDeclaration" flags="ig" index="13MO4I">
        <reference id="1168285871518" name="applicableConcept" index="3gUMe" />
        <child id="1092060348987" name="contentNode" index="13RCb5" />
      </concept>
      <concept id="1087833241328" name="jetbrains.mps.lang.generator.structure.PropertyMacro" flags="ln" index="17Uvod">
        <child id="1167756362303" name="propertyValueFunction" index="3zH0cK" />
      </concept>
      <concept id="1167327847730" name="jetbrains.mps.lang.generator.structure.Reduction_MappingRule" flags="lg" index="3aamgX">
        <child id="1169672767469" name="ruleConsequence" index="1lVwrX" />
      </concept>
      <concept id="1167514355419" name="jetbrains.mps.lang.generator.structure.Root_MappingRule" flags="lg" index="3lhOvk">
        <reference id="1167514355421" name="template" index="3lhOvi" />
      </concept>
      <concept id="1167756080639" name="jetbrains.mps.lang.generator.structure.PropertyMacro_GetPropertyValue" flags="in" index="3zFVjK" />
      <concept id="1167770111131" name="jetbrains.mps.lang.generator.structure.ReferenceMacro_GetReferent" flags="in" index="3$xsQk" />
      <concept id="1167951910403" name="jetbrains.mps.lang.generator.structure.SourceSubstituteMacro_SourceNodesQuery" flags="in" index="3JmXsc" />
      <concept id="1118786554307" name="jetbrains.mps.lang.generator.structure.LoopMacro" flags="ln" index="1WS0z7">
        <child id="1167952069335" name="sourceNodesQuery" index="3Jn$fo" />
      </concept>
      <concept id="1088761943574" name="jetbrains.mps.lang.generator.structure.ReferenceMacro" flags="ln" index="1ZhdrF">
        <child id="1167770376702" name="referentFunction" index="3$ytzL" />
      </concept>
    </language>
    <language id="7866978e-a0f0-4cc7-81bc-4d213d9375e1" name="jetbrains.mps.lang.smodel">
      <concept id="1138056022639" name="jetbrains.mps.lang.smodel.structure.SPropertyAccess" flags="nn" index="3TrcHB">
        <reference id="1138056395725" name="property" index="3TsBF5" />
      </concept>
      <concept id="1138056143562" name="jetbrains.mps.lang.smodel.structure.SLinkAccess" flags="nn" index="3TrEf2">
        <reference id="1138056516764" name="link" index="3Tt5mk" />
      </concept>
      <concept id="1138056282393" name="jetbrains.mps.lang.smodel.structure.SLinkListAccess" flags="nn" index="3Tsc0h">
        <reference id="1138056546658" name="link" index="3TtcxE" />
      </concept>
    </language>
    <language id="ceab5195-25ea-4f22-9b92-103b95ca8c0c" name="jetbrains.mps.lang.core">
      <concept id="1133920641626" name="jetbrains.mps.lang.core.structure.BaseConcept" flags="ng" index="2VYdi">
        <child id="5169995583184591170" name="smodelAttribute" index="lGtFl" />
      </concept>
      <concept id="3364660638048049750" name="jetbrains.mps.lang.core.structure.PropertyAttribute" flags="ng" index="A9Btg">
        <property id="1757699476691236117" name="propertyName" index="2qtEX9" />
        <property id="1341860900487648621" name="propertyId" index="P4ACc" />
      </concept>
      <concept id="3364660638048049745" name="jetbrains.mps.lang.core.structure.LinkAttribute" flags="ng" index="A9Btn">
        <property id="1757699476691236116" name="linkRole" index="2qtEX8" />
        <property id="1341860900488019036" name="linkId" index="P3scX" />
      </concept>
      <concept id="1169194658468" name="jetbrains.mps.lang.core.structure.INamedConcept" flags="ng" index="TrEIO">
        <property id="1169194664001" name="name" index="TrG5h" />
      </concept>
    </language>
  </registry>
  <node concept="bUwia" id="57sEyAnjUoO">
    <property role="TrG5h" value="main" />
    <node concept="3aamgX" id="57sEyAnlilW" role="3acgRq">
      <ref role="30HIoZ" to="lpry:57sEyAnjW6o" resolve="Circle" />
      <node concept="j$656" id="57sEyAnlim2" role="1lVwrX">
        <ref role="v9R2y" node="57sEyAnlim0" resolve="reduce_Circle" />
      </node>
    </node>
    <node concept="3aamgX" id="57sEyAnm1Sy" role="3acgRq">
      <ref role="30HIoZ" to="lpry:57sEyAnjW6y" resolve="Square" />
      <node concept="j$656" id="57sEyAnm1SE" role="1lVwrX">
        <ref role="v9R2y" node="57sEyAnm1SC" resolve="reduce_Square" />
      </node>
    </node>
    <node concept="3lhOvk" id="57sEyAnl3Aq" role="3lj3bC">
      <ref role="30HIoZ" to="lpry:57sEyAnjUst" resolve="Canvas" />
      <ref role="3lhOvi" node="57sEyAnkmeU" resolve="MyCanvas" />
    </node>
  </node>
  <node concept="312cEu" id="57sEyAnkmeU">
    <property role="TrG5h" value="MyCanvas" />
    <node concept="312cEg" id="57sEyAnlzRW" role="jymVt">
      <property role="34CwA1" value="false" />
      <property role="eg7rD" value="false" />
      <property role="TrG5h" value="panel" />
      <property role="3TUv4t" value="false" />
      <node concept="3Tm6S6" id="57sEyAnlwS$" role="1B3o_S" />
      <node concept="3uibUv" id="57sEyAnlzRt" role="1tU5fm">
        <ref role="3uigEE" to="dxuu:~JPanel" resolve="JPanel" />
      </node>
      <node concept="2ShNRf" id="57sEyAnl$t9" role="33vP2m">
        <node concept="YeOm9" id="57sEyAnmCDC" role="2ShVmc">
          <node concept="1Y3b0j" id="57sEyAnmCDF" role="YeSDq">
            <property role="2bfB8j" value="true" />
            <ref role="1Y3XeK" to="dxuu:~JPanel" resolve="JPanel" />
            <ref role="37wK5l" to="dxuu:~JPanel.&lt;init&gt;()" resolve="JPanel" />
            <node concept="3Tm1VV" id="57sEyAnmCDG" role="1B3o_S" />
            <node concept="3clFb_" id="57sEyAnmFzi" role="jymVt">
              <property role="1EzhhJ" value="false" />
              <property role="TrG5h" value="paintComponent" />
              <property role="DiZV1" value="false" />
              <property role="IEkAT" value="false" />
              <node concept="3Tmbuc" id="57sEyAnmFzj" role="1B3o_S" />
              <node concept="3cqZAl" id="57sEyAnmFzl" role="3clF45" />
              <node concept="37vLTG" id="57sEyAnmFzm" role="3clF46">
                <property role="TrG5h" value="graphics" />
                <node concept="3uibUv" id="57sEyAnmFzn" role="1tU5fm">
                  <ref role="3uigEE" to="z60i:~Graphics" resolve="Graphics" />
                </node>
              </node>
              <node concept="3clFbS" id="57sEyAnmFzr" role="3clF47">
                <node concept="3clFbF" id="57sEyAnmFzv" role="3cqZAp">
                  <node concept="3nyPlj" id="57sEyAnmFzu" role="3clFbG">
                    <ref role="37wK5l" to="dxuu:~JComponent.paintComponent(java.awt.Graphics):void" resolve="paintComponent" />
                    <node concept="37vLTw" id="57sEyAnmFzt" role="37wK5m">
                      <ref role="3cqZAo" node="57sEyAnmFzm" resolve="graphics" />
                    </node>
                  </node>
                </node>
                <node concept="3clFbF" id="57sEyAnlfNx" role="3cqZAp">
                  <node concept="2OqwBi" id="57sEyAnlfNt" role="3clFbG">
                    <node concept="10M0yZ" id="57sEyAnlfNu" role="2Oq$k0">
                      <ref role="3cqZAo" to="wyt6:~System.out" resolve="out" />
                      <ref role="1PxDUh" to="wyt6:~System" resolve="System" />
                    </node>
                    <node concept="liA8E" id="57sEyAnlfNv" role="2OqNvi">
                      <ref role="37wK5l" to="guwi:~PrintStream.println(java.lang.String):void" resolve="println" />
                      <node concept="Xl_RD" id="57sEyAnlfNw" role="37wK5m">
                        <property role="Xl_RC" value="Draw here" />
                      </node>
                    </node>
                  </node>
                  <node concept="1WS0z7" id="57sEyAnlgnf" role="lGtFl">
                    <node concept="3JmXsc" id="57sEyAnlgni" role="3Jn$fo">
                      <node concept="3clFbS" id="57sEyAnlgnj" role="2VODD2">
                        <node concept="3clFbF" id="57sEyAnlgnp" role="3cqZAp">
                          <node concept="2OqwBi" id="57sEyAnlgnk" role="3clFbG">
                            <node concept="3Tsc0h" id="57sEyAnlgnn" role="2OqNvi">
                              <ref role="3TtcxE" to="lpry:57sEyAnjZD7" />
                            </node>
                            <node concept="30H73N" id="57sEyAnlgno" role="2Oq$k0" />
                          </node>
                        </node>
                      </node>
                    </node>
                  </node>
                  <node concept="29HgVG" id="57sEyAnlhFt" role="lGtFl" />
                </node>
              </node>
              <node concept="2AHcQZ" id="57sEyAnmFzs" role="2AJF6D">
                <ref role="2AI5Lk" to="wyt6:~Override" resolve="Override" />
              </node>
            </node>
          </node>
        </node>
      </node>
    </node>
    <node concept="2tJIrI" id="57sEyAnlrWd" role="jymVt" />
    <node concept="3clFb_" id="57sEyAnluEe" role="jymVt">
      <property role="1EzhhJ" value="false" />
      <property role="TrG5h" value="initialize" />
      <property role="od$2w" value="false" />
      <property role="DiZV1" value="false" />
      <node concept="3clFbS" id="57sEyAnluEh" role="3clF47">
        <node concept="3clFbF" id="57sEyAnkTMx" role="3cqZAp">
          <node concept="2OqwBi" id="57sEyAnkU3V" role="3clFbG">
            <node concept="Xjq3P" id="57sEyAnlD7P" role="2Oq$k0" />
            <node concept="liA8E" id="57sEyAnkVKY" role="2OqNvi">
              <ref role="37wK5l" to="z60i:~Frame.setTitle(java.lang.String):void" resolve="setTitle" />
              <node concept="Xl_RD" id="57sEyAnkVNb" role="37wK5m">
                <property role="Xl_RC" value="Title" />
                <node concept="17Uvod" id="57sEyAnkVXm" role="lGtFl">
                  <property role="2qtEX9" value="value" />
                  <property role="P4ACc" value="f3061a53-9226-4cc5-a443-f952ceaf5816/1070475926800/1070475926801" />
                  <node concept="3zFVjK" id="57sEyAnkVXn" role="3zH0cK">
                    <node concept="3clFbS" id="57sEyAnkVXo" role="2VODD2">
                      <node concept="3clFbF" id="57sEyAnkWa8" role="3cqZAp">
                        <node concept="2OqwBi" id="57sEyAnkWem" role="3clFbG">
                          <node concept="30H73N" id="57sEyAnkWa7" role="2Oq$k0" />
                          <node concept="3TrcHB" id="57sEyAnkWtb" role="2OqNvi">
                            <ref role="3TsBF5" to="tpck:h0TrG11" resolve="name" />
                          </node>
                        </node>
                      </node>
                    </node>
                  </node>
                </node>
              </node>
            </node>
          </node>
        </node>
        <node concept="3clFbF" id="57sEyAnmo5g" role="3cqZAp">
          <node concept="2OqwBi" id="57sEyAnmoR8" role="3clFbG">
            <node concept="Xjq3P" id="57sEyAnmo5e" role="2Oq$k0" />
            <node concept="liA8E" id="57sEyAnmqjf" role="2OqNvi">
              <ref role="37wK5l" to="dxuu:~JFrame.setDefaultCloseOperation(int):void" resolve="setDefaultCloseOperation" />
              <node concept="10M0yZ" id="57sEyAnmqmT" role="37wK5m">
                <ref role="1PxDUh" to="dxuu:~JFrame" resolve="JFrame" />
                <ref role="3cqZAo" to="dxuu:~JFrame.EXIT_ON_CLOSE" resolve="EXIT_ON_CLOSE" />
              </node>
            </node>
          </node>
        </node>
        <node concept="3clFbF" id="57sEyAnl$GU" role="3cqZAp">
          <node concept="2OqwBi" id="57sEyAnl$Tr" role="3clFbG">
            <node concept="Xjq3P" id="57sEyAnl$GT" role="2Oq$k0" />
            <node concept="liA8E" id="57sEyAnlAwP" role="2OqNvi">
              <ref role="37wK5l" to="z60i:~Container.add(java.awt.Component):java.awt.Component" resolve="add" />
              <node concept="37vLTw" id="57sEyAnlA_V" role="37wK5m">
                <ref role="3cqZAo" node="57sEyAnlzRW" resolve="panel" />
              </node>
            </node>
          </node>
        </node>
        <node concept="3clFbF" id="57sEyAnlNa1" role="3cqZAp">
          <node concept="2OqwBi" id="57sEyAnlNBD" role="3clFbG">
            <node concept="37vLTw" id="57sEyAnlNa0" role="2Oq$k0">
              <ref role="3cqZAo" node="57sEyAnlzRW" resolve="panel" />
            </node>
            <node concept="liA8E" id="57sEyAnlPX8" role="2OqNvi">
              <ref role="37wK5l" to="dxuu:~JComponent.setPreferredSize(java.awt.Dimension):void" resolve="setPreferredSize" />
              <node concept="2ShNRf" id="57sEyAnlRyL" role="37wK5m">
                <node concept="1pGfFk" id="57sEyAnlSbi" role="2ShVmc">
                  <ref role="37wK5l" to="z60i:~Dimension.&lt;init&gt;(int,int)" resolve="Dimension" />
                  <node concept="3cmrfG" id="57sEyAnlSeU" role="37wK5m">
                    <property role="3cmrfH" value="500" />
                  </node>
                  <node concept="3cmrfG" id="57sEyAnlTqU" role="37wK5m">
                    <property role="3cmrfH" value="500" />
                  </node>
                </node>
              </node>
            </node>
          </node>
        </node>
        <node concept="3clFbF" id="57sEyAnlEwC" role="3cqZAp">
          <node concept="2OqwBi" id="57sEyAnlFbA" role="3clFbG">
            <node concept="Xjq3P" id="57sEyAnlEwA" role="2Oq$k0" />
            <node concept="liA8E" id="57sEyAnlG$a" role="2OqNvi">
              <ref role="37wK5l" to="z60i:~Window.pack():void" resolve="pack" />
            </node>
          </node>
        </node>
        <node concept="3clFbF" id="57sEyAnlH9h" role="3cqZAp">
          <node concept="2OqwBi" id="57sEyAnlHw2" role="3clFbG">
            <node concept="Xjq3P" id="57sEyAnlH9f" role="2Oq$k0" />
            <node concept="liA8E" id="57sEyAnlIS6" role="2OqNvi">
              <ref role="37wK5l" to="z60i:~Window.setVisible(boolean):void" resolve="setVisible" />
              <node concept="3clFbT" id="57sEyAnlJ2c" role="37wK5m">
                <property role="3clFbU" value="true" />
              </node>
            </node>
          </node>
        </node>
      </node>
      <node concept="3Tm6S6" id="57sEyAnltJS" role="1B3o_S" />
      <node concept="3cqZAl" id="57sEyAnluDL" role="3clF45" />
    </node>
    <node concept="2tJIrI" id="57sEyAnlJAi" role="jymVt" />
    <node concept="2YIFZL" id="57sEyAnkmnC" role="jymVt">
      <property role="TrG5h" value="main" />
      <node concept="37vLTG" id="57sEyAnkmnD" role="3clF46">
        <property role="TrG5h" value="args" />
        <node concept="10Q1$e" id="57sEyAnkmnE" role="1tU5fm">
          <node concept="17QB3L" id="57sEyAnkmnF" role="10Q1$1" />
        </node>
      </node>
      <node concept="3cqZAl" id="57sEyAnkmnG" role="3clF45" />
      <node concept="3Tm1VV" id="57sEyAnkmnH" role="1B3o_S" />
      <node concept="3clFbS" id="57sEyAnkmnI" role="3clF47">
        <node concept="3cpWs8" id="57sEyAnkRe8" role="3cqZAp">
          <node concept="3cpWsn" id="57sEyAnkRe9" role="3cpWs9">
            <property role="TrG5h" value="canvas" />
            <node concept="3uibUv" id="57sEyAnkRe6" role="1tU5fm">
              <ref role="3uigEE" node="57sEyAnkmeU" resolve="MyCanvas" />
            </node>
            <node concept="2ShNRf" id="57sEyAnkRea" role="33vP2m">
              <node concept="HV5vD" id="57sEyAnkReb" role="2ShVmc">
                <ref role="HV5vE" node="57sEyAnkmeU" resolve="MyCanvas" />
              </node>
            </node>
          </node>
        </node>
        <node concept="3clFbF" id="57sEyAnlKVd" role="3cqZAp">
          <node concept="2OqwBi" id="57sEyAnlLq3" role="3clFbG">
            <node concept="37vLTw" id="57sEyAnlKVc" role="2Oq$k0">
              <ref role="3cqZAo" node="57sEyAnkRe9" resolve="canvas" />
            </node>
            <node concept="liA8E" id="57sEyAnlMoG" role="2OqNvi">
              <ref role="37wK5l" node="57sEyAnluEe" resolve="initialize" />
            </node>
          </node>
        </node>
      </node>
    </node>
    <node concept="3Tm1VV" id="57sEyAnkmeV" role="1B3o_S" />
    <node concept="n94m4" id="57sEyAnkmeW" role="lGtFl">
      <ref role="n9lRv" to="lpry:57sEyAnjUst" resolve="Canvas" />
    </node>
    <node concept="17Uvod" id="57sEyAnkmoV" role="lGtFl">
      <property role="2qtEX9" value="name" />
      <property role="P4ACc" value="ceab5195-25ea-4f22-9b92-103b95ca8c0c/1169194658468/1169194664001" />
      <node concept="3zFVjK" id="57sEyAnkmoW" role="3zH0cK">
        <node concept="3clFbS" id="57sEyAnkmoX" role="2VODD2">
          <node concept="3clFbF" id="57sEyAnkm$e" role="3cqZAp">
            <node concept="2OqwBi" id="57sEyAnkmCs" role="3clFbG">
              <node concept="30H73N" id="57sEyAnkm$d" role="2Oq$k0" />
              <node concept="3TrcHB" id="57sEyAnkn5b" role="2OqNvi">
                <ref role="3TsBF5" to="tpck:h0TrG11" resolve="name" />
              </node>
            </node>
          </node>
        </node>
      </node>
    </node>
    <node concept="3uibUv" id="57sEyAnkF59" role="1zkMxy">
      <ref role="3uigEE" to="dxuu:~JFrame" resolve="JFrame" />
    </node>
  </node>
  <node concept="13MO4I" id="57sEyAnlim0">
    <property role="TrG5h" value="reduce_Circle" />
    <ref role="3gUMe" to="lpry:57sEyAnjW6o" resolve="Circle" />
    <node concept="9aQIb" id="57sEyAnlXV$" role="13RCb5">
      <node concept="3clFbS" id="57sEyAnlXVA" role="9aQI4">
        <node concept="3cpWs8" id="57sEyAnlXVL" role="3cqZAp">
          <node concept="3cpWsn" id="57sEyAnlXVM" role="3cpWs9">
            <property role="TrG5h" value="graphics" />
            <node concept="3uibUv" id="57sEyAnlXVN" role="1tU5fm">
              <ref role="3uigEE" to="z60i:~Graphics" resolve="Graphics" />
            </node>
            <node concept="10Nm6u" id="57sEyAnlXWi" role="33vP2m" />
          </node>
        </node>
        <node concept="9aQIb" id="57sEyAnlYhQ" role="3cqZAp">
          <node concept="3clFbS" id="57sEyAnlYhS" role="9aQI4">
            <node concept="3clFbF" id="57sEyAnlYpO" role="3cqZAp">
              <node concept="2OqwBi" id="57sEyAnlYqQ" role="3clFbG">
                <node concept="37vLTw" id="57sEyAnlYpN" role="2Oq$k0">
                  <ref role="3cqZAo" node="57sEyAnlXVM" resolve="graphics" />
                </node>
                <node concept="liA8E" id="57sEyAnlYxd" role="2OqNvi">
                  <ref role="37wK5l" to="z60i:~Graphics.setColor(java.awt.Color):void" resolve="setColor" />
                  <node concept="10M0yZ" id="2dorb_FR7sH" role="37wK5m">
                    <ref role="1PxDUh" to="z60i:~Color" resolve="Color" />
                    <ref role="3cqZAo" to="z60i:~Color.red" resolve="red" />
                    <node concept="1ZhdrF" id="5faVZ5JF9qD" role="lGtFl">
                      <property role="2qtEX8" value="variableDeclaration" />
                      <property role="P3scX" value="f3061a53-9226-4cc5-a443-f952ceaf5816/1068498886296/1068581517664" />
                      <node concept="3$xsQk" id="5faVZ5JFcmz" role="3$ytzL">
                        <node concept="3clFbS" id="5faVZ5JFcm$" role="2VODD2">
                          <node concept="3clFbF" id="5faVZ5JFcCv" role="3cqZAp">
                            <node concept="2OqwBi" id="5faVZ5JFenn" role="3clFbG">
                              <node concept="2OqwBi" id="5faVZ5JFcm_" role="2Oq$k0">
                                <node concept="3TrEf2" id="5faVZ5JFcmC" role="2OqNvi">
                                  <ref role="3Tt5mk" to="lpry:3CF0obv99ac" />
                                </node>
                                <node concept="30H73N" id="5faVZ5JFcCu" role="2Oq$k0" />
                              </node>
                              <node concept="3TrEf2" id="5faVZ5JFex8" role="2OqNvi">
                                <ref role="3Tt5mk" to="lpry:3CF0obv8waq" />
                              </node>
                            </node>
                          </node>
                        </node>
                      </node>
                    </node>
                  </node>
                </node>
              </node>
            </node>
            <node concept="3clFbF" id="57sEyAnlXWE" role="3cqZAp">
              <node concept="2OqwBi" id="57sEyAnlXXc" role="3clFbG">
                <node concept="37vLTw" id="57sEyAnlXWD" role="2Oq$k0">
                  <ref role="3cqZAo" node="57sEyAnlXVM" resolve="graphics" />
                </node>
                <node concept="liA8E" id="57sEyAnlY88" role="2OqNvi">
                  <ref role="37wK5l" to="z60i:~Graphics.drawOval(int,int,int,int):void" resolve="drawOval" />
                  <node concept="3cmrfG" id="57sEyAnlY8E" role="37wK5m">
                    <property role="3cmrfH" value="10" />
                    <node concept="17Uvod" id="57sEyAnlZWz" role="lGtFl">
                      <property role="2qtEX9" value="value" />
                      <property role="P4ACc" value="f3061a53-9226-4cc5-a443-f952ceaf5816/1068580320020/1068580320021" />
                      <node concept="3zFVjK" id="57sEyAnlZWA" role="3zH0cK">
                        <node concept="3clFbS" id="57sEyAnlZWB" role="2VODD2">
                          <node concept="3clFbF" id="57sEyAnlZWH" role="3cqZAp">
                            <node concept="2OqwBi" id="57sEyAnlZWC" role="3clFbG">
                              <node concept="3TrcHB" id="57sEyAnlZWF" role="2OqNvi">
                                <ref role="3TsBF5" to="lpry:57sEyAnjW6p" resolve="x" />
                              </node>
                              <node concept="30H73N" id="57sEyAnlZWG" role="2Oq$k0" />
                            </node>
                          </node>
                        </node>
                      </node>
                    </node>
                  </node>
                  <node concept="3cmrfG" id="57sEyAnlYaA" role="37wK5m">
                    <property role="3cmrfH" value="10" />
                    <node concept="17Uvod" id="57sEyAnm0kR" role="lGtFl">
                      <property role="2qtEX9" value="value" />
                      <property role="P4ACc" value="f3061a53-9226-4cc5-a443-f952ceaf5816/1068580320020/1068580320021" />
                      <node concept="3zFVjK" id="57sEyAnm0kU" role="3zH0cK">
                        <node concept="3clFbS" id="57sEyAnm0kV" role="2VODD2">
                          <node concept="3clFbF" id="57sEyAnm0l1" role="3cqZAp">
                            <node concept="2OqwBi" id="57sEyAnm0kW" role="3clFbG">
                              <node concept="3TrcHB" id="57sEyAnm0kZ" role="2OqNvi">
                                <ref role="3TsBF5" to="lpry:57sEyAnjW6r" resolve="y" />
                              </node>
                              <node concept="30H73N" id="57sEyAnm0l0" role="2Oq$k0" />
                            </node>
                          </node>
                        </node>
                      </node>
                    </node>
                  </node>
                  <node concept="3cmrfG" id="57sEyAnlYc_" role="37wK5m">
                    <property role="3cmrfH" value="10" />
                    <node concept="17Uvod" id="57sEyAnm0HZ" role="lGtFl">
                      <property role="2qtEX9" value="value" />
                      <property role="P4ACc" value="f3061a53-9226-4cc5-a443-f952ceaf5816/1068580320020/1068580320021" />
                      <node concept="3zFVjK" id="57sEyAnm0I2" role="3zH0cK">
                        <node concept="3clFbS" id="57sEyAnm0I3" role="2VODD2">
                          <node concept="3clFbF" id="57sEyAnm0I9" role="3cqZAp">
                            <node concept="2OqwBi" id="57sEyAnm0I4" role="3clFbG">
                              <node concept="3TrcHB" id="57sEyAnm0I7" role="2OqNvi">
                                <ref role="3TsBF5" to="lpry:57sEyAnjW6u" resolve="radius" />
                              </node>
                              <node concept="30H73N" id="57sEyAnm0I8" role="2Oq$k0" />
                            </node>
                          </node>
                        </node>
                      </node>
                    </node>
                  </node>
                  <node concept="3cmrfG" id="57sEyAnlYez" role="37wK5m">
                    <property role="3cmrfH" value="10" />
                    <node concept="17Uvod" id="57sEyAnm17V" role="lGtFl">
                      <property role="2qtEX9" value="value" />
                      <property role="P4ACc" value="f3061a53-9226-4cc5-a443-f952ceaf5816/1068580320020/1068580320021" />
                      <node concept="3zFVjK" id="57sEyAnm17Y" role="3zH0cK">
                        <node concept="3clFbS" id="57sEyAnm17Z" role="2VODD2">
                          <node concept="3clFbF" id="57sEyAnm185" role="3cqZAp">
                            <node concept="2OqwBi" id="57sEyAnm180" role="3clFbG">
                              <node concept="3TrcHB" id="57sEyAnm183" role="2OqNvi">
                                <ref role="3TsBF5" to="lpry:57sEyAnjW6u" resolve="radius" />
                              </node>
                              <node concept="30H73N" id="57sEyAnm184" role="2Oq$k0" />
                            </node>
                          </node>
                        </node>
                      </node>
                    </node>
                  </node>
                </node>
              </node>
            </node>
          </node>
          <node concept="raruj" id="57sEyAnlYUp" role="lGtFl" />
        </node>
      </node>
    </node>
  </node>
  <node concept="13MO4I" id="57sEyAnm1SC">
    <property role="TrG5h" value="reduce_Square" />
    <ref role="3gUMe" to="lpry:57sEyAnjW6y" resolve="Square" />
    <node concept="9aQIb" id="57sEyAnm1SH" role="13RCb5">
      <node concept="3clFbS" id="57sEyAnm1SJ" role="9aQI4">
        <node concept="3cpWs8" id="57sEyAnm1SS" role="3cqZAp">
          <node concept="3cpWsn" id="57sEyAnm1ST" role="3cpWs9">
            <property role="TrG5h" value="graphics" />
            <node concept="3uibUv" id="57sEyAnm1SU" role="1tU5fm">
              <ref role="3uigEE" to="z60i:~Graphics" resolve="Graphics" />
            </node>
            <node concept="10Nm6u" id="57sEyAnm1Tp" role="33vP2m" />
          </node>
        </node>
        <node concept="9aQIb" id="57sEyAnm1Wf" role="3cqZAp">
          <node concept="3clFbS" id="57sEyAnm1Wg" role="9aQI4">
            <node concept="3clFbF" id="57sEyAnm1Wh" role="3cqZAp">
              <node concept="2OqwBi" id="57sEyAnm1Wi" role="3clFbG">
                <node concept="37vLTw" id="57sEyAnm1Wj" role="2Oq$k0">
                  <ref role="3cqZAo" node="57sEyAnm1ST" resolve="graphics" />
                </node>
                <node concept="liA8E" id="57sEyAnm1Wk" role="2OqNvi">
                  <ref role="37wK5l" to="z60i:~Graphics.setColor(java.awt.Color):void" resolve="setColor" />
                  <node concept="10M0yZ" id="57sEyAnnK8j" role="37wK5m">
                    <ref role="1PxDUh" to="z60i:~Color" resolve="Color" />
                    <ref role="3cqZAo" to="z60i:~Color.red" resolve="red" />
                    <node concept="1ZhdrF" id="5faVZ5JFf4e" role="lGtFl">
                      <property role="2qtEX8" value="variableDeclaration" />
                      <property role="P3scX" value="f3061a53-9226-4cc5-a443-f952ceaf5816/1068498886296/1068581517664" />
                      <node concept="3$xsQk" id="5faVZ5JFf4h" role="3$ytzL">
                        <node concept="3clFbS" id="5faVZ5JFf4i" role="2VODD2">
                          <node concept="3clFbF" id="5faVZ5JFf4o" role="3cqZAp">
                            <node concept="2OqwBi" id="5faVZ5JFfjn" role="3clFbG">
                              <node concept="2OqwBi" id="5faVZ5JFf4j" role="2Oq$k0">
                                <node concept="3TrEf2" id="5faVZ5JFf4m" role="2OqNvi">
                                  <ref role="3Tt5mk" to="lpry:3CF0obv99ac" />
                                </node>
                                <node concept="30H73N" id="5faVZ5JFf4n" role="2Oq$k0" />
                              </node>
                              <node concept="3TrEf2" id="5faVZ5JFfrq" role="2OqNvi">
                                <ref role="3Tt5mk" to="lpry:3CF0obv8waq" />
                              </node>
                            </node>
                          </node>
                        </node>
                      </node>
                    </node>
                  </node>
                </node>
              </node>
            </node>
            <node concept="3clFbF" id="57sEyAnm1Wu" role="3cqZAp">
              <node concept="2OqwBi" id="57sEyAnm1Wv" role="3clFbG">
                <node concept="37vLTw" id="57sEyAnm1Ww" role="2Oq$k0">
                  <ref role="3cqZAo" node="57sEyAnm1ST" resolve="graphics" />
                </node>
                <node concept="liA8E" id="57sEyAnm2Kz" role="2OqNvi">
                  <ref role="37wK5l" to="z60i:~Graphics.drawRect(int,int,int,int):void" resolve="drawRect" />
                  <node concept="3cmrfG" id="57sEyAnm2L5" role="37wK5m">
                    <property role="3cmrfH" value="10" />
                    <node concept="17Uvod" id="57sEyAnm2TE" role="lGtFl">
                      <property role="2qtEX9" value="value" />
                      <property role="P4ACc" value="f3061a53-9226-4cc5-a443-f952ceaf5816/1068580320020/1068580320021" />
                      <node concept="3zFVjK" id="57sEyAnm2TH" role="3zH0cK">
                        <node concept="3clFbS" id="57sEyAnm2TI" role="2VODD2">
                          <node concept="3clFbF" id="57sEyAnm2TO" role="3cqZAp">
                            <node concept="2OqwBi" id="57sEyAnm2TJ" role="3clFbG">
                              <node concept="3TrcHB" id="57sEyAnm2TM" role="2OqNvi">
                                <ref role="3TsBF5" to="lpry:57sEyAnjW6z" resolve="upperLeftX" />
                              </node>
                              <node concept="30H73N" id="57sEyAnm2TN" role="2Oq$k0" />
                            </node>
                          </node>
                        </node>
                      </node>
                    </node>
                  </node>
                  <node concept="3cmrfG" id="57sEyAnm2Nh" role="37wK5m">
                    <property role="3cmrfH" value="10" />
                    <node concept="17Uvod" id="57sEyAnm3hQ" role="lGtFl">
                      <property role="2qtEX9" value="value" />
                      <property role="P4ACc" value="f3061a53-9226-4cc5-a443-f952ceaf5816/1068580320020/1068580320021" />
                      <node concept="3zFVjK" id="57sEyAnm3hT" role="3zH0cK">
                        <node concept="3clFbS" id="57sEyAnm3hU" role="2VODD2">
                          <node concept="3clFbF" id="57sEyAnm3i0" role="3cqZAp">
                            <node concept="2OqwBi" id="57sEyAnm3hV" role="3clFbG">
                              <node concept="3TrcHB" id="57sEyAnm3hY" role="2OqNvi">
                                <ref role="3TsBF5" to="lpry:57sEyAnjW6_" resolve="upperLeftY" />
                              </node>
                              <node concept="30H73N" id="57sEyAnm3hZ" role="2Oq$k0" />
                            </node>
                          </node>
                        </node>
                      </node>
                    </node>
                  </node>
                  <node concept="3cmrfG" id="57sEyAnm2PX" role="37wK5m">
                    <property role="3cmrfH" value="10" />
                    <node concept="17Uvod" id="57sEyAnm3EQ" role="lGtFl">
                      <property role="2qtEX9" value="value" />
                      <property role="P4ACc" value="f3061a53-9226-4cc5-a443-f952ceaf5816/1068580320020/1068580320021" />
                      <node concept="3zFVjK" id="57sEyAnm3ET" role="3zH0cK">
                        <node concept="3clFbS" id="57sEyAnm3EU" role="2VODD2">
                          <node concept="3clFbF" id="57sEyAnm3F0" role="3cqZAp">
                            <node concept="2OqwBi" id="57sEyAnm3EV" role="3clFbG">
                              <node concept="3TrcHB" id="57sEyAnm3EY" role="2OqNvi">
                                <ref role="3TsBF5" to="lpry:57sEyAnjW6C" resolve="size" />
                              </node>
                              <node concept="30H73N" id="57sEyAnm3EZ" role="2Oq$k0" />
                            </node>
                          </node>
                        </node>
                      </node>
                    </node>
                  </node>
                  <node concept="3cmrfG" id="57sEyAnm2Su" role="37wK5m">
                    <property role="3cmrfH" value="10" />
                    <node concept="17Uvod" id="57sEyAnm44E" role="lGtFl">
                      <property role="2qtEX9" value="value" />
                      <property role="P4ACc" value="f3061a53-9226-4cc5-a443-f952ceaf5816/1068580320020/1068580320021" />
                      <node concept="3zFVjK" id="57sEyAnm44H" role="3zH0cK">
                        <node concept="3clFbS" id="57sEyAnm44I" role="2VODD2">
                          <node concept="3clFbF" id="57sEyAnm44O" role="3cqZAp">
                            <node concept="2OqwBi" id="57sEyAnm44J" role="3clFbG">
                              <node concept="3TrcHB" id="57sEyAnm44M" role="2OqNvi">
                                <ref role="3TsBF5" to="lpry:57sEyAnjW6C" resolve="size" />
                              </node>
                              <node concept="30H73N" id="57sEyAnm44N" role="2Oq$k0" />
                            </node>
                          </node>
                        </node>
                      </node>
                    </node>
                  </node>
                </node>
              </node>
            </node>
          </node>
          <node concept="raruj" id="57sEyAnm1X3" role="lGtFl" />
        </node>
        <node concept="3clFbH" id="57sEyAnm1TE" role="3cqZAp" />
      </node>
    </node>
  </node>
</model>

