<?xml version="1.0" encoding="UTF-8"?>
<model ref="r:ab99e75d-0184-4aec-b7b1-2939b54c2f7a(testPackagedLanguage.structure)">
  <persistence version="9" />
  <languages>
    <use id="c72da2b9-7cce-4447-8389-f407dc1158b7" name="jetbrains.mps.lang.structure" version="3" />
    <use id="982eb8df-2c96-4bd7-9963-11712ea622e5" name="jetbrains.mps.lang.resources" version="2" />
    <devkit ref="fbc25dd2-5da4-483a-8b19-70928e1b62d7(jetbrains.mps.devkit.general-purpose)" />
  </languages>
  <imports>
    <import index="tpck" ref="r:00000000-0000-4000-0000-011c89590288(jetbrains.mps.lang.core.structure)" implicit="true" />
  </imports>
  <registry>
    <language id="982eb8df-2c96-4bd7-9963-11712ea622e5" name="jetbrains.mps.lang.resources">
      <concept id="8974276187400029883" name="jetbrains.mps.lang.resources.structure.FileIcon" flags="ng" index="1QGGSu">
        <property id="2756621024541341363" name="file" index="1iqoE4" />
      </concept>
    </language>
    <language id="c72da2b9-7cce-4447-8389-f407dc1158b7" name="jetbrains.mps.lang.structure">
      <concept id="1169125787135" name="jetbrains.mps.lang.structure.structure.AbstractConceptDeclaration" flags="ig" index="PkWjJ">
        <property id="6714410169261853888" name="conceptId" index="EcuMT" />
      </concept>
      <concept id="1071489090640" name="jetbrains.mps.lang.structure.structure.ConceptDeclaration" flags="ig" index="1TIwiD">
        <reference id="1071489389519" name="extends" index="1TJDcQ" />
        <child id="6327362524875300597" name="icon" index="rwd14" />
      </concept>
    </language>
    <language id="ceab5195-25ea-4f22-9b92-103b95ca8c0c" name="jetbrains.mps.lang.core">
      <concept id="1169194658468" name="jetbrains.mps.lang.core.structure.INamedConcept" flags="ng" index="TrEIO">
        <property id="1169194664001" name="name" index="TrG5h" />
      </concept>
    </language>
  </registry>
  <node concept="1TIwiD" id="605L0w15dkf">
    <property role="TrG5h" value="TestConcept" />
    <property role="EcuMT" value="6919151941181560079" />
    <ref role="1TJDcQ" to="tpck:gw2VY9q" resolve="BaseConcept" />
    <node concept="1QGGSu" id="4Q8sAA5iKgz" role="rwd14">
      <property role="1iqoE4" value="${module}/icons/icon.png" />
    </node>
  </node>
</model>

