<?xml version="1.0" encoding="UTF-8"?>
<model ref="r:c1c38648-eb71-424b-8ade-f463a1eb273d(testCustomAnalyzer.structure)">
  <persistence version="9" />
  <languages>
    <use id="c72da2b9-7cce-4447-8389-f407dc1158b7" name="jetbrains.mps.lang.structure" version="3" />
    <use id="982eb8df-2c96-4bd7-9963-11712ea622e5" name="jetbrains.mps.lang.resources" version="2" />
    <devkit ref="fbc25dd2-5da4-483a-8b19-70928e1b62d7(jetbrains.mps.devkit.general-purpose)" />
  </languages>
  <imports>
    <import index="tpck" ref="r:00000000-0000-4000-0000-011c89590288(jetbrains.mps.lang.core.structure)" implicit="true" />
  </imports>
  <registry>
    <language id="c72da2b9-7cce-4447-8389-f407dc1158b7" name="jetbrains.mps.lang.structure">
      <concept id="1169125787135" name="jetbrains.mps.lang.structure.structure.AbstractConceptDeclaration" flags="ig" index="PkWjJ">
        <property id="6714410169261853888" name="conceptId" index="EcuMT" />
        <child id="1071489727083" name="linkDeclaration" index="1TKVEi" />
        <child id="1071489727084" name="propertyDeclaration" index="1TKVEl" />
      </concept>
      <concept id="1071489090640" name="jetbrains.mps.lang.structure.structure.ConceptDeclaration" flags="ig" index="1TIwiD">
        <property id="1096454100552" name="rootable" index="19KtqR" />
        <reference id="1071489389519" name="extends" index="1TJDcQ" />
      </concept>
      <concept id="1071489288299" name="jetbrains.mps.lang.structure.structure.PropertyDeclaration" flags="ig" index="1TJgyi">
        <property id="241647608299431129" name="propertyId" index="IQ2nx" />
        <reference id="1082985295845" name="dataType" index="AX2Wp" />
      </concept>
      <concept id="1071489288298" name="jetbrains.mps.lang.structure.structure.LinkDeclaration" flags="ig" index="1TJgyj">
        <property id="1071599776563" name="role" index="20kJfa" />
        <property id="1071599893252" name="sourceCardinality" index="20lbJX" />
        <property id="1071599937831" name="metaClass" index="20lmBu" />
        <property id="241647608299431140" name="linkId" index="IQ2ns" />
        <reference id="1071599976176" name="target" index="20lvS9" />
      </concept>
    </language>
    <language id="ceab5195-25ea-4f22-9b92-103b95ca8c0c" name="jetbrains.mps.lang.core">
      <concept id="1169194658468" name="jetbrains.mps.lang.core.structure.INamedConcept" flags="ng" index="TrEIO">
        <property id="1169194664001" name="name" index="TrG5h" />
      </concept>
    </language>
  </registry>
  <node concept="1TIwiD" id="7ez5JvPhCVk">
    <property role="TrG5h" value="Root" />
    <property role="19KtqR" value="true" />
    <property role="EcuMT" value="8332528989793324756" />
    <ref role="1TJDcQ" to="tpck:gw2VY9q" resolve="BaseConcept" />
    <node concept="1TJgyj" id="7ez5JvPhCVm" role="1TKVEi">
      <property role="20lmBu" value="aggregation" />
      <property role="20kJfa" value="child" />
      <property role="20lbJX" value="0..n" />
      <property role="IQ2ns" value="8332528989793324758" />
      <ref role="20lvS9" node="7ez5JvPhCVl" resolve="Child" />
    </node>
    <node concept="1TJgyi" id="7ez5JvPicsX" role="1TKVEl">
      <property role="TrG5h" value="maxChildCount" />
      <property role="IQ2nx" value="8332528989793470269" />
      <ref role="AX2Wp" to="tpck:fKAQMTA" resolve="integer" />
    </node>
    <node concept="1TJgyi" id="7ez5JvPict2" role="1TKVEl">
      <property role="TrG5h" value="initialCounter" />
      <property role="IQ2nx" value="8332528989793470274" />
      <ref role="AX2Wp" to="tpck:fKAQMTA" resolve="integer" />
    </node>
  </node>
  <node concept="1TIwiD" id="7ez5JvPhCVl">
    <property role="TrG5h" value="Child" />
    <property role="EcuMT" value="8332528989793324757" />
    <ref role="1TJDcQ" to="tpck:gw2VY9q" resolve="BaseConcept" />
  </node>
  <node concept="1TIwiD" id="68XlVg40dqU">
    <property role="EcuMT" value="7078910619969181370" />
    <property role="TrG5h" value="OtherRoot" />
    <property role="19KtqR" value="true" />
    <ref role="1TJDcQ" to="tpck:gw2VY9q" resolve="BaseConcept" />
    <node concept="1TJgyj" id="68XlVg40dqX" role="1TKVEi">
      <property role="IQ2ns" value="7078910619969181373" />
      <property role="20lmBu" value="aggregation" />
      <property role="20kJfa" value="child" />
      <property role="20lbJX" value="0..n" />
      <ref role="20lvS9" node="68XlVg40dqV" resolve="OtherChild" />
    </node>
  </node>
  <node concept="1TIwiD" id="68XlVg40dqV">
    <property role="EcuMT" value="7078910619969181371" />
    <property role="TrG5h" value="OtherChild" />
    <ref role="1TJDcQ" to="tpck:gw2VY9q" resolve="BaseConcept" />
    <node concept="1TJgyj" id="68XlVg40drU" role="1TKVEi">
      <property role="IQ2ns" value="7078910619969181434" />
      <property role="20lmBu" value="aggregation" />
      <property role="20kJfa" value="child" />
      <ref role="20lvS9" node="68XlVg40dqW" resolve="OtherSubChild" />
    </node>
  </node>
  <node concept="1TIwiD" id="68XlVg40dqW">
    <property role="EcuMT" value="7078910619969181372" />
    <property role="TrG5h" value="OtherSubChild" />
    <ref role="1TJDcQ" to="tpck:gw2VY9q" resolve="BaseConcept" />
  </node>
</model>

