<?xml version="1.0" encoding="UTF-8"?>
<model ref="r:254a17e7-db47-47cc-b375-32516d9c95d0(jetbrains.mps.testbench.suite.generator.template.main@generator)">
  <persistence version="9" />
  <languages>
    <use id="b401a680-8325-4110-8fd3-84331ff25bef" name="jetbrains.mps.lang.generator" version="0" />
    <use id="d7706f63-9be2-479c-a3da-ae92af1e64d5" name="jetbrains.mps.lang.generator.generationContext" version="0" />
    <devkit ref="fbc25dd2-5da4-483a-8b19-70928e1b62d7(jetbrains.mps.devkit.general-purpose)" />
  </languages>
  <imports>
    <import index="pop3" ref="r:c8b27be8-26f9-4593-9ae5-f70dd005d131(jetbrains.mps.testbench.suite.structure)" />
    <import index="2t25" ref="920eaa0e-ecca-46bc-bee7-4e5c59213dd6/java:jetbrains.mps.testbench.junit.runners(Testbench/)" />
    <import index="5rc7" ref="r:2f48a1e0-29c6-465b-b158-4cba88c0e4a6(jetbrains.mps.testbench.suite.behavior)" />
    <import index="oh7r" ref="r:eea68efb-2953-43f4-848f-9829ac5c7101(jetbrains.mps.testbench.junit.runners)" />
    <import index="18ew" ref="6ed54515-acc8-4d1e-a16c-9fd6cfe951ea/java:jetbrains.mps.util(MPS.Core/)" />
    <import index="w0gx" ref="6ed54515-acc8-4d1e-a16c-9fd6cfe951ea/java:jetbrains.mps.project.structure.modules(MPS.Core/)" />
    <import index="cvlm" ref="83f155ff-422c-4b5a-a2f2-b459302dd215/java:org.junit.runner(jetbrains.mps.baseLanguage.unitTest.libs/)" />
    <import index="wyt6" ref="6354ebe7-c22a-4a0f-ac54-50b52ab9b065/java:java.lang(JDK/)" implicit="true" />
    <import index="tpck" ref="r:00000000-0000-4000-0000-011c89590288(jetbrains.mps.lang.core.structure)" implicit="true" />
  </imports>
  <registry>
    <language id="f3061a53-9226-4cc5-a443-f952ceaf5816" name="jetbrains.mps.baseLanguage">
      <concept id="1202948039474" name="jetbrains.mps.baseLanguage.structure.InstanceMethodCallOperation" flags="nn" index="liA8E" />
      <concept id="1188207840427" name="jetbrains.mps.baseLanguage.structure.AnnotationInstance" flags="nn" index="2AHcQZ">
        <reference id="1188208074048" name="annotation" index="2AI5Lk" />
        <child id="1188214630783" name="value" index="2B76xF" />
      </concept>
      <concept id="1188208481402" name="jetbrains.mps.baseLanguage.structure.HasAnnotation" flags="ng" index="2AJDlI">
        <child id="1188208488637" name="annotation" index="2AJF6D" />
      </concept>
      <concept id="1188214545140" name="jetbrains.mps.baseLanguage.structure.AnnotationInstanceValue" flags="ng" index="2B6LJw">
        <reference id="1188214555875" name="key" index="2B6OnR" />
        <child id="1188214607812" name="value" index="2B70Vg" />
      </concept>
      <concept id="1188220165133" name="jetbrains.mps.baseLanguage.structure.ArrayLiteral" flags="nn" index="2BsdOp">
        <child id="1188220173759" name="item" index="2BsfMF" />
      </concept>
      <concept id="1197027756228" name="jetbrains.mps.baseLanguage.structure.DotExpression" flags="nn" index="2OqwBi">
        <child id="1197027771414" name="operand" index="2Oq$k0" />
        <child id="1197027833540" name="operation" index="2OqNvi" />
      </concept>
      <concept id="1137021947720" name="jetbrains.mps.baseLanguage.structure.ConceptFunction" flags="in" index="2VMwT0">
        <child id="1137022507850" name="body" index="2VODD2" />
      </concept>
      <concept id="1070475926800" name="jetbrains.mps.baseLanguage.structure.StringLiteral" flags="nn" index="Xl_RD">
        <property id="1070475926801" name="value" index="Xl_RC" />
      </concept>
      <concept id="1081236700937" name="jetbrains.mps.baseLanguage.structure.StaticMethodCall" flags="nn" index="2YIFZM">
        <reference id="1144433194310" name="classConcept" index="1Pybhc" />
      </concept>
      <concept id="1068390468198" name="jetbrains.mps.baseLanguage.structure.ClassConcept" flags="ig" index="312cEu" />
      <concept id="1068431474542" name="jetbrains.mps.baseLanguage.structure.VariableDeclaration" flags="ng" index="33uBYm">
        <child id="1068431790190" name="initializer" index="33vP2m" />
      </concept>
      <concept id="1068498886296" name="jetbrains.mps.baseLanguage.structure.VariableReference" flags="nn" index="37vLTw">
        <reference id="1068581517664" name="variableDeclaration" index="3cqZAo" />
      </concept>
      <concept id="1225271177708" name="jetbrains.mps.baseLanguage.structure.StringType" flags="in" index="17QB3L" />
      <concept id="1225271369338" name="jetbrains.mps.baseLanguage.structure.IsEmptyOperation" flags="nn" index="17RlXB" />
      <concept id="4972933694980447171" name="jetbrains.mps.baseLanguage.structure.BaseVariableDeclaration" flags="ng" index="19Szcq">
        <child id="5680397130376446158" name="type" index="1tU5fm" />
      </concept>
      <concept id="1068580123132" name="jetbrains.mps.baseLanguage.structure.BaseMethodDeclaration" flags="ng" index="3clF44">
        <child id="1068580123133" name="returnType" index="3clF45" />
        <child id="1068580123135" name="body" index="3clF47" />
      </concept>
      <concept id="1068580123155" name="jetbrains.mps.baseLanguage.structure.ExpressionStatement" flags="nn" index="3clFbF">
        <child id="1068580123156" name="expression" index="3clFbG" />
      </concept>
      <concept id="1068580123159" name="jetbrains.mps.baseLanguage.structure.IfStatement" flags="nn" index="3clFbJ">
        <child id="1068580123160" name="condition" index="3clFbw" />
        <child id="1068580123161" name="ifTrue" index="3clFbx" />
      </concept>
      <concept id="1068580123136" name="jetbrains.mps.baseLanguage.structure.StatementList" flags="sn" stub="5293379017992965193" index="3clFbS">
        <child id="1068581517665" name="statement" index="3cqZAp" />
      </concept>
      <concept id="1068580123140" name="jetbrains.mps.baseLanguage.structure.ConstructorDeclaration" flags="ig" index="3clFbW" />
      <concept id="1068581242875" name="jetbrains.mps.baseLanguage.structure.PlusExpression" flags="nn" index="3cpWs3" />
      <concept id="1068581242878" name="jetbrains.mps.baseLanguage.structure.ReturnStatement" flags="nn" index="3cpWs6">
        <child id="1068581517676" name="expression" index="3cqZAk" />
      </concept>
      <concept id="1068581242864" name="jetbrains.mps.baseLanguage.structure.LocalVariableDeclarationStatement" flags="nn" index="3cpWs8">
        <child id="1068581242865" name="localVariableDeclaration" index="3cpWs9" />
      </concept>
      <concept id="1068581242863" name="jetbrains.mps.baseLanguage.structure.LocalVariableDeclaration" flags="nr" index="3cpWsn" />
      <concept id="1068581517677" name="jetbrains.mps.baseLanguage.structure.VoidType" flags="in" index="3cqZAl" />
      <concept id="1204053956946" name="jetbrains.mps.baseLanguage.structure.IMethodCall" flags="ng" index="1ndlxa">
        <reference id="1068499141037" name="baseMethodDeclaration" index="37wK5l" />
        <child id="1068499141038" name="actualArgument" index="37wK5m" />
      </concept>
      <concept id="1107461130800" name="jetbrains.mps.baseLanguage.structure.Classifier" flags="ng" index="3pOWGL">
        <child id="5375687026011219971" name="member" index="jymVt" unordered="true" />
      </concept>
      <concept id="1081773326031" name="jetbrains.mps.baseLanguage.structure.BinaryOperation" flags="nn" index="3uHJSO">
        <child id="1081773367579" name="rightExpression" index="3uHU7w" />
        <child id="1081773367580" name="leftExpression" index="3uHU7B" />
      </concept>
      <concept id="1178549954367" name="jetbrains.mps.baseLanguage.structure.IVisible" flags="ng" index="1B3ioH">
        <child id="1178549979242" name="visibility" index="1B3o_S" />
      </concept>
      <concept id="2580416627845338977" name="jetbrains.mps.baseLanguage.structure.ImplicitAnnotationInstanceValue" flags="ng" index="1SXeKx" />
      <concept id="1146644602865" name="jetbrains.mps.baseLanguage.structure.PublicVisibility" flags="nn" index="3Tm1VV" />
      <concept id="1116615150612" name="jetbrains.mps.baseLanguage.structure.ClassifierClassExpression" flags="nn" index="3VsKOn">
        <reference id="1116615189566" name="classifier" index="3VsUkX" />
      </concept>
    </language>
    <language id="b401a680-8325-4110-8fd3-84331ff25bef" name="jetbrains.mps.lang.generator">
      <concept id="1095416546421" name="jetbrains.mps.lang.generator.structure.MappingConfiguration" flags="ig" index="bUwia">
        <child id="1167514678247" name="rootMappingRule" index="3lj3bC" />
      </concept>
      <concept id="1168619357332" name="jetbrains.mps.lang.generator.structure.RootTemplateAnnotation" flags="lg" index="n94m4">
        <reference id="1168619429071" name="applicableConcept" index="n9lRv" />
      </concept>
      <concept id="1167169188348" name="jetbrains.mps.lang.generator.structure.TemplateFunctionParameter_sourceNode" flags="nn" index="30H73N" />
      <concept id="1167169308231" name="jetbrains.mps.lang.generator.structure.BaseMappingRule" flags="ng" index="30H$t8">
        <reference id="1167169349424" name="applicableConcept" index="30HIoZ" />
      </concept>
      <concept id="1087833241328" name="jetbrains.mps.lang.generator.structure.PropertyMacro" flags="ln" index="17Uvod">
        <child id="1167756362303" name="propertyValueFunction" index="3zH0cK" />
      </concept>
      <concept id="1167514355419" name="jetbrains.mps.lang.generator.structure.Root_MappingRule" flags="lg" index="3lhOvk">
        <reference id="1167514355421" name="template" index="3lhOvi" />
      </concept>
      <concept id="1167756080639" name="jetbrains.mps.lang.generator.structure.PropertyMacro_GetPropertyValue" flags="in" index="3zFVjK" />
      <concept id="1167756221419" name="jetbrains.mps.lang.generator.structure.TemplateFunctionParameter_templatePropertyValue" flags="nn" index="3zGtF$" />
      <concept id="1167951910403" name="jetbrains.mps.lang.generator.structure.SourceSubstituteMacro_SourceNodesQuery" flags="in" index="3JmXsc" />
      <concept id="1118786554307" name="jetbrains.mps.lang.generator.structure.LoopMacro" flags="ln" index="1WS0z7">
        <child id="1167952069335" name="sourceNodesQuery" index="3Jn$fo" />
      </concept>
    </language>
    <language id="d7706f63-9be2-479c-a3da-ae92af1e64d5" name="jetbrains.mps.lang.generator.generationContext">
      <concept id="1217960179967" name="jetbrains.mps.lang.generator.generationContext.structure.GenerationContextOp_ShowErrorMessage" flags="nn" index="2k5nB$" />
      <concept id="1217960314443" name="jetbrains.mps.lang.generator.generationContext.structure.GenerationContextOp_ShowMessageBase" flags="nn" index="2k5Stg">
        <child id="1217960314448" name="messageText" index="2k5Stb" />
        <child id="1217960407512" name="referenceNode" index="2k6f33" />
      </concept>
      <concept id="1217969995796" name="jetbrains.mps.lang.generator.generationContext.structure.GenerationContextOp_ShowWarningMessage" flags="nn" index="2kEO4f" />
      <concept id="1216860049635" name="jetbrains.mps.lang.generator.generationContext.structure.TemplateFunctionParameter_generationContext" flags="nn" index="1iwH7S" />
    </language>
    <language id="7866978e-a0f0-4cc7-81bc-4d213d9375e1" name="jetbrains.mps.lang.smodel">
      <concept id="1179409122411" name="jetbrains.mps.lang.smodel.structure.Node_ConceptMethodCall" flags="nn" index="2qgKlT" />
      <concept id="1138056022639" name="jetbrains.mps.lang.smodel.structure.SPropertyAccess" flags="nn" index="3TrcHB">
        <reference id="1138056395725" name="property" index="3TsBF5" />
      </concept>
      <concept id="1138056143562" name="jetbrains.mps.lang.smodel.structure.SLinkAccess" flags="nn" index="3TrEf2">
        <reference id="1138056516764" name="link" index="3Tt5mk" />
      </concept>
    </language>
    <language id="ceab5195-25ea-4f22-9b92-103b95ca8c0c" name="jetbrains.mps.lang.core">
      <concept id="1133920641626" name="jetbrains.mps.lang.core.structure.BaseConcept" flags="ng" index="2VYdi">
        <child id="5169995583184591170" name="smodelAttribute" index="lGtFl" />
      </concept>
      <concept id="3364660638048049750" name="jetbrains.mps.lang.core.structure.PropertyAttribute" flags="ng" index="A9Btg">
        <property id="1757699476691236117" name="propertyName" index="2qtEX9" />
        <property id="1341860900487648621" name="propertyId" index="P4ACc" />
      </concept>
      <concept id="1169194658468" name="jetbrains.mps.lang.core.structure.INamedConcept" flags="ng" index="TrEIO">
        <property id="1169194664001" name="name" index="TrG5h" />
      </concept>
    </language>
    <language id="83888646-71ce-4f1c-9c53-c54016f6ad4f" name="jetbrains.mps.baseLanguage.collections">
      <concept id="1240687580870" name="jetbrains.mps.baseLanguage.collections.structure.JoinOperation" flags="nn" index="3uJxvA">
        <child id="1240687658305" name="delimiter" index="3uJOhx" />
      </concept>
    </language>
  </registry>
  <node concept="bUwia" id="7_HHDT1d4Hz">
    <property role="TrG5h" value="main" />
    <node concept="3lhOvk" id="2$98zG5lmH5" role="3lj3bC">
      <ref role="30HIoZ" to="pop3:3U1VhSFTRMP" resolve="ModuleSuite" />
      <ref role="3lhOvi" node="7_HHDT1d4HC" resolve="TestModule" />
    </node>
  </node>
  <node concept="312cEu" id="7_HHDT1d4HC">
    <property role="TrG5h" value="TestModule" />
    <node concept="3Tm1VV" id="7_HHDT1d4HD" role="1B3o_S" />
    <node concept="n94m4" id="7_HHDT1d4HI" role="lGtFl">
      <ref role="n9lRv" to="pop3:3U1VhSFTRMP" resolve="ModuleSuite" />
    </node>
    <node concept="2AHcQZ" id="2$98zG5lhgn" role="2AJF6D">
      <ref role="2AI5Lk" to="oh7r:TwRk$DMAa9" resolve="ModuleSymbolicSuite.ModuleClassSymbols" />
      <node concept="2B6LJw" id="2$98zG5lsTB" role="2B76xF">
        <ref role="2B6OnR" to="oh7r:TwRk$DMAac" resolve="classes" />
        <node concept="2BsdOp" id="2$98zG5lsTF" role="2B70Vg">
          <node concept="Xl_RD" id="2$98zG5lsTH" role="2BsfMF">
            <property role="Xl_RC" value="" />
            <node concept="1WS0z7" id="2$98zG5lsTI" role="lGtFl">
              <node concept="3JmXsc" id="2$98zG5lsTJ" role="3Jn$fo">
                <node concept="3clFbS" id="2$98zG5lsTK" role="2VODD2">
                  <node concept="3clFbF" id="2$98zG5lsTL" role="3cqZAp">
                    <node concept="2OqwBi" id="2$98zG5lsTM" role="3clFbG">
                      <node concept="2qgKlT" id="7tF7F0nXuPy" role="2OqNvi">
                        <ref role="37wK5l" to="5rc7:7tF7F0nXrAX" resolve="getNotMutedTests" />
                      </node>
                      <node concept="30H73N" id="2$98zG5lsTO" role="2Oq$k0" />
                    </node>
                  </node>
                </node>
              </node>
            </node>
            <node concept="17Uvod" id="2$98zG5lsTP" role="lGtFl">
              <property role="2qtEX9" value="value" />
              <property role="P4ACc" value="f3061a53-9226-4cc5-a443-f952ceaf5816/1070475926800/1070475926801" />
              <node concept="3zFVjK" id="2$98zG5lsTQ" role="3zH0cK">
                <node concept="3clFbS" id="2$98zG5lsTR" role="2VODD2">
                  <node concept="3cpWs8" id="2m_lP2P5V0Z" role="3cqZAp">
                    <node concept="3cpWsn" id="2m_lP2P5V10" role="3cpWs9">
                      <property role="TrG5h" value="fqn" />
                      <node concept="17QB3L" id="2m_lP2P5V11" role="1tU5fm" />
                      <node concept="2OqwBi" id="2m_lP2P5V12" role="33vP2m">
                        <node concept="30H73N" id="2m_lP2P5V13" role="2Oq$k0" />
                        <node concept="2qgKlT" id="2m_lP2P5V14" role="2OqNvi">
                          <ref role="37wK5l" to="5rc7:2$98zG5liRT" resolve="fqClassName" />
                        </node>
                      </node>
                    </node>
                  </node>
                  <node concept="3clFbJ" id="2m_lP2P5V17" role="3cqZAp">
                    <node concept="3clFbS" id="2m_lP2P5V18" role="3clFbx">
                      <node concept="3clFbF" id="2m_lP2P5V1t" role="3cqZAp">
                        <node concept="2OqwBi" id="2m_lP2P5V1v" role="3clFbG">
                          <node concept="1iwH7S" id="2m_lP2P5V1u" role="2Oq$k0" />
                          <node concept="2k5nB$" id="2m_lP2P5V1z" role="2OqNvi">
                            <node concept="Xl_RD" id="2m_lP2P5V1_" role="2k5Stb">
                              <property role="Xl_RC" value="no class name" />
                            </node>
                            <node concept="30H73N" id="2m_lP2P5V1A" role="2k6f33" />
                          </node>
                        </node>
                      </node>
                      <node concept="3cpWs6" id="2m_lP2P5V1H" role="3cqZAp">
                        <node concept="Xl_RD" id="2m_lP2P5V1J" role="3cqZAk">
                          <property role="Xl_RC" value="NO CLASS NAME" />
                        </node>
                      </node>
                    </node>
                    <node concept="2OqwBi" id="2m_lP2P5V2e" role="3clFbw">
                      <node concept="37vLTw" id="3GM_nagTB8z" role="2Oq$k0">
                        <ref role="3cqZAo" node="2m_lP2P5V10" resolve="fqn" />
                      </node>
                      <node concept="17RlXB" id="2m_lP2P5V2i" role="2OqNvi" />
                    </node>
                  </node>
                  <node concept="3clFbF" id="2m_lP2P5V1E" role="3cqZAp">
                    <node concept="37vLTw" id="3GM_nagTvBO" role="3clFbG">
                      <ref role="3cqZAo" node="2m_lP2P5V10" resolve="fqn" />
                    </node>
                  </node>
                </node>
              </node>
            </node>
          </node>
        </node>
      </node>
      <node concept="2B6LJw" id="3z1mdFUFMmF" role="2B76xF">
        <ref role="2B6OnR" to="oh7r:3z1mdFUFMmy" resolve="tests" />
        <node concept="2BsdOp" id="3z1mdFUFMmI" role="2B70Vg">
          <node concept="Xl_RD" id="3z1mdFUFMmJ" role="2BsfMF">
            <property role="Xl_RC" value="" />
            <node concept="1WS0z7" id="3z1mdFUFMmK" role="lGtFl">
              <node concept="3JmXsc" id="3z1mdFUFMmL" role="3Jn$fo">
                <node concept="3clFbS" id="3z1mdFUFMmM" role="2VODD2">
                  <node concept="3clFbF" id="3z1mdFUFMmN" role="3cqZAp">
                    <node concept="2OqwBi" id="3z1mdFUFMmO" role="3clFbG">
                      <node concept="2qgKlT" id="7tF7F0nXuP_" role="2OqNvi">
                        <ref role="37wK5l" to="5rc7:7tF7F0nXrAX" resolve="getNotMutedTests" />
                      </node>
                      <node concept="30H73N" id="3z1mdFUFMmQ" role="2Oq$k0" />
                    </node>
                  </node>
                </node>
              </node>
            </node>
            <node concept="17Uvod" id="3z1mdFUFMmR" role="lGtFl">
              <property role="2qtEX9" value="value" />
              <property role="P4ACc" value="f3061a53-9226-4cc5-a443-f952ceaf5816/1070475926800/1070475926801" />
              <node concept="3zFVjK" id="3z1mdFUFMmS" role="3zH0cK">
                <node concept="3clFbS" id="3z1mdFUFMmT" role="2VODD2">
                  <node concept="3cpWs8" id="2m_lP2P5V1K" role="3cqZAp">
                    <node concept="3cpWsn" id="2m_lP2P5V1L" role="3cpWs9">
                      <property role="TrG5h" value="tns" />
                      <node concept="17QB3L" id="2m_lP2P5V1M" role="1tU5fm" />
                      <node concept="2OqwBi" id="2m_lP2P5V1N" role="33vP2m">
                        <node concept="2OqwBi" id="2m_lP2P5V1O" role="2Oq$k0">
                          <node concept="30H73N" id="2m_lP2P5V1P" role="2Oq$k0" />
                          <node concept="2qgKlT" id="2m_lP2P5V1Q" role="2OqNvi">
                            <ref role="37wK5l" to="5rc7:3z1mdFUF$j3" resolve="testNames" />
                          </node>
                        </node>
                        <node concept="3uJxvA" id="2m_lP2P5V1R" role="2OqNvi">
                          <node concept="Xl_RD" id="2m_lP2P5V1S" role="3uJOhx">
                            <property role="Xl_RC" value="," />
                          </node>
                        </node>
                      </node>
                    </node>
                  </node>
                  <node concept="3clFbJ" id="2m_lP2P5V1V" role="3cqZAp">
                    <node concept="3clFbS" id="2m_lP2P5V1W" role="3clFbx">
                      <node concept="3clFbF" id="2m_lP2P5V2o" role="3cqZAp">
                        <node concept="2OqwBi" id="2m_lP2P5V2q" role="3clFbG">
                          <node concept="1iwH7S" id="2m_lP2P5V2p" role="2Oq$k0" />
                          <node concept="2kEO4f" id="2m_lP2P5V2u" role="2OqNvi">
                            <node concept="Xl_RD" id="2m_lP2P5V2w" role="2k5Stb">
                              <property role="Xl_RC" value="empty test case" />
                            </node>
                            <node concept="30H73N" id="2m_lP2P5V2x" role="2k6f33" />
                          </node>
                        </node>
                      </node>
                    </node>
                    <node concept="2OqwBi" id="2m_lP2P5V2j" role="3clFbw">
                      <node concept="37vLTw" id="3GM_nagTAuG" role="2Oq$k0">
                        <ref role="3cqZAo" node="2m_lP2P5V1L" resolve="tns" />
                      </node>
                      <node concept="17RlXB" id="2m_lP2P5V2n" role="2OqNvi" />
                    </node>
                  </node>
                  <node concept="3clFbF" id="2m_lP2P5V2$" role="3cqZAp">
                    <node concept="37vLTw" id="3GM_nagTyJc" role="3clFbG">
                      <ref role="3cqZAo" node="2m_lP2P5V1L" resolve="tns" />
                    </node>
                  </node>
                </node>
              </node>
            </node>
          </node>
        </node>
      </node>
    </node>
    <node concept="2AHcQZ" id="3z1mdFUF$hl" role="2AJF6D">
      <ref role="2AI5Lk" to="2t25:~ModuleSymbolicSuite$ModuleReference" resolve="ModuleSymbolicSuite.ModuleReference" />
      <node concept="1SXeKx" id="3z1mdFUF$hn" role="2B76xF">
        <ref role="2B6OnR" to="2t25:~ModuleSymbolicSuite$ModuleReference.value()" resolve="value" />
        <node concept="Xl_RD" id="3z1mdFUF$ho" role="2B70Vg">
          <property role="Xl_RC" value="" />
          <node concept="17Uvod" id="3z1mdFUF$hp" role="lGtFl">
            <property role="2qtEX9" value="value" />
            <property role="P4ACc" value="f3061a53-9226-4cc5-a443-f952ceaf5816/1070475926800/1070475926801" />
            <node concept="3zFVjK" id="3z1mdFUF$hq" role="3zH0cK">
              <node concept="3clFbS" id="3z1mdFUF$hr" role="2VODD2">
                <node concept="3clFbF" id="3z1mdFUF$hs" role="3cqZAp">
                  <node concept="2OqwBi" id="3z1mdFUF$hC" role="3clFbG">
                    <node concept="2OqwBi" id="3z1mdFUF$hz" role="2Oq$k0">
                      <node concept="2OqwBi" id="3z1mdFUF$hu" role="2Oq$k0">
                        <node concept="30H73N" id="3z1mdFUF$ht" role="2Oq$k0" />
                        <node concept="3TrEf2" id="3z1mdFUF$hy" role="2OqNvi">
                          <ref role="3Tt5mk" to="pop3:173Z5qAOsM8" />
                        </node>
                      </node>
                      <node concept="2qgKlT" id="3z1mdFUF$hB" role="2OqNvi">
                        <ref role="37wK5l" to="5rc7:173Z5qAOun8" resolve="moduleReference" />
                      </node>
                    </node>
                    <node concept="liA8E" id="3z1mdFUF$hG" role="2OqNvi">
                      <ref role="37wK5l" to="wyt6:~Object.toString():java.lang.String" resolve="toString" />
                    </node>
                  </node>
                </node>
              </node>
            </node>
          </node>
        </node>
      </node>
    </node>
    <node concept="2AHcQZ" id="2$98zG5lgbT" role="2AJF6D">
      <ref role="2AI5Lk" to="cvlm:~RunWith" resolve="RunWith" />
      <node concept="1SXeKx" id="2$98zG5lhcf" role="2B76xF">
        <ref role="2B6OnR" to="cvlm:~RunWith.value()" resolve="value" />
        <node concept="3VsKOn" id="3z1mdFUF$hk" role="2B70Vg">
          <ref role="3VsUkX" to="2t25:~ModuleSymbolicSuite" resolve="ModuleSymbolicSuite" />
        </node>
      </node>
    </node>
    <node concept="17Uvod" id="2$98zG5lmFP" role="lGtFl">
      <property role="2qtEX9" value="name" />
      <property role="P4ACc" value="ceab5195-25ea-4f22-9b92-103b95ca8c0c/1169194658468/1169194664001" />
      <node concept="3zFVjK" id="2$98zG5lmFQ" role="3zH0cK">
        <node concept="3clFbS" id="2$98zG5lmFR" role="2VODD2">
          <node concept="3clFbF" id="2$98zG5lmFT" role="3cqZAp">
            <node concept="3cpWs3" id="2$98zG5lmFZ" role="3clFbG">
              <node concept="2YIFZM" id="2$98zG5lmG3" role="3uHU7w">
                <ref role="37wK5l" to="18ew:~NameUtil.toValidIdentifier(java.lang.String):java.lang.String" resolve="toValidIdentifier" />
                <ref role="1Pybhc" to="18ew:~NameUtil" resolve="NameUtil" />
                <node concept="2OqwBi" id="2$98zG5lmG5" role="37wK5m">
                  <node concept="30H73N" id="2$98zG5lmG4" role="2Oq$k0" />
                  <node concept="3TrcHB" id="2$98zG5lmG9" role="2OqNvi">
                    <ref role="3TsBF5" to="tpck:h0TrG11" resolve="name" />
                  </node>
                </node>
              </node>
              <node concept="3cpWs3" id="2$98zG5lmFV" role="3uHU7B">
                <node concept="3zGtF$" id="2$98zG5lmFU" role="3uHU7B" />
                <node concept="Xl_RD" id="2$98zG5lmFY" role="3uHU7w">
                  <property role="Xl_RC" value="_" />
                </node>
              </node>
            </node>
          </node>
        </node>
      </node>
    </node>
    <node concept="3clFbW" id="7_HHDT1d4HE" role="jymVt">
      <node concept="3cqZAl" id="7_HHDT1d4HF" role="3clF45" />
      <node concept="3Tm1VV" id="7_HHDT1d4HG" role="1B3o_S" />
      <node concept="3clFbS" id="7_HHDT1d4HH" role="3clF47" />
    </node>
  </node>
</model>

