<?xml version="1.0" encoding="UTF-8"?>
<model ref="r:3b7ed80f-6cfd-45bc-b051-2f66c620dd27(jetbrains.mps.lang.traceable.structure)">
  <persistence version="9" />
  <languages>
    <use id="c72da2b9-7cce-4447-8389-f407dc1158b7" name="jetbrains.mps.lang.structure" version="3" />
    <use id="982eb8df-2c96-4bd7-9963-11712ea622e5" name="jetbrains.mps.lang.resources" version="2" />
  </languages>
  <imports />
  <registry>
    <language id="c72da2b9-7cce-4447-8389-f407dc1158b7" name="jetbrains.mps.lang.structure">
      <concept id="1169125787135" name="jetbrains.mps.lang.structure.structure.AbstractConceptDeclaration" flags="ig" index="PkWjJ">
        <property id="6714410169261853888" name="conceptId" index="EcuMT" />
      </concept>
      <concept id="1169125989551" name="jetbrains.mps.lang.structure.structure.InterfaceConceptDeclaration" flags="ig" index="PlHQZ" />
    </language>
    <language id="ceab5195-25ea-4f22-9b92-103b95ca8c0c" name="jetbrains.mps.lang.core">
      <concept id="1133920641626" name="jetbrains.mps.lang.core.structure.BaseConcept" flags="ng" index="2VYdi">
        <property id="1193676396447" name="virtualPackage" index="3GE5qa" />
      </concept>
      <concept id="1169194658468" name="jetbrains.mps.lang.core.structure.INamedConcept" flags="ng" index="TrEIO">
        <property id="1169194664001" name="name" index="TrG5h" />
      </concept>
    </language>
  </registry>
  <node concept="PlHQZ" id="4pl5GY7LKmy">
    <property role="TrG5h" value="ScopeConcept" />
    <property role="3GE5qa" value="traceInfo" />
    <property role="EcuMT" value="5067982036267369890" />
  </node>
  <node concept="PlHQZ" id="4pl5GY7LKmz">
    <property role="TrG5h" value="TraceableConcept" />
    <property role="3GE5qa" value="traceInfo" />
    <property role="EcuMT" value="5067982036267369891" />
  </node>
  <node concept="PlHQZ" id="4pl5GY7LKm$">
    <property role="TrG5h" value="UnitConcept" />
    <property role="3GE5qa" value="traceInfo" />
    <property role="EcuMT" value="5067982036267369892" />
  </node>
</model>

