<?xml version="1.0" encoding="UTF-8"?>
<model ref="r:f452be5e-b693-4373-bee9-3f7a3df5e603(testPrimitiveType.structure)">
  <persistence version="9" />
  <languages>
    <use id="c72da2b9-7cce-4447-8389-f407dc1158b7" name="jetbrains.mps.lang.structure" version="3" />
    <use id="982eb8df-2c96-4bd7-9963-11712ea622e5" name="jetbrains.mps.lang.resources" version="2" />
    <devkit ref="fbc25dd2-5da4-483a-8b19-70928e1b62d7(jetbrains.mps.devkit.general-purpose)" />
  </languages>
  <imports>
    <import index="tpee" ref="r:00000000-0000-4000-0000-011c895902ca(jetbrains.mps.baseLanguage.structure)" implicit="true" />
    <import index="tpck" ref="r:00000000-0000-4000-0000-011c89590288(jetbrains.mps.lang.core.structure)" implicit="true" />
  </imports>
  <registry>
    <language id="c72da2b9-7cce-4447-8389-f407dc1158b7" name="jetbrains.mps.lang.structure">
      <concept id="1169125787135" name="jetbrains.mps.lang.structure.structure.AbstractConceptDeclaration" flags="ig" index="PkWjJ">
        <property id="6714410169261853888" name="conceptId" index="EcuMT" />
        <property id="5092175715804935370" name="conceptAlias" index="34LRSv" />
        <child id="1071489727084" name="propertyDeclaration" index="1TKVEl" />
      </concept>
      <concept id="1071489090640" name="jetbrains.mps.lang.structure.structure.ConceptDeclaration" flags="ig" index="1TIwiD">
        <reference id="1071489389519" name="extends" index="1TJDcQ" />
      </concept>
      <concept id="1071489288299" name="jetbrains.mps.lang.structure.structure.PropertyDeclaration" flags="ig" index="1TJgyi">
        <property id="241647608299431129" name="propertyId" index="IQ2nx" />
        <reference id="1082985295845" name="dataType" index="AX2Wp" />
      </concept>
    </language>
    <language id="ceab5195-25ea-4f22-9b92-103b95ca8c0c" name="jetbrains.mps.lang.core">
      <concept id="1169194658468" name="jetbrains.mps.lang.core.structure.INamedConcept" flags="ng" index="TrEIO">
        <property id="1169194664001" name="name" index="TrG5h" />
      </concept>
    </language>
  </registry>
  <node concept="1TIwiD" id="Bcyb5kDkPG">
    <property role="TrG5h" value="TypeWithProperties" />
    <property role="34LRSv" value="type_with_properties" />
    <property role="EcuMT" value="706089536801033580" />
    <ref role="1TJDcQ" to="tpee:fz3vP1H" resolve="Type" />
    <node concept="1TJgyi" id="Bcyb5kDlqy" role="1TKVEl">
      <property role="TrG5h" value="str" />
      <property role="IQ2nx" value="706089536801035938" />
      <ref role="AX2Wp" to="tpck:fKAOsGN" resolve="string" />
    </node>
    <node concept="1TJgyi" id="Bcyb5kDlqC" role="1TKVEl">
      <property role="TrG5h" value="num" />
      <property role="IQ2nx" value="706089536801035944" />
      <ref role="AX2Wp" to="tpck:fKAQMTA" resolve="integer" />
    </node>
    <node concept="1TJgyi" id="Bcyb5kDlqF" role="1TKVEl">
      <property role="TrG5h" value="bool" />
      <property role="IQ2nx" value="706089536801035947" />
      <ref role="AX2Wp" to="tpck:fKAQMTB" resolve="boolean" />
    </node>
  </node>
</model>

