<?xml version="1.0" encoding="UTF-8"?>
<model ref="r:41fb14d2-a085-41df-8256-2db786d90029(jetbrains.mps.lang.generator.generationParameters.structure)">
  <persistence version="9" />
  <languages>
    <use id="c72da2b9-7cce-4447-8389-f407dc1158b7" name="jetbrains.mps.lang.structure" version="3" />
    <use id="982eb8df-2c96-4bd7-9963-11712ea622e5" name="jetbrains.mps.lang.resources" version="2" />
  </languages>
  <imports>
    <import index="tpf8" ref="r:00000000-0000-4000-0000-011c895902e8(jetbrains.mps.lang.generator.structure)" />
    <import index="tpck" ref="r:00000000-0000-4000-0000-011c89590288(jetbrains.mps.lang.core.structure)" implicit="true" />
    <import index="tpee" ref="r:00000000-0000-4000-0000-011c895902ca(jetbrains.mps.baseLanguage.structure)" implicit="true" />
  </imports>
  <registry>
    <language id="982eb8df-2c96-4bd7-9963-11712ea622e5" name="jetbrains.mps.lang.resources">
      <concept id="8974276187400029883" name="jetbrains.mps.lang.resources.structure.FileIcon" flags="ng" index="1QGGSu">
        <property id="2756621024541341363" name="file" index="1iqoE4" />
      </concept>
    </language>
    <language id="c72da2b9-7cce-4447-8389-f407dc1158b7" name="jetbrains.mps.lang.structure">
      <concept id="1169125787135" name="jetbrains.mps.lang.structure.structure.AbstractConceptDeclaration" flags="ig" index="PkWjJ">
        <property id="6714410169261853888" name="conceptId" index="EcuMT" />
        <property id="4628067390765907488" name="conceptShortDescription" index="R4oN_" />
        <property id="4628067390765956807" name="final" index="R5$K2" />
        <property id="4628067390765956802" name="abstract" index="R5$K7" />
        <property id="5092175715804935370" name="conceptAlias" index="34LRSv" />
        <child id="1071489727083" name="linkDeclaration" index="1TKVEi" />
      </concept>
      <concept id="1169127622168" name="jetbrains.mps.lang.structure.structure.InterfaceConceptReference" flags="ig" index="PrWs8">
        <reference id="1169127628841" name="intfc" index="PrY4T" />
      </concept>
      <concept id="1071489090640" name="jetbrains.mps.lang.structure.structure.ConceptDeclaration" flags="ig" index="1TIwiD">
        <property id="5404671619616246344" name="staticScope" index="2_RsDV" />
        <property id="1096454100552" name="rootable" index="19KtqR" />
        <reference id="1071489389519" name="extends" index="1TJDcQ" />
        <child id="6327362524875300597" name="icon" index="rwd14" />
        <child id="1169129564478" name="implements" index="PzmwI" />
      </concept>
      <concept id="1071489288298" name="jetbrains.mps.lang.structure.structure.LinkDeclaration" flags="ig" index="1TJgyj">
        <property id="1071599776563" name="role" index="20kJfa" />
        <property id="1071599893252" name="sourceCardinality" index="20lbJX" />
        <property id="1071599937831" name="metaClass" index="20lmBu" />
        <property id="241647608299431140" name="linkId" index="IQ2ns" />
        <reference id="1071599976176" name="target" index="20lvS9" />
      </concept>
    </language>
    <language id="ceab5195-25ea-4f22-9b92-103b95ca8c0c" name="jetbrains.mps.lang.core">
      <concept id="1133920641626" name="jetbrains.mps.lang.core.structure.BaseConcept" flags="ng" index="2VYdi">
        <property id="1193676396447" name="virtualPackage" index="3GE5qa" />
      </concept>
      <concept id="1169194658468" name="jetbrains.mps.lang.core.structure.INamedConcept" flags="ng" index="TrEIO">
        <property id="1169194664001" name="name" index="TrG5h" />
      </concept>
    </language>
  </registry>
  <node concept="1TIwiD" id="7mYJ4gC7JEO">
    <property role="R5$K7" value="false" />
    <property role="R5$K2" value="false" />
    <property role="R4oN_" value="generation parameter" />
    <property role="TrG5h" value="DefaultGeneratorParameter" />
    <property role="3GE5qa" value="parameter" />
    <property role="EcuMT" value="8484425748929510068" />
    <ref role="1TJDcQ" to="tpck:gw2VY9q" resolve="BaseConcept" />
    <node concept="PrWs8" id="7mYJ4gC7JEP" role="PzmwI">
      <ref role="PrY4T" to="tpf8:$79JWCe2bk" resolve="IGeneratorParameter" />
    </node>
    <node concept="PrWs8" id="7mYJ4gC7JEQ" role="PzmwI">
      <ref role="PrY4T" to="tpck:h0TrEE$" resolve="INamedConcept" />
    </node>
  </node>
  <node concept="1TIwiD" id="7mYJ4gC7JES">
    <property role="R5$K7" value="false" />
    <property role="19KtqR" value="true" />
    <property role="R5$K2" value="false" />
    <property role="TrG5h" value="DefaultGeneratorParameterContainer" />
    <property role="3GE5qa" value="parameter" />
    <property role="34LRSv" value="generator parameters" />
    <property role="EcuMT" value="8484425748929510072" />
    <ref role="1TJDcQ" to="tpck:gw2VY9q" resolve="BaseConcept" />
    <node concept="1TJgyj" id="7mYJ4gC7JET" role="1TKVEi">
      <property role="20lmBu" value="aggregation" />
      <property role="20kJfa" value="parameters" />
      <property role="20lbJX" value="0..n" />
      <property role="IQ2ns" value="8484425748929510073" />
      <ref role="20lvS9" node="7mYJ4gC7JEO" resolve="DefaultGeneratorParameter" />
    </node>
    <node concept="PrWs8" id="7mYJ4gC7JEU" role="PzmwI">
      <ref role="PrY4T" to="tpck:h0TrEE$" resolve="INamedConcept" />
    </node>
    <node concept="1QGGSu" id="4Q8sAA5iKgH" role="rwd14">
      <property role="1iqoE4" value="${module}/icons/parameters.png" />
    </node>
  </node>
  <node concept="1TIwiD" id="2E6akI4$s1W">
    <property role="R5$K7" value="false" />
    <property role="R5$K2" value="false" />
    <property role="TrG5h" value="DefaultGenerationParameterId" />
    <property role="2_RsDV" value="none" />
    <property role="3GE5qa" value="parameter" />
    <property role="34LRSv" value="genParameter&lt;..&gt;" />
    <property role="EcuMT" value="3064182000795631740" />
    <ref role="1TJDcQ" to="tpee:fz3vP1J" resolve="Expression" />
    <node concept="1TJgyj" id="2E6akI4$s32" role="1TKVEi">
      <property role="20lmBu" value="reference" />
      <property role="20kJfa" value="container" />
      <property role="20lbJX" value="1" />
      <property role="IQ2ns" value="3064182000795631810" />
      <ref role="20lvS9" node="7mYJ4gC7JES" resolve="DefaultGeneratorParameterContainer" />
    </node>
    <node concept="1TJgyj" id="2E6akI4$s33" role="1TKVEi">
      <property role="20lmBu" value="reference" />
      <property role="20kJfa" value="parameter" />
      <property role="20lbJX" value="1" />
      <property role="IQ2ns" value="3064182000795631811" />
      <ref role="20lvS9" node="7mYJ4gC7JEO" resolve="DefaultGeneratorParameter" />
    </node>
  </node>
</model>

