<?xml version="1.0" encoding="UTF-8"?>
<model ref="r:00000000-0000-4000-0000-011c8959033f(jetbrains.mps.lang.pattern.behavior)">
  <persistence version="9" />
  <languages>
    <use id="83888646-71ce-4f1c-9c53-c54016f6ad4f" name="jetbrains.mps.baseLanguage.collections" version="0" />
    <use id="af65afd8-f0dd-4942-87d9-63a55f2a9db1" name="jetbrains.mps.lang.behavior" version="0" />
    <use id="7866978e-a0f0-4cc7-81bc-4d213d9375e1" name="jetbrains.mps.lang.smodel" version="4" />
    <use id="f3061a53-9226-4cc5-a443-f952ceaf5816" name="jetbrains.mps.baseLanguage" version="4" />
  </languages>
  <imports>
    <import index="tp3t" ref="r:00000000-0000-4000-0000-011c89590345(jetbrains.mps.lang.pattern.structure)" />
    <import index="tpee" ref="r:00000000-0000-4000-0000-011c895902ca(jetbrains.mps.baseLanguage.structure)" />
    <import index="33ny" ref="6354ebe7-c22a-4a0f-ac54-50b52ab9b065/java:java.util(JDK/)" />
    <import index="wyt6" ref="6354ebe7-c22a-4a0f-ac54-50b52ab9b065/java:java.lang(JDK/)" />
    <import index="mhbf" ref="8865b7a8-5271-43d3-884c-6fd1d9cfdd34/java:org.jetbrains.mps.openapi.model(MPS.OpenAPI/)" />
    <import index="tpck" ref="r:00000000-0000-4000-0000-011c89590288(jetbrains.mps.lang.core.structure)" />
    <import index="tp3r" ref="r:00000000-0000-4000-0000-011c8959034b(jetbrains.mps.lang.quotation.structure)" implicit="true" />
  </imports>
  <registry>
    <language id="af65afd8-f0dd-4942-87d9-63a55f2a9db1" name="jetbrains.mps.lang.behavior">
      <concept id="1225194240794" name="jetbrains.mps.lang.behavior.structure.ConceptBehavior" flags="ng" index="13h7C7">
        <reference id="1225194240799" name="concept" index="13h7C2" />
        <child id="1225194240805" name="method" index="13h7CS" />
        <child id="1225194240801" name="constructor" index="13h7CW" />
      </concept>
      <concept id="1225194413805" name="jetbrains.mps.lang.behavior.structure.ConceptConstructorDeclaration" flags="in" index="13hLZK" />
      <concept id="1225194472830" name="jetbrains.mps.lang.behavior.structure.ConceptMethodDeclaration" flags="ng" index="13i0hz" />
      <concept id="1225194691553" name="jetbrains.mps.lang.behavior.structure.ThisNodeExpression" flags="nn" index="13iPFW" />
    </language>
    <language id="f3061a53-9226-4cc5-a443-f952ceaf5816" name="jetbrains.mps.baseLanguage">
      <concept id="1202948039474" name="jetbrains.mps.baseLanguage.structure.InstanceMethodCallOperation" flags="nn" index="liA8E" />
      <concept id="1154032098014" name="jetbrains.mps.baseLanguage.structure.AbstractLoopStatement" flags="nn" index="2LF5Ji">
        <child id="1154032183016" name="body" index="2LFqv$" />
      </concept>
      <concept id="1197027756228" name="jetbrains.mps.baseLanguage.structure.DotExpression" flags="nn" index="2OqwBi">
        <child id="1197027771414" name="operand" index="2Oq$k0" />
        <child id="1197027833540" name="operation" index="2OqNvi" />
      </concept>
      <concept id="1145552977093" name="jetbrains.mps.baseLanguage.structure.GenericNewExpression" flags="nn" index="2ShNRf">
        <child id="1145553007750" name="creator" index="2ShVmc" />
      </concept>
      <concept id="1137021947720" name="jetbrains.mps.baseLanguage.structure.ConceptFunction" flags="in" index="2VMwT0">
        <child id="1137022507850" name="body" index="2VODD2" />
      </concept>
      <concept id="1070475926800" name="jetbrains.mps.baseLanguage.structure.StringLiteral" flags="nn" index="Xl_RD">
        <property id="1070475926801" name="value" index="Xl_RC" />
      </concept>
      <concept id="1081236700938" name="jetbrains.mps.baseLanguage.structure.StaticMethodDeclaration" flags="ig" index="2YIFZL" />
      <concept id="1070534058343" name="jetbrains.mps.baseLanguage.structure.NullLiteral" flags="nn" index="10Nm6u" />
      <concept id="1070534644030" name="jetbrains.mps.baseLanguage.structure.BooleanType" flags="in" index="10P_77" />
      <concept id="1068390468198" name="jetbrains.mps.baseLanguage.structure.ClassConcept" flags="ig" index="312cEu" />
      <concept id="1068431474542" name="jetbrains.mps.baseLanguage.structure.VariableDeclaration" flags="ng" index="33uBYm">
        <child id="1068431790190" name="initializer" index="33vP2m" />
      </concept>
      <concept id="1068498886296" name="jetbrains.mps.baseLanguage.structure.VariableReference" flags="nn" index="37vLTw">
        <reference id="1068581517664" name="variableDeclaration" index="3cqZAo" />
      </concept>
      <concept id="1068498886292" name="jetbrains.mps.baseLanguage.structure.ParameterDeclaration" flags="ir" index="37vLTG" />
      <concept id="1225271177708" name="jetbrains.mps.baseLanguage.structure.StringType" flags="in" index="17QB3L" />
      <concept id="4972933694980447171" name="jetbrains.mps.baseLanguage.structure.BaseVariableDeclaration" flags="ng" index="19Szcq">
        <child id="5680397130376446158" name="type" index="1tU5fm" />
      </concept>
      <concept id="1068580123132" name="jetbrains.mps.baseLanguage.structure.BaseMethodDeclaration" flags="ng" index="3clF44">
        <child id="1068580123133" name="returnType" index="3clF45" />
        <child id="1068580123134" name="parameter" index="3clF46" />
        <child id="1068580123135" name="body" index="3clF47" />
      </concept>
      <concept id="1068580123155" name="jetbrains.mps.baseLanguage.structure.ExpressionStatement" flags="nn" index="3clFbF">
        <child id="1068580123156" name="expression" index="3clFbG" />
      </concept>
      <concept id="1068580123159" name="jetbrains.mps.baseLanguage.structure.IfStatement" flags="nn" index="3clFbJ">
        <child id="1068580123160" name="condition" index="3clFbw" />
        <child id="1068580123161" name="ifTrue" index="3clFbx" />
      </concept>
      <concept id="1068580123136" name="jetbrains.mps.baseLanguage.structure.StatementList" flags="sn" stub="5293379017992965193" index="3clFbS">
        <child id="1068581517665" name="statement" index="3cqZAp" />
      </concept>
      <concept id="1068580123137" name="jetbrains.mps.baseLanguage.structure.BooleanConstant" flags="nn" index="3clFbT">
        <property id="1068580123138" name="value" index="3clFbU" />
      </concept>
      <concept id="1068580123140" name="jetbrains.mps.baseLanguage.structure.ConstructorDeclaration" flags="ig" index="3clFbW" />
      <concept id="1068581242875" name="jetbrains.mps.baseLanguage.structure.PlusExpression" flags="nn" index="3cpWs3" />
      <concept id="1068581242878" name="jetbrains.mps.baseLanguage.structure.ReturnStatement" flags="nn" index="3cpWs6">
        <child id="1068581517676" name="expression" index="3cqZAk" />
      </concept>
      <concept id="1068581242864" name="jetbrains.mps.baseLanguage.structure.LocalVariableDeclarationStatement" flags="nn" index="3cpWs8">
        <child id="1068581242865" name="localVariableDeclaration" index="3cpWs9" />
      </concept>
      <concept id="1068581242863" name="jetbrains.mps.baseLanguage.structure.LocalVariableDeclaration" flags="nr" index="3cpWsn" />
      <concept id="1068581517677" name="jetbrains.mps.baseLanguage.structure.VoidType" flags="in" index="3cqZAl" />
      <concept id="1079359253375" name="jetbrains.mps.baseLanguage.structure.ParenthesizedExpression" flags="nn" index="1eOMI4">
        <child id="1079359253376" name="expression" index="1eOMHV" />
      </concept>
      <concept id="1081516740877" name="jetbrains.mps.baseLanguage.structure.NotExpression" flags="nn" index="3fqX7Q">
        <child id="1081516765348" name="expression" index="3fr31v" />
      </concept>
      <concept id="1204053956946" name="jetbrains.mps.baseLanguage.structure.IMethodCall" flags="ng" index="1ndlxa">
        <reference id="1068499141037" name="baseMethodDeclaration" index="37wK5l" />
        <child id="1068499141038" name="actualArgument" index="37wK5m" />
      </concept>
      <concept id="1212685548494" name="jetbrains.mps.baseLanguage.structure.ClassCreator" flags="nn" index="1pGfFk">
        <child id="1212687122400" name="typeParameter" index="1pMfVU" />
      </concept>
      <concept id="1107461130800" name="jetbrains.mps.baseLanguage.structure.Classifier" flags="ng" index="3pOWGL">
        <child id="5375687026011219971" name="member" index="jymVt" unordered="true" />
      </concept>
      <concept id="1107535904670" name="jetbrains.mps.baseLanguage.structure.ClassifierType" flags="in" index="3uibUv">
        <reference id="1107535924139" name="classifier" index="3uigEE" />
        <child id="1109201940907" name="parameter" index="11_B2D" />
      </concept>
      <concept id="1081773326031" name="jetbrains.mps.baseLanguage.structure.BinaryOperation" flags="nn" index="3uHJSO">
        <child id="1081773367579" name="rightExpression" index="3uHU7w" />
        <child id="1081773367580" name="leftExpression" index="3uHU7B" />
      </concept>
      <concept id="1073239437375" name="jetbrains.mps.baseLanguage.structure.NotEqualsExpression" flags="nn" index="3y3z36" />
      <concept id="1178549954367" name="jetbrains.mps.baseLanguage.structure.IVisible" flags="ng" index="1B3ioH">
        <child id="1178549979242" name="visibility" index="1B3o_S" />
      </concept>
      <concept id="1144226303539" name="jetbrains.mps.baseLanguage.structure.ForeachStatement" flags="nn" index="1DcWWT">
        <child id="1144226360166" name="iterable" index="1DdaDG" />
      </concept>
      <concept id="1144230876926" name="jetbrains.mps.baseLanguage.structure.AbstractForStatement" flags="nn" index="1DupvO">
        <child id="1144230900587" name="variable" index="1Duv9x" />
      </concept>
      <concept id="1163668896201" name="jetbrains.mps.baseLanguage.structure.TernaryOperatorExpression" flags="nn" index="3K4zz7">
        <child id="1163668914799" name="condition" index="3K4Cdx" />
        <child id="1163668922816" name="ifTrue" index="3K4E3e" />
        <child id="1163668934364" name="ifFalse" index="3K4GZi" />
      </concept>
      <concept id="6329021646629104957" name="jetbrains.mps.baseLanguage.structure.TextCommentPart" flags="nn" index="3SKdUq">
        <property id="6329021646629104958" name="text" index="3SKdUp" />
      </concept>
      <concept id="6329021646629104954" name="jetbrains.mps.baseLanguage.structure.SingleLineComment" flags="nn" index="3SKdUt">
        <child id="6329021646629175155" name="commentPart" index="3SKWNk" />
      </concept>
      <concept id="1146644602865" name="jetbrains.mps.baseLanguage.structure.PublicVisibility" flags="nn" index="3Tm1VV" />
      <concept id="1080120340718" name="jetbrains.mps.baseLanguage.structure.AndExpression" flags="nn" index="1Wc70l" />
    </language>
    <language id="7866978e-a0f0-4cc7-81bc-4d213d9375e1" name="jetbrains.mps.lang.smodel">
      <concept id="1177026924588" name="jetbrains.mps.lang.smodel.structure.RefConcept_Reference" flags="nn" index="chp4Y">
        <reference id="1177026940964" name="conceptDeclaration" index="cht4Q" />
      </concept>
      <concept id="1138411891628" name="jetbrains.mps.lang.smodel.structure.SNodeOperation" flags="nn" index="eCIE_">
        <child id="1144104376918" name="parameter" index="1xVPHs" />
      </concept>
      <concept id="1179409122411" name="jetbrains.mps.lang.smodel.structure.Node_ConceptMethodCall" flags="nn" index="2qgKlT" />
      <concept id="7453996997717780434" name="jetbrains.mps.lang.smodel.structure.Node_GetSConceptOperation" flags="nn" index="2yIwOk" />
      <concept id="2396822768958367367" name="jetbrains.mps.lang.smodel.structure.AbstractTypeCastExpression" flags="nn" index="$5XWr">
        <reference id="6733348108486823428" name="concept" index="1m5ApE" />
        <child id="6733348108486823193" name="leftExpression" index="1m5AlR" />
      </concept>
      <concept id="1145383075378" name="jetbrains.mps.lang.smodel.structure.SNodeListType" flags="in" index="2I9FWS">
        <reference id="1145383142433" name="elementConcept" index="2I9WkF" />
      </concept>
      <concept id="1171305280644" name="jetbrains.mps.lang.smodel.structure.Node_GetDescendantsOperation" flags="nn" index="2Rf3mk" />
      <concept id="1145567426890" name="jetbrains.mps.lang.smodel.structure.SNodeListCreator" flags="nn" index="2T8Vx0">
        <child id="1145567471833" name="createdType" index="2T96Bj" />
      </concept>
      <concept id="6677504323281689838" name="jetbrains.mps.lang.smodel.structure.SConceptType" flags="in" index="3bZ5Sz" />
      <concept id="1139613262185" name="jetbrains.mps.lang.smodel.structure.Node_GetParentOperation" flags="nn" index="1mfA1w" />
      <concept id="1139621453865" name="jetbrains.mps.lang.smodel.structure.Node_IsInstanceOfOperation" flags="nn" index="1mIQ4w">
        <child id="1177027386292" name="conceptArgument" index="cj9EA" />
      </concept>
      <concept id="1144101972840" name="jetbrains.mps.lang.smodel.structure.OperationParm_Concept" flags="ng" index="1xMEDy">
        <child id="1207343664468" name="conceptArgument" index="ri$Ld" />
      </concept>
      <concept id="1219352745532" name="jetbrains.mps.lang.smodel.structure.NodeRefExpression" flags="nn" index="3B5_sB">
        <reference id="1219352800908" name="referentNode" index="3B5MYn" />
      </concept>
      <concept id="1140137987495" name="jetbrains.mps.lang.smodel.structure.SNodeTypeCastExpression" flags="nn" index="1PxgMI" />
      <concept id="1138055754698" name="jetbrains.mps.lang.smodel.structure.SNodeType" flags="in" index="3Tqbb2">
        <reference id="1138405853777" name="concept" index="ehGHo" />
      </concept>
      <concept id="1138056022639" name="jetbrains.mps.lang.smodel.structure.SPropertyAccess" flags="nn" index="3TrcHB">
        <reference id="1138056395725" name="property" index="3TsBF5" />
      </concept>
      <concept id="1138056143562" name="jetbrains.mps.lang.smodel.structure.SLinkAccess" flags="nn" index="3TrEf2">
        <reference id="1138056516764" name="link" index="3Tt5mk" />
      </concept>
      <concept id="1138056282393" name="jetbrains.mps.lang.smodel.structure.SLinkListAccess" flags="nn" index="3Tsc0h">
        <reference id="1138056546658" name="link" index="3TtcxE" />
      </concept>
    </language>
    <language id="ceab5195-25ea-4f22-9b92-103b95ca8c0c" name="jetbrains.mps.lang.core">
      <concept id="1133920641626" name="jetbrains.mps.lang.core.structure.BaseConcept" flags="ng" index="2VYdi">
        <child id="5169995583184591170" name="smodelAttribute" index="lGtFl" />
      </concept>
      <concept id="1169194658468" name="jetbrains.mps.lang.core.structure.INamedConcept" flags="ng" index="TrEIO">
        <property id="1169194664001" name="name" index="TrG5h" />
      </concept>
      <concept id="709746936026466394" name="jetbrains.mps.lang.core.structure.ChildAttribute" flags="ng" index="3VBwX9">
        <property id="709746936026609031" name="linkId" index="3V$3ak" />
        <property id="709746936026609029" name="linkRole" index="3V$3am" />
      </concept>
      <concept id="4452961908202556907" name="jetbrains.mps.lang.core.structure.BaseCommentAttribute" flags="ng" index="1X3_iC">
        <child id="3078666699043039389" name="commentedNode" index="8Wnug" />
      </concept>
    </language>
    <language id="83888646-71ce-4f1c-9c53-c54016f6ad4f" name="jetbrains.mps.baseLanguage.collections">
      <concept id="540871147943773365" name="jetbrains.mps.baseLanguage.collections.structure.SingleArgumentSequenceOperation" flags="nn" index="25WWJ4">
        <child id="540871147943773366" name="argument" index="25WWJ7" />
      </concept>
      <concept id="1160612413312" name="jetbrains.mps.baseLanguage.collections.structure.AddElementOperation" flags="nn" index="TSZUe" />
      <concept id="1160666733551" name="jetbrains.mps.baseLanguage.collections.structure.AddAllElementsOperation" flags="nn" index="X8dFx" />
    </language>
  </registry>
  <node concept="13h7C7" id="hEwI2mN">
    <ref role="13h7C2" to="tp3t:gyDMOuj" resolve="PatternVariableDeclaration" />
    <node concept="13hLZK" id="hEwI2mO" role="13h7CW">
      <node concept="3clFbS" id="hEwI2mP" role="2VODD2" />
    </node>
  </node>
  <node concept="13h7C7" id="hEwIcnf">
    <ref role="13h7C2" to="tp3t:gyDMOul" resolve="PropertyPatternVariableDeclaration" />
    <node concept="13hLZK" id="hEwIcng" role="13h7CW">
      <node concept="3clFbS" id="hEwIcnh" role="2VODD2" />
    </node>
  </node>
  <node concept="13h7C7" id="hEwI_vT">
    <ref role="13h7C2" to="tp3t:gzjrplq" resolve="LinkPatternVariableDeclaration" />
    <node concept="13hLZK" id="hEwI_vU" role="13h7CW">
      <node concept="3clFbS" id="hEwI_vV" role="2VODD2" />
    </node>
  </node>
  <node concept="13h7C7" id="tFmMdBryNH">
    <ref role="13h7C2" to="tp3t:gyDMOuh" resolve="PatternExpression" />
    <node concept="13i0hz" id="4dzCQkRGUKX" role="13h7CS">
      <property role="TrG5h" value="getVariables" />
      <node concept="3Tm1VV" id="4dzCQkRGUKY" role="1B3o_S" />
      <node concept="2I9FWS" id="4dzCQkRGUL1" role="3clF45">
        <ref role="2I9WkF" to="tpck:h0TrEE$" resolve="INamedConcept" />
      </node>
      <node concept="3clFbS" id="4dzCQkRGUL0" role="3clF47">
        <node concept="3cpWs8" id="4dzCQkRGULa" role="3cqZAp">
          <node concept="3cpWsn" id="4dzCQkRGULb" role="3cpWs9">
            <property role="TrG5h" value="variables" />
            <node concept="2I9FWS" id="4dzCQkRGULc" role="1tU5fm">
              <ref role="2I9WkF" to="tpck:h0TrEE$" resolve="INamedConcept" />
            </node>
            <node concept="2ShNRf" id="4dzCQkRGULd" role="33vP2m">
              <node concept="2T8Vx0" id="4dzCQkRGULe" role="2ShVmc">
                <node concept="2I9FWS" id="4dzCQkRGULf" role="2T96Bj">
                  <ref role="2I9WkF" to="tpck:h0TrEE$" resolve="INamedConcept" />
                </node>
              </node>
            </node>
          </node>
        </node>
        <node concept="3clFbF" id="4dzCQkRGULg" role="3cqZAp">
          <node concept="2OqwBi" id="4dzCQkRGULh" role="3clFbG">
            <node concept="37vLTw" id="3GM_nagTBmu" role="2Oq$k0">
              <ref role="3cqZAo" node="4dzCQkRGULb" resolve="variables" />
            </node>
            <node concept="X8dFx" id="4dzCQkRGULj" role="2OqNvi">
              <node concept="2OqwBi" id="4dzCQkRGULk" role="25WWJ7">
                <node concept="13iPFW" id="4dzCQkRGULR" role="2Oq$k0" />
                <node concept="2Rf3mk" id="4dzCQkRGULm" role="2OqNvi">
                  <node concept="1xMEDy" id="4dzCQkRGULn" role="1xVPHs">
                    <node concept="chp4Y" id="4dzCQkRGULo" role="ri$Ld">
                      <ref role="cht4Q" to="tp3t:gyDMOuj" resolve="PatternVariableDeclaration" />
                    </node>
                  </node>
                </node>
              </node>
            </node>
          </node>
        </node>
        <node concept="3clFbF" id="4dzCQkRGULp" role="3cqZAp">
          <node concept="2OqwBi" id="4dzCQkRGULq" role="3clFbG">
            <node concept="37vLTw" id="3GM_nagTy9D" role="2Oq$k0">
              <ref role="3cqZAo" node="4dzCQkRGULb" resolve="variables" />
            </node>
            <node concept="X8dFx" id="4dzCQkRGULs" role="2OqNvi">
              <node concept="2OqwBi" id="4dzCQkRGULt" role="25WWJ7">
                <node concept="13iPFW" id="4dzCQkRGULS" role="2Oq$k0" />
                <node concept="2Rf3mk" id="4dzCQkRGULv" role="2OqNvi">
                  <node concept="1xMEDy" id="4dzCQkRGULw" role="1xVPHs">
                    <node concept="chp4Y" id="4dzCQkRGULx" role="ri$Ld">
                      <ref role="cht4Q" to="tp3t:gzjrplq" resolve="LinkPatternVariableDeclaration" />
                    </node>
                  </node>
                </node>
              </node>
            </node>
          </node>
        </node>
        <node concept="3clFbF" id="4dzCQkRGULy" role="3cqZAp">
          <node concept="2OqwBi" id="4dzCQkRGULz" role="3clFbG">
            <node concept="37vLTw" id="3GM_nagTzw$" role="2Oq$k0">
              <ref role="3cqZAo" node="4dzCQkRGULb" resolve="variables" />
            </node>
            <node concept="X8dFx" id="4dzCQkRGUL_" role="2OqNvi">
              <node concept="2OqwBi" id="4dzCQkRGULA" role="25WWJ7">
                <node concept="13iPFW" id="4dzCQkRGULT" role="2Oq$k0" />
                <node concept="2Rf3mk" id="4dzCQkRGULC" role="2OqNvi">
                  <node concept="1xMEDy" id="4dzCQkRGULD" role="1xVPHs">
                    <node concept="chp4Y" id="4dzCQkRGULE" role="ri$Ld">
                      <ref role="cht4Q" to="tp3t:gyDMOul" resolve="PropertyPatternVariableDeclaration" />
                    </node>
                  </node>
                </node>
              </node>
            </node>
          </node>
        </node>
        <node concept="1X3_iC" id="35NJMdfoMnH" role="lGtFl">
          <property role="3V$3am" value="statement" />
          <property role="3V$3ak" value="f3061a53-9226-4cc5-a443-f952ceaf5816/1068580123136/1068581517665" />
          <node concept="3clFbJ" id="29gksf3Cg4q" role="8Wnug">
            <node concept="3clFbS" id="29gksf3Cg4r" role="3clFbx">
              <node concept="3clFbF" id="29gksf3Cg4s" role="3cqZAp">
                <node concept="2OqwBi" id="29gksf3Cg4t" role="3clFbG">
                  <node concept="37vLTw" id="3GM_nagTzKK" role="2Oq$k0">
                    <ref role="3cqZAo" node="4dzCQkRGULb" resolve="variables" />
                  </node>
                  <node concept="X8dFx" id="29gksf3Cg4v" role="2OqNvi">
                    <node concept="2OqwBi" id="29gksf3Cg4w" role="25WWJ7">
                      <node concept="1PxgMI" id="29gksf3Cg4x" role="2Oq$k0">
                        <ref role="1m5ApE" to="tp3t:2vRmfyWqEE4" resolve="OrPattern" />
                        <node concept="2OqwBi" id="29gksf3Cg4y" role="1m5AlR">
                          <node concept="13iPFW" id="29gksf3Cg4z" role="2Oq$k0" />
                          <node concept="1mfA1w" id="29gksf3Cg4$" role="2OqNvi" />
                        </node>
                      </node>
                      <node concept="3Tsc0h" id="29gksf3Cg4_" role="2OqNvi">
                        <ref role="3TtcxE" to="tp3t:3GJnBG73j5Y" />
                      </node>
                    </node>
                  </node>
                </node>
              </node>
            </node>
            <node concept="2OqwBi" id="29gksf3Cg4A" role="3clFbw">
              <node concept="13iPFW" id="29gksf3Cg4B" role="2Oq$k0" />
              <node concept="1mIQ4w" id="29gksf3Cg4C" role="2OqNvi">
                <node concept="chp4Y" id="29gksf3Cg4D" role="cj9EA">
                  <ref role="cht4Q" to="tp3t:4dzCQkRGb9g" resolve="OrPatternClause" />
                </node>
              </node>
            </node>
          </node>
        </node>
        <node concept="3cpWs6" id="4dzCQkRGULP" role="3cqZAp">
          <node concept="37vLTw" id="3GM_nagTyTf" role="3cqZAk">
            <ref role="3cqZAo" node="4dzCQkRGULb" resolve="variables" />
          </node>
        </node>
      </node>
    </node>
    <node concept="13i0hz" id="4dzCQkRGULU" role="13h7CS">
      <property role="TrG5h" value="getUniqueVariables" />
      <node concept="3Tm1VV" id="4dzCQkRGULV" role="1B3o_S" />
      <node concept="2I9FWS" id="4dzCQkRGULY" role="3clF45">
        <ref role="2I9WkF" to="tpck:h0TrEE$" resolve="INamedConcept" />
      </node>
      <node concept="3clFbS" id="4dzCQkRGULX" role="3clF47">
        <node concept="3cpWs8" id="4dzCQkRGULZ" role="3cqZAp">
          <node concept="3cpWsn" id="4dzCQkRGUM0" role="3cpWs9">
            <property role="TrG5h" value="variables" />
            <node concept="2I9FWS" id="4dzCQkRGUM1" role="1tU5fm">
              <ref role="2I9WkF" to="tpck:h0TrEE$" resolve="INamedConcept" />
            </node>
            <node concept="2OqwBi" id="4dzCQkRGUM6" role="33vP2m">
              <node concept="13iPFW" id="4dzCQkRGUM7" role="2Oq$k0" />
              <node concept="2qgKlT" id="4dzCQkRGUM8" role="2OqNvi">
                <ref role="37wK5l" node="4dzCQkRGUKX" resolve="getVariables" />
              </node>
            </node>
          </node>
        </node>
        <node concept="3cpWs8" id="4dzCQkRGUMa" role="3cqZAp">
          <node concept="3cpWsn" id="4dzCQkRGUMb" role="3cpWs9">
            <property role="TrG5h" value="result" />
            <node concept="2I9FWS" id="4dzCQkRGUMc" role="1tU5fm">
              <ref role="2I9WkF" to="tpck:h0TrEE$" resolve="INamedConcept" />
            </node>
            <node concept="2ShNRf" id="4dzCQkRGUMd" role="33vP2m">
              <node concept="2T8Vx0" id="4dzCQkRGUMe" role="2ShVmc">
                <node concept="2I9FWS" id="4dzCQkRGUMf" role="2T96Bj">
                  <ref role="2I9WkF" to="tpck:h0TrEE$" resolve="INamedConcept" />
                </node>
              </node>
            </node>
          </node>
        </node>
        <node concept="3cpWs8" id="4dzCQkRGUMl" role="3cqZAp">
          <node concept="3cpWsn" id="4dzCQkRGUMm" role="3cpWs9">
            <property role="TrG5h" value="names" />
            <node concept="3uibUv" id="4dzCQkRGUMn" role="1tU5fm">
              <ref role="3uigEE" to="33ny:~Set" resolve="Set" />
              <node concept="17QB3L" id="4dzCQkRGUMp" role="11_B2D" />
            </node>
            <node concept="2ShNRf" id="4dzCQkRGUMr" role="33vP2m">
              <node concept="1pGfFk" id="4dzCQkRGUMt" role="2ShVmc">
                <ref role="37wK5l" to="33ny:~HashSet.&lt;init&gt;()" resolve="HashSet" />
                <node concept="17QB3L" id="109sjq77UOj" role="1pMfVU" />
              </node>
            </node>
          </node>
        </node>
        <node concept="1DcWWT" id="4dzCQkRGUMv" role="3cqZAp">
          <node concept="3cpWsn" id="4dzCQkRGUMw" role="1Duv9x">
            <property role="TrG5h" value="var" />
            <node concept="3Tqbb2" id="4dzCQkRGUMA" role="1tU5fm">
              <ref role="ehGHo" to="tpck:h0TrEE$" resolve="INamedConcept" />
            </node>
          </node>
          <node concept="3clFbS" id="4dzCQkRGUMx" role="2LFqv$">
            <node concept="3clFbJ" id="4dzCQkRGUMB" role="3cqZAp">
              <node concept="3clFbS" id="4dzCQkRGUMC" role="3clFbx">
                <node concept="3clFbF" id="4dzCQkRGUMT" role="3cqZAp">
                  <node concept="2OqwBi" id="4dzCQkRGUMV" role="3clFbG">
                    <node concept="37vLTw" id="3GM_nagTAl4" role="2Oq$k0">
                      <ref role="3cqZAo" node="4dzCQkRGUMb" resolve="result" />
                    </node>
                    <node concept="TSZUe" id="4dzCQkRGUMZ" role="2OqNvi">
                      <node concept="37vLTw" id="3GM_nagTxmY" role="25WWJ7">
                        <ref role="3cqZAo" node="4dzCQkRGUMw" resolve="var" />
                      </node>
                    </node>
                  </node>
                </node>
                <node concept="3clFbF" id="4dzCQkRGUN3" role="3cqZAp">
                  <node concept="2OqwBi" id="4dzCQkRGUN5" role="3clFbG">
                    <node concept="37vLTw" id="3GM_nagTBPz" role="2Oq$k0">
                      <ref role="3cqZAo" node="4dzCQkRGUMm" resolve="names" />
                    </node>
                    <node concept="liA8E" id="4dzCQkRGUN9" role="2OqNvi">
                      <ref role="37wK5l" to="33ny:~Set.add(java.lang.Object):boolean" resolve="add" />
                      <node concept="2OqwBi" id="4dzCQkRGUNb" role="37wK5m">
                        <node concept="37vLTw" id="3GM_nagTsNV" role="2Oq$k0">
                          <ref role="3cqZAo" node="4dzCQkRGUMw" resolve="var" />
                        </node>
                        <node concept="3TrcHB" id="4dzCQkRGUNf" role="2OqNvi">
                          <ref role="3TsBF5" to="tpck:h0TrG11" resolve="name" />
                        </node>
                      </node>
                    </node>
                  </node>
                </node>
              </node>
              <node concept="3fqX7Q" id="4dzCQkRGUMR" role="3clFbw">
                <node concept="2OqwBi" id="4dzCQkRGUMG" role="3fr31v">
                  <node concept="37vLTw" id="3GM_nagTu7Z" role="2Oq$k0">
                    <ref role="3cqZAo" node="4dzCQkRGUMm" resolve="names" />
                  </node>
                  <node concept="liA8E" id="4dzCQkRGUMK" role="2OqNvi">
                    <ref role="37wK5l" to="33ny:~Set.contains(java.lang.Object):boolean" resolve="contains" />
                    <node concept="2OqwBi" id="4dzCQkRGUMM" role="37wK5m">
                      <node concept="37vLTw" id="3GM_nagTri0" role="2Oq$k0">
                        <ref role="3cqZAo" node="4dzCQkRGUMw" resolve="var" />
                      </node>
                      <node concept="3TrcHB" id="4dzCQkRGUMQ" role="2OqNvi">
                        <ref role="3TsBF5" to="tpck:h0TrG11" resolve="name" />
                      </node>
                    </node>
                  </node>
                </node>
              </node>
            </node>
          </node>
          <node concept="37vLTw" id="3GM_nagTx4C" role="1DdaDG">
            <ref role="3cqZAo" node="4dzCQkRGUM0" resolve="variables" />
          </node>
        </node>
        <node concept="3clFbF" id="4dzCQkRGUMh" role="3cqZAp">
          <node concept="37vLTw" id="3GM_nagTyas" role="3clFbG">
            <ref role="3cqZAo" node="4dzCQkRGUMb" resolve="result" />
          </node>
        </node>
      </node>
    </node>
    <node concept="13i0hz" id="7c7Ta3MgIQj" role="13h7CS">
      <property role="TrG5h" value="getOwnVariables" />
      <node concept="3Tm1VV" id="7c7Ta3MgIQk" role="1B3o_S" />
      <node concept="3clFbS" id="7c7Ta3MgIQm" role="3clF47">
        <node concept="3cpWs8" id="7c7Ta3MgJsL" role="3cqZAp">
          <node concept="3cpWsn" id="7c7Ta3MgJsM" role="3cpWs9">
            <property role="TrG5h" value="variables" />
            <node concept="2I9FWS" id="7c7Ta3MgJsN" role="1tU5fm">
              <ref role="2I9WkF" to="tpck:h0TrEE$" resolve="INamedConcept" />
            </node>
            <node concept="2OqwBi" id="7c7Ta3MgJsO" role="33vP2m">
              <node concept="13iPFW" id="7c7Ta3MgJsP" role="2Oq$k0" />
              <node concept="2qgKlT" id="7c7Ta3MgJsQ" role="2OqNvi">
                <ref role="37wK5l" node="4dzCQkRGUKX" resolve="getVariables" />
              </node>
            </node>
          </node>
        </node>
        <node concept="3cpWs8" id="7c7Ta3MgS8Q" role="3cqZAp">
          <node concept="3cpWsn" id="7c7Ta3MgS8R" role="3cpWs9">
            <property role="TrG5h" value="result" />
            <node concept="2I9FWS" id="7c7Ta3MgS8S" role="1tU5fm">
              <ref role="2I9WkF" to="tpck:h0TrEE$" resolve="INamedConcept" />
            </node>
            <node concept="2ShNRf" id="7c7Ta3MgS8T" role="33vP2m">
              <node concept="2T8Vx0" id="7c7Ta3MgS8U" role="2ShVmc">
                <node concept="2I9FWS" id="7c7Ta3MgS8V" role="2T96Bj">
                  <ref role="2I9WkF" to="tpck:h0TrEE$" resolve="INamedConcept" />
                </node>
              </node>
            </node>
          </node>
        </node>
        <node concept="1DcWWT" id="7c7Ta3MgS8s" role="3cqZAp">
          <node concept="3cpWsn" id="7c7Ta3MgS8t" role="1Duv9x">
            <property role="TrG5h" value="var" />
            <node concept="3Tqbb2" id="7c7Ta3MgS8u" role="1tU5fm">
              <ref role="ehGHo" to="tpck:h0TrEE$" resolve="INamedConcept" />
            </node>
          </node>
          <node concept="3clFbS" id="7c7Ta3MgS8v" role="2LFqv$">
            <node concept="3clFbJ" id="7c7Ta3MgS8w" role="3cqZAp">
              <node concept="3clFbS" id="7c7Ta3MgS8x" role="3clFbx">
                <node concept="3clFbF" id="7c7Ta3MgS8y" role="3cqZAp">
                  <node concept="2OqwBi" id="7c7Ta3MgS8z" role="3clFbG">
                    <node concept="37vLTw" id="3GM_nagTvjn" role="2Oq$k0">
                      <ref role="3cqZAo" node="7c7Ta3MgS8R" resolve="result" />
                    </node>
                    <node concept="TSZUe" id="7c7Ta3MgS8_" role="2OqNvi">
                      <node concept="37vLTw" id="3GM_nagTtRO" role="25WWJ7">
                        <ref role="3cqZAo" node="7c7Ta3MgS8t" resolve="var" />
                      </node>
                    </node>
                  </node>
                </node>
              </node>
              <node concept="3fqX7Q" id="7c7Ta3MgTlG" role="3clFbw">
                <node concept="1eOMI4" id="3$myXoLqlzU" role="3fr31v">
                  <node concept="1Wc70l" id="7c7Ta3MgS9i" role="1eOMHV">
                    <node concept="3y3z36" id="7c7Ta3MgS9r" role="3uHU7w">
                      <node concept="13iPFW" id="7c7Ta3MgTlD" role="3uHU7w" />
                      <node concept="2OqwBi" id="7c7Ta3MgS9m" role="3uHU7B">
                        <node concept="37vLTw" id="3GM_nagTytI" role="2Oq$k0">
                          <ref role="3cqZAo" node="7c7Ta3MgS8t" resolve="var" />
                        </node>
                        <node concept="1mfA1w" id="7c7Ta3MgS9q" role="2OqNvi" />
                      </node>
                    </node>
                    <node concept="2OqwBi" id="7c7Ta3MgS9b" role="3uHU7B">
                      <node concept="2OqwBi" id="7c7Ta3MgS90" role="2Oq$k0">
                        <node concept="37vLTw" id="3GM_nagTzHn" role="2Oq$k0">
                          <ref role="3cqZAo" node="7c7Ta3MgS8t" resolve="var" />
                        </node>
                        <node concept="1mfA1w" id="7c7Ta3MgS9a" role="2OqNvi" />
                      </node>
                      <node concept="1mIQ4w" id="7c7Ta3MgS9f" role="2OqNvi">
                        <node concept="chp4Y" id="7c7Ta3MgS9h" role="cj9EA">
                          <ref role="cht4Q" to="tp3t:2vRmfyWqEE4" resolve="OrPattern" />
                        </node>
                      </node>
                    </node>
                  </node>
                </node>
              </node>
            </node>
          </node>
          <node concept="37vLTw" id="3GM_nagTswt" role="1DdaDG">
            <ref role="3cqZAo" node="7c7Ta3MgJsM" resolve="variables" />
          </node>
        </node>
        <node concept="3clFbF" id="7c7Ta3MgS8W" role="3cqZAp">
          <node concept="37vLTw" id="3GM_nagT_vU" role="3clFbG">
            <ref role="3cqZAo" node="7c7Ta3MgS8R" resolve="result" />
          </node>
        </node>
      </node>
      <node concept="2I9FWS" id="7c7Ta3MgIQn" role="3clF45">
        <ref role="2I9WkF" to="tpck:h0TrEE$" resolve="INamedConcept" />
      </node>
    </node>
    <node concept="13i0hz" id="4vXWNHn1_L$" role="13h7CS">
      <property role="TrG5h" value="getQuotedNodeConcept" />
      <node concept="3Tm1VV" id="4vXWNHn1_L_" role="1B3o_S" />
      <node concept="3bZ5Sz" id="4vXWNHn1EG4" role="3clF45" />
      <node concept="3clFbS" id="4vXWNHn1_LB" role="3clF47">
        <node concept="3SKdUt" id="4vXWNHn1G1u" role="3cqZAp">
          <node concept="3SKdUq" id="4vXWNHn1G1w" role="3SKWNk">
            <property role="3SKdUp" value="concept of the quoteed (pattern) node" />
          </node>
        </node>
        <node concept="3cpWs6" id="4vXWNHn1EG7" role="3cqZAp">
          <node concept="3K4zz7" id="4vXWNHn1F29" role="3cqZAk">
            <node concept="2OqwBi" id="4vXWNHn1FUO" role="3K4GZi">
              <node concept="2OqwBi" id="4vXWNHn1FBr" role="2Oq$k0">
                <node concept="13iPFW" id="4vXWNHn1FwG" role="2Oq$k0" />
                <node concept="3TrEf2" id="4vXWNHn1FMm" role="2OqNvi">
                  <ref role="3Tt5mk" to="tp3t:gyDMOui" />
                </node>
              </node>
              <node concept="2yIwOk" id="4vXWNHn1FYU" role="2OqNvi" />
            </node>
            <node concept="2OqwBi" id="4vXWNHn1FtI" role="3K4E3e">
              <node concept="2OqwBi" id="4vXWNHn1Fcy" role="2Oq$k0">
                <node concept="2OqwBi" id="4vXWNHn1F4Z" role="2Oq$k0">
                  <node concept="13iPFW" id="4vXWNHn1F2P" role="2Oq$k0" />
                  <node concept="3TrEf2" id="4vXWNHn1FaA" role="2OqNvi">
                    <ref role="3Tt5mk" to="tp3t:7Qbh0xggLjd" />
                  </node>
                </node>
                <node concept="3TrEf2" id="4vXWNHn1FnF" role="2OqNvi">
                  <ref role="3Tt5mk" to="tp3r:hqc44pq" />
                </node>
              </node>
              <node concept="2yIwOk" id="4vXWNHn1Fwe" role="2OqNvi" />
            </node>
            <node concept="3y3z36" id="4vXWNHn1F0u" role="3K4Cdx">
              <node concept="10Nm6u" id="4vXWNHn1F1m" role="3uHU7w" />
              <node concept="2OqwBi" id="4vXWNHn1EII" role="3uHU7B">
                <node concept="13iPFW" id="4vXWNHn1EGk" role="2Oq$k0" />
                <node concept="3TrEf2" id="4vXWNHn1ET1" role="2OqNvi">
                  <ref role="3Tt5mk" to="tp3t:7Qbh0xggLjd" />
                </node>
              </node>
            </node>
          </node>
        </node>
      </node>
    </node>
    <node concept="13i0hz" id="4dzCQkRGUNw" role="13h7CS">
      <property role="TrG5h" value="hasVariable" />
      <node concept="3Tm1VV" id="4dzCQkRGUNx" role="1B3o_S" />
      <node concept="10P_77" id="4dzCQkRGUN$" role="3clF45" />
      <node concept="3clFbS" id="4dzCQkRGUNz" role="3clF47">
        <node concept="3cpWs6" id="4dzCQkRGYNC" role="3cqZAp">
          <node concept="3clFbT" id="4dzCQkRGYNE" role="3cqZAk">
            <property role="3clFbU" value="false" />
          </node>
        </node>
      </node>
    </node>
    <node concept="13hLZK" id="tFmMdBryNI" role="13h7CW">
      <node concept="3clFbS" id="tFmMdBryNJ" role="2VODD2" />
    </node>
  </node>
  <node concept="312cEu" id="53CRRPogNTW">
    <property role="TrG5h" value="PatternVarsUtil" />
    <node concept="3Tm1VV" id="53CRRPogNTX" role="1B3o_S" />
    <node concept="3clFbW" id="53CRRPogNTY" role="jymVt">
      <node concept="3cqZAl" id="53CRRPogNTZ" role="3clF45" />
      <node concept="3Tm1VV" id="53CRRPogNU0" role="1B3o_S" />
      <node concept="3clFbS" id="53CRRPogNU1" role="3clF47" />
    </node>
    <node concept="2YIFZL" id="53CRRPogNU2" role="jymVt">
      <property role="TrG5h" value="getFieldName" />
      <node concept="17QB3L" id="53CRRPogTZP" role="3clF45" />
      <node concept="3Tm1VV" id="53CRRPogNU4" role="1B3o_S" />
      <node concept="3clFbS" id="53CRRPogNU5" role="3clF47">
        <node concept="3cpWs8" id="53CRRPogO2T" role="3cqZAp">
          <node concept="3cpWsn" id="53CRRPogO2U" role="3cpWs9">
            <property role="TrG5h" value="prefix" />
            <node concept="17QB3L" id="53CRRPogO2V" role="1tU5fm" />
            <node concept="Xl_RD" id="53CRRPogO2X" role="33vP2m">
              <property role="Xl_RC" value="patternVar_" />
            </node>
          </node>
        </node>
        <node concept="3clFbJ" id="53CRRPogO2C" role="3cqZAp">
          <node concept="2OqwBi" id="53CRRPogO2G" role="3clFbw">
            <node concept="37vLTw" id="2BHiRxghiEs" role="2Oq$k0">
              <ref role="3cqZAo" node="53CRRPogO2A" resolve="patternVar" />
            </node>
            <node concept="1mIQ4w" id="53CRRPogO2K" role="2OqNvi">
              <node concept="chp4Y" id="53CRRPogO2M" role="cj9EA">
                <ref role="cht4Q" to="tp3t:gyDMOuj" resolve="PatternVariableDeclaration" />
              </node>
            </node>
          </node>
          <node concept="3clFbS" id="53CRRPogO2E" role="3clFbx">
            <node concept="3cpWs6" id="53CRRPogO2N" role="3cqZAp">
              <node concept="3cpWs3" id="53CRRPogTZS" role="3cqZAk">
                <node concept="37vLTw" id="3GM_nagT_sG" role="3uHU7B">
                  <ref role="3cqZAo" node="53CRRPogO2U" resolve="prefix" />
                </node>
                <node concept="2OqwBi" id="53CRRPogTZV" role="3uHU7w">
                  <node concept="1PxgMI" id="53CRRPogTZW" role="2Oq$k0">
                    <ref role="1m5ApE" to="tp3t:gyDMOuj" resolve="PatternVariableDeclaration" />
                    <node concept="37vLTw" id="2BHiRxghfuI" role="1m5AlR">
                      <ref role="3cqZAo" node="53CRRPogO2A" resolve="patternVar" />
                    </node>
                  </node>
                  <node concept="3TrcHB" id="53CRRPogTZY" role="2OqNvi">
                    <ref role="3TsBF5" to="tp3t:gyDMOuk" resolve="varName" />
                  </node>
                </node>
              </node>
            </node>
          </node>
        </node>
        <node concept="3clFbJ" id="53CRRPogTgC" role="3cqZAp">
          <node concept="3clFbS" id="53CRRPogTgD" role="3clFbx">
            <node concept="3cpWs6" id="53CRRPogTgO" role="3cqZAp">
              <node concept="3cpWs3" id="53CRRPogTgR" role="3cqZAk">
                <node concept="2OqwBi" id="53CRRPogTgX" role="3uHU7w">
                  <node concept="1PxgMI" id="53CRRPogTgV" role="2Oq$k0">
                    <ref role="1m5ApE" to="tp3t:gzjrplq" resolve="LinkPatternVariableDeclaration" />
                    <node concept="37vLTw" id="2BHiRxghith" role="1m5AlR">
                      <ref role="3cqZAo" node="53CRRPogO2A" resolve="patternVar" />
                    </node>
                  </node>
                  <node concept="3TrcHB" id="53CRRPogTh1" role="2OqNvi">
                    <ref role="3TsBF5" to="tp3t:gzjrwU$" resolve="varName" />
                  </node>
                </node>
                <node concept="37vLTw" id="3GM_nagTzGL" role="3uHU7B">
                  <ref role="3cqZAo" node="53CRRPogO2U" resolve="prefix" />
                </node>
              </node>
            </node>
          </node>
          <node concept="2OqwBi" id="53CRRPogTgH" role="3clFbw">
            <node concept="37vLTw" id="2BHiRxghfA$" role="2Oq$k0">
              <ref role="3cqZAo" node="53CRRPogO2A" resolve="patternVar" />
            </node>
            <node concept="1mIQ4w" id="53CRRPogTgL" role="2OqNvi">
              <node concept="chp4Y" id="53CRRPogTgN" role="cj9EA">
                <ref role="cht4Q" to="tp3t:gzjrplq" resolve="LinkPatternVariableDeclaration" />
              </node>
            </node>
          </node>
        </node>
        <node concept="3clFbJ" id="53CRRPogTh3" role="3cqZAp">
          <node concept="3clFbS" id="53CRRPogTh4" role="3clFbx">
            <node concept="3cpWs6" id="53CRRPogThf" role="3cqZAp">
              <node concept="3cpWs3" id="53CRRPogThi" role="3cqZAk">
                <node concept="2OqwBi" id="53CRRPogTho" role="3uHU7w">
                  <node concept="1PxgMI" id="53CRRPogThm" role="2Oq$k0">
                    <ref role="1m5ApE" to="tp3t:gyDMOul" resolve="PropertyPatternVariableDeclaration" />
                    <node concept="37vLTw" id="2BHiRxghiN$" role="1m5AlR">
                      <ref role="3cqZAo" node="53CRRPogO2A" resolve="patternVar" />
                    </node>
                  </node>
                  <node concept="3TrcHB" id="53CRRPogThs" role="2OqNvi">
                    <ref role="3TsBF5" to="tp3t:gyDMOum" resolve="varName" />
                  </node>
                </node>
                <node concept="37vLTw" id="3GM_nagTv2e" role="3uHU7B">
                  <ref role="3cqZAo" node="53CRRPogO2U" resolve="prefix" />
                </node>
              </node>
            </node>
          </node>
          <node concept="2OqwBi" id="53CRRPogTh8" role="3clFbw">
            <node concept="37vLTw" id="2BHiRxgmz0S" role="2Oq$k0">
              <ref role="3cqZAo" node="53CRRPogO2A" resolve="patternVar" />
            </node>
            <node concept="1mIQ4w" id="53CRRPogThc" role="2OqNvi">
              <node concept="chp4Y" id="53CRRPogThe" role="cj9EA">
                <ref role="cht4Q" to="tp3t:gyDMOul" resolve="PropertyPatternVariableDeclaration" />
              </node>
            </node>
          </node>
        </node>
        <node concept="3clFbJ" id="49yhXVwiVTx" role="3cqZAp">
          <node concept="3clFbS" id="49yhXVwiVTy" role="3clFbx">
            <node concept="3cpWs6" id="49yhXVwiVTz" role="3cqZAp">
              <node concept="3cpWs3" id="49yhXVwiVT$" role="3cqZAk">
                <node concept="2OqwBi" id="49yhXVwiVT_" role="3uHU7w">
                  <node concept="1PxgMI" id="49yhXVwiVTA" role="2Oq$k0">
                    <ref role="1m5ApE" to="tp3t:gyEdBcq" resolve="ListPattern" />
                    <node concept="37vLTw" id="49yhXVwiVTB" role="1m5AlR">
                      <ref role="3cqZAo" node="53CRRPogO2A" resolve="patternVar" />
                    </node>
                  </node>
                  <node concept="3TrcHB" id="49yhXVwiWzD" role="2OqNvi">
                    <ref role="3TsBF5" to="tp3t:gyDMOuk" resolve="varName" />
                  </node>
                </node>
                <node concept="37vLTw" id="49yhXVwiVTD" role="3uHU7B">
                  <ref role="3cqZAo" node="53CRRPogO2U" resolve="prefix" />
                </node>
              </node>
            </node>
          </node>
          <node concept="2OqwBi" id="49yhXVwiVTE" role="3clFbw">
            <node concept="37vLTw" id="49yhXVwiVTF" role="2Oq$k0">
              <ref role="3cqZAo" node="53CRRPogO2A" resolve="patternVar" />
            </node>
            <node concept="1mIQ4w" id="49yhXVwiVTG" role="2OqNvi">
              <node concept="chp4Y" id="49yhXVwiWcL" role="cj9EA">
                <ref role="cht4Q" to="tp3t:gyEdBcq" resolve="ListPattern" />
              </node>
            </node>
          </node>
        </node>
        <node concept="3cpWs6" id="53CRRPogThu" role="3cqZAp">
          <node concept="10Nm6u" id="53CRRPogThw" role="3cqZAk" />
        </node>
      </node>
      <node concept="37vLTG" id="53CRRPogO2A" role="3clF46">
        <property role="TrG5h" value="patternVar" />
        <node concept="3Tqbb2" id="53CRRPogO2B" role="1tU5fm" />
      </node>
    </node>
    <node concept="2YIFZL" id="53CRRPoi0qu" role="jymVt">
      <property role="TrG5h" value="fieldTypeHasParameter" />
      <node concept="10P_77" id="53CRRPoi1hm" role="3clF45" />
      <node concept="3Tm1VV" id="53CRRPoi0qw" role="1B3o_S" />
      <node concept="3clFbS" id="53CRRPoi0qx" role="3clF47">
        <node concept="3cpWs6" id="53CRRPoi1hw" role="3cqZAp">
          <node concept="2OqwBi" id="53CRRPoi1hz" role="3cqZAk">
            <node concept="37vLTw" id="2BHiRxgm6KK" role="2Oq$k0">
              <ref role="3cqZAo" node="53CRRPoi1hn" resolve="patternVar" />
            </node>
            <node concept="1mIQ4w" id="53CRRPoi1hB" role="2OqNvi">
              <node concept="chp4Y" id="53CRRPoi1hD" role="cj9EA">
                <ref role="cht4Q" to="tp3t:gyEdBcq" resolve="ListPattern" />
              </node>
            </node>
          </node>
        </node>
      </node>
      <node concept="37vLTG" id="53CRRPoi1hn" role="3clF46">
        <property role="TrG5h" value="patternVar" />
        <node concept="3Tqbb2" id="53CRRPoi1ho" role="1tU5fm" />
      </node>
    </node>
    <node concept="2YIFZL" id="53CRRPoi1hp" role="jymVt">
      <property role="TrG5h" value="getFieldTypeReference" />
      <node concept="3Tqbb2" id="53CRRPoi1ht" role="3clF45">
        <ref role="ehGHo" to="tpee:g7pOWCK" resolve="Classifier" />
      </node>
      <node concept="3Tm1VV" id="53CRRPoi1hr" role="1B3o_S" />
      <node concept="3clFbS" id="53CRRPoi1hs" role="3clF47">
        <node concept="3clFbJ" id="53CRRPoi1hE" role="3cqZAp">
          <node concept="2OqwBi" id="53CRRPoi1hI" role="3clFbw">
            <node concept="37vLTw" id="2BHiRxghaaA" role="2Oq$k0">
              <ref role="3cqZAo" node="53CRRPoi1hu" resolve="patternVar" />
            </node>
            <node concept="1mIQ4w" id="53CRRPoi1hM" role="2OqNvi">
              <node concept="chp4Y" id="53CRRPoi1hO" role="cj9EA">
                <ref role="cht4Q" to="tp3t:gyEdBcq" resolve="ListPattern" />
              </node>
            </node>
          </node>
          <node concept="3clFbS" id="53CRRPoi1hG" role="3clFbx">
            <node concept="3cpWs6" id="53CRRPoi1hP" role="3cqZAp">
              <node concept="3B5_sB" id="53CRRPoi1hR" role="3cqZAk">
                <ref role="3B5MYn" to="33ny:~List" resolve="List" />
              </node>
            </node>
          </node>
        </node>
        <node concept="3clFbJ" id="53CRRPoi1LN" role="3cqZAp">
          <node concept="3clFbS" id="53CRRPoi1LO" role="3clFbx">
            <node concept="3cpWs6" id="53CRRPoi1LZ" role="3cqZAp">
              <node concept="3B5_sB" id="53CRRPoi1M1" role="3cqZAk">
                <ref role="3B5MYn" to="mhbf:~SNode" resolve="SNode" />
              </node>
            </node>
          </node>
          <node concept="2OqwBi" id="53CRRPoi1LS" role="3clFbw">
            <node concept="37vLTw" id="2BHiRxghh7y" role="2Oq$k0">
              <ref role="3cqZAo" node="53CRRPoi1hu" resolve="patternVar" />
            </node>
            <node concept="1mIQ4w" id="53CRRPoi1LW" role="2OqNvi">
              <node concept="chp4Y" id="53CRRPoi2JH" role="cj9EA">
                <ref role="cht4Q" to="tp3t:gyDMOuj" resolve="PatternVariableDeclaration" />
              </node>
            </node>
          </node>
        </node>
        <node concept="3clFbJ" id="53CRRPoi2Jx" role="3cqZAp">
          <node concept="3clFbS" id="53CRRPoi2Jy" role="3clFbx">
            <node concept="3cpWs6" id="53CRRPoi2JI" role="3cqZAp">
              <node concept="3B5_sB" id="53CRRPoi2JK" role="3cqZAk">
                <ref role="3B5MYn" to="mhbf:~SNode" resolve="SNode" />
              </node>
            </node>
          </node>
          <node concept="2OqwBi" id="53CRRPoi2JA" role="3clFbw">
            <node concept="37vLTw" id="2BHiRxgha43" role="2Oq$k0">
              <ref role="3cqZAo" node="53CRRPoi1hu" resolve="patternVar" />
            </node>
            <node concept="1mIQ4w" id="53CRRPoi2JE" role="2OqNvi">
              <node concept="chp4Y" id="53CRRPoi2JG" role="cj9EA">
                <ref role="cht4Q" to="tp3t:gzjrplq" resolve="LinkPatternVariableDeclaration" />
              </node>
            </node>
          </node>
        </node>
        <node concept="3clFbJ" id="53CRRPoi2JM" role="3cqZAp">
          <node concept="3clFbS" id="53CRRPoi2JN" role="3clFbx">
            <node concept="3cpWs6" id="53CRRPoi2JY" role="3cqZAp">
              <node concept="3B5_sB" id="53CRRPoi2K0" role="3cqZAk">
                <ref role="3B5MYn" to="wyt6:~String" resolve="String" />
              </node>
            </node>
          </node>
          <node concept="2OqwBi" id="53CRRPoi2JR" role="3clFbw">
            <node concept="37vLTw" id="2BHiRxgm9Xk" role="2Oq$k0">
              <ref role="3cqZAo" node="53CRRPoi1hu" resolve="patternVar" />
            </node>
            <node concept="1mIQ4w" id="53CRRPoi2JV" role="2OqNvi">
              <node concept="chp4Y" id="53CRRPoi2JX" role="cj9EA">
                <ref role="cht4Q" to="tp3t:gyDMOul" resolve="PropertyPatternVariableDeclaration" />
              </node>
            </node>
          </node>
        </node>
        <node concept="3cpWs6" id="53CRRPoi2K2" role="3cqZAp">
          <node concept="10Nm6u" id="53CRRPoi2K4" role="3cqZAk" />
        </node>
      </node>
      <node concept="37vLTG" id="53CRRPoi1hu" role="3clF46">
        <property role="TrG5h" value="patternVar" />
        <node concept="3Tqbb2" id="53CRRPoi1hv" role="1tU5fm" />
      </node>
    </node>
  </node>
  <node concept="13h7C7" id="6cKyl1HJ1Q">
    <ref role="13h7C2" to="tp3t:3OYWvKo5t_w" resolve="ActionStatement" />
    <node concept="13i0hz" id="6cKyl1HJ1T" role="13h7CS">
      <property role="TrG5h" value="getActionPattern" />
      <node concept="3Tm1VV" id="6cKyl1HJ1U" role="1B3o_S" />
      <node concept="3clFbS" id="6cKyl1HJ1W" role="3clF47">
        <node concept="3clFbJ" id="6cKyl1HJ1Y" role="3cqZAp">
          <node concept="3clFbS" id="6cKyl1HJ20" role="3clFbx">
            <node concept="3cpWs6" id="6cKyl1HJ2e" role="3cqZAp">
              <node concept="1PxgMI" id="6cKyl1HJ2m" role="3cqZAk">
                <ref role="1m5ApE" to="tp3t:3OYWvKo5cHk" resolve="ActionAsPattern" />
                <node concept="2OqwBi" id="6cKyl1HJ2h" role="1m5AlR">
                  <node concept="13iPFW" id="6cKyl1HJ2g" role="2Oq$k0" />
                  <node concept="1mfA1w" id="6cKyl1HJ2l" role="2OqNvi" />
                </node>
              </node>
            </node>
          </node>
          <node concept="2OqwBi" id="6cKyl1HJ27" role="3clFbw">
            <node concept="2OqwBi" id="6cKyl1HJ22" role="2Oq$k0">
              <node concept="13iPFW" id="6cKyl1HJ21" role="2Oq$k0" />
              <node concept="1mfA1w" id="6cKyl1HJ26" role="2OqNvi" />
            </node>
            <node concept="1mIQ4w" id="6cKyl1HJ2b" role="2OqNvi">
              <node concept="chp4Y" id="6cKyl1HJ2d" role="cj9EA">
                <ref role="cht4Q" to="tp3t:3OYWvKo5cHk" resolve="ActionAsPattern" />
              </node>
            </node>
          </node>
        </node>
        <node concept="3cpWs6" id="6cKyl1HJ2p" role="3cqZAp">
          <node concept="10Nm6u" id="6cKyl1HJ2r" role="3cqZAk" />
        </node>
      </node>
      <node concept="3Tqbb2" id="6cKyl1HJ1X" role="3clF45">
        <ref role="ehGHo" to="tp3t:3OYWvKo5cHk" resolve="ActionAsPattern" />
      </node>
    </node>
    <node concept="13i0hz" id="6cKyl1HJ2s" role="13h7CS">
      <property role="TrG5h" value="getNode" />
      <node concept="3Tm1VV" id="6cKyl1HJ2t" role="1B3o_S" />
      <node concept="3Tqbb2" id="6cKyl1HJ2w" role="3clF45" />
      <node concept="3clFbS" id="6cKyl1HJ2v" role="3clF47">
        <node concept="3cpWs8" id="6cKyl1HJ4F" role="3cqZAp">
          <node concept="3cpWsn" id="6cKyl1HJ4G" role="3cpWs9">
            <property role="TrG5h" value="action" />
            <node concept="3Tqbb2" id="6cKyl1HJ4H" role="1tU5fm">
              <ref role="ehGHo" to="tp3t:3OYWvKo5cHk" resolve="ActionAsPattern" />
            </node>
            <node concept="2OqwBi" id="6cKyl1HJ4J" role="33vP2m">
              <node concept="13iPFW" id="6cKyl1HJ4K" role="2Oq$k0" />
              <node concept="2qgKlT" id="6cKyl1HJ4L" role="2OqNvi">
                <ref role="37wK5l" node="6cKyl1HJ1T" resolve="getActionPattern" />
              </node>
            </node>
          </node>
        </node>
        <node concept="3clFbJ" id="6cKyl1HJ4c" role="3cqZAp">
          <node concept="3y3z36" id="6cKyl1HJ4l" role="3clFbw">
            <node concept="10Nm6u" id="6cKyl1HJ4o" role="3uHU7w" />
            <node concept="37vLTw" id="3GM_nagT$VV" role="3uHU7B">
              <ref role="3cqZAo" node="6cKyl1HJ4G" resolve="action" />
            </node>
          </node>
          <node concept="3clFbS" id="6cKyl1HJ4e" role="3clFbx">
            <node concept="3cpWs6" id="6cKyl1HJ4p" role="3cqZAp">
              <node concept="2OqwBi" id="6cKyl1HJ4x" role="3cqZAk">
                <node concept="37vLTw" id="3GM_nagTwWo" role="2Oq$k0">
                  <ref role="3cqZAo" node="6cKyl1HJ4G" resolve="action" />
                </node>
                <node concept="1mfA1w" id="6cKyl1HJ4_" role="2OqNvi" />
              </node>
            </node>
          </node>
        </node>
        <node concept="3cpWs6" id="6cKyl1HJ4B" role="3cqZAp">
          <node concept="10Nm6u" id="6cKyl1HJ4D" role="3cqZAk" />
        </node>
      </node>
    </node>
    <node concept="13hLZK" id="6cKyl1HJ1R" role="13h7CW">
      <node concept="3clFbS" id="6cKyl1HJ1S" role="2VODD2" />
    </node>
  </node>
  <node concept="13h7C7" id="1653mnvAMTB">
    <ref role="13h7C2" to="tp3t:gyDMOuf" resolve="Pattern" />
    <node concept="13hLZK" id="1653mnvAMTC" role="13h7CW">
      <node concept="3clFbS" id="1653mnvAMTD" role="2VODD2" />
    </node>
  </node>
  <node concept="13h7C7" id="1653mnvANKF">
    <ref role="13h7C2" to="tp3t:gyDMOud" resolve="AsPattern" />
    <node concept="13hLZK" id="1653mnvANKG" role="13h7CW">
      <node concept="3clFbS" id="1653mnvANKH" role="2VODD2" />
    </node>
  </node>
</model>

