<?xml version="1.0" encoding="UTF-8"?>
<model ref="r:fa7e5e77-f78c-428b-a566-986093084902(jetbrains.mps.lang.pattern.migration)">
  <persistence version="9" />
  <languages>
    <use id="90746344-04fd-4286-97d5-b46ae6a81709" name="jetbrains.mps.lang.migration" version="0" />
    <use id="1a8554c4-eb84-43ba-8c34-6f0d90c6e75a" name="jetbrains.mps.lang.smodel.query" version="2" />
    <devkit ref="fbc25dd2-5da4-483a-8b19-70928e1b62d7(jetbrains.mps.devkit.general-purpose)" />
  </languages>
  <imports>
    <import index="lui2" ref="8865b7a8-5271-43d3-884c-6fd1d9cfdd34/java:org.jetbrains.mps.openapi.module(MPS.OpenAPI/)" />
    <import index="tp3t" ref="r:00000000-0000-4000-0000-011c89590345(jetbrains.mps.lang.pattern.structure)" />
    <import index="tp3r" ref="r:00000000-0000-4000-0000-011c8959034b(jetbrains.mps.lang.quotation.structure)" />
    <import index="slm6" ref="90746344-04fd-4286-97d5-b46ae6a81709/r:52a3d974-bd4f-4651-ba6e-a2de5e336d95(jetbrains.mps.lang.migration/jetbrains.mps.lang.migration.methods)" implicit="true" />
  </imports>
  <registry>
    <language id="f3061a53-9226-4cc5-a443-f952ceaf5816" name="jetbrains.mps.baseLanguage">
      <concept id="1215693861676" name="jetbrains.mps.baseLanguage.structure.BaseAssignmentExpression" flags="nn" index="d038R">
        <child id="1068498886297" name="rValue" index="37vLTx" />
        <child id="1068498886295" name="lValue" index="37vLTJ" />
      </concept>
      <concept id="4836112446988635817" name="jetbrains.mps.baseLanguage.structure.UndefinedType" flags="in" index="2jxLKc" />
      <concept id="1465982738277781862" name="jetbrains.mps.baseLanguage.structure.PlaceholderMember" flags="ng" index="2tJIrI" />
      <concept id="1197027756228" name="jetbrains.mps.baseLanguage.structure.DotExpression" flags="nn" index="2OqwBi">
        <child id="1197027771414" name="operand" index="2Oq$k0" />
        <child id="1197027833540" name="operation" index="2OqNvi" />
      </concept>
      <concept id="1070534058343" name="jetbrains.mps.baseLanguage.structure.NullLiteral" flags="nn" index="10Nm6u" />
      <concept id="1070534644030" name="jetbrains.mps.baseLanguage.structure.BooleanType" flags="in" index="10P_77" />
      <concept id="1068498886296" name="jetbrains.mps.baseLanguage.structure.VariableReference" flags="nn" index="37vLTw">
        <reference id="1068581517664" name="variableDeclaration" index="3cqZAo" />
      </concept>
      <concept id="1068498886294" name="jetbrains.mps.baseLanguage.structure.AssignmentExpression" flags="nn" index="37vLTI" />
      <concept id="1225271177708" name="jetbrains.mps.baseLanguage.structure.StringType" flags="in" index="17QB3L" />
      <concept id="4972933694980447171" name="jetbrains.mps.baseLanguage.structure.BaseVariableDeclaration" flags="ng" index="19Szcq">
        <child id="5680397130376446158" name="type" index="1tU5fm" />
      </concept>
      <concept id="1068580123132" name="jetbrains.mps.baseLanguage.structure.BaseMethodDeclaration" flags="ng" index="3clF44">
        <child id="1068580123133" name="returnType" index="3clF45" />
        <child id="1068580123134" name="parameter" index="3clF46" />
        <child id="1068580123135" name="body" index="3clF47" />
      </concept>
      <concept id="1068580123152" name="jetbrains.mps.baseLanguage.structure.EqualsExpression" flags="nn" index="3clFbC" />
      <concept id="1068580123155" name="jetbrains.mps.baseLanguage.structure.ExpressionStatement" flags="nn" index="3clFbF">
        <child id="1068580123156" name="expression" index="3clFbG" />
      </concept>
      <concept id="1068580123136" name="jetbrains.mps.baseLanguage.structure.StatementList" flags="sn" stub="5293379017992965193" index="3clFbS">
        <child id="1068581517665" name="statement" index="3cqZAp" />
      </concept>
      <concept id="1107461130800" name="jetbrains.mps.baseLanguage.structure.Classifier" flags="ng" index="3pOWGL">
        <child id="5375687026011219971" name="member" index="jymVt" unordered="true" />
      </concept>
      <concept id="1107535904670" name="jetbrains.mps.baseLanguage.structure.ClassifierType" flags="in" index="3uibUv">
        <reference id="1107535924139" name="classifier" index="3uigEE" />
      </concept>
      <concept id="1081773326031" name="jetbrains.mps.baseLanguage.structure.BinaryOperation" flags="nn" index="3uHJSO">
        <child id="1081773367579" name="rightExpression" index="3uHU7w" />
        <child id="1081773367580" name="leftExpression" index="3uHU7B" />
      </concept>
      <concept id="1073239437375" name="jetbrains.mps.baseLanguage.structure.NotEqualsExpression" flags="nn" index="3y3z36" />
      <concept id="1178549954367" name="jetbrains.mps.baseLanguage.structure.IVisible" flags="ng" index="1B3ioH">
        <child id="1178549979242" name="visibility" index="1B3o_S" />
      </concept>
      <concept id="1146644602865" name="jetbrains.mps.baseLanguage.structure.PublicVisibility" flags="nn" index="3Tm1VV" />
      <concept id="1080120340718" name="jetbrains.mps.baseLanguage.structure.AndExpression" flags="nn" index="1Wc70l" />
    </language>
    <language id="fd392034-7849-419d-9071-12563d152375" name="jetbrains.mps.baseLanguage.closures">
      <concept id="1199569711397" name="jetbrains.mps.baseLanguage.closures.structure.ClosureLiteral" flags="nn" index="1bVj0M">
        <child id="1199569906740" name="parameter" index="1bW2Oz" />
        <child id="1199569916463" name="body" index="1bW5cS" />
      </concept>
    </language>
    <language id="c7d5b9dd-a05f-4be2-bc73-f2e16994cc67" name="jetbrains.mps.baseLanguage.lightweightdsl">
      <concept id="8880393040217246788" name="jetbrains.mps.baseLanguage.lightweightdsl.structure.MethodParameterInstance" flags="ig" index="ffn8J">
        <reference id="8880393040217294897" name="decl" index="ffrpq" />
      </concept>
      <concept id="3751132065236767083" name="jetbrains.mps.baseLanguage.lightweightdsl.structure.DependentTypeInstance" flags="ig" index="q3mfm">
        <reference id="3751132065236767084" name="decl" index="q3mfh" />
        <reference id="9097849371505568270" name="point" index="1QQUv3" />
      </concept>
      <concept id="3751132065236767060" name="jetbrains.mps.baseLanguage.lightweightdsl.structure.MethodInstance" flags="ig" index="q3mfD">
        <reference id="19209059688387895" name="decl" index="2VtyIY" />
      </concept>
      <concept id="6478870542308708689" name="jetbrains.mps.baseLanguage.lightweightdsl.structure.PropertyInstance" flags="ig" index="3tT0cZ">
        <reference id="8585153554445465961" name="decl" index="25KYV2" />
      </concept>
      <concept id="6478870542308703666" name="jetbrains.mps.baseLanguage.lightweightdsl.structure.MemberPlaceholder" flags="ng" index="3tTeZs">
        <property id="6478870542308703667" name="caption" index="3tTeZt" />
        <reference id="6478870542308703669" name="decl" index="3tTeZr" />
      </concept>
      <concept id="6478870542308871875" name="jetbrains.mps.baseLanguage.lightweightdsl.structure.BooleanPropertyInstance" flags="ig" index="3tYpMH">
        <property id="6478870542308871876" name="value" index="3tYpME" />
      </concept>
      <concept id="6478870542308871428" name="jetbrains.mps.baseLanguage.lightweightdsl.structure.StringPropertyInstance" flags="ig" index="3tYpXE">
        <property id="6478870542308871429" name="value" index="3tYpXF" />
      </concept>
    </language>
    <language id="7866978e-a0f0-4cc7-81bc-4d213d9375e1" name="jetbrains.mps.lang.smodel">
      <concept id="1177026924588" name="jetbrains.mps.lang.smodel.structure.RefConcept_Reference" flags="nn" index="chp4Y">
        <reference id="1177026940964" name="conceptDeclaration" index="cht4Q" />
      </concept>
      <concept id="1138757581985" name="jetbrains.mps.lang.smodel.structure.Link_SetNewChildOperation" flags="nn" index="zfrQC">
        <reference id="1139880128956" name="concept" index="1A9B2P" />
      </concept>
      <concept id="1138056143562" name="jetbrains.mps.lang.smodel.structure.SLinkAccess" flags="nn" index="3TrEf2">
        <reference id="1138056516764" name="link" index="3Tt5mk" />
      </concept>
    </language>
    <language id="ceab5195-25ea-4f22-9b92-103b95ca8c0c" name="jetbrains.mps.lang.core">
      <concept id="1169194658468" name="jetbrains.mps.lang.core.structure.INamedConcept" flags="ng" index="TrEIO">
        <property id="1169194664001" name="name" index="TrG5h" />
      </concept>
    </language>
    <language id="90746344-04fd-4286-97d5-b46ae6a81709" name="jetbrains.mps.lang.migration">
      <concept id="8352104482584315555" name="jetbrains.mps.lang.migration.structure.MigrationScript" flags="ig" index="3SyAh_">
        <property id="5820409521797704727" name="fromVersion" index="qMTe8" />
      </concept>
    </language>
    <language id="1a8554c4-eb84-43ba-8c34-6f0d90c6e75a" name="jetbrains.mps.lang.smodel.query">
      <concept id="7738379549910147341" name="jetbrains.mps.lang.smodel.query.structure.InstancesExpression" flags="ng" index="qVDSY">
        <child id="7738379549910147342" name="conceptArg" index="qVDSX" />
      </concept>
      <concept id="4234138103881610891" name="jetbrains.mps.lang.smodel.query.structure.WithStatement" flags="ng" index="L3pyB">
        <child id="4234138103881610935" name="scope" index="L3pyr" />
        <child id="4234138103881610892" name="stmts" index="L3pyw" />
      </concept>
      <concept id="4307205004131544317" name="jetbrains.mps.lang.smodel.query.structure.QueryExpression" flags="ng" index="1dNuzs">
        <child id="4307205004132279624" name="parameter" index="1dOa5D" />
      </concept>
      <concept id="4307205004132277753" name="jetbrains.mps.lang.smodel.query.structure.QueryParameterList" flags="ng" index="1dO9Bo" />
    </language>
    <language id="83888646-71ce-4f1c-9c53-c54016f6ad4f" name="jetbrains.mps.baseLanguage.collections">
      <concept id="1204796164442" name="jetbrains.mps.baseLanguage.collections.structure.InternalSequenceOperation" flags="nn" index="23sCx2">
        <child id="1204796294226" name="closure" index="23t8la" />
      </concept>
      <concept id="1204980550705" name="jetbrains.mps.baseLanguage.collections.structure.VisitAllOperation" flags="nn" index="2es0OD" />
      <concept id="1203518072036" name="jetbrains.mps.baseLanguage.collections.structure.SmartClosureParameterDeclaration" flags="ig" index="Rh6nW" />
      <concept id="1202120902084" name="jetbrains.mps.baseLanguage.collections.structure.WhereOperation" flags="nn" index="3zZkjj" />
    </language>
  </registry>
  <node concept="3SyAh_" id="24Vo$dbd2ww">
    <property role="qMTe8" value="0" />
    <property role="TrG5h" value="PatternNodeToQuotation" />
    <node concept="3Tm1VV" id="24Vo$dbd2wx" role="1B3o_S" />
    <node concept="3tTeZs" id="24Vo$dbd2wy" role="jymVt">
      <property role="3tTeZt" value="&lt;no execute after&gt;" />
      <ref role="3tTeZr" to="slm6:7ay_HjIMt1a" resolve="execute after" />
    </node>
    <node concept="3tTeZs" id="24Vo$dbd2wz" role="jymVt">
      <property role="3tTeZt" value="&lt;no required data&gt;" />
      <ref role="3tTeZr" to="slm6:3A3gNhf1WPI" resolve="requires data" />
    </node>
    <node concept="3tTeZs" id="24Vo$dbd2w$" role="jymVt">
      <property role="3tTeZt" value="&lt;no produced data&gt;" />
      <ref role="3tTeZr" to="slm6:536fTXa4WHO" resolve="produces data" />
    </node>
    <node concept="2tJIrI" id="24Vo$dbd2w_" role="jymVt" />
    <node concept="3tYpMH" id="24Vo$dbd2z7" role="jymVt">
      <property role="TrG5h" value="isRerunnable" />
      <property role="3tYpME" value="true" />
      <ref role="25KYV2" to="slm6:1JWcQ2VeWIs" resolve="isRerunnable" />
      <node concept="3Tm1VV" id="24Vo$dbd2z9" role="1B3o_S" />
      <node concept="10P_77" id="24Vo$dbd2za" role="1tU5fm" />
    </node>
    <node concept="3tYpXE" id="24Vo$dbd2zz" role="jymVt">
      <property role="TrG5h" value="description" />
      <property role="3tYpXF" value="Translate PatternExpression to use Quotation instead of directly quoted pattern" />
      <ref role="25KYV2" to="slm6:1_lSsE3RFpE" resolve="description" />
      <node concept="3Tm1VV" id="24Vo$dbd2z_" role="1B3o_S" />
      <node concept="17QB3L" id="24Vo$dbd2zA" role="1tU5fm" />
    </node>
    <node concept="q3mfD" id="24Vo$dbd2wC" role="jymVt">
      <property role="TrG5h" value="execute" />
      <ref role="2VtyIY" to="slm6:4ubqdNOF9cA" resolve="execute" />
      <node concept="3Tm1VV" id="24Vo$dbd2wE" role="1B3o_S" />
      <node concept="3clFbS" id="24Vo$dbd2wG" role="3clF47">
        <node concept="L3pyB" id="24Vo$dbdccK" role="3cqZAp">
          <node concept="37vLTw" id="24Vo$dbdceX" role="L3pyr">
            <ref role="3cqZAo" node="24Vo$dbd2wI" resolve="m" />
          </node>
          <node concept="3clFbS" id="24Vo$dbdccO" role="L3pyw">
            <node concept="3clFbF" id="24Vo$dbdcni" role="3cqZAp">
              <node concept="2OqwBi" id="24Vo$dbddJR" role="3clFbG">
                <node concept="2OqwBi" id="24Vo$dbdcty" role="2Oq$k0">
                  <node concept="qVDSY" id="24Vo$dbdcnf" role="2Oq$k0">
                    <node concept="chp4Y" id="24Vo$dbdcoa" role="qVDSX">
                      <ref role="cht4Q" to="tp3t:gyDMOuh" resolve="PatternExpression" />
                    </node>
                    <node concept="1dO9Bo" id="24Vo$dbdcnh" role="1dOa5D" />
                  </node>
                  <node concept="3zZkjj" id="24Vo$dbdcD6" role="2OqNvi">
                    <node concept="1bVj0M" id="24Vo$dbdcD8" role="23t8la">
                      <node concept="3clFbS" id="24Vo$dbdcD9" role="1bW5cS">
                        <node concept="3clFbF" id="24Vo$dbdcFT" role="3cqZAp">
                          <node concept="1Wc70l" id="24Vo$dbdb35" role="3clFbG">
                            <node concept="3y3z36" id="24Vo$dbdbv9" role="3uHU7w">
                              <node concept="10Nm6u" id="24Vo$dbdbxz" role="3uHU7w" />
                              <node concept="2OqwBi" id="24Vo$dbdbaJ" role="3uHU7B">
                                <node concept="37vLTw" id="24Vo$dbddp1" role="2Oq$k0">
                                  <ref role="3cqZAo" node="24Vo$dbdcDa" resolve="it" />
                                </node>
                                <node concept="3TrEf2" id="24Vo$dbdbkJ" role="2OqNvi">
                                  <ref role="3Tt5mk" to="tp3t:gyDMOui" />
                                </node>
                              </node>
                            </node>
                            <node concept="3clFbC" id="24Vo$dbdaT0" role="3uHU7B">
                              <node concept="2OqwBi" id="24Vo$dbdasV" role="3uHU7B">
                                <node concept="37vLTw" id="24Vo$dbddse" role="2Oq$k0">
                                  <ref role="3cqZAo" node="24Vo$dbdcDa" resolve="it" />
                                </node>
                                <node concept="3TrEf2" id="24Vo$dbdaH4" role="2OqNvi">
                                  <ref role="3Tt5mk" to="tp3t:7Qbh0xggLjd" />
                                </node>
                              </node>
                              <node concept="10Nm6u" id="24Vo$dbdaV5" role="3uHU7w" />
                            </node>
                          </node>
                        </node>
                      </node>
                      <node concept="Rh6nW" id="24Vo$dbdcDa" role="1bW2Oz">
                        <property role="TrG5h" value="it" />
                        <node concept="2jxLKc" id="24Vo$dbdcDb" role="1tU5fm" />
                      </node>
                    </node>
                  </node>
                </node>
                <node concept="2es0OD" id="24Vo$dbddSg" role="2OqNvi">
                  <node concept="1bVj0M" id="24Vo$dbddSi" role="23t8la">
                    <node concept="3clFbS" id="24Vo$dbddSj" role="1bW5cS">
                      <node concept="3clFbF" id="6wyfy1abU5v" role="3cqZAp">
                        <node concept="2OqwBi" id="6wyfy1abUmn" role="3clFbG">
                          <node concept="2OqwBi" id="6wyfy1abU8e" role="2Oq$k0">
                            <node concept="37vLTw" id="2lnc$wDYHUB" role="2Oq$k0">
                              <ref role="3cqZAo" node="24Vo$dbddSk" resolve="pe" />
                            </node>
                            <node concept="3TrEf2" id="6wyfy1abUex" role="2OqNvi">
                              <ref role="3Tt5mk" to="tp3t:7Qbh0xggLjd" />
                            </node>
                          </node>
                          <node concept="zfrQC" id="6wyfy1abUs4" role="2OqNvi">
                            <ref role="1A9B2P" to="tp3r:hqc44pp" resolve="Quotation" />
                          </node>
                        </node>
                      </node>
                      <node concept="3clFbF" id="6wyfy1abVpV" role="3cqZAp">
                        <node concept="37vLTI" id="6wyfy1abVPM" role="3clFbG">
                          <node concept="2OqwBi" id="6wyfy1abVSZ" role="37vLTx">
                            <node concept="3TrEf2" id="6wyfy1abW5w" role="2OqNvi">
                              <ref role="3Tt5mk" to="tp3t:gyDMOui" />
                            </node>
                            <node concept="37vLTw" id="2lnc$wDYJWo" role="2Oq$k0">
                              <ref role="3cqZAo" node="24Vo$dbddSk" resolve="pe" />
                            </node>
                          </node>
                          <node concept="2OqwBi" id="6wyfy1abV$U" role="37vLTJ">
                            <node concept="2OqwBi" id="6wyfy1abVs$" role="2Oq$k0">
                              <node concept="37vLTw" id="2lnc$wDYHV8" role="2Oq$k0">
                                <ref role="3cqZAo" node="24Vo$dbddSk" resolve="pe" />
                              </node>
                              <node concept="3TrEf2" id="6wyfy1abVyX" role="2OqNvi">
                                <ref role="3Tt5mk" to="tp3t:7Qbh0xggLjd" />
                              </node>
                            </node>
                            <node concept="3TrEf2" id="6wyfy1abVJK" role="2OqNvi">
                              <ref role="3Tt5mk" to="tp3r:hqc44pq" />
                            </node>
                          </node>
                        </node>
                      </node>
                    </node>
                    <node concept="Rh6nW" id="24Vo$dbddSk" role="1bW2Oz">
                      <property role="TrG5h" value="pe" />
                      <node concept="2jxLKc" id="24Vo$dbddSl" role="1tU5fm" />
                    </node>
                  </node>
                </node>
              </node>
            </node>
          </node>
        </node>
      </node>
      <node concept="ffn8J" id="24Vo$dbd2wI" role="3clF46">
        <property role="TrG5h" value="m" />
        <ref role="ffrpq" to="slm6:7fCCGqboj9J" resolve="m" />
        <node concept="3uibUv" id="24Vo$dbd2wH" role="1tU5fm">
          <ref role="3uigEE" to="lui2:~SModule" resolve="SModule" />
        </node>
      </node>
      <node concept="q3mfm" id="24Vo$dbd2wJ" role="3clF45">
        <ref role="q3mfh" to="slm6:4F5w8gPXEEe" />
        <ref role="1QQUv3" node="24Vo$dbd2wC" resolve="execute" />
      </node>
    </node>
    <node concept="3tTeZs" id="24Vo$dbd2wK" role="jymVt">
      <property role="3tTeZt" value="&lt;no result checking&gt;" />
      <ref role="3tTeZr" to="slm6:1JWcQ2VeXpD" resolve="check" />
    </node>
  </node>
</model>

