<?xml version="1.0" encoding="UTF-8"?>
<model ref="r:00000000-0000-4000-0000-011c895904a5(jetbrains.mps.ide.common)">
  <persistence version="9" />
  <languages>
    <use id="fd392034-7849-419d-9071-12563d152375" name="jetbrains.mps.baseLanguage.closures" version="0" />
    <use id="83888646-71ce-4f1c-9c53-c54016f6ad4f" name="jetbrains.mps.baseLanguage.collections" version="0" />
    <use id="f3061a53-9226-4cc5-a443-f952ceaf5816" name="jetbrains.mps.baseLanguage" version="4" />
    <use id="f2801650-65d5-424e-bb1b-463a8781b786" name="jetbrains.mps.baseLanguage.javadoc" version="2" />
  </languages>
  <imports>
    <import index="fyhk" ref="86441d7a-e194-42da-81a5-2161ec62a379/java:jetbrains.mps(MPS.Workbench/)" />
    <import index="9ti4" ref="498d89d2-c2e9-11e2-ad49-6cf049e62fe5/java:com.intellij.openapi.extensions(MPS.IDEA/)" />
    <import index="4nm9" ref="498d89d2-c2e9-11e2-ad49-6cf049e62fe5/java:com.intellij.openapi.project(MPS.IDEA/)" />
    <import index="s9o5" ref="498d89d2-c2e9-11e2-ad49-6cf049e62fe5/java:com.intellij.openapi.editor(MPS.IDEA/)" />
    <import index="jlff" ref="498d89d2-c2e9-11e2-ad49-6cf049e62fe5/java:com.intellij.openapi.vfs(MPS.IDEA/)" />
    <import index="iwsx" ref="498d89d2-c2e9-11e2-ad49-6cf049e62fe5/java:com.intellij.openapi.fileEditor(MPS.IDEA/)" />
    <import index="qwe6" ref="498d89d2-c2e9-11e2-ad49-6cf049e62fe5/java:com.intellij.navigation(MPS.IDEA/)" />
    <import index="mhfm" ref="3f233e7f-b8a6-46d2-a57f-795d56775243/java:org.jetbrains.annotations(Annotations/)" />
    <import index="wyt6" ref="6354ebe7-c22a-4a0f-ac54-50b52ab9b065/java:java.lang(JDK/)" />
    <import index="z60i" ref="6354ebe7-c22a-4a0f-ac54-50b52ab9b065/java:java.awt(JDK/)" />
    <import index="alof" ref="742f6602-5a2f-4313-aa6e-ae1cd4ffdc61/java:jetbrains.mps.ide.project(MPS.Platform/)" />
    <import index="z1c3" ref="742f6602-5a2f-4313-aa6e-ae1cd4ffdc61/java:jetbrains.mps.project(MPS.Platform/)" />
  </imports>
  <registry>
    <language id="f3061a53-9226-4cc5-a443-f952ceaf5816" name="jetbrains.mps.baseLanguage">
      <concept id="1082485599095" name="jetbrains.mps.baseLanguage.structure.BlockStatement" flags="nn" index="9aQIb">
        <child id="1082485599096" name="statements" index="9aQI4" />
      </concept>
      <concept id="1215693861676" name="jetbrains.mps.baseLanguage.structure.BaseAssignmentExpression" flags="nn" index="d038R">
        <child id="1068498886297" name="rValue" index="37vLTx" />
        <child id="1068498886295" name="lValue" index="37vLTJ" />
      </concept>
      <concept id="4836112446988635817" name="jetbrains.mps.baseLanguage.structure.UndefinedType" flags="in" index="2jxLKc" />
      <concept id="1202948039474" name="jetbrains.mps.baseLanguage.structure.InstanceMethodCallOperation" flags="nn" index="liA8E" />
      <concept id="1465982738277781862" name="jetbrains.mps.baseLanguage.structure.PlaceholderMember" flags="ng" index="2tJIrI" />
      <concept id="1173175405605" name="jetbrains.mps.baseLanguage.structure.ArrayAccessExpression" flags="nn" index="AH0OO">
        <child id="1173175577737" name="index" index="AHEQo" />
        <child id="1173175590490" name="array" index="AHHXb" />
      </concept>
      <concept id="1188207840427" name="jetbrains.mps.baseLanguage.structure.AnnotationInstance" flags="nn" index="2AHcQZ">
        <reference id="1188208074048" name="annotation" index="2AI5Lk" />
      </concept>
      <concept id="1188208481402" name="jetbrains.mps.baseLanguage.structure.HasAnnotation" flags="ng" index="2AJDlI">
        <child id="1188208488637" name="annotation" index="2AJF6D" />
      </concept>
      <concept id="1197027756228" name="jetbrains.mps.baseLanguage.structure.DotExpression" flags="nn" index="2OqwBi">
        <child id="1197027771414" name="operand" index="2Oq$k0" />
        <child id="1197027833540" name="operation" index="2OqNvi" />
      </concept>
      <concept id="1083260308424" name="jetbrains.mps.baseLanguage.structure.EnumConstantReference" flags="nn" index="Rm8GO">
        <reference id="1083260308426" name="enumConstantDeclaration" index="Rm8GQ" />
        <reference id="1144432896254" name="enumClass" index="1Px2BO" />
      </concept>
      <concept id="1145552977093" name="jetbrains.mps.baseLanguage.structure.GenericNewExpression" flags="nn" index="2ShNRf">
        <child id="1145553007750" name="creator" index="2ShVmc" />
      </concept>
      <concept id="1070475926800" name="jetbrains.mps.baseLanguage.structure.StringLiteral" flags="nn" index="Xl_RD">
        <property id="1070475926801" name="value" index="Xl_RC" />
      </concept>
      <concept id="1081236700938" name="jetbrains.mps.baseLanguage.structure.StaticMethodDeclaration" flags="ig" index="2YIFZL" />
      <concept id="1081236700937" name="jetbrains.mps.baseLanguage.structure.StaticMethodCall" flags="nn" index="2YIFZM">
        <reference id="1144433194310" name="classConcept" index="1Pybhc" />
      </concept>
      <concept id="1081256982272" name="jetbrains.mps.baseLanguage.structure.InstanceOfExpression" flags="nn" index="2ZW3vV">
        <child id="1081256993305" name="classType" index="2ZW6by" />
        <child id="1081256993304" name="leftExpression" index="2ZW6bz" />
      </concept>
      <concept id="1070533707846" name="jetbrains.mps.baseLanguage.structure.StaticFieldReference" flags="nn" index="10M0yZ">
        <reference id="1144433057691" name="classifier" index="1PxDUh" />
      </concept>
      <concept id="1070534058343" name="jetbrains.mps.baseLanguage.structure.NullLiteral" flags="nn" index="10Nm6u" />
      <concept id="1070534370425" name="jetbrains.mps.baseLanguage.structure.IntegerType" flags="in" index="10Oyi0" />
      <concept id="1070534760951" name="jetbrains.mps.baseLanguage.structure.ArrayType" flags="in" index="10Q1$e">
        <child id="1070534760952" name="componentType" index="10Q1$1" />
      </concept>
      <concept id="1070534934090" name="jetbrains.mps.baseLanguage.structure.CastExpression" flags="nn" index="10QFUN">
        <child id="1070534934091" name="type" index="10QFUM" />
        <child id="1070534934092" name="expression" index="10QFUP" />
      </concept>
      <concept id="1068390468198" name="jetbrains.mps.baseLanguage.structure.ClassConcept" flags="ig" index="312cEu" />
      <concept id="1068431474542" name="jetbrains.mps.baseLanguage.structure.VariableDeclaration" flags="ng" index="33uBYm">
        <property id="1176718929932" name="isFinal" index="3TUv4t" />
        <child id="1068431790190" name="initializer" index="33vP2m" />
      </concept>
      <concept id="1068498886296" name="jetbrains.mps.baseLanguage.structure.VariableReference" flags="nn" index="37vLTw">
        <reference id="1068581517664" name="variableDeclaration" index="3cqZAo" />
      </concept>
      <concept id="1068498886292" name="jetbrains.mps.baseLanguage.structure.ParameterDeclaration" flags="ir" index="37vLTG" />
      <concept id="1068498886294" name="jetbrains.mps.baseLanguage.structure.AssignmentExpression" flags="nn" index="37vLTI" />
      <concept id="1225271177708" name="jetbrains.mps.baseLanguage.structure.StringType" flags="in" index="17QB3L" />
      <concept id="4972933694980447171" name="jetbrains.mps.baseLanguage.structure.BaseVariableDeclaration" flags="ng" index="19Szcq">
        <child id="5680397130376446158" name="type" index="1tU5fm" />
      </concept>
      <concept id="1068580123132" name="jetbrains.mps.baseLanguage.structure.BaseMethodDeclaration" flags="ng" index="3clF44">
        <child id="1068580123133" name="returnType" index="3clF45" />
        <child id="1068580123134" name="parameter" index="3clF46" />
        <child id="1068580123135" name="body" index="3clF47" />
      </concept>
      <concept id="1068580123152" name="jetbrains.mps.baseLanguage.structure.EqualsExpression" flags="nn" index="3clFbC" />
      <concept id="1068580123155" name="jetbrains.mps.baseLanguage.structure.ExpressionStatement" flags="nn" index="3clFbF">
        <child id="1068580123156" name="expression" index="3clFbG" />
      </concept>
      <concept id="1068580123159" name="jetbrains.mps.baseLanguage.structure.IfStatement" flags="nn" index="3clFbJ">
        <child id="1082485599094" name="ifFalseStatement" index="9aQIa" />
        <child id="1068580123160" name="condition" index="3clFbw" />
        <child id="1068580123161" name="ifTrue" index="3clFbx" />
      </concept>
      <concept id="1068580123136" name="jetbrains.mps.baseLanguage.structure.StatementList" flags="sn" stub="5293379017992965193" index="3clFbS">
        <child id="1068581517665" name="statement" index="3cqZAp" />
      </concept>
      <concept id="1068580123137" name="jetbrains.mps.baseLanguage.structure.BooleanConstant" flags="nn" index="3clFbT">
        <property id="1068580123138" name="value" index="3clFbU" />
      </concept>
      <concept id="1068580123140" name="jetbrains.mps.baseLanguage.structure.ConstructorDeclaration" flags="ig" index="3clFbW" />
      <concept id="1068580320020" name="jetbrains.mps.baseLanguage.structure.IntegerConstant" flags="nn" index="3cmrfG">
        <property id="1068580320021" name="value" index="3cmrfH" />
      </concept>
      <concept id="1068581242875" name="jetbrains.mps.baseLanguage.structure.PlusExpression" flags="nn" index="3cpWs3" />
      <concept id="1068581242878" name="jetbrains.mps.baseLanguage.structure.ReturnStatement" flags="nn" index="3cpWs6">
        <child id="1068581517676" name="expression" index="3cqZAk" />
      </concept>
      <concept id="1068581242864" name="jetbrains.mps.baseLanguage.structure.LocalVariableDeclarationStatement" flags="nn" index="3cpWs8">
        <child id="1068581242865" name="localVariableDeclaration" index="3cpWs9" />
      </concept>
      <concept id="1068581242869" name="jetbrains.mps.baseLanguage.structure.MinusExpression" flags="nn" index="3cpWsd" />
      <concept id="1068581242863" name="jetbrains.mps.baseLanguage.structure.LocalVariableDeclaration" flags="nr" index="3cpWsn" />
      <concept id="1068581517677" name="jetbrains.mps.baseLanguage.structure.VoidType" flags="in" index="3cqZAl" />
      <concept id="1079359253375" name="jetbrains.mps.baseLanguage.structure.ParenthesizedExpression" flags="nn" index="1eOMI4">
        <child id="1079359253376" name="expression" index="1eOMHV" />
      </concept>
      <concept id="1081516740877" name="jetbrains.mps.baseLanguage.structure.NotExpression" flags="nn" index="3fqX7Q">
        <child id="1081516765348" name="expression" index="3fr31v" />
      </concept>
      <concept id="1204053956946" name="jetbrains.mps.baseLanguage.structure.IMethodCall" flags="ng" index="1ndlxa">
        <reference id="1068499141037" name="baseMethodDeclaration" index="37wK5l" />
        <child id="1068499141038" name="actualArgument" index="37wK5m" />
      </concept>
      <concept id="1212685548494" name="jetbrains.mps.baseLanguage.structure.ClassCreator" flags="nn" index="1pGfFk" />
      <concept id="1107461130800" name="jetbrains.mps.baseLanguage.structure.Classifier" flags="ng" index="3pOWGL">
        <child id="5375687026011219971" name="member" index="jymVt" unordered="true" />
      </concept>
      <concept id="1107535904670" name="jetbrains.mps.baseLanguage.structure.ClassifierType" flags="in" index="3uibUv">
        <reference id="1107535924139" name="classifier" index="3uigEE" />
      </concept>
      <concept id="1081773326031" name="jetbrains.mps.baseLanguage.structure.BinaryOperation" flags="nn" index="3uHJSO">
        <child id="1081773367579" name="rightExpression" index="3uHU7w" />
        <child id="1081773367580" name="leftExpression" index="3uHU7B" />
      </concept>
      <concept id="1178549954367" name="jetbrains.mps.baseLanguage.structure.IVisible" flags="ng" index="1B3ioH">
        <child id="1178549979242" name="visibility" index="1B3o_S" />
      </concept>
      <concept id="1208890769693" name="jetbrains.mps.baseLanguage.structure.ArrayLengthOperation" flags="nn" index="1Rwk04" />
      <concept id="1146644602865" name="jetbrains.mps.baseLanguage.structure.PublicVisibility" flags="nn" index="3Tm1VV" />
      <concept id="1080120340718" name="jetbrains.mps.baseLanguage.structure.AndExpression" flags="nn" index="1Wc70l" />
    </language>
    <language id="fd392034-7849-419d-9071-12563d152375" name="jetbrains.mps.baseLanguage.closures">
      <concept id="1199569711397" name="jetbrains.mps.baseLanguage.closures.structure.ClosureLiteral" flags="nn" index="1bVj0M">
        <child id="1199569906740" name="parameter" index="1bW2Oz" />
        <child id="1199569916463" name="body" index="1bW5cS" />
      </concept>
    </language>
    <language id="ceab5195-25ea-4f22-9b92-103b95ca8c0c" name="jetbrains.mps.lang.core">
      <concept id="1133920641626" name="jetbrains.mps.lang.core.structure.BaseConcept" flags="ng" index="2VYdi">
        <property id="1193676396447" name="virtualPackage" index="3GE5qa" />
      </concept>
      <concept id="1169194658468" name="jetbrains.mps.lang.core.structure.INamedConcept" flags="ng" index="TrEIO">
        <property id="1169194664001" name="name" index="TrG5h" />
      </concept>
    </language>
    <language id="83888646-71ce-4f1c-9c53-c54016f6ad4f" name="jetbrains.mps.baseLanguage.collections">
      <concept id="1204796164442" name="jetbrains.mps.baseLanguage.collections.structure.InternalSequenceOperation" flags="nn" index="23sCx2">
        <child id="1204796294226" name="closure" index="23t8la" />
      </concept>
      <concept id="1151689724996" name="jetbrains.mps.baseLanguage.collections.structure.SequenceType" flags="in" index="A3Dl8">
        <child id="1151689745422" name="elementType" index="A3Ik2" />
      </concept>
      <concept id="1203518072036" name="jetbrains.mps.baseLanguage.collections.structure.SmartClosureParameterDeclaration" flags="ig" index="Rh6nW" />
      <concept id="1240325842691" name="jetbrains.mps.baseLanguage.collections.structure.AsSequenceOperation" flags="nn" index="39bAoz" />
      <concept id="1201792049884" name="jetbrains.mps.baseLanguage.collections.structure.TranslateOperation" flags="nn" index="3goQfb" />
      <concept id="1165525191778" name="jetbrains.mps.baseLanguage.collections.structure.GetFirstOperation" flags="nn" index="1uHKPH" />
      <concept id="1202120902084" name="jetbrains.mps.baseLanguage.collections.structure.WhereOperation" flags="nn" index="3zZkjj" />
      <concept id="1202128969694" name="jetbrains.mps.baseLanguage.collections.structure.SelectOperation" flags="nn" index="3$u5V9" />
      <concept id="1176501494711" name="jetbrains.mps.baseLanguage.collections.structure.IsNotEmptyOperation" flags="nn" index="3GX2aA" />
    </language>
  </registry>
  <node concept="312cEu" id="7tKonudf8V5">
    <property role="TrG5h" value="LayoutUtil" />
    <node concept="3Tm1VV" id="7tKonudf8Wh" role="1B3o_S" />
    <node concept="3clFbW" id="4zooVZdvj2q" role="jymVt">
      <node concept="3cqZAl" id="4zooVZdvj2r" role="3clF45" />
      <node concept="3clFbS" id="4zooVZdvj2s" role="3clF47" />
      <node concept="3Tm1VV" id="4zooVZdvj2t" role="1B3o_S" />
    </node>
    <node concept="2YIFZL" id="7tKonudf8V6" role="jymVt">
      <property role="TrG5h" value="createFieldConstraints" />
      <node concept="3uibUv" id="7tKonudf8V7" role="3clF45">
        <ref role="3uigEE" to="z60i:~GridBagConstraints" resolve="GridBagConstraints" />
      </node>
      <node concept="3Tm1VV" id="7tKonudf8V8" role="1B3o_S" />
      <node concept="3clFbS" id="7tKonudf8V9" role="3clF47">
        <node concept="3cpWs6" id="7tKonudf8Va" role="3cqZAp">
          <node concept="2ShNRf" id="7tKonudf8Vb" role="3cqZAk">
            <node concept="1pGfFk" id="7tKonudf8Vc" role="2ShVmc">
              <ref role="37wK5l" to="z60i:~GridBagConstraints.&lt;init&gt;(int,int,int,int,double,double,int,int,java.awt.Insets,int,int)" resolve="GridBagConstraints" />
              <node concept="3cmrfG" id="7tKonudf8Vd" role="37wK5m">
                <property role="3cmrfH" value="0" />
              </node>
              <node concept="37vLTw" id="2BHiRxgm70n" role="37wK5m">
                <ref role="3cqZAo" node="7tKonudf8Vt" resolve="y" />
              </node>
              <node concept="3cmrfG" id="7tKonudf8Vf" role="37wK5m">
                <property role="3cmrfH" value="1" />
              </node>
              <node concept="3cmrfG" id="7tKonudf8Vg" role="37wK5m">
                <property role="3cmrfH" value="1" />
              </node>
              <node concept="3cmrfG" id="7tKonudf8Vh" role="37wK5m">
                <property role="3cmrfH" value="1" />
              </node>
              <node concept="3cmrfG" id="7tKonudf8Vi" role="37wK5m">
                <property role="3cmrfH" value="0" />
              </node>
              <node concept="10M0yZ" id="7tKonudf8Vj" role="37wK5m">
                <ref role="1PxDUh" to="z60i:~GridBagConstraints" resolve="GridBagConstraints" />
                <ref role="3cqZAo" to="z60i:~GridBagConstraints.NORTHWEST" resolve="NORTHWEST" />
              </node>
              <node concept="10M0yZ" id="7tKonudf8Vk" role="37wK5m">
                <ref role="1PxDUh" to="z60i:~GridBagConstraints" resolve="GridBagConstraints" />
                <ref role="3cqZAo" to="z60i:~GridBagConstraints.HORIZONTAL" resolve="HORIZONTAL" />
              </node>
              <node concept="2ShNRf" id="7tKonudf8Vl" role="37wK5m">
                <node concept="1pGfFk" id="7tKonudf8Vm" role="2ShVmc">
                  <ref role="37wK5l" to="z60i:~Insets.&lt;init&gt;(int,int,int,int)" resolve="Insets" />
                  <node concept="3cmrfG" id="7tKonudf8Vn" role="37wK5m">
                    <property role="3cmrfH" value="0" />
                  </node>
                  <node concept="3cmrfG" id="7tKonudf8Vo" role="37wK5m">
                    <property role="3cmrfH" value="0" />
                  </node>
                  <node concept="3cmrfG" id="7tKonudf8Vp" role="37wK5m">
                    <property role="3cmrfH" value="10" />
                  </node>
                  <node concept="3cmrfG" id="7tKonudf8Vq" role="37wK5m">
                    <property role="3cmrfH" value="0" />
                  </node>
                </node>
              </node>
              <node concept="3cmrfG" id="7tKonudf8Vr" role="37wK5m">
                <property role="3cmrfH" value="0" />
              </node>
              <node concept="3cmrfG" id="7tKonudf8Vs" role="37wK5m">
                <property role="3cmrfH" value="0" />
              </node>
            </node>
          </node>
        </node>
      </node>
      <node concept="37vLTG" id="7tKonudf8Vt" role="3clF46">
        <property role="TrG5h" value="y" />
        <node concept="10Oyi0" id="7tKonudf8Vu" role="1tU5fm" />
      </node>
    </node>
    <node concept="2YIFZL" id="7tKonudf8Vv" role="jymVt">
      <property role="TrG5h" value="createLabelConstraints" />
      <node concept="3uibUv" id="7tKonudf8Vw" role="3clF45">
        <ref role="3uigEE" to="z60i:~GridBagConstraints" resolve="GridBagConstraints" />
      </node>
      <node concept="3Tm1VV" id="7tKonudf8Vx" role="1B3o_S" />
      <node concept="3clFbS" id="7tKonudf8Vy" role="3clF47">
        <node concept="3cpWs6" id="7tKonudf8Vz" role="3cqZAp">
          <node concept="2ShNRf" id="7tKonudf8V$" role="3cqZAk">
            <node concept="1pGfFk" id="7tKonudf8V_" role="2ShVmc">
              <ref role="37wK5l" to="z60i:~GridBagConstraints.&lt;init&gt;(int,int,int,int,double,double,int,int,java.awt.Insets,int,int)" resolve="GridBagConstraints" />
              <node concept="3cmrfG" id="7tKonudf8VA" role="37wK5m">
                <property role="3cmrfH" value="0" />
              </node>
              <node concept="37vLTw" id="2BHiRxgm$8C" role="37wK5m">
                <ref role="3cqZAo" node="7tKonudf8VQ" resolve="y" />
              </node>
              <node concept="3cmrfG" id="7tKonudf8VC" role="37wK5m">
                <property role="3cmrfH" value="1" />
              </node>
              <node concept="3cmrfG" id="7tKonudf8VD" role="37wK5m">
                <property role="3cmrfH" value="1" />
              </node>
              <node concept="3cmrfG" id="7tKonudf8VE" role="37wK5m">
                <property role="3cmrfH" value="1" />
              </node>
              <node concept="3cmrfG" id="7tKonudf8VF" role="37wK5m">
                <property role="3cmrfH" value="0" />
              </node>
              <node concept="10M0yZ" id="7tKonudf8VG" role="37wK5m">
                <ref role="1PxDUh" to="z60i:~GridBagConstraints" resolve="GridBagConstraints" />
                <ref role="3cqZAo" to="z60i:~GridBagConstraints.NORTHWEST" resolve="NORTHWEST" />
              </node>
              <node concept="10M0yZ" id="7tKonudf8VH" role="37wK5m">
                <ref role="1PxDUh" to="z60i:~GridBagConstraints" resolve="GridBagConstraints" />
                <ref role="3cqZAo" to="z60i:~GridBagConstraints.HORIZONTAL" resolve="HORIZONTAL" />
              </node>
              <node concept="2ShNRf" id="7tKonudf8VI" role="37wK5m">
                <node concept="1pGfFk" id="7tKonudf8VJ" role="2ShVmc">
                  <ref role="37wK5l" to="z60i:~Insets.&lt;init&gt;(int,int,int,int)" resolve="Insets" />
                  <node concept="3cmrfG" id="7tKonudf8VK" role="37wK5m">
                    <property role="3cmrfH" value="0" />
                  </node>
                  <node concept="3cmrfG" id="7tKonudf8VL" role="37wK5m">
                    <property role="3cmrfH" value="0" />
                  </node>
                  <node concept="3cmrfG" id="7tKonudf8VM" role="37wK5m">
                    <property role="3cmrfH" value="0" />
                  </node>
                  <node concept="3cmrfG" id="7tKonudf8VN" role="37wK5m">
                    <property role="3cmrfH" value="0" />
                  </node>
                </node>
              </node>
              <node concept="3cmrfG" id="7tKonudf8VO" role="37wK5m">
                <property role="3cmrfH" value="0" />
              </node>
              <node concept="3cmrfG" id="7tKonudf8VP" role="37wK5m">
                <property role="3cmrfH" value="0" />
              </node>
            </node>
          </node>
        </node>
      </node>
      <node concept="37vLTG" id="7tKonudf8VQ" role="3clF46">
        <property role="TrG5h" value="y" />
        <node concept="10Oyi0" id="7tKonudf8VR" role="1tU5fm" />
      </node>
    </node>
    <node concept="2YIFZL" id="7tKonudf8VS" role="jymVt">
      <property role="TrG5h" value="createPanelConstraints" />
      <node concept="3uibUv" id="7tKonudf8VT" role="3clF45">
        <ref role="3uigEE" to="z60i:~GridBagConstraints" resolve="GridBagConstraints" />
      </node>
      <node concept="3Tm1VV" id="7tKonudf8VU" role="1B3o_S" />
      <node concept="3clFbS" id="7tKonudf8VV" role="3clF47">
        <node concept="3cpWs6" id="7tKonudf8VW" role="3cqZAp">
          <node concept="2ShNRf" id="7tKonudf8VX" role="3cqZAk">
            <node concept="1pGfFk" id="7tKonudf8VY" role="2ShVmc">
              <ref role="37wK5l" to="z60i:~GridBagConstraints.&lt;init&gt;(int,int,int,int,double,double,int,int,java.awt.Insets,int,int)" resolve="GridBagConstraints" />
              <node concept="3cmrfG" id="7tKonudf8VZ" role="37wK5m">
                <property role="3cmrfH" value="0" />
              </node>
              <node concept="37vLTw" id="2BHiRxglfko" role="37wK5m">
                <ref role="3cqZAo" node="7tKonudf8Wf" resolve="y" />
              </node>
              <node concept="3cmrfG" id="7tKonudf8W1" role="37wK5m">
                <property role="3cmrfH" value="1" />
              </node>
              <node concept="3cmrfG" id="7tKonudf8W2" role="37wK5m">
                <property role="3cmrfH" value="1" />
              </node>
              <node concept="3cmrfG" id="7tKonudf8W3" role="37wK5m">
                <property role="3cmrfH" value="1" />
              </node>
              <node concept="3cmrfG" id="7tKonudf8W4" role="37wK5m">
                <property role="3cmrfH" value="1" />
              </node>
              <node concept="10M0yZ" id="7tKonudf8W5" role="37wK5m">
                <ref role="1PxDUh" to="z60i:~GridBagConstraints" resolve="GridBagConstraints" />
                <ref role="3cqZAo" to="z60i:~GridBagConstraints.NORTHWEST" resolve="NORTHWEST" />
              </node>
              <node concept="10M0yZ" id="7tKonudf8W6" role="37wK5m">
                <ref role="1PxDUh" to="z60i:~GridBagConstraints" resolve="GridBagConstraints" />
                <ref role="3cqZAo" to="z60i:~GridBagConstraints.BOTH" resolve="BOTH" />
              </node>
              <node concept="2ShNRf" id="7tKonudf8W7" role="37wK5m">
                <node concept="1pGfFk" id="7tKonudf8W8" role="2ShVmc">
                  <ref role="37wK5l" to="z60i:~Insets.&lt;init&gt;(int,int,int,int)" resolve="Insets" />
                  <node concept="3cmrfG" id="7tKonudf8W9" role="37wK5m">
                    <property role="3cmrfH" value="0" />
                  </node>
                  <node concept="3cmrfG" id="7tKonudf8Wa" role="37wK5m">
                    <property role="3cmrfH" value="0" />
                  </node>
                  <node concept="3cmrfG" id="7tKonudf8Wb" role="37wK5m">
                    <property role="3cmrfH" value="0" />
                  </node>
                  <node concept="3cmrfG" id="7tKonudf8Wc" role="37wK5m">
                    <property role="3cmrfH" value="0" />
                  </node>
                </node>
              </node>
              <node concept="3cmrfG" id="7tKonudf8Wd" role="37wK5m">
                <property role="3cmrfH" value="0" />
              </node>
              <node concept="3cmrfG" id="7tKonudf8We" role="37wK5m">
                <property role="3cmrfH" value="0" />
              </node>
            </node>
          </node>
        </node>
      </node>
      <node concept="37vLTG" id="7tKonudf8Wf" role="3clF46">
        <property role="TrG5h" value="y" />
        <node concept="10Oyi0" id="7tKonudf8Wg" role="1tU5fm" />
      </node>
    </node>
  </node>
  <node concept="312cEu" id="3EnpNH2_Hx5">
    <property role="TrG5h" value="FileOpenUtil" />
    <property role="3GE5qa" value="analyzeTrace" />
    <node concept="3Tm1VV" id="3EnpNH2_Hx6" role="1B3o_S" />
    <node concept="3clFbW" id="3EnpNH2_Hx7" role="jymVt">
      <node concept="3cqZAl" id="3EnpNH2_Hx8" role="3clF45" />
      <node concept="3Tm1VV" id="3EnpNH2_Hx9" role="1B3o_S" />
      <node concept="3clFbS" id="3EnpNH2_Hxa" role="3clF47" />
    </node>
    <node concept="2tJIrI" id="3DMUjJxKYjI" role="jymVt" />
    <node concept="2YIFZL" id="3EnpNH2_Hxb" role="jymVt">
      <property role="TrG5h" value="findFile" />
      <node concept="37vLTG" id="3EnpNH2_Hxc" role="3clF46">
        <property role="TrG5h" value="project" />
        <node concept="3uibUv" id="3EnpNH2_Hxd" role="1tU5fm">
          <ref role="3uigEE" to="4nm9:~Project" resolve="Project" />
        </node>
      </node>
      <node concept="37vLTG" id="3EnpNH2_Hxe" role="3clF46">
        <property role="TrG5h" value="unitName" />
        <node concept="17QB3L" id="3EnpNH2_Hxf" role="1tU5fm" />
      </node>
      <node concept="37vLTG" id="3EnpNH2_Hxg" role="3clF46">
        <property role="TrG5h" value="fileName" />
        <node concept="17QB3L" id="3EnpNH2_Hxh" role="1tU5fm" />
      </node>
      <node concept="3Tm1VV" id="3EnpNH2_Hxi" role="1B3o_S" />
      <node concept="3clFbS" id="3EnpNH2_Hxj" role="3clF47">
        <node concept="3cpWs8" id="3EnpNH2_Hxk" role="3cqZAp">
          <node concept="3cpWsn" id="3EnpNH2_Hxl" role="3cpWs9">
            <property role="TrG5h" value="fullFileName" />
            <node concept="17QB3L" id="3EnpNH2_Hxm" role="1tU5fm" />
            <node concept="2OqwBi" id="3EnpNH2_Hxn" role="33vP2m">
              <node concept="37vLTw" id="2BHiRxgmDku" role="2Oq$k0">
                <ref role="3cqZAo" node="3EnpNH2_Hxe" resolve="unitName" />
              </node>
              <node concept="liA8E" id="3EnpNH2_Hxp" role="2OqNvi">
                <ref role="37wK5l" to="wyt6:~String.replace(java.lang.CharSequence,java.lang.CharSequence):java.lang.String" resolve="replace" />
                <node concept="Xl_RD" id="3EnpNH2_Hxq" role="37wK5m">
                  <property role="Xl_RC" value="." />
                </node>
                <node concept="Xl_RD" id="3EnpNH2_Hxr" role="37wK5m">
                  <property role="Xl_RC" value="/" />
                </node>
              </node>
            </node>
          </node>
        </node>
        <node concept="3clFbJ" id="3EnpNH2_Hxs" role="3cqZAp">
          <node concept="3clFbS" id="3EnpNH2_Hxt" role="3clFbx">
            <node concept="3cpWs8" id="3EnpNH2_Hxu" role="3cqZAp">
              <node concept="3cpWsn" id="3EnpNH2_Hxv" role="3cpWs9">
                <property role="TrG5h" value="lastDot" />
                <node concept="10Oyi0" id="3EnpNH2_Hxw" role="1tU5fm" />
                <node concept="2OqwBi" id="3EnpNH2_Hxx" role="33vP2m">
                  <node concept="37vLTw" id="2BHiRxgkX5W" role="2Oq$k0">
                    <ref role="3cqZAo" node="3EnpNH2_Hxe" resolve="unitName" />
                  </node>
                  <node concept="liA8E" id="3EnpNH2_Hxz" role="2OqNvi">
                    <ref role="37wK5l" to="wyt6:~String.lastIndexOf(java.lang.String):int" resolve="lastIndexOf" />
                    <node concept="Xl_RD" id="3EnpNH2_Hx$" role="37wK5m">
                      <property role="Xl_RC" value="." />
                    </node>
                  </node>
                </node>
              </node>
            </node>
            <node concept="3clFbJ" id="3EnpNH2_Hx_" role="3cqZAp">
              <node concept="3clFbS" id="3EnpNH2_HxA" role="3clFbx">
                <node concept="3clFbF" id="3EnpNH2_HxB" role="3cqZAp">
                  <node concept="37vLTI" id="3EnpNH2_HxC" role="3clFbG">
                    <node concept="37vLTw" id="2BHiRxgm6wo" role="37vLTx">
                      <ref role="3cqZAo" node="3EnpNH2_Hxg" resolve="fileName" />
                    </node>
                    <node concept="37vLTw" id="3GM_nagTw35" role="37vLTJ">
                      <ref role="3cqZAo" node="3EnpNH2_Hxl" resolve="fullFileName" />
                    </node>
                  </node>
                </node>
              </node>
              <node concept="3clFbC" id="3EnpNH2_HxF" role="3clFbw">
                <node concept="3cmrfG" id="3EnpNH2_HxG" role="3uHU7w">
                  <property role="3cmrfH" value="-1" />
                </node>
                <node concept="37vLTw" id="3GM_nagT_gM" role="3uHU7B">
                  <ref role="3cqZAo" node="3EnpNH2_Hxv" resolve="lastDot" />
                </node>
              </node>
              <node concept="9aQIb" id="3EnpNH2_HxI" role="9aQIa">
                <node concept="3clFbS" id="3EnpNH2_HxJ" role="9aQI4">
                  <node concept="3clFbF" id="3EnpNH2_HxK" role="3cqZAp">
                    <node concept="37vLTI" id="3EnpNH2_HxL" role="3clFbG">
                      <node concept="3cpWs3" id="3EnpNH2_HxM" role="37vLTx">
                        <node concept="3cpWs3" id="3EnpNH2_HxN" role="3uHU7B">
                          <node concept="2OqwBi" id="3EnpNH2_HxO" role="3uHU7B">
                            <node concept="2OqwBi" id="3EnpNH2_HxP" role="2Oq$k0">
                              <node concept="37vLTw" id="2BHiRxglzN0" role="2Oq$k0">
                                <ref role="3cqZAo" node="3EnpNH2_Hxe" resolve="unitName" />
                              </node>
                              <node concept="liA8E" id="3EnpNH2_HxR" role="2OqNvi">
                                <ref role="37wK5l" to="wyt6:~String.substring(int,int):java.lang.String" resolve="substring" />
                                <node concept="3cmrfG" id="3EnpNH2_HxS" role="37wK5m">
                                  <property role="3cmrfH" value="0" />
                                </node>
                                <node concept="37vLTw" id="3GM_nagTvgn" role="37wK5m">
                                  <ref role="3cqZAo" node="3EnpNH2_Hxv" resolve="lastDot" />
                                </node>
                              </node>
                            </node>
                            <node concept="liA8E" id="3EnpNH2_HxU" role="2OqNvi">
                              <ref role="37wK5l" to="wyt6:~String.replace(java.lang.CharSequence,java.lang.CharSequence):java.lang.String" resolve="replace" />
                              <node concept="Xl_RD" id="3EnpNH2_HxV" role="37wK5m">
                                <property role="Xl_RC" value="." />
                              </node>
                              <node concept="Xl_RD" id="3EnpNH2_HxW" role="37wK5m">
                                <property role="Xl_RC" value="/" />
                              </node>
                            </node>
                          </node>
                          <node concept="Xl_RD" id="3EnpNH2_HxX" role="3uHU7w">
                            <property role="Xl_RC" value="/" />
                          </node>
                        </node>
                        <node concept="37vLTw" id="2BHiRxgm6E4" role="3uHU7w">
                          <ref role="3cqZAo" node="3EnpNH2_Hxg" resolve="fileName" />
                        </node>
                      </node>
                      <node concept="37vLTw" id="3GM_nagTAtm" role="37vLTJ">
                        <ref role="3cqZAo" node="3EnpNH2_Hxl" resolve="fullFileName" />
                      </node>
                    </node>
                  </node>
                </node>
              </node>
            </node>
          </node>
          <node concept="3fqX7Q" id="3EnpNH2_Hy0" role="3clFbw">
            <node concept="2OqwBi" id="3EnpNH2_Hy1" role="3fr31v">
              <node concept="37vLTw" id="2BHiRxglB94" role="2Oq$k0">
                <ref role="3cqZAo" node="3EnpNH2_Hxe" resolve="unitName" />
              </node>
              <node concept="liA8E" id="3EnpNH2_Hy3" role="2OqNvi">
                <ref role="37wK5l" to="wyt6:~String.endsWith(java.lang.String):boolean" resolve="endsWith" />
                <node concept="37vLTw" id="2BHiRxgll20" role="37wK5m">
                  <ref role="3cqZAo" node="3EnpNH2_Hxg" resolve="fileName" />
                </node>
              </node>
            </node>
          </node>
        </node>
        <node concept="3cpWs8" id="3EnpNH2_Hy5" role="3cqZAp">
          <node concept="3cpWsn" id="3EnpNH2_Hy6" role="3cpWs9">
            <property role="TrG5h" value="extensions" />
            <node concept="10Q1$e" id="3EnpNH2_Hy7" role="1tU5fm">
              <node concept="3uibUv" id="3EnpNH2_Hy8" role="10Q1$1">
                <ref role="3uigEE" to="qwe6:~ChooseByNameContributor" resolve="ChooseByNameContributor" />
              </node>
            </node>
            <node concept="2YIFZM" id="3EnpNH2_Hy9" role="33vP2m">
              <ref role="37wK5l" to="9ti4:~Extensions.getExtensions(com.intellij.openapi.extensions.ExtensionPointName):java.lang.Object[]" resolve="getExtensions" />
              <ref role="1Pybhc" to="9ti4:~Extensions" resolve="Extensions" />
              <node concept="10M0yZ" id="3EnpNH2_Hya" role="37wK5m">
                <ref role="1PxDUh" to="qwe6:~ChooseByNameContributor" resolve="ChooseByNameContributor" />
                <ref role="3cqZAo" to="qwe6:~ChooseByNameContributor.FILE_EP_NAME" resolve="FILE_EP_NAME" />
              </node>
            </node>
          </node>
        </node>
        <node concept="3cpWs8" id="3EnpNH2_Hyb" role="3cqZAp">
          <node concept="3cpWsn" id="3EnpNH2_Hyc" role="3cpWs9">
            <property role="TrG5h" value="found" />
            <node concept="A3Dl8" id="3EnpNH2_Hyd" role="1tU5fm">
              <node concept="3uibUv" id="3EnpNH2_Hye" role="A3Ik2">
                <ref role="3uigEE" to="qwe6:~NavigationItem" resolve="NavigationItem" />
              </node>
            </node>
            <node concept="2OqwBi" id="3EnpNH2_Hyf" role="33vP2m">
              <node concept="2OqwBi" id="3EnpNH2_Hyg" role="2Oq$k0">
                <node concept="37vLTw" id="3GM_nagTwLt" role="2Oq$k0">
                  <ref role="3cqZAo" node="3EnpNH2_Hy6" resolve="extensions" />
                </node>
                <node concept="39bAoz" id="3EnpNH2_Hyi" role="2OqNvi" />
              </node>
              <node concept="3goQfb" id="3EnpNH2_Hyj" role="2OqNvi">
                <node concept="1bVj0M" id="3EnpNH2_Hyk" role="23t8la">
                  <node concept="3clFbS" id="3EnpNH2_Hyl" role="1bW5cS">
                    <node concept="3clFbF" id="3EnpNH2_Hym" role="3cqZAp">
                      <node concept="2OqwBi" id="3EnpNH2_Hyn" role="3clFbG">
                        <node concept="2OqwBi" id="3EnpNH2_Hyo" role="2Oq$k0">
                          <node concept="37vLTw" id="2BHiRxghiJT" role="2Oq$k0">
                            <ref role="3cqZAo" node="3EnpNH2_Hyw" resolve="it" />
                          </node>
                          <node concept="liA8E" id="3EnpNH2_Hyq" role="2OqNvi">
                            <ref role="37wK5l" to="qwe6:~ChooseByNameContributor.getItemsByName(java.lang.String,java.lang.String,com.intellij.openapi.project.Project,boolean):com.intellij.navigation.NavigationItem[]" resolve="getItemsByName" />
                            <node concept="37vLTw" id="2BHiRxgm9jW" role="37wK5m">
                              <ref role="3cqZAo" node="3EnpNH2_Hxg" resolve="fileName" />
                            </node>
                            <node concept="37vLTw" id="2BHiRxgm2tl" role="37wK5m">
                              <ref role="3cqZAo" node="3EnpNH2_Hxg" resolve="fileName" />
                            </node>
                            <node concept="37vLTw" id="2BHiRxgmeWQ" role="37wK5m">
                              <ref role="3cqZAo" node="3EnpNH2_Hxc" resolve="project" />
                            </node>
                            <node concept="3clFbT" id="3EnpNH2_Hyu" role="37wK5m">
                              <property role="3clFbU" value="true" />
                            </node>
                          </node>
                        </node>
                        <node concept="39bAoz" id="3EnpNH2_Hyv" role="2OqNvi" />
                      </node>
                    </node>
                  </node>
                  <node concept="Rh6nW" id="3EnpNH2_Hyw" role="1bW2Oz">
                    <property role="TrG5h" value="it" />
                    <node concept="2jxLKc" id="3EnpNH2_Hyx" role="1tU5fm" />
                  </node>
                </node>
              </node>
            </node>
          </node>
        </node>
        <node concept="3cpWs8" id="3EnpNH2_Hyy" role="3cqZAp">
          <node concept="3cpWsn" id="3EnpNH2_Hyz" role="3cpWs9">
            <property role="TrG5h" value="matching" />
            <node concept="A3Dl8" id="3EnpNH2_Hy$" role="1tU5fm">
              <node concept="3uibUv" id="3EnpNH2_Hy_" role="A3Ik2">
                <ref role="3uigEE" to="jlff:~VirtualFile" resolve="VirtualFile" />
              </node>
            </node>
            <node concept="2OqwBi" id="3EnpNH2_HyA" role="33vP2m">
              <node concept="2OqwBi" id="3EnpNH2_HyB" role="2Oq$k0">
                <node concept="2OqwBi" id="3EnpNH2_HyC" role="2Oq$k0">
                  <node concept="37vLTw" id="3GM_nagT_j1" role="2Oq$k0">
                    <ref role="3cqZAo" node="3EnpNH2_Hyc" resolve="found" />
                  </node>
                  <node concept="3zZkjj" id="3EnpNH2_HyE" role="2OqNvi">
                    <node concept="1bVj0M" id="3EnpNH2_HyF" role="23t8la">
                      <node concept="3clFbS" id="3EnpNH2_HyG" role="1bW5cS">
                        <node concept="3clFbF" id="3EnpNH2_HyH" role="3cqZAp">
                          <node concept="2ZW3vV" id="3EnpNH2_HyI" role="3clFbG">
                            <node concept="3uibUv" id="3EnpNH2_HyJ" role="2ZW6by">
                              <ref role="3uigEE" to="fyhk:~MPSGoToFileContributor$FileNavigationItem" resolve="MPSGoToFileContributor.FileNavigationItem" />
                            </node>
                            <node concept="37vLTw" id="2BHiRxgldaO" role="2ZW6bz">
                              <ref role="3cqZAo" node="3EnpNH2_HyL" resolve="it" />
                            </node>
                          </node>
                        </node>
                      </node>
                      <node concept="Rh6nW" id="3EnpNH2_HyL" role="1bW2Oz">
                        <property role="TrG5h" value="it" />
                        <node concept="2jxLKc" id="3EnpNH2_HyM" role="1tU5fm" />
                      </node>
                    </node>
                  </node>
                </node>
                <node concept="3$u5V9" id="3EnpNH2_HyN" role="2OqNvi">
                  <node concept="1bVj0M" id="3EnpNH2_HyO" role="23t8la">
                    <node concept="3clFbS" id="3EnpNH2_HyP" role="1bW5cS">
                      <node concept="3clFbF" id="3EnpNH2_HyQ" role="3cqZAp">
                        <node concept="2OqwBi" id="3EnpNH2_HyR" role="3clFbG">
                          <node concept="1eOMI4" id="3EnpNH2_HyS" role="2Oq$k0">
                            <node concept="10QFUN" id="3EnpNH2_HyT" role="1eOMHV">
                              <node concept="3uibUv" id="3EnpNH2_HyU" role="10QFUM">
                                <ref role="3uigEE" to="fyhk:~MPSGoToFileContributor$FileNavigationItem" resolve="MPSGoToFileContributor.FileNavigationItem" />
                              </node>
                              <node concept="37vLTw" id="2BHiRxgl84X" role="10QFUP">
                                <ref role="3cqZAo" node="3EnpNH2_HyX" resolve="it" />
                              </node>
                            </node>
                          </node>
                          <node concept="liA8E" id="3EnpNH2_HyW" role="2OqNvi">
                            <ref role="37wK5l" to="fyhk:~MPSGoToFileContributor$FileNavigationItem.getVirtualFile():com.intellij.openapi.vfs.VirtualFile" resolve="getVirtualFile" />
                          </node>
                        </node>
                      </node>
                    </node>
                    <node concept="Rh6nW" id="3EnpNH2_HyX" role="1bW2Oz">
                      <property role="TrG5h" value="it" />
                      <node concept="2jxLKc" id="3EnpNH2_HyY" role="1tU5fm" />
                    </node>
                  </node>
                </node>
              </node>
              <node concept="3zZkjj" id="3EnpNH2_HyZ" role="2OqNvi">
                <node concept="1bVj0M" id="3EnpNH2_Hz0" role="23t8la">
                  <node concept="3clFbS" id="3EnpNH2_Hz1" role="1bW5cS">
                    <node concept="3clFbF" id="3EnpNH2_Hz2" role="3cqZAp">
                      <node concept="2OqwBi" id="3EnpNH2_Hz3" role="3clFbG">
                        <node concept="2OqwBi" id="3EnpNH2_Hz4" role="2Oq$k0">
                          <node concept="37vLTw" id="2BHiRxghgra" role="2Oq$k0">
                            <ref role="3cqZAo" node="3EnpNH2_Hz9" resolve="it" />
                          </node>
                          <node concept="liA8E" id="3EnpNH2_Hz6" role="2OqNvi">
                            <ref role="37wK5l" to="jlff:~VirtualFile.getPath():java.lang.String" resolve="getPath" />
                          </node>
                        </node>
                        <node concept="liA8E" id="3EnpNH2_Hz7" role="2OqNvi">
                          <ref role="37wK5l" to="wyt6:~String.endsWith(java.lang.String):boolean" resolve="endsWith" />
                          <node concept="37vLTw" id="3GM_nagTy5h" role="37wK5m">
                            <ref role="3cqZAo" node="3EnpNH2_Hxl" resolve="fullFileName" />
                          </node>
                        </node>
                      </node>
                    </node>
                  </node>
                  <node concept="Rh6nW" id="3EnpNH2_Hz9" role="1bW2Oz">
                    <property role="TrG5h" value="it" />
                    <node concept="2jxLKc" id="3EnpNH2_Hza" role="1tU5fm" />
                  </node>
                </node>
              </node>
            </node>
          </node>
        </node>
        <node concept="3clFbJ" id="3EnpNH2_Hzb" role="3cqZAp">
          <node concept="3clFbS" id="3EnpNH2_Hzc" role="3clFbx">
            <node concept="3cpWs6" id="3EnpNH2_Hzd" role="3cqZAp">
              <node concept="2OqwBi" id="3EnpNH2_Hze" role="3cqZAk">
                <node concept="37vLTw" id="3GM_nagT$5w" role="2Oq$k0">
                  <ref role="3cqZAo" node="3EnpNH2_Hyz" resolve="matching" />
                </node>
                <node concept="1uHKPH" id="3EnpNH2_Hzg" role="2OqNvi" />
              </node>
            </node>
          </node>
          <node concept="2OqwBi" id="3EnpNH2_Hzh" role="3clFbw">
            <node concept="37vLTw" id="3GM_nagT$RJ" role="2Oq$k0">
              <ref role="3cqZAo" node="3EnpNH2_Hyz" resolve="matching" />
            </node>
            <node concept="3GX2aA" id="3EnpNH2_Hzj" role="2OqNvi" />
          </node>
        </node>
        <node concept="3cpWs6" id="3EnpNH2_Hzk" role="3cqZAp">
          <node concept="10Nm6u" id="3EnpNH2_Hzl" role="3cqZAk" />
        </node>
      </node>
      <node concept="3uibUv" id="3EnpNH2_Hzm" role="3clF45">
        <ref role="3uigEE" to="jlff:~VirtualFile" resolve="VirtualFile" />
      </node>
      <node concept="2AHcQZ" id="3EnpNH2_Hzn" role="2AJF6D">
        <ref role="2AI5Lk" to="mhfm:~Nullable" resolve="Nullable" />
      </node>
    </node>
    <node concept="2tJIrI" id="3DMUjJxKYnS" role="jymVt" />
    <node concept="2YIFZL" id="3EnpNH2_Hzo" role="jymVt">
      <property role="TrG5h" value="openFile" />
      <node concept="3cqZAl" id="3EnpNH2_Hzp" role="3clF45" />
      <node concept="3Tm1VV" id="3EnpNH2_Hzq" role="1B3o_S" />
      <node concept="3clFbS" id="3EnpNH2_Hzr" role="3clF47">
        <node concept="3cpWs8" id="3EnpNH2_Hzs" role="3cqZAp">
          <node concept="3cpWsn" id="3EnpNH2_Hzt" role="3cpWs9">
            <property role="TrG5h" value="result" />
            <property role="3TUv4t" value="false" />
            <node concept="10Q1$e" id="3EnpNH2_Hzu" role="1tU5fm">
              <node concept="3uibUv" id="3EnpNH2_Hzv" role="10Q1$1">
                <ref role="3uigEE" to="iwsx:~FileEditor" resolve="FileEditor" />
              </node>
            </node>
            <node concept="2OqwBi" id="3EnpNH2_Hzw" role="33vP2m">
              <node concept="2YIFZM" id="3EnpNH2_Hzx" role="2Oq$k0">
                <ref role="37wK5l" to="iwsx:~FileEditorManager.getInstance(com.intellij.openapi.project.Project):com.intellij.openapi.fileEditor.FileEditorManager" resolve="getInstance" />
                <ref role="1Pybhc" to="iwsx:~FileEditorManager" resolve="FileEditorManager" />
                <node concept="37vLTw" id="2BHiRxglrfh" role="37wK5m">
                  <ref role="3cqZAo" node="3EnpNH2_H$m" resolve="project" />
                </node>
              </node>
              <node concept="liA8E" id="3EnpNH2_Hzz" role="2OqNvi">
                <ref role="37wK5l" to="iwsx:~FileEditorManager.openFile(com.intellij.openapi.vfs.VirtualFile,boolean,boolean):com.intellij.openapi.fileEditor.FileEditor[]" resolve="openFile" />
                <node concept="37vLTw" id="2BHiRxglDsH" role="37wK5m">
                  <ref role="3cqZAo" node="3EnpNH2_H$o" resolve="file" />
                </node>
                <node concept="3clFbT" id="3EnpNH2_Hz_" role="37wK5m">
                  <property role="3clFbU" value="true" />
                </node>
                <node concept="3clFbT" id="5Jtl8rzHVxU" role="37wK5m">
                  <property role="3clFbU" value="true" />
                </node>
              </node>
            </node>
          </node>
        </node>
        <node concept="3clFbJ" id="3EnpNH2_HzA" role="3cqZAp">
          <node concept="1Wc70l" id="3EnpNH2_HzB" role="3clFbw">
            <node concept="3clFbC" id="3EnpNH2_HzC" role="3uHU7B">
              <node concept="2OqwBi" id="3EnpNH2_HzD" role="3uHU7B">
                <node concept="37vLTw" id="3GM_nagTtLa" role="2Oq$k0">
                  <ref role="3cqZAo" node="3EnpNH2_Hzt" resolve="result" />
                </node>
                <node concept="1Rwk04" id="3EnpNH2_HzF" role="2OqNvi" />
              </node>
              <node concept="3cmrfG" id="3EnpNH2_HzG" role="3uHU7w">
                <property role="3cmrfH" value="1" />
              </node>
            </node>
            <node concept="2ZW3vV" id="3EnpNH2_HzH" role="3uHU7w">
              <node concept="AH0OO" id="3EnpNH2_HzI" role="2ZW6bz">
                <node concept="37vLTw" id="3GM_nagTwjw" role="AHHXb">
                  <ref role="3cqZAo" node="3EnpNH2_Hzt" resolve="result" />
                </node>
                <node concept="3cmrfG" id="3EnpNH2_HzK" role="AHEQo">
                  <property role="3cmrfH" value="0" />
                </node>
              </node>
              <node concept="3uibUv" id="3EnpNH2_HzL" role="2ZW6by">
                <ref role="3uigEE" to="iwsx:~TextEditor" resolve="TextEditor" />
              </node>
            </node>
          </node>
          <node concept="3clFbS" id="3EnpNH2_HzM" role="3clFbx">
            <node concept="3cpWs8" id="3EnpNH2_HzN" role="3cqZAp">
              <node concept="3cpWsn" id="3EnpNH2_HzO" role="3cpWs9">
                <property role="TrG5h" value="textEditor" />
                <property role="3TUv4t" value="false" />
                <node concept="3uibUv" id="3EnpNH2_HzP" role="1tU5fm">
                  <ref role="3uigEE" to="iwsx:~TextEditor" resolve="TextEditor" />
                </node>
                <node concept="10QFUN" id="3EnpNH2_HzQ" role="33vP2m">
                  <node concept="AH0OO" id="3EnpNH2_HzR" role="10QFUP">
                    <node concept="37vLTw" id="3GM_nagTzqg" role="AHHXb">
                      <ref role="3cqZAo" node="3EnpNH2_Hzt" resolve="result" />
                    </node>
                    <node concept="3cmrfG" id="3EnpNH2_HzT" role="AHEQo">
                      <property role="3cmrfH" value="0" />
                    </node>
                  </node>
                  <node concept="3uibUv" id="3EnpNH2_HzU" role="10QFUM">
                    <ref role="3uigEE" to="iwsx:~TextEditor" resolve="TextEditor" />
                  </node>
                </node>
              </node>
            </node>
            <node concept="3cpWs8" id="3EnpNH2_HzV" role="3cqZAp">
              <node concept="3cpWsn" id="3EnpNH2_HzW" role="3cpWs9">
                <property role="TrG5h" value="position" />
                <property role="3TUv4t" value="false" />
                <node concept="3uibUv" id="3EnpNH2_HzX" role="1tU5fm">
                  <ref role="3uigEE" to="s9o5:~LogicalPosition" resolve="LogicalPosition" />
                </node>
                <node concept="2ShNRf" id="3EnpNH2_HzY" role="33vP2m">
                  <node concept="1pGfFk" id="3EnpNH2_HzZ" role="2ShVmc">
                    <ref role="37wK5l" to="s9o5:~LogicalPosition.&lt;init&gt;(int,int)" resolve="LogicalPosition" />
                    <node concept="3cpWsd" id="3EnpNH2_H$0" role="37wK5m">
                      <node concept="3cmrfG" id="3EnpNH2_H$1" role="3uHU7w">
                        <property role="3cmrfH" value="1" />
                      </node>
                      <node concept="37vLTw" id="2BHiRxgm84q" role="3uHU7B">
                        <ref role="3cqZAo" node="3EnpNH2_H$q" resolve="lineNumber" />
                      </node>
                    </node>
                    <node concept="3cmrfG" id="3EnpNH2_H$3" role="37wK5m">
                      <property role="3cmrfH" value="0" />
                    </node>
                  </node>
                </node>
              </node>
            </node>
            <node concept="3clFbF" id="3EnpNH2_H$4" role="3cqZAp">
              <node concept="2OqwBi" id="3EnpNH2_H$5" role="3clFbG">
                <node concept="2OqwBi" id="3EnpNH2_H$6" role="2Oq$k0">
                  <node concept="2OqwBi" id="3EnpNH2_H$7" role="2Oq$k0">
                    <node concept="37vLTw" id="3GM_nagT$AJ" role="2Oq$k0">
                      <ref role="3cqZAo" node="3EnpNH2_HzO" resolve="textEditor" />
                    </node>
                    <node concept="liA8E" id="3EnpNH2_H$9" role="2OqNvi">
                      <ref role="37wK5l" to="iwsx:~TextEditor.getEditor():com.intellij.openapi.editor.Editor" resolve="getEditor" />
                    </node>
                  </node>
                  <node concept="liA8E" id="3EnpNH2_H$a" role="2OqNvi">
                    <ref role="37wK5l" to="s9o5:~Editor.getCaretModel():com.intellij.openapi.editor.CaretModel" resolve="getCaretModel" />
                  </node>
                </node>
                <node concept="liA8E" id="3EnpNH2_H$b" role="2OqNvi">
                  <ref role="37wK5l" to="s9o5:~CaretModel.moveToLogicalPosition(com.intellij.openapi.editor.LogicalPosition):void" resolve="moveToLogicalPosition" />
                  <node concept="37vLTw" id="3GM_nagTtoK" role="37wK5m">
                    <ref role="3cqZAo" node="3EnpNH2_HzW" resolve="position" />
                  </node>
                </node>
              </node>
            </node>
            <node concept="3clFbF" id="3EnpNH2_H$d" role="3cqZAp">
              <node concept="2OqwBi" id="3EnpNH2_H$e" role="3clFbG">
                <node concept="2OqwBi" id="3EnpNH2_H$f" role="2Oq$k0">
                  <node concept="2OqwBi" id="3EnpNH2_H$g" role="2Oq$k0">
                    <node concept="37vLTw" id="3GM_nagTuGh" role="2Oq$k0">
                      <ref role="3cqZAo" node="3EnpNH2_HzO" resolve="textEditor" />
                    </node>
                    <node concept="liA8E" id="3EnpNH2_H$i" role="2OqNvi">
                      <ref role="37wK5l" to="iwsx:~TextEditor.getEditor():com.intellij.openapi.editor.Editor" resolve="getEditor" />
                    </node>
                  </node>
                  <node concept="liA8E" id="3EnpNH2_H$j" role="2OqNvi">
                    <ref role="37wK5l" to="s9o5:~Editor.getScrollingModel():com.intellij.openapi.editor.ScrollingModel" resolve="getScrollingModel" />
                  </node>
                </node>
                <node concept="liA8E" id="3EnpNH2_H$k" role="2OqNvi">
                  <ref role="37wK5l" to="s9o5:~ScrollingModel.scrollToCaret(com.intellij.openapi.editor.ScrollType):void" resolve="scrollToCaret" />
                  <node concept="Rm8GO" id="3EnpNH2_H$l" role="37wK5m">
                    <ref role="Rm8GQ" to="s9o5:~ScrollType.MAKE_VISIBLE" resolve="MAKE_VISIBLE" />
                    <ref role="1Px2BO" to="s9o5:~ScrollType" resolve="ScrollType" />
                  </node>
                </node>
              </node>
            </node>
          </node>
        </node>
      </node>
      <node concept="37vLTG" id="3EnpNH2_H$m" role="3clF46">
        <property role="TrG5h" value="project" />
        <node concept="3uibUv" id="3EnpNH2_H$n" role="1tU5fm">
          <ref role="3uigEE" to="4nm9:~Project" resolve="Project" />
        </node>
      </node>
      <node concept="37vLTG" id="3EnpNH2_H$o" role="3clF46">
        <property role="TrG5h" value="file" />
        <node concept="3uibUv" id="3EnpNH2_H$p" role="1tU5fm">
          <ref role="3uigEE" to="jlff:~VirtualFile" resolve="VirtualFile" />
        </node>
      </node>
      <node concept="37vLTG" id="3EnpNH2_H$q" role="3clF46">
        <property role="TrG5h" value="lineNumber" />
        <node concept="10Oyi0" id="3EnpNH2_H$r" role="1tU5fm" />
      </node>
    </node>
  </node>
</model>

