<?xml version="1.0" encoding="UTF-8"?>
<model ref="r:e8891659-6cf7-4c12-aefc-c30d28622ede(jetbrains.mps.baseLanguage.math.generator.template.operations@generator)">
  <persistence version="9" />
  <languages>
    <use id="fd392034-7849-419d-9071-12563d152375" name="jetbrains.mps.baseLanguage.closures" version="0" />
    <use id="83888646-71ce-4f1c-9c53-c54016f6ad4f" name="jetbrains.mps.baseLanguage.collections" version="0" />
    <use id="3304fc6e-7c6b-401e-a016-b944934bb21f" name="jetbrains.mps.baseLanguage.math" version="0" />
    <use id="b401a680-8325-4110-8fd3-84331ff25bef" name="jetbrains.mps.lang.generator" version="0" />
    <use id="d7706f63-9be2-479c-a3da-ae92af1e64d5" name="jetbrains.mps.lang.generator.generationContext" version="0" />
    <use id="3a13115c-633c-4c5c-bbcc-75c4219e9555" name="jetbrains.mps.lang.quotation" version="0" />
    <use id="13744753-c81f-424a-9c1b-cf8943bf4e86" name="jetbrains.mps.lang.sharedConcepts" version="0" />
    <use id="7a5dda62-9140-4668-ab76-d5ed1746f2b2" name="jetbrains.mps.lang.typesystem" version="0" />
    <use id="ceab5195-25ea-4f22-9b92-103b95ca8c0c" name="jetbrains.mps.lang.core" version="1" />
    <use id="7866978e-a0f0-4cc7-81bc-4d213d9375e1" name="jetbrains.mps.lang.smodel" version="4" />
    <use id="f3061a53-9226-4cc5-a443-f952ceaf5816" name="jetbrains.mps.baseLanguage" version="4" />
    <engage id="fd392034-7849-419d-9071-12563d152375" name="jetbrains.mps.baseLanguage.closures" />
    <devkit ref="fbc25dd2-5da4-483a-8b19-70928e1b62d7(jetbrains.mps.devkit.general-purpose)" />
  </languages>
  <imports>
    <import index="tpek" ref="r:00000000-0000-4000-0000-011c895902c0(jetbrains.mps.baseLanguage.behavior)" />
    <import index="39kg" ref="r:cb1a36c8-1ffb-415a-aba8-afb9dc042d1b(jetbrains.mps.baseLanguage.math.structure)" />
    <import index="tpee" ref="r:00000000-0000-4000-0000-011c895902ca(jetbrains.mps.baseLanguage.structure)" />
    <import index="tp2q" ref="r:00000000-0000-4000-0000-011c8959032e(jetbrains.mps.baseLanguage.collections.structure)" />
    <import index="wyt6" ref="6354ebe7-c22a-4a0f-ac54-50b52ab9b065/java:java.lang(JDK/)" />
    <import index="tpck" ref="r:00000000-0000-4000-0000-011c89590288(jetbrains.mps.lang.core.structure)" implicit="true" />
  </imports>
  <registry>
    <language id="f3061a53-9226-4cc5-a443-f952ceaf5816" name="jetbrains.mps.baseLanguage">
      <concept id="1082485599095" name="jetbrains.mps.baseLanguage.structure.BlockStatement" flags="nn" index="9aQIb">
        <child id="1082485599096" name="statements" index="9aQI4" />
      </concept>
      <concept id="1215693861676" name="jetbrains.mps.baseLanguage.structure.BaseAssignmentExpression" flags="nn" index="d038R">
        <child id="1068498886297" name="rValue" index="37vLTx" />
        <child id="1068498886295" name="lValue" index="37vLTJ" />
      </concept>
      <concept id="1215695189714" name="jetbrains.mps.baseLanguage.structure.PlusAssignmentExpression" flags="nn" index="d57v9" />
      <concept id="1153422305557" name="jetbrains.mps.baseLanguage.structure.LessThanOrEqualsExpression" flags="nn" index="2dkUwp" />
      <concept id="1202948039474" name="jetbrains.mps.baseLanguage.structure.InstanceMethodCallOperation" flags="nn" index="liA8E" />
      <concept id="1239714755177" name="jetbrains.mps.baseLanguage.structure.AbstractUnaryNumberOperation" flags="nn" index="2$Kvd9">
        <child id="1239714902950" name="expression" index="2$L3a6" />
      </concept>
      <concept id="1095950406618" name="jetbrains.mps.baseLanguage.structure.DivExpression" flags="nn" index="FJ1c_" />
      <concept id="1154032098014" name="jetbrains.mps.baseLanguage.structure.AbstractLoopStatement" flags="nn" index="2LF5Ji">
        <child id="1154032183016" name="body" index="2LFqv$" />
      </concept>
      <concept id="1197027756228" name="jetbrains.mps.baseLanguage.structure.DotExpression" flags="nn" index="2OqwBi">
        <child id="1197027771414" name="operand" index="2Oq$k0" />
        <child id="1197027833540" name="operation" index="2OqNvi" />
      </concept>
      <concept id="1137021947720" name="jetbrains.mps.baseLanguage.structure.ConceptFunction" flags="in" index="2VMwT0">
        <child id="1137022507850" name="body" index="2VODD2" />
      </concept>
      <concept id="1070475926800" name="jetbrains.mps.baseLanguage.structure.StringLiteral" flags="nn" index="Xl_RD">
        <property id="1070475926801" name="value" index="Xl_RC" />
      </concept>
      <concept id="1070534058343" name="jetbrains.mps.baseLanguage.structure.NullLiteral" flags="nn" index="10Nm6u" />
      <concept id="1070534370425" name="jetbrains.mps.baseLanguage.structure.IntegerType" flags="in" index="10Oyi0" />
      <concept id="1070534934090" name="jetbrains.mps.baseLanguage.structure.CastExpression" flags="nn" index="10QFUN">
        <child id="1070534934091" name="type" index="10QFUM" />
        <child id="1070534934092" name="expression" index="10QFUP" />
      </concept>
      <concept id="1068431474542" name="jetbrains.mps.baseLanguage.structure.VariableDeclaration" flags="ng" index="33uBYm">
        <child id="1068431790190" name="initializer" index="33vP2m" />
      </concept>
      <concept id="1068431790191" name="jetbrains.mps.baseLanguage.structure.Expression" flags="nn" index="33vP2n" />
      <concept id="1092119917967" name="jetbrains.mps.baseLanguage.structure.MulExpression" flags="nn" index="17qRlL" />
      <concept id="1068498886296" name="jetbrains.mps.baseLanguage.structure.VariableReference" flags="nn" index="37vLTw">
        <reference id="1068581517664" name="variableDeclaration" index="3cqZAo" />
      </concept>
      <concept id="1068498886294" name="jetbrains.mps.baseLanguage.structure.AssignmentExpression" flags="nn" index="37vLTI" />
      <concept id="4972933694980447171" name="jetbrains.mps.baseLanguage.structure.BaseVariableDeclaration" flags="ng" index="19Szcq">
        <child id="5680397130376446158" name="type" index="1tU5fm" />
      </concept>
      <concept id="1068580123152" name="jetbrains.mps.baseLanguage.structure.EqualsExpression" flags="nn" index="3clFbC" />
      <concept id="1068580123155" name="jetbrains.mps.baseLanguage.structure.ExpressionStatement" flags="nn" index="3clFbF">
        <child id="1068580123156" name="expression" index="3clFbG" />
      </concept>
      <concept id="1068580123157" name="jetbrains.mps.baseLanguage.structure.Statement" flags="nn" index="3clFbH" />
      <concept id="1068580123159" name="jetbrains.mps.baseLanguage.structure.IfStatement" flags="nn" index="3clFbJ">
        <child id="1068580123160" name="condition" index="3clFbw" />
        <child id="1068580123161" name="ifTrue" index="3clFbx" />
        <child id="1206060520071" name="elsifClauses" index="3eNLev" />
      </concept>
      <concept id="1068580123136" name="jetbrains.mps.baseLanguage.structure.StatementList" flags="sn" stub="5293379017992965193" index="3clFbS">
        <child id="1068581517665" name="statement" index="3cqZAp" />
      </concept>
      <concept id="1068580320020" name="jetbrains.mps.baseLanguage.structure.IntegerConstant" flags="nn" index="3cmrfG">
        <property id="1068580320021" name="value" index="3cmrfH" />
      </concept>
      <concept id="1068581242878" name="jetbrains.mps.baseLanguage.structure.ReturnStatement" flags="nn" index="3cpWs6">
        <child id="1068581517676" name="expression" index="3cqZAk" />
      </concept>
      <concept id="1068581242864" name="jetbrains.mps.baseLanguage.structure.LocalVariableDeclarationStatement" flags="nn" index="3cpWs8">
        <child id="1068581242865" name="localVariableDeclaration" index="3cpWs9" />
      </concept>
      <concept id="1068581242863" name="jetbrains.mps.baseLanguage.structure.LocalVariableDeclaration" flags="nr" index="3cpWsn" />
      <concept id="1206060495898" name="jetbrains.mps.baseLanguage.structure.ElsifClause" flags="ng" index="3eNFk2">
        <child id="1206060619838" name="condition" index="3eO9$A" />
        <child id="1206060644605" name="statementList" index="3eOfB_" />
      </concept>
      <concept id="1079359253375" name="jetbrains.mps.baseLanguage.structure.ParenthesizedExpression" flags="nn" index="1eOMI4">
        <child id="1079359253376" name="expression" index="1eOMHV" />
      </concept>
      <concept id="1081506762703" name="jetbrains.mps.baseLanguage.structure.GreaterThanExpression" flags="nn" index="3eOSWO" />
      <concept id="1081506773034" name="jetbrains.mps.baseLanguage.structure.LessThanExpression" flags="nn" index="3eOVzh" />
      <concept id="1204053956946" name="jetbrains.mps.baseLanguage.structure.IMethodCall" flags="ng" index="1ndlxa">
        <reference id="1068499141037" name="baseMethodDeclaration" index="37wK5l" />
        <child id="1068499141038" name="actualArgument" index="37wK5m" />
      </concept>
      <concept id="1107535904670" name="jetbrains.mps.baseLanguage.structure.ClassifierType" flags="in" index="3uibUv">
        <reference id="1107535924139" name="classifier" index="3uigEE" />
      </concept>
      <concept id="1081773326031" name="jetbrains.mps.baseLanguage.structure.BinaryOperation" flags="nn" index="3uHJSO">
        <child id="1081773367579" name="rightExpression" index="3uHU7w" />
        <child id="1081773367580" name="leftExpression" index="3uHU7B" />
      </concept>
      <concept id="1214918800624" name="jetbrains.mps.baseLanguage.structure.PostfixIncrementExpression" flags="nn" index="3uNrnE" />
      <concept id="1073239437375" name="jetbrains.mps.baseLanguage.structure.NotEqualsExpression" flags="nn" index="3y3z36" />
      <concept id="1144230876926" name="jetbrains.mps.baseLanguage.structure.AbstractForStatement" flags="nn" index="1DupvO">
        <child id="1144230900587" name="variable" index="1Duv9x" />
      </concept>
      <concept id="1144231330558" name="jetbrains.mps.baseLanguage.structure.ForStatement" flags="nn" index="1Dw8fO">
        <child id="1144231399730" name="condition" index="1Dwp0S" />
        <child id="1144231408325" name="iteration" index="1Dwrff" />
      </concept>
    </language>
    <language id="b401a680-8325-4110-8fd3-84331ff25bef" name="jetbrains.mps.lang.generator">
      <concept id="1114706874351" name="jetbrains.mps.lang.generator.structure.CopySrcNodeMacro" flags="ln" index="29HgVG">
        <child id="1168024447342" name="sourceNodeQuery" index="3NFExx" />
      </concept>
      <concept id="1095416546421" name="jetbrains.mps.lang.generator.structure.MappingConfiguration" flags="ig" index="bUwia">
        <child id="1200911492601" name="mappingLabel" index="2rTMjI" />
        <child id="1167328349397" name="reductionMappingRule" index="3acgRq" />
      </concept>
      <concept id="1177093525992" name="jetbrains.mps.lang.generator.structure.InlineTemplate_RuleConsequence" flags="lg" index="gft3U">
        <child id="1177093586806" name="templateNode" index="gfFT$" />
      </concept>
      <concept id="1112730859144" name="jetbrains.mps.lang.generator.structure.TemplateSwitch" flags="ig" index="jVnub">
        <child id="1167340453568" name="reductionMappingRule" index="3aUrZf" />
      </concept>
      <concept id="1095672379244" name="jetbrains.mps.lang.generator.structure.TemplateFragment" flags="ng" index="raruj" />
      <concept id="1200911316486" name="jetbrains.mps.lang.generator.structure.MappingLabelDeclaration" flags="lg" index="2rT7sh">
        <reference id="1200911342686" name="sourceConcept" index="2rTdP9" />
        <reference id="1200913004646" name="targetConcept" index="2rZz_L" />
      </concept>
      <concept id="1722980698497626400" name="jetbrains.mps.lang.generator.structure.ITemplateCall" flags="ng" index="v9R3L">
        <reference id="1722980698497626483" name="template" index="v9R2y" />
      </concept>
      <concept id="1194565793557" name="jetbrains.mps.lang.generator.structure.IncludeMacro" flags="ln" index="xERo3">
        <reference id="1194566366375" name="includeTemplate" index="xH3mL" />
      </concept>
      <concept id="1167168920554" name="jetbrains.mps.lang.generator.structure.BaseMappingRule_Condition" flags="in" index="30G5F_" />
      <concept id="1167169188348" name="jetbrains.mps.lang.generator.structure.TemplateFunctionParameter_sourceNode" flags="nn" index="30H73N" />
      <concept id="1167169308231" name="jetbrains.mps.lang.generator.structure.BaseMappingRule" flags="ng" index="30H$t8">
        <property id="1167272244852" name="applyToConceptInheritors" index="36QftV" />
        <reference id="1167169349424" name="applicableConcept" index="30HIoZ" />
        <child id="1167169362365" name="conditionFunction" index="30HLyM" />
      </concept>
      <concept id="1092059087312" name="jetbrains.mps.lang.generator.structure.TemplateDeclaration" flags="ig" index="13MO4I">
        <reference id="1168285871518" name="applicableConcept" index="3gUMe" />
        <child id="1092060348987" name="contentNode" index="13RCb5" />
      </concept>
      <concept id="1195158154974" name="jetbrains.mps.lang.generator.structure.InlineSwitch_RuleConsequence" flags="lg" index="14YyZ8">
        <child id="1195158241124" name="defaultConsequence" index="14YRTM" />
        <child id="1195158408710" name="case" index="14ZwWg" />
      </concept>
      <concept id="1195158388553" name="jetbrains.mps.lang.generator.structure.InlineSwitch_Case" flags="ng" index="14ZrTv">
        <child id="1195158608805" name="conditionFunction" index="150hEN" />
        <child id="1195158637244" name="caseConsequence" index="150oIE" />
      </concept>
      <concept id="1087833241328" name="jetbrains.mps.lang.generator.structure.PropertyMacro" flags="ln" index="17Uvod">
        <child id="1167756362303" name="propertyValueFunction" index="3zH0cK" />
      </concept>
      <concept id="1087833466690" name="jetbrains.mps.lang.generator.structure.NodeMacro" flags="lg" index="17VmuZ">
        <reference id="1200912223215" name="mappingLabel" index="2rW$FS" />
      </concept>
      <concept id="1167327847730" name="jetbrains.mps.lang.generator.structure.Reduction_MappingRule" flags="lg" index="3aamgX">
        <child id="1169672767469" name="ruleConsequence" index="1lVwrX" />
      </concept>
      <concept id="1131073187192" name="jetbrains.mps.lang.generator.structure.MapSrcNodeMacro" flags="ln" index="1pdMLZ">
        <child id="1168281849769" name="sourceNodeQuery" index="31$UT" />
      </concept>
      <concept id="982871510068000147" name="jetbrains.mps.lang.generator.structure.TemplateSwitchMacro" flags="lg" index="1sPUBX">
        <child id="982871510068000158" name="sourceNodeQuery" index="1sPUBK" />
      </concept>
      <concept id="1167756080639" name="jetbrains.mps.lang.generator.structure.PropertyMacro_GetPropertyValue" flags="in" index="3zFVjK" />
      <concept id="1167770111131" name="jetbrains.mps.lang.generator.structure.ReferenceMacro_GetReferent" flags="in" index="3$xsQk" />
      <concept id="1167945743726" name="jetbrains.mps.lang.generator.structure.IfMacro_Condition" flags="in" index="3IZrLx" />
      <concept id="1168024337012" name="jetbrains.mps.lang.generator.structure.SourceSubstituteMacro_SourceNodeQuery" flags="in" index="3NFfHV" />
      <concept id="1118773211870" name="jetbrains.mps.lang.generator.structure.IfMacro" flags="ln" index="1W57fq">
        <child id="1194989344771" name="alternativeConsequence" index="UU_$l" />
        <child id="1167945861827" name="conditionFunction" index="3IZSJc" />
      </concept>
      <concept id="1088761943574" name="jetbrains.mps.lang.generator.structure.ReferenceMacro" flags="ln" index="1ZhdrF">
        <child id="1167770376702" name="referentFunction" index="3$ytzL" />
      </concept>
    </language>
    <language id="fd392034-7849-419d-9071-12563d152375" name="jetbrains.mps.baseLanguage.closures">
      <concept id="1199569711397" name="jetbrains.mps.baseLanguage.closures.structure.ClosureLiteral" flags="nn" index="1bVj0M">
        <child id="1199569916463" name="body" index="1bW5cS" />
      </concept>
      <concept id="1225797177491" name="jetbrains.mps.baseLanguage.closures.structure.InvokeFunctionOperation" flags="nn" index="1Bd96e" />
    </language>
    <language id="d7706f63-9be2-479c-a3da-ae92af1e64d5" name="jetbrains.mps.lang.generator.generationContext">
      <concept id="1218047638031" name="jetbrains.mps.lang.generator.generationContext.structure.GenerationContextOp_CreateUniqueName" flags="nn" index="2piZGk">
        <child id="1218047638032" name="baseName" index="2piZGb" />
      </concept>
      <concept id="1216860049627" name="jetbrains.mps.lang.generator.generationContext.structure.GenerationContextOp_GetOutputByLabelAndInput" flags="nn" index="1iwH70">
        <reference id="1216860049628" name="label" index="1iwH77" />
        <child id="1216860049632" name="inputNode" index="1iwH7V" />
      </concept>
      <concept id="1216860049635" name="jetbrains.mps.lang.generator.generationContext.structure.TemplateFunctionParameter_generationContext" flags="nn" index="1iwH7S" />
    </language>
    <language id="3a13115c-633c-4c5c-bbcc-75c4219e9555" name="jetbrains.mps.lang.quotation">
      <concept id="1196350785113" name="jetbrains.mps.lang.quotation.structure.Quotation" flags="nn" index="2c44tf">
        <child id="1196350785114" name="quotedNode" index="2c44tc" />
      </concept>
    </language>
    <language id="7a5dda62-9140-4668-ab76-d5ed1746f2b2" name="jetbrains.mps.lang.typesystem">
      <concept id="1176543928247" name="jetbrains.mps.lang.typesystem.structure.IsSubtypeExpression" flags="nn" index="3JuTUA">
        <child id="1176543945045" name="subtypeExpression" index="3JuY14" />
        <child id="1176543950311" name="supertypeExpression" index="3JuZjQ" />
      </concept>
      <concept id="1176544042499" name="jetbrains.mps.lang.typesystem.structure.Node_TypeOperation" flags="nn" index="3JvlWi" />
      <concept id="1185281562363" name="jetbrains.mps.lang.typesystem.structure.RuntimeTypeVariable" flags="in" index="3SilvC" />
    </language>
    <language id="7866978e-a0f0-4cc7-81bc-4d213d9375e1" name="jetbrains.mps.lang.smodel">
      <concept id="1177026924588" name="jetbrains.mps.lang.smodel.structure.RefConcept_Reference" flags="nn" index="chp4Y">
        <reference id="1177026940964" name="conceptDeclaration" index="cht4Q" />
      </concept>
      <concept id="1179409122411" name="jetbrains.mps.lang.smodel.structure.Node_ConceptMethodCall" flags="nn" index="2qgKlT" />
      <concept id="2396822768958367367" name="jetbrains.mps.lang.smodel.structure.AbstractTypeCastExpression" flags="nn" index="$5XWr">
        <reference id="6733348108486823428" name="concept" index="1m5ApE" />
        <child id="6733348108486823193" name="leftExpression" index="1m5AlR" />
      </concept>
      <concept id="1139621453865" name="jetbrains.mps.lang.smodel.structure.Node_IsInstanceOfOperation" flags="nn" index="1mIQ4w">
        <child id="1177027386292" name="conceptArgument" index="cj9EA" />
      </concept>
      <concept id="1140137987495" name="jetbrains.mps.lang.smodel.structure.SNodeTypeCastExpression" flags="nn" index="1PxgMI" />
      <concept id="1138056022639" name="jetbrains.mps.lang.smodel.structure.SPropertyAccess" flags="nn" index="3TrcHB">
        <reference id="1138056395725" name="property" index="3TsBF5" />
      </concept>
      <concept id="1138056143562" name="jetbrains.mps.lang.smodel.structure.SLinkAccess" flags="nn" index="3TrEf2">
        <reference id="1138056516764" name="link" index="3Tt5mk" />
      </concept>
    </language>
    <language id="ceab5195-25ea-4f22-9b92-103b95ca8c0c" name="jetbrains.mps.lang.core">
      <concept id="1133920641626" name="jetbrains.mps.lang.core.structure.BaseConcept" flags="ng" index="2VYdi">
        <child id="5169995583184591170" name="smodelAttribute" index="lGtFl" />
      </concept>
      <concept id="3364660638048049750" name="jetbrains.mps.lang.core.structure.PropertyAttribute" flags="ng" index="A9Btg">
        <property id="1757699476691236117" name="propertyName" index="2qtEX9" />
        <property id="1341860900487648621" name="propertyId" index="P4ACc" />
      </concept>
      <concept id="3364660638048049745" name="jetbrains.mps.lang.core.structure.LinkAttribute" flags="ng" index="A9Btn">
        <property id="1757699476691236116" name="linkRole" index="2qtEX8" />
        <property id="1341860900488019036" name="linkId" index="P3scX" />
      </concept>
      <concept id="1169194658468" name="jetbrains.mps.lang.core.structure.INamedConcept" flags="ng" index="TrEIO">
        <property id="1169194664001" name="name" index="TrG5h" />
      </concept>
    </language>
    <language id="83888646-71ce-4f1c-9c53-c54016f6ad4f" name="jetbrains.mps.baseLanguage.collections">
      <concept id="1153943597977" name="jetbrains.mps.baseLanguage.collections.structure.ForEachStatement" flags="nn" index="2Gpval">
        <child id="1153944400369" name="variable" index="2Gsz3X" />
        <child id="1153944424730" name="inputSequence" index="2GsD0m" />
      </concept>
      <concept id="1153944193378" name="jetbrains.mps.baseLanguage.collections.structure.ForEachVariable" flags="nr" index="2GrKxI" />
      <concept id="1153944233411" name="jetbrains.mps.baseLanguage.collections.structure.ForEachVariableReference" flags="nn" index="2GrUjf" />
    </language>
    <language id="3304fc6e-7c6b-401e-a016-b944934bb21f" name="jetbrains.mps.baseLanguage.math">
      <concept id="1237108887116" name="jetbrains.mps.baseLanguage.math.structure.BigComplexType" flags="in" index="9rSXG" />
      <concept id="4815887568697030518" name="jetbrains.mps.baseLanguage.math.structure.MatrixType" flags="in" index="wGCXc">
        <child id="4815887568697050707" name="elementType" index="wJjTD" />
      </concept>
    </language>
  </registry>
  <node concept="bUwia" id="hZwWbKi">
    <property role="TrG5h" value="main" />
    <node concept="2rT7sh" id="hZwZseo" role="2rTMjI">
      <property role="TrG5h" value="IndexVariable" />
      <ref role="2rTdP9" to="39kg:hZEtGvw" resolve="AbstractIndex" />
      <ref role="2rZz_L" to="tpee:fz7vLUk" resolve="ParameterDeclaration" />
    </node>
    <node concept="2rT7sh" id="i09$HkF" role="2rTMjI">
      <property role="TrG5h" value="LocalVar" />
      <ref role="2rZz_L" to="tpee:fzcpWvJ" resolve="LocalVariableDeclaration" />
      <ref role="2rTdP9" to="39kg:hZEt_NK" resolve="MathSymbolFromToIndex" />
    </node>
    <node concept="2rT7sh" id="i0arV2U" role="2rTMjI">
      <property role="TrG5h" value="TmpLocalVar" />
      <ref role="2rTdP9" to="39kg:hZEt_NK" resolve="MathSymbolFromToIndex" />
      <ref role="2rZz_L" to="tpee:fzcpWvJ" resolve="LocalVariableDeclaration" />
    </node>
    <node concept="2rT7sh" id="i09ExEo" role="2rTMjI">
      <property role="TrG5h" value="ResultVar" />
      <ref role="2rTdP9" to="39kg:hZwMxyp" resolve="MathSymbol" />
      <ref role="2rZz_L" to="tpee:fzcpWvJ" resolve="LocalVariableDeclaration" />
    </node>
    <node concept="2rT7sh" id="i09BnDO" role="2rTMjI">
      <property role="TrG5h" value="ForeachVar" />
      <ref role="2rZz_L" to="tp2q:gMGrK_y" resolve="ForEachVariable" />
      <ref role="2rTdP9" to="39kg:hZwMAQC" resolve="MathSymbolIndex" />
    </node>
    <node concept="2rT7sh" id="i09N46I" role="2rTMjI">
      <property role="TrG5h" value="InvokedExpression" />
      <ref role="2rTdP9" to="39kg:hZwSsDe" resolve="ExtrSymbol" />
      <ref role="2rZz_L" to="tpee:fzcpWvJ" resolve="LocalVariableDeclaration" />
    </node>
    <node concept="3aamgX" id="i09zJ2p" role="3acgRq">
      <property role="36QftV" value="true" />
      <ref role="30HIoZ" to="39kg:hZwMxyp" resolve="MathSymbol" />
      <node concept="gft3U" id="i09zLeF" role="1lVwrX">
        <node concept="2OqwBi" id="i0eouPu" role="gfFT$">
          <node concept="1bVj0M" id="i0eotgb" role="2Oq$k0">
            <node concept="3clFbS" id="i0eotgc" role="1bW5cS">
              <node concept="3cpWs8" id="i0eotgd" role="3cqZAp">
                <node concept="3cpWsn" id="i0eotge" role="3cpWs9">
                  <property role="TrG5h" value="result" />
                  <node concept="10Oyi0" id="i0eotgf" role="1tU5fm">
                    <node concept="29HgVG" id="i0eotgg" role="lGtFl">
                      <node concept="3NFfHV" id="i0eotgh" role="3NFExx">
                        <node concept="3clFbS" id="i0eotgi" role="2VODD2">
                          <node concept="3clFbF" id="i0eotgj" role="3cqZAp">
                            <node concept="2OqwBi" id="i0eotgk" role="3clFbG">
                              <node concept="1PxgMI" id="i0eotgl" role="2Oq$k0">
                                <ref role="1m5ApE" to="tpee:fz3vP1H" resolve="Type" />
                                <node concept="2OqwBi" id="i0eotgm" role="1m5AlR">
                                  <node concept="2OqwBi" id="i0eotgn" role="2Oq$k0">
                                    <node concept="30H73N" id="i0eotgo" role="2Oq$k0" />
                                    <node concept="3TrEf2" id="i0eotgp" role="2OqNvi">
                                      <ref role="3Tt5mk" to="39kg:hZwMIxO" resolve="expression" />
                                    </node>
                                  </node>
                                  <node concept="3JvlWi" id="i0eotgq" role="2OqNvi" />
                                </node>
                              </node>
                              <node concept="2qgKlT" id="i0eotgr" role="2OqNvi">
                                <ref role="37wK5l" to="tpek:hEwIzNC" resolve="getBoxedType" />
                              </node>
                            </node>
                          </node>
                        </node>
                      </node>
                    </node>
                  </node>
                  <node concept="17Uvod" id="i0eotgs" role="lGtFl">
                    <property role="2qtEX9" value="name" />
                    <property role="P4ACc" value="ceab5195-25ea-4f22-9b92-103b95ca8c0c/1169194658468/1169194664001" />
                    <node concept="3zFVjK" id="i0eotgt" role="3zH0cK">
                      <node concept="3clFbS" id="i0eotgu" role="2VODD2">
                        <node concept="3clFbF" id="i0eotgv" role="3cqZAp">
                          <node concept="2OqwBi" id="i0eotgw" role="3clFbG">
                            <node concept="1iwH7S" id="i0eotgx" role="2Oq$k0" />
                            <node concept="2piZGk" id="i0eotgy" role="2OqNvi">
                              <node concept="Xl_RD" id="i0eotgz" role="2piZGb">
                                <property role="Xl_RC" value="r" />
                              </node>
                            </node>
                          </node>
                        </node>
                      </node>
                    </node>
                  </node>
                  <node concept="1pdMLZ" id="i0eotg$" role="lGtFl">
                    <ref role="2rW$FS" node="i09ExEo" resolve="ResultVar" />
                    <node concept="3NFfHV" id="i0eotg_" role="31$UT">
                      <node concept="3clFbS" id="i0eotgA" role="2VODD2">
                        <node concept="3clFbF" id="i0eotgB" role="3cqZAp">
                          <node concept="30H73N" id="i0eotgC" role="3clFbG" />
                        </node>
                      </node>
                    </node>
                  </node>
                </node>
              </node>
              <node concept="3clFbH" id="i0eotgD" role="3cqZAp">
                <node concept="1sPUBX" id="1WfddY$XI1P" role="lGtFl">
                  <ref role="v9R2y" node="i09DRMf" resolve="MathSymbolInitializer" />
                </node>
              </node>
              <node concept="3clFbH" id="i0eotgF" role="3cqZAp">
                <node concept="1sPUBX" id="1WfddY$XHNb" role="lGtFl">
                  <ref role="v9R2y" node="i09_T6d" resolve="MathSymbolLoopSwitch" />
                </node>
              </node>
              <node concept="3cpWs6" id="i0eotgH" role="3cqZAp">
                <node concept="Xl_RD" id="2XA_ayKp3pJ" role="3cqZAk">
                  <property role="Xl_RC" value="" />
                  <node concept="xERo3" id="2XA_ayKp4af" role="lGtFl">
                    <ref role="xH3mL" node="i09H96F" resolve="MathSymbolResultReference" />
                  </node>
                </node>
              </node>
            </node>
          </node>
          <node concept="1Bd96e" id="i0eovRu" role="2OqNvi" />
        </node>
      </node>
    </node>
    <node concept="3aamgX" id="hZxvkkv" role="3acgRq">
      <ref role="30HIoZ" to="39kg:hZwQhih" resolve="MathSymbolIndexReference" />
      <node concept="gft3U" id="i09HRg2" role="1lVwrX">
        <node concept="2VYdi" id="i09Tp_k" role="gfFT$">
          <node concept="1sPUBX" id="1WfddY$XIzl" role="lGtFl">
            <ref role="v9R2y" node="i09G54T" resolve="MathIndexReference" />
            <node concept="3NFfHV" id="i09SAzi" role="1sPUBK">
              <node concept="3clFbS" id="i09SAzj" role="2VODD2">
                <node concept="3clFbF" id="i09SBjE" role="3cqZAp">
                  <node concept="2OqwBi" id="i09TxRY" role="3clFbG">
                    <node concept="30H73N" id="i09SBjF" role="2Oq$k0" />
                    <node concept="3TrEf2" id="i09T_pd" role="2OqNvi">
                      <ref role="3Tt5mk" to="39kg:hZwQlJv" resolve="indexRef" />
                    </node>
                  </node>
                </node>
              </node>
            </node>
          </node>
        </node>
      </node>
    </node>
    <node concept="3aamgX" id="i0993rl" role="3acgRq">
      <ref role="30HIoZ" to="39kg:i08Xew5" resolve="DivExpressionFraction" />
      <node concept="gft3U" id="i0995Jq" role="1lVwrX">
        <node concept="1eOMI4" id="i0eiuPm" role="gfFT$">
          <node concept="FJ1c_" id="i0eivgJ" role="1eOMHV">
            <node concept="3cmrfG" id="2XA_ayKp4Np" role="3uHU7B">
              <property role="3cmrfH" value="1" />
              <node concept="29HgVG" id="2XA_ayKp4Qw" role="lGtFl">
                <node concept="3NFfHV" id="2XA_ayKp4Qx" role="3NFExx">
                  <node concept="3clFbS" id="2XA_ayKp4Qy" role="2VODD2">
                    <node concept="3clFbF" id="i0eptLn" role="3cqZAp">
                      <node concept="2OqwBi" id="i0eptN6" role="3clFbG">
                        <node concept="30H73N" id="i0eptLo" role="2Oq$k0" />
                        <node concept="3TrEf2" id="i0epujy" role="2OqNvi">
                          <ref role="3Tt5mk" to="39kg:i0959tZ" resolve="numerator" />
                        </node>
                      </node>
                    </node>
                  </node>
                </node>
              </node>
            </node>
            <node concept="3cmrfG" id="2XA_ayKp4ZY" role="3uHU7w">
              <property role="3cmrfH" value="2" />
              <node concept="29HgVG" id="2XA_ayKp5pD" role="lGtFl">
                <node concept="3NFfHV" id="2XA_ayKp5pE" role="3NFExx">
                  <node concept="3clFbS" id="2XA_ayKp5pF" role="2VODD2">
                    <node concept="3clFbF" id="2XA_ayKp5pL" role="3cqZAp">
                      <node concept="2OqwBi" id="2XA_ayKp5pG" role="3clFbG">
                        <node concept="3TrEf2" id="2XA_ayKp5pJ" role="2OqNvi">
                          <ref role="3Tt5mk" to="39kg:i0959Gq" resolve="denominator" />
                        </node>
                        <node concept="30H73N" id="2XA_ayKp5pK" role="2Oq$k0" />
                      </node>
                    </node>
                  </node>
                </node>
              </node>
            </node>
          </node>
        </node>
      </node>
    </node>
  </node>
  <node concept="jVnub" id="i09_T6d">
    <property role="TrG5h" value="MathSymbolLoopSwitch" />
    <node concept="3aamgX" id="i09_VDz" role="3aUrZf">
      <property role="36QftV" value="true" />
      <ref role="30HIoZ" to="39kg:hZwMxyp" resolve="MathSymbol" />
      <node concept="gft3U" id="i09A$LV" role="1lVwrX">
        <node concept="2Gpval" id="i09AIRk" role="gfFT$">
          <node concept="2GrKxI" id="i09AIRl" role="2Gsz3X">
            <property role="TrG5h" value="p" />
            <node concept="17Uvod" id="i09AUG$" role="lGtFl">
              <property role="2qtEX9" value="name" />
              <property role="P4ACc" value="ceab5195-25ea-4f22-9b92-103b95ca8c0c/1169194658468/1169194664001" />
              <node concept="3zFVjK" id="i09AUG_" role="3zH0cK">
                <node concept="3clFbS" id="i09AUGA" role="2VODD2">
                  <node concept="3clFbF" id="i09AVBH" role="3cqZAp">
                    <node concept="2OqwBi" id="i09AWZt" role="3clFbG">
                      <node concept="1iwH7S" id="i09AVBI" role="2Oq$k0" />
                      <node concept="2piZGk" id="i09AXaZ" role="2OqNvi">
                        <node concept="2OqwBi" id="i09B2IT" role="2piZGb">
                          <node concept="30H73N" id="i09AXMO" role="2Oq$k0" />
                          <node concept="3TrcHB" id="i09B2Pj" role="2OqNvi">
                            <ref role="3TsBF5" to="tpck:h0TrG11" resolve="name" />
                          </node>
                        </node>
                      </node>
                    </node>
                  </node>
                </node>
              </node>
            </node>
            <node concept="1pdMLZ" id="i09Bxb7" role="lGtFl">
              <ref role="2rW$FS" node="i09BnDO" resolve="ForeachVar" />
              <node concept="3NFfHV" id="i09CJ91" role="31$UT">
                <node concept="3clFbS" id="i09CJ92" role="2VODD2">
                  <node concept="3clFbF" id="i09CJpT" role="3cqZAp">
                    <node concept="2OqwBi" id="i09CJr9" role="3clFbG">
                      <node concept="30H73N" id="i09CJpU" role="2Oq$k0" />
                      <node concept="3TrEf2" id="i09CJE6" role="2OqNvi">
                        <ref role="3Tt5mk" to="39kg:hZwMIvQ" resolve="var" />
                      </node>
                    </node>
                  </node>
                </node>
              </node>
            </node>
          </node>
          <node concept="33vP2n" id="i09AIRm" role="2GsD0m">
            <node concept="29HgVG" id="i09B44e" role="lGtFl">
              <node concept="3NFfHV" id="i09B44f" role="3NFExx">
                <node concept="3clFbS" id="i09B44g" role="2VODD2">
                  <node concept="3clFbF" id="i09B5l_" role="3cqZAp">
                    <node concept="2OqwBi" id="i09BaNS" role="3clFbG">
                      <node concept="1PxgMI" id="i09B8Q7" role="2Oq$k0">
                        <ref role="1m5ApE" to="39kg:hZwMAQC" resolve="MathSymbolIndex" />
                        <node concept="2OqwBi" id="i09B5V1" role="1m5AlR">
                          <node concept="30H73N" id="i09B5lA" role="2Oq$k0" />
                          <node concept="3TrEf2" id="i09B8zi" role="2OqNvi">
                            <ref role="3Tt5mk" to="39kg:hZwMIvQ" resolve="var" />
                          </node>
                        </node>
                      </node>
                      <node concept="3TrEf2" id="i09BbIy" role="2OqNvi">
                        <ref role="3Tt5mk" to="39kg:hZwNeN0" resolve="iterable" />
                      </node>
                    </node>
                  </node>
                </node>
              </node>
            </node>
          </node>
          <node concept="3clFbS" id="i09AIRn" role="2LFqv$">
            <node concept="3clFbH" id="i0ae0sq" role="3cqZAp">
              <node concept="1sPUBX" id="1WfddY$XHNN" role="lGtFl">
                <ref role="v9R2y" node="i09DkwG" resolve="MathSymbolConditionSwitch" />
              </node>
            </node>
          </node>
        </node>
      </node>
      <node concept="30G5F_" id="i09AgwC" role="30HLyM">
        <node concept="3clFbS" id="i09AgwD" role="2VODD2">
          <node concept="3clFbF" id="i09Ahva" role="3cqZAp">
            <node concept="2OqwBi" id="i09Akqx" role="3clFbG">
              <node concept="2OqwBi" id="i09AhwD" role="2Oq$k0">
                <node concept="30H73N" id="i09Ahvb" role="2Oq$k0" />
                <node concept="3TrEf2" id="i09AkdO" role="2OqNvi">
                  <ref role="3Tt5mk" to="39kg:hZwMIvQ" resolve="var" />
                </node>
              </node>
              <node concept="1mIQ4w" id="i09Akzo" role="2OqNvi">
                <node concept="chp4Y" id="i09AnUg" role="cj9EA">
                  <ref role="cht4Q" to="39kg:hZwMAQC" resolve="MathSymbolIndex" />
                </node>
              </node>
            </node>
          </node>
        </node>
      </node>
    </node>
    <node concept="3aamgX" id="i09_VRg" role="3aUrZf">
      <property role="36QftV" value="true" />
      <ref role="30HIoZ" to="39kg:hZwMxyp" resolve="MathSymbol" />
      <node concept="gft3U" id="i09A_mO" role="1lVwrX">
        <node concept="1Dw8fO" id="i09AMSI" role="gfFT$">
          <node concept="3clFbS" id="i09AMSJ" role="2LFqv$">
            <node concept="3cpWs8" id="i0arH1o" role="3cqZAp">
              <node concept="3cpWsn" id="i0arH1p" role="3cpWs9">
                <property role="TrG5h" value="j" />
                <node concept="10Oyi0" id="i0arH1q" role="1tU5fm" />
                <node concept="37vLTw" id="3GM_nagTu3U" role="33vP2m">
                  <ref role="3cqZAo" node="i09AMSL" resolve="i" />
                  <node concept="1ZhdrF" id="i0askuC" role="lGtFl">
                    <property role="2qtEX8" value="variableDeclaration" />
                    <property role="P3scX" value="f3061a53-9226-4cc5-a443-f952ceaf5816/1068498886296/1068581517664" />
                    <node concept="3$xsQk" id="i0askuD" role="3$ytzL">
                      <node concept="3clFbS" id="i0askuE" role="2VODD2">
                        <node concept="3clFbF" id="i0aslsF" role="3cqZAp">
                          <node concept="2OqwBi" id="i0aslyO" role="3clFbG">
                            <node concept="1iwH7S" id="i0aslsG" role="2Oq$k0" />
                            <node concept="1iwH70" id="i0asm62" role="2OqNvi">
                              <ref role="1iwH77" node="i0arV2U" resolve="TmpLocalVar" />
                              <node concept="1PxgMI" id="i0assYS" role="1iwH7V">
                                <ref role="1m5ApE" to="39kg:hZEt_NK" resolve="MathSymbolFromToIndex" />
                                <node concept="30H73N" id="i0asnGB" role="1m5AlR" />
                              </node>
                            </node>
                          </node>
                        </node>
                      </node>
                    </node>
                  </node>
                </node>
                <node concept="17Uvod" id="i0as1Pg" role="lGtFl">
                  <property role="2qtEX9" value="name" />
                  <property role="P4ACc" value="ceab5195-25ea-4f22-9b92-103b95ca8c0c/1169194658468/1169194664001" />
                  <node concept="3zFVjK" id="i0as1Ph" role="3zH0cK">
                    <node concept="3clFbS" id="i0as1Pi" role="2VODD2">
                      <node concept="3clFbF" id="i0aseCf" role="3cqZAp">
                        <node concept="2OqwBi" id="i0azHJl" role="3clFbG">
                          <node concept="1iwH7S" id="i0azHlF" role="2Oq$k0" />
                          <node concept="2piZGk" id="i0azHXN" role="2OqNvi">
                            <node concept="2OqwBi" id="i0azIbw" role="2piZGb">
                              <node concept="30H73N" id="i0azIbx" role="2Oq$k0" />
                              <node concept="3TrcHB" id="i0azIby" role="2OqNvi">
                                <ref role="3TsBF5" to="tpck:h0TrG11" resolve="name" />
                              </node>
                            </node>
                          </node>
                        </node>
                      </node>
                    </node>
                  </node>
                </node>
                <node concept="1pdMLZ" id="i0as3xI" role="lGtFl">
                  <ref role="2rW$FS" node="i09$HkF" resolve="LocalVar" />
                  <node concept="3NFfHV" id="i0as5tK" role="31$UT">
                    <node concept="3clFbS" id="i0as5tL" role="2VODD2">
                      <node concept="3clFbF" id="i0as5FH" role="3cqZAp">
                        <node concept="2OqwBi" id="i0as5HG" role="3clFbG">
                          <node concept="30H73N" id="i0as5FI" role="2Oq$k0" />
                          <node concept="3TrEf2" id="i0as6cE" role="2OqNvi">
                            <ref role="3Tt5mk" to="39kg:hZwMIvQ" resolve="var" />
                          </node>
                        </node>
                      </node>
                    </node>
                  </node>
                </node>
              </node>
            </node>
            <node concept="3clFbH" id="i0ae08C" role="3cqZAp">
              <node concept="1sPUBX" id="1WfddY$XI_Z" role="lGtFl">
                <ref role="v9R2y" node="i09DkwG" resolve="MathSymbolConditionSwitch" />
              </node>
            </node>
          </node>
          <node concept="3cpWsn" id="i09AMSL" role="1Duv9x">
            <property role="TrG5h" value="i" />
            <node concept="10Oyi0" id="i09AQBO" role="1tU5fm" />
            <node concept="17Uvod" id="i09ASHo" role="lGtFl">
              <property role="2qtEX9" value="name" />
              <property role="P4ACc" value="ceab5195-25ea-4f22-9b92-103b95ca8c0c/1169194658468/1169194664001" />
              <node concept="3zFVjK" id="i09ASHp" role="3zH0cK">
                <node concept="3clFbS" id="i09ASHq" role="2VODD2">
                  <node concept="3clFbF" id="i09AZNO" role="3cqZAp">
                    <node concept="2OqwBi" id="i09AZVE" role="3clFbG">
                      <node concept="1iwH7S" id="i09AZNP" role="2Oq$k0" />
                      <node concept="2piZGk" id="i09B07d" role="2OqNvi">
                        <node concept="Xl_RD" id="i0ascl0" role="2piZGb">
                          <property role="Xl_RC" value="i" />
                        </node>
                      </node>
                    </node>
                  </node>
                </node>
              </node>
            </node>
            <node concept="1pdMLZ" id="i09BhtN" role="lGtFl">
              <ref role="2rW$FS" node="i0arV2U" resolve="TmpLocalVar" />
              <node concept="3NFfHV" id="i09CfSH" role="31$UT">
                <node concept="3clFbS" id="i09CfSI" role="2VODD2">
                  <node concept="3clFbF" id="i09Cgoe" role="3cqZAp">
                    <node concept="2OqwBi" id="i09CgpI" role="3clFbG">
                      <node concept="30H73N" id="i09Cgof" role="2Oq$k0" />
                      <node concept="3TrEf2" id="i09CgAu" role="2OqNvi">
                        <ref role="3Tt5mk" to="39kg:hZwMIvQ" resolve="var" />
                      </node>
                    </node>
                  </node>
                </node>
              </node>
            </node>
            <node concept="3cmrfG" id="i09WGHF" role="33vP2m">
              <property role="3cmrfH" value="0" />
            </node>
          </node>
          <node concept="2dkUwp" id="2XA_ayKp9$9" role="1Dwp0S">
            <node concept="3cmrfG" id="2XA_ayKp9Zd" role="3uHU7w">
              <property role="3cmrfH" value="10" />
              <node concept="29HgVG" id="2XA_ayKpa5G" role="lGtFl">
                <node concept="3NFfHV" id="2XA_ayKpa5H" role="3NFExx">
                  <node concept="3clFbS" id="2XA_ayKpa5I" role="2VODD2">
                    <node concept="3clFbF" id="2XA_ayKpa5O" role="3cqZAp">
                      <node concept="2OqwBi" id="2XA_ayKpa5J" role="3clFbG">
                        <node concept="3TrEf2" id="2XA_ayKpaqC" role="2OqNvi">
                          <ref role="3Tt5mk" to="39kg:hZEN8Wm" resolve="upperBound" />
                        </node>
                        <node concept="30H73N" id="2XA_ayKpa5N" role="2Oq$k0" />
                      </node>
                    </node>
                  </node>
                </node>
              </node>
            </node>
            <node concept="37vLTw" id="3GM_nagTrm6" role="3uHU7B">
              <ref role="3cqZAo" node="i09AMSL" resolve="i" />
              <node concept="1ZhdrF" id="i09C5LL" role="lGtFl">
                <property role="2qtEX8" value="variableDeclaration" />
                <property role="P3scX" value="f3061a53-9226-4cc5-a443-f952ceaf5816/1068498886296/1068581517664" />
                <node concept="3$xsQk" id="i09C5LM" role="3$ytzL">
                  <node concept="3clFbS" id="i09C5LN" role="2VODD2">
                    <node concept="3clFbF" id="i09C7qk" role="3cqZAp">
                      <node concept="2OqwBi" id="i09C7rk" role="3clFbG">
                        <node concept="1iwH7S" id="i09C7ql" role="2Oq$k0" />
                        <node concept="1iwH70" id="i09C8g7" role="2OqNvi">
                          <ref role="1iwH77" node="i0arV2U" resolve="TmpLocalVar" />
                          <node concept="1PxgMI" id="i09Kk2U" role="1iwH7V">
                            <ref role="1m5ApE" to="39kg:hZEt_NK" resolve="MathSymbolFromToIndex" />
                            <node concept="2OqwBi" id="i09CjLL" role="1m5AlR">
                              <node concept="30H73N" id="i09C9Yg" role="2Oq$k0" />
                              <node concept="3TrEf2" id="i09CjPJ" role="2OqNvi">
                                <ref role="3Tt5mk" to="39kg:hZwMIvQ" resolve="var" />
                              </node>
                            </node>
                          </node>
                        </node>
                      </node>
                    </node>
                  </node>
                </node>
              </node>
            </node>
          </node>
          <node concept="3uNrnE" id="i09CnXo" role="1Dwrff">
            <node concept="37vLTw" id="3GM_nagTwSg" role="2$L3a6">
              <ref role="3cqZAo" node="i09AMSL" resolve="i" />
              <node concept="1ZhdrF" id="i09CoAb" role="lGtFl">
                <property role="2qtEX8" value="variableDeclaration" />
                <property role="P3scX" value="f3061a53-9226-4cc5-a443-f952ceaf5816/1068498886296/1068581517664" />
                <node concept="3$xsQk" id="i09CoAc" role="3$ytzL">
                  <node concept="3clFbS" id="i09CoAd" role="2VODD2">
                    <node concept="3clFbF" id="i09Cq_K" role="3cqZAp">
                      <node concept="2OqwBi" id="i09CqEU" role="3clFbG">
                        <node concept="1iwH7S" id="i09Cq_L" role="2Oq$k0" />
                        <node concept="1iwH70" id="i09Cr_O" role="2OqNvi">
                          <ref role="1iwH77" node="i0arV2U" resolve="TmpLocalVar" />
                          <node concept="1PxgMI" id="i09KqQA" role="1iwH7V">
                            <ref role="1m5ApE" to="39kg:hZEt_NK" resolve="MathSymbolFromToIndex" />
                            <node concept="2OqwBi" id="i09Cszp" role="1m5AlR">
                              <node concept="30H73N" id="i09CsxU" role="2Oq$k0" />
                              <node concept="3TrEf2" id="i09CsLB" role="2OqNvi">
                                <ref role="3Tt5mk" to="39kg:hZwMIvQ" resolve="var" />
                              </node>
                            </node>
                          </node>
                        </node>
                      </node>
                    </node>
                  </node>
                </node>
              </node>
            </node>
          </node>
        </node>
      </node>
      <node concept="30G5F_" id="i09AoFm" role="30HLyM">
        <node concept="3clFbS" id="i09AoFn" role="2VODD2">
          <node concept="3clFbF" id="i09AoSz" role="3cqZAp">
            <node concept="2OqwBi" id="i09AoS$" role="3clFbG">
              <node concept="2OqwBi" id="i09AoS_" role="2Oq$k0">
                <node concept="30H73N" id="i09AoSA" role="2Oq$k0" />
                <node concept="3TrEf2" id="i09AoSB" role="2OqNvi">
                  <ref role="3Tt5mk" to="39kg:hZwMIvQ" resolve="var" />
                </node>
              </node>
              <node concept="1mIQ4w" id="i09AoSC" role="2OqNvi">
                <node concept="chp4Y" id="i09ApX1" role="cj9EA">
                  <ref role="cht4Q" to="39kg:hZEt_NK" resolve="MathSymbolFromToIndex" />
                </node>
              </node>
            </node>
          </node>
        </node>
      </node>
    </node>
  </node>
  <node concept="jVnub" id="i09DkwG">
    <property role="TrG5h" value="MathSymbolConditionSwitch" />
    <node concept="3aamgX" id="i09Dv99" role="3aUrZf">
      <property role="36QftV" value="true" />
      <ref role="30HIoZ" to="39kg:hZwMxyp" resolve="MathSymbol" />
      <node concept="14YyZ8" id="i09DIPt" role="1lVwrX">
        <node concept="14ZrTv" id="i09DJr_" role="14ZwWg">
          <node concept="30G5F_" id="i09DJrA" role="150hEN">
            <node concept="3clFbS" id="i09DJrB" role="2VODD2">
              <node concept="3clFbF" id="i09DJSd" role="3cqZAp">
                <node concept="3y3z36" id="i09DKXE" role="3clFbG">
                  <node concept="10Nm6u" id="i09DL8s" role="3uHU7w" />
                  <node concept="2OqwBi" id="i09DJTH" role="3uHU7B">
                    <node concept="30H73N" id="i09DJSe" role="2Oq$k0" />
                    <node concept="3TrEf2" id="i09DKPP" role="2OqNvi">
                      <ref role="3Tt5mk" to="39kg:hZwNk6_" resolve="precondition" />
                    </node>
                  </node>
                </node>
              </node>
            </node>
          </node>
          <node concept="gft3U" id="i09E1$w" role="150oIE">
            <node concept="3clFbJ" id="i09E2ZB" role="gfFT$">
              <node concept="3clFbS" id="i09E2ZC" role="3clFbx">
                <node concept="3clFbH" id="i09E2ZD" role="3cqZAp">
                  <node concept="1sPUBX" id="1WfddY$XI3Q" role="lGtFl">
                    <ref role="v9R2y" node="i09DXfC" resolve="MathSymbolIterator" />
                  </node>
                </node>
              </node>
              <node concept="33vP2n" id="i09E2ZE" role="3clFbw">
                <node concept="29HgVG" id="i09E3Tz" role="lGtFl">
                  <node concept="3NFfHV" id="i09E3T$" role="3NFExx">
                    <node concept="3clFbS" id="i09E3T_" role="2VODD2">
                      <node concept="3clFbF" id="i09E4xD" role="3cqZAp">
                        <node concept="2OqwBi" id="i09E4yT" role="3clFbG">
                          <node concept="30H73N" id="i09E4xE" role="2Oq$k0" />
                          <node concept="3TrEf2" id="i09E4Oj" role="2OqNvi">
                            <ref role="3Tt5mk" to="39kg:hZwNk6_" resolve="precondition" />
                          </node>
                        </node>
                      </node>
                    </node>
                  </node>
                </node>
              </node>
            </node>
          </node>
        </node>
        <node concept="gft3U" id="i09Eaol" role="14YRTM">
          <node concept="2VYdi" id="i09Eaom" role="gfFT$">
            <node concept="1sPUBX" id="1WfddY$XI6m" role="lGtFl">
              <ref role="v9R2y" node="i09DXfC" resolve="MathSymbolIterator" />
            </node>
          </node>
        </node>
      </node>
    </node>
  </node>
  <node concept="jVnub" id="i09DRMf">
    <property role="TrG5h" value="MathSymbolInitializer" />
    <node concept="3aamgX" id="i09LzyI" role="3aUrZf">
      <property role="36QftV" value="true" />
      <ref role="30HIoZ" to="39kg:hZwSsDe" resolve="ExtrSymbol" />
      <node concept="gft3U" id="i09LE29" role="1lVwrX">
        <node concept="3clFbF" id="i09LJhZ" role="gfFT$">
          <node concept="37vLTI" id="i09LJi0" role="3clFbG">
            <node concept="10Nm6u" id="i09LKbz" role="37vLTx" />
            <node concept="33vP2n" id="i09LJi2" role="37vLTJ">
              <node concept="xERo3" id="i09LKWa" role="lGtFl">
                <ref role="xH3mL" node="i09H96F" resolve="MathSymbolResultReference" />
              </node>
            </node>
          </node>
        </node>
      </node>
    </node>
    <node concept="3aamgX" id="i09Lz_G" role="3aUrZf">
      <ref role="30HIoZ" to="39kg:hZxyeFV" resolve="BigSumExpression" />
      <node concept="14YyZ8" id="1eJUWaJfC$0" role="1lVwrX">
        <node concept="14ZrTv" id="1eJUWaJfC$j" role="14ZwWg">
          <node concept="30G5F_" id="1eJUWaJfC$k" role="150hEN">
            <node concept="3clFbS" id="1eJUWaJfC$l" role="2VODD2">
              <node concept="3clFbF" id="1eJUWaJfC$n" role="3cqZAp">
                <node concept="3JuTUA" id="1eJUWaJfCQ4" role="3clFbG">
                  <node concept="2c44tf" id="1eJUWaJfCQa" role="3JuZjQ">
                    <node concept="wGCXc" id="1eJUWaJfCQc" role="2c44tc">
                      <node concept="9rSXG" id="1eJUWaJfCQe" role="wJjTD" />
                    </node>
                  </node>
                  <node concept="2OqwBi" id="1eJUWaJfCQ7" role="3JuY14">
                    <node concept="30H73N" id="1eJUWaJfCQ8" role="2Oq$k0" />
                    <node concept="3JvlWi" id="1eJUWaJfCQ9" role="2OqNvi" />
                  </node>
                </node>
              </node>
            </node>
          </node>
          <node concept="gft3U" id="1eJUWaJfCQf" role="150oIE">
            <node concept="3clFbF" id="1eJUWaJfCQg" role="gfFT$">
              <node concept="37vLTI" id="1eJUWaJfCQh" role="3clFbG">
                <node concept="33vP2n" id="1eJUWaJfCQi" role="37vLTJ">
                  <node concept="xERo3" id="1eJUWaJfCQj" role="lGtFl">
                    <ref role="xH3mL" node="i09H96F" resolve="MathSymbolResultReference" />
                  </node>
                </node>
                <node concept="10Nm6u" id="1eJUWaJfCQA" role="37vLTx" />
              </node>
            </node>
          </node>
        </node>
        <node concept="gft3U" id="1eJUWaJfC$2" role="14YRTM">
          <node concept="3clFbF" id="1eJUWaJfC$3" role="gfFT$">
            <node concept="37vLTI" id="1eJUWaJfC$4" role="3clFbG">
              <node concept="33vP2n" id="1eJUWaJfC$5" role="37vLTJ">
                <node concept="xERo3" id="1eJUWaJfC$6" role="lGtFl">
                  <ref role="xH3mL" node="i09H96F" resolve="MathSymbolResultReference" />
                </node>
              </node>
              <node concept="10QFUN" id="1eJUWaJfC$7" role="37vLTx">
                <node concept="3SilvC" id="1eJUWaJfC$8" role="10QFUM">
                  <property role="TrG5h" value="b1" />
                  <node concept="29HgVG" id="1eJUWaJfC$9" role="lGtFl">
                    <node concept="3NFfHV" id="1eJUWaJfC$a" role="3NFExx">
                      <node concept="3clFbS" id="1eJUWaJfC$b" role="2VODD2">
                        <node concept="3clFbF" id="1eJUWaJfC$c" role="3cqZAp">
                          <node concept="2OqwBi" id="1eJUWaJfC$d" role="3clFbG">
                            <node concept="2OqwBi" id="1eJUWaJfC$e" role="2Oq$k0">
                              <node concept="30H73N" id="1eJUWaJfC$f" role="2Oq$k0" />
                              <node concept="3TrEf2" id="1eJUWaJfC$g" role="2OqNvi">
                                <ref role="3Tt5mk" to="39kg:hZwMIxO" resolve="expression" />
                              </node>
                            </node>
                            <node concept="3JvlWi" id="1eJUWaJfC$h" role="2OqNvi" />
                          </node>
                        </node>
                      </node>
                    </node>
                  </node>
                </node>
                <node concept="3cmrfG" id="1eJUWaJfC$i" role="10QFUP">
                  <property role="3cmrfH" value="0" />
                </node>
              </node>
            </node>
          </node>
        </node>
      </node>
    </node>
    <node concept="3aamgX" id="i09LzBF" role="3aUrZf">
      <ref role="30HIoZ" to="39kg:hZwSiEw" resolve="BigProdExpression" />
      <node concept="14YyZ8" id="1eJUWaJfCQB" role="1lVwrX">
        <node concept="14ZrTv" id="1eJUWaJfCQU" role="14ZwWg">
          <node concept="30G5F_" id="1eJUWaJfCQV" role="150hEN">
            <node concept="3clFbS" id="1eJUWaJfCQW" role="2VODD2">
              <node concept="3clFbF" id="1eJUWaJfCRg" role="3cqZAp">
                <node concept="3JuTUA" id="1eJUWaJfCRh" role="3clFbG">
                  <node concept="2c44tf" id="1eJUWaJfCRi" role="3JuZjQ">
                    <node concept="wGCXc" id="1eJUWaJfCRj" role="2c44tc">
                      <node concept="9rSXG" id="1eJUWaJfCRk" role="wJjTD" />
                    </node>
                  </node>
                  <node concept="2OqwBi" id="1eJUWaJfCRl" role="3JuY14">
                    <node concept="30H73N" id="1eJUWaJfCRm" role="2Oq$k0" />
                    <node concept="3JvlWi" id="1eJUWaJfCRn" role="2OqNvi" />
                  </node>
                </node>
              </node>
            </node>
          </node>
          <node concept="gft3U" id="1eJUWaJfCQY" role="150oIE">
            <node concept="3clFbF" id="1eJUWaJfCQZ" role="gfFT$">
              <node concept="37vLTI" id="1eJUWaJfCR0" role="3clFbG">
                <node concept="33vP2n" id="1eJUWaJfCR1" role="37vLTJ">
                  <node concept="xERo3" id="1eJUWaJfCR2" role="lGtFl">
                    <ref role="xH3mL" node="i09H96F" resolve="MathSymbolResultReference" />
                  </node>
                </node>
                <node concept="10Nm6u" id="1eJUWaJfCRf" role="37vLTx" />
              </node>
            </node>
          </node>
        </node>
        <node concept="gft3U" id="1eJUWaJfCQD" role="14YRTM">
          <node concept="3clFbF" id="1eJUWaJfCQE" role="gfFT$">
            <node concept="37vLTI" id="1eJUWaJfCQF" role="3clFbG">
              <node concept="33vP2n" id="1eJUWaJfCQG" role="37vLTJ">
                <node concept="xERo3" id="1eJUWaJfCQH" role="lGtFl">
                  <ref role="xH3mL" node="i09H96F" resolve="MathSymbolResultReference" />
                </node>
              </node>
              <node concept="10QFUN" id="1eJUWaJfCQI" role="37vLTx">
                <node concept="3SilvC" id="1eJUWaJfCQJ" role="10QFUM">
                  <property role="TrG5h" value="b1" />
                  <node concept="29HgVG" id="1eJUWaJfCQK" role="lGtFl">
                    <node concept="3NFfHV" id="1eJUWaJfCQL" role="3NFExx">
                      <node concept="3clFbS" id="1eJUWaJfCQM" role="2VODD2">
                        <node concept="3clFbF" id="1eJUWaJfCQN" role="3cqZAp">
                          <node concept="2OqwBi" id="1eJUWaJfCQO" role="3clFbG">
                            <node concept="2OqwBi" id="1eJUWaJfCQP" role="2Oq$k0">
                              <node concept="30H73N" id="1eJUWaJfCQQ" role="2Oq$k0" />
                              <node concept="3TrEf2" id="1eJUWaJfCQR" role="2OqNvi">
                                <ref role="3Tt5mk" to="39kg:hZwMIxO" resolve="expression" />
                              </node>
                            </node>
                            <node concept="3JvlWi" id="1eJUWaJfCQS" role="2OqNvi" />
                          </node>
                        </node>
                      </node>
                    </node>
                  </node>
                </node>
                <node concept="3cmrfG" id="1eJUWaJfCQT" role="10QFUP">
                  <property role="3cmrfH" value="1" />
                </node>
              </node>
            </node>
          </node>
        </node>
      </node>
    </node>
  </node>
  <node concept="jVnub" id="i09DXfC">
    <property role="TrG5h" value="MathSymbolIterator" />
    <node concept="3aamgX" id="i09ELU0" role="3aUrZf">
      <property role="36QftV" value="true" />
      <ref role="30HIoZ" to="39kg:hZwSsDe" resolve="ExtrSymbol" />
      <node concept="gft3U" id="i09EVPW" role="1lVwrX">
        <node concept="9aQIb" id="i0aiM5X" role="gfFT$">
          <node concept="3clFbS" id="i0aiM5Y" role="9aQI4">
            <node concept="3cpWs8" id="i0aiM5Z" role="3cqZAp">
              <node concept="3cpWsn" id="i0aiM60" role="3cpWs9">
                <property role="TrG5h" value="e" />
                <node concept="10Oyi0" id="i0aiM61" role="1tU5fm">
                  <node concept="29HgVG" id="i0aiM62" role="lGtFl">
                    <node concept="3NFfHV" id="i0aiM63" role="3NFExx">
                      <node concept="3clFbS" id="i0aiM64" role="2VODD2">
                        <node concept="3clFbF" id="i0aiM65" role="3cqZAp">
                          <node concept="2OqwBi" id="i0aiM66" role="3clFbG">
                            <node concept="1PxgMI" id="i0aiM67" role="2Oq$k0">
                              <ref role="1m5ApE" to="tpee:fz3vP1H" resolve="Type" />
                              <node concept="2OqwBi" id="i0aiM68" role="1m5AlR">
                                <node concept="2OqwBi" id="i0aiM69" role="2Oq$k0">
                                  <node concept="30H73N" id="i0aiM6a" role="2Oq$k0" />
                                  <node concept="3TrEf2" id="i0aiM6b" role="2OqNvi">
                                    <ref role="3Tt5mk" to="39kg:hZwMIxO" resolve="expression" />
                                  </node>
                                </node>
                                <node concept="3JvlWi" id="i0aiM6c" role="2OqNvi" />
                              </node>
                            </node>
                            <node concept="2qgKlT" id="i0aiM6d" role="2OqNvi">
                              <ref role="37wK5l" to="tpek:hEwIzNC" resolve="getBoxedType" />
                            </node>
                          </node>
                        </node>
                      </node>
                    </node>
                  </node>
                </node>
                <node concept="33vP2n" id="i0aiM6e" role="33vP2m">
                  <node concept="29HgVG" id="i0aiM6f" role="lGtFl">
                    <node concept="3NFfHV" id="i0aiM6g" role="3NFExx">
                      <node concept="3clFbS" id="i0aiM6h" role="2VODD2">
                        <node concept="3clFbF" id="i0aiM6i" role="3cqZAp">
                          <node concept="2OqwBi" id="i0aiM6j" role="3clFbG">
                            <node concept="30H73N" id="i0aiM6k" role="2Oq$k0" />
                            <node concept="3TrEf2" id="i0aiM6l" role="2OqNvi">
                              <ref role="3Tt5mk" to="39kg:hZwMIxO" resolve="expression" />
                            </node>
                          </node>
                        </node>
                      </node>
                    </node>
                  </node>
                </node>
                <node concept="17Uvod" id="i0aiM6m" role="lGtFl">
                  <property role="2qtEX9" value="name" />
                  <property role="P4ACc" value="ceab5195-25ea-4f22-9b92-103b95ca8c0c/1169194658468/1169194664001" />
                  <node concept="3zFVjK" id="i0aiM6n" role="3zH0cK">
                    <node concept="3clFbS" id="i0aiM6o" role="2VODD2">
                      <node concept="3clFbF" id="i0aiM6p" role="3cqZAp">
                        <node concept="2OqwBi" id="i0aiM6q" role="3clFbG">
                          <node concept="1iwH7S" id="i0aiM6r" role="2Oq$k0" />
                          <node concept="2piZGk" id="i0aiM6s" role="2OqNvi">
                            <node concept="Xl_RD" id="i0aiM6t" role="2piZGb">
                              <property role="Xl_RC" value="v" />
                            </node>
                          </node>
                        </node>
                      </node>
                    </node>
                  </node>
                </node>
                <node concept="1pdMLZ" id="i0aiM6u" role="lGtFl">
                  <ref role="2rW$FS" node="i09N46I" resolve="InvokedExpression" />
                </node>
              </node>
            </node>
            <node concept="3clFbH" id="i0aiM6v" role="3cqZAp">
              <node concept="xERo3" id="i0aiM6w" role="lGtFl">
                <ref role="xH3mL" node="i09ItY7" resolve="ExtrSymbolDoCompare" />
              </node>
            </node>
          </node>
        </node>
      </node>
    </node>
    <node concept="3aamgX" id="i09EQON" role="3aUrZf">
      <ref role="30HIoZ" to="39kg:hZxyeFV" resolve="BigSumExpression" />
      <node concept="gft3U" id="i09H0lI" role="1lVwrX">
        <node concept="3clFbF" id="i09H39X" role="gfFT$">
          <node concept="d57v9" id="i0eqqTd" role="3clFbG">
            <node concept="33vP2n" id="i0eqqTe" role="37vLTJ">
              <node concept="xERo3" id="i0eqqTf" role="lGtFl">
                <ref role="xH3mL" node="i09H96F" resolve="MathSymbolResultReference" />
              </node>
            </node>
            <node concept="33vP2n" id="i0eqqTh" role="37vLTx">
              <node concept="29HgVG" id="i0eqvb8" role="lGtFl">
                <node concept="3NFfHV" id="i0eqvb9" role="3NFExx">
                  <node concept="3clFbS" id="i0eqvba" role="2VODD2">
                    <node concept="3clFbF" id="i0eqwvK" role="3cqZAp">
                      <node concept="2OqwBi" id="i0eqwxw" role="3clFbG">
                        <node concept="30H73N" id="i0eqwvL" role="2Oq$k0" />
                        <node concept="3TrEf2" id="i0eqxuw" role="2OqNvi">
                          <ref role="3Tt5mk" to="39kg:hZwMIxO" resolve="expression" />
                        </node>
                      </node>
                    </node>
                  </node>
                </node>
              </node>
            </node>
          </node>
        </node>
      </node>
    </node>
    <node concept="3aamgX" id="i09ESNz" role="3aUrZf">
      <ref role="30HIoZ" to="39kg:hZwSiEw" resolve="BigProdExpression" />
      <node concept="gft3U" id="i0aDRIf" role="1lVwrX">
        <node concept="3clFbF" id="i0aDRIg" role="gfFT$">
          <node concept="37vLTI" id="i0aDRIh" role="3clFbG">
            <node concept="17qRlL" id="i0aEeUJ" role="37vLTx">
              <node concept="33vP2n" id="i0aEeUK" role="3uHU7B">
                <node concept="xERo3" id="i0aEeUL" role="lGtFl">
                  <ref role="xH3mL" node="i09H96F" resolve="MathSymbolResultReference" />
                </node>
              </node>
              <node concept="1eOMI4" id="i0eqzBY" role="3uHU7w">
                <node concept="33vP2n" id="i0eqzBZ" role="1eOMHV">
                  <node concept="29HgVG" id="i0eq$z7" role="lGtFl">
                    <node concept="3NFfHV" id="i0eq$z8" role="3NFExx">
                      <node concept="3clFbS" id="i0eq$z9" role="2VODD2">
                        <node concept="3clFbF" id="i0eq_3C" role="3cqZAp">
                          <node concept="2OqwBi" id="i0eq_58" role="3clFbG">
                            <node concept="30H73N" id="i0eq_3D" role="2Oq$k0" />
                            <node concept="3TrEf2" id="i0eq_W8" role="2OqNvi">
                              <ref role="3Tt5mk" to="39kg:hZwMIxO" resolve="expression" />
                            </node>
                          </node>
                        </node>
                      </node>
                    </node>
                  </node>
                </node>
              </node>
            </node>
            <node concept="33vP2n" id="i0aDRIt" role="37vLTJ">
              <node concept="xERo3" id="i0aDRIu" role="lGtFl">
                <ref role="xH3mL" node="i09H96F" resolve="MathSymbolResultReference" />
              </node>
            </node>
          </node>
        </node>
      </node>
    </node>
  </node>
  <node concept="jVnub" id="i09G54T">
    <property role="TrG5h" value="MathIndexReference" />
    <node concept="3aamgX" id="i09G9gw" role="3aUrZf">
      <ref role="30HIoZ" to="39kg:hZwMAQC" resolve="MathSymbolIndex" />
      <node concept="gft3U" id="i09GqI6" role="1lVwrX">
        <node concept="2GrUjf" id="i09GtQQ" role="gfFT$">
          <node concept="1ZhdrF" id="i09GwmN" role="lGtFl">
            <property role="2qtEX8" value="variable" />
            <property role="P3scX" value="83888646-71ce-4f1c-9c53-c54016f6ad4f/1153944233411/1153944258490" />
            <node concept="3$xsQk" id="i09GwmO" role="3$ytzL">
              <node concept="3clFbS" id="i09GwmP" role="2VODD2">
                <node concept="3clFbF" id="i09Gyqv" role="3cqZAp">
                  <node concept="2OqwBi" id="i09Gyva" role="3clFbG">
                    <node concept="1iwH7S" id="i09Gyqw" role="2Oq$k0" />
                    <node concept="1iwH70" id="i09GzcD" role="2OqNvi">
                      <ref role="1iwH77" node="i09BnDO" resolve="ForeachVar" />
                      <node concept="30H73N" id="i09GAkS" role="1iwH7V" />
                    </node>
                  </node>
                </node>
              </node>
            </node>
          </node>
        </node>
      </node>
    </node>
    <node concept="3aamgX" id="i09G9qM" role="3aUrZf">
      <ref role="30HIoZ" to="39kg:hZEt_NK" resolve="MathSymbolFromToIndex" />
      <node concept="gft3U" id="i09GreQ" role="1lVwrX">
        <node concept="37vLTw" id="3GM_nagTBMj" role="gfFT$">
          <node concept="1ZhdrF" id="i09GwS3" role="lGtFl">
            <property role="2qtEX8" value="variableDeclaration" />
            <property role="P3scX" value="f3061a53-9226-4cc5-a443-f952ceaf5816/1068498886296/1068581517664" />
            <node concept="3$xsQk" id="i09GwS4" role="3$ytzL">
              <node concept="3clFbS" id="i09GwS5" role="2VODD2">
                <node concept="3clFbF" id="i09GMBl" role="3cqZAp">
                  <node concept="2OqwBi" id="i09GMGv" role="3clFbG">
                    <node concept="1iwH7S" id="i09GMBm" role="2Oq$k0" />
                    <node concept="1iwH70" id="i09GNkP" role="2OqNvi">
                      <ref role="1iwH77" node="i09$HkF" resolve="LocalVar" />
                      <node concept="30H73N" id="i09GQpU" role="1iwH7V" />
                    </node>
                  </node>
                </node>
              </node>
            </node>
          </node>
        </node>
      </node>
    </node>
  </node>
  <node concept="13MO4I" id="i09H96F">
    <property role="TrG5h" value="MathSymbolResultReference" />
    <ref role="3gUMe" to="39kg:hZwMxyp" resolve="MathSymbol" />
    <node concept="37vLTw" id="3GM_nagTubo" role="13RCb5">
      <node concept="raruj" id="i09Hg3_" role="lGtFl" />
      <node concept="1ZhdrF" id="i09Hg3A" role="lGtFl">
        <property role="2qtEX8" value="variableDeclaration" />
        <property role="P3scX" value="f3061a53-9226-4cc5-a443-f952ceaf5816/1068498886296/1068581517664" />
        <node concept="3$xsQk" id="i09Hg3B" role="3$ytzL">
          <node concept="3clFbS" id="i09Hg3C" role="2VODD2">
            <node concept="3clFbF" id="i09LiS0" role="3cqZAp">
              <node concept="2OqwBi" id="i09LiWs" role="3clFbG">
                <node concept="1iwH7S" id="i09LiS1" role="2Oq$k0" />
                <node concept="1iwH70" id="i09Ljqx" role="2OqNvi">
                  <ref role="1iwH77" node="i09ExEo" resolve="ResultVar" />
                  <node concept="30H73N" id="i09Lknm" role="1iwH7V" />
                </node>
              </node>
            </node>
          </node>
        </node>
      </node>
    </node>
  </node>
  <node concept="13MO4I" id="i09ItY7">
    <property role="TrG5h" value="ExtrSymbolDoCompare" />
    <ref role="3gUMe" to="39kg:hZwSsDe" resolve="ExtrSymbol" />
    <node concept="3clFbS" id="i09Iy4F" role="13RCb5">
      <node concept="3cpWs8" id="i09I$Le" role="3cqZAp">
        <node concept="3cpWsn" id="i09I$Lf" role="3cpWs9">
          <property role="TrG5h" value="p" />
          <node concept="3uibUv" id="i09IA5h" role="1tU5fm">
            <ref role="3uigEE" to="wyt6:~Comparable" resolve="Comparable" />
          </node>
        </node>
      </node>
      <node concept="3clFbJ" id="i09UF_0" role="3cqZAp">
        <node concept="3clFbS" id="i09UF_1" role="3clFbx">
          <node concept="3clFbF" id="i09UIQS" role="3cqZAp">
            <node concept="37vLTI" id="i09UIXK" role="3clFbG">
              <node concept="37vLTw" id="3GM_nagTuqB" role="37vLTx">
                <ref role="3cqZAo" node="i09I$Lf" resolve="p" />
                <node concept="1ZhdrF" id="i09Vo6T" role="lGtFl">
                  <property role="2qtEX8" value="variableDeclaration" />
                  <property role="P3scX" value="f3061a53-9226-4cc5-a443-f952ceaf5816/1068498886296/1068581517664" />
                  <node concept="3$xsQk" id="i09Vo6U" role="3$ytzL">
                    <node concept="3clFbS" id="i09Vo6V" role="2VODD2">
                      <node concept="3clFbF" id="i09VrB7" role="3cqZAp">
                        <node concept="2OqwBi" id="i09VrFy" role="3clFbG">
                          <node concept="1iwH7S" id="i09VrB8" role="2Oq$k0" />
                          <node concept="1iwH70" id="i09Vs6e" role="2OqNvi">
                            <ref role="1iwH77" node="i09N46I" resolve="InvokedExpression" />
                            <node concept="30H73N" id="i09VtuC" role="1iwH7V" />
                          </node>
                        </node>
                      </node>
                    </node>
                  </node>
                </node>
              </node>
              <node concept="37vLTw" id="3GM_nagTzrk" role="37vLTJ">
                <ref role="3cqZAo" node="i09I$Lf" resolve="p" />
                <node concept="xERo3" id="i09Vj5k" role="lGtFl">
                  <ref role="xH3mL" node="i09H96F" resolve="MathSymbolResultReference" />
                </node>
              </node>
            </node>
          </node>
        </node>
        <node concept="3clFbC" id="i09UGOU" role="3clFbw">
          <node concept="10Nm6u" id="i09UHoQ" role="3uHU7w" />
          <node concept="37vLTw" id="3GM_nagTwX6" role="3uHU7B">
            <ref role="3cqZAo" node="i09I$Lf" resolve="p" />
            <node concept="xERo3" id="i09VgwZ" role="lGtFl">
              <ref role="xH3mL" node="i09H96F" resolve="MathSymbolResultReference" />
            </node>
          </node>
        </node>
        <node concept="3eNFk2" id="i09UJQd" role="3eNLev">
          <node concept="3clFbS" id="i09UJQf" role="3eOfB_">
            <node concept="3clFbF" id="i09UKkx" role="3cqZAp">
              <node concept="37vLTI" id="i09UKx0" role="3clFbG">
                <node concept="37vLTw" id="3GM_nagT$dw" role="37vLTx">
                  <ref role="3cqZAo" node="i09I$Lf" resolve="p" />
                  <node concept="1ZhdrF" id="i09VoVc" role="lGtFl">
                    <property role="2qtEX8" value="variableDeclaration" />
                    <property role="P3scX" value="f3061a53-9226-4cc5-a443-f952ceaf5816/1068498886296/1068581517664" />
                    <node concept="3$xsQk" id="i09VoVd" role="3$ytzL">
                      <node concept="3clFbS" id="i09VoVe" role="2VODD2">
                        <node concept="3clFbF" id="i09Vv8Q" role="3cqZAp">
                          <node concept="2OqwBi" id="i09Vv8R" role="3clFbG">
                            <node concept="1iwH7S" id="i09Vv8S" role="2Oq$k0" />
                            <node concept="1iwH70" id="i09Vv8T" role="2OqNvi">
                              <ref role="1iwH77" node="i09N46I" resolve="InvokedExpression" />
                              <node concept="30H73N" id="i09Vv8U" role="1iwH7V" />
                            </node>
                          </node>
                        </node>
                      </node>
                    </node>
                  </node>
                </node>
                <node concept="37vLTw" id="3GM_nagTys1" role="37vLTJ">
                  <ref role="3cqZAo" node="i09I$Lf" resolve="p" />
                  <node concept="xERo3" id="i09VkYd" role="lGtFl">
                    <ref role="xH3mL" node="i09H96F" resolve="MathSymbolResultReference" />
                  </node>
                </node>
              </node>
            </node>
          </node>
          <node concept="3eOVzh" id="i09UVJC" role="3eO9$A">
            <node concept="3cmrfG" id="i09UVL9" role="3uHU7w">
              <property role="3cmrfH" value="0" />
            </node>
            <node concept="2OqwBi" id="i09UURB" role="3uHU7B">
              <node concept="37vLTw" id="3GM_nagTz4s" role="2Oq$k0">
                <ref role="3cqZAo" node="i09I$Lf" resolve="p" />
                <node concept="xERo3" id="i09VxyK" role="lGtFl">
                  <ref role="xH3mL" node="i09H96F" resolve="MathSymbolResultReference" />
                </node>
              </node>
              <node concept="liA8E" id="i09UV9J" role="2OqNvi">
                <ref role="37wK5l" to="wyt6:~Comparable.compareTo(java.lang.Object):int" resolve="compareTo" />
                <node concept="37vLTw" id="3GM_nagTuSs" role="37wK5m">
                  <ref role="3cqZAo" node="i09I$Lf" resolve="p" />
                  <node concept="1ZhdrF" id="i09V_kN" role="lGtFl">
                    <property role="2qtEX8" value="variableDeclaration" />
                    <property role="P3scX" value="f3061a53-9226-4cc5-a443-f952ceaf5816/1068498886296/1068581517664" />
                    <node concept="3$xsQk" id="i09V_kO" role="3$ytzL">
                      <node concept="3clFbS" id="i09V_kP" role="2VODD2">
                        <node concept="3clFbF" id="i09VALW" role="3cqZAp">
                          <node concept="2OqwBi" id="i09VALX" role="3clFbG">
                            <node concept="1iwH7S" id="i09VALY" role="2Oq$k0" />
                            <node concept="1iwH70" id="i09VALZ" role="2OqNvi">
                              <ref role="1iwH77" node="i09N46I" resolve="InvokedExpression" />
                              <node concept="30H73N" id="i09VAM0" role="1iwH7V" />
                            </node>
                          </node>
                        </node>
                      </node>
                    </node>
                  </node>
                </node>
              </node>
            </node>
            <node concept="1W57fq" id="i09UXRI" role="lGtFl">
              <node concept="3IZrLx" id="i09UXRJ" role="3IZSJc">
                <node concept="3clFbS" id="i09UXRK" role="2VODD2">
                  <node concept="3clFbF" id="i09UYpI" role="3cqZAp">
                    <node concept="2OqwBi" id="i09UYqY" role="3clFbG">
                      <node concept="30H73N" id="i09UYpJ" role="2Oq$k0" />
                      <node concept="1mIQ4w" id="i09UYYU" role="2OqNvi">
                        <node concept="chp4Y" id="i09UZBI" role="cj9EA">
                          <ref role="cht4Q" to="39kg:hZwSm17" resolve="BigMaxExpression" />
                        </node>
                      </node>
                    </node>
                  </node>
                </node>
              </node>
              <node concept="gft3U" id="i09V1ir" role="UU_$l">
                <node concept="3eOSWO" id="i09V7sx" role="gfFT$">
                  <node concept="2OqwBi" id="i09V7sy" role="3uHU7B">
                    <node concept="37vLTw" id="3GM_nagT$_z" role="2Oq$k0">
                      <ref role="3cqZAo" node="i09I$Lf" resolve="p" />
                      <node concept="xERo3" id="i09VzRg" role="lGtFl">
                        <ref role="xH3mL" node="i09H96F" resolve="MathSymbolResultReference" />
                      </node>
                    </node>
                    <node concept="liA8E" id="i09V7s$" role="2OqNvi">
                      <ref role="37wK5l" to="wyt6:~Comparable.compareTo(java.lang.Object):int" resolve="compareTo" />
                      <node concept="37vLTw" id="3GM_nagTt8d" role="37wK5m">
                        <ref role="3cqZAo" node="i09I$Lf" resolve="p" />
                        <node concept="1ZhdrF" id="i09V_Z6" role="lGtFl">
                          <property role="2qtEX8" value="variableDeclaration" />
                          <property role="P3scX" value="f3061a53-9226-4cc5-a443-f952ceaf5816/1068498886296/1068581517664" />
                          <node concept="3$xsQk" id="i09V_Z7" role="3$ytzL">
                            <node concept="3clFbS" id="i09V_Z8" role="2VODD2">
                              <node concept="3clFbF" id="i09VBsw" role="3cqZAp">
                                <node concept="2OqwBi" id="i09VBsx" role="3clFbG">
                                  <node concept="1iwH7S" id="i09VBsy" role="2Oq$k0" />
                                  <node concept="1iwH70" id="i09VBsz" role="2OqNvi">
                                    <ref role="1iwH77" node="i09N46I" resolve="InvokedExpression" />
                                    <node concept="30H73N" id="i09VBs$" role="1iwH7V" />
                                  </node>
                                </node>
                              </node>
                            </node>
                          </node>
                        </node>
                      </node>
                    </node>
                  </node>
                  <node concept="3cmrfG" id="i09V7sA" role="3uHU7w">
                    <property role="3cmrfH" value="0" />
                  </node>
                </node>
              </node>
            </node>
          </node>
        </node>
        <node concept="raruj" id="i09UNfb" role="lGtFl" />
      </node>
    </node>
  </node>
</model>

