<?xml version="1.0" encoding="UTF-8"?>
<model ref="r:00000000-0000-4000-0000-011c895902a6(jetbrains.mps.lang.actions.typesystem)">
  <persistence version="9" />
  <languages>
    <use id="3a13115c-633c-4c5c-bbcc-75c4219e9555" name="jetbrains.mps.lang.quotation" version="0" />
    <use id="7a5dda62-9140-4668-ab76-d5ed1746f2b2" name="jetbrains.mps.lang.typesystem" version="0" />
    <use id="7866978e-a0f0-4cc7-81bc-4d213d9375e1" name="jetbrains.mps.lang.smodel" version="4" />
    <use id="f3061a53-9226-4cc5-a443-f952ceaf5816" name="jetbrains.mps.baseLanguage" version="4" />
    <devkit ref="fbc25dd2-5da4-483a-8b19-70928e1b62d7(jetbrains.mps.devkit.general-purpose)" />
  </languages>
  <imports>
    <import index="tpdg" ref="r:00000000-0000-4000-0000-011c895902a8(jetbrains.mps.lang.actions.structure)" />
    <import index="tpee" ref="r:00000000-0000-4000-0000-011c895902ca(jetbrains.mps.baseLanguage.structure)" />
    <import index="tpce" ref="r:00000000-0000-4000-0000-011c89590292(jetbrains.mps.lang.structure.structure)" />
    <import index="tpdr" ref="r:00000000-0000-4000-0000-011c895902a3(jetbrains.mps.lang.actions.behavior)" />
    <import index="tpcu" ref="r:00000000-0000-4000-0000-011c89590282(jetbrains.mps.lang.core.behavior)" />
    <import index="f4zo" ref="1ed103c3-3aa6-49b7-9c21-6765ee11f224/java:jetbrains.mps.openapi.editor.cells(MPS.Editor/)" />
    <import index="cttk" ref="r:5ff047e0-2953-4750-806a-bdc16824aa89(jetbrains.mps.smodel)" />
    <import index="tpcn" ref="r:00000000-0000-4000-0000-011c8959028b(jetbrains.mps.lang.structure.behavior)" implicit="true" />
  </imports>
  <registry>
    <language id="f3061a53-9226-4cc5-a443-f952ceaf5816" name="jetbrains.mps.baseLanguage">
      <concept id="1082485599095" name="jetbrains.mps.baseLanguage.structure.BlockStatement" flags="nn" index="9aQIb">
        <child id="1082485599096" name="statements" index="9aQI4" />
      </concept>
      <concept id="1197027756228" name="jetbrains.mps.baseLanguage.structure.DotExpression" flags="nn" index="2OqwBi">
        <child id="1197027771414" name="operand" index="2Oq$k0" />
        <child id="1197027833540" name="operation" index="2OqNvi" />
      </concept>
      <concept id="1070475926800" name="jetbrains.mps.baseLanguage.structure.StringLiteral" flags="nn" index="Xl_RD">
        <property id="1070475926801" name="value" index="Xl_RC" />
      </concept>
      <concept id="1070534058343" name="jetbrains.mps.baseLanguage.structure.NullLiteral" flags="nn" index="10Nm6u" />
      <concept id="1070534644030" name="jetbrains.mps.baseLanguage.structure.BooleanType" flags="in" index="10P_77" />
      <concept id="1068431474542" name="jetbrains.mps.baseLanguage.structure.VariableDeclaration" flags="ng" index="33uBYm">
        <child id="1068431790190" name="initializer" index="33vP2m" />
      </concept>
      <concept id="1068498886296" name="jetbrains.mps.baseLanguage.structure.VariableReference" flags="nn" index="37vLTw">
        <reference id="1068581517664" name="variableDeclaration" index="3cqZAo" />
      </concept>
      <concept id="1225271177708" name="jetbrains.mps.baseLanguage.structure.StringType" flags="in" index="17QB3L" />
      <concept id="4972933694980447171" name="jetbrains.mps.baseLanguage.structure.BaseVariableDeclaration" flags="ng" index="19Szcq">
        <child id="5680397130376446158" name="type" index="1tU5fm" />
      </concept>
      <concept id="1068580123157" name="jetbrains.mps.baseLanguage.structure.Statement" flags="nn" index="3clFbH" />
      <concept id="1068580123159" name="jetbrains.mps.baseLanguage.structure.IfStatement" flags="nn" index="3clFbJ">
        <child id="1082485599094" name="ifFalseStatement" index="9aQIa" />
        <child id="1068580123160" name="condition" index="3clFbw" />
        <child id="1068580123161" name="ifTrue" index="3clFbx" />
      </concept>
      <concept id="1068580123136" name="jetbrains.mps.baseLanguage.structure.StatementList" flags="sn" stub="5293379017992965193" index="3clFbS">
        <child id="1068581517665" name="statement" index="3cqZAp" />
      </concept>
      <concept id="1068581242875" name="jetbrains.mps.baseLanguage.structure.PlusExpression" flags="nn" index="3cpWs3" />
      <concept id="1068581242878" name="jetbrains.mps.baseLanguage.structure.ReturnStatement" flags="nn" index="3cpWs6" />
      <concept id="1068581242864" name="jetbrains.mps.baseLanguage.structure.LocalVariableDeclarationStatement" flags="nn" index="3cpWs8">
        <child id="1068581242865" name="localVariableDeclaration" index="3cpWs9" />
      </concept>
      <concept id="1068581242863" name="jetbrains.mps.baseLanguage.structure.LocalVariableDeclaration" flags="nr" index="3cpWsn" />
      <concept id="1081516740877" name="jetbrains.mps.baseLanguage.structure.NotExpression" flags="nn" index="3fqX7Q">
        <child id="1081516765348" name="expression" index="3fr31v" />
      </concept>
      <concept id="1204053956946" name="jetbrains.mps.baseLanguage.structure.IMethodCall" flags="ng" index="1ndlxa">
        <reference id="1068499141037" name="baseMethodDeclaration" index="37wK5l" />
        <child id="1068499141038" name="actualArgument" index="37wK5m" />
      </concept>
      <concept id="1107535904670" name="jetbrains.mps.baseLanguage.structure.ClassifierType" flags="in" index="3uibUv">
        <reference id="1107535924139" name="classifier" index="3uigEE" />
      </concept>
      <concept id="1081773326031" name="jetbrains.mps.baseLanguage.structure.BinaryOperation" flags="nn" index="3uHJSO">
        <child id="1081773367579" name="rightExpression" index="3uHU7w" />
        <child id="1081773367580" name="leftExpression" index="3uHU7B" />
      </concept>
      <concept id="1073239437375" name="jetbrains.mps.baseLanguage.structure.NotEqualsExpression" flags="nn" index="3y3z36" />
    </language>
    <language id="3a13115c-633c-4c5c-bbcc-75c4219e9555" name="jetbrains.mps.lang.quotation">
      <concept id="1196350785110" name="jetbrains.mps.lang.quotation.structure.AbstractAntiquotation" flags="ng" index="2c44t0">
        <child id="1196350785111" name="expression" index="2c44t1" />
      </concept>
      <concept id="1196350785117" name="jetbrains.mps.lang.quotation.structure.ReferenceAntiquotation" flags="ng" index="2c44tb" />
      <concept id="1196350785113" name="jetbrains.mps.lang.quotation.structure.Quotation" flags="nn" index="2c44tf">
        <child id="1196350785114" name="quotedNode" index="2c44tc" />
      </concept>
    </language>
    <language id="7a5dda62-9140-4668-ab76-d5ed1746f2b2" name="jetbrains.mps.lang.typesystem">
      <concept id="1185788614172" name="jetbrains.mps.lang.typesystem.structure.NormalTypeClause" flags="ng" index="mw_s8">
        <child id="1185788644032" name="normalType" index="mwGJk" />
      </concept>
      <concept id="1175517767210" name="jetbrains.mps.lang.typesystem.structure.ReportErrorStatement" flags="nn" index="2MkqsV">
        <child id="1175517851849" name="errorString" index="2MkJ7o" />
      </concept>
      <concept id="1227096774658" name="jetbrains.mps.lang.typesystem.structure.MessageStatement" flags="ng" index="2OEH$v">
        <child id="1227096802790" name="nodeToReport" index="2OEOjV" />
      </concept>
      <concept id="1195213580585" name="jetbrains.mps.lang.typesystem.structure.AbstractCheckingRule" flags="ig" index="18hYwZ">
        <property id="1195213689297" name="overrides" index="18ip37" />
        <child id="1195213635060" name="body" index="18ibNy" />
      </concept>
      <concept id="1195214364922" name="jetbrains.mps.lang.typesystem.structure.NonTypesystemRule" flags="ig" index="18kY7G" />
      <concept id="1174642788531" name="jetbrains.mps.lang.typesystem.structure.ConceptReference" flags="ig" index="1YaCAy">
        <reference id="1174642800329" name="concept" index="1YaFvo" />
      </concept>
      <concept id="1174643105530" name="jetbrains.mps.lang.typesystem.structure.InferenceRule" flags="ig" index="1YbPZF" />
      <concept id="1174648085619" name="jetbrains.mps.lang.typesystem.structure.AbstractRule" flags="ng" index="1YuPPy">
        <child id="1174648101952" name="applicableNode" index="1YuTPh" />
      </concept>
      <concept id="1174650418652" name="jetbrains.mps.lang.typesystem.structure.ApplicableNodeReference" flags="nn" index="1YBJjd">
        <reference id="1174650432090" name="applicableNode" index="1YBMHb" />
      </concept>
      <concept id="1174657487114" name="jetbrains.mps.lang.typesystem.structure.TypeOfExpression" flags="nn" index="1Z2H0r">
        <child id="1174657509053" name="term" index="1Z2MuG" />
      </concept>
      <concept id="1174658326157" name="jetbrains.mps.lang.typesystem.structure.CreateEquationStatement" flags="nn" index="1Z5TYs" />
      <concept id="1174660718586" name="jetbrains.mps.lang.typesystem.structure.AbstractEquationStatement" flags="nn" index="1Zf1VF">
        <child id="1174660783413" name="leftExpression" index="1ZfhK$" />
        <child id="1174660783414" name="rightExpression" index="1ZfhKB" />
      </concept>
    </language>
    <language id="7866978e-a0f0-4cc7-81bc-4d213d9375e1" name="jetbrains.mps.lang.smodel">
      <concept id="1177026924588" name="jetbrains.mps.lang.smodel.structure.RefConcept_Reference" flags="nn" index="chp4Y">
        <reference id="1177026940964" name="conceptDeclaration" index="cht4Q" />
      </concept>
      <concept id="1138411891628" name="jetbrains.mps.lang.smodel.structure.SNodeOperation" flags="nn" index="eCIE_">
        <child id="1144104376918" name="parameter" index="1xVPHs" />
      </concept>
      <concept id="1179409122411" name="jetbrains.mps.lang.smodel.structure.Node_ConceptMethodCall" flags="nn" index="2qgKlT" />
      <concept id="1171407110247" name="jetbrains.mps.lang.smodel.structure.Node_GetAncestorOperation" flags="nn" index="2Xjw5R" />
      <concept id="1144101972840" name="jetbrains.mps.lang.smodel.structure.OperationParm_Concept" flags="ng" index="1xMEDy">
        <child id="1207343664468" name="conceptArgument" index="ri$Ld" />
      </concept>
      <concept id="1138055754698" name="jetbrains.mps.lang.smodel.structure.SNodeType" flags="in" index="3Tqbb2">
        <reference id="1138405853777" name="concept" index="ehGHo" />
      </concept>
      <concept id="1138056143562" name="jetbrains.mps.lang.smodel.structure.SLinkAccess" flags="nn" index="3TrEf2">
        <reference id="1138056516764" name="link" index="3Tt5mk" />
      </concept>
      <concept id="1172420572800" name="jetbrains.mps.lang.smodel.structure.ConceptNodeType" flags="in" index="3THzug" />
    </language>
    <language id="ceab5195-25ea-4f22-9b92-103b95ca8c0c" name="jetbrains.mps.lang.core">
      <concept id="1133920641626" name="jetbrains.mps.lang.core.structure.BaseConcept" flags="ng" index="2VYdi">
        <property id="1193676396447" name="virtualPackage" index="3GE5qa" />
        <child id="5169995583184591170" name="smodelAttribute" index="lGtFl" />
      </concept>
      <concept id="3364660638048049745" name="jetbrains.mps.lang.core.structure.LinkAttribute" flags="ng" index="A9Btn">
        <property id="1757699476691236116" name="linkRole" index="2qtEX8" />
        <property id="1341860900488019036" name="linkId" index="P3scX" />
      </concept>
      <concept id="1169194658468" name="jetbrains.mps.lang.core.structure.INamedConcept" flags="ng" index="TrEIO">
        <property id="1169194664001" name="name" index="TrG5h" />
      </concept>
    </language>
  </registry>
  <node concept="1YbPZF" id="hb0eNLe">
    <property role="18ip37" value="true" />
    <property role="TrG5h" value="typeof_ConceptFunctionParameter_parameterObject" />
    <node concept="1YaCAy" id="hb0eNKR" role="1YuTPh">
      <property role="TrG5h" value="parameter" />
      <ref role="1YaFvo" to="tpdg:h8uNqqV" resolve="ConceptFunctionParameter_parameterObject" />
    </node>
    <node concept="3clFbS" id="hb0eNLf" role="18ibNy">
      <node concept="3clFbJ" id="hb0eNLg" role="3cqZAp">
        <node concept="3clFbS" id="hb0eNLh" role="3clFbx">
          <node concept="1Z5TYs" id="hNV2Hk$" role="3cqZAp">
            <node concept="mw_s8" id="hNV2HkB" role="1ZfhK$">
              <node concept="1Z2H0r" id="hNV2HkD" role="mwGJk">
                <node concept="1YBJjd" id="hb0eNLp" role="1Z2MuG">
                  <ref role="1YBMHb" node="hb0eNKR" resolve="parameter" />
                </node>
              </node>
            </node>
            <node concept="mw_s8" id="hNV2HkF" role="1ZfhKB">
              <node concept="2OqwBi" id="hxx$V7g" role="mwGJk">
                <node concept="2OqwBi" id="hxx$Z$G" role="2Oq$k0">
                  <node concept="1YBJjd" id="hb0eNLl" role="2Oq$k0">
                    <ref role="1YBMHb" node="hb0eNKR" resolve="parameter" />
                  </node>
                  <node concept="2Xjw5R" id="hb0eNLm" role="2OqNvi">
                    <node concept="1xMEDy" id="hb0eNLn" role="1xVPHs">
                      <node concept="chp4Y" id="h_XS1MQ" role="ri$Ld">
                        <ref role="cht4Q" to="tpdg:h8uMFyA" resolve="ParameterizedSubstituteMenuPart" />
                      </node>
                    </node>
                  </node>
                </node>
                <node concept="3TrEf2" id="hb0eNLo" role="2OqNvi">
                  <ref role="3Tt5mk" to="tpdg:h8uMOUI" />
                </node>
              </node>
            </node>
          </node>
          <node concept="3cpWs6" id="hb0eNLq" role="3cqZAp" />
        </node>
        <node concept="3y3z36" id="hb0eNLr" role="3clFbw">
          <node concept="10Nm6u" id="hb0eNLs" role="3uHU7w" />
          <node concept="2OqwBi" id="hxx$Zy$" role="3uHU7B">
            <node concept="2OqwBi" id="hxx$OnD" role="2Oq$k0">
              <node concept="1YBJjd" id="hb0eNLv" role="2Oq$k0">
                <ref role="1YBMHb" node="hb0eNKR" resolve="parameter" />
              </node>
              <node concept="2Xjw5R" id="hb0eNLw" role="2OqNvi">
                <node concept="1xMEDy" id="hb0eNLx" role="1xVPHs">
                  <node concept="chp4Y" id="h_XS1Nf" role="ri$Ld">
                    <ref role="cht4Q" to="tpdg:h8uMFyA" resolve="ParameterizedSubstituteMenuPart" />
                  </node>
                </node>
              </node>
            </node>
            <node concept="3TrEf2" id="hb0eNLy" role="2OqNvi">
              <ref role="3Tt5mk" to="tpdg:h8uMOUI" />
            </node>
          </node>
        </node>
      </node>
      <node concept="3clFbJ" id="hb0eNLz" role="3cqZAp">
        <node concept="3clFbS" id="hb0eNL$" role="3clFbx">
          <node concept="1Z5TYs" id="hNV2Hjh" role="3cqZAp">
            <node concept="mw_s8" id="hNV2Hjk" role="1ZfhK$">
              <node concept="1Z2H0r" id="hNV2Hjm" role="mwGJk">
                <node concept="1YBJjd" id="hb0eNLG" role="1Z2MuG">
                  <ref role="1YBMHb" node="hb0eNKR" resolve="parameter" />
                </node>
              </node>
            </node>
            <node concept="mw_s8" id="hNV2Hjo" role="1ZfhKB">
              <node concept="2OqwBi" id="hxx$G9L" role="mwGJk">
                <node concept="2OqwBi" id="hxx$TNu" role="2Oq$k0">
                  <node concept="1YBJjd" id="hb0eNLC" role="2Oq$k0">
                    <ref role="1YBMHb" node="hb0eNKR" resolve="parameter" />
                  </node>
                  <node concept="2Xjw5R" id="hb0eNLD" role="2OqNvi">
                    <node concept="1xMEDy" id="hb0eNLE" role="1xVPHs">
                      <node concept="chp4Y" id="h_XS1Nj" role="ri$Ld">
                        <ref role="cht4Q" to="tpdg:h8CZtG3" resolve="ParameterizedSideTransformMenuPart" />
                      </node>
                    </node>
                  </node>
                </node>
                <node concept="3TrEf2" id="hb0eNLF" role="2OqNvi">
                  <ref role="3Tt5mk" to="tpdg:h8D02pH" />
                </node>
              </node>
            </node>
          </node>
          <node concept="3cpWs6" id="hb0eNLH" role="3cqZAp" />
        </node>
        <node concept="3y3z36" id="hb0eNLI" role="3clFbw">
          <node concept="10Nm6u" id="hb0eNLJ" role="3uHU7w" />
          <node concept="2OqwBi" id="hxx_3cb" role="3uHU7B">
            <node concept="2OqwBi" id="hxx$USm" role="2Oq$k0">
              <node concept="1YBJjd" id="hb0eNLM" role="2Oq$k0">
                <ref role="1YBMHb" node="hb0eNKR" resolve="parameter" />
              </node>
              <node concept="2Xjw5R" id="hb0eNLN" role="2OqNvi">
                <node concept="1xMEDy" id="hb0eNLO" role="1xVPHs">
                  <node concept="chp4Y" id="h_XS1Nn" role="ri$Ld">
                    <ref role="cht4Q" to="tpdg:h8CZtG3" resolve="ParameterizedSideTransformMenuPart" />
                  </node>
                </node>
              </node>
            </node>
            <node concept="3TrEf2" id="hb0eNLP" role="2OqNvi">
              <ref role="3Tt5mk" to="tpdg:h8D02pH" />
            </node>
          </node>
        </node>
      </node>
    </node>
  </node>
  <node concept="1YbPZF" id="hb0eNLQ">
    <property role="TrG5h" value="typeof_ConceptFunctionParameter_nodeToWrap" />
    <node concept="3clFbS" id="hb0eNLR" role="18ibNy">
      <node concept="3cpWs8" id="hb0eNLS" role="3cqZAp">
        <node concept="3cpWsn" id="hb0eNKT" role="3cpWs9">
          <property role="TrG5h" value="menu" />
          <node concept="3Tqbb2" id="hb0eNLT" role="1tU5fm">
            <ref role="ehGHo" to="tpdg:h8yEb1F" resolve="WrapperSubstituteMenuPart" />
          </node>
          <node concept="2OqwBi" id="hxx$Q5K" role="33vP2m">
            <node concept="1YBJjd" id="hb0eNLV" role="2Oq$k0">
              <ref role="1YBMHb" node="hb0eNKS" resolve="nodeToWrap" />
            </node>
            <node concept="2Xjw5R" id="hb0eNLW" role="2OqNvi">
              <node concept="1xMEDy" id="hb0eNLX" role="1xVPHs">
                <node concept="chp4Y" id="h_XS1Nd" role="ri$Ld">
                  <ref role="cht4Q" to="tpdg:h8yEb1F" resolve="WrapperSubstituteMenuPart" />
                </node>
              </node>
            </node>
          </node>
        </node>
      </node>
      <node concept="1Z5TYs" id="hNV2HkH" role="3cqZAp">
        <node concept="mw_s8" id="hNV2HkK" role="1ZfhK$">
          <node concept="1Z2H0r" id="hNV2HkM" role="mwGJk">
            <node concept="1YBJjd" id="hb0eNM5" role="1Z2MuG">
              <ref role="1YBMHb" node="hb0eNKS" resolve="nodeToWrap" />
            </node>
          </node>
        </node>
        <node concept="mw_s8" id="hNV2HkO" role="1ZfhKB">
          <node concept="2c44tf" id="hqIJPHz" role="mwGJk">
            <node concept="3Tqbb2" id="hqIJPH$" role="2c44tc">
              <ref role="ehGHo" to="tpee:gEShaYr" resolve="AbstractCreator" />
              <node concept="2c44tb" id="hqIJPHD" role="lGtFl">
                <property role="2qtEX8" value="concept" />
                <property role="P3scX" value="7866978e-a0f0-4cc7-81bc-4d213d9375e1/1138055754698/1138405853777" />
                <node concept="2OqwBi" id="hxx$Yey" role="2c44t1">
                  <node concept="37vLTw" id="3GM_nagTzbY" role="2Oq$k0">
                    <ref role="3cqZAo" node="hb0eNKT" resolve="menu" />
                  </node>
                  <node concept="3TrEf2" id="hqIJPHG" role="2OqNvi">
                    <ref role="3Tt5mk" to="tpdg:h8yEYLw" />
                  </node>
                </node>
              </node>
            </node>
          </node>
        </node>
      </node>
    </node>
    <node concept="1YaCAy" id="hb0eNKS" role="1YuTPh">
      <property role="TrG5h" value="nodeToWrap" />
      <ref role="1YaFvo" to="tpdg:h8yECRK" resolve="ConceptFunctionParameter_nodeToWrap" />
    </node>
  </node>
  <node concept="1YbPZF" id="hb0eNM6">
    <property role="TrG5h" value="typeof_ConceptFunctionParameter_result" />
    <node concept="3clFbS" id="hb0eNM7" role="18ibNy">
      <node concept="3cpWs8" id="hd__fh$" role="3cqZAp">
        <node concept="3cpWsn" id="hd__fh_" role="3cpWs9">
          <property role="TrG5h" value="conceptOfResult" />
          <node concept="3THzug" id="hd__fhA" role="1tU5fm" />
          <node concept="2OqwBi" id="hJt4GgB" role="33vP2m">
            <node concept="2OqwBi" id="hJt4rgn" role="2Oq$k0">
              <node concept="1YBJjd" id="hJt4qMk" role="2Oq$k0">
                <ref role="1YBMHb" node="hb0eNKU" resolve="result" />
              </node>
              <node concept="2Xjw5R" id="hJt4rSd" role="2OqNvi">
                <node concept="1xMEDy" id="hJt4rSe" role="1xVPHs">
                  <node concept="chp4Y" id="hJt4tBP" role="ri$Ld">
                    <ref role="cht4Q" to="tpdg:hd_wSsX" resolve="ConceptRightTransformPart" />
                  </node>
                </node>
              </node>
            </node>
            <node concept="3TrEf2" id="hJt4HFf" role="2OqNvi">
              <ref role="3Tt5mk" to="tpdg:hd_xjhm" />
            </node>
          </node>
        </node>
      </node>
      <node concept="1Z5TYs" id="hJt4MO7" role="3cqZAp">
        <node concept="mw_s8" id="hJt4MO8" role="1ZfhK$">
          <node concept="1Z2H0r" id="hJt4MO9" role="mwGJk">
            <node concept="1YBJjd" id="hb0eNMl" role="1Z2MuG">
              <ref role="1YBMHb" node="hb0eNKU" resolve="result" />
            </node>
          </node>
        </node>
        <node concept="mw_s8" id="hJt4MOa" role="1ZfhKB">
          <node concept="2c44tf" id="hqIJPHH" role="mwGJk">
            <node concept="3Tqbb2" id="hqIJPHI" role="2c44tc">
              <ref role="ehGHo" to="tpee:gEShaYr" resolve="AbstractCreator" />
              <node concept="2c44tb" id="hqIJPHL" role="lGtFl">
                <property role="2qtEX8" value="concept" />
                <property role="P3scX" value="7866978e-a0f0-4cc7-81bc-4d213d9375e1/1138055754698/1138405853777" />
                <node concept="37vLTw" id="3GM_nagTtpJ" role="2c44t1">
                  <ref role="3cqZAo" node="hd__fh_" resolve="conceptOfResult" />
                </node>
              </node>
            </node>
          </node>
        </node>
      </node>
    </node>
    <node concept="1YaCAy" id="hb0eNKU" role="1YuTPh">
      <property role="TrG5h" value="result" />
      <ref role="1YaFvo" to="tpdg:h8E3goq" resolve="ConceptFunctionParameter_result" />
    </node>
  </node>
  <node concept="1YbPZF" id="hb0eNMm">
    <property role="TrG5h" value="typeof_ConceptFunctionParameter_currentTargetNode" />
    <node concept="3clFbS" id="hb0eNMn" role="18ibNy">
      <node concept="3cpWs8" id="hb0eNMo" role="3cqZAp">
        <node concept="3cpWsn" id="hb0eNKX" role="3cpWs9">
          <property role="TrG5h" value="builder" />
          <node concept="3Tqbb2" id="hb0eNMp" role="1tU5fm">
            <ref role="ehGHo" to="tpdg:gbFOIBE" resolve="NodeSubstituteActionsBuilder" />
          </node>
          <node concept="2OqwBi" id="hxx$GCt" role="33vP2m">
            <node concept="1YBJjd" id="hb0eNMr" role="2Oq$k0">
              <ref role="1YBMHb" node="hb0eNKW" resolve="node" />
            </node>
            <node concept="2Xjw5R" id="hb0eNMs" role="2OqNvi">
              <node concept="1xMEDy" id="hb0eNMt" role="1xVPHs">
                <node concept="chp4Y" id="h_XS1MO" role="ri$Ld">
                  <ref role="cht4Q" to="tpdg:gbFOIBE" resolve="NodeSubstituteActionsBuilder" />
                </node>
              </node>
            </node>
          </node>
        </node>
      </node>
      <node concept="1Z5TYs" id="hNV2HjE" role="3cqZAp">
        <node concept="mw_s8" id="hNV2HjH" role="1ZfhK$">
          <node concept="1Z2H0r" id="hNV2HjJ" role="mwGJk">
            <node concept="1YBJjd" id="hb0eNMv" role="1Z2MuG">
              <ref role="1YBMHb" node="hb0eNKW" resolve="node" />
            </node>
          </node>
        </node>
        <node concept="mw_s8" id="hNV2HjL" role="1ZfhKB">
          <node concept="2c44tf" id="hqIJPHN" role="mwGJk">
            <node concept="3Tqbb2" id="hqIJPHO" role="2c44tc">
              <ref role="ehGHo" to="tpee:gEShaYr" resolve="AbstractCreator" />
              <node concept="2c44tb" id="hqIJPHT" role="lGtFl">
                <property role="2qtEX8" value="concept" />
                <property role="P3scX" value="7866978e-a0f0-4cc7-81bc-4d213d9375e1/1138055754698/1138405853777" />
                <node concept="2OqwBi" id="hxx_3y5" role="2c44t1">
                  <node concept="37vLTw" id="3GM_nagTBIA" role="2Oq$k0">
                    <ref role="3cqZAo" node="hb0eNKX" resolve="builder" />
                  </node>
                  <node concept="3TrEf2" id="hqIJPHW" role="2OqNvi">
                    <ref role="3Tt5mk" to="tpdg:gbFOWO8" />
                  </node>
                </node>
              </node>
            </node>
          </node>
        </node>
      </node>
    </node>
    <node concept="1YaCAy" id="hb0eNKW" role="1YuTPh">
      <property role="TrG5h" value="node" />
      <ref role="1YaFvo" to="tpdg:h8GyYWS" resolve="ConceptFunctionParameter_currentTargetNode" />
    </node>
  </node>
  <node concept="1YbPZF" id="hb0fxrY">
    <property role="TrG5h" value="typeof_RTransformHintSubstitutePreconditionParm_sourceNode" />
    <node concept="3clFbS" id="hb0fxrZ" role="18ibNy">
      <node concept="3cpWs8" id="hb0gr43" role="3cqZAp">
        <node concept="3cpWsn" id="hb0gr44" role="3cpWs9">
          <property role="TrG5h" value="hostBuilder" />
          <node concept="3Tqbb2" id="hb0gr45" role="1tU5fm">
            <ref role="ehGHo" to="tpdg:gzUNGri" resolve="SideTransformHintSubstituteActionsBuilder" />
          </node>
          <node concept="2OqwBi" id="hxx$RKt" role="33vP2m">
            <node concept="1YBJjd" id="hb0gjjR" role="2Oq$k0">
              <ref role="1YBMHb" node="hb0fzhW" resolve="node" />
            </node>
            <node concept="2Xjw5R" id="hb0gk$w" role="2OqNvi">
              <node concept="1xMEDy" id="hb0gmKq" role="1xVPHs">
                <node concept="chp4Y" id="h_XS1MS" role="ri$Ld">
                  <ref role="cht4Q" to="tpdg:gzUNGri" resolve="SideTransformHintSubstituteActionsBuilder" />
                </node>
              </node>
            </node>
          </node>
        </node>
      </node>
      <node concept="3cpWs8" id="hb0gwQo" role="3cqZAp">
        <node concept="3cpWsn" id="hb0gwQp" role="3cpWs9">
          <property role="TrG5h" value="applicableConcept" />
          <node concept="3Tqbb2" id="hb0gwQq" role="1tU5fm">
            <ref role="ehGHo" to="tpce:h0PkWnZ" resolve="AbstractConceptDeclaration" />
          </node>
          <node concept="2OqwBi" id="hxx$YGT" role="33vP2m">
            <node concept="37vLTw" id="3GM_nagTuoq" role="2Oq$k0">
              <ref role="3cqZAo" node="hb0gr44" resolve="hostBuilder" />
            </node>
            <node concept="3TrEf2" id="hb0gvvq" role="2OqNvi">
              <ref role="3Tt5mk" to="tpdg:gzUNGrm" />
            </node>
          </node>
        </node>
      </node>
      <node concept="1Z5TYs" id="hNV2Hk2" role="3cqZAp">
        <node concept="mw_s8" id="hNV2Hk5" role="1ZfhK$">
          <node concept="1Z2H0r" id="hNV2Hk7" role="mwGJk">
            <node concept="1YBJjd" id="hb0gDEn" role="1Z2MuG">
              <ref role="1YBMHb" node="hb0fzhW" resolve="node" />
            </node>
          </node>
        </node>
        <node concept="mw_s8" id="hNV2Hk9" role="1ZfhKB">
          <node concept="2c44tf" id="hqIJPHX" role="mwGJk">
            <node concept="3Tqbb2" id="hqIJPHY" role="2c44tc">
              <node concept="2c44tb" id="hqIJPI1" role="lGtFl">
                <property role="2qtEX8" value="concept" />
                <property role="P3scX" value="7866978e-a0f0-4cc7-81bc-4d213d9375e1/1138055754698/1138405853777" />
                <node concept="37vLTw" id="3GM_nagTACI" role="2c44t1">
                  <ref role="3cqZAo" node="hb0gwQp" resolve="applicableConcept" />
                </node>
              </node>
            </node>
          </node>
        </node>
      </node>
    </node>
    <node concept="1YaCAy" id="hb0fzhW" role="1YuTPh">
      <property role="TrG5h" value="node" />
      <ref role="1YaFvo" to="tpdg:h8Cj7Ib" resolve="ConceptFunctionParameter_sourceNode" />
    </node>
  </node>
  <node concept="1YbPZF" id="hb0h5ld">
    <property role="TrG5h" value="typeof_NodeSetupFunction_NewNode" />
    <node concept="3clFbS" id="hb0h5le" role="18ibNy">
      <node concept="3cpWs8" id="hb0hjhY" role="3cqZAp">
        <node concept="3cpWsn" id="hb0hjhZ" role="3cpWs9">
          <property role="TrG5h" value="hostFactory" />
          <node concept="3Tqbb2" id="hb0hji0" role="1tU5fm">
            <ref role="ehGHo" to="tpdg:gR7Wvgx" resolve="NodeFactory" />
          </node>
          <node concept="2OqwBi" id="hxx$Wjo" role="33vP2m">
            <node concept="1YBJjd" id="hb0hd5p" role="2Oq$k0">
              <ref role="1YBMHb" node="hb0h6wW" resolve="nodeSetupFunction_NewNode" />
            </node>
            <node concept="2Xjw5R" id="hb0heuO" role="2OqNvi">
              <node concept="1xMEDy" id="hb0hfgD" role="1xVPHs">
                <node concept="chp4Y" id="h_XS1Ni" role="ri$Ld">
                  <ref role="cht4Q" to="tpdg:gR7Wvgx" resolve="NodeFactory" />
                </node>
              </node>
            </node>
          </node>
        </node>
      </node>
      <node concept="3cpWs8" id="hb0hn4B" role="3cqZAp">
        <node concept="3cpWsn" id="hb0hn4C" role="3cpWs9">
          <property role="TrG5h" value="applicableConcept" />
          <node concept="3Tqbb2" id="hb0hn4D" role="1tU5fm">
            <ref role="ehGHo" to="tpce:h0PkWnZ" resolve="AbstractConceptDeclaration" />
          </node>
          <node concept="2OqwBi" id="hxx$Tx3" role="33vP2m">
            <node concept="37vLTw" id="3GM_nagTwcw" role="2Oq$k0">
              <ref role="3cqZAo" node="hb0hjhZ" resolve="hostFactory" />
            </node>
            <node concept="3TrEf2" id="hb0hmBK" role="2OqNvi">
              <ref role="3Tt5mk" to="tpdg:gR7XksO" />
            </node>
          </node>
        </node>
      </node>
      <node concept="1Z5TYs" id="hNV2Hkb" role="3cqZAp">
        <node concept="mw_s8" id="hNV2Hke" role="1ZfhK$">
          <node concept="1Z2H0r" id="hNV2Hkg" role="mwGJk">
            <node concept="1YBJjd" id="hb0hsYY" role="1Z2MuG">
              <ref role="1YBMHb" node="hb0h6wW" resolve="nodeSetupFunction_NewNode" />
            </node>
          </node>
        </node>
        <node concept="mw_s8" id="hNV2Hki" role="1ZfhKB">
          <node concept="2c44tf" id="hqIJPIj" role="mwGJk">
            <node concept="3Tqbb2" id="hqIJPIk" role="2c44tc">
              <node concept="2c44tb" id="hqIJPIn" role="lGtFl">
                <property role="2qtEX8" value="concept" />
                <property role="P3scX" value="7866978e-a0f0-4cc7-81bc-4d213d9375e1/1138055754698/1138405853777" />
                <node concept="37vLTw" id="3GM_nagTrB$" role="2c44t1">
                  <ref role="3cqZAo" node="hb0hn4C" resolve="applicableConcept" />
                </node>
              </node>
            </node>
          </node>
        </node>
      </node>
    </node>
    <node concept="1YaCAy" id="hb0h6wW" role="1YuTPh">
      <property role="TrG5h" value="nodeSetupFunction_NewNode" />
      <ref role="1YaFvo" to="tpdg:4PZKMKmrdgZ" resolve="NodeSetupFunction_NewNode" />
    </node>
  </node>
  <node concept="18kY7G" id="hrC9aSJ">
    <property role="TrG5h" value="check_ConceptSubstitutePart" />
    <node concept="3clFbS" id="hrC9aSK" role="18ibNy">
      <node concept="3cpWs8" id="hrCas11" role="3cqZAp">
        <node concept="3cpWsn" id="hrCas12" role="3cpWs9">
          <property role="TrG5h" value="builder" />
          <node concept="3Tqbb2" id="hrCas13" role="1tU5fm">
            <ref role="ehGHo" to="tpdg:gbFOIBE" resolve="NodeSubstituteActionsBuilder" />
          </node>
          <node concept="2OqwBi" id="hxx$TT$" role="33vP2m">
            <node concept="1YBJjd" id="hrCasBb" role="2Oq$k0">
              <ref role="1YBMHb" node="hrC9el0" resolve="nodeToCheck" />
            </node>
            <node concept="2Xjw5R" id="hrCat0S" role="2OqNvi">
              <node concept="1xMEDy" id="hrCatlD" role="1xVPHs">
                <node concept="chp4Y" id="h_XS1Nm" role="ri$Ld">
                  <ref role="cht4Q" to="tpdg:gbFOIBE" resolve="NodeSubstituteActionsBuilder" />
                </node>
              </node>
            </node>
          </node>
        </node>
      </node>
      <node concept="3cpWs8" id="hrCawgd" role="3cqZAp">
        <node concept="3cpWsn" id="hrCawge" role="3cpWs9">
          <property role="TrG5h" value="substituteConcept" />
          <node concept="3Tqbb2" id="27AGqGE_kgE" role="1tU5fm">
            <ref role="ehGHo" to="tpce:h0PkWnZ" resolve="AbstractConceptDeclaration" />
          </node>
          <node concept="2OqwBi" id="hxx_3bm" role="33vP2m">
            <node concept="37vLTw" id="3GM_nagT$5B" role="2Oq$k0">
              <ref role="3cqZAo" node="hrCas12" resolve="builder" />
            </node>
            <node concept="3TrEf2" id="hrCaADx" role="2OqNvi">
              <ref role="3Tt5mk" to="tpdg:gbFOWO8" />
            </node>
          </node>
        </node>
      </node>
      <node concept="3cpWs8" id="hrCaj2_" role="3cqZAp">
        <node concept="3cpWsn" id="hrCaj2A" role="3cpWs9">
          <property role="TrG5h" value="conceptToAdd" />
          <node concept="3Tqbb2" id="27AGqGE_k7b" role="1tU5fm">
            <ref role="ehGHo" to="tpce:f_TIwhg" resolve="ConceptDeclaration" />
          </node>
          <node concept="2OqwBi" id="hxx$DY6" role="33vP2m">
            <node concept="1YBJjd" id="hrCajOd" role="2Oq$k0">
              <ref role="1YBMHb" node="hrC9el0" resolve="nodeToCheck" />
            </node>
            <node concept="3TrEf2" id="hrCakk0" role="2OqNvi">
              <ref role="3Tt5mk" to="tpdg:hb5y76X" />
            </node>
          </node>
        </node>
      </node>
      <node concept="3clFbH" id="27AGqGE_i2r" role="3cqZAp" />
      <node concept="3clFbJ" id="hrCaBdc" role="3cqZAp">
        <node concept="3clFbS" id="hrCaBdd" role="3clFbx">
          <node concept="2MkqsV" id="hrCaP7R" role="3cqZAp">
            <node concept="3cpWs3" id="hrCaUq2" role="2MkJ7o">
              <node concept="2OqwBi" id="1$sIUMYazAl" role="3uHU7w">
                <node concept="37vLTw" id="3GM_nagTsV1" role="2Oq$k0">
                  <ref role="3cqZAo" node="hrCawge" resolve="substituteConcept" />
                </node>
                <node concept="2qgKlT" id="1$sIUMYazAm" role="2OqNvi">
                  <ref role="37wK5l" to="tpcu:hEwIO9y" resolve="getFqName" />
                </node>
              </node>
              <node concept="Xl_RD" id="hrCaQw1" role="3uHU7B">
                <property role="Xl_RC" value="Wrong concept to add. Use subtype of " />
              </node>
            </node>
            <node concept="1YBJjd" id="hrCaVEf" role="2OEOjV">
              <ref role="1YBMHb" node="hrC9el0" resolve="nodeToCheck" />
            </node>
          </node>
        </node>
        <node concept="3fqX7Q" id="hrCaBv5" role="3clFbw">
          <node concept="2OqwBi" id="73yVtVlZOQv" role="3fr31v">
            <node concept="37vLTw" id="27AGqGE_jLr" role="2Oq$k0">
              <ref role="3cqZAo" node="hrCaj2A" resolve="conceptToAdd" />
            </node>
            <node concept="2qgKlT" id="73yVtVlZPjn" role="2OqNvi">
              <ref role="37wK5l" to="tpcn:73yVtVlWOga" resolve="isSubconceptOf" />
              <node concept="37vLTw" id="73yVtVlZPsS" role="37wK5m">
                <ref role="3cqZAo" node="hrCawge" resolve="substituteConcept" />
              </node>
            </node>
          </node>
        </node>
      </node>
    </node>
    <node concept="1YaCAy" id="hrC9el0" role="1YuTPh">
      <property role="TrG5h" value="nodeToCheck" />
      <ref role="1YaFvo" to="tpdg:hb5xCbf" resolve="ConceptSubstitutePart" />
    </node>
  </node>
  <node concept="1YbPZF" id="hLhts9O">
    <property role="TrG5h" value="typeof_ConceptFunctionParameter_nodeToPasteWrap" />
    <property role="3GE5qa" value="conceptFunctionParameters" />
    <node concept="3clFbS" id="hLhts9P" role="18ibNy">
      <node concept="1Z5TYs" id="hLhtvlM" role="3cqZAp">
        <node concept="mw_s8" id="hLhtw9n" role="1ZfhKB">
          <node concept="2c44tf" id="hLhtw9o" role="mwGJk">
            <node concept="3Tqbb2" id="hLhtx6G" role="2c44tc">
              <node concept="2c44tb" id="hLhtxu9" role="lGtFl">
                <property role="2qtEX8" value="concept" />
                <property role="P3scX" value="7866978e-a0f0-4cc7-81bc-4d213d9375e1/1138055754698/1138405853777" />
                <node concept="2OqwBi" id="hLhtKbb" role="2c44t1">
                  <node concept="2OqwBi" id="hLhtxXG" role="2Oq$k0">
                    <node concept="1YBJjd" id="hLhtxWt" role="2Oq$k0">
                      <ref role="1YBMHb" node="hLhts9Q" resolve="node" />
                    </node>
                    <node concept="2qgKlT" id="hLhtK3P" role="2OqNvi">
                      <ref role="37wK5l" to="tpdr:hLhtllw" resolve="getWrapper" />
                    </node>
                  </node>
                  <node concept="3TrEf2" id="hLhtLhj" role="2OqNvi">
                    <ref role="3Tt5mk" to="tpdg:hLhmvLo" />
                  </node>
                </node>
              </node>
            </node>
          </node>
        </node>
        <node concept="mw_s8" id="hLhtvlP" role="1ZfhK$">
          <node concept="1Z2H0r" id="hLhtt6V" role="mwGJk">
            <node concept="1YBJjd" id="hLhttCa" role="1Z2MuG">
              <ref role="1YBMHb" node="hLhts9Q" resolve="node" />
            </node>
          </node>
        </node>
      </node>
    </node>
    <node concept="1YaCAy" id="hLhts9Q" role="1YuTPh">
      <property role="TrG5h" value="node" />
      <ref role="1YaFvo" to="tpdg:hLht00O" resolve="ConceptFunctionParameter_nodeToPasteWrap" />
    </node>
  </node>
  <node concept="1YbPZF" id="hYeWjmX">
    <property role="TrG5h" value="typeof_SmartActionParameterReference" />
    <node concept="3clFbS" id="hYeWjmY" role="18ibNy">
      <node concept="1Z5TYs" id="hYeWl1L" role="3cqZAp">
        <node concept="mw_s8" id="hYeWlvo" role="1ZfhKB">
          <node concept="1Z2H0r" id="hYeWlvp" role="mwGJk">
            <node concept="2OqwBi" id="hYeWmkb" role="1Z2MuG">
              <node concept="1YBJjd" id="hYeWm6f" role="2Oq$k0">
                <ref role="1YBMHb" node="hYeWjmZ" resolve="reference" />
              </node>
              <node concept="3TrEf2" id="hYeWmFv" role="2OqNvi">
                <ref role="3Tt5mk" to="tpdg:hYeWbzl" />
              </node>
            </node>
          </node>
        </node>
        <node concept="mw_s8" id="hYeWl24" role="1ZfhK$">
          <node concept="1Z2H0r" id="hYeWk3t" role="mwGJk">
            <node concept="1YBJjd" id="hYeWkl4" role="1Z2MuG">
              <ref role="1YBMHb" node="hYeWjmZ" resolve="reference" />
            </node>
          </node>
        </node>
      </node>
    </node>
    <node concept="1YaCAy" id="hYeWjmZ" role="1YuTPh">
      <property role="TrG5h" value="reference" />
      <ref role="1YaFvo" to="tpdg:hYeW1s5" resolve="SmartActionParameterReference" />
    </node>
  </node>
  <node concept="1YbPZF" id="hYeWoBi">
    <property role="TrG5h" value="typeof_SmartActionParameter" />
    <node concept="3clFbS" id="hYeWoBj" role="18ibNy">
      <node concept="1Z5TYs" id="hYeWqW_" role="3cqZAp">
        <node concept="mw_s8" id="hYeWrLC" role="1ZfhKB">
          <node concept="2OqwBi" id="hYeWs2Z" role="mwGJk">
            <node concept="1YBJjd" id="hYeWrLD" role="2Oq$k0">
              <ref role="1YBMHb" node="hYeWoBk" resolve="parameter" />
            </node>
            <node concept="3TrEf2" id="hYeWsa8" role="2OqNvi">
              <ref role="3Tt5mk" to="tpdg:hYeVN14" />
            </node>
          </node>
        </node>
        <node concept="mw_s8" id="hYeWqWC" role="1ZfhK$">
          <node concept="1Z2H0r" id="hYeWpk1" role="mwGJk">
            <node concept="1YBJjd" id="hYeWq49" role="1Z2MuG">
              <ref role="1YBMHb" node="hYeWoBk" resolve="parameter" />
            </node>
          </node>
        </node>
      </node>
    </node>
    <node concept="1YaCAy" id="hYeWoBk" role="1YuTPh">
      <property role="TrG5h" value="parameter" />
      <ref role="1YaFvo" to="tpdg:hYeVHMO" resolve="SmartActionParameter" />
    </node>
  </node>
  <node concept="1YbPZF" id="5eziI4W3iye">
    <property role="TrG5h" value="typeof_ConceptFunctionParameter_nodeToPastePostProcess" />
    <property role="3GE5qa" value="conceptFunctionParameters" />
    <node concept="3clFbS" id="5eziI4W3iyf" role="18ibNy">
      <node concept="1Z5TYs" id="5eziI4W3iyl" role="3cqZAp">
        <node concept="mw_s8" id="5eziI4W3iyp" role="1ZfhKB">
          <node concept="2c44tf" id="5eziI4W3iyq" role="mwGJk">
            <node concept="3Tqbb2" id="5eziI4W3iys" role="2c44tc">
              <node concept="2c44tb" id="5eziI4W3iyt" role="lGtFl">
                <property role="2qtEX8" value="concept" />
                <property role="P3scX" value="7866978e-a0f0-4cc7-81bc-4d213d9375e1/1138055754698/1138405853777" />
                <node concept="2OqwBi" id="5eziI4W3iyS" role="2c44t1">
                  <node concept="2OqwBi" id="5eziI4W3iyN" role="2Oq$k0">
                    <node concept="1YBJjd" id="5eziI4W3iyM" role="2Oq$k0">
                      <ref role="1YBMHb" node="5eziI4W3iyg" resolve="node" />
                    </node>
                    <node concept="2qgKlT" id="5eziI4W3iyR" role="2OqNvi">
                      <ref role="37wK5l" to="tpdr:5eziI4W3iyy" resolve="getPostProcessor" />
                    </node>
                  </node>
                  <node concept="3TrEf2" id="5eziI4W3iyW" role="2OqNvi">
                    <ref role="3Tt5mk" to="tpdg:5eziI4W39hV" />
                  </node>
                </node>
              </node>
            </node>
          </node>
        </node>
        <node concept="mw_s8" id="5eziI4W3iyo" role="1ZfhK$">
          <node concept="1Z2H0r" id="5eziI4W3iyi" role="mwGJk">
            <node concept="1YBJjd" id="5eziI4W3iyk" role="1Z2MuG">
              <ref role="1YBMHb" node="5eziI4W3iyg" resolve="node" />
            </node>
          </node>
        </node>
      </node>
    </node>
    <node concept="1YaCAy" id="5eziI4W3iyg" role="1YuTPh">
      <property role="TrG5h" value="node" />
      <ref role="1YaFvo" to="tpdg:5eziI4W3ixV" resolve="ConceptFunctionParameter_nodeToPastePostProcess" />
    </node>
  </node>
  <node concept="1YbPZF" id="5abCRRjcA3p">
    <property role="TrG5h" value="typeof_ConceptFunctionParameter_nodeToCopyPreProcess" />
    <property role="3GE5qa" value="conceptFunctionParameters" />
    <node concept="3clFbS" id="5abCRRjcA3q" role="18ibNy">
      <node concept="1Z5TYs" id="5abCRRjcA3y" role="3cqZAp">
        <node concept="mw_s8" id="5abCRRjcA3_" role="1ZfhK$">
          <node concept="1Z2H0r" id="5abCRRjcA3v" role="mwGJk">
            <node concept="1YBJjd" id="5abCRRjcA3x" role="1Z2MuG">
              <ref role="1YBMHb" node="5abCRRjcA3r" resolve="node" />
            </node>
          </node>
        </node>
        <node concept="mw_s8" id="5abCRRjcA3A" role="1ZfhKB">
          <node concept="2c44tf" id="5abCRRjcA3B" role="mwGJk">
            <node concept="3Tqbb2" id="5abCRRjcA3C" role="2c44tc">
              <node concept="2c44tb" id="5abCRRjcA3D" role="lGtFl">
                <property role="2qtEX8" value="concept" />
                <property role="P3scX" value="7866978e-a0f0-4cc7-81bc-4d213d9375e1/1138055754698/1138405853777" />
                <node concept="2OqwBi" id="5abCRRjcA3E" role="2c44t1">
                  <node concept="2OqwBi" id="5abCRRjcA3F" role="2Oq$k0">
                    <node concept="1YBJjd" id="5abCRRjcA3G" role="2Oq$k0">
                      <ref role="1YBMHb" node="5abCRRjcA3r" resolve="node" />
                    </node>
                    <node concept="2qgKlT" id="5abCRRjcA3K" role="2OqNvi">
                      <ref role="37wK5l" to="tpdr:5abCRRjcA31" resolve="getPreProcessor" />
                    </node>
                  </node>
                  <node concept="3TrEf2" id="5abCRRjcA3L" role="2OqNvi">
                    <ref role="3Tt5mk" to="tpdg:5abCRRjcnId" />
                  </node>
                </node>
              </node>
            </node>
          </node>
        </node>
      </node>
    </node>
    <node concept="1YaCAy" id="5abCRRjcA3r" role="1YuTPh">
      <property role="TrG5h" value="node" />
      <ref role="1YaFvo" to="tpdg:5abCRRjcA0O" resolve="ConceptFunctionParameter_nodeToCopyPreProcess" />
    </node>
  </node>
  <node concept="1YbPZF" id="5abCRRjcA3M">
    <property role="TrG5h" value="typeof_ConceptFunctionParameter_nodeToCopyPreProcessOriginal" />
    <property role="3GE5qa" value="conceptFunctionParameters" />
    <node concept="3clFbS" id="5abCRRjcA3N" role="18ibNy">
      <node concept="1Z5TYs" id="5abCRRjcA3T" role="3cqZAp">
        <node concept="mw_s8" id="5abCRRjcA3W" role="1ZfhK$">
          <node concept="1Z2H0r" id="5abCRRjcA3Q" role="mwGJk">
            <node concept="1YBJjd" id="5abCRRjcA3S" role="1Z2MuG">
              <ref role="1YBMHb" node="5abCRRjcA3O" resolve="node" />
            </node>
          </node>
        </node>
        <node concept="mw_s8" id="5abCRRjcA3X" role="1ZfhKB">
          <node concept="2c44tf" id="5abCRRjcA3Y" role="mwGJk">
            <node concept="3Tqbb2" id="5abCRRjcA3Z" role="2c44tc">
              <node concept="2c44tb" id="5abCRRjcA40" role="lGtFl">
                <property role="2qtEX8" value="concept" />
                <property role="P3scX" value="7866978e-a0f0-4cc7-81bc-4d213d9375e1/1138055754698/1138405853777" />
                <node concept="2OqwBi" id="5abCRRjcA41" role="2c44t1">
                  <node concept="2OqwBi" id="5abCRRjcA42" role="2Oq$k0">
                    <node concept="1YBJjd" id="5abCRRjcA43" role="2Oq$k0">
                      <ref role="1YBMHb" node="5abCRRjcA3O" resolve="node" />
                    </node>
                    <node concept="2qgKlT" id="2_nZjsdSHUl" role="2OqNvi">
                      <ref role="37wK5l" to="tpdr:5abCRRjcA3f" resolve="getPreProcessor" />
                    </node>
                  </node>
                  <node concept="3TrEf2" id="5abCRRjcA45" role="2OqNvi">
                    <ref role="3Tt5mk" to="tpdg:5abCRRjcnId" />
                  </node>
                </node>
              </node>
            </node>
          </node>
        </node>
      </node>
    </node>
    <node concept="1YaCAy" id="5abCRRjcA3O" role="1YuTPh">
      <property role="TrG5h" value="node" />
      <ref role="1YaFvo" to="tpdg:5abCRRjcA1C" resolve="ConceptFunctionParameter_nodeToCopyPreProcessOriginal" />
    </node>
  </node>
  <node concept="1YbPZF" id="1KBnK_bE5ek">
    <property role="TrG5h" value="typeof_ConceptFunctionParameter_EditorCell" />
    <property role="3GE5qa" value="conceptFunctionParameters" />
    <node concept="3clFbS" id="1KBnK_bE5ip" role="18ibNy">
      <node concept="1Z5TYs" id="1KBnK_bE5Hy" role="3cqZAp">
        <node concept="mw_s8" id="1KBnK_bE5Ii" role="1ZfhKB">
          <node concept="2c44tf" id="1KBnK_bE5Ie" role="mwGJk">
            <node concept="3uibUv" id="1KBnK_bE5Ld" role="2c44tc">
              <ref role="3uigEE" to="f4zo:~EditorCell" resolve="EditorCell" />
            </node>
          </node>
        </node>
        <node concept="mw_s8" id="1KBnK_bE5H_" role="1ZfhK$">
          <node concept="1Z2H0r" id="1KBnK_bE5_H" role="mwGJk">
            <node concept="1YBJjd" id="1KBnK_bE5An" role="1Z2MuG">
              <ref role="1YBMHb" node="1KBnK_bE5ir" resolve="node" />
            </node>
          </node>
        </node>
      </node>
    </node>
    <node concept="1YaCAy" id="1KBnK_bE5ir" role="1YuTPh">
      <property role="TrG5h" value="node" />
      <ref role="1YaFvo" to="tpdg:hYf4wkz" resolve="ConceptFunctionParameter_EditorCell" />
    </node>
  </node>
  <node concept="1YbPZF" id="2MpI$Rn1cSN">
    <property role="TrG5h" value="typeof_ConceptFunctionParameter_wrapped" />
    <property role="3GE5qa" value="conceptFunctionParameters" />
    <node concept="3clFbS" id="2MpI$Rn1cSO" role="18ibNy">
      <node concept="1Z5TYs" id="2MpI$Rn1de2" role="3cqZAp">
        <node concept="mw_s8" id="2MpI$Rn1deU" role="1ZfhKB">
          <node concept="2c44tf" id="2MpI$Rn1deQ" role="mwGJk">
            <node concept="10P_77" id="2MpI$Rn1dfC" role="2c44tc" />
          </node>
        </node>
        <node concept="mw_s8" id="2MpI$Rn1de5" role="1ZfhK$">
          <node concept="1Z2H0r" id="2MpI$Rn1d58" role="mwGJk">
            <node concept="1YBJjd" id="2MpI$Rn1d5M" role="1Z2MuG">
              <ref role="1YBMHb" node="2MpI$Rn1cSQ" resolve="node" />
            </node>
          </node>
        </node>
      </node>
    </node>
    <node concept="1YaCAy" id="2MpI$Rn1cSQ" role="1YuTPh">
      <property role="TrG5h" value="node" />
      <ref role="1YaFvo" to="tpdg:hFp$ohJ" resolve="ConceptFunctionParameter_wrapped" />
    </node>
  </node>
  <node concept="1YbPZF" id="2MpI$Rn2jdT">
    <property role="TrG5h" value="typeof_ConceptFunctionParameter_parentNode" />
    <property role="3GE5qa" value="conceptFunctionParameters" />
    <node concept="3clFbS" id="2MpI$Rn2jdU" role="18ibNy">
      <node concept="1Z5TYs" id="2MpI$Rn2ju6" role="3cqZAp">
        <node concept="mw_s8" id="2MpI$Rn2jzF" role="1ZfhKB">
          <node concept="2c44tf" id="2MpI$Rn2jzB" role="mwGJk">
            <node concept="3Tqbb2" id="2MpI$Rn2j$i" role="2c44tc" />
          </node>
        </node>
        <node concept="mw_s8" id="2MpI$Rn2ju9" role="1ZfhK$">
          <node concept="1Z2H0r" id="2MpI$Rn2jm_" role="mwGJk">
            <node concept="1YBJjd" id="2MpI$Rn2juD" role="1Z2MuG">
              <ref role="1YBMHb" node="2MpI$Rn2jdW" resolve="node" />
            </node>
          </node>
        </node>
      </node>
    </node>
    <node concept="1YaCAy" id="2MpI$Rn2jdW" role="1YuTPh">
      <property role="TrG5h" value="node" />
      <ref role="1YaFvo" to="tpdg:gNbvxuM" resolve="ConceptFunctionParameter_parentNode" />
    </node>
  </node>
  <node concept="1YbPZF" id="2MpI$Rn2QxE">
    <property role="TrG5h" value="typeof_ConceptFunctionParameter_childConcept" />
    <property role="3GE5qa" value="conceptFunctionParameters" />
    <node concept="3clFbS" id="2MpI$Rn2QxF" role="18ibNy">
      <node concept="1Z5TYs" id="2MpI$Rn2QIf" role="3cqZAp">
        <node concept="mw_s8" id="2MpI$Rn2QJ7" role="1ZfhKB">
          <node concept="2c44tf" id="2MpI$Rn2QJ3" role="mwGJk">
            <node concept="3THzug" id="2MpI$Rn2RPz" role="2c44tc" />
          </node>
        </node>
        <node concept="mw_s8" id="2MpI$Rn2QIi" role="1ZfhK$">
          <node concept="1Z2H0r" id="2MpI$Rn2Qy6" role="mwGJk">
            <node concept="1YBJjd" id="2MpI$Rn2QyK" role="1Z2MuG">
              <ref role="1YBMHb" node="2MpI$Rn2QxH" resolve="node" />
            </node>
          </node>
        </node>
      </node>
    </node>
    <node concept="1YaCAy" id="2MpI$Rn2QxH" role="1YuTPh">
      <property role="TrG5h" value="node" />
      <ref role="1YaFvo" to="tpdg:h8Svfym" resolve="ConceptFunctionParameter_childConcept" />
    </node>
  </node>
  <node concept="1YbPZF" id="2MpI$Rn2SdY">
    <property role="TrG5h" value="typeof_ConceptFunctionParameter_link" />
    <property role="3GE5qa" value="conceptFunctionParameters" />
    <node concept="3clFbS" id="2MpI$Rn2SdZ" role="18ibNy">
      <node concept="1Z5TYs" id="2MpI$Rn2SmT" role="3cqZAp">
        <node concept="mw_s8" id="2MpI$Rn2SnL" role="1ZfhKB">
          <node concept="2c44tf" id="2MpI$Rn2SnH" role="mwGJk">
            <node concept="3Tqbb2" id="hLJ7BFc" role="2c44tc">
              <ref role="ehGHo" to="tpce:f_TJgxE" resolve="LinkDeclaration" />
            </node>
          </node>
        </node>
        <node concept="mw_s8" id="2MpI$Rn2SmW" role="1ZfhK$">
          <node concept="1Z2H0r" id="2MpI$Rn2Seq" role="mwGJk">
            <node concept="1YBJjd" id="2MpI$Rn2Sf4" role="1Z2MuG">
              <ref role="1YBMHb" node="2MpI$Rn2Se1" resolve="node" />
            </node>
          </node>
        </node>
      </node>
    </node>
    <node concept="1YaCAy" id="2MpI$Rn2Se1" role="1YuTPh">
      <property role="TrG5h" value="node" />
      <ref role="1YaFvo" to="tpdg:hLJ7k9d" resolve="ConceptFunctionParameter_link" />
    </node>
  </node>
  <node concept="1YbPZF" id="4ZdCZRVAjja">
    <property role="TrG5h" value="typeof_ConceptFunctionParameter_pattern" />
    <property role="3GE5qa" value="conceptFunctionParameters" />
    <node concept="3clFbS" id="4ZdCZRVAjoa" role="18ibNy">
      <node concept="1Z5TYs" id="4ZdCZRVAkEv" role="3cqZAp">
        <node concept="mw_s8" id="4ZdCZRVAkFs" role="1ZfhKB">
          <node concept="2c44tf" id="4ZdCZRVAkFo" role="mwGJk">
            <node concept="17QB3L" id="4ZdCZRVAkV$" role="2c44tc" />
          </node>
        </node>
        <node concept="mw_s8" id="4ZdCZRVAkEy" role="1ZfhK$">
          <node concept="1Z2H0r" id="4ZdCZRVAkva" role="mwGJk">
            <node concept="1YBJjd" id="4ZdCZRVAkw0" role="1Z2MuG">
              <ref role="1YBMHb" node="4ZdCZRVAjoc" resolve="node" />
            </node>
          </node>
        </node>
      </node>
    </node>
    <node concept="1YaCAy" id="4ZdCZRVAjoc" role="1YuTPh">
      <property role="TrG5h" value="node" />
      <ref role="1YaFvo" to="tpdg:h8ub8Bh" resolve="ConceptFunctionParameter_pattern" />
    </node>
  </node>
  <node concept="1YbPZF" id="2cHV7yHJxW7">
    <property role="TrG5h" value="typeof_ConceptFunctionParameter_strictly" />
    <property role="3GE5qa" value="conceptFunctionParameters" />
    <node concept="3clFbS" id="2cHV7yHJy0c" role="18ibNy">
      <node concept="1Z5TYs" id="2cHV7yHJyfG" role="3cqZAp">
        <node concept="mw_s8" id="2cHV7yHJygn" role="1ZfhKB">
          <node concept="2c44tf" id="2cHV7yHJygj" role="mwGJk">
            <node concept="10P_77" id="2cHV7yHJyh0" role="2c44tc" />
          </node>
        </node>
        <node concept="mw_s8" id="2cHV7yHJyfJ" role="1ZfhK$">
          <node concept="1Z2H0r" id="2cHV7yHJy71" role="mwGJk">
            <node concept="1YBJjd" id="2cHV7yHJy7X" role="1Z2MuG">
              <ref role="1YBMHb" node="2cHV7yHJy0e" resolve="node" />
            </node>
          </node>
        </node>
      </node>
    </node>
    <node concept="1YaCAy" id="2cHV7yHJy0e" role="1YuTPh">
      <property role="TrG5h" value="node" />
      <ref role="1YaFvo" to="tpdg:h_Q8NCa" resolve="ConceptFunctionParameter_strictly" />
    </node>
  </node>
  <node concept="1YbPZF" id="7fvSfK_pz3y">
    <property role="TrG5h" value="typeof_ConceptFunctionParameter_concept" />
    <property role="3GE5qa" value="conceptFunctionParameters" />
    <node concept="3clFbS" id="7fvSfK_pz7B" role="18ibNy">
      <node concept="1Z5TYs" id="7fvSfK_pznx" role="3cqZAp">
        <node concept="mw_s8" id="7fvSfK_pz$0" role="1ZfhKB">
          <node concept="2c44tf" id="7fvSfK_pzzW" role="mwGJk">
            <node concept="3THzug" id="7fvSfK_pz$y" role="2c44tc" />
          </node>
        </node>
        <node concept="mw_s8" id="7fvSfK_pzn$" role="1ZfhK$">
          <node concept="1Z2H0r" id="7fvSfK_pzg0" role="mwGJk">
            <node concept="1YBJjd" id="7fvSfK_pzgO" role="1Z2MuG">
              <ref role="1YBMHb" node="7fvSfK_pz7D" resolve="node" />
            </node>
          </node>
        </node>
      </node>
    </node>
    <node concept="1YaCAy" id="7fvSfK_pz7D" role="1YuTPh">
      <property role="TrG5h" value="node" />
      <ref role="1YaFvo" to="tpdg:h8zm4mF" resolve="ConceptFunctionParameter_concept" />
    </node>
  </node>
  <node concept="1YbPZF" id="ovg3xBVTza">
    <property role="TrG5h" value="typeof_ConceptFunctionParameter_createdNode" />
    <property role="3GE5qa" value="conceptFunctionParameters" />
    <node concept="3clFbS" id="ovg3xBVTBf" role="18ibNy">
      <node concept="3cpWs8" id="hEwI9mu" role="3cqZAp">
        <node concept="3cpWsn" id="hEwI9mv" role="3cpWs9">
          <property role="TrG5h" value="ancestor" />
          <node concept="3Tqbb2" id="hEwI9mw" role="1tU5fm">
            <ref role="ehGHo" to="tpdg:h8tYCj$" resolve="AddMenuPart" />
          </node>
          <node concept="2OqwBi" id="hEwI9mx" role="33vP2m">
            <node concept="1YBJjd" id="ovg3xBVVbG" role="2Oq$k0">
              <ref role="1YBMHb" node="ovg3xBVTBh" resolve="node" />
            </node>
            <node concept="2Xjw5R" id="hEwI9mz" role="2OqNvi">
              <node concept="1xMEDy" id="hEwI9m$" role="1xVPHs">
                <node concept="chp4Y" id="hEwI9m_" role="ri$Ld">
                  <ref role="cht4Q" to="tpdg:h8tYCj$" resolve="AddMenuPart" />
                </node>
              </node>
            </node>
          </node>
        </node>
      </node>
      <node concept="3cpWs8" id="hEwI9mA" role="3cqZAp">
        <node concept="3cpWsn" id="hEwI9mB" role="3cpWs9">
          <property role="TrG5h" value="concept" />
          <node concept="3Tqbb2" id="hEwI9mC" role="1tU5fm">
            <ref role="ehGHo" to="tpce:h0PkWnZ" resolve="AbstractConceptDeclaration" />
          </node>
          <node concept="2OqwBi" id="hEwI9mD" role="33vP2m">
            <node concept="37vLTw" id="3GM_nagTvcE" role="2Oq$k0">
              <ref role="3cqZAo" node="hEwI9mv" resolve="ancestor" />
            </node>
            <node concept="3TrEf2" id="hEwI9mF" role="2OqNvi">
              <ref role="3Tt5mk" to="tpdg:h8uz4YJ" />
            </node>
          </node>
        </node>
      </node>
      <node concept="3clFbJ" id="ovg3xBVVyp" role="3cqZAp">
        <node concept="3y3z36" id="ovg3xBVVI5" role="3clFbw">
          <node concept="10Nm6u" id="ovg3xBVVIm" role="3uHU7w" />
          <node concept="37vLTw" id="ovg3xBVVz9" role="3uHU7B">
            <ref role="3cqZAo" node="hEwI9mB" resolve="concept" />
          </node>
        </node>
        <node concept="3clFbS" id="ovg3xBVVyr" role="3clFbx">
          <node concept="1Z5TYs" id="ovg3xBVVWC" role="3cqZAp">
            <node concept="mw_s8" id="ovg3xBVW86" role="1ZfhKB">
              <node concept="2c44tf" id="ovg3xBVW82" role="mwGJk">
                <node concept="3Tqbb2" id="ovg3xBVW8C" role="2c44tc">
                  <node concept="2c44tb" id="ovg3xBVWgx" role="lGtFl">
                    <property role="2qtEX8" value="concept" />
                    <property role="P3scX" value="7866978e-a0f0-4cc7-81bc-4d213d9375e1/1138055754698/1138405853777" />
                    <node concept="37vLTw" id="ovg3xBVWhY" role="2c44t1">
                      <ref role="3cqZAo" node="hEwI9mB" resolve="concept" />
                    </node>
                  </node>
                </node>
              </node>
            </node>
            <node concept="mw_s8" id="ovg3xBVVWF" role="1ZfhK$">
              <node concept="1Z2H0r" id="ovg3xBVVLz" role="mwGJk">
                <node concept="1YBJjd" id="ovg3xBVVMf" role="1Z2MuG">
                  <ref role="1YBMHb" node="ovg3xBVTBh" resolve="node" />
                </node>
              </node>
            </node>
          </node>
        </node>
        <node concept="9aQIb" id="ovg3xBVVLi" role="9aQIa">
          <node concept="3clFbS" id="ovg3xBVVLj" role="9aQI4">
            <node concept="1Z5TYs" id="ovg3xBVW0N" role="3cqZAp">
              <node concept="mw_s8" id="ovg3xBVW94" role="1ZfhKB">
                <node concept="2c44tf" id="ovg3xBVW90" role="mwGJk">
                  <node concept="3Tqbb2" id="ovg3xBVW9A" role="2c44tc" />
                </node>
              </node>
              <node concept="mw_s8" id="ovg3xBVW0P" role="1ZfhK$">
                <node concept="1Z2H0r" id="ovg3xBVW0Q" role="mwGJk">
                  <node concept="1YBJjd" id="ovg3xBVW0R" role="1Z2MuG">
                    <ref role="1YBMHb" node="ovg3xBVTBh" resolve="node" />
                  </node>
                </node>
              </node>
            </node>
          </node>
        </node>
      </node>
    </node>
    <node concept="1YaCAy" id="ovg3xBVTBh" role="1YuTPh">
      <property role="TrG5h" value="node" />
      <ref role="1YaFvo" to="tpdg:ovg3xBSJrQ" resolve="ConceptFunctionParameter_createdNode" />
    </node>
  </node>
</model>

