<?xml version="1.0" encoding="UTF-8"?>
<model ref="r:28dbc056-e43f-443d-adaa-83bf1e8675d6(jetbrains.mps.lang.editor.menus.extras.testLanguage.constraints)">
  <persistence version="9" />
  <languages />
  <imports />
  <registry />
</model>

