<?xml version="1.0" encoding="UTF-8"?>
<model ref="r:c112c001-246b-4328-9957-d4262ab622a8(jetbrains.mps.lang.editor.menus.extras.testLanguage.editor)">
  <persistence version="9" />
  <languages>
    <use id="18bc6592-03a6-4e29-a83a-7ff23bde13ba" name="jetbrains.mps.lang.editor" version="3" />
    <use id="cffe907e-d3de-433f-89d6-57d9c449c0e2" name="jetbrains.mps.lang.editor.menus.extras" version="0" />
    <use id="69068b7c-ba1f-47fb-a486-4981f42606e9" name="jetbrains.mps.lang.editor.menus.testMetaLanguage" version="0" />
    <devkit ref="fbc25dd2-5da4-483a-8b19-70928e1b62d7(jetbrains.mps.devkit.general-purpose)" />
  </languages>
  <imports>
    <import index="6rzo" ref="r:2f49f947-e2b6-4dd2-87ae-7938deb42899(jetbrains.mps.lang.editor.menus.extras.testLanguage.refactorings)" />
    <import index="wtc3" ref="r:c6b5a119-ed4d-420e-b7df-fa1b4101c68f(jetbrains.mps.lang.editor.menus.testLanguage.structure)" />
  </imports>
  <registry />
</model>

