<?xml version="1.0" encoding="UTF-8"?>
<model ref="r:4b1f0830-5b8b-4e7d-9c02-f999a06122af(jetbrains.mps.lang.editor.menus.extras.testLanguage.structure)">
  <persistence version="9" />
  <languages />
  <imports />
  <registry />
</model>

