<?xml version="1.0" encoding="UTF-8"?>
<model ref="r:ff3e9938-a3fd-453c-b12f-056da13540e5(jetbrains.mps.lang.editor.menus.extras.testLanguage.typesystem)">
  <persistence version="9" />
  <languages />
  <imports />
  <registry />
</model>

