<?xml version="1.0" encoding="UTF-8"?>
<model ref="r:13514475-e043-48f5-9c6a-9b1a9c9c6b4e(jetbrains.mps.execution.demo.generator.template.main@generator)">
  <persistence version="9" />
  <languages>
    <use id="b401a680-8325-4110-8fd3-84331ff25bef" name="jetbrains.mps.lang.generator" version="0" />
    <use id="d7706f63-9be2-479c-a3da-ae92af1e64d5" name="jetbrains.mps.lang.generator.generationContext" version="0" />
    <devkit ref="fbc25dd2-5da4-483a-8b19-70928e1b62d7(jetbrains.mps.devkit.general-purpose)" />
  </languages>
  <imports>
    <import index="f1er" ref="r:b2897562-8c8f-4b0e-a52e-5dedfbf1b862(jetbrains.mps.execution.demo.structure)" />
    <import index="wyt6" ref="6354ebe7-c22a-4a0f-ac54-50b52ab9b065/java:java.lang(JDK/)" />
    <import index="guwi" ref="6354ebe7-c22a-4a0f-ac54-50b52ab9b065/java:java.io(JDK/)" />
    <import index="tpck" ref="r:00000000-0000-4000-0000-011c89590288(jetbrains.mps.lang.core.structure)" implicit="true" />
  </imports>
  <registry>
    <language id="f3061a53-9226-4cc5-a443-f952ceaf5816" name="jetbrains.mps.baseLanguage">
      <concept id="1202948039474" name="jetbrains.mps.baseLanguage.structure.InstanceMethodCallOperation" flags="nn" index="liA8E" />
      <concept id="1173175405605" name="jetbrains.mps.baseLanguage.structure.ArrayAccessExpression" flags="nn" index="AH0OO">
        <child id="1173175577737" name="index" index="AHEQo" />
        <child id="1173175590490" name="array" index="AHHXb" />
      </concept>
      <concept id="1197027756228" name="jetbrains.mps.baseLanguage.structure.DotExpression" flags="nn" index="2OqwBi">
        <child id="1197027771414" name="operand" index="2Oq$k0" />
        <child id="1197027833540" name="operation" index="2OqNvi" />
      </concept>
      <concept id="1137021947720" name="jetbrains.mps.baseLanguage.structure.ConceptFunction" flags="in" index="2VMwT0">
        <child id="1137022507850" name="body" index="2VODD2" />
      </concept>
      <concept id="1070475926800" name="jetbrains.mps.baseLanguage.structure.StringLiteral" flags="nn" index="Xl_RD">
        <property id="1070475926801" name="value" index="Xl_RC" />
      </concept>
      <concept id="1081236700938" name="jetbrains.mps.baseLanguage.structure.StaticMethodDeclaration" flags="ig" index="2YIFZL" />
      <concept id="1070533707846" name="jetbrains.mps.baseLanguage.structure.StaticFieldReference" flags="nn" index="10M0yZ">
        <reference id="1144433057691" name="classifier" index="1PxDUh" />
      </concept>
      <concept id="1070534760951" name="jetbrains.mps.baseLanguage.structure.ArrayType" flags="in" index="10Q1$e">
        <child id="1070534760952" name="componentType" index="10Q1$1" />
      </concept>
      <concept id="1068390468198" name="jetbrains.mps.baseLanguage.structure.ClassConcept" flags="ig" index="312cEu" />
      <concept id="1068498886296" name="jetbrains.mps.baseLanguage.structure.VariableReference" flags="nn" index="37vLTw">
        <reference id="1068581517664" name="variableDeclaration" index="3cqZAo" />
      </concept>
      <concept id="1068498886292" name="jetbrains.mps.baseLanguage.structure.ParameterDeclaration" flags="ir" index="37vLTG" />
      <concept id="1225271177708" name="jetbrains.mps.baseLanguage.structure.StringType" flags="in" index="17QB3L" />
      <concept id="4972933694980447171" name="jetbrains.mps.baseLanguage.structure.BaseVariableDeclaration" flags="ng" index="19Szcq">
        <child id="5680397130376446158" name="type" index="1tU5fm" />
      </concept>
      <concept id="1068580123132" name="jetbrains.mps.baseLanguage.structure.BaseMethodDeclaration" flags="ng" index="3clF44">
        <child id="1068580123133" name="returnType" index="3clF45" />
        <child id="1068580123134" name="parameter" index="3clF46" />
        <child id="1068580123135" name="body" index="3clF47" />
      </concept>
      <concept id="1068580123155" name="jetbrains.mps.baseLanguage.structure.ExpressionStatement" flags="nn" index="3clFbF">
        <child id="1068580123156" name="expression" index="3clFbG" />
      </concept>
      <concept id="1068580123136" name="jetbrains.mps.baseLanguage.structure.StatementList" flags="sn" stub="5293379017992965193" index="3clFbS">
        <child id="1068581517665" name="statement" index="3cqZAp" />
      </concept>
      <concept id="1068580123140" name="jetbrains.mps.baseLanguage.structure.ConstructorDeclaration" flags="ig" index="3clFbW" />
      <concept id="1068580320020" name="jetbrains.mps.baseLanguage.structure.IntegerConstant" flags="nn" index="3cmrfG">
        <property id="1068580320021" name="value" index="3cmrfH" />
      </concept>
      <concept id="1068581242874" name="jetbrains.mps.baseLanguage.structure.ParameterReference" flags="nn" index="3cpWs2" />
      <concept id="1068581242875" name="jetbrains.mps.baseLanguage.structure.PlusExpression" flags="nn" index="3cpWs3" />
      <concept id="1068581517677" name="jetbrains.mps.baseLanguage.structure.VoidType" flags="in" index="3cqZAl" />
      <concept id="1204053956946" name="jetbrains.mps.baseLanguage.structure.IMethodCall" flags="ng" index="1ndlxa">
        <reference id="1068499141037" name="baseMethodDeclaration" index="37wK5l" />
        <child id="1068499141038" name="actualArgument" index="37wK5m" />
      </concept>
      <concept id="1107461130800" name="jetbrains.mps.baseLanguage.structure.Classifier" flags="ng" index="3pOWGL">
        <child id="5375687026011219971" name="member" index="jymVt" unordered="true" />
      </concept>
      <concept id="1081773326031" name="jetbrains.mps.baseLanguage.structure.BinaryOperation" flags="nn" index="3uHJSO">
        <child id="1081773367579" name="rightExpression" index="3uHU7w" />
        <child id="1081773367580" name="leftExpression" index="3uHU7B" />
      </concept>
      <concept id="1178549954367" name="jetbrains.mps.baseLanguage.structure.IVisible" flags="ng" index="1B3ioH">
        <child id="1178549979242" name="visibility" index="1B3o_S" />
      </concept>
      <concept id="1146644602865" name="jetbrains.mps.baseLanguage.structure.PublicVisibility" flags="nn" index="3Tm1VV" />
    </language>
    <language id="b401a680-8325-4110-8fd3-84331ff25bef" name="jetbrains.mps.lang.generator">
      <concept id="1095416546421" name="jetbrains.mps.lang.generator.structure.MappingConfiguration" flags="ig" index="bUwia">
        <child id="1167514678247" name="rootMappingRule" index="3lj3bC" />
      </concept>
      <concept id="1168619357332" name="jetbrains.mps.lang.generator.structure.RootTemplateAnnotation" flags="lg" index="n94m4">
        <reference id="1168619429071" name="applicableConcept" index="n9lRv" />
      </concept>
      <concept id="1167169188348" name="jetbrains.mps.lang.generator.structure.TemplateFunctionParameter_sourceNode" flags="nn" index="30H73N" />
      <concept id="1167169308231" name="jetbrains.mps.lang.generator.structure.BaseMappingRule" flags="ng" index="30H$t8">
        <reference id="1167169349424" name="applicableConcept" index="30HIoZ" />
      </concept>
      <concept id="1087833241328" name="jetbrains.mps.lang.generator.structure.PropertyMacro" flags="ln" index="17Uvod">
        <child id="1167756362303" name="propertyValueFunction" index="3zH0cK" />
      </concept>
      <concept id="1167514355419" name="jetbrains.mps.lang.generator.structure.Root_MappingRule" flags="lg" index="3lhOvk">
        <reference id="1167514355421" name="template" index="3lhOvi" />
      </concept>
      <concept id="1167756080639" name="jetbrains.mps.lang.generator.structure.PropertyMacro_GetPropertyValue" flags="in" index="3zFVjK" />
    </language>
    <language id="7866978e-a0f0-4cc7-81bc-4d213d9375e1" name="jetbrains.mps.lang.smodel">
      <concept id="1138056022639" name="jetbrains.mps.lang.smodel.structure.SPropertyAccess" flags="nn" index="3TrcHB">
        <reference id="1138056395725" name="property" index="3TsBF5" />
      </concept>
    </language>
    <language id="ceab5195-25ea-4f22-9b92-103b95ca8c0c" name="jetbrains.mps.lang.core">
      <concept id="1133920641626" name="jetbrains.mps.lang.core.structure.BaseConcept" flags="ng" index="2VYdi">
        <child id="5169995583184591170" name="smodelAttribute" index="lGtFl" />
      </concept>
      <concept id="3364660638048049750" name="jetbrains.mps.lang.core.structure.PropertyAttribute" flags="ng" index="A9Btg">
        <property id="1757699476691236117" name="propertyName" index="2qtEX9" />
        <property id="1341860900487648621" name="propertyId" index="P4ACc" />
      </concept>
      <concept id="1169194658468" name="jetbrains.mps.lang.core.structure.INamedConcept" flags="ng" index="TrEIO">
        <property id="1169194664001" name="name" index="TrG5h" />
      </concept>
    </language>
  </registry>
  <node concept="bUwia" id="HJg0JQ4a8x">
    <property role="TrG5h" value="main" />
    <node concept="3lhOvk" id="HJg0JQ4aa4" role="3lj3bC">
      <ref role="30HIoZ" to="f1er:4hBeuoVSNq4" resolve="SomeConcept" />
      <ref role="3lhOvi" node="HJg0JQ4a8C" resolve="SomeClass_Template" />
    </node>
  </node>
  <node concept="312cEu" id="HJg0JQ4a8C">
    <property role="TrG5h" value="SomeClass_Template" />
    <node concept="3Tm1VV" id="HJg0JQ4a8D" role="1B3o_S" />
    <node concept="n94m4" id="HJg0JQ4a8I" role="lGtFl">
      <ref role="n9lRv" to="f1er:4hBeuoVSNq4" resolve="SomeConcept" />
    </node>
    <node concept="17Uvod" id="HJg0JQ4a8J" role="lGtFl">
      <property role="2qtEX9" value="name" />
      <property role="P4ACc" value="ceab5195-25ea-4f22-9b92-103b95ca8c0c/1169194658468/1169194664001" />
      <node concept="3zFVjK" id="HJg0JQ4a8K" role="3zH0cK">
        <node concept="3clFbS" id="HJg0JQ4a8L" role="2VODD2">
          <node concept="3clFbF" id="HJg0JQ4a8M" role="3cqZAp">
            <node concept="2OqwBi" id="HJg0JQ4a8O" role="3clFbG">
              <node concept="30H73N" id="HJg0JQ4a8N" role="2Oq$k0" />
              <node concept="3TrcHB" id="HJg0JQ4a8S" role="2OqNvi">
                <ref role="3TsBF5" to="tpck:h0TrG11" resolve="name" />
              </node>
            </node>
          </node>
        </node>
      </node>
    </node>
    <node concept="3clFbW" id="HJg0JQ4a8E" role="jymVt">
      <node concept="3cqZAl" id="HJg0JQ4a8F" role="3clF45" />
      <node concept="3Tm1VV" id="HJg0JQ4a8G" role="1B3o_S" />
      <node concept="3clFbS" id="HJg0JQ4a8H" role="3clF47" />
    </node>
    <node concept="2YIFZL" id="HJg0JQ4a8T" role="jymVt">
      <property role="TrG5h" value="main" />
      <node concept="37vLTG" id="HJg0JQ4a8U" role="3clF46">
        <property role="TrG5h" value="args" />
        <node concept="10Q1$e" id="HJg0JQ4a8V" role="1tU5fm">
          <node concept="17QB3L" id="HJg0JQ4a8W" role="10Q1$1" />
        </node>
      </node>
      <node concept="3cqZAl" id="HJg0JQ4a8X" role="3clF45" />
      <node concept="3Tm1VV" id="HJg0JQ4a8Y" role="1B3o_S" />
      <node concept="3clFbS" id="HJg0JQ4a8Z" role="3clF47">
        <node concept="3clFbF" id="HJg0JQ4a90" role="3cqZAp">
          <node concept="2OqwBi" id="HJg0JQ4a91" role="3clFbG">
            <node concept="10M0yZ" id="HJg0JQ4a92" role="2Oq$k0">
              <ref role="1PxDUh" to="wyt6:~System" resolve="System" />
              <ref role="3cqZAo" to="wyt6:~System.out" resolve="out" />
            </node>
            <node concept="liA8E" id="HJg0JQ4a93" role="2OqNvi">
              <ref role="37wK5l" to="guwi:~PrintStream.println(java.lang.String):void" resolve="println" />
              <node concept="3cpWs3" id="1oh5c84dzY" role="37wK5m">
                <node concept="Xl_RD" id="1oh5c84d$1" role="3uHU7w">
                  <property role="Xl_RC" value="!" />
                </node>
                <node concept="3cpWs3" id="HJg0JQ4ab_" role="3uHU7B">
                  <node concept="Xl_RD" id="HJg0JQ4a94" role="3uHU7B">
                    <property role="Xl_RC" value="Hello, " />
                  </node>
                  <node concept="AH0OO" id="HJg0JQ4abD" role="3uHU7w">
                    <node concept="3cmrfG" id="HJg0JQ4abG" role="AHEQo">
                      <property role="3cmrfH" value="0" />
                    </node>
                    <node concept="3cpWs2" id="HJg0JQ4abC" role="AHHXb">
                      <ref role="3cqZAo" node="HJg0JQ4a8U" resolve="args" />
                    </node>
                  </node>
                </node>
              </node>
            </node>
          </node>
        </node>
        <node concept="3clFbF" id="HJg0JQ4a95" role="3cqZAp">
          <node concept="2OqwBi" id="HJg0JQ4a96" role="3clFbG">
            <node concept="10M0yZ" id="HJg0JQ4a97" role="2Oq$k0">
              <ref role="1PxDUh" to="wyt6:~System" resolve="System" />
              <ref role="3cqZAo" to="wyt6:~System.out" resolve="out" />
            </node>
            <node concept="liA8E" id="HJg0JQ4a98" role="2OqNvi">
              <ref role="37wK5l" to="guwi:~PrintStream.println(java.lang.String):void" resolve="println" />
              <node concept="3cpWs3" id="HJg0JQ4a9e" role="37wK5m">
                <node concept="Xl_RD" id="HJg0JQ4a9h" role="3uHU7w">
                  <property role="Xl_RC" value="." />
                </node>
                <node concept="3cpWs3" id="HJg0JQ4a9a" role="3uHU7B">
                  <node concept="Xl_RD" id="HJg0JQ4a99" role="3uHU7B">
                    <property role="Xl_RC" value="This is " />
                  </node>
                  <node concept="Xl_RD" id="HJg0JQ4a9d" role="3uHU7w">
                    <property role="Xl_RC" value="name" />
                    <node concept="17Uvod" id="HJg0JQ4a9i" role="lGtFl">
                      <property role="2qtEX9" value="value" />
                      <property role="P4ACc" value="f3061a53-9226-4cc5-a443-f952ceaf5816/1070475926800/1070475926801" />
                      <node concept="3zFVjK" id="HJg0JQ4a9j" role="3zH0cK">
                        <node concept="3clFbS" id="HJg0JQ4a9k" role="2VODD2">
                          <node concept="3clFbF" id="HJg0JQ4a9l" role="3cqZAp">
                            <node concept="2OqwBi" id="HJg0JQ4a9n" role="3clFbG">
                              <node concept="30H73N" id="HJg0JQ4a9m" role="2Oq$k0" />
                              <node concept="3TrcHB" id="HJg0JQ4a9r" role="2OqNvi">
                                <ref role="3TsBF5" to="tpck:h0TrG11" resolve="name" />
                              </node>
                            </node>
                          </node>
                        </node>
                      </node>
                    </node>
                  </node>
                </node>
              </node>
            </node>
          </node>
        </node>
      </node>
    </node>
  </node>
</model>

