<?xml version="1.0" encoding="UTF-8"?>
<model ref="r:00000000-0000-4000-0000-011c89590520(jetbrains.mps.regexp.sandbox)">
  <persistence version="9" />
  <languages>
    <use id="daafa647-f1f7-4b0b-b096-69cd7c8408c0" name="jetbrains.mps.baseLanguage.regexp" version="0" />
    <use id="f3061a53-9226-4cc5-a443-f952ceaf5816" name="jetbrains.mps.baseLanguage" version="4" />
  </languages>
  <imports />
  <registry>
    <language id="f3061a53-9226-4cc5-a443-f952ceaf5816" name="jetbrains.mps.baseLanguage">
      <concept id="1197027756228" name="jetbrains.mps.baseLanguage.structure.DotExpression" flags="nn" index="2OqwBi">
        <child id="1197027771414" name="operand" index="2Oq$k0" />
        <child id="1197027833540" name="operation" index="2OqNvi" />
      </concept>
      <concept id="1137021947720" name="jetbrains.mps.baseLanguage.structure.ConceptFunction" flags="in" index="2VMwT0">
        <child id="1137022507850" name="body" index="2VODD2" />
      </concept>
      <concept id="1070475926800" name="jetbrains.mps.baseLanguage.structure.StringLiteral" flags="nn" index="Xl_RD" />
      <concept id="1068390468198" name="jetbrains.mps.baseLanguage.structure.ClassConcept" flags="ig" index="312cEu" />
      <concept id="1068580123132" name="jetbrains.mps.baseLanguage.structure.BaseMethodDeclaration" flags="ng" index="3clF44">
        <child id="1068580123133" name="returnType" index="3clF45" />
        <child id="1068580123135" name="body" index="3clF47" />
      </concept>
      <concept id="1068580123165" name="jetbrains.mps.baseLanguage.structure.InstanceMethodDeclaration" flags="ig" index="3clFb_" />
      <concept id="1068580123155" name="jetbrains.mps.baseLanguage.structure.ExpressionStatement" flags="nn" index="3clFbF">
        <child id="1068580123156" name="expression" index="3clFbG" />
      </concept>
      <concept id="1068580123136" name="jetbrains.mps.baseLanguage.structure.StatementList" flags="sn" stub="5293379017992965193" index="3clFbS">
        <child id="1068581517665" name="statement" index="3cqZAp" />
      </concept>
      <concept id="1068580123140" name="jetbrains.mps.baseLanguage.structure.ConstructorDeclaration" flags="ig" index="3clFbW" />
      <concept id="1068580320020" name="jetbrains.mps.baseLanguage.structure.IntegerConstant" flags="nn" index="3cmrfG">
        <property id="1068580320021" name="value" index="3cmrfH" />
      </concept>
      <concept id="1068581242875" name="jetbrains.mps.baseLanguage.structure.PlusExpression" flags="nn" index="3cpWs3" />
      <concept id="1068581242878" name="jetbrains.mps.baseLanguage.structure.ReturnStatement" flags="nn" index="3cpWs6">
        <child id="1068581517676" name="expression" index="3cqZAk" />
      </concept>
      <concept id="1068581517677" name="jetbrains.mps.baseLanguage.structure.VoidType" flags="in" index="3cqZAl" />
      <concept id="1107461130800" name="jetbrains.mps.baseLanguage.structure.Classifier" flags="ng" index="3pOWGL">
        <child id="5375687026011219971" name="member" index="jymVt" unordered="true" />
      </concept>
      <concept id="1081773326031" name="jetbrains.mps.baseLanguage.structure.BinaryOperation" flags="nn" index="3uHJSO">
        <child id="1081773367579" name="rightExpression" index="3uHU7w" />
        <child id="1081773367580" name="leftExpression" index="3uHU7B" />
      </concept>
      <concept id="1178549954367" name="jetbrains.mps.baseLanguage.structure.IVisible" flags="ng" index="1B3ioH">
        <child id="1178549979242" name="visibility" index="1B3o_S" />
      </concept>
      <concept id="1146644602865" name="jetbrains.mps.baseLanguage.structure.PublicVisibility" flags="nn" index="3Tm1VV" />
    </language>
    <language id="ceab5195-25ea-4f22-9b92-103b95ca8c0c" name="jetbrains.mps.lang.core">
      <concept id="1169194658468" name="jetbrains.mps.lang.core.structure.INamedConcept" flags="ng" index="TrEIO">
        <property id="1169194664001" name="name" index="TrG5h" />
      </concept>
    </language>
    <language id="daafa647-f1f7-4b0b-b096-69cd7c8408c0" name="jetbrains.mps.baseLanguage.regexp">
      <concept id="1222260556146" name="jetbrains.mps.baseLanguage.regexp.structure.ReplaceWithRegexpOperation" flags="nn" index="2kq01I">
        <child id="1222261033031" name="replaceBlock" index="2krO_r" />
      </concept>
      <concept id="1174482753837" name="jetbrains.mps.baseLanguage.regexp.structure.StringLiteralRegexp" flags="ng" index="1OC9wW">
        <property id="1174482761807" name="text" index="1OCb_u" />
      </concept>
      <concept id="1174510540317" name="jetbrains.mps.baseLanguage.regexp.structure.InlineRegexpExpression" flags="nn" index="1Qi9sc">
        <child id="1174510571016" name="regexp" index="1QigWp" />
      </concept>
      <concept id="1174653354106" name="jetbrains.mps.baseLanguage.regexp.structure.RegexpUsingConstruction" flags="ng" index="1YMW5F">
        <child id="1174653387388" name="regexp" index="1YN4dH" />
      </concept>
      <concept id="1174656254036" name="jetbrains.mps.baseLanguage.regexp.structure.ReplaceBlock" flags="in" index="1YY055" />
    </language>
  </registry>
  <node concept="312cEu" id="h6eLEWH">
    <property role="TrG5h" value="YYY" />
    <node concept="3clFbW" id="4B$vs5JWco_" role="jymVt">
      <node concept="3cqZAl" id="4B$vs5JWcoA" role="3clF45" />
      <node concept="3clFbS" id="4B$vs5JWcoB" role="3clF47" />
      <node concept="3Tm1VV" id="4B$vs5JWcoC" role="1B3o_S" />
    </node>
    <node concept="3clFb_" id="h6eLG4g" role="jymVt">
      <property role="TrG5h" value="m" />
      <node concept="3cqZAl" id="h6eLG4h" role="3clF45" />
      <node concept="3clFbS" id="h6eLG4i" role="3clF47">
        <node concept="3clFbF" id="h6yDSpJ" role="3cqZAp">
          <node concept="2OqwBi" id="hMtKBYS" role="3clFbG">
            <node concept="Xl_RD" id="h6yDSpK" role="2Oq$k0" />
            <node concept="2kq01I" id="hMtKBYT" role="2OqNvi">
              <node concept="1Qi9sc" id="h6yDVvc" role="1YN4dH">
                <node concept="1OC9wW" id="h6yDVSB" role="1QigWp">
                  <property role="1OCb_u" value="abc" />
                </node>
              </node>
              <node concept="1YY055" id="h6yDTgJ" role="2krO_r">
                <node concept="3clFbS" id="h6yDTgK" role="2VODD2">
                  <node concept="3cpWs6" id="h6yDWXe" role="3cqZAp">
                    <node concept="3cpWs3" id="h6yDXyo" role="3cqZAk">
                      <node concept="3cmrfG" id="7LuAJLUcB5w" role="3uHU7w">
                        <property role="3cmrfH" value="0" />
                      </node>
                      <node concept="Xl_RD" id="h6yDXbU" role="3uHU7B" />
                    </node>
                  </node>
                </node>
              </node>
            </node>
          </node>
        </node>
      </node>
    </node>
  </node>
</model>

