<?xml version="1.0" encoding="UTF-8"?>
<model ref="r:f2cd2392-46a1-427a-8ead-0ef652525e04(jetbrains.mps.baseLanguage.math.actions)">
  <persistence version="9" />
  <languages>
    <use id="83888646-71ce-4f1c-9c53-c54016f6ad4f" name="jetbrains.mps.baseLanguage.collections" version="0" />
    <use id="3304fc6e-7c6b-401e-a016-b944934bb21f" name="jetbrains.mps.baseLanguage.math" version="0" />
    <use id="aee9cad2-acd4-4608-aef2-0004f6a1cdbd" name="jetbrains.mps.lang.actions" version="0" />
    <use id="3a13115c-633c-4c5c-bbcc-75c4219e9555" name="jetbrains.mps.lang.quotation" version="0" />
    <use id="13744753-c81f-424a-9c1b-cf8943bf4e86" name="jetbrains.mps.lang.sharedConcepts" version="0" />
    <use id="7a5dda62-9140-4668-ab76-d5ed1746f2b2" name="jetbrains.mps.lang.typesystem" version="0" />
    <use id="7866978e-a0f0-4cc7-81bc-4d213d9375e1" name="jetbrains.mps.lang.smodel" version="4" />
    <use id="f3061a53-9226-4cc5-a443-f952ceaf5816" name="jetbrains.mps.baseLanguage" version="4" />
    <devkit ref="fbc25dd2-5da4-483a-8b19-70928e1b62d7(jetbrains.mps.devkit.general-purpose)" />
  </languages>
  <imports>
    <import index="39kg" ref="r:cb1a36c8-1ffb-415a-aba8-afb9dc042d1b(jetbrains.mps.baseLanguage.math.structure)" />
    <import index="tpee" ref="r:00000000-0000-4000-0000-011c895902ca(jetbrains.mps.baseLanguage.structure)" />
    <import index="r3rn" ref="r:feb4a112-d0b1-417f-b9b7-9058aab93ce6(jetbrains.mps.baseLanguage.math.behavior)" />
    <import index="tpck" ref="r:00000000-0000-4000-0000-011c89590288(jetbrains.mps.lang.core.structure)" implicit="true" />
    <import index="c17a" ref="8865b7a8-5271-43d3-884c-6fd1d9cfdd34/java:org.jetbrains.mps.openapi.language(MPS.OpenAPI/)" implicit="true" />
  </imports>
  <registry>
    <language id="13744753-c81f-424a-9c1b-cf8943bf4e86" name="jetbrains.mps.lang.sharedConcepts">
      <concept id="1161622665029" name="jetbrains.mps.lang.sharedConcepts.structure.ConceptFunctionParameter_model" flags="nn" index="1Q6Npb" />
    </language>
    <language id="f3061a53-9226-4cc5-a443-f952ceaf5816" name="jetbrains.mps.baseLanguage">
      <concept id="1080223426719" name="jetbrains.mps.baseLanguage.structure.OrExpression" flags="nn" index="22lmx$" />
      <concept id="1215693861676" name="jetbrains.mps.baseLanguage.structure.BaseAssignmentExpression" flags="nn" index="d038R">
        <child id="1068498886297" name="rValue" index="37vLTx" />
        <child id="1068498886295" name="lValue" index="37vLTJ" />
      </concept>
      <concept id="1202948039474" name="jetbrains.mps.baseLanguage.structure.InstanceMethodCallOperation" flags="nn" index="liA8E" />
      <concept id="1154032098014" name="jetbrains.mps.baseLanguage.structure.AbstractLoopStatement" flags="nn" index="2LF5Ji">
        <child id="1154032183016" name="body" index="2LFqv$" />
      </concept>
      <concept id="1197027756228" name="jetbrains.mps.baseLanguage.structure.DotExpression" flags="nn" index="2OqwBi">
        <child id="1197027771414" name="operand" index="2Oq$k0" />
        <child id="1197027833540" name="operation" index="2OqNvi" />
      </concept>
      <concept id="1145552977093" name="jetbrains.mps.baseLanguage.structure.GenericNewExpression" flags="nn" index="2ShNRf">
        <child id="1145553007750" name="creator" index="2ShVmc" />
      </concept>
      <concept id="1137021947720" name="jetbrains.mps.baseLanguage.structure.ConceptFunction" flags="in" index="2VMwT0">
        <child id="1137022507850" name="body" index="2VODD2" />
      </concept>
      <concept id="1070475926800" name="jetbrains.mps.baseLanguage.structure.StringLiteral" flags="nn" index="Xl_RD">
        <property id="1070475926801" name="value" index="Xl_RC" />
      </concept>
      <concept id="1068431474542" name="jetbrains.mps.baseLanguage.structure.VariableDeclaration" flags="ng" index="33uBYm">
        <child id="1068431790190" name="initializer" index="33vP2m" />
      </concept>
      <concept id="1068431790191" name="jetbrains.mps.baseLanguage.structure.Expression" flags="nn" index="33vP2n" />
      <concept id="1068498886296" name="jetbrains.mps.baseLanguage.structure.VariableReference" flags="nn" index="37vLTw">
        <reference id="1068581517664" name="variableDeclaration" index="3cqZAo" />
      </concept>
      <concept id="1068498886294" name="jetbrains.mps.baseLanguage.structure.AssignmentExpression" flags="nn" index="37vLTI" />
      <concept id="4972933694980447171" name="jetbrains.mps.baseLanguage.structure.BaseVariableDeclaration" flags="ng" index="19Szcq">
        <child id="5680397130376446158" name="type" index="1tU5fm" />
      </concept>
      <concept id="1068580123155" name="jetbrains.mps.baseLanguage.structure.ExpressionStatement" flags="nn" index="3clFbF">
        <child id="1068580123156" name="expression" index="3clFbG" />
      </concept>
      <concept id="1068580123159" name="jetbrains.mps.baseLanguage.structure.IfStatement" flags="nn" index="3clFbJ">
        <child id="1068580123160" name="condition" index="3clFbw" />
        <child id="1068580123161" name="ifTrue" index="3clFbx" />
      </concept>
      <concept id="1068580123136" name="jetbrains.mps.baseLanguage.structure.StatementList" flags="sn" stub="5293379017992965193" index="3clFbS">
        <child id="1068581517665" name="statement" index="3cqZAp" />
      </concept>
      <concept id="1068580123137" name="jetbrains.mps.baseLanguage.structure.BooleanConstant" flags="nn" index="3clFbT">
        <property id="1068580123138" name="value" index="3clFbU" />
      </concept>
      <concept id="1068580320020" name="jetbrains.mps.baseLanguage.structure.IntegerConstant" flags="nn" index="3cmrfG">
        <property id="1068580320021" name="value" index="3cmrfH" />
      </concept>
      <concept id="1068581242875" name="jetbrains.mps.baseLanguage.structure.PlusExpression" flags="nn" index="3cpWs3" />
      <concept id="1068581242878" name="jetbrains.mps.baseLanguage.structure.ReturnStatement" flags="nn" index="3cpWs6">
        <child id="1068581517676" name="expression" index="3cqZAk" />
      </concept>
      <concept id="1068581242864" name="jetbrains.mps.baseLanguage.structure.LocalVariableDeclarationStatement" flags="nn" index="3cpWs8">
        <child id="1068581242865" name="localVariableDeclaration" index="3cpWs9" />
      </concept>
      <concept id="1068581242863" name="jetbrains.mps.baseLanguage.structure.LocalVariableDeclaration" flags="nr" index="3cpWsn" />
      <concept id="1081516740877" name="jetbrains.mps.baseLanguage.structure.NotExpression" flags="nn" index="3fqX7Q">
        <child id="1081516765348" name="expression" index="3fr31v" />
      </concept>
      <concept id="1204053956946" name="jetbrains.mps.baseLanguage.structure.IMethodCall" flags="ng" index="1ndlxa">
        <reference id="1068499141037" name="baseMethodDeclaration" index="37wK5l" />
      </concept>
      <concept id="1081773326031" name="jetbrains.mps.baseLanguage.structure.BinaryOperation" flags="nn" index="3uHJSO">
        <child id="1081773367579" name="rightExpression" index="3uHU7w" />
        <child id="1081773367580" name="leftExpression" index="3uHU7B" />
      </concept>
    </language>
    <language id="3a13115c-633c-4c5c-bbcc-75c4219e9555" name="jetbrains.mps.lang.quotation">
      <concept id="1196350785110" name="jetbrains.mps.lang.quotation.structure.AbstractAntiquotation" flags="ng" index="2c44t0">
        <child id="1196350785111" name="expression" index="2c44t1" />
      </concept>
      <concept id="1196350785112" name="jetbrains.mps.lang.quotation.structure.Antiquotation" flags="ng" index="2c44te" />
      <concept id="1196350785113" name="jetbrains.mps.lang.quotation.structure.Quotation" flags="nn" index="2c44tf">
        <child id="1196350785114" name="quotedNode" index="2c44tc" />
      </concept>
    </language>
    <language id="7a5dda62-9140-4668-ab76-d5ed1746f2b2" name="jetbrains.mps.lang.typesystem">
      <concept id="1177514343197" name="jetbrains.mps.lang.typesystem.structure.MatchStatement" flags="nn" index="DkJCf">
        <child id="1177514347409" name="item" index="DkKE3" />
        <child id="1177514369598" name="expression" index="DkQcG" />
      </concept>
      <concept id="1177514840044" name="jetbrains.mps.lang.typesystem.structure.MatchStatementItem" flags="ng" index="DmCVY">
        <child id="1177514849858" name="condition" index="DmFtg" />
        <child id="1177514864202" name="ifTrue" index="DmIXo" />
      </concept>
      <concept id="1176543928247" name="jetbrains.mps.lang.typesystem.structure.IsSubtypeExpression" flags="nn" index="3JuTUA">
        <child id="1176543945045" name="subtypeExpression" index="3JuY14" />
        <child id="1176543950311" name="supertypeExpression" index="3JuZjQ" />
      </concept>
      <concept id="1176544042499" name="jetbrains.mps.lang.typesystem.structure.Node_TypeOperation" flags="nn" index="3JvlWi" />
      <concept id="1174642788531" name="jetbrains.mps.lang.typesystem.structure.ConceptReference" flags="ig" index="1YaCAy">
        <reference id="1174642800329" name="concept" index="1YaFvo" />
      </concept>
    </language>
    <language id="aee9cad2-acd4-4608-aef2-0004f6a1cdbd" name="jetbrains.mps.lang.actions">
      <concept id="5979988948250981289" name="jetbrains.mps.lang.actions.structure.SNodeCreatorAndInitializer" flags="nn" index="2fJWfE" />
      <concept id="1196433923911" name="jetbrains.mps.lang.actions.structure.SideTransform_SimpleString" flags="nn" index="2h1dTh">
        <property id="1196433942569" name="text" index="2h1i$Z" />
      </concept>
      <concept id="1196434649611" name="jetbrains.mps.lang.actions.structure.Substitute_SimpleString" flags="ng" index="2h3Zct">
        <property id="1196434851095" name="text" index="2h4Kg1" />
      </concept>
      <concept id="7776141288922801652" name="jetbrains.mps.lang.actions.structure.NF_Concept_NewInstance" flags="nn" index="q_SaT">
        <child id="3757480014665178932" name="prototype" index="1wAxWu" />
      </concept>
      <concept id="1177323996388" name="jetbrains.mps.lang.actions.structure.AddMenuPart" flags="ng" index="tYCnQ" />
      <concept id="1177327570013" name="jetbrains.mps.lang.actions.structure.QueryFunction_Substitute_Handler" flags="in" index="ucgPf" />
      <concept id="1177327666243" name="jetbrains.mps.lang.actions.structure.SimpleItemSubstitutePart" flags="ng" index="ucClh">
        <child id="1177327709106" name="handler" index="ucMEw" />
        <child id="1177336013307" name="matchingText" index="uGu3D" />
        <child id="1177336018902" name="descriptionText" index="uGvr4" />
      </concept>
      <concept id="1177333529597" name="jetbrains.mps.lang.actions.structure.ConceptPart" flags="ng" index="uyZFJ">
        <reference id="1177333551023" name="concept" index="uz4UX" />
        <child id="1177333559040" name="part" index="uz6Si" />
      </concept>
      <concept id="1177337833147" name="jetbrains.mps.lang.actions.structure.ConceptFunctionParameter_parameterObject" flags="nn" index="uNquD" />
      <concept id="1177497140107" name="jetbrains.mps.lang.actions.structure.ConceptFunctionParameter_sourceNode" flags="nn" index="Cj7Ep" />
      <concept id="1177498013932" name="jetbrains.mps.lang.actions.structure.SimpleSideTransformMenuPart" flags="ng" index="Cmt7Y">
        <child id="1177498166690" name="matchingText" index="Cn2iK" />
        <child id="1177498182537" name="descriptionText" index="Cn6ar" />
        <child id="1177498207384" name="handler" index="Cncma" />
      </concept>
      <concept id="1177498071304" name="jetbrains.mps.lang.actions.structure.QueryFunction_SideTransform_String" flags="in" index="CmF0q" />
      <concept id="1177498227294" name="jetbrains.mps.lang.actions.structure.QueryFunction_SideTransform_Handler" flags="in" index="Cnhdc" />
      <concept id="1177508764419" name="jetbrains.mps.lang.actions.structure.ParameterizedSideTransformMenuPart" flags="ng" index="CZtCh">
        <child id="1177508914797" name="type" index="D02tZ" />
        <child id="1177508922313" name="query" index="D04br" />
        <child id="1177508933220" name="matchingText" index="D06XQ" />
        <child id="1177508955159" name="descriptionText" index="D0ck5" />
        <child id="1177508966300" name="handler" index="D0eUe" />
      </concept>
      <concept id="1177508842676" name="jetbrains.mps.lang.actions.structure.QueryFunction_ParameterizedSideTransform_Query" flags="in" index="CZKQA" />
      <concept id="1177509289232" name="jetbrains.mps.lang.actions.structure.QueryFunction_ParameterizedSideTransform_Handler" flags="in" index="D1tK2" />
      <concept id="1158700664498" name="jetbrains.mps.lang.actions.structure.NodeFactories" flags="ng" index="37WguZ">
        <child id="1158700779049" name="nodeFactory" index="37WGs$" />
      </concept>
      <concept id="1158700725281" name="jetbrains.mps.lang.actions.structure.NodeFactory" flags="ig" index="37WvkG">
        <reference id="1158700943156" name="applicableConcept" index="37XkoT" />
        <child id="1158701448518" name="setupFunction" index="37ZfLb" />
      </concept>
      <concept id="1158701162220" name="jetbrains.mps.lang.actions.structure.NodeSetupFunction" flags="in" index="37Y9Zx" />
      <concept id="1154622616118" name="jetbrains.mps.lang.actions.structure.SideTransformHintSubstitutePreconditionFunction" flags="in" index="3kRJcU" />
      <concept id="5584396657084912703" name="jetbrains.mps.lang.actions.structure.NodeSetupFunction_NewNode" flags="nn" index="1r4Lsj" />
      <concept id="5584396657084920413" name="jetbrains.mps.lang.actions.structure.NodeSetupFunction_SampleNode" flags="nn" index="1r4N5L" />
      <concept id="1112056943463" name="jetbrains.mps.lang.actions.structure.NodeSubstituteActions" flags="ng" index="3FK_9_">
        <child id="1112058057696" name="actionsBuilder" index="3FOPby" />
      </concept>
      <concept id="1112058030570" name="jetbrains.mps.lang.actions.structure.NodeSubstituteActionsBuilder" flags="ig" index="3FOIzC">
        <reference id="1112058088712" name="applicableConcept" index="3FOWKa" />
        <child id="1177324142645" name="part" index="tZc4B" />
      </concept>
      <concept id="1138079221458" name="jetbrains.mps.lang.actions.structure.SideTransformHintSubstituteActionsBuilder" flags="ig" index="3UNGvq">
        <reference id="1138079221462" name="applicableConcept" index="3UNGvu" />
        <child id="1177442283389" name="part" index="_1QTJ" />
        <child id="1154622757656" name="precondition" index="3kShCk" />
      </concept>
      <concept id="1138079416598" name="jetbrains.mps.lang.actions.structure.SideTransformHintSubstituteActions" flags="ng" index="3UOs0u">
        <child id="1138079416599" name="actionsBuilder" index="3UOs0v" />
      </concept>
    </language>
    <language id="7866978e-a0f0-4cc7-81bc-4d213d9375e1" name="jetbrains.mps.lang.smodel">
      <concept id="1177026924588" name="jetbrains.mps.lang.smodel.structure.RefConcept_Reference" flags="nn" index="chp4Y">
        <reference id="1177026940964" name="conceptDeclaration" index="cht4Q" />
      </concept>
      <concept id="1179409122411" name="jetbrains.mps.lang.smodel.structure.Node_ConceptMethodCall" flags="nn" index="2qgKlT" />
      <concept id="1138661924179" name="jetbrains.mps.lang.smodel.structure.Property_SetOperation" flags="nn" index="tyxLq">
        <child id="1138662048170" name="value" index="tz02z" />
      </concept>
      <concept id="2396822768958367367" name="jetbrains.mps.lang.smodel.structure.AbstractTypeCastExpression" flags="nn" index="$5XWr">
        <reference id="6733348108486823428" name="concept" index="1m5ApE" />
        <child id="6733348108486823193" name="leftExpression" index="1m5AlR" />
      </concept>
      <concept id="1181952871644" name="jetbrains.mps.lang.smodel.structure.Concept_GetAllSubConcepts" flags="nn" index="LSoRf">
        <child id="1182506816063" name="smodel" index="1iTxcG" />
      </concept>
      <concept id="2644386474300074836" name="jetbrains.mps.lang.smodel.structure.ConceptIdRefExpression" flags="nn" index="35c_gC">
        <reference id="2644386474300074837" name="conceptDeclaration" index="35c_gD" />
      </concept>
      <concept id="6677504323281689838" name="jetbrains.mps.lang.smodel.structure.SConceptType" flags="in" index="3bZ5Sz">
        <reference id="6677504323281689839" name="conceptDeclaraton" index="3bZ5Sy" />
      </concept>
      <concept id="1139621453865" name="jetbrains.mps.lang.smodel.structure.Node_IsInstanceOfOperation" flags="nn" index="1mIQ4w">
        <child id="1177027386292" name="conceptArgument" index="cj9EA" />
      </concept>
      <concept id="6870613620391345436" name="jetbrains.mps.lang.smodel.structure.ConceptShortDescriptionOperation" flags="ng" index="3neUYN" />
      <concept id="1180636770613" name="jetbrains.mps.lang.smodel.structure.SNodeCreator" flags="nn" index="3zrR0B">
        <child id="1180636770616" name="createdType" index="3zrR0E" />
      </concept>
      <concept id="1140131837776" name="jetbrains.mps.lang.smodel.structure.Node_ReplaceWithAnotherOperation" flags="nn" index="1P9Npp">
        <child id="1140131861877" name="replacementNode" index="1P9ThW" />
      </concept>
      <concept id="1140137987495" name="jetbrains.mps.lang.smodel.structure.SNodeTypeCastExpression" flags="nn" index="1PxgMI" />
      <concept id="1138055754698" name="jetbrains.mps.lang.smodel.structure.SNodeType" flags="in" index="3Tqbb2">
        <reference id="1138405853777" name="concept" index="ehGHo" />
      </concept>
      <concept id="1138056022639" name="jetbrains.mps.lang.smodel.structure.SPropertyAccess" flags="nn" index="3TrcHB">
        <reference id="1138056395725" name="property" index="3TsBF5" />
      </concept>
      <concept id="1138056143562" name="jetbrains.mps.lang.smodel.structure.SLinkAccess" flags="nn" index="3TrEf2">
        <reference id="1138056516764" name="link" index="3Tt5mk" />
      </concept>
    </language>
    <language id="ceab5195-25ea-4f22-9b92-103b95ca8c0c" name="jetbrains.mps.lang.core">
      <concept id="1133920641626" name="jetbrains.mps.lang.core.structure.BaseConcept" flags="ng" index="2VYdi">
        <child id="5169995583184591170" name="smodelAttribute" index="lGtFl" />
      </concept>
      <concept id="1169194658468" name="jetbrains.mps.lang.core.structure.INamedConcept" flags="ng" index="TrEIO">
        <property id="1169194664001" name="name" index="TrG5h" />
      </concept>
    </language>
    <language id="83888646-71ce-4f1c-9c53-c54016f6ad4f" name="jetbrains.mps.baseLanguage.collections">
      <concept id="540871147943773365" name="jetbrains.mps.baseLanguage.collections.structure.SingleArgumentSequenceOperation" flags="nn" index="25WWJ4">
        <child id="540871147943773366" name="argument" index="25WWJ7" />
      </concept>
      <concept id="1151688443754" name="jetbrains.mps.baseLanguage.collections.structure.ListType" flags="in" index="_YKpA">
        <child id="1151688676805" name="elementType" index="_ZDj9" />
      </concept>
      <concept id="1153943597977" name="jetbrains.mps.baseLanguage.collections.structure.ForEachStatement" flags="nn" index="2Gpval">
        <child id="1153944400369" name="variable" index="2Gsz3X" />
        <child id="1153944424730" name="inputSequence" index="2GsD0m" />
      </concept>
      <concept id="1153944193378" name="jetbrains.mps.baseLanguage.collections.structure.ForEachVariable" flags="nr" index="2GrKxI" />
      <concept id="1153944233411" name="jetbrains.mps.baseLanguage.collections.structure.ForEachVariableReference" flags="nn" index="2GrUjf">
        <reference id="1153944258490" name="variable" index="2Gs0qQ" />
      </concept>
      <concept id="1237721394592" name="jetbrains.mps.baseLanguage.collections.structure.AbstractContainerCreator" flags="nn" index="HWqM0">
        <child id="1237721435807" name="elementType" index="HW$YZ" />
      </concept>
      <concept id="1160600644654" name="jetbrains.mps.baseLanguage.collections.structure.ListCreatorWithInit" flags="nn" index="Tc6Ow" />
      <concept id="1160612413312" name="jetbrains.mps.baseLanguage.collections.structure.AddElementOperation" flags="nn" index="TSZUe" />
    </language>
    <language id="3304fc6e-7c6b-401e-a016-b944934bb21f" name="jetbrains.mps.baseLanguage.math">
      <concept id="1237108887116" name="jetbrains.mps.baseLanguage.math.structure.BigComplexType" flags="in" index="9rSXG" />
      <concept id="4815887568697030518" name="jetbrains.mps.baseLanguage.math.structure.MatrixType" flags="in" index="wGCXc">
        <child id="4815887568697050707" name="elementType" index="wJjTD" />
      </concept>
      <concept id="1238338031059" name="jetbrains.mps.baseLanguage.math.structure.PowExpression" flags="nn" index="1iGGNN">
        <child id="1238338314123" name="base" index="1iHLUF" />
        <child id="1238338314983" name="exponent" index="1iHMf7" />
      </concept>
    </language>
  </registry>
  <node concept="3FK_9_" id="32cHlEWt0LZ">
    <property role="TrG5h" value="ML_Actions" />
    <node concept="3FOIzC" id="32cHlEWt0M0" role="3FOPby">
      <ref role="3FOWKa" to="tpee:fz3vP1J" resolve="Expression" />
      <node concept="tYCnQ" id="32cHlEWt0M1" role="tZc4B">
        <ref role="uz4UX" to="39kg:4blu3DyqKE5" resolve="MatrixConstructor" />
        <node concept="ucClh" id="32cHlEWt0M2" role="uz6Si">
          <node concept="ucgPf" id="32cHlEWt0M3" role="ucMEw">
            <node concept="3clFbS" id="32cHlEWt0M4" role="2VODD2">
              <node concept="3cpWs8" id="32cHlEWt0N4" role="3cqZAp">
                <node concept="3cpWsn" id="32cHlEWt0N5" role="3cpWs9">
                  <property role="TrG5h" value="n" />
                  <node concept="3Tqbb2" id="32cHlEWt0N6" role="1tU5fm">
                    <ref role="ehGHo" to="39kg:4blu3DyqKE5" resolve="MatrixConstructor" />
                  </node>
                  <node concept="2ShNRf" id="32cHlEWt0N8" role="33vP2m">
                    <node concept="2fJWfE" id="5wUAOoBBjn4" role="2ShVmc">
                      <node concept="3Tqbb2" id="5wUAOoBBjn5" role="3zrR0E">
                        <ref role="ehGHo" to="39kg:4blu3DyqKE5" resolve="MatrixConstructor" />
                      </node>
                    </node>
                  </node>
                </node>
              </node>
              <node concept="3clFbF" id="32cHlEWt0Nc" role="3cqZAp">
                <node concept="37vLTI" id="32cHlEWt0Nj" role="3clFbG">
                  <node concept="3clFbT" id="32cHlEWt0Nm" role="37vLTx">
                    <property role="3clFbU" value="true" />
                  </node>
                  <node concept="2OqwBi" id="32cHlEWt0Ne" role="37vLTJ">
                    <node concept="37vLTw" id="3GM_nagTA4a" role="2Oq$k0">
                      <ref role="3cqZAo" node="32cHlEWt0N5" resolve="n" />
                    </node>
                    <node concept="3TrcHB" id="32cHlEWt0Ni" role="2OqNvi">
                      <ref role="3TsBF5" to="39kg:32cHlEWsVP0" resolve="column" />
                    </node>
                  </node>
                </node>
              </node>
              <node concept="3cpWs6" id="32cHlEWt0No" role="3cqZAp">
                <node concept="37vLTw" id="3GM_nagTBDH" role="3cqZAk">
                  <ref role="3cqZAo" node="32cHlEWt0N5" resolve="n" />
                </node>
              </node>
            </node>
          </node>
          <node concept="2h3Zct" id="32cHlEWt0M6" role="uGu3D">
            <property role="2h4Kg1" value="&lt;" />
          </node>
          <node concept="2h3Zct" id="32cHlEWt0M7" role="uGvr4">
            <property role="2h4Kg1" value="Matrix column constructor" />
          </node>
        </node>
      </node>
    </node>
  </node>
  <node concept="3UOs0u" id="5yEI9As$04m">
    <property role="TrG5h" value="ML_SideTransforms" />
    <node concept="3UNGvq" id="54W120c5Y5Q" role="3UOs0v">
      <ref role="3UNGvu" to="tpee:fzcpWvJ" resolve="LocalVariableDeclaration" />
      <node concept="3kRJcU" id="54W120c5Y5R" role="3kShCk">
        <node concept="3clFbS" id="54W120c5Y5S" role="2VODD2">
          <node concept="3clFbF" id="54W120c5Y6M" role="3cqZAp">
            <node concept="2OqwBi" id="54W120c5Y6T" role="3clFbG">
              <node concept="2OqwBi" id="54W120c5Y6O" role="2Oq$k0">
                <node concept="Cj7Ep" id="54W120c5Y6N" role="2Oq$k0" />
                <node concept="3TrEf2" id="54W120c5Y6S" role="2OqNvi">
                  <ref role="3Tt5mk" to="tpee:4VkOLwjf83e" />
                </node>
              </node>
              <node concept="1mIQ4w" id="54W120c5Y6X" role="2OqNvi">
                <node concept="chp4Y" id="54W120c67E5" role="cj9EA">
                  <ref role="cht4Q" to="39kg:54W120c67Dz" resolve="MatrixOrVectorType" />
                </node>
              </node>
            </node>
          </node>
        </node>
      </node>
      <node concept="tYCnQ" id="54W120c5Y70" role="_1QTJ">
        <ref role="uz4UX" to="39kg:1eJUWaJk5EX" resolve="LinearSolveOperation" />
        <node concept="Cmt7Y" id="54W120c5Y71" role="uz6Si">
          <node concept="Cnhdc" id="54W120c5Y72" role="Cncma">
            <node concept="3clFbS" id="54W120c5Y73" role="2VODD2">
              <node concept="3cpWs8" id="54W120c5Y7j" role="3cqZAp">
                <node concept="3cpWsn" id="54W120c5Y7k" role="3cpWs9">
                  <property role="TrG5h" value="lso" />
                  <node concept="3Tqbb2" id="54W120c5Y7l" role="1tU5fm">
                    <ref role="ehGHo" to="39kg:1eJUWaJk5EX" resolve="LinearSolveOperation" />
                  </node>
                  <node concept="2ShNRf" id="54W120c5Y7n" role="33vP2m">
                    <node concept="2fJWfE" id="5wUAOoBBjnm" role="2ShVmc">
                      <node concept="3Tqbb2" id="5wUAOoBBjnn" role="3zrR0E">
                        <ref role="ehGHo" to="39kg:1eJUWaJk5EX" resolve="LinearSolveOperation" />
                      </node>
                    </node>
                  </node>
                </node>
              </node>
              <node concept="DkJCf" id="54W120c67F0" role="3cqZAp">
                <node concept="2OqwBi" id="54W120c67F6" role="DkQcG">
                  <node concept="Cj7Ep" id="54W120c67F5" role="2Oq$k0" />
                  <node concept="3TrEf2" id="54W120c67Fa" role="2OqNvi">
                    <ref role="3Tt5mk" to="tpee:4VkOLwjf83e" />
                  </node>
                </node>
                <node concept="DmCVY" id="54W120c67F2" role="DkKE3">
                  <node concept="1YaCAy" id="54W120c67Fb" role="DmFtg">
                    <property role="TrG5h" value="mt" />
                    <ref role="1YaFvo" to="39kg:4blu3DypZtQ" resolve="MatrixType" />
                  </node>
                  <node concept="3clFbS" id="54W120c67F4" role="DmIXo">
                    <node concept="3clFbF" id="54W120c67Fh" role="3cqZAp">
                      <node concept="37vLTI" id="54W120c67Fi" role="3clFbG">
                        <node concept="1PxgMI" id="54W120c67Fx" role="37vLTx">
                          <ref role="1m5ApE" to="39kg:4blu3DypZtQ" resolve="MatrixType" />
                          <node concept="2OqwBi" id="54W120c67Fj" role="1m5AlR">
                            <node concept="Cj7Ep" id="54W120c67Fk" role="2Oq$k0" />
                            <node concept="3TrEf2" id="54W120c67Fl" role="2OqNvi">
                              <ref role="3Tt5mk" to="tpee:4VkOLwjf83e" />
                            </node>
                          </node>
                        </node>
                        <node concept="2OqwBi" id="54W120c67Fm" role="37vLTJ">
                          <node concept="37vLTw" id="3GM_nagTBqX" role="2Oq$k0">
                            <ref role="3cqZAo" node="54W120c5Y7k" resolve="lso" />
                          </node>
                          <node concept="3TrEf2" id="54W120c67Fo" role="2OqNvi">
                            <ref role="3Tt5mk" to="39kg:1eJUWaJkExq" />
                          </node>
                        </node>
                      </node>
                    </node>
                  </node>
                </node>
                <node concept="DmCVY" id="54W120c67Fc" role="DkKE3">
                  <node concept="1YaCAy" id="54W120c67Ff" role="DmFtg">
                    <property role="TrG5h" value="vt" />
                    <ref role="1YaFvo" to="39kg:4blu3DypZtP" resolve="VectorType" />
                  </node>
                  <node concept="3clFbS" id="54W120c67Fe" role="DmIXo">
                    <node concept="3clFbF" id="54W120c67Fp" role="3cqZAp">
                      <node concept="37vLTI" id="54W120c67Fq" role="3clFbG">
                        <node concept="1PxgMI" id="54W120c67Fz" role="37vLTx">
                          <ref role="1m5ApE" to="39kg:4blu3DypZtP" resolve="VectorType" />
                          <node concept="2OqwBi" id="54W120c67Fr" role="1m5AlR">
                            <node concept="Cj7Ep" id="54W120c67Fs" role="2Oq$k0" />
                            <node concept="3TrEf2" id="54W120c67Ft" role="2OqNvi">
                              <ref role="3Tt5mk" to="tpee:4VkOLwjf83e" />
                            </node>
                          </node>
                        </node>
                        <node concept="2OqwBi" id="54W120c67Fu" role="37vLTJ">
                          <node concept="37vLTw" id="3GM_nagT_on" role="2Oq$k0">
                            <ref role="3cqZAo" node="54W120c5Y7k" resolve="lso" />
                          </node>
                          <node concept="3TrEf2" id="54W120c67Fw" role="2OqNvi">
                            <ref role="3Tt5mk" to="39kg:1eJUWaJkExq" />
                          </node>
                        </node>
                      </node>
                    </node>
                  </node>
                </node>
              </node>
              <node concept="3clFbF" id="54W120c5Y7J" role="3cqZAp">
                <node concept="37vLTI" id="54W120c5Y7Q" role="3clFbG">
                  <node concept="2OqwBi" id="54W120c5Y7U" role="37vLTx">
                    <node concept="Cj7Ep" id="54W120c5Y7T" role="2Oq$k0" />
                    <node concept="3TrcHB" id="54W120c5Y7Y" role="2OqNvi">
                      <ref role="3TsBF5" to="tpck:h0TrG11" resolve="name" />
                    </node>
                  </node>
                  <node concept="2OqwBi" id="54W120c5Y7L" role="37vLTJ">
                    <node concept="37vLTw" id="3GM_nagTrKO" role="2Oq$k0">
                      <ref role="3cqZAo" node="54W120c5Y7k" resolve="lso" />
                    </node>
                    <node concept="3TrcHB" id="54W120c5Y7P" role="2OqNvi">
                      <ref role="3TsBF5" to="tpck:h0TrG11" resolve="name" />
                    </node>
                  </node>
                </node>
              </node>
              <node concept="3clFbF" id="54W120c5Y7a" role="3cqZAp">
                <node concept="2OqwBi" id="54W120c5Y7c" role="3clFbG">
                  <node concept="Cj7Ep" id="54W120c5Y7b" role="2Oq$k0" />
                  <node concept="1P9Npp" id="54W120c5Y7g" role="2OqNvi">
                    <node concept="37vLTw" id="3GM_nagTyUX" role="1P9ThW">
                      <ref role="3cqZAo" node="54W120c5Y7k" resolve="lso" />
                    </node>
                  </node>
                </node>
              </node>
              <node concept="3cpWs6" id="54W120c5Y88" role="3cqZAp">
                <node concept="2OqwBi" id="54W120c5Y8i" role="3cqZAk">
                  <node concept="37vLTw" id="3GM_nagTAzj" role="2Oq$k0">
                    <ref role="3cqZAo" node="54W120c5Y7k" resolve="lso" />
                  </node>
                  <node concept="3TrEf2" id="54W120c5Y8m" role="2OqNvi">
                    <ref role="3Tt5mk" to="39kg:1eJUWaJk8Ym" />
                  </node>
                </node>
              </node>
            </node>
          </node>
          <node concept="2h1dTh" id="54W120c5Y74" role="Cn2iK">
            <property role="2h1i$Z" value=":" />
          </node>
          <node concept="2h1dTh" id="54W120c5Y79" role="Cn6ar">
            <property role="2h1i$Z" value="Initialize as a vector satisfying linear equation" />
          </node>
        </node>
      </node>
    </node>
    <node concept="3UNGvq" id="5yEI9As$04n" role="3UOs0v">
      <ref role="3UNGvu" to="tpee:fz3vP1J" resolve="Expression" />
      <node concept="3kRJcU" id="5yEI9As$04o" role="3kShCk">
        <node concept="3clFbS" id="5yEI9As$04p" role="2VODD2">
          <node concept="3cpWs8" id="3AtzUhY3gfw" role="3cqZAp">
            <node concept="3cpWsn" id="3AtzUhY3gfx" role="3cpWs9">
              <property role="TrG5h" value="matrixType" />
              <node concept="3Tqbb2" id="3AtzUhY3gfv" role="1tU5fm">
                <ref role="ehGHo" to="39kg:4blu3DypZtQ" resolve="MatrixType" />
              </node>
              <node concept="2c44tf" id="3AtzUhY3gfy" role="33vP2m">
                <node concept="wGCXc" id="3AtzUhY3gfz" role="2c44tc">
                  <node concept="9rSXG" id="3AtzUhY3gf$" role="wJjTD" />
                </node>
              </node>
            </node>
          </node>
          <node concept="3clFbF" id="3AtzUhY3mcb" role="3cqZAp">
            <node concept="2OqwBi" id="3AtzUhY3zZa" role="3clFbG">
              <node concept="2OqwBi" id="3AtzUhY3mms" role="2Oq$k0">
                <node concept="37vLTw" id="3AtzUhY3mca" role="2Oq$k0">
                  <ref role="3cqZAo" node="3AtzUhY3gfx" resolve="matrixType" />
                </node>
                <node concept="3TrcHB" id="3AtzUhY3wHZ" role="2OqNvi">
                  <ref role="3TsBF5" to="39kg:4blu3Dyq3QH" resolve="columns" />
                </node>
              </node>
              <node concept="tyxLq" id="3AtzUhY3AgV" role="2OqNvi">
                <node concept="3cmrfG" id="3AtzUhY3Avb" role="tz02z">
                  <property role="3cmrfH" value="0" />
                </node>
              </node>
            </node>
          </node>
          <node concept="3clFbF" id="3AtzUhY3AMj" role="3cqZAp">
            <node concept="2OqwBi" id="3AtzUhY3CYw" role="3clFbG">
              <node concept="2OqwBi" id="3AtzUhY3B2b" role="2Oq$k0">
                <node concept="37vLTw" id="3AtzUhY3AMi" role="2Oq$k0">
                  <ref role="3cqZAo" node="3AtzUhY3gfx" resolve="matrixType" />
                </node>
                <node concept="3TrcHB" id="3AtzUhY3BXs" role="2OqNvi">
                  <ref role="3TsBF5" to="39kg:4blu3Dyq3QG" resolve="rows" />
                </node>
              </node>
              <node concept="tyxLq" id="3AtzUhY3FnM" role="2OqNvi">
                <node concept="3cmrfG" id="3AtzUhY3FA2" role="tz02z">
                  <property role="3cmrfH" value="0" />
                </node>
              </node>
            </node>
          </node>
          <node concept="3clFbF" id="5yEI9As$04q" role="3cqZAp">
            <node concept="3JuTUA" id="5yEI9As$04r" role="3clFbG">
              <node concept="37vLTw" id="3AtzUhY3gf_" role="3JuZjQ">
                <ref role="3cqZAo" node="3AtzUhY3gfx" resolve="matrixType" />
              </node>
              <node concept="2OqwBi" id="5yEI9As$04s" role="3JuY14">
                <node concept="Cj7Ep" id="5yEI9As$05s" role="2Oq$k0" />
                <node concept="3JvlWi" id="5yEI9As$04u" role="2OqNvi" />
              </node>
            </node>
          </node>
        </node>
      </node>
      <node concept="tYCnQ" id="5yEI9As$04y" role="_1QTJ">
        <ref role="uz4UX" to="tpee:fz3vP1J" resolve="Expression" />
        <node concept="Cmt7Y" id="5yEI9As$05v" role="uz6Si">
          <node concept="Cnhdc" id="5yEI9As$05w" role="Cncma">
            <node concept="3clFbS" id="5yEI9As$05x" role="2VODD2">
              <node concept="3cpWs8" id="5yEI9As$05$" role="3cqZAp">
                <node concept="3cpWsn" id="5yEI9As$05_" role="3cpWs9">
                  <property role="TrG5h" value="result" />
                  <node concept="3Tqbb2" id="5yEI9As$05A" role="1tU5fm">
                    <ref role="ehGHo" to="39kg:5yEI9AszOcE" resolve="MatrixElementAccessExpression" />
                  </node>
                  <node concept="2ShNRf" id="5yEI9As$05C" role="33vP2m">
                    <node concept="2fJWfE" id="5wUAOoBBjni" role="2ShVmc">
                      <node concept="3Tqbb2" id="5wUAOoBBjnj" role="3zrR0E">
                        <ref role="ehGHo" to="39kg:5yEI9AszOcE" resolve="MatrixElementAccessExpression" />
                      </node>
                    </node>
                  </node>
                </node>
              </node>
              <node concept="3clFbF" id="5yEI9As$05U" role="3cqZAp">
                <node concept="2OqwBi" id="5yEI9As$05W" role="3clFbG">
                  <node concept="Cj7Ep" id="5yEI9As$05V" role="2Oq$k0" />
                  <node concept="1P9Npp" id="5yEI9As$060" role="2OqNvi">
                    <node concept="37vLTw" id="3GM_nagTsaU" role="1P9ThW">
                      <ref role="3cqZAo" node="5yEI9As$05_" resolve="result" />
                    </node>
                  </node>
                </node>
              </node>
              <node concept="3clFbF" id="5yEI9As$05J" role="3cqZAp">
                <node concept="37vLTI" id="5yEI9As$05Q" role="3clFbG">
                  <node concept="Cj7Ep" id="5yEI9As$063" role="37vLTx" />
                  <node concept="2OqwBi" id="5yEI9As$05L" role="37vLTJ">
                    <node concept="37vLTw" id="3GM_nagTu33" role="2Oq$k0">
                      <ref role="3cqZAo" node="5yEI9As$05_" resolve="result" />
                    </node>
                    <node concept="3TrEf2" id="5yEI9As$05P" role="2OqNvi">
                      <ref role="3Tt5mk" to="39kg:5yEI9AszOcW" />
                    </node>
                  </node>
                </node>
              </node>
              <node concept="3clFbF" id="5yEI9As$05G" role="3cqZAp">
                <node concept="2OqwBi" id="5yEI9As$064" role="3clFbG">
                  <node concept="37vLTw" id="3GM_nagT_a5" role="2Oq$k0">
                    <ref role="3cqZAo" node="5yEI9As$05_" resolve="result" />
                  </node>
                  <node concept="3TrEf2" id="5yEI9As$068" role="2OqNvi">
                    <ref role="3Tt5mk" to="39kg:5yEI9AszOcX" />
                  </node>
                </node>
              </node>
            </node>
          </node>
          <node concept="2h1dTh" id="5yEI9As$05y" role="Cn2iK">
            <property role="2h1i$Z" value="[" />
          </node>
          <node concept="2h1dTh" id="5yEI9As$05z" role="Cn6ar">
            <property role="2h1i$Z" value="Matrix element access" />
          </node>
        </node>
      </node>
    </node>
    <node concept="3UNGvq" id="PwgWt0sCZd" role="3UOs0v">
      <ref role="3UNGvu" to="tpee:fz3vP1J" resolve="Expression" />
      <node concept="tYCnQ" id="PwgWt0sCZe" role="_1QTJ">
        <ref role="uz4UX" to="tpee:fz3vP1J" resolve="Expression" />
        <node concept="Cmt7Y" id="PwgWt0sCZg" role="uz6Si">
          <node concept="Cnhdc" id="PwgWt0sCZh" role="Cncma">
            <node concept="3clFbS" id="PwgWt0sCZi" role="2VODD2">
              <node concept="3cpWs8" id="PwgWt0sDjB" role="3cqZAp">
                <node concept="3cpWsn" id="PwgWt0sDjC" role="3cpWs9">
                  <property role="TrG5h" value="result" />
                  <node concept="3Tqbb2" id="PwgWt0sDjD" role="1tU5fm">
                    <ref role="ehGHo" to="39kg:i1iGGRj" resolve="PowExpression" />
                  </node>
                  <node concept="2OqwBi" id="PwgWt0sDjG" role="33vP2m">
                    <node concept="Cj7Ep" id="PwgWt0sDjF" role="2Oq$k0" />
                    <node concept="1P9Npp" id="PwgWt0sDjK" role="2OqNvi">
                      <node concept="2c44tf" id="PwgWt0sDjU" role="1P9ThW">
                        <node concept="1iGGNN" id="PwgWt0sDjW" role="2c44tc">
                          <node concept="33vP2n" id="PwgWt0sDjX" role="1iHLUF">
                            <node concept="2c44te" id="PwgWt0sDjZ" role="lGtFl">
                              <node concept="Cj7Ep" id="PwgWt0sDk1" role="2c44t1" />
                            </node>
                          </node>
                          <node concept="33vP2n" id="PwgWt0sDjY" role="1iHMf7" />
                        </node>
                      </node>
                    </node>
                  </node>
                </node>
              </node>
              <node concept="3clFbF" id="PwgWt0sDjN" role="3cqZAp">
                <node concept="2OqwBi" id="PwgWt0sDjP" role="3clFbG">
                  <node concept="37vLTw" id="3GM_nagTv0F" role="2Oq$k0">
                    <ref role="3cqZAo" node="PwgWt0sDjC" resolve="result" />
                  </node>
                  <node concept="3TrEf2" id="PwgWt0sDjT" role="2OqNvi">
                    <ref role="3Tt5mk" to="39kg:i1iHMbB" />
                  </node>
                </node>
              </node>
            </node>
          </node>
          <node concept="2h1dTh" id="PwgWt0sCZj" role="Cn2iK">
            <property role="2h1i$Z" value="^" />
          </node>
          <node concept="2h1dTh" id="PwgWt0t48H" role="Cn6ar">
            <property role="2h1i$Z" value="Raise to power" />
          </node>
        </node>
      </node>
    </node>
    <node concept="3UNGvq" id="6iLUnbAgHSd" role="3UOs0v">
      <ref role="3UNGvu" to="tpee:fz3vP1J" resolve="Expression" />
      <node concept="tYCnQ" id="6iLUnbAh3IF" role="_1QTJ">
        <ref role="uz4UX" to="tpee:fz3vP1J" resolve="Expression" />
        <node concept="CZtCh" id="6iLUnbAh3IG" role="uz6Si">
          <node concept="3bZ5Sz" id="1rQJladUnbX" role="D02tZ">
            <ref role="3bZ5Sy" to="39kg:6iLUnbAhUPX" resolve="MatrixExponentialOperation" />
          </node>
          <node concept="CZKQA" id="6iLUnbAh3II" role="D04br">
            <node concept="3clFbS" id="6iLUnbAh3IJ" role="2VODD2">
              <node concept="3cpWs8" id="6q8VsiEx_Ee" role="3cqZAp">
                <node concept="3cpWsn" id="6q8VsiEx_Ef" role="3cpWs9">
                  <property role="TrG5h" value="result" />
                  <node concept="_YKpA" id="6q8VsiEx_Eg" role="1tU5fm">
                    <node concept="3bZ5Sz" id="1rQJladUnpO" role="_ZDj9">
                      <ref role="3bZ5Sy" to="39kg:6iLUnbAhUPX" resolve="MatrixExponentialOperation" />
                    </node>
                  </node>
                  <node concept="2ShNRf" id="6q8VsiEx_Ew" role="33vP2m">
                    <node concept="Tc6Ow" id="6q8VsiEx_Ex" role="2ShVmc">
                      <node concept="3bZ5Sz" id="1rQJladUnSn" role="HW$YZ">
                        <ref role="3bZ5Sy" to="39kg:6iLUnbAhUPX" resolve="MatrixExponentialOperation" />
                      </node>
                    </node>
                  </node>
                </node>
              </node>
              <node concept="2Gpval" id="6q8VsiEx_EE" role="3cqZAp">
                <node concept="2GrKxI" id="6q8VsiEx_EF" role="2Gsz3X">
                  <property role="TrG5h" value="a" />
                </node>
                <node concept="3clFbS" id="6q8VsiEx_EH" role="2LFqv$">
                  <node concept="3clFbJ" id="6q8VsiEx_F0" role="3cqZAp">
                    <node concept="3fqX7Q" id="6q8VsiEx_Fi" role="3clFbw">
                      <node concept="2OqwBi" id="2wdLO7KfQPY" role="3fr31v">
                        <node concept="liA8E" id="1rQJladUr3x" role="2OqNvi">
                          <ref role="37wK5l" to="c17a:~SAbstractConcept.isAbstract():boolean" resolve="isAbstract" />
                        </node>
                        <node concept="2GrUjf" id="2wdLO7KfQQ0" role="2Oq$k0">
                          <ref role="2Gs0qQ" node="6q8VsiEx_EF" resolve="a" />
                        </node>
                      </node>
                    </node>
                    <node concept="3clFbS" id="6q8VsiEx_F2" role="3clFbx">
                      <node concept="3clFbF" id="6q8VsiEx_Fm" role="3cqZAp">
                        <node concept="2OqwBi" id="6q8VsiEx_Fo" role="3clFbG">
                          <node concept="37vLTw" id="3GM_nagTBPR" role="2Oq$k0">
                            <ref role="3cqZAo" node="6q8VsiEx_Ef" resolve="result" />
                          </node>
                          <node concept="TSZUe" id="6q8VsiEx_Fs" role="2OqNvi">
                            <node concept="2GrUjf" id="6q8VsiEx_Fw" role="25WWJ7">
                              <ref role="2Gs0qQ" node="6q8VsiEx_EF" resolve="a" />
                            </node>
                          </node>
                        </node>
                      </node>
                    </node>
                  </node>
                </node>
                <node concept="2OqwBi" id="6q8VsiEx_EO" role="2GsD0m">
                  <node concept="35c_gC" id="1rQJladUo2h" role="2Oq$k0">
                    <ref role="35c_gD" to="39kg:6iLUnbAhUPX" resolve="MatrixExponentialOperation" />
                  </node>
                  <node concept="LSoRf" id="6q8VsiEx_EQ" role="2OqNvi">
                    <node concept="1Q6Npb" id="6q8VsiEx_ER" role="1iTxcG" />
                  </node>
                </node>
              </node>
              <node concept="3clFbF" id="6q8VsiEx_EY" role="3cqZAp">
                <node concept="37vLTw" id="3GM_nagT_3h" role="3clFbG">
                  <ref role="3cqZAo" node="6q8VsiEx_Ef" resolve="result" />
                </node>
              </node>
            </node>
          </node>
          <node concept="D1tK2" id="6iLUnbAh3IK" role="D0eUe">
            <node concept="3clFbS" id="6iLUnbAh3IL" role="2VODD2">
              <node concept="3clFbF" id="6iLUnbAhAli" role="3cqZAp">
                <node concept="2OqwBi" id="3L$6XlCdzHy" role="3clFbG">
                  <node concept="Cj7Ep" id="3L$6XlCdzHz" role="2Oq$k0" />
                  <node concept="1P9Npp" id="3L$6XlCdzH$" role="2OqNvi">
                    <node concept="2OqwBi" id="3L$6XlCdzH_" role="1P9ThW">
                      <node concept="uNquD" id="3L$6XlCdzHA" role="2Oq$k0" />
                      <node concept="q_SaT" id="3L$6XlCdzHB" role="2OqNvi">
                        <node concept="Cj7Ep" id="3L$6XlCdzHC" role="1wAxWu" />
                      </node>
                    </node>
                  </node>
                </node>
              </node>
            </node>
          </node>
          <node concept="CmF0q" id="6iLUnbAh3K4" role="D06XQ">
            <node concept="3clFbS" id="6iLUnbAh3K5" role="2VODD2">
              <node concept="3clFbF" id="6iLUnbAh3K7" role="3cqZAp">
                <node concept="3cpWs3" id="6iLUnbAh3Ke" role="3clFbG">
                  <node concept="2OqwBi" id="1653mnvCd8I" role="3uHU7w">
                    <node concept="uNquD" id="1653mnvCd8J" role="2Oq$k0" />
                    <node concept="2qgKlT" id="1653mnvCd8H" role="2OqNvi">
                      <ref role="37wK5l" to="r3rn:1653mnvAgnB" resolve="getOperationSymbol" />
                    </node>
                  </node>
                  <node concept="Xl_RD" id="6iLUnbAh3Kh" role="3uHU7B">
                    <property role="Xl_RC" value="^" />
                  </node>
                </node>
              </node>
            </node>
          </node>
          <node concept="CmF0q" id="6iLUnbAh3Kl" role="D0ck5">
            <node concept="3clFbS" id="6iLUnbAh3Km" role="2VODD2">
              <node concept="3clFbF" id="6iLUnbAh3Ko" role="3cqZAp">
                <node concept="2OqwBi" id="6iLUnbAh3Kq" role="3clFbG">
                  <node concept="uNquD" id="6iLUnbAh3Kp" role="2Oq$k0" />
                  <node concept="3neUYN" id="1rQJladUrf2" role="2OqNvi" />
                </node>
              </node>
            </node>
          </node>
        </node>
      </node>
      <node concept="3kRJcU" id="6q8VsiEzt7m" role="3kShCk">
        <node concept="3clFbS" id="6q8VsiEzt7n" role="2VODD2">
          <node concept="3clFbF" id="6q8VsiEzt8h" role="3cqZAp">
            <node concept="22lmx$" id="6q8VsiEzJgz" role="3clFbG">
              <node concept="2OqwBi" id="6q8VsiEztrI" role="3uHU7B">
                <node concept="2OqwBi" id="6q8VsiEzt8j" role="2Oq$k0">
                  <node concept="Cj7Ep" id="6q8VsiEzt8i" role="2Oq$k0" />
                  <node concept="3JvlWi" id="6q8VsiEztrH" role="2OqNvi" />
                </node>
                <node concept="1mIQ4w" id="6q8VsiEztrM" role="2OqNvi">
                  <node concept="chp4Y" id="6q8VsiEztrO" role="cj9EA">
                    <ref role="cht4Q" to="39kg:4blu3DypZtQ" resolve="MatrixType" />
                  </node>
                </node>
              </node>
              <node concept="2OqwBi" id="6q8VsiEzJgA" role="3uHU7w">
                <node concept="2OqwBi" id="6q8VsiEzJgB" role="2Oq$k0">
                  <node concept="Cj7Ep" id="6q8VsiEzJgC" role="2Oq$k0" />
                  <node concept="3JvlWi" id="6q8VsiEzJgD" role="2OqNvi" />
                </node>
                <node concept="1mIQ4w" id="6q8VsiEzJgE" role="2OqNvi">
                  <node concept="chp4Y" id="6q8VsiEzJgH" role="cj9EA">
                    <ref role="cht4Q" to="39kg:4blu3DypZtP" resolve="VectorType" />
                  </node>
                </node>
              </node>
            </node>
          </node>
        </node>
      </node>
    </node>
  </node>
  <node concept="37WguZ" id="3KAYHMTMfBQ">
    <property role="TrG5h" value="ML_NodeFactories" />
    <node concept="37WvkG" id="3KAYHMTMfCo" role="37WGs$">
      <ref role="37XkoT" to="39kg:6iLUnbAh3Cw" resolve="ExponentialOperation" />
      <node concept="37Y9Zx" id="3KAYHMTMfCp" role="37ZfLb">
        <node concept="3clFbS" id="3KAYHMTMfCq" role="2VODD2">
          <node concept="3clFbJ" id="3KAYHMTMfD_" role="3cqZAp">
            <node concept="3clFbS" id="3KAYHMTMfDA" role="3clFbx">
              <node concept="3clFbF" id="3KAYHMTMfDL" role="3cqZAp">
                <node concept="37vLTI" id="3KAYHMTMfDM" role="3clFbG">
                  <node concept="1PxgMI" id="3KAYHMTMfDR" role="37vLTx">
                    <ref role="1m5ApE" to="tpee:fz3vP1J" resolve="Expression" />
                    <node concept="1r4N5L" id="3KAYHMTMfDN" role="1m5AlR" />
                  </node>
                  <node concept="2OqwBi" id="3KAYHMTMfDO" role="37vLTJ">
                    <node concept="1r4Lsj" id="3KAYHMTMfDP" role="2Oq$k0" />
                    <node concept="3TrEf2" id="6iLUnbAiJSv" role="2OqNvi">
                      <ref role="3Tt5mk" to="39kg:6iLUnbAh3Cy" />
                    </node>
                  </node>
                </node>
              </node>
            </node>
            <node concept="2OqwBi" id="3KAYHMTMfDE" role="3clFbw">
              <node concept="1r4N5L" id="3KAYHMTMfDD" role="2Oq$k0" />
              <node concept="1mIQ4w" id="3KAYHMTMfDI" role="2OqNvi">
                <node concept="chp4Y" id="3KAYHMTMfDK" role="cj9EA">
                  <ref role="cht4Q" to="tpee:fz3vP1J" resolve="Expression" />
                </node>
              </node>
            </node>
          </node>
        </node>
      </node>
    </node>
  </node>
</model>

