<?xml version="1.0" encoding="UTF-8"?>
<model ref="r:48b4a246-e052-4ee3-ba92-1505c2e94044(jetbrains.mps.baseLanguage.math.dataFlow)">
  <persistence version="9" />
  <languages>
    <use id="83888646-71ce-4f1c-9c53-c54016f6ad4f" name="jetbrains.mps.baseLanguage.collections" version="0" />
    <use id="7fa12e9c-b949-4976-b4fa-19accbc320b4" name="jetbrains.mps.lang.dataFlow" version="0" />
    <use id="7866978e-a0f0-4cc7-81bc-4d213d9375e1" name="jetbrains.mps.lang.smodel" version="4" />
    <use id="f3061a53-9226-4cc5-a443-f952ceaf5816" name="jetbrains.mps.baseLanguage" version="4" />
    <devkit ref="fbc25dd2-5da4-483a-8b19-70928e1b62d7(jetbrains.mps.devkit.general-purpose)" />
  </languages>
  <imports>
    <import index="39kg" ref="r:cb1a36c8-1ffb-415a-aba8-afb9dc042d1b(jetbrains.mps.baseLanguage.math.structure)" />
  </imports>
  <registry>
    <language id="f3061a53-9226-4cc5-a443-f952ceaf5816" name="jetbrains.mps.baseLanguage">
      <concept id="1154032098014" name="jetbrains.mps.baseLanguage.structure.AbstractLoopStatement" flags="nn" index="2LF5Ji">
        <child id="1154032183016" name="body" index="2LFqv$" />
      </concept>
      <concept id="1197027756228" name="jetbrains.mps.baseLanguage.structure.DotExpression" flags="nn" index="2OqwBi">
        <child id="1197027771414" name="operand" index="2Oq$k0" />
        <child id="1197027833540" name="operation" index="2OqNvi" />
      </concept>
      <concept id="1137021947720" name="jetbrains.mps.baseLanguage.structure.ConceptFunction" flags="in" index="2VMwT0">
        <child id="1137022507850" name="body" index="2VODD2" />
      </concept>
      <concept id="1068580123136" name="jetbrains.mps.baseLanguage.structure.StatementList" flags="sn" stub="5293379017992965193" index="3clFbS">
        <child id="1068581517665" name="statement" index="3cqZAp" />
      </concept>
    </language>
    <language id="7fa12e9c-b949-4976-b4fa-19accbc320b4" name="jetbrains.mps.lang.dataFlow">
      <concept id="1206442055221" name="jetbrains.mps.lang.dataFlow.structure.DataFlowBuilderDeclaration" flags="ig" index="3_zdsH">
        <reference id="1206442096288" name="conceptDeclaration" index="3_znuS" />
        <child id="1206442812839" name="builderBlock" index="3_A6iZ" />
      </concept>
      <concept id="1206442659665" name="jetbrains.mps.lang.dataFlow.structure.BuilderBlock" flags="in" index="3__wT9" />
      <concept id="1206442747519" name="jetbrains.mps.lang.dataFlow.structure.NodeParameter" flags="nn" index="3__QtB" />
      <concept id="1206443823146" name="jetbrains.mps.lang.dataFlow.structure.EmitReadStatement" flags="nn" index="3_DX4M" />
      <concept id="1206444349662" name="jetbrains.mps.lang.dataFlow.structure.EmitWriteStatement" flags="nn" index="3_FXB6">
        <child id="1230468250683" name="value" index="1XBRO_" />
      </concept>
      <concept id="1206444622344" name="jetbrains.mps.lang.dataFlow.structure.BaseEmitVariableStatement" flags="nn" index="3_H0cg">
        <child id="1206444629799" name="variable" index="3_H1SZ" />
      </concept>
      <concept id="1206454052847" name="jetbrains.mps.lang.dataFlow.structure.EmitCodeForStatement" flags="nn" index="3AgYrR">
        <child id="1206454079161" name="codeFor" index="3Ah4Yx" />
      </concept>
    </language>
    <language id="7866978e-a0f0-4cc7-81bc-4d213d9375e1" name="jetbrains.mps.lang.smodel">
      <concept id="2396822768958367367" name="jetbrains.mps.lang.smodel.structure.AbstractTypeCastExpression" flags="nn" index="$5XWr">
        <reference id="6733348108486823428" name="concept" index="1m5ApE" />
        <child id="6733348108486823193" name="leftExpression" index="1m5AlR" />
      </concept>
      <concept id="1139613262185" name="jetbrains.mps.lang.smodel.structure.Node_GetParentOperation" flags="nn" index="1mfA1w" />
      <concept id="1140137987495" name="jetbrains.mps.lang.smodel.structure.SNodeTypeCastExpression" flags="nn" index="1PxgMI" />
      <concept id="1138056143562" name="jetbrains.mps.lang.smodel.structure.SLinkAccess" flags="nn" index="3TrEf2">
        <reference id="1138056516764" name="link" index="3Tt5mk" />
      </concept>
      <concept id="1138056282393" name="jetbrains.mps.lang.smodel.structure.SLinkListAccess" flags="nn" index="3Tsc0h">
        <reference id="1138056546658" name="link" index="3TtcxE" />
      </concept>
    </language>
    <language id="ceab5195-25ea-4f22-9b92-103b95ca8c0c" name="jetbrains.mps.lang.core">
      <concept id="1133920641626" name="jetbrains.mps.lang.core.structure.BaseConcept" flags="ng" index="2VYdi">
        <property id="1193676396447" name="virtualPackage" index="3GE5qa" />
      </concept>
      <concept id="1169194658468" name="jetbrains.mps.lang.core.structure.INamedConcept" flags="ng" index="TrEIO">
        <property id="1169194664001" name="name" index="TrG5h" />
      </concept>
    </language>
    <language id="83888646-71ce-4f1c-9c53-c54016f6ad4f" name="jetbrains.mps.baseLanguage.collections">
      <concept id="1153943597977" name="jetbrains.mps.baseLanguage.collections.structure.ForEachStatement" flags="nn" index="2Gpval">
        <child id="1153944400369" name="variable" index="2Gsz3X" />
        <child id="1153944424730" name="inputSequence" index="2GsD0m" />
      </concept>
      <concept id="1153944193378" name="jetbrains.mps.baseLanguage.collections.structure.ForEachVariable" flags="nr" index="2GrKxI" />
      <concept id="1153944233411" name="jetbrains.mps.baseLanguage.collections.structure.ForEachVariableReference" flags="nn" index="2GrUjf">
        <reference id="1153944258490" name="variable" index="2Gs0qQ" />
      </concept>
    </language>
  </registry>
  <node concept="3_zdsH" id="hZwRkMq">
    <property role="3GE5qa" value="operations.symbol" />
    <ref role="3_znuS" to="39kg:hZwQhih" resolve="MathSymbolIndexReference" />
    <node concept="3__wT9" id="hZwRkMr" role="3_A6iZ">
      <node concept="3clFbS" id="hZwRkMs" role="2VODD2">
        <node concept="3_DX4M" id="hZwRlvC" role="3cqZAp">
          <node concept="2OqwBi" id="hZwRmtd" role="3_H1SZ">
            <node concept="3__QtB" id="hZwRmnO" role="2Oq$k0" />
            <node concept="3TrEf2" id="hZwRotc" role="2OqNvi">
              <ref role="3Tt5mk" to="39kg:hZwQlJv" />
            </node>
          </node>
        </node>
      </node>
    </node>
  </node>
  <node concept="3_zdsH" id="hZwRrAo">
    <property role="3GE5qa" value="operations.symbol" />
    <ref role="3_znuS" to="39kg:hZwMAQC" resolve="MathSymbolIndex" />
    <node concept="3__wT9" id="hZwRrAp" role="3_A6iZ">
      <node concept="3clFbS" id="hZwRrAq" role="2VODD2">
        <node concept="3AgYrR" id="hZENJQI" role="3cqZAp">
          <node concept="2OqwBi" id="hZENKgq" role="3Ah4Yx">
            <node concept="3__QtB" id="hZENKes" role="2Oq$k0" />
            <node concept="3TrEf2" id="hZENKtE" role="2OqNvi">
              <ref role="3Tt5mk" to="39kg:hZwNeN0" />
            </node>
          </node>
        </node>
        <node concept="3_FXB6" id="hZwRsbj" role="3cqZAp">
          <node concept="3__QtB" id="hZwRu3G" role="3_H1SZ" />
        </node>
      </node>
    </node>
  </node>
  <node concept="3_zdsH" id="hZwRysy">
    <property role="3GE5qa" value="operations.symbol" />
    <ref role="3_znuS" to="39kg:hZwMxyp" resolve="MathSymbol" />
    <node concept="3__wT9" id="hZwRysz" role="3_A6iZ">
      <node concept="3clFbS" id="hZwRys$" role="2VODD2">
        <node concept="3AgYrR" id="hZwRMAc" role="3cqZAp">
          <node concept="2OqwBi" id="hZwRQnY" role="3Ah4Yx">
            <node concept="3__QtB" id="hZwRQ1H" role="2Oq$k0" />
            <node concept="3TrEf2" id="hZwRQx$" role="2OqNvi">
              <ref role="3Tt5mk" to="39kg:hZwMIvQ" />
            </node>
          </node>
        </node>
        <node concept="3AgYrR" id="hZwS1Qi" role="3cqZAp">
          <node concept="2OqwBi" id="hZwS2DA" role="3Ah4Yx">
            <node concept="3__QtB" id="hZwS2C8" role="2Oq$k0" />
            <node concept="3TrEf2" id="hZwS4a6" role="2OqNvi">
              <ref role="3Tt5mk" to="39kg:hZwNk6_" />
            </node>
          </node>
        </node>
        <node concept="3AgYrR" id="hZwS4Ih" role="3cqZAp">
          <node concept="2OqwBi" id="hZwS5DS" role="3Ah4Yx">
            <node concept="3__QtB" id="hZwS5yM" role="2Oq$k0" />
            <node concept="3TrEf2" id="hZwS6ar" role="2OqNvi">
              <ref role="3Tt5mk" to="39kg:hZwMIxO" />
            </node>
          </node>
        </node>
      </node>
    </node>
  </node>
  <node concept="3_zdsH" id="hZENMpW">
    <property role="3GE5qa" value="operations.symbol" />
    <ref role="3_znuS" to="39kg:hZEt_NK" resolve="MathSymbolFromToIndex" />
    <node concept="3__wT9" id="hZENMpX" role="3_A6iZ">
      <node concept="3clFbS" id="hZENMpY" role="2VODD2">
        <node concept="3_FXB6" id="hZENNa5" role="3cqZAp">
          <node concept="3__QtB" id="hZENN_H" role="3_H1SZ" />
        </node>
        <node concept="3AgYrR" id="hZEOXUH" role="3cqZAp">
          <node concept="2OqwBi" id="hZEOYeM" role="3Ah4Yx">
            <node concept="3__QtB" id="hZEOYdj" role="2Oq$k0" />
            <node concept="3TrEf2" id="hZEOYqk" role="2OqNvi">
              <ref role="3Tt5mk" to="39kg:hZEuZoM" />
            </node>
          </node>
        </node>
        <node concept="3AgYrR" id="hZEOZ29" role="3cqZAp">
          <node concept="2OqwBi" id="hZEP1iE" role="3Ah4Yx">
            <node concept="1PxgMI" id="hZEP0Ri" role="2Oq$k0">
              <ref role="1m5ApE" to="39kg:hZwMxyp" resolve="MathSymbol" />
              <node concept="2OqwBi" id="hZEOZIC" role="1m5AlR">
                <node concept="3__QtB" id="hZEOZHp" role="2Oq$k0" />
                <node concept="1mfA1w" id="hZEP0jN" role="2OqNvi" />
              </node>
            </node>
            <node concept="3TrEf2" id="hZEP20o" role="2OqNvi">
              <ref role="3Tt5mk" to="39kg:hZEN8Wm" />
            </node>
          </node>
        </node>
      </node>
    </node>
  </node>
  <node concept="3_zdsH" id="i099$j9">
    <property role="3GE5qa" value="operations.arithmetic" />
    <ref role="3_znuS" to="39kg:i08Xew5" resolve="DivExpressionFraction" />
    <node concept="3__wT9" id="i099$ja" role="3_A6iZ">
      <node concept="3clFbS" id="i099$jb" role="2VODD2">
        <node concept="3AgYrR" id="i099_zw" role="3cqZAp">
          <node concept="2OqwBi" id="i099AOR" role="3Ah4Yx">
            <node concept="3__QtB" id="i099AJe" role="2Oq$k0" />
            <node concept="3TrEf2" id="i099B5h" role="2OqNvi">
              <ref role="3Tt5mk" to="39kg:i0959tZ" />
            </node>
          </node>
        </node>
        <node concept="3AgYrR" id="i099BuG" role="3cqZAp">
          <node concept="2OqwBi" id="i099BU5" role="3Ah4Yx">
            <node concept="3__QtB" id="i099BSQ" role="2Oq$k0" />
            <node concept="3TrEf2" id="i099CtN" role="2OqNvi">
              <ref role="3Tt5mk" to="39kg:i0959Gq" />
            </node>
          </node>
        </node>
      </node>
    </node>
  </node>
  <node concept="3_zdsH" id="PzG_d7Kauy">
    <property role="3GE5qa" value="matrix" />
    <ref role="3_znuS" to="39kg:5yEI9AszOcE" resolve="MatrixElementAccessExpression" />
    <node concept="3__wT9" id="PzG_d7Kauz" role="3_A6iZ">
      <node concept="3clFbS" id="PzG_d7Kau$" role="2VODD2">
        <node concept="3AgYrR" id="PzG_d7Kau_" role="3cqZAp">
          <node concept="2OqwBi" id="PzG_d7KauC" role="3Ah4Yx">
            <node concept="3__QtB" id="PzG_d7KauB" role="2Oq$k0" />
            <node concept="3TrEf2" id="PzG_d7KaKc" role="2OqNvi">
              <ref role="3Tt5mk" to="39kg:5yEI9AszOcW" />
            </node>
          </node>
        </node>
        <node concept="3AgYrR" id="PzG_d7KaKe" role="3cqZAp">
          <node concept="2OqwBi" id="PzG_d7KaKh" role="3Ah4Yx">
            <node concept="3__QtB" id="PzG_d7KaKg" role="2Oq$k0" />
            <node concept="3TrEf2" id="PzG_d7KaKl" role="2OqNvi">
              <ref role="3Tt5mk" to="39kg:5yEI9AszOcY" />
            </node>
          </node>
        </node>
        <node concept="3AgYrR" id="PzG_d7KaKo" role="3cqZAp">
          <node concept="2OqwBi" id="PzG_d7KaKr" role="3Ah4Yx">
            <node concept="3__QtB" id="PzG_d7KaKq" role="2Oq$k0" />
            <node concept="3TrEf2" id="PzG_d7KaKv" role="2OqNvi">
              <ref role="3Tt5mk" to="39kg:5yEI9AszOcX" />
            </node>
          </node>
        </node>
      </node>
    </node>
  </node>
  <node concept="3_zdsH" id="1eJUWaJkBKc">
    <property role="3GE5qa" value="matrix" />
    <ref role="3_znuS" to="39kg:3pK0_4TrGHV" resolve="MatrixZero" />
    <node concept="3__wT9" id="1eJUWaJkBKd" role="3_A6iZ">
      <node concept="3clFbS" id="1eJUWaJkBKe" role="2VODD2">
        <node concept="3AgYrR" id="1eJUWaJkBKf" role="3cqZAp">
          <node concept="2OqwBi" id="1eJUWaJkBKo" role="3Ah4Yx">
            <node concept="3__QtB" id="1eJUWaJkBKn" role="2Oq$k0" />
            <node concept="3TrEf2" id="1eJUWaJkBKs" role="2OqNvi">
              <ref role="3Tt5mk" to="39kg:3pK0_4TsjcO" />
            </node>
          </node>
        </node>
        <node concept="3AgYrR" id="1eJUWaJkBKi" role="3cqZAp">
          <node concept="2OqwBi" id="1eJUWaJkBKu" role="3Ah4Yx">
            <node concept="3__QtB" id="1eJUWaJkBKt" role="2Oq$k0" />
            <node concept="3TrEf2" id="1eJUWaJkBKy" role="2OqNvi">
              <ref role="3Tt5mk" to="39kg:3pK0_4TsjcP" />
            </node>
          </node>
        </node>
      </node>
    </node>
  </node>
  <node concept="3_zdsH" id="1eJUWaJkBKA">
    <property role="3GE5qa" value="matrix" />
    <ref role="3_znuS" to="39kg:1eJUWaJk5EX" resolve="LinearSolveOperation" />
    <node concept="3__wT9" id="1eJUWaJkBKB" role="3_A6iZ">
      <node concept="3clFbS" id="1eJUWaJkBKC" role="2VODD2">
        <node concept="3AgYrR" id="1eJUWaJkBKV" role="3cqZAp">
          <node concept="2OqwBi" id="1eJUWaJkBKW" role="3Ah4Yx">
            <node concept="3__QtB" id="1eJUWaJkBKX" role="2Oq$k0" />
            <node concept="3TrEf2" id="1eJUWaJkBL6" role="2OqNvi">
              <ref role="3Tt5mk" to="39kg:1eJUWaJk8Ym" />
            </node>
          </node>
        </node>
        <node concept="3AgYrR" id="1eJUWaJkBL8" role="3cqZAp">
          <node concept="2OqwBi" id="1eJUWaJkBL9" role="3Ah4Yx">
            <node concept="3__QtB" id="1eJUWaJkBLa" role="2Oq$k0" />
            <node concept="3TrEf2" id="1eJUWaJkBLc" role="2OqNvi">
              <ref role="3Tt5mk" to="39kg:1eJUWaJk8Yn" />
            </node>
          </node>
        </node>
        <node concept="3_FXB6" id="1eJUWaJkBKZ" role="3cqZAp">
          <node concept="3__QtB" id="1eJUWaJkBL0" role="3_H1SZ" />
          <node concept="2OqwBi" id="1eJUWaJkBL2" role="1XBRO_">
            <node concept="3__QtB" id="1eJUWaJkBL3" role="2Oq$k0" />
            <node concept="3TrEf2" id="1eJUWaJkBLd" role="2OqNvi">
              <ref role="3Tt5mk" to="39kg:1eJUWaJk8Ym" />
            </node>
          </node>
        </node>
      </node>
    </node>
  </node>
  <node concept="3_zdsH" id="4DxSEe5dPFi">
    <property role="3GE5qa" value="matrix" />
    <ref role="3_znuS" to="39kg:5pgF0P2jgYP" resolve="VectorInitializer" />
    <node concept="3__wT9" id="4DxSEe5dPFj" role="3_A6iZ">
      <node concept="3clFbS" id="4DxSEe5dPFk" role="2VODD2">
        <node concept="3AgYrR" id="4DxSEe5dPFl" role="3cqZAp">
          <node concept="2OqwBi" id="4DxSEe5dPFu" role="3Ah4Yx">
            <node concept="3__QtB" id="4DxSEe5dPFt" role="2Oq$k0" />
            <node concept="3TrEf2" id="4DxSEe5dPX2" role="2OqNvi">
              <ref role="3Tt5mk" to="39kg:5pgF0P2jgYS" />
            </node>
          </node>
        </node>
        <node concept="3AgYrR" id="4DxSEe5dPFo" role="3cqZAp">
          <node concept="2OqwBi" id="4DxSEe5dPX4" role="3Ah4Yx">
            <node concept="3__QtB" id="4DxSEe5dPX3" role="2Oq$k0" />
            <node concept="3TrEf2" id="4DxSEe5dPX8" role="2OqNvi">
              <ref role="3Tt5mk" to="39kg:5pgF0P2jgYT" />
            </node>
          </node>
        </node>
        <node concept="3_FXB6" id="4DxSEe5dQ6a" role="3cqZAp">
          <node concept="2OqwBi" id="4DxSEe5dQ6d" role="3_H1SZ">
            <node concept="3__QtB" id="4DxSEe5dQ6c" role="2Oq$k0" />
            <node concept="3TrEf2" id="4DxSEe5dQ6h" role="2OqNvi">
              <ref role="3Tt5mk" to="39kg:5pgF0P2jgYR" />
            </node>
          </node>
        </node>
      </node>
    </node>
  </node>
  <node concept="3_zdsH" id="4DxSEe5dPX9">
    <property role="3GE5qa" value="matrix" />
    <ref role="3_znuS" to="39kg:5pgF0P2ga18" resolve="MatrixInitializer" />
    <node concept="3__wT9" id="4DxSEe5dPXa" role="3_A6iZ">
      <node concept="3clFbS" id="4DxSEe5dPXb" role="2VODD2">
        <node concept="3AgYrR" id="4DxSEe5dPXc" role="3cqZAp">
          <node concept="2OqwBi" id="4DxSEe5dPXi" role="3Ah4Yx">
            <node concept="3__QtB" id="4DxSEe5dPXe" role="2Oq$k0" />
            <node concept="3TrEf2" id="4DxSEe5dPXm" role="2OqNvi">
              <ref role="3Tt5mk" to="39kg:5pgF0P2gdxn" />
            </node>
          </node>
        </node>
        <node concept="3AgYrR" id="4DxSEe5dPXo" role="3cqZAp">
          <node concept="2OqwBi" id="4DxSEe5dPXr" role="3Ah4Yx">
            <node concept="3__QtB" id="4DxSEe5dPXq" role="2Oq$k0" />
            <node concept="3TrEf2" id="4DxSEe5dPXv" role="2OqNvi">
              <ref role="3Tt5mk" to="39kg:5pgF0P2hjip" />
            </node>
          </node>
        </node>
        <node concept="3AgYrR" id="4DxSEe5dPXx" role="3cqZAp">
          <node concept="2OqwBi" id="4DxSEe5dPX$" role="3Ah4Yx">
            <node concept="3__QtB" id="4DxSEe5dPXz" role="2Oq$k0" />
            <node concept="3TrEf2" id="4DxSEe5dPXC" role="2OqNvi">
              <ref role="3Tt5mk" to="39kg:5pgF0P2hjiq" />
            </node>
          </node>
        </node>
        <node concept="3_FXB6" id="4DxSEe5dQ5S" role="3cqZAp">
          <node concept="2OqwBi" id="4DxSEe5dQ5V" role="3_H1SZ">
            <node concept="3__QtB" id="4DxSEe5dQ5U" role="2Oq$k0" />
            <node concept="3TrEf2" id="4DxSEe5dQ5Z" role="2OqNvi">
              <ref role="3Tt5mk" to="39kg:5pgF0P2gf9s" />
            </node>
          </node>
        </node>
        <node concept="3_FXB6" id="4DxSEe5dQ61" role="3cqZAp">
          <node concept="2OqwBi" id="4DxSEe5dQ64" role="3_H1SZ">
            <node concept="3__QtB" id="4DxSEe5dQ63" role="2Oq$k0" />
            <node concept="3TrEf2" id="4DxSEe5dQ68" role="2OqNvi">
              <ref role="3Tt5mk" to="39kg:5pgF0P2gf9r" />
            </node>
          </node>
        </node>
      </node>
    </node>
  </node>
  <node concept="3_zdsH" id="4DxSEe5dQ5G">
    <property role="3GE5qa" value="matrix" />
    <ref role="3_znuS" to="39kg:5pgF0P2gf9i" resolve="MatrixInitializerIndexReference" />
    <node concept="3__wT9" id="4DxSEe5dQ5H" role="3_A6iZ">
      <node concept="3clFbS" id="4DxSEe5dQ5I" role="2VODD2">
        <node concept="3_DX4M" id="4DxSEe5dQ5J" role="3cqZAp">
          <node concept="2OqwBi" id="4DxSEe5dQ5M" role="3_H1SZ">
            <node concept="3__QtB" id="4DxSEe5dQ5L" role="2Oq$k0" />
            <node concept="3TrEf2" id="4DxSEe5dQ5Q" role="2OqNvi">
              <ref role="3Tt5mk" to="39kg:5pgF0P2gf9P" />
            </node>
          </node>
        </node>
      </node>
    </node>
  </node>
  <node concept="3_zdsH" id="eAq2VF1wZr">
    <property role="3GE5qa" value="matrix" />
    <ref role="3_znuS" to="39kg:eAq2VF1wZl" resolve="Determinant" />
    <node concept="3__wT9" id="eAq2VF1wZs" role="3_A6iZ">
      <node concept="3clFbS" id="eAq2VF1wZt" role="2VODD2">
        <node concept="3AgYrR" id="eAq2VF1wZy" role="3cqZAp">
          <node concept="2OqwBi" id="eAq2VF1wZ_" role="3Ah4Yx">
            <node concept="3__QtB" id="eAq2VF1wZ$" role="2Oq$k0" />
            <node concept="3TrEf2" id="3G8sDhZhxYm" role="2OqNvi">
              <ref role="3Tt5mk" to="39kg:i1j34Vg" />
            </node>
          </node>
        </node>
      </node>
    </node>
  </node>
  <node concept="3_zdsH" id="E7RwTMKsib">
    <property role="3GE5qa" value="matrix" />
    <ref role="3_znuS" to="39kg:N7SsTDx7QM" resolve="MatrixNorm" />
    <node concept="3__wT9" id="E7RwTMKsic" role="3_A6iZ">
      <node concept="3clFbS" id="E7RwTMKsid" role="2VODD2">
        <node concept="3AgYrR" id="E7RwTMKsie" role="3cqZAp">
          <node concept="2OqwBi" id="E7RwTMKsik" role="3Ah4Yx">
            <node concept="3__QtB" id="E7RwTMKsij" role="2Oq$k0" />
            <node concept="3TrEf2" id="E7RwTMKszW" role="2OqNvi">
              <ref role="3Tt5mk" to="39kg:E7RwTMJ0Zh" />
            </node>
          </node>
        </node>
      </node>
    </node>
  </node>
  <node concept="3_zdsH" id="2XHDKiKN_74">
    <property role="3GE5qa" value="matrix" />
    <ref role="3_znuS" to="39kg:4blu3DyqKE5" resolve="MatrixConstructor" />
    <node concept="3__wT9" id="2XHDKiKN_75" role="3_A6iZ">
      <node concept="3clFbS" id="2XHDKiKN_76" role="2VODD2">
        <node concept="2Gpval" id="2XHDKiKN_78" role="3cqZAp">
          <node concept="2GrKxI" id="2XHDKiKN_79" role="2Gsz3X">
            <property role="TrG5h" value="item" />
          </node>
          <node concept="2OqwBi" id="2XHDKiKN_7e" role="2GsD0m">
            <node concept="3__QtB" id="2XHDKiKN_7d" role="2Oq$k0" />
            <node concept="3Tsc0h" id="2XHDKiKN_oR" role="2OqNvi">
              <ref role="3TtcxE" to="39kg:4blu3DyqKEd" />
            </node>
          </node>
          <node concept="3clFbS" id="2XHDKiKN_7b" role="2LFqv$">
            <node concept="3AgYrR" id="2XHDKiKN_oT" role="3cqZAp">
              <node concept="2GrUjf" id="2XHDKiKN_oV" role="3Ah4Yx">
                <ref role="2Gs0qQ" node="2XHDKiKN_79" resolve="item" />
              </node>
            </node>
          </node>
        </node>
      </node>
    </node>
  </node>
  <node concept="3_zdsH" id="3G8sDhZiMhu">
    <property role="3GE5qa" value="methods" />
    <ref role="3_znuS" to="39kg:i1j1V1B" resolve="MathFuncExpression" />
    <node concept="3__wT9" id="3G8sDhZiMhv" role="3_A6iZ">
      <node concept="3clFbS" id="3G8sDhZiMhw" role="2VODD2">
        <node concept="3AgYrR" id="3G8sDhZiMhx" role="3cqZAp">
          <node concept="2OqwBi" id="3G8sDhZiMh$" role="3Ah4Yx">
            <node concept="3__QtB" id="3G8sDhZiMhz" role="2Oq$k0" />
            <node concept="3TrEf2" id="3G8sDhZiM$Y" role="2OqNvi">
              <ref role="3Tt5mk" to="39kg:i1j34Vg" />
            </node>
          </node>
        </node>
      </node>
    </node>
  </node>
  <node concept="3_zdsH" id="6iLUnbAh3Iv">
    <ref role="3_znuS" to="39kg:6iLUnbAh3Cw" resolve="ExponentialOperation" />
    <node concept="3__wT9" id="6iLUnbAh3Iw" role="3_A6iZ">
      <node concept="3clFbS" id="6iLUnbAh3Ix" role="2VODD2">
        <node concept="3AgYrR" id="6iLUnbAh3Iy" role="3cqZAp">
          <node concept="2OqwBi" id="6iLUnbAh3I_" role="3Ah4Yx">
            <node concept="3__QtB" id="6iLUnbAh3I$" role="2Oq$k0" />
            <node concept="3TrEf2" id="6iLUnbAh3ID" role="2OqNvi">
              <ref role="3Tt5mk" to="39kg:6iLUnbAh3Cy" />
            </node>
          </node>
        </node>
      </node>
    </node>
  </node>
</model>

