<?xml version="1.0" encoding="UTF-8"?>
<model ref="r:14d9938d-f7ef-4995-a5b9-c40ae14726a7(jetbrains.mps.make.facet.actions)">
  <persistence version="9" />
  <languages>
    <use id="fd392034-7849-419d-9071-12563d152375" name="jetbrains.mps.baseLanguage.closures" version="0" />
    <use id="83888646-71ce-4f1c-9c53-c54016f6ad4f" name="jetbrains.mps.baseLanguage.collections" version="0" />
    <use id="a247e09e-2435-45ba-b8d2-07e93feba96a" name="jetbrains.mps.baseLanguage.tuples" version="0" />
    <use id="aee9cad2-acd4-4608-aef2-0004f6a1cdbd" name="jetbrains.mps.lang.actions" version="0" />
    <use id="3a13115c-633c-4c5c-bbcc-75c4219e9555" name="jetbrains.mps.lang.quotation" version="0" />
    <use id="13744753-c81f-424a-9c1b-cf8943bf4e86" name="jetbrains.mps.lang.sharedConcepts" version="0" />
    <use id="696c1165-4a59-463b-bc5d-902caab85dd0" name="jetbrains.mps.make.facet" version="0" />
    <use id="7866978e-a0f0-4cc7-81bc-4d213d9375e1" name="jetbrains.mps.lang.smodel" version="4" />
    <use id="f3061a53-9226-4cc5-a443-f952ceaf5816" name="jetbrains.mps.baseLanguage" version="4" />
    <devkit ref="fbc25dd2-5da4-483a-8b19-70928e1b62d7(jetbrains.mps.devkit.general-purpose)" />
  </languages>
  <imports>
    <import index="vvvw" ref="r:b16ff46d-fa06-479d-9f5c-5b6e17e7f1b2(jetbrains.mps.make.facet.structure)" />
    <import index="vke5" ref="r:32324a64-526d-42e5-8157-b55154efce2d(jetbrains.mps.make.facet.behavior)" />
    <import index="tpee" ref="r:00000000-0000-4000-0000-011c895902ca(jetbrains.mps.baseLanguage.structure)" />
    <import index="cx9y" ref="r:309aeee7-bee8-445c-b31d-35928d1da75f(jetbrains.mps.baseLanguage.tuples.structure)" />
    <import index="tpck" ref="r:00000000-0000-4000-0000-011c89590288(jetbrains.mps.lang.core.structure)" implicit="true" />
  </imports>
  <registry>
    <language id="a247e09e-2435-45ba-b8d2-07e93feba96a" name="jetbrains.mps.baseLanguage.tuples">
      <concept id="1239576519914" name="jetbrains.mps.baseLanguage.tuples.structure.NamedTupleComponentAccessOperation" flags="nn" index="2sxana" />
      <concept id="1238852151516" name="jetbrains.mps.baseLanguage.tuples.structure.IndexedTupleType" flags="in" index="1LlUBW">
        <child id="1238852204892" name="componentType" index="1Lm7xW" />
      </concept>
      <concept id="1238853782547" name="jetbrains.mps.baseLanguage.tuples.structure.IndexedTupleLiteral" flags="nn" index="1Ls8ON">
        <child id="1238853845806" name="component" index="1Lso8e" />
      </concept>
      <concept id="1238857743184" name="jetbrains.mps.baseLanguage.tuples.structure.IndexedTupleMemberAccessExpression" flags="nn" index="1LFfDK">
        <child id="1238857764950" name="tuple" index="1LFl5Q" />
        <child id="1238857834412" name="index" index="1LF_Uc" />
      </concept>
    </language>
    <language id="13744753-c81f-424a-9c1b-cf8943bf4e86" name="jetbrains.mps.lang.sharedConcepts">
      <concept id="1161622665029" name="jetbrains.mps.lang.sharedConcepts.structure.ConceptFunctionParameter_model" flags="nn" index="1Q6Npb" />
    </language>
    <language id="f3061a53-9226-4cc5-a443-f952ceaf5816" name="jetbrains.mps.baseLanguage">
      <concept id="1215693861676" name="jetbrains.mps.baseLanguage.structure.BaseAssignmentExpression" flags="nn" index="d038R">
        <child id="1068498886297" name="rValue" index="37vLTx" />
        <child id="1068498886295" name="lValue" index="37vLTJ" />
      </concept>
      <concept id="4836112446988635817" name="jetbrains.mps.baseLanguage.structure.UndefinedType" flags="in" index="2jxLKc" />
      <concept id="1154032098014" name="jetbrains.mps.baseLanguage.structure.AbstractLoopStatement" flags="nn" index="2LF5Ji">
        <child id="1154032183016" name="body" index="2LFqv$" />
      </concept>
      <concept id="1197027756228" name="jetbrains.mps.baseLanguage.structure.DotExpression" flags="nn" index="2OqwBi">
        <child id="1197027771414" name="operand" index="2Oq$k0" />
        <child id="1197027833540" name="operation" index="2OqNvi" />
      </concept>
      <concept id="1197027803184" name="jetbrains.mps.baseLanguage.structure.IOperation" flags="ng" index="2OqG4A" />
      <concept id="1145552977093" name="jetbrains.mps.baseLanguage.structure.GenericNewExpression" flags="nn" index="2ShNRf">
        <child id="1145553007750" name="creator" index="2ShVmc" />
      </concept>
      <concept id="1137021947720" name="jetbrains.mps.baseLanguage.structure.ConceptFunction" flags="in" index="2VMwT0">
        <child id="1137022507850" name="body" index="2VODD2" />
      </concept>
      <concept id="1070475926800" name="jetbrains.mps.baseLanguage.structure.StringLiteral" flags="nn" index="Xl_RD">
        <property id="1070475926801" name="value" index="Xl_RC" />
      </concept>
      <concept id="1068431474542" name="jetbrains.mps.baseLanguage.structure.VariableDeclaration" flags="ng" index="33uBYm">
        <child id="1068431790190" name="initializer" index="33vP2m" />
      </concept>
      <concept id="1068498886296" name="jetbrains.mps.baseLanguage.structure.VariableReference" flags="nn" index="37vLTw">
        <reference id="1068581517664" name="variableDeclaration" index="3cqZAo" />
      </concept>
      <concept id="1068498886294" name="jetbrains.mps.baseLanguage.structure.AssignmentExpression" flags="nn" index="37vLTI" />
      <concept id="4972933694980447171" name="jetbrains.mps.baseLanguage.structure.BaseVariableDeclaration" flags="ng" index="19Szcq">
        <child id="5680397130376446158" name="type" index="1tU5fm" />
      </concept>
      <concept id="1068580123155" name="jetbrains.mps.baseLanguage.structure.ExpressionStatement" flags="nn" index="3clFbF">
        <child id="1068580123156" name="expression" index="3clFbG" />
      </concept>
      <concept id="1068580123136" name="jetbrains.mps.baseLanguage.structure.StatementList" flags="sn" stub="5293379017992965193" index="3clFbS">
        <child id="1068581517665" name="statement" index="3cqZAp" />
      </concept>
      <concept id="1068580123137" name="jetbrains.mps.baseLanguage.structure.BooleanConstant" flags="nn" index="3clFbT">
        <property id="1068580123138" name="value" index="3clFbU" />
      </concept>
      <concept id="1068580320020" name="jetbrains.mps.baseLanguage.structure.IntegerConstant" flags="nn" index="3cmrfG">
        <property id="1068580320021" name="value" index="3cmrfH" />
      </concept>
      <concept id="1068581242875" name="jetbrains.mps.baseLanguage.structure.PlusExpression" flags="nn" index="3cpWs3" />
      <concept id="1068581242878" name="jetbrains.mps.baseLanguage.structure.ReturnStatement" flags="nn" index="3cpWs6">
        <child id="1068581517676" name="expression" index="3cqZAk" />
      </concept>
      <concept id="1068581242864" name="jetbrains.mps.baseLanguage.structure.LocalVariableDeclarationStatement" flags="nn" index="3cpWs8">
        <child id="1068581242865" name="localVariableDeclaration" index="3cpWs9" />
      </concept>
      <concept id="1068581242863" name="jetbrains.mps.baseLanguage.structure.LocalVariableDeclaration" flags="nr" index="3cpWsn" />
      <concept id="1081516740877" name="jetbrains.mps.baseLanguage.structure.NotExpression" flags="nn" index="3fqX7Q">
        <child id="1081516765348" name="expression" index="3fr31v" />
      </concept>
      <concept id="1204053956946" name="jetbrains.mps.baseLanguage.structure.IMethodCall" flags="ng" index="1ndlxa">
        <reference id="1068499141037" name="baseMethodDeclaration" index="37wK5l" />
      </concept>
      <concept id="1081773326031" name="jetbrains.mps.baseLanguage.structure.BinaryOperation" flags="nn" index="3uHJSO">
        <child id="1081773367579" name="rightExpression" index="3uHU7w" />
        <child id="1081773367580" name="leftExpression" index="3uHU7B" />
      </concept>
      <concept id="1073239437375" name="jetbrains.mps.baseLanguage.structure.NotEqualsExpression" flags="nn" index="3y3z36" />
      <concept id="1144226303539" name="jetbrains.mps.baseLanguage.structure.ForeachStatement" flags="nn" index="1DcWWT">
        <child id="1144226360166" name="iterable" index="1DdaDG" />
      </concept>
      <concept id="1144230876926" name="jetbrains.mps.baseLanguage.structure.AbstractForStatement" flags="nn" index="1DupvO">
        <child id="1144230900587" name="variable" index="1Duv9x" />
      </concept>
    </language>
    <language id="fd392034-7849-419d-9071-12563d152375" name="jetbrains.mps.baseLanguage.closures">
      <concept id="1200830824066" name="jetbrains.mps.baseLanguage.closures.structure.YieldStatement" flags="nn" index="2n63Yl">
        <child id="1200830928149" name="expression" index="2n6tg2" />
      </concept>
      <concept id="1199569711397" name="jetbrains.mps.baseLanguage.closures.structure.ClosureLiteral" flags="nn" index="1bVj0M">
        <child id="1199569906740" name="parameter" index="1bW2Oz" />
        <child id="1199569916463" name="body" index="1bW5cS" />
      </concept>
    </language>
    <language id="696c1165-4a59-463b-bc5d-902caab85dd0" name="jetbrains.mps.make.facet">
      <concept id="3344436107830227889" name="jetbrains.mps.make.facet.structure.ForeignParametersComponentExpression" flags="nn" index="2bn25q" />
      <concept id="3344436107830227888" name="jetbrains.mps.make.facet.structure.ForeignParametersExpression" flags="nn" index="2bn25r" />
      <concept id="1919086248986845077" name="jetbrains.mps.make.facet.structure.NamedFacetReference" flags="ng" index="2e$Q_j" />
      <concept id="7178445679340358576" name="jetbrains.mps.make.facet.structure.FacetReferenceExpression" flags="nn" index="2n6ZRZ">
        <child id="7178445679340358578" name="reference" index="2n6ZRX" />
      </concept>
    </language>
    <language id="3a13115c-633c-4c5c-bbcc-75c4219e9555" name="jetbrains.mps.lang.quotation">
      <concept id="1196350785110" name="jetbrains.mps.lang.quotation.structure.AbstractAntiquotation" flags="ng" index="2c44t0">
        <property id="6489343236075007666" name="label" index="3hQQBS" />
        <child id="1196350785111" name="expression" index="2c44t1" />
      </concept>
      <concept id="1196350785117" name="jetbrains.mps.lang.quotation.structure.ReferenceAntiquotation" flags="ng" index="2c44tb" />
      <concept id="1196350785112" name="jetbrains.mps.lang.quotation.structure.Antiquotation" flags="ng" index="2c44te" />
      <concept id="1196350785113" name="jetbrains.mps.lang.quotation.structure.Quotation" flags="nn" index="2c44tf">
        <child id="1196350785114" name="quotedNode" index="2c44tc" />
      </concept>
    </language>
    <language id="aee9cad2-acd4-4608-aef2-0004f6a1cdbd" name="jetbrains.mps.lang.actions">
      <concept id="5979988948250981289" name="jetbrains.mps.lang.actions.structure.SNodeCreatorAndInitializer" flags="nn" index="2fJWfE" />
      <concept id="1196433923911" name="jetbrains.mps.lang.actions.structure.SideTransform_SimpleString" flags="nn" index="2h1dTh">
        <property id="1196433942569" name="text" index="2h1i$Z" />
      </concept>
      <concept id="1177323996388" name="jetbrains.mps.lang.actions.structure.AddMenuPart" flags="ng" index="tYCnQ" />
      <concept id="1177333529597" name="jetbrains.mps.lang.actions.structure.ConceptPart" flags="ng" index="uyZFJ">
        <reference id="1177333551023" name="concept" index="uz4UX" />
        <child id="1177333559040" name="part" index="uz6Si" />
      </concept>
      <concept id="1177337641126" name="jetbrains.mps.lang.actions.structure.ParameterizedSubstituteMenuPart" flags="ng" index="uMFAO">
        <child id="1177337679534" name="type" index="uMOYW" />
        <child id="1177338017561" name="query" index="uO7ob" />
        <child id="1177339176647" name="matchingText" index="uSyvl" />
        <child id="1177339186632" name="descriptionText" index="uS$Nq" />
        <child id="1177339421668" name="handler" index="uTubQ" />
      </concept>
      <concept id="1177337833147" name="jetbrains.mps.lang.actions.structure.ConceptFunctionParameter_parameterObject" flags="nn" index="uNquD" />
      <concept id="1177337890340" name="jetbrains.mps.lang.actions.structure.QueryFunction_ParameterizedSubstitute_Query" flags="in" index="uNCsQ" />
      <concept id="1177339114370" name="jetbrains.mps.lang.actions.structure.QueryFunction_ParameterizedSubstitute_String" flags="in" index="uSjag" />
      <concept id="1177339225103" name="jetbrains.mps.lang.actions.structure.QueryFunction_ParameterizedSubstitute_Handler" flags="in" index="uSIkt" />
      <concept id="1177409831820" name="jetbrains.mps.lang.actions.structure.RemovePart" flags="ng" index="z64au">
        <reference id="1177409838946" name="conceptToRemove" index="z65TK" />
      </concept>
      <concept id="1177497140107" name="jetbrains.mps.lang.actions.structure.ConceptFunctionParameter_sourceNode" flags="nn" index="Cj7Ep" />
      <concept id="1177498013932" name="jetbrains.mps.lang.actions.structure.SimpleSideTransformMenuPart" flags="ng" index="Cmt7Y">
        <child id="1177498166690" name="matchingText" index="Cn2iK" />
        <child id="1177498182537" name="descriptionText" index="Cn6ar" />
        <child id="1177498207384" name="handler" index="Cncma" />
      </concept>
      <concept id="1177498071304" name="jetbrains.mps.lang.actions.structure.QueryFunction_SideTransform_String" flags="in" index="CmF0q" />
      <concept id="1177498227294" name="jetbrains.mps.lang.actions.structure.QueryFunction_SideTransform_Handler" flags="in" index="Cnhdc" />
      <concept id="1177508764419" name="jetbrains.mps.lang.actions.structure.ParameterizedSideTransformMenuPart" flags="ng" index="CZtCh">
        <child id="1177508914797" name="type" index="D02tZ" />
        <child id="1177508922313" name="query" index="D04br" />
        <child id="1177508933220" name="matchingText" index="D06XQ" />
        <child id="1177508966300" name="handler" index="D0eUe" />
      </concept>
      <concept id="1177508842676" name="jetbrains.mps.lang.actions.structure.QueryFunction_ParameterizedSideTransform_Query" flags="in" index="CZKQA" />
      <concept id="1177509289232" name="jetbrains.mps.lang.actions.structure.QueryFunction_ParameterizedSideTransform_Handler" flags="in" index="D1tK2" />
      <concept id="767145758118872833" name="jetbrains.mps.lang.actions.structure.NF_LinkList_AddNewChildOperation" flags="nn" index="2DeJg1" />
      <concept id="1177614709184" name="jetbrains.mps.lang.actions.structure.RemoveDefaultsPart" flags="ng" index="JjB3i" />
      <concept id="1180111159572" name="jetbrains.mps.lang.actions.structure.IncludeRightTransformForNodePart" flags="ng" index="346O06">
        <child id="1180111489972" name="nodeBlock" index="3484EA" />
      </concept>
      <concept id="5480835971642155304" name="jetbrains.mps.lang.actions.structure.NF_Model_CreateNewNodeOperation" flags="nn" index="15TzpJ" />
      <concept id="1158700664498" name="jetbrains.mps.lang.actions.structure.NodeFactories" flags="ng" index="37WguZ">
        <child id="1158700779049" name="nodeFactory" index="37WGs$" />
      </concept>
      <concept id="1158700725281" name="jetbrains.mps.lang.actions.structure.NodeFactory" flags="ig" index="37WvkG">
        <reference id="1158700943156" name="applicableConcept" index="37XkoT" />
        <child id="1158701448518" name="setupFunction" index="37ZfLb" />
      </concept>
      <concept id="1158701162220" name="jetbrains.mps.lang.actions.structure.NodeSetupFunction" flags="in" index="37Y9Zx" />
      <concept id="1154465102724" name="jetbrains.mps.lang.actions.structure.NodeSubstitutePreconditionFunction" flags="in" index="3buRE8" />
      <concept id="1154465273778" name="jetbrains.mps.lang.actions.structure.ConceptFunctionParameter_parentNode" flags="nn" index="3bvxqY" />
      <concept id="1154622616118" name="jetbrains.mps.lang.actions.structure.SideTransformHintSubstitutePreconditionFunction" flags="in" index="3kRJcU" />
      <concept id="5584396657084912703" name="jetbrains.mps.lang.actions.structure.NodeSetupFunction_NewNode" flags="nn" index="1r4Lsj" />
      <concept id="1178537049112" name="jetbrains.mps.lang.actions.structure.QueryFunction_SideTransform_NodeQuery" flags="in" index="1Ai3Oa" />
      <concept id="1112056943463" name="jetbrains.mps.lang.actions.structure.NodeSubstituteActions" flags="ng" index="3FK_9_">
        <child id="1112058057696" name="actionsBuilder" index="3FOPby" />
      </concept>
      <concept id="1112058030570" name="jetbrains.mps.lang.actions.structure.NodeSubstituteActionsBuilder" flags="ig" index="3FOIzC">
        <reference id="1112058088712" name="applicableConcept" index="3FOWKa" />
        <child id="1177324142645" name="part" index="tZc4B" />
        <child id="1154465386371" name="precondition" index="3bvWUf" />
      </concept>
      <concept id="1138079221458" name="jetbrains.mps.lang.actions.structure.SideTransformHintSubstituteActionsBuilder" flags="ig" index="3UNGvq">
        <property id="1215605257730" name="side" index="7I3sp" />
        <property id="1140829165817" name="transformTag" index="2uHTBK" />
        <reference id="1138079221462" name="applicableConcept" index="3UNGvu" />
        <child id="1177442283389" name="part" index="_1QTJ" />
        <child id="1154622757656" name="precondition" index="3kShCk" />
      </concept>
      <concept id="1138079416598" name="jetbrains.mps.lang.actions.structure.SideTransformHintSubstituteActions" flags="ng" index="3UOs0u">
        <child id="1138079416599" name="actionsBuilder" index="3UOs0v" />
      </concept>
    </language>
    <language id="7866978e-a0f0-4cc7-81bc-4d213d9375e1" name="jetbrains.mps.lang.smodel">
      <concept id="1177026924588" name="jetbrains.mps.lang.smodel.structure.RefConcept_Reference" flags="nn" index="chp4Y">
        <reference id="1177026940964" name="conceptDeclaration" index="cht4Q" />
      </concept>
      <concept id="1138411891628" name="jetbrains.mps.lang.smodel.structure.SNodeOperation" flags="nn" index="eCIE_">
        <child id="1144104376918" name="parameter" index="1xVPHs" />
      </concept>
      <concept id="1140725362528" name="jetbrains.mps.lang.smodel.structure.Link_SetTargetOperation" flags="nn" index="2oxUTD">
        <child id="1140725362529" name="linkTarget" index="2oxUTC" />
      </concept>
      <concept id="1179409122411" name="jetbrains.mps.lang.smodel.structure.Node_ConceptMethodCall" flags="nn" index="2qgKlT" />
      <concept id="1138757581985" name="jetbrains.mps.lang.smodel.structure.Link_SetNewChildOperation" flags="nn" index="zfrQC" />
      <concept id="2396822768958367367" name="jetbrains.mps.lang.smodel.structure.AbstractTypeCastExpression" flags="nn" index="$5XWr">
        <reference id="6733348108486823428" name="concept" index="1m5ApE" />
        <child id="6733348108486823193" name="leftExpression" index="1m5AlR" />
      </concept>
      <concept id="1143235216708" name="jetbrains.mps.lang.smodel.structure.Model_CreateNewNodeOperation" flags="nn" index="I8ghe">
        <reference id="1143235391024" name="concept" index="I8UWU" />
      </concept>
      <concept id="1171407110247" name="jetbrains.mps.lang.smodel.structure.Node_GetAncestorOperation" flags="nn" index="2Xjw5R" />
      <concept id="1240170042401" name="jetbrains.mps.lang.smodel.structure.SEnumMemberType" flags="in" index="2ZThk1">
        <reference id="1240170836027" name="enum" index="2ZWj4r" />
      </concept>
      <concept id="1240171359678" name="jetbrains.mps.lang.smodel.structure.EnumMember_ValueOperation" flags="nn" index="2ZYiMu" />
      <concept id="1240173327827" name="jetbrains.mps.lang.smodel.structure.EnumMember_NameOperation" flags="nn" index="305NjN" />
      <concept id="1182511038748" name="jetbrains.mps.lang.smodel.structure.Model_NodesIncludingImportedOperation" flags="nn" index="1j9C0f">
        <reference id="1182511038750" name="concept" index="1j9C0d" />
      </concept>
      <concept id="1139613262185" name="jetbrains.mps.lang.smodel.structure.Node_GetParentOperation" flags="nn" index="1mfA1w" />
      <concept id="1139621453865" name="jetbrains.mps.lang.smodel.structure.Node_IsInstanceOfOperation" flags="nn" index="1mIQ4w">
        <child id="1177027386292" name="conceptArgument" index="cj9EA" />
      </concept>
      <concept id="1171999116870" name="jetbrains.mps.lang.smodel.structure.Node_IsNullOperation" flags="nn" index="3w_OXm" />
      <concept id="1172008320231" name="jetbrains.mps.lang.smodel.structure.Node_IsNotNullOperation" flags="nn" index="3x8VRR" />
      <concept id="1144101972840" name="jetbrains.mps.lang.smodel.structure.OperationParm_Concept" flags="ng" index="1xMEDy">
        <child id="1207343664468" name="conceptArgument" index="ri$Ld" />
      </concept>
      <concept id="1180636770613" name="jetbrains.mps.lang.smodel.structure.SNodeCreator" flags="nn" index="3zrR0B">
        <child id="1180636770616" name="createdType" index="3zrR0E" />
      </concept>
      <concept id="1139867745658" name="jetbrains.mps.lang.smodel.structure.Node_ReplaceWithNewOperation" flags="nn" index="1_qnLN">
        <reference id="1139867957129" name="concept" index="1_rbq0" />
      </concept>
      <concept id="1240930118027" name="jetbrains.mps.lang.smodel.structure.SEnumOperationInvocation" flags="nn" index="3HcIyF">
        <reference id="1240930118028" name="enumDeclaration" index="3HcIyG" />
        <child id="1240930317927" name="operation" index="3Hdvt7" />
      </concept>
      <concept id="1240930444980" name="jetbrains.mps.lang.smodel.structure.SEnum_MembersOperation" flags="ng" index="3HdYuk" />
      <concept id="1140137987495" name="jetbrains.mps.lang.smodel.structure.SNodeTypeCastExpression" flags="nn" index="1PxgMI" />
      <concept id="1138055754698" name="jetbrains.mps.lang.smodel.structure.SNodeType" flags="in" index="3Tqbb2">
        <reference id="1138405853777" name="concept" index="ehGHo" />
      </concept>
      <concept id="1138056022639" name="jetbrains.mps.lang.smodel.structure.SPropertyAccess" flags="nn" index="3TrcHB">
        <reference id="1138056395725" name="property" index="3TsBF5" />
      </concept>
      <concept id="1138056143562" name="jetbrains.mps.lang.smodel.structure.SLinkAccess" flags="nn" index="3TrEf2">
        <reference id="1138056516764" name="link" index="3Tt5mk" />
      </concept>
      <concept id="1138056282393" name="jetbrains.mps.lang.smodel.structure.SLinkListAccess" flags="nn" index="3Tsc0h">
        <reference id="1138056546658" name="link" index="3TtcxE" />
      </concept>
    </language>
    <language id="ceab5195-25ea-4f22-9b92-103b95ca8c0c" name="jetbrains.mps.lang.core">
      <concept id="1133920641626" name="jetbrains.mps.lang.core.structure.BaseConcept" flags="ng" index="2VYdi">
        <property id="1193676396447" name="virtualPackage" index="3GE5qa" />
        <child id="5169995583184591170" name="smodelAttribute" index="lGtFl" />
      </concept>
      <concept id="3364660638048049745" name="jetbrains.mps.lang.core.structure.LinkAttribute" flags="ng" index="A9Btn">
        <property id="1757699476691236116" name="linkRole" index="2qtEX8" />
        <property id="1341860900488019036" name="linkId" index="P3scX" />
      </concept>
      <concept id="1169194658468" name="jetbrains.mps.lang.core.structure.INamedConcept" flags="ng" index="TrEIO">
        <property id="1169194664001" name="name" index="TrG5h" />
      </concept>
    </language>
    <language id="83888646-71ce-4f1c-9c53-c54016f6ad4f" name="jetbrains.mps.baseLanguage.collections">
      <concept id="1204796164442" name="jetbrains.mps.baseLanguage.collections.structure.InternalSequenceOperation" flags="nn" index="23sCx2">
        <child id="1204796294226" name="closure" index="23t8la" />
      </concept>
      <concept id="1176906603202" name="jetbrains.mps.baseLanguage.collections.structure.BinaryOperation" flags="nn" index="56pJg">
        <child id="1176906787974" name="rightExpression" index="576Qk" />
      </concept>
      <concept id="540871147943773365" name="jetbrains.mps.baseLanguage.collections.structure.SingleArgumentSequenceOperation" flags="nn" index="25WWJ4">
        <child id="540871147943773366" name="argument" index="25WWJ7" />
      </concept>
      <concept id="1151689724996" name="jetbrains.mps.baseLanguage.collections.structure.SequenceType" flags="in" index="A3Dl8">
        <child id="1151689745422" name="elementType" index="A3Ik2" />
      </concept>
      <concept id="1151702311717" name="jetbrains.mps.baseLanguage.collections.structure.ToListOperation" flags="nn" index="ANE8D" />
      <concept id="1203518072036" name="jetbrains.mps.baseLanguage.collections.structure.SmartClosureParameterDeclaration" flags="ig" index="Rh6nW" />
      <concept id="1201792049884" name="jetbrains.mps.baseLanguage.collections.structure.TranslateOperation" flags="nn" index="3goQfb" />
      <concept id="1202120902084" name="jetbrains.mps.baseLanguage.collections.structure.WhereOperation" flags="nn" index="3zZkjj" />
      <concept id="1202128969694" name="jetbrains.mps.baseLanguage.collections.structure.SelectOperation" flags="nn" index="3$u5V9" />
      <concept id="1172254888721" name="jetbrains.mps.baseLanguage.collections.structure.ContainsOperation" flags="nn" index="3JPx81" />
      <concept id="1180964022718" name="jetbrains.mps.baseLanguage.collections.structure.ConcatOperation" flags="nn" index="3QWeyG" />
    </language>
  </registry>
  <node concept="3FK_9_" id="7fB872ucuDB">
    <property role="TrG5h" value="TargetDependency_variants" />
    <node concept="3FOIzC" id="7fB872ucuDC" role="3FOPby">
      <ref role="3FOWKa" to="vvvw:5$iCEGsO$Lw" resolve="TargetDependency" />
      <node concept="JjB3i" id="7fB872ucuDH" role="tZc4B" />
      <node concept="tYCnQ" id="7fB872ucz2V" role="tZc4B">
        <ref role="uz4UX" to="vvvw:5$iCEGsO$Lw" resolve="TargetDependency" />
        <node concept="uMFAO" id="7fB872ucz3e" role="uz6Si">
          <node concept="uNCsQ" id="7fB872ucz3g" role="uO7ob">
            <node concept="3clFbS" id="7fB872ucz3h" role="2VODD2">
              <node concept="3cpWs8" id="7fB872uczuA" role="3cqZAp">
                <node concept="3cpWsn" id="7fB872uczuB" role="3cpWs9">
                  <property role="TrG5h" value="relatedFacets" />
                  <node concept="A3Dl8" id="7fB872uczuC" role="1tU5fm">
                    <node concept="3Tqbb2" id="7fB872uczuD" role="A3Ik2">
                      <ref role="ehGHo" to="vvvw:5$iCEGsO$Kj" resolve="FacetDeclaration" />
                    </node>
                  </node>
                  <node concept="2OqwBi" id="7fB872uczuF" role="33vP2m">
                    <node concept="2OqwBi" id="7fB872uczuG" role="2Oq$k0">
                      <node concept="3bvxqY" id="7fB872uczv8" role="2Oq$k0" />
                      <node concept="2Xjw5R" id="7fB872uczuI" role="2OqNvi">
                        <node concept="1xMEDy" id="7fB872uczuJ" role="1xVPHs">
                          <node concept="chp4Y" id="7fB872uczuK" role="ri$Ld">
                            <ref role="cht4Q" to="vvvw:5$iCEGsO$Kj" resolve="FacetDeclaration" />
                          </node>
                        </node>
                      </node>
                    </node>
                    <node concept="2qgKlT" id="7fB872uczuL" role="2OqNvi">
                      <ref role="37wK5l" to="vke5:7fB872uckWE" resolve="allRelated" />
                    </node>
                  </node>
                </node>
              </node>
              <node concept="3clFbF" id="7fB872uczuO" role="3cqZAp">
                <node concept="2OqwBi" id="7fB872uczvP" role="3clFbG">
                  <node concept="2OqwBi" id="7fB872uczvb" role="2Oq$k0">
                    <node concept="2OqwBi" id="7fB872uczuP" role="2Oq$k0">
                      <node concept="2OqwBi" id="7fB872uczuQ" role="2Oq$k0">
                        <node concept="1Q6Npb" id="7fB872uczuR" role="2Oq$k0" />
                        <node concept="1j9C0f" id="7fB872uczuS" role="2OqNvi">
                          <ref role="1j9C0d" to="vvvw:5$iCEGsO$KX" resolve="TargetDeclaration" />
                        </node>
                      </node>
                      <node concept="3zZkjj" id="7fB872uczuU" role="2OqNvi">
                        <node concept="1bVj0M" id="7fB872uczuV" role="23t8la">
                          <node concept="3clFbS" id="7fB872uczuW" role="1bW5cS">
                            <node concept="3clFbF" id="7fB872uczuX" role="3cqZAp">
                              <node concept="2OqwBi" id="7fB872uczuY" role="3clFbG">
                                <node concept="37vLTw" id="3GM_nagT$2H" role="2Oq$k0">
                                  <ref role="3cqZAo" node="7fB872uczuB" resolve="relatedFacets" />
                                </node>
                                <node concept="3JPx81" id="7fB872uczv0" role="2OqNvi">
                                  <node concept="2OqwBi" id="7fB872uczv1" role="25WWJ7">
                                    <node concept="37vLTw" id="2BHiRxglVlC" role="2Oq$k0">
                                      <ref role="3cqZAo" node="7fB872uczv6" resolve="fct" />
                                    </node>
                                    <node concept="2Xjw5R" id="7fB872uczv3" role="2OqNvi">
                                      <node concept="1xMEDy" id="7fB872uczv4" role="1xVPHs">
                                        <node concept="chp4Y" id="7fB872uczv5" role="ri$Ld">
                                          <ref role="cht4Q" to="vvvw:5$iCEGsO$Kj" resolve="FacetDeclaration" />
                                        </node>
                                      </node>
                                    </node>
                                  </node>
                                </node>
                              </node>
                            </node>
                          </node>
                          <node concept="Rh6nW" id="7fB872uczv6" role="1bW2Oz">
                            <property role="TrG5h" value="fct" />
                            <node concept="2jxLKc" id="1P4c1XrzTbY" role="1tU5fm" />
                          </node>
                        </node>
                      </node>
                    </node>
                    <node concept="3goQfb" id="7fB872uczvf" role="2OqNvi">
                      <node concept="1bVj0M" id="7fB872uczvg" role="23t8la">
                        <node concept="3clFbS" id="7fB872uczvh" role="1bW5cS">
                          <node concept="1DcWWT" id="7fB872uczvq" role="3cqZAp">
                            <node concept="3clFbS" id="7fB872uczvr" role="2LFqv$">
                              <node concept="2n63Yl" id="7fB872uczvw" role="3cqZAp">
                                <node concept="1Ls8ON" id="7fB872uczvy" role="2n6tg2">
                                  <node concept="37vLTw" id="3GM_nagTyb$" role="1Lso8e">
                                    <ref role="3cqZAo" node="7fB872uczvs" resolve="em" />
                                  </node>
                                  <node concept="37vLTw" id="2BHiRxglKYS" role="1Lso8e">
                                    <ref role="3cqZAo" node="7fB872uczvi" resolve="td" />
                                  </node>
                                </node>
                              </node>
                            </node>
                            <node concept="3cpWsn" id="7fB872uczvs" role="1Duv9x">
                              <property role="TrG5h" value="em" />
                              <node concept="2ZThk1" id="7fB872uczvt" role="1tU5fm">
                                <ref role="2ZWj4r" to="vvvw:7fB872ucjBy" resolve="TargetDependencyQualifier" />
                              </node>
                            </node>
                            <node concept="3HcIyF" id="7fB872uczvu" role="1DdaDG">
                              <ref role="3HcIyG" to="vvvw:7fB872ucjBy" resolve="TargetDependencyQualifier" />
                              <node concept="3HdYuk" id="7fB872uczvv" role="3Hdvt7" />
                            </node>
                          </node>
                        </node>
                        <node concept="Rh6nW" id="7fB872uczvi" role="1bW2Oz">
                          <property role="TrG5h" value="td" />
                          <node concept="2jxLKc" id="1P4c1XrzT8E" role="1tU5fm" />
                        </node>
                      </node>
                    </node>
                  </node>
                  <node concept="ANE8D" id="7fB872uczvU" role="2OqNvi" />
                </node>
              </node>
            </node>
          </node>
          <node concept="uSIkt" id="7fB872ucz3i" role="uTubQ">
            <node concept="3clFbS" id="7fB872ucz3j" role="2VODD2">
              <node concept="3cpWs8" id="7fB872uczw_" role="3cqZAp">
                <node concept="3cpWsn" id="7fB872uczwA" role="3cpWs9">
                  <property role="TrG5h" value="dep" />
                  <node concept="3Tqbb2" id="7fB872uczwB" role="1tU5fm">
                    <ref role="ehGHo" to="vvvw:5$iCEGsO$Lw" resolve="TargetDependency" />
                  </node>
                  <node concept="2OqwBi" id="7fB872uczwC" role="33vP2m">
                    <node concept="1Q6Npb" id="7fB872uczwD" role="2Oq$k0" />
                    <node concept="15TzpJ" id="ma$$LuAX3C" role="2OqNvi">
                      <ref role="I8UWU" to="vvvw:5$iCEGsO$Lw" resolve="TargetDependency" />
                    </node>
                  </node>
                </node>
              </node>
              <node concept="3clFbF" id="7fB872uczwG" role="3cqZAp">
                <node concept="37vLTI" id="7fB872uczwN" role="3clFbG">
                  <node concept="2OqwBi" id="AzRaNHQ7nZ" role="37vLTx">
                    <node concept="1LFfDK" id="7fB872uczwR" role="2Oq$k0">
                      <node concept="3cmrfG" id="7fB872uczwU" role="1LF_Uc">
                        <property role="3cmrfH" value="0" />
                      </node>
                      <node concept="uNquD" id="7fB872uczwQ" role="1LFl5Q" />
                    </node>
                    <node concept="2ZYiMu" id="AzRaNHQ7o3" role="2OqNvi" />
                  </node>
                  <node concept="2OqwBi" id="7fB872uczwI" role="37vLTJ">
                    <node concept="37vLTw" id="3GM_nagTByS" role="2Oq$k0">
                      <ref role="3cqZAo" node="7fB872uczwA" resolve="dep" />
                    </node>
                    <node concept="3TrcHB" id="7fB872uczwM" role="2OqNvi">
                      <ref role="3TsBF5" to="vvvw:7fB872ucjBD" resolve="qualifier" />
                    </node>
                  </node>
                </node>
              </node>
              <node concept="3clFbF" id="7fB872uczwW" role="3cqZAp">
                <node concept="37vLTI" id="7fB872uczx7" role="3clFbG">
                  <node concept="1LFfDK" id="7fB872uczxb" role="37vLTx">
                    <node concept="3cmrfG" id="7fB872uczxe" role="1LF_Uc">
                      <property role="3cmrfH" value="1" />
                    </node>
                    <node concept="uNquD" id="7fB872uczxa" role="1LFl5Q" />
                  </node>
                  <node concept="2OqwBi" id="7fB872uczwY" role="37vLTJ">
                    <node concept="37vLTw" id="3GM_nagTBcd" role="2Oq$k0">
                      <ref role="3cqZAo" node="7fB872uczwA" resolve="dep" />
                    </node>
                    <node concept="3TrEf2" id="7fB872uczx2" role="2OqNvi">
                      <ref role="3Tt5mk" to="vvvw:5$iCEGsO$Lz" />
                    </node>
                  </node>
                </node>
              </node>
              <node concept="3clFbF" id="7fB872uczxg" role="3cqZAp">
                <node concept="37vLTw" id="3GM_nagT_e4" role="3clFbG">
                  <ref role="3cqZAo" node="7fB872uczwA" resolve="dep" />
                </node>
              </node>
            </node>
          </node>
          <node concept="1LlUBW" id="7fB872ucz3k" role="uMOYW">
            <node concept="2ZThk1" id="AzRaNHQ7nR" role="1Lm7xW">
              <ref role="2ZWj4r" to="vvvw:7fB872ucjBy" resolve="TargetDependencyQualifier" />
            </node>
            <node concept="3Tqbb2" id="7fB872uczuz" role="1Lm7xW">
              <ref role="ehGHo" to="vvvw:5$iCEGsO$KX" resolve="TargetDeclaration" />
            </node>
          </node>
          <node concept="uSjag" id="7fB872uczvX" role="uSyvl">
            <node concept="3clFbS" id="7fB872uczvY" role="2VODD2">
              <node concept="3clFbF" id="7fB872uczw0" role="3cqZAp">
                <node concept="3cpWs3" id="7fB872uczwh" role="3clFbG">
                  <node concept="2OqwBi" id="7fB872uczwp" role="3uHU7w">
                    <node concept="1LFfDK" id="7fB872uczwl" role="2Oq$k0">
                      <node concept="3cmrfG" id="7fB872uczwo" role="1LF_Uc">
                        <property role="3cmrfH" value="1" />
                      </node>
                      <node concept="uNquD" id="7fB872uczwk" role="1LFl5Q" />
                    </node>
                    <node concept="3TrcHB" id="7fB872uczwt" role="2OqNvi">
                      <ref role="3TsBF5" to="tpck:h0TrG11" resolve="name" />
                    </node>
                  </node>
                  <node concept="3cpWs3" id="7fB872uczwd" role="3uHU7B">
                    <node concept="2OqwBi" id="AzRaNHQ7nU" role="3uHU7B">
                      <node concept="1LFfDK" id="7fB872uczw9" role="2Oq$k0">
                        <node concept="3cmrfG" id="7fB872uczwc" role="1LF_Uc">
                          <property role="3cmrfH" value="0" />
                        </node>
                        <node concept="uNquD" id="7fB872uczw1" role="1LFl5Q" />
                      </node>
                      <node concept="305NjN" id="AzRaNHQ7nY" role="2OqNvi" />
                    </node>
                    <node concept="Xl_RD" id="7fB872uczwg" role="3uHU7w">
                      <property role="Xl_RC" value=" " />
                    </node>
                  </node>
                </node>
              </node>
            </node>
          </node>
        </node>
      </node>
    </node>
  </node>
  <node concept="37WguZ" id="6moN$OJ8EAo">
    <property role="TrG5h" value="Parameters_name" />
    <node concept="37WvkG" id="6moN$OJ8EAp" role="37WGs$">
      <ref role="37XkoT" to="vvvw:6moN$OJ8E_Y" resolve="ParametersDeclaration" />
      <node concept="37Y9Zx" id="6moN$OJ8EAq" role="37ZfLb">
        <node concept="3clFbS" id="6moN$OJ8EAr" role="2VODD2">
          <node concept="3clFbF" id="6moN$OJ8EAs" role="3cqZAp">
            <node concept="37vLTI" id="6moN$OJ8EAz" role="3clFbG">
              <node concept="Xl_RD" id="6moN$OJ8EAA" role="37vLTx">
                <property role="Xl_RC" value="Parameters" />
              </node>
              <node concept="2OqwBi" id="6moN$OJ8EAu" role="37vLTJ">
                <node concept="1r4Lsj" id="6moN$OJ8EAt" role="2Oq$k0" />
                <node concept="3TrcHB" id="6moN$OJ8EAy" role="2OqNvi">
                  <ref role="3TsBF5" to="tpck:h0TrG11" resolve="name" />
                </node>
              </node>
            </node>
          </node>
        </node>
      </node>
    </node>
  </node>
  <node concept="3FK_9_" id="6moN$OJ8LNZ">
    <property role="TrG5h" value="LocalParameters" />
    <node concept="3FOIzC" id="6moN$OJ8LO0" role="3FOPby">
      <ref role="3FOWKa" to="tpee:fz3vP1J" resolve="Expression" />
      <node concept="3buRE8" id="6moN$OJ8LO3" role="3bvWUf">
        <node concept="3clFbS" id="6moN$OJ8LO4" role="2VODD2">
          <node concept="3clFbF" id="6moN$OJ8LOj" role="3cqZAp">
            <node concept="2OqwBi" id="6moN$OJ8LOu" role="3clFbG">
              <node concept="2OqwBi" id="6moN$OJ8LOl" role="2Oq$k0">
                <node concept="3bvxqY" id="6moN$OJ8LOk" role="2Oq$k0" />
                <node concept="2Xjw5R" id="6moN$OJ8LOp" role="2OqNvi">
                  <node concept="1xMEDy" id="6moN$OJ8LOq" role="1xVPHs">
                    <node concept="chp4Y" id="6moN$OJ8LOt" role="ri$Ld">
                      <ref role="cht4Q" to="vvvw:5$iCEGsO$KX" resolve="TargetDeclaration" />
                    </node>
                  </node>
                </node>
              </node>
              <node concept="3x8VRR" id="6moN$OJ8LOy" role="2OqNvi" />
            </node>
          </node>
        </node>
      </node>
      <node concept="tYCnQ" id="6moN$OJ8LO$" role="tZc4B">
        <ref role="uz4UX" to="vvvw:6moN$OJ8LMN" resolve="LocalParametersComponentExpression" />
        <node concept="uMFAO" id="6moN$OJ8LO_" role="uz6Si">
          <node concept="uNCsQ" id="6moN$OJ8LOB" role="uO7ob">
            <node concept="3clFbS" id="6moN$OJ8LOC" role="2VODD2">
              <node concept="3clFbF" id="6moN$OJ8OFN" role="3cqZAp">
                <node concept="2OqwBi" id="6moN$OJ8OFY" role="3clFbG">
                  <node concept="2OqwBi" id="6moN$OJ8OFT" role="2Oq$k0">
                    <node concept="2OqwBi" id="6moN$OJ8OFO" role="2Oq$k0">
                      <node concept="3bvxqY" id="6moN$OJ8OFP" role="2Oq$k0" />
                      <node concept="2Xjw5R" id="6moN$OJ8OFQ" role="2OqNvi">
                        <node concept="1xMEDy" id="6moN$OJ8OFR" role="1xVPHs">
                          <node concept="chp4Y" id="6moN$OJ8OFS" role="ri$Ld">
                            <ref role="cht4Q" to="vvvw:5$iCEGsO$KX" resolve="TargetDeclaration" />
                          </node>
                        </node>
                      </node>
                    </node>
                    <node concept="3TrEf2" id="6moN$OJ8OFX" role="2OqNvi">
                      <ref role="3Tt5mk" to="vvvw:6moN$OJ8bJv" />
                    </node>
                  </node>
                  <node concept="3Tsc0h" id="6moN$OJ8OG2" role="2OqNvi">
                    <ref role="3TtcxE" to="cx9y:i2pHZMD" />
                  </node>
                </node>
              </node>
            </node>
          </node>
          <node concept="uSIkt" id="6moN$OJ8LOD" role="uTubQ">
            <node concept="3clFbS" id="6moN$OJ8LOE" role="2VODD2">
              <node concept="3cpWs8" id="6moN$OJ8OGu" role="3cqZAp">
                <node concept="3cpWsn" id="6moN$OJ8OGv" role="3cpWs9">
                  <property role="TrG5h" value="lve" />
                  <node concept="3Tqbb2" id="6moN$OJ8OGw" role="1tU5fm">
                    <ref role="ehGHo" to="vvvw:6moN$OJ8LMM" resolve="LocalParametersExpression" />
                  </node>
                  <node concept="2ShNRf" id="6moN$OJ8OGx" role="33vP2m">
                    <node concept="2fJWfE" id="ma$$LuAX3A" role="2ShVmc">
                      <node concept="3Tqbb2" id="ma$$LuAX3B" role="3zrR0E">
                        <ref role="ehGHo" to="vvvw:6moN$OJ8LMM" resolve="LocalParametersExpression" />
                      </node>
                    </node>
                  </node>
                </node>
              </node>
              <node concept="3cpWs8" id="6moN$OJ8U37" role="3cqZAp">
                <node concept="3cpWsn" id="6moN$OJ8U38" role="3cpWs9">
                  <property role="TrG5h" value="lvce" />
                  <node concept="3Tqbb2" id="6moN$OJ8U39" role="1tU5fm">
                    <ref role="ehGHo" to="vvvw:6moN$OJ8LMN" resolve="LocalParametersComponentExpression" />
                  </node>
                  <node concept="2ShNRf" id="6moN$OJ8U3a" role="33vP2m">
                    <node concept="2fJWfE" id="ma$$LuAX3$" role="2ShVmc">
                      <node concept="3Tqbb2" id="ma$$LuAX3_" role="3zrR0E">
                        <ref role="ehGHo" to="vvvw:6moN$OJ8LMN" resolve="LocalParametersComponentExpression" />
                      </node>
                    </node>
                  </node>
                </node>
              </node>
              <node concept="3clFbF" id="6moN$OJ8U3h" role="3cqZAp">
                <node concept="37vLTI" id="6moN$OJ8U3r" role="3clFbG">
                  <node concept="37vLTw" id="3GM_nagTsvm" role="37vLTx">
                    <ref role="3cqZAo" node="6moN$OJ8OGv" resolve="lve" />
                  </node>
                  <node concept="2OqwBi" id="6moN$OJ8U3j" role="37vLTJ">
                    <node concept="37vLTw" id="3GM_nagTus9" role="2Oq$k0">
                      <ref role="3cqZAo" node="6moN$OJ8U38" resolve="lvce" />
                    </node>
                    <node concept="3TrEf2" id="6moN$OJ8U3q" role="2OqNvi">
                      <ref role="3Tt5mk" to="vvvw:6moN$OJ8LMO" />
                    </node>
                  </node>
                </node>
              </node>
              <node concept="3clFbF" id="6moN$OJ8U3v" role="3cqZAp">
                <node concept="37vLTI" id="6moN$OJ8U3A" role="3clFbG">
                  <node concept="2c44tf" id="6moN$OJ8U3D" role="37vLTx">
                    <node concept="2sxana" id="6moN$OJ8U3F" role="2c44tc">
                      <node concept="2c44tb" id="6moN$OJ8U3G" role="lGtFl">
                        <property role="2qtEX8" value="component" />
                        <property role="3hQQBS" value="NamedTupleComponentAccessOperation" />
                        <property role="P3scX" value="a247e09e-2435-45ba-b8d2-07e93feba96a/1239576519914/1239576542472" />
                        <node concept="uNquD" id="6moN$OJ8U3I" role="2c44t1" />
                      </node>
                    </node>
                  </node>
                  <node concept="2OqwBi" id="6moN$OJ8U3x" role="37vLTJ">
                    <node concept="37vLTw" id="3GM_nagTuJV" role="2Oq$k0">
                      <ref role="3cqZAo" node="6moN$OJ8U38" resolve="lvce" />
                    </node>
                    <node concept="3TrEf2" id="6moN$OJ8U3_" role="2OqNvi">
                      <ref role="3Tt5mk" to="tpee:hqOqNr4" />
                    </node>
                  </node>
                </node>
              </node>
              <node concept="3cpWs6" id="6moN$OJ8U3K" role="3cqZAp">
                <node concept="37vLTw" id="3GM_nagTA2r" role="3cqZAk">
                  <ref role="3cqZAo" node="6moN$OJ8U38" resolve="lvce" />
                </node>
              </node>
            </node>
          </node>
          <node concept="3Tqbb2" id="6moN$OJ8OFM" role="uMOYW">
            <ref role="ehGHo" to="cx9y:i2lGYlf" resolve="NamedTupleComponentDeclaration" />
          </node>
          <node concept="uSjag" id="6moN$OJ8OG4" role="uSyvl">
            <node concept="3clFbS" id="6moN$OJ8OG5" role="2VODD2">
              <node concept="3clFbF" id="6moN$OJ8OG6" role="3cqZAp">
                <node concept="2OqwBi" id="6moN$OJ8OG8" role="3clFbG">
                  <node concept="uNquD" id="6moN$OJ8OG7" role="2Oq$k0" />
                  <node concept="3TrcHB" id="6moN$OJ8OGc" role="2OqNvi">
                    <ref role="3TsBF5" to="tpck:h0TrG11" resolve="name" />
                  </node>
                </node>
              </node>
            </node>
          </node>
        </node>
      </node>
    </node>
  </node>
  <node concept="3FK_9_" id="2TDOII_dy6J">
    <property role="TrG5h" value="ForeignParameters" />
    <node concept="3FOIzC" id="2TDOII_dy6K" role="3FOPby">
      <ref role="3FOWKa" to="tpee:fz3vP1J" resolve="Expression" />
      <node concept="tYCnQ" id="2TDOII_dy6N" role="tZc4B">
        <ref role="uz4UX" to="vvvw:2TDOII_dveL" resolve="ForeignParametersComponentExpression" />
        <node concept="uMFAO" id="2TDOII_dy6O" role="uz6Si">
          <node concept="uNCsQ" id="2TDOII_dy6Q" role="uO7ob">
            <node concept="3clFbS" id="2TDOII_dy6R" role="2VODD2">
              <node concept="3cpWs8" id="7HhdxNobZY0" role="3cqZAp">
                <node concept="3cpWsn" id="7HhdxNobZY1" role="3cpWs9">
                  <property role="TrG5h" value="td" />
                  <node concept="3Tqbb2" id="7HhdxNobZY2" role="1tU5fm">
                    <ref role="ehGHo" to="vvvw:5$iCEGsO$KX" resolve="TargetDeclaration" />
                  </node>
                  <node concept="2OqwBi" id="7HhdxNobZY3" role="33vP2m">
                    <node concept="3bvxqY" id="7HhdxNobZYI" role="2Oq$k0" />
                    <node concept="2Xjw5R" id="7HhdxNobZY5" role="2OqNvi">
                      <node concept="1xMEDy" id="7HhdxNobZY6" role="1xVPHs">
                        <node concept="chp4Y" id="7HhdxNobZY7" role="ri$Ld">
                          <ref role="cht4Q" to="vvvw:5$iCEGsO$KX" resolve="TargetDeclaration" />
                        </node>
                      </node>
                    </node>
                  </node>
                </node>
              </node>
              <node concept="3cpWs8" id="7HhdxNobZY8" role="3cqZAp">
                <node concept="3cpWsn" id="7HhdxNobZY9" role="3cpWs9">
                  <property role="TrG5h" value="fd" />
                  <node concept="3Tqbb2" id="7HhdxNobZYa" role="1tU5fm">
                    <ref role="ehGHo" to="vvvw:5$iCEGsO$Kj" resolve="FacetDeclaration" />
                  </node>
                  <node concept="1PxgMI" id="7HhdxNobZYb" role="33vP2m">
                    <ref role="1m5ApE" to="vvvw:5$iCEGsO$Kj" resolve="FacetDeclaration" />
                    <node concept="2OqwBi" id="7HhdxNobZYc" role="1m5AlR">
                      <node concept="37vLTw" id="3GM_nagTzN3" role="2Oq$k0">
                        <ref role="3cqZAo" node="7HhdxNobZY1" resolve="td" />
                      </node>
                      <node concept="1mfA1w" id="7HhdxNobZYe" role="2OqNvi" />
                    </node>
                  </node>
                </node>
              </node>
              <node concept="3clFbF" id="7X5vkuR$r$Q" role="3cqZAp">
                <node concept="2OqwBi" id="65xS0QGq6Sc" role="3clFbG">
                  <node concept="2OqwBi" id="65xS0QGq6Sd" role="2Oq$k0">
                    <node concept="2OqwBi" id="65xS0QGq6Sf" role="2Oq$k0">
                      <node concept="2OqwBi" id="65xS0QGq6Sg" role="2Oq$k0">
                        <node concept="2OqwBi" id="65xS0QGq6Sh" role="2Oq$k0">
                          <node concept="2OqwBi" id="65xS0QGq6Si" role="2Oq$k0">
                            <node concept="37vLTw" id="3GM_nagTzNC" role="2Oq$k0">
                              <ref role="3cqZAo" node="7HhdxNobZY9" resolve="fd" />
                            </node>
                            <node concept="3Tsc0h" id="65xS0QGq6Sk" role="2OqNvi">
                              <ref role="3TtcxE" to="vvvw:5$iCEGsP1kY" />
                            </node>
                          </node>
                          <node concept="3zZkjj" id="65xS0QGq6Sl" role="2OqNvi">
                            <node concept="1bVj0M" id="65xS0QGq6Sm" role="23t8la">
                              <node concept="3clFbS" id="65xS0QGq6Sn" role="1bW5cS">
                                <node concept="3clFbF" id="65xS0QGq6So" role="3cqZAp">
                                  <node concept="3y3z36" id="65xS0QGq6Sp" role="3clFbG">
                                    <node concept="37vLTw" id="3GM_nagTr1h" role="3uHU7w">
                                      <ref role="3cqZAo" node="7HhdxNobZY1" resolve="td" />
                                    </node>
                                    <node concept="37vLTw" id="2BHiRxgm80y" role="3uHU7B">
                                      <ref role="3cqZAo" node="65xS0QGq6Ss" resolve="sibl" />
                                    </node>
                                  </node>
                                </node>
                              </node>
                              <node concept="Rh6nW" id="65xS0QGq6Ss" role="1bW2Oz">
                                <property role="TrG5h" value="sibl" />
                                <node concept="2jxLKc" id="1P4c1XrzT9b" role="1tU5fm" />
                              </node>
                            </node>
                          </node>
                        </node>
                        <node concept="3QWeyG" id="65xS0QGq6Su" role="2OqNvi">
                          <node concept="2OqwBi" id="65xS0QGq6Sv" role="576Qk">
                            <node concept="2OqwBi" id="65xS0QGq6Sw" role="2Oq$k0">
                              <node concept="37vLTw" id="3GM_nagTukh" role="2Oq$k0">
                                <ref role="3cqZAo" node="7HhdxNobZY9" resolve="fd" />
                              </node>
                              <node concept="3Tsc0h" id="65xS0QGq6Sy" role="2OqNvi">
                                <ref role="3TtcxE" to="vvvw:5_TVmOF8rc0" />
                              </node>
                            </node>
                            <node concept="3goQfb" id="65xS0QGq6Sz" role="2OqNvi">
                              <node concept="1bVj0M" id="65xS0QGq6S$" role="23t8la">
                                <node concept="3clFbS" id="65xS0QGq6S_" role="1bW5cS">
                                  <node concept="3clFbF" id="65xS0QGq6SA" role="3cqZAp">
                                    <node concept="2OqwBi" id="65xS0QGq6SB" role="3clFbG">
                                      <node concept="2OqwBi" id="65xS0QGq6SC" role="2Oq$k0">
                                        <node concept="37vLTw" id="2BHiRxglavP" role="2Oq$k0">
                                          <ref role="3cqZAo" node="65xS0QGq6SG" resolve="rfd" />
                                        </node>
                                        <node concept="3TrEf2" id="65xS0QGq6SE" role="2OqNvi">
                                          <ref role="3Tt5mk" to="vvvw:5_TVmOF8rbN" />
                                        </node>
                                      </node>
                                      <node concept="3Tsc0h" id="65xS0QGq6SF" role="2OqNvi">
                                        <ref role="3TtcxE" to="vvvw:5$iCEGsP1kY" />
                                      </node>
                                    </node>
                                  </node>
                                </node>
                                <node concept="Rh6nW" id="65xS0QGq6SG" role="1bW2Oz">
                                  <property role="TrG5h" value="rfd" />
                                  <node concept="2jxLKc" id="1P4c1XrzTcX" role="1tU5fm" />
                                </node>
                              </node>
                            </node>
                          </node>
                        </node>
                      </node>
                      <node concept="3$u5V9" id="65xS0QGq6SI" role="2OqNvi">
                        <node concept="1bVj0M" id="65xS0QGq6SJ" role="23t8la">
                          <node concept="3clFbS" id="65xS0QGq6SK" role="1bW5cS">
                            <node concept="3clFbF" id="65xS0QGq6SL" role="3cqZAp">
                              <node concept="2OqwBi" id="65xS0QGq6SM" role="3clFbG">
                                <node concept="37vLTw" id="2BHiRxgha2u" role="2Oq$k0">
                                  <ref role="3cqZAo" node="65xS0QGq6SP" resolve="rtd" />
                                </node>
                                <node concept="3TrEf2" id="65xS0QGq6SO" role="2OqNvi">
                                  <ref role="3Tt5mk" to="vvvw:6moN$OJ8bJv" />
                                </node>
                              </node>
                            </node>
                          </node>
                          <node concept="Rh6nW" id="65xS0QGq6SP" role="1bW2Oz">
                            <property role="TrG5h" value="rtd" />
                            <node concept="2jxLKc" id="1P4c1XrzTjz" role="1tU5fm" />
                          </node>
                        </node>
                      </node>
                    </node>
                    <node concept="3goQfb" id="65xS0QGq6T0" role="2OqNvi">
                      <node concept="1bVj0M" id="65xS0QGq6T1" role="23t8la">
                        <node concept="3clFbS" id="65xS0QGq6T2" role="1bW5cS">
                          <node concept="3clFbF" id="65xS0QGq6T3" role="3cqZAp">
                            <node concept="2OqwBi" id="65xS0QGq6T4" role="3clFbG">
                              <node concept="37vLTw" id="2BHiRxgm_t9" role="2Oq$k0">
                                <ref role="3cqZAo" node="65xS0QGq6T7" resolve="p" />
                              </node>
                              <node concept="3Tsc0h" id="65xS0QGq6T6" role="2OqNvi">
                                <ref role="3TtcxE" to="cx9y:i2pHZMD" />
                              </node>
                            </node>
                          </node>
                        </node>
                        <node concept="Rh6nW" id="65xS0QGq6T7" role="1bW2Oz">
                          <property role="TrG5h" value="p" />
                          <node concept="2jxLKc" id="1P4c1XrzTkJ" role="1tU5fm" />
                        </node>
                      </node>
                    </node>
                  </node>
                  <node concept="ANE8D" id="65xS0QGq6T9" role="2OqNvi" />
                </node>
              </node>
            </node>
          </node>
          <node concept="uSIkt" id="2TDOII_dy6S" role="uTubQ">
            <node concept="3clFbS" id="2TDOII_dy6T" role="2VODD2">
              <node concept="3cpWs8" id="2TDOII_d_7m" role="3cqZAp">
                <node concept="3cpWsn" id="2TDOII_d_7n" role="3cpWs9">
                  <property role="TrG5h" value="fve" />
                  <node concept="3Tqbb2" id="2TDOII_d_7o" role="1tU5fm">
                    <ref role="ehGHo" to="vvvw:2TDOII_dveK" resolve="ForeignParametersExpression" />
                  </node>
                  <node concept="2c44tf" id="2TDOII_d_7p" role="33vP2m">
                    <node concept="2bn25r" id="2TDOII_d_7q" role="2c44tc">
                      <node concept="2c44tb" id="2TDOII_d_7r" role="lGtFl">
                        <property role="2qtEX8" value="target" />
                        <property role="3hQQBS" value="ForeignVarialblesExpression" />
                        <property role="P3scX" value="696c1165-4a59-463b-bc5d-902caab85dd0/3344436107830227888/3344436107830227902" />
                        <node concept="2OqwBi" id="2TDOII_d_7s" role="2c44t1">
                          <node concept="uNquD" id="2TDOII_d_7t" role="2Oq$k0" />
                          <node concept="2Xjw5R" id="2TDOII_d_7u" role="2OqNvi">
                            <node concept="1xMEDy" id="2TDOII_d_7v" role="1xVPHs">
                              <node concept="chp4Y" id="2TDOII_d_7w" role="ri$Ld">
                                <ref role="cht4Q" to="vvvw:5$iCEGsO$KX" resolve="TargetDeclaration" />
                              </node>
                            </node>
                          </node>
                        </node>
                      </node>
                    </node>
                  </node>
                </node>
              </node>
              <node concept="3cpWs8" id="2TDOII_d_7T" role="3cqZAp">
                <node concept="3cpWsn" id="2TDOII_d_7U" role="3cpWs9">
                  <property role="TrG5h" value="op" />
                  <node concept="3Tqbb2" id="2TDOII_d_7V" role="1tU5fm">
                    <ref role="ehGHo" to="cx9y:i2sxajE" resolve="NamedTupleComponentAccessOperation" />
                  </node>
                  <node concept="2c44tf" id="2TDOII_d_7W" role="33vP2m">
                    <node concept="2sxana" id="2TDOII_d_7X" role="2c44tc">
                      <node concept="2c44tb" id="2TDOII_d_7Y" role="lGtFl">
                        <property role="2qtEX8" value="component" />
                        <property role="3hQQBS" value="NamedTupleComponentAccessOperation" />
                        <property role="P3scX" value="a247e09e-2435-45ba-b8d2-07e93feba96a/1239576519914/1239576542472" />
                        <node concept="uNquD" id="2TDOII_d_7Z" role="2c44t1" />
                      </node>
                    </node>
                  </node>
                </node>
              </node>
              <node concept="3clFbF" id="2TDOII_d_7z" role="3cqZAp">
                <node concept="2c44tf" id="2TDOII_d_7$" role="3clFbG">
                  <node concept="2bn25q" id="2TDOII_d_7A" role="2c44tc">
                    <node concept="2bn25r" id="2TDOII_d_7B" role="2Oq$k0">
                      <node concept="2c44te" id="2TDOII_d_7D" role="lGtFl">
                        <node concept="37vLTw" id="3GM_nagTyWn" role="2c44t1">
                          <ref role="3cqZAo" node="2TDOII_d_7n" resolve="fve" />
                        </node>
                      </node>
                    </node>
                    <node concept="2OqG4A" id="2TDOII_d_7I" role="2OqNvi">
                      <node concept="2c44te" id="2TDOII_d_7J" role="lGtFl">
                        <node concept="37vLTw" id="3GM_nagTtMK" role="2c44t1">
                          <ref role="3cqZAo" node="2TDOII_d_7U" resolve="op" />
                        </node>
                      </node>
                    </node>
                  </node>
                </node>
              </node>
            </node>
          </node>
          <node concept="3Tqbb2" id="2TDOII_dy6U" role="uMOYW">
            <ref role="ehGHo" to="cx9y:i2lGYlf" resolve="NamedTupleComponentDeclaration" />
          </node>
          <node concept="uSjag" id="2TDOII_dy9N" role="uSyvl">
            <node concept="3clFbS" id="2TDOII_dy9O" role="2VODD2">
              <node concept="3clFbF" id="2TDOII_dy9P" role="3cqZAp">
                <node concept="3cpWs3" id="2TDOII_dyaa" role="3clFbG">
                  <node concept="2OqwBi" id="2TDOII_dyae" role="3uHU7w">
                    <node concept="uNquD" id="2TDOII_dyad" role="2Oq$k0" />
                    <node concept="3TrcHB" id="2TDOII_dyai" role="2OqNvi">
                      <ref role="3TsBF5" to="tpck:h0TrG11" resolve="name" />
                    </node>
                  </node>
                  <node concept="3cpWs3" id="2TDOII_dya6" role="3uHU7B">
                    <node concept="2OqwBi" id="2TDOII_dya0" role="3uHU7B">
                      <node concept="2OqwBi" id="2TDOII_dy9R" role="2Oq$k0">
                        <node concept="uNquD" id="2TDOII_dy9Q" role="2Oq$k0" />
                        <node concept="2Xjw5R" id="2TDOII_dy9V" role="2OqNvi">
                          <node concept="1xMEDy" id="2TDOII_dy9W" role="1xVPHs">
                            <node concept="chp4Y" id="2TDOII_dy9Z" role="ri$Ld">
                              <ref role="cht4Q" to="vvvw:5$iCEGsO$KX" resolve="TargetDeclaration" />
                            </node>
                          </node>
                        </node>
                      </node>
                      <node concept="3TrcHB" id="2TDOII_dya5" role="2OqNvi">
                        <ref role="3TsBF5" to="tpck:h0TrG11" resolve="name" />
                      </node>
                    </node>
                    <node concept="Xl_RD" id="2TDOII_dya9" role="3uHU7w">
                      <property role="Xl_RC" value="." />
                    </node>
                  </node>
                </node>
              </node>
            </node>
          </node>
        </node>
      </node>
    </node>
  </node>
  <node concept="37WguZ" id="74hZdUqxJz">
    <property role="TrG5h" value="ParametersDeclaration_add_empty_var" />
    <node concept="37WvkG" id="74hZdUqxJ$" role="37WGs$">
      <ref role="37XkoT" to="vvvw:6moN$OJ8E_Y" resolve="ParametersDeclaration" />
      <node concept="37Y9Zx" id="74hZdUqxJ_" role="37ZfLb">
        <node concept="3clFbS" id="74hZdUqxJA" role="2VODD2">
          <node concept="3clFbF" id="74hZdUqxJB" role="3cqZAp">
            <node concept="2OqwBi" id="74hZdUqxJI" role="3clFbG">
              <node concept="2OqwBi" id="74hZdUqxJD" role="2Oq$k0">
                <node concept="1r4Lsj" id="74hZdUqxJC" role="2Oq$k0" />
                <node concept="3Tsc0h" id="74hZdUqxJH" role="2OqNvi">
                  <ref role="3TtcxE" to="cx9y:i2pHZMD" />
                </node>
              </node>
              <node concept="2DeJg1" id="ma$$LuAX3E" role="2OqNvi" />
            </node>
          </node>
        </node>
      </node>
    </node>
  </node>
  <node concept="3FK_9_" id="6euX$ZOxgIT">
    <property role="TrG5h" value="FacetReferenceExpression" />
    <node concept="3FOIzC" id="6euX$ZOxgIU" role="3FOPby">
      <ref role="3FOWKa" to="vvvw:6euX$ZOxgIK" resolve="FacetReferenceExpression" />
      <node concept="tYCnQ" id="6euX$ZOxgJ0" role="tZc4B">
        <ref role="uz4UX" to="vvvw:6euX$ZOxgIK" resolve="FacetReferenceExpression" />
        <node concept="uMFAO" id="6euX$ZOxh55" role="uz6Si">
          <node concept="uNCsQ" id="6euX$ZOxh57" role="uO7ob">
            <node concept="3clFbS" id="6euX$ZOxh58" role="2VODD2">
              <node concept="3clFbF" id="6euX$ZOxh5c" role="3cqZAp">
                <node concept="2OqwBi" id="6euX$ZOxh5e" role="3clFbG">
                  <node concept="1Q6Npb" id="6euX$ZOxh5d" role="2Oq$k0" />
                  <node concept="1j9C0f" id="6euX$ZOxh5i" role="2OqNvi">
                    <ref role="1j9C0d" to="vvvw:5$iCEGsO$Kj" resolve="FacetDeclaration" />
                  </node>
                </node>
              </node>
            </node>
          </node>
          <node concept="uSIkt" id="6euX$ZOxh59" role="uTubQ">
            <node concept="3clFbS" id="6euX$ZOxh5a" role="2VODD2">
              <node concept="3clFbF" id="1ExXGqkc_7x" role="3cqZAp">
                <node concept="2c44tf" id="1ExXGqkc_7y" role="3clFbG">
                  <node concept="2n6ZRZ" id="1ExXGqkcFBJ" role="2c44tc">
                    <node concept="2e$Q_j" id="1ExXGqkcFBK" role="2n6ZRX">
                      <node concept="2c44tb" id="1ExXGqkcFBL" role="lGtFl">
                        <property role="2qtEX8" value="facet" />
                        <property role="3hQQBS" value="NamedFacetReference" />
                        <property role="P3scX" value="696c1165-4a59-463b-bc5d-902caab85dd0/6447445394688422642/6447445394688422643" />
                        <node concept="uNquD" id="1ExXGqkcFBO" role="2c44t1" />
                      </node>
                    </node>
                  </node>
                </node>
              </node>
            </node>
          </node>
          <node concept="3Tqbb2" id="6euX$ZOxh5b" role="uMOYW">
            <ref role="ehGHo" to="vvvw:5$iCEGsO$Kj" resolve="FacetDeclaration" />
          </node>
          <node concept="uSjag" id="6euX$ZOxh5m" role="uSyvl">
            <node concept="3clFbS" id="6euX$ZOxh5n" role="2VODD2">
              <node concept="3clFbF" id="6euX$ZOxh5o" role="3cqZAp">
                <node concept="3cpWs3" id="1ExXGqkcD2r" role="3clFbG">
                  <node concept="Xl_RD" id="1ExXGqkcD2s" role="3uHU7B">
                    <property role="Xl_RC" value="&amp;" />
                  </node>
                  <node concept="2OqwBi" id="1ExXGqkcD2t" role="3uHU7w">
                    <node concept="uNquD" id="1ExXGqkcD2u" role="2Oq$k0" />
                    <node concept="3TrcHB" id="1ExXGqkcD2v" role="2OqNvi">
                      <ref role="3TsBF5" to="tpck:h0TrG11" resolve="name" />
                    </node>
                  </node>
                </node>
              </node>
            </node>
          </node>
          <node concept="uSjag" id="1ExXGqkcCDk" role="uS$Nq">
            <node concept="3clFbS" id="1ExXGqkcCDl" role="2VODD2">
              <node concept="3clFbF" id="1ExXGqkcD2w" role="3cqZAp">
                <node concept="3cpWs3" id="1ExXGqkcD2y" role="3clFbG">
                  <node concept="2OqwBi" id="1ExXGqkcD2A" role="3uHU7w">
                    <node concept="uNquD" id="1ExXGqkcD2_" role="2Oq$k0" />
                    <node concept="3TrcHB" id="1ExXGqkcD2E" role="2OqNvi">
                      <ref role="3TsBF5" to="tpck:h0TrG11" resolve="name" />
                    </node>
                  </node>
                  <node concept="Xl_RD" id="1ExXGqkcD2x" role="3uHU7B">
                    <property role="Xl_RC" value="reference to facet " />
                  </node>
                </node>
              </node>
            </node>
          </node>
        </node>
      </node>
    </node>
  </node>
  <node concept="3UOs0u" id="1TDZrawdcgL">
    <property role="TrG5h" value="IPropertiesExpression_specifyResource" />
    <node concept="3UNGvq" id="1TDZrawdcgM" role="3UOs0v">
      <ref role="3UNGvu" to="vvvw:1TDZrawdcfS" resolve="IPropertyExpression" />
      <node concept="3kRJcU" id="1TDZrawdcgN" role="3kShCk">
        <node concept="3clFbS" id="1TDZrawdcgO" role="2VODD2">
          <node concept="3clFbF" id="1TDZrawdcgP" role="3cqZAp">
            <node concept="2OqwBi" id="75$Aq$6ywgn" role="3clFbG">
              <node concept="2OqwBi" id="75$Aq$6ywgi" role="2Oq$k0">
                <node concept="Cj7Ep" id="1TDZrawdch6" role="2Oq$k0" />
                <node concept="3TrEf2" id="75$Aq$6ywgm" role="2OqNvi">
                  <ref role="3Tt5mk" to="vvvw:75$Aq$6yvTQ" />
                </node>
              </node>
              <node concept="3w_OXm" id="75$Aq$6ywgr" role="2OqNvi" />
            </node>
          </node>
        </node>
      </node>
      <node concept="tYCnQ" id="1TDZrawdcha" role="_1QTJ">
        <ref role="uz4UX" to="vvvw:1TDZrawdcfQ" resolve="ResourceSpecificPropertiesExpression" />
        <node concept="Cmt7Y" id="1TDZrawdchb" role="uz6Si">
          <node concept="Cnhdc" id="1TDZrawdchc" role="Cncma">
            <node concept="3clFbS" id="1TDZrawdchd" role="2VODD2">
              <node concept="3clFbF" id="75$Aq$6ywgt" role="3cqZAp">
                <node concept="2OqwBi" id="75$Aq$6ywg$" role="3clFbG">
                  <node concept="2OqwBi" id="75$Aq$6ywgv" role="2Oq$k0">
                    <node concept="Cj7Ep" id="75$Aq$6ywgu" role="2Oq$k0" />
                    <node concept="3TrEf2" id="75$Aq$6ywgz" role="2OqNvi">
                      <ref role="3Tt5mk" to="vvvw:75$Aq$6yvTQ" />
                    </node>
                  </node>
                  <node concept="zfrQC" id="75$Aq$6ywgC" role="2OqNvi" />
                </node>
              </node>
              <node concept="3clFbF" id="75$Aq$6ywgH" role="3cqZAp">
                <node concept="Cj7Ep" id="75$Aq$6ywgI" role="3clFbG" />
              </node>
            </node>
          </node>
          <node concept="2h1dTh" id="1TDZrawdchh" role="Cn2iK">
            <property role="2h1i$Z" value="@" />
          </node>
          <node concept="2h1dTh" id="1TDZrawdchi" role="Cn6ar">
            <property role="2h1i$Z" value="specify resource" />
          </node>
        </node>
      </node>
    </node>
  </node>
  <node concept="3UOs0u" id="7z95FPUVcf8">
    <property role="TrG5h" value="FacetReferenceExpression_specifyTarget" />
    <node concept="3UNGvq" id="7z95FPUVcfd" role="3UOs0v">
      <ref role="3UNGvu" to="vvvw:6euX$ZOxgIK" resolve="FacetReferenceExpression" />
      <node concept="3kRJcU" id="7z95FPUVcfe" role="3kShCk">
        <node concept="3clFbS" id="7z95FPUVcff" role="2VODD2">
          <node concept="3clFbF" id="7z95FPUVcfg" role="3cqZAp">
            <node concept="3fqX7Q" id="7z95FPUVcfh" role="3clFbG">
              <node concept="2OqwBi" id="7z95FPUVcfp" role="3fr31v">
                <node concept="2OqwBi" id="7z95FPUVcfk" role="2Oq$k0">
                  <node concept="Cj7Ep" id="7z95FPUVcfj" role="2Oq$k0" />
                  <node concept="1mfA1w" id="7z95FPUVcfo" role="2OqNvi" />
                </node>
                <node concept="1mIQ4w" id="7z95FPUVcft" role="2OqNvi">
                  <node concept="chp4Y" id="7z95FPUVcfv" role="cj9EA">
                    <ref role="cht4Q" to="vvvw:7z95FPUVaZR" resolve="TargetReferenceExpression" />
                  </node>
                </node>
              </node>
            </node>
          </node>
        </node>
      </node>
      <node concept="tYCnQ" id="7z95FPUVcfx" role="_1QTJ">
        <ref role="uz4UX" to="vvvw:7z95FPUVaZR" resolve="TargetReferenceExpression" />
        <node concept="CZtCh" id="7z95FPUVcfy" role="uz6Si">
          <node concept="3Tqbb2" id="7z95FPUVcfD" role="D02tZ">
            <ref role="ehGHo" to="vvvw:5$iCEGsO$KX" resolve="TargetDeclaration" />
          </node>
          <node concept="CZKQA" id="7z95FPUVcf$" role="D04br">
            <node concept="3clFbS" id="7z95FPUVcf_" role="2VODD2">
              <node concept="3clFbF" id="7z95FPUVcfE" role="3cqZAp">
                <node concept="2OqwBi" id="7z95FPUVcfS" role="3clFbG">
                  <node concept="2OqwBi" id="7z95FPUVcfM" role="2Oq$k0">
                    <node concept="2OqwBi" id="7z95FPUVcfG" role="2Oq$k0">
                      <node concept="Cj7Ep" id="7z95FPUVcfF" role="2Oq$k0" />
                      <node concept="3TrEf2" id="7z95FPUVcfK" role="2OqNvi">
                        <ref role="3Tt5mk" to="vvvw:6euX$ZOxgIM" />
                      </node>
                    </node>
                    <node concept="3TrEf2" id="7z95FPUVcfQ" role="2OqNvi">
                      <ref role="3Tt5mk" to="vvvw:5_TVmOF8rbN" />
                    </node>
                  </node>
                  <node concept="3Tsc0h" id="7z95FPUVcfW" role="2OqNvi">
                    <ref role="3TtcxE" to="vvvw:5$iCEGsP1kY" />
                  </node>
                </node>
              </node>
            </node>
          </node>
          <node concept="D1tK2" id="7z95FPUVcfA" role="D0eUe">
            <node concept="3clFbS" id="7z95FPUVcfB" role="2VODD2">
              <node concept="3cpWs8" id="7z95FPUVcgj" role="3cqZAp">
                <node concept="3cpWsn" id="7z95FPUVcgk" role="3cpWs9">
                  <property role="TrG5h" value="tre" />
                  <node concept="3Tqbb2" id="7z95FPUVcgl" role="1tU5fm">
                    <ref role="ehGHo" to="vvvw:7z95FPUVaZR" resolve="TargetReferenceExpression" />
                  </node>
                  <node concept="2OqwBi" id="7z95FPUVcgm" role="33vP2m">
                    <node concept="Cj7Ep" id="7z95FPUVcgn" role="2Oq$k0" />
                    <node concept="1_qnLN" id="7z95FPUVcgo" role="2OqNvi">
                      <ref role="1_rbq0" to="vvvw:7z95FPUVaZR" resolve="TargetReferenceExpression" />
                    </node>
                  </node>
                </node>
              </node>
              <node concept="3clFbF" id="7z95FPUVcgp" role="3cqZAp">
                <node concept="2OqwBi" id="7z95FPUVcgw" role="3clFbG">
                  <node concept="2OqwBi" id="7z95FPUVcgr" role="2Oq$k0">
                    <node concept="37vLTw" id="3GM_nagT$lx" role="2Oq$k0">
                      <ref role="3cqZAo" node="7z95FPUVcgk" resolve="tre" />
                    </node>
                    <node concept="3TrEf2" id="7z95FPUVcgv" role="2OqNvi">
                      <ref role="3Tt5mk" to="vvvw:7z95FPUVceI" />
                    </node>
                  </node>
                  <node concept="2oxUTD" id="7z95FPUVcg$" role="2OqNvi">
                    <node concept="Cj7Ep" id="7z95FPUVcgB" role="2oxUTC" />
                  </node>
                </node>
              </node>
              <node concept="3clFbF" id="7z95FPUVcgF" role="3cqZAp">
                <node concept="2OqwBi" id="7z95FPUVcgR" role="3clFbG">
                  <node concept="2OqwBi" id="7z95FPUVcgK" role="2Oq$k0">
                    <node concept="37vLTw" id="3GM_nagT$8o" role="2Oq$k0">
                      <ref role="3cqZAo" node="7z95FPUVcgk" resolve="tre" />
                    </node>
                    <node concept="3TrEf2" id="7z95FPUVcgP" role="2OqNvi">
                      <ref role="3Tt5mk" to="vvvw:7z95FPUVceW" />
                    </node>
                  </node>
                  <node concept="2oxUTD" id="7z95FPUVcgX" role="2OqNvi">
                    <node concept="uNquD" id="7z95FPUVch1" role="2oxUTC" />
                  </node>
                </node>
              </node>
              <node concept="3clFbF" id="7z95FPUVch7" role="3cqZAp">
                <node concept="37vLTw" id="3GM_nagT_OM" role="3clFbG">
                  <ref role="3cqZAo" node="7z95FPUVcgk" resolve="tre" />
                </node>
              </node>
            </node>
          </node>
          <node concept="CmF0q" id="7z95FPUVcfY" role="D06XQ">
            <node concept="3clFbS" id="7z95FPUVcfZ" role="2VODD2">
              <node concept="3clFbF" id="7z95FPUVcg0" role="3cqZAp">
                <node concept="3cpWs3" id="7z95FPUVcg2" role="3clFbG">
                  <node concept="2OqwBi" id="7z95FPUVcg6" role="3uHU7w">
                    <node concept="uNquD" id="7z95FPUVcg5" role="2Oq$k0" />
                    <node concept="3TrcHB" id="7z95FPUVcga" role="2OqNvi">
                      <ref role="3TsBF5" to="tpck:h0TrG11" resolve="name" />
                    </node>
                  </node>
                  <node concept="Xl_RD" id="7z95FPUVcg1" role="3uHU7B">
                    <property role="Xl_RC" value=":" />
                  </node>
                </node>
              </node>
            </node>
          </node>
        </node>
      </node>
    </node>
  </node>
  <node concept="3UOs0u" id="7z95FPUVmXx">
    <property role="TrG5h" value="FacetReference_includeParent" />
    <node concept="3UNGvq" id="7z95FPUVmXy" role="3UOs0v">
      <ref role="3UNGvu" to="vvvw:5_TVmOF8rbM" resolve="FacetReference" />
      <node concept="346O06" id="7z95FPUVmXz" role="_1QTJ">
        <node concept="1Ai3Oa" id="7z95FPUVmX$" role="3484EA">
          <node concept="3clFbS" id="7z95FPUVmX_" role="2VODD2">
            <node concept="3clFbF" id="7z95FPUVmXA" role="3cqZAp">
              <node concept="2OqwBi" id="7z95FPUVmXC" role="3clFbG">
                <node concept="Cj7Ep" id="7z95FPUVmXB" role="2Oq$k0" />
                <node concept="2Xjw5R" id="7z95FPUVmY4" role="2OqNvi">
                  <node concept="1xMEDy" id="7z95FPUVmY5" role="1xVPHs">
                    <node concept="chp4Y" id="7z95FPUVppH" role="ri$Ld">
                      <ref role="cht4Q" to="vvvw:6euX$ZOxgIK" resolve="FacetReferenceExpression" />
                    </node>
                  </node>
                </node>
              </node>
            </node>
          </node>
        </node>
      </node>
      <node concept="3kRJcU" id="7z95FPUVmXH" role="3kShCk">
        <node concept="3clFbS" id="7z95FPUVmXI" role="2VODD2">
          <node concept="3clFbF" id="7z95FPUVmXJ" role="3cqZAp">
            <node concept="2OqwBi" id="7z95FPUVmXZ" role="3clFbG">
              <node concept="2OqwBi" id="7z95FPUVmXL" role="2Oq$k0">
                <node concept="Cj7Ep" id="7z95FPUVmXK" role="2Oq$k0" />
                <node concept="2Xjw5R" id="7z95FPUVmXU" role="2OqNvi">
                  <node concept="1xMEDy" id="7z95FPUVmXV" role="1xVPHs">
                    <node concept="chp4Y" id="7z95FPUVmXY" role="ri$Ld">
                      <ref role="cht4Q" to="vvvw:7z95FPUVaZR" resolve="TargetReferenceExpression" />
                    </node>
                  </node>
                </node>
              </node>
              <node concept="3w_OXm" id="7z95FPUVppG" role="2OqNvi" />
            </node>
          </node>
        </node>
      </node>
    </node>
  </node>
  <node concept="3UOs0u" id="6gJZ6Q5jPLq">
    <property role="TrG5h" value="TargetDeclaration_makeOptional" />
    <property role="3GE5qa" value="target" />
    <node concept="3UNGvq" id="6gJZ6Q5jPLr" role="3UOs0v">
      <property role="7I3sp" value="left" />
      <property role="2uHTBK" value="ext_1_RTransform" />
      <ref role="3UNGvu" to="vvvw:5$iCEGsO$KX" resolve="TargetDeclaration" />
      <node concept="tYCnQ" id="6gJZ6Q5jPLF" role="_1QTJ">
        <ref role="uz4UX" to="vvvw:5$iCEGsO$KX" resolve="TargetDeclaration" />
        <node concept="Cmt7Y" id="6gJZ6Q5jPLH" role="uz6Si">
          <node concept="Cnhdc" id="6gJZ6Q5jPLI" role="Cncma">
            <node concept="3clFbS" id="6gJZ6Q5jPLJ" role="2VODD2">
              <node concept="3clFbF" id="6gJZ6Q5jPLL" role="3cqZAp">
                <node concept="37vLTI" id="6gJZ6Q5jPLS" role="3clFbG">
                  <node concept="3clFbT" id="6gJZ6Q5jPLV" role="37vLTx">
                    <property role="3clFbU" value="true" />
                  </node>
                  <node concept="2OqwBi" id="6gJZ6Q5jPLN" role="37vLTJ">
                    <node concept="Cj7Ep" id="6gJZ6Q5jPLM" role="2Oq$k0" />
                    <node concept="3TrcHB" id="6gJZ6Q5jPLR" role="2OqNvi">
                      <ref role="3TsBF5" to="vvvw:6gJZ6Q5jG75" resolve="optional" />
                    </node>
                  </node>
                </node>
              </node>
              <node concept="3clFbF" id="6gJZ6Q5jPLX" role="3cqZAp">
                <node concept="Cj7Ep" id="6gJZ6Q5jPLY" role="3clFbG" />
              </node>
            </node>
          </node>
          <node concept="2h1dTh" id="6gJZ6Q5jPLK" role="Cn2iK">
            <property role="2h1i$Z" value="optional" />
          </node>
        </node>
      </node>
      <node concept="3kRJcU" id="6gJZ6Q5jPLt" role="3kShCk">
        <node concept="3clFbS" id="6gJZ6Q5jPLu" role="2VODD2">
          <node concept="3clFbF" id="6gJZ6Q5jPLv" role="3cqZAp">
            <node concept="3fqX7Q" id="6gJZ6Q5jPLA" role="3clFbG">
              <node concept="2OqwBi" id="6gJZ6Q5jPLB" role="3fr31v">
                <node concept="Cj7Ep" id="6gJZ6Q5jPLC" role="2Oq$k0" />
                <node concept="3TrcHB" id="6gJZ6Q5jPLD" role="2OqNvi">
                  <ref role="3TsBF5" to="vvvw:6gJZ6Q5jG75" resolve="optional" />
                </node>
              </node>
            </node>
          </node>
        </node>
      </node>
    </node>
  </node>
  <node concept="3FK_9_" id="4g8ToP3qcKt">
    <property role="TrG5h" value="ResourceClassifierType_substitute" />
    <property role="3GE5qa" value="target" />
    <node concept="3FOIzC" id="4g8ToP3qcKu" role="3FOPby">
      <ref role="3FOWKa" to="vvvw:6AQAnCFE2O" resolve="ResourceClassifierType" />
      <node concept="z64au" id="4g8ToP3qcT2" role="tZc4B">
        <ref role="z65TK" to="vvvw:6AQAnCFE2O" resolve="ResourceClassifierType" />
      </node>
      <node concept="3buRE8" id="4g8ToP3qeqi" role="3bvWUf">
        <node concept="3clFbS" id="4g8ToP3qeqj" role="2VODD2">
          <node concept="3clFbF" id="4g8ToP3qhoc" role="3cqZAp">
            <node concept="3fqX7Q" id="4g8ToP3qhQS" role="3clFbG">
              <node concept="2OqwBi" id="4g8ToP3qhQT" role="3fr31v">
                <node concept="1mIQ4w" id="4g8ToP3qhQU" role="2OqNvi">
                  <node concept="chp4Y" id="4g8ToP3qhQV" role="cj9EA">
                    <ref role="cht4Q" to="vvvw:6AQAnCEF7k" resolve="ResourceTypeDeclaration" />
                  </node>
                </node>
                <node concept="3bvxqY" id="4g8ToP3qhQW" role="2Oq$k0" />
              </node>
            </node>
          </node>
        </node>
      </node>
    </node>
  </node>
</model>

