<?xml version="1.0" encoding="UTF-8"?>
<model ref="r:32324a64-526d-42e5-8157-b55154efce2d(jetbrains.mps.make.facet.behavior)">
  <persistence version="9" />
  <languages>
    <use id="fd392034-7849-419d-9071-12563d152375" name="jetbrains.mps.baseLanguage.closures" version="0" />
    <use id="83888646-71ce-4f1c-9c53-c54016f6ad4f" name="jetbrains.mps.baseLanguage.collections" version="0" />
    <use id="af65afd8-f0dd-4942-87d9-63a55f2a9db1" name="jetbrains.mps.lang.behavior" version="0" />
    <use id="7866978e-a0f0-4cc7-81bc-4d213d9375e1" name="jetbrains.mps.lang.smodel" version="4" />
    <use id="f3061a53-9226-4cc5-a443-f952ceaf5816" name="jetbrains.mps.baseLanguage" version="4" />
    <devkit ref="fbc25dd2-5da4-483a-8b19-70928e1b62d7(jetbrains.mps.devkit.general-purpose)" />
  </languages>
  <imports>
    <import index="vvvw" ref="r:b16ff46d-fa06-479d-9f5c-5b6e17e7f1b2(jetbrains.mps.make.facet.structure)" />
    <import index="tpek" ref="r:00000000-0000-4000-0000-011c895902c0(jetbrains.mps.baseLanguage.behavior)" />
    <import index="18ew" ref="6ed54515-acc8-4d1e-a16c-9fd6cfe951ea/java:jetbrains.mps.util(MPS.Core/)" />
    <import index="tpce" ref="r:00000000-0000-4000-0000-011c89590292(jetbrains.mps.lang.structure.structure)" implicit="true" />
    <import index="tpck" ref="r:00000000-0000-4000-0000-011c89590288(jetbrains.mps.lang.core.structure)" implicit="true" />
    <import index="tpcu" ref="r:00000000-0000-4000-0000-011c89590282(jetbrains.mps.lang.core.behavior)" implicit="true" />
    <import index="17gi" ref="r:0fb6a3b3-d9c2-4977-abcb-f851ef5e4897(jetbrains.mps.baseLanguage.tuples.behavior)" implicit="true" />
  </imports>
  <registry>
    <language id="af65afd8-f0dd-4942-87d9-63a55f2a9db1" name="jetbrains.mps.lang.behavior">
      <concept id="6496299201655527393" name="jetbrains.mps.lang.behavior.structure.LocalBehaviorMethodCall" flags="nn" index="BsUDl" />
      <concept id="1225194240794" name="jetbrains.mps.lang.behavior.structure.ConceptBehavior" flags="ng" index="13h7C7">
        <reference id="1225194240799" name="concept" index="13h7C2" />
        <child id="1225194240805" name="method" index="13h7CS" />
        <child id="1225194240801" name="constructor" index="13h7CW" />
      </concept>
      <concept id="1225194413805" name="jetbrains.mps.lang.behavior.structure.ConceptConstructorDeclaration" flags="in" index="13hLZK" />
      <concept id="1225194472830" name="jetbrains.mps.lang.behavior.structure.ConceptMethodDeclaration" flags="ng" index="13i0hz">
        <property id="5864038008284099149" name="isStatic" index="2Ki8OM" />
        <property id="1225194472833" name="isPrivate" index="13i0is" />
        <property id="1225194472832" name="isVirtual" index="13i0it" />
        <property id="1225194472834" name="isAbstract" index="13i0iv" />
        <reference id="1225194472831" name="overriddenMethod" index="13i0hy" />
      </concept>
      <concept id="1225194691553" name="jetbrains.mps.lang.behavior.structure.ThisNodeExpression" flags="nn" index="13iPFW" />
    </language>
    <language id="f3061a53-9226-4cc5-a443-f952ceaf5816" name="jetbrains.mps.baseLanguage">
      <concept id="4836112446988635817" name="jetbrains.mps.baseLanguage.structure.UndefinedType" flags="in" index="2jxLKc" />
      <concept id="1076505808687" name="jetbrains.mps.baseLanguage.structure.WhileStatement" flags="nn" index="2$JKZl">
        <child id="1076505808688" name="condition" index="2$JKZa" />
      </concept>
      <concept id="1154032098014" name="jetbrains.mps.baseLanguage.structure.AbstractLoopStatement" flags="nn" index="2LF5Ji">
        <child id="1154032183016" name="body" index="2LFqv$" />
      </concept>
      <concept id="1197027756228" name="jetbrains.mps.baseLanguage.structure.DotExpression" flags="nn" index="2OqwBi">
        <child id="1197027771414" name="operand" index="2Oq$k0" />
        <child id="1197027833540" name="operation" index="2OqNvi" />
      </concept>
      <concept id="1145552977093" name="jetbrains.mps.baseLanguage.structure.GenericNewExpression" flags="nn" index="2ShNRf">
        <child id="1145553007750" name="creator" index="2ShVmc" />
      </concept>
      <concept id="1137021947720" name="jetbrains.mps.baseLanguage.structure.ConceptFunction" flags="in" index="2VMwT0">
        <child id="1137022507850" name="body" index="2VODD2" />
      </concept>
      <concept id="1070475926800" name="jetbrains.mps.baseLanguage.structure.StringLiteral" flags="nn" index="Xl_RD">
        <property id="1070475926801" name="value" index="Xl_RC" />
      </concept>
      <concept id="1081236700937" name="jetbrains.mps.baseLanguage.structure.StaticMethodCall" flags="nn" index="2YIFZM">
        <reference id="1144433194310" name="classConcept" index="1Pybhc" />
      </concept>
      <concept id="1070534058343" name="jetbrains.mps.baseLanguage.structure.NullLiteral" flags="nn" index="10Nm6u" />
      <concept id="1070534644030" name="jetbrains.mps.baseLanguage.structure.BooleanType" flags="in" index="10P_77" />
      <concept id="1068431474542" name="jetbrains.mps.baseLanguage.structure.VariableDeclaration" flags="ng" index="33uBYm">
        <child id="1068431790190" name="initializer" index="33vP2m" />
      </concept>
      <concept id="1068498886296" name="jetbrains.mps.baseLanguage.structure.VariableReference" flags="nn" index="37vLTw">
        <reference id="1068581517664" name="variableDeclaration" index="3cqZAo" />
      </concept>
      <concept id="1225271177708" name="jetbrains.mps.baseLanguage.structure.StringType" flags="in" index="17QB3L" />
      <concept id="4972933694980447171" name="jetbrains.mps.baseLanguage.structure.BaseVariableDeclaration" flags="ng" index="19Szcq">
        <child id="5680397130376446158" name="type" index="1tU5fm" />
      </concept>
      <concept id="1068580123132" name="jetbrains.mps.baseLanguage.structure.BaseMethodDeclaration" flags="ng" index="3clF44">
        <child id="1068580123133" name="returnType" index="3clF45" />
        <child id="1068580123135" name="body" index="3clF47" />
      </concept>
      <concept id="1068580123155" name="jetbrains.mps.baseLanguage.structure.ExpressionStatement" flags="nn" index="3clFbF">
        <child id="1068580123156" name="expression" index="3clFbG" />
      </concept>
      <concept id="1068580123159" name="jetbrains.mps.baseLanguage.structure.IfStatement" flags="nn" index="3clFbJ">
        <child id="1068580123160" name="condition" index="3clFbw" />
        <child id="1068580123161" name="ifTrue" index="3clFbx" />
      </concept>
      <concept id="1068580123136" name="jetbrains.mps.baseLanguage.structure.StatementList" flags="sn" stub="5293379017992965193" index="3clFbS">
        <child id="1068581517665" name="statement" index="3cqZAp" />
      </concept>
      <concept id="1068580123137" name="jetbrains.mps.baseLanguage.structure.BooleanConstant" flags="nn" index="3clFbT">
        <property id="1068580123138" name="value" index="3clFbU" />
      </concept>
      <concept id="1068581242875" name="jetbrains.mps.baseLanguage.structure.PlusExpression" flags="nn" index="3cpWs3" />
      <concept id="1068581242878" name="jetbrains.mps.baseLanguage.structure.ReturnStatement" flags="nn" index="3cpWs6">
        <child id="1068581517676" name="expression" index="3cqZAk" />
      </concept>
      <concept id="1068581242864" name="jetbrains.mps.baseLanguage.structure.LocalVariableDeclarationStatement" flags="nn" index="3cpWs8">
        <child id="1068581242865" name="localVariableDeclaration" index="3cpWs9" />
      </concept>
      <concept id="1068581242863" name="jetbrains.mps.baseLanguage.structure.LocalVariableDeclaration" flags="nr" index="3cpWsn" />
      <concept id="1081516740877" name="jetbrains.mps.baseLanguage.structure.NotExpression" flags="nn" index="3fqX7Q">
        <child id="1081516765348" name="expression" index="3fr31v" />
      </concept>
      <concept id="1204053956946" name="jetbrains.mps.baseLanguage.structure.IMethodCall" flags="ng" index="1ndlxa">
        <reference id="1068499141037" name="baseMethodDeclaration" index="37wK5l" />
        <child id="1068499141038" name="actualArgument" index="37wK5m" />
      </concept>
      <concept id="1081773326031" name="jetbrains.mps.baseLanguage.structure.BinaryOperation" flags="nn" index="3uHJSO">
        <child id="1081773367579" name="rightExpression" index="3uHU7w" />
        <child id="1081773367580" name="leftExpression" index="3uHU7B" />
      </concept>
      <concept id="1073239437375" name="jetbrains.mps.baseLanguage.structure.NotEqualsExpression" flags="nn" index="3y3z36" />
      <concept id="1178549954367" name="jetbrains.mps.baseLanguage.structure.IVisible" flags="ng" index="1B3ioH">
        <child id="1178549979242" name="visibility" index="1B3o_S" />
      </concept>
      <concept id="1163668896201" name="jetbrains.mps.baseLanguage.structure.TernaryOperatorExpression" flags="nn" index="3K4zz7">
        <child id="1163668914799" name="condition" index="3K4Cdx" />
        <child id="1163668922816" name="ifTrue" index="3K4E3e" />
        <child id="1163668934364" name="ifFalse" index="3K4GZi" />
      </concept>
      <concept id="1146644602865" name="jetbrains.mps.baseLanguage.structure.PublicVisibility" flags="nn" index="3Tm1VV" />
    </language>
    <language id="fd392034-7849-419d-9071-12563d152375" name="jetbrains.mps.baseLanguage.closures">
      <concept id="1199569711397" name="jetbrains.mps.baseLanguage.closures.structure.ClosureLiteral" flags="nn" index="1bVj0M">
        <child id="1199569906740" name="parameter" index="1bW2Oz" />
        <child id="1199569916463" name="body" index="1bW5cS" />
      </concept>
    </language>
    <language id="7866978e-a0f0-4cc7-81bc-4d213d9375e1" name="jetbrains.mps.lang.smodel">
      <concept id="1179409122411" name="jetbrains.mps.lang.smodel.structure.Node_ConceptMethodCall" flags="nn" index="2qgKlT" />
      <concept id="2396822768958367367" name="jetbrains.mps.lang.smodel.structure.AbstractTypeCastExpression" flags="nn" index="$5XWr">
        <reference id="6733348108486823428" name="concept" index="1m5ApE" />
        <child id="6733348108486823193" name="leftExpression" index="1m5AlR" />
      </concept>
      <concept id="1143234257716" name="jetbrains.mps.lang.smodel.structure.Node_GetModelOperation" flags="nn" index="I4A8Y" />
      <concept id="6995935425733782641" name="jetbrains.mps.lang.smodel.structure.Model_GetModule" flags="nn" index="13u695" />
      <concept id="1139613262185" name="jetbrains.mps.lang.smodel.structure.Node_GetParentOperation" flags="nn" index="1mfA1w" />
      <concept id="1172323065820" name="jetbrains.mps.lang.smodel.structure.Node_GetConceptOperation" flags="nn" index="3NT_Vc" />
      <concept id="1140137987495" name="jetbrains.mps.lang.smodel.structure.SNodeTypeCastExpression" flags="nn" index="1PxgMI">
        <property id="1238684351431" name="asCast" index="1BlNFB" />
      </concept>
      <concept id="1138055754698" name="jetbrains.mps.lang.smodel.structure.SNodeType" flags="in" index="3Tqbb2">
        <reference id="1138405853777" name="concept" index="ehGHo" />
      </concept>
      <concept id="1138056022639" name="jetbrains.mps.lang.smodel.structure.SPropertyAccess" flags="nn" index="3TrcHB">
        <reference id="1138056395725" name="property" index="3TsBF5" />
      </concept>
      <concept id="1138056143562" name="jetbrains.mps.lang.smodel.structure.SLinkAccess" flags="nn" index="3TrEf2">
        <reference id="1138056516764" name="link" index="3Tt5mk" />
      </concept>
      <concept id="1138056282393" name="jetbrains.mps.lang.smodel.structure.SLinkListAccess" flags="nn" index="3Tsc0h">
        <reference id="1138056546658" name="link" index="3TtcxE" />
      </concept>
    </language>
    <language id="ceab5195-25ea-4f22-9b92-103b95ca8c0c" name="jetbrains.mps.lang.core">
      <concept id="1133920641626" name="jetbrains.mps.lang.core.structure.BaseConcept" flags="ng" index="2VYdi">
        <property id="1193676396447" name="virtualPackage" index="3GE5qa" />
      </concept>
      <concept id="1169194658468" name="jetbrains.mps.lang.core.structure.INamedConcept" flags="ng" index="TrEIO">
        <property id="1169194664001" name="name" index="TrG5h" />
      </concept>
    </language>
    <language id="83888646-71ce-4f1c-9c53-c54016f6ad4f" name="jetbrains.mps.baseLanguage.collections">
      <concept id="1204796164442" name="jetbrains.mps.baseLanguage.collections.structure.InternalSequenceOperation" flags="nn" index="23sCx2">
        <child id="1204796294226" name="closure" index="23t8la" />
      </concept>
      <concept id="540871147943773365" name="jetbrains.mps.baseLanguage.collections.structure.SingleArgumentSequenceOperation" flags="nn" index="25WWJ4">
        <child id="540871147943773366" name="argument" index="25WWJ7" />
      </concept>
      <concept id="1226511727824" name="jetbrains.mps.baseLanguage.collections.structure.SetType" flags="in" index="2hMVRd">
        <child id="1226511765987" name="elementType" index="2hN53Y" />
      </concept>
      <concept id="1151689724996" name="jetbrains.mps.baseLanguage.collections.structure.SequenceType" flags="in" index="A3Dl8">
        <child id="1151689745422" name="elementType" index="A3Ik2" />
      </concept>
      <concept id="1237721394592" name="jetbrains.mps.baseLanguage.collections.structure.AbstractContainerCreator" flags="nn" index="HWqM0">
        <child id="1237721435808" name="initValue" index="HW$Y0" />
        <child id="1237721435807" name="elementType" index="HW$YZ" />
      </concept>
      <concept id="1227008614712" name="jetbrains.mps.baseLanguage.collections.structure.LinkedListCreator" flags="nn" index="2Jqq0_" />
      <concept id="1227026082377" name="jetbrains.mps.baseLanguage.collections.structure.RemoveFirstElementOperation" flags="nn" index="2Kt2Hk" />
      <concept id="1203518072036" name="jetbrains.mps.baseLanguage.collections.structure.SmartClosureParameterDeclaration" flags="ig" index="Rh6nW" />
      <concept id="1160612413312" name="jetbrains.mps.baseLanguage.collections.structure.AddElementOperation" flags="nn" index="TSZUe" />
      <concept id="1160666733551" name="jetbrains.mps.baseLanguage.collections.structure.AddAllElementsOperation" flags="nn" index="X8dFx" />
      <concept id="1240217271293" name="jetbrains.mps.baseLanguage.collections.structure.LinkedHashSetCreator" flags="nn" index="32HrFt" />
      <concept id="1202128969694" name="jetbrains.mps.baseLanguage.collections.structure.SelectOperation" flags="nn" index="3$u5V9" />
      <concept id="1176501494711" name="jetbrains.mps.baseLanguage.collections.structure.IsNotEmptyOperation" flags="nn" index="3GX2aA" />
      <concept id="1172254888721" name="jetbrains.mps.baseLanguage.collections.structure.ContainsOperation" flags="nn" index="3JPx81" />
      <concept id="5686963296372573083" name="jetbrains.mps.baseLanguage.collections.structure.AbstractContainerType" flags="in" index="3O5elB">
        <child id="5686963296372573084" name="elementType" index="3O5elw" />
      </concept>
      <concept id="5686963296372475025" name="jetbrains.mps.baseLanguage.collections.structure.QueueType" flags="in" index="3O6Q9H" />
    </language>
  </registry>
  <node concept="13h7C7" id="6O0kUTrsU99">
    <property role="3GE5qa" value="facet" />
    <ref role="13h7C2" to="vvvw:5$iCEGsO$Kj" resolve="FacetDeclaration" />
    <node concept="13i0hz" id="6O0kUTrsU9c" role="13h7CS">
      <property role="TrG5h" value="allExtends" />
      <node concept="3Tm1VV" id="6O0kUTrsU9d" role="1B3o_S" />
      <node concept="A3Dl8" id="6O0kUTrsU9g" role="3clF45">
        <node concept="3Tqbb2" id="6O0kUTrsU9i" role="A3Ik2">
          <ref role="ehGHo" to="vvvw:5$iCEGsO$Kj" resolve="FacetDeclaration" />
        </node>
      </node>
      <node concept="3clFbS" id="6O0kUTrsU9f" role="3clF47">
        <node concept="3cpWs8" id="5_TVmOF8BcZ" role="3cqZAp">
          <node concept="3cpWsn" id="5_TVmOF8Bd0" role="3cpWs9">
            <property role="TrG5h" value="result" />
            <node concept="2hMVRd" id="5_TVmOF8Bd1" role="1tU5fm">
              <node concept="3Tqbb2" id="5_TVmOF8Kx3" role="2hN53Y">
                <ref role="ehGHo" to="vvvw:5$iCEGsO$Kj" resolve="FacetDeclaration" />
              </node>
            </node>
            <node concept="2ShNRf" id="5_TVmOF8Kxq" role="33vP2m">
              <node concept="32HrFt" id="5_TVmOF8Kxr" role="2ShVmc">
                <node concept="3Tqbb2" id="5_TVmOF8Kxs" role="HW$YZ">
                  <ref role="ehGHo" to="vvvw:5$iCEGsO$Kj" resolve="FacetDeclaration" />
                </node>
              </node>
            </node>
          </node>
        </node>
        <node concept="3cpWs8" id="5_TVmOF8KNC" role="3cqZAp">
          <node concept="3cpWsn" id="5_TVmOF8KND" role="3cpWs9">
            <property role="TrG5h" value="queue" />
            <node concept="3O6Q9H" id="5_TVmOF8KNE" role="1tU5fm">
              <node concept="3Tqbb2" id="5_TVmOF8KNG" role="3O5elw">
                <ref role="ehGHo" to="vvvw:5$iCEGsO$Kj" resolve="FacetDeclaration" />
              </node>
            </node>
            <node concept="2ShNRf" id="5_TVmOF8KNI" role="33vP2m">
              <node concept="2Jqq0_" id="5_TVmOF8KNJ" role="2ShVmc">
                <node concept="3Tqbb2" id="5_TVmOF8KNK" role="HW$YZ">
                  <ref role="ehGHo" to="vvvw:5$iCEGsO$Kj" resolve="FacetDeclaration" />
                </node>
                <node concept="13iPFW" id="5_TVmOF8KNM" role="HW$Y0" />
              </node>
            </node>
          </node>
        </node>
        <node concept="2$JKZl" id="5_TVmOF8KO8" role="3cqZAp">
          <node concept="2OqwBi" id="5_TVmOF8KOc" role="2$JKZa">
            <node concept="37vLTw" id="3GM_nagTziI" role="2Oq$k0">
              <ref role="3cqZAo" node="5_TVmOF8KND" resolve="queue" />
            </node>
            <node concept="3GX2aA" id="5_TVmOF8KOg" role="2OqNvi" />
          </node>
          <node concept="3clFbS" id="5_TVmOF8KOh" role="2LFqv$">
            <node concept="3cpWs8" id="5_TVmOF8KOp" role="3cqZAp">
              <node concept="3cpWsn" id="5_TVmOF8KOq" role="3cpWs9">
                <property role="TrG5h" value="fd" />
                <node concept="3Tqbb2" id="5_TVmOF8KOr" role="1tU5fm">
                  <ref role="ehGHo" to="vvvw:5$iCEGsO$Kj" resolve="FacetDeclaration" />
                </node>
                <node concept="2OqwBi" id="5_TVmOF8KOs" role="33vP2m">
                  <node concept="37vLTw" id="3GM_nagTu1W" role="2Oq$k0">
                    <ref role="3cqZAo" node="5_TVmOF8KND" resolve="queue" />
                  </node>
                  <node concept="2Kt2Hk" id="5_TVmOF8KOu" role="2OqNvi" />
                </node>
              </node>
            </node>
            <node concept="3clFbJ" id="5_TVmOF8KOw" role="3cqZAp">
              <node concept="3clFbS" id="5_TVmOF8KOx" role="3clFbx">
                <node concept="3clFbF" id="5_TVmOF8KOJ" role="3cqZAp">
                  <node concept="2OqwBi" id="5_TVmOF8KOL" role="3clFbG">
                    <node concept="37vLTw" id="3GM_nagTszh" role="2Oq$k0">
                      <ref role="3cqZAo" node="5_TVmOF8Bd0" resolve="result" />
                    </node>
                    <node concept="TSZUe" id="4ODKXqjWD8o" role="2OqNvi">
                      <node concept="37vLTw" id="4ODKXqjWN8d" role="25WWJ7">
                        <ref role="3cqZAo" node="5_TVmOF8KOq" resolve="fd" />
                      </node>
                    </node>
                  </node>
                </node>
                <node concept="3clFbF" id="5_TVmOF8KOT" role="3cqZAp">
                  <node concept="2OqwBi" id="5_TVmOF8KOV" role="3clFbG">
                    <node concept="37vLTw" id="3GM_nagTBqH" role="2Oq$k0">
                      <ref role="3cqZAo" node="5_TVmOF8KND" resolve="queue" />
                    </node>
                    <node concept="X8dFx" id="5_TVmOF8KOZ" role="2OqNvi">
                      <node concept="2OqwBi" id="5_TVmOF8N40" role="25WWJ7">
                        <node concept="2OqwBi" id="5_TVmOF8KP2" role="2Oq$k0">
                          <node concept="37vLTw" id="3GM_nagTvXe" role="2Oq$k0">
                            <ref role="3cqZAo" node="5_TVmOF8KOq" resolve="fd" />
                          </node>
                          <node concept="3Tsc0h" id="5_TVmOF8N3Z" role="2OqNvi">
                            <ref role="3TtcxE" to="vvvw:5_TVmOF8rbY" />
                          </node>
                        </node>
                        <node concept="3$u5V9" id="5_TVmOF8N44" role="2OqNvi">
                          <node concept="1bVj0M" id="5_TVmOF8N45" role="23t8la">
                            <node concept="3clFbS" id="5_TVmOF8N46" role="1bW5cS">
                              <node concept="3clFbF" id="5_TVmOF8N49" role="3cqZAp">
                                <node concept="2OqwBi" id="5_TVmOF8N4b" role="3clFbG">
                                  <node concept="37vLTw" id="2BHiRxghfsH" role="2Oq$k0">
                                    <ref role="3cqZAo" node="5_TVmOF8N47" resolve="it" />
                                  </node>
                                  <node concept="3TrEf2" id="5_TVmOF8N4f" role="2OqNvi">
                                    <ref role="3Tt5mk" to="vvvw:5_TVmOF8rbN" />
                                  </node>
                                </node>
                              </node>
                            </node>
                            <node concept="Rh6nW" id="5_TVmOF8N47" role="1bW2Oz">
                              <property role="TrG5h" value="it" />
                              <node concept="2jxLKc" id="1P4c1XrzTeJ" role="1tU5fm" />
                            </node>
                          </node>
                        </node>
                      </node>
                    </node>
                  </node>
                </node>
              </node>
              <node concept="3fqX7Q" id="5_TVmOF8KO_" role="3clFbw">
                <node concept="2OqwBi" id="5_TVmOF8KOC" role="3fr31v">
                  <node concept="37vLTw" id="3GM_nagTsjV" role="2Oq$k0">
                    <ref role="3cqZAo" node="5_TVmOF8Bd0" resolve="result" />
                  </node>
                  <node concept="3JPx81" id="5_TVmOF8KOG" role="2OqNvi">
                    <node concept="37vLTw" id="3GM_nagTu$d" role="25WWJ7">
                      <ref role="3cqZAo" node="5_TVmOF8KOq" resolve="fd" />
                    </node>
                  </node>
                </node>
              </node>
            </node>
          </node>
        </node>
        <node concept="3clFbF" id="5_TVmOF8N4j" role="3cqZAp">
          <node concept="37vLTw" id="3GM_nagT_dp" role="3clFbG">
            <ref role="3cqZAo" node="5_TVmOF8Bd0" resolve="result" />
          </node>
        </node>
      </node>
    </node>
    <node concept="13i0hz" id="7fB872uckWE" role="13h7CS">
      <property role="TrG5h" value="allRelated" />
      <node concept="3Tm1VV" id="7fB872uckWF" role="1B3o_S" />
      <node concept="A3Dl8" id="7fB872uckWI" role="3clF45">
        <node concept="3Tqbb2" id="7fB872uckWK" role="A3Ik2">
          <ref role="ehGHo" to="vvvw:5$iCEGsO$Kj" resolve="FacetDeclaration" />
        </node>
      </node>
      <node concept="3clFbS" id="7fB872uckWH" role="3clF47">
        <node concept="3cpWs8" id="7fB872uckWP" role="3cqZAp">
          <node concept="3cpWsn" id="7fB872uckWQ" role="3cpWs9">
            <property role="TrG5h" value="result" />
            <node concept="2hMVRd" id="7fB872uckWR" role="1tU5fm">
              <node concept="3Tqbb2" id="7fB872uckWS" role="2hN53Y">
                <ref role="ehGHo" to="vvvw:5$iCEGsO$Kj" resolve="FacetDeclaration" />
              </node>
            </node>
            <node concept="2ShNRf" id="7fB872uckWT" role="33vP2m">
              <node concept="32HrFt" id="7fB872uckWU" role="2ShVmc">
                <node concept="3Tqbb2" id="7fB872uckWV" role="HW$YZ">
                  <ref role="ehGHo" to="vvvw:5$iCEGsO$Kj" resolve="FacetDeclaration" />
                </node>
              </node>
            </node>
          </node>
        </node>
        <node concept="3cpWs8" id="7fB872uckWW" role="3cqZAp">
          <node concept="3cpWsn" id="7fB872uckWX" role="3cpWs9">
            <property role="TrG5h" value="queue" />
            <node concept="3O6Q9H" id="7fB872uckWY" role="1tU5fm">
              <node concept="3Tqbb2" id="7fB872uckWZ" role="3O5elw">
                <ref role="ehGHo" to="vvvw:5$iCEGsO$Kj" resolve="FacetDeclaration" />
              </node>
            </node>
            <node concept="2ShNRf" id="7fB872uckX0" role="33vP2m">
              <node concept="2Jqq0_" id="7fB872uckX1" role="2ShVmc">
                <node concept="3Tqbb2" id="7fB872uckX2" role="HW$YZ">
                  <ref role="ehGHo" to="vvvw:5$iCEGsO$Kj" resolve="FacetDeclaration" />
                </node>
                <node concept="13iPFW" id="7fB872uckX3" role="HW$Y0" />
              </node>
            </node>
          </node>
        </node>
        <node concept="2$JKZl" id="7fB872uckX4" role="3cqZAp">
          <node concept="2OqwBi" id="7fB872uckX5" role="2$JKZa">
            <node concept="37vLTw" id="3GM_nagTx_R" role="2Oq$k0">
              <ref role="3cqZAo" node="7fB872uckWX" resolve="queue" />
            </node>
            <node concept="3GX2aA" id="7fB872uckX7" role="2OqNvi" />
          </node>
          <node concept="3clFbS" id="7fB872uckX8" role="2LFqv$">
            <node concept="3cpWs8" id="7fB872uckX9" role="3cqZAp">
              <node concept="3cpWsn" id="7fB872uckXa" role="3cpWs9">
                <property role="TrG5h" value="fd" />
                <node concept="3Tqbb2" id="7fB872uckXb" role="1tU5fm">
                  <ref role="ehGHo" to="vvvw:5$iCEGsO$Kj" resolve="FacetDeclaration" />
                </node>
                <node concept="2OqwBi" id="7fB872uckXc" role="33vP2m">
                  <node concept="37vLTw" id="3GM_nagTt2h" role="2Oq$k0">
                    <ref role="3cqZAo" node="7fB872uckWX" resolve="queue" />
                  </node>
                  <node concept="2Kt2Hk" id="7fB872uckXe" role="2OqNvi" />
                </node>
              </node>
            </node>
            <node concept="3clFbJ" id="7fB872uckXf" role="3cqZAp">
              <node concept="3clFbS" id="7fB872uckXg" role="3clFbx">
                <node concept="3clFbF" id="7fB872uckXh" role="3cqZAp">
                  <node concept="2OqwBi" id="7fB872uckXi" role="3clFbG">
                    <node concept="37vLTw" id="3GM_nagT_qv" role="2Oq$k0">
                      <ref role="3cqZAo" node="7fB872uckWQ" resolve="result" />
                    </node>
                    <node concept="TSZUe" id="4ODKXqjWNu0" role="2OqNvi">
                      <node concept="37vLTw" id="4ODKXqjWO5D" role="25WWJ7">
                        <ref role="3cqZAo" node="7fB872uckXa" resolve="fd" />
                      </node>
                    </node>
                  </node>
                </node>
                <node concept="3clFbF" id="7fB872uckXm" role="3cqZAp">
                  <node concept="2OqwBi" id="7fB872uckXn" role="3clFbG">
                    <node concept="37vLTw" id="3GM_nagT$eu" role="2Oq$k0">
                      <ref role="3cqZAo" node="7fB872uckWX" resolve="queue" />
                    </node>
                    <node concept="X8dFx" id="7fB872uckXp" role="2OqNvi">
                      <node concept="2OqwBi" id="7fB872uckXq" role="25WWJ7">
                        <node concept="2OqwBi" id="7fB872uckXr" role="2Oq$k0">
                          <node concept="37vLTw" id="3GM_nagTxq7" role="2Oq$k0">
                            <ref role="3cqZAo" node="7fB872uckXa" resolve="fd" />
                          </node>
                          <node concept="3Tsc0h" id="7fB872uctcM" role="2OqNvi">
                            <ref role="3TtcxE" to="vvvw:5_TVmOF8rc0" />
                          </node>
                        </node>
                        <node concept="3$u5V9" id="7fB872uckXu" role="2OqNvi">
                          <node concept="1bVj0M" id="7fB872uckXv" role="23t8la">
                            <node concept="3clFbS" id="7fB872uckXw" role="1bW5cS">
                              <node concept="3clFbF" id="7fB872uckXx" role="3cqZAp">
                                <node concept="2OqwBi" id="7fB872uckXy" role="3clFbG">
                                  <node concept="37vLTw" id="2BHiRxgm7aI" role="2Oq$k0">
                                    <ref role="3cqZAo" node="7fB872uckX_" resolve="it" />
                                  </node>
                                  <node concept="3TrEf2" id="7fB872uckX$" role="2OqNvi">
                                    <ref role="3Tt5mk" to="vvvw:5_TVmOF8rbN" />
                                  </node>
                                </node>
                              </node>
                            </node>
                            <node concept="Rh6nW" id="7fB872uckX_" role="1bW2Oz">
                              <property role="TrG5h" value="it" />
                              <node concept="2jxLKc" id="1P4c1XrzTkp" role="1tU5fm" />
                            </node>
                          </node>
                        </node>
                      </node>
                    </node>
                  </node>
                </node>
                <node concept="3clFbF" id="7fB872uctcO" role="3cqZAp">
                  <node concept="2OqwBi" id="7fB872uctcP" role="3clFbG">
                    <node concept="37vLTw" id="3GM_nagTwvH" role="2Oq$k0">
                      <ref role="3cqZAo" node="7fB872uckWX" resolve="queue" />
                    </node>
                    <node concept="X8dFx" id="7fB872uctcR" role="2OqNvi">
                      <node concept="2OqwBi" id="7fB872uctcS" role="25WWJ7">
                        <node concept="2OqwBi" id="7fB872uctcT" role="2Oq$k0">
                          <node concept="37vLTw" id="3GM_nagTsBN" role="2Oq$k0">
                            <ref role="3cqZAo" node="7fB872uckXa" resolve="fd" />
                          </node>
                          <node concept="3Tsc0h" id="7fB872uctd5" role="2OqNvi">
                            <ref role="3TtcxE" to="vvvw:5_TVmOF8rc1" />
                          </node>
                        </node>
                        <node concept="3$u5V9" id="7fB872uctcW" role="2OqNvi">
                          <node concept="1bVj0M" id="7fB872uctcX" role="23t8la">
                            <node concept="3clFbS" id="7fB872uctcY" role="1bW5cS">
                              <node concept="3clFbF" id="7fB872uctcZ" role="3cqZAp">
                                <node concept="2OqwBi" id="7fB872uctd0" role="3clFbG">
                                  <node concept="37vLTw" id="2BHiRxglIcP" role="2Oq$k0">
                                    <ref role="3cqZAo" node="7fB872uctd3" resolve="it" />
                                  </node>
                                  <node concept="3TrEf2" id="7fB872uctd2" role="2OqNvi">
                                    <ref role="3Tt5mk" to="vvvw:5_TVmOF8rbN" />
                                  </node>
                                </node>
                              </node>
                            </node>
                            <node concept="Rh6nW" id="7fB872uctd3" role="1bW2Oz">
                              <property role="TrG5h" value="it" />
                              <node concept="2jxLKc" id="1P4c1XrzTiX" role="1tU5fm" />
                            </node>
                          </node>
                        </node>
                      </node>
                    </node>
                  </node>
                </node>
              </node>
              <node concept="3fqX7Q" id="7fB872uckXB" role="3clFbw">
                <node concept="2OqwBi" id="7fB872uckXC" role="3fr31v">
                  <node concept="37vLTw" id="3GM_nagTr5q" role="2Oq$k0">
                    <ref role="3cqZAo" node="7fB872uckWQ" resolve="result" />
                  </node>
                  <node concept="3JPx81" id="7fB872uckXE" role="2OqNvi">
                    <node concept="37vLTw" id="3GM_nagTwNp" role="25WWJ7">
                      <ref role="3cqZAo" node="7fB872uckXa" resolve="fd" />
                    </node>
                  </node>
                </node>
              </node>
            </node>
          </node>
        </node>
        <node concept="3clFbF" id="7fB872uckXG" role="3cqZAp">
          <node concept="37vLTw" id="3GM_nagTBMK" role="3clFbG">
            <ref role="3cqZAo" node="7fB872uckWQ" resolve="result" />
          </node>
        </node>
      </node>
    </node>
    <node concept="13i0hz" id="7FuGcnvx7dE" role="13h7CS">
      <property role="TrG5h" value="classifierName" />
      <property role="13i0it" value="true" />
      <ref role="13i0hy" to="tpek:3ZSHU3pg$b_" resolve="classifierName" />
      <node concept="3Tm1VV" id="7FuGcnvx7dF" role="1B3o_S" />
      <node concept="3clFbS" id="7FuGcnvx7dG" role="3clF47">
        <node concept="3clFbF" id="7FuGcnvxjb1" role="3cqZAp">
          <node concept="3cpWs3" id="7FuGcnvxpW6" role="3clFbG">
            <node concept="2OqwBi" id="2wdLO7Kdocd" role="3uHU7w">
              <node concept="3TrcHB" id="2wdLO7Kdoce" role="2OqNvi">
                <ref role="3TsBF5" to="tpce:4qF2Hm2r7ja" resolve="conceptAlias" />
              </node>
              <node concept="2OqwBi" id="2wdLO7Kdocf" role="2Oq$k0">
                <node concept="3NT_Vc" id="2wdLO7Kdocg" role="2OqNvi" />
                <node concept="13iPFW" id="2wdLO7Kdoch" role="2Oq$k0" />
              </node>
            </node>
            <node concept="3cpWs3" id="7FuGcnvxpWa" role="3uHU7B">
              <node concept="2YIFZM" id="7FuGcnvxpWe" role="3uHU7B">
                <ref role="37wK5l" to="18ew:~NameUtil.toValidIdentifier(java.lang.String):java.lang.String" resolve="toValidIdentifier" />
                <ref role="1Pybhc" to="18ew:~NameUtil" resolve="NameUtil" />
                <node concept="2OqwBi" id="7FuGcnvxpWg" role="37wK5m">
                  <node concept="13iPFW" id="7FuGcnvxpWf" role="2Oq$k0" />
                  <node concept="3TrcHB" id="7FuGcnvxpWl" role="2OqNvi">
                    <ref role="3TsBF5" to="tpck:h0TrG11" resolve="name" />
                  </node>
                </node>
              </node>
              <node concept="Xl_RD" id="7FuGcnvxpW9" role="3uHU7w">
                <property role="Xl_RC" value="_" />
              </node>
            </node>
          </node>
        </node>
      </node>
      <node concept="17QB3L" id="7FuGcnvx7dH" role="3clF45" />
    </node>
    <node concept="13i0hz" id="1ExXGqkc_QX" role="13h7CS">
      <property role="13i0iv" value="false" />
      <property role="TrG5h" value="getFacetFqName" />
      <property role="13i0it" value="false" />
      <node concept="3Tm1VV" id="1ExXGqkc_QY" role="1B3o_S" />
      <node concept="17QB3L" id="1ExXGqkc_QZ" role="3clF45" />
      <node concept="3clFbS" id="1ExXGqkc_R0" role="3clF47">
        <node concept="3clFbF" id="wqRDfdX9I3" role="3cqZAp">
          <node concept="3cpWs3" id="wqRDfdXcXE" role="3clFbG">
            <node concept="2OqwBi" id="wqRDfdXdhu" role="3uHU7w">
              <node concept="3TrcHB" id="wqRDfdXer3" role="2OqNvi">
                <ref role="3TsBF5" to="tpck:h0TrG11" resolve="name" />
              </node>
              <node concept="13iPFW" id="wqRDfdXdah" role="2Oq$k0" />
            </node>
            <node concept="3cpWs3" id="wqRDfdXc9k" role="3uHU7B">
              <node concept="2OqwBi" id="wqRDfdX9Op" role="3uHU7B">
                <node concept="2qgKlT" id="wqRDfdXb$m" role="2OqNvi">
                  <ref role="37wK5l" to="tpcu:hEwIO9y" resolve="getFqName" />
                </node>
                <node concept="2OqwBi" id="1ExXGqkc_R4" role="2Oq$k0">
                  <node concept="2OqwBi" id="1ExXGqkc_R5" role="2Oq$k0">
                    <node concept="13iPFW" id="1ExXGqkc_R6" role="2Oq$k0" />
                    <node concept="I4A8Y" id="1ExXGqkc_R7" role="2OqNvi" />
                  </node>
                  <node concept="13u695" id="1ExXGqkc_R8" role="2OqNvi" />
                </node>
              </node>
              <node concept="Xl_RD" id="wqRDfdXc9n" role="3uHU7w">
                <property role="Xl_RC" value="." />
              </node>
            </node>
          </node>
        </node>
      </node>
    </node>
    <node concept="13hLZK" id="6O0kUTrsU9a" role="13h7CW">
      <node concept="3clFbS" id="6O0kUTrsU9b" role="2VODD2" />
    </node>
  </node>
  <node concept="13h7C7" id="6O0kUTrtki3">
    <property role="3GE5qa" value="target" />
    <ref role="13h7C2" to="vvvw:5$iCEGsO$KX" resolve="TargetDeclaration" />
    <node concept="13i0hz" id="6O0kUTrtki6" role="13h7CS">
      <property role="TrG5h" value="facetDeclaration" />
      <node concept="3Tm1VV" id="6O0kUTrtki7" role="1B3o_S" />
      <node concept="3Tqbb2" id="6O0kUTrtkia" role="3clF45">
        <ref role="ehGHo" to="vvvw:5$iCEGsO$Kj" resolve="FacetDeclaration" />
      </node>
      <node concept="3clFbS" id="6O0kUTrtkib" role="3clF47">
        <node concept="3clFbF" id="6O0kUTrtl0B" role="3cqZAp">
          <node concept="1PxgMI" id="6O0kUTrtl0J" role="3clFbG">
            <property role="1BlNFB" value="true" />
            <ref role="1m5ApE" to="vvvw:5$iCEGsO$Kj" resolve="FacetDeclaration" />
            <node concept="2OqwBi" id="6O0kUTrtl0E" role="1m5AlR">
              <node concept="13iPFW" id="6O0kUTrtl0D" role="2Oq$k0" />
              <node concept="1mfA1w" id="6O0kUTrtl0I" role="2OqNvi" />
            </node>
          </node>
        </node>
      </node>
    </node>
    <node concept="13i0hz" id="LXloLaM9s9" role="13h7CS">
      <property role="TrG5h" value="getTargetFqName" />
      <node concept="3Tm1VV" id="LXloLaM9sa" role="1B3o_S" />
      <node concept="17QB3L" id="LXloLaM9sd" role="3clF45" />
      <node concept="3clFbS" id="LXloLaM9sc" role="3clF47">
        <node concept="3cpWs8" id="LXloLaM9st" role="3cqZAp">
          <node concept="3cpWsn" id="LXloLaM9su" role="3cpWs9">
            <property role="TrG5h" value="ffqn" />
            <node concept="17QB3L" id="LXloLaM9sv" role="1tU5fm" />
            <node concept="2OqwBi" id="LXloLaM9sw" role="33vP2m">
              <node concept="1PxgMI" id="LXloLaM9sx" role="2Oq$k0">
                <property role="1BlNFB" value="true" />
                <ref role="1m5ApE" to="vvvw:5$iCEGsO$Kj" resolve="FacetDeclaration" />
                <node concept="2OqwBi" id="LXloLaM9sy" role="1m5AlR">
                  <node concept="13iPFW" id="LXloLaM9sz" role="2Oq$k0" />
                  <node concept="1mfA1w" id="LXloLaM9s$" role="2OqNvi" />
                </node>
              </node>
              <node concept="2qgKlT" id="LXloLaM9s_" role="2OqNvi">
                <ref role="37wK5l" node="1ExXGqkc_QX" resolve="getFacetFqName" />
              </node>
            </node>
          </node>
        </node>
        <node concept="3clFbF" id="LXloLaM9sB" role="3cqZAp">
          <node concept="3K4zz7" id="LXloLaM9sK" role="3clFbG">
            <node concept="3cpWs3" id="LXloLaM9sT" role="3K4E3e">
              <node concept="3cpWs3" id="LXloLaM9sP" role="3uHU7B">
                <node concept="37vLTw" id="3GM_nagTw_m" role="3uHU7B">
                  <ref role="3cqZAo" node="LXloLaM9su" resolve="ffqn" />
                </node>
                <node concept="Xl_RD" id="LXloLaM9sS" role="3uHU7w">
                  <property role="Xl_RC" value="." />
                </node>
              </node>
              <node concept="2OqwBi" id="LXloLaM9sX" role="3uHU7w">
                <node concept="13iPFW" id="LXloLaM9sW" role="2Oq$k0" />
                <node concept="3TrcHB" id="LXloLaM9t1" role="2OqNvi">
                  <ref role="3TsBF5" to="tpck:h0TrG11" resolve="name" />
                </node>
              </node>
            </node>
            <node concept="2OqwBi" id="LXloLaM9t3" role="3K4GZi">
              <node concept="13iPFW" id="LXloLaM9t2" role="2Oq$k0" />
              <node concept="3TrcHB" id="LXloLaM9t7" role="2OqNvi">
                <ref role="3TsBF5" to="tpck:h0TrG11" resolve="name" />
              </node>
            </node>
            <node concept="3y3z36" id="LXloLaM9sG" role="3K4Cdx">
              <node concept="10Nm6u" id="LXloLaM9sJ" role="3uHU7w" />
              <node concept="37vLTw" id="3GM_nagTxlU" role="3uHU7B">
                <ref role="3cqZAo" node="LXloLaM9su" resolve="ffqn" />
              </node>
            </node>
          </node>
        </node>
      </node>
    </node>
    <node concept="13i0hz" id="5cTNP_RQ_Yl" role="13h7CS">
      <property role="13i0iv" value="false" />
      <property role="TrG5h" value="classifierName" />
      <property role="13i0it" value="false" />
      <ref role="13i0hy" to="tpek:3ZSHU3pg$b_" resolve="classifierName" />
      <node concept="3Tm1VV" id="5cTNP_RQ_Ym" role="1B3o_S" />
      <node concept="3clFbS" id="5cTNP_RQ_Yn" role="3clF47">
        <node concept="3clFbF" id="5cTNP_RQA0V" role="3cqZAp">
          <node concept="3cpWs3" id="5L5h3brCm0B" role="3clFbG">
            <node concept="2YIFZM" id="5L5h3brCm0M" role="3uHU7w">
              <ref role="1Pybhc" to="18ew:~NameUtil" resolve="NameUtil" />
              <ref role="37wK5l" to="18ew:~NameUtil.toValidIdentifier(java.lang.String):java.lang.String" resolve="toValidIdentifier" />
              <node concept="2OqwBi" id="5L5h3brCm0O" role="37wK5m">
                <node concept="13iPFW" id="5cTNP_RQ_Zd" role="2Oq$k0" />
                <node concept="3TrcHB" id="5L5h3brCm0S" role="2OqNvi">
                  <ref role="3TsBF5" to="tpck:h0TrG11" resolve="name" />
                </node>
              </node>
            </node>
            <node concept="3cpWs3" id="5cTNP_RQA1G" role="3uHU7B">
              <node concept="2OqwBi" id="5cTNP_RQA1h" role="3uHU7B">
                <node concept="BsUDl" id="5cTNP_RQA0W" role="2Oq$k0">
                  <ref role="37wK5l" node="6O0kUTrtki6" resolve="facetDeclaration" />
                </node>
                <node concept="2qgKlT" id="5cTNP_RQA1n" role="2OqNvi">
                  <ref role="37wK5l" to="tpek:3ZSHU3pg$b_" resolve="classifierName" />
                </node>
              </node>
              <node concept="Xl_RD" id="5cTNP_RQA1J" role="3uHU7w">
                <property role="Xl_RC" value=".Target_" />
              </node>
            </node>
          </node>
        </node>
      </node>
      <node concept="17QB3L" id="5cTNP_RQ_Yo" role="3clF45" />
    </node>
    <node concept="13hLZK" id="6O0kUTrtki4" role="13h7CW">
      <node concept="3clFbS" id="6O0kUTrtki5" role="2VODD2" />
    </node>
  </node>
  <node concept="13h7C7" id="1ExXGqkc_PS">
    <property role="3GE5qa" value="facet" />
    <ref role="13h7C2" to="vvvw:5$iCEGsO$Kh" resolve="IFacet" />
    <node concept="13hLZK" id="1ExXGqkc_PT" role="13h7CW">
      <node concept="3clFbS" id="1ExXGqkc_PU" role="2VODD2" />
    </node>
  </node>
  <node concept="13h7C7" id="1ExXGqkcGvY">
    <ref role="13h7C2" to="vvvw:6euX$ZOxgIK" resolve="FacetReferenceExpression" />
    <node concept="13hLZK" id="1ExXGqkcGvZ" role="13h7CW">
      <node concept="3clFbS" id="1ExXGqkcGw0" role="2VODD2" />
    </node>
    <node concept="13i0hz" id="1653mnvB60a" role="13h7CS">
      <property role="2Ki8OM" value="true" />
      <property role="13i0is" value="false" />
      <property role="TrG5h" value="legalAsStatement" />
      <property role="13i0it" value="false" />
      <ref role="13i0hy" to="tpek:1653mnvAgqK" resolve="legalAsStatement" />
      <node concept="3Tm1VV" id="1653mnvB60b" role="1B3o_S" />
      <node concept="10P_77" id="1653mnvB609" role="3clF45" />
      <node concept="3clFbS" id="1653mnvB60c" role="3clF47">
        <node concept="3cpWs6" id="1653mnvB60d" role="3cqZAp">
          <node concept="3clFbT" id="1653mnvB60e" role="3cqZAk">
            <property role="3clFbU" value="true" />
          </node>
        </node>
      </node>
    </node>
  </node>
  <node concept="13h7C7" id="1653mnvANvC">
    <ref role="13h7C2" to="vvvw:7z95FPUVaZR" resolve="TargetReferenceExpression" />
    <node concept="13hLZK" id="1653mnvANvD" role="13h7CW">
      <node concept="3clFbS" id="1653mnvANvE" role="2VODD2" />
    </node>
    <node concept="13i0hz" id="1653mnvANvz" role="13h7CS">
      <property role="2Ki8OM" value="true" />
      <property role="13i0is" value="false" />
      <property role="TrG5h" value="legalAsStatement" />
      <property role="13i0it" value="false" />
      <ref role="13i0hy" to="tpek:1653mnvAgqK" resolve="legalAsStatement" />
      <node concept="3Tm1VV" id="1653mnvANv$" role="1B3o_S" />
      <node concept="10P_77" id="1653mnvANvy" role="3clF45" />
      <node concept="3clFbS" id="1653mnvANv_" role="3clF47">
        <node concept="3cpWs6" id="1653mnvANvA" role="3cqZAp">
          <node concept="3clFbT" id="1653mnvANvB" role="3cqZAk">
            <property role="3clFbU" value="true" />
          </node>
        </node>
      </node>
    </node>
  </node>
  <node concept="13h7C7" id="1653mnvAOT4">
    <ref role="13h7C2" to="vvvw:6moN$OJ8E_Y" resolve="ParametersDeclaration" />
    <node concept="13hLZK" id="1653mnvAOT5" role="13h7CW">
      <node concept="3clFbS" id="1653mnvAOT6" role="2VODD2" />
    </node>
    <node concept="13i0hz" id="1653mnvAOSZ" role="13h7CS">
      <property role="2Ki8OM" value="true" />
      <property role="13i0is" value="false" />
      <property role="TrG5h" value="getRightBracket" />
      <property role="13i0it" value="false" />
      <ref role="13i0hy" to="17gi:1653mnvAgs3" resolve="getRightBracket" />
      <node concept="3Tm1VV" id="1653mnvAOT0" role="1B3o_S" />
      <node concept="17QB3L" id="1653mnvAOSY" role="3clF45" />
      <node concept="3clFbS" id="1653mnvAOT1" role="3clF47">
        <node concept="3cpWs6" id="1653mnvAOT3" role="3cqZAp">
          <node concept="Xl_RD" id="1653mnvAOT2" role="3cqZAk">
            <property role="Xl_RC" value="&gt;" />
          </node>
        </node>
      </node>
    </node>
    <node concept="13i0hz" id="1653mnvB6ek" role="13h7CS">
      <property role="2Ki8OM" value="true" />
      <property role="13i0is" value="false" />
      <property role="TrG5h" value="getLeftBracket" />
      <property role="13i0it" value="false" />
      <ref role="13i0hy" to="17gi:1653mnvAgnc" resolve="getLeftBracket" />
      <node concept="3Tm1VV" id="1653mnvB6el" role="1B3o_S" />
      <node concept="17QB3L" id="1653mnvB6ej" role="3clF45" />
      <node concept="3clFbS" id="1653mnvB6em" role="3clF47">
        <node concept="3cpWs6" id="1653mnvB6eo" role="3cqZAp">
          <node concept="Xl_RD" id="1653mnvB6en" role="3cqZAk">
            <property role="Xl_RC" value="&lt;" />
          </node>
        </node>
      </node>
    </node>
  </node>
  <node concept="13h7C7" id="1653mnvB6jV">
    <ref role="13h7C2" to="vvvw:6moN$OJ8LMN" resolve="LocalParametersComponentExpression" />
    <node concept="13hLZK" id="1653mnvB6jW" role="13h7CW">
      <node concept="3clFbS" id="1653mnvB6jX" role="2VODD2" />
    </node>
    <node concept="13i0hz" id="1653mnvB6jQ" role="13h7CS">
      <property role="2Ki8OM" value="true" />
      <property role="13i0is" value="false" />
      <property role="TrG5h" value="lvalue" />
      <property role="13i0it" value="false" />
      <ref role="13i0hy" to="tpek:1653mnvAgpj" resolve="lvalue" />
      <node concept="3Tm1VV" id="1653mnvB6jR" role="1B3o_S" />
      <node concept="10P_77" id="1653mnvB6jP" role="3clF45" />
      <node concept="3clFbS" id="1653mnvB6jS" role="3clF47">
        <node concept="3cpWs6" id="1653mnvB6jT" role="3cqZAp">
          <node concept="3clFbT" id="1653mnvB6jU" role="3cqZAk" />
        </node>
      </node>
    </node>
  </node>
  <node concept="13h7C7" id="1653mnvB6ka">
    <ref role="13h7C2" to="vvvw:2TDOII_dveL" resolve="ForeignParametersComponentExpression" />
    <node concept="13hLZK" id="1653mnvB6kb" role="13h7CW">
      <node concept="3clFbS" id="1653mnvB6kc" role="2VODD2" />
    </node>
    <node concept="13i0hz" id="1653mnvB6k5" role="13h7CS">
      <property role="2Ki8OM" value="true" />
      <property role="13i0is" value="false" />
      <property role="TrG5h" value="lvalue" />
      <property role="13i0it" value="false" />
      <ref role="13i0hy" to="tpek:1653mnvAgpj" resolve="lvalue" />
      <node concept="3Tm1VV" id="1653mnvB6k6" role="1B3o_S" />
      <node concept="10P_77" id="1653mnvB6k4" role="3clF45" />
      <node concept="3clFbS" id="1653mnvB6k7" role="3clF47">
        <node concept="3cpWs6" id="1653mnvB6k8" role="3cqZAp">
          <node concept="3clFbT" id="1653mnvB6k9" role="3cqZAk" />
        </node>
      </node>
    </node>
  </node>
</model>

