<?xml version="1.0" encoding="UTF-8"?>
<model ref="r:d9cc47d9-65f3-44ac-ba13-c0e9adf60c8b(jetbrains.mps.make.outlook.behavior)">
  <persistence version="9" />
  <languages>
    <use id="af65afd8-f0dd-4942-87d9-63a55f2a9db1" name="jetbrains.mps.lang.behavior" version="0" />
    <devkit ref="fbc25dd2-5da4-483a-8b19-70928e1b62d7(jetbrains.mps.devkit.general-purpose)" />
  </languages>
  <imports>
    <import index="z5g5" ref="r:c2ffe851-b1b7-4bfa-aad8-33ebdf91b115(jetbrains.mps.make.outlook.structure)" />
  </imports>
  <registry>
    <language id="af65afd8-f0dd-4942-87d9-63a55f2a9db1" name="jetbrains.mps.lang.behavior">
      <concept id="1225194240794" name="jetbrains.mps.lang.behavior.structure.ConceptBehavior" flags="ng" index="13h7C7">
        <reference id="1225194240799" name="concept" index="13h7C2" />
        <child id="1225194240801" name="constructor" index="13h7CW" />
      </concept>
      <concept id="1225194413805" name="jetbrains.mps.lang.behavior.structure.ConceptConstructorDeclaration" flags="in" index="13hLZK" />
    </language>
    <language id="f3061a53-9226-4cc5-a443-f952ceaf5816" name="jetbrains.mps.baseLanguage">
      <concept id="1137021947720" name="jetbrains.mps.baseLanguage.structure.ConceptFunction" flags="in" index="2VMwT0">
        <child id="1137022507850" name="body" index="2VODD2" />
      </concept>
      <concept id="1068580123136" name="jetbrains.mps.baseLanguage.structure.StatementList" flags="sn" stub="5293379017992965193" index="3clFbS" />
    </language>
  </registry>
  <node concept="13h7C7" id="2bpePDE_kZp">
    <ref role="13h7C2" to="z5g5:4RkbWW0I_ji" resolve="Outlook" />
    <node concept="13hLZK" id="2bpePDE_kZq" role="13h7CW">
      <node concept="3clFbS" id="2bpePDE_kZr" role="2VODD2" />
    </node>
  </node>
</model>

