<?xml version="1.0" encoding="UTF-8"?>
<model ref="90746344-04fd-4286-97d5-b46ae6a81709/r:fd659746-8412-4fe8-a781-0bd8ae2004ef(jetbrains.mps.lang.migration/jetbrains.mps.lang.migration.dataFlow)">
  <persistence version="9" />
  <languages>
    <use id="7fa12e9c-b949-4976-b4fa-19accbc320b4" name="jetbrains.mps.lang.dataFlow" version="0" />
    <devkit ref="fbc25dd2-5da4-483a-8b19-70928e1b62d7(jetbrains.mps.devkit.general-purpose)" />
  </languages>
  <imports>
    <import index="53vh" ref="r:53885008-7612-46ff-8b11-27f1d42c3adb(jetbrains.mps.lang.migration.structure)" implicit="true" />
  </imports>
  <registry>
    <language id="f3061a53-9226-4cc5-a443-f952ceaf5816" name="jetbrains.mps.baseLanguage">
      <concept id="1197027756228" name="jetbrains.mps.baseLanguage.structure.DotExpression" flags="nn" index="2OqwBi">
        <child id="1197027771414" name="operand" index="2Oq$k0" />
        <child id="1197027833540" name="operation" index="2OqNvi" />
      </concept>
      <concept id="1137021947720" name="jetbrains.mps.baseLanguage.structure.ConceptFunction" flags="in" index="2VMwT0">
        <child id="1137022507850" name="body" index="2VODD2" />
      </concept>
      <concept id="1068580123157" name="jetbrains.mps.baseLanguage.structure.Statement" flags="nn" index="3clFbH" />
      <concept id="1068580123136" name="jetbrains.mps.baseLanguage.structure.StatementList" flags="sn" stub="5293379017992965193" index="3clFbS">
        <child id="1068581517665" name="statement" index="3cqZAp" />
      </concept>
    </language>
    <language id="7fa12e9c-b949-4976-b4fa-19accbc320b4" name="jetbrains.mps.lang.dataFlow">
      <concept id="1206442055221" name="jetbrains.mps.lang.dataFlow.structure.DataFlowBuilderDeclaration" flags="ig" index="3_zdsH">
        <reference id="1206442096288" name="conceptDeclaration" index="3_znuS" />
        <child id="1206442812839" name="builderBlock" index="3_A6iZ" />
      </concept>
      <concept id="1206442659665" name="jetbrains.mps.lang.dataFlow.structure.BuilderBlock" flags="in" index="3__wT9" />
      <concept id="1206442747519" name="jetbrains.mps.lang.dataFlow.structure.NodeParameter" flags="nn" index="3__QtB" />
      <concept id="1206443823146" name="jetbrains.mps.lang.dataFlow.structure.EmitReadStatement" flags="nn" index="3_DX4M" />
      <concept id="1206444622344" name="jetbrains.mps.lang.dataFlow.structure.BaseEmitVariableStatement" flags="nn" index="3_H0cg">
        <child id="1206444629799" name="variable" index="3_H1SZ" />
      </concept>
    </language>
    <language id="7866978e-a0f0-4cc7-81bc-4d213d9375e1" name="jetbrains.mps.lang.smodel">
      <concept id="1138056143562" name="jetbrains.mps.lang.smodel.structure.SLinkAccess" flags="nn" index="3TrEf2">
        <reference id="1138056516764" name="link" index="3Tt5mk" />
      </concept>
    </language>
    <language id="ceab5195-25ea-4f22-9b92-103b95ca8c0c" name="jetbrains.mps.lang.core">
      <concept id="1133920641626" name="jetbrains.mps.lang.core.structure.BaseConcept" flags="ng" index="2VYdi">
        <property id="1193676396447" name="virtualPackage" index="3GE5qa" />
      </concept>
    </language>
  </registry>
  <node concept="3_zdsH" id="6d7r2FpJB9J">
    <property role="3GE5qa" value="member" />
    <ref role="3_znuS" to="53vh:6d7r2FpJdsQ" resolve="DataDependencyReference" />
    <node concept="3__wT9" id="6d7r2FpJB9K" role="3_A6iZ">
      <node concept="3clFbS" id="6d7r2FpJB9L" role="2VODD2">
        <node concept="3_DX4M" id="6d7r2FpJBa4" role="3cqZAp">
          <node concept="2OqwBi" id="6d7r2FpJBc_" role="3_H1SZ">
            <node concept="3__QtB" id="6d7r2FpJBau" role="2Oq$k0" />
            <node concept="3TrEf2" id="6d7r2FpJBv1" role="2OqNvi">
              <ref role="3Tt5mk" to="53vh:6d7r2FpJdsT" />
            </node>
          </node>
        </node>
        <node concept="3clFbH" id="6d7r2FpJBwT" role="3cqZAp" />
      </node>
    </node>
  </node>
</model>

