<?xml version="1.0" encoding="UTF-8"?>
<model ref="r:c56ba017-82fd-4a83-9d89-b84ea6875cf5(jetbrains.mps.tool.gentest.structure)">
  <persistence version="9" />
  <languages>
    <use id="982eb8df-2c96-4bd7-9963-11712ea622e5" name="jetbrains.mps.lang.resources" version="2" />
  </languages>
  <imports />
  <registry />
</model>

