<?xml version="1.0" encoding="UTF-8"?>
<model ref="r:a6657f88-2637-4f34-9cd2-e8804cb17987(jetbrains.mps.baseLanguage.collections.trove.plugin)">
  <persistence version="9" />
  <languages>
    <use id="fd392034-7849-419d-9071-12563d152375" name="jetbrains.mps.baseLanguage.closures" version="0" />
    <use id="83888646-71ce-4f1c-9c53-c54016f6ad4f" name="jetbrains.mps.baseLanguage.collections" version="0" />
    <use id="7866978e-a0f0-4cc7-81bc-4d213d9375e1" name="jetbrains.mps.lang.smodel" version="4" />
    <use id="c0080a47-7e37-4558-bee9-9ae18e690549" name="jetbrains.mps.lang.extension" version="2" />
    <use id="f3061a53-9226-4cc5-a443-f952ceaf5816" name="jetbrains.mps.baseLanguage" version="4" />
    <devkit ref="fbc25dd2-5da4-483a-8b19-70928e1b62d7(jetbrains.mps.devkit.general-purpose)" />
  </languages>
  <imports>
    <import index="297i" ref="r:cf23edd7-256f-4b20-82d2-696c87889d85(jetbrains.mps.baseLanguage.collections.plugin)" />
    <import index="tp2q" ref="r:00000000-0000-4000-0000-011c8959032e(jetbrains.mps.baseLanguage.collections.structure)" />
    <import index="w1kc" ref="6ed54515-acc8-4d1e-a16c-9fd6cfe951ea/java:jetbrains.mps.smodel(MPS.Core/)" />
    <import index="z1c3" ref="6ed54515-acc8-4d1e-a16c-9fd6cfe951ea/java:jetbrains.mps.project(MPS.Core/)" />
    <import index="mhbf" ref="8865b7a8-5271-43d3-884c-6fd1d9cfdd34/java:org.jetbrains.mps.openapi.model(MPS.OpenAPI/)" />
    <import index="lui2" ref="8865b7a8-5271-43d3-884c-6fd1d9cfdd34/java:org.jetbrains.mps.openapi.module(MPS.OpenAPI/)" />
    <import index="90d" ref="r:421d64ed-8024-497f-aeab-8bddeb389dd2(jetbrains.mps.lang.extension.methods)" implicit="true" />
  </imports>
  <registry>
    <language id="f3061a53-9226-4cc5-a443-f952ceaf5816" name="jetbrains.mps.baseLanguage">
      <concept id="1465982738277781862" name="jetbrains.mps.baseLanguage.structure.PlaceholderMember" flags="ng" index="2tJIrI" />
      <concept id="1197027756228" name="jetbrains.mps.baseLanguage.structure.DotExpression" flags="nn" index="2OqwBi">
        <child id="1197027771414" name="operand" index="2Oq$k0" />
        <child id="1197027833540" name="operation" index="2OqNvi" />
      </concept>
      <concept id="1068431474542" name="jetbrains.mps.baseLanguage.structure.VariableDeclaration" flags="ng" index="33uBYm">
        <child id="1068431790190" name="initializer" index="33vP2m" />
      </concept>
      <concept id="1068498886296" name="jetbrains.mps.baseLanguage.structure.VariableReference" flags="nn" index="37vLTw">
        <reference id="1068581517664" name="variableDeclaration" index="3cqZAo" />
      </concept>
      <concept id="1068498886292" name="jetbrains.mps.baseLanguage.structure.ParameterDeclaration" flags="ir" index="37vLTG" />
      <concept id="4972933694980447171" name="jetbrains.mps.baseLanguage.structure.BaseVariableDeclaration" flags="ng" index="19Szcq">
        <child id="5680397130376446158" name="type" index="1tU5fm" />
      </concept>
      <concept id="1068580123132" name="jetbrains.mps.baseLanguage.structure.BaseMethodDeclaration" flags="ng" index="3clF44">
        <child id="1068580123133" name="returnType" index="3clF45" />
        <child id="1068580123135" name="body" index="3clF47" />
      </concept>
      <concept id="1068580123155" name="jetbrains.mps.baseLanguage.structure.ExpressionStatement" flags="nn" index="3clFbF">
        <child id="1068580123156" name="expression" index="3clFbG" />
      </concept>
      <concept id="1068580123136" name="jetbrains.mps.baseLanguage.structure.StatementList" flags="sn" stub="5293379017992965193" index="3clFbS">
        <child id="1068581517665" name="statement" index="3cqZAp" />
      </concept>
      <concept id="1068581242878" name="jetbrains.mps.baseLanguage.structure.ReturnStatement" flags="nn" index="3cpWs6">
        <child id="1068581517676" name="expression" index="3cqZAk" />
      </concept>
      <concept id="1068581242864" name="jetbrains.mps.baseLanguage.structure.LocalVariableDeclarationStatement" flags="nn" index="3cpWs8">
        <child id="1068581242865" name="localVariableDeclaration" index="3cpWs9" />
      </concept>
      <concept id="1068581242863" name="jetbrains.mps.baseLanguage.structure.LocalVariableDeclaration" flags="nr" index="3cpWsn" />
      <concept id="1107461130800" name="jetbrains.mps.baseLanguage.structure.Classifier" flags="ng" index="3pOWGL">
        <property id="521412098689998745" name="nonStatic" index="2bfB8j" />
        <child id="5375687026011219971" name="member" index="jymVt" unordered="true" />
      </concept>
      <concept id="1107535904670" name="jetbrains.mps.baseLanguage.structure.ClassifierType" flags="in" index="3uibUv">
        <reference id="1107535924139" name="classifier" index="3uigEE" />
      </concept>
      <concept id="1178549954367" name="jetbrains.mps.baseLanguage.structure.IVisible" flags="ng" index="1B3ioH">
        <child id="1178549979242" name="visibility" index="1B3o_S" />
      </concept>
      <concept id="6329021646629104957" name="jetbrains.mps.baseLanguage.structure.TextCommentPart" flags="nn" index="3SKdUq">
        <property id="6329021646629104958" name="text" index="3SKdUp" />
      </concept>
      <concept id="6329021646629104954" name="jetbrains.mps.baseLanguage.structure.SingleLineComment" flags="nn" index="3SKdUt">
        <child id="6329021646629175155" name="commentPart" index="3SKWNk" />
      </concept>
      <concept id="1146644602865" name="jetbrains.mps.baseLanguage.structure.PublicVisibility" flags="nn" index="3Tm1VV" />
    </language>
    <language id="c0080a47-7e37-4558-bee9-9ae18e690549" name="jetbrains.mps.lang.extension">
      <concept id="126958800891274162" name="jetbrains.mps.lang.extension.structure.Extension" flags="ig" index="1lYeZD">
        <reference id="126958800891274597" name="extensionPoint" index="1lYe$Y" />
      </concept>
    </language>
    <language id="fd392034-7849-419d-9071-12563d152375" name="jetbrains.mps.baseLanguage.closures">
      <concept id="1199569711397" name="jetbrains.mps.baseLanguage.closures.structure.ClosureLiteral" flags="nn" index="1bVj0M">
        <child id="1199569906740" name="parameter" index="1bW2Oz" />
        <child id="1199569916463" name="body" index="1bW5cS" />
      </concept>
    </language>
    <language id="c7d5b9dd-a05f-4be2-bc73-f2e16994cc67" name="jetbrains.mps.baseLanguage.lightweightdsl">
      <concept id="3751132065236767083" name="jetbrains.mps.baseLanguage.lightweightdsl.structure.DependentTypeInstance" flags="ig" index="q3mfm">
        <reference id="3751132065236767084" name="decl" index="q3mfh" />
        <reference id="9097849371505568270" name="point" index="1QQUv3" />
      </concept>
      <concept id="3751132065236767060" name="jetbrains.mps.baseLanguage.lightweightdsl.structure.MethodInstance" flags="ig" index="q3mfD">
        <reference id="19209059688387895" name="decl" index="2VtyIY" />
      </concept>
      <concept id="6478870542308703666" name="jetbrains.mps.baseLanguage.lightweightdsl.structure.MemberPlaceholder" flags="ng" index="3tTeZs">
        <property id="6478870542308703667" name="caption" index="3tTeZt" />
        <reference id="6478870542308703669" name="decl" index="3tTeZr" />
      </concept>
    </language>
    <language id="7866978e-a0f0-4cc7-81bc-4d213d9375e1" name="jetbrains.mps.lang.smodel">
      <concept id="1177026924588" name="jetbrains.mps.lang.smodel.structure.RefConcept_Reference" flags="nn" index="chp4Y">
        <reference id="1177026940964" name="conceptDeclaration" index="cht4Q" />
      </concept>
      <concept id="559557797393017698" name="jetbrains.mps.lang.smodel.structure.ModelReferenceExpression" flags="nn" index="BaHAS">
        <property id="559557797393041554" name="fqName" index="BaBD8" />
        <property id="559557797393021807" name="stereotype" index="BaGAP" />
        <property id="559557797393017702" name="name" index="BaHAW" />
        <child id="1423104411233404408" name="repo" index="up2gk" />
      </concept>
      <concept id="1143226024141" name="jetbrains.mps.lang.smodel.structure.SModelType" flags="in" index="H_c77" />
      <concept id="1171323947159" name="jetbrains.mps.lang.smodel.structure.Model_NodesOperation" flags="nn" index="2SmgA7">
        <child id="1758937410080001570" name="conceptArgument" index="1dBWTz" />
      </concept>
    </language>
    <language id="ceab5195-25ea-4f22-9b92-103b95ca8c0c" name="jetbrains.mps.lang.core">
      <concept id="1169194658468" name="jetbrains.mps.lang.core.structure.INamedConcept" flags="ng" index="TrEIO">
        <property id="1169194664001" name="name" index="TrG5h" />
      </concept>
    </language>
  </registry>
  <node concept="1lYeZD" id="4SIS$II2LfN">
    <property role="2bfB8j" value="true" />
    <property role="TrG5h" value="customContainers_extension" />
    <ref role="1lYe$Y" to="297i:3vRuGRSaF5" resolve="customContainers" />
    <node concept="3Tm1VV" id="3IvUXkeQMei" role="1B3o_S" />
    <node concept="2tJIrI" id="3IvUXkeQMej" role="jymVt" />
    <node concept="2tJIrI" id="3IvUXkeQMek" role="jymVt" />
    <node concept="3tTeZs" id="3IvUXkeQMef" role="jymVt">
      <property role="3tTeZt" value="activate" />
      <ref role="3tTeZr" to="90d:3zLwYDe0CPy" resolve="activate" />
    </node>
    <node concept="3tTeZs" id="3IvUXkeQMeg" role="jymVt">
      <property role="3tTeZt" value="deactivate" />
      <ref role="3tTeZr" to="90d:3zLwYDe0BDO" resolve="deactivate" />
    </node>
    <node concept="2tJIrI" id="3IvUXkeQMel" role="jymVt" />
    <node concept="q3mfD" id="3IvUXkeQMem" role="jymVt">
      <property role="TrG5h" value="get" />
      <ref role="2VtyIY" to="90d:3zLwYDe0svr" resolve="get" />
      <node concept="3Tm1VV" id="3IvUXkeQMen" role="1B3o_S" />
      <node concept="3clFbS" id="3IvUXkeQMeo" role="3clF47">
        <node concept="3clFbF" id="4SIS$II2LfR" role="3cqZAp">
          <node concept="1bVj0M" id="4KDfkUwM5uI" role="3clFbG">
            <node concept="3clFbS" id="4KDfkUwM5uJ" role="1bW5cS">
              <node concept="3SKdUt" id="4KDfkUwM5uQ" role="3cqZAp">
                <node concept="3SKdUq" id="4KDfkUwM5uR" role="3SKWNk">
                  <property role="3SKdUp" value="Find the model(s) with custom container declarations" />
                </node>
              </node>
              <node concept="3cpWs8" id="4KDfkUwM5v0" role="3cqZAp">
                <node concept="3cpWsn" id="4KDfkUwM5v1" role="3cpWs9">
                  <property role="TrG5h" value="mdl" />
                  <node concept="BaHAS" id="4HtHXQsVKa3" role="33vP2m">
                    <property role="BaBD8" value="jetbrains.mps.baseLanguage.collections.trove.containers" />
                    <property role="BaHAW" value="jetbrains.mps.baseLanguage.collections.trove.containers" />
                    <property role="BaGAP" value="" />
                    <node concept="37vLTw" id="6j36NaoDLTT" role="up2gk">
                      <ref role="3cqZAo" node="6j36NaoDLKE" resolve="repo" />
                    </node>
                  </node>
                  <node concept="H_c77" id="4KDfkUwM5v2" role="1tU5fm" />
                </node>
              </node>
              <node concept="3cpWs6" id="6j36NaoDNdN" role="3cqZAp">
                <node concept="2OqwBi" id="4KDfkUwM5vc" role="3cqZAk">
                  <node concept="37vLTw" id="3GM_nagT$Ii" role="2Oq$k0">
                    <ref role="3cqZAo" node="4KDfkUwM5v1" resolve="mdl" />
                  </node>
                  <node concept="2SmgA7" id="4KDfkUwM5ve" role="2OqNvi">
                    <node concept="chp4Y" id="1jixkkC_WJh" role="1dBWTz">
                      <ref role="cht4Q" to="tp2q:5i_Pov1WWxc" resolve="CustomContainers" />
                    </node>
                  </node>
                </node>
              </node>
            </node>
            <node concept="37vLTG" id="6j36NaoDLKE" role="1bW2Oz">
              <property role="TrG5h" value="repo" />
              <node concept="3uibUv" id="6j36NaoDLSi" role="1tU5fm">
                <ref role="3uigEE" to="lui2:~SRepository" resolve="SRepository" />
              </node>
            </node>
          </node>
        </node>
      </node>
      <node concept="q3mfm" id="3IvUXkeQMep" role="3clF45">
        <ref role="q3mfh" to="90d:3zLwYDe0sv$" />
        <ref role="1QQUv3" node="3IvUXkeQMem" resolve="get" />
      </node>
    </node>
  </node>
</model>

