<?xml version="1.0" encoding="UTF-8"?>
<model ref="r:2f49c513-6922-493f-ba73-f4cec836a400(jetbrains.mps.baseLanguage.collections.trove.structure)">
  <persistence version="9" />
  <languages>
    <use id="982eb8df-2c96-4bd7-9963-11712ea622e5" name="jetbrains.mps.lang.resources" version="2" />
  </languages>
  <imports />
  <registry />
</model>

