<?xml version="1.0" encoding="UTF-8"?>
<model ref="r:cb137f7a-19a8-46b1-9384-6eb430e15f20(jetbrains.mps.lang.editor.tableTests.behavior)">
  <persistence version="9" />
  <languages>
    <use id="83888646-71ce-4f1c-9c53-c54016f6ad4f" name="jetbrains.mps.baseLanguage.collections" version="0" />
    <use id="af65afd8-f0dd-4942-87d9-63a55f2a9db1" name="jetbrains.mps.lang.behavior" version="0" />
    <use id="f3061a53-9226-4cc5-a443-f952ceaf5816" name="jetbrains.mps.baseLanguage" version="4" />
    <devkit ref="fbc25dd2-5da4-483a-8b19-70928e1b62d7(jetbrains.mps.devkit.general-purpose)" />
  </languages>
  <imports>
    <import index="2qyu" ref="r:ed658292-9fbd-4bc1-94c2-435048f00105(jetbrains.mps.lang.editor.tableTests.structure)" />
    <import index="tpck" ref="r:00000000-0000-4000-0000-011c89590288(jetbrains.mps.lang.core.structure)" implicit="true" />
  </imports>
  <registry>
    <language id="af65afd8-f0dd-4942-87d9-63a55f2a9db1" name="jetbrains.mps.lang.behavior">
      <concept id="1225194240794" name="jetbrains.mps.lang.behavior.structure.ConceptBehavior" flags="ng" index="13h7C7">
        <reference id="1225194240799" name="concept" index="13h7C2" />
        <child id="1225194240805" name="method" index="13h7CS" />
        <child id="1225194240801" name="constructor" index="13h7CW" />
      </concept>
      <concept id="1225194413805" name="jetbrains.mps.lang.behavior.structure.ConceptConstructorDeclaration" flags="in" index="13hLZK" />
      <concept id="1225194472830" name="jetbrains.mps.lang.behavior.structure.ConceptMethodDeclaration" flags="ng" index="13i0hz">
        <property id="5864038008284099149" name="isStatic" index="2Ki8OM" />
        <property id="1225194472833" name="isPrivate" index="13i0is" />
        <property id="1225194472832" name="isVirtual" index="13i0it" />
        <reference id="1225194472831" name="overriddenMethod" index="13i0hy" />
      </concept>
      <concept id="1225194691553" name="jetbrains.mps.lang.behavior.structure.ThisNodeExpression" flags="nn" index="13iPFW" />
    </language>
    <language id="f3061a53-9226-4cc5-a443-f952ceaf5816" name="jetbrains.mps.baseLanguage">
      <concept id="1215693861676" name="jetbrains.mps.baseLanguage.structure.BaseAssignmentExpression" flags="nn" index="d038R">
        <child id="1068498886297" name="rValue" index="37vLTx" />
        <child id="1068498886295" name="lValue" index="37vLTJ" />
      </concept>
      <concept id="1239714755177" name="jetbrains.mps.baseLanguage.structure.AbstractUnaryNumberOperation" flags="nn" index="2$Kvd9">
        <child id="1239714902950" name="expression" index="2$L3a6" />
      </concept>
      <concept id="1154032098014" name="jetbrains.mps.baseLanguage.structure.AbstractLoopStatement" flags="nn" index="2LF5Ji">
        <child id="1154032183016" name="body" index="2LFqv$" />
      </concept>
      <concept id="1197027756228" name="jetbrains.mps.baseLanguage.structure.DotExpression" flags="nn" index="2OqwBi">
        <child id="1197027771414" name="operand" index="2Oq$k0" />
        <child id="1197027833540" name="operation" index="2OqNvi" />
      </concept>
      <concept id="1145552977093" name="jetbrains.mps.baseLanguage.structure.GenericNewExpression" flags="nn" index="2ShNRf">
        <child id="1145553007750" name="creator" index="2ShVmc" />
      </concept>
      <concept id="1137021947720" name="jetbrains.mps.baseLanguage.structure.ConceptFunction" flags="in" index="2VMwT0">
        <child id="1137022507850" name="body" index="2VODD2" />
      </concept>
      <concept id="1070475926800" name="jetbrains.mps.baseLanguage.structure.StringLiteral" flags="nn" index="Xl_RD">
        <property id="1070475926801" name="value" index="Xl_RC" />
      </concept>
      <concept id="1070534370425" name="jetbrains.mps.baseLanguage.structure.IntegerType" flags="in" index="10Oyi0" />
      <concept id="1068431474542" name="jetbrains.mps.baseLanguage.structure.VariableDeclaration" flags="ng" index="33uBYm">
        <child id="1068431790190" name="initializer" index="33vP2m" />
      </concept>
      <concept id="1068498886296" name="jetbrains.mps.baseLanguage.structure.VariableReference" flags="nn" index="37vLTw">
        <reference id="1068581517664" name="variableDeclaration" index="3cqZAo" />
      </concept>
      <concept id="1068498886294" name="jetbrains.mps.baseLanguage.structure.AssignmentExpression" flags="nn" index="37vLTI" />
      <concept id="4972933694980447171" name="jetbrains.mps.baseLanguage.structure.BaseVariableDeclaration" flags="ng" index="19Szcq">
        <child id="5680397130376446158" name="type" index="1tU5fm" />
      </concept>
      <concept id="1068580123132" name="jetbrains.mps.baseLanguage.structure.BaseMethodDeclaration" flags="ng" index="3clF44">
        <child id="1068580123133" name="returnType" index="3clF45" />
        <child id="1068580123135" name="body" index="3clF47" />
      </concept>
      <concept id="1068580123152" name="jetbrains.mps.baseLanguage.structure.EqualsExpression" flags="nn" index="3clFbC" />
      <concept id="1068580123155" name="jetbrains.mps.baseLanguage.structure.ExpressionStatement" flags="nn" index="3clFbF">
        <child id="1068580123156" name="expression" index="3clFbG" />
      </concept>
      <concept id="1068580123157" name="jetbrains.mps.baseLanguage.structure.Statement" flags="nn" index="3clFbH" />
      <concept id="1068580123136" name="jetbrains.mps.baseLanguage.structure.StatementList" flags="sn" stub="5293379017992965193" index="3clFbS">
        <child id="1068581517665" name="statement" index="3cqZAp" />
      </concept>
      <concept id="1068580320020" name="jetbrains.mps.baseLanguage.structure.IntegerConstant" flags="nn" index="3cmrfG">
        <property id="1068580320021" name="value" index="3cmrfH" />
      </concept>
      <concept id="1068581242875" name="jetbrains.mps.baseLanguage.structure.PlusExpression" flags="nn" index="3cpWs3" />
      <concept id="1068581242878" name="jetbrains.mps.baseLanguage.structure.ReturnStatement" flags="nn" index="3cpWs6">
        <child id="1068581517676" name="expression" index="3cqZAk" />
      </concept>
      <concept id="1068581242864" name="jetbrains.mps.baseLanguage.structure.LocalVariableDeclarationStatement" flags="nn" index="3cpWs8">
        <child id="1068581242865" name="localVariableDeclaration" index="3cpWs9" />
      </concept>
      <concept id="1068581242863" name="jetbrains.mps.baseLanguage.structure.LocalVariableDeclaration" flags="nr" index="3cpWsn" />
      <concept id="1081506773034" name="jetbrains.mps.baseLanguage.structure.LessThanExpression" flags="nn" index="3eOVzh" />
      <concept id="1204053956946" name="jetbrains.mps.baseLanguage.structure.IMethodCall" flags="ng" index="1ndlxa">
        <reference id="1068499141037" name="baseMethodDeclaration" index="37wK5l" />
      </concept>
      <concept id="1081773326031" name="jetbrains.mps.baseLanguage.structure.BinaryOperation" flags="nn" index="3uHJSO">
        <child id="1081773367579" name="rightExpression" index="3uHU7w" />
        <child id="1081773367580" name="leftExpression" index="3uHU7B" />
      </concept>
      <concept id="1214918800624" name="jetbrains.mps.baseLanguage.structure.PostfixIncrementExpression" flags="nn" index="3uNrnE" />
      <concept id="1178549954367" name="jetbrains.mps.baseLanguage.structure.IVisible" flags="ng" index="1B3ioH">
        <child id="1178549979242" name="visibility" index="1B3o_S" />
      </concept>
      <concept id="1144230876926" name="jetbrains.mps.baseLanguage.structure.AbstractForStatement" flags="nn" index="1DupvO">
        <child id="1144230900587" name="variable" index="1Duv9x" />
      </concept>
      <concept id="1144231330558" name="jetbrains.mps.baseLanguage.structure.ForStatement" flags="nn" index="1Dw8fO">
        <child id="1144231399730" name="condition" index="1Dwp0S" />
        <child id="1144231408325" name="iteration" index="1Dwrff" />
      </concept>
      <concept id="1163668896201" name="jetbrains.mps.baseLanguage.structure.TernaryOperatorExpression" flags="nn" index="3K4zz7">
        <child id="1163668914799" name="condition" index="3K4Cdx" />
        <child id="1163668922816" name="ifTrue" index="3K4E3e" />
        <child id="1163668934364" name="ifFalse" index="3K4GZi" />
      </concept>
      <concept id="1146644602865" name="jetbrains.mps.baseLanguage.structure.PublicVisibility" flags="nn" index="3Tm1VV" />
    </language>
    <language id="7866978e-a0f0-4cc7-81bc-4d213d9375e1" name="jetbrains.mps.lang.smodel">
      <concept id="1179409122411" name="jetbrains.mps.lang.smodel.structure.Node_ConceptMethodCall" flags="nn" index="2qgKlT" />
      <concept id="2396822768958367367" name="jetbrains.mps.lang.smodel.structure.AbstractTypeCastExpression" flags="nn" index="$5XWr">
        <reference id="6733348108486823428" name="concept" index="1m5ApE" />
        <child id="6733348108486823193" name="leftExpression" index="1m5AlR" />
      </concept>
      <concept id="1139184414036" name="jetbrains.mps.lang.smodel.structure.LinkList_AddNewChildOperation" flags="nn" index="WFELt" />
      <concept id="1139613262185" name="jetbrains.mps.lang.smodel.structure.Node_GetParentOperation" flags="nn" index="1mfA1w" />
      <concept id="1180636770613" name="jetbrains.mps.lang.smodel.structure.SNodeCreator" flags="nn" index="3zrR0B">
        <child id="1180636770616" name="createdType" index="3zrR0E" />
      </concept>
      <concept id="1172323065820" name="jetbrains.mps.lang.smodel.structure.Node_GetConceptOperation" flags="nn" index="3NT_Vc" />
      <concept id="1140137987495" name="jetbrains.mps.lang.smodel.structure.SNodeTypeCastExpression" flags="nn" index="1PxgMI" />
      <concept id="1138055754698" name="jetbrains.mps.lang.smodel.structure.SNodeType" flags="in" index="3Tqbb2">
        <reference id="1138405853777" name="concept" index="ehGHo" />
      </concept>
      <concept id="1138056022639" name="jetbrains.mps.lang.smodel.structure.SPropertyAccess" flags="nn" index="3TrcHB">
        <reference id="1138056395725" name="property" index="3TsBF5" />
      </concept>
      <concept id="1138056143562" name="jetbrains.mps.lang.smodel.structure.SLinkAccess" flags="nn" index="3TrEf2">
        <reference id="1138056516764" name="link" index="3Tt5mk" />
      </concept>
      <concept id="1138056282393" name="jetbrains.mps.lang.smodel.structure.SLinkListAccess" flags="nn" index="3Tsc0h">
        <reference id="1138056546658" name="link" index="3TtcxE" />
      </concept>
    </language>
    <language id="ceab5195-25ea-4f22-9b92-103b95ca8c0c" name="jetbrains.mps.lang.core">
      <concept id="1133920641626" name="jetbrains.mps.lang.core.structure.BaseConcept" flags="ng" index="2VYdi">
        <property id="1193676396447" name="virtualPackage" index="3GE5qa" />
      </concept>
      <concept id="1169194658468" name="jetbrains.mps.lang.core.structure.INamedConcept" flags="ng" index="TrEIO">
        <property id="1169194664001" name="name" index="TrG5h" />
      </concept>
    </language>
    <language id="83888646-71ce-4f1c-9c53-c54016f6ad4f" name="jetbrains.mps.baseLanguage.collections">
      <concept id="540871147943773365" name="jetbrains.mps.baseLanguage.collections.structure.SingleArgumentSequenceOperation" flags="nn" index="25WWJ4">
        <child id="540871147943773366" name="argument" index="25WWJ7" />
      </concept>
      <concept id="1160612413312" name="jetbrains.mps.baseLanguage.collections.structure.AddElementOperation" flags="nn" index="TSZUe" />
      <concept id="1162934736510" name="jetbrains.mps.baseLanguage.collections.structure.GetElementOperation" flags="nn" index="34jXtK" />
    </language>
  </registry>
  <node concept="13h7C7" id="2w0jk4vDdOu">
    <property role="3GE5qa" value="genericTable" />
    <ref role="13h7C2" to="2qyu:2w0jk4vCVUw" resolve="Table" />
    <node concept="13hLZK" id="2w0jk4vDdOv" role="13h7CW">
      <node concept="3clFbS" id="2w0jk4vDdOw" role="2VODD2">
        <node concept="1Dw8fO" id="2w0jk4vDdOB" role="3cqZAp">
          <node concept="3clFbS" id="2w0jk4vDdOC" role="2LFqv$">
            <node concept="3cpWs8" id="2w0jk4vDdOD" role="3cqZAp">
              <node concept="3cpWsn" id="2w0jk4vDdOE" role="3cpWs9">
                <property role="TrG5h" value="row" />
                <node concept="3Tqbb2" id="2w0jk4vDdOF" role="1tU5fm">
                  <ref role="ehGHo" to="2qyu:2w0jk4vCVUA" resolve="Row" />
                </node>
                <node concept="2ShNRf" id="2w0jk4vDdOG" role="33vP2m">
                  <node concept="3zrR0B" id="2w0jk4vDdOH" role="2ShVmc">
                    <node concept="3Tqbb2" id="2w0jk4vDdOI" role="3zrR0E">
                      <ref role="ehGHo" to="2qyu:2w0jk4vCVUA" resolve="Row" />
                    </node>
                  </node>
                </node>
              </node>
            </node>
            <node concept="1Dw8fO" id="2w0jk4vDdOJ" role="3cqZAp">
              <node concept="3clFbS" id="2w0jk4vDdOK" role="2LFqv$">
                <node concept="3cpWs8" id="2w0jk4vDdOL" role="3cqZAp">
                  <node concept="3cpWsn" id="2w0jk4vDdOM" role="3cpWs9">
                    <property role="TrG5h" value="dataCell" />
                    <node concept="3Tqbb2" id="2w0jk4vDdON" role="1tU5fm">
                      <ref role="ehGHo" to="2qyu:2w0jk4vCVU$" resolve="DataCell" />
                    </node>
                    <node concept="2ShNRf" id="2w0jk4vDdOO" role="33vP2m">
                      <node concept="3zrR0B" id="2w0jk4vDdOP" role="2ShVmc">
                        <node concept="3Tqbb2" id="2w0jk4vDdOQ" role="3zrR0E">
                          <ref role="ehGHo" to="2qyu:2w0jk4vCVU$" resolve="DataCell" />
                        </node>
                      </node>
                    </node>
                  </node>
                </node>
                <node concept="3clFbF" id="2w0jk4vDdOR" role="3cqZAp">
                  <node concept="37vLTI" id="2w0jk4vDdOS" role="3clFbG">
                    <node concept="3cpWs3" id="26vDPgWjyck" role="37vLTx">
                      <node concept="Xl_RD" id="26vDPgWjycn" role="3uHU7w">
                        <property role="Xl_RC" value="$" />
                      </node>
                      <node concept="3cpWs3" id="2w0jk4vDdOT" role="3uHU7B">
                        <node concept="3cpWs3" id="2w0jk4vDdOV" role="3uHU7B">
                          <node concept="3cpWs3" id="26vDPgWjycg" role="3uHU7B">
                            <node concept="Xl_RD" id="26vDPgWjycj" role="3uHU7B">
                              <property role="Xl_RC" value="$" />
                            </node>
                            <node concept="37vLTw" id="3GM_nagTta$" role="3uHU7w">
                              <ref role="3cqZAo" node="2w0jk4vDdPn" resolve="i" />
                            </node>
                          </node>
                          <node concept="Xl_RD" id="2w0jk4vDdOX" role="3uHU7w">
                            <property role="Xl_RC" value=" " />
                          </node>
                        </node>
                        <node concept="37vLTw" id="3GM_nagTtTz" role="3uHU7w">
                          <ref role="3cqZAo" node="2w0jk4vDdP8" resolve="j" />
                        </node>
                      </node>
                    </node>
                    <node concept="2OqwBi" id="2w0jk4vDdOY" role="37vLTJ">
                      <node concept="37vLTw" id="3GM_nagTAnf" role="2Oq$k0">
                        <ref role="3cqZAo" node="2w0jk4vDdOM" resolve="dataCell" />
                      </node>
                      <node concept="3TrcHB" id="2w0jk4vDdP0" role="2OqNvi">
                        <ref role="3TsBF5" to="2qyu:2w0jk4vCVU_" resolve="value" />
                      </node>
                    </node>
                  </node>
                </node>
                <node concept="3clFbF" id="2w0jk4vDdP1" role="3cqZAp">
                  <node concept="2OqwBi" id="2w0jk4vDdP2" role="3clFbG">
                    <node concept="2OqwBi" id="2w0jk4vDdP3" role="2Oq$k0">
                      <node concept="37vLTw" id="3GM_nagTrar" role="2Oq$k0">
                        <ref role="3cqZAo" node="2w0jk4vDdOE" resolve="row" />
                      </node>
                      <node concept="3Tsc0h" id="2w0jk4vDlKr" role="2OqNvi">
                        <ref role="3TtcxE" to="2qyu:2w0jk4vCVUB" />
                      </node>
                    </node>
                    <node concept="TSZUe" id="2w0jk4vDdP6" role="2OqNvi">
                      <node concept="37vLTw" id="3GM_nagTvrJ" role="25WWJ7">
                        <ref role="3cqZAo" node="2w0jk4vDdOM" resolve="dataCell" />
                      </node>
                    </node>
                  </node>
                </node>
              </node>
              <node concept="3cpWsn" id="2w0jk4vDdP8" role="1Duv9x">
                <property role="TrG5h" value="j" />
                <node concept="10Oyi0" id="2w0jk4vDdP9" role="1tU5fm" />
                <node concept="3cmrfG" id="2w0jk4vDdPa" role="33vP2m">
                  <property role="3cmrfH" value="0" />
                </node>
              </node>
              <node concept="3eOVzh" id="2w0jk4vDdPb" role="1Dwp0S">
                <node concept="2OqwBi" id="1653mnvCa5T" role="3uHU7w">
                  <node concept="2OqwBi" id="1653mnvCa5U" role="2Oq$k0">
                    <node concept="13iPFW" id="1653mnvCa5V" role="2Oq$k0" />
                    <node concept="3NT_Vc" id="1653mnvCa5W" role="2OqNvi" />
                  </node>
                  <node concept="2qgKlT" id="1653mnvCa5X" role="2OqNvi">
                    <ref role="37wK5l" node="1653mnvAgqE" resolve="getInitialColumnCount" />
                  </node>
                </node>
                <node concept="37vLTw" id="3GM_nagTxVg" role="3uHU7B">
                  <ref role="3cqZAo" node="2w0jk4vDdP8" resolve="j" />
                </node>
              </node>
              <node concept="3uNrnE" id="2w0jk4vDdPe" role="1Dwrff">
                <node concept="37vLTw" id="3GM_nagTv4V" role="2$L3a6">
                  <ref role="3cqZAo" node="2w0jk4vDdP8" resolve="j" />
                </node>
              </node>
            </node>
            <node concept="3clFbF" id="2w0jk4vDdPg" role="3cqZAp">
              <node concept="2OqwBi" id="2w0jk4vDdPh" role="3clFbG">
                <node concept="2OqwBi" id="2w0jk4vDdPi" role="2Oq$k0">
                  <node concept="13iPFW" id="2w0jk4vDdPj" role="2Oq$k0" />
                  <node concept="3Tsc0h" id="2w0jk4vDlKs" role="2OqNvi">
                    <ref role="3TtcxE" to="2qyu:2w0jk4vCVUy" />
                  </node>
                </node>
                <node concept="TSZUe" id="2w0jk4vDdPl" role="2OqNvi">
                  <node concept="37vLTw" id="3GM_nagTBNv" role="25WWJ7">
                    <ref role="3cqZAo" node="2w0jk4vDdOE" resolve="row" />
                  </node>
                </node>
              </node>
            </node>
          </node>
          <node concept="3cpWsn" id="2w0jk4vDdPn" role="1Duv9x">
            <property role="TrG5h" value="i" />
            <node concept="10Oyi0" id="2w0jk4vDdPo" role="1tU5fm" />
            <node concept="3cmrfG" id="2w0jk4vDdPp" role="33vP2m">
              <property role="3cmrfH" value="0" />
            </node>
          </node>
          <node concept="3eOVzh" id="2w0jk4vDdPq" role="1Dwp0S">
            <node concept="2OqwBi" id="1653mnvBnO1" role="3uHU7w">
              <node concept="2OqwBi" id="1653mnvBnO2" role="2Oq$k0">
                <node concept="13iPFW" id="1653mnvBnO3" role="2Oq$k0" />
                <node concept="3NT_Vc" id="1653mnvBnO4" role="2OqNvi" />
              </node>
              <node concept="2qgKlT" id="1653mnvBnO5" role="2OqNvi">
                <ref role="37wK5l" node="1653mnvAgrI" resolve="getInitialRowCount" />
              </node>
            </node>
            <node concept="37vLTw" id="3GM_nagTvS7" role="3uHU7B">
              <ref role="3cqZAo" node="2w0jk4vDdPn" resolve="i" />
            </node>
          </node>
          <node concept="3uNrnE" id="2w0jk4vDdPt" role="1Dwrff">
            <node concept="37vLTw" id="3GM_nagTrpk" role="2$L3a6">
              <ref role="3cqZAo" node="2w0jk4vDdPn" resolve="i" />
            </node>
          </node>
        </node>
      </node>
    </node>
    <node concept="13i0hz" id="1653mnvAgqE" role="13h7CS">
      <property role="2Ki8OM" value="true" />
      <property role="13i0is" value="false" />
      <property role="TrG5h" value="getInitialColumnCount" />
      <property role="13i0it" value="true" />
      <node concept="3Tm1VV" id="1653mnvAgqF" role="1B3o_S" />
      <node concept="10Oyi0" id="1653mnvAgqB" role="3clF45" />
      <node concept="3clFbS" id="1653mnvAgqG" role="3clF47">
        <node concept="3cpWs6" id="1653mnvAgqD" role="3cqZAp">
          <node concept="3cmrfG" id="1653mnvAgqC" role="3cqZAk">
            <property role="3cmrfH" value="3" />
          </node>
        </node>
      </node>
    </node>
    <node concept="13i0hz" id="1653mnvAgrI" role="13h7CS">
      <property role="2Ki8OM" value="true" />
      <property role="13i0is" value="false" />
      <property role="TrG5h" value="getInitialRowCount" />
      <property role="13i0it" value="true" />
      <node concept="3Tm1VV" id="1653mnvAgrJ" role="1B3o_S" />
      <node concept="10Oyi0" id="1653mnvAgrF" role="3clF45" />
      <node concept="3clFbS" id="1653mnvAgrK" role="3clF47">
        <node concept="3cpWs6" id="1653mnvAgrH" role="3cqZAp">
          <node concept="3cmrfG" id="1653mnvAgrG" role="3cqZAk">
            <property role="3cmrfH" value="5" />
          </node>
        </node>
      </node>
    </node>
  </node>
  <node concept="13h7C7" id="6vrtzn$Rumo">
    <property role="3GE5qa" value="genericStateMachine" />
    <ref role="13h7C2" to="2qyu:EpZY78hmIx" resolve="StateMachine" />
    <node concept="13hLZK" id="6vrtzn$Rump" role="13h7CW">
      <node concept="3clFbS" id="6vrtzn$Rumq" role="2VODD2">
        <node concept="3cpWs8" id="6vrtzn$Rumr" role="3cqZAp">
          <node concept="3cpWsn" id="6vrtzn$Rums" role="3cpWs9">
            <property role="TrG5h" value="count" />
            <node concept="10Oyi0" id="6vrtzn$Rumt" role="1tU5fm" />
            <node concept="3cmrfG" id="6vrtzn$RumQ" role="33vP2m">
              <property role="3cmrfH" value="3" />
            </node>
          </node>
        </node>
        <node concept="1Dw8fO" id="6vrtzn$Rumz" role="3cqZAp">
          <node concept="3clFbS" id="6vrtzn$Rum$" role="2LFqv$">
            <node concept="3cpWs8" id="6vrtzn$Ryuf" role="3cqZAp">
              <node concept="3cpWsn" id="6vrtzn$Ryug" role="3cpWs9">
                <property role="TrG5h" value="event" />
                <node concept="3Tqbb2" id="6vrtzn$Ryuh" role="1tU5fm">
                  <ref role="ehGHo" to="2qyu:EpZY78hngV" resolve="Event" />
                </node>
                <node concept="2ShNRf" id="6vrtzn$Ryum" role="33vP2m">
                  <node concept="3zrR0B" id="6vrtzn$Ryun" role="2ShVmc">
                    <node concept="3Tqbb2" id="6vrtzn$Ryuo" role="3zrR0E">
                      <ref role="ehGHo" to="2qyu:EpZY78hngV" resolve="Event" />
                    </node>
                  </node>
                </node>
              </node>
            </node>
            <node concept="3clFbF" id="6vrtzn$Ryux" role="3cqZAp">
              <node concept="37vLTI" id="6vrtzn$RyuC" role="3clFbG">
                <node concept="2OqwBi" id="6vrtzn$Ryuz" role="37vLTJ">
                  <node concept="37vLTw" id="3GM_nagTsYt" role="2Oq$k0">
                    <ref role="3cqZAo" node="6vrtzn$Ryug" resolve="event" />
                  </node>
                  <node concept="3TrcHB" id="6vrtzn$RyuB" role="2OqNvi">
                    <ref role="3TsBF5" to="tpck:h0TrG11" resolve="name" />
                  </node>
                </node>
                <node concept="3cpWs3" id="6vrtzn$RyuG" role="37vLTx">
                  <node concept="37vLTw" id="3GM_nagTtQL" role="3uHU7w">
                    <ref role="3cqZAo" node="6vrtzn$RumA" resolve="i" />
                  </node>
                  <node concept="Xl_RD" id="6vrtzn$RyuF" role="3uHU7B">
                    <property role="Xl_RC" value="e_" />
                  </node>
                </node>
              </node>
            </node>
            <node concept="3clFbF" id="6vrtzn$Ryu1" role="3cqZAp">
              <node concept="2OqwBi" id="6vrtzn$Ryup" role="3clFbG">
                <node concept="2OqwBi" id="6vrtzn$Ryu3" role="2Oq$k0">
                  <node concept="13iPFW" id="6vrtzn$Ryu2" role="2Oq$k0" />
                  <node concept="3Tsc0h" id="6vrtzn$Ryu7" role="2OqNvi">
                    <ref role="3TtcxE" to="2qyu:EpZY78hmIz" />
                  </node>
                </node>
                <node concept="TSZUe" id="6vrtzn$Ryut" role="2OqNvi">
                  <node concept="37vLTw" id="3GM_nagTvLb" role="25WWJ7">
                    <ref role="3cqZAo" node="6vrtzn$Ryug" resolve="event" />
                  </node>
                </node>
              </node>
            </node>
          </node>
          <node concept="3cpWsn" id="6vrtzn$RumA" role="1Duv9x">
            <property role="TrG5h" value="i" />
            <node concept="10Oyi0" id="6vrtzn$RumB" role="1tU5fm" />
            <node concept="3cmrfG" id="6vrtzn$RumD" role="33vP2m">
              <property role="3cmrfH" value="0" />
            </node>
          </node>
          <node concept="3eOVzh" id="6vrtzn$RumF" role="1Dwp0S">
            <node concept="37vLTw" id="3GM_nagTtWS" role="3uHU7w">
              <ref role="3cqZAo" node="6vrtzn$Rums" resolve="count" />
            </node>
            <node concept="37vLTw" id="3GM_nagTyuC" role="3uHU7B">
              <ref role="3cqZAo" node="6vrtzn$RumA" resolve="i" />
            </node>
          </node>
          <node concept="3uNrnE" id="6vrtzn$RumN" role="1Dwrff">
            <node concept="37vLTw" id="3GM_nagTwbb" role="2$L3a6">
              <ref role="3cqZAo" node="6vrtzn$RumA" resolve="i" />
            </node>
          </node>
        </node>
        <node concept="1Dw8fO" id="6vrtzn$RyuL" role="3cqZAp">
          <node concept="3clFbS" id="6vrtzn$RyuM" role="2LFqv$">
            <node concept="3cpWs8" id="6vrtzn$Ryv0" role="3cqZAp">
              <node concept="3cpWsn" id="6vrtzn$Ryv1" role="3cpWs9">
                <property role="TrG5h" value="state" />
                <node concept="3Tqbb2" id="6vrtzn$Ryv2" role="1tU5fm">
                  <ref role="ehGHo" to="2qyu:EpZY78hnh2" resolve="State" />
                </node>
                <node concept="2ShNRf" id="6vrtzn$Ryv4" role="33vP2m">
                  <node concept="3zrR0B" id="6vrtzn$Ryv5" role="2ShVmc">
                    <node concept="3Tqbb2" id="6vrtzn$Ryv6" role="3zrR0E">
                      <ref role="ehGHo" to="2qyu:EpZY78hnh2" resolve="State" />
                    </node>
                  </node>
                </node>
              </node>
            </node>
            <node concept="3clFbF" id="6vrtzn$Ryv8" role="3cqZAp">
              <node concept="37vLTI" id="6vrtzn$Ryvf" role="3clFbG">
                <node concept="3cpWs3" id="6vrtzn$Ryvj" role="37vLTx">
                  <node concept="37vLTw" id="3GM_nagTxa4" role="3uHU7w">
                    <ref role="3cqZAo" node="6vrtzn$RyuO" resolve="i" />
                  </node>
                  <node concept="Xl_RD" id="6vrtzn$Ryvi" role="3uHU7B">
                    <property role="Xl_RC" value="s_" />
                  </node>
                </node>
                <node concept="2OqwBi" id="6vrtzn$Ryva" role="37vLTJ">
                  <node concept="37vLTw" id="3GM_nagTBb_" role="2Oq$k0">
                    <ref role="3cqZAo" node="6vrtzn$Ryv1" resolve="state" />
                  </node>
                  <node concept="3TrcHB" id="6vrtzn$Ryve" role="2OqNvi">
                    <ref role="3TsBF5" to="tpck:h0TrG11" resolve="name" />
                  </node>
                </node>
              </node>
            </node>
            <node concept="3clFbF" id="6vrtzn$Ryvo" role="3cqZAp">
              <node concept="2OqwBi" id="6vrtzn$Ryvv" role="3clFbG">
                <node concept="2OqwBi" id="6vrtzn$Ryvq" role="2Oq$k0">
                  <node concept="13iPFW" id="6vrtzn$Ryvp" role="2Oq$k0" />
                  <node concept="3Tsc0h" id="6vrtzn$Ryvu" role="2OqNvi">
                    <ref role="3TtcxE" to="2qyu:EpZY78hmI_" />
                  </node>
                </node>
                <node concept="TSZUe" id="6vrtzn$Ryvz" role="2OqNvi">
                  <node concept="37vLTw" id="3GM_nagTubA" role="25WWJ7">
                    <ref role="3cqZAo" node="6vrtzn$Ryv1" resolve="state" />
                  </node>
                </node>
              </node>
            </node>
          </node>
          <node concept="3cpWsn" id="6vrtzn$RyuO" role="1Duv9x">
            <property role="TrG5h" value="i" />
            <node concept="10Oyi0" id="6vrtzn$RyuP" role="1tU5fm" />
            <node concept="3cmrfG" id="6vrtzn$RyuR" role="33vP2m">
              <property role="3cmrfH" value="0" />
            </node>
          </node>
          <node concept="3eOVzh" id="6vrtzn$RyuW" role="1Dwp0S">
            <node concept="37vLTw" id="3GM_nagT$oP" role="3uHU7w">
              <ref role="3cqZAo" node="6vrtzn$Rums" resolve="count" />
            </node>
            <node concept="37vLTw" id="3GM_nagTBBj" role="3uHU7B">
              <ref role="3cqZAo" node="6vrtzn$RyuO" resolve="i" />
            </node>
          </node>
          <node concept="3uNrnE" id="43ui0y7rT5p" role="1Dwrff">
            <node concept="37vLTw" id="3GM_nagTxha" role="2$L3a6">
              <ref role="3cqZAo" node="6vrtzn$RyuO" resolve="i" />
            </node>
          </node>
        </node>
        <node concept="1Dw8fO" id="43ui0y7rTnM" role="3cqZAp">
          <node concept="3clFbS" id="43ui0y7rTnN" role="2LFqv$">
            <node concept="3cpWs8" id="43ui0y7rT_D" role="3cqZAp">
              <node concept="3cpWsn" id="43ui0y7rT_E" role="3cpWs9">
                <property role="TrG5h" value="sourceState" />
                <node concept="3Tqbb2" id="43ui0y7rT_F" role="1tU5fm">
                  <ref role="ehGHo" to="2qyu:EpZY78hnh2" resolve="State" />
                </node>
                <node concept="2OqwBi" id="43ui0y7rT_N" role="33vP2m">
                  <node concept="2OqwBi" id="43ui0y7rT_I" role="2Oq$k0">
                    <node concept="13iPFW" id="43ui0y7rT_H" role="2Oq$k0" />
                    <node concept="3Tsc0h" id="43ui0y7rT_M" role="2OqNvi">
                      <ref role="3TtcxE" to="2qyu:EpZY78hmI_" />
                    </node>
                  </node>
                  <node concept="34jXtK" id="43ui0y7rT_R" role="2OqNvi">
                    <node concept="37vLTw" id="3GM_nagTAdu" role="25WWJ7">
                      <ref role="3cqZAo" node="43ui0y7rTnP" resolve="i" />
                    </node>
                  </node>
                </node>
              </node>
            </node>
            <node concept="3cpWs8" id="43ui0y7s2Bo" role="3cqZAp">
              <node concept="3cpWsn" id="43ui0y7s2Bp" role="3cpWs9">
                <property role="TrG5h" value="targetState" />
                <node concept="3Tqbb2" id="43ui0y7s2Bq" role="1tU5fm">
                  <ref role="ehGHo" to="2qyu:EpZY78hnh2" resolve="State" />
                </node>
                <node concept="2OqwBi" id="43ui0y7s2By" role="33vP2m">
                  <node concept="2OqwBi" id="43ui0y7s2Bt" role="2Oq$k0">
                    <node concept="13iPFW" id="43ui0y7s2Bs" role="2Oq$k0" />
                    <node concept="3Tsc0h" id="43ui0y7s2Bx" role="2OqNvi">
                      <ref role="3TtcxE" to="2qyu:EpZY78hmI_" />
                    </node>
                  </node>
                  <node concept="34jXtK" id="43ui0y7s2BA" role="2OqNvi">
                    <node concept="3K4zz7" id="43ui0y7s2BH" role="25WWJ7">
                      <node concept="3cmrfG" id="43ui0y7s2BP" role="3K4E3e">
                        <property role="3cmrfH" value="0" />
                      </node>
                      <node concept="3cpWs3" id="43ui0y7s2BR" role="3K4GZi">
                        <node concept="3cmrfG" id="43ui0y7s2BU" role="3uHU7w">
                          <property role="3cmrfH" value="1" />
                        </node>
                        <node concept="37vLTw" id="3GM_nagTAoI" role="3uHU7B">
                          <ref role="3cqZAo" node="43ui0y7rTnP" resolve="i" />
                        </node>
                      </node>
                      <node concept="3clFbC" id="43ui0y7s2BD" role="3K4Cdx">
                        <node concept="37vLTw" id="3GM_nagTsux" role="3uHU7w">
                          <ref role="3cqZAo" node="6vrtzn$Rums" resolve="count" />
                        </node>
                        <node concept="3cpWs3" id="43ui0y7s2BL" role="3uHU7B">
                          <node concept="3cmrfG" id="43ui0y7s2BO" role="3uHU7w">
                            <property role="3cmrfH" value="1" />
                          </node>
                          <node concept="37vLTw" id="3GM_nagTyKT" role="3uHU7B">
                            <ref role="3cqZAo" node="43ui0y7rTnP" resolve="i" />
                          </node>
                        </node>
                      </node>
                    </node>
                  </node>
                </node>
              </node>
            </node>
            <node concept="3cpWs8" id="43ui0y7s2B7" role="3cqZAp">
              <node concept="3cpWsn" id="43ui0y7s2B8" role="3cpWs9">
                <property role="TrG5h" value="event" />
                <node concept="3Tqbb2" id="43ui0y7s2B9" role="1tU5fm">
                  <ref role="ehGHo" to="2qyu:EpZY78hngV" resolve="Event" />
                </node>
                <node concept="2OqwBi" id="43ui0y7s2Bh" role="33vP2m">
                  <node concept="2OqwBi" id="43ui0y7s2Bc" role="2Oq$k0">
                    <node concept="13iPFW" id="43ui0y7s2Bb" role="2Oq$k0" />
                    <node concept="3Tsc0h" id="43ui0y7s2Bg" role="2OqNvi">
                      <ref role="3TtcxE" to="2qyu:EpZY78hmIz" />
                    </node>
                  </node>
                  <node concept="34jXtK" id="43ui0y7s2Bl" role="2OqNvi">
                    <node concept="37vLTw" id="3GM_nagTxLi" role="25WWJ7">
                      <ref role="3cqZAo" node="43ui0y7rTnP" resolve="i" />
                    </node>
                  </node>
                </node>
              </node>
            </node>
            <node concept="3clFbH" id="43ui0y7s2BV" role="3cqZAp" />
            <node concept="3cpWs8" id="43ui0y7rTo5" role="3cqZAp">
              <node concept="3cpWsn" id="43ui0y7rTo6" role="3cpWs9">
                <property role="TrG5h" value="transition" />
                <node concept="3Tqbb2" id="43ui0y7rTo7" role="1tU5fm">
                  <ref role="ehGHo" to="2qyu:EpZY78hngX" resolve="Transition" />
                </node>
                <node concept="2ShNRf" id="43ui0y7rTo9" role="33vP2m">
                  <node concept="3zrR0B" id="43ui0y7rToa" role="2ShVmc">
                    <node concept="3Tqbb2" id="43ui0y7rTob" role="3zrR0E">
                      <ref role="ehGHo" to="2qyu:EpZY78hngX" resolve="Transition" />
                    </node>
                  </node>
                </node>
              </node>
            </node>
            <node concept="3clFbF" id="43ui0y7rTod" role="3cqZAp">
              <node concept="37vLTI" id="43ui0y7rT_6" role="3clFbG">
                <node concept="2ShNRf" id="43ui0y7rT_9" role="37vLTx">
                  <node concept="3zrR0B" id="43ui0y7rT_a" role="2ShVmc">
                    <node concept="3Tqbb2" id="43ui0y7rT_b" role="3zrR0E">
                      <ref role="ehGHo" to="2qyu:EpZY78hnh4" resolve="StateReference" />
                    </node>
                  </node>
                </node>
                <node concept="2OqwBi" id="43ui0y7rTog" role="37vLTJ">
                  <node concept="37vLTw" id="3GM_nagTrcs" role="2Oq$k0">
                    <ref role="3cqZAo" node="43ui0y7rTo6" resolve="transition" />
                  </node>
                  <node concept="3TrEf2" id="43ui0y7rT_1" role="2OqNvi">
                    <ref role="3Tt5mk" to="2qyu:EpZY78hngY" />
                  </node>
                </node>
              </node>
            </node>
            <node concept="3clFbF" id="43ui0y7s2BY" role="3cqZAp">
              <node concept="37vLTI" id="43ui0y7s2C5" role="3clFbG">
                <node concept="2OqwBi" id="43ui0y7s2C9" role="37vLTJ">
                  <node concept="2OqwBi" id="43ui0y7s2C0" role="2Oq$k0">
                    <node concept="37vLTw" id="3GM_nagT$TI" role="2Oq$k0">
                      <ref role="3cqZAo" node="43ui0y7rTo6" resolve="transition" />
                    </node>
                    <node concept="3TrEf2" id="43ui0y7s2C4" role="2OqNvi">
                      <ref role="3Tt5mk" to="2qyu:EpZY78hngY" />
                    </node>
                  </node>
                  <node concept="3TrEf2" id="43ui0y7s2Cd" role="2OqNvi">
                    <ref role="3Tt5mk" to="2qyu:EpZY78hnh5" />
                  </node>
                </node>
                <node concept="37vLTw" id="3GM_nagTAXd" role="37vLTx">
                  <ref role="3cqZAo" node="43ui0y7rT_E" resolve="sourceState" />
                </node>
              </node>
            </node>
            <node concept="3clFbF" id="43ui0y7rT_d" role="3cqZAp">
              <node concept="37vLTI" id="43ui0y7rT_k" role="3clFbG">
                <node concept="2ShNRf" id="43ui0y7rT_n" role="37vLTx">
                  <node concept="3zrR0B" id="43ui0y7rT_o" role="2ShVmc">
                    <node concept="3Tqbb2" id="43ui0y7rT_p" role="3zrR0E">
                      <ref role="ehGHo" to="2qyu:EpZY78hnh4" resolve="StateReference" />
                    </node>
                  </node>
                </node>
                <node concept="2OqwBi" id="43ui0y7rT_f" role="37vLTJ">
                  <node concept="37vLTw" id="3GM_nagT_jZ" role="2Oq$k0">
                    <ref role="3cqZAo" node="43ui0y7rTo6" resolve="transition" />
                  </node>
                  <node concept="3TrEf2" id="43ui0y7rT_j" role="2OqNvi">
                    <ref role="3Tt5mk" to="2qyu:EpZY78hnh0" />
                  </node>
                </node>
              </node>
            </node>
            <node concept="3clFbF" id="43ui0y7s2Cf" role="3cqZAp">
              <node concept="37vLTI" id="43ui0y7s2Cr" role="3clFbG">
                <node concept="37vLTw" id="3GM_nagT$gQ" role="37vLTx">
                  <ref role="3cqZAo" node="43ui0y7s2Bp" resolve="targetState" />
                </node>
                <node concept="2OqwBi" id="43ui0y7s2Cm" role="37vLTJ">
                  <node concept="2OqwBi" id="43ui0y7s2Ch" role="2Oq$k0">
                    <node concept="37vLTw" id="3GM_nagTs2O" role="2Oq$k0">
                      <ref role="3cqZAo" node="43ui0y7rTo6" resolve="transition" />
                    </node>
                    <node concept="3TrEf2" id="43ui0y7s2Cl" role="2OqNvi">
                      <ref role="3Tt5mk" to="2qyu:EpZY78hnh0" />
                    </node>
                  </node>
                  <node concept="3TrEf2" id="43ui0y7s2Cq" role="2OqNvi">
                    <ref role="3Tt5mk" to="2qyu:EpZY78hnh5" />
                  </node>
                </node>
              </node>
            </node>
            <node concept="3clFbF" id="43ui0y7rT_r" role="3cqZAp">
              <node concept="37vLTI" id="43ui0y7rT_y" role="3clFbG">
                <node concept="2ShNRf" id="43ui0y7rT__" role="37vLTx">
                  <node concept="3zrR0B" id="43ui0y7rT_A" role="2ShVmc">
                    <node concept="3Tqbb2" id="43ui0y7rT_B" role="3zrR0E">
                      <ref role="ehGHo" to="2qyu:EpZY78hnh6" resolve="EventReference" />
                    </node>
                  </node>
                </node>
                <node concept="2OqwBi" id="43ui0y7rT_t" role="37vLTJ">
                  <node concept="37vLTw" id="3GM_nagTyWL" role="2Oq$k0">
                    <ref role="3cqZAo" node="43ui0y7rTo6" resolve="transition" />
                  </node>
                  <node concept="3TrEf2" id="43ui0y7rT_x" role="2OqNvi">
                    <ref role="3Tt5mk" to="2qyu:EpZY78hngZ" />
                  </node>
                </node>
              </node>
            </node>
            <node concept="3clFbF" id="43ui0y7s2Cw" role="3cqZAp">
              <node concept="37vLTI" id="43ui0y7s2CG" role="3clFbG">
                <node concept="37vLTw" id="3GM_nagTvWc" role="37vLTx">
                  <ref role="3cqZAo" node="43ui0y7s2B8" resolve="event" />
                </node>
                <node concept="2OqwBi" id="43ui0y7s2CB" role="37vLTJ">
                  <node concept="2OqwBi" id="43ui0y7s2Cy" role="2Oq$k0">
                    <node concept="37vLTw" id="3GM_nagTA49" role="2Oq$k0">
                      <ref role="3cqZAo" node="43ui0y7rTo6" resolve="transition" />
                    </node>
                    <node concept="3TrEf2" id="43ui0y7s2CA" role="2OqNvi">
                      <ref role="3Tt5mk" to="2qyu:EpZY78hngZ" />
                    </node>
                  </node>
                  <node concept="3TrEf2" id="43ui0y7s2CF" role="2OqNvi">
                    <ref role="3Tt5mk" to="2qyu:EpZY78hnh7" />
                  </node>
                </node>
              </node>
            </node>
            <node concept="3clFbF" id="3kNr5JazB6W" role="3cqZAp">
              <node concept="37vLTI" id="3kNr5JazB73" role="3clFbG">
                <node concept="Xl_RD" id="3kNr5JazB76" role="37vLTx">
                  <property role="Xl_RC" value="true" />
                </node>
                <node concept="2OqwBi" id="3kNr5JazB6Y" role="37vLTJ">
                  <node concept="37vLTw" id="3GM_nagTy0m" role="2Oq$k0">
                    <ref role="3cqZAo" node="43ui0y7rTo6" resolve="transition" />
                  </node>
                  <node concept="3TrcHB" id="3kNr5JazB72" role="2OqNvi">
                    <ref role="3TsBF5" to="2qyu:EpZY78hnh1" resolve="condition" />
                  </node>
                </node>
              </node>
            </node>
            <node concept="3clFbF" id="3kNr5JazARh" role="3cqZAp">
              <node concept="2OqwBi" id="3kNr5JazB4p" role="3clFbG">
                <node concept="2OqwBi" id="3kNr5JazARj" role="2Oq$k0">
                  <node concept="13iPFW" id="3kNr5JazARi" role="2Oq$k0" />
                  <node concept="3Tsc0h" id="3kNr5JazB4o" role="2OqNvi">
                    <ref role="3TtcxE" to="2qyu:EpZY78hmI$" />
                  </node>
                </node>
                <node concept="TSZUe" id="3kNr5JazB4t" role="2OqNvi">
                  <node concept="37vLTw" id="3GM_nagTss9" role="25WWJ7">
                    <ref role="3cqZAo" node="43ui0y7rTo6" resolve="transition" />
                  </node>
                </node>
              </node>
            </node>
          </node>
          <node concept="3cpWsn" id="43ui0y7rTnP" role="1Duv9x">
            <property role="TrG5h" value="i" />
            <node concept="10Oyi0" id="43ui0y7rTnQ" role="1tU5fm" />
            <node concept="3cmrfG" id="43ui0y7rTnS" role="33vP2m">
              <property role="3cmrfH" value="0" />
            </node>
          </node>
          <node concept="3eOVzh" id="43ui0y7rTnY" role="1Dwp0S">
            <node concept="37vLTw" id="3GM_nagTB72" role="3uHU7w">
              <ref role="3cqZAo" node="6vrtzn$Rums" resolve="count" />
            </node>
            <node concept="37vLTw" id="3GM_nagTraC" role="3uHU7B">
              <ref role="3cqZAo" node="43ui0y7rTnP" resolve="i" />
            </node>
          </node>
          <node concept="3uNrnE" id="43ui0y7rTo3" role="1Dwrff">
            <node concept="37vLTw" id="3GM_nagTBAR" role="2$L3a6">
              <ref role="3cqZAo" node="43ui0y7rTnP" resolve="i" />
            </node>
          </node>
        </node>
      </node>
    </node>
  </node>
  <node concept="13h7C7" id="7oc$KaYHlZm">
    <property role="3GE5qa" value="hierarchycalTable" />
    <ref role="13h7C2" to="2qyu:7oc$KaYGY7h" resolve="HierarchycalTable" />
    <node concept="13hLZK" id="7oc$KaYHlZn" role="13h7CW">
      <node concept="3clFbS" id="7oc$KaYHlZo" role="2VODD2">
        <node concept="1Dw8fO" id="26vDPgWjxb3" role="3cqZAp">
          <node concept="3clFbS" id="26vDPgWjxb4" role="2LFqv$">
            <node concept="3cpWs8" id="26vDPgWjxb5" role="3cqZAp">
              <node concept="3cpWsn" id="26vDPgWjxb6" role="3cpWs9">
                <property role="TrG5h" value="dataCell" />
                <node concept="3Tqbb2" id="26vDPgWjxb7" role="1tU5fm">
                  <ref role="ehGHo" to="2qyu:2w0jk4vCVU$" resolve="DataCell" />
                </node>
                <node concept="2ShNRf" id="26vDPgWjxb8" role="33vP2m">
                  <node concept="3zrR0B" id="26vDPgWjxb9" role="2ShVmc">
                    <node concept="3Tqbb2" id="26vDPgWjxba" role="3zrR0E">
                      <ref role="ehGHo" to="2qyu:2w0jk4vCVU$" resolve="DataCell" />
                    </node>
                  </node>
                </node>
              </node>
            </node>
            <node concept="3clFbF" id="26vDPgWjxbb" role="3cqZAp">
              <node concept="37vLTI" id="26vDPgWjxbc" role="3clFbG">
                <node concept="3cpWs3" id="26vDPgWjxbd" role="37vLTx">
                  <node concept="37vLTw" id="3GM_nagTAud" role="3uHU7w">
                    <ref role="3cqZAo" node="26vDPgWjxbq" resolve="i" />
                  </node>
                  <node concept="Xl_RD" id="26vDPgWjxbf" role="3uHU7B">
                    <property role="Xl_RC" value="h-" />
                  </node>
                </node>
                <node concept="2OqwBi" id="26vDPgWjxbg" role="37vLTJ">
                  <node concept="37vLTw" id="3GM_nagTzdw" role="2Oq$k0">
                    <ref role="3cqZAo" node="26vDPgWjxb6" resolve="dataCell" />
                  </node>
                  <node concept="3TrcHB" id="26vDPgWjxbi" role="2OqNvi">
                    <ref role="3TsBF5" to="2qyu:2w0jk4vCVU_" resolve="value" />
                  </node>
                </node>
              </node>
            </node>
            <node concept="3clFbF" id="26vDPgWjxbj" role="3cqZAp">
              <node concept="2OqwBi" id="26vDPgWjxbk" role="3clFbG">
                <node concept="2OqwBi" id="26vDPgWjxbl" role="2Oq$k0">
                  <node concept="13iPFW" id="26vDPgWjxbm" role="2Oq$k0" />
                  <node concept="3Tsc0h" id="26vDPgWjxbC" role="2OqNvi">
                    <ref role="3TtcxE" to="2qyu:7oc$KaYGY7k" />
                  </node>
                </node>
                <node concept="TSZUe" id="26vDPgWjxbo" role="2OqNvi">
                  <node concept="37vLTw" id="3GM_nagTrVB" role="25WWJ7">
                    <ref role="3cqZAo" node="26vDPgWjxb6" resolve="dataCell" />
                  </node>
                </node>
              </node>
            </node>
          </node>
          <node concept="3cpWsn" id="26vDPgWjxbq" role="1Duv9x">
            <property role="TrG5h" value="i" />
            <node concept="10Oyi0" id="26vDPgWjxbr" role="1tU5fm" />
            <node concept="3cmrfG" id="26vDPgWjxbs" role="33vP2m">
              <property role="3cmrfH" value="0" />
            </node>
          </node>
          <node concept="3eOVzh" id="26vDPgWjxbt" role="1Dwp0S">
            <node concept="2OqwBi" id="1653mnvBn$y" role="3uHU7w">
              <node concept="2OqwBi" id="1653mnvBn$z" role="2Oq$k0">
                <node concept="13iPFW" id="1653mnvBn$$" role="2Oq$k0" />
                <node concept="3NT_Vc" id="1653mnvBn$_" role="2OqNvi" />
              </node>
              <node concept="2qgKlT" id="1653mnvBn$A" role="2OqNvi">
                <ref role="37wK5l" node="1653mnvAgqE" resolve="getInitialColumnCount" />
              </node>
            </node>
            <node concept="37vLTw" id="3GM_nagTuVr" role="3uHU7B">
              <ref role="3cqZAo" node="26vDPgWjxbq" resolve="i" />
            </node>
          </node>
          <node concept="3uNrnE" id="26vDPgWjxbw" role="1Dwrff">
            <node concept="37vLTw" id="3GM_nagTyef" role="2$L3a6">
              <ref role="3cqZAo" node="26vDPgWjxbq" resolve="i" />
            </node>
          </node>
        </node>
      </node>
    </node>
    <node concept="13i0hz" id="1653mnvAOMd" role="13h7CS">
      <property role="2Ki8OM" value="true" />
      <property role="13i0is" value="false" />
      <property role="TrG5h" value="getInitialColumnCount" />
      <property role="13i0it" value="false" />
      <ref role="13i0hy" node="1653mnvAgqE" resolve="getInitialColumnCount" />
      <node concept="3Tm1VV" id="1653mnvAOMe" role="1B3o_S" />
      <node concept="10Oyi0" id="1653mnvAOMc" role="3clF45" />
      <node concept="3clFbS" id="1653mnvAOMf" role="3clF47">
        <node concept="3cpWs6" id="1653mnvAOMh" role="3cqZAp">
          <node concept="3cmrfG" id="1653mnvAOMg" role="3cqZAk">
            <property role="3cmrfH" value="3" />
          </node>
        </node>
      </node>
    </node>
    <node concept="13i0hz" id="1653mnvB6Ct" role="13h7CS">
      <property role="2Ki8OM" value="true" />
      <property role="13i0is" value="false" />
      <property role="TrG5h" value="getInitialRowCount" />
      <property role="13i0it" value="false" />
      <ref role="13i0hy" node="1653mnvAgrI" resolve="getInitialRowCount" />
      <node concept="3Tm1VV" id="1653mnvB6Cu" role="1B3o_S" />
      <node concept="10Oyi0" id="1653mnvB6Cs" role="3clF45" />
      <node concept="3clFbS" id="1653mnvB6Cv" role="3clF47">
        <node concept="3cpWs6" id="1653mnvB6Cx" role="3cqZAp">
          <node concept="3cmrfG" id="1653mnvB6Cw" role="3cqZAk">
            <property role="3cmrfH" value="5" />
          </node>
        </node>
      </node>
    </node>
  </node>
  <node concept="13h7C7" id="6SYFRDkTQVT">
    <property role="3GE5qa" value="genericStateMachine" />
    <ref role="13h7C2" to="2qyu:6SYFRDkTQVE" resolve="AbstractStateMachineElement" />
    <node concept="13i0hz" id="6SYFRDkTQVW" role="13h7CS">
      <property role="TrG5h" value="getStateMachine" />
      <node concept="3Tm1VV" id="6SYFRDkTQVX" role="1B3o_S" />
      <node concept="3Tqbb2" id="6SYFRDkTQW0" role="3clF45">
        <ref role="ehGHo" to="2qyu:EpZY78hmIx" resolve="StateMachine" />
      </node>
      <node concept="3clFbS" id="6SYFRDkTQVZ" role="3clF47">
        <node concept="3clFbF" id="6SYFRDkTQW1" role="3cqZAp">
          <node concept="1PxgMI" id="6SYFRDkTQW8" role="3clFbG">
            <ref role="1m5ApE" to="2qyu:EpZY78hmIx" resolve="StateMachine" />
            <node concept="2OqwBi" id="6SYFRDkTQW3" role="1m5AlR">
              <node concept="13iPFW" id="6SYFRDkTQW2" role="2Oq$k0" />
              <node concept="1mfA1w" id="6SYFRDkTQW7" role="2OqNvi" />
            </node>
          </node>
        </node>
      </node>
    </node>
    <node concept="13hLZK" id="6SYFRDkTQVU" role="13h7CW">
      <node concept="3clFbS" id="6SYFRDkTQVV" role="2VODD2" />
    </node>
  </node>
  <node concept="13h7C7" id="6CJUZdX4Gh6">
    <property role="3GE5qa" value="decTable" />
    <ref role="13h7C2" to="2qyu:6CJUZdX4tfv" resolve="LightWeightDecisionTable" />
    <node concept="13hLZK" id="6CJUZdX4Gh7" role="13h7CW">
      <node concept="3clFbS" id="6CJUZdX4Gh8" role="2VODD2">
        <node concept="3clFbF" id="6CJUZdX4Gha" role="3cqZAp">
          <node concept="2OqwBi" id="6CJUZdX4NZ1" role="3clFbG">
            <node concept="2OqwBi" id="6CJUZdX4Ghw" role="2Oq$k0">
              <node concept="13iPFW" id="6CJUZdX4Ghb" role="2Oq$k0" />
              <node concept="3Tsc0h" id="6CJUZdX4NYe" role="2OqNvi">
                <ref role="3TtcxE" to="2qyu:6CJUZdX4x01" />
              </node>
            </node>
            <node concept="WFELt" id="6CJUZdX4NZ7" role="2OqNvi" />
          </node>
        </node>
        <node concept="3clFbF" id="6CJUZdX4NZa" role="3cqZAp">
          <node concept="2OqwBi" id="6CJUZdX4NZb" role="3clFbG">
            <node concept="2OqwBi" id="6CJUZdX4NZc" role="2Oq$k0">
              <node concept="13iPFW" id="6CJUZdX4NZd" role="2Oq$k0" />
              <node concept="3Tsc0h" id="6CJUZdX4NZe" role="2OqNvi">
                <ref role="3TtcxE" to="2qyu:6CJUZdX4x01" />
              </node>
            </node>
            <node concept="WFELt" id="6CJUZdX4NZf" role="2OqNvi" />
          </node>
        </node>
        <node concept="3clFbF" id="6CJUZdX4NZi" role="3cqZAp">
          <node concept="2OqwBi" id="6CJUZdX4NZj" role="3clFbG">
            <node concept="2OqwBi" id="6CJUZdX4NZk" role="2Oq$k0">
              <node concept="13iPFW" id="6CJUZdX4NZl" role="2Oq$k0" />
              <node concept="3Tsc0h" id="6CJUZdX4NZy" role="2OqNvi">
                <ref role="3TtcxE" to="2qyu:6CJUZdX4x0A" />
              </node>
            </node>
            <node concept="WFELt" id="6CJUZdX4NZn" role="2OqNvi" />
          </node>
        </node>
        <node concept="3clFbF" id="6CJUZdX4NZq" role="3cqZAp">
          <node concept="2OqwBi" id="6CJUZdX4NZr" role="3clFbG">
            <node concept="2OqwBi" id="6CJUZdX4NZs" role="2Oq$k0">
              <node concept="13iPFW" id="6CJUZdX4NZt" role="2Oq$k0" />
              <node concept="3Tsc0h" id="6CJUZdX4NZ_" role="2OqNvi">
                <ref role="3TtcxE" to="2qyu:6CJUZdX4x0A" />
              </node>
            </node>
            <node concept="WFELt" id="6CJUZdX4NZv" role="2OqNvi" />
          </node>
        </node>
        <node concept="3clFbF" id="6CJUZdX4NZB" role="3cqZAp">
          <node concept="2OqwBi" id="6CJUZdX4NZC" role="3clFbG">
            <node concept="2OqwBi" id="6CJUZdX4NZD" role="2Oq$k0">
              <node concept="13iPFW" id="6CJUZdX4NZE" role="2Oq$k0" />
              <node concept="3Tsc0h" id="6CJUZdX4O04" role="2OqNvi">
                <ref role="3TtcxE" to="2qyu:6CJUZdX4x0B" />
              </node>
            </node>
            <node concept="WFELt" id="6CJUZdX4NZG" role="2OqNvi" />
          </node>
        </node>
        <node concept="3clFbF" id="6CJUZdX4NZI" role="3cqZAp">
          <node concept="2OqwBi" id="6CJUZdX4NZJ" role="3clFbG">
            <node concept="2OqwBi" id="6CJUZdX4NZK" role="2Oq$k0">
              <node concept="13iPFW" id="6CJUZdX4NZL" role="2Oq$k0" />
              <node concept="3Tsc0h" id="6CJUZdX4O07" role="2OqNvi">
                <ref role="3TtcxE" to="2qyu:6CJUZdX4x0B" />
              </node>
            </node>
            <node concept="WFELt" id="6CJUZdX4NZN" role="2OqNvi" />
          </node>
        </node>
        <node concept="3clFbF" id="6CJUZdX4NZP" role="3cqZAp">
          <node concept="2OqwBi" id="6CJUZdX4NZQ" role="3clFbG">
            <node concept="2OqwBi" id="6CJUZdX4NZR" role="2Oq$k0">
              <node concept="13iPFW" id="6CJUZdX4NZS" role="2Oq$k0" />
              <node concept="3Tsc0h" id="6CJUZdX4O0a" role="2OqNvi">
                <ref role="3TtcxE" to="2qyu:6CJUZdX4x0B" />
              </node>
            </node>
            <node concept="WFELt" id="6CJUZdX4NZU" role="2OqNvi" />
          </node>
        </node>
        <node concept="3clFbF" id="6CJUZdX4NZW" role="3cqZAp">
          <node concept="2OqwBi" id="6CJUZdX4NZX" role="3clFbG">
            <node concept="2OqwBi" id="6CJUZdX4NZY" role="2Oq$k0">
              <node concept="13iPFW" id="6CJUZdX4NZZ" role="2Oq$k0" />
              <node concept="3Tsc0h" id="6CJUZdX4O0d" role="2OqNvi">
                <ref role="3TtcxE" to="2qyu:6CJUZdX4x0B" />
              </node>
            </node>
            <node concept="WFELt" id="6CJUZdX4O01" role="2OqNvi" />
          </node>
        </node>
      </node>
    </node>
  </node>
</model>

