<?xml version="1.0" encoding="UTF-8"?>
<model ref="r:0cba60fc-aa17-42ba-b3ca-69b0d1a86fe9(jetbrains.mps.lang.editor.menus.substitute.testLanguage.constraints)">
  <persistence version="9" />
  <languages>
    <use id="3f4bc5f5-c6c1-4a28-8b10-c83066ffa4a1" name="jetbrains.mps.lang.constraints" version="0" />
    <devkit ref="fbc25dd2-5da4-483a-8b19-70928e1b62d7(jetbrains.mps.devkit.general-purpose)" />
  </languages>
  <imports />
  <registry />
</model>

