<?xml version="1.0" encoding="UTF-8"?>
<model ref="r:f570059a-512e-4c88-b044-060e3df4a7f5(jetbrains.mps.lang.editor.menus.substitute.testLanguage.typesystem)">
  <persistence version="9" />
  <languages>
    <use id="7a5dda62-9140-4668-ab76-d5ed1746f2b2" name="jetbrains.mps.lang.typesystem" version="0" />
    <devkit ref="fbc25dd2-5da4-483a-8b19-70928e1b62d7(jetbrains.mps.devkit.general-purpose)" />
  </languages>
  <imports />
  <registry />
</model>

