<?xml version="1.0" encoding="UTF-8"?>
<model ref="r:60e4aec5-7588-4ab2-b82c-70333f477a53(jetbrains.mps.samples.lambdaCalculus.runtime)">
  <persistence version="9" />
  <languages>
    <use id="f3061a53-9226-4cc5-a443-f952ceaf5816" name="jetbrains.mps.baseLanguage" version="4" />
  </languages>
  <imports>
    <import index="33ny" ref="6354ebe7-c22a-4a0f-ac54-50b52ab9b065/java:java.util(JDK/)" />
    <import index="wyt6" ref="6354ebe7-c22a-4a0f-ac54-50b52ab9b065/java:java.lang(JDK/)" />
  </imports>
  <registry>
    <language id="f3061a53-9226-4cc5-a443-f952ceaf5816" name="jetbrains.mps.baseLanguage">
      <concept id="1219920932475" name="jetbrains.mps.baseLanguage.structure.VariableArityType" flags="in" index="8X2XB">
        <child id="1219921048460" name="componentType" index="8Xvag" />
      </concept>
      <concept id="1082485599095" name="jetbrains.mps.baseLanguage.structure.BlockStatement" flags="nn" index="9aQIb">
        <child id="1082485599096" name="statements" index="9aQI4" />
      </concept>
      <concept id="1202948039474" name="jetbrains.mps.baseLanguage.structure.InstanceMethodCallOperation" flags="nn" index="liA8E" />
      <concept id="1239714755177" name="jetbrains.mps.baseLanguage.structure.AbstractUnaryNumberOperation" flags="nn" index="2$Kvd9">
        <child id="1239714902950" name="expression" index="2$L3a6" />
      </concept>
      <concept id="1188207840427" name="jetbrains.mps.baseLanguage.structure.AnnotationInstance" flags="nn" index="2AHcQZ">
        <reference id="1188208074048" name="annotation" index="2AI5Lk" />
      </concept>
      <concept id="1188208481402" name="jetbrains.mps.baseLanguage.structure.HasAnnotation" flags="ng" index="2AJDlI">
        <child id="1188208488637" name="annotation" index="2AJF6D" />
      </concept>
      <concept id="1154032098014" name="jetbrains.mps.baseLanguage.structure.AbstractLoopStatement" flags="nn" index="2LF5Ji">
        <child id="1154032183016" name="body" index="2LFqv$" />
      </concept>
      <concept id="1197027756228" name="jetbrains.mps.baseLanguage.structure.DotExpression" flags="nn" index="2OqwBi">
        <child id="1197027771414" name="operand" index="2Oq$k0" />
        <child id="1197027833540" name="operation" index="2OqNvi" />
      </concept>
      <concept id="1197029447546" name="jetbrains.mps.baseLanguage.structure.FieldReferenceOperation" flags="nn" index="2OwXpG">
        <reference id="1197029500499" name="fieldDeclaration" index="2Oxat5" />
      </concept>
      <concept id="1145552977093" name="jetbrains.mps.baseLanguage.structure.GenericNewExpression" flags="nn" index="2ShNRf">
        <child id="1145553007750" name="creator" index="2ShVmc" />
      </concept>
      <concept id="1070475354124" name="jetbrains.mps.baseLanguage.structure.ThisExpression" flags="nn" index="Xjq3P" />
      <concept id="1070475926800" name="jetbrains.mps.baseLanguage.structure.StringLiteral" flags="nn" index="Xl_RD">
        <property id="1070475926801" name="value" index="Xl_RC" />
      </concept>
      <concept id="1070534370425" name="jetbrains.mps.baseLanguage.structure.IntegerType" flags="in" index="10Oyi0" />
      <concept id="1068390468200" name="jetbrains.mps.baseLanguage.structure.FieldDeclaration" flags="ig" index="312cEg" />
      <concept id="1068390468198" name="jetbrains.mps.baseLanguage.structure.ClassConcept" flags="ig" index="312cEu">
        <property id="1075300953594" name="abstractClass" index="1sVAO0" />
      </concept>
      <concept id="1068431474542" name="jetbrains.mps.baseLanguage.structure.VariableDeclaration" flags="ng" index="33uBYm">
        <property id="1176718929932" name="isFinal" index="3TUv4t" />
        <child id="1068431790190" name="initializer" index="33vP2m" />
      </concept>
      <concept id="1068498886296" name="jetbrains.mps.baseLanguage.structure.VariableReference" flags="nn" index="37vLTw">
        <reference id="1068581517664" name="variableDeclaration" index="3cqZAo" />
      </concept>
      <concept id="1068498886292" name="jetbrains.mps.baseLanguage.structure.ParameterDeclaration" flags="ir" index="37vLTG" />
      <concept id="1225271177708" name="jetbrains.mps.baseLanguage.structure.StringType" flags="in" index="17QB3L" />
      <concept id="4972933694980447171" name="jetbrains.mps.baseLanguage.structure.BaseVariableDeclaration" flags="ng" index="19Szcq">
        <child id="5680397130376446158" name="type" index="1tU5fm" />
      </concept>
      <concept id="1068580123132" name="jetbrains.mps.baseLanguage.structure.BaseMethodDeclaration" flags="ng" index="3clF44">
        <child id="1068580123133" name="returnType" index="3clF45" />
        <child id="1068580123134" name="parameter" index="3clF46" />
        <child id="1068580123135" name="body" index="3clF47" />
      </concept>
      <concept id="1068580123165" name="jetbrains.mps.baseLanguage.structure.InstanceMethodDeclaration" flags="ig" index="3clFb_">
        <property id="1178608670077" name="isAbstract" index="1EzhhJ" />
      </concept>
      <concept id="1068580123152" name="jetbrains.mps.baseLanguage.structure.EqualsExpression" flags="nn" index="3clFbC" />
      <concept id="1068580123155" name="jetbrains.mps.baseLanguage.structure.ExpressionStatement" flags="nn" index="3clFbF">
        <child id="1068580123156" name="expression" index="3clFbG" />
      </concept>
      <concept id="1068580123159" name="jetbrains.mps.baseLanguage.structure.IfStatement" flags="nn" index="3clFbJ">
        <child id="1082485599094" name="ifFalseStatement" index="9aQIa" />
        <child id="1068580123160" name="condition" index="3clFbw" />
        <child id="1068580123161" name="ifTrue" index="3clFbx" />
      </concept>
      <concept id="1068580123136" name="jetbrains.mps.baseLanguage.structure.StatementList" flags="sn" stub="5293379017992965193" index="3clFbS">
        <child id="1068581517665" name="statement" index="3cqZAp" />
      </concept>
      <concept id="1068580123140" name="jetbrains.mps.baseLanguage.structure.ConstructorDeclaration" flags="ig" index="3clFbW" />
      <concept id="1068580320020" name="jetbrains.mps.baseLanguage.structure.IntegerConstant" flags="nn" index="3cmrfG">
        <property id="1068580320021" name="value" index="3cmrfH" />
      </concept>
      <concept id="1068581242878" name="jetbrains.mps.baseLanguage.structure.ReturnStatement" flags="nn" index="3cpWs6">
        <child id="1068581517676" name="expression" index="3cqZAk" />
      </concept>
      <concept id="1068581242864" name="jetbrains.mps.baseLanguage.structure.LocalVariableDeclarationStatement" flags="nn" index="3cpWs8">
        <child id="1068581242865" name="localVariableDeclaration" index="3cpWs9" />
      </concept>
      <concept id="1068581242869" name="jetbrains.mps.baseLanguage.structure.MinusExpression" flags="nn" index="3cpWsd" />
      <concept id="1068581242863" name="jetbrains.mps.baseLanguage.structure.LocalVariableDeclaration" flags="nr" index="3cpWsn" />
      <concept id="1068581517677" name="jetbrains.mps.baseLanguage.structure.VoidType" flags="in" index="3cqZAl" />
      <concept id="1081506773034" name="jetbrains.mps.baseLanguage.structure.LessThanExpression" flags="nn" index="3eOVzh" />
      <concept id="1204053956946" name="jetbrains.mps.baseLanguage.structure.IMethodCall" flags="ng" index="1ndlxa">
        <reference id="1068499141037" name="baseMethodDeclaration" index="37wK5l" />
        <child id="1068499141038" name="actualArgument" index="37wK5m" />
      </concept>
      <concept id="1212685548494" name="jetbrains.mps.baseLanguage.structure.ClassCreator" flags="nn" index="1pGfFk" />
      <concept id="1107461130800" name="jetbrains.mps.baseLanguage.structure.Classifier" flags="ng" index="3pOWGL">
        <child id="5375687026011219971" name="member" index="jymVt" unordered="true" />
      </concept>
      <concept id="1107535904670" name="jetbrains.mps.baseLanguage.structure.ClassifierType" flags="in" index="3uibUv">
        <reference id="1107535924139" name="classifier" index="3uigEE" />
      </concept>
      <concept id="1081773326031" name="jetbrains.mps.baseLanguage.structure.BinaryOperation" flags="nn" index="3uHJSO">
        <child id="1081773367579" name="rightExpression" index="3uHU7w" />
        <child id="1081773367580" name="leftExpression" index="3uHU7B" />
      </concept>
      <concept id="1214918800624" name="jetbrains.mps.baseLanguage.structure.PostfixIncrementExpression" flags="nn" index="3uNrnE" />
      <concept id="1073239437375" name="jetbrains.mps.baseLanguage.structure.NotEqualsExpression" flags="nn" index="3y3z36" />
      <concept id="1178549954367" name="jetbrains.mps.baseLanguage.structure.IVisible" flags="ng" index="1B3ioH">
        <child id="1178549979242" name="visibility" index="1B3o_S" />
      </concept>
      <concept id="1144226303539" name="jetbrains.mps.baseLanguage.structure.ForeachStatement" flags="nn" index="1DcWWT">
        <child id="1144226360166" name="iterable" index="1DdaDG" />
      </concept>
      <concept id="1144230876926" name="jetbrains.mps.baseLanguage.structure.AbstractForStatement" flags="nn" index="1DupvO">
        <child id="1144230900587" name="variable" index="1Duv9x" />
      </concept>
      <concept id="1144231330558" name="jetbrains.mps.baseLanguage.structure.ForStatement" flags="nn" index="1Dw8fO">
        <child id="1144231399730" name="condition" index="1Dwp0S" />
        <child id="1144231408325" name="iteration" index="1Dwrff" />
      </concept>
      <concept id="1146644602865" name="jetbrains.mps.baseLanguage.structure.PublicVisibility" flags="nn" index="3Tm1VV" />
      <concept id="1146644641414" name="jetbrains.mps.baseLanguage.structure.ProtectedVisibility" flags="nn" index="3Tmbuc" />
    </language>
    <language id="ceab5195-25ea-4f22-9b92-103b95ca8c0c" name="jetbrains.mps.lang.core">
      <concept id="1169194658468" name="jetbrains.mps.lang.core.structure.INamedConcept" flags="ng" index="TrEIO">
        <property id="1169194664001" name="name" index="TrG5h" />
      </concept>
    </language>
  </registry>
  <node concept="312cEu" id="18EhrW3Izct">
    <property role="TrG5h" value="Function" />
    <property role="1sVAO0" value="true" />
    <node concept="3Tm1VV" id="18EhrW3Izcu" role="1B3o_S" />
    <node concept="312cEg" id="18EhrW3IzcB" role="jymVt">
      <property role="TrG5h" value="myArgs" />
      <node concept="3Tmbuc" id="18EhrW3IzVi" role="1B3o_S" />
      <node concept="3uibUv" id="18EhrW3IzcE" role="1tU5fm">
        <ref role="3uigEE" to="33ny:~List" resolve="List" />
      </node>
      <node concept="2ShNRf" id="18EhrW3IzVQ" role="33vP2m">
        <node concept="1pGfFk" id="18EhrW3I_92" role="2ShVmc">
          <ref role="37wK5l" to="33ny:~ArrayList.&lt;init&gt;()" resolve="ArrayList" />
        </node>
      </node>
    </node>
    <node concept="312cEg" id="2_HcEOD36v3" role="jymVt">
      <property role="TrG5h" value="myType" />
      <node concept="3Tmbuc" id="2_HcEOD36vm" role="1B3o_S" />
      <node concept="17QB3L" id="2fvgwfpd8p1" role="1tU5fm" />
    </node>
    <node concept="3clFbW" id="18EhrW3Izcv" role="jymVt">
      <node concept="3cqZAl" id="18EhrW3Izcw" role="3clF45" />
      <node concept="3Tm1VV" id="18EhrW3Izcx" role="1B3o_S" />
      <node concept="3clFbS" id="18EhrW3Izcy" role="3clF47" />
    </node>
    <node concept="3clFb_" id="18EhrW3IzV6" role="jymVt">
      <property role="TrG5h" value="apply" />
      <node concept="3uibUv" id="18EhrW3IzVa" role="3clF45">
        <ref role="3uigEE" to="wyt6:~Object" resolve="Object" />
      </node>
      <node concept="3Tm1VV" id="18EhrW3IzV8" role="1B3o_S" />
      <node concept="3clFbS" id="18EhrW3IzV9" role="3clF47">
        <node concept="1DcWWT" id="1_dfDbYAjOb" role="3cqZAp">
          <node concept="3clFbS" id="1_dfDbYAjOc" role="2LFqv$">
            <node concept="3clFbF" id="18EhrW3IzVj" role="3cqZAp">
              <node concept="2OqwBi" id="18EhrW3IzVn" role="3clFbG">
                <node concept="2OqwBi" id="18EhrW3IzVk" role="2Oq$k0">
                  <node concept="2OwXpG" id="18EhrW3IzVl" role="2OqNvi">
                    <ref role="2Oxat5" node="18EhrW3IzcB" resolve="myArgs" />
                  </node>
                  <node concept="Xjq3P" id="18EhrW3IzVm" role="2Oq$k0" />
                </node>
                <node concept="liA8E" id="18EhrW3IzVr" role="2OqNvi">
                  <ref role="37wK5l" to="33ny:~List.add(java.lang.Object):boolean" resolve="add" />
                  <node concept="37vLTw" id="3GM_nagTu12" role="37wK5m">
                    <ref role="3cqZAo" node="1_dfDbYAjOf" resolve="arg" />
                  </node>
                </node>
              </node>
            </node>
          </node>
          <node concept="37vLTw" id="2BHiRxgmaCb" role="1DdaDG">
            <ref role="3cqZAo" node="18EhrW3IzVb" resolve="argValue" />
          </node>
          <node concept="3cpWsn" id="1_dfDbYAjOf" role="1Duv9x">
            <property role="TrG5h" value="arg" />
            <node concept="3uibUv" id="1_dfDbYAjOj" role="1tU5fm">
              <ref role="3uigEE" to="wyt6:~Object" resolve="Object" />
            </node>
          </node>
        </node>
        <node concept="3clFbJ" id="18EhrW3IzVw" role="3cqZAp">
          <node concept="3clFbS" id="18EhrW3IzVx" role="3clFbx">
            <node concept="3cpWs6" id="18EhrW3I_98" role="3cqZAp">
              <node concept="2OqwBi" id="18EhrW3I_9c" role="3cqZAk">
                <node concept="liA8E" id="18EhrW3I_9d" role="2OqNvi">
                  <ref role="37wK5l" node="18EhrW3IzVd" resolve="eval" />
                </node>
                <node concept="Xjq3P" id="18EhrW3I_9e" role="2Oq$k0" />
              </node>
            </node>
          </node>
          <node concept="3clFbC" id="18EhrW3IzVK" role="3clFbw">
            <node concept="2OqwBi" id="18EhrW3I_94" role="3uHU7w">
              <node concept="liA8E" id="18EhrW3I_95" role="2OqNvi">
                <ref role="37wK5l" node="18EhrW3Izcz" resolve="getParamsCount" />
              </node>
              <node concept="Xjq3P" id="18EhrW3I_96" role="2Oq$k0" />
            </node>
            <node concept="2OqwBi" id="18EhrW3IzVD" role="3uHU7B">
              <node concept="2OqwBi" id="18EhrW3IzV_" role="2Oq$k0">
                <node concept="2OwXpG" id="18EhrW3IzVA" role="2OqNvi">
                  <ref role="2Oxat5" node="18EhrW3IzcB" resolve="myArgs" />
                </node>
                <node concept="Xjq3P" id="18EhrW3IzVB" role="2Oq$k0" />
              </node>
              <node concept="liA8E" id="18EhrW3IzVI" role="2OqNvi">
                <ref role="37wK5l" to="33ny:~List.size():int" resolve="size" />
              </node>
            </node>
          </node>
          <node concept="9aQIb" id="18EhrW3I_9g" role="9aQIa">
            <node concept="3clFbS" id="18EhrW3I_9h" role="9aQI4">
              <node concept="3cpWs6" id="18EhrW3I_9j" role="3cqZAp">
                <node concept="Xjq3P" id="18EhrW3I_9n" role="3cqZAk" />
              </node>
            </node>
          </node>
        </node>
      </node>
      <node concept="37vLTG" id="18EhrW3IzVb" role="3clF46">
        <property role="TrG5h" value="argValue" />
        <property role="3TUv4t" value="false" />
        <node concept="8X2XB" id="1_dfDbYAjO1" role="1tU5fm">
          <node concept="3uibUv" id="18EhrW3IzVc" role="8Xvag">
            <ref role="3uigEE" to="wyt6:~Object" resolve="Object" />
          </node>
        </node>
      </node>
    </node>
    <node concept="3clFb_" id="6GIw3W_okIK" role="jymVt">
      <property role="TrG5h" value="toString" />
      <node concept="3Tm1VV" id="6GIw3W_okIM" role="1B3o_S" />
      <node concept="3clFbS" id="6GIw3W_okIN" role="3clF47">
        <node concept="3cpWs8" id="6GIw3W_o_Ua" role="3cqZAp">
          <node concept="3cpWsn" id="6GIw3W_o_Ub" role="3cpWs9">
            <property role="TrG5h" value="sb" />
            <node concept="3uibUv" id="6GIw3W_o_Uc" role="1tU5fm">
              <ref role="3uigEE" to="wyt6:~StringBuilder" resolve="StringBuilder" />
            </node>
            <node concept="2ShNRf" id="6GIw3W_o_Ue" role="33vP2m">
              <node concept="1pGfFk" id="6GIw3W_o_ZP" role="2ShVmc">
                <ref role="37wK5l" to="wyt6:~StringBuilder.&lt;init&gt;()" resolve="StringBuilder" />
              </node>
            </node>
          </node>
        </node>
        <node concept="3clFbF" id="6GIw3W_oA09" role="3cqZAp">
          <node concept="2OqwBi" id="6GIw3W_oA0b" role="3clFbG">
            <node concept="37vLTw" id="3GM_nagTup4" role="2Oq$k0">
              <ref role="3cqZAo" node="6GIw3W_o_Ub" resolve="sb" />
            </node>
            <node concept="liA8E" id="6GIw3W_oA0f" role="2OqNvi">
              <ref role="37wK5l" to="wyt6:~StringBuilder.append(java.lang.String):java.lang.StringBuilder" resolve="append" />
              <node concept="Xl_RD" id="6GIw3W_oA0g" role="37wK5m">
                <property role="Xl_RC" value="Function(" />
              </node>
            </node>
          </node>
        </node>
        <node concept="3cpWs8" id="2FamHC_v$oR" role="3cqZAp">
          <node concept="3cpWsn" id="2FamHC_v$oS" role="3cpWs9">
            <property role="TrG5h" value="j" />
            <node concept="10Oyi0" id="2FamHC_v$oT" role="1tU5fm" />
            <node concept="3cmrfG" id="2FamHC_v$oV" role="33vP2m">
              <property role="3cmrfH" value="0" />
            </node>
          </node>
        </node>
        <node concept="1DcWWT" id="6GIw3W_oA0s" role="3cqZAp">
          <node concept="3clFbS" id="6GIw3W_oA0t" role="2LFqv$">
            <node concept="3clFbF" id="6GIw3W_oA0H" role="3cqZAp">
              <node concept="2OqwBi" id="6GIw3W_oA0J" role="3clFbG">
                <node concept="37vLTw" id="3GM_nagTsmB" role="2Oq$k0">
                  <ref role="3cqZAo" node="6GIw3W_o_Ub" resolve="sb" />
                </node>
                <node concept="liA8E" id="6GIw3W_oA0N" role="2OqNvi">
                  <ref role="37wK5l" to="wyt6:~StringBuilder.append(java.lang.Object):java.lang.StringBuilder" resolve="append" />
                  <node concept="37vLTw" id="3GM_nagTrbz" role="37wK5m">
                    <ref role="3cqZAo" node="6GIw3W_oA0w" resolve="arg" />
                  </node>
                </node>
              </node>
            </node>
            <node concept="3clFbJ" id="2FamHC_v$oM" role="3cqZAp">
              <node concept="3clFbS" id="2FamHC_v$oN" role="3clFbx">
                <node concept="3clFbF" id="2FamHC_v_7C" role="3cqZAp">
                  <node concept="2OqwBi" id="2FamHC_v_7D" role="3clFbG">
                    <node concept="37vLTw" id="3GM_nagTtzM" role="2Oq$k0">
                      <ref role="3cqZAo" node="6GIw3W_o_Ub" resolve="sb" />
                    </node>
                    <node concept="liA8E" id="2FamHC_v_7F" role="2OqNvi">
                      <ref role="37wK5l" to="wyt6:~StringBuilder.append(java.lang.String):java.lang.StringBuilder" resolve="append" />
                      <node concept="Xl_RD" id="2FamHC_v_7G" role="37wK5m">
                        <property role="Xl_RC" value=", " />
                      </node>
                    </node>
                  </node>
                </node>
              </node>
              <node concept="3y3z36" id="2FamHC_v$p6" role="3clFbw">
                <node concept="3cpWsd" id="2FamHC_v_7H" role="3uHU7w">
                  <node concept="3cmrfG" id="2FamHC_v_7K" role="3uHU7w">
                    <property role="3cmrfH" value="1" />
                  </node>
                  <node concept="2OqwBi" id="2FamHC_v$pa" role="3uHU7B">
                    <node concept="Xjq3P" id="2FamHC_v$p9" role="2Oq$k0" />
                    <node concept="liA8E" id="2FamHC_v_7B" role="2OqNvi">
                      <ref role="37wK5l" node="18EhrW3Izcz" resolve="getParamsCount" />
                    </node>
                  </node>
                </node>
                <node concept="37vLTw" id="3GM_nagTuob" role="3uHU7B">
                  <ref role="3cqZAo" node="2FamHC_v$oS" resolve="j" />
                </node>
              </node>
            </node>
            <node concept="3clFbF" id="2FamHC_v$p2" role="3cqZAp">
              <node concept="3uNrnE" id="2FamHC_v$p3" role="3clFbG">
                <node concept="37vLTw" id="3GM_nagTvyj" role="2$L3a6">
                  <ref role="3cqZAo" node="2FamHC_v$oS" resolve="j" />
                </node>
              </node>
            </node>
          </node>
          <node concept="2OqwBi" id="6GIw3W_oA0B" role="1DdaDG">
            <node concept="2OwXpG" id="6GIw3W_oA0C" role="2OqNvi">
              <ref role="2Oxat5" node="18EhrW3IzcB" resolve="myArgs" />
            </node>
            <node concept="Xjq3P" id="6GIw3W_oA0D" role="2Oq$k0" />
          </node>
          <node concept="3cpWsn" id="6GIw3W_oA0w" role="1Duv9x">
            <property role="TrG5h" value="arg" />
            <node concept="3uibUv" id="6GIw3W_oA0$" role="1tU5fm">
              <ref role="3uigEE" to="wyt6:~Object" resolve="Object" />
            </node>
          </node>
        </node>
        <node concept="1Dw8fO" id="6GIw3W_oA10" role="3cqZAp">
          <node concept="3clFbS" id="6GIw3W_oA11" role="2LFqv$">
            <node concept="3clFbF" id="6GIw3W_oA1s" role="3cqZAp">
              <node concept="2OqwBi" id="6GIw3W_oA1u" role="3clFbG">
                <node concept="37vLTw" id="3GM_nagTw8B" role="2Oq$k0">
                  <ref role="3cqZAo" node="6GIw3W_o_Ub" resolve="sb" />
                </node>
                <node concept="liA8E" id="6GIw3W_oA1y" role="2OqNvi">
                  <ref role="37wK5l" to="wyt6:~StringBuilder.append(java.lang.String):java.lang.StringBuilder" resolve="append" />
                  <node concept="Xl_RD" id="6GIw3W_oA1z" role="37wK5m">
                    <property role="Xl_RC" value="__" />
                  </node>
                </node>
              </node>
            </node>
            <node concept="3clFbJ" id="2FamHC_v$on" role="3cqZAp">
              <node concept="3clFbS" id="2FamHC_v$oo" role="3clFbx">
                <node concept="3clFbF" id="2FamHC_v$oD" role="3cqZAp">
                  <node concept="2OqwBi" id="2FamHC_v$oF" role="3clFbG">
                    <node concept="37vLTw" id="3GM_nagT_oI" role="2Oq$k0">
                      <ref role="3cqZAo" node="6GIw3W_o_Ub" resolve="sb" />
                    </node>
                    <node concept="liA8E" id="2FamHC_v$oJ" role="2OqNvi">
                      <ref role="37wK5l" to="wyt6:~StringBuilder.append(java.lang.String):java.lang.StringBuilder" resolve="append" />
                      <node concept="Xl_RD" id="2FamHC_v$oK" role="37wK5m">
                        <property role="Xl_RC" value=", " />
                      </node>
                    </node>
                  </node>
                </node>
              </node>
              <node concept="3y3z36" id="2FamHC_v$os" role="3clFbw">
                <node concept="3cpWsd" id="2FamHC_v$o_" role="3uHU7w">
                  <node concept="3cmrfG" id="2FamHC_v$oC" role="3uHU7w">
                    <property role="3cmrfH" value="1" />
                  </node>
                  <node concept="2OqwBi" id="2FamHC_v$ow" role="3uHU7B">
                    <node concept="Xjq3P" id="2FamHC_v$ov" role="2Oq$k0" />
                    <node concept="liA8E" id="2FamHC_v$o$" role="2OqNvi">
                      <ref role="37wK5l" node="18EhrW3Izcz" resolve="getParamsCount" />
                    </node>
                  </node>
                </node>
                <node concept="37vLTw" id="3GM_nagT_KP" role="3uHU7B">
                  <ref role="3cqZAo" node="6GIw3W_oA13" resolve="i" />
                </node>
              </node>
            </node>
          </node>
          <node concept="3cpWsn" id="6GIw3W_oA13" role="1Duv9x">
            <property role="TrG5h" value="i" />
            <node concept="10Oyi0" id="6GIw3W_oA15" role="1tU5fm" />
            <node concept="2OqwBi" id="6GIw3W_oA1d" role="33vP2m">
              <node concept="2OqwBi" id="6GIw3W_oA18" role="2Oq$k0">
                <node concept="Xjq3P" id="6GIw3W_oA17" role="2Oq$k0" />
                <node concept="2OwXpG" id="6GIw3W_oA1c" role="2OqNvi">
                  <ref role="2Oxat5" node="18EhrW3IzcB" resolve="myArgs" />
                </node>
              </node>
              <node concept="liA8E" id="6GIw3W_oA1h" role="2OqNvi">
                <ref role="37wK5l" to="33ny:~List.size():int" resolve="size" />
              </node>
            </node>
          </node>
          <node concept="3eOVzh" id="6GIw3W_oA1j" role="1Dwp0S">
            <node concept="2OqwBi" id="6GIw3W_oA1m" role="3uHU7w">
              <node concept="liA8E" id="6GIw3W_oA1n" role="2OqNvi">
                <ref role="37wK5l" node="18EhrW3Izcz" resolve="getParamsCount" />
              </node>
              <node concept="Xjq3P" id="6GIw3W_oA1o" role="2Oq$k0" />
            </node>
            <node concept="37vLTw" id="3GM_nagTBHN" role="3uHU7B">
              <ref role="3cqZAo" node="6GIw3W_oA13" resolve="i" />
            </node>
          </node>
          <node concept="3uNrnE" id="6GIw3W_oA1q" role="1Dwrff">
            <node concept="37vLTw" id="3GM_nagTy6R" role="2$L3a6">
              <ref role="3cqZAo" node="6GIw3W_oA13" resolve="i" />
            </node>
          </node>
        </node>
        <node concept="3clFbF" id="6GIw3W_oA1_" role="3cqZAp">
          <node concept="2OqwBi" id="6GIw3W_oA1B" role="3clFbG">
            <node concept="37vLTw" id="3GM_nagTv5M" role="2Oq$k0">
              <ref role="3cqZAo" node="6GIw3W_o_Ub" resolve="sb" />
            </node>
            <node concept="liA8E" id="6GIw3W_oA1F" role="2OqNvi">
              <ref role="37wK5l" to="wyt6:~StringBuilder.append(java.lang.String):java.lang.StringBuilder" resolve="append" />
              <node concept="Xl_RD" id="6GIw3W_oA1G" role="37wK5m">
                <property role="Xl_RC" value=") : " />
              </node>
            </node>
          </node>
        </node>
        <node concept="3clFbF" id="2_HcEOD39vT" role="3cqZAp">
          <node concept="2OqwBi" id="2_HcEOD39vU" role="3clFbG">
            <node concept="37vLTw" id="3GM_nagTrg0" role="2Oq$k0">
              <ref role="3cqZAo" node="6GIw3W_o_Ub" resolve="sb" />
            </node>
            <node concept="liA8E" id="2_HcEOD39vW" role="2OqNvi">
              <ref role="37wK5l" to="wyt6:~StringBuilder.append(java.lang.String):java.lang.StringBuilder" resolve="append" />
              <node concept="2OqwBi" id="2_HcEOD39vY" role="37wK5m">
                <node concept="2OwXpG" id="2_HcEOD39vZ" role="2OqNvi">
                  <ref role="2Oxat5" node="2_HcEOD36v3" resolve="myType" />
                </node>
                <node concept="Xjq3P" id="2_HcEOD39w0" role="2Oq$k0" />
              </node>
            </node>
          </node>
        </node>
        <node concept="3cpWs6" id="6GIw3W_o_ZY" role="3cqZAp">
          <node concept="2OqwBi" id="6GIw3W_o_ZT" role="3cqZAk">
            <node concept="37vLTw" id="3GM_nagTyKk" role="2Oq$k0">
              <ref role="3cqZAo" node="6GIw3W_o_Ub" resolve="sb" />
            </node>
            <node concept="liA8E" id="6GIw3W_o_ZX" role="2OqNvi">
              <ref role="37wK5l" to="wyt6:~StringBuilder.toString():java.lang.String" resolve="toString" />
            </node>
          </node>
        </node>
      </node>
      <node concept="17QB3L" id="6GIw3W_okIQ" role="3clF45" />
      <node concept="2AHcQZ" id="3tYsUK_UB1r" role="2AJF6D">
        <ref role="2AI5Lk" to="wyt6:~Override" resolve="Override" />
      </node>
    </node>
    <node concept="3clFb_" id="18EhrW3IzVd" role="jymVt">
      <property role="1EzhhJ" value="true" />
      <property role="TrG5h" value="eval" />
      <node concept="3uibUv" id="18EhrW3IzVh" role="3clF45">
        <ref role="3uigEE" to="wyt6:~Object" resolve="Object" />
      </node>
      <node concept="3Tm1VV" id="18EhrW3IzVf" role="1B3o_S" />
      <node concept="3clFbS" id="18EhrW3IzVg" role="3clF47" />
    </node>
    <node concept="3clFb_" id="1wSimss5Eib" role="jymVt">
      <property role="1EzhhJ" value="true" />
      <property role="TrG5h" value="copy" />
      <node concept="3Tm1VV" id="1wSimss5Eid" role="1B3o_S" />
      <node concept="3clFbS" id="1wSimss5Eie" role="3clF47" />
      <node concept="3uibUv" id="1wSimss5Eij" role="3clF45">
        <ref role="3uigEE" node="18EhrW3Izct" resolve="Function" />
      </node>
    </node>
    <node concept="3clFb_" id="18EhrW3Izcz" role="jymVt">
      <property role="1EzhhJ" value="true" />
      <property role="TrG5h" value="getParamsCount" />
      <node concept="10Oyi0" id="18EhrW3IzUZ" role="3clF45" />
      <node concept="3Tm1VV" id="18EhrW3Izc_" role="1B3o_S" />
      <node concept="3clFbS" id="18EhrW3IzcA" role="3clF47" />
    </node>
  </node>
</model>

