<?xml version="1.0" encoding="UTF-8"?>
<model ref="r:00000000-0000-4000-0000-011c89590405(jetbrains.mps.baseLanguage.unitTest.execution)">
  <persistence version="9" />
  <languages>
    <use id="83888646-71ce-4f1c-9c53-c54016f6ad4f" name="jetbrains.mps.baseLanguage.collections" version="0" />
    <use id="daafa647-f1f7-4b0b-b096-69cd7c8408c0" name="jetbrains.mps.baseLanguage.regexp" version="0" />
    <use id="f3061a53-9226-4cc5-a443-f952ceaf5816" name="jetbrains.mps.baseLanguage" version="4" />
  </languages>
  <imports>
    <import index="tpfp" ref="r:00000000-0000-4000-0000-011c89590519(jetbrains.mps.baseLanguage.regexp.jetbrains.mps.regexp.accessory)" />
    <import index="wyt6" ref="6354ebe7-c22a-4a0f-ac54-50b52ab9b065/java:java.lang(JDK/)" />
    <import index="cvlm" ref="83f155ff-422c-4b5a-a2f2-b459302dd215/java:org.junit.runner(jetbrains.mps.baseLanguage.unitTest.libs/)" />
  </imports>
  <registry>
    <language id="f3061a53-9226-4cc5-a443-f952ceaf5816" name="jetbrains.mps.baseLanguage">
      <concept id="1080223426719" name="jetbrains.mps.baseLanguage.structure.OrExpression" flags="nn" index="22lmx$" />
      <concept id="1215693861676" name="jetbrains.mps.baseLanguage.structure.BaseAssignmentExpression" flags="nn" index="d038R">
        <child id="1068498886297" name="rValue" index="37vLTx" />
        <child id="1068498886295" name="lValue" index="37vLTJ" />
      </concept>
      <concept id="1202948039474" name="jetbrains.mps.baseLanguage.structure.InstanceMethodCallOperation" flags="nn" index="liA8E" />
      <concept id="1188207840427" name="jetbrains.mps.baseLanguage.structure.AnnotationInstance" flags="nn" index="2AHcQZ">
        <reference id="1188208074048" name="annotation" index="2AI5Lk" />
      </concept>
      <concept id="1188208481402" name="jetbrains.mps.baseLanguage.structure.HasAnnotation" flags="ng" index="2AJDlI">
        <child id="1188208488637" name="annotation" index="2AJF6D" />
      </concept>
      <concept id="1154032098014" name="jetbrains.mps.baseLanguage.structure.AbstractLoopStatement" flags="nn" index="2LF5Ji">
        <child id="1154032183016" name="body" index="2LFqv$" />
      </concept>
      <concept id="1197027756228" name="jetbrains.mps.baseLanguage.structure.DotExpression" flags="nn" index="2OqwBi">
        <child id="1197027771414" name="operand" index="2Oq$k0" />
        <child id="1197027833540" name="operation" index="2OqNvi" />
      </concept>
      <concept id="1197029447546" name="jetbrains.mps.baseLanguage.structure.FieldReferenceOperation" flags="nn" index="2OwXpG">
        <reference id="1197029500499" name="fieldDeclaration" index="2Oxat5" />
      </concept>
      <concept id="1145552977093" name="jetbrains.mps.baseLanguage.structure.GenericNewExpression" flags="nn" index="2ShNRf">
        <child id="1145553007750" name="creator" index="2ShVmc" />
      </concept>
      <concept id="1070462154015" name="jetbrains.mps.baseLanguage.structure.StaticFieldDeclaration" flags="ig" index="Wx3nA" />
      <concept id="1070475354124" name="jetbrains.mps.baseLanguage.structure.ThisExpression" flags="nn" index="Xjq3P" />
      <concept id="1070475926800" name="jetbrains.mps.baseLanguage.structure.StringLiteral" flags="nn" index="Xl_RD">
        <property id="1070475926801" name="value" index="Xl_RC" />
      </concept>
      <concept id="1081236700938" name="jetbrains.mps.baseLanguage.structure.StaticMethodDeclaration" flags="ig" index="2YIFZL" />
      <concept id="1081236700937" name="jetbrains.mps.baseLanguage.structure.StaticMethodCall" flags="nn" index="2YIFZM">
        <reference id="1144433194310" name="classConcept" index="1Pybhc" />
      </concept>
      <concept id="1081256982272" name="jetbrains.mps.baseLanguage.structure.InstanceOfExpression" flags="nn" index="2ZW3vV">
        <child id="1081256993305" name="classType" index="2ZW6by" />
        <child id="1081256993304" name="leftExpression" index="2ZW6bz" />
      </concept>
      <concept id="1070533707846" name="jetbrains.mps.baseLanguage.structure.StaticFieldReference" flags="nn" index="10M0yZ">
        <reference id="1144433057691" name="classifier" index="1PxDUh" />
      </concept>
      <concept id="1070534058343" name="jetbrains.mps.baseLanguage.structure.NullLiteral" flags="nn" index="10Nm6u" />
      <concept id="1070534370425" name="jetbrains.mps.baseLanguage.structure.IntegerType" flags="in" index="10Oyi0" />
      <concept id="1070534644030" name="jetbrains.mps.baseLanguage.structure.BooleanType" flags="in" index="10P_77" />
      <concept id="1070534934090" name="jetbrains.mps.baseLanguage.structure.CastExpression" flags="nn" index="10QFUN">
        <child id="1070534934091" name="type" index="10QFUM" />
        <child id="1070534934092" name="expression" index="10QFUP" />
      </concept>
      <concept id="1068390468200" name="jetbrains.mps.baseLanguage.structure.FieldDeclaration" flags="ig" index="312cEg" />
      <concept id="1068390468198" name="jetbrains.mps.baseLanguage.structure.ClassConcept" flags="ig" index="312cEu" />
      <concept id="1068431474542" name="jetbrains.mps.baseLanguage.structure.VariableDeclaration" flags="ng" index="33uBYm">
        <property id="1176718929932" name="isFinal" index="3TUv4t" />
        <child id="1068431790190" name="initializer" index="33vP2m" />
      </concept>
      <concept id="1092119917967" name="jetbrains.mps.baseLanguage.structure.MulExpression" flags="nn" index="17qRlL" />
      <concept id="1068498886296" name="jetbrains.mps.baseLanguage.structure.VariableReference" flags="nn" index="37vLTw">
        <reference id="1068581517664" name="variableDeclaration" index="3cqZAo" />
      </concept>
      <concept id="1068498886292" name="jetbrains.mps.baseLanguage.structure.ParameterDeclaration" flags="ir" index="37vLTG" />
      <concept id="1068498886294" name="jetbrains.mps.baseLanguage.structure.AssignmentExpression" flags="nn" index="37vLTI" />
      <concept id="1225271177708" name="jetbrains.mps.baseLanguage.structure.StringType" flags="in" index="17QB3L" />
      <concept id="4972933694980447171" name="jetbrains.mps.baseLanguage.structure.BaseVariableDeclaration" flags="ng" index="19Szcq">
        <child id="5680397130376446158" name="type" index="1tU5fm" />
      </concept>
      <concept id="1068580123132" name="jetbrains.mps.baseLanguage.structure.BaseMethodDeclaration" flags="ng" index="3clF44">
        <property id="4276006055363816570" name="isSynchronized" index="od$2w" />
        <property id="1181808852946" name="isFinal" index="DiZV1" />
        <child id="1068580123133" name="returnType" index="3clF45" />
        <child id="1068580123134" name="parameter" index="3clF46" />
        <child id="1068580123135" name="body" index="3clF47" />
      </concept>
      <concept id="1068580123165" name="jetbrains.mps.baseLanguage.structure.InstanceMethodDeclaration" flags="ig" index="3clFb_">
        <property id="1178608670077" name="isAbstract" index="1EzhhJ" />
      </concept>
      <concept id="1068580123152" name="jetbrains.mps.baseLanguage.structure.EqualsExpression" flags="nn" index="3clFbC" />
      <concept id="1068580123155" name="jetbrains.mps.baseLanguage.structure.ExpressionStatement" flags="nn" index="3clFbF">
        <child id="1068580123156" name="expression" index="3clFbG" />
      </concept>
      <concept id="1068580123159" name="jetbrains.mps.baseLanguage.structure.IfStatement" flags="nn" index="3clFbJ">
        <child id="1068580123160" name="condition" index="3clFbw" />
        <child id="1068580123161" name="ifTrue" index="3clFbx" />
      </concept>
      <concept id="1068580123136" name="jetbrains.mps.baseLanguage.structure.StatementList" flags="sn" stub="5293379017992965193" index="3clFbS">
        <child id="1068581517665" name="statement" index="3cqZAp" />
      </concept>
      <concept id="1068580123137" name="jetbrains.mps.baseLanguage.structure.BooleanConstant" flags="nn" index="3clFbT">
        <property id="1068580123138" name="value" index="3clFbU" />
      </concept>
      <concept id="1068580123140" name="jetbrains.mps.baseLanguage.structure.ConstructorDeclaration" flags="ig" index="3clFbW" />
      <concept id="1068580320020" name="jetbrains.mps.baseLanguage.structure.IntegerConstant" flags="nn" index="3cmrfG">
        <property id="1068580320021" name="value" index="3cmrfH" />
      </concept>
      <concept id="1068581242875" name="jetbrains.mps.baseLanguage.structure.PlusExpression" flags="nn" index="3cpWs3" />
      <concept id="1068581242878" name="jetbrains.mps.baseLanguage.structure.ReturnStatement" flags="nn" index="3cpWs6">
        <child id="1068581517676" name="expression" index="3cqZAk" />
      </concept>
      <concept id="1068581242864" name="jetbrains.mps.baseLanguage.structure.LocalVariableDeclarationStatement" flags="nn" index="3cpWs8">
        <child id="1068581242865" name="localVariableDeclaration" index="3cpWs9" />
      </concept>
      <concept id="1068581242867" name="jetbrains.mps.baseLanguage.structure.LongType" flags="in" index="3cpWsb" />
      <concept id="1068581242869" name="jetbrains.mps.baseLanguage.structure.MinusExpression" flags="nn" index="3cpWsd" />
      <concept id="1068581242863" name="jetbrains.mps.baseLanguage.structure.LocalVariableDeclaration" flags="nr" index="3cpWsn" />
      <concept id="1068581517677" name="jetbrains.mps.baseLanguage.structure.VoidType" flags="in" index="3cqZAl" />
      <concept id="1081516740877" name="jetbrains.mps.baseLanguage.structure.NotExpression" flags="nn" index="3fqX7Q">
        <child id="1081516765348" name="expression" index="3fr31v" />
      </concept>
      <concept id="1204053956946" name="jetbrains.mps.baseLanguage.structure.IMethodCall" flags="ng" index="1ndlxa">
        <reference id="1068499141037" name="baseMethodDeclaration" index="37wK5l" />
        <child id="1068499141038" name="actualArgument" index="37wK5m" />
      </concept>
      <concept id="1212685548494" name="jetbrains.mps.baseLanguage.structure.ClassCreator" flags="nn" index="1pGfFk" />
      <concept id="1107461130800" name="jetbrains.mps.baseLanguage.structure.Classifier" flags="ng" index="3pOWGL">
        <child id="5375687026011219971" name="member" index="jymVt" unordered="true" />
      </concept>
      <concept id="7812454656619025412" name="jetbrains.mps.baseLanguage.structure.LocalMethodCall" flags="nn" index="1rXfSq" />
      <concept id="1107535904670" name="jetbrains.mps.baseLanguage.structure.ClassifierType" flags="in" index="3uibUv">
        <reference id="1107535924139" name="classifier" index="3uigEE" />
      </concept>
      <concept id="1081773326031" name="jetbrains.mps.baseLanguage.structure.BinaryOperation" flags="nn" index="3uHJSO">
        <child id="1081773367579" name="rightExpression" index="3uHU7w" />
        <child id="1081773367580" name="leftExpression" index="3uHU7B" />
      </concept>
      <concept id="1073239437375" name="jetbrains.mps.baseLanguage.structure.NotEqualsExpression" flags="nn" index="3y3z36" />
      <concept id="1081855346303" name="jetbrains.mps.baseLanguage.structure.BreakStatement" flags="nn" index="3zACq4" />
      <concept id="1178549954367" name="jetbrains.mps.baseLanguage.structure.IVisible" flags="ng" index="1B3ioH">
        <child id="1178549979242" name="visibility" index="1B3o_S" />
      </concept>
      <concept id="1221737317277" name="jetbrains.mps.baseLanguage.structure.StaticInitializer" flags="lg" index="1Pe0a1">
        <child id="1221737317278" name="statementList" index="1Pe0a2" />
      </concept>
      <concept id="1146644602865" name="jetbrains.mps.baseLanguage.structure.PublicVisibility" flags="nn" index="3Tm1VV" />
      <concept id="1146644623116" name="jetbrains.mps.baseLanguage.structure.PrivateVisibility" flags="nn" index="3Tm6S6" />
      <concept id="1080120340718" name="jetbrains.mps.baseLanguage.structure.AndExpression" flags="nn" index="1Wc70l" />
      <concept id="1200397529627" name="jetbrains.mps.baseLanguage.structure.CharConstant" flags="nn" index="1Xhbcc">
        <property id="1200397540847" name="charConstant" index="1XhdNS" />
      </concept>
    </language>
    <language id="ceab5195-25ea-4f22-9b92-103b95ca8c0c" name="jetbrains.mps.lang.core">
      <concept id="1169194658468" name="jetbrains.mps.lang.core.structure.INamedConcept" flags="ng" index="TrEIO">
        <property id="1169194664001" name="name" index="TrG5h" />
      </concept>
    </language>
    <language id="daafa647-f1f7-4b0b-b096-69cd7c8408c0" name="jetbrains.mps.baseLanguage.regexp">
      <concept id="1174482753837" name="jetbrains.mps.baseLanguage.regexp.structure.StringLiteralRegexp" flags="ng" index="1OC9wW">
        <property id="1174482761807" name="text" index="1OCb_u" />
      </concept>
      <concept id="1174482804200" name="jetbrains.mps.baseLanguage.regexp.structure.PlusRegexp" flags="ng" index="1OClNT" />
      <concept id="1174484562151" name="jetbrains.mps.baseLanguage.regexp.structure.SeqRegexp" flags="ng" index="1OJ37Q" />
      <concept id="1174485167097" name="jetbrains.mps.baseLanguage.regexp.structure.BinaryRegexp" flags="ng" index="1OLmFC">
        <child id="1174485176897" name="left" index="1OLpdg" />
        <child id="1174485181039" name="right" index="1OLqdY" />
      </concept>
      <concept id="1174485235885" name="jetbrains.mps.baseLanguage.regexp.structure.UnaryRegexp" flags="ng" index="1OLBAW">
        <child id="1174485243418" name="regexp" index="1OLDsb" />
      </concept>
      <concept id="1174491169200" name="jetbrains.mps.baseLanguage.regexp.structure.ParensRegexp" flags="ng" index="1P8g2x">
        <child id="1174491174779" name="expr" index="1P8hpE" />
      </concept>
      <concept id="1174510540317" name="jetbrains.mps.baseLanguage.regexp.structure.InlineRegexpExpression" flags="nn" index="1Qi9sc">
        <child id="1174510571016" name="regexp" index="1QigWp" />
      </concept>
      <concept id="1174512414484" name="jetbrains.mps.baseLanguage.regexp.structure.MatchRegexpStatement" flags="nn" index="1QpiS5">
        <child id="1174512427594" name="body" index="1Qpmdr" />
        <child id="1174512569438" name="expr" index="1QpSPf" />
      </concept>
      <concept id="1174552240608" name="jetbrains.mps.baseLanguage.regexp.structure.QuestionRegexp" flags="ng" index="1SLe3L" />
      <concept id="1174554186090" name="jetbrains.mps.baseLanguage.regexp.structure.SymbolClassRegexp" flags="ng" index="1SSD1V">
        <child id="1174557628217" name="part" index="1T5LoC" />
      </concept>
      <concept id="1174554238051" name="jetbrains.mps.baseLanguage.regexp.structure.NegativeSymbolClassRegexp" flags="ng" index="1SSPPM" />
      <concept id="1174555732504" name="jetbrains.mps.baseLanguage.regexp.structure.PredefinedSymbolClassRegexp" flags="ng" index="1SYyG9">
        <reference id="1174555843709" name="symbolClass" index="1SYXPG" />
      </concept>
      <concept id="1174557878319" name="jetbrains.mps.baseLanguage.regexp.structure.CharacterSymbolClassPart" flags="ng" index="1T6I$Y">
        <property id="1174557887320" name="character" index="1T6KD9" />
      </concept>
      <concept id="1174564062919" name="jetbrains.mps.baseLanguage.regexp.structure.MatchParensRegexp" flags="ng" index="1Tukvm">
        <child id="1174564160889" name="regexp" index="1TuGhC" />
      </concept>
      <concept id="1174565027678" name="jetbrains.mps.baseLanguage.regexp.structure.MatchVariableReference" flags="nn" index="1TxZTf">
        <reference id="1174565035929" name="match" index="1Ty1U8" />
      </concept>
      <concept id="1174653354106" name="jetbrains.mps.baseLanguage.regexp.structure.RegexpUsingConstruction" flags="ng" index="1YMW5F">
        <child id="1174653387388" name="regexp" index="1YN4dH" />
      </concept>
    </language>
    <language id="83888646-71ce-4f1c-9c53-c54016f6ad4f" name="jetbrains.mps.baseLanguage.collections">
      <concept id="1151688443754" name="jetbrains.mps.baseLanguage.collections.structure.ListType" flags="in" index="_YKpA">
        <child id="1151688676805" name="elementType" index="_ZDj9" />
      </concept>
      <concept id="1153943597977" name="jetbrains.mps.baseLanguage.collections.structure.ForEachStatement" flags="nn" index="2Gpval">
        <child id="1153944400369" name="variable" index="2Gsz3X" />
        <child id="1153944424730" name="inputSequence" index="2GsD0m" />
      </concept>
      <concept id="1153944193378" name="jetbrains.mps.baseLanguage.collections.structure.ForEachVariable" flags="nr" index="2GrKxI" />
      <concept id="1153944233411" name="jetbrains.mps.baseLanguage.collections.structure.ForEachVariableReference" flags="nn" index="2GrUjf">
        <reference id="1153944258490" name="variable" index="2Gs0qQ" />
      </concept>
      <concept id="1237721394592" name="jetbrains.mps.baseLanguage.collections.structure.AbstractContainerCreator" flags="nn" index="HWqM0">
        <child id="1237721435808" name="initValue" index="HW$Y0" />
        <child id="1237721435807" name="elementType" index="HW$YZ" />
      </concept>
      <concept id="1160600644654" name="jetbrains.mps.baseLanguage.collections.structure.ListCreatorWithInit" flags="nn" index="Tc6Ow" />
    </language>
  </registry>
  <node concept="312cEu" id="1zHDQsywvgL">
    <property role="TrG5h" value="TestEvent" />
    <node concept="3Tm1VV" id="1zHDQsywvkp" role="1B3o_S" />
    <node concept="Wx3nA" id="1zHDQsywvlq" role="jymVt">
      <property role="TrG5h" value="START_TEST_PREFIX" />
      <property role="3TUv4t" value="true" />
      <node concept="3Tm1VV" id="1zHDQsywvlr" role="1B3o_S" />
      <node concept="17QB3L" id="1zHDQsywvls" role="1tU5fm" />
      <node concept="Xl_RD" id="1zHDQsywvlt" role="33vP2m">
        <property role="Xl_RC" value="&lt;START_TEST&gt;" />
      </node>
    </node>
    <node concept="Wx3nA" id="1zHDQsywvlu" role="jymVt">
      <property role="TrG5h" value="FINISH_TEST_PREFIX" />
      <property role="3TUv4t" value="true" />
      <node concept="3Tm1VV" id="1zHDQsywvlv" role="1B3o_S" />
      <node concept="17QB3L" id="1zHDQsywvlw" role="1tU5fm" />
      <node concept="Xl_RD" id="1zHDQsywvlx" role="33vP2m">
        <property role="Xl_RC" value="&lt;FINISH_TEST&gt;" />
      </node>
    </node>
    <node concept="Wx3nA" id="1zHDQsywvly" role="jymVt">
      <property role="TrG5h" value="FAILURE_TEST_PREFIX" />
      <property role="3TUv4t" value="true" />
      <node concept="3Tm1VV" id="1zHDQsywvlz" role="1B3o_S" />
      <node concept="17QB3L" id="1zHDQsywvl$" role="1tU5fm" />
      <node concept="Xl_RD" id="1zHDQsywvl_" role="33vP2m">
        <property role="Xl_RC" value="&lt;TEST_FAILURE_BEGIN&gt;" />
      </node>
    </node>
    <node concept="Wx3nA" id="1zHDQsywvlA" role="jymVt">
      <property role="TrG5h" value="FAILURE_TEST_SUFFIX" />
      <property role="3TUv4t" value="true" />
      <node concept="3Tm1VV" id="1zHDQsywvlB" role="1B3o_S" />
      <node concept="17QB3L" id="1zHDQsywvlC" role="1tU5fm" />
      <node concept="Xl_RD" id="1zHDQsywvlD" role="33vP2m">
        <property role="Xl_RC" value="&lt;TEST_FAILURE_END&gt;" />
      </node>
    </node>
    <node concept="Wx3nA" id="1zHDQsywvlE" role="jymVt">
      <property role="TrG5h" value="ASSUMPTION_FAILURE_TEST_PREFIX" />
      <property role="3TUv4t" value="true" />
      <node concept="3Tm1VV" id="1zHDQsywvlF" role="1B3o_S" />
      <node concept="17QB3L" id="1zHDQsywvlG" role="1tU5fm" />
      <node concept="Xl_RD" id="1zHDQsywvlH" role="33vP2m">
        <property role="Xl_RC" value="&lt;TEST_ASSUMPTION_FAILURE_BEGIN&gt;" />
      </node>
    </node>
    <node concept="Wx3nA" id="1zHDQsywvlI" role="jymVt">
      <property role="TrG5h" value="ASSUMPTION_FAILURE_TEST_SUFFIX" />
      <property role="3TUv4t" value="true" />
      <node concept="3Tm1VV" id="1zHDQsywvlJ" role="1B3o_S" />
      <node concept="17QB3L" id="1zHDQsywvlK" role="1tU5fm" />
      <node concept="Xl_RD" id="1zHDQsywvlL" role="33vP2m">
        <property role="Xl_RC" value="&lt;TEST_ASSUMPTION_FAILURE_END&gt;" />
      </node>
    </node>
    <node concept="Wx3nA" id="1zHDQsywvlM" role="jymVt">
      <property role="TrG5h" value="ALL_TOKENS" />
      <node concept="3Tm6S6" id="1zHDQsywvlN" role="1B3o_S" />
      <node concept="_YKpA" id="1zHDQsywvlO" role="1tU5fm">
        <node concept="17QB3L" id="1zHDQsywvlP" role="_ZDj9" />
      </node>
    </node>
    <node concept="312cEg" id="1zHDQsywvka" role="jymVt">
      <property role="TrG5h" value="myToken" />
      <property role="3TUv4t" value="true" />
      <node concept="3Tm6S6" id="1zHDQsywvkb" role="1B3o_S" />
      <node concept="17QB3L" id="1zHDQsywvkc" role="1tU5fm" />
    </node>
    <node concept="312cEg" id="1zHDQsywvkd" role="jymVt">
      <property role="TrG5h" value="myTestCaseName" />
      <property role="3TUv4t" value="true" />
      <node concept="3Tm6S6" id="1zHDQsywvke" role="1B3o_S" />
      <node concept="17QB3L" id="1zHDQsywvkf" role="1tU5fm" />
    </node>
    <node concept="312cEg" id="1zHDQsywvkg" role="jymVt">
      <property role="TrG5h" value="myTestMethodName" />
      <property role="3TUv4t" value="true" />
      <node concept="3Tm6S6" id="1zHDQsywvkh" role="1B3o_S" />
      <node concept="17QB3L" id="1zHDQsywvki" role="1tU5fm" />
    </node>
    <node concept="312cEg" id="1zHDQsywvkj" role="jymVt">
      <property role="TrG5h" value="myMemoryUsage" />
      <property role="3TUv4t" value="true" />
      <node concept="3Tm6S6" id="1zHDQsywvkk" role="1B3o_S" />
      <node concept="3cpWsb" id="1zHDQsywvkl" role="1tU5fm" />
    </node>
    <node concept="312cEg" id="1zHDQsywvkm" role="jymVt">
      <property role="TrG5h" value="myTime" />
      <property role="3TUv4t" value="true" />
      <node concept="3Tm6S6" id="1zHDQsywvkn" role="1B3o_S" />
      <node concept="3cpWsb" id="1zHDQsywvko" role="1tU5fm" />
    </node>
    <node concept="3clFbW" id="1zHDQsywvj8" role="jymVt">
      <node concept="37vLTG" id="1zHDQsywvj9" role="3clF46">
        <property role="TrG5h" value="token" />
        <node concept="17QB3L" id="1zHDQsywvja" role="1tU5fm" />
      </node>
      <node concept="37vLTG" id="1zHDQsywvnV" role="3clF46">
        <property role="TrG5h" value="description" />
        <node concept="3uibUv" id="5rIGkjFCjPQ" role="1tU5fm">
          <ref role="3uigEE" to="cvlm:~Description" resolve="Description" />
        </node>
      </node>
      <node concept="3cqZAl" id="1zHDQsywvjd" role="3clF45" />
      <node concept="3Tm1VV" id="1zHDQsywvje" role="1B3o_S" />
      <node concept="3clFbS" id="1zHDQsywvjf" role="3clF47">
        <node concept="3clFbF" id="1zHDQsywvjg" role="3cqZAp">
          <node concept="37vLTI" id="1zHDQsywvjh" role="3clFbG">
            <node concept="37vLTw" id="2BHiRxgkZZB" role="37vLTx">
              <ref role="3cqZAo" node="1zHDQsywvj9" resolve="token" />
            </node>
            <node concept="37vLTw" id="2BHiRxeuMCw" role="37vLTJ">
              <ref role="3cqZAo" node="1zHDQsywvka" resolve="myToken" />
            </node>
          </node>
        </node>
        <node concept="3clFbF" id="1zHDQsywvjm" role="3cqZAp">
          <node concept="37vLTI" id="1zHDQsywvjn" role="3clFbG">
            <node concept="2OqwBi" id="1zHDQsywvjo" role="37vLTx">
              <node concept="2OqwBi" id="1zHDQsywvjp" role="2Oq$k0">
                <node concept="37vLTw" id="2BHiRxglket" role="2Oq$k0">
                  <ref role="3cqZAo" node="1zHDQsywvnV" resolve="description" />
                </node>
                <node concept="liA8E" id="1zHDQsywvjr" role="2OqNvi">
                  <ref role="37wK5l" to="cvlm:~Description.getTestClass():java.lang.Class" resolve="getTestClass" />
                </node>
              </node>
              <node concept="liA8E" id="1zHDQsywvjs" role="2OqNvi">
                <ref role="37wK5l" to="wyt6:~Class.getName():java.lang.String" resolve="getName" />
              </node>
            </node>
            <node concept="37vLTw" id="2BHiRxeuA$K" role="37vLTJ">
              <ref role="3cqZAo" node="1zHDQsywvkd" resolve="myTestCaseName" />
            </node>
          </node>
        </node>
        <node concept="3clFbF" id="1zHDQsywvpi" role="3cqZAp">
          <node concept="37vLTI" id="1zHDQsywvpk" role="3clFbG">
            <node concept="2OqwBi" id="1zHDQsywvpo" role="37vLTx">
              <node concept="37vLTw" id="2BHiRxgm7OI" role="2Oq$k0">
                <ref role="3cqZAo" node="1zHDQsywvnV" resolve="description" />
              </node>
              <node concept="liA8E" id="1zHDQsywvps" role="2OqNvi">
                <ref role="37wK5l" to="cvlm:~Description.getMethodName():java.lang.String" resolve="getMethodName" />
              </node>
            </node>
            <node concept="37vLTw" id="2BHiRxeukt5" role="37vLTJ">
              <ref role="3cqZAo" node="1zHDQsywvkg" resolve="myTestMethodName" />
            </node>
          </node>
        </node>
        <node concept="3cpWs8" id="1zHDQsywvjK" role="3cqZAp">
          <node concept="3cpWsn" id="1zHDQsywvjL" role="3cpWs9">
            <property role="TrG5h" value="runtime" />
            <node concept="3uibUv" id="1zHDQsywvjM" role="1tU5fm">
              <ref role="3uigEE" to="wyt6:~Runtime" resolve="Runtime" />
            </node>
            <node concept="2YIFZM" id="1zHDQsywvjN" role="33vP2m">
              <ref role="1Pybhc" to="wyt6:~Runtime" resolve="Runtime" />
              <ref role="37wK5l" to="wyt6:~Runtime.getRuntime():java.lang.Runtime" resolve="getRuntime" />
            </node>
          </node>
        </node>
        <node concept="3clFbF" id="1zHDQsywvjO" role="3cqZAp">
          <node concept="37vLTI" id="1zHDQsywvjP" role="3clFbG">
            <node concept="3cpWsd" id="1zHDQsywvjQ" role="37vLTx">
              <node concept="2OqwBi" id="1zHDQsywvjR" role="3uHU7w">
                <node concept="37vLTw" id="3GM_nagTw7A" role="2Oq$k0">
                  <ref role="3cqZAo" node="1zHDQsywvjL" resolve="runtime" />
                </node>
                <node concept="liA8E" id="1zHDQsywvjT" role="2OqNvi">
                  <ref role="37wK5l" to="wyt6:~Runtime.freeMemory():long" resolve="freeMemory" />
                </node>
              </node>
              <node concept="2OqwBi" id="1zHDQsywvjU" role="3uHU7B">
                <node concept="37vLTw" id="3GM_nagTvCr" role="2Oq$k0">
                  <ref role="3cqZAo" node="1zHDQsywvjL" resolve="runtime" />
                </node>
                <node concept="liA8E" id="1zHDQsywvjW" role="2OqNvi">
                  <ref role="37wK5l" to="wyt6:~Runtime.totalMemory():long" resolve="totalMemory" />
                </node>
              </node>
            </node>
            <node concept="37vLTw" id="2BHiRxeuFkp" role="37vLTJ">
              <ref role="3cqZAo" node="1zHDQsywvkj" resolve="myMemoryUsage" />
            </node>
          </node>
        </node>
        <node concept="3clFbF" id="1zHDQsywvk0" role="3cqZAp">
          <node concept="37vLTI" id="1zHDQsywvk1" role="3clFbG">
            <node concept="2YIFZM" id="1zHDQsywvk2" role="37vLTx">
              <ref role="37wK5l" to="wyt6:~System.currentTimeMillis():long" resolve="currentTimeMillis" />
              <ref role="1Pybhc" to="wyt6:~System" resolve="System" />
            </node>
            <node concept="37vLTw" id="2BHiRxeuL3R" role="37vLTJ">
              <ref role="3cqZAo" node="1zHDQsywvkm" resolve="myTime" />
            </node>
          </node>
        </node>
      </node>
    </node>
    <node concept="3clFbW" id="1zHDQsywvk6" role="jymVt">
      <node concept="3Tm1VV" id="6xerQJwhPmY" role="1B3o_S" />
      <node concept="37vLTG" id="1zHDQsywvoa" role="3clF46">
        <property role="TrG5h" value="token" />
        <node concept="17QB3L" id="1zHDQsywvoc" role="1tU5fm" />
      </node>
      <node concept="37vLTG" id="1zHDQsywvod" role="3clF46">
        <property role="TrG5h" value="testCaseName" />
        <node concept="17QB3L" id="1zHDQsywvof" role="1tU5fm" />
      </node>
      <node concept="37vLTG" id="1zHDQsywvog" role="3clF46">
        <property role="TrG5h" value="testMethodName" />
        <node concept="17QB3L" id="1zHDQsywvoi" role="1tU5fm" />
      </node>
      <node concept="37vLTG" id="1zHDQsywvoj" role="3clF46">
        <property role="TrG5h" value="memoryUsage" />
        <node concept="3cpWsb" id="1zHDQsywvol" role="1tU5fm" />
      </node>
      <node concept="37vLTG" id="1zHDQsywvom" role="3clF46">
        <property role="TrG5h" value="time" />
        <node concept="3cpWsb" id="1zHDQsywvoo" role="1tU5fm" />
      </node>
      <node concept="3cqZAl" id="1zHDQsywvk7" role="3clF45" />
      <node concept="3clFbS" id="1zHDQsywvk9" role="3clF47">
        <node concept="3clFbF" id="1zHDQsywvop" role="3cqZAp">
          <node concept="37vLTI" id="1zHDQsywvor" role="3clFbG">
            <node concept="37vLTw" id="2BHiRxgkZ0m" role="37vLTx">
              <ref role="3cqZAo" node="1zHDQsywvoa" resolve="token" />
            </node>
            <node concept="37vLTw" id="2BHiRxeude5" role="37vLTJ">
              <ref role="3cqZAo" node="1zHDQsywvka" resolve="myToken" />
            </node>
          </node>
        </node>
        <node concept="3clFbF" id="1zHDQsywvow" role="3cqZAp">
          <node concept="37vLTI" id="1zHDQsywvoy" role="3clFbG">
            <node concept="37vLTw" id="2BHiRxgm6aJ" role="37vLTx">
              <ref role="3cqZAo" node="1zHDQsywvod" resolve="testCaseName" />
            </node>
            <node concept="37vLTw" id="2BHiRxeujTK" role="37vLTJ">
              <ref role="3cqZAo" node="1zHDQsywvkd" resolve="myTestCaseName" />
            </node>
          </node>
        </node>
        <node concept="3clFbF" id="1zHDQsywvoB" role="3cqZAp">
          <node concept="37vLTI" id="1zHDQsywvoD" role="3clFbG">
            <node concept="37vLTw" id="2BHiRxghc2i" role="37vLTx">
              <ref role="3cqZAo" node="1zHDQsywvog" resolve="testMethodName" />
            </node>
            <node concept="37vLTw" id="2BHiRxeujTE" role="37vLTJ">
              <ref role="3cqZAo" node="1zHDQsywvkg" resolve="myTestMethodName" />
            </node>
          </node>
        </node>
        <node concept="3clFbF" id="1zHDQsywvoI" role="3cqZAp">
          <node concept="37vLTI" id="1zHDQsywvoK" role="3clFbG">
            <node concept="37vLTw" id="2BHiRxgm$P5" role="37vLTx">
              <ref role="3cqZAo" node="1zHDQsywvoj" resolve="memoryUsage" />
            </node>
            <node concept="37vLTw" id="2BHiRxeuW1J" role="37vLTJ">
              <ref role="3cqZAo" node="1zHDQsywvkj" resolve="myMemoryUsage" />
            </node>
          </node>
        </node>
        <node concept="3clFbF" id="1zHDQsywvoP" role="3cqZAp">
          <node concept="37vLTI" id="1zHDQsywvoR" role="3clFbG">
            <node concept="37vLTw" id="2BHiRxglzEq" role="37vLTx">
              <ref role="3cqZAo" node="1zHDQsywvom" resolve="time" />
            </node>
            <node concept="37vLTw" id="2BHiRxeuL8S" role="37vLTJ">
              <ref role="3cqZAo" node="1zHDQsywvkm" resolve="myTime" />
            </node>
          </node>
        </node>
      </node>
    </node>
    <node concept="3clFb_" id="1zHDQsywvkq" role="jymVt">
      <property role="TrG5h" value="toString" />
      <node concept="3Tm1VV" id="1zHDQsywvkr" role="1B3o_S" />
      <node concept="17QB3L" id="1zHDQsywvks" role="3clF45" />
      <node concept="3clFbS" id="1zHDQsywvkt" role="3clF47">
        <node concept="3cpWs8" id="1zHDQsywvku" role="3cqZAp">
          <node concept="3cpWsn" id="1zHDQsywvkv" role="3cpWs9">
            <property role="TrG5h" value="builder" />
            <node concept="3uibUv" id="1zHDQsywvkw" role="1tU5fm">
              <ref role="3uigEE" to="wyt6:~StringBuilder" resolve="StringBuilder" />
            </node>
            <node concept="2ShNRf" id="1zHDQsywvkx" role="33vP2m">
              <node concept="1pGfFk" id="1zHDQsywvky" role="2ShVmc">
                <ref role="37wK5l" to="wyt6:~StringBuilder.&lt;init&gt;()" resolve="StringBuilder" />
              </node>
            </node>
          </node>
        </node>
        <node concept="3clFbF" id="1zHDQsywvkz" role="3cqZAp">
          <node concept="2OqwBi" id="1zHDQsywvk$" role="3clFbG">
            <node concept="37vLTw" id="3GM_nagTzTF" role="2Oq$k0">
              <ref role="3cqZAo" node="1zHDQsywvkv" resolve="builder" />
            </node>
            <node concept="liA8E" id="1zHDQsywvkA" role="2OqNvi">
              <ref role="37wK5l" to="wyt6:~StringBuilder.append(java.lang.String):java.lang.StringBuilder" resolve="append" />
              <node concept="2OqwBi" id="1zHDQsywvkB" role="37wK5m">
                <node concept="2OwXpG" id="1zHDQsywvkC" role="2OqNvi">
                  <ref role="2Oxat5" node="1zHDQsywvka" resolve="myToken" />
                </node>
                <node concept="Xjq3P" id="1zHDQsywvkD" role="2Oq$k0" />
              </node>
            </node>
          </node>
        </node>
        <node concept="3clFbF" id="1zHDQsywvkE" role="3cqZAp">
          <node concept="2OqwBi" id="1zHDQsywvkF" role="3clFbG">
            <node concept="37vLTw" id="3GM_nagTxqE" role="2Oq$k0">
              <ref role="3cqZAo" node="1zHDQsywvkv" resolve="builder" />
            </node>
            <node concept="liA8E" id="1zHDQsywvkH" role="2OqNvi">
              <ref role="37wK5l" to="wyt6:~StringBuilder.append(java.lang.String):java.lang.StringBuilder" resolve="append" />
              <node concept="2OqwBi" id="1zHDQsywvkI" role="37wK5m">
                <node concept="2OwXpG" id="1zHDQsywvkJ" role="2OqNvi">
                  <ref role="2Oxat5" node="1zHDQsywvkd" resolve="myTestCaseName" />
                </node>
                <node concept="Xjq3P" id="1zHDQsywvkK" role="2Oq$k0" />
              </node>
            </node>
          </node>
        </node>
        <node concept="3clFbJ" id="1zHDQsywvkL" role="3cqZAp">
          <node concept="3y3z36" id="1zHDQsywvkM" role="3clFbw">
            <node concept="10Nm6u" id="1zHDQsywvkN" role="3uHU7w" />
            <node concept="2OqwBi" id="1zHDQsywvkO" role="3uHU7B">
              <node concept="2OwXpG" id="1zHDQsywvkP" role="2OqNvi">
                <ref role="2Oxat5" node="1zHDQsywvkg" resolve="myTestMethodName" />
              </node>
              <node concept="Xjq3P" id="1zHDQsywvkQ" role="2Oq$k0" />
            </node>
          </node>
          <node concept="3clFbS" id="1zHDQsywvkR" role="3clFbx">
            <node concept="3clFbF" id="1zHDQsywvkS" role="3cqZAp">
              <node concept="2OqwBi" id="1zHDQsywvkT" role="3clFbG">
                <node concept="2OqwBi" id="1zHDQsywvkU" role="2Oq$k0">
                  <node concept="37vLTw" id="3GM_nagTyzP" role="2Oq$k0">
                    <ref role="3cqZAo" node="1zHDQsywvkv" resolve="builder" />
                  </node>
                  <node concept="liA8E" id="1zHDQsywvkW" role="2OqNvi">
                    <ref role="37wK5l" to="wyt6:~StringBuilder.append(char):java.lang.StringBuilder" resolve="append" />
                    <node concept="1Xhbcc" id="1zHDQsywvkX" role="37wK5m">
                      <property role="1XhdNS" value=":" />
                    </node>
                  </node>
                </node>
                <node concept="liA8E" id="1zHDQsywvkY" role="2OqNvi">
                  <ref role="37wK5l" to="wyt6:~StringBuilder.append(java.lang.String):java.lang.StringBuilder" resolve="append" />
                  <node concept="2OqwBi" id="1zHDQsywvkZ" role="37wK5m">
                    <node concept="2OwXpG" id="1zHDQsywvl0" role="2OqNvi">
                      <ref role="2Oxat5" node="1zHDQsywvkg" resolve="myTestMethodName" />
                    </node>
                    <node concept="Xjq3P" id="1zHDQsywvl1" role="2Oq$k0" />
                  </node>
                </node>
              </node>
            </node>
          </node>
        </node>
        <node concept="3clFbF" id="1zHDQsywvl2" role="3cqZAp">
          <node concept="2OqwBi" id="1zHDQsywvl3" role="3clFbG">
            <node concept="2OqwBi" id="1zHDQsywvl4" role="2Oq$k0">
              <node concept="37vLTw" id="3GM_nagTw$b" role="2Oq$k0">
                <ref role="3cqZAo" node="1zHDQsywvkv" resolve="builder" />
              </node>
              <node concept="liA8E" id="1zHDQsywvl6" role="2OqNvi">
                <ref role="37wK5l" to="wyt6:~StringBuilder.append(java.lang.String):java.lang.StringBuilder" resolve="append" />
                <node concept="Xl_RD" id="1zHDQsywvl7" role="37wK5m">
                  <property role="Xl_RC" value=":memory=" />
                </node>
              </node>
            </node>
            <node concept="liA8E" id="1zHDQsywvl8" role="2OqNvi">
              <ref role="37wK5l" to="wyt6:~StringBuilder.append(long):java.lang.StringBuilder" resolve="append" />
              <node concept="2OqwBi" id="1zHDQsywvl9" role="37wK5m">
                <node concept="2OwXpG" id="1zHDQsywvla" role="2OqNvi">
                  <ref role="2Oxat5" node="1zHDQsywvkj" resolve="myMemoryUsage" />
                </node>
                <node concept="Xjq3P" id="1zHDQsywvlb" role="2Oq$k0" />
              </node>
            </node>
          </node>
        </node>
        <node concept="3clFbF" id="1zHDQsywvlc" role="3cqZAp">
          <node concept="2OqwBi" id="1zHDQsywvld" role="3clFbG">
            <node concept="2OqwBi" id="1zHDQsywvle" role="2Oq$k0">
              <node concept="37vLTw" id="3GM_nagTz0l" role="2Oq$k0">
                <ref role="3cqZAo" node="1zHDQsywvkv" resolve="builder" />
              </node>
              <node concept="liA8E" id="1zHDQsywvlg" role="2OqNvi">
                <ref role="37wK5l" to="wyt6:~StringBuilder.append(java.lang.String):java.lang.StringBuilder" resolve="append" />
                <node concept="Xl_RD" id="1zHDQsywvlh" role="37wK5m">
                  <property role="Xl_RC" value=":time=" />
                </node>
              </node>
            </node>
            <node concept="liA8E" id="1zHDQsywvli" role="2OqNvi">
              <ref role="37wK5l" to="wyt6:~StringBuilder.append(long):java.lang.StringBuilder" resolve="append" />
              <node concept="2OqwBi" id="1zHDQsywvlj" role="37wK5m">
                <node concept="Xjq3P" id="1zHDQsywvlk" role="2Oq$k0" />
                <node concept="2OwXpG" id="1zHDQsywvll" role="2OqNvi">
                  <ref role="2Oxat5" node="1zHDQsywvkm" resolve="myTime" />
                </node>
              </node>
            </node>
          </node>
        </node>
        <node concept="3cpWs6" id="1zHDQsywvlm" role="3cqZAp">
          <node concept="2OqwBi" id="1zHDQsywvln" role="3cqZAk">
            <node concept="37vLTw" id="3GM_nagTt7P" role="2Oq$k0">
              <ref role="3cqZAo" node="1zHDQsywvkv" resolve="builder" />
            </node>
            <node concept="liA8E" id="1zHDQsywvlp" role="2OqNvi">
              <ref role="37wK5l" to="wyt6:~StringBuilder.toString():java.lang.String" resolve="toString" />
            </node>
          </node>
        </node>
      </node>
      <node concept="2AHcQZ" id="3tYsUK_S21j" role="2AJF6D">
        <ref role="2AI5Lk" to="wyt6:~Override" resolve="Override" />
      </node>
    </node>
    <node concept="3clFb_" id="1zHDQsywvlQ" role="jymVt">
      <property role="TrG5h" value="getToken" />
      <node concept="17QB3L" id="1zHDQsywvlR" role="3clF45" />
      <node concept="3Tm1VV" id="1zHDQsywvlS" role="1B3o_S" />
      <node concept="3clFbS" id="1zHDQsywvlT" role="3clF47">
        <node concept="3cpWs6" id="1zHDQsywvlU" role="3cqZAp">
          <node concept="2OqwBi" id="1zHDQsywvlV" role="3cqZAk">
            <node concept="Xjq3P" id="1zHDQsywvlW" role="2Oq$k0" />
            <node concept="2OwXpG" id="1zHDQsywvlX" role="2OqNvi">
              <ref role="2Oxat5" node="1zHDQsywvka" resolve="myToken" />
            </node>
          </node>
        </node>
      </node>
    </node>
    <node concept="3clFb_" id="1zHDQsywvlY" role="jymVt">
      <property role="TrG5h" value="getTestCaseName" />
      <node concept="17QB3L" id="1zHDQsywvlZ" role="3clF45" />
      <node concept="3Tm1VV" id="1zHDQsywvm0" role="1B3o_S" />
      <node concept="3clFbS" id="1zHDQsywvm1" role="3clF47">
        <node concept="3cpWs6" id="1zHDQsywvm2" role="3cqZAp">
          <node concept="2OqwBi" id="1zHDQsywvm3" role="3cqZAk">
            <node concept="Xjq3P" id="1zHDQsywvm4" role="2Oq$k0" />
            <node concept="2OwXpG" id="1zHDQsywvm5" role="2OqNvi">
              <ref role="2Oxat5" node="1zHDQsywvkd" resolve="myTestCaseName" />
            </node>
          </node>
        </node>
      </node>
    </node>
    <node concept="3clFb_" id="1zHDQsywvm6" role="jymVt">
      <property role="TrG5h" value="getTestMethodName" />
      <node concept="17QB3L" id="1zHDQsywvm7" role="3clF45" />
      <node concept="3Tm1VV" id="1zHDQsywvm8" role="1B3o_S" />
      <node concept="3clFbS" id="1zHDQsywvm9" role="3clF47">
        <node concept="3cpWs6" id="1zHDQsywvma" role="3cqZAp">
          <node concept="2OqwBi" id="1zHDQsywvmb" role="3cqZAk">
            <node concept="Xjq3P" id="1zHDQsywvmc" role="2Oq$k0" />
            <node concept="2OwXpG" id="1zHDQsywvmd" role="2OqNvi">
              <ref role="2Oxat5" node="1zHDQsywvkg" resolve="myTestMethodName" />
            </node>
          </node>
        </node>
      </node>
    </node>
    <node concept="3clFb_" id="1zHDQsywvme" role="jymVt">
      <property role="TrG5h" value="getMemoryUsage" />
      <node concept="3cpWsb" id="1zHDQsywvmf" role="3clF45" />
      <node concept="3Tm1VV" id="1zHDQsywvmg" role="1B3o_S" />
      <node concept="3clFbS" id="1zHDQsywvmh" role="3clF47">
        <node concept="3cpWs6" id="1zHDQsywvmi" role="3cqZAp">
          <node concept="2OqwBi" id="1zHDQsywvmj" role="3cqZAk">
            <node concept="Xjq3P" id="1zHDQsywvmk" role="2Oq$k0" />
            <node concept="2OwXpG" id="1zHDQsywvml" role="2OqNvi">
              <ref role="2Oxat5" node="1zHDQsywvkj" resolve="myMemoryUsage" />
            </node>
          </node>
        </node>
      </node>
    </node>
    <node concept="3clFb_" id="1zHDQsywvmm" role="jymVt">
      <property role="TrG5h" value="getTime" />
      <node concept="3cpWsb" id="1zHDQsywvmn" role="3clF45" />
      <node concept="3Tm1VV" id="1zHDQsywvmo" role="1B3o_S" />
      <node concept="3clFbS" id="1zHDQsywvmp" role="3clF47">
        <node concept="3cpWs6" id="1zHDQsywvmq" role="3cqZAp">
          <node concept="2OqwBi" id="1zHDQsywvmr" role="3cqZAk">
            <node concept="Xjq3P" id="1zHDQsywvms" role="2Oq$k0" />
            <node concept="2OwXpG" id="1zHDQsywvmt" role="2OqNvi">
              <ref role="2Oxat5" node="1zHDQsywvkm" resolve="myTime" />
            </node>
          </node>
        </node>
      </node>
    </node>
    <node concept="3clFb_" id="5kBq5_C8$tD" role="jymVt">
      <property role="1EzhhJ" value="false" />
      <property role="TrG5h" value="isTestCaseEvent" />
      <property role="od$2w" value="false" />
      <property role="DiZV1" value="false" />
      <node concept="3clFbS" id="5kBq5_C8$tG" role="3clF47">
        <node concept="3cpWs6" id="5kBq5_C8_PF" role="3cqZAp">
          <node concept="3clFbC" id="5kBq5_C8Ckz" role="3cqZAk">
            <node concept="10Nm6u" id="5kBq5_C8DuO" role="3uHU7w" />
            <node concept="37vLTw" id="5kBq5_C8AXX" role="3uHU7B">
              <ref role="3cqZAo" node="1zHDQsywvkg" resolve="myTestMethodName" />
            </node>
          </node>
        </node>
      </node>
      <node concept="3Tm1VV" id="5kBq5_C8z4d" role="1B3o_S" />
      <node concept="10P_77" id="5kBq5_C8$rL" role="3clF45" />
    </node>
    <node concept="3clFb_" id="1zHDQsywvmu" role="jymVt">
      <property role="TrG5h" value="equals" />
      <node concept="3Tm1VV" id="1zHDQsywvmv" role="1B3o_S" />
      <node concept="10P_77" id="1zHDQsywvmw" role="3clF45" />
      <node concept="37vLTG" id="1zHDQsywvmx" role="3clF46">
        <property role="TrG5h" value="p0" />
        <node concept="3uibUv" id="1zHDQsywvmy" role="1tU5fm">
          <ref role="3uigEE" to="wyt6:~Object" resolve="Object" />
        </node>
      </node>
      <node concept="3clFbS" id="1zHDQsywvmz" role="3clF47">
        <node concept="3clFbJ" id="1zHDQsywvm$" role="3cqZAp">
          <node concept="22lmx$" id="1zHDQsywvm_" role="3clFbw">
            <node concept="3fqX7Q" id="1zHDQsywvmA" role="3uHU7w">
              <node concept="2ZW3vV" id="1zHDQsywvmB" role="3fr31v">
                <node concept="3uibUv" id="1zHDQsywvmC" role="2ZW6by">
                  <ref role="3uigEE" node="1zHDQsywvgL" resolve="TestEvent" />
                </node>
                <node concept="37vLTw" id="2BHiRxgmvE2" role="2ZW6bz">
                  <ref role="3cqZAo" node="1zHDQsywvmx" resolve="p0" />
                </node>
              </node>
            </node>
            <node concept="3clFbC" id="1zHDQsywvmE" role="3uHU7B">
              <node concept="37vLTw" id="2BHiRxglWKG" role="3uHU7B">
                <ref role="3cqZAo" node="1zHDQsywvmx" resolve="p0" />
              </node>
              <node concept="10Nm6u" id="1zHDQsywvmG" role="3uHU7w" />
            </node>
          </node>
          <node concept="3clFbS" id="1zHDQsywvmH" role="3clFbx">
            <node concept="3cpWs6" id="1zHDQsywvmI" role="3cqZAp">
              <node concept="3clFbT" id="1zHDQsywvmJ" role="3cqZAk">
                <property role="3clFbU" value="false" />
              </node>
            </node>
          </node>
        </node>
        <node concept="3cpWs8" id="1zHDQsywvmK" role="3cqZAp">
          <node concept="3cpWsn" id="1zHDQsywvmL" role="3cpWs9">
            <property role="TrG5h" value="event" />
            <node concept="3uibUv" id="1zHDQsywvmM" role="1tU5fm">
              <ref role="3uigEE" node="1zHDQsywvgL" resolve="TestEvent" />
            </node>
            <node concept="10QFUN" id="1zHDQsywvmN" role="33vP2m">
              <node concept="3uibUv" id="1zHDQsywvmO" role="10QFUM">
                <ref role="3uigEE" node="1zHDQsywvgL" resolve="TestEvent" />
              </node>
              <node concept="37vLTw" id="2BHiRxgm7YC" role="10QFUP">
                <ref role="3cqZAo" node="1zHDQsywvmx" resolve="p0" />
              </node>
            </node>
          </node>
        </node>
        <node concept="3cpWs6" id="1zHDQsywvmQ" role="3cqZAp">
          <node concept="1Wc70l" id="1zHDQsywvmR" role="3cqZAk">
            <node concept="2OqwBi" id="1zHDQsywvmS" role="3uHU7w">
              <node concept="2OqwBi" id="1zHDQsywvmT" role="2Oq$k0">
                <node concept="37vLTw" id="3GM_nagTwDj" role="2Oq$k0">
                  <ref role="3cqZAo" node="1zHDQsywvmL" resolve="event" />
                </node>
                <node concept="2OwXpG" id="1zHDQsywvmV" role="2OqNvi">
                  <ref role="2Oxat5" node="1zHDQsywvkg" resolve="myTestMethodName" />
                </node>
              </node>
              <node concept="liA8E" id="1zHDQsywvmW" role="2OqNvi">
                <ref role="37wK5l" to="wyt6:~String.equals(java.lang.Object):boolean" resolve="equals" />
                <node concept="2OqwBi" id="1zHDQsywvmX" role="37wK5m">
                  <node concept="2OwXpG" id="1zHDQsywvmY" role="2OqNvi">
                    <ref role="2Oxat5" node="1zHDQsywvkg" resolve="myTestMethodName" />
                  </node>
                  <node concept="Xjq3P" id="1zHDQsywvmZ" role="2Oq$k0" />
                </node>
              </node>
            </node>
            <node concept="1Wc70l" id="1zHDQsywvn0" role="3uHU7B">
              <node concept="2OqwBi" id="1zHDQsywvn1" role="3uHU7B">
                <node concept="2OqwBi" id="1zHDQsywvn2" role="2Oq$k0">
                  <node concept="37vLTw" id="3GM_nagTzkr" role="2Oq$k0">
                    <ref role="3cqZAo" node="1zHDQsywvmL" resolve="event" />
                  </node>
                  <node concept="2OwXpG" id="1zHDQsywvn4" role="2OqNvi">
                    <ref role="2Oxat5" node="1zHDQsywvka" resolve="myToken" />
                  </node>
                </node>
                <node concept="liA8E" id="1zHDQsywvn5" role="2OqNvi">
                  <ref role="37wK5l" to="wyt6:~String.equals(java.lang.Object):boolean" resolve="equals" />
                  <node concept="2OqwBi" id="1zHDQsywvn6" role="37wK5m">
                    <node concept="2OwXpG" id="1zHDQsywvn7" role="2OqNvi">
                      <ref role="2Oxat5" node="1zHDQsywvka" resolve="myToken" />
                    </node>
                    <node concept="Xjq3P" id="1zHDQsywvn8" role="2Oq$k0" />
                  </node>
                </node>
              </node>
              <node concept="2OqwBi" id="1zHDQsywvn9" role="3uHU7w">
                <node concept="2OqwBi" id="1zHDQsywvna" role="2Oq$k0">
                  <node concept="37vLTw" id="3GM_nagT$aK" role="2Oq$k0">
                    <ref role="3cqZAo" node="1zHDQsywvmL" resolve="event" />
                  </node>
                  <node concept="2OwXpG" id="1zHDQsywvnc" role="2OqNvi">
                    <ref role="2Oxat5" node="1zHDQsywvkd" resolve="myTestCaseName" />
                  </node>
                </node>
                <node concept="liA8E" id="1zHDQsywvnd" role="2OqNvi">
                  <ref role="37wK5l" to="wyt6:~String.equals(java.lang.Object):boolean" resolve="equals" />
                  <node concept="2OqwBi" id="1zHDQsywvne" role="37wK5m">
                    <node concept="2OwXpG" id="1zHDQsywvnf" role="2OqNvi">
                      <ref role="2Oxat5" node="1zHDQsywvkd" resolve="myTestCaseName" />
                    </node>
                    <node concept="Xjq3P" id="1zHDQsywvng" role="2Oq$k0" />
                  </node>
                </node>
              </node>
            </node>
          </node>
        </node>
      </node>
      <node concept="2AHcQZ" id="1zHDQsywvnh" role="2AJF6D">
        <ref role="2AI5Lk" to="wyt6:~Override" resolve="Override" />
      </node>
    </node>
    <node concept="3clFb_" id="1zHDQsywvni" role="jymVt">
      <property role="TrG5h" value="hashCode" />
      <node concept="3Tm1VV" id="1zHDQsywvnj" role="1B3o_S" />
      <node concept="10Oyi0" id="1zHDQsywvnk" role="3clF45" />
      <node concept="3clFbS" id="1zHDQsywvnl" role="3clF47">
        <node concept="3clFbF" id="1zHDQsywvnm" role="3cqZAp">
          <node concept="3cpWs3" id="1zHDQsywvnn" role="3clFbG">
            <node concept="17qRlL" id="1zHDQsywvno" role="3uHU7w">
              <node concept="2OqwBi" id="1zHDQsywvnp" role="3uHU7w">
                <node concept="2OqwBi" id="1zHDQsywvnq" role="2Oq$k0">
                  <node concept="2OwXpG" id="1zHDQsywvnr" role="2OqNvi">
                    <ref role="2Oxat5" node="1zHDQsywvkg" resolve="myTestMethodName" />
                  </node>
                  <node concept="Xjq3P" id="1zHDQsywvns" role="2Oq$k0" />
                </node>
                <node concept="liA8E" id="1zHDQsywvnt" role="2OqNvi">
                  <ref role="37wK5l" to="wyt6:~String.hashCode():int" resolve="hashCode" />
                </node>
              </node>
              <node concept="3cmrfG" id="1zHDQsywvnu" role="3uHU7B">
                <property role="3cmrfH" value="10" />
              </node>
            </node>
            <node concept="3cpWs3" id="1zHDQsywvnv" role="3uHU7B">
              <node concept="2OqwBi" id="1zHDQsywvnw" role="3uHU7B">
                <node concept="2OqwBi" id="1zHDQsywvnx" role="2Oq$k0">
                  <node concept="2OwXpG" id="1zHDQsywvny" role="2OqNvi">
                    <ref role="2Oxat5" node="1zHDQsywvka" resolve="myToken" />
                  </node>
                  <node concept="Xjq3P" id="1zHDQsywvnz" role="2Oq$k0" />
                </node>
                <node concept="liA8E" id="1zHDQsywvn$" role="2OqNvi">
                  <ref role="37wK5l" to="wyt6:~String.hashCode():int" resolve="hashCode" />
                </node>
              </node>
              <node concept="17qRlL" id="1zHDQsywvn_" role="3uHU7w">
                <node concept="3cmrfG" id="1zHDQsywvnA" role="3uHU7B">
                  <property role="3cmrfH" value="10" />
                </node>
                <node concept="2OqwBi" id="1zHDQsywvnB" role="3uHU7w">
                  <node concept="2OqwBi" id="1zHDQsywvnC" role="2Oq$k0">
                    <node concept="2OwXpG" id="1zHDQsywvnD" role="2OqNvi">
                      <ref role="2Oxat5" node="1zHDQsywvkd" resolve="myTestCaseName" />
                    </node>
                    <node concept="Xjq3P" id="1zHDQsywvnE" role="2Oq$k0" />
                  </node>
                  <node concept="liA8E" id="1zHDQsywvnF" role="2OqNvi">
                    <ref role="37wK5l" to="wyt6:~String.hashCode():int" resolve="hashCode" />
                  </node>
                </node>
              </node>
            </node>
          </node>
        </node>
      </node>
      <node concept="2AHcQZ" id="1zHDQsywvnG" role="2AJF6D">
        <ref role="2AI5Lk" to="wyt6:~Override" resolve="Override" />
      </node>
    </node>
    <node concept="2YIFZL" id="1zHDQsywvgM" role="jymVt">
      <property role="TrG5h" value="getEventToken" />
      <node concept="17QB3L" id="1zHDQsywvgN" role="3clF45" />
      <node concept="3Tm1VV" id="1zHDQsywvgO" role="1B3o_S" />
      <node concept="3clFbS" id="1zHDQsywvgP" role="3clF47">
        <node concept="3cpWs8" id="1zHDQsywvgQ" role="3cqZAp">
          <node concept="3cpWsn" id="1zHDQsywvgR" role="3cpWs9">
            <property role="TrG5h" value="token" />
            <node concept="17QB3L" id="1zHDQsywvgS" role="1tU5fm" />
            <node concept="10Nm6u" id="1zHDQsywvgT" role="33vP2m" />
          </node>
        </node>
        <node concept="2Gpval" id="1zHDQsywvgU" role="3cqZAp">
          <node concept="2GrKxI" id="1zHDQsywvgV" role="2Gsz3X">
            <property role="TrG5h" value="expectedToken" />
          </node>
          <node concept="10M0yZ" id="1zHDQsywvgW" role="2GsD0m">
            <ref role="1PxDUh" node="1zHDQsywvgL" resolve="TestEvent" />
            <ref role="3cqZAo" node="1zHDQsywvlM" resolve="ALL_TOKENS" />
          </node>
          <node concept="3clFbS" id="1zHDQsywvgX" role="2LFqv$">
            <node concept="3clFbJ" id="1zHDQsywvgY" role="3cqZAp">
              <node concept="3clFbS" id="1zHDQsywvgZ" role="3clFbx">
                <node concept="3clFbF" id="1zHDQsywvh0" role="3cqZAp">
                  <node concept="37vLTI" id="1zHDQsywvh1" role="3clFbG">
                    <node concept="2GrUjf" id="1zHDQsywvh2" role="37vLTx">
                      <ref role="2Gs0qQ" node="1zHDQsywvgV" resolve="expectedToken" />
                    </node>
                    <node concept="37vLTw" id="3GM_nagTwRY" role="37vLTJ">
                      <ref role="3cqZAo" node="1zHDQsywvgR" resolve="token" />
                    </node>
                  </node>
                </node>
                <node concept="3zACq4" id="1zHDQsywvh4" role="3cqZAp" />
              </node>
              <node concept="2OqwBi" id="1zHDQsywvh5" role="3clFbw">
                <node concept="37vLTw" id="2BHiRxgllfo" role="2Oq$k0">
                  <ref role="3cqZAo" node="1zHDQsywvhb" resolve="messageString" />
                </node>
                <node concept="liA8E" id="1zHDQsywvh7" role="2OqNvi">
                  <ref role="37wK5l" to="wyt6:~String.startsWith(java.lang.String):boolean" resolve="startsWith" />
                  <node concept="2GrUjf" id="1zHDQsywvh8" role="37wK5m">
                    <ref role="2Gs0qQ" node="1zHDQsywvgV" resolve="expectedToken" />
                  </node>
                </node>
              </node>
            </node>
          </node>
        </node>
        <node concept="3cpWs6" id="1zHDQsywvh9" role="3cqZAp">
          <node concept="37vLTw" id="3GM_nagTAQ1" role="3cqZAk">
            <ref role="3cqZAo" node="1zHDQsywvgR" resolve="token" />
          </node>
        </node>
      </node>
      <node concept="37vLTG" id="1zHDQsywvhb" role="3clF46">
        <property role="TrG5h" value="messageString" />
        <node concept="17QB3L" id="1zHDQsywvhc" role="1tU5fm" />
      </node>
    </node>
    <node concept="2YIFZL" id="1zHDQsywvhd" role="jymVt">
      <property role="TrG5h" value="parse" />
      <node concept="3uibUv" id="1zHDQsywvhe" role="3clF45">
        <ref role="3uigEE" node="1zHDQsywvgL" resolve="TestEvent" />
      </node>
      <node concept="3Tm1VV" id="1zHDQsywvhf" role="1B3o_S" />
      <node concept="3clFbS" id="1zHDQsywvhg" role="3clF47">
        <node concept="3cpWs8" id="1zHDQsywvhh" role="3cqZAp">
          <node concept="3cpWsn" id="1zHDQsywvhi" role="3cpWs9">
            <property role="TrG5h" value="testEvent" />
            <node concept="3uibUv" id="1zHDQsywvhj" role="1tU5fm">
              <ref role="3uigEE" node="1zHDQsywvgL" resolve="TestEvent" />
            </node>
            <node concept="10Nm6u" id="1zHDQsywvhk" role="33vP2m" />
          </node>
        </node>
        <node concept="3cpWs8" id="1zHDQsywvhl" role="3cqZAp">
          <node concept="3cpWsn" id="1zHDQsywvhm" role="3cpWs9">
            <property role="TrG5h" value="expectedToken" />
            <node concept="17QB3L" id="1zHDQsywvhn" role="1tU5fm" />
            <node concept="1rXfSq" id="4hiugqysskC" role="33vP2m">
              <ref role="37wK5l" node="1zHDQsywvgM" resolve="getEventToken" />
              <node concept="37vLTw" id="2BHiRxghiRB" role="37wK5m">
                <ref role="3cqZAo" node="1zHDQsywvhB" resolve="messageString" />
              </node>
            </node>
          </node>
        </node>
        <node concept="3clFbJ" id="1zHDQsywvhq" role="3cqZAp">
          <node concept="3clFbS" id="1zHDQsywvhr" role="3clFbx">
            <node concept="3clFbF" id="1zHDQsywvhs" role="3cqZAp">
              <node concept="37vLTI" id="1zHDQsywvht" role="3clFbG">
                <node concept="1rXfSq" id="4hiugqysj3i" role="37vLTx">
                  <ref role="37wK5l" node="1zHDQsywvhD" resolve="parse" />
                  <node concept="37vLTw" id="3GM_nagTv7U" role="37wK5m">
                    <ref role="3cqZAo" node="1zHDQsywvhm" resolve="expectedToken" />
                  </node>
                  <node concept="37vLTw" id="2BHiRxgmP6n" role="37wK5m">
                    <ref role="3cqZAo" node="1zHDQsywvhB" resolve="messageString" />
                  </node>
                </node>
                <node concept="37vLTw" id="3GM_nagTzOY" role="37vLTJ">
                  <ref role="3cqZAo" node="1zHDQsywvhi" resolve="testEvent" />
                </node>
              </node>
            </node>
          </node>
          <node concept="3y3z36" id="1zHDQsywvhy" role="3clFbw">
            <node concept="10Nm6u" id="1zHDQsywvhz" role="3uHU7w" />
            <node concept="37vLTw" id="3GM_nagTxdM" role="3uHU7B">
              <ref role="3cqZAo" node="1zHDQsywvhm" resolve="expectedToken" />
            </node>
          </node>
        </node>
        <node concept="3clFbF" id="1zHDQsywvh_" role="3cqZAp">
          <node concept="37vLTw" id="3GM_nagTuCA" role="3clFbG">
            <ref role="3cqZAo" node="1zHDQsywvhi" resolve="testEvent" />
          </node>
        </node>
      </node>
      <node concept="37vLTG" id="1zHDQsywvhB" role="3clF46">
        <property role="TrG5h" value="messageString" />
        <node concept="17QB3L" id="1zHDQsywvhC" role="1tU5fm" />
      </node>
    </node>
    <node concept="2YIFZL" id="1zHDQsywvhD" role="jymVt">
      <property role="TrG5h" value="parse" />
      <node concept="3uibUv" id="1zHDQsywvhE" role="3clF45">
        <ref role="3uigEE" node="1zHDQsywvgL" resolve="TestEvent" />
      </node>
      <node concept="3clFbS" id="1zHDQsywvhF" role="3clF47">
        <node concept="3cpWs8" id="1zHDQsywvhG" role="3cqZAp">
          <node concept="3cpWsn" id="1zHDQsywvhH" role="3cpWs9">
            <property role="TrG5h" value="testEvent" />
            <node concept="3uibUv" id="1zHDQsywvhI" role="1tU5fm">
              <ref role="3uigEE" node="1zHDQsywvgL" resolve="TestEvent" />
            </node>
            <node concept="10Nm6u" id="1zHDQsywvhJ" role="33vP2m" />
          </node>
        </node>
        <node concept="3clFbJ" id="1zHDQsywvhK" role="3cqZAp">
          <node concept="3clFbS" id="1zHDQsywvhL" role="3clFbx">
            <node concept="3cpWs8" id="1zHDQsywvhM" role="3cqZAp">
              <node concept="3cpWsn" id="1zHDQsywvhN" role="3cpWs9">
                <property role="TrG5h" value="params" />
                <node concept="17QB3L" id="1zHDQsywvhO" role="1tU5fm" />
                <node concept="2OqwBi" id="1zHDQsywvhP" role="33vP2m">
                  <node concept="37vLTw" id="2BHiRxglVaA" role="2Oq$k0">
                    <ref role="3cqZAo" node="1zHDQsywvj5" resolve="messageString" />
                  </node>
                  <node concept="liA8E" id="1zHDQsywvhR" role="2OqNvi">
                    <ref role="37wK5l" to="wyt6:~String.substring(int):java.lang.String" resolve="substring" />
                    <node concept="2OqwBi" id="1zHDQsywvhS" role="37wK5m">
                      <node concept="37vLTw" id="2BHiRxgkZ1W" role="2Oq$k0">
                        <ref role="3cqZAo" node="1zHDQsywvj3" resolve="expectedToken" />
                      </node>
                      <node concept="liA8E" id="1zHDQsywvhU" role="2OqNvi">
                        <ref role="37wK5l" to="wyt6:~String.length():int" resolve="length" />
                      </node>
                    </node>
                  </node>
                </node>
              </node>
            </node>
            <node concept="1QpiS5" id="1zHDQsywvhV" role="3cqZAp">
              <node concept="3clFbS" id="1zHDQsywvhW" role="1Qpmdr">
                <node concept="3clFbF" id="1zHDQsywvhX" role="3cqZAp">
                  <node concept="37vLTI" id="1zHDQsywvhY" role="3clFbG">
                    <node concept="2ShNRf" id="1zHDQsywvhZ" role="37vLTx">
                      <node concept="1pGfFk" id="1zHDQsywvi0" role="2ShVmc">
                        <ref role="37wK5l" node="1zHDQsywvk6" resolve="TestEvent" />
                        <node concept="37vLTw" id="2BHiRxghfcE" role="37wK5m">
                          <ref role="3cqZAo" node="1zHDQsywvj3" resolve="expectedToken" />
                        </node>
                        <node concept="1TxZTf" id="1zHDQsywvpv" role="37wK5m">
                          <ref role="1Ty1U8" node="1zHDQsywviT" resolve="testCase" />
                        </node>
                        <node concept="1TxZTf" id="1zHDQsywvpx" role="37wK5m">
                          <ref role="1Ty1U8" node="1zHDQsywviO" resolve="testMethod" />
                        </node>
                        <node concept="2YIFZM" id="1zHDQsywvp$" role="37wK5m">
                          <ref role="37wK5l" to="wyt6:~Long.parseLong(java.lang.String):long" resolve="parseLong" />
                          <ref role="1Pybhc" to="wyt6:~Long" resolve="Long" />
                          <node concept="1TxZTf" id="1zHDQsywvp_" role="37wK5m">
                            <ref role="1Ty1U8" node="1zHDQsywviH" resolve="memory" />
                          </node>
                        </node>
                        <node concept="2YIFZM" id="1zHDQsywvpC" role="37wK5m">
                          <ref role="37wK5l" to="wyt6:~Long.parseLong(java.lang.String):long" resolve="parseLong" />
                          <ref role="1Pybhc" to="wyt6:~Long" resolve="Long" />
                          <node concept="1TxZTf" id="1zHDQsywvpE" role="37wK5m">
                            <ref role="1Ty1U8" node="1zHDQsywviD" resolve="time" />
                          </node>
                        </node>
                      </node>
                    </node>
                    <node concept="37vLTw" id="3GM_nagTx$r" role="37vLTJ">
                      <ref role="3cqZAo" node="1zHDQsywvhH" resolve="testEvent" />
                    </node>
                  </node>
                </node>
              </node>
              <node concept="37vLTw" id="3GM_nagTAp1" role="1QpSPf">
                <ref role="3cqZAo" node="1zHDQsywvhN" resolve="params" />
              </node>
              <node concept="1Qi9sc" id="1zHDQsywviz" role="1YN4dH">
                <node concept="1OJ37Q" id="1zHDQsywvi$" role="1QigWp">
                  <node concept="1OJ37Q" id="1zHDQsywvi_" role="1OLqdY">
                    <node concept="1OJ37Q" id="1zHDQsywviA" role="1OLqdY">
                      <node concept="1OJ37Q" id="1zHDQsywviB" role="1OLqdY">
                        <node concept="1OJ37Q" id="1zHDQsywviC" role="1OLqdY">
                          <node concept="1Tukvm" id="1zHDQsywviD" role="1OLqdY">
                            <property role="TrG5h" value="time" />
                            <node concept="1OClNT" id="1zHDQsywviE" role="1TuGhC">
                              <node concept="1SYyG9" id="1zHDQsywviF" role="1OLDsb">
                                <ref role="1SYXPG" to="tpfp:h5SUwpi" resolve="\d" />
                              </node>
                            </node>
                          </node>
                          <node concept="1OC9wW" id="1zHDQsywviG" role="1OLpdg">
                            <property role="1OCb_u" value=":time=" />
                          </node>
                        </node>
                        <node concept="1Tukvm" id="1zHDQsywviH" role="1OLpdg">
                          <property role="TrG5h" value="memory" />
                          <node concept="1OClNT" id="1zHDQsywviI" role="1TuGhC">
                            <node concept="1SYyG9" id="1zHDQsywviJ" role="1OLDsb">
                              <ref role="1SYXPG" to="tpfp:h5SUwpi" resolve="\d" />
                            </node>
                          </node>
                        </node>
                      </node>
                      <node concept="1OC9wW" id="1zHDQsywviK" role="1OLpdg">
                        <property role="1OCb_u" value=":memory=" />
                      </node>
                    </node>
                    <node concept="1SLe3L" id="1zHDQsywviL" role="1OLpdg">
                      <node concept="1P8g2x" id="1zHDQsywviM" role="1OLDsb">
                        <node concept="1OJ37Q" id="1zHDQsywviN" role="1P8hpE">
                          <node concept="1Tukvm" id="1zHDQsywviO" role="1OLqdY">
                            <property role="TrG5h" value="testMethod" />
                            <node concept="1OClNT" id="1zHDQsywviP" role="1TuGhC">
                              <node concept="1SSPPM" id="1zHDQsywviQ" role="1OLDsb">
                                <node concept="1T6I$Y" id="1zHDQsywviR" role="1T5LoC">
                                  <property role="1T6KD9" value=":" />
                                </node>
                              </node>
                            </node>
                          </node>
                          <node concept="1OC9wW" id="1zHDQsywviS" role="1OLpdg">
                            <property role="1OCb_u" value=":" />
                          </node>
                        </node>
                      </node>
                    </node>
                  </node>
                  <node concept="1Tukvm" id="1zHDQsywviT" role="1OLpdg">
                    <property role="TrG5h" value="testCase" />
                    <node concept="1OClNT" id="1zHDQsywviU" role="1TuGhC">
                      <node concept="1SSPPM" id="1zHDQsywviV" role="1OLDsb">
                        <node concept="1T6I$Y" id="1zHDQsywviW" role="1T5LoC">
                          <property role="1T6KD9" value=":" />
                        </node>
                      </node>
                    </node>
                  </node>
                </node>
              </node>
            </node>
          </node>
          <node concept="2OqwBi" id="1zHDQsywviX" role="3clFbw">
            <node concept="37vLTw" id="2BHiRxgm8UN" role="2Oq$k0">
              <ref role="3cqZAo" node="1zHDQsywvj5" resolve="messageString" />
            </node>
            <node concept="liA8E" id="1zHDQsywviZ" role="2OqNvi">
              <ref role="37wK5l" to="wyt6:~String.startsWith(java.lang.String):boolean" resolve="startsWith" />
              <node concept="37vLTw" id="2BHiRxgl1$b" role="37wK5m">
                <ref role="3cqZAo" node="1zHDQsywvj3" resolve="expectedToken" />
              </node>
            </node>
          </node>
        </node>
        <node concept="3clFbF" id="1zHDQsywvj1" role="3cqZAp">
          <node concept="37vLTw" id="3GM_nagT$kX" role="3clFbG">
            <ref role="3cqZAo" node="1zHDQsywvhH" resolve="testEvent" />
          </node>
        </node>
      </node>
      <node concept="37vLTG" id="1zHDQsywvj3" role="3clF46">
        <property role="TrG5h" value="expectedToken" />
        <node concept="17QB3L" id="1zHDQsywvj4" role="1tU5fm" />
      </node>
      <node concept="37vLTG" id="1zHDQsywvj5" role="3clF46">
        <property role="TrG5h" value="messageString" />
        <node concept="17QB3L" id="1zHDQsywvj6" role="1tU5fm" />
      </node>
      <node concept="3Tm6S6" id="1zHDQsywvj7" role="1B3o_S" />
    </node>
    <node concept="1Pe0a1" id="1zHDQsywvnH" role="jymVt">
      <node concept="3clFbS" id="1zHDQsywvnI" role="1Pe0a2">
        <node concept="3clFbF" id="1zHDQsywvnJ" role="3cqZAp">
          <node concept="37vLTI" id="1zHDQsywvnK" role="3clFbG">
            <node concept="2ShNRf" id="1zHDQsywvnL" role="37vLTx">
              <node concept="Tc6Ow" id="1zHDQsywvnM" role="2ShVmc">
                <node concept="17QB3L" id="1zHDQsywvnN" role="HW$YZ" />
                <node concept="10M0yZ" id="1zHDQsywvnO" role="HW$Y0">
                  <ref role="1PxDUh" node="1zHDQsywvgL" resolve="TestEvent" />
                  <ref role="3cqZAo" node="1zHDQsywvlq" resolve="START_TEST_PREFIX" />
                </node>
                <node concept="10M0yZ" id="1zHDQsywvnP" role="HW$Y0">
                  <ref role="1PxDUh" node="1zHDQsywvgL" resolve="TestEvent" />
                  <ref role="3cqZAo" node="1zHDQsywvlu" resolve="FINISH_TEST_PREFIX" />
                </node>
                <node concept="10M0yZ" id="1zHDQsywvnQ" role="HW$Y0">
                  <ref role="1PxDUh" node="1zHDQsywvgL" resolve="TestEvent" />
                  <ref role="3cqZAo" node="1zHDQsywvly" resolve="FAILURE_TEST_PREFIX" />
                </node>
                <node concept="10M0yZ" id="1zHDQsywvnR" role="HW$Y0">
                  <ref role="1PxDUh" node="1zHDQsywvgL" resolve="TestEvent" />
                  <ref role="3cqZAo" node="1zHDQsywvlA" resolve="FAILURE_TEST_SUFFIX" />
                </node>
                <node concept="10M0yZ" id="1zHDQsywvnS" role="HW$Y0">
                  <ref role="1PxDUh" node="1zHDQsywvgL" resolve="TestEvent" />
                  <ref role="3cqZAo" node="1zHDQsywvlE" resolve="ASSUMPTION_FAILURE_TEST_PREFIX" />
                </node>
                <node concept="10M0yZ" id="1zHDQsywvnT" role="HW$Y0">
                  <ref role="1PxDUh" node="1zHDQsywvgL" resolve="TestEvent" />
                  <ref role="3cqZAo" node="1zHDQsywvlI" resolve="ASSUMPTION_FAILURE_TEST_SUFFIX" />
                </node>
              </node>
            </node>
            <node concept="10M0yZ" id="1zHDQsywvnU" role="37vLTJ">
              <ref role="1PxDUh" node="1zHDQsywvgL" resolve="TestEvent" />
              <ref role="3cqZAo" node="1zHDQsywvlM" resolve="ALL_TOKENS" />
            </node>
          </node>
        </node>
      </node>
    </node>
  </node>
</model>

