<?xml version="1.0" encoding="UTF-8"?>
<model ref="r:9b747d6a-23f3-4201-9cdb-823e3b205a27(jetbrains.mps.baseLanguage.doubleDispatch.generator.template.main@generator)">
  <persistence version="9" />
  <languages>
    <use id="b401a680-8325-4110-8fd3-84331ff25bef" name="jetbrains.mps.lang.generator" version="0" />
    <use id="d7706f63-9be2-479c-a3da-ae92af1e64d5" name="jetbrains.mps.lang.generator.generationContext" version="0" />
    <devkit ref="fbc25dd2-5da4-483a-8b19-70928e1b62d7(jetbrains.mps.devkit.general-purpose)" />
  </languages>
  <imports>
    <import index="spkm" ref="r:7e809ad3-04d3-4570-a077-2d8302adf756(jetbrains.mps.baseLanguage.doubleDispatch.structure)" />
    <import index="j875" ref="r:7a94bb66-9653-4830-af67-903eb2cfbd29(jetbrains.mps.baseLanguage.doubleDispatch.typesystem)" />
    <import index="youm" ref="r:3cc5456c-635e-439f-8644-d304dd1294b9(jetbrains.mps.baseLanguage.doubleDispatch.generator.util)" />
    <import index="tpee" ref="r:00000000-0000-4000-0000-011c895902ca(jetbrains.mps.baseLanguage.structure)" implicit="true" />
    <import index="wyt6" ref="6354ebe7-c22a-4a0f-ac54-50b52ab9b065/java:java.lang(JDK/)" implicit="true" />
  </imports>
  <registry>
    <language id="f3061a53-9226-4cc5-a443-f952ceaf5816" name="jetbrains.mps.baseLanguage">
      <concept id="1082485599095" name="jetbrains.mps.baseLanguage.structure.BlockStatement" flags="nn" index="9aQIb">
        <child id="1082485599096" name="statements" index="9aQI4" />
      </concept>
      <concept id="4836112446988635817" name="jetbrains.mps.baseLanguage.structure.UndefinedType" flags="in" index="2jxLKc" />
      <concept id="1197027756228" name="jetbrains.mps.baseLanguage.structure.DotExpression" flags="nn" index="2OqwBi">
        <child id="1197027771414" name="operand" index="2Oq$k0" />
        <child id="1197027833540" name="operation" index="2OqNvi" />
      </concept>
      <concept id="1137021947720" name="jetbrains.mps.baseLanguage.structure.ConceptFunction" flags="in" index="2VMwT0">
        <child id="1137022507850" name="body" index="2VODD2" />
      </concept>
      <concept id="1081236700937" name="jetbrains.mps.baseLanguage.structure.StaticMethodCall" flags="nn" index="2YIFZM">
        <reference id="1144433194310" name="classConcept" index="1Pybhc" />
      </concept>
      <concept id="1081256982272" name="jetbrains.mps.baseLanguage.structure.InstanceOfExpression" flags="nn" index="2ZW3vV">
        <child id="1081256993305" name="classType" index="2ZW6by" />
        <child id="1081256993304" name="leftExpression" index="2ZW6bz" />
      </concept>
      <concept id="1070534370425" name="jetbrains.mps.baseLanguage.structure.IntegerType" flags="in" index="10Oyi0" />
      <concept id="1070534644030" name="jetbrains.mps.baseLanguage.structure.BooleanType" flags="in" index="10P_77" />
      <concept id="1070534934090" name="jetbrains.mps.baseLanguage.structure.CastExpression" flags="nn" index="10QFUN">
        <child id="1070534934091" name="type" index="10QFUM" />
        <child id="1070534934092" name="expression" index="10QFUP" />
      </concept>
      <concept id="1068390468198" name="jetbrains.mps.baseLanguage.structure.ClassConcept" flags="ig" index="312cEu" />
      <concept id="1068431474542" name="jetbrains.mps.baseLanguage.structure.VariableDeclaration" flags="ng" index="33uBYm">
        <child id="1068431790190" name="initializer" index="33vP2m" />
      </concept>
      <concept id="1068498886296" name="jetbrains.mps.baseLanguage.structure.VariableReference" flags="nn" index="37vLTw">
        <reference id="1068581517664" name="variableDeclaration" index="3cqZAo" />
      </concept>
      <concept id="1068498886292" name="jetbrains.mps.baseLanguage.structure.ParameterDeclaration" flags="ir" index="37vLTG" />
      <concept id="4972933694980447171" name="jetbrains.mps.baseLanguage.structure.BaseVariableDeclaration" flags="ng" index="19Szcq">
        <child id="5680397130376446158" name="type" index="1tU5fm" />
      </concept>
      <concept id="1068580123132" name="jetbrains.mps.baseLanguage.structure.BaseMethodDeclaration" flags="ng" index="3clF44">
        <child id="1068580123133" name="returnType" index="3clF45" />
        <child id="1068580123134" name="parameter" index="3clF46" />
        <child id="1068580123135" name="body" index="3clF47" />
      </concept>
      <concept id="1068580123165" name="jetbrains.mps.baseLanguage.structure.InstanceMethodDeclaration" flags="ig" index="3clFb_" />
      <concept id="1068580123155" name="jetbrains.mps.baseLanguage.structure.ExpressionStatement" flags="nn" index="3clFbF">
        <child id="1068580123156" name="expression" index="3clFbG" />
      </concept>
      <concept id="1068580123157" name="jetbrains.mps.baseLanguage.structure.Statement" flags="nn" index="3clFbH" />
      <concept id="1068580123159" name="jetbrains.mps.baseLanguage.structure.IfStatement" flags="nn" index="3clFbJ">
        <child id="1082485599094" name="ifFalseStatement" index="9aQIa" />
        <child id="1068580123160" name="condition" index="3clFbw" />
        <child id="1068580123161" name="ifTrue" index="3clFbx" />
        <child id="1206060520071" name="elsifClauses" index="3eNLev" />
      </concept>
      <concept id="1068580123136" name="jetbrains.mps.baseLanguage.structure.StatementList" flags="sn" stub="5293379017992965193" index="3clFbS">
        <child id="1068581517665" name="statement" index="3cqZAp" />
      </concept>
      <concept id="1068580123140" name="jetbrains.mps.baseLanguage.structure.ConstructorDeclaration" flags="ig" index="3clFbW" />
      <concept id="1068580320020" name="jetbrains.mps.baseLanguage.structure.IntegerConstant" flags="nn" index="3cmrfG">
        <property id="1068580320021" name="value" index="3cmrfH" />
      </concept>
      <concept id="1068581242878" name="jetbrains.mps.baseLanguage.structure.ReturnStatement" flags="nn" index="3cpWs6">
        <child id="1068581517676" name="expression" index="3cqZAk" />
      </concept>
      <concept id="1068581242864" name="jetbrains.mps.baseLanguage.structure.LocalVariableDeclarationStatement" flags="nn" index="3cpWs8">
        <child id="1068581242865" name="localVariableDeclaration" index="3cpWs9" />
      </concept>
      <concept id="1068581242863" name="jetbrains.mps.baseLanguage.structure.LocalVariableDeclaration" flags="nr" index="3cpWsn" />
      <concept id="1068581517677" name="jetbrains.mps.baseLanguage.structure.VoidType" flags="in" index="3cqZAl" />
      <concept id="1206060495898" name="jetbrains.mps.baseLanguage.structure.ElsifClause" flags="ng" index="3eNFk2">
        <child id="1206060619838" name="condition" index="3eO9$A" />
        <child id="1206060644605" name="statementList" index="3eOfB_" />
      </concept>
      <concept id="1204053956946" name="jetbrains.mps.baseLanguage.structure.IMethodCall" flags="ng" index="1ndlxa">
        <reference id="1068499141037" name="baseMethodDeclaration" index="37wK5l" />
        <child id="1068499141038" name="actualArgument" index="37wK5m" />
      </concept>
      <concept id="1107461130800" name="jetbrains.mps.baseLanguage.structure.Classifier" flags="ng" index="3pOWGL">
        <property id="521412098689998745" name="nonStatic" index="2bfB8j" />
        <child id="5375687026011219971" name="member" index="jymVt" unordered="true" />
      </concept>
      <concept id="7812454656619025412" name="jetbrains.mps.baseLanguage.structure.LocalMethodCall" flags="nn" index="1rXfSq" />
      <concept id="1107535904670" name="jetbrains.mps.baseLanguage.structure.ClassifierType" flags="in" index="3uibUv">
        <reference id="1107535924139" name="classifier" index="3uigEE" />
      </concept>
      <concept id="1081773326031" name="jetbrains.mps.baseLanguage.structure.BinaryOperation" flags="nn" index="3uHJSO">
        <child id="1081773367579" name="rightExpression" index="3uHU7w" />
        <child id="1081773367580" name="leftExpression" index="3uHU7B" />
      </concept>
      <concept id="1178549954367" name="jetbrains.mps.baseLanguage.structure.IVisible" flags="ng" index="1B3ioH">
        <child id="1178549979242" name="visibility" index="1B3o_S" />
      </concept>
      <concept id="6329021646629104957" name="jetbrains.mps.baseLanguage.structure.TextCommentPart" flags="nn" index="3SKdUq">
        <property id="6329021646629104958" name="text" index="3SKdUp" />
      </concept>
      <concept id="6329021646629104954" name="jetbrains.mps.baseLanguage.structure.SingleLineComment" flags="nn" index="3SKdUt">
        <child id="6329021646629175155" name="commentPart" index="3SKWNk" />
      </concept>
      <concept id="1146644602865" name="jetbrains.mps.baseLanguage.structure.PublicVisibility" flags="nn" index="3Tm1VV" />
      <concept id="1080120340718" name="jetbrains.mps.baseLanguage.structure.AndExpression" flags="nn" index="1Wc70l" />
    </language>
    <language id="b401a680-8325-4110-8fd3-84331ff25bef" name="jetbrains.mps.lang.generator">
      <concept id="1510949579266781519" name="jetbrains.mps.lang.generator.structure.TemplateCallMacro" flags="ln" index="5jKBG" />
      <concept id="1114706874351" name="jetbrains.mps.lang.generator.structure.CopySrcNodeMacro" flags="ln" index="29HgVG">
        <child id="1168024447342" name="sourceNodeQuery" index="3NFExx" />
      </concept>
      <concept id="1114729360583" name="jetbrains.mps.lang.generator.structure.CopySrcListMacro" flags="ln" index="2b32R4">
        <child id="1168278589236" name="sourceNodesQuery" index="2P8S$" />
      </concept>
      <concept id="1202776937179" name="jetbrains.mps.lang.generator.structure.AbandonInput_RuleConsequence" flags="lg" index="b5Tf3" />
      <concept id="1095416546421" name="jetbrains.mps.lang.generator.structure.MappingConfiguration" flags="ig" index="bUwia">
        <child id="1167328349397" name="reductionMappingRule" index="3acgRq" />
      </concept>
      <concept id="1177093525992" name="jetbrains.mps.lang.generator.structure.InlineTemplate_RuleConsequence" flags="lg" index="gft3U">
        <child id="1177093586806" name="templateNode" index="gfFT$" />
      </concept>
      <concept id="5015072279636464462" name="jetbrains.mps.lang.generator.structure.VarMacro" flags="lg" index="2jeGV$">
        <child id="5015072279636624635" name="type" index="2jfP_h" />
        <child id="5015072279636624596" name="value" index="2jfP_Y" />
      </concept>
      <concept id="5015072279636592410" name="jetbrains.mps.lang.generator.structure.VarMacro_ValueQuery" flags="in" index="2jfdEK" />
      <concept id="1168559333462" name="jetbrains.mps.lang.generator.structure.TemplateDeclarationReference" flags="ln" index="j$656" />
      <concept id="1095672379244" name="jetbrains.mps.lang.generator.structure.TemplateFragment" flags="ng" index="raruj" />
      <concept id="1722980698497626400" name="jetbrains.mps.lang.generator.structure.ITemplateCall" flags="ng" index="v9R3L">
        <reference id="1722980698497626483" name="template" index="v9R2y" />
        <child id="1722980698497626405" name="actualArgument" index="v9R3O" />
      </concept>
      <concept id="1167168920554" name="jetbrains.mps.lang.generator.structure.BaseMappingRule_Condition" flags="in" index="30G5F_" />
      <concept id="1167169188348" name="jetbrains.mps.lang.generator.structure.TemplateFunctionParameter_sourceNode" flags="nn" index="30H73N" />
      <concept id="1167169308231" name="jetbrains.mps.lang.generator.structure.BaseMappingRule" flags="ng" index="30H$t8">
        <reference id="1167169349424" name="applicableConcept" index="30HIoZ" />
        <child id="1167169362365" name="conditionFunction" index="30HLyM" />
      </concept>
      <concept id="1092059087312" name="jetbrains.mps.lang.generator.structure.TemplateDeclaration" flags="ig" index="13MO4I">
        <reference id="1168285871518" name="applicableConcept" index="3gUMe" />
        <child id="1092060348987" name="contentNode" index="13RCb5" />
      </concept>
      <concept id="1167327847730" name="jetbrains.mps.lang.generator.structure.Reduction_MappingRule" flags="lg" index="3aamgX">
        <child id="1169672767469" name="ruleConsequence" index="1lVwrX" />
      </concept>
      <concept id="982871510064032177" name="jetbrains.mps.lang.generator.structure.IParameterizedTemplate" flags="ng" index="1s_3nv">
        <child id="982871510064032342" name="parameter" index="1s_3oS" />
      </concept>
      <concept id="1167770111131" name="jetbrains.mps.lang.generator.structure.ReferenceMacro_GetReferent" flags="in" index="3$xsQk" />
      <concept id="1167945743726" name="jetbrains.mps.lang.generator.structure.IfMacro_Condition" flags="in" index="3IZrLx" />
      <concept id="1167951910403" name="jetbrains.mps.lang.generator.structure.SourceSubstituteMacro_SourceNodesQuery" flags="in" index="3JmXsc" />
      <concept id="1805153994415891174" name="jetbrains.mps.lang.generator.structure.TemplateParameterDeclaration" flags="ng" index="1N15co">
        <child id="1805153994415893199" name="type" index="1N15GL" />
      </concept>
      <concept id="1168024337012" name="jetbrains.mps.lang.generator.structure.SourceSubstituteMacro_SourceNodeQuery" flags="in" index="3NFfHV" />
      <concept id="4035562641222622437" name="jetbrains.mps.lang.generator.structure.TemplateArgumentQuery" flags="in" index="1UU6SM" />
      <concept id="4035562641222585520" name="jetbrains.mps.lang.generator.structure.TemplateArgumentQueryExpression" flags="nn" index="1UUvTB">
        <child id="4035562641222618754" name="query" index="1UU7Ll" />
      </concept>
      <concept id="1118773211870" name="jetbrains.mps.lang.generator.structure.IfMacro" flags="ln" index="1W57fq">
        <child id="1194989344771" name="alternativeConsequence" index="UU_$l" />
        <child id="1167945861827" name="conditionFunction" index="3IZSJc" />
      </concept>
      <concept id="1118786554307" name="jetbrains.mps.lang.generator.structure.LoopMacro" flags="ln" index="1WS0z7">
        <child id="1167952069335" name="sourceNodesQuery" index="3Jn$fo" />
      </concept>
      <concept id="1088761943574" name="jetbrains.mps.lang.generator.structure.ReferenceMacro" flags="ln" index="1ZhdrF">
        <child id="1167770376702" name="referentFunction" index="3$ytzL" />
      </concept>
    </language>
    <language id="fd392034-7849-419d-9071-12563d152375" name="jetbrains.mps.baseLanguage.closures">
      <concept id="1199569711397" name="jetbrains.mps.baseLanguage.closures.structure.ClosureLiteral" flags="nn" index="1bVj0M">
        <child id="1199569906740" name="parameter" index="1bW2Oz" />
        <child id="1199569916463" name="body" index="1bW5cS" />
      </concept>
    </language>
    <language id="d7706f63-9be2-479c-a3da-ae92af1e64d5" name="jetbrains.mps.lang.generator.generationContext">
      <concept id="2721957369897614808" name="jetbrains.mps.lang.generator.generationContext.structure.GenerationContextOp_VarRef" flags="nn" index="1bhEwm">
        <reference id="2721957369897614810" name="varmacro" index="1bhEwk" />
      </concept>
      <concept id="5190093307972723402" name="jetbrains.mps.lang.generator.generationContext.structure.GenerationContextOp_ParameterRef" flags="nn" index="3cR$yn">
        <reference id="5190093307972736266" name="parameter" index="3cRzXn" />
      </concept>
      <concept id="1216860049635" name="jetbrains.mps.lang.generator.generationContext.structure.TemplateFunctionParameter_generationContext" flags="nn" index="1iwH7S" />
    </language>
    <language id="7866978e-a0f0-4cc7-81bc-4d213d9375e1" name="jetbrains.mps.lang.smodel">
      <concept id="1177026924588" name="jetbrains.mps.lang.smodel.structure.RefConcept_Reference" flags="nn" index="chp4Y">
        <reference id="1177026940964" name="conceptDeclaration" index="cht4Q" />
      </concept>
      <concept id="2396822768958367367" name="jetbrains.mps.lang.smodel.structure.AbstractTypeCastExpression" flags="nn" index="$5XWr">
        <reference id="6733348108486823428" name="concept" index="1m5ApE" />
        <child id="6733348108486823193" name="leftExpression" index="1m5AlR" />
      </concept>
      <concept id="1139613262185" name="jetbrains.mps.lang.smodel.structure.Node_GetParentOperation" flags="nn" index="1mfA1w" />
      <concept id="1139621453865" name="jetbrains.mps.lang.smodel.structure.Node_IsInstanceOfOperation" flags="nn" index="1mIQ4w">
        <child id="1177027386292" name="conceptArgument" index="cj9EA" />
      </concept>
      <concept id="1144146199828" name="jetbrains.mps.lang.smodel.structure.Node_CopyOperation" flags="nn" index="1$rogu" />
      <concept id="1140137987495" name="jetbrains.mps.lang.smodel.structure.SNodeTypeCastExpression" flags="nn" index="1PxgMI" />
      <concept id="1138055754698" name="jetbrains.mps.lang.smodel.structure.SNodeType" flags="in" index="3Tqbb2">
        <reference id="1138405853777" name="concept" index="ehGHo" />
      </concept>
      <concept id="1138056143562" name="jetbrains.mps.lang.smodel.structure.SLinkAccess" flags="nn" index="3TrEf2">
        <reference id="1138056516764" name="link" index="3Tt5mk" />
      </concept>
      <concept id="1138056282393" name="jetbrains.mps.lang.smodel.structure.SLinkListAccess" flags="nn" index="3Tsc0h">
        <reference id="1138056546658" name="link" index="3TtcxE" />
      </concept>
    </language>
    <language id="ceab5195-25ea-4f22-9b92-103b95ca8c0c" name="jetbrains.mps.lang.core">
      <concept id="1133920641626" name="jetbrains.mps.lang.core.structure.BaseConcept" flags="ng" index="2VYdi">
        <child id="5169995583184591170" name="smodelAttribute" index="lGtFl" />
      </concept>
      <concept id="3364660638048049745" name="jetbrains.mps.lang.core.structure.LinkAttribute" flags="ng" index="A9Btn">
        <property id="1757699476691236116" name="linkRole" index="2qtEX8" />
        <property id="1341860900488019036" name="linkId" index="P3scX" />
      </concept>
      <concept id="1169194658468" name="jetbrains.mps.lang.core.structure.INamedConcept" flags="ng" index="TrEIO">
        <property id="1169194664001" name="name" index="TrG5h" />
      </concept>
    </language>
    <language id="83888646-71ce-4f1c-9c53-c54016f6ad4f" name="jetbrains.mps.baseLanguage.collections">
      <concept id="1204796164442" name="jetbrains.mps.baseLanguage.collections.structure.InternalSequenceOperation" flags="nn" index="23sCx2">
        <child id="1204796294226" name="closure" index="23t8la" />
      </concept>
      <concept id="1172650591544" name="jetbrains.mps.baseLanguage.collections.structure.SkipOperation" flags="nn" index="7r0gD">
        <child id="1172658456740" name="elementsToSkip" index="7T0AP" />
      </concept>
      <concept id="1151689724996" name="jetbrains.mps.baseLanguage.collections.structure.SequenceType" flags="in" index="A3Dl8">
        <child id="1151689745422" name="elementType" index="A3Ik2" />
      </concept>
      <concept id="1235566554328" name="jetbrains.mps.baseLanguage.collections.structure.AnyOperation" flags="nn" index="2HwmR7" />
      <concept id="1203518072036" name="jetbrains.mps.baseLanguage.collections.structure.SmartClosureParameterDeclaration" flags="ig" index="Rh6nW" />
      <concept id="3055999550620853964" name="jetbrains.mps.baseLanguage.collections.structure.RemoveWhereOperation" flags="nn" index="1aUR6E" />
      <concept id="1165525191778" name="jetbrains.mps.baseLanguage.collections.structure.GetFirstOperation" flags="nn" index="1uHKPH" />
      <concept id="1176501494711" name="jetbrains.mps.baseLanguage.collections.structure.IsNotEmptyOperation" flags="nn" index="3GX2aA" />
    </language>
  </registry>
  <node concept="bUwia" id="3TBteRZ$uNN">
    <property role="TrG5h" value="main" />
    <node concept="3aamgX" id="244oDY51t7y" role="3acgRq">
      <ref role="30HIoZ" to="spkm:25pbpTNvUrT" resolve="DispatchModifier" />
      <node concept="b5Tf3" id="244oDY51teK" role="1lVwrX" />
    </node>
    <node concept="3aamgX" id="244oDY4N8L9" role="3acgRq">
      <ref role="30HIoZ" to="tpee:fzclF80" resolve="StatementList" />
      <node concept="30G5F_" id="244oDY4N8Rd" role="30HLyM">
        <node concept="3clFbS" id="244oDY4N8Re" role="2VODD2">
          <node concept="3cpWs8" id="244oDY4OSJA" role="3cqZAp">
            <node concept="3cpWsn" id="244oDY4OSJD" role="3cpWs9">
              <property role="TrG5h" value="methodHasDispatchModifier" />
              <node concept="10P_77" id="244oDY4OSJ$" role="1tU5fm" />
              <node concept="1Wc70l" id="244oDY4NaKN" role="33vP2m">
                <node concept="2OqwBi" id="244oDY4NgbQ" role="3uHU7w">
                  <node concept="2HwmR7" id="3jHFIlRwQqa" role="2OqNvi">
                    <node concept="1bVj0M" id="3jHFIlRwQqc" role="23t8la">
                      <node concept="3clFbS" id="3jHFIlRwQqd" role="1bW5cS">
                        <node concept="3clFbF" id="3jHFIlRwQqe" role="3cqZAp">
                          <node concept="2OqwBi" id="3jHFIlRwQqf" role="3clFbG">
                            <node concept="1mIQ4w" id="3jHFIlRwQqg" role="2OqNvi">
                              <node concept="chp4Y" id="3jHFIlRwQqh" role="cj9EA">
                                <ref role="cht4Q" to="spkm:25pbpTNvUrT" resolve="DispatchModifier" />
                              </node>
                            </node>
                            <node concept="37vLTw" id="3jHFIlRwQqi" role="2Oq$k0">
                              <ref role="3cqZAo" node="3jHFIlRwQqj" resolve="it" />
                            </node>
                          </node>
                        </node>
                      </node>
                      <node concept="Rh6nW" id="3jHFIlRwQqj" role="1bW2Oz">
                        <property role="TrG5h" value="it" />
                        <node concept="2jxLKc" id="3jHFIlRwQqk" role="1tU5fm" />
                      </node>
                    </node>
                  </node>
                  <node concept="2OqwBi" id="244oDY4NdpI" role="2Oq$k0">
                    <node concept="3Tsc0h" id="20YUQaJ$tnI" role="2OqNvi">
                      <ref role="3TtcxE" to="tpee:20YUQaJkyYL" />
                    </node>
                    <node concept="1PxgMI" id="244oDY4Nc_l" role="2Oq$k0">
                      <ref role="1m5ApE" to="tpee:6LFqxSRBTg8" resolve="MethodDeclaration" />
                      <node concept="2OqwBi" id="244oDY4Nb8W" role="1m5AlR">
                        <node concept="1mfA1w" id="244oDY4Nbwh" role="2OqNvi" />
                        <node concept="30H73N" id="244oDY4NaZW" role="2Oq$k0" />
                      </node>
                    </node>
                  </node>
                </node>
                <node concept="2OqwBi" id="244oDY4N9Mn" role="3uHU7B">
                  <node concept="1mIQ4w" id="244oDY4Na2T" role="2OqNvi">
                    <node concept="chp4Y" id="20YUQaJCmCP" role="cj9EA">
                      <ref role="cht4Q" to="tpee:6LFqxSRBTg8" resolve="MethodDeclaration" />
                    </node>
                  </node>
                  <node concept="2OqwBi" id="244oDY4N95W" role="2Oq$k0">
                    <node concept="1mfA1w" id="244oDY4N9s4" role="2OqNvi" />
                    <node concept="30H73N" id="244oDY4N8WV" role="2Oq$k0" />
                  </node>
                </node>
              </node>
            </node>
          </node>
          <node concept="3clFbH" id="244oDY5bxLW" role="3cqZAp" />
          <node concept="3clFbF" id="244oDY50rbJ" role="3cqZAp">
            <node concept="1Wc70l" id="244oDY5byb2" role="3clFbG">
              <node concept="2OqwBi" id="244oDY5bASO" role="3uHU7w">
                <node concept="2YIFZM" id="3jHFIlRvMOz" role="2Oq$k0">
                  <ref role="1Pybhc" to="youm:3jHFIlRxOtt" resolve="DispatchGenUtil" />
                  <ref role="37wK5l" to="youm:5WzrsV0ymV6" resolve="getMatchingMethods" />
                  <node concept="1PxgMI" id="3jHFIlRvMO$" role="37wK5m">
                    <ref role="1m5ApE" to="tpee:6LFqxSRBTg8" resolve="MethodDeclaration" />
                    <node concept="2OqwBi" id="3jHFIlRvMO_" role="1m5AlR">
                      <node concept="1mfA1w" id="3jHFIlRvMOA" role="2OqNvi" />
                      <node concept="30H73N" id="3jHFIlRvMOB" role="2Oq$k0" />
                    </node>
                  </node>
                </node>
                <node concept="3GX2aA" id="244oDY5bBs2" role="2OqNvi" />
              </node>
              <node concept="37vLTw" id="244oDY50rbI" role="3uHU7B">
                <ref role="3cqZAo" node="244oDY4OSJD" resolve="methodHasDispatchModifier" />
              </node>
            </node>
          </node>
        </node>
      </node>
      <node concept="j$656" id="244oDY4NqaT" role="1lVwrX">
        <ref role="v9R2y" node="244oDY4NmKw" resolve="InsertDispatcherCode" />
      </node>
    </node>
  </node>
  <node concept="13MO4I" id="3TBteRZ$uXw">
    <property role="TrG5h" value="StripDispatchModifier" />
    <ref role="3gUMe" to="tpee:fzclF8t" resolve="InstanceMethodDeclaration" />
    <node concept="312cEu" id="3TBteRZEYq3" role="13RCb5">
      <property role="TrG5h" value="Enclosing" />
      <property role="2bfB8j" value="true" />
      <node concept="3Tm1VV" id="3TBteRZEYq4" role="1B3o_S" />
      <node concept="3clFbW" id="3TBteRZEYq5" role="jymVt">
        <node concept="3cqZAl" id="3TBteRZEYq6" role="3clF45" />
        <node concept="3Tm1VV" id="3TBteRZEYq7" role="1B3o_S" />
        <node concept="3clFbS" id="3TBteRZEYq8" role="3clF47" />
      </node>
      <node concept="3clFb_" id="3TBteRZEYqo" role="jymVt">
        <property role="TrG5h" value="ourTarget" />
        <node concept="3cqZAl" id="3TBteRZEYqp" role="3clF45" />
        <node concept="3Tm1VV" id="3TBteRZEYqq" role="1B3o_S" />
        <node concept="3clFbS" id="3TBteRZEYqr" role="3clF47" />
      </node>
      <node concept="3clFb_" id="25pbpTNMMsZ" role="jymVt">
        <property role="TrG5h" value="dispatchMethod" />
        <node concept="3cqZAl" id="25pbpTNMMt0" role="3clF45" />
        <node concept="3Tm1VV" id="25pbpTNMMt1" role="1B3o_S" />
        <node concept="3clFbS" id="25pbpTNMMt2" role="3clF47" />
        <node concept="raruj" id="25pbpTNMODr" role="lGtFl" />
        <node concept="29HgVG" id="25pbpTNMOZ6" role="lGtFl">
          <node concept="3NFfHV" id="25pbpTNMOZ8" role="3NFExx">
            <node concept="3clFbS" id="25pbpTNMOZa" role="2VODD2">
              <node concept="3cpWs8" id="25pbpTNMPQc" role="3cqZAp">
                <node concept="3cpWsn" id="25pbpTNMPQf" role="3cpWs9">
                  <property role="TrG5h" value="newDecl" />
                  <node concept="2OqwBi" id="25pbpTNMQnR" role="33vP2m">
                    <node concept="1$rogu" id="25pbpTNMR8N" role="2OqNvi" />
                    <node concept="30H73N" id="25pbpTNMQ03" role="2Oq$k0" />
                  </node>
                  <node concept="3Tqbb2" id="25pbpTNMPQa" role="1tU5fm">
                    <ref role="ehGHo" to="tpee:fzclF8t" resolve="InstanceMethodDeclaration" />
                  </node>
                </node>
              </node>
              <node concept="3clFbF" id="244oDY4KVUr" role="3cqZAp">
                <node concept="2OqwBi" id="244oDY4KZZj" role="3clFbG">
                  <node concept="1aUR6E" id="244oDY4L2FQ" role="2OqNvi">
                    <node concept="1bVj0M" id="244oDY4L2FS" role="23t8la">
                      <node concept="3clFbS" id="244oDY4L2FT" role="1bW5cS">
                        <node concept="3clFbF" id="244oDY4L35h" role="3cqZAp">
                          <node concept="2OqwBi" id="244oDY4L3GD" role="3clFbG">
                            <node concept="1mIQ4w" id="244oDY4L4cV" role="2OqNvi">
                              <node concept="chp4Y" id="244oDY4L4G3" role="cj9EA">
                                <ref role="cht4Q" to="spkm:25pbpTNvUrT" resolve="DispatchModifier" />
                              </node>
                            </node>
                            <node concept="37vLTw" id="244oDY4L35g" role="2Oq$k0">
                              <ref role="3cqZAo" node="244oDY4L2FU" resolve="it" />
                            </node>
                          </node>
                        </node>
                      </node>
                      <node concept="Rh6nW" id="244oDY4L2FU" role="1bW2Oz">
                        <property role="TrG5h" value="it" />
                        <node concept="2jxLKc" id="244oDY4L2FV" role="1tU5fm" />
                      </node>
                    </node>
                  </node>
                  <node concept="2OqwBi" id="244oDY4KWnh" role="2Oq$k0">
                    <node concept="3Tsc0h" id="20YUQaJ$qZO" role="2OqNvi">
                      <ref role="3TtcxE" to="tpee:20YUQaJkyYL" />
                    </node>
                    <node concept="37vLTw" id="244oDY4KVUq" role="2Oq$k0">
                      <ref role="3cqZAo" node="25pbpTNMPQf" resolve="newDecl" />
                    </node>
                  </node>
                </node>
              </node>
              <node concept="3clFbF" id="25pbpTNMYia" role="3cqZAp">
                <node concept="37vLTw" id="25pbpTNMYi9" role="3clFbG">
                  <ref role="3cqZAo" node="25pbpTNMPQf" resolve="newDecl" />
                </node>
              </node>
            </node>
          </node>
        </node>
      </node>
    </node>
  </node>
  <node concept="13MO4I" id="244oDY4NmKw">
    <property role="TrG5h" value="InsertDispatcherCode" />
    <ref role="3gUMe" to="tpee:fzclF80" resolve="StatementList" />
    <node concept="312cEu" id="244oDY5faMs" role="13RCb5">
      <property role="TrG5h" value="Ignore" />
      <property role="2bfB8j" value="true" />
      <node concept="3Tm1VV" id="244oDY5faMt" role="1B3o_S" />
      <node concept="3clFbW" id="244oDY5faMu" role="jymVt">
        <node concept="3cqZAl" id="244oDY5faMv" role="3clF45" />
        <node concept="3Tm1VV" id="244oDY5faMw" role="1B3o_S" />
        <node concept="3clFbS" id="244oDY5faMx" role="3clF47" />
      </node>
      <node concept="3clFb_" id="244oDY5fcKA" role="jymVt">
        <property role="TrG5h" value="targetMethod" />
        <node concept="3cqZAl" id="244oDY5fcKB" role="3clF45" />
        <node concept="3Tm1VV" id="244oDY5fcKC" role="1B3o_S" />
        <node concept="3clFbS" id="244oDY5fcKD" role="3clF47" />
      </node>
      <node concept="3clFb_" id="244oDY4NmKH" role="jymVt">
        <property role="TrG5h" value="method" />
        <node concept="3cqZAl" id="244oDY4NmKJ" role="3clF45" />
        <node concept="3Tm1VV" id="244oDY4NmKK" role="1B3o_S" />
        <node concept="3clFbS" id="244oDY4NmKL" role="3clF47">
          <node concept="3clFbJ" id="244oDY52Q9w" role="3cqZAp">
            <node concept="2jeGV$" id="244oDY56kEW" role="lGtFl">
              <property role="TrG5h" value="paramName" />
              <node concept="2jfdEK" id="244oDY56kEY" role="2jfP_Y">
                <node concept="3clFbS" id="244oDY56kF0" role="2VODD2">
                  <node concept="3clFbF" id="244oDY56_UF" role="3cqZAp">
                    <node concept="2OqwBi" id="244oDY56_UH" role="3clFbG">
                      <node concept="1uHKPH" id="244oDY56_UI" role="2OqNvi" />
                      <node concept="2OqwBi" id="244oDY56_UJ" role="2Oq$k0">
                        <node concept="3Tsc0h" id="244oDY56_UK" role="2OqNvi">
                          <ref role="3TtcxE" to="tpee:fzclF7Y" />
                        </node>
                        <node concept="1PxgMI" id="244oDY56_UL" role="2Oq$k0">
                          <ref role="1m5ApE" to="tpee:6LFqxSRBTg8" resolve="MethodDeclaration" />
                          <node concept="2OqwBi" id="244oDY56_UM" role="1m5AlR">
                            <node concept="1mfA1w" id="244oDY56_UN" role="2OqNvi" />
                            <node concept="30H73N" id="244oDY56_UO" role="2Oq$k0" />
                          </node>
                        </node>
                      </node>
                    </node>
                  </node>
                </node>
              </node>
              <node concept="3Tqbb2" id="244oDY56$Zk" role="2jfP_h">
                <ref role="ehGHo" to="tpee:fz7vLUk" resolve="ParameterDeclaration" />
              </node>
            </node>
            <node concept="2jeGV$" id="244oDY577qU" role="lGtFl">
              <property role="TrG5h" value="methods" />
              <node concept="2jfdEK" id="244oDY577qW" role="2jfP_Y">
                <node concept="3clFbS" id="244oDY577qY" role="2VODD2">
                  <node concept="3clFbF" id="244oDY57a3w" role="3cqZAp">
                    <node concept="2YIFZM" id="3jHFIlRvwWl" role="3clFbG">
                      <ref role="1Pybhc" to="youm:3jHFIlRxOtt" resolve="DispatchGenUtil" />
                      <ref role="37wK5l" to="youm:5WzrsV0ymV6" resolve="getMatchingMethods" />
                      <node concept="2OqwBi" id="3jHFIlRvyOT" role="37wK5m">
                        <node concept="1bhEwm" id="3jHFIlRvzny" role="2OqNvi">
                          <ref role="1bhEwk" node="244oDY5gjpa" resolve="methodDecl" />
                        </node>
                        <node concept="1iwH7S" id="3jHFIlRvyhA" role="2Oq$k0" />
                      </node>
                    </node>
                  </node>
                </node>
              </node>
              <node concept="A3Dl8" id="244oDY5c6vq" role="2jfP_h">
                <node concept="3Tqbb2" id="244oDY5bu11" role="A3Ik2">
                  <ref role="ehGHo" to="tpee:6LFqxSRBTg8" resolve="MethodDeclaration" />
                </node>
              </node>
            </node>
            <node concept="2ZW3vV" id="244oDY52QDL" role="3clFbw">
              <node concept="3uibUv" id="244oDY52QMn" role="2ZW6by">
                <ref role="3uigEE" to="wyt6:~Object" resolve="Object" />
                <node concept="29HgVG" id="244oDY54A9n" role="lGtFl">
                  <node concept="3NFfHV" id="244oDY54A9p" role="3NFExx">
                    <node concept="3clFbS" id="244oDY54A9r" role="2VODD2">
                      <node concept="3clFbF" id="244oDY54AJ6" role="3cqZAp">
                        <node concept="1PxgMI" id="244oDY5dra9" role="3clFbG">
                          <ref role="1m5ApE" to="tpee:g7uibYu" resolve="ClassifierType" />
                          <node concept="2OqwBi" id="244oDY5doEn" role="1m5AlR">
                            <node concept="3TrEf2" id="244oDY5dpAB" role="2OqNvi">
                              <ref role="3Tt5mk" to="tpee:4VkOLwjf83e" />
                            </node>
                            <node concept="2OqwBi" id="244oDY5deGC" role="2Oq$k0">
                              <node concept="1uHKPH" id="244oDY5dj2J" role="2OqNvi" />
                              <node concept="2OqwBi" id="244oDY5d8_i" role="2Oq$k0">
                                <node concept="3Tsc0h" id="244oDY5d9zN" role="2OqNvi">
                                  <ref role="3TtcxE" to="tpee:fzclF7Y" />
                                </node>
                                <node concept="2OqwBi" id="244oDY54Guy" role="2Oq$k0">
                                  <node concept="2OqwBi" id="244oDY57bFM" role="2Oq$k0">
                                    <node concept="1bhEwm" id="244oDY57c70" role="2OqNvi">
                                      <ref role="1bhEwk" node="244oDY577qU" resolve="methods" />
                                    </node>
                                    <node concept="1iwH7S" id="244oDY57bem" role="2Oq$k0" />
                                  </node>
                                  <node concept="1uHKPH" id="244oDY57cY8" role="2OqNvi" />
                                </node>
                              </node>
                            </node>
                          </node>
                        </node>
                      </node>
                    </node>
                  </node>
                </node>
              </node>
              <node concept="37vLTw" id="244oDY52QoK" role="2ZW6bz">
                <ref role="3cqZAo" node="244oDY52NYW" resolve="x" />
                <node concept="1ZhdrF" id="244oDY52RR_" role="lGtFl">
                  <property role="2qtEX8" value="variableDeclaration" />
                  <property role="P3scX" value="f3061a53-9226-4cc5-a443-f952ceaf5816/1068498886296/1068581517664" />
                  <node concept="3$xsQk" id="244oDY52RRA" role="3$ytzL">
                    <node concept="3clFbS" id="244oDY52RRB" role="2VODD2">
                      <node concept="3clFbF" id="244oDY52S13" role="3cqZAp">
                        <node concept="2OqwBi" id="244oDY56EQR" role="3clFbG">
                          <node concept="1bhEwm" id="244oDY56HAT" role="2OqNvi">
                            <ref role="1bhEwk" node="244oDY56kEW" resolve="paramName" />
                          </node>
                          <node concept="1iwH7S" id="244oDY56EsO" role="2Oq$k0" />
                        </node>
                      </node>
                    </node>
                  </node>
                </node>
              </node>
            </node>
            <node concept="3clFbS" id="244oDY52Q9y" role="3clFbx">
              <node concept="3clFbF" id="20YUQaJekV3" role="3cqZAp">
                <node concept="5jKBG" id="20YUQaJemno" role="lGtFl">
                  <ref role="v9R2y" node="7YtogOutKs" resolve="MakeConcreteCall" />
                  <node concept="1UUvTB" id="20YUQaJewtQ" role="v9R3O">
                    <node concept="1UU6SM" id="20YUQaJewtS" role="1UU7Ll">
                      <node concept="3clFbS" id="20YUQaJewtU" role="2VODD2">
                        <node concept="3clFbF" id="20YUQaJexaV" role="3cqZAp">
                          <node concept="2OqwBi" id="20YUQaJexVi" role="3clFbG">
                            <node concept="1bhEwm" id="20YUQaJeyHB" role="2OqNvi">
                              <ref role="1bhEwk" node="244oDY5gjpa" resolve="methodDecl" />
                            </node>
                            <node concept="1iwH7S" id="20YUQaJexaU" role="2Oq$k0" />
                          </node>
                        </node>
                      </node>
                    </node>
                  </node>
                  <node concept="1UUvTB" id="20YUQaJeFCh" role="v9R3O">
                    <node concept="1UU6SM" id="20YUQaJeFCj" role="1UU7Ll">
                      <node concept="3clFbS" id="20YUQaJeFCl" role="2VODD2">
                        <node concept="3clFbF" id="20YUQaJeGeq" role="3cqZAp">
                          <node concept="2OqwBi" id="20YUQaJeIK2" role="3clFbG">
                            <node concept="1uHKPH" id="20YUQaJeJDM" role="2OqNvi" />
                            <node concept="2OqwBi" id="20YUQaJeGR$" role="2Oq$k0">
                              <node concept="1bhEwm" id="20YUQaJeH$1" role="2OqNvi">
                                <ref role="1bhEwk" node="244oDY577qU" resolve="methods" />
                              </node>
                              <node concept="1iwH7S" id="20YUQaJeGep" role="2Oq$k0" />
                            </node>
                          </node>
                        </node>
                      </node>
                    </node>
                  </node>
                </node>
                <node concept="1rXfSq" id="20YUQaJekV2" role="3clFbG">
                  <ref role="37wK5l" node="244oDY5fcKA" resolve="targetMethod" />
                </node>
              </node>
            </node>
            <node concept="3eNFk2" id="244oDY53i0$" role="3eNLev">
              <node concept="1WS0z7" id="244oDY53kh7" role="lGtFl">
                <node concept="3JmXsc" id="244oDY53kha" role="3Jn$fo">
                  <node concept="3clFbS" id="244oDY53khb" role="2VODD2">
                    <node concept="3SKdUt" id="244oDY58oNQ" role="3cqZAp">
                      <node concept="3SKdUq" id="244oDY58paC" role="3SKWNk">
                        <property role="3SKdUp" value="first class is already handled in the first if branch" />
                      </node>
                    </node>
                    <node concept="3clFbF" id="244oDY581AT" role="3cqZAp">
                      <node concept="2OqwBi" id="244oDY5cgvC" role="3clFbG">
                        <node concept="7r0gD" id="244oDY5chf1" role="2OqNvi">
                          <node concept="3cmrfG" id="244oDY5chDU" role="7T0AP">
                            <property role="3cmrfH" value="1" />
                          </node>
                        </node>
                        <node concept="2OqwBi" id="244oDY581AV" role="2Oq$k0">
                          <node concept="1bhEwm" id="244oDY581AW" role="2OqNvi">
                            <ref role="1bhEwk" node="244oDY577qU" resolve="methods" />
                          </node>
                          <node concept="1iwH7S" id="244oDY581AX" role="2Oq$k0" />
                        </node>
                      </node>
                    </node>
                  </node>
                </node>
              </node>
              <node concept="2ZW3vV" id="244oDY53jMP" role="3eO9$A">
                <node concept="3uibUv" id="244oDY53jZJ" role="2ZW6by">
                  <ref role="3uigEE" to="wyt6:~Object" resolve="Object" />
                  <node concept="29HgVG" id="244oDY54_6p" role="lGtFl">
                    <node concept="3NFfHV" id="244oDY54_6r" role="3NFExx">
                      <node concept="3clFbS" id="244oDY54_6t" role="2VODD2">
                        <node concept="3clFbF" id="244oDY54_rY" role="3cqZAp">
                          <node concept="1PxgMI" id="244oDY5cEt0" role="3clFbG">
                            <ref role="1m5ApE" to="tpee:g7uibYu" resolve="ClassifierType" />
                            <node concept="2OqwBi" id="244oDY5cAu6" role="1m5AlR">
                              <node concept="3TrEf2" id="244oDY5cBop" role="2OqNvi">
                                <ref role="3Tt5mk" to="tpee:4VkOLwjf83e" />
                              </node>
                              <node concept="2OqwBi" id="244oDY5coCP" role="2Oq$k0">
                                <node concept="1uHKPH" id="244oDY5cwQq" role="2OqNvi" />
                                <node concept="2OqwBi" id="244oDY5c4a_" role="2Oq$k0">
                                  <node concept="3Tsc0h" id="244oDY5cjot" role="2OqNvi">
                                    <ref role="3TtcxE" to="tpee:fzclF7Y" />
                                  </node>
                                  <node concept="30H73N" id="244oDY54_rX" role="2Oq$k0" />
                                </node>
                              </node>
                            </node>
                          </node>
                        </node>
                      </node>
                    </node>
                  </node>
                </node>
                <node concept="37vLTw" id="244oDY53jjr" role="2ZW6bz">
                  <ref role="3cqZAo" node="244oDY52NYW" resolve="x" />
                  <node concept="1ZhdrF" id="244oDY53mn0" role="lGtFl">
                    <property role="2qtEX8" value="variableDeclaration" />
                    <property role="P3scX" value="f3061a53-9226-4cc5-a443-f952ceaf5816/1068498886296/1068581517664" />
                    <node concept="3$xsQk" id="244oDY53mn1" role="3$ytzL">
                      <node concept="3clFbS" id="244oDY53mn2" role="2VODD2">
                        <node concept="3clFbF" id="244oDY56eSY" role="3cqZAp">
                          <node concept="2OqwBi" id="244oDY56fmS" role="3clFbG">
                            <node concept="1bhEwm" id="244oDY56$oC" role="2OqNvi">
                              <ref role="1bhEwk" node="244oDY56kEW" resolve="paramName" />
                            </node>
                            <node concept="1iwH7S" id="244oDY56eSX" role="2Oq$k0" />
                          </node>
                        </node>
                      </node>
                    </node>
                  </node>
                </node>
              </node>
              <node concept="3clFbS" id="244oDY53i0_" role="3eOfB_">
                <node concept="3clFbF" id="20YUQaJfNQU" role="3cqZAp">
                  <node concept="5jKBG" id="20YUQaJfPPX" role="lGtFl">
                    <ref role="v9R2y" node="7YtogOutKs" resolve="MakeConcreteCall" />
                    <node concept="1UUvTB" id="20YUQaJfRjp" role="v9R3O">
                      <node concept="1UU6SM" id="20YUQaJfRjr" role="1UU7Ll">
                        <node concept="3clFbS" id="20YUQaJfRjt" role="2VODD2">
                          <node concept="3clFbF" id="20YUQaJfRMH" role="3cqZAp">
                            <node concept="2OqwBi" id="20YUQaJfSlj" role="3clFbG">
                              <node concept="1bhEwm" id="20YUQaJfSVc" role="2OqNvi">
                                <ref role="1bhEwk" node="244oDY5gjpa" resolve="methodDecl" />
                              </node>
                              <node concept="1iwH7S" id="20YUQaJfRMG" role="2Oq$k0" />
                            </node>
                          </node>
                        </node>
                      </node>
                    </node>
                    <node concept="1UUvTB" id="20YUQaJfU55" role="v9R3O">
                      <node concept="1UU6SM" id="20YUQaJfU57" role="1UU7Ll">
                        <node concept="3clFbS" id="20YUQaJfU59" role="2VODD2">
                          <node concept="3clFbF" id="20YUQaJfU_4" role="3cqZAp">
                            <node concept="30H73N" id="20YUQaJfU_3" role="3clFbG" />
                          </node>
                        </node>
                      </node>
                    </node>
                  </node>
                  <node concept="1rXfSq" id="20YUQaJfNQT" role="3clFbG">
                    <ref role="37wK5l" node="244oDY5fcKA" resolve="targetMethod" />
                  </node>
                </node>
              </node>
            </node>
            <node concept="9aQIb" id="244oDY53iz7" role="9aQIa">
              <node concept="3clFbS" id="244oDY53iz8" role="9aQI4">
                <node concept="3cpWs8" id="244oDY53iSn" role="3cqZAp">
                  <node concept="2b32R4" id="244oDY53iSo" role="lGtFl">
                    <node concept="3JmXsc" id="244oDY53iSp" role="2P8S$">
                      <node concept="3clFbS" id="244oDY53iSq" role="2VODD2">
                        <node concept="3clFbF" id="244oDY53iSr" role="3cqZAp">
                          <node concept="2OqwBi" id="244oDY53iSs" role="3clFbG">
                            <node concept="3Tsc0h" id="244oDY53iSt" role="2OqNvi">
                              <ref role="3TtcxE" to="tpee:fzcqZ_x" />
                            </node>
                            <node concept="30H73N" id="244oDY53iSu" role="2Oq$k0" />
                          </node>
                        </node>
                      </node>
                    </node>
                  </node>
                  <node concept="3cpWsn" id="244oDY53iSv" role="3cpWs9">
                    <property role="TrG5h" value="originalMethodBody" />
                    <node concept="10Oyi0" id="244oDY53iSw" role="1tU5fm" />
                  </node>
                </node>
              </node>
            </node>
          </node>
          <node concept="3clFbH" id="244oDY56j9h" role="3cqZAp" />
          <node concept="raruj" id="244oDY52xyK" role="lGtFl" />
          <node concept="2jeGV$" id="244oDY5gjpa" role="lGtFl">
            <property role="TrG5h" value="methodDecl" />
            <node concept="2jfdEK" id="244oDY5gjpc" role="2jfP_Y">
              <node concept="3clFbS" id="244oDY5gjpe" role="2VODD2">
                <node concept="3clFbF" id="244oDY5gmPf" role="3cqZAp">
                  <node concept="1PxgMI" id="244oDY5goBH" role="3clFbG">
                    <ref role="1m5ApE" to="tpee:6LFqxSRBTg8" resolve="MethodDeclaration" />
                    <node concept="2OqwBi" id="244oDY5gq9e" role="1m5AlR">
                      <node concept="30H73N" id="244oDY5gmPe" role="2Oq$k0" />
                      <node concept="1mfA1w" id="244oDY5grrj" role="2OqNvi" />
                    </node>
                  </node>
                </node>
              </node>
            </node>
            <node concept="3Tqbb2" id="244oDY5gnfh" role="2jfP_h">
              <ref role="ehGHo" to="tpee:6LFqxSRBTg8" resolve="MethodDeclaration" />
            </node>
          </node>
        </node>
        <node concept="37vLTG" id="244oDY52NYW" role="3clF46">
          <property role="TrG5h" value="x" />
          <node concept="3uibUv" id="244oDY52NYV" role="1tU5fm">
            <ref role="3uigEE" to="wyt6:~Object" resolve="Object" />
          </node>
        </node>
      </node>
    </node>
  </node>
  <node concept="13MO4I" id="7YtogOutKs">
    <property role="TrG5h" value="MakeConcreteCall" />
    <ref role="3gUMe" to="tpee:6LFqxSRBTg4" resolve="LocalMethodCall" />
    <node concept="312cEu" id="20YUQaJe$L0" role="13RCb5">
      <property role="TrG5h" value="C" />
      <property role="2bfB8j" value="true" />
      <node concept="3Tm1VV" id="20YUQaJe$L1" role="1B3o_S" />
      <node concept="3clFbW" id="20YUQaJe$L4" role="jymVt">
        <node concept="3cqZAl" id="20YUQaJe$L5" role="3clF45" />
        <node concept="3Tm1VV" id="20YUQaJe$L6" role="1B3o_S" />
        <node concept="3clFbS" id="20YUQaJe$L7" role="3clF47" />
      </node>
      <node concept="3clFb_" id="20YUQaJe$Lk" role="jymVt">
        <property role="TrG5h" value="target" />
        <node concept="3cqZAl" id="20YUQaJe$Ll" role="3clF45" />
        <node concept="3Tm1VV" id="20YUQaJe$Lm" role="1B3o_S" />
        <node concept="3clFbS" id="20YUQaJe$Ln" role="3clF47">
          <node concept="3clFbF" id="20YUQaJe_R8" role="3cqZAp">
            <node concept="1rXfSq" id="20YUQaJe_RN" role="3clFbG">
              <ref role="37wK5l" node="244oDY5fcKA" resolve="targetMethod" />
              <node concept="10QFUN" id="20YUQaJgn2h" role="37wK5m">
                <node concept="37vLTw" id="20YUQaJgn5k" role="10QFUP">
                  <ref role="3cqZAo" node="20YUQaJe$Lu" resolve="x" />
                  <node concept="1ZhdrF" id="20YUQaJgEBF" role="lGtFl">
                    <property role="2qtEX8" value="variableDeclaration" />
                    <property role="P3scX" value="f3061a53-9226-4cc5-a443-f952ceaf5816/1068498886296/1068581517664" />
                    <node concept="3$xsQk" id="20YUQaJgEBG" role="3$ytzL">
                      <node concept="3clFbS" id="20YUQaJgEBH" role="2VODD2">
                        <node concept="3clFbF" id="20YUQaJgET2" role="3cqZAp">
                          <node concept="2OqwBi" id="20YUQaJgOLh" role="3clFbG">
                            <node concept="1uHKPH" id="20YUQaJh08y" role="2OqNvi" />
                            <node concept="2OqwBi" id="20YUQaJgIyD" role="2Oq$k0">
                              <node concept="3Tsc0h" id="20YUQaJgJnC" role="2OqNvi">
                                <ref role="3TtcxE" to="tpee:fzclF7Y" />
                              </node>
                              <node concept="2OqwBi" id="20YUQaJgFd_" role="2Oq$k0">
                                <node concept="3cR$yn" id="20YUQaJgHW8" role="2OqNvi">
                                  <ref role="3cRzXn" node="20YUQaJepuf" resolve="methodDecl" />
                                </node>
                                <node concept="1iwH7S" id="20YUQaJgET1" role="2Oq$k0" />
                              </node>
                            </node>
                          </node>
                        </node>
                      </node>
                    </node>
                  </node>
                </node>
                <node concept="3uibUv" id="20YUQaJgn8p" role="10QFUM">
                  <ref role="3uigEE" to="wyt6:~Object" resolve="Object" />
                  <node concept="29HgVG" id="20YUQaJhJE1" role="lGtFl">
                    <node concept="3NFfHV" id="20YUQaJhJE3" role="3NFExx">
                      <node concept="3clFbS" id="20YUQaJhJE5" role="2VODD2">
                        <node concept="3clFbF" id="20YUQaJhJRI" role="3cqZAp">
                          <node concept="1PxgMI" id="20YUQaJi6cU" role="3clFbG">
                            <ref role="1m5ApE" to="tpee:g7uibYu" resolve="ClassifierType" />
                            <node concept="2OqwBi" id="20YUQaJi3Kk" role="1m5AlR">
                              <node concept="3TrEf2" id="20YUQaJi5k7" role="2OqNvi">
                                <ref role="3Tt5mk" to="tpee:4VkOLwjf83e" />
                              </node>
                              <node concept="2OqwBi" id="20YUQaJhQlW" role="2Oq$k0">
                                <node concept="1uHKPH" id="20YUQaJhYne" role="2OqNvi" />
                                <node concept="2OqwBi" id="20YUQaJhKUO" role="2Oq$k0">
                                  <node concept="3Tsc0h" id="20YUQaJhLHE" role="2OqNvi">
                                    <ref role="3TtcxE" to="tpee:fzclF7Y" />
                                  </node>
                                  <node concept="2OqwBi" id="20YUQaJhK8F" role="2Oq$k0">
                                    <node concept="3cR$yn" id="20YUQaJiz94" role="2OqNvi">
                                      <ref role="3cRzXn" node="20YUQaJeBcf" resolve="targetMethod" />
                                    </node>
                                    <node concept="1iwH7S" id="20YUQaJhJRH" role="2Oq$k0" />
                                  </node>
                                </node>
                              </node>
                            </node>
                          </node>
                        </node>
                      </node>
                    </node>
                  </node>
                </node>
              </node>
              <node concept="1ZhdrF" id="20YUQaJe_RO" role="lGtFl">
                <property role="2qtEX8" value="baseMethodDeclaration" />
                <property role="P3scX" value="f3061a53-9226-4cc5-a443-f952ceaf5816/1204053956946/1068499141037" />
                <node concept="3$xsQk" id="20YUQaJe_RP" role="3$ytzL">
                  <node concept="3clFbS" id="20YUQaJe_RQ" role="2VODD2">
                    <node concept="3clFbF" id="20YUQaJe_RR" role="3cqZAp">
                      <node concept="2OqwBi" id="20YUQaJe_RU" role="3clFbG">
                        <node concept="3cR$yn" id="20YUQaJeBvq" role="2OqNvi">
                          <ref role="3cRzXn" node="20YUQaJeBcf" resolve="targetMethod" />
                        </node>
                        <node concept="1iwH7S" id="20YUQaJe_RW" role="2Oq$k0" />
                      </node>
                    </node>
                  </node>
                </node>
              </node>
              <node concept="37vLTw" id="20YUQaJe_RX" role="37wK5m">
                <ref role="3cqZAo" node="20YUQaJe$Lu" resolve="x" />
                <node concept="1WS0z7" id="20YUQaJe_RY" role="lGtFl">
                  <node concept="3JmXsc" id="20YUQaJe_RZ" role="3Jn$fo">
                    <node concept="3clFbS" id="20YUQaJe_S0" role="2VODD2">
                      <node concept="3clFbF" id="20YUQaJe_S1" role="3cqZAp">
                        <node concept="2OqwBi" id="20YUQaJgs61" role="3clFbG">
                          <node concept="7r0gD" id="20YUQaJgxAM" role="2OqNvi">
                            <node concept="3cmrfG" id="20YUQaJgxSr" role="7T0AP">
                              <property role="3cmrfH" value="1" />
                            </node>
                          </node>
                          <node concept="2OqwBi" id="20YUQaJe_S2" role="2Oq$k0">
                            <node concept="2OqwBi" id="20YUQaJe_S3" role="2Oq$k0">
                              <node concept="3cR$yn" id="1GF9yVLEuZE" role="2OqNvi">
                                <ref role="3cRzXn" node="20YUQaJepuf" resolve="methodDecl" />
                              </node>
                              <node concept="1iwH7S" id="20YUQaJe_S5" role="2Oq$k0" />
                            </node>
                            <node concept="3Tsc0h" id="20YUQaJe_S6" role="2OqNvi">
                              <ref role="3TtcxE" to="tpee:fzclF7Y" />
                            </node>
                          </node>
                        </node>
                      </node>
                    </node>
                  </node>
                </node>
                <node concept="1ZhdrF" id="20YUQaJe_S7" role="lGtFl">
                  <property role="2qtEX8" value="variableDeclaration" />
                  <property role="P3scX" value="f3061a53-9226-4cc5-a443-f952ceaf5816/1068498886296/1068581517664" />
                  <node concept="3$xsQk" id="20YUQaJe_S8" role="3$ytzL">
                    <node concept="3clFbS" id="20YUQaJe_S9" role="2VODD2">
                      <node concept="3clFbF" id="20YUQaJe_Sa" role="3cqZAp">
                        <node concept="30H73N" id="20YUQaJe_Sb" role="3clFbG" />
                      </node>
                    </node>
                  </node>
                </node>
              </node>
            </node>
            <node concept="raruj" id="20YUQaJeQFI" role="lGtFl" />
            <node concept="1W57fq" id="20YUQaJe_R9" role="lGtFl">
              <node concept="3IZrLx" id="20YUQaJe_Ra" role="3IZSJc">
                <node concept="3clFbS" id="20YUQaJe_Rb" role="2VODD2">
                  <node concept="3clFbF" id="20YUQaJe_Rc" role="3cqZAp">
                    <node concept="2OqwBi" id="20YUQaJe_Rd" role="3clFbG">
                      <node concept="1mIQ4w" id="20YUQaJe_Re" role="2OqNvi">
                        <node concept="chp4Y" id="20YUQaJe_Rf" role="cj9EA">
                          <ref role="cht4Q" to="tpee:fzcqZ_H" resolve="VoidType" />
                        </node>
                      </node>
                      <node concept="2OqwBi" id="20YUQaJe_Rg" role="2Oq$k0">
                        <node concept="3TrEf2" id="20YUQaJe_Rh" role="2OqNvi">
                          <ref role="3Tt5mk" to="tpee:fzclF7X" />
                        </node>
                        <node concept="2OqwBi" id="20YUQaJe_Ri" role="2Oq$k0">
                          <node concept="3cR$yn" id="20YUQaJeAJZ" role="2OqNvi">
                            <ref role="3cRzXn" node="20YUQaJepuf" resolve="methodDecl" />
                          </node>
                          <node concept="1iwH7S" id="20YUQaJe_Rk" role="2Oq$k0" />
                        </node>
                      </node>
                    </node>
                  </node>
                </node>
              </node>
              <node concept="gft3U" id="20YUQaJe_Rl" role="UU_$l">
                <node concept="3cpWs6" id="20YUQaJe_Rm" role="gfFT$">
                  <node concept="1rXfSq" id="20YUQaJe_Rn" role="3cqZAk">
                    <ref role="37wK5l" node="244oDY5fcKA" resolve="targetMethod" />
                    <node concept="10QFUN" id="20YUQaJgnfl" role="37wK5m">
                      <node concept="37vLTw" id="20YUQaJgnlL" role="10QFUP">
                        <ref role="3cqZAo" node="20YUQaJe$Lu" resolve="x" />
                        <node concept="1ZhdrF" id="20YUQaJh0z5" role="lGtFl">
                          <property role="2qtEX8" value="variableDeclaration" />
                          <property role="P3scX" value="f3061a53-9226-4cc5-a443-f952ceaf5816/1068498886296/1068581517664" />
                          <node concept="3$xsQk" id="20YUQaJh0z6" role="3$ytzL">
                            <node concept="3clFbS" id="20YUQaJh0z7" role="2VODD2">
                              <node concept="3clFbF" id="20YUQaJh0RJ" role="3cqZAp">
                                <node concept="2OqwBi" id="20YUQaJh9yT" role="3clFbG">
                                  <node concept="1uHKPH" id="20YUQaJhjMo" role="2OqNvi" />
                                  <node concept="2OqwBi" id="20YUQaJh3My" role="2Oq$k0">
                                    <node concept="3Tsc0h" id="20YUQaJh4nX" role="2OqNvi">
                                      <ref role="3TtcxE" to="tpee:fzclF7Y" />
                                    </node>
                                    <node concept="2OqwBi" id="20YUQaJh0WF" role="2Oq$k0">
                                      <node concept="3cR$yn" id="20YUQaJh3rC" role="2OqNvi">
                                        <ref role="3cRzXn" node="20YUQaJepuf" resolve="methodDecl" />
                                      </node>
                                      <node concept="1iwH7S" id="20YUQaJh0RI" role="2Oq$k0" />
                                    </node>
                                  </node>
                                </node>
                              </node>
                            </node>
                          </node>
                        </node>
                      </node>
                      <node concept="3uibUv" id="20YUQaJgniJ" role="10QFUM">
                        <ref role="3uigEE" to="wyt6:~Object" resolve="Object" />
                        <node concept="29HgVG" id="20YUQaJi7qB" role="lGtFl">
                          <node concept="3NFfHV" id="20YUQaJi7qD" role="3NFExx">
                            <node concept="3clFbS" id="20YUQaJi7qF" role="2VODD2">
                              <node concept="3clFbF" id="20YUQaJi7JA" role="3cqZAp">
                                <node concept="1PxgMI" id="20YUQaJi7JC" role="3clFbG">
                                  <ref role="1m5ApE" to="tpee:g7uibYu" resolve="ClassifierType" />
                                  <node concept="2OqwBi" id="20YUQaJi7JD" role="1m5AlR">
                                    <node concept="3TrEf2" id="20YUQaJi7JE" role="2OqNvi">
                                      <ref role="3Tt5mk" to="tpee:4VkOLwjf83e" />
                                    </node>
                                    <node concept="2OqwBi" id="20YUQaJi7JF" role="2Oq$k0">
                                      <node concept="1uHKPH" id="20YUQaJi7JG" role="2OqNvi" />
                                      <node concept="2OqwBi" id="20YUQaJi7JH" role="2Oq$k0">
                                        <node concept="3Tsc0h" id="20YUQaJi7JI" role="2OqNvi">
                                          <ref role="3TtcxE" to="tpee:fzclF7Y" />
                                        </node>
                                        <node concept="2OqwBi" id="20YUQaJi7JJ" role="2Oq$k0">
                                          <node concept="3cR$yn" id="20YUQaJizyB" role="2OqNvi">
                                            <ref role="3cRzXn" node="20YUQaJeBcf" resolve="targetMethod" />
                                          </node>
                                          <node concept="1iwH7S" id="20YUQaJi7JL" role="2Oq$k0" />
                                        </node>
                                      </node>
                                    </node>
                                  </node>
                                </node>
                              </node>
                            </node>
                          </node>
                        </node>
                      </node>
                    </node>
                    <node concept="1ZhdrF" id="20YUQaJe_Rr" role="lGtFl">
                      <property role="2qtEX8" value="baseMethodDeclaration" />
                      <property role="P3scX" value="f3061a53-9226-4cc5-a443-f952ceaf5816/1204053956946/1068499141037" />
                      <node concept="3$xsQk" id="20YUQaJe_Rs" role="3$ytzL">
                        <node concept="3clFbS" id="20YUQaJe_Rt" role="2VODD2">
                          <node concept="3clFbF" id="20YUQaJe_Ru" role="3cqZAp">
                            <node concept="2OqwBi" id="20YUQaJe_Rx" role="3clFbG">
                              <node concept="1iwH7S" id="20YUQaJe_Rz" role="2Oq$k0" />
                              <node concept="3cR$yn" id="20YUQaJeCYP" role="2OqNvi">
                                <ref role="3cRzXn" node="20YUQaJeBcf" resolve="targetMethod" />
                              </node>
                            </node>
                          </node>
                        </node>
                      </node>
                    </node>
                    <node concept="37vLTw" id="20YUQaJe_R$" role="37wK5m">
                      <ref role="3cqZAo" node="20YUQaJe$Lu" resolve="x" />
                      <node concept="1WS0z7" id="20YUQaJe_R_" role="lGtFl">
                        <node concept="3JmXsc" id="20YUQaJe_RA" role="3Jn$fo">
                          <node concept="3clFbS" id="20YUQaJe_RB" role="2VODD2">
                            <node concept="3clFbF" id="20YUQaJfkaO" role="3cqZAp">
                              <node concept="2OqwBi" id="20YUQaJgA6H" role="3clFbG">
                                <node concept="7r0gD" id="20YUQaJgEeE" role="2OqNvi">
                                  <node concept="3cmrfG" id="20YUQaJgEq_" role="7T0AP">
                                    <property role="3cmrfH" value="1" />
                                  </node>
                                </node>
                                <node concept="2OqwBi" id="20YUQaJfl46" role="2Oq$k0">
                                  <node concept="3Tsc0h" id="20YUQaJflUO" role="2OqNvi">
                                    <ref role="3TtcxE" to="tpee:fzclF7Y" />
                                  </node>
                                  <node concept="2OqwBi" id="20YUQaJfkj4" role="2Oq$k0">
                                    <node concept="3cR$yn" id="20YUQaJfkC8" role="2OqNvi">
                                      <ref role="3cRzXn" node="20YUQaJepuf" resolve="methodDecl" />
                                    </node>
                                    <node concept="1iwH7S" id="20YUQaJfkaN" role="2Oq$k0" />
                                  </node>
                                </node>
                              </node>
                            </node>
                          </node>
                        </node>
                      </node>
                      <node concept="1ZhdrF" id="20YUQaJe_RI" role="lGtFl">
                        <property role="2qtEX8" value="variableDeclaration" />
                        <property role="P3scX" value="f3061a53-9226-4cc5-a443-f952ceaf5816/1068498886296/1068581517664" />
                        <node concept="3$xsQk" id="20YUQaJe_RJ" role="3$ytzL">
                          <node concept="3clFbS" id="20YUQaJe_RK" role="2VODD2">
                            <node concept="3clFbF" id="20YUQaJe_RL" role="3cqZAp">
                              <node concept="30H73N" id="20YUQaJfmRW" role="3clFbG" />
                            </node>
                          </node>
                        </node>
                      </node>
                    </node>
                  </node>
                </node>
              </node>
            </node>
          </node>
        </node>
        <node concept="37vLTG" id="20YUQaJe$Lu" role="3clF46">
          <property role="TrG5h" value="x" />
          <node concept="3uibUv" id="20YUQaJe$Lt" role="1tU5fm">
            <ref role="3uigEE" to="wyt6:~Object" resolve="Object" />
          </node>
        </node>
      </node>
    </node>
    <node concept="1N15co" id="20YUQaJepuf" role="1s_3oS">
      <property role="TrG5h" value="methodDecl" />
      <node concept="3Tqbb2" id="20YUQaJepul" role="1N15GL">
        <ref role="ehGHo" to="tpee:6LFqxSRBTg8" resolve="MethodDeclaration" />
      </node>
    </node>
    <node concept="1N15co" id="20YUQaJeBcf" role="1s_3oS">
      <property role="TrG5h" value="targetMethod" />
      <node concept="3Tqbb2" id="20YUQaJeBnw" role="1N15GL">
        <ref role="ehGHo" to="tpee:6LFqxSRBTg8" resolve="MethodDeclaration" />
      </node>
    </node>
  </node>
</model>

