<?xml version="1.0" encoding="UTF-8"?>
<model ref="r:07978ce6-64b4-421f-b466-c3c0460eccb2(jetbrains.mps.execution.demo.behavior)">
  <persistence version="9" />
  <languages>
    <use id="af65afd8-f0dd-4942-87d9-63a55f2a9db1" name="jetbrains.mps.lang.behavior" version="0" />
    <devkit ref="fbc25dd2-5da4-483a-8b19-70928e1b62d7(jetbrains.mps.devkit.general-purpose)" />
  </languages>
  <imports>
    <import index="f1er" ref="r:b2897562-8c8f-4b0e-a52e-5dedfbf1b862(jetbrains.mps.execution.demo.structure)" />
    <import index="nlf1" ref="r:7f489494-339f-481c-be61-2af4deb51551(jetbrains.mps.execution.util.behavior)" implicit="true" />
  </imports>
  <registry>
    <language id="af65afd8-f0dd-4942-87d9-63a55f2a9db1" name="jetbrains.mps.lang.behavior">
      <concept id="1225194240794" name="jetbrains.mps.lang.behavior.structure.ConceptBehavior" flags="ng" index="13h7C7">
        <reference id="1225194240799" name="concept" index="13h7C2" />
        <child id="1225194240805" name="method" index="13h7CS" />
        <child id="1225194240801" name="constructor" index="13h7CW" />
      </concept>
      <concept id="1225194413805" name="jetbrains.mps.lang.behavior.structure.ConceptConstructorDeclaration" flags="in" index="13hLZK" />
      <concept id="1225194472830" name="jetbrains.mps.lang.behavior.structure.ConceptMethodDeclaration" flags="ng" index="13i0hz">
        <property id="1225194472832" name="isVirtual" index="13i0it" />
        <property id="1225194472834" name="isAbstract" index="13i0iv" />
        <reference id="1225194472831" name="overriddenMethod" index="13i0hy" />
      </concept>
      <concept id="1225194691553" name="jetbrains.mps.lang.behavior.structure.ThisNodeExpression" flags="nn" index="13iPFW" />
    </language>
    <language id="f3061a53-9226-4cc5-a443-f952ceaf5816" name="jetbrains.mps.baseLanguage">
      <concept id="1197027756228" name="jetbrains.mps.baseLanguage.structure.DotExpression" flags="nn" index="2OqwBi">
        <child id="1197027771414" name="operand" index="2Oq$k0" />
        <child id="1197027833540" name="operation" index="2OqNvi" />
      </concept>
      <concept id="1137021947720" name="jetbrains.mps.baseLanguage.structure.ConceptFunction" flags="in" index="2VMwT0">
        <child id="1137022507850" name="body" index="2VODD2" />
      </concept>
      <concept id="1070534644030" name="jetbrains.mps.baseLanguage.structure.BooleanType" flags="in" index="10P_77" />
      <concept id="1068580123132" name="jetbrains.mps.baseLanguage.structure.BaseMethodDeclaration" flags="ng" index="3clF44">
        <child id="1068580123133" name="returnType" index="3clF45" />
        <child id="1068580123135" name="body" index="3clF47" />
      </concept>
      <concept id="1068580123155" name="jetbrains.mps.baseLanguage.structure.ExpressionStatement" flags="nn" index="3clFbF">
        <child id="1068580123156" name="expression" index="3clFbG" />
      </concept>
      <concept id="1068580123136" name="jetbrains.mps.baseLanguage.structure.StatementList" flags="sn" stub="5293379017992965193" index="3clFbS">
        <child id="1068581517665" name="statement" index="3cqZAp" />
      </concept>
      <concept id="1178549954367" name="jetbrains.mps.baseLanguage.structure.IVisible" flags="ng" index="1B3ioH">
        <child id="1178549979242" name="visibility" index="1B3o_S" />
      </concept>
      <concept id="1146644602865" name="jetbrains.mps.baseLanguage.structure.PublicVisibility" flags="nn" index="3Tm1VV" />
    </language>
    <language id="7866978e-a0f0-4cc7-81bc-4d213d9375e1" name="jetbrains.mps.lang.smodel">
      <concept id="1138056022639" name="jetbrains.mps.lang.smodel.structure.SPropertyAccess" flags="nn" index="3TrcHB">
        <reference id="1138056395725" name="property" index="3TsBF5" />
      </concept>
    </language>
    <language id="ceab5195-25ea-4f22-9b92-103b95ca8c0c" name="jetbrains.mps.lang.core">
      <concept id="1169194658468" name="jetbrains.mps.lang.core.structure.INamedConcept" flags="ng" index="TrEIO">
        <property id="1169194664001" name="name" index="TrG5h" />
      </concept>
    </language>
  </registry>
  <node concept="13h7C7" id="7id_T6FmIv$">
    <ref role="13h7C2" to="f1er:4hBeuoVSNq4" resolve="SomeConcept" />
    <node concept="13hLZK" id="7id_T6FmIv_" role="13h7CW">
      <node concept="3clFbS" id="7id_T6FmIvA" role="2VODD2" />
    </node>
    <node concept="13i0hz" id="7id_T6FmIvB" role="13h7CS">
      <property role="13i0it" value="false" />
      <property role="TrG5h" value="isNodeRunnable" />
      <property role="13i0iv" value="false" />
      <ref role="13i0hy" to="nlf1:431DWIovi3C" resolve="isNodeRunnable" />
      <node concept="3Tm1VV" id="7id_T6FmIvC" role="1B3o_S" />
      <node concept="3clFbS" id="7id_T6FmIvD" role="3clF47">
        <node concept="3clFbF" id="7id_T6FmJIJ" role="3cqZAp">
          <node concept="2OqwBi" id="7id_T6FmJIL" role="3clFbG">
            <node concept="13iPFW" id="7id_T6FmJIK" role="2Oq$k0" />
            <node concept="3TrcHB" id="7id_T6FmJIP" role="2OqNvi">
              <ref role="3TsBF5" to="f1er:4hBeuoVTWJ4" resolve="valid" />
            </node>
          </node>
        </node>
      </node>
      <node concept="10P_77" id="nVbm8awfqi" role="3clF45" />
    </node>
  </node>
</model>

