<?xml version="1.0" encoding="UTF-8"?>
<model ref="r:363113bf-a0f4-4959-a96d-48dcb69bed7e(jetbrains.mps.execution.demo.editor)">
  <persistence version="9" />
  <languages>
    <use id="18bc6592-03a6-4e29-a83a-7ff23bde13ba" name="jetbrains.mps.lang.editor" version="3" />
  </languages>
  <imports>
    <import index="f1er" ref="r:b2897562-8c8f-4b0e-a52e-5dedfbf1b862(jetbrains.mps.execution.demo.structure)" />
    <import index="tpck" ref="r:00000000-0000-4000-0000-011c89590288(jetbrains.mps.lang.core.structure)" implicit="true" />
  </imports>
  <registry>
    <language id="18bc6592-03a6-4e29-a83a-7ff23bde13ba" name="jetbrains.mps.lang.editor">
      <concept id="1071666914219" name="jetbrains.mps.lang.editor.structure.ConceptEditorDeclaration" flags="ig" index="24kQdi" />
      <concept id="1106270549637" name="jetbrains.mps.lang.editor.structure.CellLayout_Horizontal" flags="nn" index="2iRfu4" />
      <concept id="1106270571710" name="jetbrains.mps.lang.editor.structure.CellLayout_Vertical" flags="nn" index="2iRkQZ" />
      <concept id="1080736578640" name="jetbrains.mps.lang.editor.structure.BaseEditorComponent" flags="ig" index="2wURMF">
        <child id="1080736633877" name="cellModel" index="2wV5jI" />
      </concept>
      <concept id="1186414536763" name="jetbrains.mps.lang.editor.structure.BooleanStyleSheetItem" flags="ln" index="VOi$J">
        <property id="1186414551515" name="flag" index="VOm3f" />
      </concept>
      <concept id="1186414928363" name="jetbrains.mps.lang.editor.structure.SelectableStyleSheetItem" flags="ln" index="VPM3Z" />
      <concept id="1139848536355" name="jetbrains.mps.lang.editor.structure.CellModel_WithRole" flags="ng" index="1$h60E">
        <reference id="1140103550593" name="relationDeclaration" index="1NtTu8" />
      </concept>
      <concept id="1073389446423" name="jetbrains.mps.lang.editor.structure.CellModel_Collection" flags="sn" stub="3013115976261988961" index="3EZMnI">
        <child id="1106270802874" name="cellLayout" index="2iSdaV" />
        <child id="1073389446424" name="childCellModel" index="3EZMnx" />
      </concept>
      <concept id="1073389577006" name="jetbrains.mps.lang.editor.structure.CellModel_Constant" flags="sn" stub="3610246225209162225" index="3F0ifn">
        <property id="1073389577007" name="text" index="3F0ifm" />
      </concept>
      <concept id="1073389658414" name="jetbrains.mps.lang.editor.structure.CellModel_Property" flags="sg" stub="730538219796134133" index="3F0A7n" />
      <concept id="1219418625346" name="jetbrains.mps.lang.editor.structure.IStyleContainer" flags="ng" index="3F0Thp">
        <child id="1219418656006" name="styleItem" index="3F10Kt" />
      </concept>
      <concept id="1198256887712" name="jetbrains.mps.lang.editor.structure.CellModel_Indent" flags="ng" index="3XFhqQ" />
      <concept id="1166049232041" name="jetbrains.mps.lang.editor.structure.AbstractComponent" flags="ng" index="1XWOmA">
        <reference id="1166049300910" name="conceptDeclaration" index="1XX52x" />
      </concept>
    </language>
  </registry>
  <node concept="24kQdi" id="4hBeuoVSNq6">
    <ref role="1XX52x" to="f1er:4hBeuoVSNq4" resolve="SomeConcept" />
    <node concept="3EZMnI" id="4hBeuoVTWJ5" role="2wV5jI">
      <node concept="2iRkQZ" id="4hBeuoVTWJ6" role="2iSdaV" />
      <node concept="3F0A7n" id="4hBeuoVSNq8" role="3EZMnx">
        <ref role="1NtTu8" to="tpck:h0TrG11" resolve="name" />
      </node>
      <node concept="3EZMnI" id="4hBeuoVTWJ8" role="3EZMnx">
        <node concept="VPM3Z" id="4hBeuoVTWJ9" role="3F10Kt">
          <property role="VOm3f" value="false" />
        </node>
        <node concept="3XFhqQ" id="4hBeuoVTWJc" role="3EZMnx" />
        <node concept="3F0ifn" id="4hBeuoVTWJe" role="3EZMnx">
          <property role="3F0ifm" value="is valid" />
        </node>
        <node concept="3F0A7n" id="4hBeuoVTWJg" role="3EZMnx">
          <ref role="1NtTu8" to="f1er:4hBeuoVTWJ4" resolve="valid" />
        </node>
        <node concept="2iRfu4" id="4hBeuoVTWJb" role="2iSdaV" />
      </node>
    </node>
  </node>
</model>

