<?xml version="1.0" encoding="UTF-8"?>
<model ref="r:10bf3684-5fb2-4fa0-9dd9-1d05589df2e9(jetbrains.mps.util.xml)">
  <persistence version="9" />
  <languages>
    <use id="83888646-71ce-4f1c-9c53-c54016f6ad4f" name="jetbrains.mps.baseLanguage.collections" version="0" />
    <use id="f3061a53-9226-4cc5-a443-f952ceaf5816" name="jetbrains.mps.baseLanguage" version="4" />
  </languages>
  <imports>
    <import index="wyt6" ref="6354ebe7-c22a-4a0f-ac54-50b52ab9b065/java:java.lang(JDK/)" />
    <import index="kart" ref="6354ebe7-c22a-4a0f-ac54-50b52ab9b065/java:org.xml.sax(JDK/)" />
    <import index="p34w" ref="6354ebe7-c22a-4a0f-ac54-50b52ab9b065/java:org.xml.sax.helpers(JDK/)" />
    <import index="mmaq" ref="6ed54515-acc8-4d1e-a16c-9fd6cfe951ea/java:org.jdom(MPS.Core/)" />
    <import index="33ny" ref="6354ebe7-c22a-4a0f-ac54-50b52ab9b065/java:java.util(JDK/)" />
  </imports>
  <registry>
    <language id="f3061a53-9226-4cc5-a443-f952ceaf5816" name="jetbrains.mps.baseLanguage">
      <concept id="1202948039474" name="jetbrains.mps.baseLanguage.structure.InstanceMethodCallOperation" flags="nn" index="liA8E" />
      <concept id="1197027756228" name="jetbrains.mps.baseLanguage.structure.DotExpression" flags="nn" index="2OqwBi">
        <child id="1197027771414" name="operand" index="2Oq$k0" />
        <child id="1197027833540" name="operation" index="2OqNvi" />
      </concept>
      <concept id="1145552977093" name="jetbrains.mps.baseLanguage.structure.GenericNewExpression" flags="nn" index="2ShNRf">
        <child id="1145553007750" name="creator" index="2ShVmc" />
      </concept>
      <concept id="1081236700938" name="jetbrains.mps.baseLanguage.structure.StaticMethodDeclaration" flags="ig" index="2YIFZL" />
      <concept id="1081236700937" name="jetbrains.mps.baseLanguage.structure.StaticMethodCall" flags="nn" index="2YIFZM">
        <reference id="1144433194310" name="classConcept" index="1Pybhc" />
      </concept>
      <concept id="1070534058343" name="jetbrains.mps.baseLanguage.structure.NullLiteral" flags="nn" index="10Nm6u" />
      <concept id="1070534644030" name="jetbrains.mps.baseLanguage.structure.BooleanType" flags="in" index="10P_77" />
      <concept id="1070534934090" name="jetbrains.mps.baseLanguage.structure.CastExpression" flags="nn" index="10QFUN">
        <child id="1070534934091" name="type" index="10QFUM" />
        <child id="1070534934092" name="expression" index="10QFUP" />
      </concept>
      <concept id="1068390468198" name="jetbrains.mps.baseLanguage.structure.ClassConcept" flags="ig" index="312cEu">
        <child id="1165602531693" name="superclass" index="1zkMxy" />
      </concept>
      <concept id="1068431474542" name="jetbrains.mps.baseLanguage.structure.VariableDeclaration" flags="ng" index="33uBYm">
        <child id="1068431790190" name="initializer" index="33vP2m" />
      </concept>
      <concept id="1109279763828" name="jetbrains.mps.baseLanguage.structure.TypeVariableDeclaration" flags="ng" index="16euLQ" />
      <concept id="1109279851642" name="jetbrains.mps.baseLanguage.structure.GenericDeclaration" flags="ng" index="16eOlS">
        <child id="1109279881614" name="typeVariableDeclaration" index="16eVyc" />
      </concept>
      <concept id="1109283449304" name="jetbrains.mps.baseLanguage.structure.TypeVariableReference" flags="in" index="16syzq">
        <reference id="1109283546497" name="typeVariableDeclaration" index="16sUi3" />
      </concept>
      <concept id="1068498886296" name="jetbrains.mps.baseLanguage.structure.VariableReference" flags="nn" index="37vLTw">
        <reference id="1068581517664" name="variableDeclaration" index="3cqZAo" />
      </concept>
      <concept id="1068498886292" name="jetbrains.mps.baseLanguage.structure.ParameterDeclaration" flags="ir" index="37vLTG" />
      <concept id="1225271177708" name="jetbrains.mps.baseLanguage.structure.StringType" flags="in" index="17QB3L" />
      <concept id="4972933694980447171" name="jetbrains.mps.baseLanguage.structure.BaseVariableDeclaration" flags="ng" index="19Szcq">
        <child id="5680397130376446158" name="type" index="1tU5fm" />
      </concept>
      <concept id="1068580123132" name="jetbrains.mps.baseLanguage.structure.BaseMethodDeclaration" flags="ng" index="3clF44">
        <child id="1068580123133" name="returnType" index="3clF45" />
        <child id="1068580123134" name="parameter" index="3clF46" />
        <child id="1068580123135" name="body" index="3clF47" />
      </concept>
      <concept id="1068580123165" name="jetbrains.mps.baseLanguage.structure.InstanceMethodDeclaration" flags="ig" index="3clFb_" />
      <concept id="1068580123152" name="jetbrains.mps.baseLanguage.structure.EqualsExpression" flags="nn" index="3clFbC" />
      <concept id="1068580123155" name="jetbrains.mps.baseLanguage.structure.ExpressionStatement" flags="nn" index="3clFbF">
        <child id="1068580123156" name="expression" index="3clFbG" />
      </concept>
      <concept id="1068580123157" name="jetbrains.mps.baseLanguage.structure.Statement" flags="nn" index="3clFbH" />
      <concept id="1068580123159" name="jetbrains.mps.baseLanguage.structure.IfStatement" flags="nn" index="3clFbJ">
        <child id="1068580123160" name="condition" index="3clFbw" />
        <child id="1068580123161" name="ifTrue" index="3clFbx" />
      </concept>
      <concept id="1068580123136" name="jetbrains.mps.baseLanguage.structure.StatementList" flags="sn" stub="5293379017992965193" index="3clFbS">
        <child id="1068581517665" name="statement" index="3cqZAp" />
      </concept>
      <concept id="1068580123140" name="jetbrains.mps.baseLanguage.structure.ConstructorDeclaration" flags="ig" index="3clFbW" />
      <concept id="1068581242878" name="jetbrains.mps.baseLanguage.structure.ReturnStatement" flags="nn" index="3cpWs6">
        <child id="1068581517676" name="expression" index="3cqZAk" />
      </concept>
      <concept id="1068581242864" name="jetbrains.mps.baseLanguage.structure.LocalVariableDeclarationStatement" flags="nn" index="3cpWs8">
        <child id="1068581242865" name="localVariableDeclaration" index="3cpWs9" />
      </concept>
      <concept id="1068581242863" name="jetbrains.mps.baseLanguage.structure.LocalVariableDeclaration" flags="nr" index="3cpWsn" />
      <concept id="1068581517677" name="jetbrains.mps.baseLanguage.structure.VoidType" flags="in" index="3cqZAl" />
      <concept id="1079359253375" name="jetbrains.mps.baseLanguage.structure.ParenthesizedExpression" flags="nn" index="1eOMI4">
        <child id="1079359253376" name="expression" index="1eOMHV" />
      </concept>
      <concept id="1204053956946" name="jetbrains.mps.baseLanguage.structure.IMethodCall" flags="ng" index="1ndlxa">
        <reference id="1068499141037" name="baseMethodDeclaration" index="37wK5l" />
        <child id="1068499141038" name="actualArgument" index="37wK5m" />
      </concept>
      <concept id="1212685548494" name="jetbrains.mps.baseLanguage.structure.ClassCreator" flags="nn" index="1pGfFk" />
      <concept id="1107461130800" name="jetbrains.mps.baseLanguage.structure.Classifier" flags="ng" index="3pOWGL">
        <child id="5375687026011219971" name="member" index="jymVt" unordered="true" />
      </concept>
      <concept id="7812454656619025412" name="jetbrains.mps.baseLanguage.structure.LocalMethodCall" flags="nn" index="1rXfSq" />
      <concept id="1107535904670" name="jetbrains.mps.baseLanguage.structure.ClassifierType" flags="in" index="3uibUv">
        <reference id="1107535924139" name="classifier" index="3uigEE" />
        <child id="1109201940907" name="parameter" index="11_B2D" />
      </concept>
      <concept id="1081773326031" name="jetbrains.mps.baseLanguage.structure.BinaryOperation" flags="nn" index="3uHJSO">
        <child id="1081773367579" name="rightExpression" index="3uHU7w" />
        <child id="1081773367580" name="leftExpression" index="3uHU7B" />
      </concept>
      <concept id="1178549954367" name="jetbrains.mps.baseLanguage.structure.IVisible" flags="ng" index="1B3ioH">
        <child id="1178549979242" name="visibility" index="1B3o_S" />
      </concept>
      <concept id="1163668896201" name="jetbrains.mps.baseLanguage.structure.TernaryOperatorExpression" flags="nn" index="3K4zz7">
        <child id="1163668914799" name="condition" index="3K4Cdx" />
        <child id="1163668922816" name="ifTrue" index="3K4E3e" />
        <child id="1163668934364" name="ifFalse" index="3K4GZi" />
      </concept>
      <concept id="1146644602865" name="jetbrains.mps.baseLanguage.structure.PublicVisibility" flags="nn" index="3Tm1VV" />
      <concept id="1146644623116" name="jetbrains.mps.baseLanguage.structure.PrivateVisibility" flags="nn" index="3Tm6S6" />
    </language>
    <language id="ceab5195-25ea-4f22-9b92-103b95ca8c0c" name="jetbrains.mps.lang.core">
      <concept id="1169194658468" name="jetbrains.mps.lang.core.structure.INamedConcept" flags="ng" index="TrEIO">
        <property id="1169194664001" name="name" index="TrG5h" />
      </concept>
    </language>
    <language id="83888646-71ce-4f1c-9c53-c54016f6ad4f" name="jetbrains.mps.baseLanguage.collections">
      <concept id="1224414427926" name="jetbrains.mps.baseLanguage.collections.structure.SequenceCreator" flags="nn" index="kMnCb">
        <child id="1224414456414" name="elementType" index="kMuH3" />
      </concept>
      <concept id="1151689724996" name="jetbrains.mps.baseLanguage.collections.structure.SequenceType" flags="in" index="A3Dl8">
        <child id="1151689745422" name="elementType" index="A3Ik2" />
      </concept>
      <concept id="1165525191778" name="jetbrains.mps.baseLanguage.collections.structure.GetFirstOperation" flags="nn" index="1uHKPH" />
    </language>
  </registry>
  <node concept="312cEu" id="7x6maRn9iAq">
    <property role="TrG5h" value="BreakParseSAXException" />
    <node concept="3Tm1VV" id="7x6maRn9iAr" role="1B3o_S" />
    <node concept="3uibUv" id="729rIsAzk$j" role="1zkMxy">
      <ref role="3uigEE" to="kart:~SAXException" resolve="SAXException" />
    </node>
    <node concept="3clFbW" id="7x6maRn9iAs" role="jymVt">
      <node concept="3cqZAl" id="7x6maRn9iAt" role="3clF45" />
      <node concept="3Tm1VV" id="7x6maRn9iAu" role="1B3o_S" />
      <node concept="3clFbS" id="7x6maRn9iAv" role="3clF47" />
    </node>
  </node>
  <node concept="312cEu" id="1NGcDawKVyN">
    <property role="TrG5h" value="XMLSAXHandler" />
    <node concept="3Tm1VV" id="1NGcDawKVyO" role="1B3o_S" />
    <node concept="3uibUv" id="1NGcDawKWcB" role="1zkMxy">
      <ref role="3uigEE" to="p34w:~DefaultHandler" resolve="DefaultHandler" />
    </node>
    <node concept="16euLQ" id="1NGcDawKXnI" role="16eVyc">
      <property role="TrG5h" value="R" />
    </node>
    <node concept="3clFbW" id="1NGcDawKVyP" role="jymVt">
      <node concept="3cqZAl" id="1NGcDawKVyQ" role="3clF45" />
      <node concept="3Tm1VV" id="1NGcDawKVyR" role="1B3o_S" />
      <node concept="3clFbS" id="1NGcDawKVyS" role="3clF47" />
    </node>
    <node concept="3clFb_" id="1NGcDawKWcC" role="jymVt">
      <property role="TrG5h" value="getResult" />
      <node concept="16syzq" id="1NGcDawKXnJ" role="3clF45">
        <ref role="16sUi3" node="1NGcDawKXnI" resolve="R" />
      </node>
      <node concept="3Tm1VV" id="1NGcDawKWcE" role="1B3o_S" />
      <node concept="3clFbS" id="1NGcDawKWcF" role="3clF47">
        <node concept="3cpWs6" id="1NGcDawKXnF" role="3cqZAp">
          <node concept="10Nm6u" id="1NGcDawKXnH" role="3cqZAk" />
        </node>
      </node>
    </node>
  </node>
  <node concept="312cEu" id="4eI2K_Iuet$">
    <property role="TrG5h" value="XmlUtil" />
    <node concept="3Tm1VV" id="4eI2K_Iuexq" role="1B3o_S" />
    <node concept="3clFbW" id="4eI2K_Iuexr" role="jymVt">
      <node concept="3cqZAl" id="4eI2K_Iuexs" role="3clF45" />
      <node concept="3Tm6S6" id="4eI2K_Iuext" role="1B3o_S" />
      <node concept="3clFbS" id="4eI2K_Iuexu" role="3clF47" />
    </node>
    <node concept="2YIFZL" id="4eI2K_Iuet_" role="jymVt">
      <property role="TrG5h" value="tagWithText" />
      <node concept="37vLTG" id="4eI2K_IuetA" role="3clF46">
        <property role="TrG5h" value="container" />
        <node concept="3uibUv" id="4eI2K_IuetB" role="1tU5fm">
          <ref role="3uigEE" to="mmaq:~Element" resolve="Element" />
        </node>
      </node>
      <node concept="3cqZAl" id="4eI2K_IuetC" role="3clF45" />
      <node concept="3Tm1VV" id="4eI2K_IuetD" role="1B3o_S" />
      <node concept="3clFbS" id="4eI2K_IuetE" role="3clF47">
        <node concept="3cpWs8" id="4eI2K_IuetF" role="3cqZAp">
          <node concept="3cpWsn" id="4eI2K_IuetG" role="3cpWs9">
            <property role="TrG5h" value="child" />
            <node concept="3uibUv" id="4eI2K_IuetH" role="1tU5fm">
              <ref role="3uigEE" to="mmaq:~Element" resolve="Element" />
            </node>
            <node concept="2ShNRf" id="4eI2K_IuetI" role="33vP2m">
              <node concept="1pGfFk" id="4eI2K_IuetJ" role="2ShVmc">
                <ref role="37wK5l" to="mmaq:~Element.&lt;init&gt;(java.lang.String)" resolve="Element" />
                <node concept="37vLTw" id="4eI2K_IuetK" role="37wK5m">
                  <ref role="3cqZAo" node="4eI2K_IuetV" resolve="tagName" />
                </node>
              </node>
            </node>
          </node>
        </node>
        <node concept="3clFbF" id="4eI2K_IuetL" role="3cqZAp">
          <node concept="2OqwBi" id="4eI2K_IuetM" role="3clFbG">
            <node concept="37vLTw" id="4eI2K_IuetN" role="2Oq$k0">
              <ref role="3cqZAo" node="4eI2K_IuetG" resolve="child" />
            </node>
            <node concept="liA8E" id="4eI2K_IuetO" role="2OqNvi">
              <ref role="37wK5l" to="mmaq:~Element.setText(java.lang.String):org.jdom.Element" resolve="setText" />
              <node concept="37vLTw" id="4eI2K_IuetP" role="37wK5m">
                <ref role="3cqZAo" node="4eI2K_IuetX" resolve="text" />
              </node>
            </node>
          </node>
        </node>
        <node concept="3clFbF" id="4eI2K_IuetQ" role="3cqZAp">
          <node concept="2OqwBi" id="4eI2K_IuetR" role="3clFbG">
            <node concept="37vLTw" id="4eI2K_IuetS" role="2Oq$k0">
              <ref role="3cqZAo" node="4eI2K_IuetA" resolve="container" />
            </node>
            <node concept="liA8E" id="4eI2K_IuetT" role="2OqNvi">
              <ref role="37wK5l" to="mmaq:~Element.addContent(org.jdom.Element):org.jdom.Element" resolve="addContent" />
              <node concept="37vLTw" id="4eI2K_IuetU" role="37wK5m">
                <ref role="3cqZAo" node="4eI2K_IuetG" resolve="child" />
              </node>
            </node>
          </node>
        </node>
      </node>
      <node concept="37vLTG" id="4eI2K_IuetV" role="3clF46">
        <property role="TrG5h" value="tagName" />
        <node concept="17QB3L" id="4eI2K_IuetW" role="1tU5fm" />
      </node>
      <node concept="37vLTG" id="4eI2K_IuetX" role="3clF46">
        <property role="TrG5h" value="text" />
        <node concept="17QB3L" id="4eI2K_IuetY" role="1tU5fm" />
      </node>
    </node>
    <node concept="2YIFZL" id="4eI2K_IuetZ" role="jymVt">
      <property role="TrG5h" value="tagWithAttribute" />
      <node concept="37vLTG" id="4eI2K_Iueu0" role="3clF46">
        <property role="TrG5h" value="container" />
        <node concept="3uibUv" id="4eI2K_Iueu1" role="1tU5fm">
          <ref role="3uigEE" to="mmaq:~Element" resolve="Element" />
        </node>
      </node>
      <node concept="3cqZAl" id="4eI2K_Iueu2" role="3clF45" />
      <node concept="3Tm1VV" id="4eI2K_Iueu3" role="1B3o_S" />
      <node concept="3clFbS" id="4eI2K_Iueu4" role="3clF47">
        <node concept="3cpWs8" id="4eI2K_Iueu5" role="3cqZAp">
          <node concept="3cpWsn" id="4eI2K_Iueu6" role="3cpWs9">
            <property role="TrG5h" value="child" />
            <node concept="3uibUv" id="4eI2K_Iueu7" role="1tU5fm">
              <ref role="3uigEE" to="mmaq:~Element" resolve="Element" />
            </node>
            <node concept="2ShNRf" id="4eI2K_Iueu8" role="33vP2m">
              <node concept="1pGfFk" id="4eI2K_Iueu9" role="2ShVmc">
                <ref role="37wK5l" to="mmaq:~Element.&lt;init&gt;(java.lang.String)" resolve="Element" />
                <node concept="37vLTw" id="4eI2K_Iueua" role="37wK5m">
                  <ref role="3cqZAo" node="4eI2K_Iueum" resolve="tagName" />
                </node>
              </node>
            </node>
          </node>
        </node>
        <node concept="3clFbF" id="4eI2K_Iueub" role="3cqZAp">
          <node concept="2OqwBi" id="4eI2K_Iueuc" role="3clFbG">
            <node concept="37vLTw" id="4eI2K_Iueud" role="2Oq$k0">
              <ref role="3cqZAo" node="4eI2K_Iueu6" resolve="child" />
            </node>
            <node concept="liA8E" id="4eI2K_Iueue" role="2OqNvi">
              <ref role="37wK5l" to="mmaq:~Element.setAttribute(java.lang.String,java.lang.String):org.jdom.Element" resolve="setAttribute" />
              <node concept="37vLTw" id="4eI2K_Iueuf" role="37wK5m">
                <ref role="3cqZAo" node="4eI2K_Iueuo" resolve="attrName" />
              </node>
              <node concept="37vLTw" id="4eI2K_Iueug" role="37wK5m">
                <ref role="3cqZAo" node="4eI2K_Iueuq" resolve="attrValue" />
              </node>
            </node>
          </node>
        </node>
        <node concept="3clFbF" id="4eI2K_Iueuh" role="3cqZAp">
          <node concept="2OqwBi" id="4eI2K_Iueui" role="3clFbG">
            <node concept="37vLTw" id="4eI2K_Iueuj" role="2Oq$k0">
              <ref role="3cqZAo" node="4eI2K_Iueu0" resolve="container" />
            </node>
            <node concept="liA8E" id="4eI2K_Iueuk" role="2OqNvi">
              <ref role="37wK5l" to="mmaq:~Element.addContent(org.jdom.Element):org.jdom.Element" resolve="addContent" />
              <node concept="37vLTw" id="4eI2K_Iueul" role="37wK5m">
                <ref role="3cqZAo" node="4eI2K_Iueu6" resolve="child" />
              </node>
            </node>
          </node>
        </node>
      </node>
      <node concept="37vLTG" id="4eI2K_Iueum" role="3clF46">
        <property role="TrG5h" value="tagName" />
        <node concept="17QB3L" id="4eI2K_Iueun" role="1tU5fm" />
      </node>
      <node concept="37vLTG" id="4eI2K_Iueuo" role="3clF46">
        <property role="TrG5h" value="attrName" />
        <node concept="17QB3L" id="4eI2K_Iueup" role="1tU5fm" />
      </node>
      <node concept="37vLTG" id="4eI2K_Iueuq" role="3clF46">
        <property role="TrG5h" value="attrValue" />
        <node concept="17QB3L" id="4eI2K_Iueur" role="1tU5fm" />
      </node>
    </node>
    <node concept="2YIFZL" id="4eI2K_Iueus" role="jymVt">
      <property role="TrG5h" value="tagWithAttributeAndText" />
      <node concept="37vLTG" id="4eI2K_Iueut" role="3clF46">
        <property role="TrG5h" value="container" />
        <node concept="3uibUv" id="4eI2K_Iueuu" role="1tU5fm">
          <ref role="3uigEE" to="mmaq:~Element" resolve="Element" />
        </node>
      </node>
      <node concept="3cqZAl" id="4eI2K_Iueuv" role="3clF45" />
      <node concept="3Tm1VV" id="4eI2K_Iueuw" role="1B3o_S" />
      <node concept="3clFbS" id="4eI2K_Iueux" role="3clF47">
        <node concept="3cpWs8" id="4eI2K_Iueuy" role="3cqZAp">
          <node concept="3cpWsn" id="4eI2K_Iueuz" role="3cpWs9">
            <property role="TrG5h" value="child" />
            <node concept="3uibUv" id="4eI2K_Iueu$" role="1tU5fm">
              <ref role="3uigEE" to="mmaq:~Element" resolve="Element" />
            </node>
            <node concept="2ShNRf" id="4eI2K_Iueu_" role="33vP2m">
              <node concept="1pGfFk" id="4eI2K_IueuA" role="2ShVmc">
                <ref role="37wK5l" to="mmaq:~Element.&lt;init&gt;(java.lang.String)" resolve="Element" />
                <node concept="37vLTw" id="4eI2K_IueuB" role="37wK5m">
                  <ref role="3cqZAo" node="4eI2K_IueuS" resolve="tagName" />
                </node>
              </node>
            </node>
          </node>
        </node>
        <node concept="3clFbF" id="4eI2K_IueuC" role="3cqZAp">
          <node concept="2OqwBi" id="4eI2K_IueuD" role="3clFbG">
            <node concept="37vLTw" id="4eI2K_IueuE" role="2Oq$k0">
              <ref role="3cqZAo" node="4eI2K_Iueuz" resolve="child" />
            </node>
            <node concept="liA8E" id="4eI2K_IueuF" role="2OqNvi">
              <ref role="37wK5l" to="mmaq:~Element.setAttribute(java.lang.String,java.lang.String):org.jdom.Element" resolve="setAttribute" />
              <node concept="37vLTw" id="4eI2K_IueuG" role="37wK5m">
                <ref role="3cqZAo" node="4eI2K_IueuU" resolve="attrName" />
              </node>
              <node concept="37vLTw" id="4eI2K_IueuH" role="37wK5m">
                <ref role="3cqZAo" node="4eI2K_IueuW" resolve="attrValue" />
              </node>
            </node>
          </node>
        </node>
        <node concept="3clFbF" id="4eI2K_IueuI" role="3cqZAp">
          <node concept="2OqwBi" id="4eI2K_IueuJ" role="3clFbG">
            <node concept="37vLTw" id="4eI2K_IueuK" role="2Oq$k0">
              <ref role="3cqZAo" node="4eI2K_Iueuz" resolve="child" />
            </node>
            <node concept="liA8E" id="4eI2K_IueuL" role="2OqNvi">
              <ref role="37wK5l" to="mmaq:~Element.setText(java.lang.String):org.jdom.Element" resolve="setText" />
              <node concept="37vLTw" id="4eI2K_IueuM" role="37wK5m">
                <ref role="3cqZAo" node="4eI2K_IueuY" resolve="text" />
              </node>
            </node>
          </node>
        </node>
        <node concept="3clFbF" id="4eI2K_IueuN" role="3cqZAp">
          <node concept="2OqwBi" id="4eI2K_IueuO" role="3clFbG">
            <node concept="37vLTw" id="4eI2K_IueuP" role="2Oq$k0">
              <ref role="3cqZAo" node="4eI2K_Iueut" resolve="container" />
            </node>
            <node concept="liA8E" id="4eI2K_IueuQ" role="2OqNvi">
              <ref role="37wK5l" to="mmaq:~Element.addContent(org.jdom.Element):org.jdom.Element" resolve="addContent" />
              <node concept="37vLTw" id="4eI2K_IueuR" role="37wK5m">
                <ref role="3cqZAo" node="4eI2K_Iueuz" resolve="child" />
              </node>
            </node>
          </node>
        </node>
      </node>
      <node concept="37vLTG" id="4eI2K_IueuS" role="3clF46">
        <property role="TrG5h" value="tagName" />
        <node concept="17QB3L" id="4eI2K_IueuT" role="1tU5fm" />
      </node>
      <node concept="37vLTG" id="4eI2K_IueuU" role="3clF46">
        <property role="TrG5h" value="attrName" />
        <node concept="17QB3L" id="4eI2K_IueuV" role="1tU5fm" />
      </node>
      <node concept="37vLTG" id="4eI2K_IueuW" role="3clF46">
        <property role="TrG5h" value="attrValue" />
        <node concept="17QB3L" id="4eI2K_IueuX" role="1tU5fm" />
      </node>
      <node concept="37vLTG" id="4eI2K_IueuY" role="3clF46">
        <property role="TrG5h" value="text" />
        <node concept="17QB3L" id="4eI2K_IueuZ" role="1tU5fm" />
      </node>
    </node>
    <node concept="2YIFZL" id="4eI2K_Iuev0" role="jymVt">
      <property role="TrG5h" value="tagWithAttributes" />
      <node concept="37vLTG" id="4eI2K_Iuev1" role="3clF46">
        <property role="TrG5h" value="container" />
        <node concept="3uibUv" id="4eI2K_Iuev2" role="1tU5fm">
          <ref role="3uigEE" to="mmaq:~Element" resolve="Element" />
        </node>
      </node>
      <node concept="3cqZAl" id="4eI2K_Iuev3" role="3clF45" />
      <node concept="3Tm1VV" id="4eI2K_Iuev4" role="1B3o_S" />
      <node concept="3clFbS" id="4eI2K_Iuev5" role="3clF47">
        <node concept="3cpWs8" id="4eI2K_Iuev6" role="3cqZAp">
          <node concept="3cpWsn" id="4eI2K_Iuev7" role="3cpWs9">
            <property role="TrG5h" value="child" />
            <node concept="3uibUv" id="4eI2K_Iuev8" role="1tU5fm">
              <ref role="3uigEE" to="mmaq:~Element" resolve="Element" />
            </node>
            <node concept="2ShNRf" id="4eI2K_Iuev9" role="33vP2m">
              <node concept="1pGfFk" id="4eI2K_Iueva" role="2ShVmc">
                <ref role="37wK5l" to="mmaq:~Element.&lt;init&gt;(java.lang.String)" resolve="Element" />
                <node concept="37vLTw" id="4eI2K_Iuevb" role="37wK5m">
                  <ref role="3cqZAo" node="4eI2K_Iuevt" resolve="tagName" />
                </node>
              </node>
            </node>
          </node>
        </node>
        <node concept="3clFbF" id="4eI2K_Iuevc" role="3cqZAp">
          <node concept="2OqwBi" id="4eI2K_Iuevd" role="3clFbG">
            <node concept="37vLTw" id="4eI2K_Iueve" role="2Oq$k0">
              <ref role="3cqZAo" node="4eI2K_Iuev7" resolve="child" />
            </node>
            <node concept="liA8E" id="4eI2K_Iuevf" role="2OqNvi">
              <ref role="37wK5l" to="mmaq:~Element.setAttribute(java.lang.String,java.lang.String):org.jdom.Element" resolve="setAttribute" />
              <node concept="37vLTw" id="4eI2K_Iuevg" role="37wK5m">
                <ref role="3cqZAo" node="4eI2K_Iuevv" resolve="attrName" />
              </node>
              <node concept="37vLTw" id="4eI2K_Iuevh" role="37wK5m">
                <ref role="3cqZAo" node="4eI2K_Iuevx" resolve="attrValue" />
              </node>
            </node>
          </node>
        </node>
        <node concept="3clFbF" id="4eI2K_Iuevi" role="3cqZAp">
          <node concept="2OqwBi" id="4eI2K_Iuevj" role="3clFbG">
            <node concept="37vLTw" id="4eI2K_Iuevk" role="2Oq$k0">
              <ref role="3cqZAo" node="4eI2K_Iuev7" resolve="child" />
            </node>
            <node concept="liA8E" id="4eI2K_Iuevl" role="2OqNvi">
              <ref role="37wK5l" to="mmaq:~Element.setAttribute(java.lang.String,java.lang.String):org.jdom.Element" resolve="setAttribute" />
              <node concept="37vLTw" id="4eI2K_Iuevm" role="37wK5m">
                <ref role="3cqZAo" node="4eI2K_Iuevz" resolve="attr2Name" />
              </node>
              <node concept="37vLTw" id="4eI2K_Iuevn" role="37wK5m">
                <ref role="3cqZAo" node="4eI2K_Iuev_" resolve="attr2Value" />
              </node>
            </node>
          </node>
        </node>
        <node concept="3clFbF" id="4eI2K_Iuevo" role="3cqZAp">
          <node concept="2OqwBi" id="4eI2K_Iuevp" role="3clFbG">
            <node concept="37vLTw" id="4eI2K_Iuevq" role="2Oq$k0">
              <ref role="3cqZAo" node="4eI2K_Iuev1" resolve="container" />
            </node>
            <node concept="liA8E" id="4eI2K_Iuevr" role="2OqNvi">
              <ref role="37wK5l" to="mmaq:~Element.addContent(org.jdom.Element):org.jdom.Element" resolve="addContent" />
              <node concept="37vLTw" id="4eI2K_Iuevs" role="37wK5m">
                <ref role="3cqZAo" node="4eI2K_Iuev7" resolve="child" />
              </node>
            </node>
          </node>
        </node>
      </node>
      <node concept="37vLTG" id="4eI2K_Iuevt" role="3clF46">
        <property role="TrG5h" value="tagName" />
        <node concept="17QB3L" id="4eI2K_Iuevu" role="1tU5fm" />
      </node>
      <node concept="37vLTG" id="4eI2K_Iuevv" role="3clF46">
        <property role="TrG5h" value="attrName" />
        <node concept="17QB3L" id="4eI2K_Iuevw" role="1tU5fm" />
      </node>
      <node concept="37vLTG" id="4eI2K_Iuevx" role="3clF46">
        <property role="TrG5h" value="attrValue" />
        <node concept="17QB3L" id="4eI2K_Iuevy" role="1tU5fm" />
      </node>
      <node concept="37vLTG" id="4eI2K_Iuevz" role="3clF46">
        <property role="TrG5h" value="attr2Name" />
        <node concept="17QB3L" id="4eI2K_Iuev$" role="1tU5fm" />
      </node>
      <node concept="37vLTG" id="4eI2K_Iuev_" role="3clF46">
        <property role="TrG5h" value="attr2Value" />
        <node concept="17QB3L" id="4eI2K_IuevA" role="1tU5fm" />
      </node>
    </node>
    <node concept="2YIFZL" id="4eI2K_IuevB" role="jymVt">
      <property role="TrG5h" value="children" />
      <node concept="A3Dl8" id="4eI2K_IuevC" role="3clF45">
        <node concept="3uibUv" id="4eI2K_IuevD" role="A3Ik2">
          <ref role="3uigEE" to="mmaq:~Element" resolve="Element" />
        </node>
      </node>
      <node concept="3Tm1VV" id="4eI2K_IuevE" role="1B3o_S" />
      <node concept="3clFbS" id="4eI2K_IuevF" role="3clF47">
        <node concept="3clFbJ" id="4eI2K_IuevG" role="3cqZAp">
          <node concept="3clFbS" id="4eI2K_IuevH" role="3clFbx">
            <node concept="3cpWs6" id="4eI2K_IuevI" role="3cqZAp">
              <node concept="2ShNRf" id="4eI2K_IuevJ" role="3cqZAk">
                <node concept="kMnCb" id="4eI2K_IuevK" role="2ShVmc">
                  <node concept="3uibUv" id="4eI2K_IuevL" role="kMuH3">
                    <ref role="3uigEE" to="mmaq:~Element" resolve="Element" />
                  </node>
                </node>
              </node>
            </node>
          </node>
          <node concept="3clFbC" id="4eI2K_IuevM" role="3clFbw">
            <node concept="10Nm6u" id="4eI2K_IuevN" role="3uHU7w" />
            <node concept="37vLTw" id="4eI2K_IuevO" role="3uHU7B">
              <ref role="3cqZAo" node="4eI2K_Iuew2" resolve="container" />
            </node>
          </node>
        </node>
        <node concept="3clFbH" id="4eI2K_IuevP" role="3cqZAp" />
        <node concept="3clFbF" id="4eI2K_IuevQ" role="3cqZAp">
          <node concept="10QFUN" id="4eI2K_IuevR" role="3clFbG">
            <node concept="A3Dl8" id="4eI2K_IuevS" role="10QFUM">
              <node concept="3uibUv" id="4eI2K_IuevT" role="A3Ik2">
                <ref role="3uigEE" to="mmaq:~Element" resolve="Element" />
              </node>
            </node>
            <node concept="1eOMI4" id="4eI2K_IuevU" role="10QFUP">
              <node concept="10QFUN" id="4eI2K_IuevV" role="1eOMHV">
                <node concept="3uibUv" id="4eI2K_IuevW" role="10QFUM">
                  <ref role="3uigEE" to="33ny:~List" resolve="List" />
                  <node concept="3uibUv" id="4eI2K_IuevX" role="11_B2D">
                    <ref role="3uigEE" to="mmaq:~Element" resolve="Element" />
                  </node>
                </node>
                <node concept="2OqwBi" id="4eI2K_IuevY" role="10QFUP">
                  <node concept="37vLTw" id="4eI2K_IuevZ" role="2Oq$k0">
                    <ref role="3cqZAo" node="4eI2K_Iuew2" resolve="container" />
                  </node>
                  <node concept="liA8E" id="4eI2K_Iuew0" role="2OqNvi">
                    <ref role="37wK5l" to="mmaq:~Element.getChildren(java.lang.String):java.util.List" resolve="getChildren" />
                    <node concept="37vLTw" id="4eI2K_Iuew1" role="37wK5m">
                      <ref role="3cqZAo" node="4eI2K_Iuew4" resolve="tagName" />
                    </node>
                  </node>
                </node>
              </node>
            </node>
          </node>
        </node>
      </node>
      <node concept="37vLTG" id="4eI2K_Iuew2" role="3clF46">
        <property role="TrG5h" value="container" />
        <node concept="3uibUv" id="4eI2K_Iuew3" role="1tU5fm">
          <ref role="3uigEE" to="mmaq:~Element" resolve="Element" />
        </node>
      </node>
      <node concept="37vLTG" id="4eI2K_Iuew4" role="3clF46">
        <property role="TrG5h" value="tagName" />
        <node concept="17QB3L" id="4eI2K_Iuew5" role="1tU5fm" />
      </node>
    </node>
    <node concept="2YIFZL" id="4eI2K_Iuew6" role="jymVt">
      <property role="TrG5h" value="first" />
      <node concept="3uibUv" id="4eI2K_Iuew7" role="3clF45">
        <ref role="3uigEE" to="mmaq:~Element" resolve="Element" />
      </node>
      <node concept="3Tm1VV" id="4eI2K_Iuew8" role="1B3o_S" />
      <node concept="3clFbS" id="4eI2K_Iuew9" role="3clF47">
        <node concept="3clFbJ" id="4eI2K_Iuewa" role="3cqZAp">
          <node concept="3clFbS" id="4eI2K_Iuewb" role="3clFbx">
            <node concept="3cpWs6" id="4eI2K_Iuewc" role="3cqZAp">
              <node concept="10Nm6u" id="4eI2K_Iuewd" role="3cqZAk" />
            </node>
          </node>
          <node concept="3clFbC" id="4eI2K_Iuewe" role="3clFbw">
            <node concept="10Nm6u" id="4eI2K_Iuewf" role="3uHU7w" />
            <node concept="37vLTw" id="4eI2K_Iuewg" role="3uHU7B">
              <ref role="3cqZAo" node="4eI2K_Iuewn" resolve="container" />
            </node>
          </node>
        </node>
        <node concept="3clFbF" id="4eI2K_Iuewh" role="3cqZAp">
          <node concept="2OqwBi" id="4eI2K_Iuewi" role="3clFbG">
            <node concept="1rXfSq" id="4hiugqyswG9" role="2Oq$k0">
              <ref role="37wK5l" node="4eI2K_IuevB" resolve="children" />
              <node concept="37vLTw" id="4eI2K_Iuewk" role="37wK5m">
                <ref role="3cqZAo" node="4eI2K_Iuewn" resolve="container" />
              </node>
              <node concept="37vLTw" id="4eI2K_Iuewl" role="37wK5m">
                <ref role="3cqZAo" node="4eI2K_Iuewp" resolve="tagName" />
              </node>
            </node>
            <node concept="1uHKPH" id="4eI2K_Iuewm" role="2OqNvi" />
          </node>
        </node>
      </node>
      <node concept="37vLTG" id="4eI2K_Iuewn" role="3clF46">
        <property role="TrG5h" value="container" />
        <node concept="3uibUv" id="4eI2K_Iuewo" role="1tU5fm">
          <ref role="3uigEE" to="mmaq:~Element" resolve="Element" />
        </node>
      </node>
      <node concept="37vLTG" id="4eI2K_Iuewp" role="3clF46">
        <property role="TrG5h" value="tagName" />
        <node concept="17QB3L" id="4eI2K_Iuewq" role="1tU5fm" />
      </node>
    </node>
    <node concept="2YIFZL" id="4eI2K_Iuewr" role="jymVt">
      <property role="TrG5h" value="booleanWithDefault" />
      <node concept="10P_77" id="4eI2K_Iuews" role="3clF45" />
      <node concept="3Tm1VV" id="4eI2K_Iuewt" role="1B3o_S" />
      <node concept="3clFbS" id="4eI2K_Iuewu" role="3clF47">
        <node concept="3clFbJ" id="4eI2K_Iuewv" role="3cqZAp">
          <node concept="3clFbS" id="4eI2K_Iueww" role="3clFbx">
            <node concept="3cpWs6" id="4eI2K_Iuewx" role="3cqZAp">
              <node concept="37vLTw" id="4eI2K_Iuewy" role="3cqZAk">
                <ref role="3cqZAo" node="4eI2K_IuewT" resolve="defaultValue" />
              </node>
            </node>
          </node>
          <node concept="3clFbC" id="4eI2K_Iuewz" role="3clFbw">
            <node concept="10Nm6u" id="4eI2K_Iuew$" role="3uHU7w" />
            <node concept="37vLTw" id="4eI2K_Iuew_" role="3uHU7B">
              <ref role="3cqZAo" node="4eI2K_IuewP" resolve="element" />
            </node>
          </node>
        </node>
        <node concept="3cpWs8" id="4eI2K_IuewA" role="3cqZAp">
          <node concept="3cpWsn" id="4eI2K_IuewB" role="3cpWs9">
            <property role="TrG5h" value="attrValue" />
            <node concept="17QB3L" id="4eI2K_IuewC" role="1tU5fm" />
            <node concept="2OqwBi" id="4eI2K_IuewD" role="33vP2m">
              <node concept="37vLTw" id="4eI2K_IuewE" role="2Oq$k0">
                <ref role="3cqZAo" node="4eI2K_IuewP" resolve="element" />
              </node>
              <node concept="liA8E" id="4eI2K_IuewF" role="2OqNvi">
                <ref role="37wK5l" to="mmaq:~Element.getAttributeValue(java.lang.String):java.lang.String" resolve="getAttributeValue" />
                <node concept="37vLTw" id="4eI2K_IuewG" role="37wK5m">
                  <ref role="3cqZAo" node="4eI2K_IuewR" resolve="attrName" />
                </node>
              </node>
            </node>
          </node>
        </node>
        <node concept="3clFbF" id="4eI2K_IuewH" role="3cqZAp">
          <node concept="3K4zz7" id="4eI2K_IuewI" role="3clFbG">
            <node concept="37vLTw" id="4eI2K_IuewJ" role="3K4E3e">
              <ref role="3cqZAo" node="4eI2K_IuewT" resolve="defaultValue" />
            </node>
            <node concept="3clFbC" id="4eI2K_IuewK" role="3K4Cdx">
              <node concept="10Nm6u" id="4eI2K_IuewL" role="3uHU7w" />
              <node concept="37vLTw" id="4eI2K_IuewM" role="3uHU7B">
                <ref role="3cqZAo" node="4eI2K_IuewB" resolve="attrValue" />
              </node>
            </node>
            <node concept="2YIFZM" id="4eI2K_IuewN" role="3K4GZi">
              <ref role="37wK5l" to="wyt6:~Boolean.parseBoolean(java.lang.String):boolean" resolve="parseBoolean" />
              <ref role="1Pybhc" to="wyt6:~Boolean" resolve="Boolean" />
              <node concept="37vLTw" id="4eI2K_IuewO" role="37wK5m">
                <ref role="3cqZAo" node="4eI2K_IuewB" resolve="attrValue" />
              </node>
            </node>
          </node>
        </node>
      </node>
      <node concept="37vLTG" id="4eI2K_IuewP" role="3clF46">
        <property role="TrG5h" value="element" />
        <node concept="3uibUv" id="4eI2K_IuewQ" role="1tU5fm">
          <ref role="3uigEE" to="mmaq:~Element" resolve="Element" />
        </node>
      </node>
      <node concept="37vLTG" id="4eI2K_IuewR" role="3clF46">
        <property role="TrG5h" value="attrName" />
        <node concept="17QB3L" id="4eI2K_IuewS" role="1tU5fm" />
      </node>
      <node concept="37vLTG" id="4eI2K_IuewT" role="3clF46">
        <property role="TrG5h" value="defaultValue" />
        <node concept="10P_77" id="4eI2K_IuewU" role="1tU5fm" />
      </node>
    </node>
    <node concept="2YIFZL" id="4eI2K_IuewV" role="jymVt">
      <property role="TrG5h" value="stringWithDefault" />
      <node concept="17QB3L" id="4eI2K_IuewW" role="3clF45" />
      <node concept="3Tm1VV" id="4eI2K_IuewX" role="1B3o_S" />
      <node concept="3clFbS" id="4eI2K_IuewY" role="3clF47">
        <node concept="3clFbJ" id="4eI2K_IuewZ" role="3cqZAp">
          <node concept="3clFbS" id="4eI2K_Iuex0" role="3clFbx">
            <node concept="3cpWs6" id="4eI2K_Iuex1" role="3cqZAp">
              <node concept="37vLTw" id="4eI2K_Iuex2" role="3cqZAk">
                <ref role="3cqZAo" node="4eI2K_Iuexo" resolve="defaultValue" />
              </node>
            </node>
          </node>
          <node concept="3clFbC" id="4eI2K_Iuex3" role="3clFbw">
            <node concept="10Nm6u" id="4eI2K_Iuex4" role="3uHU7w" />
            <node concept="37vLTw" id="4eI2K_Iuex5" role="3uHU7B">
              <ref role="3cqZAo" node="4eI2K_Iuexk" resolve="element" />
            </node>
          </node>
        </node>
        <node concept="3cpWs8" id="4eI2K_Iuex6" role="3cqZAp">
          <node concept="3cpWsn" id="4eI2K_Iuex7" role="3cpWs9">
            <property role="TrG5h" value="attrValue" />
            <node concept="17QB3L" id="4eI2K_Iuex8" role="1tU5fm" />
            <node concept="2OqwBi" id="4eI2K_Iuex9" role="33vP2m">
              <node concept="37vLTw" id="4eI2K_Iuexa" role="2Oq$k0">
                <ref role="3cqZAo" node="4eI2K_Iuexk" resolve="element" />
              </node>
              <node concept="liA8E" id="4eI2K_Iuexb" role="2OqNvi">
                <ref role="37wK5l" to="mmaq:~Element.getAttributeValue(java.lang.String):java.lang.String" resolve="getAttributeValue" />
                <node concept="37vLTw" id="4eI2K_Iuexc" role="37wK5m">
                  <ref role="3cqZAo" node="4eI2K_Iuexm" resolve="attrName" />
                </node>
              </node>
            </node>
          </node>
        </node>
        <node concept="3clFbF" id="4eI2K_Iuexd" role="3cqZAp">
          <node concept="3K4zz7" id="4eI2K_Iuexe" role="3clFbG">
            <node concept="37vLTw" id="4eI2K_Iuexf" role="3K4E3e">
              <ref role="3cqZAo" node="4eI2K_Iuexo" resolve="defaultValue" />
            </node>
            <node concept="37vLTw" id="4eI2K_Iuexg" role="3K4GZi">
              <ref role="3cqZAo" node="4eI2K_Iuex7" resolve="attrValue" />
            </node>
            <node concept="3clFbC" id="4eI2K_Iuexh" role="3K4Cdx">
              <node concept="10Nm6u" id="4eI2K_Iuexi" role="3uHU7w" />
              <node concept="37vLTw" id="4eI2K_Iuexj" role="3uHU7B">
                <ref role="3cqZAo" node="4eI2K_Iuex7" resolve="attrValue" />
              </node>
            </node>
          </node>
        </node>
      </node>
      <node concept="37vLTG" id="4eI2K_Iuexk" role="3clF46">
        <property role="TrG5h" value="element" />
        <node concept="3uibUv" id="4eI2K_Iuexl" role="1tU5fm">
          <ref role="3uigEE" to="mmaq:~Element" resolve="Element" />
        </node>
      </node>
      <node concept="37vLTG" id="4eI2K_Iuexm" role="3clF46">
        <property role="TrG5h" value="attrName" />
        <node concept="17QB3L" id="4eI2K_Iuexn" role="1tU5fm" />
      </node>
      <node concept="37vLTG" id="4eI2K_Iuexo" role="3clF46">
        <property role="TrG5h" value="defaultValue" />
        <node concept="17QB3L" id="4eI2K_Iuexp" role="1tU5fm" />
      </node>
    </node>
  </node>
</model>

