<?xml version="1.0" encoding="UTF-8"?>
<model ref="r:3327d2a2-75f9-4a1d-b66f-79d02cebe2d2(jetbrains.mps.lang.textGen.actions)">
  <persistence version="9" />
  <languages>
    <use id="83888646-71ce-4f1c-9c53-c54016f6ad4f" name="jetbrains.mps.baseLanguage.collections" version="0" />
    <use id="aee9cad2-acd4-4608-aef2-0004f6a1cdbd" name="jetbrains.mps.lang.actions" version="0" />
    <use id="13744753-c81f-424a-9c1b-cf8943bf4e86" name="jetbrains.mps.lang.sharedConcepts" version="0" />
    <use id="7866978e-a0f0-4cc7-81bc-4d213d9375e1" name="jetbrains.mps.lang.smodel" version="4" />
    <use id="f3061a53-9226-4cc5-a443-f952ceaf5816" name="jetbrains.mps.baseLanguage" version="4" />
  </languages>
  <imports>
    <import index="2omo" ref="r:de0d3c0c-d049-41cf-bbf9-a920ba513cd3(jetbrains.mps.lang.textGen.structure)" />
    <import index="tpee" ref="r:00000000-0000-4000-0000-011c895902ca(jetbrains.mps.baseLanguage.structure)" />
    <import index="wbvt" ref="r:0fa39ea9-f6a4-454d-9b16-ce07a09428ca(jetbrains.mps.lang.textGen.behavior)" />
    <import index="wyt6" ref="6354ebe7-c22a-4a0f-ac54-50b52ab9b065/java:java.lang(JDK/)" />
    <import index="18ew" ref="6ed54515-acc8-4d1e-a16c-9fd6cfe951ea/java:jetbrains.mps.util(MPS.Core/)" />
  </imports>
  <registry>
    <language id="13744753-c81f-424a-9c1b-cf8943bf4e86" name="jetbrains.mps.lang.sharedConcepts">
      <concept id="1161622665029" name="jetbrains.mps.lang.sharedConcepts.structure.ConceptFunctionParameter_model" flags="nn" index="1Q6Npb" />
    </language>
    <language id="f3061a53-9226-4cc5-a443-f952ceaf5816" name="jetbrains.mps.baseLanguage">
      <concept id="1082485599095" name="jetbrains.mps.baseLanguage.structure.BlockStatement" flags="nn" index="9aQIb">
        <child id="1082485599096" name="statements" index="9aQI4" />
      </concept>
      <concept id="1215693861676" name="jetbrains.mps.baseLanguage.structure.BaseAssignmentExpression" flags="nn" index="d038R">
        <child id="1068498886297" name="rValue" index="37vLTx" />
        <child id="1068498886295" name="lValue" index="37vLTJ" />
      </concept>
      <concept id="1202948039474" name="jetbrains.mps.baseLanguage.structure.InstanceMethodCallOperation" flags="nn" index="liA8E" />
      <concept id="1197027756228" name="jetbrains.mps.baseLanguage.structure.DotExpression" flags="nn" index="2OqwBi">
        <child id="1197027771414" name="operand" index="2Oq$k0" />
        <child id="1197027833540" name="operation" index="2OqNvi" />
      </concept>
      <concept id="1145552977093" name="jetbrains.mps.baseLanguage.structure.GenericNewExpression" flags="nn" index="2ShNRf">
        <child id="1145553007750" name="creator" index="2ShVmc" />
      </concept>
      <concept id="1137021947720" name="jetbrains.mps.baseLanguage.structure.ConceptFunction" flags="in" index="2VMwT0">
        <child id="1137022507850" name="body" index="2VODD2" />
      </concept>
      <concept id="1070475926800" name="jetbrains.mps.baseLanguage.structure.StringLiteral" flags="nn" index="Xl_RD">
        <property id="1070475926801" name="value" index="Xl_RC" />
      </concept>
      <concept id="1081236700937" name="jetbrains.mps.baseLanguage.structure.StaticMethodCall" flags="nn" index="2YIFZM">
        <reference id="1144433194310" name="classConcept" index="1Pybhc" />
      </concept>
      <concept id="1070534058343" name="jetbrains.mps.baseLanguage.structure.NullLiteral" flags="nn" index="10Nm6u" />
      <concept id="1068431474542" name="jetbrains.mps.baseLanguage.structure.VariableDeclaration" flags="ng" index="33uBYm">
        <child id="1068431790190" name="initializer" index="33vP2m" />
      </concept>
      <concept id="1068498886296" name="jetbrains.mps.baseLanguage.structure.VariableReference" flags="nn" index="37vLTw">
        <reference id="1068581517664" name="variableDeclaration" index="3cqZAo" />
      </concept>
      <concept id="1068498886294" name="jetbrains.mps.baseLanguage.structure.AssignmentExpression" flags="nn" index="37vLTI" />
      <concept id="4972933694980447171" name="jetbrains.mps.baseLanguage.structure.BaseVariableDeclaration" flags="ng" index="19Szcq">
        <child id="5680397130376446158" name="type" index="1tU5fm" />
      </concept>
      <concept id="1068580123155" name="jetbrains.mps.baseLanguage.structure.ExpressionStatement" flags="nn" index="3clFbF">
        <child id="1068580123156" name="expression" index="3clFbG" />
      </concept>
      <concept id="1068580123159" name="jetbrains.mps.baseLanguage.structure.IfStatement" flags="nn" index="3clFbJ">
        <child id="1082485599094" name="ifFalseStatement" index="9aQIa" />
        <child id="1068580123160" name="condition" index="3clFbw" />
        <child id="1068580123161" name="ifTrue" index="3clFbx" />
      </concept>
      <concept id="1068580123136" name="jetbrains.mps.baseLanguage.structure.StatementList" flags="sn" stub="5293379017992965193" index="3clFbS">
        <child id="1068581517665" name="statement" index="3cqZAp" />
      </concept>
      <concept id="1068580123137" name="jetbrains.mps.baseLanguage.structure.BooleanConstant" flags="nn" index="3clFbT">
        <property id="1068580123138" name="value" index="3clFbU" />
      </concept>
      <concept id="1068581242878" name="jetbrains.mps.baseLanguage.structure.ReturnStatement" flags="nn" index="3cpWs6">
        <child id="1068581517676" name="expression" index="3cqZAk" />
      </concept>
      <concept id="1068581242864" name="jetbrains.mps.baseLanguage.structure.LocalVariableDeclarationStatement" flags="nn" index="3cpWs8">
        <child id="1068581242865" name="localVariableDeclaration" index="3cpWs9" />
      </concept>
      <concept id="1068581242863" name="jetbrains.mps.baseLanguage.structure.LocalVariableDeclaration" flags="nr" index="3cpWsn" />
      <concept id="1204053956946" name="jetbrains.mps.baseLanguage.structure.IMethodCall" flags="ng" index="1ndlxa">
        <reference id="1068499141037" name="baseMethodDeclaration" index="37wK5l" />
        <child id="1068499141038" name="actualArgument" index="37wK5m" />
      </concept>
      <concept id="1081773326031" name="jetbrains.mps.baseLanguage.structure.BinaryOperation" flags="nn" index="3uHJSO">
        <child id="1081773367579" name="rightExpression" index="3uHU7w" />
        <child id="1081773367580" name="leftExpression" index="3uHU7B" />
      </concept>
      <concept id="1073239437375" name="jetbrains.mps.baseLanguage.structure.NotEqualsExpression" flags="nn" index="3y3z36" />
    </language>
    <language id="aee9cad2-acd4-4608-aef2-0004f6a1cdbd" name="jetbrains.mps.lang.actions">
      <concept id="1196433923911" name="jetbrains.mps.lang.actions.structure.SideTransform_SimpleString" flags="nn" index="2h1dTh">
        <property id="1196433942569" name="text" index="2h1i$Z" />
      </concept>
      <concept id="1177323996388" name="jetbrains.mps.lang.actions.structure.AddMenuPart" flags="ng" index="tYCnQ" />
      <concept id="1177327161126" name="jetbrains.mps.lang.actions.structure.QueryFunction_CanSubstitute" flags="in" index="uaGSO" />
      <concept id="1177327274449" name="jetbrains.mps.lang.actions.structure.ConceptFunctionParameter_pattern" flags="nn" index="ub8z3" />
      <concept id="1177327570013" name="jetbrains.mps.lang.actions.structure.QueryFunction_Substitute_Handler" flags="in" index="ucgPf" />
      <concept id="1177327666243" name="jetbrains.mps.lang.actions.structure.SimpleItemSubstitutePart" flags="ng" index="ucClh">
        <child id="1177327698839" name="canSubstitute" index="ucKa5" />
        <child id="1177327709106" name="handler" index="ucMEw" />
        <child id="1177336013307" name="matchingText" index="uGu3D" />
      </concept>
      <concept id="1177333529597" name="jetbrains.mps.lang.actions.structure.ConceptPart" flags="ng" index="uyZFJ">
        <reference id="1177333551023" name="concept" index="uz4UX" />
        <child id="1177333559040" name="part" index="uz6Si" />
      </concept>
      <concept id="1177335944525" name="jetbrains.mps.lang.actions.structure.QueryFunction_SubstituteString" flags="in" index="uGdhv" />
      <concept id="1177337890340" name="jetbrains.mps.lang.actions.structure.QueryFunction_ParameterizedSubstitute_Query" flags="in" index="uNCsQ" />
      <concept id="1177398027324" name="jetbrains.mps.lang.actions.structure.ConceptsSubstituteMenuPart" flags="ng" index="yp2kI">
        <child id="1177398809232" name="query" index="ys1e2" />
      </concept>
      <concept id="1177497140107" name="jetbrains.mps.lang.actions.structure.ConceptFunctionParameter_sourceNode" flags="nn" index="Cj7Ep" />
      <concept id="1177498013932" name="jetbrains.mps.lang.actions.structure.SimpleSideTransformMenuPart" flags="ng" index="Cmt7Y">
        <child id="1177498166690" name="matchingText" index="Cn2iK" />
        <child id="1177498207384" name="handler" index="Cncma" />
      </concept>
      <concept id="1177498227294" name="jetbrains.mps.lang.actions.structure.QueryFunction_SideTransform_Handler" flags="in" index="Cnhdc" />
      <concept id="1177568407352" name="jetbrains.mps.lang.actions.structure.ConceptFunctionParameter_currentTargetNode" flags="nn" index="GyYSE" />
      <concept id="5480835971642155304" name="jetbrains.mps.lang.actions.structure.NF_Model_CreateNewNodeOperation" flags="nn" index="15TzpJ">
        <child id="3757480014665175786" name="prototype" index="1wAxb0" />
      </concept>
      <concept id="1154465273778" name="jetbrains.mps.lang.actions.structure.ConceptFunctionParameter_parentNode" flags="nn" index="3bvxqY" />
      <concept id="1154622616118" name="jetbrains.mps.lang.actions.structure.SideTransformHintSubstitutePreconditionFunction" flags="in" index="3kRJcU" />
      <concept id="1112056943463" name="jetbrains.mps.lang.actions.structure.NodeSubstituteActions" flags="ng" index="3FK_9_">
        <child id="1112058057696" name="actionsBuilder" index="3FOPby" />
      </concept>
      <concept id="1112058030570" name="jetbrains.mps.lang.actions.structure.NodeSubstituteActionsBuilder" flags="ig" index="3FOIzC">
        <reference id="1112058088712" name="applicableConcept" index="3FOWKa" />
        <child id="1177324142645" name="part" index="tZc4B" />
      </concept>
      <concept id="1138079221458" name="jetbrains.mps.lang.actions.structure.SideTransformHintSubstituteActionsBuilder" flags="ig" index="3UNGvq">
        <reference id="1138079221462" name="applicableConcept" index="3UNGvu" />
        <child id="1177442283389" name="part" index="_1QTJ" />
        <child id="1154622757656" name="precondition" index="3kShCk" />
      </concept>
      <concept id="1138079416598" name="jetbrains.mps.lang.actions.structure.SideTransformHintSubstituteActions" flags="ng" index="3UOs0u">
        <child id="1138079416599" name="actionsBuilder" index="3UOs0v" />
      </concept>
    </language>
    <language id="7866978e-a0f0-4cc7-81bc-4d213d9375e1" name="jetbrains.mps.lang.smodel">
      <concept id="1177026924588" name="jetbrains.mps.lang.smodel.structure.RefConcept_Reference" flags="nn" index="chp4Y">
        <reference id="1177026940964" name="conceptDeclaration" index="cht4Q" />
      </concept>
      <concept id="1138411891628" name="jetbrains.mps.lang.smodel.structure.SNodeOperation" flags="nn" index="eCIE_">
        <child id="1144104376918" name="parameter" index="1xVPHs" />
      </concept>
      <concept id="1179409122411" name="jetbrains.mps.lang.smodel.structure.Node_ConceptMethodCall" flags="nn" index="2qgKlT" />
      <concept id="1138661924179" name="jetbrains.mps.lang.smodel.structure.Property_SetOperation" flags="nn" index="tyxLq">
        <child id="1138662048170" name="value" index="tz02z" />
      </concept>
      <concept id="1173122760281" name="jetbrains.mps.lang.smodel.structure.Node_GetAncestorsOperation" flags="nn" index="z$bX8" />
      <concept id="2396822768958367367" name="jetbrains.mps.lang.smodel.structure.AbstractTypeCastExpression" flags="nn" index="$5XWr">
        <reference id="6733348108486823428" name="concept" index="1m5ApE" />
        <child id="6733348108486823193" name="leftExpression" index="1m5AlR" />
      </concept>
      <concept id="1143235216708" name="jetbrains.mps.lang.smodel.structure.Model_CreateNewNodeOperation" flags="nn" index="I8ghe">
        <reference id="1143235391024" name="concept" index="I8UWU" />
      </concept>
      <concept id="1145383075378" name="jetbrains.mps.lang.smodel.structure.SNodeListType" flags="in" index="2I9FWS">
        <reference id="1145383142433" name="elementConcept" index="2I9WkF" />
      </concept>
      <concept id="1139613262185" name="jetbrains.mps.lang.smodel.structure.Node_GetParentOperation" flags="nn" index="1mfA1w" />
      <concept id="1139621453865" name="jetbrains.mps.lang.smodel.structure.Node_IsInstanceOfOperation" flags="nn" index="1mIQ4w">
        <child id="1177027386292" name="conceptArgument" index="cj9EA" />
      </concept>
      <concept id="1144101972840" name="jetbrains.mps.lang.smodel.structure.OperationParm_Concept" flags="ng" index="1xMEDy">
        <child id="1207343664468" name="conceptArgument" index="ri$Ld" />
      </concept>
      <concept id="1140137987495" name="jetbrains.mps.lang.smodel.structure.SNodeTypeCastExpression" flags="nn" index="1PxgMI" />
      <concept id="1138055754698" name="jetbrains.mps.lang.smodel.structure.SNodeType" flags="in" index="3Tqbb2">
        <reference id="1138405853777" name="concept" index="ehGHo" />
      </concept>
      <concept id="1138056022639" name="jetbrains.mps.lang.smodel.structure.SPropertyAccess" flags="nn" index="3TrcHB">
        <reference id="1138056395725" name="property" index="3TsBF5" />
      </concept>
      <concept id="1172420572800" name="jetbrains.mps.lang.smodel.structure.ConceptNodeType" flags="in" index="3THzug">
        <reference id="1180481110358" name="conceptDeclaraton" index="3qa414" />
      </concept>
    </language>
    <language id="ceab5195-25ea-4f22-9b92-103b95ca8c0c" name="jetbrains.mps.lang.core">
      <concept id="1169194658468" name="jetbrains.mps.lang.core.structure.INamedConcept" flags="ng" index="TrEIO">
        <property id="1169194664001" name="name" index="TrG5h" />
      </concept>
    </language>
    <language id="83888646-71ce-4f1c-9c53-c54016f6ad4f" name="jetbrains.mps.baseLanguage.collections">
      <concept id="1237721394592" name="jetbrains.mps.baseLanguage.collections.structure.AbstractContainerCreator" flags="nn" index="HWqM0">
        <child id="1237721435807" name="elementType" index="HW$YZ" />
      </concept>
      <concept id="1160600644654" name="jetbrains.mps.baseLanguage.collections.structure.ListCreatorWithInit" flags="nn" index="Tc6Ow" />
      <concept id="1165525191778" name="jetbrains.mps.baseLanguage.collections.structure.GetFirstOperation" flags="nn" index="1uHKPH" />
    </language>
  </registry>
  <node concept="3FK_9_" id="hX_JOBv">
    <property role="TrG5h" value="operationParameters" />
    <node concept="3FOIzC" id="hX_K17r" role="3FOPby">
      <ref role="3FOWKa" to="tpee:fz3vP1J" resolve="Expression" />
      <node concept="tYCnQ" id="hX_K3cK" role="tZc4B">
        <ref role="uz4UX" to="tpee:g76ryKb" resolve="ConceptFunctionParameter" />
        <node concept="yp2kI" id="hX_K6MK" role="uz6Si">
          <node concept="uNCsQ" id="hX_K6ML" role="ys1e2">
            <node concept="3clFbS" id="hX_K6MM" role="2VODD2">
              <node concept="3cpWs8" id="hX_K9Ay" role="3cqZAp">
                <node concept="3cpWsn" id="hX_K9Az" role="3cpWs9">
                  <property role="TrG5h" value="langTextGenComponents" />
                  <node concept="2I9FWS" id="hX_K9A$" role="1tU5fm">
                    <ref role="2I9WkF" to="2omo:hXbsvkv" resolve="LanguageTextGenDeclaration" />
                  </node>
                  <node concept="2OqwBi" id="hX_K9A_" role="33vP2m">
                    <node concept="3bvxqY" id="hX_K9AA" role="2Oq$k0" />
                    <node concept="z$bX8" id="hX_K9AB" role="2OqNvi">
                      <node concept="1xMEDy" id="hX_K9AC" role="1xVPHs">
                        <node concept="chp4Y" id="hXZLT6P" role="ri$Ld">
                          <ref role="cht4Q" to="2omo:hXbsvkv" resolve="LanguageTextGenDeclaration" />
                        </node>
                      </node>
                    </node>
                  </node>
                </node>
              </node>
              <node concept="3cpWs8" id="hX_K9AF" role="3cqZAp">
                <node concept="3cpWsn" id="hX_K9AG" role="3cpWs9">
                  <property role="TrG5h" value="langTextGen" />
                  <node concept="3Tqbb2" id="hX_K9AH" role="1tU5fm">
                    <ref role="ehGHo" to="2omo:hXbsvkv" resolve="LanguageTextGenDeclaration" />
                  </node>
                  <node concept="2OqwBi" id="hX_K9AI" role="33vP2m">
                    <node concept="37vLTw" id="3GM_nagTrE8" role="2Oq$k0">
                      <ref role="3cqZAo" node="hX_K9Az" resolve="langTextGenComponents" />
                    </node>
                    <node concept="1uHKPH" id="hX_K9AW" role="2OqNvi" />
                  </node>
                </node>
              </node>
              <node concept="3clFbJ" id="hX_K9AX" role="3cqZAp">
                <node concept="9aQIb" id="hX_K9AY" role="9aQIa">
                  <node concept="3clFbS" id="hX_K9AZ" role="9aQI4">
                    <node concept="3cpWs6" id="hX_K9B0" role="3cqZAp">
                      <node concept="2ShNRf" id="hX_K9B1" role="3cqZAk">
                        <node concept="Tc6Ow" id="hX_K9B2" role="2ShVmc">
                          <node concept="3THzug" id="hX_K9B3" role="HW$YZ">
                            <ref role="3qa414" to="tpee:g76ryKb" resolve="ConceptFunctionParameter" />
                          </node>
                        </node>
                      </node>
                    </node>
                  </node>
                </node>
                <node concept="3y3z36" id="hX_K9B4" role="3clFbw">
                  <node concept="10Nm6u" id="hX_K9B5" role="3uHU7w" />
                  <node concept="37vLTw" id="3GM_nagTtQs" role="3uHU7B">
                    <ref role="3cqZAo" node="hX_K9AG" resolve="langTextGen" />
                  </node>
                </node>
                <node concept="3clFbS" id="hX_K9B7" role="3clFbx">
                  <node concept="3cpWs6" id="hX_K9B8" role="3cqZAp">
                    <node concept="2OqwBi" id="hX_K9B9" role="3cqZAk">
                      <node concept="37vLTw" id="3GM_nagTB2i" role="2Oq$k0">
                        <ref role="3cqZAo" node="hX_K9AG" resolve="langTextGen" />
                      </node>
                      <node concept="2qgKlT" id="hXZLPpu" role="2OqNvi">
                        <ref role="37wK5l" to="wbvt:hXZLLl0" resolve="getParameters" />
                      </node>
                    </node>
                  </node>
                </node>
              </node>
            </node>
          </node>
        </node>
      </node>
    </node>
  </node>
  <node concept="3FK_9_" id="i0vk_vz">
    <property role="TrG5h" value="customAction" />
    <node concept="3FOIzC" id="i0vkDaq" role="3FOPby">
      <ref role="3FOWKa" to="2omo:i0la8a6" resolve="ConstantStringAppendPart" />
      <node concept="tYCnQ" id="i0vkW75" role="tZc4B">
        <ref role="uz4UX" to="2omo:i0la8a6" resolve="ConstantStringAppendPart" />
        <node concept="ucClh" id="i0vkZkV" role="uz6Si">
          <node concept="ucgPf" id="i0vkZkW" role="ucMEw">
            <node concept="3clFbS" id="i0vkZkX" role="2VODD2">
              <node concept="3cpWs8" id="i0vloT2" role="3cqZAp">
                <node concept="3cpWsn" id="i0vloT3" role="3cpWs9">
                  <property role="TrG5h" value="result" />
                  <node concept="3Tqbb2" id="i0vloT4" role="1tU5fm">
                    <ref role="ehGHo" to="2omo:i0la8a6" resolve="ConstantStringAppendPart" />
                  </node>
                  <node concept="2OqwBi" id="i0vloT5" role="33vP2m">
                    <node concept="1Q6Npb" id="i0vlusP" role="2Oq$k0" />
                    <node concept="15TzpJ" id="2b3Tt7jqkty" role="2OqNvi">
                      <ref role="I8UWU" to="2omo:i0la8a6" resolve="ConstantStringAppendPart" />
                      <node concept="GyYSE" id="2b3Tt7jqktz" role="1wAxb0" />
                    </node>
                  </node>
                </node>
              </node>
              <node concept="3clFbF" id="i0vloT9" role="3cqZAp">
                <node concept="2OqwBi" id="i0vloTa" role="3clFbG">
                  <node concept="2OqwBi" id="i0vloTb" role="2Oq$k0">
                    <node concept="37vLTw" id="3GM_nagTwby" role="2Oq$k0">
                      <ref role="3cqZAo" node="i0vloT3" resolve="result" />
                    </node>
                    <node concept="3TrcHB" id="i0vlyBG" role="2OqNvi">
                      <ref role="3TsBF5" to="2omo:i0lacEG" resolve="value" />
                    </node>
                  </node>
                  <node concept="tyxLq" id="i0vloTe" role="2OqNvi">
                    <node concept="2YIFZM" id="i0vloTf" role="tz02z">
                      <ref role="1Pybhc" to="18ew:~NameUtil" resolve="NameUtil" />
                      <ref role="37wK5l" to="18ew:~NameUtil.stripQuotes(java.lang.String,java.lang.String,java.lang.String):java.lang.String" resolve="stripQuotes" />
                      <node concept="ub8z3" id="i0vloTg" role="37wK5m" />
                      <node concept="Xl_RD" id="i0vloTh" role="37wK5m">
                        <property role="Xl_RC" value="\&quot;" />
                      </node>
                      <node concept="Xl_RD" id="i0vloTi" role="37wK5m">
                        <property role="Xl_RC" value="\&quot;" />
                      </node>
                    </node>
                  </node>
                </node>
              </node>
              <node concept="3cpWs6" id="i0vloTj" role="3cqZAp">
                <node concept="37vLTw" id="3GM_nagTzKe" role="3cqZAk">
                  <ref role="3cqZAo" node="i0vloT3" resolve="result" />
                </node>
              </node>
            </node>
          </node>
          <node concept="uaGSO" id="i0vl5h6" role="ucKa5">
            <node concept="3clFbS" id="i0vl5h7" role="2VODD2">
              <node concept="3clFbF" id="i0vl5WP" role="3cqZAp">
                <node concept="2OqwBi" id="i0vl6eW" role="3clFbG">
                  <node concept="ub8z3" id="i0vl5WQ" role="2Oq$k0" />
                  <node concept="liA8E" id="i0vl71w" role="2OqNvi">
                    <ref role="37wK5l" to="wyt6:~String.equals(java.lang.Object):boolean" resolve="equals" />
                    <node concept="Xl_RD" id="i0vl8Fu" role="37wK5m">
                      <property role="Xl_RC" value="\&quot;" />
                    </node>
                  </node>
                </node>
              </node>
            </node>
          </node>
          <node concept="uGdhv" id="2oyL7FXysuG" role="uGu3D">
            <node concept="3clFbS" id="2oyL7FXysuH" role="2VODD2">
              <node concept="3cpWs6" id="2oyL7FXysBN" role="3cqZAp">
                <node concept="ub8z3" id="2oyL7FXysPK" role="3cqZAk" />
              </node>
            </node>
          </node>
        </node>
      </node>
    </node>
  </node>
  <node concept="3UOs0u" id="i0X$IMO">
    <property role="TrG5h" value="addSeparator" />
    <node concept="3UNGvq" id="i0X$MUw" role="3UOs0v">
      <ref role="3UNGvu" to="tpee:fz3vP1J" resolve="Expression" />
      <node concept="3kRJcU" id="i0X$YCi" role="3kShCk">
        <node concept="3clFbS" id="i0X$YCj" role="2VODD2">
          <node concept="3clFbF" id="i0X$ZGF" role="3cqZAp">
            <node concept="2OqwBi" id="i0X_0fW" role="3clFbG">
              <node concept="2OqwBi" id="i0X$ZMO" role="2Oq$k0">
                <node concept="Cj7Ep" id="i0X$ZGG" role="2Oq$k0" />
                <node concept="1mfA1w" id="i0X_0b3" role="2OqNvi" />
              </node>
              <node concept="1mIQ4w" id="i0X_0I2" role="2OqNvi">
                <node concept="chp4Y" id="i0X_vtS" role="cj9EA">
                  <ref role="cht4Q" to="2omo:i0l9S6s" resolve="CollectionAppendPart" />
                </node>
              </node>
            </node>
          </node>
        </node>
      </node>
      <node concept="tYCnQ" id="i0X_zZJ" role="_1QTJ">
        <ref role="uz4UX" to="tpee:fz3vP1J" resolve="Expression" />
        <node concept="Cmt7Y" id="i0X_JuR" role="uz6Si">
          <node concept="Cnhdc" id="i0X_JuS" role="Cncma">
            <node concept="3clFbS" id="i0X_JuT" role="2VODD2">
              <node concept="3clFbF" id="i0XE27n" role="3cqZAp">
                <node concept="37vLTI" id="i0XE8xX" role="3clFbG">
                  <node concept="3clFbT" id="i0XE96p" role="37vLTx">
                    <property role="3clFbU" value="true" />
                  </node>
                  <node concept="2OqwBi" id="i0XE6jz" role="37vLTJ">
                    <node concept="1PxgMI" id="i0XE4Yz" role="2Oq$k0">
                      <ref role="1m5ApE" to="2omo:i0l9S6s" resolve="CollectionAppendPart" />
                      <node concept="2OqwBi" id="i0XE2jn" role="1m5AlR">
                        <node concept="Cj7Ep" id="i0XE27o" role="2Oq$k0" />
                        <node concept="1mfA1w" id="i0XE3ct" role="2OqNvi" />
                      </node>
                    </node>
                    <node concept="3TrcHB" id="i0XE81u" role="2OqNvi">
                      <ref role="3TsBF5" to="2omo:i0XA4av" resolve="withSeparator" />
                    </node>
                  </node>
                </node>
              </node>
              <node concept="3cpWs6" id="i0XEalh" role="3cqZAp">
                <node concept="Cj7Ep" id="i0XEaP3" role="3cqZAk" />
              </node>
            </node>
          </node>
          <node concept="2h1dTh" id="i0X_KTg" role="Cn2iK">
            <property role="2h1i$Z" value=" " />
          </node>
        </node>
      </node>
    </node>
  </node>
</model>

