<?xml version="1.0" encoding="UTF-8"?>
<model ref="r:0fa39ea9-f6a4-454d-9b16-ce07a09428ca(jetbrains.mps.lang.textGen.behavior)">
  <persistence version="9" />
  <languages>
    <use id="83888646-71ce-4f1c-9c53-c54016f6ad4f" name="jetbrains.mps.baseLanguage.collections" version="0" />
    <use id="af65afd8-f0dd-4942-87d9-63a55f2a9db1" name="jetbrains.mps.lang.behavior" version="0" />
    <use id="aee9cad2-acd4-4608-aef2-0004f6a1cdbd" name="jetbrains.mps.lang.actions" version="0" />
    <use id="7866978e-a0f0-4cc7-81bc-4d213d9375e1" name="jetbrains.mps.lang.smodel" version="4" />
    <use id="f3061a53-9226-4cc5-a443-f952ceaf5816" name="jetbrains.mps.baseLanguage" version="4" />
    <devkit ref="fbc25dd2-5da4-483a-8b19-70928e1b62d7(jetbrains.mps.devkit.general-purpose)" />
  </languages>
  <imports>
    <import index="2omo" ref="r:de0d3c0c-d049-41cf-bbf9-a920ba513cd3(jetbrains.mps.lang.textGen.structure)" />
    <import index="tpcu" ref="r:00000000-0000-4000-0000-011c89590282(jetbrains.mps.lang.core.behavior)" />
    <import index="tpce" ref="r:00000000-0000-4000-0000-011c89590292(jetbrains.mps.lang.structure.structure)" />
    <import index="tpcn" ref="r:00000000-0000-4000-0000-011c8959028b(jetbrains.mps.lang.structure.behavior)" />
    <import index="tpek" ref="r:00000000-0000-4000-0000-011c895902c0(jetbrains.mps.baseLanguage.behavior)" />
    <import index="tpee" ref="r:00000000-0000-4000-0000-011c895902ca(jetbrains.mps.baseLanguage.structure)" />
    <import index="tpck" ref="r:00000000-0000-4000-0000-011c89590288(jetbrains.mps.lang.core.structure)" implicit="true" />
    <import index="w1kc" ref="6ed54515-acc8-4d1e-a16c-9fd6cfe951ea/java:jetbrains.mps.smodel(MPS.Core/)" implicit="true" />
    <import index="yy4t" ref="6ed54515-acc8-4d1e-a16c-9fd6cfe951ea/java:jetbrains.mps.textGen(MPS.Core/)" implicit="true" />
  </imports>
  <registry>
    <language id="af65afd8-f0dd-4942-87d9-63a55f2a9db1" name="jetbrains.mps.lang.behavior">
      <concept id="1225194240794" name="jetbrains.mps.lang.behavior.structure.ConceptBehavior" flags="ng" index="13h7C7">
        <reference id="1225194240799" name="concept" index="13h7C2" />
        <child id="1225194240805" name="method" index="13h7CS" />
        <child id="1225194240801" name="constructor" index="13h7CW" />
      </concept>
      <concept id="1225194413805" name="jetbrains.mps.lang.behavior.structure.ConceptConstructorDeclaration" flags="in" index="13hLZK" />
      <concept id="1225194472830" name="jetbrains.mps.lang.behavior.structure.ConceptMethodDeclaration" flags="ng" index="13i0hz">
        <property id="5864038008284099149" name="isStatic" index="2Ki8OM" />
        <property id="1225194472833" name="isPrivate" index="13i0is" />
        <property id="1225194472832" name="isVirtual" index="13i0it" />
        <property id="1225194472834" name="isAbstract" index="13i0iv" />
        <reference id="1225194472831" name="overriddenMethod" index="13i0hy" />
      </concept>
      <concept id="1225194628440" name="jetbrains.mps.lang.behavior.structure.SuperNodeExpression" flags="nn" index="13iAh5">
        <reference id="5299096511375896640" name="superConcept" index="3eA5LN" />
      </concept>
      <concept id="1225194691553" name="jetbrains.mps.lang.behavior.structure.ThisNodeExpression" flags="nn" index="13iPFW" />
    </language>
    <language id="f3061a53-9226-4cc5-a443-f952ceaf5816" name="jetbrains.mps.baseLanguage">
      <concept id="1080223426719" name="jetbrains.mps.baseLanguage.structure.OrExpression" flags="nn" index="22lmx$" />
      <concept id="1082485599095" name="jetbrains.mps.baseLanguage.structure.BlockStatement" flags="nn" index="9aQIb">
        <child id="1082485599096" name="statements" index="9aQI4" />
      </concept>
      <concept id="1215693861676" name="jetbrains.mps.baseLanguage.structure.BaseAssignmentExpression" flags="nn" index="d038R">
        <child id="1068498886297" name="rValue" index="37vLTx" />
        <child id="1068498886295" name="lValue" index="37vLTJ" />
      </concept>
      <concept id="1154032098014" name="jetbrains.mps.baseLanguage.structure.AbstractLoopStatement" flags="nn" index="2LF5Ji">
        <child id="1154032183016" name="body" index="2LFqv$" />
      </concept>
      <concept id="1197027756228" name="jetbrains.mps.baseLanguage.structure.DotExpression" flags="nn" index="2OqwBi">
        <child id="1197027771414" name="operand" index="2Oq$k0" />
        <child id="1197027833540" name="operation" index="2OqNvi" />
      </concept>
      <concept id="1145552977093" name="jetbrains.mps.baseLanguage.structure.GenericNewExpression" flags="nn" index="2ShNRf">
        <child id="1145553007750" name="creator" index="2ShVmc" />
      </concept>
      <concept id="1137021947720" name="jetbrains.mps.baseLanguage.structure.ConceptFunction" flags="in" index="2VMwT0">
        <child id="1137022507850" name="body" index="2VODD2" />
      </concept>
      <concept id="1070534058343" name="jetbrains.mps.baseLanguage.structure.NullLiteral" flags="nn" index="10Nm6u" />
      <concept id="1070534644030" name="jetbrains.mps.baseLanguage.structure.BooleanType" flags="in" index="10P_77" />
      <concept id="1070534934090" name="jetbrains.mps.baseLanguage.structure.CastExpression" flags="nn" index="10QFUN">
        <child id="1070534934091" name="type" index="10QFUM" />
        <child id="1070534934092" name="expression" index="10QFUP" />
      </concept>
      <concept id="1068431474542" name="jetbrains.mps.baseLanguage.structure.VariableDeclaration" flags="ng" index="33uBYm">
        <child id="1068431790190" name="initializer" index="33vP2m" />
      </concept>
      <concept id="1068498886296" name="jetbrains.mps.baseLanguage.structure.VariableReference" flags="nn" index="37vLTw">
        <reference id="1068581517664" name="variableDeclaration" index="3cqZAo" />
      </concept>
      <concept id="1068498886292" name="jetbrains.mps.baseLanguage.structure.ParameterDeclaration" flags="ir" index="37vLTG" />
      <concept id="1068498886294" name="jetbrains.mps.baseLanguage.structure.AssignmentExpression" flags="nn" index="37vLTI" />
      <concept id="1225271177708" name="jetbrains.mps.baseLanguage.structure.StringType" flags="in" index="17QB3L" />
      <concept id="4972933694980447171" name="jetbrains.mps.baseLanguage.structure.BaseVariableDeclaration" flags="ng" index="19Szcq">
        <child id="5680397130376446158" name="type" index="1tU5fm" />
      </concept>
      <concept id="1068580123132" name="jetbrains.mps.baseLanguage.structure.BaseMethodDeclaration" flags="ng" index="3clF44">
        <child id="1068580123133" name="returnType" index="3clF45" />
        <child id="1068580123134" name="parameter" index="3clF46" />
        <child id="1068580123135" name="body" index="3clF47" />
      </concept>
      <concept id="1068580123152" name="jetbrains.mps.baseLanguage.structure.EqualsExpression" flags="nn" index="3clFbC" />
      <concept id="1068580123155" name="jetbrains.mps.baseLanguage.structure.ExpressionStatement" flags="nn" index="3clFbF">
        <child id="1068580123156" name="expression" index="3clFbG" />
      </concept>
      <concept id="1068580123159" name="jetbrains.mps.baseLanguage.structure.IfStatement" flags="nn" index="3clFbJ">
        <child id="1082485599094" name="ifFalseStatement" index="9aQIa" />
        <child id="1068580123160" name="condition" index="3clFbw" />
        <child id="1068580123161" name="ifTrue" index="3clFbx" />
      </concept>
      <concept id="1068580123136" name="jetbrains.mps.baseLanguage.structure.StatementList" flags="sn" stub="5293379017992965193" index="3clFbS">
        <child id="1068581517665" name="statement" index="3cqZAp" />
      </concept>
      <concept id="1068580123137" name="jetbrains.mps.baseLanguage.structure.BooleanConstant" flags="nn" index="3clFbT">
        <property id="1068580123138" name="value" index="3clFbU" />
      </concept>
      <concept id="1068581242878" name="jetbrains.mps.baseLanguage.structure.ReturnStatement" flags="nn" index="3cpWs6">
        <child id="1068581517676" name="expression" index="3cqZAk" />
      </concept>
      <concept id="1068581242864" name="jetbrains.mps.baseLanguage.structure.LocalVariableDeclarationStatement" flags="nn" index="3cpWs8">
        <child id="1068581242865" name="localVariableDeclaration" index="3cpWs9" />
      </concept>
      <concept id="1068581242863" name="jetbrains.mps.baseLanguage.structure.LocalVariableDeclaration" flags="nr" index="3cpWsn" />
      <concept id="1068581517677" name="jetbrains.mps.baseLanguage.structure.VoidType" flags="in" index="3cqZAl" />
      <concept id="1079359253375" name="jetbrains.mps.baseLanguage.structure.ParenthesizedExpression" flags="nn" index="1eOMI4">
        <child id="1079359253376" name="expression" index="1eOMHV" />
      </concept>
      <concept id="1081516740877" name="jetbrains.mps.baseLanguage.structure.NotExpression" flags="nn" index="3fqX7Q">
        <child id="1081516765348" name="expression" index="3fr31v" />
      </concept>
      <concept id="1204053956946" name="jetbrains.mps.baseLanguage.structure.IMethodCall" flags="ng" index="1ndlxa">
        <reference id="1068499141037" name="baseMethodDeclaration" index="37wK5l" />
        <child id="1068499141038" name="actualArgument" index="37wK5m" />
      </concept>
      <concept id="1107535904670" name="jetbrains.mps.baseLanguage.structure.ClassifierType" flags="in" index="3uibUv">
        <reference id="1107535924139" name="classifier" index="3uigEE" />
      </concept>
      <concept id="1081773326031" name="jetbrains.mps.baseLanguage.structure.BinaryOperation" flags="nn" index="3uHJSO">
        <child id="1081773367579" name="rightExpression" index="3uHU7w" />
        <child id="1081773367580" name="leftExpression" index="3uHU7B" />
      </concept>
      <concept id="1073239437375" name="jetbrains.mps.baseLanguage.structure.NotEqualsExpression" flags="nn" index="3y3z36" />
      <concept id="1178549954367" name="jetbrains.mps.baseLanguage.structure.IVisible" flags="ng" index="1B3ioH">
        <child id="1178549979242" name="visibility" index="1B3o_S" />
      </concept>
      <concept id="1144226303539" name="jetbrains.mps.baseLanguage.structure.ForeachStatement" flags="nn" index="1DcWWT">
        <child id="1144226360166" name="iterable" index="1DdaDG" />
      </concept>
      <concept id="1144230876926" name="jetbrains.mps.baseLanguage.structure.AbstractForStatement" flags="nn" index="1DupvO">
        <child id="1144230900587" name="variable" index="1Duv9x" />
      </concept>
      <concept id="6329021646629104957" name="jetbrains.mps.baseLanguage.structure.TextCommentPart" flags="nn" index="3SKdUq">
        <property id="6329021646629104958" name="text" index="3SKdUp" />
      </concept>
      <concept id="6329021646629104954" name="jetbrains.mps.baseLanguage.structure.SingleLineComment" flags="nn" index="3SKdUt">
        <child id="6329021646629175155" name="commentPart" index="3SKWNk" />
      </concept>
      <concept id="1146644602865" name="jetbrains.mps.baseLanguage.structure.PublicVisibility" flags="nn" index="3Tm1VV" />
      <concept id="1146644623116" name="jetbrains.mps.baseLanguage.structure.PrivateVisibility" flags="nn" index="3Tm6S6" />
      <concept id="1080120340718" name="jetbrains.mps.baseLanguage.structure.AndExpression" flags="nn" index="1Wc70l" />
    </language>
    <language id="3a13115c-633c-4c5c-bbcc-75c4219e9555" name="jetbrains.mps.lang.quotation">
      <concept id="1196350785113" name="jetbrains.mps.lang.quotation.structure.Quotation" flags="nn" index="2c44tf">
        <child id="1196350785114" name="quotedNode" index="2c44tc" />
      </concept>
      <concept id="5455284157993863837" name="jetbrains.mps.lang.quotation.structure.NodeBuilder" flags="nn" index="2pJPEk">
        <child id="5455284157993863838" name="quotedNode" index="2pJPEn" />
      </concept>
      <concept id="5455284157993863840" name="jetbrains.mps.lang.quotation.structure.NodeBuilderNode" flags="nn" index="2pJPED">
        <reference id="5455284157993910961" name="concept" index="2pJxaS" />
      </concept>
    </language>
    <language id="aee9cad2-acd4-4608-aef2-0004f6a1cdbd" name="jetbrains.mps.lang.actions">
      <concept id="767145758118872830" name="jetbrains.mps.lang.actions.structure.NF_Link_SetNewChildOperation" flags="nn" index="2DeJnY" />
    </language>
    <language id="7866978e-a0f0-4cc7-81bc-4d213d9375e1" name="jetbrains.mps.lang.smodel">
      <concept id="1177026924588" name="jetbrains.mps.lang.smodel.structure.RefConcept_Reference" flags="nn" index="chp4Y">
        <reference id="1177026940964" name="conceptDeclaration" index="cht4Q" />
      </concept>
      <concept id="1138411891628" name="jetbrains.mps.lang.smodel.structure.SNodeOperation" flags="nn" index="eCIE_">
        <child id="1144104376918" name="parameter" index="1xVPHs" />
      </concept>
      <concept id="1140725362528" name="jetbrains.mps.lang.smodel.structure.Link_SetTargetOperation" flags="nn" index="2oxUTD">
        <child id="1140725362529" name="linkTarget" index="2oxUTC" />
      </concept>
      <concept id="1179409122411" name="jetbrains.mps.lang.smodel.structure.Node_ConceptMethodCall" flags="nn" index="2qgKlT" />
      <concept id="2396822768958367367" name="jetbrains.mps.lang.smodel.structure.AbstractTypeCastExpression" flags="nn" index="$5XWr">
        <reference id="6733348108486823428" name="concept" index="1m5ApE" />
        <child id="6733348108486823193" name="leftExpression" index="1m5AlR" />
      </concept>
      <concept id="1143234257716" name="jetbrains.mps.lang.smodel.structure.Node_GetModelOperation" flags="nn" index="I4A8Y" />
      <concept id="1145383075378" name="jetbrains.mps.lang.smodel.structure.SNodeListType" flags="in" index="2I9FWS">
        <reference id="1145383142433" name="elementConcept" index="2I9WkF" />
      </concept>
      <concept id="1171315804604" name="jetbrains.mps.lang.smodel.structure.Model_RootsOperation" flags="nn" index="2RRcyG">
        <reference id="1171315804605" name="concept" index="2RRcyH" />
      </concept>
      <concept id="1145567426890" name="jetbrains.mps.lang.smodel.structure.SNodeListCreator" flags="nn" index="2T8Vx0">
        <child id="1145567471833" name="createdType" index="2T96Bj" />
      </concept>
      <concept id="1171407110247" name="jetbrains.mps.lang.smodel.structure.Node_GetAncestorOperation" flags="nn" index="2Xjw5R" />
      <concept id="1139621453865" name="jetbrains.mps.lang.smodel.structure.Node_IsInstanceOfOperation" flags="nn" index="1mIQ4w">
        <child id="1177027386292" name="conceptArgument" index="cj9EA" />
      </concept>
      <concept id="1171999116870" name="jetbrains.mps.lang.smodel.structure.Node_IsNullOperation" flags="nn" index="3w_OXm" />
      <concept id="1144101972840" name="jetbrains.mps.lang.smodel.structure.OperationParm_Concept" flags="ng" index="1xMEDy">
        <child id="1207343664468" name="conceptArgument" index="ri$Ld" />
      </concept>
      <concept id="1180636770613" name="jetbrains.mps.lang.smodel.structure.SNodeCreator" flags="nn" index="3zrR0B">
        <child id="1180636770616" name="createdType" index="3zrR0E" />
      </concept>
      <concept id="1219352745532" name="jetbrains.mps.lang.smodel.structure.NodeRefExpression" flags="nn" index="3B5_sB">
        <reference id="1219352800908" name="referentNode" index="3B5MYn" />
      </concept>
      <concept id="1172323065820" name="jetbrains.mps.lang.smodel.structure.Node_GetConceptOperation" flags="nn" index="3NT_Vc" />
      <concept id="1140137987495" name="jetbrains.mps.lang.smodel.structure.SNodeTypeCastExpression" flags="nn" index="1PxgMI" />
      <concept id="1138055754698" name="jetbrains.mps.lang.smodel.structure.SNodeType" flags="in" index="3Tqbb2">
        <reference id="1138405853777" name="concept" index="ehGHo" />
      </concept>
      <concept id="1138056022639" name="jetbrains.mps.lang.smodel.structure.SPropertyAccess" flags="nn" index="3TrcHB">
        <reference id="1138056395725" name="property" index="3TsBF5" />
      </concept>
      <concept id="1138056143562" name="jetbrains.mps.lang.smodel.structure.SLinkAccess" flags="nn" index="3TrEf2">
        <reference id="1138056516764" name="link" index="3Tt5mk" />
      </concept>
      <concept id="1138056282393" name="jetbrains.mps.lang.smodel.structure.SLinkListAccess" flags="nn" index="3Tsc0h">
        <reference id="1138056546658" name="link" index="3TtcxE" />
      </concept>
      <concept id="1172420572800" name="jetbrains.mps.lang.smodel.structure.ConceptNodeType" flags="in" index="3THzug">
        <reference id="1180481110358" name="conceptDeclaraton" index="3qa414" />
      </concept>
    </language>
    <language id="ceab5195-25ea-4f22-9b92-103b95ca8c0c" name="jetbrains.mps.lang.core">
      <concept id="1133920641626" name="jetbrains.mps.lang.core.structure.BaseConcept" flags="ng" index="2VYdi">
        <property id="1193676396447" name="virtualPackage" index="3GE5qa" />
      </concept>
      <concept id="1169194658468" name="jetbrains.mps.lang.core.structure.INamedConcept" flags="ng" index="TrEIO">
        <property id="1169194664001" name="name" index="TrG5h" />
      </concept>
    </language>
    <language id="83888646-71ce-4f1c-9c53-c54016f6ad4f" name="jetbrains.mps.baseLanguage.collections">
      <concept id="540871147943773365" name="jetbrains.mps.baseLanguage.collections.structure.SingleArgumentSequenceOperation" flags="nn" index="25WWJ4">
        <child id="540871147943773366" name="argument" index="25WWJ7" />
      </concept>
      <concept id="1151688443754" name="jetbrains.mps.baseLanguage.collections.structure.ListType" flags="in" index="_YKpA">
        <child id="1151688676805" name="elementType" index="_ZDj9" />
      </concept>
      <concept id="1237721394592" name="jetbrains.mps.baseLanguage.collections.structure.AbstractContainerCreator" flags="nn" index="HWqM0">
        <child id="1237721435807" name="elementType" index="HW$YZ" />
      </concept>
      <concept id="1160600644654" name="jetbrains.mps.baseLanguage.collections.structure.ListCreatorWithInit" flags="nn" index="Tc6Ow" />
      <concept id="1160612413312" name="jetbrains.mps.baseLanguage.collections.structure.AddElementOperation" flags="nn" index="TSZUe" />
      <concept id="1160666733551" name="jetbrains.mps.baseLanguage.collections.structure.AddAllElementsOperation" flags="nn" index="X8dFx" />
    </language>
  </registry>
  <node concept="13h7C7" id="hXvw5yC">
    <property role="3GE5qa" value="operation" />
    <ref role="13h7C2" to="2omo:hXbweBj" resolve="OperationDeclaration" />
    <node concept="13i0hz" id="hXvVOgq" role="13h7CS">
      <property role="TrG5h" value="isReturnsVoid" />
      <ref role="13i0hy" to="tpek:hX_$1pM" resolve="isReturnsVoid" />
      <node concept="3clFbS" id="hXvVOgs" role="3clF47">
        <node concept="3cpWs6" id="hXvVQm4" role="3cqZAp">
          <node concept="3clFbT" id="hXvVQNp" role="3cqZAk">
            <property role="3clFbU" value="true" />
          </node>
        </node>
      </node>
      <node concept="10P_77" id="i0XeCAA" role="3clF45" />
      <node concept="3Tm1VV" id="i0XeCAB" role="1B3o_S" />
    </node>
    <node concept="13i0hz" id="hXvYrFq" role="13h7CS">
      <property role="TrG5h" value="getPresentation" />
      <ref role="13i0hy" to="tpcu:hEwIMiw" resolve="getPresentation" />
      <node concept="3clFbS" id="hXvYrFs" role="3clF47">
        <node concept="3cpWs6" id="hXvYUne" role="3cqZAp">
          <node concept="2OqwBi" id="hXvYVmJ" role="3cqZAk">
            <node concept="13iPFW" id="hXvYV9j" role="2Oq$k0" />
            <node concept="3TrcHB" id="hXvYW1i" role="2OqNvi">
              <ref role="3TsBF5" to="2omo:hXvRNJH" resolve="operationName" />
            </node>
          </node>
        </node>
      </node>
      <node concept="17QB3L" id="18nccIwC3Z4" role="3clF45" />
      <node concept="3Tm1VV" id="hXvYsyp" role="1B3o_S" />
    </node>
    <node concept="13hLZK" id="hXvw5yD" role="13h7CW">
      <node concept="3clFbS" id="hXvw5yE" role="2VODD2">
        <node concept="3clFbF" id="hXvw86i" role="3cqZAp">
          <node concept="37vLTI" id="hXvw9Sc" role="3clFbG">
            <node concept="2ShNRf" id="hXvwaX6" role="37vLTx">
              <node concept="3zrR0B" id="hXvwcwX" role="2ShVmc">
                <node concept="3Tqbb2" id="hXvwcwY" role="3zrR0E">
                  <ref role="ehGHo" to="tpee:fzcqZ_H" resolve="VoidType" />
                </node>
              </node>
            </node>
            <node concept="2OqwBi" id="hXvw8ld" role="37vLTJ">
              <node concept="13iPFW" id="hXvw86j" role="2Oq$k0" />
              <node concept="3TrEf2" id="hXvw98j" role="2OqNvi">
                <ref role="3Tt5mk" to="tpee:fzclF7X" />
              </node>
            </node>
          </node>
        </node>
      </node>
    </node>
  </node>
  <node concept="13h7C7" id="hXvA$3h">
    <property role="3GE5qa" value="root" />
    <ref role="13h7C2" to="2omo:hXbsvkv" resolve="LanguageTextGenDeclaration" />
    <node concept="13i0hz" id="hXZLLl0" role="13h7CS">
      <property role="13i0is" value="false" />
      <property role="TrG5h" value="getParameters" />
      <property role="13i0it" value="false" />
      <node concept="_YKpA" id="hXZLLl1" role="3clF45">
        <node concept="3THzug" id="hXZLLl2" role="_ZDj9">
          <ref role="3qa414" to="tpee:g76ryKb" resolve="ConceptFunctionParameter" />
        </node>
      </node>
      <node concept="3clFbS" id="hXZLLl3" role="3clF47">
        <node concept="3clFbJ" id="hXZLLl4" role="3cqZAp">
          <node concept="3clFbC" id="hXZLLl5" role="3clFbw">
            <node concept="10Nm6u" id="hXZLLl6" role="3uHU7w" />
            <node concept="13iPFW" id="hXZLLl7" role="3uHU7B" />
          </node>
          <node concept="3clFbS" id="hXZLLl8" role="3clFbx">
            <node concept="3cpWs6" id="hXZLLl9" role="3cqZAp">
              <node concept="2ShNRf" id="hXZLLla" role="3cqZAk">
                <node concept="Tc6Ow" id="hXZLLlb" role="2ShVmc">
                  <node concept="3THzug" id="hXZLLlc" role="HW$YZ">
                    <ref role="3qa414" to="tpee:g76ryKb" resolve="ConceptFunctionParameter" />
                  </node>
                </node>
              </node>
            </node>
          </node>
        </node>
        <node concept="3cpWs8" id="hXZLLld" role="3cqZAp">
          <node concept="3cpWsn" id="hXZLLle" role="3cpWs9">
            <property role="TrG5h" value="result" />
            <node concept="2I9FWS" id="hXZLLlf" role="1tU5fm">
              <ref role="2I9WkF" to="tpce:f_TIwhg" resolve="ConceptDeclaration" />
            </node>
            <node concept="2ShNRf" id="hXZLLlg" role="33vP2m">
              <node concept="2T8Vx0" id="hXZLLlh" role="2ShVmc">
                <node concept="2I9FWS" id="hXZLLli" role="2T96Bj">
                  <ref role="2I9WkF" to="tpce:f_TIwhg" resolve="ConceptDeclaration" />
                </node>
              </node>
            </node>
          </node>
        </node>
        <node concept="3clFbF" id="hXZLLlj" role="3cqZAp">
          <node concept="2OqwBi" id="hXZLLlk" role="3clFbG">
            <node concept="37vLTw" id="3GM_nagTuYA" role="2Oq$k0">
              <ref role="3cqZAo" node="hXZLLle" resolve="result" />
            </node>
            <node concept="X8dFx" id="hXZLLlm" role="2OqNvi">
              <node concept="2OqwBi" id="2D1PBM_bAqt" role="25WWJ7">
                <node concept="2OqwBi" id="2D1PBM_bAqu" role="2Oq$k0">
                  <node concept="13iPFW" id="2D1PBM_bAqv" role="2Oq$k0" />
                  <node concept="3NT_Vc" id="2D1PBM_bAqw" role="2OqNvi" />
                </node>
                <node concept="2qgKlT" id="2D1PBM_bAqx" role="2OqNvi">
                  <ref role="37wK5l" node="2D1PBM_bxIF" resolve="getApplicableHiddenParameter" />
                </node>
              </node>
            </node>
          </node>
        </node>
        <node concept="3cpWs6" id="hXZLLlq" role="3cqZAp">
          <node concept="10QFUN" id="hXZLLlr" role="3cqZAk">
            <node concept="_YKpA" id="hXZLLls" role="10QFUM">
              <node concept="3THzug" id="hXZLLlt" role="_ZDj9">
                <ref role="3qa414" to="tpee:g76ryKb" resolve="ConceptFunctionParameter" />
              </node>
            </node>
            <node concept="37vLTw" id="3GM_nagTzwl" role="10QFUP">
              <ref role="3cqZAo" node="hXZLLle" resolve="result" />
            </node>
          </node>
        </node>
      </node>
      <node concept="3Tm1VV" id="hXZLLlv" role="1B3o_S" />
    </node>
    <node concept="13i0hz" id="hXYGUJX" role="13h7CS">
      <property role="TrG5h" value="getAvailableOperations" />
      <property role="13i0it" value="false" />
      <ref role="13i0hy" node="hXYHpEa" resolve="getAvailableOperations" />
      <node concept="3clFbS" id="hXYGUJZ" role="3clF47">
        <node concept="3cpWs8" id="hXYGUK0" role="3cqZAp">
          <node concept="3cpWsn" id="hXYGUK1" role="3cpWs9">
            <property role="TrG5h" value="result" />
            <node concept="2I9FWS" id="hXYGUK2" role="1tU5fm">
              <ref role="2I9WkF" to="2omo:hXbweBj" resolve="OperationDeclaration" />
            </node>
            <node concept="2ShNRf" id="hXYGUK3" role="33vP2m">
              <node concept="2T8Vx0" id="hXYGUK4" role="2ShVmc">
                <node concept="2I9FWS" id="hXYGUK5" role="2T96Bj">
                  <ref role="2I9WkF" to="2omo:hXbweBj" resolve="OperationDeclaration" />
                </node>
              </node>
            </node>
          </node>
        </node>
        <node concept="3cpWs8" id="hXYGUK6" role="3cqZAp">
          <node concept="3cpWsn" id="hXYGUK7" role="3cpWs9">
            <property role="TrG5h" value="list" />
            <node concept="2I9FWS" id="hXYGUK8" role="1tU5fm">
              <ref role="2I9WkF" to="2omo:hXbsvkv" resolve="LanguageTextGenDeclaration" />
            </node>
            <node concept="2OqwBi" id="hXYGUK9" role="33vP2m">
              <node concept="13iPFW" id="hXYGUKa" role="2Oq$k0" />
              <node concept="2qgKlT" id="hXYGUKb" role="2OqNvi">
                <ref role="37wK5l" node="hXYGUL$" resolve="getBaseTextGenComponents" />
                <node concept="2ShNRf" id="hXYGUKc" role="37wK5m">
                  <node concept="2T8Vx0" id="hXYGUKd" role="2ShVmc">
                    <node concept="2I9FWS" id="hXYGUKe" role="2T96Bj">
                      <ref role="2I9WkF" to="2omo:hXbsvkv" resolve="LanguageTextGenDeclaration" />
                    </node>
                  </node>
                </node>
                <node concept="13iPFW" id="hXYGUKg" role="37wK5m" />
              </node>
            </node>
          </node>
        </node>
        <node concept="1DcWWT" id="hXYGUKi" role="3cqZAp">
          <node concept="3clFbS" id="hXYGUKj" role="2LFqv$">
            <node concept="1DcWWT" id="hXYGUKk" role="3cqZAp">
              <node concept="3clFbS" id="hXYGUKl" role="2LFqv$">
                <node concept="3clFbJ" id="hXYGUKm" role="3cqZAp">
                  <node concept="3clFbS" id="hXYGUKn" role="3clFbx">
                    <node concept="3clFbF" id="hXYGUKo" role="3cqZAp">
                      <node concept="2OqwBi" id="hXYGUKp" role="3clFbG">
                        <node concept="37vLTw" id="3GM_nagTtQO" role="2Oq$k0">
                          <ref role="3cqZAo" node="hXYGUK1" resolve="result" />
                        </node>
                        <node concept="TSZUe" id="hXYGUKr" role="2OqNvi">
                          <node concept="37vLTw" id="3GM_nagTyAR" role="25WWJ7">
                            <ref role="3cqZAo" node="hXYGUK_" resolve="func" />
                          </node>
                        </node>
                      </node>
                    </node>
                  </node>
                  <node concept="3y3z36" id="hXYGUKt" role="3clFbw">
                    <node concept="10Nm6u" id="hXYGUKu" role="3uHU7w" />
                    <node concept="2OqwBi" id="hXYGUKv" role="3uHU7B">
                      <node concept="37vLTw" id="3GM_nagTAKS" role="2Oq$k0">
                        <ref role="3cqZAo" node="hXYGUK_" resolve="func" />
                      </node>
                      <node concept="3TrcHB" id="hXYGUKx" role="2OqNvi">
                        <ref role="3TsBF5" to="tpck:h0TrG11" resolve="name" />
                      </node>
                    </node>
                  </node>
                </node>
              </node>
              <node concept="2OqwBi" id="hXYGUKy" role="1DdaDG">
                <node concept="37vLTw" id="3GM_nagTzjb" role="2Oq$k0">
                  <ref role="3cqZAo" node="hXYGUKJ" resolve="baseTextGen" />
                </node>
                <node concept="3Tsc0h" id="hXYGUK$" role="2OqNvi">
                  <ref role="3TtcxE" to="2omo:hXbwxZ5" />
                </node>
              </node>
              <node concept="3cpWsn" id="hXYGUK_" role="1Duv9x">
                <property role="TrG5h" value="func" />
                <node concept="3Tqbb2" id="hXYGUKA" role="1tU5fm">
                  <ref role="ehGHo" to="2omo:hXbweBj" resolve="OperationDeclaration" />
                </node>
              </node>
            </node>
            <node concept="3clFbF" id="hXYGUKB" role="3cqZAp">
              <node concept="2OqwBi" id="hXYGUKC" role="3clFbG">
                <node concept="37vLTw" id="3GM_nagTwT0" role="2Oq$k0">
                  <ref role="3cqZAo" node="hXYGUK1" resolve="result" />
                </node>
                <node concept="X8dFx" id="hXYGUKE" role="2OqNvi">
                  <node concept="2OqwBi" id="hXYGUKF" role="25WWJ7">
                    <node concept="37vLTw" id="3GM_nagTu7g" role="2Oq$k0">
                      <ref role="3cqZAo" node="hXYGUKJ" resolve="baseTextGen" />
                    </node>
                    <node concept="3Tsc0h" id="hXYGUKH" role="2OqNvi">
                      <ref role="3TtcxE" to="2omo:hXbwxZ5" />
                    </node>
                  </node>
                </node>
              </node>
            </node>
          </node>
          <node concept="37vLTw" id="3GM_nagT$6W" role="1DdaDG">
            <ref role="3cqZAo" node="hXYGUK7" resolve="list" />
          </node>
          <node concept="3cpWsn" id="hXYGUKJ" role="1Duv9x">
            <property role="TrG5h" value="baseTextGen" />
            <node concept="3Tqbb2" id="hXYGUKK" role="1tU5fm">
              <ref role="ehGHo" to="2omo:hXbsvkv" resolve="LanguageTextGenDeclaration" />
            </node>
          </node>
        </node>
        <node concept="3cpWs6" id="hXYGUKL" role="3cqZAp">
          <node concept="37vLTw" id="3GM_nagTtYV" role="3cqZAk">
            <ref role="3cqZAo" node="hXYGUK1" resolve="result" />
          </node>
        </node>
      </node>
      <node concept="2I9FWS" id="hXYHB_5" role="3clF45">
        <ref role="2I9WkF" to="2omo:hXbweBj" resolve="OperationDeclaration" />
      </node>
      <node concept="3Tm1VV" id="hXYHB_6" role="1B3o_S" />
    </node>
    <node concept="13i0hz" id="hXYGUKO" role="13h7CS">
      <property role="TrG5h" value="getAvailableFunctions" />
      <property role="13i0it" value="false" />
      <node concept="2I9FWS" id="hXYGUKP" role="3clF45">
        <ref role="2I9WkF" to="2omo:hXJqxz$" resolve="UtilityMethodDeclaration" />
      </node>
      <node concept="3clFbS" id="hXYGUKQ" role="3clF47">
        <node concept="3cpWs8" id="hXYGUKR" role="3cqZAp">
          <node concept="3cpWsn" id="hXYGUKS" role="3cpWs9">
            <property role="TrG5h" value="result" />
            <node concept="2I9FWS" id="hXYGUKT" role="1tU5fm">
              <ref role="2I9WkF" to="2omo:hXJqxz$" resolve="UtilityMethodDeclaration" />
            </node>
            <node concept="2ShNRf" id="hXYGUKU" role="33vP2m">
              <node concept="2T8Vx0" id="hXYGUKV" role="2ShVmc">
                <node concept="2I9FWS" id="hXYGUKW" role="2T96Bj">
                  <ref role="2I9WkF" to="2omo:hXJqxz$" resolve="UtilityMethodDeclaration" />
                </node>
              </node>
            </node>
          </node>
        </node>
        <node concept="3cpWs8" id="hXYGUKX" role="3cqZAp">
          <node concept="3cpWsn" id="hXYGUKY" role="3cpWs9">
            <property role="TrG5h" value="list" />
            <node concept="2I9FWS" id="hXYGUKZ" role="1tU5fm">
              <ref role="2I9WkF" to="2omo:hXbsvkv" resolve="LanguageTextGenDeclaration" />
            </node>
            <node concept="2OqwBi" id="hXYGUL0" role="33vP2m">
              <node concept="13iPFW" id="hXYGUL1" role="2Oq$k0" />
              <node concept="2qgKlT" id="hXYGUL2" role="2OqNvi">
                <ref role="37wK5l" node="hXYGUL$" resolve="getBaseTextGenComponents" />
                <node concept="2ShNRf" id="hXYGUL3" role="37wK5m">
                  <node concept="2T8Vx0" id="hXYGUL4" role="2ShVmc">
                    <node concept="2I9FWS" id="hXYGUL5" role="2T96Bj">
                      <ref role="2I9WkF" to="2omo:hXbsvkv" resolve="LanguageTextGenDeclaration" />
                    </node>
                  </node>
                </node>
                <node concept="2OqwBi" id="hXYGUL6" role="37wK5m">
                  <node concept="13iPFW" id="hXYGUL7" role="2Oq$k0" />
                  <node concept="3TrEf2" id="hXYHhd4" role="2OqNvi">
                    <ref role="3Tt5mk" to="2omo:hXYGkbG" />
                  </node>
                </node>
              </node>
            </node>
          </node>
        </node>
        <node concept="1DcWWT" id="hXYGUL9" role="3cqZAp">
          <node concept="3clFbS" id="hXYGULa" role="2LFqv$">
            <node concept="1DcWWT" id="hXYGULb" role="3cqZAp">
              <node concept="3clFbS" id="hXYGULc" role="2LFqv$">
                <node concept="3clFbJ" id="hXYGULd" role="3cqZAp">
                  <node concept="3clFbS" id="hXYGULe" role="3clFbx">
                    <node concept="3clFbF" id="hXYGULf" role="3cqZAp">
                      <node concept="2OqwBi" id="hXYGULg" role="3clFbG">
                        <node concept="37vLTw" id="3GM_nagTyGy" role="2Oq$k0">
                          <ref role="3cqZAo" node="hXYGUKS" resolve="result" />
                        </node>
                        <node concept="TSZUe" id="hXYGULi" role="2OqNvi">
                          <node concept="37vLTw" id="3GM_nagTAaR" role="25WWJ7">
                            <ref role="3cqZAo" node="hXYGULs" resolve="func" />
                          </node>
                        </node>
                      </node>
                    </node>
                  </node>
                  <node concept="3y3z36" id="hXYGULk" role="3clFbw">
                    <node concept="10Nm6u" id="hXYGULl" role="3uHU7w" />
                    <node concept="2OqwBi" id="hXYGULm" role="3uHU7B">
                      <node concept="37vLTw" id="3GM_nagTyVK" role="2Oq$k0">
                        <ref role="3cqZAo" node="hXYGULs" resolve="func" />
                      </node>
                      <node concept="3TrcHB" id="hXYGULo" role="2OqNvi">
                        <ref role="3TsBF5" to="tpck:h0TrG11" resolve="name" />
                      </node>
                    </node>
                  </node>
                </node>
              </node>
              <node concept="2OqwBi" id="hXYGULp" role="1DdaDG">
                <node concept="37vLTw" id="3GM_nagTrmP" role="2Oq$k0">
                  <ref role="3cqZAo" node="hXYGULv" resolve="baseTextGen" />
                </node>
                <node concept="3Tsc0h" id="hXYGULr" role="2OqNvi">
                  <ref role="3TtcxE" to="2omo:hXJy62X" />
                </node>
              </node>
              <node concept="3cpWsn" id="hXYGULs" role="1Duv9x">
                <property role="TrG5h" value="func" />
                <node concept="3Tqbb2" id="hXYGULt" role="1tU5fm">
                  <ref role="ehGHo" to="2omo:hXJqxz$" resolve="UtilityMethodDeclaration" />
                </node>
              </node>
            </node>
          </node>
          <node concept="37vLTw" id="3GM_nagTt$I" role="1DdaDG">
            <ref role="3cqZAo" node="hXYGUKY" resolve="list" />
          </node>
          <node concept="3cpWsn" id="hXYGULv" role="1Duv9x">
            <property role="TrG5h" value="baseTextGen" />
            <node concept="3Tqbb2" id="hXYGULw" role="1tU5fm">
              <ref role="ehGHo" to="2omo:hXbsvkv" resolve="LanguageTextGenDeclaration" />
            </node>
          </node>
        </node>
        <node concept="3cpWs6" id="hXYGULx" role="3cqZAp">
          <node concept="37vLTw" id="3GM_nagTuj_" role="3cqZAk">
            <ref role="3cqZAo" node="hXYGUKS" resolve="result" />
          </node>
        </node>
      </node>
      <node concept="3Tm1VV" id="hXYGULz" role="1B3o_S" />
    </node>
    <node concept="13i0hz" id="hXYGUL$" role="13h7CS">
      <property role="TrG5h" value="getBaseTextGenComponents" />
      <node concept="2I9FWS" id="hXYGUL_" role="3clF45">
        <ref role="2I9WkF" to="2omo:hXbsvkv" resolve="LanguageTextGenDeclaration" />
      </node>
      <node concept="3clFbS" id="hXYGULA" role="3clF47">
        <node concept="3clFbF" id="hXYGULB" role="3cqZAp">
          <node concept="2OqwBi" id="hXYGULC" role="3clFbG">
            <node concept="37vLTw" id="2BHiRxgm4GK" role="2Oq$k0">
              <ref role="3cqZAo" node="hXYGUMa" resolve="list" />
            </node>
            <node concept="TSZUe" id="hXYGULE" role="2OqNvi">
              <node concept="37vLTw" id="2BHiRxglyL9" role="25WWJ7">
                <ref role="3cqZAo" node="hXYGUMc" resolve="node" />
              </node>
            </node>
          </node>
        </node>
        <node concept="3clFbJ" id="hXYGULG" role="3cqZAp">
          <node concept="3clFbS" id="hXYGULH" role="3clFbx">
            <node concept="3cpWs6" id="hXYGULI" role="3cqZAp">
              <node concept="37vLTw" id="2BHiRxgmeYz" role="3cqZAk">
                <ref role="3cqZAo" node="hXYGUMa" resolve="list" />
              </node>
            </node>
          </node>
          <node concept="22lmx$" id="hXYGULK" role="3clFbw">
            <node concept="3fqX7Q" id="hXYGULL" role="3uHU7w">
              <node concept="2OqwBi" id="hXYGULM" role="3fr31v">
                <node concept="2OqwBi" id="hXYGULN" role="2Oq$k0">
                  <node concept="37vLTw" id="2BHiRxgkZ0k" role="2Oq$k0">
                    <ref role="3cqZAo" node="hXYGUMc" resolve="node" />
                  </node>
                  <node concept="3TrEf2" id="hXYHjCJ" role="2OqNvi">
                    <ref role="3Tt5mk" to="2omo:hXYGkbG" />
                  </node>
                </node>
                <node concept="1mIQ4w" id="hXYGULQ" role="2OqNvi">
                  <node concept="chp4Y" id="hXYGULR" role="cj9EA">
                    <ref role="cht4Q" to="2omo:hXbsvkv" resolve="LanguageTextGenDeclaration" />
                  </node>
                </node>
              </node>
            </node>
            <node concept="2OqwBi" id="hXYGULS" role="3uHU7B">
              <node concept="2OqwBi" id="hXYGULT" role="2Oq$k0">
                <node concept="37vLTw" id="2BHiRxglr$A" role="2Oq$k0">
                  <ref role="3cqZAo" node="hXYGUMc" resolve="node" />
                </node>
                <node concept="3TrEf2" id="hXYHiyM" role="2OqNvi">
                  <ref role="3Tt5mk" to="2omo:hXYGkbG" />
                </node>
              </node>
              <node concept="3w_OXm" id="hXYGULW" role="2OqNvi" />
            </node>
          </node>
          <node concept="9aQIb" id="hXYGULX" role="9aQIa">
            <node concept="3clFbS" id="hXYGULY" role="9aQI4">
              <node concept="3cpWs6" id="hXYGULZ" role="3cqZAp">
                <node concept="2OqwBi" id="hXYGUM0" role="3cqZAk">
                  <node concept="13iPFW" id="hXYGUM1" role="2Oq$k0" />
                  <node concept="2qgKlT" id="hXYGUM2" role="2OqNvi">
                    <ref role="37wK5l" node="hXYGUL$" resolve="getBaseTextGenComponents" />
                    <node concept="37vLTw" id="2BHiRxglFtV" role="37wK5m">
                      <ref role="3cqZAo" node="hXYGUMa" resolve="list" />
                    </node>
                    <node concept="10QFUN" id="hXYGUM4" role="37wK5m">
                      <node concept="3Tqbb2" id="hXYGUM5" role="10QFUM">
                        <ref role="ehGHo" to="2omo:hXbsvkv" resolve="LanguageTextGenDeclaration" />
                      </node>
                      <node concept="2OqwBi" id="hXYGUM6" role="10QFUP">
                        <node concept="37vLTw" id="2BHiRxgl6v5" role="2Oq$k0">
                          <ref role="3cqZAo" node="hXYGUMc" resolve="node" />
                        </node>
                        <node concept="3TrEf2" id="hXYHlhA" role="2OqNvi">
                          <ref role="3Tt5mk" to="2omo:hXYGkbG" />
                        </node>
                      </node>
                    </node>
                  </node>
                </node>
              </node>
            </node>
          </node>
        </node>
      </node>
      <node concept="3Tm6S6" id="hXYGUM9" role="1B3o_S" />
      <node concept="37vLTG" id="hXYGUMa" role="3clF46">
        <property role="TrG5h" value="list" />
        <node concept="2I9FWS" id="hXYGUMb" role="1tU5fm">
          <ref role="2I9WkF" to="2omo:hXbsvkv" resolve="LanguageTextGenDeclaration" />
        </node>
      </node>
      <node concept="37vLTG" id="hXYGUMc" role="3clF46">
        <property role="TrG5h" value="node" />
        <node concept="3Tqbb2" id="hXYGUMd" role="1tU5fm">
          <ref role="ehGHo" to="2omo:hXbsvkv" resolve="LanguageTextGenDeclaration" />
        </node>
      </node>
    </node>
    <node concept="13hLZK" id="hXvA$3i" role="13h7CW">
      <node concept="3clFbS" id="hXvA$3j" role="2VODD2" />
    </node>
    <node concept="13i0hz" id="2D1PBM_bxIF" role="13h7CS">
      <property role="2Ki8OM" value="true" />
      <property role="13i0is" value="false" />
      <property role="TrG5h" value="getApplicableHiddenParameter" />
      <property role="13i0it" value="true" />
      <node concept="3Tm1VV" id="2D1PBM_bxIG" role="1B3o_S" />
      <node concept="_YKpA" id="2D1PBM_bxID" role="3clF45">
        <node concept="3Tqbb2" id="2D1PBM_bxIE" role="_ZDj9">
          <ref role="ehGHo" to="tpce:f_TIwhg" resolve="ConceptDeclaration" />
        </node>
      </node>
      <node concept="3clFbS" id="2D1PBM_bxIH" role="3clF47">
        <node concept="3cpWs8" id="2D1PBM_bxII" role="3cqZAp">
          <node concept="3cpWsn" id="2D1PBM_bxIJ" role="3cpWs9">
            <property role="TrG5h" value="result" />
            <node concept="2ShNRf" id="2D1PBM_bxIK" role="33vP2m">
              <node concept="Tc6Ow" id="2D1PBM_bxIL" role="2ShVmc">
                <node concept="3Tqbb2" id="2D1PBM_bxIM" role="HW$YZ">
                  <ref role="ehGHo" to="tpce:f_TIwhg" resolve="ConceptDeclaration" />
                </node>
              </node>
            </node>
            <node concept="_YKpA" id="2D1PBM_bxIN" role="1tU5fm">
              <node concept="3Tqbb2" id="2D1PBM_bxIO" role="_ZDj9">
                <ref role="ehGHo" to="tpce:f_TIwhg" resolve="ConceptDeclaration" />
              </node>
            </node>
          </node>
        </node>
        <node concept="3clFbF" id="2D1PBM_bxIR" role="3cqZAp">
          <node concept="2OqwBi" id="2D1PBM_bxIS" role="3clFbG">
            <node concept="37vLTw" id="2D1PBM_bxIP" role="2Oq$k0">
              <ref role="3cqZAo" node="2D1PBM_bxIJ" resolve="result" />
            </node>
            <node concept="TSZUe" id="2D1PBM_bxIT" role="2OqNvi">
              <node concept="3B5_sB" id="2D1PBM_bxIQ" role="25WWJ7">
                <ref role="3B5MYn" to="2omo:hX_6nRM" resolve="BufferParameter" />
              </node>
            </node>
          </node>
        </node>
        <node concept="3clFbF" id="2D1PBM_bxIV" role="3cqZAp">
          <node concept="2OqwBi" id="2D1PBM_bxIW" role="3clFbG">
            <node concept="37vLTw" id="2D1PBM_bxIX" role="2Oq$k0">
              <ref role="3cqZAo" node="2D1PBM_bxIJ" resolve="result" />
            </node>
            <node concept="TSZUe" id="2D1PBM_bxIY" role="2OqNvi">
              <node concept="3B5_sB" id="2D1PBM_bxIU" role="25WWJ7">
                <ref role="3B5MYn" to="2omo:hXwNldb" resolve="ContextParameter" />
              </node>
            </node>
          </node>
        </node>
        <node concept="3cpWs6" id="2D1PBM_bxIZ" role="3cqZAp">
          <node concept="37vLTw" id="2D1PBM_bxJ0" role="3cqZAk">
            <ref role="3cqZAo" node="2D1PBM_bxIJ" resolve="result" />
          </node>
        </node>
      </node>
    </node>
  </node>
  <node concept="13h7C7" id="hXwohTc">
    <property role="3GE5qa" value="root" />
    <ref role="13h7C2" to="2omo:hWWtQdD" resolve="ConceptTextGenDeclaration" />
    <node concept="13i0hz" id="hXYJ4id" role="13h7CS">
      <property role="TrG5h" value="getAvailableOperations" />
      <ref role="13i0hy" node="hXYHpEa" resolve="getAvailableOperations" />
      <node concept="3clFbS" id="hXYJ4if" role="3clF47">
        <node concept="3cpWs8" id="hXYJt68" role="3cqZAp">
          <node concept="3cpWsn" id="hXYJt69" role="3cpWs9">
            <property role="TrG5h" value="result" />
            <node concept="2I9FWS" id="hXYJt6a" role="1tU5fm">
              <ref role="2I9WkF" to="2omo:hXbweBj" resolve="OperationDeclaration" />
            </node>
            <node concept="2ShNRf" id="hXYJz3X" role="33vP2m">
              <node concept="2T8Vx0" id="hXYJz3Y" role="2ShVmc">
                <node concept="2I9FWS" id="hXYJz3Z" role="2T96Bj">
                  <ref role="2I9WkF" to="2omo:hXbweBj" resolve="OperationDeclaration" />
                </node>
              </node>
            </node>
          </node>
        </node>
        <node concept="3cpWs8" id="hXYJd4h" role="3cqZAp">
          <node concept="3cpWsn" id="hXYJd4i" role="3cpWs9">
            <property role="TrG5h" value="roots" />
            <node concept="2I9FWS" id="hXYJd4j" role="1tU5fm">
              <ref role="2I9WkF" to="2omo:hXbsvkv" resolve="LanguageTextGenDeclaration" />
            </node>
            <node concept="2OqwBi" id="hXYJj_M" role="33vP2m">
              <node concept="2OqwBi" id="hXYJj_N" role="2Oq$k0">
                <node concept="13iPFW" id="hXYJj_O" role="2Oq$k0" />
                <node concept="I4A8Y" id="hXYJj_P" role="2OqNvi" />
              </node>
              <node concept="2RRcyG" id="hXYJj_Q" role="2OqNvi">
                <ref role="2RRcyH" to="2omo:hXbsvkv" resolve="LanguageTextGenDeclaration" />
              </node>
            </node>
          </node>
        </node>
        <node concept="1DcWWT" id="hXYJmB0" role="3cqZAp">
          <node concept="3clFbS" id="hXYJmB1" role="2LFqv$">
            <node concept="3clFbF" id="hXYJzOQ" role="3cqZAp">
              <node concept="2OqwBi" id="hXYJ$kn" role="3clFbG">
                <node concept="37vLTw" id="3GM_nagTveg" role="2Oq$k0">
                  <ref role="3cqZAo" node="hXYJt69" resolve="result" />
                </node>
                <node concept="X8dFx" id="hXYJE$P" role="2OqNvi">
                  <node concept="2OqwBi" id="hXYJFOi" role="25WWJ7">
                    <node concept="37vLTw" id="3GM_nagTBsm" role="2Oq$k0">
                      <ref role="3cqZAo" node="hXYJmB4" resolve="langTextGen" />
                    </node>
                    <node concept="3Tsc0h" id="hXYJGn3" role="2OqNvi">
                      <ref role="3TtcxE" to="2omo:hXbwxZ5" />
                    </node>
                  </node>
                </node>
              </node>
            </node>
          </node>
          <node concept="37vLTw" id="3GM_nagTu2l" role="1DdaDG">
            <ref role="3cqZAo" node="hXYJd4i" resolve="roots" />
          </node>
          <node concept="3cpWsn" id="hXYJmB4" role="1Duv9x">
            <property role="TrG5h" value="langTextGen" />
            <node concept="3Tqbb2" id="hXYJnpr" role="1tU5fm">
              <ref role="ehGHo" to="2omo:hXbsvkv" resolve="LanguageTextGenDeclaration" />
            </node>
          </node>
        </node>
        <node concept="3cpWs6" id="hXYJHic" role="3cqZAp">
          <node concept="37vLTw" id="3GM_nagTstG" role="3cqZAk">
            <ref role="3cqZAo" node="hXYJt69" resolve="result" />
          </node>
        </node>
      </node>
      <node concept="2I9FWS" id="hXYJ56J" role="3clF45">
        <ref role="2I9WkF" to="2omo:hXbweBj" resolve="OperationDeclaration" />
      </node>
      <node concept="3Tm1VV" id="hXYJ56K" role="1B3o_S" />
    </node>
    <node concept="13i0hz" id="7KX5Yh0wKxA" role="13h7CS">
      <property role="TrG5h" value="getBaseConcept" />
      <property role="13i0it" value="true" />
      <ref role="13i0hy" to="tpcn:2hxg_BDjKM8" resolve="getBaseConcept" />
      <node concept="3Tm1VV" id="7KX5Yh0wKxB" role="1B3o_S" />
      <node concept="3clFbS" id="7KX5Yh0wKxC" role="3clF47">
        <node concept="3clFbF" id="7KX5Yh0wKxG" role="3cqZAp">
          <node concept="2OqwBi" id="7KX5Yh0wKxI" role="3clFbG">
            <node concept="13iPFW" id="7KX5Yh0wKxH" role="2Oq$k0" />
            <node concept="3TrEf2" id="7KX5Yh0wKxM" role="2OqNvi">
              <ref role="3Tt5mk" to="2omo:hWWuzPd" />
            </node>
          </node>
        </node>
      </node>
      <node concept="3Tqbb2" id="7KX5Yh0wKxD" role="3clF45">
        <ref role="ehGHo" to="tpce:h0PkWnZ" resolve="AbstractConceptDeclaration" />
      </node>
    </node>
    <node concept="13i0hz" id="5r_35Ihc9bj" role="13h7CS">
      <property role="TrG5h" value="setBaseConcept" />
      <property role="13i0it" value="true" />
      <ref role="13i0hy" to="tpcn:5r_35Ihc58c" resolve="setBaseConcept" />
      <node concept="3Tm1VV" id="5r_35Ihc9bk" role="1B3o_S" />
      <node concept="3clFbS" id="5r_35Ihc9bl" role="3clF47">
        <node concept="3clFbF" id="5r_35Ihc9bu" role="3cqZAp">
          <node concept="2OqwBi" id="5r_35Ihc9b_" role="3clFbG">
            <node concept="2OqwBi" id="5r_35Ihc9bw" role="2Oq$k0">
              <node concept="13iPFW" id="5r_35Ihc9bv" role="2Oq$k0" />
              <node concept="3TrEf2" id="5r_35Ihc9b$" role="2OqNvi">
                <ref role="3Tt5mk" to="2omo:hWWuzPd" />
              </node>
            </node>
            <node concept="2oxUTD" id="5r_35Ihc9bD" role="2OqNvi">
              <node concept="37vLTw" id="2BHiRxgm9dV" role="2oxUTC">
                <ref role="3cqZAo" node="5r_35Ihc9bm" resolve="baseConcept" />
              </node>
            </node>
          </node>
        </node>
        <node concept="3clFbJ" id="3fG6dkhf5FP" role="3cqZAp">
          <node concept="3clFbS" id="3fG6dkhf5FR" role="3clFbx">
            <node concept="3cpWs6" id="3fG6dkhf74p" role="3cqZAp" />
          </node>
          <node concept="1Wc70l" id="3fG6dkhf6iO" role="3clFbw">
            <node concept="2OqwBi" id="3fG6dkhf6z6" role="3uHU7w">
              <node concept="1PxgMI" id="3fG6dkhf6qq" role="2Oq$k0">
                <ref role="1m5ApE" to="tpce:f_TIwhg" resolve="ConceptDeclaration" />
                <node concept="37vLTw" id="3fG6dkhf6l6" role="1m5AlR">
                  <ref role="3cqZAo" node="5r_35Ihc9bm" resolve="baseConcept" />
                </node>
              </node>
              <node concept="3TrcHB" id="3fG6dkhf70Z" role="2OqNvi">
                <ref role="3TsBF5" to="tpce:fX9Ktp8" resolve="rootable" />
              </node>
            </node>
            <node concept="2OqwBi" id="3fG6dkhf5KI" role="3uHU7B">
              <node concept="37vLTw" id="3fG6dkhf5Hq" role="2Oq$k0">
                <ref role="3cqZAo" node="5r_35Ihc9bm" resolve="baseConcept" />
              </node>
              <node concept="1mIQ4w" id="3fG6dkhf690" role="2OqNvi">
                <node concept="chp4Y" id="3fG6dkhf69W" role="cj9EA">
                  <ref role="cht4Q" to="tpce:f_TIwhg" resolve="ConceptDeclaration" />
                </node>
              </node>
            </node>
          </node>
        </node>
        <node concept="3clFbF" id="3fG6dkhf79q" role="3cqZAp">
          <node concept="2OqwBi" id="3fG6dkhfuTN" role="3clFbG">
            <node concept="2OqwBi" id="3fG6dkhf7eZ" role="2Oq$k0">
              <node concept="13iPFW" id="3fG6dkhf79o" role="2Oq$k0" />
              <node concept="3TrEf2" id="3fG6dkhf7DY" role="2OqNvi">
                <ref role="3Tt5mk" to="2omo:hX1c4lS" />
              </node>
            </node>
            <node concept="2DeJnY" id="3fG6dkhfvc2" role="2OqNvi" />
          </node>
        </node>
      </node>
      <node concept="37vLTG" id="5r_35Ihc9bm" role="3clF46">
        <property role="TrG5h" value="baseConcept" />
        <node concept="3Tqbb2" id="5r_35Ihc9bn" role="1tU5fm">
          <ref role="ehGHo" to="tpce:h0PkWnZ" resolve="AbstractConceptDeclaration" />
        </node>
      </node>
      <node concept="3cqZAl" id="5r_35Ihc9bo" role="3clF45" />
    </node>
    <node concept="13i0hz" id="3fG6dkhfrk3" role="13h7CS">
      <property role="TrG5h" value="shallProduceOutputUnit" />
      <node concept="3Tm1VV" id="3fG6dkhfrk4" role="1B3o_S" />
      <node concept="10P_77" id="3fG6dkhfs7h" role="3clF45" />
      <node concept="3clFbS" id="3fG6dkhfrk6" role="3clF47">
        <node concept="3SKdUt" id="3fG6dkhfLDd" role="3cqZAp">
          <node concept="3SKdUq" id="3fG6dkhfLHD" role="3SKWNk">
            <property role="3SKdUp" value="keep the knowledge which concepts we deem as TextUnit origin in a single place" />
          </node>
        </node>
        <node concept="3cpWs6" id="3fG6dkhfHUd" role="3cqZAp">
          <node concept="1Wc70l" id="3fG6dkhfJyd" role="3cqZAk">
            <node concept="2OqwBi" id="3fG6dkhfL1x" role="3uHU7w">
              <node concept="1PxgMI" id="3fG6dkhfKN3" role="2Oq$k0">
                <ref role="1m5ApE" to="tpce:f_TIwhg" resolve="ConceptDeclaration" />
                <node concept="2OqwBi" id="3fG6dkhfJEx" role="1m5AlR">
                  <node concept="13iPFW" id="3fG6dkhfJ_q" role="2Oq$k0" />
                  <node concept="3TrEf2" id="3fG6dkhfK8q" role="2OqNvi">
                    <ref role="3Tt5mk" to="2omo:hWWuzPd" />
                  </node>
                </node>
              </node>
              <node concept="3TrcHB" id="3fG6dkhfLwx" role="2OqNvi">
                <ref role="3TsBF5" to="tpce:fX9Ktp8" resolve="rootable" />
              </node>
            </node>
            <node concept="2OqwBi" id="3fG6dkhfIUy" role="3uHU7B">
              <node concept="2OqwBi" id="3fG6dkhfHXZ" role="2Oq$k0">
                <node concept="13iPFW" id="3fG6dkhfHUq" role="2Oq$k0" />
                <node concept="3TrEf2" id="3fG6dkhfIp2" role="2OqNvi">
                  <ref role="3Tt5mk" to="2omo:hWWuzPd" />
                </node>
              </node>
              <node concept="1mIQ4w" id="3fG6dkhfJmI" role="2OqNvi">
                <node concept="chp4Y" id="3fG6dkhfJos" role="cj9EA">
                  <ref role="cht4Q" to="tpce:f_TIwhg" resolve="ConceptDeclaration" />
                </node>
              </node>
            </node>
          </node>
        </node>
      </node>
    </node>
    <node concept="13hLZK" id="hXwohTd" role="13h7CW">
      <node concept="3clFbS" id="hXwohTe" role="2VODD2" />
    </node>
  </node>
  <node concept="13h7C7" id="hXwWPam">
    <property role="3GE5qa" value="root" />
    <ref role="13h7C2" to="2omo:hXwW6D9" resolve="AbstractTextGenDeclaration" />
    <node concept="13i0hz" id="hXYHpEa" role="13h7CS">
      <property role="TrG5h" value="getAvailableOperations" />
      <property role="13i0it" value="true" />
      <node concept="2I9FWS" id="hXYHsbU" role="3clF45">
        <ref role="2I9WkF" to="2omo:hXbweBj" resolve="OperationDeclaration" />
      </node>
      <node concept="3clFbS" id="hXYHpEc" role="3clF47">
        <node concept="3cpWs6" id="hXYHtRm" role="3cqZAp">
          <node concept="10Nm6u" id="hXYHudn" role="3cqZAk" />
        </node>
      </node>
      <node concept="3Tm1VV" id="hXYHrI6" role="1B3o_S" />
    </node>
    <node concept="13hLZK" id="hXwWPan" role="13h7CW">
      <node concept="3clFbS" id="hXwWPao" role="2VODD2" />
    </node>
  </node>
  <node concept="13h7C7" id="hY4TCUR">
    <property role="3GE5qa" value="parameter" />
    <ref role="13h7C2" to="2omo:hY4Spyd" resolve="AbstractTextGenParameter" />
    <node concept="13i0hz" id="hZKlwcE" role="13h7CS">
      <property role="TrG5h" value="needConceptFunction" />
      <ref role="13i0hy" to="tpek:hZKliUO" resolve="needConceptFunction" />
      <node concept="3clFbS" id="hZKlwcG" role="3clF47">
        <node concept="3cpWs6" id="hZKl$Q6" role="3cqZAp">
          <node concept="3clFbT" id="hZKl_g1" role="3cqZAk">
            <property role="3clFbU" value="false" />
          </node>
        </node>
      </node>
      <node concept="10P_77" id="hZKl$kR" role="3clF45" />
      <node concept="3Tm1VV" id="hZKl$kS" role="1B3o_S" />
    </node>
    <node concept="13hLZK" id="hY4TCUS" role="13h7CW">
      <node concept="3clFbS" id="hY4TCUT" role="2VODD2" />
    </node>
  </node>
  <node concept="13h7C7" id="hZi_Z38">
    <property role="3GE5qa" value="operation.indent" />
    <ref role="13h7C2" to="2omo:hZizx56" resolve="WithIndentOperation" />
    <node concept="13i0hz" id="hZi_Zwx" role="13h7CS">
      <property role="TrG5h" value="inLangConcept" />
      <node concept="10P_77" id="hZi_Zwy" role="3clF45" />
      <node concept="3clFbS" id="hZi_Zwz" role="3clF47">
        <node concept="3cpWs6" id="hZi_Zw$" role="3cqZAp">
          <node concept="2OqwBi" id="hZi_Zw_" role="3cqZAk">
            <node concept="1eOMI4" id="hZi_ZwA" role="2Oq$k0">
              <node concept="2OqwBi" id="hZi_ZwB" role="1eOMHV">
                <node concept="13iPFW" id="hZi_ZwC" role="2Oq$k0" />
                <node concept="2Xjw5R" id="hZi_ZwD" role="2OqNvi">
                  <node concept="1xMEDy" id="hZi_ZwE" role="1xVPHs">
                    <node concept="chp4Y" id="hZi_ZwF" role="ri$Ld">
                      <ref role="cht4Q" to="2omo:hXwW6D9" resolve="AbstractTextGenDeclaration" />
                    </node>
                  </node>
                </node>
              </node>
            </node>
            <node concept="1mIQ4w" id="hZi_ZwG" role="2OqNvi">
              <node concept="chp4Y" id="hZi_ZwH" role="cj9EA">
                <ref role="cht4Q" to="2omo:hXbsvkv" resolve="LanguageTextGenDeclaration" />
              </node>
            </node>
          </node>
        </node>
      </node>
      <node concept="3Tm1VV" id="hZi_ZwI" role="1B3o_S" />
    </node>
    <node concept="13hLZK" id="hZi_Z39" role="13h7CW">
      <node concept="3clFbS" id="hZi_Z3a" role="2VODD2" />
    </node>
  </node>
  <node concept="13h7C7" id="i0uJgrK">
    <property role="3GE5qa" value="operation.append.part" />
    <ref role="13h7C2" to="2omo:i0l8shm" resolve="AbstractAppendPart" />
    <node concept="13i0hz" id="i0uJgJ6" role="13h7CS">
      <property role="TrG5h" value="withIndent" />
      <property role="13i0it" value="true" />
      <node concept="10P_77" id="i0uJk0Q" role="3clF45" />
      <node concept="3clFbS" id="i0uJgJ8" role="3clF47">
        <node concept="3cpWs6" id="i0uJlfJ" role="3cqZAp">
          <node concept="3clFbT" id="i0uJlG$" role="3cqZAk">
            <property role="3clFbU" value="false" />
          </node>
        </node>
      </node>
      <node concept="3Tm1VV" id="i0uJkLG" role="1B3o_S" />
    </node>
    <node concept="13hLZK" id="i0uJgrL" role="13h7CW">
      <node concept="3clFbS" id="i0uJgrM" role="2VODD2" />
    </node>
  </node>
  <node concept="13h7C7" id="i0uJogS">
    <property role="3GE5qa" value="operation.append.part" />
    <ref role="13h7C2" to="2omo:i0la8a6" resolve="ConstantStringAppendPart" />
    <node concept="13i0hz" id="i0uJoGh" role="13h7CS">
      <property role="TrG5h" value="withIndent" />
      <ref role="13i0hy" node="i0uJgJ6" resolve="withIndent" />
      <node concept="3clFbS" id="i0uJoGj" role="3clF47">
        <node concept="3cpWs6" id="i0uJpAW" role="3cqZAp">
          <node concept="2OqwBi" id="i0uJq6Y" role="3cqZAk">
            <node concept="13iPFW" id="i0uJq2$" role="2Oq$k0" />
            <node concept="3TrcHB" id="i0uJqsh" role="2OqNvi">
              <ref role="3TsBF5" to="2omo:i0ldctd" resolve="withIndent" />
            </node>
          </node>
        </node>
      </node>
      <node concept="10P_77" id="i0uJp9o" role="3clF45" />
      <node concept="3Tm1VV" id="i0uJp9p" role="1B3o_S" />
    </node>
    <node concept="13hLZK" id="i0uJogT" role="13h7CW">
      <node concept="3clFbS" id="i0uJogU" role="2VODD2" />
    </node>
  </node>
  <node concept="13h7C7" id="i0uJskq">
    <property role="3GE5qa" value="operation.append.part" />
    <ref role="13h7C2" to="2omo:i0l9hCC" resolve="NodeAppendPart" />
    <node concept="13i0hz" id="i0uJsBv" role="13h7CS">
      <property role="TrG5h" value="withIndent" />
      <ref role="13i0hy" node="i0uJgJ6" resolve="withIndent" />
      <node concept="3clFbS" id="i0uJsBx" role="3clF47">
        <node concept="3cpWs6" id="i0uJtwt" role="3cqZAp">
          <node concept="2OqwBi" id="i0uJu0I" role="3cqZAk">
            <node concept="13iPFW" id="i0uJtWk" role="2Oq$k0" />
            <node concept="3TrcHB" id="i0uJuk4" role="2OqNvi">
              <ref role="3TsBF5" to="2omo:i0ld1WY" resolve="withIndent" />
            </node>
          </node>
        </node>
      </node>
      <node concept="10P_77" id="i0uJt5$" role="3clF45" />
      <node concept="3Tm1VV" id="i0uJt5_" role="1B3o_S" />
    </node>
    <node concept="13hLZK" id="i0uJskr" role="13h7CW">
      <node concept="3clFbS" id="i0uJsks" role="2VODD2" />
    </node>
  </node>
  <node concept="13h7C7" id="i0XA2lg">
    <property role="3GE5qa" value="operation.append.part" />
    <ref role="13h7C2" to="2omo:i0l9S6s" resolve="CollectionAppendPart" />
    <node concept="13hLZK" id="i0XA2lh" role="13h7CW">
      <node concept="3clFbS" id="i0XA2li" role="2VODD2" />
    </node>
  </node>
  <node concept="13h7C7" id="15ZIlddggzG">
    <ref role="13h7C2" to="2omo:hXJECMo" resolve="UtilityMethodCall" />
    <node concept="13hLZK" id="15ZIlddggzH" role="13h7CW">
      <node concept="3clFbS" id="15ZIlddggzI" role="2VODD2" />
    </node>
    <node concept="13i0hz" id="15ZIlddggzJ" role="13h7CS">
      <property role="TrG5h" value="isLegalAsStatement" />
      <ref role="13i0hy" to="tpek:i26MfYG" resolve="isLegalAsStatement" />
      <node concept="3clFbS" id="15ZIlddggzM" role="3clF47">
        <node concept="3cpWs6" id="15ZIlddggzP" role="3cqZAp">
          <node concept="3clFbT" id="15ZIlddggzR" role="3cqZAk">
            <property role="3clFbU" value="true" />
          </node>
        </node>
      </node>
      <node concept="10P_77" id="15ZIlddggzN" role="3clF45" />
      <node concept="3Tm1VV" id="15ZIlddggzO" role="1B3o_S" />
    </node>
  </node>
  <node concept="13h7C7" id="2D1PBM_byX$">
    <ref role="13h7C2" to="2omo:7JOxxpMfQwt" resolve="ExtensionDeclaration" />
    <node concept="13hLZK" id="2D1PBM_byX_" role="13h7CW">
      <node concept="3clFbS" id="2D1PBM_byXA" role="2VODD2" />
    </node>
    <node concept="13i0hz" id="2D1PBM_byXc" role="13h7CS">
      <property role="2Ki8OM" value="true" />
      <property role="13i0is" value="false" />
      <property role="TrG5h" value="getApplicableConceptFunctionParameter" />
      <property role="13i0it" value="false" />
      <ref role="13i0hy" to="tpek:2D1PBM_bxJg" resolve="getApplicableConceptFunctionParameter" />
      <node concept="3Tm1VV" id="2D1PBM_byXd" role="1B3o_S" />
      <node concept="_YKpA" id="2D1PBM_byXa" role="3clF45">
        <node concept="3Tqbb2" id="2D1PBM_byXb" role="_ZDj9">
          <ref role="ehGHo" to="tpce:f_TIwhg" resolve="ConceptDeclaration" />
        </node>
      </node>
      <node concept="3clFbS" id="2D1PBM_byXe" role="3clF47">
        <node concept="3cpWs8" id="2D1PBM_byXf" role="3cqZAp">
          <node concept="3cpWsn" id="2D1PBM_byXg" role="3cpWs9">
            <property role="TrG5h" value="result" />
            <node concept="_YKpA" id="2D1PBM_byXk" role="1tU5fm">
              <node concept="3Tqbb2" id="2D1PBM_byXl" role="_ZDj9">
                <ref role="ehGHo" to="tpce:f_TIwhg" resolve="ConceptDeclaration" />
              </node>
            </node>
            <node concept="2OqwBi" id="2D1PBM_byXs" role="33vP2m">
              <node concept="13iAh5" id="2D1PBM_byXo" role="2Oq$k0">
                <ref role="3eA5LN" to="tpee:gyVMwX8" resolve="ConceptFunction" />
              </node>
              <node concept="2qgKlT" id="2D1PBM_byXn" role="2OqNvi">
                <ref role="37wK5l" to="tpek:2D1PBM_bxJg" resolve="getApplicableConceptFunctionParameter" />
              </node>
            </node>
          </node>
        </node>
        <node concept="3clFbF" id="2D1PBM_byXu" role="3cqZAp">
          <node concept="2OqwBi" id="2D1PBM_byXv" role="3clFbG">
            <node concept="37vLTw" id="2D1PBM_byXw" role="2Oq$k0">
              <ref role="3cqZAo" node="2D1PBM_byXg" resolve="result" />
            </node>
            <node concept="TSZUe" id="2D1PBM_byXx" role="2OqNvi">
              <node concept="3B5_sB" id="2D1PBM_byXt" role="25WWJ7">
                <ref role="3B5MYn" to="2omo:hX17ltF" resolve="NodeParameter" />
              </node>
            </node>
          </node>
        </node>
        <node concept="3cpWs6" id="2D1PBM_byXy" role="3cqZAp">
          <node concept="37vLTw" id="2D1PBM_byXz" role="3cqZAk">
            <ref role="3cqZAo" node="2D1PBM_byXg" resolve="result" />
          </node>
        </node>
      </node>
    </node>
    <node concept="13i0hz" id="$yZ68hBhPQ" role="13h7CS">
      <property role="13i0is" value="false" />
      <property role="TrG5h" value="getExpectedReturnType" />
      <property role="13i0it" value="false" />
      <property role="13i0iv" value="false" />
      <ref role="13i0hy" to="tpek:hEwIGRD" resolve="getExpectedReturnType" />
      <node concept="3Tm1VV" id="$yZ68hBhPR" role="1B3o_S" />
      <node concept="3clFbS" id="$yZ68hBhPS" role="3clF47">
        <node concept="3cpWs6" id="$yZ68hBhPT" role="3cqZAp">
          <node concept="2c44tf" id="$yZ68hBhPP" role="3cqZAk">
            <node concept="17QB3L" id="7JOxxpMfQwz" role="2c44tc" />
          </node>
        </node>
      </node>
      <node concept="3Tqbb2" id="$yZ68hBhPU" role="3clF45" />
    </node>
  </node>
  <node concept="13h7C7" id="2D1PBM_bzkC">
    <ref role="13h7C2" to="2omo:13X0ILpBCYj" resolve="EncodingDeclaration" />
    <node concept="13hLZK" id="2D1PBM_bzkD" role="13h7CW">
      <node concept="3clFbS" id="2D1PBM_bzkE" role="2VODD2" />
    </node>
    <node concept="13i0hz" id="2D1PBM_bzkg" role="13h7CS">
      <property role="2Ki8OM" value="true" />
      <property role="13i0is" value="false" />
      <property role="TrG5h" value="getApplicableConceptFunctionParameter" />
      <property role="13i0it" value="false" />
      <ref role="13i0hy" to="tpek:2D1PBM_bxJg" resolve="getApplicableConceptFunctionParameter" />
      <node concept="3Tm1VV" id="2D1PBM_bzkh" role="1B3o_S" />
      <node concept="_YKpA" id="2D1PBM_bzke" role="3clF45">
        <node concept="3Tqbb2" id="2D1PBM_bzkf" role="_ZDj9">
          <ref role="ehGHo" to="tpce:f_TIwhg" resolve="ConceptDeclaration" />
        </node>
      </node>
      <node concept="3clFbS" id="2D1PBM_bzki" role="3clF47">
        <node concept="3cpWs8" id="2D1PBM_bzkj" role="3cqZAp">
          <node concept="3cpWsn" id="2D1PBM_bzkk" role="3cpWs9">
            <property role="TrG5h" value="result" />
            <node concept="_YKpA" id="2D1PBM_bzko" role="1tU5fm">
              <node concept="3Tqbb2" id="2D1PBM_bzkp" role="_ZDj9">
                <ref role="ehGHo" to="tpce:f_TIwhg" resolve="ConceptDeclaration" />
              </node>
            </node>
            <node concept="2OqwBi" id="2D1PBM_bzkw" role="33vP2m">
              <node concept="13iAh5" id="2D1PBM_bzks" role="2Oq$k0">
                <ref role="3eA5LN" to="tpee:gyVMwX8" resolve="ConceptFunction" />
              </node>
              <node concept="2qgKlT" id="2D1PBM_bzkr" role="2OqNvi">
                <ref role="37wK5l" to="tpek:2D1PBM_bxJg" resolve="getApplicableConceptFunctionParameter" />
              </node>
            </node>
          </node>
        </node>
        <node concept="3clFbF" id="2D1PBM_bzky" role="3cqZAp">
          <node concept="2OqwBi" id="2D1PBM_bzkz" role="3clFbG">
            <node concept="37vLTw" id="2D1PBM_bzk$" role="2Oq$k0">
              <ref role="3cqZAo" node="2D1PBM_bzkk" resolve="result" />
            </node>
            <node concept="TSZUe" id="2D1PBM_bzk_" role="2OqNvi">
              <node concept="3B5_sB" id="2D1PBM_bzkx" role="25WWJ7">
                <ref role="3B5MYn" to="2omo:hX17ltF" resolve="NodeParameter" />
              </node>
            </node>
          </node>
        </node>
        <node concept="3cpWs6" id="2D1PBM_bzkA" role="3cqZAp">
          <node concept="37vLTw" id="2D1PBM_bzkB" role="3cqZAk">
            <ref role="3cqZAo" node="2D1PBM_bzkk" resolve="result" />
          </node>
        </node>
      </node>
    </node>
    <node concept="13i0hz" id="$yZ68hB78I" role="13h7CS">
      <property role="13i0is" value="false" />
      <property role="TrG5h" value="getExpectedReturnType" />
      <property role="13i0it" value="false" />
      <property role="13i0iv" value="false" />
      <ref role="13i0hy" to="tpek:hEwIGRD" resolve="getExpectedReturnType" />
      <node concept="3Tm1VV" id="$yZ68hB78J" role="1B3o_S" />
      <node concept="3clFbS" id="$yZ68hB78K" role="3clF47">
        <node concept="3cpWs6" id="$yZ68hB78L" role="3cqZAp">
          <node concept="2c44tf" id="$yZ68hB6Yu" role="3cqZAk">
            <node concept="17QB3L" id="13X0ILpBCYS" role="2c44tc" />
          </node>
        </node>
      </node>
      <node concept="3Tqbb2" id="$yZ68hB78M" role="3clF45" />
    </node>
    <node concept="13i0hz" id="$P$7g1EPpd" role="13h7CS">
      <property role="13i0is" value="false" />
      <property role="TrG5h" value="usesParameterObjectFor" />
      <property role="13i0it" value="false" />
      <property role="13i0iv" value="false" />
      <ref role="13i0hy" to="tpek:hEwIGRw" resolve="usesParameterObjectFor" />
      <node concept="3Tm1VV" id="$P$7g1EPpo" role="1B3o_S" />
      <node concept="3clFbS" id="$P$7g1EPpp" role="3clF47">
        <node concept="3clFbF" id="$P$7g1EPvk" role="3cqZAp">
          <node concept="3clFbT" id="$P$7g1EPvj" role="3clFbG">
            <property role="3clFbU" value="true" />
          </node>
        </node>
      </node>
      <node concept="37vLTG" id="$P$7g1EPpq" role="3clF46">
        <property role="TrG5h" value="parameter" />
        <node concept="3Tqbb2" id="$P$7g1EPpr" role="1tU5fm">
          <ref role="ehGHo" to="tpee:g76ryKb" resolve="ConceptFunctionParameter" />
        </node>
      </node>
      <node concept="10P_77" id="$P$7g1EPps" role="3clF45" />
    </node>
  </node>
  <node concept="13h7C7" id="2D1PBM_bzG7">
    <ref role="13h7C2" to="2omo:hX1bSug" resolve="GenerateTextDeclaration" />
    <node concept="13hLZK" id="2D1PBM_bzG8" role="13h7CW">
      <node concept="3clFbS" id="2D1PBM_bzG9" role="2VODD2" />
    </node>
    <node concept="13i0hz" id="2D1PBM_bzF_" role="13h7CS">
      <property role="2Ki8OM" value="true" />
      <property role="13i0is" value="false" />
      <property role="TrG5h" value="getApplicableConceptFunctionParameter" />
      <property role="13i0it" value="false" />
      <ref role="13i0hy" to="tpek:2D1PBM_bxJg" resolve="getApplicableConceptFunctionParameter" />
      <node concept="3Tm1VV" id="2D1PBM_bzFA" role="1B3o_S" />
      <node concept="_YKpA" id="2D1PBM_bzFz" role="3clF45">
        <node concept="3Tqbb2" id="2D1PBM_bzF$" role="_ZDj9">
          <ref role="ehGHo" to="tpce:f_TIwhg" resolve="ConceptDeclaration" />
        </node>
      </node>
      <node concept="3clFbS" id="2D1PBM_bzFB" role="3clF47">
        <node concept="3cpWs8" id="2D1PBM_bzFC" role="3cqZAp">
          <node concept="3cpWsn" id="2D1PBM_bzFD" role="3cpWs9">
            <property role="TrG5h" value="result" />
            <node concept="_YKpA" id="2D1PBM_bzFH" role="1tU5fm">
              <node concept="3Tqbb2" id="2D1PBM_bzFI" role="_ZDj9">
                <ref role="ehGHo" to="tpce:f_TIwhg" resolve="ConceptDeclaration" />
              </node>
            </node>
            <node concept="2OqwBi" id="2D1PBM_bzFP" role="33vP2m">
              <node concept="13iAh5" id="2D1PBM_bzFL" role="2Oq$k0">
                <ref role="3eA5LN" to="tpee:gyVMwX8" resolve="ConceptFunction" />
              </node>
              <node concept="2qgKlT" id="2D1PBM_bzFK" role="2OqNvi">
                <ref role="37wK5l" to="tpek:2D1PBM_bxJg" resolve="getApplicableConceptFunctionParameter" />
              </node>
            </node>
          </node>
        </node>
        <node concept="3clFbF" id="2D1PBM_bzFR" role="3cqZAp">
          <node concept="2OqwBi" id="2D1PBM_bzFS" role="3clFbG">
            <node concept="37vLTw" id="2D1PBM_bzFT" role="2Oq$k0">
              <ref role="3cqZAo" node="2D1PBM_bzFD" resolve="result" />
            </node>
            <node concept="TSZUe" id="2D1PBM_bzFU" role="2OqNvi">
              <node concept="3B5_sB" id="2D1PBM_bzFQ" role="25WWJ7">
                <ref role="3B5MYn" to="2omo:hXwNldb" resolve="ContextParameter" />
              </node>
            </node>
          </node>
        </node>
        <node concept="3clFbF" id="2D1PBM_bzFW" role="3cqZAp">
          <node concept="2OqwBi" id="2D1PBM_bzFX" role="3clFbG">
            <node concept="37vLTw" id="2D1PBM_bzFY" role="2Oq$k0">
              <ref role="3cqZAo" node="2D1PBM_bzFD" resolve="result" />
            </node>
            <node concept="TSZUe" id="2D1PBM_bzFZ" role="2OqNvi">
              <node concept="3B5_sB" id="2D1PBM_bzFV" role="25WWJ7">
                <ref role="3B5MYn" to="2omo:hX_6nRM" resolve="BufferParameter" />
              </node>
            </node>
          </node>
        </node>
        <node concept="3clFbF" id="2D1PBM_bzG1" role="3cqZAp">
          <node concept="2OqwBi" id="2D1PBM_bzG2" role="3clFbG">
            <node concept="37vLTw" id="2D1PBM_bzG3" role="2Oq$k0">
              <ref role="3cqZAo" node="2D1PBM_bzFD" resolve="result" />
            </node>
            <node concept="TSZUe" id="2D1PBM_bzG4" role="2OqNvi">
              <node concept="3B5_sB" id="2D1PBM_bzG0" role="25WWJ7">
                <ref role="3B5MYn" to="2omo:hX17ltF" resolve="NodeParameter" />
              </node>
            </node>
          </node>
        </node>
        <node concept="3cpWs6" id="2D1PBM_bzG5" role="3cqZAp">
          <node concept="37vLTw" id="2D1PBM_bzG6" role="3cqZAk">
            <ref role="3cqZAo" node="2D1PBM_bzFD" resolve="result" />
          </node>
        </node>
      </node>
    </node>
    <node concept="13i0hz" id="$yZ68hBhOg" role="13h7CS">
      <property role="13i0is" value="false" />
      <property role="TrG5h" value="getExpectedReturnType" />
      <property role="13i0it" value="false" />
      <property role="13i0iv" value="false" />
      <ref role="13i0hy" to="tpek:hEwIGRD" resolve="getExpectedReturnType" />
      <node concept="3Tm1VV" id="$yZ68hBhOh" role="1B3o_S" />
      <node concept="3clFbS" id="$yZ68hBhOi" role="3clF47">
        <node concept="3cpWs6" id="$yZ68hBhOj" role="3cqZAp">
          <node concept="2c44tf" id="$yZ68hBhOf" role="3cqZAk">
            <node concept="3cqZAl" id="hX1bZzH" role="2c44tc" />
          </node>
        </node>
      </node>
      <node concept="3Tqbb2" id="$yZ68hBhOk" role="3clF45" />
    </node>
    <node concept="13i0hz" id="$P$7g1ELPC" role="13h7CS">
      <property role="13i0is" value="false" />
      <property role="TrG5h" value="usesParameterObjectFor" />
      <property role="13i0it" value="false" />
      <property role="13i0iv" value="false" />
      <ref role="13i0hy" to="tpek:hEwIGRw" resolve="usesParameterObjectFor" />
      <node concept="3Tm1VV" id="$P$7g1ELPN" role="1B3o_S" />
      <node concept="3clFbS" id="$P$7g1ELPO" role="3clF47">
        <node concept="3clFbF" id="$P$7g1EOZ7" role="3cqZAp">
          <node concept="3clFbT" id="$P$7g1EOZ6" role="3clFbG">
            <property role="3clFbU" value="true" />
          </node>
        </node>
      </node>
      <node concept="37vLTG" id="$P$7g1ELPP" role="3clF46">
        <property role="TrG5h" value="parameter" />
        <node concept="3Tqbb2" id="$P$7g1ELPQ" role="1tU5fm">
          <ref role="ehGHo" to="tpee:g76ryKb" resolve="ConceptFunctionParameter" />
        </node>
      </node>
      <node concept="10P_77" id="$P$7g1ELPR" role="3clF45" />
    </node>
  </node>
  <node concept="13h7C7" id="4IGpg_YjKoi">
    <ref role="13h7C2" to="2omo:hXwNldb" resolve="ContextParameter" />
    <node concept="13hLZK" id="4IGpg_YjKoj" role="13h7CW">
      <node concept="3clFbS" id="4IGpg_YjKok" role="2VODD2" />
    </node>
    <node concept="13i0hz" id="4IGpg_YjKyU" role="13h7CS">
      <property role="TrG5h" value="getType" />
      <property role="13i0it" value="false" />
      <property role="13i0iv" value="false" />
      <ref role="13i0hy" to="tpek:27DJnJtIQ9C" resolve="getType" />
      <node concept="3Tm1VV" id="4IGpg_YjKyV" role="1B3o_S" />
      <node concept="3clFbS" id="4IGpg_YjKyW" role="3clF47">
        <node concept="3cpWs6" id="4IGpg_YjKyX" role="3cqZAp">
          <node concept="2c44tf" id="4IGpg_YjKyT" role="3cqZAk">
            <node concept="3uibUv" id="hXwRVCf" role="2c44tc">
              <ref role="3uigEE" to="w1kc:~IOperationContext" resolve="IOperationContext" />
            </node>
          </node>
        </node>
      </node>
      <node concept="3Tqbb2" id="4IGpg_YjKyY" role="3clF45">
        <ref role="ehGHo" to="tpee:fz3vP1H" resolve="Type" />
      </node>
    </node>
  </node>
  <node concept="13h7C7" id="4IGpg_YjLtK">
    <ref role="13h7C2" to="2omo:hX_6nRM" resolve="BufferParameter" />
    <node concept="13hLZK" id="4IGpg_YjLtL" role="13h7CW">
      <node concept="3clFbS" id="4IGpg_YjLtM" role="2VODD2" />
    </node>
    <node concept="13i0hz" id="4IGpg_YjLFn" role="13h7CS">
      <property role="TrG5h" value="getType" />
      <property role="13i0it" value="false" />
      <property role="13i0iv" value="false" />
      <ref role="13i0hy" to="tpek:27DJnJtIQ9C" resolve="getType" />
      <node concept="3Tm1VV" id="4IGpg_YjLFo" role="1B3o_S" />
      <node concept="3clFbS" id="4IGpg_YjLFp" role="3clF47">
        <node concept="3cpWs6" id="4IGpg_YjLFq" role="3cqZAp">
          <node concept="2c44tf" id="4IGpg_YjLtN" role="3cqZAk">
            <node concept="3uibUv" id="hX_6Jk2" role="2c44tc">
              <ref role="3uigEE" to="yy4t:~TextGenBuffer" resolve="TextGenBuffer" />
            </node>
          </node>
        </node>
      </node>
      <node concept="3Tqbb2" id="4IGpg_YjLFr" role="3clF45">
        <ref role="ehGHo" to="tpee:fz3vP1H" resolve="Type" />
      </node>
    </node>
  </node>
  <node concept="13h7C7" id="2wXN29P1Op">
    <ref role="13h7C2" to="2omo:2wXN29P0Ie" resolve="FilenameFunction" />
    <node concept="13hLZK" id="2wXN29P1QO" role="13h7CW">
      <node concept="3clFbS" id="2wXN29P1QP" role="2VODD2" />
    </node>
    <node concept="13i0hz" id="2wXN29PbQ3" role="13h7CS">
      <property role="2Ki8OM" value="true" />
      <property role="13i0is" value="false" />
      <property role="TrG5h" value="getApplicableConceptFunctionParameter" />
      <property role="13i0it" value="false" />
      <property role="13i0iv" value="false" />
      <ref role="13i0hy" to="tpek:2D1PBM_bxJg" resolve="getApplicableConceptFunctionParameter" />
      <node concept="3Tm1VV" id="2wXN29PbQ4" role="1B3o_S" />
      <node concept="3clFbS" id="2wXN29PbQc" role="3clF47">
        <node concept="3cpWs8" id="2wXN29Ploh" role="3cqZAp">
          <node concept="3cpWsn" id="2wXN29Plok" role="3cpWs9">
            <property role="TrG5h" value="rv" />
            <node concept="_YKpA" id="2wXN29Plod" role="1tU5fm">
              <node concept="3Tqbb2" id="2wXN29PloD" role="_ZDj9">
                <ref role="ehGHo" to="tpce:f_TIwhg" resolve="ConceptDeclaration" />
              </node>
            </node>
            <node concept="2ShNRf" id="2wXN29PlzY" role="33vP2m">
              <node concept="Tc6Ow" id="2wXN29Pnc0" role="2ShVmc">
                <node concept="3Tqbb2" id="2wXN29Pnw8" role="HW$YZ">
                  <ref role="ehGHo" to="tpce:f_TIwhg" resolve="ConceptDeclaration" />
                </node>
              </node>
            </node>
          </node>
        </node>
        <node concept="3clFbF" id="2wXN29PnII" role="3cqZAp">
          <node concept="2OqwBi" id="2wXN29Poy$" role="3clFbG">
            <node concept="37vLTw" id="2wXN29PnIH" role="2Oq$k0">
              <ref role="3cqZAo" node="2wXN29Plok" resolve="rv" />
            </node>
            <node concept="TSZUe" id="2wXN29Pt$1" role="2OqNvi">
              <node concept="3B5_sB" id="2wXN29PtSP" role="25WWJ7">
                <ref role="3B5MYn" to="2omo:hX17ltF" resolve="NodeParameter" />
              </node>
            </node>
          </node>
        </node>
        <node concept="3cpWs6" id="2wXN29PlnZ" role="3cqZAp">
          <node concept="37vLTw" id="2wXN29PtD3" role="3cqZAk">
            <ref role="3cqZAo" node="2wXN29Plok" resolve="rv" />
          </node>
        </node>
      </node>
      <node concept="_YKpA" id="2wXN29PbQd" role="3clF45">
        <node concept="3Tqbb2" id="2wXN29PbQe" role="_ZDj9">
          <ref role="ehGHo" to="tpce:f_TIwhg" resolve="ConceptDeclaration" />
        </node>
      </node>
    </node>
    <node concept="13i0hz" id="5dTOjvb6JIt" role="13h7CS">
      <property role="13i0is" value="false" />
      <property role="TrG5h" value="getExpectedReturnType" />
      <property role="13i0it" value="false" />
      <property role="13i0iv" value="false" />
      <ref role="13i0hy" to="tpek:hEwIGRD" resolve="getExpectedReturnType" />
      <node concept="3Tm1VV" id="5dTOjvb6JI_" role="1B3o_S" />
      <node concept="3clFbS" id="5dTOjvb6JIB" role="3clF47">
        <node concept="3cpWs6" id="5dTOjvb6JLA" role="3cqZAp">
          <node concept="2c44tf" id="2mRWqzJOVce" role="3cqZAk">
            <node concept="17QB3L" id="2mRWqzJOVcY" role="2c44tc" />
          </node>
        </node>
      </node>
      <node concept="3Tqbb2" id="5dTOjvb6JIC" role="3clF45" />
    </node>
  </node>
  <node concept="13h7C7" id="2IGJLB$lVPs">
    <property role="3GE5qa" value="operation" />
    <ref role="13h7C2" to="2omo:2IGJLB$lVOV" resolve="StubOperationDeclaration" />
    <node concept="13hLZK" id="2IGJLB$lVPt" role="13h7CW">
      <node concept="3clFbS" id="2IGJLB$lVPu" role="2VODD2">
        <node concept="3clFbF" id="2IGJLB$mm8e" role="3cqZAp">
          <node concept="37vLTI" id="2IGJLB$mm8f" role="3clFbG">
            <node concept="2ShNRf" id="2IGJLB$mm8g" role="37vLTx">
              <node concept="3zrR0B" id="2IGJLB$mm8h" role="2ShVmc">
                <node concept="3Tqbb2" id="2IGJLB$mm8i" role="3zrR0E">
                  <ref role="ehGHo" to="tpee:fzcqZ_H" resolve="VoidType" />
                </node>
              </node>
            </node>
            <node concept="2OqwBi" id="2IGJLB$mm8j" role="37vLTJ">
              <node concept="13iPFW" id="2IGJLB$mm8k" role="2Oq$k0" />
              <node concept="3TrEf2" id="2IGJLB$mm8l" role="2OqNvi">
                <ref role="3Tt5mk" to="tpee:fzclF7X" />
              </node>
            </node>
          </node>
        </node>
        <node concept="3clFbF" id="2IGJLB$lZie" role="3cqZAp">
          <node concept="2OqwBi" id="2IGJLB$m4nS" role="3clFbG">
            <node concept="2OqwBi" id="2IGJLB$m0t3" role="2Oq$k0">
              <node concept="13iPFW" id="2IGJLB$lZic" role="2Oq$k0" />
              <node concept="3TrEf2" id="2IGJLB$m2hY" role="2OqNvi">
                <ref role="3Tt5mk" to="tpee:fzclF7Z" />
              </node>
            </node>
            <node concept="2oxUTD" id="2IGJLB$m6zD" role="2OqNvi">
              <node concept="2pJPEk" id="2IGJLB$mc8d" role="2oxUTC">
                <node concept="2pJPED" id="2IGJLB$mdnO" role="2pJPEn">
                  <ref role="2pJxaS" to="tpee:fzclF80" resolve="StatementList" />
                </node>
              </node>
            </node>
          </node>
        </node>
      </node>
    </node>
  </node>
  <node concept="13h7C7" id="$P$7g1EKUC">
    <property role="3GE5qa" value="parameter" />
    <ref role="13h7C2" to="2omo:hX17ltF" resolve="NodeParameter" />
    <node concept="13hLZK" id="$P$7g1EKUD" role="13h7CW">
      <node concept="3clFbS" id="$P$7g1EKUE" role="2VODD2" />
    </node>
    <node concept="13i0hz" id="$P$7g1ELhY" role="13h7CS">
      <property role="13i0is" value="false" />
      <property role="TrG5h" value="isParameterObjectUsed" />
      <property role="13i0it" value="false" />
      <property role="13i0iv" value="false" />
      <ref role="13i0hy" to="tpek:hEwJh7I" resolve="isParameterObjectUsed" />
      <node concept="3Tm1VV" id="$P$7g1ELi8" role="1B3o_S" />
      <node concept="3clFbS" id="$P$7g1ELi9" role="3clF47">
        <node concept="3clFbF" id="$P$7g1ELmm" role="3cqZAp">
          <node concept="3clFbT" id="$P$7g1ELml" role="3clFbG">
            <property role="3clFbU" value="true" />
          </node>
        </node>
      </node>
      <node concept="10P_77" id="$P$7g1ELia" role="3clF45" />
    </node>
  </node>
</model>

