<?xml version="1.0" encoding="UTF-8"?>
<model ref="r:86bef719-3805-4be3-860b-08555adf519c(jetbrains.mps.samples.lambdaCalculus.behavior)">
  <persistence version="9" />
  <languages>
    <use id="83888646-71ce-4f1c-9c53-c54016f6ad4f" name="jetbrains.mps.baseLanguage.collections" version="0" />
    <use id="af65afd8-f0dd-4942-87d9-63a55f2a9db1" name="jetbrains.mps.lang.behavior" version="0" />
    <use id="7866978e-a0f0-4cc7-81bc-4d213d9375e1" name="jetbrains.mps.lang.smodel" version="4" />
    <use id="f3061a53-9226-4cc5-a443-f952ceaf5816" name="jetbrains.mps.baseLanguage" version="4" />
    <devkit ref="fbc25dd2-5da4-483a-8b19-70928e1b62d7(jetbrains.mps.devkit.general-purpose)" />
  </languages>
  <imports>
    <import index="qjd" ref="r:d30b7004-00fd-4d3e-bdd6-6ae5346d9b86(jetbrains.mps.samples.lambdaCalculus.structure)" />
    <import index="tpcu" ref="r:00000000-0000-4000-0000-011c89590282(jetbrains.mps.lang.core.behavior)" />
  </imports>
  <registry>
    <language id="af65afd8-f0dd-4942-87d9-63a55f2a9db1" name="jetbrains.mps.lang.behavior">
      <concept id="6496299201655527393" name="jetbrains.mps.lang.behavior.structure.LocalBehaviorMethodCall" flags="nn" index="BsUDl" />
      <concept id="1225194240794" name="jetbrains.mps.lang.behavior.structure.ConceptBehavior" flags="ng" index="13h7C7">
        <reference id="1225194240799" name="concept" index="13h7C2" />
        <child id="1225194240805" name="method" index="13h7CS" />
        <child id="1225194240801" name="constructor" index="13h7CW" />
      </concept>
      <concept id="1225194413805" name="jetbrains.mps.lang.behavior.structure.ConceptConstructorDeclaration" flags="in" index="13hLZK" />
      <concept id="1225194472830" name="jetbrains.mps.lang.behavior.structure.ConceptMethodDeclaration" flags="ng" index="13i0hz">
        <property id="1225194472832" name="isVirtual" index="13i0it" />
        <property id="1225194472834" name="isAbstract" index="13i0iv" />
        <reference id="1225194472831" name="overriddenMethod" index="13i0hy" />
      </concept>
      <concept id="1225194691553" name="jetbrains.mps.lang.behavior.structure.ThisNodeExpression" flags="nn" index="13iPFW" />
    </language>
    <language id="f3061a53-9226-4cc5-a443-f952ceaf5816" name="jetbrains.mps.baseLanguage">
      <concept id="1215693861676" name="jetbrains.mps.baseLanguage.structure.BaseAssignmentExpression" flags="nn" index="d038R">
        <child id="1068498886297" name="rValue" index="37vLTx" />
        <child id="1068498886295" name="lValue" index="37vLTJ" />
      </concept>
      <concept id="1076505808687" name="jetbrains.mps.baseLanguage.structure.WhileStatement" flags="nn" index="2$JKZl">
        <child id="1076505808688" name="condition" index="2$JKZa" />
      </concept>
      <concept id="1154032098014" name="jetbrains.mps.baseLanguage.structure.AbstractLoopStatement" flags="nn" index="2LF5Ji">
        <child id="1154032183016" name="body" index="2LFqv$" />
      </concept>
      <concept id="1197027756228" name="jetbrains.mps.baseLanguage.structure.DotExpression" flags="nn" index="2OqwBi">
        <child id="1197027771414" name="operand" index="2Oq$k0" />
        <child id="1197027833540" name="operation" index="2OqNvi" />
      </concept>
      <concept id="1145552977093" name="jetbrains.mps.baseLanguage.structure.GenericNewExpression" flags="nn" index="2ShNRf">
        <child id="1145553007750" name="creator" index="2ShVmc" />
      </concept>
      <concept id="1137021947720" name="jetbrains.mps.baseLanguage.structure.ConceptFunction" flags="in" index="2VMwT0">
        <child id="1137022507850" name="body" index="2VODD2" />
      </concept>
      <concept id="1070475926800" name="jetbrains.mps.baseLanguage.structure.StringLiteral" flags="nn" index="Xl_RD">
        <property id="1070475926801" name="value" index="Xl_RC" />
      </concept>
      <concept id="1070534058343" name="jetbrains.mps.baseLanguage.structure.NullLiteral" flags="nn" index="10Nm6u" />
      <concept id="1070534644030" name="jetbrains.mps.baseLanguage.structure.BooleanType" flags="in" index="10P_77" />
      <concept id="1068431474542" name="jetbrains.mps.baseLanguage.structure.VariableDeclaration" flags="ng" index="33uBYm">
        <child id="1068431790190" name="initializer" index="33vP2m" />
      </concept>
      <concept id="1068498886296" name="jetbrains.mps.baseLanguage.structure.VariableReference" flags="nn" index="37vLTw">
        <reference id="1068581517664" name="variableDeclaration" index="3cqZAo" />
      </concept>
      <concept id="1068498886294" name="jetbrains.mps.baseLanguage.structure.AssignmentExpression" flags="nn" index="37vLTI" />
      <concept id="1225271177708" name="jetbrains.mps.baseLanguage.structure.StringType" flags="in" index="17QB3L" />
      <concept id="4972933694980447171" name="jetbrains.mps.baseLanguage.structure.BaseVariableDeclaration" flags="ng" index="19Szcq">
        <child id="5680397130376446158" name="type" index="1tU5fm" />
      </concept>
      <concept id="1068580123132" name="jetbrains.mps.baseLanguage.structure.BaseMethodDeclaration" flags="ng" index="3clF44">
        <child id="1068580123133" name="returnType" index="3clF45" />
        <child id="1068580123135" name="body" index="3clF47" />
      </concept>
      <concept id="1068580123152" name="jetbrains.mps.baseLanguage.structure.EqualsExpression" flags="nn" index="3clFbC" />
      <concept id="1068580123155" name="jetbrains.mps.baseLanguage.structure.ExpressionStatement" flags="nn" index="3clFbF">
        <child id="1068580123156" name="expression" index="3clFbG" />
      </concept>
      <concept id="1068580123157" name="jetbrains.mps.baseLanguage.structure.Statement" flags="nn" index="3clFbH" />
      <concept id="1068580123159" name="jetbrains.mps.baseLanguage.structure.IfStatement" flags="nn" index="3clFbJ">
        <child id="1068580123160" name="condition" index="3clFbw" />
        <child id="1068580123161" name="ifTrue" index="3clFbx" />
        <child id="1206060520071" name="elsifClauses" index="3eNLev" />
      </concept>
      <concept id="1068580123136" name="jetbrains.mps.baseLanguage.structure.StatementList" flags="sn" stub="5293379017992965193" index="3clFbS">
        <child id="1068581517665" name="statement" index="3cqZAp" />
      </concept>
      <concept id="1068580123137" name="jetbrains.mps.baseLanguage.structure.BooleanConstant" flags="nn" index="3clFbT">
        <property id="1068580123138" name="value" index="3clFbU" />
      </concept>
      <concept id="1068581242875" name="jetbrains.mps.baseLanguage.structure.PlusExpression" flags="nn" index="3cpWs3" />
      <concept id="1068581242878" name="jetbrains.mps.baseLanguage.structure.ReturnStatement" flags="nn" index="3cpWs6">
        <child id="1068581517676" name="expression" index="3cqZAk" />
      </concept>
      <concept id="1068581242864" name="jetbrains.mps.baseLanguage.structure.LocalVariableDeclarationStatement" flags="nn" index="3cpWs8">
        <child id="1068581242865" name="localVariableDeclaration" index="3cpWs9" />
      </concept>
      <concept id="1068581242863" name="jetbrains.mps.baseLanguage.structure.LocalVariableDeclaration" flags="nr" index="3cpWsn" />
      <concept id="1206060495898" name="jetbrains.mps.baseLanguage.structure.ElsifClause" flags="ng" index="3eNFk2">
        <child id="1206060619838" name="condition" index="3eO9$A" />
        <child id="1206060644605" name="statementList" index="3eOfB_" />
      </concept>
      <concept id="1079359253375" name="jetbrains.mps.baseLanguage.structure.ParenthesizedExpression" flags="nn" index="1eOMI4">
        <child id="1079359253376" name="expression" index="1eOMHV" />
      </concept>
      <concept id="1081516740877" name="jetbrains.mps.baseLanguage.structure.NotExpression" flags="nn" index="3fqX7Q">
        <child id="1081516765348" name="expression" index="3fr31v" />
      </concept>
      <concept id="1204053956946" name="jetbrains.mps.baseLanguage.structure.IMethodCall" flags="ng" index="1ndlxa">
        <reference id="1068499141037" name="baseMethodDeclaration" index="37wK5l" />
      </concept>
      <concept id="1081773326031" name="jetbrains.mps.baseLanguage.structure.BinaryOperation" flags="nn" index="3uHJSO">
        <child id="1081773367579" name="rightExpression" index="3uHU7w" />
        <child id="1081773367580" name="leftExpression" index="3uHU7B" />
      </concept>
      <concept id="1073239437375" name="jetbrains.mps.baseLanguage.structure.NotEqualsExpression" flags="nn" index="3y3z36" />
      <concept id="1178549954367" name="jetbrains.mps.baseLanguage.structure.IVisible" flags="ng" index="1B3ioH">
        <child id="1178549979242" name="visibility" index="1B3o_S" />
      </concept>
      <concept id="1144226303539" name="jetbrains.mps.baseLanguage.structure.ForeachStatement" flags="nn" index="1DcWWT">
        <child id="1144226360166" name="iterable" index="1DdaDG" />
      </concept>
      <concept id="1144230876926" name="jetbrains.mps.baseLanguage.structure.AbstractForStatement" flags="nn" index="1DupvO">
        <child id="1144230900587" name="variable" index="1Duv9x" />
      </concept>
      <concept id="6329021646629104957" name="jetbrains.mps.baseLanguage.structure.TextCommentPart" flags="nn" index="3SKdUq">
        <property id="6329021646629104958" name="text" index="3SKdUp" />
      </concept>
      <concept id="6329021646629104954" name="jetbrains.mps.baseLanguage.structure.SingleLineComment" flags="nn" index="3SKdUt">
        <child id="6329021646629175155" name="commentPart" index="3SKWNk" />
      </concept>
      <concept id="1146644602865" name="jetbrains.mps.baseLanguage.structure.PublicVisibility" flags="nn" index="3Tm1VV" />
      <concept id="1080120340718" name="jetbrains.mps.baseLanguage.structure.AndExpression" flags="nn" index="1Wc70l" />
    </language>
    <language id="7866978e-a0f0-4cc7-81bc-4d213d9375e1" name="jetbrains.mps.lang.smodel">
      <concept id="1177026924588" name="jetbrains.mps.lang.smodel.structure.RefConcept_Reference" flags="nn" index="chp4Y">
        <reference id="1177026940964" name="conceptDeclaration" index="cht4Q" />
      </concept>
      <concept id="1138411891628" name="jetbrains.mps.lang.smodel.structure.SNodeOperation" flags="nn" index="eCIE_">
        <child id="1144104376918" name="parameter" index="1xVPHs" />
      </concept>
      <concept id="1179409122411" name="jetbrains.mps.lang.smodel.structure.Node_ConceptMethodCall" flags="nn" index="2qgKlT" />
      <concept id="2396822768958367367" name="jetbrains.mps.lang.smodel.structure.AbstractTypeCastExpression" flags="nn" index="$5XWr">
        <reference id="6733348108486823428" name="concept" index="1m5ApE" />
        <child id="6733348108486823193" name="leftExpression" index="1m5AlR" />
      </concept>
      <concept id="1145383075378" name="jetbrains.mps.lang.smodel.structure.SNodeListType" flags="in" index="2I9FWS">
        <reference id="1145383142433" name="elementConcept" index="2I9WkF" />
      </concept>
      <concept id="1171305280644" name="jetbrains.mps.lang.smodel.structure.Node_GetDescendantsOperation" flags="nn" index="2Rf3mk" />
      <concept id="1145567426890" name="jetbrains.mps.lang.smodel.structure.SNodeListCreator" flags="nn" index="2T8Vx0">
        <child id="1145567471833" name="createdType" index="2T96Bj" />
      </concept>
      <concept id="1139613262185" name="jetbrains.mps.lang.smodel.structure.Node_GetParentOperation" flags="nn" index="1mfA1w" />
      <concept id="1139621453865" name="jetbrains.mps.lang.smodel.structure.Node_IsInstanceOfOperation" flags="nn" index="1mIQ4w">
        <child id="1177027386292" name="conceptArgument" index="cj9EA" />
      </concept>
      <concept id="1144101972840" name="jetbrains.mps.lang.smodel.structure.OperationParm_Concept" flags="ng" index="1xMEDy">
        <child id="1207343664468" name="conceptArgument" index="ri$Ld" />
      </concept>
      <concept id="1140137987495" name="jetbrains.mps.lang.smodel.structure.SNodeTypeCastExpression" flags="nn" index="1PxgMI">
        <property id="1238684351431" name="asCast" index="1BlNFB" />
      </concept>
      <concept id="1138055754698" name="jetbrains.mps.lang.smodel.structure.SNodeType" flags="in" index="3Tqbb2">
        <reference id="1138405853777" name="concept" index="ehGHo" />
      </concept>
      <concept id="1138056143562" name="jetbrains.mps.lang.smodel.structure.SLinkAccess" flags="nn" index="3TrEf2">
        <reference id="1138056516764" name="link" index="3Tt5mk" />
      </concept>
      <concept id="1138056282393" name="jetbrains.mps.lang.smodel.structure.SLinkListAccess" flags="nn" index="3Tsc0h">
        <reference id="1138056546658" name="link" index="3TtcxE" />
      </concept>
    </language>
    <language id="ceab5195-25ea-4f22-9b92-103b95ca8c0c" name="jetbrains.mps.lang.core">
      <concept id="1133920641626" name="jetbrains.mps.lang.core.structure.BaseConcept" flags="ng" index="2VYdi">
        <property id="1193676396447" name="virtualPackage" index="3GE5qa" />
      </concept>
      <concept id="1169194658468" name="jetbrains.mps.lang.core.structure.INamedConcept" flags="ng" index="TrEIO">
        <property id="1169194664001" name="name" index="TrG5h" />
      </concept>
    </language>
    <language id="83888646-71ce-4f1c-9c53-c54016f6ad4f" name="jetbrains.mps.baseLanguage.collections">
      <concept id="540871147943773365" name="jetbrains.mps.baseLanguage.collections.structure.SingleArgumentSequenceOperation" flags="nn" index="25WWJ4">
        <child id="540871147943773366" name="argument" index="25WWJ7" />
      </concept>
      <concept id="1160612413312" name="jetbrains.mps.baseLanguage.collections.structure.AddElementOperation" flags="nn" index="TSZUe" />
      <concept id="1160666733551" name="jetbrains.mps.baseLanguage.collections.structure.AddAllElementsOperation" flags="nn" index="X8dFx" />
      <concept id="1162935959151" name="jetbrains.mps.baseLanguage.collections.structure.GetSizeOperation" flags="nn" index="34oBXx" />
      <concept id="1172254888721" name="jetbrains.mps.baseLanguage.collections.structure.ContainsOperation" flags="nn" index="3JPx81" />
    </language>
  </registry>
  <node concept="13h7C7" id="4pfsEnSN_yZ">
    <ref role="13h7C2" to="qjd:3vh6UvnVcY0" resolve="LambdaAbstraction" />
    <node concept="13i0hz" id="4pfsEnSN_z2" role="13h7CS">
      <property role="TrG5h" value="getInnerBody" />
      <node concept="3Tm1VV" id="4pfsEnSN_z3" role="1B3o_S" />
      <node concept="3Tqbb2" id="4pfsEnSN_z6" role="3clF45">
        <ref role="ehGHo" to="qjd:3vh6UvnV9zD" resolve="LambdaExpression" />
      </node>
      <node concept="3clFbS" id="4pfsEnSN_z5" role="3clF47">
        <node concept="3clFbJ" id="4pfsEnSN_z7" role="3cqZAp">
          <node concept="2OqwBi" id="4pfsEnSN_zg" role="3clFbw">
            <node concept="2OqwBi" id="4pfsEnSN_zb" role="2Oq$k0">
              <node concept="13iPFW" id="4pfsEnSN_za" role="2Oq$k0" />
              <node concept="3TrEf2" id="4pfsEnSN_zf" role="2OqNvi">
                <ref role="3Tt5mk" to="qjd:3vh6UvnVyR5" />
              </node>
            </node>
            <node concept="1mIQ4w" id="4pfsEnSN_zk" role="2OqNvi">
              <node concept="chp4Y" id="4pfsEnSN_zm" role="cj9EA">
                <ref role="cht4Q" to="qjd:3vh6UvnVcY0" resolve="LambdaAbstraction" />
              </node>
            </node>
          </node>
          <node concept="3clFbS" id="4pfsEnSN_z9" role="3clFbx">
            <node concept="3cpWs6" id="4pfsEnSN_zn" role="3cqZAp">
              <node concept="2OqwBi" id="4pfsEnSN_zv" role="3cqZAk">
                <node concept="1PxgMI" id="4pfsEnSN_zz" role="2Oq$k0">
                  <ref role="1m5ApE" to="qjd:3vh6UvnVcY0" resolve="LambdaAbstraction" />
                  <node concept="2OqwBi" id="4pfsEnSN_zq" role="1m5AlR">
                    <node concept="13iPFW" id="4pfsEnSN_zp" role="2Oq$k0" />
                    <node concept="3TrEf2" id="4pfsEnSN_zu" role="2OqNvi">
                      <ref role="3Tt5mk" to="qjd:3vh6UvnVyR5" />
                    </node>
                  </node>
                </node>
                <node concept="2qgKlT" id="4pfsEnSN_z_" role="2OqNvi">
                  <ref role="37wK5l" node="4pfsEnSN_z2" resolve="getInnerBody" />
                </node>
              </node>
            </node>
          </node>
        </node>
        <node concept="3cpWs6" id="4pfsEnSN_zB" role="3cqZAp">
          <node concept="2OqwBi" id="4pfsEnSN_zE" role="3cqZAk">
            <node concept="13iPFW" id="4pfsEnSN_zD" role="2Oq$k0" />
            <node concept="3TrEf2" id="4pfsEnSN_zI" role="2OqNvi">
              <ref role="3Tt5mk" to="qjd:3vh6UvnVyR5" />
            </node>
          </node>
        </node>
      </node>
    </node>
    <node concept="13i0hz" id="4pfsEnSNEj7" role="13h7CS">
      <property role="TrG5h" value="getAllVariables" />
      <node concept="3Tm1VV" id="4pfsEnSNEj8" role="1B3o_S" />
      <node concept="2I9FWS" id="4pfsEnSNEjf" role="3clF45">
        <ref role="2I9WkF" to="qjd:3vh6UvnVcY1" resolve="AbstractionVariable" />
      </node>
      <node concept="3clFbS" id="4pfsEnSNEja" role="3clF47">
        <node concept="3cpWs8" id="4pfsEnSNEjg" role="3cqZAp">
          <node concept="3cpWsn" id="4pfsEnSNEjh" role="3cpWs9">
            <property role="TrG5h" value="result" />
            <node concept="2I9FWS" id="4pfsEnSNEji" role="1tU5fm">
              <ref role="2I9WkF" to="qjd:3vh6UvnVcY1" resolve="AbstractionVariable" />
            </node>
            <node concept="2ShNRf" id="4pfsEnSNEjk" role="33vP2m">
              <node concept="2T8Vx0" id="4pfsEnSNEjl" role="2ShVmc">
                <node concept="2I9FWS" id="4pfsEnSNEjm" role="2T96Bj">
                  <ref role="2I9WkF" to="qjd:3vh6UvnVcY1" resolve="AbstractionVariable" />
                </node>
              </node>
            </node>
          </node>
        </node>
        <node concept="3SKdUt" id="4pfsEnSNEmj" role="3cqZAp">
          <node concept="3SKdUq" id="4pfsEnSNEmp" role="3SKWNk">
            <property role="3SKdUp" value="Is it OK to create lists recursively?" />
          </node>
        </node>
        <node concept="3clFbF" id="4pfsEnSNEjs" role="3cqZAp">
          <node concept="2OqwBi" id="4pfsEnSNEju" role="3clFbG">
            <node concept="37vLTw" id="3GM_nagTwYe" role="2Oq$k0">
              <ref role="3cqZAo" node="4pfsEnSNEjh" resolve="result" />
            </node>
            <node concept="X8dFx" id="4pfsEnSNEjy" role="2OqNvi">
              <node concept="2OqwBi" id="4pfsEnSNEjO" role="25WWJ7">
                <node concept="13iPFW" id="4pfsEnSNEjI" role="2Oq$k0" />
                <node concept="3Tsc0h" id="7M_MU5__wtZ" role="2OqNvi">
                  <ref role="3TtcxE" to="qjd:3vh6UvnVyQT" />
                </node>
              </node>
            </node>
          </node>
        </node>
        <node concept="3clFbJ" id="4pfsEnSNEk4" role="3cqZAp">
          <node concept="3clFbS" id="4pfsEnSNEk5" role="3clFbx">
            <node concept="3clFbF" id="4pfsEnSNEkt" role="3cqZAp">
              <node concept="2OqwBi" id="4pfsEnSNEkv" role="3clFbG">
                <node concept="37vLTw" id="3GM_nagTyH8" role="2Oq$k0">
                  <ref role="3cqZAo" node="4pfsEnSNEjh" resolve="result" />
                </node>
                <node concept="X8dFx" id="4pfsEnSNEl2" role="2OqNvi">
                  <node concept="2OqwBi" id="4pfsEnSNElT" role="25WWJ7">
                    <node concept="1PxgMI" id="4pfsEnSNElH" role="2Oq$k0">
                      <ref role="1m5ApE" to="qjd:3vh6UvnVcY0" resolve="LambdaAbstraction" />
                      <node concept="2OqwBi" id="4pfsEnSNEla" role="1m5AlR">
                        <node concept="13iPFW" id="4pfsEnSNEl9" role="2Oq$k0" />
                        <node concept="3TrEf2" id="4pfsEnSNElp" role="2OqNvi">
                          <ref role="3Tt5mk" to="qjd:3vh6UvnVyR5" />
                        </node>
                      </node>
                    </node>
                    <node concept="2qgKlT" id="4pfsEnSNEm2" role="2OqNvi">
                      <ref role="37wK5l" node="4pfsEnSNEj7" resolve="getAllVariables" />
                    </node>
                  </node>
                </node>
              </node>
            </node>
          </node>
          <node concept="2OqwBi" id="4pfsEnSNEkm" role="3clFbw">
            <node concept="2OqwBi" id="4pfsEnSNEkh" role="2Oq$k0">
              <node concept="13iPFW" id="4pfsEnSNEkg" role="2Oq$k0" />
              <node concept="3TrEf2" id="4pfsEnSNEkl" role="2OqNvi">
                <ref role="3Tt5mk" to="qjd:3vh6UvnVyR5" />
              </node>
            </node>
            <node concept="1mIQ4w" id="4pfsEnSNEkq" role="2OqNvi">
              <node concept="chp4Y" id="4pfsEnSNEks" role="cj9EA">
                <ref role="cht4Q" to="qjd:3vh6UvnVcY0" resolve="LambdaAbstraction" />
              </node>
            </node>
          </node>
        </node>
        <node concept="3cpWs6" id="4pfsEnSNEjp" role="3cqZAp">
          <node concept="37vLTw" id="3GM_nagTzyE" role="3cqZAk">
            <ref role="3cqZAo" node="4pfsEnSNEjh" resolve="result" />
          </node>
        </node>
      </node>
    </node>
    <node concept="13hLZK" id="4pfsEnSN_z0" role="13h7CW">
      <node concept="3clFbS" id="4pfsEnSN_z1" role="2VODD2" />
    </node>
    <node concept="13i0hz" id="7M_MU5__$Ru" role="13h7CS">
      <property role="TrG5h" value="getVariables" />
      <property role="13i0it" value="true" />
      <ref role="13i0hy" node="7M_MU5__$7C" resolve="getVariables" />
      <node concept="3Tm1VV" id="7M_MU5__$Rv" role="1B3o_S" />
      <node concept="3clFbS" id="7M_MU5__$Rw" role="3clF47">
        <node concept="3cpWs6" id="7M_MU5__$RB" role="3cqZAp">
          <node concept="2OqwBi" id="7M_MU5__$RC" role="3cqZAk">
            <node concept="13iPFW" id="7M_MU5__$RD" role="2Oq$k0" />
            <node concept="3Tsc0h" id="7M_MU5__$RE" role="2OqNvi">
              <ref role="3TtcxE" to="qjd:3vh6UvnVyQT" />
            </node>
          </node>
        </node>
      </node>
      <node concept="2I9FWS" id="7M_MU5__$Rx" role="3clF45">
        <ref role="2I9WkF" to="qjd:4zrttnsimGi" resolve="Variable" />
      </node>
    </node>
  </node>
  <node concept="13h7C7" id="4pfsEnSNDdU">
    <ref role="13h7C2" to="qjd:3vh6UvnVyRt" resolve="LambdaApplication" />
    <node concept="13i0hz" id="4pfsEnSNDeV" role="13h7CS">
      <property role="TrG5h" value="getArguments" />
      <node concept="3Tm1VV" id="4pfsEnSNDeW" role="1B3o_S" />
      <node concept="2I9FWS" id="4pfsEnSNDeZ" role="3clF45">
        <ref role="2I9WkF" to="qjd:3vh6UvnV9zD" resolve="LambdaExpression" />
      </node>
      <node concept="3clFbS" id="4pfsEnSNDeY" role="3clF47">
        <node concept="3cpWs8" id="4pfsEnSNDf0" role="3cqZAp">
          <node concept="3cpWsn" id="4pfsEnSNDf1" role="3cpWs9">
            <property role="TrG5h" value="result" />
            <node concept="2I9FWS" id="4pfsEnSNDf2" role="1tU5fm">
              <ref role="2I9WkF" to="qjd:3vh6UvnV9zD" resolve="LambdaExpression" />
            </node>
            <node concept="2ShNRf" id="4pfsEnSNDf4" role="33vP2m">
              <node concept="2T8Vx0" id="4pfsEnSNDf5" role="2ShVmc">
                <node concept="2I9FWS" id="4pfsEnSNDf6" role="2T96Bj">
                  <ref role="2I9WkF" to="qjd:3vh6UvnV9zD" resolve="LambdaExpression" />
                </node>
              </node>
            </node>
          </node>
        </node>
        <node concept="3clFbF" id="4pfsEnSNDfw" role="3cqZAp">
          <node concept="2OqwBi" id="4pfsEnSNDfy" role="3clFbG">
            <node concept="37vLTw" id="3GM_nagTrVf" role="2Oq$k0">
              <ref role="3cqZAo" node="4pfsEnSNDf1" resolve="result" />
            </node>
            <node concept="X8dFx" id="4pfsEnSNDfA" role="2OqNvi">
              <node concept="2OqwBi" id="4pfsEnSNDfN" role="25WWJ7">
                <node concept="13iPFW" id="4pfsEnSNDfH" role="2Oq$k0" />
                <node concept="3Tsc0h" id="4pfsEnSNDfW" role="2OqNvi">
                  <ref role="3TtcxE" to="qjd:3vh6UvnVyRx" />
                </node>
              </node>
            </node>
          </node>
        </node>
        <node concept="3clFbJ" id="4pfsEnSNDfe" role="3cqZAp">
          <node concept="3clFbS" id="4pfsEnSNDff" role="3clFbx">
            <node concept="3clFbF" id="4pfsEnSNDg2" role="3cqZAp">
              <node concept="2OqwBi" id="4pfsEnSNDg9" role="3clFbG">
                <node concept="37vLTw" id="3GM_nagTsOg" role="2Oq$k0">
                  <ref role="3cqZAo" node="4pfsEnSNDf1" resolve="result" />
                </node>
                <node concept="X8dFx" id="4pfsEnSNDgd" role="2OqNvi">
                  <node concept="2OqwBi" id="4pfsEnSNDgW" role="25WWJ7">
                    <node concept="1PxgMI" id="4pfsEnSNDgK" role="2Oq$k0">
                      <ref role="1m5ApE" to="qjd:3vh6UvnVyRt" resolve="LambdaApplication" />
                      <node concept="2OqwBi" id="4pfsEnSNDgk" role="1m5AlR">
                        <node concept="13iPFW" id="4pfsEnSNDgl" role="2Oq$k0" />
                        <node concept="3TrEf2" id="4khEFTQ$3Vz" role="2OqNvi">
                          <ref role="3Tt5mk" to="qjd:3vh6UvnVyRw" />
                        </node>
                      </node>
                    </node>
                    <node concept="2qgKlT" id="4khEFTQ$3VD" role="2OqNvi">
                      <ref role="37wK5l" node="4pfsEnSNDeV" resolve="getArguments" />
                    </node>
                  </node>
                </node>
              </node>
            </node>
          </node>
          <node concept="2OqwBi" id="4pfsEnSNDfo" role="3clFbw">
            <node concept="1mIQ4w" id="4pfsEnSNDfs" role="2OqNvi">
              <node concept="chp4Y" id="4pfsEnSNDfu" role="cj9EA">
                <ref role="cht4Q" to="qjd:3vh6UvnVyRt" resolve="LambdaApplication" />
              </node>
            </node>
            <node concept="2OqwBi" id="4pfsEnSNEgY" role="2Oq$k0">
              <node concept="13iPFW" id="4pfsEnSNEgS" role="2Oq$k0" />
              <node concept="3TrEf2" id="4khEFTQ$3Um" role="2OqNvi">
                <ref role="3Tt5mk" to="qjd:3vh6UvnVyRw" />
              </node>
            </node>
          </node>
        </node>
        <node concept="3cpWs6" id="4pfsEnSNDf9" role="3cqZAp">
          <node concept="37vLTw" id="3GM_nagTy0v" role="3cqZAk">
            <ref role="3cqZAo" node="4pfsEnSNDf1" resolve="result" />
          </node>
        </node>
      </node>
    </node>
    <node concept="13i0hz" id="4khEFTQ$3U7" role="13h7CS">
      <property role="TrG5h" value="getLambdaAbstraction" />
      <node concept="3Tm1VV" id="4khEFTQ$3U8" role="1B3o_S" />
      <node concept="3Tqbb2" id="4khEFTQ$3Ug" role="3clF45">
        <ref role="ehGHo" to="qjd:3vh6UvnVcY0" resolve="LambdaAbstraction" />
      </node>
      <node concept="3clFbS" id="4khEFTQ$3Ua" role="3clF47">
        <node concept="3clFbJ" id="4khEFTQ$3VJ" role="3cqZAp">
          <node concept="2OqwBi" id="4khEFTQ$3VS" role="3clFbw">
            <node concept="2OqwBi" id="4khEFTQ$3VN" role="2Oq$k0">
              <node concept="13iPFW" id="4khEFTQ$3VM" role="2Oq$k0" />
              <node concept="3TrEf2" id="67o69DSpe68" role="2OqNvi">
                <ref role="3Tt5mk" to="qjd:3vh6UvnVyRw" />
              </node>
            </node>
            <node concept="1mIQ4w" id="4khEFTQ$3VW" role="2OqNvi">
              <node concept="chp4Y" id="4khEFTQ$3VY" role="cj9EA">
                <ref role="cht4Q" to="qjd:3vh6UvnVyRt" resolve="LambdaApplication" />
              </node>
            </node>
          </node>
          <node concept="3clFbS" id="4khEFTQ$3VL" role="3clFbx">
            <node concept="3cpWs6" id="4khEFTQ$3VZ" role="3cqZAp">
              <node concept="2OqwBi" id="4khEFTQ$3Wn" role="3cqZAk">
                <node concept="1PxgMI" id="4khEFTQ$3Wd" role="2Oq$k0">
                  <ref role="1m5ApE" to="qjd:3vh6UvnVyRt" resolve="LambdaApplication" />
                  <node concept="2OqwBi" id="4khEFTQ$3W4" role="1m5AlR">
                    <node concept="13iPFW" id="4khEFTQ$3W3" role="2Oq$k0" />
                    <node concept="3TrEf2" id="67o69DSpe69" role="2OqNvi">
                      <ref role="3Tt5mk" to="qjd:3vh6UvnVyRw" />
                    </node>
                  </node>
                </node>
                <node concept="2qgKlT" id="4khEFTQ$3Wr" role="2OqNvi">
                  <ref role="37wK5l" node="4khEFTQ$3U7" resolve="getLambdaAbstraction" />
                </node>
              </node>
            </node>
          </node>
        </node>
        <node concept="3clFbJ" id="4khEFTQ$3Wt" role="3cqZAp">
          <node concept="3clFbS" id="4khEFTQ$3Wu" role="3clFbx">
            <node concept="3cpWs6" id="3W18jLV3b9E" role="3cqZAp">
              <node concept="1PxgMI" id="3W18jLV3b9F" role="3cqZAk">
                <ref role="1m5ApE" to="qjd:3vh6UvnVcY0" resolve="LambdaAbstraction" />
                <node concept="2OqwBi" id="3W18jLV3b9G" role="1m5AlR">
                  <node concept="13iPFW" id="3W18jLV3b9H" role="2Oq$k0" />
                  <node concept="3TrEf2" id="67o69DSpe6b" role="2OqNvi">
                    <ref role="3Tt5mk" to="qjd:3vh6UvnVyRw" />
                  </node>
                </node>
              </node>
            </node>
            <node concept="3clFbH" id="3W18jLV3b9J" role="3cqZAp" />
          </node>
          <node concept="2OqwBi" id="4khEFTQ$3WB" role="3clFbw">
            <node concept="2OqwBi" id="4khEFTQ$3Wy" role="2Oq$k0">
              <node concept="13iPFW" id="4khEFTQ$3Wx" role="2Oq$k0" />
              <node concept="3TrEf2" id="67o69DSpe6a" role="2OqNvi">
                <ref role="3Tt5mk" to="qjd:3vh6UvnVyRw" />
              </node>
            </node>
            <node concept="1mIQ4w" id="4khEFTQ$3WF" role="2OqNvi">
              <node concept="chp4Y" id="4khEFTQ$3WH" role="cj9EA">
                <ref role="cht4Q" to="qjd:3vh6UvnVcY0" resolve="LambdaAbstraction" />
              </node>
            </node>
          </node>
        </node>
        <node concept="3cpWs6" id="4khEFTQ$3WY" role="3cqZAp">
          <node concept="10Nm6u" id="4khEFTQ$3X0" role="3cqZAk" />
        </node>
      </node>
    </node>
    <node concept="13i0hz" id="18EhrW3IE$z" role="13h7CS">
      <property role="TrG5h" value="isInner" />
      <node concept="3Tm1VV" id="18EhrW3IE$$" role="1B3o_S" />
      <node concept="3clFbS" id="18EhrW3IE$A" role="3clF47">
        <node concept="3clFbF" id="18EhrW3IE_U" role="3cqZAp">
          <node concept="1Wc70l" id="18EhrW3IE_V" role="3clFbG">
            <node concept="3clFbC" id="18EhrW3IE_W" role="3uHU7w">
              <node concept="2OqwBi" id="18EhrW3IE_X" role="3uHU7B">
                <node concept="1PxgMI" id="18EhrW3IE_Y" role="2Oq$k0">
                  <ref role="1m5ApE" to="qjd:3vh6UvnVyRt" resolve="LambdaApplication" />
                  <node concept="2OqwBi" id="18EhrW3IE_Z" role="1m5AlR">
                    <node concept="13iPFW" id="18EhrW3IEA0" role="2Oq$k0" />
                    <node concept="1mfA1w" id="18EhrW3IEA1" role="2OqNvi" />
                  </node>
                </node>
                <node concept="3TrEf2" id="18EhrW3IEA2" role="2OqNvi">
                  <ref role="3Tt5mk" to="qjd:3vh6UvnVyRw" />
                </node>
              </node>
              <node concept="13iPFW" id="18EhrW3IEAa" role="3uHU7w" />
            </node>
            <node concept="2OqwBi" id="18EhrW3IEA4" role="3uHU7B">
              <node concept="2OqwBi" id="18EhrW3IEA5" role="2Oq$k0">
                <node concept="1mfA1w" id="18EhrW3IEA6" role="2OqNvi" />
                <node concept="13iPFW" id="18EhrW3IEA7" role="2Oq$k0" />
              </node>
              <node concept="1mIQ4w" id="18EhrW3IEA8" role="2OqNvi">
                <node concept="chp4Y" id="18EhrW3IEA9" role="cj9EA">
                  <ref role="cht4Q" to="qjd:3vh6UvnVyRt" resolve="LambdaApplication" />
                </node>
              </node>
            </node>
          </node>
        </node>
      </node>
      <node concept="10P_77" id="18EhrW3IE$P" role="3clF45" />
    </node>
    <node concept="13i0hz" id="18EhrW3IFXQ" role="13h7CS">
      <property role="TrG5h" value="isFullApplication" />
      <node concept="3Tm1VV" id="18EhrW3IFXR" role="1B3o_S" />
      <node concept="10P_77" id="18EhrW3IFXZ" role="3clF45" />
      <node concept="3clFbS" id="18EhrW3IFXT" role="3clF47">
        <node concept="3clFbF" id="18EhrW3IFY0" role="3cqZAp">
          <node concept="1Wc70l" id="18EhrW3IFY9" role="3clFbG">
            <node concept="1eOMI4" id="18EhrW3IFZ1" role="3uHU7w">
              <node concept="3clFbC" id="18EhrW3IFYq" role="1eOMHV">
                <node concept="2OqwBi" id="18EhrW3IFYI" role="3uHU7w">
                  <node concept="2OqwBi" id="18EhrW3IFYB" role="2Oq$k0">
                    <node concept="BsUDl" id="3xwsMyQkEyK" role="2Oq$k0">
                      <ref role="37wK5l" node="4khEFTQ$3U7" resolve="getLambdaAbstraction" />
                    </node>
                    <node concept="2qgKlT" id="18EhrW3IFYG" role="2OqNvi">
                      <ref role="37wK5l" node="4pfsEnSNEj7" resolve="getAllVariables" />
                    </node>
                  </node>
                  <node concept="34oBXx" id="18EhrW3IFYN" role="2OqNvi" />
                </node>
                <node concept="2OqwBi" id="18EhrW3IFYi" role="3uHU7B">
                  <node concept="BsUDl" id="3xwsMyQkEz5" role="2Oq$k0">
                    <ref role="37wK5l" node="4pfsEnSNDeV" resolve="getArguments" />
                  </node>
                  <node concept="34oBXx" id="18EhrW3IFYm" role="2OqNvi" />
                </node>
              </node>
            </node>
            <node concept="3fqX7Q" id="18EhrW3IFY1" role="3uHU7B">
              <node concept="BsUDl" id="3xwsMyQkEym" role="3fr31v">
                <ref role="37wK5l" node="18EhrW3IE$z" resolve="isInner" />
              </node>
            </node>
          </node>
        </node>
      </node>
    </node>
    <node concept="13hLZK" id="4pfsEnSNDdV" role="13h7CW">
      <node concept="3clFbS" id="4pfsEnSNDdW" role="2VODD2" />
    </node>
  </node>
  <node concept="13h7C7" id="18EhrW3IG0e">
    <ref role="13h7C2" to="qjd:3vh6UvnV9zD" resolve="LambdaExpression" />
    <node concept="13i0hz" id="18EhrW3IG0h" role="13h7CS">
      <property role="TrG5h" value="getOuterApplication" />
      <node concept="3Tm1VV" id="18EhrW3IG0i" role="1B3o_S" />
      <node concept="3Tqbb2" id="18EhrW3IG0j" role="3clF45">
        <ref role="ehGHo" to="qjd:3vh6UvnVyRt" resolve="LambdaApplication" />
      </node>
      <node concept="3clFbS" id="18EhrW3IG0k" role="3clF47">
        <node concept="3clFbJ" id="18EhrW3IG0l" role="3cqZAp">
          <node concept="1Wc70l" id="18EhrW3IG0m" role="3clFbw">
            <node concept="2OqwBi" id="18EhrW3IG0n" role="3uHU7w">
              <node concept="13iPFW" id="18EhrW3IG0o" role="2Oq$k0" />
              <node concept="1mIQ4w" id="18EhrW3IG0p" role="2OqNvi">
                <node concept="chp4Y" id="18EhrW3IG0q" role="cj9EA">
                  <ref role="cht4Q" to="qjd:3vh6UvnVyRt" resolve="LambdaApplication" />
                </node>
              </node>
            </node>
            <node concept="3fqX7Q" id="18EhrW3IG0r" role="3uHU7B">
              <node concept="1eOMI4" id="3$myXoLqkDB" role="3fr31v">
                <node concept="1Wc70l" id="2RKiTJr09GM" role="1eOMHV">
                  <node concept="3clFbC" id="2RKiTJr0fgM" role="3uHU7w">
                    <node concept="13iPFW" id="2RKiTJr0fgP" role="3uHU7w" />
                    <node concept="2OqwBi" id="2RKiTJr0fgH" role="3uHU7B">
                      <node concept="1PxgMI" id="2RKiTJr0fgF" role="2Oq$k0">
                        <ref role="1m5ApE" to="qjd:3vh6UvnVyRt" resolve="LambdaApplication" />
                        <node concept="2OqwBi" id="2RKiTJr0fgy" role="1m5AlR">
                          <node concept="13iPFW" id="2RKiTJr0fgx" role="2Oq$k0" />
                          <node concept="1mfA1w" id="2RKiTJr0fgA" role="2OqNvi" />
                        </node>
                      </node>
                      <node concept="3TrEf2" id="2RKiTJr0fgL" role="2OqNvi">
                        <ref role="3Tt5mk" to="qjd:3vh6UvnVyRw" />
                      </node>
                    </node>
                  </node>
                  <node concept="2OqwBi" id="18EhrW3IG0s" role="3uHU7B">
                    <node concept="2OqwBi" id="18EhrW3IG0t" role="2Oq$k0">
                      <node concept="13iPFW" id="18EhrW3IG0u" role="2Oq$k0" />
                      <node concept="1mfA1w" id="18EhrW3IG0v" role="2OqNvi" />
                    </node>
                    <node concept="1mIQ4w" id="18EhrW3IG0w" role="2OqNvi">
                      <node concept="chp4Y" id="18EhrW3IG0x" role="cj9EA">
                        <ref role="cht4Q" to="qjd:3vh6UvnVyRt" resolve="LambdaApplication" />
                      </node>
                    </node>
                  </node>
                </node>
              </node>
            </node>
          </node>
          <node concept="3clFbS" id="18EhrW3IG0y" role="3clFbx">
            <node concept="3cpWs6" id="18EhrW3IG0z" role="3cqZAp">
              <node concept="1PxgMI" id="18EhrW3IG0$" role="3cqZAk">
                <ref role="1m5ApE" to="qjd:3vh6UvnVyRt" resolve="LambdaApplication" />
                <node concept="13iPFW" id="18EhrW3IG0_" role="1m5AlR" />
              </node>
            </node>
            <node concept="3clFbH" id="18EhrW3IG0E" role="3cqZAp" />
          </node>
          <node concept="3eNFk2" id="18EhrW3IG15" role="3eNLev">
            <node concept="1Wc70l" id="4zrttnsijqS" role="3eO9$A">
              <node concept="3fqX7Q" id="4zrttnsijNd" role="3uHU7w">
                <node concept="2OqwBi" id="4zrttnsijNl" role="3fr31v">
                  <node concept="2OqwBi" id="4zrttnsijNg" role="2Oq$k0">
                    <node concept="13iPFW" id="4zrttnsijNf" role="2Oq$k0" />
                    <node concept="1mfA1w" id="4zrttnsijNk" role="2OqNvi" />
                  </node>
                  <node concept="1mIQ4w" id="4zrttnsijNp" role="2OqNvi">
                    <node concept="chp4Y" id="4zrttnsijNr" role="cj9EA">
                      <ref role="cht4Q" to="qjd:3vh6UvnZ0e9" resolve="Program" />
                    </node>
                  </node>
                </node>
              </node>
              <node concept="1Wc70l" id="7tgHtq9NqL_" role="3uHU7B">
                <node concept="3y3z36" id="7tgHtq9NqLA" role="3uHU7B">
                  <node concept="10Nm6u" id="7tgHtq9NqLB" role="3uHU7w" />
                  <node concept="2OqwBi" id="7tgHtq9NqLC" role="3uHU7B">
                    <node concept="13iPFW" id="7tgHtq9NqLD" role="2Oq$k0" />
                    <node concept="1mfA1w" id="7tgHtq9NqLE" role="2OqNvi" />
                  </node>
                </node>
                <node concept="3fqX7Q" id="7tgHtq9NqLM" role="3uHU7w">
                  <node concept="2OqwBi" id="7tgHtq9NqLF" role="3fr31v">
                    <node concept="2OqwBi" id="7tgHtq9NqLG" role="2Oq$k0">
                      <node concept="13iPFW" id="7tgHtq9NqLH" role="2Oq$k0" />
                      <node concept="1mfA1w" id="7tgHtq9NqLI" role="2OqNvi" />
                    </node>
                    <node concept="1mIQ4w" id="7tgHtq9NqLJ" role="2OqNvi">
                      <node concept="chp4Y" id="7tgHtq9NqLL" role="cj9EA">
                        <ref role="cht4Q" to="qjd:4ibC_jHJWuv" resolve="LetExpression" />
                      </node>
                    </node>
                  </node>
                </node>
              </node>
            </node>
            <node concept="3clFbS" id="18EhrW3IG17" role="3eOfB_">
              <node concept="3cpWs6" id="7WcHkoZ28dr" role="3cqZAp">
                <node concept="2OqwBi" id="7WcHkoZ28dA" role="3cqZAk">
                  <node concept="1PxgMI" id="7WcHkoZ28dB" role="2Oq$k0">
                    <ref role="1m5ApE" to="qjd:3vh6UvnV9zD" resolve="LambdaExpression" />
                    <node concept="2OqwBi" id="7WcHkoZ28dC" role="1m5AlR">
                      <node concept="13iPFW" id="7WcHkoZ28dD" role="2Oq$k0" />
                      <node concept="1mfA1w" id="7WcHkoZ28dE" role="2OqNvi" />
                    </node>
                  </node>
                  <node concept="2qgKlT" id="7WcHkoZ28dF" role="2OqNvi">
                    <ref role="37wK5l" node="18EhrW3IG0h" resolve="getOuterApplication" />
                  </node>
                </node>
              </node>
            </node>
          </node>
        </node>
        <node concept="3cpWs6" id="18EhrW3IHqv" role="3cqZAp">
          <node concept="10Nm6u" id="18EhrW3IHqw" role="3cqZAk" />
        </node>
      </node>
    </node>
    <node concept="13i0hz" id="6qD99pUaonP" role="13h7CS">
      <property role="TrG5h" value="hasParameterRefs" />
      <node concept="3Tm1VV" id="6qD99pUaonQ" role="1B3o_S" />
      <node concept="3clFbS" id="6qD99pUaonR" role="3clF47">
        <node concept="3cpWs8" id="6qD99pUaonS" role="3cqZAp">
          <node concept="3cpWsn" id="6qD99pUaonT" role="3cpWs9">
            <property role="TrG5h" value="node" />
            <node concept="3Tqbb2" id="6qD99pUaonU" role="1tU5fm" />
            <node concept="13iPFW" id="6qD99pUaonW" role="33vP2m" />
          </node>
        </node>
        <node concept="3clFbF" id="1SiUZ7A_esc" role="3cqZAp">
          <node concept="37vLTI" id="1SiUZ7A_ese" role="3clFbG">
            <node concept="2OqwBi" id="1SiUZ7A_esi" role="37vLTx">
              <node concept="37vLTw" id="3GM_nagTs3X" role="2Oq$k0">
                <ref role="3cqZAo" node="6qD99pUaonT" resolve="node" />
              </node>
              <node concept="1mfA1w" id="1SiUZ7A_esm" role="2OqNvi" />
            </node>
            <node concept="37vLTw" id="3GM_nagTwYw" role="37vLTJ">
              <ref role="3cqZAo" node="6qD99pUaonT" resolve="node" />
            </node>
          </node>
        </node>
        <node concept="2$JKZl" id="6qD99pUaonY" role="3cqZAp">
          <node concept="3clFbS" id="6qD99pUaonZ" role="2LFqv$">
            <node concept="3clFbF" id="6qD99pUaooj" role="3cqZAp">
              <node concept="37vLTI" id="6qD99pUaook" role="3clFbG">
                <node concept="2OqwBi" id="6qD99pUaool" role="37vLTx">
                  <node concept="37vLTw" id="3GM_nagTyH2" role="2Oq$k0">
                    <ref role="3cqZAo" node="6qD99pUaonT" resolve="node" />
                  </node>
                  <node concept="1mfA1w" id="6qD99pUaoon" role="2OqNvi" />
                </node>
                <node concept="37vLTw" id="3GM_nagT$26" role="37vLTJ">
                  <ref role="3cqZAo" node="6qD99pUaonT" resolve="node" />
                </node>
              </node>
            </node>
          </node>
          <node concept="1Wc70l" id="HjuzWK6MTX" role="2$JKZa">
            <node concept="3y3z36" id="HjuzWK6MTY" role="3uHU7B">
              <node concept="10Nm6u" id="HjuzWK6MTZ" role="3uHU7w" />
              <node concept="37vLTw" id="3GM_nagTsAt" role="3uHU7B">
                <ref role="3cqZAo" node="6qD99pUaonT" resolve="node" />
              </node>
            </node>
            <node concept="3fqX7Q" id="HjuzWK6MU1" role="3uHU7w">
              <node concept="1eOMI4" id="3$myXoLqncY" role="3fr31v">
                <node concept="1Wc70l" id="HjuzWK6MUj" role="1eOMHV">
                  <node concept="2OqwBi" id="HjuzWK6MUk" role="3uHU7B">
                    <node concept="37vLTw" id="3GM_nagTvG6" role="2Oq$k0">
                      <ref role="3cqZAo" node="6qD99pUaonT" resolve="node" />
                    </node>
                    <node concept="1mIQ4w" id="HjuzWK6MUm" role="2OqNvi">
                      <node concept="chp4Y" id="HjuzWK6MUn" role="cj9EA">
                        <ref role="cht4Q" to="qjd:4zrttnsimDf" resolve="VariableOwner" />
                      </node>
                    </node>
                  </node>
                  <node concept="3fqX7Q" id="HjuzWK6OaT" role="3uHU7w">
                    <node concept="2OqwBi" id="HjuzWK6OaU" role="3fr31v">
                      <node concept="2OqwBi" id="HjuzWK6OaV" role="2Oq$k0">
                        <node concept="1PxgMI" id="HjuzWK6OaW" role="2Oq$k0">
                          <ref role="1m5ApE" to="qjd:4zrttnsimDf" resolve="VariableOwner" />
                          <node concept="37vLTw" id="3GM_nagTtPm" role="1m5AlR">
                            <ref role="3cqZAo" node="6qD99pUaonT" resolve="node" />
                          </node>
                        </node>
                        <node concept="2qgKlT" id="HjuzWK6OaY" role="2OqNvi">
                          <ref role="37wK5l" node="7M_MU5__$7C" resolve="getVariables" />
                        </node>
                      </node>
                      <node concept="3JPx81" id="HjuzWK6OaZ" role="2OqNvi">
                        <node concept="1PxgMI" id="HjuzWK6Ob0" role="25WWJ7">
                          <property role="1BlNFB" value="true" />
                          <ref role="1m5ApE" to="qjd:4zrttnsimGi" resolve="Variable" />
                          <node concept="13iPFW" id="HjuzWK6Ob1" role="1m5AlR" />
                        </node>
                      </node>
                    </node>
                  </node>
                </node>
              </node>
            </node>
          </node>
        </node>
        <node concept="3clFbJ" id="pSX7DB9mCi" role="3cqZAp">
          <node concept="3clFbS" id="pSX7DB9mCj" role="3clFbx">
            <node concept="3cpWs6" id="pSX7DB9mCu" role="3cqZAp">
              <node concept="3clFbT" id="pSX7DB9mCw" role="3cqZAk">
                <property role="3clFbU" value="true" />
              </node>
            </node>
          </node>
          <node concept="2OqwBi" id="pSX7DB9mCn" role="3clFbw">
            <node concept="37vLTw" id="3GM_nagTy18" role="2Oq$k0">
              <ref role="3cqZAo" node="6qD99pUaonT" resolve="node" />
            </node>
            <node concept="1mIQ4w" id="pSX7DB9mCr" role="2OqNvi">
              <node concept="chp4Y" id="pSX7DB9mCt" role="cj9EA">
                <ref role="cht4Q" to="qjd:4ibC_jHJWuv" resolve="LetExpression" />
              </node>
            </node>
          </node>
        </node>
        <node concept="3clFbJ" id="b3cCzsU91z" role="3cqZAp">
          <node concept="3clFbS" id="b3cCzsU91$" role="3clFbx">
            <node concept="3cpWs6" id="b3cCzsU9fe" role="3cqZAp">
              <node concept="3clFbT" id="b3cCzsU9fg" role="3cqZAk" />
            </node>
          </node>
          <node concept="3fqX7Q" id="b3cCzsU91B" role="3clFbw">
            <node concept="2OqwBi" id="b3cCzsU91E" role="3fr31v">
              <node concept="37vLTw" id="3GM_nagTAfA" role="2Oq$k0">
                <ref role="3cqZAo" node="6qD99pUaonT" resolve="node" />
              </node>
              <node concept="1mIQ4w" id="b3cCzsU9fb" role="2OqNvi">
                <node concept="chp4Y" id="b3cCzsU9fd" role="cj9EA">
                  <ref role="cht4Q" to="qjd:3vh6UvnV9zD" resolve="LambdaExpression" />
                </node>
              </node>
            </node>
          </node>
        </node>
        <node concept="3clFbF" id="pSX7DB9mCz" role="3cqZAp">
          <node concept="2OqwBi" id="pSX7DB9mC$" role="3clFbG">
            <node concept="1PxgMI" id="b3cCzsU9fh" role="2Oq$k0">
              <ref role="1m5ApE" to="qjd:3vh6UvnV9zD" resolve="LambdaExpression" />
              <node concept="37vLTw" id="3GM_nagT_Qt" role="1m5AlR">
                <ref role="3cqZAo" node="6qD99pUaonT" resolve="node" />
              </node>
            </node>
            <node concept="2qgKlT" id="pSX7DB9mCA" role="2OqNvi">
              <ref role="37wK5l" node="6nQdzuslK0D" resolve="isInFull" />
            </node>
          </node>
        </node>
      </node>
      <node concept="10P_77" id="6qD99pUaoow" role="3clF45" />
    </node>
    <node concept="13i0hz" id="6nQdzuslK0D" role="13h7CS">
      <property role="TrG5h" value="isInFull" />
      <node concept="3Tm1VV" id="6nQdzuslK0E" role="1B3o_S" />
      <node concept="10P_77" id="6nQdzuslK0F" role="3clF45" />
      <node concept="3clFbS" id="6nQdzuslK0G" role="3clF47">
        <node concept="3cpWs8" id="6nQdzuslK0H" role="3cqZAp">
          <node concept="3cpWsn" id="6nQdzuslK0I" role="3cpWs9">
            <property role="TrG5h" value="appl" />
            <node concept="3Tqbb2" id="6nQdzuslK0J" role="1tU5fm">
              <ref role="ehGHo" to="qjd:3vh6UvnVyRt" resolve="LambdaApplication" />
            </node>
            <node concept="BsUDl" id="3xwsMyQkE$R" role="33vP2m">
              <ref role="37wK5l" node="18EhrW3IG0h" resolve="getOuterApplication" />
            </node>
          </node>
        </node>
        <node concept="3clFbJ" id="6nQdzuslK0S" role="3cqZAp">
          <node concept="3clFbS" id="6nQdzuslK0T" role="3clFbx">
            <node concept="3cpWs6" id="6nQdzuslK0U" role="3cqZAp">
              <node concept="3clFbT" id="6nQdzuslK0V" role="3cqZAk">
                <property role="3clFbU" value="false" />
              </node>
            </node>
          </node>
          <node concept="3clFbC" id="6nQdzuslK0W" role="3clFbw">
            <node concept="37vLTw" id="3GM_nagTt8G" role="3uHU7w">
              <ref role="3cqZAo" node="6nQdzuslK0I" resolve="appl" />
            </node>
            <node concept="10Nm6u" id="6nQdzuslK0Y" role="3uHU7B" />
          </node>
        </node>
        <node concept="3clFbF" id="6nQdzuslK0Z" role="3cqZAp">
          <node concept="2OqwBi" id="6nQdzuslK10" role="3clFbG">
            <node concept="BsUDl" id="3xwsMyQkE$T" role="2Oq$k0">
              <ref role="37wK5l" node="18EhrW3IG0h" resolve="getOuterApplication" />
            </node>
            <node concept="2qgKlT" id="6nQdzuslK19" role="2OqNvi">
              <ref role="37wK5l" node="18EhrW3IFXQ" resolve="isFullApplication" />
            </node>
          </node>
        </node>
      </node>
    </node>
    <node concept="13i0hz" id="4zrttnsimEk" role="13h7CS">
      <property role="TrG5h" value="getOuterVariables" />
      <node concept="3Tm1VV" id="4zrttnsimEl" role="1B3o_S" />
      <node concept="3clFbS" id="4zrttnsimEn" role="3clF47">
        <node concept="3cpWs8" id="4zrttnsimEq" role="3cqZAp">
          <node concept="3cpWsn" id="4zrttnsimEr" role="3cpWs9">
            <property role="TrG5h" value="allVar" />
            <node concept="2I9FWS" id="4zrttnsimEs" role="1tU5fm">
              <ref role="2I9WkF" to="qjd:4zrttnsimGi" resolve="Variable" />
            </node>
            <node concept="2OqwBi" id="4zrttnsimEQ" role="33vP2m">
              <node concept="13iPFW" id="4zrttnsimEP" role="2Oq$k0" />
              <node concept="2Rf3mk" id="4zrttnsimEU" role="2OqNvi">
                <node concept="1xMEDy" id="4zrttnsimEV" role="1xVPHs">
                  <node concept="chp4Y" id="4zrttnsimEY" role="ri$Ld">
                    <ref role="cht4Q" to="qjd:4zrttnsimGi" resolve="Variable" />
                  </node>
                </node>
              </node>
            </node>
          </node>
        </node>
        <node concept="3cpWs8" id="4zrttnsimEz" role="3cqZAp">
          <node concept="3cpWsn" id="4zrttnsimE$" role="3cpWs9">
            <property role="TrG5h" value="allRef" />
            <node concept="2I9FWS" id="4zrttnsimE_" role="1tU5fm">
              <ref role="2I9WkF" to="qjd:4zrttnsimG8" resolve="VariableReference" />
            </node>
            <node concept="2OqwBi" id="4zrttnsimF1" role="33vP2m">
              <node concept="13iPFW" id="4zrttnsimF0" role="2Oq$k0" />
              <node concept="2Rf3mk" id="4zrttnsimF5" role="2OqNvi">
                <node concept="1xMEDy" id="4zrttnsimF6" role="1xVPHs">
                  <node concept="chp4Y" id="4zrttnsimF9" role="ri$Ld">
                    <ref role="cht4Q" to="qjd:4zrttnsimG8" resolve="VariableReference" />
                  </node>
                </node>
              </node>
            </node>
          </node>
        </node>
        <node concept="3cpWs8" id="4zrttnsimEG" role="3cqZAp">
          <node concept="3cpWsn" id="4zrttnsimEH" role="3cpWs9">
            <property role="TrG5h" value="result" />
            <node concept="2I9FWS" id="4zrttnsimEI" role="1tU5fm">
              <ref role="2I9WkF" to="qjd:4zrttnsimGi" resolve="Variable" />
            </node>
            <node concept="2ShNRf" id="4zrttnsimEK" role="33vP2m">
              <node concept="2T8Vx0" id="4zrttnsimEM" role="2ShVmc">
                <node concept="2I9FWS" id="4zrttnsimEN" role="2T96Bj">
                  <ref role="2I9WkF" to="qjd:4zrttnsimGi" resolve="Variable" />
                </node>
              </node>
            </node>
          </node>
        </node>
        <node concept="1DcWWT" id="4zrttnsimFb" role="3cqZAp">
          <node concept="3clFbS" id="4zrttnsimFc" role="2LFqv$">
            <node concept="3clFbJ" id="4zrttnsimFJ" role="3cqZAp">
              <node concept="3clFbS" id="4zrttnsimFK" role="3clFbx">
                <node concept="3clFbF" id="4zrttnsiAQ2" role="3cqZAp">
                  <node concept="2OqwBi" id="4zrttnsiAQ4" role="3clFbG">
                    <node concept="37vLTw" id="3GM_nagTxCf" role="2Oq$k0">
                      <ref role="3cqZAo" node="4zrttnsimEH" resolve="result" />
                    </node>
                    <node concept="TSZUe" id="4zrttnsiAQ8" role="2OqNvi">
                      <node concept="2OqwBi" id="4zrttnsiAQd" role="25WWJ7">
                        <node concept="37vLTw" id="3GM_nagTBbM" role="2Oq$k0">
                          <ref role="3cqZAo" node="4zrttnsimFf" resolve="ref" />
                        </node>
                        <node concept="3TrEf2" id="4zrttnsiAQj" role="2OqNvi">
                          <ref role="3Tt5mk" to="qjd:4zrttnsinFO" />
                        </node>
                      </node>
                    </node>
                  </node>
                </node>
              </node>
              <node concept="1Wc70l" id="4zrttnsiAPy" role="3clFbw">
                <node concept="3fqX7Q" id="4zrttnsiAPA" role="3uHU7w">
                  <node concept="2OqwBi" id="4zrttnsiAPF" role="3fr31v">
                    <node concept="37vLTw" id="3GM_nagTr2z" role="2Oq$k0">
                      <ref role="3cqZAo" node="4zrttnsimEH" resolve="result" />
                    </node>
                    <node concept="3JPx81" id="4zrttnsiAPK" role="2OqNvi">
                      <node concept="2OqwBi" id="4zrttnsiAPT" role="25WWJ7">
                        <node concept="37vLTw" id="3GM_nagT$JQ" role="2Oq$k0">
                          <ref role="3cqZAo" node="4zrttnsimFf" resolve="ref" />
                        </node>
                        <node concept="3TrEf2" id="4zrttnsiAPZ" role="2OqNvi">
                          <ref role="3Tt5mk" to="qjd:4zrttnsinFO" />
                        </node>
                      </node>
                    </node>
                  </node>
                </node>
                <node concept="3fqX7Q" id="4zrttnsimFN" role="3uHU7B">
                  <node concept="2OqwBi" id="4zrttnsimFQ" role="3fr31v">
                    <node concept="37vLTw" id="3GM_nagTt34" role="2Oq$k0">
                      <ref role="3cqZAo" node="4zrttnsimEr" resolve="allVar" />
                    </node>
                    <node concept="3JPx81" id="4zrttnsimFU" role="2OqNvi">
                      <node concept="2OqwBi" id="4zrttnsimFY" role="25WWJ7">
                        <node concept="37vLTw" id="3GM_nagTA9I" role="2Oq$k0">
                          <ref role="3cqZAo" node="4zrttnsimFf" resolve="ref" />
                        </node>
                        <node concept="3TrEf2" id="4zrttnsiAPu" role="2OqNvi">
                          <ref role="3Tt5mk" to="qjd:4zrttnsinFO" />
                        </node>
                      </node>
                    </node>
                  </node>
                </node>
              </node>
            </node>
          </node>
          <node concept="37vLTw" id="3GM_nagTwxF" role="1DdaDG">
            <ref role="3cqZAo" node="4zrttnsimE$" resolve="allRef" />
          </node>
          <node concept="3cpWsn" id="4zrttnsimFf" role="1Duv9x">
            <property role="TrG5h" value="ref" />
            <node concept="3Tqbb2" id="4zrttnsimFz" role="1tU5fm">
              <ref role="ehGHo" to="qjd:4zrttnsimG8" resolve="VariableReference" />
            </node>
          </node>
        </node>
        <node concept="3clFbF" id="4zrttnsiAQn" role="3cqZAp">
          <node concept="37vLTw" id="3GM_nagTroG" role="3clFbG">
            <ref role="3cqZAo" node="4zrttnsimEH" resolve="result" />
          </node>
        </node>
      </node>
      <node concept="2I9FWS" id="4zrttnsimEp" role="3clF45">
        <ref role="2I9WkF" to="qjd:4zrttnsimGi" resolve="Variable" />
      </node>
    </node>
    <node concept="13hLZK" id="18EhrW3IG0f" role="13h7CW">
      <node concept="3clFbS" id="18EhrW3IG0g" role="2VODD2" />
    </node>
  </node>
  <node concept="13h7C7" id="3lOwLhOEvih">
    <ref role="13h7C2" to="qjd:3vh6UvnZ_if" resolve="AbstractionVarRef" />
    <node concept="13hLZK" id="3lOwLhOEvii" role="13h7CW">
      <node concept="3clFbS" id="3lOwLhOEvij" role="2VODD2" />
    </node>
  </node>
  <node concept="13h7C7" id="NsR6RVdgjn">
    <ref role="13h7C2" to="qjd:4ibC_jHLM5G" resolve="LetRef" />
    <node concept="13i0hz" id="NsR6RVdgjq" role="13h7CS">
      <property role="TrG5h" value="getAllReferences" />
      <node concept="3Tm1VV" id="NsR6RVdgjr" role="1B3o_S" />
      <node concept="2I9FWS" id="NsR6RVdgE4" role="3clF45">
        <ref role="2I9WkF" to="qjd:4ibC_jHLM5G" resolve="LetRef" />
      </node>
      <node concept="3clFbS" id="NsR6RVdgjt" role="3clF47">
        <node concept="3cpWs8" id="NsR6RVdgE5" role="3cqZAp">
          <node concept="3cpWsn" id="NsR6RVdgE6" role="3cpWs9">
            <property role="TrG5h" value="result" />
            <node concept="2I9FWS" id="NsR6RVdgE7" role="1tU5fm">
              <ref role="2I9WkF" to="qjd:4ibC_jHLM5G" resolve="LetRef" />
            </node>
            <node concept="2ShNRf" id="NsR6RVdgE9" role="33vP2m">
              <node concept="2T8Vx0" id="NsR6RVdgEb" role="2ShVmc">
                <node concept="2I9FWS" id="NsR6RVdgEc" role="2T96Bj">
                  <ref role="2I9WkF" to="qjd:4ibC_jHLM5G" resolve="LetRef" />
                </node>
              </node>
            </node>
          </node>
        </node>
        <node concept="3cpWs8" id="NsR6RVdgEe" role="3cqZAp">
          <node concept="3cpWsn" id="NsR6RVdgEf" role="3cpWs9">
            <property role="TrG5h" value="node" />
            <node concept="3Tqbb2" id="NsR6RVdgEg" role="1tU5fm" />
            <node concept="13iPFW" id="NsR6RVdgEl" role="33vP2m" />
          </node>
        </node>
        <node concept="2$JKZl" id="NsR6RVdgEn" role="3cqZAp">
          <node concept="3clFbS" id="NsR6RVdgEp" role="2LFqv$">
            <node concept="3clFbF" id="NsR6RVdgEL" role="3cqZAp">
              <node concept="37vLTI" id="NsR6RVdgEN" role="3clFbG">
                <node concept="2OqwBi" id="NsR6RVdgER" role="37vLTx">
                  <node concept="37vLTw" id="3GM_nagTBt6" role="2Oq$k0">
                    <ref role="3cqZAo" node="NsR6RVdgEf" resolve="node" />
                  </node>
                  <node concept="1mfA1w" id="NsR6RVdgEV" role="2OqNvi" />
                </node>
                <node concept="37vLTw" id="3GM_nagTz19" role="37vLTJ">
                  <ref role="3cqZAo" node="NsR6RVdgEf" resolve="node" />
                </node>
              </node>
            </node>
          </node>
          <node concept="1Wc70l" id="NsR6RVdgE$" role="2$JKZa">
            <node concept="3fqX7Q" id="NsR6RVdgEG" role="3uHU7w">
              <node concept="2OqwBi" id="NsR6RVdgEC" role="3fr31v">
                <node concept="37vLTw" id="3GM_nagTt1n" role="2Oq$k0">
                  <ref role="3cqZAo" node="NsR6RVdgEf" resolve="node" />
                </node>
                <node concept="1mIQ4w" id="NsR6RVdgEI" role="2OqNvi">
                  <node concept="chp4Y" id="NsR6RVdgEK" role="cj9EA">
                    <ref role="cht4Q" to="qjd:1mRmPjLtH6z" resolve="MultipleExpression" />
                  </node>
                </node>
              </node>
            </node>
            <node concept="3y3z36" id="NsR6RVdgEw" role="3uHU7B">
              <node concept="2OqwBi" id="NsR6RVdgEr" role="3uHU7B">
                <node concept="37vLTw" id="3GM_nagTruB" role="2Oq$k0">
                  <ref role="3cqZAo" node="NsR6RVdgEf" resolve="node" />
                </node>
                <node concept="1mfA1w" id="NsR6RVdgEv" role="2OqNvi" />
              </node>
              <node concept="10Nm6u" id="NsR6RVdgEz" role="3uHU7w" />
            </node>
          </node>
        </node>
        <node concept="1DcWWT" id="NsR6RVdgF9" role="3cqZAp">
          <node concept="3clFbS" id="NsR6RVdgFa" role="2LFqv$">
            <node concept="3clFbJ" id="NsR6RVdgFu" role="3cqZAp">
              <node concept="3clFbS" id="NsR6RVdgFv" role="3clFbx">
                <node concept="3clFbF" id="NsR6RVdgFL" role="3cqZAp">
                  <node concept="2OqwBi" id="NsR6RVdgFN" role="3clFbG">
                    <node concept="37vLTw" id="3GM_nagTu$T" role="2Oq$k0">
                      <ref role="3cqZAo" node="NsR6RVdgE6" resolve="result" />
                    </node>
                    <node concept="TSZUe" id="NsR6RVdgFR" role="2OqNvi">
                      <node concept="37vLTw" id="3GM_nagTxHD" role="25WWJ7">
                        <ref role="3cqZAo" node="NsR6RVdgFd" resolve="letRef" />
                      </node>
                    </node>
                  </node>
                </node>
              </node>
              <node concept="3clFbC" id="NsR6RVdgFC" role="3clFbw">
                <node concept="2OqwBi" id="NsR6RVdgFG" role="3uHU7w">
                  <node concept="13iPFW" id="NsR6RVdgFF" role="2Oq$k0" />
                  <node concept="3TrEf2" id="7M_MU5__NWr" role="2OqNvi">
                    <ref role="3Tt5mk" to="qjd:7M_MU5__DjW" />
                  </node>
                </node>
                <node concept="2OqwBi" id="NsR6RVdgFz" role="3uHU7B">
                  <node concept="37vLTw" id="3GM_nagTuzs" role="2Oq$k0">
                    <ref role="3cqZAo" node="NsR6RVdgFd" resolve="letRef" />
                  </node>
                  <node concept="3TrEf2" id="7M_MU5__NWq" role="2OqNvi">
                    <ref role="3Tt5mk" to="qjd:7M_MU5__DjW" />
                  </node>
                </node>
              </node>
            </node>
          </node>
          <node concept="3cpWsn" id="NsR6RVdgFd" role="1Duv9x">
            <property role="TrG5h" value="letRef" />
            <node concept="3Tqbb2" id="NsR6RVdgFh" role="1tU5fm">
              <ref role="ehGHo" to="qjd:4ibC_jHLM5G" resolve="LetRef" />
            </node>
          </node>
          <node concept="2OqwBi" id="NsR6RVdgFm" role="1DdaDG">
            <node concept="37vLTw" id="3GM_nagTwGz" role="2Oq$k0">
              <ref role="3cqZAo" node="NsR6RVdgEf" resolve="node" />
            </node>
            <node concept="2Rf3mk" id="NsR6RVdgFo" role="2OqNvi">
              <node concept="1xMEDy" id="NsR6RVdgFp" role="1xVPHs">
                <node concept="chp4Y" id="NsR6RVdgFq" role="ri$Ld">
                  <ref role="cht4Q" to="qjd:4ibC_jHLM5G" resolve="LetRef" />
                </node>
              </node>
            </node>
          </node>
        </node>
        <node concept="3cpWs6" id="NsR6RVdgFZ" role="3cqZAp">
          <node concept="37vLTw" id="3GM_nagTAlN" role="3cqZAk">
            <ref role="3cqZAo" node="NsR6RVdgE6" resolve="result" />
          </node>
        </node>
      </node>
    </node>
    <node concept="13hLZK" id="NsR6RVdgjo" role="13h7CW">
      <node concept="3clFbS" id="NsR6RVdgjp" role="2VODD2" />
    </node>
  </node>
  <node concept="13h7C7" id="4FMpZVp4mrO">
    <ref role="13h7C2" to="qjd:4ibC_jHJWuv" resolve="LetExpression" />
    <node concept="13hLZK" id="4FMpZVp4mrP" role="13h7CW">
      <node concept="3clFbS" id="4FMpZVp4mrQ" role="2VODD2" />
    </node>
    <node concept="13i0hz" id="7M_MU5__$QY" role="13h7CS">
      <property role="TrG5h" value="getVariables" />
      <property role="13i0it" value="true" />
      <ref role="13i0hy" node="7M_MU5__$7C" resolve="getVariables" />
      <node concept="3Tm1VV" id="7M_MU5__$QZ" role="1B3o_S" />
      <node concept="3clFbS" id="7M_MU5__$R0" role="3clF47">
        <node concept="3cpWs8" id="7M_MU5__$R3" role="3cqZAp">
          <node concept="3cpWsn" id="7M_MU5__$R4" role="3cpWs9">
            <property role="TrG5h" value="result" />
            <node concept="2I9FWS" id="7M_MU5__$R5" role="1tU5fm">
              <ref role="2I9WkF" to="qjd:4zrttnsimGi" resolve="Variable" />
            </node>
            <node concept="2ShNRf" id="7M_MU5__$R6" role="33vP2m">
              <node concept="2T8Vx0" id="7M_MU5__$R7" role="2ShVmc">
                <node concept="2I9FWS" id="7M_MU5__$R8" role="2T96Bj">
                  <ref role="2I9WkF" to="qjd:4zrttnsimGi" resolve="Variable" />
                </node>
              </node>
            </node>
          </node>
        </node>
        <node concept="3clFbF" id="7M_MU5__$R9" role="3cqZAp">
          <node concept="2OqwBi" id="7M_MU5__$Ra" role="3clFbG">
            <node concept="37vLTw" id="3GM_nagT_hv" role="2Oq$k0">
              <ref role="3cqZAo" node="7M_MU5__$R4" resolve="result" />
            </node>
            <node concept="TSZUe" id="7M_MU5__$Rc" role="2OqNvi">
              <node concept="2OqwBi" id="7M_MU5__$Rd" role="25WWJ7">
                <node concept="13iPFW" id="7M_MU5__$Re" role="2Oq$k0" />
                <node concept="3TrEf2" id="7M_MU5__$Rf" role="2OqNvi">
                  <ref role="3Tt5mk" to="qjd:7g7qneGHqWK" />
                </node>
              </node>
            </node>
          </node>
        </node>
        <node concept="3clFbF" id="7M_MU5__$Rg" role="3cqZAp">
          <node concept="37vLTw" id="3GM_nagTsfy" role="3clFbG">
            <ref role="3cqZAo" node="7M_MU5__$R4" resolve="result" />
          </node>
        </node>
      </node>
      <node concept="2I9FWS" id="7M_MU5__$R1" role="3clF45">
        <ref role="2I9WkF" to="qjd:4zrttnsimGi" resolve="Variable" />
      </node>
    </node>
  </node>
  <node concept="13h7C7" id="4zrttnsimE6">
    <ref role="13h7C2" to="qjd:4zrttnsimDf" resolve="VariableOwner" />
    <node concept="13i0hz" id="7M_MU5__$7C" role="13h7CS">
      <property role="TrG5h" value="getVariables" />
      <property role="13i0it" value="true" />
      <property role="13i0iv" value="true" />
      <node concept="3Tm1VV" id="7M_MU5__$7D" role="1B3o_S" />
      <node concept="2I9FWS" id="7M_MU5__$7G" role="3clF45">
        <ref role="2I9WkF" to="qjd:4zrttnsimGi" resolve="Variable" />
      </node>
      <node concept="3clFbS" id="7M_MU5__$7F" role="3clF47" />
    </node>
    <node concept="13hLZK" id="4zrttnsimE7" role="13h7CW">
      <node concept="3clFbS" id="4zrttnsimE8" role="2VODD2" />
    </node>
  </node>
  <node concept="13h7C7" id="2_HcEOD33u0">
    <property role="3GE5qa" value="types" />
    <ref role="13h7C2" to="qjd:3VwSXPW6JFC" resolve="FunctionType" />
    <node concept="13i0hz" id="2_HcEOD33u3" role="13h7CS">
      <property role="TrG5h" value="getPresentation" />
      <ref role="13i0hy" to="tpcu:hEwIMiw" resolve="getPresentation" />
      <node concept="3clFbS" id="2_HcEOD33u6" role="3clF47">
        <node concept="3cpWs6" id="2_HcEOD33u9" role="3cqZAp">
          <node concept="3cpWs3" id="2_HcEOD33uC" role="3cqZAk">
            <node concept="Xl_RD" id="2_HcEOD33uF" role="3uHU7w">
              <property role="Xl_RC" value=")" />
            </node>
            <node concept="3cpWs3" id="2_HcEOD33uq" role="3uHU7B">
              <node concept="3cpWs3" id="2_HcEOD33um" role="3uHU7B">
                <node concept="3cpWs3" id="2_HcEOD33uG" role="3uHU7B">
                  <node concept="Xl_RD" id="2_HcEOD33uJ" role="3uHU7B">
                    <property role="Xl_RC" value="(" />
                  </node>
                  <node concept="2OqwBi" id="2_HcEOD33uh" role="3uHU7w">
                    <node concept="2OqwBi" id="2_HcEOD33uc" role="2Oq$k0">
                      <node concept="13iPFW" id="2_HcEOD33ub" role="2Oq$k0" />
                      <node concept="3TrEf2" id="2_HcEOD33ug" role="2OqNvi">
                        <ref role="3Tt5mk" to="qjd:3VwSXPW6JFD" />
                      </node>
                    </node>
                    <node concept="2qgKlT" id="2_HcEOD33ul" role="2OqNvi">
                      <ref role="37wK5l" to="tpcu:hEwIMiw" resolve="getPresentation" />
                    </node>
                  </node>
                </node>
                <node concept="Xl_RD" id="2_HcEOD33up" role="3uHU7w">
                  <property role="Xl_RC" value="-&gt;" />
                </node>
              </node>
              <node concept="2OqwBi" id="2_HcEOD33uz" role="3uHU7w">
                <node concept="2OqwBi" id="2_HcEOD33uu" role="2Oq$k0">
                  <node concept="13iPFW" id="2_HcEOD33ut" role="2Oq$k0" />
                  <node concept="3TrEf2" id="2_HcEOD33uy" role="2OqNvi">
                    <ref role="3Tt5mk" to="qjd:3VwSXPW6JFE" />
                  </node>
                </node>
                <node concept="2qgKlT" id="2_HcEOD33uB" role="2OqNvi">
                  <ref role="37wK5l" to="tpcu:hEwIMiw" resolve="getPresentation" />
                </node>
              </node>
            </node>
          </node>
        </node>
      </node>
      <node concept="17QB3L" id="2_HcEOD33u7" role="3clF45" />
      <node concept="3Tm1VV" id="2_HcEOD33u8" role="1B3o_S" />
    </node>
    <node concept="13hLZK" id="2_HcEOD33u1" role="13h7CW">
      <node concept="3clFbS" id="2_HcEOD33u2" role="2VODD2" />
    </node>
  </node>
</model>

