<?xml version="1.0" encoding="UTF-8"?>
<model ref="r:8c01d5e0-82c3-43e7-9986-af954df6cb8b(jetbrains.mps.samples.lambdaCalculus.typesystem)">
  <persistence version="9" />
  <languages>
    <use id="83888646-71ce-4f1c-9c53-c54016f6ad4f" name="jetbrains.mps.baseLanguage.collections" version="0" />
    <use id="3a13115c-633c-4c5c-bbcc-75c4219e9555" name="jetbrains.mps.lang.quotation" version="0" />
    <use id="7a5dda62-9140-4668-ab76-d5ed1746f2b2" name="jetbrains.mps.lang.typesystem" version="0" />
    <use id="7c9e2807-94ad-4afc-adf0-aaee45eb2895" name="jetbrains.mps.samples.lambdaCalculus" version="0" />
    <use id="7866978e-a0f0-4cc7-81bc-4d213d9375e1" name="jetbrains.mps.lang.smodel" version="4" />
    <use id="f3061a53-9226-4cc5-a443-f952ceaf5816" name="jetbrains.mps.baseLanguage" version="4" />
    <devkit ref="fbc25dd2-5da4-483a-8b19-70928e1b62d7(jetbrains.mps.devkit.general-purpose)" />
  </languages>
  <imports>
    <import index="qjd" ref="r:d30b7004-00fd-4d3e-bdd6-6ae5346d9b86(jetbrains.mps.samples.lambdaCalculus.structure)" />
    <import index="tpd4" ref="r:00000000-0000-4000-0000-011c895902b4(jetbrains.mps.lang.typesystem.structure)" />
    <import index="tpck" ref="r:00000000-0000-4000-0000-011c89590288(jetbrains.mps.lang.core.structure)" implicit="true" />
  </imports>
  <registry>
    <language id="7c9e2807-94ad-4afc-adf0-aaee45eb2895" name="jetbrains.mps.samples.lambdaCalculus">
      <concept id="4530871765544139480" name="jetbrains.mps.samples.lambdaCalculus.structure.LambdaType" flags="ng" index="12Yx$5" />
      <concept id="4530871765544139482" name="jetbrains.mps.samples.lambdaCalculus.structure.NumberType" flags="ng" index="12Yx$7" />
      <concept id="4530871765544139496" name="jetbrains.mps.samples.lambdaCalculus.structure.FunctionType" flags="ng" index="12Yx$P">
        <child id="4530871765544139497" name="domain" index="12Yx$O" />
        <child id="4530871765544139498" name="range" index="12Yx$R" />
      </concept>
      <concept id="4530871765544139489" name="jetbrains.mps.samples.lambdaCalculus.structure.StringType" flags="ng" index="12Yx$W" />
    </language>
    <language id="f3061a53-9226-4cc5-a443-f952ceaf5816" name="jetbrains.mps.baseLanguage">
      <concept id="1082485599095" name="jetbrains.mps.baseLanguage.structure.BlockStatement" flags="nn" index="9aQIb">
        <child id="1082485599096" name="statements" index="9aQI4" />
      </concept>
      <concept id="1215693861676" name="jetbrains.mps.baseLanguage.structure.BaseAssignmentExpression" flags="nn" index="d038R">
        <child id="1068498886297" name="rValue" index="37vLTx" />
        <child id="1068498886295" name="lValue" index="37vLTJ" />
      </concept>
      <concept id="1154032098014" name="jetbrains.mps.baseLanguage.structure.AbstractLoopStatement" flags="nn" index="2LF5Ji">
        <child id="1154032183016" name="body" index="2LFqv$" />
      </concept>
      <concept id="1197027756228" name="jetbrains.mps.baseLanguage.structure.DotExpression" flags="nn" index="2OqwBi">
        <child id="1197027771414" name="operand" index="2Oq$k0" />
        <child id="1197027833540" name="operation" index="2OqNvi" />
      </concept>
      <concept id="1145552977093" name="jetbrains.mps.baseLanguage.structure.GenericNewExpression" flags="nn" index="2ShNRf">
        <child id="1145553007750" name="creator" index="2ShVmc" />
      </concept>
      <concept id="1068431474542" name="jetbrains.mps.baseLanguage.structure.VariableDeclaration" flags="ng" index="33uBYm">
        <child id="1068431790190" name="initializer" index="33vP2m" />
      </concept>
      <concept id="1068498886296" name="jetbrains.mps.baseLanguage.structure.VariableReference" flags="nn" index="37vLTw">
        <reference id="1068581517664" name="variableDeclaration" index="3cqZAo" />
      </concept>
      <concept id="1068498886294" name="jetbrains.mps.baseLanguage.structure.AssignmentExpression" flags="nn" index="37vLTI" />
      <concept id="1225271177708" name="jetbrains.mps.baseLanguage.structure.StringType" flags="in" index="17QB3L" />
      <concept id="4972933694980447171" name="jetbrains.mps.baseLanguage.structure.BaseVariableDeclaration" flags="ng" index="19Szcq">
        <child id="5680397130376446158" name="type" index="1tU5fm" />
      </concept>
      <concept id="1068580123155" name="jetbrains.mps.baseLanguage.structure.ExpressionStatement" flags="nn" index="3clFbF">
        <child id="1068580123156" name="expression" index="3clFbG" />
      </concept>
      <concept id="1068580123157" name="jetbrains.mps.baseLanguage.structure.Statement" flags="nn" index="3clFbH" />
      <concept id="1068580123159" name="jetbrains.mps.baseLanguage.structure.IfStatement" flags="nn" index="3clFbJ">
        <child id="1082485599094" name="ifFalseStatement" index="9aQIa" />
        <child id="1068580123160" name="condition" index="3clFbw" />
        <child id="1068580123161" name="ifTrue" index="3clFbx" />
      </concept>
      <concept id="1068580123136" name="jetbrains.mps.baseLanguage.structure.StatementList" flags="sn" stub="5293379017992965193" index="3clFbS">
        <child id="1068581517665" name="statement" index="3cqZAp" />
      </concept>
      <concept id="1068581242864" name="jetbrains.mps.baseLanguage.structure.LocalVariableDeclarationStatement" flags="nn" index="3cpWs8">
        <child id="1068581242865" name="localVariableDeclaration" index="3cpWs9" />
      </concept>
      <concept id="1068581242863" name="jetbrains.mps.baseLanguage.structure.LocalVariableDeclaration" flags="nr" index="3cpWsn" />
      <concept id="1081516740877" name="jetbrains.mps.baseLanguage.structure.NotExpression" flags="nn" index="3fqX7Q">
        <child id="1081516765348" name="expression" index="3fr31v" />
      </concept>
      <concept id="1144226303539" name="jetbrains.mps.baseLanguage.structure.ForeachStatement" flags="nn" index="1DcWWT">
        <child id="1144226360166" name="iterable" index="1DdaDG" />
      </concept>
      <concept id="1144230876926" name="jetbrains.mps.baseLanguage.structure.AbstractForStatement" flags="nn" index="1DupvO">
        <child id="1144230900587" name="variable" index="1Duv9x" />
      </concept>
    </language>
    <language id="3a13115c-633c-4c5c-bbcc-75c4219e9555" name="jetbrains.mps.lang.quotation">
      <concept id="1196350785110" name="jetbrains.mps.lang.quotation.structure.AbstractAntiquotation" flags="ng" index="2c44t0">
        <child id="1196350785111" name="expression" index="2c44t1" />
      </concept>
      <concept id="1196350785112" name="jetbrains.mps.lang.quotation.structure.Antiquotation" flags="ng" index="2c44te" />
      <concept id="1196350785113" name="jetbrains.mps.lang.quotation.structure.Quotation" flags="nn" index="2c44tf">
        <child id="1196350785114" name="quotedNode" index="2c44tc" />
      </concept>
    </language>
    <language id="7a5dda62-9140-4668-ab76-d5ed1746f2b2" name="jetbrains.mps.lang.typesystem">
      <concept id="1185788614172" name="jetbrains.mps.lang.typesystem.structure.NormalTypeClause" flags="ng" index="mw_s8">
        <child id="1185788644032" name="normalType" index="mwGJk" />
      </concept>
      <concept id="1195213580585" name="jetbrains.mps.lang.typesystem.structure.AbstractCheckingRule" flags="ig" index="18hYwZ">
        <property id="1195213689297" name="overrides" index="18ip37" />
        <child id="1195213635060" name="body" index="18ibNy" />
      </concept>
      <concept id="1174642788531" name="jetbrains.mps.lang.typesystem.structure.ConceptReference" flags="ig" index="1YaCAy">
        <reference id="1174642800329" name="concept" index="1YaFvo" />
      </concept>
      <concept id="1174643105530" name="jetbrains.mps.lang.typesystem.structure.InferenceRule" flags="ig" index="1YbPZF" />
      <concept id="1174648085619" name="jetbrains.mps.lang.typesystem.structure.AbstractRule" flags="ng" index="1YuPPy">
        <child id="1174648101952" name="applicableNode" index="1YuTPh" />
      </concept>
      <concept id="1174650418652" name="jetbrains.mps.lang.typesystem.structure.ApplicableNodeReference" flags="nn" index="1YBJjd">
        <reference id="1174650432090" name="applicableNode" index="1YBMHb" />
      </concept>
      <concept id="1174657487114" name="jetbrains.mps.lang.typesystem.structure.TypeOfExpression" flags="nn" index="1Z2H0r">
        <child id="1174657509053" name="term" index="1Z2MuG" />
      </concept>
      <concept id="1174658326157" name="jetbrains.mps.lang.typesystem.structure.CreateEquationStatement" flags="nn" index="1Z5TYs" />
      <concept id="1174660718586" name="jetbrains.mps.lang.typesystem.structure.AbstractEquationStatement" flags="nn" index="1Zf1VF">
        <child id="1174660783413" name="leftExpression" index="1ZfhK$" />
        <child id="1174660783414" name="rightExpression" index="1ZfhKB" />
      </concept>
      <concept id="1174665551739" name="jetbrains.mps.lang.typesystem.structure.TypeVarDeclaration" flags="ng" index="1ZxtTE" />
      <concept id="1174666260556" name="jetbrains.mps.lang.typesystem.structure.TypeVarReference" flags="nn" index="1Z$b5t">
        <reference id="1174666276259" name="typeVarDeclaration" index="1Z$eMM" />
      </concept>
    </language>
    <language id="7866978e-a0f0-4cc7-81bc-4d213d9375e1" name="jetbrains.mps.lang.smodel">
      <concept id="1177026924588" name="jetbrains.mps.lang.smodel.structure.RefConcept_Reference" flags="nn" index="chp4Y">
        <reference id="1177026940964" name="conceptDeclaration" index="cht4Q" />
      </concept>
      <concept id="1138411891628" name="jetbrains.mps.lang.smodel.structure.SNodeOperation" flags="nn" index="eCIE_">
        <child id="1144104376918" name="parameter" index="1xVPHs" />
      </concept>
      <concept id="2396822768958367367" name="jetbrains.mps.lang.smodel.structure.AbstractTypeCastExpression" flags="nn" index="$5XWr">
        <reference id="6733348108486823428" name="concept" index="1m5ApE" />
        <child id="6733348108486823193" name="leftExpression" index="1m5AlR" />
      </concept>
      <concept id="1145383075378" name="jetbrains.mps.lang.smodel.structure.SNodeListType" flags="in" index="2I9FWS">
        <reference id="1145383142433" name="elementConcept" index="2I9WkF" />
      </concept>
      <concept id="1171305280644" name="jetbrains.mps.lang.smodel.structure.Node_GetDescendantsOperation" flags="nn" index="2Rf3mk" />
      <concept id="1145567426890" name="jetbrains.mps.lang.smodel.structure.SNodeListCreator" flags="nn" index="2T8Vx0">
        <child id="1145567471833" name="createdType" index="2T96Bj" />
      </concept>
      <concept id="1139613262185" name="jetbrains.mps.lang.smodel.structure.Node_GetParentOperation" flags="nn" index="1mfA1w" />
      <concept id="1144101972840" name="jetbrains.mps.lang.smodel.structure.OperationParm_Concept" flags="ng" index="1xMEDy">
        <child id="1207343664468" name="conceptArgument" index="ri$Ld" />
      </concept>
      <concept id="1144146199828" name="jetbrains.mps.lang.smodel.structure.Node_CopyOperation" flags="nn" index="1$rogu" />
      <concept id="1140131837776" name="jetbrains.mps.lang.smodel.structure.Node_ReplaceWithAnotherOperation" flags="nn" index="1P9Npp">
        <child id="1140131861877" name="replacementNode" index="1P9ThW" />
      </concept>
      <concept id="1140137987495" name="jetbrains.mps.lang.smodel.structure.SNodeTypeCastExpression" flags="nn" index="1PxgMI" />
      <concept id="1138055754698" name="jetbrains.mps.lang.smodel.structure.SNodeType" flags="in" index="3Tqbb2">
        <reference id="1138405853777" name="concept" index="ehGHo" />
      </concept>
      <concept id="1138056022639" name="jetbrains.mps.lang.smodel.structure.SPropertyAccess" flags="nn" index="3TrcHB">
        <reference id="1138056395725" name="property" index="3TsBF5" />
      </concept>
      <concept id="1138056143562" name="jetbrains.mps.lang.smodel.structure.SLinkAccess" flags="nn" index="3TrEf2">
        <reference id="1138056516764" name="link" index="3Tt5mk" />
      </concept>
      <concept id="1138056282393" name="jetbrains.mps.lang.smodel.structure.SLinkListAccess" flags="nn" index="3Tsc0h">
        <reference id="1138056546658" name="link" index="3TtcxE" />
      </concept>
    </language>
    <language id="ceab5195-25ea-4f22-9b92-103b95ca8c0c" name="jetbrains.mps.lang.core">
      <concept id="1133920641626" name="jetbrains.mps.lang.core.structure.BaseConcept" flags="ng" index="2VYdi">
        <child id="5169995583184591170" name="smodelAttribute" index="lGtFl" />
      </concept>
      <concept id="1169194658468" name="jetbrains.mps.lang.core.structure.INamedConcept" flags="ng" index="TrEIO">
        <property id="1169194664001" name="name" index="TrG5h" />
      </concept>
    </language>
    <language id="83888646-71ce-4f1c-9c53-c54016f6ad4f" name="jetbrains.mps.baseLanguage.collections">
      <concept id="540871147943773365" name="jetbrains.mps.baseLanguage.collections.structure.SingleArgumentSequenceOperation" flags="nn" index="25WWJ4">
        <child id="540871147943773366" name="argument" index="25WWJ7" />
      </concept>
      <concept id="1227022159410" name="jetbrains.mps.baseLanguage.collections.structure.AddFirstElementOperation" flags="nn" index="2Ke4WJ" />
      <concept id="1201306600024" name="jetbrains.mps.baseLanguage.collections.structure.ContainsKeyOperation" flags="nn" index="2Nt0df">
        <child id="1201654602639" name="key" index="38cxEo" />
      </concept>
      <concept id="1197683403723" name="jetbrains.mps.baseLanguage.collections.structure.MapType" flags="in" index="3rvAFt">
        <child id="1197683466920" name="keyType" index="3rvQeY" />
        <child id="1197683475734" name="valueType" index="3rvSg0" />
      </concept>
      <concept id="1197686869805" name="jetbrains.mps.baseLanguage.collections.structure.HashMapCreator" flags="nn" index="3rGOSV">
        <child id="1197687026896" name="keyType" index="3rHrn6" />
        <child id="1197687035757" name="valueType" index="3rHtpV" />
      </concept>
      <concept id="1165595910856" name="jetbrains.mps.baseLanguage.collections.structure.GetLastOperation" flags="nn" index="1yVyf7" />
      <concept id="1197932370469" name="jetbrains.mps.baseLanguage.collections.structure.MapElement" flags="nn" index="3EllGN">
        <child id="1197932505799" name="map" index="3ElQJh" />
        <child id="1197932525128" name="key" index="3ElVtu" />
      </concept>
    </language>
  </registry>
  <node concept="1YbPZF" id="5KUFP9Dnrum">
    <property role="TrG5h" value="typeof_BinaryOperation" />
    <node concept="3clFbS" id="5KUFP9Dnrun" role="18ibNy">
      <node concept="1Z5TYs" id="5KUFP9DnxqD" role="3cqZAp">
        <node concept="mw_s8" id="5KUFP9DnxqG" role="1ZfhK$">
          <node concept="1Z2H0r" id="5KUFP9Dnxq_" role="mwGJk">
            <node concept="2OqwBi" id="5KUFP9DnxqA" role="1Z2MuG">
              <node concept="1YBJjd" id="5KUFP9DnxqB" role="2Oq$k0">
                <ref role="1YBMHb" node="5KUFP9Dnrup" resolve="binaryOperation" />
              </node>
              <node concept="3TrEf2" id="5KUFP9DnxqC" role="2OqNvi">
                <ref role="3Tt5mk" to="qjd:1Foaqqimw_s" />
              </node>
            </node>
          </node>
        </node>
        <node concept="mw_s8" id="1COcjILgP8S" role="1ZfhKB">
          <node concept="1Z2H0r" id="1COcjILgP8T" role="mwGJk">
            <node concept="2OqwBi" id="1COcjILgP8V" role="1Z2MuG">
              <node concept="1YBJjd" id="1COcjILgP8W" role="2Oq$k0">
                <ref role="1YBMHb" node="5KUFP9Dnrup" resolve="binaryOperation" />
              </node>
              <node concept="3TrEf2" id="1COcjILgP8X" role="2OqNvi">
                <ref role="3Tt5mk" to="qjd:1Foaqqimw_t" />
              </node>
            </node>
          </node>
        </node>
      </node>
      <node concept="1Z5TYs" id="3VwSXPW8nD1" role="3cqZAp">
        <node concept="mw_s8" id="3VwSXPW8nD4" role="1ZfhK$">
          <node concept="1Z2H0r" id="3VwSXPW8nD5" role="mwGJk">
            <node concept="1YBJjd" id="3VwSXPW8nD7" role="1Z2MuG">
              <ref role="1YBMHb" node="5KUFP9Dnrup" resolve="binaryOperation" />
            </node>
          </node>
        </node>
        <node concept="mw_s8" id="1COcjILgP8Y" role="1ZfhKB">
          <node concept="1Z2H0r" id="1COcjILgP8Z" role="mwGJk">
            <node concept="2OqwBi" id="1COcjILgP90" role="1Z2MuG">
              <node concept="1YBJjd" id="1COcjILgP91" role="2Oq$k0">
                <ref role="1YBMHb" node="5KUFP9Dnrup" resolve="binaryOperation" />
              </node>
              <node concept="3TrEf2" id="1COcjILgP92" role="2OqNvi">
                <ref role="3Tt5mk" to="qjd:1Foaqqimw_t" />
              </node>
            </node>
          </node>
        </node>
      </node>
    </node>
    <node concept="1YaCAy" id="5KUFP9Dnrup" role="1YuTPh">
      <property role="TrG5h" value="binaryOperation" />
      <ref role="1YaFvo" to="qjd:1Foaqqimw_r" resolve="BinaryOperation" />
    </node>
  </node>
  <node concept="1YbPZF" id="5KUFP9DnxEM">
    <property role="TrG5h" value="typeof_LambdaAbstraction" />
    <node concept="3clFbS" id="5KUFP9DnxEN" role="18ibNy">
      <node concept="1ZxtTE" id="yQfYEsMEKX" role="3cqZAp">
        <property role="TrG5h" value="R" />
      </node>
      <node concept="1Z5TYs" id="yQfYEsMG7c" role="3cqZAp">
        <node concept="mw_s8" id="yQfYEsMG7d" role="1ZfhKB">
          <node concept="1Z$b5t" id="yQfYEsMG7e" role="mwGJk">
            <ref role="1Z$eMM" node="yQfYEsMEKX" resolve="R" />
          </node>
        </node>
        <node concept="mw_s8" id="yQfYEsMG7f" role="1ZfhK$">
          <node concept="1Z2H0r" id="yQfYEsMG7g" role="mwGJk">
            <node concept="2OqwBi" id="yQfYEsMG7h" role="1Z2MuG">
              <node concept="1YBJjd" id="yQfYEsMG7i" role="2Oq$k0">
                <ref role="1YBMHb" node="5KUFP9DnxEP" resolve="lambdaAbstraction" />
              </node>
              <node concept="3TrEf2" id="yQfYEsMG7j" role="2OqNvi">
                <ref role="3Tt5mk" to="qjd:3vh6UvnVyR5" />
              </node>
            </node>
          </node>
        </node>
      </node>
      <node concept="3cpWs8" id="yQfYEsMG5g" role="3cqZAp">
        <node concept="3cpWsn" id="yQfYEsMG5h" role="3cpWs9">
          <property role="TrG5h" value="result" />
          <node concept="3Tqbb2" id="yQfYEsMG5i" role="1tU5fm" />
          <node concept="1Z$b5t" id="yQfYEsMG7o" role="33vP2m">
            <ref role="1Z$eMM" node="yQfYEsMEKX" resolve="R" />
          </node>
        </node>
      </node>
      <node concept="3cpWs8" id="64smzoiS4mx" role="3cqZAp">
        <node concept="3cpWsn" id="64smzoiS4my" role="3cpWs9">
          <property role="TrG5h" value="reversedNodes" />
          <node concept="2I9FWS" id="64smzoiS4mz" role="1tU5fm">
            <ref role="2I9WkF" to="qjd:3vh6UvnVcY1" resolve="AbstractionVariable" />
          </node>
          <node concept="2ShNRf" id="64smzoiSaDo" role="33vP2m">
            <node concept="2T8Vx0" id="64smzoiSaDp" role="2ShVmc">
              <node concept="2I9FWS" id="64smzoiSaDq" role="2T96Bj">
                <ref role="2I9WkF" to="qjd:3vh6UvnVcY1" resolve="AbstractionVariable" />
              </node>
            </node>
          </node>
        </node>
      </node>
      <node concept="1DcWWT" id="64smzoiS5pG" role="3cqZAp">
        <node concept="3clFbS" id="64smzoiS5pH" role="2LFqv$">
          <node concept="3clFbF" id="64smzoiSaCQ" role="3cqZAp">
            <node concept="2OqwBi" id="64smzoiSaCR" role="3clFbG">
              <node concept="37vLTw" id="3GM_nagTuhE" role="2Oq$k0">
                <ref role="3cqZAo" node="64smzoiS4my" resolve="reversedNodes" />
              </node>
              <node concept="2Ke4WJ" id="64smzoiSJMg" role="2OqNvi">
                <node concept="37vLTw" id="3GM_nagTrB1" role="25WWJ7">
                  <ref role="3cqZAo" node="64smzoiS5pK" resolve="node" />
                </node>
              </node>
            </node>
          </node>
        </node>
        <node concept="2OqwBi" id="64smzoiS5q4" role="1DdaDG">
          <node concept="1YBJjd" id="64smzoiS5pZ" role="2Oq$k0">
            <ref role="1YBMHb" node="5KUFP9DnxEP" resolve="lambdaAbstraction" />
          </node>
          <node concept="3Tsc0h" id="7M_MU5__y25" role="2OqNvi">
            <ref role="3TtcxE" to="qjd:3vh6UvnVyQT" />
          </node>
        </node>
        <node concept="3cpWsn" id="64smzoiS5pK" role="1Duv9x">
          <property role="TrG5h" value="node" />
          <node concept="3Tqbb2" id="64smzoiS5pU" role="1tU5fm">
            <ref role="ehGHo" to="qjd:3vh6UvnVcY1" resolve="AbstractionVariable" />
          </node>
        </node>
      </node>
      <node concept="1DcWWT" id="yQfYEsME2a" role="3cqZAp">
        <node concept="3clFbS" id="yQfYEsME2b" role="2LFqv$">
          <node concept="1ZxtTE" id="5juWWWdBKRO" role="3cqZAp">
            <property role="TrG5h" value="D" />
          </node>
          <node concept="1Z5TYs" id="yQfYEsMG4f" role="3cqZAp">
            <node concept="mw_s8" id="yQfYEsMG5t" role="1ZfhKB">
              <node concept="1Z$b5t" id="yQfYEsMG5u" role="mwGJk">
                <ref role="1Z$eMM" node="5juWWWdBKRO" resolve="D" />
              </node>
            </node>
            <node concept="mw_s8" id="yQfYEsMG4p" role="1ZfhK$">
              <node concept="1Z2H0r" id="yQfYEsMG4q" role="mwGJk">
                <node concept="37vLTw" id="3GM_nagTAVc" role="1Z2MuG">
                  <ref role="3cqZAo" node="yQfYEsME2e" resolve="node" />
                </node>
              </node>
            </node>
          </node>
          <node concept="3clFbF" id="64smzoiSaCY" role="3cqZAp">
            <node concept="37vLTI" id="64smzoiSaCZ" role="3clFbG">
              <node concept="37vLTw" id="3GM_nagTwBV" role="37vLTJ">
                <ref role="3cqZAo" node="yQfYEsMG5h" resolve="result" />
              </node>
              <node concept="2c44tf" id="64smzoiSaD1" role="37vLTx">
                <node concept="12Yx$P" id="64smzoiSaD2" role="2c44tc">
                  <node concept="12Yx$5" id="64smzoiSaD3" role="12Yx$O">
                    <node concept="2c44te" id="64smzoiSaD4" role="lGtFl">
                      <node concept="1Z$b5t" id="64smzoiSaD9" role="2c44t1">
                        <ref role="1Z$eMM" node="5juWWWdBKRO" resolve="D" />
                      </node>
                    </node>
                  </node>
                  <node concept="12Yx$5" id="64smzoiSaD6" role="12Yx$R">
                    <node concept="2c44te" id="64smzoiSaD7" role="lGtFl">
                      <node concept="37vLTw" id="3GM_nagTxSU" role="2c44t1">
                        <ref role="3cqZAo" node="yQfYEsMG5h" resolve="result" />
                      </node>
                    </node>
                  </node>
                </node>
              </node>
            </node>
          </node>
        </node>
        <node concept="37vLTw" id="3GM_nagT_lh" role="1DdaDG">
          <ref role="3cqZAo" node="64smzoiS4my" resolve="reversedNodes" />
        </node>
        <node concept="3cpWsn" id="yQfYEsME2e" role="1Duv9x">
          <property role="TrG5h" value="node" />
          <node concept="3Tqbb2" id="yQfYEsME2i" role="1tU5fm">
            <ref role="ehGHo" to="qjd:3vh6UvnVcY1" resolve="AbstractionVariable" />
          </node>
        </node>
      </node>
      <node concept="1Z5TYs" id="5juWWWdBKS4" role="3cqZAp">
        <node concept="mw_s8" id="yQfYEsMG5V" role="1ZfhKB">
          <node concept="37vLTw" id="3GM_nagTyoT" role="mwGJk">
            <ref role="3cqZAo" node="yQfYEsMG5h" resolve="result" />
          </node>
        </node>
        <node concept="mw_s8" id="5juWWWdBKSe" role="1ZfhK$">
          <node concept="1Z2H0r" id="5juWWWdBKSf" role="mwGJk">
            <node concept="1YBJjd" id="5juWWWdBKSl" role="1Z2MuG">
              <ref role="1YBMHb" node="5KUFP9DnxEP" resolve="lambdaAbstraction" />
            </node>
          </node>
        </node>
      </node>
    </node>
    <node concept="1YaCAy" id="5KUFP9DnxEP" role="1YuTPh">
      <property role="TrG5h" value="lambdaAbstraction" />
      <ref role="1YaFvo" to="qjd:3vh6UvnVcY0" resolve="LambdaAbstraction" />
    </node>
  </node>
  <node concept="1YbPZF" id="3VwSXPW8eiE">
    <property role="TrG5h" value="typeof_NumericConstant" />
    <node concept="3clFbS" id="3VwSXPW8eiF" role="18ibNy">
      <node concept="1Z5TYs" id="3VwSXPW8iqO" role="3cqZAp">
        <node concept="mw_s8" id="3VwSXPW8iqR" role="1ZfhK$">
          <node concept="1Z2H0r" id="3VwSXPW8iqS" role="mwGJk">
            <node concept="1YBJjd" id="3VwSXPW8iqU" role="1Z2MuG">
              <ref role="1YBMHb" node="3VwSXPW8eiG" resolve="numericConstant" />
            </node>
          </node>
        </node>
        <node concept="mw_s8" id="3VwSXPW8iqV" role="1ZfhKB">
          <node concept="2c44tf" id="3VwSXPW8iqW" role="mwGJk">
            <node concept="12Yx$7" id="3VwSXPW8iqY" role="2c44tc" />
          </node>
        </node>
      </node>
    </node>
    <node concept="1YaCAy" id="3VwSXPW8eiG" role="1YuTPh">
      <property role="TrG5h" value="numericConstant" />
      <ref role="1YaFvo" to="qjd:3vh6UvnVyRl" resolve="NumericConstant" />
    </node>
  </node>
  <node concept="1YbPZF" id="3VwSXPW8eiH">
    <property role="TrG5h" value="typeof_StringConstant" />
    <node concept="3clFbS" id="3VwSXPW8eiI" role="18ibNy">
      <node concept="1Z5TYs" id="3VwSXPW8f14" role="3cqZAp">
        <node concept="mw_s8" id="3VwSXPW8f17" role="1ZfhK$">
          <node concept="1Z2H0r" id="3VwSXPW8f18" role="mwGJk">
            <node concept="1YBJjd" id="3VwSXPW8iqJ" role="1Z2MuG">
              <ref role="1YBMHb" node="3VwSXPW8eiJ" resolve="stringConstant" />
            </node>
          </node>
        </node>
        <node concept="mw_s8" id="3VwSXPW8iqK" role="1ZfhKB">
          <node concept="2c44tf" id="3VwSXPW8iqL" role="mwGJk">
            <node concept="12Yx$W" id="3VwSXPW8iqN" role="2c44tc" />
          </node>
        </node>
      </node>
    </node>
    <node concept="1YaCAy" id="3VwSXPW8eiJ" role="1YuTPh">
      <property role="TrG5h" value="stringConstant" />
      <ref role="1YaFvo" to="qjd:3vh6UvnVyR8" resolve="StringConstant" />
    </node>
  </node>
  <node concept="1YbPZF" id="3VwSXPW8iqZ">
    <property role="TrG5h" value="typeof_LambdaApplication" />
    <node concept="3clFbS" id="3VwSXPW8ir0" role="18ibNy">
      <node concept="1ZxtTE" id="dHK7eIENHg" role="3cqZAp">
        <property role="TrG5h" value="R" />
      </node>
      <node concept="1Z5TYs" id="dHK7eIENHh" role="3cqZAp">
        <node concept="mw_s8" id="dHK7eIENHi" role="1ZfhKB">
          <node concept="1Z$b5t" id="dHK7eIENHj" role="mwGJk">
            <ref role="1Z$eMM" node="dHK7eIENHg" resolve="R" />
          </node>
        </node>
        <node concept="mw_s8" id="dHK7eIENHk" role="1ZfhK$">
          <node concept="1Z2H0r" id="dHK7eIENHl" role="mwGJk">
            <node concept="1YBJjd" id="dHK7eIENIq" role="1Z2MuG">
              <ref role="1YBMHb" node="3VwSXPW8ir1" resolve="lambdaApplication" />
            </node>
          </node>
        </node>
      </node>
      <node concept="3cpWs8" id="dHK7eIENHp" role="3cqZAp">
        <node concept="3cpWsn" id="dHK7eIENHq" role="3cpWs9">
          <property role="TrG5h" value="result" />
          <node concept="3Tqbb2" id="dHK7eIENHr" role="1tU5fm" />
          <node concept="1Z$b5t" id="dHK7eIENHs" role="33vP2m">
            <ref role="1Z$eMM" node="dHK7eIENHg" resolve="R" />
          </node>
        </node>
      </node>
      <node concept="3cpWs8" id="dHK7eIENHx" role="3cqZAp">
        <node concept="3cpWsn" id="dHK7eIENHy" role="3cpWs9">
          <property role="TrG5h" value="reversedNodes" />
          <node concept="2I9FWS" id="dHK7eIENHz" role="1tU5fm">
            <ref role="2I9WkF" to="qjd:3vh6UvnV9zD" resolve="LambdaExpression" />
          </node>
          <node concept="2ShNRf" id="dHK7eIENH$" role="33vP2m">
            <node concept="2T8Vx0" id="dHK7eIENH_" role="2ShVmc">
              <node concept="2I9FWS" id="dHK7eIENHA" role="2T96Bj">
                <ref role="2I9WkF" to="qjd:3vh6UvnV9zD" resolve="LambdaExpression" />
              </node>
            </node>
          </node>
        </node>
      </node>
      <node concept="1DcWWT" id="dHK7eIENHB" role="3cqZAp">
        <node concept="3clFbS" id="dHK7eIENHC" role="2LFqv$">
          <node concept="3clFbF" id="dHK7eIENHD" role="3cqZAp">
            <node concept="2OqwBi" id="dHK7eIENHE" role="3clFbG">
              <node concept="37vLTw" id="3GM_nagTxbv" role="2Oq$k0">
                <ref role="3cqZAo" node="dHK7eIENHy" resolve="reversedNodes" />
              </node>
              <node concept="2Ke4WJ" id="dHK7eIENHG" role="2OqNvi">
                <node concept="37vLTw" id="3GM_nagTAKd" role="25WWJ7">
                  <ref role="3cqZAo" node="dHK7eIENHL" resolve="node" />
                </node>
              </node>
            </node>
          </node>
        </node>
        <node concept="2OqwBi" id="dHK7eIENHI" role="1DdaDG">
          <node concept="1YBJjd" id="dHK7eIENIr" role="2Oq$k0">
            <ref role="1YBMHb" node="3VwSXPW8ir1" resolve="lambdaApplication" />
          </node>
          <node concept="3Tsc0h" id="dHK7eIESWj" role="2OqNvi">
            <ref role="3TtcxE" to="qjd:3vh6UvnVyRx" />
          </node>
        </node>
        <node concept="3cpWsn" id="dHK7eIENHL" role="1Duv9x">
          <property role="TrG5h" value="node" />
          <node concept="3Tqbb2" id="dHK7eIENHM" role="1tU5fm">
            <ref role="ehGHo" to="qjd:3vh6UvnV9zD" resolve="LambdaExpression" />
          </node>
        </node>
      </node>
      <node concept="1DcWWT" id="dHK7eIENHN" role="3cqZAp">
        <node concept="3clFbS" id="dHK7eIENHO" role="2LFqv$">
          <node concept="1ZxtTE" id="dHK7eIENHP" role="3cqZAp">
            <property role="TrG5h" value="D" />
          </node>
          <node concept="1Z5TYs" id="dHK7eIENHQ" role="3cqZAp">
            <node concept="mw_s8" id="dHK7eIENHR" role="1ZfhKB">
              <node concept="1Z$b5t" id="dHK7eIENHS" role="mwGJk">
                <ref role="1Z$eMM" node="dHK7eIENHP" resolve="D" />
              </node>
            </node>
            <node concept="mw_s8" id="dHK7eIENHT" role="1ZfhK$">
              <node concept="1Z2H0r" id="dHK7eIENHU" role="mwGJk">
                <node concept="37vLTw" id="3GM_nagTvCA" role="1Z2MuG">
                  <ref role="3cqZAo" node="dHK7eIENI8" resolve="node" />
                </node>
              </node>
            </node>
          </node>
          <node concept="3clFbF" id="dHK7eIENHW" role="3cqZAp">
            <node concept="37vLTI" id="dHK7eIENHX" role="3clFbG">
              <node concept="37vLTw" id="3GM_nagTr$E" role="37vLTJ">
                <ref role="3cqZAo" node="dHK7eIENHq" resolve="result" />
              </node>
              <node concept="2c44tf" id="dHK7eIENHZ" role="37vLTx">
                <node concept="12Yx$P" id="dHK7eIENI0" role="2c44tc">
                  <node concept="12Yx$5" id="dHK7eIENI1" role="12Yx$O">
                    <node concept="2c44te" id="dHK7eIENI2" role="lGtFl">
                      <node concept="1Z$b5t" id="dHK7eIENI3" role="2c44t1">
                        <ref role="1Z$eMM" node="dHK7eIENHP" resolve="D" />
                      </node>
                    </node>
                  </node>
                  <node concept="12Yx$5" id="dHK7eIENI4" role="12Yx$R">
                    <node concept="2c44te" id="dHK7eIENI5" role="lGtFl">
                      <node concept="37vLTw" id="3GM_nagTuKl" role="2c44t1">
                        <ref role="3cqZAo" node="dHK7eIENHq" resolve="result" />
                      </node>
                    </node>
                  </node>
                </node>
              </node>
            </node>
          </node>
        </node>
        <node concept="37vLTw" id="3GM_nagT_ZM" role="1DdaDG">
          <ref role="3cqZAo" node="dHK7eIENHy" resolve="reversedNodes" />
        </node>
        <node concept="3cpWsn" id="dHK7eIENI8" role="1Duv9x">
          <property role="TrG5h" value="node" />
          <node concept="3Tqbb2" id="dHK7eIENI9" role="1tU5fm">
            <ref role="ehGHo" to="qjd:3vh6UvnV9zD" resolve="LambdaExpression" />
          </node>
        </node>
      </node>
      <node concept="1Z5TYs" id="dHK7eIENIa" role="3cqZAp">
        <node concept="mw_s8" id="dHK7eIENIb" role="1ZfhKB">
          <node concept="37vLTw" id="3GM_nagT_w5" role="mwGJk">
            <ref role="3cqZAo" node="dHK7eIENHq" resolve="result" />
          </node>
        </node>
        <node concept="mw_s8" id="dHK7eIENId" role="1ZfhK$">
          <node concept="1Z2H0r" id="dHK7eIENIe" role="mwGJk">
            <node concept="2OqwBi" id="dHK7eIESWO" role="1Z2MuG">
              <node concept="1YBJjd" id="dHK7eIESWN" role="2Oq$k0">
                <ref role="1YBMHb" node="3VwSXPW8ir1" resolve="lambdaApplication" />
              </node>
              <node concept="3TrEf2" id="dHK7eIESWS" role="2OqNvi">
                <ref role="3Tt5mk" to="qjd:3vh6UvnVyRw" />
              </node>
            </node>
          </node>
        </node>
      </node>
    </node>
    <node concept="1YaCAy" id="3VwSXPW8ir1" role="1YuTPh">
      <property role="TrG5h" value="lambdaApplication" />
      <ref role="1YaFvo" to="qjd:3vh6UvnVyRt" resolve="LambdaApplication" />
    </node>
  </node>
  <node concept="1YbPZF" id="3hEZEcS5O0X">
    <property role="TrG5h" value="typeof_MultipleExpression" />
    <property role="18ip37" value="true" />
    <node concept="3clFbS" id="3hEZEcS5O0Y" role="18ibNy">
      <node concept="1Z5TYs" id="3hEZEcS5OJo" role="3cqZAp">
        <node concept="mw_s8" id="3hEZEcS5OJs" role="1ZfhKB">
          <node concept="1Z2H0r" id="3hEZEcS5OJt" role="mwGJk">
            <node concept="2OqwBi" id="3hEZEcS6b8s" role="1Z2MuG">
              <node concept="2OqwBi" id="3hEZEcS5OJw" role="2Oq$k0">
                <node concept="1YBJjd" id="3hEZEcS5OJv" role="2Oq$k0">
                  <ref role="1YBMHb" node="3hEZEcS5O0Z" resolve="multipleExpression" />
                </node>
                <node concept="3Tsc0h" id="3hEZEcS5TXk" role="2OqNvi">
                  <ref role="3TtcxE" to="qjd:1mRmPjLtH6$" />
                </node>
              </node>
              <node concept="1yVyf7" id="3hEZEcS6b8G" role="2OqNvi" />
            </node>
          </node>
        </node>
        <node concept="mw_s8" id="3hEZEcS5OJr" role="1ZfhK$">
          <node concept="1Z2H0r" id="3hEZEcS5O11" role="mwGJk">
            <node concept="1YBJjd" id="3hEZEcS5OJn" role="1Z2MuG">
              <ref role="1YBMHb" node="3hEZEcS5O0Z" resolve="multipleExpression" />
            </node>
          </node>
        </node>
      </node>
    </node>
    <node concept="1YaCAy" id="3hEZEcS5O0Z" role="1YuTPh">
      <property role="TrG5h" value="multipleExpression" />
      <ref role="1YaFvo" to="qjd:1mRmPjLtH6z" resolve="MultipleExpression" />
    </node>
  </node>
  <node concept="1YbPZF" id="1COcjILgjMT">
    <property role="TrG5h" value="typeof_BinaryNumericOperation" />
    <node concept="3clFbS" id="1COcjILgjMU" role="18ibNy">
      <node concept="1Z5TYs" id="1COcjILgP8O" role="3cqZAp">
        <node concept="mw_s8" id="1COcjILgP8R" role="1ZfhK$">
          <node concept="1Z2H0r" id="1COcjILgP8F" role="mwGJk">
            <node concept="2OqwBi" id="1COcjILgP8H" role="1Z2MuG">
              <node concept="1YBJjd" id="1COcjILgP8G" role="2Oq$k0">
                <ref role="1YBMHb" node="1COcjILgJUJ" resolve="binaryNumericOperation" />
              </node>
              <node concept="3TrEf2" id="1COcjILgP8L" role="2OqNvi">
                <ref role="3Tt5mk" to="qjd:1Foaqqimw_s" />
              </node>
            </node>
          </node>
        </node>
        <node concept="mw_s8" id="1COcjILgP97" role="1ZfhKB">
          <node concept="2c44tf" id="1COcjILgP98" role="mwGJk">
            <node concept="12Yx$7" id="1COcjILgP9a" role="2c44tc" />
          </node>
        </node>
      </node>
    </node>
    <node concept="1YaCAy" id="1COcjILgJUJ" role="1YuTPh">
      <property role="TrG5h" value="binaryNumericOperation" />
      <ref role="1YaFvo" to="qjd:1COcjILgjMO" resolve="BinaryNumericOperation" />
    </node>
  </node>
  <node concept="1YbPZF" id="1COcjILgP9b">
    <property role="TrG5h" value="typeof_BinaryStringOperation" />
    <node concept="3clFbS" id="1COcjILgP9c" role="18ibNy">
      <node concept="1Z5TYs" id="1COcjILgP9j" role="3cqZAp">
        <node concept="mw_s8" id="1COcjILgP9n" role="1ZfhKB">
          <node concept="2c44tf" id="1COcjILgP9o" role="mwGJk">
            <node concept="12Yx$W" id="1COcjILgP9q" role="2c44tc" />
          </node>
        </node>
        <node concept="mw_s8" id="1COcjILgP9m" role="1ZfhK$">
          <node concept="1Z2H0r" id="1COcjILgP9g" role="mwGJk">
            <node concept="1YBJjd" id="1COcjILgP9i" role="1Z2MuG">
              <ref role="1YBMHb" node="1COcjILgP9e" resolve="binaryStringOperation" />
            </node>
          </node>
        </node>
      </node>
    </node>
    <node concept="1YaCAy" id="1COcjILgP9e" role="1YuTPh">
      <property role="TrG5h" value="binaryStringOperation" />
      <ref role="1YaFvo" to="qjd:1COcjILgjMQ" resolve="BinaryStringOperation" />
    </node>
  </node>
  <node concept="1YbPZF" id="NsR6RVdb5g">
    <property role="TrG5h" value="typeof_LetRef" />
    <node concept="3clFbS" id="NsR6RVdb5h" role="18ibNy">
      <node concept="3clFbH" id="NsR6RVdwav" role="3cqZAp" />
      <node concept="3cpWs8" id="NsR6RVdMBX" role="3cqZAp">
        <node concept="3cpWsn" id="NsR6RVdMC0" role="3cpWs9">
          <property role="TrG5h" value="type" />
          <node concept="3Tqbb2" id="NsR6RVdMC2" role="1tU5fm" />
          <node concept="2OqwBi" id="NsR6RVdwai" role="33vP2m">
            <node concept="1Z2H0r" id="NsR6RVdwaf" role="2Oq$k0">
              <node concept="2OqwBi" id="pNts2DElMN" role="1Z2MuG">
                <node concept="1PxgMI" id="pNts2DElMJ" role="2Oq$k0">
                  <ref role="1m5ApE" to="qjd:4ibC_jHJWuv" resolve="LetExpression" />
                  <node concept="2OqwBi" id="pNts2DElMC" role="1m5AlR">
                    <node concept="2OqwBi" id="NsR6RVdMBC" role="2Oq$k0">
                      <node concept="1YBJjd" id="NsR6RVdwah" role="2Oq$k0">
                        <ref role="1YBMHb" node="NsR6RVdb5i" resolve="letRef" />
                      </node>
                      <node concept="3TrEf2" id="2G6PgZGLGcz" role="2OqNvi">
                        <ref role="3Tt5mk" to="qjd:7M_MU5__DjW" />
                      </node>
                    </node>
                    <node concept="1mfA1w" id="pNts2DElMH" role="2OqNvi" />
                  </node>
                </node>
                <node concept="3TrEf2" id="pNts2DElMS" role="2OqNvi">
                  <ref role="3Tt5mk" to="qjd:4ibC_jHJWuw" />
                </node>
              </node>
            </node>
            <node concept="1$rogu" id="NsR6RVdwam" role="2OqNvi" />
          </node>
        </node>
      </node>
      <node concept="3cpWs8" id="NsR6RVdMCm" role="3cqZAp">
        <node concept="3cpWsn" id="NsR6RVdMCn" role="3cpWs9">
          <property role="TrG5h" value="map" />
          <node concept="3rvAFt" id="NsR6RVdMCo" role="1tU5fm">
            <node concept="17QB3L" id="b3cCzsU9kd" role="3rvQeY" />
            <node concept="3Tqbb2" id="T4_5U_EdKf" role="3rvSg0">
              <ref role="ehGHo" to="tpd4:hfSilrV" resolve="RuntimeTypeVariable" />
            </node>
          </node>
          <node concept="2ShNRf" id="NsR6RVdNmZ" role="33vP2m">
            <node concept="3rGOSV" id="NsR6RVdNn0" role="2ShVmc">
              <node concept="17QB3L" id="b3cCzsU9ke" role="3rHrn6" />
              <node concept="3Tqbb2" id="T4_5U_EdL0" role="3rHtpV">
                <ref role="ehGHo" to="tpd4:hfSilrV" resolve="RuntimeTypeVariable" />
              </node>
            </node>
          </node>
        </node>
      </node>
      <node concept="1DcWWT" id="moux1f1OHW" role="3cqZAp">
        <node concept="3clFbS" id="moux1f1OHX" role="2LFqv$">
          <node concept="1ZxtTE" id="pNts2DDJdF" role="3cqZAp">
            <property role="TrG5h" value="v" />
          </node>
          <node concept="3cpWs8" id="pNts2DDPaY" role="3cqZAp">
            <node concept="3cpWsn" id="pNts2DDPaZ" role="3cpWs9">
              <property role="TrG5h" value="varNode" />
              <node concept="3Tqbb2" id="pNts2DDPb0" role="1tU5fm" />
              <node concept="1Z$b5t" id="pNts2DDPb2" role="33vP2m">
                <ref role="1Z$eMM" node="pNts2DDJdF" resolve="v" />
              </node>
            </node>
          </node>
          <node concept="3clFbJ" id="pNts2DDJdG" role="3cqZAp">
            <node concept="3fqX7Q" id="pNts2DDJdH" role="3clFbw">
              <node concept="2OqwBi" id="pNts2DDJdI" role="3fr31v">
                <node concept="37vLTw" id="3GM_nagTtC$" role="2Oq$k0">
                  <ref role="3cqZAo" node="NsR6RVdMCn" resolve="map" />
                </node>
                <node concept="2Nt0df" id="pNts2DDJdK" role="2OqNvi">
                  <node concept="2OqwBi" id="pNts2DDJdL" role="38cxEo">
                    <node concept="37vLTw" id="3GM_nagTtw8" role="2Oq$k0">
                      <ref role="3cqZAo" node="moux1f1OI0" resolve="t" />
                    </node>
                    <node concept="3TrcHB" id="pNts2DDJdN" role="2OqNvi">
                      <ref role="3TsBF5" to="tpck:h0TrG11" resolve="name" />
                    </node>
                  </node>
                </node>
              </node>
            </node>
            <node concept="3clFbS" id="pNts2DDJdO" role="3clFbx">
              <node concept="3clFbF" id="pNts2DDJdP" role="3cqZAp">
                <node concept="37vLTI" id="pNts2DDJdQ" role="3clFbG">
                  <node concept="1PxgMI" id="pNts2DDJdR" role="37vLTx">
                    <ref role="1m5ApE" to="tpd4:hfSilrV" resolve="RuntimeTypeVariable" />
                    <node concept="1Z$b5t" id="pNts2DDJdS" role="1m5AlR">
                      <ref role="1Z$eMM" node="pNts2DDJdF" resolve="v" />
                    </node>
                  </node>
                  <node concept="3EllGN" id="pNts2DDJdT" role="37vLTJ">
                    <node concept="2OqwBi" id="pNts2DDJdU" role="3ElVtu">
                      <node concept="37vLTw" id="3GM_nagTA9T" role="2Oq$k0">
                        <ref role="3cqZAo" node="moux1f1OI0" resolve="t" />
                      </node>
                      <node concept="3TrcHB" id="pNts2DDJdW" role="2OqNvi">
                        <ref role="3TsBF5" to="tpck:h0TrG11" resolve="name" />
                      </node>
                    </node>
                    <node concept="37vLTw" id="3GM_nagTwhV" role="3ElQJh">
                      <ref role="3cqZAo" node="NsR6RVdMCn" resolve="map" />
                    </node>
                  </node>
                </node>
              </node>
            </node>
            <node concept="9aQIb" id="pNts2DDPb6" role="9aQIa">
              <node concept="3clFbS" id="pNts2DDPb7" role="9aQI4">
                <node concept="1Z5TYs" id="pNts2DDJdY" role="3cqZAp">
                  <node concept="mw_s8" id="pNts2DDJdZ" role="1ZfhKB">
                    <node concept="3EllGN" id="pNts2DDJe0" role="mwGJk">
                      <node concept="37vLTw" id="3GM_nagTwBZ" role="3ElQJh">
                        <ref role="3cqZAo" node="NsR6RVdMCn" resolve="map" />
                      </node>
                      <node concept="2OqwBi" id="pNts2DDJe2" role="3ElVtu">
                        <node concept="37vLTw" id="3GM_nagTAhd" role="2Oq$k0">
                          <ref role="3cqZAo" node="moux1f1OI0" resolve="t" />
                        </node>
                        <node concept="3TrcHB" id="pNts2DDJe4" role="2OqNvi">
                          <ref role="3TsBF5" to="tpck:h0TrG11" resolve="name" />
                        </node>
                      </node>
                    </node>
                  </node>
                  <node concept="mw_s8" id="pNts2DDJe5" role="1ZfhK$">
                    <node concept="1Z$b5t" id="pNts2DDJe6" role="mwGJk">
                      <ref role="1Z$eMM" node="pNts2DDJdF" resolve="v" />
                    </node>
                  </node>
                </node>
              </node>
            </node>
          </node>
          <node concept="3clFbF" id="pNts2DDJeF" role="3cqZAp">
            <node concept="2OqwBi" id="pNts2DDJeH" role="3clFbG">
              <node concept="37vLTw" id="3GM_nagTxm$" role="2Oq$k0">
                <ref role="3cqZAo" node="moux1f1OI0" resolve="t" />
              </node>
              <node concept="1P9Npp" id="pNts2DDPaS" role="2OqNvi">
                <node concept="37vLTw" id="3GM_nagTt2i" role="1P9ThW">
                  <ref role="3cqZAo" node="pNts2DDPaZ" resolve="varNode" />
                </node>
              </node>
            </node>
          </node>
        </node>
        <node concept="3cpWsn" id="moux1f1OI0" role="1Duv9x">
          <property role="TrG5h" value="t" />
          <node concept="3Tqbb2" id="moux1f1OI6" role="1tU5fm">
            <ref role="ehGHo" to="tpd4:hfSilrV" resolve="RuntimeTypeVariable" />
          </node>
        </node>
        <node concept="2OqwBi" id="moux1f1OIb" role="1DdaDG">
          <node concept="37vLTw" id="3GM_nagTtCW" role="2Oq$k0">
            <ref role="3cqZAo" node="NsR6RVdMC0" resolve="type" />
          </node>
          <node concept="2Rf3mk" id="moux1f1OId" role="2OqNvi">
            <node concept="1xMEDy" id="moux1f1OIe" role="1xVPHs">
              <node concept="chp4Y" id="moux1f1OIf" role="ri$Ld">
                <ref role="cht4Q" to="tpd4:hfSilrV" resolve="RuntimeTypeVariable" />
              </node>
            </node>
          </node>
        </node>
      </node>
      <node concept="1Z5TYs" id="moux1f2ZGY" role="3cqZAp">
        <node concept="mw_s8" id="moux1f2ZH2" role="1ZfhKB">
          <node concept="37vLTw" id="3GM_nagTx1$" role="mwGJk">
            <ref role="3cqZAo" node="NsR6RVdMC0" resolve="type" />
          </node>
        </node>
        <node concept="mw_s8" id="moux1f2ZH1" role="1ZfhK$">
          <node concept="1Z2H0r" id="moux1f2ZGV" role="mwGJk">
            <node concept="1YBJjd" id="moux1f2ZGX" role="1Z2MuG">
              <ref role="1YBMHb" node="NsR6RVdb5i" resolve="letRef" />
            </node>
          </node>
        </node>
      </node>
    </node>
    <node concept="1YaCAy" id="NsR6RVdb5i" role="1YuTPh">
      <property role="TrG5h" value="letRef" />
      <ref role="1YaFvo" to="qjd:4ibC_jHLM5G" resolve="LetRef" />
    </node>
  </node>
  <node concept="1YbPZF" id="NsR6RVdgjk">
    <property role="TrG5h" value="typeof_LetExpression" />
    <node concept="3clFbS" id="NsR6RVdgjl" role="18ibNy">
      <node concept="1Z5TYs" id="7w5wWFLeepb" role="3cqZAp">
        <node concept="mw_s8" id="7w5wWFLeepf" role="1ZfhKB">
          <node concept="1Z2H0r" id="7w5wWFLeepg" role="mwGJk">
            <node concept="2OqwBi" id="7w5wWFLeepj" role="1Z2MuG">
              <node concept="1YBJjd" id="7w5wWFLeepi" role="2Oq$k0">
                <ref role="1YBMHb" node="NsR6RVdgjm" resolve="letExpression" />
              </node>
              <node concept="3TrEf2" id="7w5wWFLeepn" role="2OqNvi">
                <ref role="3Tt5mk" to="qjd:4ibC_jHJWuw" />
              </node>
            </node>
          </node>
        </node>
        <node concept="mw_s8" id="7w5wWFLeepe" role="1ZfhK$">
          <node concept="1Z2H0r" id="7w5wWFLe9bj" role="mwGJk">
            <node concept="2OqwBi" id="7w5wWFLe9bm" role="1Z2MuG">
              <node concept="1YBJjd" id="7w5wWFLe9bl" role="2Oq$k0">
                <ref role="1YBMHb" node="NsR6RVdgjm" resolve="letExpression" />
              </node>
              <node concept="3TrEf2" id="7M_MU5__y2d" role="2OqNvi">
                <ref role="3Tt5mk" to="qjd:7g7qneGHqWK" />
              </node>
            </node>
          </node>
        </node>
      </node>
      <node concept="1Z5TYs" id="2zUY7555WSY" role="3cqZAp">
        <node concept="mw_s8" id="2zUY7555WT2" role="1ZfhKB">
          <node concept="1Z2H0r" id="2zUY7555WT3" role="mwGJk">
            <node concept="2OqwBi" id="2zUY7555WT6" role="1Z2MuG">
              <node concept="1YBJjd" id="2zUY7555WT5" role="2Oq$k0">
                <ref role="1YBMHb" node="NsR6RVdgjm" resolve="letExpression" />
              </node>
              <node concept="3TrEf2" id="2zUY755626t" role="2OqNvi">
                <ref role="3Tt5mk" to="qjd:4ibC_jHJWux" />
              </node>
            </node>
          </node>
        </node>
        <node concept="mw_s8" id="2zUY7555WT1" role="1ZfhK$">
          <node concept="1Z2H0r" id="2zUY7555WSV" role="mwGJk">
            <node concept="1YBJjd" id="2zUY7555WSX" role="1Z2MuG">
              <ref role="1YBMHb" node="NsR6RVdgjm" resolve="letExpression" />
            </node>
          </node>
        </node>
      </node>
    </node>
    <node concept="1YaCAy" id="NsR6RVdgjm" role="1YuTPh">
      <property role="TrG5h" value="letExpression" />
      <ref role="1YaFvo" to="qjd:4ibC_jHJWuv" resolve="LetExpression" />
    </node>
  </node>
  <node concept="1YbPZF" id="7I18WQXygou">
    <property role="TrG5h" value="typeof_ParenthesisExpression" />
    <property role="18ip37" value="true" />
    <node concept="3clFbS" id="7I18WQXygov" role="18ibNy">
      <node concept="1Z5TYs" id="7I18WQXyh6L" role="3cqZAp">
        <node concept="mw_s8" id="7I18WQXyh6P" role="1ZfhKB">
          <node concept="1Z2H0r" id="7I18WQXyh6Q" role="mwGJk">
            <node concept="2OqwBi" id="7I18WQXyh6T" role="1Z2MuG">
              <node concept="1YBJjd" id="7I18WQXyh6S" role="2Oq$k0">
                <ref role="1YBMHb" node="7I18WQXygow" resolve="parenthesisExpression" />
              </node>
              <node concept="3TrEf2" id="7I18WQXymkg" role="2OqNvi">
                <ref role="3Tt5mk" to="qjd:3sPZqPiq7Hq" />
              </node>
            </node>
          </node>
        </node>
        <node concept="mw_s8" id="7I18WQXyh6O" role="1ZfhK$">
          <node concept="1Z2H0r" id="7I18WQXygoy" role="mwGJk">
            <node concept="1YBJjd" id="7I18WQXyh6K" role="1Z2MuG">
              <ref role="1YBMHb" node="7I18WQXygow" resolve="parenthesisExpression" />
            </node>
          </node>
        </node>
      </node>
    </node>
    <node concept="1YaCAy" id="7I18WQXygow" role="1YuTPh">
      <property role="TrG5h" value="parenthesisExpression" />
      <ref role="1YaFvo" to="qjd:3sPZqPiq7Hp" resolve="ParenthesisExpression" />
    </node>
  </node>
  <node concept="1YbPZF" id="64smzoiTtpO">
    <property role="TrG5h" value="typeof_AbstractionVarRef" />
    <node concept="3clFbS" id="64smzoiTtpP" role="18ibNy">
      <node concept="1Z5TYs" id="64smzoiTtpV" role="3cqZAp">
        <node concept="mw_s8" id="64smzoiTtpZ" role="1ZfhKB">
          <node concept="1Z2H0r" id="64smzoiTtq0" role="mwGJk">
            <node concept="2OqwBi" id="64smzoiTtq3" role="1Z2MuG">
              <node concept="1YBJjd" id="64smzoiTtq2" role="2Oq$k0">
                <ref role="1YBMHb" node="64smzoiTtpQ" resolve="abstractionVarRef" />
              </node>
              <node concept="3TrEf2" id="2G6PgZGLGcd" role="2OqNvi">
                <ref role="3Tt5mk" to="qjd:7M_MU5__DjX" />
              </node>
            </node>
          </node>
        </node>
        <node concept="mw_s8" id="64smzoiTtpY" role="1ZfhK$">
          <node concept="1Z2H0r" id="64smzoiTtpS" role="mwGJk">
            <node concept="1YBJjd" id="64smzoiTtpU" role="1Z2MuG">
              <ref role="1YBMHb" node="64smzoiTtpQ" resolve="abstractionVarRef" />
            </node>
          </node>
        </node>
      </node>
    </node>
    <node concept="1YaCAy" id="64smzoiTtpQ" role="1YuTPh">
      <property role="TrG5h" value="abstractionVarRef" />
      <ref role="1YaFvo" to="qjd:3vh6UvnZ_if" resolve="AbstractionVarRef" />
    </node>
  </node>
  <node concept="1YbPZF" id="3XtRO1fj03x">
    <property role="TrG5h" value="typeof_Variable" />
    <node concept="3clFbS" id="3XtRO1fj03y" role="18ibNy">
      <node concept="3clFbF" id="7wCsLoJKleW" role="3cqZAp">
        <node concept="1Z2H0r" id="7wCsLoJKleU" role="3clFbG">
          <node concept="2OqwBi" id="7wCsLoJKlmv" role="1Z2MuG">
            <node concept="1YBJjd" id="7wCsLoJKlfj" role="2Oq$k0">
              <ref role="1YBMHb" node="3XtRO1fj03z" resolve="var" />
            </node>
            <node concept="1mfA1w" id="7wCsLoJKmkM" role="2OqNvi" />
          </node>
        </node>
      </node>
    </node>
    <node concept="1YaCAy" id="3XtRO1fj03z" role="1YuTPh">
      <property role="TrG5h" value="var" />
      <ref role="1YaFvo" to="qjd:4zrttnsimGi" resolve="Variable" />
    </node>
  </node>
  <node concept="1YbPZF" id="7wCsLoJL9VX">
    <property role="TrG5h" value="typeof_LambdaExpression" />
    <node concept="3clFbS" id="7wCsLoJL9VY" role="18ibNy">
      <node concept="3clFbF" id="7wCsLoJL9Wf" role="3cqZAp">
        <node concept="1Z2H0r" id="7wCsLoJL9Wd" role="3clFbG">
          <node concept="2OqwBi" id="7wCsLoJLa36" role="1Z2MuG">
            <node concept="1YBJjd" id="7wCsLoJL9X0" role="2Oq$k0">
              <ref role="1YBMHb" node="7wCsLoJL9W0" resolve="expression" />
            </node>
            <node concept="1mfA1w" id="7wCsLoJLaCC" role="2OqNvi" />
          </node>
        </node>
      </node>
    </node>
    <node concept="1YaCAy" id="7wCsLoJL9W0" role="1YuTPh">
      <property role="TrG5h" value="expression" />
      <ref role="1YaFvo" to="qjd:3vh6UvnV9zD" resolve="LambdaExpression" />
    </node>
  </node>
</model>

