<?xml version="1.0" encoding="UTF-8"?>
<model ref="r:4032b78d-911f-4395-b88c-ccb50cb24300(jetbrains.mps.debugger.java.api.settings)">
  <persistence version="9" />
  <languages>
    <use id="f3061a53-9226-4cc5-a443-f952ceaf5816" name="jetbrains.mps.baseLanguage" version="4" />
  </languages>
  <imports>
    <import index="1l1h" ref="r:c02662c0-67c5-4c3a-8d3a-cd7ffe189340(jetbrains.mps.debug.api)" />
    <import index="horf" ref="498d89d2-c2e9-11e2-ad49-6cf049e62fe5/java:com.intellij.util.net(MPS.IDEA/)" />
    <import index="guwi" ref="6354ebe7-c22a-4a0f-ac54-50b52ab9b065/java:java.io(JDK/)" />
    <import index="wyt6" ref="6354ebe7-c22a-4a0f-ac54-50b52ab9b065/java:java.lang(JDK/)" />
    <import index="mhfm" ref="3f233e7f-b8a6-46d2-a57f-795d56775243/java:org.jetbrains.annotations(Annotations/)" />
  </imports>
  <registry>
    <language id="f3061a53-9226-4cc5-a443-f952ceaf5816" name="jetbrains.mps.baseLanguage">
      <concept id="1082485599095" name="jetbrains.mps.baseLanguage.structure.BlockStatement" flags="nn" index="9aQIb">
        <child id="1082485599096" name="statements" index="9aQI4" />
      </concept>
      <concept id="1215693861676" name="jetbrains.mps.baseLanguage.structure.BaseAssignmentExpression" flags="nn" index="d038R">
        <child id="1068498886297" name="rValue" index="37vLTx" />
        <child id="1068498886295" name="lValue" index="37vLTJ" />
      </concept>
      <concept id="1202948039474" name="jetbrains.mps.baseLanguage.structure.InstanceMethodCallOperation" flags="nn" index="liA8E" />
      <concept id="1188207840427" name="jetbrains.mps.baseLanguage.structure.AnnotationInstance" flags="nn" index="2AHcQZ">
        <reference id="1188208074048" name="annotation" index="2AI5Lk" />
      </concept>
      <concept id="1188208481402" name="jetbrains.mps.baseLanguage.structure.HasAnnotation" flags="ng" index="2AJDlI">
        <child id="1188208488637" name="annotation" index="2AJF6D" />
      </concept>
      <concept id="1224848483129" name="jetbrains.mps.baseLanguage.structure.IBLDeprecatable" flags="ng" index="IEa8$">
        <property id="1224848525476" name="isDeprecated" index="IEkAT" />
      </concept>
      <concept id="1197027756228" name="jetbrains.mps.baseLanguage.structure.DotExpression" flags="nn" index="2OqwBi">
        <child id="1197027771414" name="operand" index="2Oq$k0" />
        <child id="1197027833540" name="operation" index="2OqNvi" />
      </concept>
      <concept id="1164879751025" name="jetbrains.mps.baseLanguage.structure.TryCatchStatement" flags="nn" index="SfApY">
        <child id="1164879758292" name="body" index="SfCbr" />
        <child id="1164903496223" name="catchClause" index="TEbGg" />
      </concept>
      <concept id="1145552977093" name="jetbrains.mps.baseLanguage.structure.GenericNewExpression" flags="nn" index="2ShNRf">
        <child id="1145553007750" name="creator" index="2ShVmc" />
      </concept>
      <concept id="1164903280175" name="jetbrains.mps.baseLanguage.structure.CatchClause" flags="nn" index="TDmWw">
        <child id="1164903359218" name="catchBody" index="TDEfX" />
        <child id="1164903359217" name="throwable" index="TDEfY" />
      </concept>
      <concept id="1070475587102" name="jetbrains.mps.baseLanguage.structure.SuperConstructorInvocation" flags="nn" index="XkiVB" />
      <concept id="1070475926800" name="jetbrains.mps.baseLanguage.structure.StringLiteral" flags="nn" index="Xl_RD">
        <property id="1070475926801" name="value" index="Xl_RC" />
      </concept>
      <concept id="1081236700938" name="jetbrains.mps.baseLanguage.structure.StaticMethodDeclaration" flags="ig" index="2YIFZL" />
      <concept id="1081236700937" name="jetbrains.mps.baseLanguage.structure.StaticMethodCall" flags="nn" index="2YIFZM">
        <reference id="1144433194310" name="classConcept" index="1Pybhc" />
      </concept>
      <concept id="1070534370425" name="jetbrains.mps.baseLanguage.structure.IntegerType" flags="in" index="10Oyi0" />
      <concept id="1070534644030" name="jetbrains.mps.baseLanguage.structure.BooleanType" flags="in" index="10P_77" />
      <concept id="1068390468200" name="jetbrains.mps.baseLanguage.structure.FieldDeclaration" flags="ig" index="312cEg">
        <property id="1240249534625" name="isVolatile" index="34CwA1" />
      </concept>
      <concept id="1068390468198" name="jetbrains.mps.baseLanguage.structure.ClassConcept" flags="ig" index="312cEu">
        <property id="1075300953594" name="abstractClass" index="1sVAO0" />
        <property id="1221565133444" name="isFinal" index="1EXbeo" />
        <child id="1095933932569" name="implementedInterface" index="EKbjA" />
        <child id="1165602531693" name="superclass" index="1zkMxy" />
      </concept>
      <concept id="1068431474542" name="jetbrains.mps.baseLanguage.structure.VariableDeclaration" flags="ng" index="33uBYm">
        <property id="1176718929932" name="isFinal" index="3TUv4t" />
        <child id="1068431790190" name="initializer" index="33vP2m" />
      </concept>
      <concept id="1068498886296" name="jetbrains.mps.baseLanguage.structure.VariableReference" flags="nn" index="37vLTw">
        <reference id="1068581517664" name="variableDeclaration" index="3cqZAo" />
      </concept>
      <concept id="1068498886292" name="jetbrains.mps.baseLanguage.structure.ParameterDeclaration" flags="ir" index="37vLTG" />
      <concept id="1068498886294" name="jetbrains.mps.baseLanguage.structure.AssignmentExpression" flags="nn" index="37vLTI" />
      <concept id="1225271177708" name="jetbrains.mps.baseLanguage.structure.StringType" flags="in" index="17QB3L" />
      <concept id="4972933694980447171" name="jetbrains.mps.baseLanguage.structure.BaseVariableDeclaration" flags="ng" index="19Szcq">
        <child id="5680397130376446158" name="type" index="1tU5fm" />
      </concept>
      <concept id="1068580123132" name="jetbrains.mps.baseLanguage.structure.BaseMethodDeclaration" flags="ng" index="3clF44">
        <property id="1181808852946" name="isFinal" index="DiZV1" />
        <child id="1164879685961" name="throwsItem" index="Sfmx6" />
        <child id="1068580123133" name="returnType" index="3clF45" />
        <child id="1068580123134" name="parameter" index="3clF46" />
        <child id="1068580123135" name="body" index="3clF47" />
      </concept>
      <concept id="1068580123165" name="jetbrains.mps.baseLanguage.structure.InstanceMethodDeclaration" flags="ig" index="3clFb_">
        <property id="1178608670077" name="isAbstract" index="1EzhhJ" />
      </concept>
      <concept id="1068580123155" name="jetbrains.mps.baseLanguage.structure.ExpressionStatement" flags="nn" index="3clFbF">
        <child id="1068580123156" name="expression" index="3clFbG" />
      </concept>
      <concept id="1068580123159" name="jetbrains.mps.baseLanguage.structure.IfStatement" flags="nn" index="3clFbJ">
        <child id="1082485599094" name="ifFalseStatement" index="9aQIa" />
        <child id="1068580123160" name="condition" index="3clFbw" />
        <child id="1068580123161" name="ifTrue" index="3clFbx" />
      </concept>
      <concept id="1068580123136" name="jetbrains.mps.baseLanguage.structure.StatementList" flags="sn" stub="5293379017992965193" index="3clFbS">
        <child id="1068581517665" name="statement" index="3cqZAp" />
      </concept>
      <concept id="1068580123137" name="jetbrains.mps.baseLanguage.structure.BooleanConstant" flags="nn" index="3clFbT">
        <property id="1068580123138" name="value" index="3clFbU" />
      </concept>
      <concept id="1068580123140" name="jetbrains.mps.baseLanguage.structure.ConstructorDeclaration" flags="ig" index="3clFbW" />
      <concept id="1068580320020" name="jetbrains.mps.baseLanguage.structure.IntegerConstant" flags="nn" index="3cmrfG">
        <property id="1068580320021" name="value" index="3cmrfH" />
      </concept>
      <concept id="1068581242875" name="jetbrains.mps.baseLanguage.structure.PlusExpression" flags="nn" index="3cpWs3" />
      <concept id="1068581242878" name="jetbrains.mps.baseLanguage.structure.ReturnStatement" flags="nn" index="3cpWs6">
        <child id="1068581517676" name="expression" index="3cqZAk" />
      </concept>
      <concept id="1068581242864" name="jetbrains.mps.baseLanguage.structure.LocalVariableDeclarationStatement" flags="nn" index="3cpWs8">
        <child id="1068581242865" name="localVariableDeclaration" index="3cpWs9" />
      </concept>
      <concept id="1068581242863" name="jetbrains.mps.baseLanguage.structure.LocalVariableDeclaration" flags="nr" index="3cpWsn" />
      <concept id="1068581517677" name="jetbrains.mps.baseLanguage.structure.VoidType" flags="in" index="3cqZAl" />
      <concept id="1079359253375" name="jetbrains.mps.baseLanguage.structure.ParenthesizedExpression" flags="nn" index="1eOMI4">
        <child id="1079359253376" name="expression" index="1eOMHV" />
      </concept>
      <concept id="1081516740877" name="jetbrains.mps.baseLanguage.structure.NotExpression" flags="nn" index="3fqX7Q">
        <child id="1081516765348" name="expression" index="3fr31v" />
      </concept>
      <concept id="1204053956946" name="jetbrains.mps.baseLanguage.structure.IMethodCall" flags="ng" index="1ndlxa">
        <reference id="1068499141037" name="baseMethodDeclaration" index="37wK5l" />
        <child id="1068499141038" name="actualArgument" index="37wK5m" />
      </concept>
      <concept id="1212685548494" name="jetbrains.mps.baseLanguage.structure.ClassCreator" flags="nn" index="1pGfFk" />
      <concept id="1107461130800" name="jetbrains.mps.baseLanguage.structure.Classifier" flags="ng" index="3pOWGL">
        <child id="5375687026011219971" name="member" index="jymVt" unordered="true" />
      </concept>
      <concept id="7812454656619025412" name="jetbrains.mps.baseLanguage.structure.LocalMethodCall" flags="nn" index="1rXfSq" />
      <concept id="1107535904670" name="jetbrains.mps.baseLanguage.structure.ClassifierType" flags="in" index="3uibUv">
        <reference id="1107535924139" name="classifier" index="3uigEE" />
      </concept>
      <concept id="1081773326031" name="jetbrains.mps.baseLanguage.structure.BinaryOperation" flags="nn" index="3uHJSO">
        <child id="1081773367579" name="rightExpression" index="3uHU7w" />
        <child id="1081773367580" name="leftExpression" index="3uHU7B" />
      </concept>
      <concept id="1178549954367" name="jetbrains.mps.baseLanguage.structure.IVisible" flags="ng" index="1B3ioH">
        <child id="1178549979242" name="visibility" index="1B3o_S" />
      </concept>
      <concept id="1163668896201" name="jetbrains.mps.baseLanguage.structure.TernaryOperatorExpression" flags="nn" index="3K4zz7">
        <child id="1163668914799" name="condition" index="3K4Cdx" />
        <child id="1163668922816" name="ifTrue" index="3K4E3e" />
        <child id="1163668934364" name="ifFalse" index="3K4GZi" />
      </concept>
      <concept id="1146644602865" name="jetbrains.mps.baseLanguage.structure.PublicVisibility" flags="nn" index="3Tm1VV" />
      <concept id="1146644623116" name="jetbrains.mps.baseLanguage.structure.PrivateVisibility" flags="nn" index="3Tm6S6" />
      <concept id="1146644641414" name="jetbrains.mps.baseLanguage.structure.ProtectedVisibility" flags="nn" index="3Tmbuc" />
      <concept id="1200397529627" name="jetbrains.mps.baseLanguage.structure.CharConstant" flags="nn" index="1Xhbcc">
        <property id="1200397540847" name="charConstant" index="1XhdNS" />
      </concept>
    </language>
    <language id="ceab5195-25ea-4f22-9b92-103b95ca8c0c" name="jetbrains.mps.lang.core">
      <concept id="1169194658468" name="jetbrains.mps.lang.core.structure.INamedConcept" flags="ng" index="TrEIO">
        <property id="1169194664001" name="name" index="TrG5h" />
      </concept>
    </language>
  </registry>
  <node concept="312cEu" id="2Y$mRnIClFo">
    <property role="TrG5h" value="RemoteConnectionSettings" />
    <property role="1sVAO0" value="false" />
    <property role="1EXbeo" value="false" />
    <node concept="3Tm1VV" id="2Y$mRnIClFp" role="1B3o_S" />
    <node concept="3uibUv" id="2Y$mRnIClFq" role="1zkMxy">
      <ref role="3uigEE" node="2Y$mRnIClFn" resolve="DebugConnectionSettings" />
    </node>
    <node concept="3uibUv" id="2g7jLxix5nh" role="EKbjA">
      <ref role="3uigEE" to="wyt6:~Cloneable" resolve="Cloneable" />
    </node>
    <node concept="312cEg" id="2Y$mRnIClFr" role="jymVt">
      <property role="TrG5h" value="mySuspend" />
      <property role="34CwA1" value="false" />
      <property role="3TUv4t" value="false" />
      <node concept="10P_77" id="2Y$mRnIClFs" role="1tU5fm" />
      <node concept="3Tm6S6" id="2Y$mRnIClFt" role="1B3o_S" />
      <node concept="3clFbT" id="2Y$mRnIClFu" role="33vP2m">
        <property role="3clFbU" value="false" />
      </node>
    </node>
    <node concept="3clFbW" id="2Y$mRnIClFv" role="jymVt">
      <node concept="3Tm1VV" id="2Y$mRnIClFw" role="1B3o_S" />
      <node concept="3cqZAl" id="2Y$mRnIClFx" role="3clF45" />
      <node concept="37vLTG" id="2Y$mRnIClFy" role="3clF46">
        <property role="TrG5h" value="hostName" />
        <property role="3TUv4t" value="false" />
        <node concept="17QB3L" id="2g7jLxix5nO" role="1tU5fm" />
      </node>
      <node concept="37vLTG" id="2Y$mRnIClF$" role="3clF46">
        <property role="TrG5h" value="port" />
        <property role="3TUv4t" value="false" />
        <node concept="10Oyi0" id="2Y$mRnIClF_" role="1tU5fm" />
      </node>
      <node concept="3clFbS" id="2Y$mRnIClFA" role="3clF47">
        <node concept="XkiVB" id="2Y$mRnIClFB" role="3cqZAp">
          <ref role="37wK5l" node="2Y$mRnICmkj" resolve="DebugConnectionSettings" />
          <node concept="37vLTw" id="2BHiRxglgv1" role="37wK5m">
            <ref role="3cqZAo" node="2Y$mRnIClFy" resolve="hostName" />
          </node>
          <node concept="37vLTw" id="2BHiRxgm9kw" role="37wK5m">
            <ref role="3cqZAo" node="2Y$mRnIClF$" resolve="port" />
          </node>
        </node>
      </node>
    </node>
    <node concept="3clFbW" id="2Y$mRnIClFE" role="jymVt">
      <node concept="3Tm1VV" id="2Y$mRnIClFF" role="1B3o_S" />
      <node concept="3cqZAl" id="2Y$mRnIClFG" role="3clF45" />
      <node concept="3clFbS" id="2Y$mRnIClFH" role="3clF47">
        <node concept="XkiVB" id="2Y$mRnIClFI" role="3cqZAp">
          <ref role="37wK5l" node="2Y$mRnICmkf" resolve="DebugConnectionSettings" />
        </node>
      </node>
    </node>
    <node concept="3clFb_" id="2Y$mRnIClG0" role="jymVt">
      <property role="1EzhhJ" value="false" />
      <property role="TrG5h" value="isServerMode" />
      <property role="DiZV1" value="false" />
      <node concept="3Tm1VV" id="2Y$mRnIClG1" role="1B3o_S" />
      <node concept="10P_77" id="2Y$mRnIClG2" role="3clF45" />
      <node concept="3clFbS" id="2Y$mRnIClG3" role="3clF47">
        <node concept="3cpWs6" id="2Y$mRnIClG4" role="3cqZAp">
          <node concept="3clFbT" id="2Y$mRnIClG5" role="3cqZAk">
            <property role="3clFbU" value="false" />
          </node>
        </node>
      </node>
      <node concept="2AHcQZ" id="2Y$mRnIClG6" role="2AJF6D">
        <ref role="2AI5Lk" to="wyt6:~Override" resolve="Override" />
      </node>
    </node>
    <node concept="3clFb_" id="2Y$mRnIClG7" role="jymVt">
      <property role="1EzhhJ" value="false" />
      <property role="TrG5h" value="isSuspend" />
      <property role="DiZV1" value="false" />
      <node concept="3Tm1VV" id="2Y$mRnIClG8" role="1B3o_S" />
      <node concept="10P_77" id="2Y$mRnIClG9" role="3clF45" />
      <node concept="3clFbS" id="2Y$mRnIClGa" role="3clF47">
        <node concept="3cpWs6" id="2Y$mRnIClGb" role="3cqZAp">
          <node concept="37vLTw" id="2BHiRxeudHV" role="3cqZAk">
            <ref role="3cqZAo" node="2Y$mRnIClFr" resolve="mySuspend" />
          </node>
        </node>
      </node>
      <node concept="2AHcQZ" id="2Y$mRnIClGd" role="2AJF6D">
        <ref role="2AI5Lk" to="wyt6:~Override" resolve="Override" />
      </node>
    </node>
    <node concept="3clFb_" id="2Y$mRnIClGe" role="jymVt">
      <property role="1EzhhJ" value="false" />
      <property role="TrG5h" value="setSuspend" />
      <property role="DiZV1" value="false" />
      <node concept="3Tm1VV" id="2Y$mRnIClGf" role="1B3o_S" />
      <node concept="3cqZAl" id="2Y$mRnIClGg" role="3clF45" />
      <node concept="37vLTG" id="2Y$mRnIClGh" role="3clF46">
        <property role="TrG5h" value="suspend" />
        <property role="3TUv4t" value="false" />
        <node concept="10P_77" id="2Y$mRnIClGi" role="1tU5fm" />
      </node>
      <node concept="3clFbS" id="2Y$mRnIClGj" role="3clF47">
        <node concept="3clFbF" id="2Y$mRnIClGk" role="3cqZAp">
          <node concept="37vLTI" id="2Y$mRnIClGl" role="3clFbG">
            <node concept="37vLTw" id="2BHiRxeuDYV" role="37vLTJ">
              <ref role="3cqZAo" node="2Y$mRnIClFr" resolve="mySuspend" />
            </node>
            <node concept="37vLTw" id="2BHiRxgmaqt" role="37vLTx">
              <ref role="3cqZAo" node="2Y$mRnIClGh" resolve="suspend" />
            </node>
          </node>
        </node>
      </node>
    </node>
    <node concept="3clFb_" id="2g7jLxix5ni" role="jymVt">
      <property role="IEkAT" value="false" />
      <property role="1EzhhJ" value="false" />
      <property role="TrG5h" value="clone" />
      <property role="DiZV1" value="false" />
      <node concept="3Tm1VV" id="2g7jLxixJOn" role="1B3o_S" />
      <node concept="3uibUv" id="2g7jLxix5nP" role="3clF45">
        <ref role="3uigEE" node="2Y$mRnIClFo" resolve="RemoteConnectionSettings" />
      </node>
      <node concept="3uibUv" id="2g7jLxix5nl" role="Sfmx6">
        <ref role="3uigEE" to="wyt6:~CloneNotSupportedException" resolve="CloneNotSupportedException" />
      </node>
      <node concept="3clFbS" id="2g7jLxix5nm" role="3clF47">
        <node concept="3cpWs8" id="2g7jLxix5ny" role="3cqZAp">
          <node concept="3cpWsn" id="2g7jLxix5nz" role="3cpWs9">
            <property role="TrG5h" value="connectionSettings" />
            <node concept="3uibUv" id="2g7jLxix5n$" role="1tU5fm">
              <ref role="3uigEE" node="2Y$mRnIClFo" resolve="RemoteConnectionSettings" />
            </node>
            <node concept="2ShNRf" id="2g7jLxix5n_" role="33vP2m">
              <node concept="1pGfFk" id="2g7jLxix5nA" role="2ShVmc">
                <ref role="37wK5l" node="2Y$mRnIClFv" resolve="RemoteConnectionSettings" />
                <node concept="1rXfSq" id="4hiugqyzfmw" role="37wK5m">
                  <ref role="37wK5l" node="2Y$mRnICmmW" resolve="getHostName" />
                </node>
                <node concept="1rXfSq" id="4hiugqyz5H5" role="37wK5m">
                  <ref role="37wK5l" node="2Y$mRnICmnc" resolve="getPort" />
                </node>
              </node>
            </node>
          </node>
        </node>
        <node concept="3clFbF" id="2g7jLxix5nF" role="3cqZAp">
          <node concept="2OqwBi" id="2g7jLxix5nH" role="3clFbG">
            <node concept="37vLTw" id="3GM_nagTBBa" role="2Oq$k0">
              <ref role="3cqZAo" node="2g7jLxix5nz" resolve="connectionSettings" />
            </node>
            <node concept="liA8E" id="2g7jLxix5nL" role="2OqNvi">
              <ref role="37wK5l" node="2Y$mRnIClGe" resolve="setSuspend" />
              <node concept="1rXfSq" id="4hiugqyzhLP" role="37wK5m">
                <ref role="37wK5l" node="2Y$mRnIClG7" resolve="isSuspend" />
              </node>
            </node>
          </node>
        </node>
        <node concept="3clFbF" id="2g7jLxix5nq" role="3cqZAp">
          <node concept="37vLTw" id="3GM_nagTzDE" role="3clFbG">
            <ref role="3cqZAo" node="2g7jLxix5nz" resolve="connectionSettings" />
          </node>
        </node>
      </node>
      <node concept="2AHcQZ" id="2g7jLxix5nn" role="2AJF6D">
        <ref role="2AI5Lk" to="wyt6:~Override" resolve="Override" />
      </node>
    </node>
    <node concept="2YIFZL" id="2Y$mRnIClFJ" role="jymVt">
      <property role="TrG5h" value="getClientCommandLine" />
      <property role="DiZV1" value="false" />
      <node concept="3Tm1VV" id="2Y$mRnIClFK" role="1B3o_S" />
      <node concept="17QB3L" id="2g7jLxix5nN" role="3clF45" />
      <node concept="37vLTG" id="2Y$mRnIClFM" role="3clF46">
        <property role="TrG5h" value="useSockets" />
        <property role="3TUv4t" value="false" />
        <node concept="10P_77" id="2Y$mRnIClFN" role="1tU5fm" />
      </node>
      <node concept="37vLTG" id="2Y$mRnIClFO" role="3clF46">
        <property role="TrG5h" value="port" />
        <property role="3TUv4t" value="false" />
        <node concept="10Oyi0" id="2Y$mRnIClFP" role="1tU5fm" />
      </node>
      <node concept="3clFbS" id="2Y$mRnIClFQ" role="3clF47">
        <node concept="3cpWs6" id="2Y$mRnIClFR" role="3cqZAp">
          <node concept="3cpWs3" id="2Y$mRnIClFS" role="3cqZAk">
            <node concept="Xl_RD" id="2Y$mRnIClFT" role="3uHU7B">
              <property role="Xl_RC" value="-Xdebug " />
            </node>
            <node concept="2YIFZM" id="2Y$mRnIClFU" role="3uHU7w">
              <ref role="1Pybhc" node="2Y$mRnIClFn" resolve="DebugConnectionSettings" />
              <ref role="37wK5l" node="2Y$mRnICml7" resolve="getCommandLine" />
              <node concept="3clFbT" id="2Y$mRnIClFV" role="37wK5m">
                <property role="3clFbU" value="true" />
              </node>
              <node concept="37vLTw" id="2BHiRxgm83b" role="37wK5m">
                <ref role="3cqZAo" node="2Y$mRnIClFM" resolve="useSockets" />
              </node>
              <node concept="3clFbT" id="2Y$mRnIClFX" role="37wK5m">
                <property role="3clFbU" value="false" />
              </node>
              <node concept="2YIFZM" id="2Y$mRnIClFY" role="37wK5m">
                <ref role="1Pybhc" to="wyt6:~Integer" resolve="Integer" />
                <ref role="37wK5l" to="wyt6:~Integer.toString(int):java.lang.String" resolve="toString" />
                <node concept="37vLTw" id="2BHiRxglp3R" role="37wK5m">
                  <ref role="3cqZAo" node="2Y$mRnIClFO" resolve="port" />
                </node>
              </node>
            </node>
          </node>
        </node>
      </node>
    </node>
  </node>
  <node concept="312cEu" id="2Y$mRnIClFn">
    <property role="TrG5h" value="DebugConnectionSettings" />
    <property role="1sVAO0" value="true" />
    <property role="1EXbeo" value="false" />
    <node concept="3Tm1VV" id="2Y$mRnICmjZ" role="1B3o_S" />
    <node concept="3uibUv" id="7yuXYdyoL1B" role="EKbjA">
      <ref role="3uigEE" to="1l1h:3SnNvqCaJgQ" resolve="IDebuggerSettings" />
    </node>
    <node concept="312cEg" id="2Y$mRnICmk1" role="jymVt">
      <property role="TrG5h" value="myUseSockets" />
      <property role="34CwA1" value="false" />
      <property role="3TUv4t" value="false" />
      <node concept="10P_77" id="2Y$mRnICmk2" role="1tU5fm" />
      <node concept="3Tm6S6" id="2Y$mRnICmk3" role="1B3o_S" />
      <node concept="3clFbT" id="2Y$mRnICmk4" role="33vP2m">
        <property role="3clFbU" value="true" />
      </node>
    </node>
    <node concept="312cEg" id="2Y$mRnICmk5" role="jymVt">
      <property role="TrG5h" value="myHostName" />
      <property role="34CwA1" value="false" />
      <property role="3TUv4t" value="false" />
      <node concept="17QB3L" id="65unOfq59Jr" role="1tU5fm" />
      <node concept="3Tm6S6" id="2Y$mRnICmk7" role="1B3o_S" />
    </node>
    <node concept="312cEg" id="2Y$mRnICmk8" role="jymVt">
      <property role="TrG5h" value="myPort" />
      <property role="34CwA1" value="false" />
      <property role="3TUv4t" value="false" />
      <node concept="10Oyi0" id="2Y$mRnICmk9" role="1tU5fm" />
      <node concept="3Tm6S6" id="2Y$mRnICmka" role="1B3o_S" />
    </node>
    <node concept="312cEg" id="2Y$mRnICmkb" role="jymVt">
      <property role="TrG5h" value="mySharedMemoryAddress" />
      <property role="34CwA1" value="false" />
      <property role="3TUv4t" value="false" />
      <node concept="17QB3L" id="65unOfq59Jb" role="1tU5fm" />
      <node concept="3Tm6S6" id="2Y$mRnICmkd" role="1B3o_S" />
      <node concept="Xl_RD" id="2Y$mRnICmke" role="33vP2m">
        <property role="Xl_RC" value="" />
      </node>
    </node>
    <node concept="3clFbW" id="2Y$mRnICmkf" role="jymVt">
      <node concept="3Tmbuc" id="2Y$mRnICmkg" role="1B3o_S" />
      <node concept="3cqZAl" id="2Y$mRnICmkh" role="3clF45" />
      <node concept="3clFbS" id="2Y$mRnICmki" role="3clF47" />
    </node>
    <node concept="3clFbW" id="2Y$mRnICmkj" role="jymVt">
      <node concept="3Tmbuc" id="2Y$mRnICmkk" role="1B3o_S" />
      <node concept="3cqZAl" id="2Y$mRnICmkl" role="3clF45" />
      <node concept="37vLTG" id="2Y$mRnICmkm" role="3clF46">
        <property role="TrG5h" value="hostName" />
        <property role="3TUv4t" value="false" />
        <node concept="17QB3L" id="65unOfq59Jq" role="1tU5fm" />
      </node>
      <node concept="37vLTG" id="2Y$mRnICmko" role="3clF46">
        <property role="TrG5h" value="port" />
        <property role="3TUv4t" value="false" />
        <node concept="10Oyi0" id="2Y$mRnICmkp" role="1tU5fm" />
      </node>
      <node concept="3clFbS" id="2Y$mRnICmkq" role="3clF47">
        <node concept="3clFbF" id="2Y$mRnICmkr" role="3cqZAp">
          <node concept="37vLTI" id="2Y$mRnICmks" role="3clFbG">
            <node concept="37vLTw" id="2BHiRxeuImn" role="37vLTJ">
              <ref role="3cqZAo" node="2Y$mRnICmk1" resolve="myUseSockets" />
            </node>
            <node concept="3clFbT" id="2Y$mRnICmku" role="37vLTx">
              <property role="3clFbU" value="true" />
            </node>
          </node>
        </node>
        <node concept="3clFbF" id="2Y$mRnICmkv" role="3cqZAp">
          <node concept="37vLTI" id="2Y$mRnICmkw" role="3clFbG">
            <node concept="37vLTw" id="2BHiRxeuyX0" role="37vLTJ">
              <ref role="3cqZAo" node="2Y$mRnICmkb" resolve="mySharedMemoryAddress" />
            </node>
            <node concept="Xl_RD" id="2Y$mRnICmky" role="37vLTx">
              <property role="Xl_RC" value="" />
            </node>
          </node>
        </node>
        <node concept="3clFbF" id="2Y$mRnICmkz" role="3cqZAp">
          <node concept="37vLTI" id="2Y$mRnICmk$" role="3clFbG">
            <node concept="37vLTw" id="2BHiRxeumYH" role="37vLTJ">
              <ref role="3cqZAo" node="2Y$mRnICmk5" resolve="myHostName" />
            </node>
            <node concept="37vLTw" id="2BHiRxgmanv" role="37vLTx">
              <ref role="3cqZAo" node="2Y$mRnICmkm" resolve="hostName" />
            </node>
          </node>
        </node>
        <node concept="3clFbF" id="2Y$mRnICmkB" role="3cqZAp">
          <node concept="37vLTI" id="2Y$mRnICmkC" role="3clFbG">
            <node concept="37vLTw" id="2BHiRxeun44" role="37vLTJ">
              <ref role="3cqZAo" node="2Y$mRnICmk8" resolve="myPort" />
            </node>
            <node concept="37vLTw" id="2BHiRxghiMw" role="37vLTx">
              <ref role="3cqZAo" node="2Y$mRnICmko" resolve="port" />
            </node>
          </node>
        </node>
      </node>
    </node>
    <node concept="3clFbW" id="2Y$mRnICmkF" role="jymVt">
      <node concept="3Tmbuc" id="2Y$mRnICmkG" role="1B3o_S" />
      <node concept="3cqZAl" id="2Y$mRnICmkH" role="3clF45" />
      <node concept="37vLTG" id="2Y$mRnICmkI" role="3clF46">
        <property role="TrG5h" value="useSockets" />
        <property role="3TUv4t" value="false" />
        <node concept="10P_77" id="2Y$mRnICmkJ" role="1tU5fm" />
      </node>
      <node concept="37vLTG" id="2Y$mRnICmkK" role="3clF46">
        <property role="TrG5h" value="hostName" />
        <property role="3TUv4t" value="false" />
        <node concept="17QB3L" id="65unOfq59Jh" role="1tU5fm" />
      </node>
      <node concept="37vLTG" id="2Y$mRnICmkM" role="3clF46">
        <property role="TrG5h" value="port" />
        <property role="3TUv4t" value="false" />
        <node concept="10Oyi0" id="2Y$mRnICmkN" role="1tU5fm" />
      </node>
      <node concept="37vLTG" id="2Y$mRnICmkO" role="3clF46">
        <property role="TrG5h" value="sharedMemoryAddress" />
        <property role="3TUv4t" value="false" />
        <node concept="17QB3L" id="65unOfq59Jd" role="1tU5fm" />
      </node>
      <node concept="3clFbS" id="2Y$mRnICmkQ" role="3clF47">
        <node concept="3clFbF" id="2Y$mRnICmkR" role="3cqZAp">
          <node concept="37vLTI" id="2Y$mRnICmkS" role="3clFbG">
            <node concept="37vLTw" id="2BHiRxeuHrh" role="37vLTJ">
              <ref role="3cqZAo" node="2Y$mRnICmk1" resolve="myUseSockets" />
            </node>
            <node concept="37vLTw" id="2BHiRxgmP9H" role="37vLTx">
              <ref role="3cqZAo" node="2Y$mRnICmkI" resolve="useSockets" />
            </node>
          </node>
        </node>
        <node concept="3clFbF" id="2Y$mRnICmkV" role="3cqZAp">
          <node concept="37vLTI" id="2Y$mRnICmkW" role="3clFbG">
            <node concept="37vLTw" id="2BHiRxeuswP" role="37vLTJ">
              <ref role="3cqZAo" node="2Y$mRnICmk5" resolve="myHostName" />
            </node>
            <node concept="37vLTw" id="2BHiRxghg3u" role="37vLTx">
              <ref role="3cqZAo" node="2Y$mRnICmkK" resolve="hostName" />
            </node>
          </node>
        </node>
        <node concept="3clFbF" id="2Y$mRnICmkZ" role="3cqZAp">
          <node concept="37vLTI" id="2Y$mRnICml0" role="3clFbG">
            <node concept="37vLTw" id="2BHiRxeuStk" role="37vLTJ">
              <ref role="3cqZAo" node="2Y$mRnICmk8" resolve="myPort" />
            </node>
            <node concept="37vLTw" id="2BHiRxgmaDi" role="37vLTx">
              <ref role="3cqZAo" node="2Y$mRnICmkM" resolve="port" />
            </node>
          </node>
        </node>
        <node concept="3clFbF" id="2Y$mRnICml3" role="3cqZAp">
          <node concept="37vLTI" id="2Y$mRnICml4" role="3clFbG">
            <node concept="37vLTw" id="2BHiRxeuu5V" role="37vLTJ">
              <ref role="3cqZAo" node="2Y$mRnICmkb" resolve="mySharedMemoryAddress" />
            </node>
            <node concept="37vLTw" id="2BHiRxgmes2" role="37vLTx">
              <ref role="3cqZAo" node="2Y$mRnICmkO" resolve="sharedMemoryAddress" />
            </node>
          </node>
        </node>
      </node>
    </node>
    <node concept="3clFb_" id="2Y$mRnICmm$" role="jymVt">
      <property role="1EzhhJ" value="true" />
      <property role="TrG5h" value="isServerMode" />
      <property role="DiZV1" value="false" />
      <node concept="3Tm1VV" id="2Y$mRnICmm_" role="1B3o_S" />
      <node concept="10P_77" id="2Y$mRnICmmA" role="3clF45" />
      <node concept="3clFbS" id="2Y$mRnICmmB" role="3clF47" />
    </node>
    <node concept="3clFb_" id="2Y$mRnICmmC" role="jymVt">
      <property role="1EzhhJ" value="true" />
      <property role="TrG5h" value="isSuspend" />
      <property role="DiZV1" value="false" />
      <node concept="3Tm1VV" id="2Y$mRnICmmD" role="1B3o_S" />
      <node concept="10P_77" id="2Y$mRnICmmE" role="3clF45" />
      <node concept="3clFbS" id="2Y$mRnICmmF" role="3clF47" />
    </node>
    <node concept="3clFb_" id="2Y$mRnICmmG" role="jymVt">
      <property role="1EzhhJ" value="false" />
      <property role="TrG5h" value="isUseSockets" />
      <property role="DiZV1" value="false" />
      <node concept="3Tm1VV" id="2Y$mRnICmmH" role="1B3o_S" />
      <node concept="10P_77" id="2Y$mRnICmmI" role="3clF45" />
      <node concept="3clFbS" id="2Y$mRnICmmJ" role="3clF47">
        <node concept="3cpWs6" id="2Y$mRnICmmK" role="3cqZAp">
          <node concept="37vLTw" id="2BHiRxeuxMc" role="3cqZAk">
            <ref role="3cqZAo" node="2Y$mRnICmk1" resolve="myUseSockets" />
          </node>
        </node>
      </node>
    </node>
    <node concept="3clFb_" id="2Y$mRnICmmM" role="jymVt">
      <property role="1EzhhJ" value="false" />
      <property role="TrG5h" value="setUseSockets" />
      <property role="DiZV1" value="false" />
      <node concept="3Tm1VV" id="2Y$mRnICmmN" role="1B3o_S" />
      <node concept="3cqZAl" id="2Y$mRnICmmO" role="3clF45" />
      <node concept="37vLTG" id="2Y$mRnICmmP" role="3clF46">
        <property role="TrG5h" value="useSockets" />
        <property role="3TUv4t" value="false" />
        <node concept="10P_77" id="2Y$mRnICmmQ" role="1tU5fm" />
      </node>
      <node concept="3clFbS" id="2Y$mRnICmmR" role="3clF47">
        <node concept="3clFbF" id="2Y$mRnICmmS" role="3cqZAp">
          <node concept="37vLTI" id="2Y$mRnICmmT" role="3clFbG">
            <node concept="37vLTw" id="2BHiRxeuIng" role="37vLTJ">
              <ref role="3cqZAo" node="2Y$mRnICmk1" resolve="myUseSockets" />
            </node>
            <node concept="37vLTw" id="2BHiRxgm9cK" role="37vLTx">
              <ref role="3cqZAo" node="2Y$mRnICmmP" resolve="useSockets" />
            </node>
          </node>
        </node>
      </node>
    </node>
    <node concept="3clFb_" id="2Y$mRnICmmW" role="jymVt">
      <property role="1EzhhJ" value="false" />
      <property role="TrG5h" value="getHostName" />
      <property role="DiZV1" value="false" />
      <node concept="17QB3L" id="65unOfq59Jl" role="3clF45" />
      <node concept="3Tm1VV" id="2Y$mRnICmmX" role="1B3o_S" />
      <node concept="3clFbS" id="2Y$mRnICmmZ" role="3clF47">
        <node concept="3cpWs6" id="2Y$mRnICmn0" role="3cqZAp">
          <node concept="37vLTw" id="2BHiRxeuM$5" role="3cqZAk">
            <ref role="3cqZAo" node="2Y$mRnICmk5" resolve="myHostName" />
          </node>
        </node>
      </node>
    </node>
    <node concept="3clFb_" id="2Y$mRnICmn2" role="jymVt">
      <property role="1EzhhJ" value="false" />
      <property role="TrG5h" value="setHostName" />
      <property role="DiZV1" value="false" />
      <node concept="3Tm1VV" id="2Y$mRnICmn3" role="1B3o_S" />
      <node concept="3cqZAl" id="2Y$mRnICmn4" role="3clF45" />
      <node concept="37vLTG" id="2Y$mRnICmn5" role="3clF46">
        <property role="TrG5h" value="hostName" />
        <property role="3TUv4t" value="false" />
        <node concept="17QB3L" id="65unOfq59Jj" role="1tU5fm" />
      </node>
      <node concept="3clFbS" id="2Y$mRnICmn7" role="3clF47">
        <node concept="3clFbF" id="2Y$mRnICmn8" role="3cqZAp">
          <node concept="37vLTI" id="2Y$mRnICmn9" role="3clFbG">
            <node concept="37vLTw" id="2BHiRxeukoi" role="37vLTJ">
              <ref role="3cqZAo" node="2Y$mRnICmk5" resolve="myHostName" />
            </node>
            <node concept="37vLTw" id="2BHiRxgmpLQ" role="37vLTx">
              <ref role="3cqZAo" node="2Y$mRnICmn5" resolve="hostName" />
            </node>
          </node>
        </node>
      </node>
    </node>
    <node concept="3clFb_" id="2Y$mRnICmnc" role="jymVt">
      <property role="1EzhhJ" value="false" />
      <property role="TrG5h" value="getPort" />
      <property role="DiZV1" value="false" />
      <node concept="3Tm1VV" id="2Y$mRnICmnd" role="1B3o_S" />
      <node concept="10Oyi0" id="2Y$mRnICmne" role="3clF45" />
      <node concept="3clFbS" id="2Y$mRnICmnf" role="3clF47">
        <node concept="3cpWs6" id="2Y$mRnICmng" role="3cqZAp">
          <node concept="37vLTw" id="2BHiRxeu_6t" role="3cqZAk">
            <ref role="3cqZAo" node="2Y$mRnICmk8" resolve="myPort" />
          </node>
        </node>
      </node>
    </node>
    <node concept="3clFb_" id="2Y$mRnICmni" role="jymVt">
      <property role="1EzhhJ" value="false" />
      <property role="TrG5h" value="setPort" />
      <property role="DiZV1" value="false" />
      <node concept="3Tm1VV" id="2Y$mRnICmnj" role="1B3o_S" />
      <node concept="3cqZAl" id="2Y$mRnICmnk" role="3clF45" />
      <node concept="37vLTG" id="2Y$mRnICmnl" role="3clF46">
        <property role="TrG5h" value="port" />
        <property role="3TUv4t" value="false" />
        <node concept="10Oyi0" id="2Y$mRnICmnm" role="1tU5fm" />
      </node>
      <node concept="3clFbS" id="2Y$mRnICmnn" role="3clF47">
        <node concept="3clFbF" id="2Y$mRnICmno" role="3cqZAp">
          <node concept="37vLTI" id="2Y$mRnICmnp" role="3clFbG">
            <node concept="37vLTw" id="2BHiRxeusna" role="37vLTJ">
              <ref role="3cqZAo" node="2Y$mRnICmk8" resolve="myPort" />
            </node>
            <node concept="37vLTw" id="2BHiRxgm64T" role="37vLTx">
              <ref role="3cqZAo" node="2Y$mRnICmnl" resolve="port" />
            </node>
          </node>
        </node>
      </node>
    </node>
    <node concept="3clFb_" id="2Y$mRnICmns" role="jymVt">
      <property role="1EzhhJ" value="false" />
      <property role="TrG5h" value="getSharedMemoryAddress" />
      <property role="DiZV1" value="false" />
      <node concept="17QB3L" id="65unOfq59Jm" role="3clF45" />
      <node concept="3Tm1VV" id="2Y$mRnICmnt" role="1B3o_S" />
      <node concept="3clFbS" id="2Y$mRnICmnv" role="3clF47">
        <node concept="3cpWs6" id="2Y$mRnICmnw" role="3cqZAp">
          <node concept="37vLTw" id="2BHiRxeuHj4" role="3cqZAk">
            <ref role="3cqZAo" node="2Y$mRnICmkb" resolve="mySharedMemoryAddress" />
          </node>
        </node>
      </node>
    </node>
    <node concept="3clFb_" id="2Y$mRnICmny" role="jymVt">
      <property role="1EzhhJ" value="false" />
      <property role="TrG5h" value="setSharedMemoryAddress" />
      <property role="DiZV1" value="false" />
      <node concept="3Tm1VV" id="2Y$mRnICmnz" role="1B3o_S" />
      <node concept="3cqZAl" id="2Y$mRnICmn$" role="3clF45" />
      <node concept="37vLTG" id="2Y$mRnICmn_" role="3clF46">
        <property role="TrG5h" value="sharedMemoryAddress" />
        <property role="3TUv4t" value="false" />
        <node concept="17QB3L" id="65unOfq59Jn" role="1tU5fm" />
      </node>
      <node concept="3clFbS" id="2Y$mRnICmnB" role="3clF47">
        <node concept="3clFbF" id="2Y$mRnICmnC" role="3cqZAp">
          <node concept="37vLTI" id="2Y$mRnICmnD" role="3clFbG">
            <node concept="37vLTw" id="2BHiRxeul$i" role="37vLTJ">
              <ref role="3cqZAo" node="2Y$mRnICmkb" resolve="mySharedMemoryAddress" />
            </node>
            <node concept="37vLTw" id="2BHiRxgm6XA" role="37vLTx">
              <ref role="3cqZAo" node="2Y$mRnICmn_" resolve="sharedMemoryAddress" />
            </node>
          </node>
        </node>
      </node>
    </node>
    <node concept="3clFb_" id="2Y$mRnICmnG" role="jymVt">
      <property role="1EzhhJ" value="false" />
      <property role="TrG5h" value="getApplicationCommandLine" />
      <property role="DiZV1" value="false" />
      <node concept="17QB3L" id="65unOfq59Jo" role="3clF45" />
      <node concept="3Tm1VV" id="2Y$mRnICmnH" role="1B3o_S" />
      <node concept="3clFbS" id="2Y$mRnICmnJ" role="3clF47">
        <node concept="3cpWs6" id="2Y$mRnICmnK" role="3cqZAp">
          <node concept="1rXfSq" id="4hiugqyySq4" role="3cqZAk">
            <ref role="37wK5l" node="2Y$mRnICmnN" resolve="getCommandLine" />
            <node concept="3clFbT" id="2Y$mRnICmnM" role="37wK5m">
              <property role="3clFbU" value="true" />
            </node>
          </node>
        </node>
      </node>
    </node>
    <node concept="3clFb_" id="2Y$mRnICmnN" role="jymVt">
      <property role="1EzhhJ" value="false" />
      <property role="TrG5h" value="getCommandLine" />
      <property role="DiZV1" value="false" />
      <node concept="17QB3L" id="65unOfq59Jp" role="3clF45" />
      <node concept="3Tm1VV" id="2Y$mRnICmnO" role="1B3o_S" />
      <node concept="37vLTG" id="2Y$mRnICmnQ" role="3clF46">
        <property role="TrG5h" value="application" />
        <property role="3TUv4t" value="false" />
        <node concept="10P_77" id="2Y$mRnICmnR" role="1tU5fm" />
      </node>
      <node concept="3clFbS" id="2Y$mRnICmnS" role="3clF47">
        <node concept="3cpWs8" id="2Y$mRnICmnT" role="3cqZAp">
          <node concept="3cpWsn" id="2Y$mRnICmnU" role="3cpWs9">
            <property role="TrG5h" value="serverMode" />
            <property role="3TUv4t" value="false" />
            <node concept="10P_77" id="2Y$mRnICmnV" role="1tU5fm" />
            <node concept="1rXfSq" id="4hiugqyzeKA" role="33vP2m">
              <ref role="37wK5l" node="2Y$mRnICmm$" resolve="isServerMode" />
            </node>
          </node>
        </node>
        <node concept="3clFbJ" id="2Y$mRnICmnX" role="3cqZAp">
          <node concept="37vLTw" id="2BHiRxgmFk$" role="3clFbw">
            <ref role="3cqZAo" node="2Y$mRnICmnQ" resolve="application" />
          </node>
          <node concept="3clFbS" id="2Y$mRnICmnZ" role="3clFbx">
            <node concept="3clFbF" id="2Y$mRnICmo0" role="3cqZAp">
              <node concept="37vLTI" id="2Y$mRnICmo1" role="3clFbG">
                <node concept="37vLTw" id="3GM_nagTtyl" role="37vLTJ">
                  <ref role="3cqZAo" node="2Y$mRnICmnU" resolve="serverMode" />
                </node>
                <node concept="3fqX7Q" id="2Y$mRnICmo3" role="37vLTx">
                  <node concept="37vLTw" id="3GM_nagTviO" role="3fr31v">
                    <ref role="3cqZAo" node="2Y$mRnICmnU" resolve="serverMode" />
                  </node>
                </node>
              </node>
            </node>
          </node>
        </node>
        <node concept="3cpWs6" id="2Y$mRnICmo5" role="3cqZAp">
          <node concept="2YIFZM" id="2Y$mRnICmo6" role="3cqZAk">
            <ref role="1Pybhc" node="2Y$mRnIClFn" resolve="DebugConnectionSettings" />
            <ref role="37wK5l" node="2Y$mRnICmlL" resolve="getCommandLine" />
            <node concept="37vLTw" id="3GM_nagT_3I" role="37wK5m">
              <ref role="3cqZAo" node="2Y$mRnICmnU" resolve="serverMode" />
            </node>
            <node concept="37vLTw" id="2BHiRxeusJu" role="37wK5m">
              <ref role="3cqZAo" node="2Y$mRnICmk1" resolve="myUseSockets" />
            </node>
            <node concept="1rXfSq" id="4hiugqyzk2d" role="37wK5m">
              <ref role="37wK5l" node="2Y$mRnICmmC" resolve="isSuspend" />
            </node>
            <node concept="37vLTw" id="2BHiRxeujT1" role="37wK5m">
              <ref role="3cqZAo" node="2Y$mRnICmk5" resolve="myHostName" />
            </node>
            <node concept="37vLTw" id="2BHiRxeuMyg" role="37wK5m">
              <ref role="3cqZAo" node="2Y$mRnICmk8" resolve="myPort" />
            </node>
            <node concept="37vLTw" id="2BHiRxeuoZ5" role="37wK5m">
              <ref role="3cqZAo" node="2Y$mRnICmkb" resolve="mySharedMemoryAddress" />
            </node>
          </node>
        </node>
      </node>
      <node concept="2AHcQZ" id="2Y$mRnICmod" role="2AJF6D">
        <ref role="2AI5Lk" to="mhfm:~NotNull" resolve="NotNull" />
      </node>
      <node concept="2AHcQZ" id="3tYsUK_Slkt" role="2AJF6D">
        <ref role="2AI5Lk" to="wyt6:~Override" resolve="Override" />
      </node>
    </node>
    <node concept="3clFb_" id="2Y$mRnICmoe" role="jymVt">
      <property role="1EzhhJ" value="false" />
      <property role="TrG5h" value="isEmpty" />
      <property role="DiZV1" value="false" />
      <node concept="3Tm1VV" id="2Y$mRnICmof" role="1B3o_S" />
      <node concept="10P_77" id="2Y$mRnICmog" role="3clF45" />
      <node concept="3clFbS" id="2Y$mRnICmoh" role="3clF47">
        <node concept="3cpWs6" id="2Y$mRnICmoi" role="3cqZAp">
          <node concept="3clFbT" id="2Y$mRnICmoj" role="3cqZAk">
            <property role="3clFbU" value="false" />
          </node>
        </node>
      </node>
      <node concept="2AHcQZ" id="2Y$mRnICmok" role="2AJF6D">
        <ref role="2AI5Lk" to="wyt6:~Override" resolve="Override" />
      </node>
    </node>
    <node concept="3clFb_" id="2Y$mRnICmol" role="jymVt">
      <property role="1EzhhJ" value="false" />
      <property role="TrG5h" value="getAddress" />
      <property role="DiZV1" value="false" />
      <node concept="17QB3L" id="65unOfq59Jv" role="3clF45" />
      <node concept="3Tm1VV" id="2Y$mRnICmom" role="1B3o_S" />
      <node concept="3clFbS" id="2Y$mRnICmoo" role="3clF47">
        <node concept="3cpWs6" id="2Y$mRnICmop" role="3cqZAp">
          <node concept="2YIFZM" id="2Y$mRnICmoq" role="3cqZAk">
            <ref role="1Pybhc" node="2Y$mRnIClFn" resolve="DebugConnectionSettings" />
            <ref role="37wK5l" node="2Y$mRnICmmb" resolve="getAddress" />
            <node concept="37vLTw" id="2BHiRxeuL8D" role="37wK5m">
              <ref role="3cqZAo" node="2Y$mRnICmk1" resolve="myUseSockets" />
            </node>
            <node concept="37vLTw" id="2BHiRxeunks" role="37wK5m">
              <ref role="3cqZAo" node="2Y$mRnICmk5" resolve="myHostName" />
            </node>
            <node concept="37vLTw" id="2BHiRxeuNlY" role="37wK5m">
              <ref role="3cqZAo" node="2Y$mRnICmk8" resolve="myPort" />
            </node>
            <node concept="37vLTw" id="2BHiRxeuxSy" role="37wK5m">
              <ref role="3cqZAo" node="2Y$mRnICmkb" resolve="mySharedMemoryAddress" />
            </node>
          </node>
        </node>
      </node>
    </node>
    <node concept="3clFb_" id="2Y$mRnICmov" role="jymVt">
      <property role="1EzhhJ" value="false" />
      <property role="TrG5h" value="getPresentation" />
      <property role="DiZV1" value="false" />
      <node concept="17QB3L" id="65unOfq59Je" role="3clF45" />
      <node concept="3Tm1VV" id="2Y$mRnICmow" role="1B3o_S" />
      <node concept="3clFbS" id="2Y$mRnICmoy" role="3clF47">
        <node concept="3cpWs6" id="2Y$mRnICmoz" role="3cqZAp">
          <node concept="3cpWs3" id="2Y$mRnICmo$" role="3cqZAk">
            <node concept="3cpWs3" id="2Y$mRnICmo_" role="3uHU7B">
              <node concept="3cpWs3" id="2Y$mRnICmoA" role="3uHU7B">
                <node concept="Xl_RD" id="2Y$mRnICmoB" role="3uHU7B">
                  <property role="Xl_RC" value="transport: " />
                </node>
                <node concept="1eOMI4" id="2Y$mRnICmoC" role="3uHU7w">
                  <node concept="3K4zz7" id="2Y$mRnICmoD" role="1eOMHV">
                    <node concept="37vLTw" id="2BHiRxeuNHM" role="3K4Cdx">
                      <ref role="3cqZAo" node="2Y$mRnICmk1" resolve="myUseSockets" />
                    </node>
                    <node concept="Xl_RD" id="2Y$mRnICmoF" role="3K4E3e">
                      <property role="Xl_RC" value="'socket'" />
                    </node>
                    <node concept="Xl_RD" id="2Y$mRnICmoG" role="3K4GZi">
                      <property role="Xl_RC" value="'shared memory'" />
                    </node>
                  </node>
                </node>
              </node>
              <node concept="Xl_RD" id="2Y$mRnICmoH" role="3uHU7w">
                <property role="Xl_RC" value=", address: " />
              </node>
            </node>
            <node concept="1rXfSq" id="4hiugqyzhMJ" role="3uHU7w">
              <ref role="37wK5l" node="2Y$mRnICmol" resolve="getAddress" />
            </node>
          </node>
        </node>
      </node>
    </node>
    <node concept="2YIFZL" id="2Y$mRnICml7" role="jymVt">
      <property role="TrG5h" value="getCommandLine" />
      <property role="DiZV1" value="false" />
      <node concept="17QB3L" id="65unOfq59Jc" role="3clF45" />
      <node concept="3Tmbuc" id="2Y$mRnICml8" role="1B3o_S" />
      <node concept="37vLTG" id="2Y$mRnICmla" role="3clF46">
        <property role="TrG5h" value="serverMode" />
        <property role="3TUv4t" value="false" />
        <node concept="10P_77" id="2Y$mRnICmlb" role="1tU5fm" />
      </node>
      <node concept="37vLTG" id="2Y$mRnICmlc" role="3clF46">
        <property role="TrG5h" value="useSockets" />
        <property role="3TUv4t" value="false" />
        <node concept="10P_77" id="2Y$mRnICmld" role="1tU5fm" />
      </node>
      <node concept="37vLTG" id="2Y$mRnICmle" role="3clF46">
        <property role="TrG5h" value="suspend" />
        <property role="3TUv4t" value="false" />
        <node concept="10P_77" id="2Y$mRnICmlf" role="1tU5fm" />
      </node>
      <node concept="37vLTG" id="2Y$mRnICmlg" role="3clF46">
        <property role="TrG5h" value="address" />
        <property role="3TUv4t" value="false" />
        <node concept="17QB3L" id="65unOfq59Jk" role="1tU5fm" />
      </node>
      <node concept="3clFbS" id="2Y$mRnICmli" role="3clF47">
        <node concept="3cpWs6" id="2Y$mRnICmlj" role="3cqZAp">
          <node concept="3cpWs3" id="2Y$mRnICmlk" role="3cqZAk">
            <node concept="3cpWs3" id="2Y$mRnICmll" role="3uHU7B">
              <node concept="3cpWs3" id="2Y$mRnICmlm" role="3uHU7B">
                <node concept="3cpWs3" id="2Y$mRnICmln" role="3uHU7B">
                  <node concept="3cpWs3" id="2Y$mRnICmlo" role="3uHU7B">
                    <node concept="3cpWs3" id="2Y$mRnICmlp" role="3uHU7B">
                      <node concept="3cpWs3" id="2Y$mRnICmlq" role="3uHU7B">
                        <node concept="Xl_RD" id="2Y$mRnICmlr" role="3uHU7B">
                          <property role="Xl_RC" value="-Xrunjdwp:transport=" />
                        </node>
                        <node concept="1eOMI4" id="2Y$mRnICmls" role="3uHU7w">
                          <node concept="3K4zz7" id="2Y$mRnICmlt" role="1eOMHV">
                            <node concept="37vLTw" id="2BHiRxgm6nf" role="3K4Cdx">
                              <ref role="3cqZAo" node="2Y$mRnICmlc" resolve="useSockets" />
                            </node>
                            <node concept="Xl_RD" id="2Y$mRnICmlv" role="3K4E3e">
                              <property role="Xl_RC" value="dt_socket" />
                            </node>
                            <node concept="Xl_RD" id="2Y$mRnICmlw" role="3K4GZi">
                              <property role="Xl_RC" value="dt_shmem" />
                            </node>
                          </node>
                        </node>
                      </node>
                      <node concept="Xl_RD" id="2Y$mRnICmlx" role="3uHU7w">
                        <property role="Xl_RC" value=",server=" />
                      </node>
                    </node>
                    <node concept="1eOMI4" id="2Y$mRnICmly" role="3uHU7w">
                      <node concept="1eOMI4" id="2Y$mRnICmlz" role="1eOMHV">
                        <node concept="3K4zz7" id="2Y$mRnICml$" role="1eOMHV">
                          <node concept="37vLTw" id="2BHiRxglVuk" role="3K4Cdx">
                            <ref role="3cqZAo" node="2Y$mRnICmla" resolve="serverMode" />
                          </node>
                          <node concept="1Xhbcc" id="2Y$mRnICmlA" role="3K4E3e">
                            <property role="1XhdNS" value="y" />
                          </node>
                          <node concept="1Xhbcc" id="2Y$mRnICmlB" role="3K4GZi">
                            <property role="1XhdNS" value="n" />
                          </node>
                        </node>
                      </node>
                    </node>
                  </node>
                  <node concept="Xl_RD" id="2Y$mRnICmlC" role="3uHU7w">
                    <property role="Xl_RC" value=",suspend=" />
                  </node>
                </node>
                <node concept="1eOMI4" id="2Y$mRnICmlD" role="3uHU7w">
                  <node concept="1eOMI4" id="2Y$mRnICmlE" role="1eOMHV">
                    <node concept="3K4zz7" id="2Y$mRnICmlF" role="1eOMHV">
                      <node concept="37vLTw" id="2BHiRxghiC6" role="3K4Cdx">
                        <ref role="3cqZAo" node="2Y$mRnICmle" resolve="suspend" />
                      </node>
                      <node concept="1Xhbcc" id="2Y$mRnICmlH" role="3K4E3e">
                        <property role="1XhdNS" value="y" />
                      </node>
                      <node concept="1Xhbcc" id="2Y$mRnICmlI" role="3K4GZi">
                        <property role="1XhdNS" value="n" />
                      </node>
                    </node>
                  </node>
                </node>
              </node>
              <node concept="Xl_RD" id="2Y$mRnICmlJ" role="3uHU7w">
                <property role="Xl_RC" value=",address=" />
              </node>
            </node>
            <node concept="37vLTw" id="2BHiRxglw8C" role="3uHU7w">
              <ref role="3cqZAo" node="2Y$mRnICmlg" resolve="address" />
            </node>
          </node>
        </node>
      </node>
    </node>
    <node concept="2YIFZL" id="2Y$mRnICmlL" role="jymVt">
      <property role="TrG5h" value="getCommandLine" />
      <property role="DiZV1" value="false" />
      <node concept="17QB3L" id="65unOfq59Jf" role="3clF45" />
      <node concept="3Tmbuc" id="2Y$mRnICmlM" role="1B3o_S" />
      <node concept="37vLTG" id="2Y$mRnICmlO" role="3clF46">
        <property role="TrG5h" value="serverMode" />
        <property role="3TUv4t" value="false" />
        <node concept="10P_77" id="2Y$mRnICmlP" role="1tU5fm" />
      </node>
      <node concept="37vLTG" id="2Y$mRnICmlQ" role="3clF46">
        <property role="TrG5h" value="useSockets" />
        <property role="3TUv4t" value="false" />
        <node concept="10P_77" id="2Y$mRnICmlR" role="1tU5fm" />
      </node>
      <node concept="37vLTG" id="2Y$mRnICmlS" role="3clF46">
        <property role="TrG5h" value="suspend" />
        <property role="3TUv4t" value="false" />
        <node concept="10P_77" id="2Y$mRnICmlT" role="1tU5fm" />
      </node>
      <node concept="37vLTG" id="2Y$mRnICmlU" role="3clF46">
        <property role="TrG5h" value="host" />
        <property role="3TUv4t" value="false" />
        <node concept="17QB3L" id="65unOfq59Js" role="1tU5fm" />
      </node>
      <node concept="37vLTG" id="2Y$mRnICmlW" role="3clF46">
        <property role="TrG5h" value="port" />
        <property role="3TUv4t" value="false" />
        <node concept="10Oyi0" id="2Y$mRnICmlX" role="1tU5fm" />
      </node>
      <node concept="37vLTG" id="2Y$mRnICmlY" role="3clF46">
        <property role="TrG5h" value="sharedMemoryAddress" />
        <property role="3TUv4t" value="false" />
        <node concept="17QB3L" id="65unOfq59Ju" role="1tU5fm" />
      </node>
      <node concept="3clFbS" id="2Y$mRnICmm0" role="3clF47">
        <node concept="3cpWs6" id="2Y$mRnICmm1" role="3cqZAp">
          <node concept="2YIFZM" id="2Y$mRnICmm2" role="3cqZAk">
            <ref role="1Pybhc" node="2Y$mRnIClFn" resolve="DebugConnectionSettings" />
            <ref role="37wK5l" node="2Y$mRnICml7" resolve="getCommandLine" />
            <node concept="37vLTw" id="2BHiRxgm8f9" role="37wK5m">
              <ref role="3cqZAo" node="2Y$mRnICmlO" resolve="serverMode" />
            </node>
            <node concept="37vLTw" id="2BHiRxglK7A" role="37wK5m">
              <ref role="3cqZAo" node="2Y$mRnICmlQ" resolve="useSockets" />
            </node>
            <node concept="37vLTw" id="2BHiRxglTNg" role="37wK5m">
              <ref role="3cqZAo" node="2Y$mRnICmlS" resolve="suspend" />
            </node>
            <node concept="2YIFZM" id="2Y$mRnICmm6" role="37wK5m">
              <ref role="1Pybhc" node="2Y$mRnIClFn" resolve="DebugConnectionSettings" />
              <ref role="37wK5l" node="2Y$mRnICmmb" resolve="getAddress" />
              <node concept="37vLTw" id="2BHiRxgmvIH" role="37wK5m">
                <ref role="3cqZAo" node="2Y$mRnICmlQ" resolve="useSockets" />
              </node>
              <node concept="37vLTw" id="2BHiRxgm8c3" role="37wK5m">
                <ref role="3cqZAo" node="2Y$mRnICmlU" resolve="host" />
              </node>
              <node concept="37vLTw" id="2BHiRxghiF1" role="37wK5m">
                <ref role="3cqZAo" node="2Y$mRnICmlW" resolve="port" />
              </node>
              <node concept="37vLTw" id="2BHiRxgkYZL" role="37wK5m">
                <ref role="3cqZAo" node="2Y$mRnICmlY" resolve="sharedMemoryAddress" />
              </node>
            </node>
          </node>
        </node>
      </node>
    </node>
    <node concept="2YIFZL" id="2Y$mRnICmmb" role="jymVt">
      <property role="TrG5h" value="getAddress" />
      <property role="DiZV1" value="false" />
      <node concept="17QB3L" id="65unOfq59Jg" role="3clF45" />
      <node concept="3Tm6S6" id="2Y$mRnICmmc" role="1B3o_S" />
      <node concept="37vLTG" id="2Y$mRnICmme" role="3clF46">
        <property role="TrG5h" value="useSockets" />
        <property role="3TUv4t" value="false" />
        <node concept="10P_77" id="2Y$mRnICmmf" role="1tU5fm" />
      </node>
      <node concept="37vLTG" id="2Y$mRnICmmg" role="3clF46">
        <property role="TrG5h" value="host" />
        <property role="3TUv4t" value="false" />
        <node concept="17QB3L" id="65unOfq59Jt" role="1tU5fm" />
      </node>
      <node concept="37vLTG" id="2Y$mRnICmmi" role="3clF46">
        <property role="TrG5h" value="port" />
        <property role="3TUv4t" value="false" />
        <node concept="10Oyi0" id="2Y$mRnICmmj" role="1tU5fm" />
      </node>
      <node concept="37vLTG" id="2Y$mRnICmmk" role="3clF46">
        <property role="TrG5h" value="address" />
        <property role="3TUv4t" value="false" />
        <node concept="17QB3L" id="65unOfq59Ji" role="1tU5fm" />
      </node>
      <node concept="3clFbS" id="2Y$mRnICmmm" role="3clF47">
        <node concept="3clFbJ" id="2Y$mRnICmmn" role="3cqZAp">
          <node concept="37vLTw" id="2BHiRxgkYp$" role="3clFbw">
            <ref role="3cqZAo" node="2Y$mRnICmme" resolve="useSockets" />
          </node>
          <node concept="9aQIb" id="2Y$mRnICmmp" role="9aQIa">
            <node concept="3clFbS" id="2Y$mRnICmmq" role="9aQI4">
              <node concept="3cpWs6" id="2Y$mRnICmmr" role="3cqZAp">
                <node concept="37vLTw" id="2BHiRxgm6_D" role="3cqZAk">
                  <ref role="3cqZAo" node="2Y$mRnICmmk" resolve="address" />
                </node>
              </node>
            </node>
          </node>
          <node concept="3clFbS" id="2Y$mRnICmmt" role="3clFbx">
            <node concept="3cpWs6" id="2Y$mRnICmmu" role="3cqZAp">
              <node concept="3cpWs3" id="2Y$mRnICmmv" role="3cqZAk">
                <node concept="3cpWs3" id="2Y$mRnICmmw" role="3uHU7B">
                  <node concept="37vLTw" id="2BHiRxgmhF7" role="3uHU7B">
                    <ref role="3cqZAo" node="2Y$mRnICmmg" resolve="host" />
                  </node>
                  <node concept="Xl_RD" id="2Y$mRnICmmy" role="3uHU7w">
                    <property role="Xl_RC" value=":" />
                  </node>
                </node>
                <node concept="37vLTw" id="2BHiRxglErM" role="3uHU7w">
                  <ref role="3cqZAo" node="2Y$mRnICmmi" resolve="port" />
                </node>
              </node>
            </node>
          </node>
        </node>
      </node>
    </node>
  </node>
  <node concept="312cEu" id="2Y$mRnICm$r">
    <property role="TrG5h" value="LocalConnectionSettings" />
    <property role="1sVAO0" value="false" />
    <property role="1EXbeo" value="false" />
    <node concept="3Tm1VV" id="2Y$mRnICm$s" role="1B3o_S" />
    <node concept="3uibUv" id="2Y$mRnICm$t" role="1zkMxy">
      <ref role="3uigEE" node="2Y$mRnIClFn" resolve="DebugConnectionSettings" />
    </node>
    <node concept="3clFbW" id="2Y$mRnICm$u" role="jymVt">
      <node concept="3Tm1VV" id="2Y$mRnICm$v" role="1B3o_S" />
      <node concept="3cqZAl" id="2Y$mRnICm$w" role="3clF45" />
      <node concept="37vLTG" id="2Y$mRnICm$x" role="3clF46">
        <property role="TrG5h" value="useSockets" />
        <property role="3TUv4t" value="false" />
        <node concept="10P_77" id="2Y$mRnICm$y" role="1tU5fm" />
      </node>
      <node concept="3clFbS" id="2Y$mRnICm$z" role="3clF47">
        <node concept="XkiVB" id="2Y$mRnICm$$" role="3cqZAp">
          <ref role="37wK5l" node="2Y$mRnICmkF" resolve="DebugConnectionSettings" />
          <node concept="37vLTw" id="2BHiRxgmz2r" role="37wK5m">
            <ref role="3cqZAo" node="2Y$mRnICm$x" resolve="useSockets" />
          </node>
          <node concept="Xl_RD" id="2Y$mRnICm$A" role="37wK5m">
            <property role="Xl_RC" value="localhost" />
          </node>
          <node concept="3cmrfG" id="2Y$mRnICm$B" role="37wK5m">
            <property role="3cmrfH" value="5005" />
          </node>
          <node concept="Xl_RD" id="2Y$mRnICm$C" role="37wK5m">
            <property role="Xl_RC" value="" />
          </node>
        </node>
        <node concept="3clFbJ" id="2Y$mRnICm$D" role="3cqZAp">
          <node concept="37vLTw" id="2BHiRxgls7u" role="3clFbw">
            <ref role="3cqZAo" node="2Y$mRnICm$x" resolve="useSockets" />
          </node>
          <node concept="3clFbS" id="2Y$mRnICm$F" role="3clFbx">
            <node concept="3cpWs8" id="2Y$mRnICm$G" role="3cqZAp">
              <node concept="3cpWsn" id="2Y$mRnICm$H" role="3cpWs9">
                <property role="TrG5h" value="freePort" />
                <property role="3TUv4t" value="false" />
                <node concept="10Oyi0" id="2Y$mRnICm$I" role="1tU5fm" />
                <node concept="1rXfSq" id="4hiugqyzfbF" role="33vP2m">
                  <ref role="37wK5l" node="2Y$mRnICmnc" resolve="getPort" />
                </node>
              </node>
            </node>
            <node concept="SfApY" id="2Y$mRnICm$K" role="3cqZAp">
              <node concept="TDmWw" id="2Y$mRnICm$L" role="TEbGg">
                <node concept="3clFbS" id="2Y$mRnICm$M" role="TDEfX" />
                <node concept="3cpWsn" id="2Y$mRnICm$N" role="TDEfY">
                  <property role="TrG5h" value="ignored" />
                  <property role="3TUv4t" value="false" />
                  <node concept="3uibUv" id="2Y$mRnICm$O" role="1tU5fm">
                    <ref role="3uigEE" to="guwi:~IOException" resolve="IOException" />
                  </node>
                </node>
              </node>
              <node concept="3clFbS" id="2Y$mRnICm$P" role="SfCbr">
                <node concept="3clFbF" id="2Y$mRnICm$Q" role="3cqZAp">
                  <node concept="37vLTI" id="2Y$mRnICm$R" role="3clFbG">
                    <node concept="37vLTw" id="3GM_nagT$i7" role="37vLTJ">
                      <ref role="3cqZAo" node="2Y$mRnICm$H" resolve="freePort" />
                    </node>
                    <node concept="2YIFZM" id="2Y$mRnIDehn" role="37vLTx">
                      <ref role="37wK5l" to="horf:~NetUtils.findAvailableSocketPort():int" resolve="findAvailableSocketPort" />
                      <ref role="1Pybhc" to="horf:~NetUtils" resolve="NetUtils" />
                    </node>
                  </node>
                </node>
              </node>
            </node>
            <node concept="3clFbF" id="2Y$mRnICm$U" role="3cqZAp">
              <node concept="1rXfSq" id="4hiugqyzbE3" role="3clFbG">
                <ref role="37wK5l" node="2Y$mRnICmni" resolve="setPort" />
                <node concept="37vLTw" id="3GM_nagTAJz" role="37wK5m">
                  <ref role="3cqZAo" node="2Y$mRnICm$H" resolve="freePort" />
                </node>
              </node>
            </node>
          </node>
        </node>
      </node>
    </node>
    <node concept="3clFb_" id="2Y$mRnICm$X" role="jymVt">
      <property role="1EzhhJ" value="false" />
      <property role="TrG5h" value="isServerMode" />
      <property role="DiZV1" value="false" />
      <node concept="3Tm1VV" id="2Y$mRnICm$Y" role="1B3o_S" />
      <node concept="10P_77" id="2Y$mRnICm$Z" role="3clF45" />
      <node concept="3clFbS" id="2Y$mRnICm_0" role="3clF47">
        <node concept="3cpWs6" id="2Y$mRnICm_1" role="3cqZAp">
          <node concept="3clFbT" id="2Y$mRnICm_2" role="3cqZAk">
            <property role="3clFbU" value="true" />
          </node>
        </node>
      </node>
      <node concept="2AHcQZ" id="2Y$mRnICm_3" role="2AJF6D">
        <ref role="2AI5Lk" to="wyt6:~Override" resolve="Override" />
      </node>
    </node>
    <node concept="3clFb_" id="2Y$mRnICm_4" role="jymVt">
      <property role="1EzhhJ" value="false" />
      <property role="TrG5h" value="isSuspend" />
      <property role="DiZV1" value="false" />
      <node concept="3Tm1VV" id="2Y$mRnICm_5" role="1B3o_S" />
      <node concept="10P_77" id="2Y$mRnICm_6" role="3clF45" />
      <node concept="3clFbS" id="2Y$mRnICm_7" role="3clF47">
        <node concept="3cpWs6" id="2Y$mRnICm_8" role="3cqZAp">
          <node concept="3clFbT" id="2Y$mRnICm_9" role="3cqZAk">
            <property role="3clFbU" value="true" />
          </node>
        </node>
      </node>
      <node concept="2AHcQZ" id="2Y$mRnICm_a" role="2AJF6D">
        <ref role="2AI5Lk" to="wyt6:~Override" resolve="Override" />
      </node>
    </node>
  </node>
</model>

