<?xml version="1.0" encoding="UTF-8"?>
<model ref="r:433e872d-d054-4f94-afc4-fe26482ec556(jetbrains.mps.samples.generator_demo.demoLang2.structure)">
  <persistence version="9" />
  <languages>
    <use id="982eb8df-2c96-4bd7-9963-11712ea622e5" name="jetbrains.mps.lang.resources" version="2" />
  </languages>
  <imports />
  <registry />
</model>

