<?xml version="1.0" encoding="UTF-8"?>
<model ref="r:58b9acd8-db32-428c-ac80-a2787e2bcd96(jetbrains.mps.lang.core.pluginSolution.plugin)">
  <persistence version="9" />
  <languages>
    <use id="ef7bf5ac-d06c-4342-b11d-e42104eb9343" name="jetbrains.mps.lang.plugin.standalone" version="0" />
    <use id="c0080a47-7e37-4558-bee9-9ae18e690549" name="jetbrains.mps.lang.extension" version="2" />
    <use id="f3061a53-9226-4cc5-a443-f952ceaf5816" name="jetbrains.mps.baseLanguage" version="4" />
  </languages>
  <imports>
    <import index="tpcq" ref="r:00000000-0000-4000-0000-011c89590286(jetbrains.mps.lang.core.plugin)" />
    <import index="o6ex" ref="86441d7a-e194-42da-81a5-2161ec62a379/java:jetbrains.mps.ide.generator(MPS.Workbench/)" />
    <import index="bd8o" ref="498d89d2-c2e9-11e2-ad49-6cf049e62fe5/java:com.intellij.openapi.application(MPS.IDEA/)" />
    <import index="90d" ref="r:421d64ed-8024-497f-aeab-8bddeb389dd2(jetbrains.mps.lang.extension.methods)" implicit="true" />
    <import index="1m72" ref="498d89d2-c2e9-11e2-ad49-6cf049e62fe5/java:com.intellij.openapi.components(MPS.IDEA/)" implicit="true" />
  </imports>
  <registry>
    <language id="ef7bf5ac-d06c-4342-b11d-e42104eb9343" name="jetbrains.mps.lang.plugin.standalone">
      <concept id="7520713872864775836" name="jetbrains.mps.lang.plugin.standalone.structure.StandalonePluginDescriptor" flags="ng" index="2DaZZR" />
    </language>
    <language id="f3061a53-9226-4cc5-a443-f952ceaf5816" name="jetbrains.mps.baseLanguage">
      <concept id="1202948039474" name="jetbrains.mps.baseLanguage.structure.InstanceMethodCallOperation" flags="nn" index="liA8E" />
      <concept id="1465982738277781862" name="jetbrains.mps.baseLanguage.structure.PlaceholderMember" flags="ng" index="2tJIrI" />
      <concept id="1197027756228" name="jetbrains.mps.baseLanguage.structure.DotExpression" flags="nn" index="2OqwBi">
        <child id="1197027771414" name="operand" index="2Oq$k0" />
        <child id="1197027833540" name="operation" index="2OqNvi" />
      </concept>
      <concept id="1081236700937" name="jetbrains.mps.baseLanguage.structure.StaticMethodCall" flags="nn" index="2YIFZM">
        <reference id="1144433194310" name="classConcept" index="1Pybhc" />
      </concept>
      <concept id="1070534058343" name="jetbrains.mps.baseLanguage.structure.NullLiteral" flags="nn" index="10Nm6u" />
      <concept id="1068580123132" name="jetbrains.mps.baseLanguage.structure.BaseMethodDeclaration" flags="ng" index="3clF44">
        <child id="1068580123133" name="returnType" index="3clF45" />
        <child id="1068580123135" name="body" index="3clF47" />
      </concept>
      <concept id="1068580123152" name="jetbrains.mps.baseLanguage.structure.EqualsExpression" flags="nn" index="3clFbC" />
      <concept id="1068580123155" name="jetbrains.mps.baseLanguage.structure.ExpressionStatement" flags="nn" index="3clFbF">
        <child id="1068580123156" name="expression" index="3clFbG" />
      </concept>
      <concept id="1068580123159" name="jetbrains.mps.baseLanguage.structure.IfStatement" flags="nn" index="3clFbJ">
        <child id="1068580123160" name="condition" index="3clFbw" />
        <child id="1068580123161" name="ifTrue" index="3clFbx" />
      </concept>
      <concept id="1068580123136" name="jetbrains.mps.baseLanguage.structure.StatementList" flags="sn" stub="5293379017992965193" index="3clFbS">
        <child id="1068581517665" name="statement" index="3cqZAp" />
      </concept>
      <concept id="1068581242878" name="jetbrains.mps.baseLanguage.structure.ReturnStatement" flags="nn" index="3cpWs6">
        <child id="1068581517676" name="expression" index="3cqZAk" />
      </concept>
      <concept id="1204053956946" name="jetbrains.mps.baseLanguage.structure.IMethodCall" flags="ng" index="1ndlxa">
        <reference id="1068499141037" name="baseMethodDeclaration" index="37wK5l" />
      </concept>
      <concept id="1107461130800" name="jetbrains.mps.baseLanguage.structure.Classifier" flags="ng" index="3pOWGL">
        <property id="521412098689998745" name="nonStatic" index="2bfB8j" />
        <child id="5375687026011219971" name="member" index="jymVt" unordered="true" />
      </concept>
      <concept id="1081773326031" name="jetbrains.mps.baseLanguage.structure.BinaryOperation" flags="nn" index="3uHJSO">
        <child id="1081773367579" name="rightExpression" index="3uHU7w" />
        <child id="1081773367580" name="leftExpression" index="3uHU7B" />
      </concept>
      <concept id="1178549954367" name="jetbrains.mps.baseLanguage.structure.IVisible" flags="ng" index="1B3ioH">
        <child id="1178549979242" name="visibility" index="1B3o_S" />
      </concept>
      <concept id="6329021646629104957" name="jetbrains.mps.baseLanguage.structure.TextCommentPart" flags="nn" index="3SKdUq">
        <property id="6329021646629104958" name="text" index="3SKdUp" />
      </concept>
      <concept id="6329021646629104954" name="jetbrains.mps.baseLanguage.structure.SingleLineComment" flags="nn" index="3SKdUt">
        <child id="6329021646629175155" name="commentPart" index="3SKWNk" />
      </concept>
      <concept id="1146644602865" name="jetbrains.mps.baseLanguage.structure.PublicVisibility" flags="nn" index="3Tm1VV" />
    </language>
    <language id="c0080a47-7e37-4558-bee9-9ae18e690549" name="jetbrains.mps.lang.extension">
      <concept id="126958800891274162" name="jetbrains.mps.lang.extension.structure.Extension" flags="ig" index="1lYeZD">
        <reference id="126958800891274597" name="extensionPoint" index="1lYe$Y" />
      </concept>
    </language>
    <language id="c7d5b9dd-a05f-4be2-bc73-f2e16994cc67" name="jetbrains.mps.baseLanguage.lightweightdsl">
      <concept id="3751132065236767083" name="jetbrains.mps.baseLanguage.lightweightdsl.structure.DependentTypeInstance" flags="ig" index="q3mfm">
        <reference id="3751132065236767084" name="decl" index="q3mfh" />
        <reference id="9097849371505568270" name="point" index="1QQUv3" />
      </concept>
      <concept id="3751132065236767060" name="jetbrains.mps.baseLanguage.lightweightdsl.structure.MethodInstance" flags="ig" index="q3mfD">
        <reference id="19209059688387895" name="decl" index="2VtyIY" />
      </concept>
      <concept id="6478870542308703666" name="jetbrains.mps.baseLanguage.lightweightdsl.structure.MemberPlaceholder" flags="ng" index="3tTeZs">
        <property id="6478870542308703667" name="caption" index="3tTeZt" />
        <reference id="6478870542308703669" name="decl" index="3tTeZr" />
      </concept>
    </language>
    <language id="ceab5195-25ea-4f22-9b92-103b95ca8c0c" name="jetbrains.mps.lang.core">
      <concept id="1169194658468" name="jetbrains.mps.lang.core.structure.INamedConcept" flags="ng" index="TrEIO">
        <property id="1169194664001" name="name" index="TrG5h" />
      </concept>
    </language>
  </registry>
  <node concept="2DaZZR" id="7kpmw9o30Sa" />
  <node concept="1lYeZD" id="5ZkGupNvQRQ">
    <property role="2bfB8j" value="true" />
    <property role="TrG5h" value="GeneratorCache_extension" />
    <ref role="1lYe$Y" to="tpcq:5ZkGupNvQ1d" resolve="GeneratorCache" />
    <node concept="3Tm1VV" id="3IvUXkeQPhu" role="1B3o_S" />
    <node concept="2tJIrI" id="3IvUXkeQPhv" role="jymVt" />
    <node concept="2tJIrI" id="3IvUXkeQPhw" role="jymVt" />
    <node concept="3tTeZs" id="3IvUXkeQOCI" role="jymVt">
      <property role="3tTeZt" value="activate" />
      <ref role="3tTeZr" to="90d:3zLwYDe0CPy" resolve="activate" />
    </node>
    <node concept="3tTeZs" id="3IvUXkeQOCJ" role="jymVt">
      <property role="3tTeZt" value="deactivate" />
      <ref role="3tTeZr" to="90d:3zLwYDe0BDO" resolve="deactivate" />
    </node>
    <node concept="2tJIrI" id="3IvUXkeQPhx" role="jymVt" />
    <node concept="q3mfD" id="3IvUXkeQPhy" role="jymVt">
      <property role="TrG5h" value="get" />
      <ref role="2VtyIY" to="90d:3zLwYDe0svr" resolve="get" />
      <node concept="3Tm1VV" id="3IvUXkeQPhz" role="1B3o_S" />
      <node concept="3clFbS" id="3IvUXkeQPh$" role="3clF47">
        <node concept="3clFbJ" id="10xl2gwRdn3" role="3cqZAp">
          <node concept="3clFbS" id="10xl2gwRdn4" role="3clFbx">
            <node concept="3cpWs6" id="10xl2gwRelD" role="3cqZAp">
              <node concept="10Nm6u" id="10xl2gwRelF" role="3cqZAk" />
            </node>
          </node>
          <node concept="3clFbC" id="10xl2gwRel_" role="3clFbw">
            <node concept="10Nm6u" id="10xl2gwRelC" role="3uHU7w" />
            <node concept="2YIFZM" id="10xl2gwRely" role="3uHU7B">
              <ref role="37wK5l" to="bd8o:~ApplicationManager.getApplication():com.intellij.openapi.application.Application" resolve="getApplication" />
              <ref role="1Pybhc" to="bd8o:~ApplicationManager" resolve="ApplicationManager" />
            </node>
          </node>
        </node>
        <node concept="3clFbJ" id="76aXy8jgU92" role="3cqZAp">
          <node concept="2OqwBi" id="76aXy8jgVex" role="3clFbw">
            <node concept="liA8E" id="76aXy8jgY55" role="2OqNvi">
              <ref role="37wK5l" to="1m72:~ComponentManager.isDisposed():boolean" resolve="isDisposed" />
            </node>
            <node concept="2YIFZM" id="76aXy8jgV9R" role="2Oq$k0">
              <ref role="37wK5l" to="bd8o:~ApplicationManager.getApplication():com.intellij.openapi.application.Application" resolve="getApplication" />
              <ref role="1Pybhc" to="bd8o:~ApplicationManager" resolve="ApplicationManager" />
            </node>
          </node>
          <node concept="3clFbS" id="76aXy8jgU95" role="3clFbx">
            <node concept="3SKdUt" id="76aXy8jgYd7" role="3cqZAp">
              <node concept="3SKdUq" id="76aXy8jgYdc" role="3SKWNk">
                <property role="3SKdUp" value="todo: hack for next scenario: create IdeaEnvironment, dispose IdeaEnvironment, create MpsEnvironment, generate" />
              </node>
            </node>
            <node concept="3cpWs6" id="76aXy8jgY91" role="3cqZAp">
              <node concept="10Nm6u" id="76aXy8jgY96" role="3cqZAk" />
            </node>
          </node>
        </node>
        <node concept="3clFbF" id="5ZkGupNvQZD" role="3cqZAp">
          <node concept="2OqwBi" id="5ZkGupNvQRn" role="3clFbG">
            <node concept="2YIFZM" id="5ZkGupNvQRo" role="2Oq$k0">
              <ref role="1Pybhc" to="o6ex:~GeneratorCacheComponent" resolve="GeneratorCacheComponent" />
              <ref role="37wK5l" to="o6ex:~GeneratorCacheComponent.getInstance():jetbrains.mps.ide.generator.GeneratorCacheComponent" resolve="getInstance" />
            </node>
            <node concept="liA8E" id="5ZkGupNvQRp" role="2OqNvi">
              <ref role="37wK5l" to="o6ex:~GeneratorCacheComponent.getCache():jetbrains.mps.generator.GenerationCacheContainer" resolve="getCache" />
            </node>
          </node>
        </node>
      </node>
      <node concept="q3mfm" id="3IvUXkeQPh_" role="3clF45">
        <ref role="q3mfh" to="90d:3zLwYDe0sv$" />
        <ref role="1QQUv3" node="3IvUXkeQPhy" resolve="get" />
      </node>
    </node>
  </node>
</model>

