<?xml version="1.0" encoding="UTF-8"?>
<model ref="r:00000000-0000-4000-0000-011c895902af(jetbrains.mps.lang.typesystem.dataFlow)">
  <persistence version="9" />
  <languages>
    <use id="7fa12e9c-b949-4976-b4fa-19accbc320b4" name="jetbrains.mps.lang.dataFlow" version="0" />
    <use id="7866978e-a0f0-4cc7-81bc-4d213d9375e1" name="jetbrains.mps.lang.smodel" version="4" />
    <use id="f3061a53-9226-4cc5-a443-f952ceaf5816" name="jetbrains.mps.baseLanguage" version="4" />
    <devkit ref="fbc25dd2-5da4-483a-8b19-70928e1b62d7(jetbrains.mps.devkit.general-purpose)" />
  </languages>
  <imports>
    <import index="tpd4" ref="r:00000000-0000-4000-0000-011c895902b4(jetbrains.mps.lang.typesystem.structure)" />
    <import index="tpee" ref="r:00000000-0000-4000-0000-011c895902ca(jetbrains.mps.baseLanguage.structure)" />
  </imports>
  <registry>
    <language id="f3061a53-9226-4cc5-a443-f952ceaf5816" name="jetbrains.mps.baseLanguage">
      <concept id="1154032098014" name="jetbrains.mps.baseLanguage.structure.AbstractLoopStatement" flags="nn" index="2LF5Ji">
        <child id="1154032183016" name="body" index="2LFqv$" />
      </concept>
      <concept id="1197027756228" name="jetbrains.mps.baseLanguage.structure.DotExpression" flags="nn" index="2OqwBi">
        <child id="1197027771414" name="operand" index="2Oq$k0" />
        <child id="1197027833540" name="operation" index="2OqNvi" />
      </concept>
      <concept id="1137021947720" name="jetbrains.mps.baseLanguage.structure.ConceptFunction" flags="in" index="2VMwT0">
        <child id="1137022507850" name="body" index="2VODD2" />
      </concept>
      <concept id="1070534058343" name="jetbrains.mps.baseLanguage.structure.NullLiteral" flags="nn" index="10Nm6u" />
      <concept id="1068498886296" name="jetbrains.mps.baseLanguage.structure.VariableReference" flags="nn" index="37vLTw">
        <reference id="1068581517664" name="variableDeclaration" index="3cqZAo" />
      </concept>
      <concept id="4972933694980447171" name="jetbrains.mps.baseLanguage.structure.BaseVariableDeclaration" flags="ng" index="19Szcq">
        <child id="5680397130376446158" name="type" index="1tU5fm" />
      </concept>
      <concept id="1068580123159" name="jetbrains.mps.baseLanguage.structure.IfStatement" flags="nn" index="3clFbJ">
        <child id="1068580123160" name="condition" index="3clFbw" />
        <child id="1068580123161" name="ifTrue" index="3clFbx" />
      </concept>
      <concept id="1068580123136" name="jetbrains.mps.baseLanguage.structure.StatementList" flags="sn" stub="5293379017992965193" index="3clFbS">
        <child id="1068581517665" name="statement" index="3cqZAp" />
      </concept>
      <concept id="1068581242863" name="jetbrains.mps.baseLanguage.structure.LocalVariableDeclaration" flags="nr" index="3cpWsn" />
      <concept id="1081773326031" name="jetbrains.mps.baseLanguage.structure.BinaryOperation" flags="nn" index="3uHJSO">
        <child id="1081773367579" name="rightExpression" index="3uHU7w" />
        <child id="1081773367580" name="leftExpression" index="3uHU7B" />
      </concept>
      <concept id="1073239437375" name="jetbrains.mps.baseLanguage.structure.NotEqualsExpression" flags="nn" index="3y3z36" />
      <concept id="1144226303539" name="jetbrains.mps.baseLanguage.structure.ForeachStatement" flags="nn" index="1DcWWT">
        <child id="1144226360166" name="iterable" index="1DdaDG" />
      </concept>
      <concept id="1144230876926" name="jetbrains.mps.baseLanguage.structure.AbstractForStatement" flags="nn" index="1DupvO">
        <child id="1144230900587" name="variable" index="1Duv9x" />
      </concept>
    </language>
    <language id="7fa12e9c-b949-4976-b4fa-19accbc320b4" name="jetbrains.mps.lang.dataFlow">
      <concept id="1207062474157" name="jetbrains.mps.lang.dataFlow.structure.EmitLabelStatement" flags="ng" index="axUMO" />
      <concept id="1207062697254" name="jetbrains.mps.lang.dataFlow.structure.LabelPosition" flags="ng" index="ayLgZ">
        <reference id="1207062703832" name="label" index="ayMZ1" />
      </concept>
      <concept id="1206442055221" name="jetbrains.mps.lang.dataFlow.structure.DataFlowBuilderDeclaration" flags="ig" index="3_zdsH">
        <reference id="1206442096288" name="conceptDeclaration" index="3_znuS" />
        <child id="1206442812839" name="builderBlock" index="3_A6iZ" />
      </concept>
      <concept id="1206442659665" name="jetbrains.mps.lang.dataFlow.structure.BuilderBlock" flags="in" index="3__wT9" />
      <concept id="1206442747519" name="jetbrains.mps.lang.dataFlow.structure.NodeParameter" flags="nn" index="3__QtB" />
      <concept id="1206443823146" name="jetbrains.mps.lang.dataFlow.structure.EmitReadStatement" flags="nn" index="3_DX4M" />
      <concept id="1206444349662" name="jetbrains.mps.lang.dataFlow.structure.EmitWriteStatement" flags="nn" index="3_FXB6" />
      <concept id="1206444622344" name="jetbrains.mps.lang.dataFlow.structure.BaseEmitVariableStatement" flags="nn" index="3_H0cg">
        <child id="1206444629799" name="variable" index="3_H1SZ" />
      </concept>
      <concept id="1206444910183" name="jetbrains.mps.lang.dataFlow.structure.RelativePosition" flags="ng" index="3_I6tZ">
        <child id="1206444923842" name="relativeTo" index="3_I9Fq" />
      </concept>
      <concept id="1206445082906" name="jetbrains.mps.lang.dataFlow.structure.AfterPosition" flags="ng" index="3_IKw2" />
      <concept id="1206445181593" name="jetbrains.mps.lang.dataFlow.structure.BaseEmitJumpStatement" flags="nn" index="3_J8I1">
        <child id="1206445193860" name="jumpTo" index="3_JbIs" />
      </concept>
      <concept id="1206445295557" name="jetbrains.mps.lang.dataFlow.structure.EmitIfJumpStatement" flags="nn" index="3_J$rt" />
      <concept id="1206445310309" name="jetbrains.mps.lang.dataFlow.structure.EmitJumpStatement" flags="nn" index="3_JC1X" />
      <concept id="1206454052847" name="jetbrains.mps.lang.dataFlow.structure.EmitCodeForStatement" flags="nn" index="3AgYrR">
        <child id="1206454079161" name="codeFor" index="3Ah4Yx" />
      </concept>
      <concept id="1206534235764" name="jetbrains.mps.lang.dataFlow.structure.EmitMayBeUnreachable" flags="nn" index="3F2QtG">
        <child id="1206534244140" name="emitStatement" index="3F2SoO" />
      </concept>
    </language>
    <language id="7866978e-a0f0-4cc7-81bc-4d213d9375e1" name="jetbrains.mps.lang.smodel">
      <concept id="1139613262185" name="jetbrains.mps.lang.smodel.structure.Node_GetParentOperation" flags="nn" index="1mfA1w" />
      <concept id="1172008320231" name="jetbrains.mps.lang.smodel.structure.Node_IsNotNullOperation" flags="nn" index="3x8VRR" />
      <concept id="1138055754698" name="jetbrains.mps.lang.smodel.structure.SNodeType" flags="in" index="3Tqbb2">
        <reference id="1138405853777" name="concept" index="ehGHo" />
      </concept>
      <concept id="1138056143562" name="jetbrains.mps.lang.smodel.structure.SLinkAccess" flags="nn" index="3TrEf2">
        <reference id="1138056516764" name="link" index="3Tt5mk" />
      </concept>
      <concept id="1138056282393" name="jetbrains.mps.lang.smodel.structure.SLinkListAccess" flags="nn" index="3Tsc0h">
        <reference id="1138056546658" name="link" index="3TtcxE" />
      </concept>
    </language>
    <language id="ceab5195-25ea-4f22-9b92-103b95ca8c0c" name="jetbrains.mps.lang.core">
      <concept id="1133920641626" name="jetbrains.mps.lang.core.structure.BaseConcept" flags="ng" index="2VYdi">
        <property id="1193676396447" name="virtualPackage" index="3GE5qa" />
      </concept>
      <concept id="1169194658468" name="jetbrains.mps.lang.core.structure.INamedConcept" flags="ng" index="TrEIO">
        <property id="1169194664001" name="name" index="TrG5h" />
      </concept>
    </language>
    <language id="83888646-71ce-4f1c-9c53-c54016f6ad4f" name="jetbrains.mps.baseLanguage.collections">
      <concept id="1176501494711" name="jetbrains.mps.baseLanguage.collections.structure.IsNotEmptyOperation" flags="nn" index="3GX2aA" />
    </language>
  </registry>
  <node concept="3_zdsH" id="h$kKlrV">
    <property role="3GE5qa" value="definition.rule" />
    <ref role="3_znuS" to="tpd4:hp8hY$D" resolve="AbstractCheckingRule" />
    <node concept="3__wT9" id="h$kKlrW" role="3_A6iZ">
      <node concept="3clFbS" id="h$kKlrX" role="2VODD2">
        <node concept="3AgYrR" id="h$kOHMh" role="3cqZAp">
          <node concept="2OqwBi" id="h$kOIpm" role="3Ah4Yx">
            <node concept="3__QtB" id="h$kOI5l" role="2Oq$k0" />
            <node concept="3TrEf2" id="h$kOJ2R" role="2OqNvi">
              <ref role="3Tt5mk" to="tpd4:h5YuTL0" />
            </node>
          </node>
        </node>
        <node concept="3AgYrR" id="h$kKt43" role="3cqZAp">
          <node concept="2OqwBi" id="h$kKu4w" role="3Ah4Yx">
            <node concept="3__QtB" id="h$kKtLH" role="2Oq$k0" />
            <node concept="3TrEf2" id="h$kKulo" role="2OqNvi">
              <ref role="3Tt5mk" to="tpd4:hp8ibRO" />
            </node>
          </node>
        </node>
      </node>
    </node>
  </node>
  <node concept="3_zdsH" id="h$kKMNZ">
    <property role="3GE5qa" value="definition.rule.subtyping" />
    <ref role="3_znuS" to="tpd4:h6sgdYK" resolve="AbstractSubtypingRule" />
    <node concept="3__wT9" id="h$kKMO0" role="3_A6iZ">
      <node concept="3clFbS" id="h$kKMO1" role="2VODD2">
        <node concept="3AgYrR" id="h$kOLFw" role="3cqZAp">
          <node concept="2OqwBi" id="h$kOMu4" role="3Ah4Yx">
            <node concept="3__QtB" id="h$kOMb0" role="2Oq$k0" />
            <node concept="3TrEf2" id="h$kOMMP" role="2OqNvi">
              <ref role="3Tt5mk" to="tpd4:h5YuTL0" />
            </node>
          </node>
        </node>
        <node concept="3AgYrR" id="h$kLtQ0" role="3cqZAp">
          <node concept="2OqwBi" id="h$kLv6n" role="3Ah4Yx">
            <node concept="3__QtB" id="h$kLuNN" role="2Oq$k0" />
            <node concept="3TrEf2" id="h$kLvxg" role="2OqNvi">
              <ref role="3Tt5mk" to="tpd4:h6sgrtk" />
            </node>
          </node>
        </node>
      </node>
    </node>
  </node>
  <node concept="3_zdsH" id="h$kN9P4">
    <property role="3GE5qa" value="query" />
    <ref role="3_znuS" to="tpd4:h7JuTYR" resolve="IsSubtypeExpression" />
    <node concept="3__wT9" id="h$kN9P5" role="3_A6iZ">
      <node concept="3clFbS" id="h$kN9P6" role="2VODD2">
        <node concept="3AgYrR" id="h$kNblO" role="3cqZAp">
          <node concept="2OqwBi" id="h$kNcF5" role="3Ah4Yx">
            <node concept="3__QtB" id="h$kNcuQ" role="2Oq$k0" />
            <node concept="3TrEf2" id="h$kNdzV" role="2OqNvi">
              <ref role="3Tt5mk" to="tpd4:h7JuY5l" />
            </node>
          </node>
        </node>
        <node concept="3AgYrR" id="h$kNeh8" role="3cqZAp">
          <node concept="2OqwBi" id="h$kNeTu" role="3Ah4Yx">
            <node concept="3__QtB" id="h$kNeFj" role="2Oq$k0" />
            <node concept="3TrEf2" id="h$kNfhr" role="2OqNvi">
              <ref role="3Tt5mk" to="tpd4:h7JuZnB" />
            </node>
          </node>
        </node>
      </node>
    </node>
  </node>
  <node concept="3_zdsH" id="h$kObKm">
    <property role="3GE5qa" value="definition.expression" />
    <ref role="3_znuS" to="tpd4:h5YBJns" resolve="ApplicableNodeReference" />
    <node concept="3__wT9" id="h$kObKn" role="3_A6iZ">
      <node concept="3clFbS" id="h$kObKo" role="2VODD2">
        <node concept="3_DX4M" id="h$kOgtY" role="3cqZAp">
          <node concept="2OqwBi" id="h$kOi0Q" role="3_H1SZ">
            <node concept="3__QtB" id="h$kOhO9" role="2Oq$k0" />
            <node concept="3TrEf2" id="h$kOjDw" role="2OqNvi">
              <ref role="3Tt5mk" to="tpd4:h5YBMDq" />
            </node>
          </node>
        </node>
      </node>
    </node>
  </node>
  <node concept="3_zdsH" id="h$kOujw">
    <property role="3GE5qa" value="definition.expression" />
    <ref role="3_znuS" to="tpd4:h5Yat_Q" resolve="ApplicableNodeCondition" />
    <node concept="3__wT9" id="h$kOujx" role="3_A6iZ">
      <node concept="3clFbS" id="h$kOujy" role="2VODD2">
        <node concept="3_FXB6" id="h$kOvat" role="3cqZAp">
          <node concept="3__QtB" id="h$kOzlb" role="3_H1SZ" />
        </node>
      </node>
    </node>
  </node>
  <node concept="3_zdsH" id="h$kSoj2">
    <property role="3GE5qa" value="definition.statement" />
    <ref role="3_znuS" to="tpd4:h6Mj0No" resolve="AssertStatement" />
    <node concept="3__wT9" id="h$kSoj3" role="3_A6iZ">
      <node concept="3clFbS" id="h$kSoj4" role="2VODD2">
        <node concept="3AgYrR" id="h$kSpD0" role="3cqZAp">
          <node concept="2OqwBi" id="h$kSEge" role="3Ah4Yx">
            <node concept="3__QtB" id="h$kSE3Z" role="2Oq$k0" />
            <node concept="3TrEf2" id="h$kSEJJ" role="2OqNvi">
              <ref role="3Tt5mk" to="tpd4:h6MkoYO" />
            </node>
          </node>
        </node>
        <node concept="3_J$rt" id="h$kSFnN" role="3cqZAp">
          <node concept="3_IKw2" id="h$kSGI0" role="3_JbIs">
            <node concept="3__QtB" id="h$kSH7F" role="3_I9Fq" />
          </node>
        </node>
        <node concept="3AgYrR" id="h$kSJL7" role="3cqZAp">
          <node concept="2OqwBi" id="h$kSKHe" role="3Ah4Yx">
            <node concept="3__QtB" id="h$kSKAn" role="2Oq$k0" />
            <node concept="3TrEf2" id="h$kSKZ4" role="2OqNvi">
              <ref role="3Tt5mk" to="tpd4:h6MkJ39" />
            </node>
          </node>
        </node>
        <node concept="3AgYrR" id="h$kSRC6" role="3cqZAp">
          <node concept="2OqwBi" id="h$kSSdJ" role="3Ah4Yx">
            <node concept="3__QtB" id="h$kSS0z" role="2Oq$k0" />
            <node concept="3TrEf2" id="hQOFiYH" role="2OqNvi">
              <ref role="3Tt5mk" to="tpd4:hQOEOnA" />
            </node>
          </node>
        </node>
        <node concept="3clFbJ" id="hQYRl5w" role="3cqZAp">
          <node concept="3clFbS" id="hQYRl5x" role="3clFbx">
            <node concept="3AgYrR" id="hQYRl5y" role="3cqZAp">
              <node concept="2OqwBi" id="hQYRl5z" role="3Ah4Yx">
                <node concept="3__QtB" id="hQYRl5$" role="2Oq$k0" />
                <node concept="3TrEf2" id="hQYRl5_" role="2OqNvi">
                  <ref role="3Tt5mk" to="tpd4:hQOEWAg" />
                </node>
              </node>
            </node>
          </node>
          <node concept="2OqwBi" id="hQYRl5A" role="3clFbw">
            <node concept="2OqwBi" id="hQYRl5B" role="2Oq$k0">
              <node concept="3__QtB" id="hQYRl5C" role="2Oq$k0" />
              <node concept="3TrEf2" id="hQYRl5D" role="2OqNvi">
                <ref role="3Tt5mk" to="tpd4:hQOEWAg" />
              </node>
            </node>
            <node concept="3x8VRR" id="hQYRl5E" role="2OqNvi" />
          </node>
        </node>
        <node concept="1DcWWT" id="23iYu8EwWoJ" role="3cqZAp">
          <node concept="3clFbS" id="23iYu8EwWoK" role="2LFqv$">
            <node concept="3AgYrR" id="23iYu8Ex46i" role="3cqZAp">
              <node concept="37vLTw" id="3GM_nagTvA4" role="3Ah4Yx">
                <ref role="3cqZAo" node="23iYu8EwWoM" resolve="intention" />
              </node>
            </node>
          </node>
          <node concept="3cpWsn" id="23iYu8EwWoM" role="1Duv9x">
            <property role="TrG5h" value="intention" />
            <node concept="3Tqbb2" id="23iYu8EwWoO" role="1tU5fm">
              <ref role="ehGHo" to="tpd4:hBCnwce" resolve="TypesystemIntention" />
            </node>
          </node>
          <node concept="2OqwBi" id="23iYu8EwWoQ" role="1DdaDG">
            <node concept="3__QtB" id="23iYu8EwWoP" role="2Oq$k0" />
            <node concept="3Tsc0h" id="23iYu8Ex46g" role="2OqNvi">
              <ref role="3TtcxE" to="tpd4:hQOEOnB" />
            </node>
          </node>
        </node>
        <node concept="3clFbJ" id="2YiES7i1xy2" role="3cqZAp">
          <node concept="3clFbS" id="2YiES7i1xy3" role="3clFbx">
            <node concept="3AgYrR" id="2YiES7i1xy4" role="3cqZAp">
              <node concept="2OqwBi" id="2YiES7i1xy5" role="3Ah4Yx">
                <node concept="3__QtB" id="2YiES7i1xy6" role="2Oq$k0" />
                <node concept="3TrEf2" id="2YiES7i1xy7" role="2OqNvi">
                  <ref role="3Tt5mk" to="tpd4:3uxqRt4KI1x" />
                </node>
              </node>
            </node>
          </node>
          <node concept="2OqwBi" id="2YiES7i1xy8" role="3clFbw">
            <node concept="2OqwBi" id="2YiES7i1xy9" role="2Oq$k0">
              <node concept="3__QtB" id="2YiES7i1xya" role="2Oq$k0" />
              <node concept="3TrEf2" id="2YiES7i1xyb" role="2OqNvi">
                <ref role="3Tt5mk" to="tpd4:3uxqRt4KI1x" />
              </node>
            </node>
            <node concept="3x8VRR" id="2YiES7i1xyc" role="2OqNvi" />
          </node>
        </node>
      </node>
    </node>
  </node>
  <node concept="3_zdsH" id="h$kSUlx">
    <property role="3GE5qa" value="definition.statement" />
    <ref role="3_znuS" to="tpd4:h6MkqoE" resolve="ReportErrorStatement" />
    <node concept="3__wT9" id="h$kSUly" role="3_A6iZ">
      <node concept="3clFbS" id="h$kSUlz" role="2VODD2">
        <node concept="3AgYrR" id="h$kSWPW" role="3cqZAp">
          <node concept="2OqwBi" id="h$kSXrm" role="3Ah4Yx">
            <node concept="3__QtB" id="h$kSXep" role="2Oq$k0" />
            <node concept="3TrEf2" id="h$kSXP0" role="2OqNvi">
              <ref role="3Tt5mk" to="tpd4:h6MkJ39" />
            </node>
          </node>
        </node>
        <node concept="3AgYrR" id="h$kSYg8" role="3cqZAp">
          <node concept="2OqwBi" id="h$kSZ6B" role="3Ah4Yx">
            <node concept="3__QtB" id="h$kSYUp" role="2Oq$k0" />
            <node concept="3TrEf2" id="hQOFkgu" role="2OqNvi">
              <ref role="3Tt5mk" to="tpd4:hQOEOnA" />
            </node>
          </node>
        </node>
        <node concept="3clFbJ" id="hQYOEEb" role="3cqZAp">
          <node concept="3clFbS" id="hQYOEEc" role="3clFbx">
            <node concept="3AgYrR" id="hQYOHAB" role="3cqZAp">
              <node concept="2OqwBi" id="hQYOI8P" role="3Ah4Yx">
                <node concept="3__QtB" id="hQYOI86" role="2Oq$k0" />
                <node concept="3TrEf2" id="hQYOIAU" role="2OqNvi">
                  <ref role="3Tt5mk" to="tpd4:hQOEWAg" />
                </node>
              </node>
            </node>
          </node>
          <node concept="2OqwBi" id="hQYOGyc" role="3clFbw">
            <node concept="2OqwBi" id="hQYOFBL" role="2Oq$k0">
              <node concept="3__QtB" id="hQYOFB1" role="2Oq$k0" />
              <node concept="3TrEf2" id="hQYOGh5" role="2OqNvi">
                <ref role="3Tt5mk" to="tpd4:hQOEWAg" />
              </node>
            </node>
            <node concept="3x8VRR" id="hQYOGY4" role="2OqNvi" />
          </node>
        </node>
        <node concept="1DcWWT" id="23iYu8Ex46x" role="3cqZAp">
          <node concept="3clFbS" id="23iYu8Ex46y" role="2LFqv$">
            <node concept="3AgYrR" id="23iYu8Ex46z" role="3cqZAp">
              <node concept="37vLTw" id="3GM_nagTtv_" role="3Ah4Yx">
                <ref role="3cqZAo" node="23iYu8Ex46_" resolve="intention" />
              </node>
            </node>
          </node>
          <node concept="3cpWsn" id="23iYu8Ex46_" role="1Duv9x">
            <property role="TrG5h" value="intention" />
            <node concept="3Tqbb2" id="23iYu8Ex46A" role="1tU5fm">
              <ref role="ehGHo" to="tpd4:hBCnwce" resolve="TypesystemIntention" />
            </node>
          </node>
          <node concept="2OqwBi" id="23iYu8Ex46B" role="1DdaDG">
            <node concept="3__QtB" id="23iYu8Ex46C" role="2Oq$k0" />
            <node concept="3Tsc0h" id="23iYu8Ex46D" role="2OqNvi">
              <ref role="3TtcxE" to="tpd4:hQOEOnB" />
            </node>
          </node>
        </node>
        <node concept="3clFbJ" id="2YiES7i1xxQ" role="3cqZAp">
          <node concept="3clFbS" id="2YiES7i1xxR" role="3clFbx">
            <node concept="3AgYrR" id="2YiES7i1xxS" role="3cqZAp">
              <node concept="2OqwBi" id="2YiES7i1xxT" role="3Ah4Yx">
                <node concept="3__QtB" id="2YiES7i1xxU" role="2Oq$k0" />
                <node concept="3TrEf2" id="2YiES7i1xxV" role="2OqNvi">
                  <ref role="3Tt5mk" to="tpd4:3uxqRt4KI1x" />
                </node>
              </node>
            </node>
          </node>
          <node concept="2OqwBi" id="2YiES7i1xxW" role="3clFbw">
            <node concept="2OqwBi" id="2YiES7i1xxX" role="2Oq$k0">
              <node concept="3__QtB" id="2YiES7i1xxY" role="2Oq$k0" />
              <node concept="3TrEf2" id="2YiES7i1xxZ" role="2OqNvi">
                <ref role="3Tt5mk" to="tpd4:3uxqRt4KI1x" />
              </node>
            </node>
            <node concept="3x8VRR" id="2YiES7i1xy0" role="2OqNvi" />
          </node>
        </node>
      </node>
    </node>
  </node>
  <node concept="3_zdsH" id="h$kU1xp">
    <property role="3GE5qa" value="definition" />
    <ref role="3_znuS" to="tpd4:h5Z2H4a" resolve="TypeOfExpression" />
    <node concept="3__wT9" id="h$kU1xq" role="3_A6iZ">
      <node concept="3clFbS" id="h$kU1xr" role="2VODD2">
        <node concept="3AgYrR" id="h$kU35y" role="3cqZAp">
          <node concept="2OqwBi" id="h$kU3PF" role="3Ah4Yx">
            <node concept="3__QtB" id="h$kU3LK" role="2Oq$k0" />
            <node concept="3TrEf2" id="h$kU8cO" role="2OqNvi">
              <ref role="3Tt5mk" to="tpd4:h5Z2MqX" />
            </node>
          </node>
        </node>
      </node>
    </node>
  </node>
  <node concept="3_zdsH" id="h$kUa4t">
    <property role="3GE5qa" value="definition.statement" />
    <ref role="3_znuS" to="tpd4:h5Zf1ZU" resolve="AbstractEquationStatement" />
    <node concept="3__wT9" id="h$kUa4u" role="3_A6iZ">
      <node concept="3clFbS" id="h$kUa4v" role="2VODD2">
        <node concept="3AgYrR" id="h$kUgBd" role="3cqZAp">
          <node concept="2OqwBi" id="h$kUhT2" role="3Ah4Yx">
            <node concept="3__QtB" id="h$kUhG$" role="2Oq$k0" />
            <node concept="3TrEf2" id="h$kUi4y" role="2OqNvi">
              <ref role="3Tt5mk" to="tpd4:h5ZfhOP" />
            </node>
          </node>
        </node>
        <node concept="3AgYrR" id="h$kUiHP" role="3cqZAp">
          <node concept="2OqwBi" id="h$kUjtv" role="3Ah4Yx">
            <node concept="3__QtB" id="h$kUjg2" role="2Oq$k0" />
            <node concept="3TrEf2" id="h$kUjOe" role="2OqNvi">
              <ref role="3Tt5mk" to="tpd4:h5ZfhOQ" />
            </node>
          </node>
        </node>
        <node concept="3clFbJ" id="h$kUk7y" role="3cqZAp">
          <node concept="3clFbS" id="h$kUk7z" role="3clFbx">
            <node concept="3AgYrR" id="h$kUtdz" role="3cqZAp">
              <node concept="2OqwBi" id="h$kUtS5" role="3Ah4Yx">
                <node concept="3__QtB" id="h$kUtFR" role="2Oq$k0" />
                <node concept="3TrEf2" id="h$kUu4$" role="2OqNvi">
                  <ref role="3Tt5mk" to="tpd4:hbo8Qrg" />
                </node>
              </node>
            </node>
          </node>
          <node concept="2OqwBi" id="h$kUpGA" role="3clFbw">
            <node concept="2OqwBi" id="h$kUn_i" role="2Oq$k0">
              <node concept="3__QtB" id="h$kUkZw" role="2Oq$k0" />
              <node concept="3TrEf2" id="h$kUpg1" role="2OqNvi">
                <ref role="3Tt5mk" to="tpd4:hbo8Qrg" />
              </node>
            </node>
            <node concept="3x8VRR" id="h$kUqrw" role="2OqNvi" />
          </node>
        </node>
        <node concept="3clFbJ" id="h$kUuAi" role="3cqZAp">
          <node concept="3clFbS" id="h$kUuAj" role="3clFbx">
            <node concept="3AgYrR" id="h$kUwSt" role="3cqZAp">
              <node concept="2OqwBi" id="h$kUxx2" role="3Ah4Yx">
                <node concept="3__QtB" id="h$kUxk5" role="2Oq$k0" />
                <node concept="3TrEf2" id="h$kUxKV" role="2OqNvi">
                  <ref role="3Tt5mk" to="tpd4:h5ZmcYp" />
                </node>
              </node>
            </node>
          </node>
          <node concept="2OqwBi" id="h$kUw0K" role="3clFbw">
            <node concept="2OqwBi" id="h$kUvjM" role="2Oq$k0">
              <node concept="3__QtB" id="h$kUv0u" role="2Oq$k0" />
              <node concept="3TrEf2" id="h$kUvF0" role="2OqNvi">
                <ref role="3Tt5mk" to="tpd4:h5ZmcYp" />
              </node>
            </node>
            <node concept="3x8VRR" id="h$kUwuk" role="2OqNvi" />
          </node>
        </node>
        <node concept="3clFbJ" id="hQYULe7" role="3cqZAp">
          <node concept="3clFbS" id="hQYULe8" role="3clFbx">
            <node concept="1DcWWT" id="R$Euti_Gad" role="3cqZAp">
              <node concept="3clFbS" id="R$Euti_Gae" role="2LFqv$">
                <node concept="3AgYrR" id="hQYUNP4" role="3cqZAp">
                  <node concept="37vLTw" id="3GM_nagTB5f" role="3Ah4Yx">
                    <ref role="3cqZAo" node="R$Euti_Gag" resolve="intetntion" />
                  </node>
                </node>
              </node>
              <node concept="3cpWsn" id="R$Euti_Gag" role="1Duv9x">
                <property role="TrG5h" value="intetntion" />
                <node concept="3Tqbb2" id="R$Euti_Gam" role="1tU5fm">
                  <ref role="ehGHo" to="tpd4:hBCnwce" resolve="TypesystemIntention" />
                </node>
              </node>
              <node concept="2OqwBi" id="R$Euti_Gai" role="1DdaDG">
                <node concept="3__QtB" id="R$Euti_Gaj" role="2Oq$k0" />
                <node concept="3Tsc0h" id="R$Euti_Gak" role="2OqNvi">
                  <ref role="3TtcxE" to="tpd4:hGFrUIT" />
                </node>
              </node>
            </node>
          </node>
          <node concept="2OqwBi" id="hQYUMNO" role="3clFbw">
            <node concept="2OqwBi" id="hQYULEh" role="2Oq$k0">
              <node concept="3__QtB" id="hQYULCM" role="2Oq$k0" />
              <node concept="3Tsc0h" id="R$Euti_Ga9" role="2OqNvi">
                <ref role="3TtcxE" to="tpd4:hGFrUIT" />
              </node>
            </node>
            <node concept="3GX2aA" id="R$Euti_Gaa" role="2OqNvi" />
          </node>
        </node>
      </node>
    </node>
  </node>
  <node concept="3_zdsH" id="h$kYhki">
    <property role="3GE5qa" value="definition" />
    <ref role="3_znuS" to="tpd4:hgmw_os" resolve="NormalTypeClause" />
    <node concept="3__wT9" id="h$kYhkj" role="3_A6iZ">
      <node concept="3clFbS" id="h$kYhkk" role="2VODD2">
        <node concept="3AgYrR" id="h$kYnpY" role="3cqZAp">
          <node concept="2OqwBi" id="h$kYnUY" role="3Ah4Yx">
            <node concept="3__QtB" id="h$kYnJ0" role="2Oq$k0" />
            <node concept="3TrEf2" id="h$kYrrR" role="2OqNvi">
              <ref role="3Tt5mk" to="tpd4:hgmwGF0" />
            </node>
          </node>
        </node>
      </node>
    </node>
  </node>
  <node concept="3_zdsH" id="h$kYycJ">
    <property role="3GE5qa" value="definition" />
    <ref role="3_znuS" to="tpd4:h5ZxtXV" resolve="TypeVarDeclaration" />
    <node concept="3__wT9" id="h$kYycK" role="3_A6iZ">
      <node concept="3clFbS" id="h$kYycL" role="2VODD2">
        <node concept="3_FXB6" id="h$kYBXc" role="3cqZAp">
          <node concept="3__QtB" id="h$kYCx7" role="3_H1SZ" />
        </node>
      </node>
    </node>
  </node>
  <node concept="3_zdsH" id="h$kYE6G">
    <property role="3GE5qa" value="definition" />
    <ref role="3_znuS" to="tpd4:h5Z$b1c" resolve="TypeVarReference" />
    <node concept="3__wT9" id="h$kYE6H" role="3_A6iZ">
      <node concept="3clFbS" id="h$kYE6I" role="2VODD2">
        <node concept="3_DX4M" id="h$kYFXD" role="3cqZAp">
          <node concept="2OqwBi" id="h$kYMH$" role="3_H1SZ">
            <node concept="3__QtB" id="h$kYMvD" role="2Oq$k0" />
            <node concept="3TrEf2" id="h$kYOin" role="2OqNvi">
              <ref role="3Tt5mk" to="tpd4:h5Z$eQz" />
            </node>
          </node>
        </node>
      </node>
    </node>
  </node>
  <node concept="3_zdsH" id="h$l5pre">
    <property role="3GE5qa" value="definition.rule.subtyping" />
    <ref role="3_znuS" to="tpd4:hv5pCJM" resolve="InequationReplacementRule" />
    <node concept="3__wT9" id="h$l5prf" role="3_A6iZ">
      <node concept="3clFbS" id="h$l5prg" role="2VODD2">
        <node concept="3AgYrR" id="h$l5qgI" role="3cqZAp">
          <node concept="2OqwBi" id="h$l5qMX" role="3Ah4Yx">
            <node concept="3__QtB" id="h$l5qCc" role="2Oq$k0" />
            <node concept="3TrEf2" id="h$l5rla" role="2OqNvi">
              <ref role="3Tt5mk" to="tpd4:h5YuTL0" />
            </node>
          </node>
        </node>
        <node concept="3AgYrR" id="h$l5rKj" role="3cqZAp">
          <node concept="2OqwBi" id="h$l5snq" role="3Ah4Yx">
            <node concept="3__QtB" id="h$l5s8w" role="2Oq$k0" />
            <node concept="3TrEf2" id="h$l5tpQ" role="2OqNvi">
              <ref role="3Tt5mk" to="tpd4:hv5pZ26" />
            </node>
          </node>
        </node>
        <node concept="3AgYrR" id="h$l5tX2" role="3cqZAp">
          <node concept="2OqwBi" id="h$l5u$C" role="3Ah4Yx">
            <node concept="3__QtB" id="h$l5umd" role="2Oq$k0" />
            <node concept="3TrEf2" id="h$l5v3F" role="2OqNvi">
              <ref role="3Tt5mk" to="tpd4:h6sgrtk" />
            </node>
          </node>
        </node>
      </node>
    </node>
  </node>
  <node concept="3_zdsH" id="h$l5xsL">
    <property role="3GE5qa" value="definition.rule.subtyping" />
    <ref role="3_znuS" to="tpd4:hjaFuhR" resolve="ComparisonRule" />
    <node concept="3__wT9" id="h$l5xsM" role="3_A6iZ">
      <node concept="3clFbS" id="h$l5xsN" role="2VODD2">
        <node concept="3AgYrR" id="h$l5xXL" role="3cqZAp">
          <node concept="2OqwBi" id="h$l5yXM" role="3Ah4Yx">
            <node concept="3__QtB" id="h$l5yL4" role="2Oq$k0" />
            <node concept="3TrEf2" id="h$l5z9L" role="2OqNvi">
              <ref role="3Tt5mk" to="tpd4:h5YuTL0" />
            </node>
          </node>
        </node>
        <node concept="3AgYrR" id="h$l5_o9" role="3cqZAp">
          <node concept="2OqwBi" id="h$l5_Xj" role="3Ah4Yx">
            <node concept="3__QtB" id="h$l5_Km" role="2Oq$k0" />
            <node concept="3TrEf2" id="h$l5Awf" role="2OqNvi">
              <ref role="3Tt5mk" to="tpd4:hjbfgWR" />
            </node>
          </node>
        </node>
        <node concept="3AgYrR" id="h$l5ATE" role="3cqZAp">
          <node concept="2OqwBi" id="h$l5BHX" role="3Ah4Yx">
            <node concept="3__QtB" id="h$l5BsB" role="2Oq$k0" />
            <node concept="3TrEf2" id="h$l5ChC" role="2OqNvi">
              <ref role="3Tt5mk" to="tpd4:h6sgrtk" />
            </node>
          </node>
        </node>
      </node>
    </node>
  </node>
  <node concept="3_zdsH" id="h$ljiUl">
    <property role="3GE5qa" value="definition.expression" />
    <ref role="3_znuS" to="tpd4:h5Yb3TC" resolve="PatternCondition" />
    <node concept="3__wT9" id="h$ljiUm" role="3_A6iZ">
      <node concept="3clFbS" id="h$ljiUn" role="2VODD2">
        <node concept="3AgYrR" id="h$ljlYV" role="3cqZAp">
          <node concept="2OqwBi" id="h$ljnBX" role="3Ah4Yx">
            <node concept="3__QtB" id="h$ljnq1" role="2Oq$k0" />
            <node concept="3TrEf2" id="h$ljo09" role="2OqNvi">
              <ref role="3Tt5mk" to="tpd4:h5YbcJD" />
            </node>
          </node>
        </node>
        <node concept="3_FXB6" id="h$ljp9b" role="3cqZAp">
          <node concept="3__QtB" id="h$ljp$N" role="3_H1SZ" />
        </node>
      </node>
    </node>
  </node>
  <node concept="3_zdsH" id="h$pp_DJ">
    <property role="3GE5qa" value="query" />
    <ref role="3_znuS" to="tpd4:h7Knyhh" resolve="CoerceStatement" />
    <node concept="3__wT9" id="h$pp_DK" role="3_A6iZ">
      <node concept="3clFbS" id="h$pp_DL" role="2VODD2">
        <node concept="3AgYrR" id="h$ppD7e" role="3cqZAp">
          <node concept="2OqwBi" id="h$ppEoO" role="3Ah4Yx">
            <node concept="3__QtB" id="h$ppE1B" role="2Oq$k0" />
            <node concept="3TrEf2" id="h$ppHI8" role="2OqNvi">
              <ref role="3Tt5mk" to="tpd4:h7Ko5Vg" />
            </node>
          </node>
        </node>
        <node concept="3AgYrR" id="h$ppK_2" role="3cqZAp">
          <node concept="2OqwBi" id="h$ppL8f" role="3Ah4Yx">
            <node concept="3__QtB" id="h$ppKW0" role="2Oq$k0" />
            <node concept="3TrEf2" id="h$ppNy$" role="2OqNvi">
              <ref role="3Tt5mk" to="tpd4:h7KnV$E" />
            </node>
          </node>
        </node>
        <node concept="3_J$rt" id="hKCnRTp" role="3cqZAp">
          <node concept="ayLgZ" id="hKCnSw0" role="3_JbIs">
            <ref role="ayMZ1" node="hKCnCI4" resolve="endOfTrue" />
          </node>
        </node>
        <node concept="3AgYrR" id="h$ppNYr" role="3cqZAp">
          <node concept="2OqwBi" id="h$ppO_3" role="3Ah4Yx">
            <node concept="3__QtB" id="h$ppOnA" role="2Oq$k0" />
            <node concept="3TrEf2" id="h$ppOZW" role="2OqNvi">
              <ref role="3Tt5mk" to="tpd4:h7KnTrF" />
            </node>
          </node>
        </node>
        <node concept="3clFbJ" id="hKCnlqP" role="3cqZAp">
          <node concept="3clFbS" id="hKCnlqQ" role="3clFbx">
            <node concept="3F2QtG" id="hS7Jg4m" role="3cqZAp">
              <node concept="3_JC1X" id="hS7Jh3n" role="3F2SoO">
                <node concept="3_IKw2" id="hS7Jh3o" role="3_JbIs">
                  <node concept="2OqwBi" id="hS7Jh3p" role="3_I9Fq">
                    <node concept="3__QtB" id="hS7Jh3q" role="2Oq$k0" />
                    <node concept="3TrEf2" id="hS7Jh3r" role="2OqNvi">
                      <ref role="3Tt5mk" to="tpd4:hKCjY4b" />
                    </node>
                  </node>
                </node>
              </node>
            </node>
          </node>
          <node concept="2OqwBi" id="hKCno7P" role="3clFbw">
            <node concept="2OqwBi" id="hKCnlPL" role="2Oq$k0">
              <node concept="3__QtB" id="hKCnlOi" role="2Oq$k0" />
              <node concept="3TrEf2" id="hKCnnRH" role="2OqNvi">
                <ref role="3Tt5mk" to="tpd4:hKCjY4b" />
              </node>
            </node>
            <node concept="3x8VRR" id="hKCnotQ" role="2OqNvi" />
          </node>
        </node>
        <node concept="axUMO" id="hKCnCI4" role="3cqZAp">
          <property role="TrG5h" value="endOfTrue" />
        </node>
        <node concept="3clFbJ" id="hKCnHxl" role="3cqZAp">
          <node concept="3clFbS" id="hKCnHxm" role="3clFbx">
            <node concept="3AgYrR" id="hKCnHxn" role="3cqZAp">
              <node concept="2OqwBi" id="hKCnHxo" role="3Ah4Yx">
                <node concept="3__QtB" id="hKCnHxp" role="2Oq$k0" />
                <node concept="3TrEf2" id="hKCnHxq" role="2OqNvi">
                  <ref role="3Tt5mk" to="tpd4:hKCjY4b" />
                </node>
              </node>
            </node>
          </node>
          <node concept="2OqwBi" id="hKCnIOi" role="3clFbw">
            <node concept="2OqwBi" id="hKCnI39" role="2Oq$k0">
              <node concept="3__QtB" id="hKCnI2D" role="2Oq$k0" />
              <node concept="3TrEf2" id="hKCnIui" role="2OqNvi">
                <ref role="3Tt5mk" to="tpd4:hKCjY4b" />
              </node>
            </node>
            <node concept="3x8VRR" id="hKCnJot" role="2OqNvi" />
          </node>
        </node>
      </node>
    </node>
  </node>
  <node concept="3_zdsH" id="h$puElf">
    <property role="3GE5qa" value="definition.statement" />
    <ref role="3_znuS" to="tpd4:hgnverd" resolve="WhenConcreteStatement" />
    <node concept="3__wT9" id="h$puElg" role="3_A6iZ">
      <node concept="3clFbS" id="h$puElh" role="2VODD2">
        <node concept="3AgYrR" id="7ZjVHbPc7ND" role="3cqZAp">
          <node concept="2OqwBi" id="7ZjVHbPc7Zj" role="3Ah4Yx">
            <node concept="3TrEf2" id="7ZjVHbPc8vX" role="2OqNvi">
              <ref role="3Tt5mk" to="tpd4:hgnvjB2" />
            </node>
            <node concept="3__QtB" id="7ZjVHbPc7Pn" role="2Oq$k0" />
          </node>
        </node>
        <node concept="3_FXB6" id="7ZjVHbPc8vZ" role="3cqZAp">
          <node concept="2OqwBi" id="7ZjVHbPc8Wu" role="3_H1SZ">
            <node concept="3TrEf2" id="7ZjVHbPc9t8" role="2OqNvi">
              <ref role="3Tt5mk" to="tpd4:hyX0YkV" />
            </node>
            <node concept="3__QtB" id="7ZjVHbPc8Mp" role="2Oq$k0" />
          </node>
        </node>
        <node concept="3AgYrR" id="7ZjVHbPceMT" role="3cqZAp">
          <node concept="2OqwBi" id="7ZjVHbPceZb" role="3Ah4Yx">
            <node concept="3TrEf2" id="7ZjVHbPcfvP" role="2OqNvi">
              <ref role="3Tt5mk" to="tpd4:hgnvhvL" />
            </node>
            <node concept="3__QtB" id="7ZjVHbPcePf" role="2Oq$k0" />
          </node>
        </node>
      </node>
    </node>
  </node>
  <node concept="3_zdsH" id="h$pOlip">
    <property role="3GE5qa" value="query" />
    <ref role="3_znuS" to="tpd4:h8eJokL" resolve="ImmediateSupertypesExpression" />
    <node concept="3__wT9" id="h$pOliq" role="3_A6iZ">
      <node concept="3clFbS" id="h$pOlir" role="2VODD2">
        <node concept="3AgYrR" id="h$pOm4f" role="3cqZAp">
          <node concept="2OqwBi" id="h$pOmyk" role="3Ah4Yx">
            <node concept="3__QtB" id="h$pOmm_" role="2Oq$k0" />
            <node concept="3TrEf2" id="h$pOpXy" role="2OqNvi">
              <ref role="3Tt5mk" to="tpd4:h8eJTa9" />
            </node>
          </node>
        </node>
      </node>
    </node>
  </node>
  <node concept="3_zdsH" id="h$pSKkY">
    <property role="3GE5qa" value="query" />
    <ref role="3_znuS" to="tpd4:h8DkJGt" resolve="MatchStatement" />
    <node concept="3__wT9" id="h$pSKkZ" role="3_A6iZ">
      <node concept="3clFbS" id="h$pSKl0" role="2VODD2">
        <node concept="3AgYrR" id="h$pSKQu" role="3cqZAp">
          <node concept="2OqwBi" id="h$pSLu$" role="3Ah4Yx">
            <node concept="3__QtB" id="h$pSLh7" role="2Oq$k0" />
            <node concept="3TrEf2" id="h$pSLBC" role="2OqNvi">
              <ref role="3Tt5mk" to="tpd4:h8DkQ8Y" />
            </node>
          </node>
        </node>
        <node concept="1DcWWT" id="h$pTuno" role="3cqZAp">
          <node concept="3clFbS" id="h$pTunp" role="2LFqv$">
            <node concept="3AgYrR" id="h$pTzEc" role="3cqZAp">
              <node concept="37vLTw" id="3GM_nagTyGx" role="3Ah4Yx">
                <ref role="3cqZAo" node="h$pTuns" resolve="item" />
              </node>
            </node>
          </node>
          <node concept="2OqwBi" id="h$pTwjL" role="1DdaDG">
            <node concept="3__QtB" id="h$pTw7j" role="2Oq$k0" />
            <node concept="3Tsc0h" id="h$pTxHU" role="2OqNvi">
              <ref role="3TtcxE" to="tpd4:h8DkKIh" />
            </node>
          </node>
          <node concept="3cpWsn" id="h$pTuns" role="1Duv9x">
            <property role="TrG5h" value="item" />
            <node concept="3Tqbb2" id="h$pTuPZ" role="1tU5fm">
              <ref role="ehGHo" to="tpd4:h8DmCZG" resolve="MatchStatementItem" />
            </node>
          </node>
        </node>
        <node concept="3clFbJ" id="h$pU5R_" role="3cqZAp">
          <node concept="3clFbS" id="h$pU5RA" role="3clFbx">
            <node concept="3AgYrR" id="h$pU8Sq" role="3cqZAp">
              <node concept="2OqwBi" id="h$pU9xH" role="3Ah4Yx">
                <node concept="3__QtB" id="h$pU9h_" role="2Oq$k0" />
                <node concept="3TrEf2" id="h$pUawf" role="2OqNvi">
                  <ref role="3Tt5mk" to="tpd4:h8DkKck" />
                </node>
              </node>
            </node>
          </node>
          <node concept="3y3z36" id="h$pU7yD" role="3clFbw">
            <node concept="10Nm6u" id="h$pU7Xz" role="3uHU7w" />
            <node concept="2OqwBi" id="h$pU6DX" role="3uHU7B">
              <node concept="3__QtB" id="h$pU6s2" role="2Oq$k0" />
              <node concept="3TrEf2" id="h$pU7i2" role="2OqNvi">
                <ref role="3Tt5mk" to="tpd4:h8DkKck" />
              </node>
            </node>
          </node>
        </node>
      </node>
    </node>
  </node>
  <node concept="3_zdsH" id="h$pXlYe">
    <property role="3GE5qa" value="query" />
    <ref role="3_znuS" to="tpd4:h8DmCZG" resolve="MatchStatementItem" />
    <node concept="3__wT9" id="h$pXlYf" role="3_A6iZ">
      <node concept="3clFbS" id="h$pXlYg" role="2VODD2">
        <node concept="3AgYrR" id="h$pXo0p" role="3cqZAp">
          <node concept="2OqwBi" id="h$pXq9T" role="3Ah4Yx">
            <node concept="3__QtB" id="h$pXpWG" role="2Oq$k0" />
            <node concept="3TrEf2" id="h$pXqG7" role="2OqNvi">
              <ref role="3Tt5mk" to="tpd4:h8DmFp2" />
            </node>
          </node>
        </node>
        <node concept="3_J$rt" id="h$pXrpz" role="3cqZAp">
          <node concept="3_IKw2" id="h$pXrLw" role="3_JbIs">
            <node concept="3__QtB" id="h$pXs4_" role="3_I9Fq" />
          </node>
        </node>
        <node concept="3AgYrR" id="h$pXt1D" role="3cqZAp">
          <node concept="2OqwBi" id="h$pXtxs" role="3Ah4Yx">
            <node concept="3__QtB" id="h$pXtop" role="2Oq$k0" />
            <node concept="3TrEf2" id="h$pXtPY" role="2OqNvi">
              <ref role="3Tt5mk" to="tpd4:h8DmITa" />
            </node>
          </node>
        </node>
        <node concept="3F2QtG" id="h$pXy0v" role="3cqZAp">
          <node concept="3_JC1X" id="h$pYePV" role="3F2SoO">
            <node concept="3_IKw2" id="h$pYf8Z" role="3_JbIs">
              <node concept="2OqwBi" id="h$pYfCM" role="3_I9Fq">
                <node concept="3__QtB" id="h$pYfr_" role="2Oq$k0" />
                <node concept="1mfA1w" id="h$pYfSV" role="2OqNvi" />
              </node>
            </node>
          </node>
        </node>
      </node>
    </node>
  </node>
  <node concept="3_zdsH" id="hIN2eSB">
    <property role="3GE5qa" value="query" />
    <ref role="3_znuS" to="tpd4:h9UaxiI" resolve="CoerceExpression" />
    <node concept="3__wT9" id="hIN2eSC" role="3_A6iZ">
      <node concept="3clFbS" id="hIN2eSD" role="2VODD2">
        <node concept="3AgYrR" id="hIN2fPW" role="3cqZAp">
          <node concept="2OqwBi" id="hIN2gzD" role="3Ah4Yx">
            <node concept="3__QtB" id="hIN2gug" role="2Oq$k0" />
            <node concept="3TrEf2" id="hIN2hdn" role="2OqNvi">
              <ref role="3Tt5mk" to="tpd4:h9Ub_0P" />
            </node>
          </node>
        </node>
      </node>
    </node>
  </node>
  <node concept="3_zdsH" id="hKz60_h">
    <property role="3GE5qa" value="definition.statement" />
    <ref role="3_znuS" to="tpd4:hKyXG_$" resolve="AddDependencyStatement" />
    <node concept="3__wT9" id="hKz60_i" role="3_A6iZ">
      <node concept="3clFbS" id="hKz60_j" role="2VODD2">
        <node concept="3AgYrR" id="hKz61P9" role="3cqZAp">
          <node concept="2OqwBi" id="hKz64EP" role="3Ah4Yx">
            <node concept="3__QtB" id="hKz64CC" role="2Oq$k0" />
            <node concept="3TrEf2" id="hKz6Lde" role="2OqNvi">
              <ref role="3Tt5mk" to="tpd4:hKyXQgn" />
            </node>
          </node>
        </node>
      </node>
    </node>
  </node>
  <node concept="3_zdsH" id="hQYPxad">
    <property role="3GE5qa" value="definition.statement.target" />
    <ref role="3_znuS" to="tpd4:hQPiL1F" resolve="PropertyNameTarget" />
    <node concept="3__wT9" id="hQYPxae" role="3_A6iZ">
      <node concept="3clFbS" id="hQYPxaf" role="2VODD2">
        <node concept="3AgYrR" id="hQYPxKm" role="3cqZAp">
          <node concept="2OqwBi" id="hQYPyjz" role="3Ah4Yx">
            <node concept="3__QtB" id="hQYPyj2" role="2Oq$k0" />
            <node concept="3TrEf2" id="hQYPzxe" role="2OqNvi">
              <ref role="3Tt5mk" to="tpd4:hQPj4ZN" />
            </node>
          </node>
        </node>
      </node>
    </node>
  </node>
  <node concept="3_zdsH" id="hQYPAas">
    <property role="3GE5qa" value="definition.statement.target" />
    <ref role="3_znuS" to="tpd4:hQPjuzX" resolve="ReferenceRoleTarget" />
    <node concept="3__wT9" id="hQYPAat" role="3_A6iZ">
      <node concept="3clFbS" id="hQYPAau" role="2VODD2">
        <node concept="3AgYrR" id="hQYPB6j" role="3cqZAp">
          <node concept="2OqwBi" id="hQYPBA5" role="3Ah4Yx">
            <node concept="3__QtB" id="hQYPB__" role="2Oq$k0" />
            <node concept="3TrEf2" id="hQYPCbJ" role="2OqNvi">
              <ref role="3Tt5mk" to="tpd4:hQPjzoj" />
            </node>
          </node>
        </node>
      </node>
    </node>
  </node>
  <node concept="3_zdsH" id="hQYQ6e_">
    <property role="3GE5qa" value="definition.quickfix" />
    <ref role="3_znuS" to="tpd4:hBCnwce" resolve="TypesystemIntention" />
    <node concept="3__wT9" id="hQYQ6eA" role="3_A6iZ">
      <node concept="3clFbS" id="hQYQ6eB" role="2VODD2">
        <node concept="1DcWWT" id="hQYQyRF" role="3cqZAp">
          <node concept="2OqwBi" id="hQYQB4E" role="1DdaDG">
            <node concept="3__QtB" id="hQYQB49" role="2Oq$k0" />
            <node concept="3Tsc0h" id="hQYQDoc" role="2OqNvi">
              <ref role="3TtcxE" to="tpd4:hBCoj0m" />
            </node>
          </node>
          <node concept="3cpWsn" id="hQYQyRH" role="1Duv9x">
            <property role="TrG5h" value="argument" />
            <node concept="3Tqbb2" id="hQYQzY6" role="1tU5fm">
              <ref role="ehGHo" to="tpd4:hBCnSoC" resolve="TypesystemIntentionArgument" />
            </node>
          </node>
          <node concept="3clFbS" id="hQYQyRJ" role="2LFqv$">
            <node concept="3AgYrR" id="hQYQKir" role="3cqZAp">
              <node concept="37vLTw" id="3GM_nagTBfs" role="3Ah4Yx">
                <ref role="3cqZAo" node="hQYQyRH" resolve="argument" />
              </node>
            </node>
          </node>
        </node>
      </node>
    </node>
  </node>
  <node concept="3_zdsH" id="hQYQOWb">
    <property role="3GE5qa" value="definition.quickfix" />
    <ref role="3_znuS" to="tpd4:hBCnSoC" resolve="TypesystemIntentionArgument" />
    <node concept="3__wT9" id="hQYQOWc" role="3_A6iZ">
      <node concept="3clFbS" id="hQYQOWd" role="2VODD2">
        <node concept="3AgYrR" id="hQYQQX9" role="3cqZAp">
          <node concept="2OqwBi" id="hQYQZrc" role="3Ah4Yx">
            <node concept="3__QtB" id="hQYQZqF" role="2Oq$k0" />
            <node concept="3TrEf2" id="hQYR2xu" role="2OqNvi">
              <ref role="3Tt5mk" to="tpd4:hBCoRqY" />
            </node>
          </node>
        </node>
      </node>
    </node>
  </node>
  <node concept="3_zdsH" id="hQYT3Qw">
    <property role="3GE5qa" value="definition.statement" />
    <ref role="3_znuS" to="tpd4:h$a7r4L" resolve="WarningStatement" />
    <node concept="3__wT9" id="hQYT3Qx" role="3_A6iZ">
      <node concept="3clFbS" id="hQYT3Qy" role="2VODD2">
        <node concept="3AgYrR" id="hQYT7qt" role="3cqZAp">
          <node concept="2OqwBi" id="hQYTeMh" role="3Ah4Yx">
            <node concept="3__QtB" id="hQYT7qv" role="2Oq$k0" />
            <node concept="3TrEf2" id="hQYTfN1" role="2OqNvi">
              <ref role="3Tt5mk" to="tpd4:h$a7wWK" />
            </node>
          </node>
        </node>
        <node concept="3AgYrR" id="hQYT7qx" role="3cqZAp">
          <node concept="2OqwBi" id="hQYT7qy" role="3Ah4Yx">
            <node concept="3__QtB" id="hQYT7qz" role="2Oq$k0" />
            <node concept="3TrEf2" id="hQYT7q$" role="2OqNvi">
              <ref role="3Tt5mk" to="tpd4:hQOEOnA" />
            </node>
          </node>
        </node>
        <node concept="3clFbJ" id="hQYT4t8" role="3cqZAp">
          <node concept="3clFbS" id="hQYT4t9" role="3clFbx">
            <node concept="3AgYrR" id="hQYT4ta" role="3cqZAp">
              <node concept="2OqwBi" id="hQYT4tb" role="3Ah4Yx">
                <node concept="3__QtB" id="hQYT4tc" role="2Oq$k0" />
                <node concept="3TrEf2" id="hQYT4td" role="2OqNvi">
                  <ref role="3Tt5mk" to="tpd4:hQOEWAg" />
                </node>
              </node>
            </node>
          </node>
          <node concept="2OqwBi" id="hQYT4te" role="3clFbw">
            <node concept="2OqwBi" id="hQYT4tf" role="2Oq$k0">
              <node concept="3__QtB" id="hQYT4tg" role="2Oq$k0" />
              <node concept="3TrEf2" id="hQYT4th" role="2OqNvi">
                <ref role="3Tt5mk" to="tpd4:hQOEWAg" />
              </node>
            </node>
            <node concept="3x8VRR" id="hQYT4ti" role="2OqNvi" />
          </node>
        </node>
        <node concept="1DcWWT" id="23iYu8Ex46F" role="3cqZAp">
          <node concept="3clFbS" id="23iYu8Ex46G" role="2LFqv$">
            <node concept="3AgYrR" id="23iYu8Ex46H" role="3cqZAp">
              <node concept="37vLTw" id="3GM_nagTvqA" role="3Ah4Yx">
                <ref role="3cqZAo" node="23iYu8Ex46J" resolve="intention" />
              </node>
            </node>
          </node>
          <node concept="3cpWsn" id="23iYu8Ex46J" role="1Duv9x">
            <property role="TrG5h" value="intention" />
            <node concept="3Tqbb2" id="23iYu8Ex46K" role="1tU5fm">
              <ref role="ehGHo" to="tpd4:hBCnwce" resolve="TypesystemIntention" />
            </node>
          </node>
          <node concept="2OqwBi" id="23iYu8Ex46L" role="1DdaDG">
            <node concept="3__QtB" id="23iYu8Ex46M" role="2Oq$k0" />
            <node concept="3Tsc0h" id="23iYu8Ex46N" role="2OqNvi">
              <ref role="3TtcxE" to="tpd4:hQOEOnB" />
            </node>
          </node>
        </node>
        <node concept="3clFbJ" id="2YiES7i1xye" role="3cqZAp">
          <node concept="3clFbS" id="2YiES7i1xyf" role="3clFbx">
            <node concept="3AgYrR" id="2YiES7i1xyg" role="3cqZAp">
              <node concept="2OqwBi" id="2YiES7i1xyh" role="3Ah4Yx">
                <node concept="3__QtB" id="2YiES7i1xyi" role="2Oq$k0" />
                <node concept="3TrEf2" id="2YiES7i1xyj" role="2OqNvi">
                  <ref role="3Tt5mk" to="tpd4:3uxqRt4KI1x" />
                </node>
              </node>
            </node>
          </node>
          <node concept="2OqwBi" id="2YiES7i1xyk" role="3clFbw">
            <node concept="2OqwBi" id="2YiES7i1xyl" role="2Oq$k0">
              <node concept="3__QtB" id="2YiES7i1xym" role="2Oq$k0" />
              <node concept="3TrEf2" id="2YiES7i1xyn" role="2OqNvi">
                <ref role="3Tt5mk" to="tpd4:3uxqRt4KI1x" />
              </node>
            </node>
            <node concept="3x8VRR" id="2YiES7i1xyo" role="2OqNvi" />
          </node>
        </node>
      </node>
    </node>
  </node>
  <node concept="3_zdsH" id="hQYTlZx">
    <property role="3GE5qa" value="definition.statement" />
    <ref role="3_znuS" to="tpd4:hODpp5F" resolve="InfoStatement" />
    <node concept="3__wT9" id="hQYTlZy" role="3_A6iZ">
      <node concept="3clFbS" id="hQYTlZz" role="2VODD2">
        <node concept="3AgYrR" id="hQYTobW" role="3cqZAp">
          <node concept="2OqwBi" id="hQYTobX" role="3Ah4Yx">
            <node concept="3__QtB" id="hQYTobY" role="2Oq$k0" />
            <node concept="3TrEf2" id="hQYTrdi" role="2OqNvi">
              <ref role="3Tt5mk" to="tpd4:hODpwdE" />
            </node>
          </node>
        </node>
        <node concept="3AgYrR" id="hQYToc0" role="3cqZAp">
          <node concept="2OqwBi" id="hQYToc1" role="3Ah4Yx">
            <node concept="3__QtB" id="hQYToc2" role="2Oq$k0" />
            <node concept="3TrEf2" id="hQYToc3" role="2OqNvi">
              <ref role="3Tt5mk" to="tpd4:hQOEOnA" />
            </node>
          </node>
        </node>
        <node concept="3clFbJ" id="hQYToc4" role="3cqZAp">
          <node concept="3clFbS" id="hQYToc5" role="3clFbx">
            <node concept="3AgYrR" id="hQYToc6" role="3cqZAp">
              <node concept="2OqwBi" id="hQYToc7" role="3Ah4Yx">
                <node concept="3__QtB" id="hQYToc8" role="2Oq$k0" />
                <node concept="3TrEf2" id="hQYToc9" role="2OqNvi">
                  <ref role="3Tt5mk" to="tpd4:hQOEWAg" />
                </node>
              </node>
            </node>
          </node>
          <node concept="2OqwBi" id="hQYToca" role="3clFbw">
            <node concept="2OqwBi" id="hQYTocb" role="2Oq$k0">
              <node concept="3__QtB" id="hQYTocc" role="2Oq$k0" />
              <node concept="3TrEf2" id="hQYTocd" role="2OqNvi">
                <ref role="3Tt5mk" to="tpd4:hQOEWAg" />
              </node>
            </node>
            <node concept="3x8VRR" id="hQYToce" role="2OqNvi" />
          </node>
        </node>
        <node concept="1DcWWT" id="23iYu8Ex46n" role="3cqZAp">
          <node concept="3clFbS" id="23iYu8Ex46o" role="2LFqv$">
            <node concept="3AgYrR" id="23iYu8Ex46p" role="3cqZAp">
              <node concept="37vLTw" id="3GM_nagTzh_" role="3Ah4Yx">
                <ref role="3cqZAo" node="23iYu8Ex46r" resolve="intention" />
              </node>
            </node>
          </node>
          <node concept="3cpWsn" id="23iYu8Ex46r" role="1Duv9x">
            <property role="TrG5h" value="intention" />
            <node concept="3Tqbb2" id="23iYu8Ex46s" role="1tU5fm">
              <ref role="ehGHo" to="tpd4:hBCnwce" resolve="TypesystemIntention" />
            </node>
          </node>
          <node concept="2OqwBi" id="23iYu8Ex46t" role="1DdaDG">
            <node concept="3__QtB" id="23iYu8Ex46u" role="2Oq$k0" />
            <node concept="3Tsc0h" id="23iYu8Ex46v" role="2OqNvi">
              <ref role="3TtcxE" to="tpd4:hQOEOnB" />
            </node>
          </node>
        </node>
        <node concept="3clFbJ" id="2YiES7i1xc3" role="3cqZAp">
          <node concept="3clFbS" id="2YiES7i1xc4" role="3clFbx">
            <node concept="3AgYrR" id="2YiES7i1xxH" role="3cqZAp">
              <node concept="2OqwBi" id="2YiES7i1xxK" role="3Ah4Yx">
                <node concept="3__QtB" id="2YiES7i1xxJ" role="2Oq$k0" />
                <node concept="3TrEf2" id="2YiES7i1xxO" role="2OqNvi">
                  <ref role="3Tt5mk" to="tpd4:3uxqRt4KI1x" />
                </node>
              </node>
            </node>
          </node>
          <node concept="2OqwBi" id="2YiES7i1xcd" role="3clFbw">
            <node concept="2OqwBi" id="2YiES7i1xc8" role="2Oq$k0">
              <node concept="3__QtB" id="2YiES7i1xc7" role="2Oq$k0" />
              <node concept="3TrEf2" id="2YiES7i1xcc" role="2OqNvi">
                <ref role="3Tt5mk" to="tpd4:3uxqRt4KI1x" />
              </node>
            </node>
            <node concept="3x8VRR" id="2YiES7i1xxG" role="2OqNvi" />
          </node>
        </node>
      </node>
    </node>
  </node>
  <node concept="3_zdsH" id="h$pILEj">
    <property role="3GE5qa" value="_obsolete" />
    <ref role="3_znuS" to="tpd4:h7JHHhJ" resolve="MultipleForeachLoop" />
    <node concept="3__wT9" id="h$pILEk" role="3_A6iZ">
      <node concept="3clFbS" id="h$pILEl" role="2VODD2">
        <node concept="1DcWWT" id="h$pIO$9" role="3cqZAp">
          <node concept="2OqwBi" id="h$pIQ0L" role="1DdaDG">
            <node concept="3__QtB" id="h$pIPSW" role="2Oq$k0" />
            <node concept="3Tsc0h" id="h$pISag" role="2OqNvi">
              <ref role="3TtcxE" to="tpd4:h7JIe2B" />
            </node>
          </node>
          <node concept="3cpWsn" id="h$pIO$b" role="1Duv9x">
            <property role="TrG5h" value="variable" />
            <node concept="3Tqbb2" id="h$pIUf$" role="1tU5fm">
              <ref role="ehGHo" to="tpd4:h7JHPUg" resolve="MultipleForeachLoopVariable" />
            </node>
          </node>
          <node concept="3clFbS" id="h$pIO$d" role="2LFqv$">
            <node concept="3AgYrR" id="h$pIY8B" role="3cqZAp">
              <node concept="2OqwBi" id="h$pIYIw" role="3Ah4Yx">
                <node concept="37vLTw" id="3GM_nagTw7X" role="2Oq$k0">
                  <ref role="3cqZAo" node="h$pIO$b" resolve="variable" />
                </node>
                <node concept="3TrEf2" id="h$pIZv7" role="2OqNvi">
                  <ref role="3Tt5mk" to="tpd4:h7JI2T5" />
                </node>
              </node>
            </node>
          </node>
        </node>
        <node concept="axUMO" id="h$pJ04w" role="3cqZAp">
          <property role="TrG5h" value="condition" />
        </node>
        <node concept="3_J$rt" id="h$pJ8E_" role="3cqZAp">
          <node concept="3_IKw2" id="h$pJ8Xb" role="3_JbIs">
            <node concept="3__QtB" id="h$pJ9gv" role="3_I9Fq" />
          </node>
        </node>
        <node concept="1DcWWT" id="h$pJdN$" role="3cqZAp">
          <node concept="2OqwBi" id="h$pJdN_" role="1DdaDG">
            <node concept="3__QtB" id="h$pJdNA" role="2Oq$k0" />
            <node concept="3Tsc0h" id="h$pJdNB" role="2OqNvi">
              <ref role="3TtcxE" to="tpd4:h7JIe2B" />
            </node>
          </node>
          <node concept="3cpWsn" id="h$pJdNC" role="1Duv9x">
            <property role="TrG5h" value="variable" />
            <node concept="3Tqbb2" id="h$pJdND" role="1tU5fm">
              <ref role="ehGHo" to="tpd4:h7JHPUg" resolve="MultipleForeachLoopVariable" />
            </node>
          </node>
          <node concept="3clFbS" id="h$pJdNE" role="2LFqv$">
            <node concept="3_FXB6" id="h$pJfiW" role="3cqZAp">
              <node concept="2OqwBi" id="h$pJfPb" role="3_H1SZ">
                <node concept="37vLTw" id="3GM_nagTw2O" role="2Oq$k0">
                  <ref role="3cqZAo" node="h$pJdNC" resolve="variable" />
                </node>
                <node concept="3TrEf2" id="h$pJghx" role="2OqNvi">
                  <ref role="3Tt5mk" to="tpd4:h7JHZdu" />
                </node>
              </node>
            </node>
          </node>
        </node>
        <node concept="3AgYrR" id="h$pJjx5" role="3cqZAp">
          <node concept="2OqwBi" id="h$pJk4L" role="3Ah4Yx">
            <node concept="3__QtB" id="h$pJjPo" role="2Oq$k0" />
            <node concept="3TrEf2" id="h$pJkdP" role="2OqNvi">
              <ref role="3Tt5mk" to="tpee:gMLFqrC" />
            </node>
          </node>
        </node>
        <node concept="3F2QtG" id="h$pMf14" role="3cqZAp">
          <node concept="3_JC1X" id="h$pMf15" role="3F2SoO">
            <node concept="ayLgZ" id="h$pMf16" role="3_JbIs">
              <ref role="ayMZ1" node="h$pJ04w" resolve="condition" />
            </node>
          </node>
        </node>
      </node>
    </node>
  </node>
  <node concept="3_zdsH" id="5zzawu2Jc_X">
    <property role="3GE5qa" value="definition.rule" />
    <ref role="3_znuS" to="tpd4:5zzawu2JakE" resolve="SubstituteTypeRule" />
    <node concept="3__wT9" id="5zzawu2Jc_Y" role="3_A6iZ">
      <node concept="3clFbS" id="5zzawu2Jc_Z" role="2VODD2">
        <node concept="3AgYrR" id="6mxDMAOj9K5" role="3cqZAp">
          <node concept="2OqwBi" id="6mxDMAOj9PV" role="3Ah4Yx">
            <node concept="3__QtB" id="6mxDMAOj9Mz" role="2Oq$k0" />
            <node concept="3TrEf2" id="6mxDMAOjalB" role="2OqNvi">
              <ref role="3Tt5mk" to="tpd4:h5YuTL0" />
            </node>
          </node>
        </node>
        <node concept="3AgYrR" id="6mxDMAOjamT" role="3cqZAp">
          <node concept="2OqwBi" id="6mxDMAOjamU" role="3Ah4Yx">
            <node concept="3__QtB" id="6mxDMAOjamW" role="2Oq$k0" />
            <node concept="3TrEf2" id="6mxDMAOjdrO" role="2OqNvi">
              <ref role="3Tt5mk" to="tpd4:6mxDMAOhqV0" />
            </node>
          </node>
        </node>
      </node>
    </node>
  </node>
</model>

