<?xml version="1.0" encoding="UTF-8"?>
<model ref="r:00000000-0000-4000-0000-011c895902b2(jetbrains.mps.lang.typesystem.intentions)">
  <persistence version="9" />
  <languages>
    <use id="83888646-71ce-4f1c-9c53-c54016f6ad4f" name="jetbrains.mps.baseLanguage.collections" version="0" />
    <use id="aee9cad2-acd4-4608-aef2-0004f6a1cdbd" name="jetbrains.mps.lang.actions" version="0" />
    <use id="d7a92d38-f7db-40d0-8431-763b0c3c9f20" name="jetbrains.mps.lang.intentions" version="0" />
    <use id="3a13115c-633c-4c5c-bbcc-75c4219e9555" name="jetbrains.mps.lang.quotation" version="0" />
    <use id="13744753-c81f-424a-9c1b-cf8943bf4e86" name="jetbrains.mps.lang.sharedConcepts" version="0" />
    <use id="7866978e-a0f0-4cc7-81bc-4d213d9375e1" name="jetbrains.mps.lang.smodel" version="4" />
    <use id="f3061a53-9226-4cc5-a443-f952ceaf5816" name="jetbrains.mps.baseLanguage" version="4" />
    <devkit ref="fbc25dd2-5da4-483a-8b19-70928e1b62d7(jetbrains.mps.devkit.general-purpose)" />
  </languages>
  <imports>
    <import index="tpd4" ref="r:00000000-0000-4000-0000-011c895902b4(jetbrains.mps.lang.typesystem.structure)" />
    <import index="tpck" ref="r:00000000-0000-4000-0000-011c89590288(jetbrains.mps.lang.core.structure)" />
    <import index="tp2q" ref="r:00000000-0000-4000-0000-011c8959032e(jetbrains.mps.baseLanguage.collections.structure)" />
    <import index="tpee" ref="r:00000000-0000-4000-0000-011c895902ca(jetbrains.mps.baseLanguage.structure)" />
    <import index="kz9k" ref="1ed103c3-3aa6-49b7-9c21-6765ee11f224/java:jetbrains.mps.openapi.navigation(MPS.Editor/)" />
    <import index="cj4x" ref="1ed103c3-3aa6-49b7-9c21-6765ee11f224/java:jetbrains.mps.openapi.editor(MPS.Editor/)" />
    <import index="unno" ref="r:61e3d524-8c49-4491-b5e3-f6d6e9364527(jetbrains.mps.util)" />
  </imports>
  <registry>
    <language id="f3061a53-9226-4cc5-a443-f952ceaf5816" name="jetbrains.mps.baseLanguage">
      <concept id="1082485599095" name="jetbrains.mps.baseLanguage.structure.BlockStatement" flags="nn" index="9aQIb">
        <child id="1082485599096" name="statements" index="9aQI4" />
      </concept>
      <concept id="1215693861676" name="jetbrains.mps.baseLanguage.structure.BaseAssignmentExpression" flags="nn" index="d038R">
        <child id="1068498886297" name="rValue" index="37vLTx" />
        <child id="1068498886295" name="lValue" index="37vLTJ" />
      </concept>
      <concept id="4836112446988635817" name="jetbrains.mps.baseLanguage.structure.UndefinedType" flags="in" index="2jxLKc" />
      <concept id="1154032098014" name="jetbrains.mps.baseLanguage.structure.AbstractLoopStatement" flags="nn" index="2LF5Ji">
        <child id="1154032183016" name="body" index="2LFqv$" />
      </concept>
      <concept id="1197027756228" name="jetbrains.mps.baseLanguage.structure.DotExpression" flags="nn" index="2OqwBi">
        <child id="1197027771414" name="operand" index="2Oq$k0" />
        <child id="1197027833540" name="operation" index="2OqNvi" />
      </concept>
      <concept id="1145552977093" name="jetbrains.mps.baseLanguage.structure.GenericNewExpression" flags="nn" index="2ShNRf">
        <child id="1145553007750" name="creator" index="2ShVmc" />
      </concept>
      <concept id="1137021947720" name="jetbrains.mps.baseLanguage.structure.ConceptFunction" flags="in" index="2VMwT0">
        <child id="1137022507850" name="body" index="2VODD2" />
      </concept>
      <concept id="1070475926800" name="jetbrains.mps.baseLanguage.structure.StringLiteral" flags="nn" index="Xl_RD">
        <property id="1070475926801" name="value" index="Xl_RC" />
      </concept>
      <concept id="1068431474542" name="jetbrains.mps.baseLanguage.structure.VariableDeclaration" flags="ng" index="33uBYm">
        <child id="1068431790190" name="initializer" index="33vP2m" />
      </concept>
      <concept id="1068431790191" name="jetbrains.mps.baseLanguage.structure.Expression" flags="nn" index="33vP2n" />
      <concept id="1068498886296" name="jetbrains.mps.baseLanguage.structure.VariableReference" flags="nn" index="37vLTw">
        <reference id="1068581517664" name="variableDeclaration" index="3cqZAo" />
      </concept>
      <concept id="1068498886294" name="jetbrains.mps.baseLanguage.structure.AssignmentExpression" flags="nn" index="37vLTI" />
      <concept id="4972933694980447171" name="jetbrains.mps.baseLanguage.structure.BaseVariableDeclaration" flags="ng" index="19Szcq">
        <child id="5680397130376446158" name="type" index="1tU5fm" />
      </concept>
      <concept id="1068580123155" name="jetbrains.mps.baseLanguage.structure.ExpressionStatement" flags="nn" index="3clFbF">
        <child id="1068580123156" name="expression" index="3clFbG" />
      </concept>
      <concept id="1068580123157" name="jetbrains.mps.baseLanguage.structure.Statement" flags="nn" index="3clFbH" />
      <concept id="1068580123159" name="jetbrains.mps.baseLanguage.structure.IfStatement" flags="nn" index="3clFbJ">
        <child id="1082485599094" name="ifFalseStatement" index="9aQIa" />
        <child id="1068580123160" name="condition" index="3clFbw" />
        <child id="1068580123161" name="ifTrue" index="3clFbx" />
        <child id="1206060520071" name="elsifClauses" index="3eNLev" />
      </concept>
      <concept id="1068580123136" name="jetbrains.mps.baseLanguage.structure.StatementList" flags="sn" stub="5293379017992965193" index="3clFbS">
        <child id="1068581517665" name="statement" index="3cqZAp" />
      </concept>
      <concept id="1068581242878" name="jetbrains.mps.baseLanguage.structure.ReturnStatement" flags="nn" index="3cpWs6">
        <child id="1068581517676" name="expression" index="3cqZAk" />
      </concept>
      <concept id="1068581242864" name="jetbrains.mps.baseLanguage.structure.LocalVariableDeclarationStatement" flags="nn" index="3cpWs8">
        <child id="1068581242865" name="localVariableDeclaration" index="3cpWs9" />
      </concept>
      <concept id="1068581242863" name="jetbrains.mps.baseLanguage.structure.LocalVariableDeclaration" flags="nr" index="3cpWsn" />
      <concept id="1206060495898" name="jetbrains.mps.baseLanguage.structure.ElsifClause" flags="ng" index="3eNFk2">
        <child id="1206060619838" name="condition" index="3eO9$A" />
        <child id="1206060644605" name="statementList" index="3eOfB_" />
      </concept>
      <concept id="1081516740877" name="jetbrains.mps.baseLanguage.structure.NotExpression" flags="nn" index="3fqX7Q">
        <child id="1081516765348" name="expression" index="3fr31v" />
      </concept>
    </language>
    <language id="fd392034-7849-419d-9071-12563d152375" name="jetbrains.mps.baseLanguage.closures">
      <concept id="1199569711397" name="jetbrains.mps.baseLanguage.closures.structure.ClosureLiteral" flags="nn" index="1bVj0M">
        <child id="1199569906740" name="parameter" index="1bW2Oz" />
        <child id="1199569916463" name="body" index="1bW5cS" />
      </concept>
    </language>
    <language id="d7a92d38-f7db-40d0-8431-763b0c3c9f20" name="jetbrains.mps.lang.intentions">
      <concept id="1192794744107" name="jetbrains.mps.lang.intentions.structure.IntentionDeclaration" flags="ig" index="2S6QgY" />
      <concept id="1192794782375" name="jetbrains.mps.lang.intentions.structure.DescriptionBlock" flags="in" index="2S6ZIM" />
      <concept id="1192795771125" name="jetbrains.mps.lang.intentions.structure.IsApplicableBlock" flags="in" index="2SaL7w" />
      <concept id="1192795911897" name="jetbrains.mps.lang.intentions.structure.ExecuteBlock" flags="in" index="2Sbjvc" />
      <concept id="1192796902958" name="jetbrains.mps.lang.intentions.structure.ConceptFunctionParameter_node" flags="nn" index="2Sf5sV" />
      <concept id="2522969319638091381" name="jetbrains.mps.lang.intentions.structure.BaseIntentionDeclaration" flags="ig" index="2ZfUlf">
        <property id="2522969319638091386" name="isAvailableInChildNodes" index="2ZfUl0" />
        <property id="2522969319638091385" name="isErrorIntention" index="2ZfUl3" />
        <reference id="2522969319638198290" name="forConcept" index="2ZfgGC" />
        <child id="2522969319638198291" name="executeFunction" index="2ZfgGD" />
        <child id="2522969319638093995" name="isApplicableFunction" index="2ZfVeh" />
        <child id="2522969319638093993" name="descriptionFunction" index="2ZfVej" />
      </concept>
    </language>
    <language id="3a13115c-633c-4c5c-bbcc-75c4219e9555" name="jetbrains.mps.lang.quotation">
      <concept id="1196350785110" name="jetbrains.mps.lang.quotation.structure.AbstractAntiquotation" flags="ng" index="2c44t0">
        <property id="6489343236075007666" name="label" index="3hQQBS" />
        <child id="1196350785111" name="expression" index="2c44t1" />
      </concept>
      <concept id="1196350785118" name="jetbrains.mps.lang.quotation.structure.ListAntiquotation" flags="ng" index="2c44t8" />
      <concept id="1196350785117" name="jetbrains.mps.lang.quotation.structure.ReferenceAntiquotation" flags="ng" index="2c44tb" />
      <concept id="1196350785112" name="jetbrains.mps.lang.quotation.structure.Antiquotation" flags="ng" index="2c44te" />
      <concept id="1196350785113" name="jetbrains.mps.lang.quotation.structure.Quotation" flags="nn" index="2c44tf">
        <child id="1196350785114" name="quotedNode" index="2c44tc" />
      </concept>
      <concept id="5455284157994012186" name="jetbrains.mps.lang.quotation.structure.NodeBuilderInitLink" flags="ng" index="2pIpSj">
        <reference id="5455284157994012188" name="link" index="2pIpSl" />
      </concept>
      <concept id="5455284157993911077" name="jetbrains.mps.lang.quotation.structure.NodeBuilderInitProperty" flags="ng" index="2pJxcG">
        <reference id="5455284157993911078" name="property" index="2pJxcJ" />
      </concept>
      <concept id="5455284157993911097" name="jetbrains.mps.lang.quotation.structure.NodeBuilderInitPart" flags="ng" index="2pJxcK">
        <child id="5455284157993911094" name="expression" index="2pJxcZ" />
      </concept>
      <concept id="5455284157993863837" name="jetbrains.mps.lang.quotation.structure.NodeBuilder" flags="nn" index="2pJPEk">
        <child id="5455284157993863838" name="quotedNode" index="2pJPEn" />
      </concept>
      <concept id="5455284157993863840" name="jetbrains.mps.lang.quotation.structure.NodeBuilderNode" flags="nn" index="2pJPED">
        <reference id="5455284157993910961" name="concept" index="2pJxaS" />
        <child id="5455284157993911099" name="values" index="2pJxcM" />
      </concept>
      <concept id="1196866233735" name="jetbrains.mps.lang.quotation.structure.PropertyAntiquotation" flags="ng" index="2EMmih" />
      <concept id="8182547171709752110" name="jetbrains.mps.lang.quotation.structure.NodeBuilderExpression" flags="nn" index="36biLy">
        <child id="8182547171709752112" name="expression" index="36biLW" />
      </concept>
    </language>
    <language id="aee9cad2-acd4-4608-aef2-0004f6a1cdbd" name="jetbrains.mps.lang.actions">
      <concept id="5979988948250981289" name="jetbrains.mps.lang.actions.structure.SNodeCreatorAndInitializer" flags="nn" index="2fJWfE" />
    </language>
    <language id="7866978e-a0f0-4cc7-81bc-4d213d9375e1" name="jetbrains.mps.lang.smodel">
      <concept id="1179168000618" name="jetbrains.mps.lang.smodel.structure.Node_GetIndexInParentOperation" flags="nn" index="2bSWHS" />
      <concept id="1177026924588" name="jetbrains.mps.lang.smodel.structure.RefConcept_Reference" flags="nn" index="chp4Y">
        <reference id="1177026940964" name="conceptDeclaration" index="cht4Q" />
      </concept>
      <concept id="1138411891628" name="jetbrains.mps.lang.smodel.structure.SNodeOperation" flags="nn" index="eCIE_">
        <child id="1144104376918" name="parameter" index="1xVPHs" />
      </concept>
      <concept id="1138661924179" name="jetbrains.mps.lang.smodel.structure.Property_SetOperation" flags="nn" index="tyxLq">
        <child id="1138662048170" name="value" index="tz02z" />
      </concept>
      <concept id="2396822768958367367" name="jetbrains.mps.lang.smodel.structure.AbstractTypeCastExpression" flags="nn" index="$5XWr">
        <reference id="6733348108486823428" name="concept" index="1m5ApE" />
        <child id="6733348108486823193" name="leftExpression" index="1m5AlR" />
      </concept>
      <concept id="1143234257716" name="jetbrains.mps.lang.smodel.structure.Node_GetModelOperation" flags="nn" index="I4A8Y" />
      <concept id="1171305280644" name="jetbrains.mps.lang.smodel.structure.Node_GetDescendantsOperation" flags="nn" index="2Rf3mk" />
      <concept id="1139613262185" name="jetbrains.mps.lang.smodel.structure.Node_GetParentOperation" flags="nn" index="1mfA1w" />
      <concept id="1139621453865" name="jetbrains.mps.lang.smodel.structure.Node_IsInstanceOfOperation" flags="nn" index="1mIQ4w">
        <child id="1177027386292" name="conceptArgument" index="cj9EA" />
      </concept>
      <concept id="1144101972840" name="jetbrains.mps.lang.smodel.structure.OperationParm_Concept" flags="ng" index="1xMEDy">
        <child id="1207343664468" name="conceptArgument" index="ri$Ld" />
      </concept>
      <concept id="1180636770613" name="jetbrains.mps.lang.smodel.structure.SNodeCreator" flags="nn" index="3zrR0B">
        <child id="1180636770616" name="createdType" index="3zrR0E" />
      </concept>
      <concept id="1144146199828" name="jetbrains.mps.lang.smodel.structure.Node_CopyOperation" flags="nn" index="1$rogu" />
      <concept id="1206482823744" name="jetbrains.mps.lang.smodel.structure.Model_AddRootOperation" flags="nn" index="3BYIHo">
        <child id="1206482823746" name="nodeArgument" index="3BYIHq" />
      </concept>
      <concept id="1140131837776" name="jetbrains.mps.lang.smodel.structure.Node_ReplaceWithAnotherOperation" flags="nn" index="1P9Npp">
        <child id="1140131861877" name="replacementNode" index="1P9ThW" />
      </concept>
      <concept id="1140137987495" name="jetbrains.mps.lang.smodel.structure.SNodeTypeCastExpression" flags="nn" index="1PxgMI" />
      <concept id="1138055754698" name="jetbrains.mps.lang.smodel.structure.SNodeType" flags="in" index="3Tqbb2">
        <reference id="1138405853777" name="concept" index="ehGHo" />
      </concept>
      <concept id="1138056022639" name="jetbrains.mps.lang.smodel.structure.SPropertyAccess" flags="nn" index="3TrcHB">
        <reference id="1138056395725" name="property" index="3TsBF5" />
      </concept>
      <concept id="1138056143562" name="jetbrains.mps.lang.smodel.structure.SLinkAccess" flags="nn" index="3TrEf2">
        <reference id="1138056516764" name="link" index="3Tt5mk" />
      </concept>
      <concept id="1138056282393" name="jetbrains.mps.lang.smodel.structure.SLinkListAccess" flags="nn" index="3Tsc0h">
        <reference id="1138056546658" name="link" index="3TtcxE" />
      </concept>
    </language>
    <language id="ceab5195-25ea-4f22-9b92-103b95ca8c0c" name="jetbrains.mps.lang.core">
      <concept id="1133920641626" name="jetbrains.mps.lang.core.structure.BaseConcept" flags="ng" index="2VYdi">
        <property id="1193676396447" name="virtualPackage" index="3GE5qa" />
        <child id="5169995583184591170" name="smodelAttribute" index="lGtFl" />
      </concept>
      <concept id="3364660638048049750" name="jetbrains.mps.lang.core.structure.PropertyAttribute" flags="ng" index="A9Btg">
        <property id="1757699476691236117" name="propertyName" index="2qtEX9" />
        <property id="1341860900487648621" name="propertyId" index="P4ACc" />
      </concept>
      <concept id="3364660638048049745" name="jetbrains.mps.lang.core.structure.LinkAttribute" flags="ng" index="A9Btn">
        <property id="1757699476691236116" name="linkRole" index="2qtEX8" />
        <property id="1341860900488019036" name="linkId" index="P3scX" />
      </concept>
      <concept id="1169194658468" name="jetbrains.mps.lang.core.structure.INamedConcept" flags="ng" index="TrEIO">
        <property id="1169194664001" name="name" index="TrG5h" />
      </concept>
    </language>
    <language id="83888646-71ce-4f1c-9c53-c54016f6ad4f" name="jetbrains.mps.baseLanguage.collections">
      <concept id="1204796164442" name="jetbrains.mps.baseLanguage.collections.structure.InternalSequenceOperation" flags="nn" index="23sCx2">
        <child id="1204796294226" name="closure" index="23t8la" />
      </concept>
      <concept id="540871147943773365" name="jetbrains.mps.baseLanguage.collections.structure.SingleArgumentSequenceOperation" flags="nn" index="25WWJ4">
        <child id="540871147943773366" name="argument" index="25WWJ7" />
      </concept>
      <concept id="1204980550705" name="jetbrains.mps.baseLanguage.collections.structure.VisitAllOperation" flags="nn" index="2es0OD" />
      <concept id="1151688443754" name="jetbrains.mps.baseLanguage.collections.structure.ListType" flags="in" index="_YKpA">
        <child id="1151688676805" name="elementType" index="_ZDj9" />
      </concept>
      <concept id="1151702311717" name="jetbrains.mps.baseLanguage.collections.structure.ToListOperation" flags="nn" index="ANE8D" />
      <concept id="1203518072036" name="jetbrains.mps.baseLanguage.collections.structure.SmartClosureParameterDeclaration" flags="ig" index="Rh6nW" />
      <concept id="1160612413312" name="jetbrains.mps.baseLanguage.collections.structure.AddElementOperation" flags="nn" index="TSZUe" />
      <concept id="1160666733551" name="jetbrains.mps.baseLanguage.collections.structure.AddAllElementsOperation" flags="nn" index="X8dFx" />
      <concept id="1165530316231" name="jetbrains.mps.baseLanguage.collections.structure.IsEmptyOperation" flags="nn" index="1v1jN8" />
      <concept id="1225711141656" name="jetbrains.mps.baseLanguage.collections.structure.ListElementAccessExpression" flags="nn" index="1y4W85">
        <child id="1225711182005" name="list" index="1y566C" />
        <child id="1225711191269" name="index" index="1y58nS" />
      </concept>
      <concept id="1202120902084" name="jetbrains.mps.baseLanguage.collections.structure.WhereOperation" flags="nn" index="3zZkjj" />
      <concept id="1202128969694" name="jetbrains.mps.baseLanguage.collections.structure.SelectOperation" flags="nn" index="3$u5V9" />
      <concept id="9042586985346099698" name="jetbrains.mps.baseLanguage.collections.structure.MultiForEachStatement" flags="nn" index="1_o_46">
        <child id="9042586985346099734" name="forEach" index="1_o_by" />
      </concept>
      <concept id="9042586985346099733" name="jetbrains.mps.baseLanguage.collections.structure.MultiForEachPair" flags="ng" index="1_o_bx">
        <child id="9042586985346099778" name="variable" index="1_o_aQ" />
        <child id="9042586985346099735" name="input" index="1_o_bz" />
      </concept>
      <concept id="9042586985346099736" name="jetbrains.mps.baseLanguage.collections.structure.MultiForEachVariable" flags="ng" index="1_o_bG" />
      <concept id="1172254888721" name="jetbrains.mps.baseLanguage.collections.structure.ContainsOperation" flags="nn" index="3JPx81" />
      <concept id="8293956702609956630" name="jetbrains.mps.baseLanguage.collections.structure.MultiForEachVariableReference" flags="nn" index="3M$PaV" />
    </language>
  </registry>
  <node concept="2S6QgY" id="2Rjnwer$k2t">
    <property role="2ZfUl0" value="true" />
    <property role="TrG5h" value="CreateTypesystemIntention" />
    <property role="3GE5qa" value="definition.statement" />
    <ref role="2ZfgGC" to="tpd4:hQOEHw2" resolve="MessageStatement" />
    <node concept="2S6ZIM" id="2Rjnwer$k2u" role="2ZfVej">
      <node concept="3clFbS" id="2Rjnwer$k2v" role="2VODD2">
        <node concept="3clFbF" id="2Rjnwer$mBV" role="3cqZAp">
          <node concept="Xl_RD" id="2Rjnwer$mBW" role="3clFbG">
            <property role="Xl_RC" value="Create New QuickFix" />
          </node>
        </node>
      </node>
    </node>
    <node concept="2Sbjvc" id="2Rjnwer$k2w" role="2ZfgGD">
      <node concept="3clFbS" id="2Rjnwer$k2x" role="2VODD2">
        <node concept="3cpWs8" id="2Rjnwer$mCM" role="3cqZAp">
          <node concept="3cpWsn" id="2Rjnwer$mCN" role="3cpWs9">
            <property role="TrG5h" value="quickFixNode" />
            <node concept="3Tqbb2" id="2Rjnwer$mCO" role="1tU5fm">
              <ref role="ehGHo" to="tpd4:hGQ5zx_" resolve="TypesystemQuickFix" />
            </node>
            <node concept="2pJPEk" id="1crrmiqZGj0" role="33vP2m">
              <node concept="2pJPED" id="1crrmiqZGiT" role="2pJPEn">
                <ref role="2pJxaS" to="tpd4:hGQ5zx_" resolve="TypesystemQuickFix" />
                <node concept="2pJxcG" id="1crrmiqZGiU" role="2pJxcM">
                  <ref role="2pJxcJ" to="tpck:h0TrG11" resolve="name" />
                  <node concept="Xl_RD" id="1crrmiqZGiV" role="2pJxcZ">
                    <property role="Xl_RC" value="fix_" />
                  </node>
                </node>
                <node concept="2pIpSj" id="1crrmiqZGiZ" role="2pJxcM">
                  <ref role="2pIpSl" to="tpd4:hGQ6xwQ" />
                  <node concept="2pJPED" id="1crrmiqZGiW" role="2pJxcZ">
                    <ref role="2pJxaS" to="tpd4:hGQ5ZVt" resolve="QuickFixExecuteBlock" />
                    <node concept="2pIpSj" id="1crrmiqZGiY" role="2pJxcM">
                      <ref role="2pIpSl" to="tpee:gyVODHa" />
                      <node concept="2pJPED" id="1crrmiqZGiX" role="2pJxcZ">
                        <ref role="2pJxaS" to="tpee:fzclF80" resolve="StatementList" />
                      </node>
                    </node>
                  </node>
                </node>
              </node>
            </node>
          </node>
        </node>
        <node concept="3clFbH" id="2Rjnwer$mDs" role="3cqZAp" />
        <node concept="3cpWs8" id="2Rjnwer$mDj" role="3cqZAp">
          <node concept="3cpWsn" id="2Rjnwer$mDk" role="3cpWs9">
            <property role="TrG5h" value="quickFixCall" />
            <node concept="3Tqbb2" id="2Rjnwer$mDl" role="1tU5fm">
              <ref role="ehGHo" to="tpd4:hBCnwce" resolve="TypesystemIntention" />
            </node>
            <node concept="2pJPEk" id="1crrmiqZGCL" role="33vP2m">
              <node concept="2pJPED" id="1crrmiqZGCI" role="2pJPEn">
                <ref role="2pJxaS" to="tpd4:hBCnwce" resolve="TypesystemIntention" />
                <node concept="2pIpSj" id="1crrmiqZGCJ" role="2pJxcM">
                  <ref role="2pIpSl" to="tpd4:hGQpYLV" />
                  <node concept="36biLy" id="1crrmiqZGCK" role="2pJxcZ">
                    <node concept="37vLTw" id="3GM_nagT_5y" role="36biLW">
                      <ref role="3cqZAo" node="2Rjnwer$mCN" resolve="quickFixNode" />
                    </node>
                  </node>
                </node>
              </node>
            </node>
          </node>
        </node>
        <node concept="3clFbH" id="2Rjnwer$mDr" role="3cqZAp" />
        <node concept="3clFbF" id="2Rjnwer$mCC" role="3cqZAp">
          <node concept="2OqwBi" id="2Rjnwer$mCD" role="3clFbG">
            <node concept="2OqwBi" id="2Rjnwer$mCE" role="2Oq$k0">
              <node concept="2Sf5sV" id="2Rjnwer$mCF" role="2Oq$k0" />
              <node concept="I4A8Y" id="2Rjnwer$mCG" role="2OqNvi" />
            </node>
            <node concept="3BYIHo" id="2Rjnwer$mCH" role="2OqNvi">
              <node concept="37vLTw" id="3GM_nagTsPA" role="3BYIHq">
                <ref role="3cqZAo" node="2Rjnwer$mCN" resolve="quickFixNode" />
              </node>
            </node>
          </node>
        </node>
        <node concept="3clFbF" id="2Rjnwer$mCi" role="3cqZAp">
          <node concept="2OqwBi" id="2Rjnwer$mCp" role="3clFbG">
            <node concept="2OqwBi" id="2Rjnwer$mCk" role="2Oq$k0">
              <node concept="2Sf5sV" id="2Rjnwer$mCj" role="2Oq$k0" />
              <node concept="3Tsc0h" id="23iYu8Ex5pc" role="2OqNvi">
                <ref role="3TtcxE" to="tpd4:hQOEOnB" />
              </node>
            </node>
            <node concept="TSZUe" id="23iYu8Ex5pd" role="2OqNvi">
              <node concept="37vLTw" id="3GM_nagTBdQ" role="25WWJ7">
                <ref role="3cqZAo" node="2Rjnwer$mDk" resolve="quickFixCall" />
              </node>
            </node>
          </node>
        </node>
      </node>
    </node>
    <node concept="2SaL7w" id="2Rjnwer$mB9" role="2ZfVeh">
      <node concept="3clFbS" id="2Rjnwer$mBa" role="2VODD2">
        <node concept="3cpWs6" id="2Rjnwer$mB_" role="3cqZAp">
          <node concept="2OqwBi" id="23iYu8Ex5p0" role="3cqZAk">
            <node concept="2OqwBi" id="2Rjnwer$mBK" role="2Oq$k0">
              <node concept="2Sf5sV" id="2Rjnwer$mBL" role="2Oq$k0" />
              <node concept="3Tsc0h" id="23iYu8Ex5p7" role="2OqNvi">
                <ref role="3TtcxE" to="tpd4:hQOEOnB" />
              </node>
            </node>
            <node concept="1v1jN8" id="23iYu8Ex5p8" role="2OqNvi" />
          </node>
        </node>
      </node>
    </node>
  </node>
  <node concept="2S6QgY" id="5VHjC1$djWn">
    <property role="2ZfUl0" value="true" />
    <property role="TrG5h" value="FlipInequality" />
    <property role="3GE5qa" value="definition.statement" />
    <ref role="2ZfgGC" to="tpd4:hCOb1gi" resolve="AbstractInequationStatement" />
    <node concept="2S6ZIM" id="5VHjC1$djWo" role="2ZfVej">
      <node concept="3clFbS" id="5VHjC1$djWp" role="2VODD2">
        <node concept="3clFbF" id="5VHjC1$d$fT" role="3cqZAp">
          <node concept="Xl_RD" id="5VHjC1$d$fU" role="3clFbG">
            <property role="Xl_RC" value="Flip Inequality" />
          </node>
        </node>
      </node>
    </node>
    <node concept="2Sbjvc" id="5VHjC1$djWq" role="2ZfgGD">
      <node concept="3clFbS" id="5VHjC1$djWr" role="2VODD2">
        <node concept="3cpWs8" id="5VHjC1$d$gC" role="3cqZAp">
          <node concept="3cpWsn" id="5VHjC1$d$gD" role="3cpWs9">
            <property role="TrG5h" value="newNode" />
            <node concept="3Tqbb2" id="5VHjC1$d$gE" role="1tU5fm">
              <ref role="ehGHo" to="tpd4:hCOb1gi" resolve="AbstractInequationStatement" />
            </node>
          </node>
        </node>
        <node concept="3clFbJ" id="5VHjC1$d$go" role="3cqZAp">
          <node concept="3clFbS" id="5VHjC1$d$gp" role="3clFbx">
            <node concept="3clFbF" id="5VHjC1$d$gH" role="3cqZAp">
              <node concept="37vLTI" id="5VHjC1$d$gJ" role="3clFbG">
                <node concept="2ShNRf" id="5VHjC1$d$gM" role="37vLTx">
                  <node concept="2fJWfE" id="5wUAOoBBfli" role="2ShVmc">
                    <node concept="3Tqbb2" id="5wUAOoBBflj" role="3zrR0E">
                      <ref role="ehGHo" to="tpd4:h5ZobZl" resolve="CreateLessThanInequationStatement" />
                    </node>
                  </node>
                </node>
                <node concept="37vLTw" id="3GM_nagTybw" role="37vLTJ">
                  <ref role="3cqZAo" node="5VHjC1$d$gD" resolve="newNode" />
                </node>
              </node>
            </node>
          </node>
          <node concept="2OqwBi" id="5VHjC1$d$gt" role="3clFbw">
            <node concept="2Sf5sV" id="5VHjC1$d$gs" role="2Oq$k0" />
            <node concept="1mIQ4w" id="5VHjC1$d$gx" role="2OqNvi">
              <node concept="chp4Y" id="5VHjC1$d$gG" role="cj9EA">
                <ref role="cht4Q" to="tpd4:h5ZoDlG" resolve="CreateGreaterThanInequationStatement" />
              </node>
            </node>
          </node>
          <node concept="3eNFk2" id="5VHjC1$d$gQ" role="3eNLev">
            <node concept="3clFbS" id="5VHjC1$d$gS" role="3eOfB_">
              <node concept="3clFbF" id="5VHjC1$d$gX" role="3cqZAp">
                <node concept="37vLTI" id="5VHjC1$d$gY" role="3clFbG">
                  <node concept="2ShNRf" id="5VHjC1$d$gZ" role="37vLTx">
                    <node concept="2fJWfE" id="5wUAOoBBfnE" role="2ShVmc">
                      <node concept="3Tqbb2" id="5wUAOoBBfnF" role="3zrR0E">
                        <ref role="ehGHo" to="tpd4:h5ZoDlG" resolve="CreateGreaterThanInequationStatement" />
                      </node>
                    </node>
                  </node>
                  <node concept="37vLTw" id="3GM_nagT$Or" role="37vLTJ">
                    <ref role="3cqZAo" node="5VHjC1$d$gD" resolve="newNode" />
                  </node>
                </node>
              </node>
            </node>
            <node concept="2OqwBi" id="5VHjC1$d$gT" role="3eO9$A">
              <node concept="2Sf5sV" id="5VHjC1$d$gU" role="2Oq$k0" />
              <node concept="1mIQ4w" id="5VHjC1$d$gV" role="2OqNvi">
                <node concept="chp4Y" id="5VHjC1$d$h3" role="cj9EA">
                  <ref role="cht4Q" to="tpd4:h5ZobZl" resolve="CreateLessThanInequationStatement" />
                </node>
              </node>
            </node>
          </node>
          <node concept="3eNFk2" id="37365KnCgKS" role="3eNLev">
            <node concept="3clFbS" id="37365KnCgKU" role="3eOfB_">
              <node concept="3clFbF" id="37365KnClHc" role="3cqZAp">
                <node concept="37vLTI" id="37365KnClHd" role="3clFbG">
                  <node concept="2ShNRf" id="37365KnClHe" role="37vLTx">
                    <node concept="2fJWfE" id="5wUAOoBBflk" role="2ShVmc">
                      <node concept="3Tqbb2" id="5wUAOoBBfll" role="3zrR0E">
                        <ref role="ehGHo" to="tpd4:haNvLHI" resolve="CreateStrongLessThanInequationStatement" />
                      </node>
                    </node>
                  </node>
                  <node concept="37vLTw" id="3GM_nagTBkX" role="37vLTJ">
                    <ref role="3cqZAo" node="5VHjC1$d$gD" resolve="newNode" />
                  </node>
                </node>
              </node>
            </node>
            <node concept="2OqwBi" id="37365KnClH2" role="3eO9$A">
              <node concept="2Sf5sV" id="37365KnClH3" role="2Oq$k0" />
              <node concept="1mIQ4w" id="37365KnClH4" role="2OqNvi">
                <node concept="chp4Y" id="37365KnClHa" role="cj9EA">
                  <ref role="cht4Q" to="tpd4:37365KnCftB" resolve="CreateStrongGreaterThanInequationStatement" />
                </node>
              </node>
            </node>
          </node>
          <node concept="3eNFk2" id="37365KnCgKW" role="3eNLev">
            <node concept="3clFbS" id="37365KnCgKY" role="3eOfB_">
              <node concept="3clFbF" id="37365KnClHi" role="3cqZAp">
                <node concept="37vLTI" id="37365KnClHj" role="3clFbG">
                  <node concept="2ShNRf" id="37365KnClHk" role="37vLTx">
                    <node concept="2fJWfE" id="5wUAOoBBfmg" role="2ShVmc">
                      <node concept="3Tqbb2" id="5wUAOoBBfmh" role="3zrR0E">
                        <ref role="ehGHo" to="tpd4:37365KnCftB" resolve="CreateStrongGreaterThanInequationStatement" />
                      </node>
                    </node>
                  </node>
                  <node concept="37vLTw" id="3GM_nagTzFW" role="37vLTJ">
                    <ref role="3cqZAo" node="5VHjC1$d$gD" resolve="newNode" />
                  </node>
                </node>
              </node>
            </node>
            <node concept="2OqwBi" id="37365KnClH6" role="3eO9$A">
              <node concept="2Sf5sV" id="37365KnClH7" role="2Oq$k0" />
              <node concept="1mIQ4w" id="37365KnClH8" role="2OqNvi">
                <node concept="chp4Y" id="37365KnClHb" role="cj9EA">
                  <ref role="cht4Q" to="tpd4:haNvLHI" resolve="CreateStrongLessThanInequationStatement" />
                </node>
              </node>
            </node>
          </node>
          <node concept="9aQIb" id="37365KnCgKZ" role="9aQIa">
            <node concept="3clFbS" id="37365KnCgL0" role="9aQI4">
              <node concept="3cpWs6" id="37365KnClH1" role="3cqZAp" />
            </node>
          </node>
        </node>
        <node concept="3clFbF" id="5VHjC1$d$h8" role="3cqZAp">
          <node concept="37vLTI" id="5VHjC1$d$hf" role="3clFbG">
            <node concept="2OqwBi" id="5VHjC1$d$hj" role="37vLTx">
              <node concept="2Sf5sV" id="5VHjC1$d$hi" role="2Oq$k0" />
              <node concept="3TrEf2" id="5VHjC1$d$hn" role="2OqNvi">
                <ref role="3Tt5mk" to="tpd4:h5ZfhOP" />
              </node>
            </node>
            <node concept="2OqwBi" id="5VHjC1$d$ha" role="37vLTJ">
              <node concept="37vLTw" id="3GM_nagT$4$" role="2Oq$k0">
                <ref role="3cqZAo" node="5VHjC1$d$gD" resolve="newNode" />
              </node>
              <node concept="3TrEf2" id="5VHjC1$d$he" role="2OqNvi">
                <ref role="3Tt5mk" to="tpd4:h5ZfhOQ" />
              </node>
            </node>
          </node>
        </node>
        <node concept="3clFbF" id="5VHjC1$d$ho" role="3cqZAp">
          <node concept="37vLTI" id="5VHjC1$d$hp" role="3clFbG">
            <node concept="2OqwBi" id="5VHjC1$d$hq" role="37vLTx">
              <node concept="2Sf5sV" id="5VHjC1$d$hr" role="2Oq$k0" />
              <node concept="3TrEf2" id="5VHjC1$d$hx" role="2OqNvi">
                <ref role="3Tt5mk" to="tpd4:h5ZfhOQ" />
              </node>
            </node>
            <node concept="2OqwBi" id="5VHjC1$d$ht" role="37vLTJ">
              <node concept="37vLTw" id="3GM_nagTA5r" role="2Oq$k0">
                <ref role="3cqZAo" node="5VHjC1$d$gD" resolve="newNode" />
              </node>
              <node concept="3TrEf2" id="5VHjC1$d$hw" role="2OqNvi">
                <ref role="3Tt5mk" to="tpd4:h5ZfhOP" />
              </node>
            </node>
          </node>
        </node>
        <node concept="3clFbF" id="5VHjC1$d$hN" role="3cqZAp">
          <node concept="2OqwBi" id="5VHjC1$d$ii" role="3clFbG">
            <node concept="2OqwBi" id="5VHjC1$d$hW" role="2Oq$k0">
              <node concept="37vLTw" id="3GM_nagTwjB" role="2Oq$k0">
                <ref role="3cqZAo" node="5VHjC1$d$gD" resolve="newNode" />
              </node>
              <node concept="3Tsc0h" id="5VHjC1$d$i0" role="2OqNvi">
                <ref role="3TtcxE" to="tpd4:49g6ijgJo$d" />
              </node>
            </node>
            <node concept="X8dFx" id="5VHjC1$d$im" role="2OqNvi">
              <node concept="2OqwBi" id="5VHjC1$d$ip" role="25WWJ7">
                <node concept="2Sf5sV" id="5VHjC1$d$io" role="2Oq$k0" />
                <node concept="3Tsc0h" id="5VHjC1$d$it" role="2OqNvi">
                  <ref role="3TtcxE" to="tpd4:49g6ijgJo$d" />
                </node>
              </node>
            </node>
          </node>
        </node>
        <node concept="3clFbF" id="5VHjC1$d$hQ" role="3cqZAp">
          <node concept="2OqwBi" id="5VHjC1$d$i6" role="3clFbG">
            <node concept="2OqwBi" id="5VHjC1$d$i1" role="2Oq$k0">
              <node concept="37vLTw" id="3GM_nagTr7Z" role="2Oq$k0">
                <ref role="3cqZAo" node="5VHjC1$d$gD" resolve="newNode" />
              </node>
              <node concept="3Tsc0h" id="5VHjC1$d$i5" role="2OqNvi">
                <ref role="3TtcxE" to="tpd4:19k7_WyABmY" />
              </node>
            </node>
            <node concept="X8dFx" id="5VHjC1$d$ia" role="2OqNvi">
              <node concept="2OqwBi" id="5VHjC1$d$id" role="25WWJ7">
                <node concept="2Sf5sV" id="5VHjC1$d$ic" role="2Oq$k0" />
                <node concept="3Tsc0h" id="5VHjC1$d$ih" role="2OqNvi">
                  <ref role="3TtcxE" to="tpd4:19k7_WyABmY" />
                </node>
              </node>
            </node>
          </node>
        </node>
        <node concept="3clFbF" id="5VHjC1$d$hT" role="3cqZAp">
          <node concept="2OqwBi" id="5VHjC1$d$iz" role="3clFbG">
            <node concept="2OqwBi" id="5VHjC1$d$iu" role="2Oq$k0">
              <node concept="37vLTw" id="3GM_nagTtYX" role="2Oq$k0">
                <ref role="3cqZAo" node="5VHjC1$d$gD" resolve="newNode" />
              </node>
              <node concept="3Tsc0h" id="5VHjC1$d$iy" role="2OqNvi">
                <ref role="3TtcxE" to="tpd4:49g6ijgJo$e" />
              </node>
            </node>
            <node concept="X8dFx" id="5VHjC1$d$iB" role="2OqNvi">
              <node concept="2OqwBi" id="5VHjC1$d$iE" role="25WWJ7">
                <node concept="2Sf5sV" id="5VHjC1$d$iD" role="2Oq$k0" />
                <node concept="3Tsc0h" id="5VHjC1$d$iI" role="2OqNvi">
                  <ref role="3TtcxE" to="tpd4:49g6ijgJo$e" />
                </node>
              </node>
            </node>
          </node>
        </node>
        <node concept="3clFbF" id="5VHjC1$dBCk" role="3cqZAp">
          <node concept="2OqwBi" id="5VHjC1$dBCl" role="3clFbG">
            <node concept="2OqwBi" id="5VHjC1$dBCm" role="2Oq$k0">
              <node concept="37vLTw" id="3GM_nagTsJ4" role="2Oq$k0">
                <ref role="3cqZAo" node="5VHjC1$d$gD" resolve="newNode" />
              </node>
              <node concept="3Tsc0h" id="5VHjC1$dBCt" role="2OqNvi">
                <ref role="3TtcxE" to="tpd4:19k7_WyABmZ" />
              </node>
            </node>
            <node concept="X8dFx" id="5VHjC1$dBCp" role="2OqNvi">
              <node concept="2OqwBi" id="5VHjC1$dBCq" role="25WWJ7">
                <node concept="2Sf5sV" id="5VHjC1$dBCr" role="2Oq$k0" />
                <node concept="3Tsc0h" id="5VHjC1$dBCu" role="2OqNvi">
                  <ref role="3TtcxE" to="tpd4:19k7_WyABmZ" />
                </node>
              </node>
            </node>
          </node>
        </node>
        <node concept="3clFbF" id="5VHjC1$dBCv" role="3cqZAp">
          <node concept="37vLTI" id="5VHjC1$dBCA" role="3clFbG">
            <node concept="2OqwBi" id="5VHjC1$dBCE" role="37vLTx">
              <node concept="2Sf5sV" id="5VHjC1$dBCD" role="2Oq$k0" />
              <node concept="3TrcHB" id="5VHjC1$dBCI" role="2OqNvi">
                <ref role="3TsBF5" to="tpd4:hzwDh6w" resolve="checkOnly" />
              </node>
            </node>
            <node concept="2OqwBi" id="5VHjC1$dBCx" role="37vLTJ">
              <node concept="37vLTw" id="3GM_nagTy3A" role="2Oq$k0">
                <ref role="3cqZAo" node="5VHjC1$d$gD" resolve="newNode" />
              </node>
              <node concept="3TrcHB" id="5VHjC1$dBC_" role="2OqNvi">
                <ref role="3TsBF5" to="tpd4:hzwDh6w" resolve="checkOnly" />
              </node>
            </node>
          </node>
        </node>
        <node concept="3clFbF" id="5VHjC1$dBCK" role="3cqZAp">
          <node concept="37vLTI" id="5VHjC1$dBCR" role="3clFbG">
            <node concept="2OqwBi" id="5VHjC1$dBCV" role="37vLTx">
              <node concept="2Sf5sV" id="5VHjC1$dBCU" role="2Oq$k0" />
              <node concept="3TrEf2" id="5VHjC1$dBCZ" role="2OqNvi">
                <ref role="3Tt5mk" to="tpd4:hbo8Qrg" />
              </node>
            </node>
            <node concept="2OqwBi" id="5VHjC1$dBCM" role="37vLTJ">
              <node concept="37vLTw" id="3GM_nagTykf" role="2Oq$k0">
                <ref role="3cqZAo" node="5VHjC1$d$gD" resolve="newNode" />
              </node>
              <node concept="3TrEf2" id="5VHjC1$dBCQ" role="2OqNvi">
                <ref role="3Tt5mk" to="tpd4:hbo8Qrg" />
              </node>
            </node>
          </node>
        </node>
        <node concept="3clFbF" id="5VHjC1$dBD5" role="3cqZAp">
          <node concept="2OqwBi" id="23iYu8ExKgp" role="3clFbG">
            <node concept="2OqwBi" id="5VHjC1$dBDa" role="2Oq$k0">
              <node concept="37vLTw" id="3GM_nagTxMC" role="2Oq$k0">
                <ref role="3cqZAo" node="5VHjC1$d$gD" resolve="newNode" />
              </node>
              <node concept="3Tsc0h" id="23iYu8ExKgu" role="2OqNvi">
                <ref role="3TtcxE" to="tpd4:hGFrUIT" />
              </node>
            </node>
            <node concept="X8dFx" id="23iYu8ExKgv" role="2OqNvi">
              <node concept="2OqwBi" id="23iYu8ExKhW" role="25WWJ7">
                <node concept="2Sf5sV" id="23iYu8ExKhV" role="2Oq$k0" />
                <node concept="3Tsc0h" id="23iYu8ExKi0" role="2OqNvi">
                  <ref role="3TtcxE" to="tpd4:hGFrUIT" />
                </node>
              </node>
            </node>
          </node>
        </node>
        <node concept="3clFbF" id="5VHjC1$dBDd" role="3cqZAp">
          <node concept="37vLTI" id="5VHjC1$dBDe" role="3clFbG">
            <node concept="2OqwBi" id="5VHjC1$dBDf" role="37vLTx">
              <node concept="2Sf5sV" id="5VHjC1$dBDg" role="2Oq$k0" />
              <node concept="3TrEf2" id="5VHjC1$dBDn" role="2OqNvi">
                <ref role="3Tt5mk" to="tpd4:19k7_WyAGVv" />
              </node>
            </node>
            <node concept="2OqwBi" id="5VHjC1$dBDi" role="37vLTJ">
              <node concept="37vLTw" id="3GM_nagTubb" role="2Oq$k0">
                <ref role="3cqZAo" node="5VHjC1$d$gD" resolve="newNode" />
              </node>
              <node concept="3TrEf2" id="5VHjC1$dBDo" role="2OqNvi">
                <ref role="3Tt5mk" to="tpd4:19k7_WyAGVv" />
              </node>
            </node>
          </node>
        </node>
        <node concept="3clFbF" id="5VHjC1$dBDp" role="3cqZAp">
          <node concept="37vLTI" id="5VHjC1$dBDq" role="3clFbG">
            <node concept="2OqwBi" id="5VHjC1$dBDr" role="37vLTx">
              <node concept="2Sf5sV" id="5VHjC1$dBDs" role="2Oq$k0" />
              <node concept="3TrcHB" id="5VHjC1$dBDy" role="2OqNvi">
                <ref role="3TsBF5" to="tpd4:hCOb7dq" resolve="inequationPriority" />
              </node>
            </node>
            <node concept="2OqwBi" id="5VHjC1$dBDu" role="37vLTJ">
              <node concept="37vLTw" id="3GM_nagTxrB" role="2Oq$k0">
                <ref role="3cqZAo" node="5VHjC1$d$gD" resolve="newNode" />
              </node>
              <node concept="3TrcHB" id="5VHjC1$dBDx" role="2OqNvi">
                <ref role="3TsBF5" to="tpd4:hCOb7dq" resolve="inequationPriority" />
              </node>
            </node>
          </node>
        </node>
        <node concept="3clFbF" id="5VHjC1$dBDI" role="3cqZAp">
          <node concept="37vLTI" id="5VHjC1$dBDP" role="3clFbG">
            <node concept="2OqwBi" id="5VHjC1$dBDT" role="37vLTx">
              <node concept="2Sf5sV" id="5VHjC1$dBDS" role="2Oq$k0" />
              <node concept="3TrcHB" id="5VHjC1$dBDX" role="2OqNvi">
                <ref role="3TsBF5" to="tpd4:49g6ijgJmi1" resolve="label" />
              </node>
            </node>
            <node concept="2OqwBi" id="5VHjC1$dBDK" role="37vLTJ">
              <node concept="37vLTw" id="3GM_nagTvMz" role="2Oq$k0">
                <ref role="3cqZAo" node="5VHjC1$d$gD" resolve="newNode" />
              </node>
              <node concept="3TrcHB" id="5VHjC1$dBDO" role="2OqNvi">
                <ref role="3TsBF5" to="tpd4:49g6ijgJmi1" resolve="label" />
              </node>
            </node>
          </node>
        </node>
        <node concept="3clFbF" id="5VHjC1$dBDZ" role="3cqZAp">
          <node concept="37vLTI" id="5VHjC1$dBE6" role="3clFbG">
            <node concept="2OqwBi" id="5VHjC1$dBEa" role="37vLTx">
              <node concept="2Sf5sV" id="5VHjC1$dBE9" role="2Oq$k0" />
              <node concept="3TrEf2" id="5VHjC1$dBEe" role="2OqNvi">
                <ref role="3Tt5mk" to="tpd4:h5ZmcYp" />
              </node>
            </node>
            <node concept="2OqwBi" id="5VHjC1$dBE1" role="37vLTJ">
              <node concept="37vLTw" id="3GM_nagTrJa" role="2Oq$k0">
                <ref role="3cqZAo" node="5VHjC1$d$gD" resolve="newNode" />
              </node>
              <node concept="3TrEf2" id="5VHjC1$dBE5" role="2OqNvi">
                <ref role="3Tt5mk" to="tpd4:h5ZmcYp" />
              </node>
            </node>
          </node>
        </node>
        <node concept="3clFbF" id="5VHjC1$dBEg" role="3cqZAp">
          <node concept="2OqwBi" id="5VHjC1$dBEn" role="3clFbG">
            <node concept="2OqwBi" id="5VHjC1$dBEi" role="2Oq$k0">
              <node concept="37vLTw" id="3GM_nagTAES" role="2Oq$k0">
                <ref role="3cqZAo" node="5VHjC1$d$gD" resolve="newNode" />
              </node>
              <node concept="3Tsc0h" id="5VHjC1$dBEm" role="2OqNvi">
                <ref role="3TtcxE" to="tpd4:4NZHKx96Bdk" />
              </node>
            </node>
            <node concept="X8dFx" id="5VHjC1$dBEr" role="2OqNvi">
              <node concept="2OqwBi" id="5VHjC1$dBEu" role="25WWJ7">
                <node concept="2Sf5sV" id="5VHjC1$dBEt" role="2Oq$k0" />
                <node concept="3Tsc0h" id="5VHjC1$dBEy" role="2OqNvi">
                  <ref role="3TtcxE" to="tpd4:4NZHKx96Bdk" />
                </node>
              </node>
            </node>
          </node>
        </node>
        <node concept="3clFbF" id="5VHjC1$dCVg" role="3cqZAp">
          <node concept="2OqwBi" id="5VHjC1$dCVi" role="3clFbG">
            <node concept="2Sf5sV" id="5VHjC1$dCVh" role="2Oq$k0" />
            <node concept="1P9Npp" id="5VHjC1$dCVm" role="2OqNvi">
              <node concept="37vLTw" id="3GM_nagTwJk" role="1P9ThW">
                <ref role="3cqZAo" node="5VHjC1$d$gD" resolve="newNode" />
              </node>
            </node>
          </node>
        </node>
      </node>
    </node>
  </node>
  <node concept="2S6QgY" id="5VHjC1$dI7q">
    <property role="2ZfUl0" value="true" />
    <property role="TrG5h" value="MakeInequalityCheckOnly" />
    <ref role="2ZfgGC" to="tpd4:hCOb1gi" resolve="AbstractInequationStatement" />
    <node concept="2S6ZIM" id="5VHjC1$dI7r" role="2ZfVej">
      <node concept="3clFbS" id="5VHjC1$dI7s" role="2VODD2">
        <node concept="3clFbJ" id="5VHjC1$dI7v" role="3cqZAp">
          <node concept="2OqwBi" id="5VHjC1$dI7z" role="3clFbw">
            <node concept="2Sf5sV" id="5VHjC1$dI7y" role="2Oq$k0" />
            <node concept="3TrcHB" id="5VHjC1$dI7B" role="2OqNvi">
              <ref role="3TsBF5" to="tpd4:hzwDh6w" resolve="checkOnly" />
            </node>
          </node>
          <node concept="3clFbS" id="5VHjC1$dI7x" role="3clFbx">
            <node concept="3cpWs6" id="5VHjC1$dI7F" role="3cqZAp">
              <node concept="Xl_RD" id="5VHjC1$dI7G" role="3cqZAk">
                <property role="Xl_RC" value="Make Inequality Not Check Only " />
              </node>
            </node>
          </node>
          <node concept="9aQIb" id="5VHjC1$dI7H" role="9aQIa">
            <node concept="3clFbS" id="5VHjC1$dI7I" role="9aQI4">
              <node concept="3cpWs6" id="5VHjC1$dI7J" role="3cqZAp">
                <node concept="Xl_RD" id="5VHjC1$dI7K" role="3cqZAk">
                  <property role="Xl_RC" value="Make Inequality Check Only " />
                </node>
              </node>
            </node>
          </node>
        </node>
      </node>
    </node>
    <node concept="2Sbjvc" id="5VHjC1$dI7t" role="2ZfgGD">
      <node concept="3clFbS" id="5VHjC1$dI7u" role="2VODD2">
        <node concept="3clFbF" id="5VHjC1$dI7L" role="3cqZAp">
          <node concept="2OqwBi" id="5VHjC1$dI7V" role="3clFbG">
            <node concept="2OqwBi" id="5VHjC1$dI7N" role="2Oq$k0">
              <node concept="2Sf5sV" id="5VHjC1$dI7M" role="2Oq$k0" />
              <node concept="3TrcHB" id="5VHjC1$dI7R" role="2OqNvi">
                <ref role="3TsBF5" to="tpd4:hzwDh6w" resolve="checkOnly" />
              </node>
            </node>
            <node concept="tyxLq" id="5VHjC1$dI7Z" role="2OqNvi">
              <node concept="3fqX7Q" id="5VHjC1$dI81" role="tz02z">
                <node concept="2OqwBi" id="5VHjC1$dI84" role="3fr31v">
                  <node concept="2Sf5sV" id="5VHjC1$dI83" role="2Oq$k0" />
                  <node concept="3TrcHB" id="5VHjC1$dI88" role="2OqNvi">
                    <ref role="3TsBF5" to="tpd4:hzwDh6w" resolve="checkOnly" />
                  </node>
                </node>
              </node>
            </node>
          </node>
        </node>
      </node>
    </node>
  </node>
  <node concept="2S6QgY" id="7cq3qQ1_bjX">
    <property role="2ZfUl3" value="true" />
    <property role="TrG5h" value="MultiForeachLoop_replaceWith_MultiForEachStatement" />
    <property role="3GE5qa" value="_obsolete" />
    <ref role="2ZfgGC" to="tpd4:h7JHHhJ" resolve="MultipleForeachLoop" />
    <node concept="2S6ZIM" id="7cq3qQ1_bjY" role="2ZfVej">
      <node concept="3clFbS" id="7cq3qQ1_bjZ" role="2VODD2">
        <node concept="3clFbF" id="7cq3qQ1_d$o" role="3cqZAp">
          <node concept="Xl_RD" id="7cq3qQ1_d$p" role="3clFbG">
            <property role="Xl_RC" value="Replace with foreach from collections language" />
          </node>
        </node>
      </node>
    </node>
    <node concept="2Sbjvc" id="7cq3qQ1_bk0" role="2ZfgGD">
      <node concept="3clFbS" id="7cq3qQ1_bk1" role="2VODD2">
        <node concept="3cpWs8" id="7cq3qQ1_dNB" role="3cqZAp">
          <node concept="3cpWsn" id="7cq3qQ1_dNC" role="3cpWs9">
            <property role="TrG5h" value="mfps" />
            <node concept="_YKpA" id="7cq3qQ1_dND" role="1tU5fm">
              <node concept="3Tqbb2" id="7cq3qQ1_dNE" role="_ZDj9">
                <ref role="ehGHo" to="tp2q:7PXIfgo7YCl" resolve="MultiForEachPair" />
              </node>
            </node>
            <node concept="2OqwBi" id="7cq3qQ1_dNF" role="33vP2m">
              <node concept="2OqwBi" id="7cq3qQ1_dNG" role="2Oq$k0">
                <node concept="2OqwBi" id="7cq3qQ1_dNH" role="2Oq$k0">
                  <node concept="2Sf5sV" id="7cq3qQ1_dNI" role="2Oq$k0" />
                  <node concept="3Tsc0h" id="7cq3qQ1_dNJ" role="2OqNvi">
                    <ref role="3TtcxE" to="tpd4:h7JIe2B" />
                  </node>
                </node>
                <node concept="3$u5V9" id="7cq3qQ1_dNK" role="2OqNvi">
                  <node concept="1bVj0M" id="7cq3qQ1_dNL" role="23t8la">
                    <node concept="3clFbS" id="7cq3qQ1_dNM" role="1bW5cS">
                      <node concept="3clFbF" id="7cq3qQ1_dNN" role="3cqZAp">
                        <node concept="2c44tf" id="7cq3qQ1_dNO" role="3clFbG">
                          <node concept="1_o_bx" id="7cq3qQ1_dNP" role="2c44tc">
                            <node concept="1_o_bG" id="7cq3qQ1_dNQ" role="1_o_aQ">
                              <node concept="2EMmih" id="7cq3qQ1_dNR" role="lGtFl">
                                <property role="2qtEX9" value="name" />
                                <property role="3hQQBS" value="MultiForEachVariable" />
                                <property role="P4ACc" value="ceab5195-25ea-4f22-9b92-103b95ca8c0c/1169194658468/1169194664001" />
                                <node concept="2OqwBi" id="7cq3qQ1_dNS" role="2c44t1">
                                  <node concept="2OqwBi" id="7cq3qQ1_dNT" role="2Oq$k0">
                                    <node concept="37vLTw" id="2BHiRxgm8Rl" role="2Oq$k0">
                                      <ref role="3cqZAo" node="7cq3qQ1_dO4" resolve="lv" />
                                    </node>
                                    <node concept="3TrEf2" id="7cq3qQ1_dNV" role="2OqNvi">
                                      <ref role="3Tt5mk" to="tpd4:h7JHZdu" />
                                    </node>
                                  </node>
                                  <node concept="3TrcHB" id="7cq3qQ1_dNW" role="2OqNvi">
                                    <ref role="3TsBF5" to="tpck:h0TrG11" resolve="name" />
                                  </node>
                                </node>
                              </node>
                            </node>
                            <node concept="33vP2n" id="7cq3qQ1_dNX" role="1_o_bz">
                              <node concept="2c44te" id="7cq3qQ1_dNY" role="lGtFl">
                                <node concept="2OqwBi" id="7cq3qQ1_dNZ" role="2c44t1">
                                  <node concept="2OqwBi" id="7cq3qQ1_dO0" role="2Oq$k0">
                                    <node concept="37vLTw" id="2BHiRxgm7JE" role="2Oq$k0">
                                      <ref role="3cqZAo" node="7cq3qQ1_dO4" resolve="lv" />
                                    </node>
                                    <node concept="3TrEf2" id="7cq3qQ1_dO2" role="2OqNvi">
                                      <ref role="3Tt5mk" to="tpd4:h7JI2T5" />
                                    </node>
                                  </node>
                                  <node concept="1$rogu" id="7cq3qQ1_dO3" role="2OqNvi" />
                                </node>
                              </node>
                            </node>
                          </node>
                        </node>
                      </node>
                    </node>
                    <node concept="Rh6nW" id="7cq3qQ1_dO4" role="1bW2Oz">
                      <property role="TrG5h" value="lv" />
                      <node concept="2jxLKc" id="7cq3qQ1_dO5" role="1tU5fm" />
                    </node>
                  </node>
                </node>
              </node>
              <node concept="ANE8D" id="7cq3qQ1_dO6" role="2OqNvi" />
            </node>
          </node>
        </node>
        <node concept="3cpWs8" id="7cq3qQ1_dO_" role="3cqZAp">
          <node concept="3cpWsn" id="7cq3qQ1_dOA" role="3cpWs9">
            <property role="TrG5h" value="mfs" />
            <node concept="3Tqbb2" id="7cq3qQ1_dOB" role="1tU5fm">
              <ref role="ehGHo" to="tp2q:7PXIfgo7YBM" resolve="MultiForEachStatement" />
            </node>
            <node concept="2OqwBi" id="7cq3qQ1_dOC" role="33vP2m">
              <node concept="2Sf5sV" id="7cq3qQ1_dOD" role="2Oq$k0" />
              <node concept="1P9Npp" id="7cq3qQ1_dOE" role="2OqNvi">
                <node concept="2c44tf" id="7cq3qQ1_dOF" role="1P9ThW">
                  <node concept="1_o_46" id="7cq3qQ1_dOG" role="2c44tc">
                    <node concept="1_o_bx" id="7cq3qQ1_dOH" role="1_o_by">
                      <node concept="1_o_bG" id="7cq3qQ1_dOI" role="1_o_aQ" />
                      <node concept="33vP2n" id="7cq3qQ1_dOJ" role="1_o_bz" />
                      <node concept="2c44t8" id="7cq3qQ1_dOK" role="lGtFl">
                        <node concept="37vLTw" id="3GM_nagTzAU" role="2c44t1">
                          <ref role="3cqZAo" node="7cq3qQ1_dNC" resolve="mfps" />
                        </node>
                      </node>
                    </node>
                    <node concept="3clFbS" id="7cq3qQ1_dOM" role="2LFqv$">
                      <node concept="2c44te" id="7cq3qQ1_dON" role="lGtFl">
                        <node concept="2OqwBi" id="7cq3qQ1_dOO" role="2c44t1">
                          <node concept="2OqwBi" id="7cq3qQ1_dOP" role="2Oq$k0">
                            <node concept="2Sf5sV" id="7cq3qQ1_dOQ" role="2Oq$k0" />
                            <node concept="3TrEf2" id="7cq3qQ1_dOR" role="2OqNvi">
                              <ref role="3Tt5mk" to="tpee:gMLFqrC" />
                            </node>
                          </node>
                          <node concept="1$rogu" id="7cq3qQ1_dOS" role="2OqNvi" />
                        </node>
                      </node>
                    </node>
                  </node>
                </node>
              </node>
            </node>
          </node>
        </node>
        <node concept="3cpWs8" id="7cq3qQ1_dQe" role="3cqZAp">
          <node concept="3cpWsn" id="7cq3qQ1_dQf" role="3cpWs9">
            <property role="TrG5h" value="lvs" />
            <node concept="_YKpA" id="7cq3qQ1_dQg" role="1tU5fm">
              <node concept="3Tqbb2" id="7cq3qQ1_dQh" role="_ZDj9">
                <ref role="ehGHo" to="tpee:fzcpWvJ" resolve="LocalVariableDeclaration" />
              </node>
            </node>
            <node concept="2OqwBi" id="7cq3qQ1_dQi" role="33vP2m">
              <node concept="2OqwBi" id="7cq3qQ1_dQj" role="2Oq$k0">
                <node concept="2OqwBi" id="7cq3qQ1_dQk" role="2Oq$k0">
                  <node concept="2Sf5sV" id="7cq3qQ1_dQl" role="2Oq$k0" />
                  <node concept="3Tsc0h" id="7cq3qQ1_dQm" role="2OqNvi">
                    <ref role="3TtcxE" to="tpd4:h7JIe2B" />
                  </node>
                </node>
                <node concept="3$u5V9" id="7cq3qQ1_dQn" role="2OqNvi">
                  <node concept="1bVj0M" id="7cq3qQ1_dQo" role="23t8la">
                    <node concept="3clFbS" id="7cq3qQ1_dQp" role="1bW5cS">
                      <node concept="3clFbF" id="7cq3qQ1_dQq" role="3cqZAp">
                        <node concept="2OqwBi" id="7cq3qQ1_dQr" role="3clFbG">
                          <node concept="37vLTw" id="2BHiRxghfz4" role="2Oq$k0">
                            <ref role="3cqZAo" node="7cq3qQ1_dQu" resolve="lv" />
                          </node>
                          <node concept="3TrEf2" id="7cq3qQ1_dQt" role="2OqNvi">
                            <ref role="3Tt5mk" to="tpd4:h7JHZdu" />
                          </node>
                        </node>
                      </node>
                    </node>
                    <node concept="Rh6nW" id="7cq3qQ1_dQu" role="1bW2Oz">
                      <property role="TrG5h" value="lv" />
                      <node concept="2jxLKc" id="7cq3qQ1_dQv" role="1tU5fm" />
                    </node>
                  </node>
                </node>
              </node>
              <node concept="ANE8D" id="7cq3qQ1_dQw" role="2OqNvi" />
            </node>
          </node>
        </node>
        <node concept="3clFbF" id="7cq3qQ1_dOV" role="3cqZAp">
          <node concept="2OqwBi" id="7cq3qQ1_dQP" role="3clFbG">
            <node concept="2OqwBi" id="7cq3qQ1_dQJ" role="2Oq$k0">
              <node concept="2OqwBi" id="7cq3qQ1_dPk" role="2Oq$k0">
                <node concept="2OqwBi" id="AVI$K8_ZPx" role="2Oq$k0">
                  <node concept="2OqwBi" id="AVI$K8_ZPy" role="2Oq$k0">
                    <node concept="2OqwBi" id="AVI$K8_ZPz" role="2Oq$k0">
                      <node concept="37vLTw" id="3GM_nagTurI" role="2Oq$k0">
                        <ref role="3cqZAo" node="7cq3qQ1_dOA" resolve="mfs" />
                      </node>
                      <node concept="2Rf3mk" id="AVI$K8_ZP_" role="2OqNvi">
                        <node concept="1xMEDy" id="AVI$K8_ZPA" role="1xVPHs">
                          <node concept="chp4Y" id="AVI$K8_ZPB" role="ri$Ld">
                            <ref role="cht4Q" to="tpee:fz7vLUo" resolve="VariableReference" />
                          </node>
                        </node>
                      </node>
                    </node>
                    <node concept="3zZkjj" id="AVI$K8_ZPC" role="2OqNvi">
                      <node concept="1bVj0M" id="AVI$K8_ZPD" role="23t8la">
                        <node concept="3clFbS" id="AVI$K8_ZPE" role="1bW5cS">
                          <node concept="3clFbF" id="AVI$K8_ZPF" role="3cqZAp">
                            <node concept="2OqwBi" id="AVI$K8_ZPG" role="3clFbG">
                              <node concept="2OqwBi" id="AVI$K8_ZPH" role="2Oq$k0">
                                <node concept="1PxgMI" id="AVI$K8_ZPI" role="2Oq$k0">
                                  <ref role="1m5ApE" to="tpee:fz7vLUo" resolve="VariableReference" />
                                  <node concept="37vLTw" id="AVI$K8_ZPJ" role="1m5AlR">
                                    <ref role="3cqZAo" node="AVI$K8_ZPN" resolve="it" />
                                  </node>
                                </node>
                                <node concept="3TrEf2" id="AVI$K8_ZPK" role="2OqNvi">
                                  <ref role="3Tt5mk" to="tpee:fzcqZ_w" />
                                </node>
                              </node>
                              <node concept="1mIQ4w" id="AVI$K8_ZPL" role="2OqNvi">
                                <node concept="chp4Y" id="AVI$K8_ZPM" role="cj9EA">
                                  <ref role="cht4Q" to="tpee:fzcpWvJ" resolve="LocalVariableDeclaration" />
                                </node>
                              </node>
                            </node>
                          </node>
                        </node>
                        <node concept="Rh6nW" id="AVI$K8_ZPN" role="1bW2Oz">
                          <property role="TrG5h" value="it" />
                          <node concept="2jxLKc" id="AVI$K8_ZPO" role="1tU5fm" />
                        </node>
                      </node>
                    </node>
                  </node>
                  <node concept="ANE8D" id="AVI$K8_ZPP" role="2OqNvi" />
                </node>
                <node concept="3zZkjj" id="7cq3qQ1_dPo" role="2OqNvi">
                  <node concept="1bVj0M" id="7cq3qQ1_dPp" role="23t8la">
                    <node concept="3clFbS" id="7cq3qQ1_dPq" role="1bW5cS">
                      <node concept="3clFbF" id="7cq3qQ1_dPt" role="3cqZAp">
                        <node concept="2OqwBi" id="7cq3qQ1_dQy" role="3clFbG">
                          <node concept="37vLTw" id="3GM_nagTuJe" role="2Oq$k0">
                            <ref role="3cqZAo" node="7cq3qQ1_dQf" resolve="lvs" />
                          </node>
                          <node concept="3JPx81" id="7cq3qQ1_dQA" role="2OqNvi">
                            <node concept="1PxgMI" id="AVI$K8_ZQV" role="25WWJ7">
                              <ref role="1m5ApE" to="tpee:fzcpWvJ" resolve="LocalVariableDeclaration" />
                              <node concept="2OqwBi" id="7cq3qQ1_dQD" role="1m5AlR">
                                <node concept="37vLTw" id="2BHiRxgkWAW" role="2Oq$k0">
                                  <ref role="3cqZAo" node="7cq3qQ1_dPr" resolve="lvr" />
                                </node>
                                <node concept="3TrEf2" id="7cq3qQ1_dQH" role="2OqNvi">
                                  <ref role="3Tt5mk" to="tpee:fzcqZ_w" />
                                </node>
                              </node>
                            </node>
                          </node>
                        </node>
                      </node>
                    </node>
                    <node concept="Rh6nW" id="7cq3qQ1_dPr" role="1bW2Oz">
                      <property role="TrG5h" value="lvr" />
                      <node concept="2jxLKc" id="7cq3qQ1_dPs" role="1tU5fm" />
                    </node>
                  </node>
                </node>
              </node>
              <node concept="ANE8D" id="7cq3qQ1_dQN" role="2OqNvi" />
            </node>
            <node concept="2es0OD" id="7cq3qQ1_dQT" role="2OqNvi">
              <node concept="1bVj0M" id="7cq3qQ1_dQU" role="23t8la">
                <node concept="3clFbS" id="7cq3qQ1_dQV" role="1bW5cS">
                  <node concept="3clFbF" id="7cq3qQ1_dQY" role="3cqZAp">
                    <node concept="2OqwBi" id="7cq3qQ1_dR0" role="3clFbG">
                      <node concept="37vLTw" id="2BHiRxgl1zu" role="2Oq$k0">
                        <ref role="3cqZAo" node="7cq3qQ1_dQW" resolve="lvr" />
                      </node>
                      <node concept="1P9Npp" id="7cq3qQ1_dR4" role="2OqNvi">
                        <node concept="2c44tf" id="7cq3qQ1_dR6" role="1P9ThW">
                          <node concept="3M$PaV" id="7cq3qQ1_dRc" role="2c44tc">
                            <node concept="2c44tb" id="7cq3qQ1_dRd" role="lGtFl">
                              <property role="2qtEX8" value="variable" />
                              <property role="3hQQBS" value="MultiForEachVariableReference" />
                              <property role="P3scX" value="83888646-71ce-4f1c-9c53-c54016f6ad4f/8293956702609956630/8293956702609966325" />
                              <node concept="2OqwBi" id="7cq3qQ1_dRn" role="2c44t1">
                                <node concept="1y4W85" id="7cq3qQ1_dRk" role="2Oq$k0">
                                  <node concept="2OqwBi" id="7cq3qQ1_dRE" role="1y58nS">
                                    <node concept="2OqwBi" id="7cq3qQ1_dRy" role="2Oq$k0">
                                      <node concept="2OqwBi" id="7cq3qQ1_dRt" role="2Oq$k0">
                                        <node concept="37vLTw" id="2BHiRxgmE68" role="2Oq$k0">
                                          <ref role="3cqZAo" node="7cq3qQ1_dQW" resolve="lvr" />
                                        </node>
                                        <node concept="3TrEf2" id="7cq3qQ1_dRx" role="2OqNvi">
                                          <ref role="3Tt5mk" to="tpee:fzcqZ_w" />
                                        </node>
                                      </node>
                                      <node concept="1mfA1w" id="7cq3qQ1_dRA" role="2OqNvi" />
                                    </node>
                                    <node concept="2bSWHS" id="7cq3qQ1_dRI" role="2OqNvi" />
                                  </node>
                                  <node concept="37vLTw" id="3GM_nagTt$7" role="1y566C">
                                    <ref role="3cqZAo" node="7cq3qQ1_dNC" resolve="mfps" />
                                  </node>
                                </node>
                                <node concept="3TrEf2" id="7cq3qQ1_dRr" role="2OqNvi">
                                  <ref role="3Tt5mk" to="tp2q:7PXIfgo7YD2" />
                                </node>
                              </node>
                            </node>
                          </node>
                        </node>
                      </node>
                    </node>
                  </node>
                </node>
                <node concept="Rh6nW" id="7cq3qQ1_dQW" role="1bW2Oz">
                  <property role="TrG5h" value="lvr" />
                  <node concept="2jxLKc" id="7cq3qQ1_dQX" role="1tU5fm" />
                </node>
              </node>
            </node>
          </node>
        </node>
      </node>
    </node>
  </node>
</model>

