<?xml version="1.0" encoding="UTF-8"?>
<model ref="fd5162e1-98b8-43e1-a33f-62e46fc97404/r:adde35cf-3cf9-4b55-82d6-5122b6082b2f(jetbrains.mps.migration.actions/jetbrains.mps.lang.migration.actions.plugin)">
  <persistence version="9" />
  <languages>
    <use id="443f4c36-fcf5-4eb6-9500-8d06ed259e3e" name="jetbrains.mps.baseLanguage.classifiers" version="-1" />
    <use id="fd392034-7849-419d-9071-12563d152375" name="jetbrains.mps.baseLanguage.closures" version="-1" />
    <use id="83888646-71ce-4f1c-9c53-c54016f6ad4f" name="jetbrains.mps.baseLanguage.collections" version="-1" />
    <use id="63650c59-16c8-498a-99c8-005c7ee9515d" name="jetbrains.mps.lang.access" version="-1" />
    <use id="28f9e497-3b42-4291-aeba-0a1039153ab1" name="jetbrains.mps.lang.plugin" version="1" />
    <use id="ef7bf5ac-d06c-4342-b11d-e42104eb9343" name="jetbrains.mps.lang.plugin.standalone" version="-1" />
    <use id="774bf8a0-62e5-41e1-af63-f4812e60e48b" name="jetbrains.mps.baseLanguage.checkedDots" version="-1" />
    <use id="7866978e-a0f0-4cc7-81bc-4d213d9375e1" name="jetbrains.mps.lang.smodel" version="4" />
    <use id="f3061a53-9226-4cc5-a443-f952ceaf5816" name="jetbrains.mps.baseLanguage" version="-1" />
  </languages>
  <imports>
    <import index="z1c3" ref="6ed54515-acc8-4d1e-a16c-9fd6cfe951ea/java:jetbrains.mps.project(MPS.Core/)" />
    <import index="mhbf" ref="8865b7a8-5271-43d3-884c-6fd1d9cfdd34/java:org.jetbrains.mps.openapi.model(MPS.OpenAPI/)" />
    <import index="w1kc" ref="6ed54515-acc8-4d1e-a16c-9fd6cfe951ea/java:jetbrains.mps.smodel(MPS.Core/)" />
    <import index="tprs" ref="r:00000000-0000-4000-0000-011c895904a4(jetbrains.mps.ide.actions)" />
    <import index="qq03" ref="742f6602-5a2f-4313-aa6e-ae1cd4ffdc61/java:jetbrains.mps.ide.actions(MPS.Platform/)" />
    <import index="jkm4" ref="498d89d2-c2e9-11e2-ad49-6cf049e62fe5/java:com.intellij.openapi.ui(MPS.IDEA/)" />
    <import index="53vh" ref="r:53885008-7612-46ff-8b11-27f1d42c3adb(jetbrains.mps.lang.migration.structure)" />
    <import index="33ny" ref="6354ebe7-c22a-4a0f-ac54-50b52ab9b065/java:java.util(JDK/)" />
    <import index="c17a" ref="8865b7a8-5271-43d3-884c-6fd1d9cfdd34/java:org.jetbrains.mps.openapi.language(MPS.OpenAPI/)" />
    <import index="w0gx" ref="6ed54515-acc8-4d1e-a16c-9fd6cfe951ea/java:jetbrains.mps.project.structure.modules(MPS.Core/)" />
    <import index="dxuu" ref="6354ebe7-c22a-4a0f-ac54-50b52ab9b065/java:javax.swing(JDK/)" />
    <import index="wyt6" ref="6354ebe7-c22a-4a0f-ac54-50b52ab9b065/java:java.lang(JDK/)" />
    <import index="e8bb" ref="6ed54515-acc8-4d1e-a16c-9fd6cfe951ea/java:jetbrains.mps.smodel.adapter.ids(MPS.Core/)" />
    <import index="2k9e" ref="6ed54515-acc8-4d1e-a16c-9fd6cfe951ea/java:jetbrains.mps.smodel.adapter.structure(MPS.Core/)" />
    <import index="qkt" ref="498d89d2-c2e9-11e2-ad49-6cf049e62fe5/java:com.intellij.openapi.actionSystem(MPS.IDEA/)" />
    <import index="che4" ref="r:e5186c75-12ba-46bf-934f-f0e026ef8c26(jetbrains.mps.lang.migration.plugin)" />
    <import index="bd8o" ref="498d89d2-c2e9-11e2-ad49-6cf049e62fe5/java:com.intellij.openapi.application(MPS.IDEA/)" />
    <import index="buve" ref="r:306236c1-379e-4cee-b600-470a90233e2f(jetbrains.mps.lang.migration.behavior)" implicit="true" />
    <import index="lui2" ref="8865b7a8-5271-43d3-884c-6fd1d9cfdd34/java:org.jetbrains.mps.openapi.module(MPS.OpenAPI/)" implicit="true" />
  </imports>
  <registry>
    <language id="28f9e497-3b42-4291-aeba-0a1039153ab1" name="jetbrains.mps.lang.plugin">
      <concept id="1207145163717" name="jetbrains.mps.lang.plugin.structure.ElementListContents" flags="ng" index="ftmFs">
        <child id="1207145201301" name="reference" index="ftvYc" />
      </concept>
      <concept id="1203071646776" name="jetbrains.mps.lang.plugin.structure.ActionDeclaration" flags="ng" index="sE7Ow">
        <property id="1205250923097" name="caption" index="2uzpH1" />
        <property id="997079742910640235" name="fillActionContext" index="1teQrl" />
        <child id="1203083196627" name="updateBlock" index="tmbBb" />
        <child id="1203083461638" name="executeFunction" index="tncku" />
        <child id="1217413222820" name="parameter" index="1NuT2Z" />
      </concept>
      <concept id="1203083511112" name="jetbrains.mps.lang.plugin.structure.ExecuteBlock" flags="in" index="tnohg" />
      <concept id="1203087890642" name="jetbrains.mps.lang.plugin.structure.ActionGroupDeclaration" flags="ng" index="tC5Ba">
        <child id="1204991552650" name="modifier" index="2f5YQi" />
        <child id="1207145245948" name="contents" index="ftER_" />
      </concept>
      <concept id="1203088046679" name="jetbrains.mps.lang.plugin.structure.ActionInstance" flags="ng" index="tCFHf">
        <reference id="1203088061055" name="action" index="tCJdB" />
      </concept>
      <concept id="1203092361741" name="jetbrains.mps.lang.plugin.structure.ModificationStatement" flags="lg" index="tT9cl">
        <reference id="1204992316090" name="point" index="2f8Tey" />
        <reference id="1203092736097" name="modifiedGroup" index="tU$_T" />
      </concept>
      <concept id="1205681243813" name="jetbrains.mps.lang.plugin.structure.IsApplicableBlock" flags="in" index="2ScWuX" />
      <concept id="5538333046911348654" name="jetbrains.mps.lang.plugin.structure.RequiredCondition" flags="ng" index="1oajcY" />
      <concept id="1217252042208" name="jetbrains.mps.lang.plugin.structure.ActionDataParameterDeclaration" flags="ng" index="1DS2jV">
        <reference id="1217252646389" name="key" index="1DUlNI" />
      </concept>
      <concept id="1217252428768" name="jetbrains.mps.lang.plugin.structure.ActionDataParameterReferenceOperation" flags="nn" index="1DTwFV" />
      <concept id="1217413147516" name="jetbrains.mps.lang.plugin.structure.ActionParameter" flags="ng" index="1NuADB">
        <child id="5538333046911298738" name="condition" index="1oa70y" />
      </concept>
    </language>
    <language id="ef7bf5ac-d06c-4342-b11d-e42104eb9343" name="jetbrains.mps.lang.plugin.standalone">
      <concept id="7520713872864775836" name="jetbrains.mps.lang.plugin.standalone.structure.StandalonePluginDescriptor" flags="ng" index="2DaZZR" />
    </language>
    <language id="f3061a53-9226-4cc5-a443-f952ceaf5816" name="jetbrains.mps.baseLanguage">
      <concept id="1082485599095" name="jetbrains.mps.baseLanguage.structure.BlockStatement" flags="nn" index="9aQIb">
        <child id="1082485599096" name="statements" index="9aQI4" />
      </concept>
      <concept id="1153417849900" name="jetbrains.mps.baseLanguage.structure.GreaterThanOrEqualsExpression" flags="nn" index="2d3UOw" />
      <concept id="4836112446988635817" name="jetbrains.mps.baseLanguage.structure.UndefinedType" flags="in" index="2jxLKc" />
      <concept id="1202948039474" name="jetbrains.mps.baseLanguage.structure.InstanceMethodCallOperation" flags="nn" index="liA8E" />
      <concept id="1224848483129" name="jetbrains.mps.baseLanguage.structure.IBLDeprecatable" flags="ng" index="IEa8$">
        <property id="1224848525476" name="isDeprecated" index="IEkAT" />
      </concept>
      <concept id="1197027756228" name="jetbrains.mps.baseLanguage.structure.DotExpression" flags="nn" index="2OqwBi">
        <child id="1197027771414" name="operand" index="2Oq$k0" />
        <child id="1197027833540" name="operation" index="2OqNvi" />
      </concept>
      <concept id="1164879751025" name="jetbrains.mps.baseLanguage.structure.TryCatchStatement" flags="nn" index="SfApY">
        <child id="1164879758292" name="body" index="SfCbr" />
        <child id="1164903496223" name="catchClause" index="TEbGg" />
      </concept>
      <concept id="1145552977093" name="jetbrains.mps.baseLanguage.structure.GenericNewExpression" flags="nn" index="2ShNRf">
        <child id="1145553007750" name="creator" index="2ShVmc" />
      </concept>
      <concept id="1164903280175" name="jetbrains.mps.baseLanguage.structure.CatchClause" flags="nn" index="TDmWw">
        <child id="1164903359218" name="catchBody" index="TDEfX" />
        <child id="1164903359217" name="throwable" index="TDEfY" />
      </concept>
      <concept id="1137021947720" name="jetbrains.mps.baseLanguage.structure.ConceptFunction" flags="in" index="2VMwT0">
        <child id="1137022507850" name="body" index="2VODD2" />
      </concept>
      <concept id="1070475926800" name="jetbrains.mps.baseLanguage.structure.StringLiteral" flags="nn" index="Xl_RD">
        <property id="1070475926801" name="value" index="Xl_RC" />
      </concept>
      <concept id="1182160077978" name="jetbrains.mps.baseLanguage.structure.AnonymousClassCreator" flags="nn" index="YeOm9">
        <child id="1182160096073" name="cls" index="YeSDq" />
      </concept>
      <concept id="1081236700937" name="jetbrains.mps.baseLanguage.structure.StaticMethodCall" flags="nn" index="2YIFZM">
        <reference id="1144433194310" name="classConcept" index="1Pybhc" />
      </concept>
      <concept id="1081256982272" name="jetbrains.mps.baseLanguage.structure.InstanceOfExpression" flags="nn" index="2ZW3vV">
        <child id="1081256993305" name="classType" index="2ZW6by" />
        <child id="1081256993304" name="leftExpression" index="2ZW6bz" />
      </concept>
      <concept id="1070534058343" name="jetbrains.mps.baseLanguage.structure.NullLiteral" flags="nn" index="10Nm6u" />
      <concept id="1070534370425" name="jetbrains.mps.baseLanguage.structure.IntegerType" flags="in" index="10Oyi0" />
      <concept id="1070534644030" name="jetbrains.mps.baseLanguage.structure.BooleanType" flags="in" index="10P_77" />
      <concept id="1070534934090" name="jetbrains.mps.baseLanguage.structure.CastExpression" flags="nn" index="10QFUN">
        <child id="1070534934091" name="type" index="10QFUM" />
        <child id="1070534934092" name="expression" index="10QFUP" />
      </concept>
      <concept id="1068431474542" name="jetbrains.mps.baseLanguage.structure.VariableDeclaration" flags="ng" index="33uBYm">
        <child id="1068431790190" name="initializer" index="33vP2m" />
      </concept>
      <concept id="1068498886296" name="jetbrains.mps.baseLanguage.structure.VariableReference" flags="nn" index="37vLTw">
        <reference id="1068581517664" name="variableDeclaration" index="3cqZAo" />
      </concept>
      <concept id="1068498886292" name="jetbrains.mps.baseLanguage.structure.ParameterDeclaration" flags="ir" index="37vLTG" />
      <concept id="1225271177708" name="jetbrains.mps.baseLanguage.structure.StringType" flags="in" index="17QB3L" />
      <concept id="4972933694980447171" name="jetbrains.mps.baseLanguage.structure.BaseVariableDeclaration" flags="ng" index="19Szcq">
        <child id="5680397130376446158" name="type" index="1tU5fm" />
      </concept>
      <concept id="1068580123132" name="jetbrains.mps.baseLanguage.structure.BaseMethodDeclaration" flags="ng" index="3clF44">
        <property id="1181808852946" name="isFinal" index="DiZV1" />
        <child id="1068580123133" name="returnType" index="3clF45" />
        <child id="1068580123134" name="parameter" index="3clF46" />
        <child id="1068580123135" name="body" index="3clF47" />
      </concept>
      <concept id="1068580123165" name="jetbrains.mps.baseLanguage.structure.InstanceMethodDeclaration" flags="ig" index="3clFb_">
        <property id="1178608670077" name="isAbstract" index="1EzhhJ" />
      </concept>
      <concept id="1068580123152" name="jetbrains.mps.baseLanguage.structure.EqualsExpression" flags="nn" index="3clFbC" />
      <concept id="1068580123155" name="jetbrains.mps.baseLanguage.structure.ExpressionStatement" flags="nn" index="3clFbF">
        <child id="1068580123156" name="expression" index="3clFbG" />
      </concept>
      <concept id="1068580123157" name="jetbrains.mps.baseLanguage.structure.Statement" flags="nn" index="3clFbH" />
      <concept id="1068580123159" name="jetbrains.mps.baseLanguage.structure.IfStatement" flags="nn" index="3clFbJ">
        <child id="1082485599094" name="ifFalseStatement" index="9aQIa" />
        <child id="1068580123160" name="condition" index="3clFbw" />
        <child id="1068580123161" name="ifTrue" index="3clFbx" />
      </concept>
      <concept id="1068580123136" name="jetbrains.mps.baseLanguage.structure.StatementList" flags="sn" stub="5293379017992965193" index="3clFbS">
        <child id="1068581517665" name="statement" index="3cqZAp" />
      </concept>
      <concept id="1068580123137" name="jetbrains.mps.baseLanguage.structure.BooleanConstant" flags="nn" index="3clFbT">
        <property id="1068580123138" name="value" index="3clFbU" />
      </concept>
      <concept id="1068580320020" name="jetbrains.mps.baseLanguage.structure.IntegerConstant" flags="nn" index="3cmrfG">
        <property id="1068580320021" name="value" index="3cmrfH" />
      </concept>
      <concept id="1068581242875" name="jetbrains.mps.baseLanguage.structure.PlusExpression" flags="nn" index="3cpWs3" />
      <concept id="1068581242878" name="jetbrains.mps.baseLanguage.structure.ReturnStatement" flags="nn" index="3cpWs6">
        <child id="1068581517676" name="expression" index="3cqZAk" />
      </concept>
      <concept id="1068581242864" name="jetbrains.mps.baseLanguage.structure.LocalVariableDeclarationStatement" flags="nn" index="3cpWs8">
        <child id="1068581242865" name="localVariableDeclaration" index="3cpWs9" />
      </concept>
      <concept id="1068581242863" name="jetbrains.mps.baseLanguage.structure.LocalVariableDeclaration" flags="nr" index="3cpWsn" />
      <concept id="1079359253375" name="jetbrains.mps.baseLanguage.structure.ParenthesizedExpression" flags="nn" index="1eOMI4">
        <child id="1079359253376" name="expression" index="1eOMHV" />
      </concept>
      <concept id="1081516740877" name="jetbrains.mps.baseLanguage.structure.NotExpression" flags="nn" index="3fqX7Q">
        <child id="1081516765348" name="expression" index="3fr31v" />
      </concept>
      <concept id="1204053956946" name="jetbrains.mps.baseLanguage.structure.IMethodCall" flags="ng" index="1ndlxa">
        <reference id="1068499141037" name="baseMethodDeclaration" index="37wK5l" />
        <child id="1068499141038" name="actualArgument" index="37wK5m" />
      </concept>
      <concept id="1107461130800" name="jetbrains.mps.baseLanguage.structure.Classifier" flags="ng" index="3pOWGL">
        <property id="521412098689998745" name="nonStatic" index="2bfB8j" />
        <child id="5375687026011219971" name="member" index="jymVt" unordered="true" />
      </concept>
      <concept id="7812454656619025412" name="jetbrains.mps.baseLanguage.structure.LocalMethodCall" flags="nn" index="1rXfSq" />
      <concept id="1107535904670" name="jetbrains.mps.baseLanguage.structure.ClassifierType" flags="in" index="3uibUv">
        <reference id="1107535924139" name="classifier" index="3uigEE" />
      </concept>
      <concept id="1081773326031" name="jetbrains.mps.baseLanguage.structure.BinaryOperation" flags="nn" index="3uHJSO">
        <child id="1081773367579" name="rightExpression" index="3uHU7w" />
        <child id="1081773367580" name="leftExpression" index="3uHU7B" />
      </concept>
      <concept id="1073239437375" name="jetbrains.mps.baseLanguage.structure.NotEqualsExpression" flags="nn" index="3y3z36" />
      <concept id="1178549954367" name="jetbrains.mps.baseLanguage.structure.IVisible" flags="ng" index="1B3ioH">
        <child id="1178549979242" name="visibility" index="1B3o_S" />
      </concept>
      <concept id="1146644602865" name="jetbrains.mps.baseLanguage.structure.PublicVisibility" flags="nn" index="3Tm1VV" />
      <concept id="1080120340718" name="jetbrains.mps.baseLanguage.structure.AndExpression" flags="nn" index="1Wc70l" />
      <concept id="1170345865475" name="jetbrains.mps.baseLanguage.structure.AnonymousClass" flags="ig" index="1Y3b0j">
        <reference id="1170346070688" name="classifier" index="1Y3XeK" />
      </concept>
    </language>
    <language id="63650c59-16c8-498a-99c8-005c7ee9515d" name="jetbrains.mps.lang.access">
      <concept id="8974276187400348173" name="jetbrains.mps.lang.access.structure.CommandClosureLiteral" flags="nn" index="1QHqEC" />
      <concept id="8974276187400348170" name="jetbrains.mps.lang.access.structure.BaseExecuteCommandStatement" flags="nn" index="1QHqEJ">
        <child id="1423104411234567454" name="repo" index="ukAjM" />
        <child id="8974276187400348171" name="commandClosureLiteral" index="1QHqEI" />
      </concept>
      <concept id="8974276187400348177" name="jetbrains.mps.lang.access.structure.ExecuteCommandStatement" flags="nn" index="1QHqEO" />
    </language>
    <language id="774bf8a0-62e5-41e1-af63-f4812e60e48b" name="jetbrains.mps.baseLanguage.checkedDots">
      <concept id="4079382982702596667" name="jetbrains.mps.baseLanguage.checkedDots.structure.CheckedDotExpression" flags="nn" index="2EnYce" />
    </language>
    <language id="fd392034-7849-419d-9071-12563d152375" name="jetbrains.mps.baseLanguage.closures">
      <concept id="1199569711397" name="jetbrains.mps.baseLanguage.closures.structure.ClosureLiteral" flags="nn" index="1bVj0M">
        <child id="1199569906740" name="parameter" index="1bW2Oz" />
        <child id="1199569916463" name="body" index="1bW5cS" />
      </concept>
    </language>
    <language id="69b8a993-9b87-4d96-bf0c-3559f4bb0c63" name="jetbrains.mps.lang.slanguage">
      <concept id="6171083915388330090" name="jetbrains.mps.lang.slanguage.structure.AspectModelRefExpression" flags="ng" index="1qvjxa">
        <reference id="6171083915388597767" name="aspect" index="1quiSB" />
        <child id="6171083915388330091" name="lang" index="1qvjxb" />
      </concept>
    </language>
    <language id="443f4c36-fcf5-4eb6-9500-8d06ed259e3e" name="jetbrains.mps.baseLanguage.classifiers">
      <concept id="1205752633985" name="jetbrains.mps.baseLanguage.classifiers.structure.ThisClassifierExpression" flags="nn" index="2WthIp" />
      <concept id="1205756064662" name="jetbrains.mps.baseLanguage.classifiers.structure.IMemberOperation" flags="ng" index="2WEnae">
        <reference id="1205756909548" name="member" index="2WH_rO" />
      </concept>
    </language>
    <language id="7866978e-a0f0-4cc7-81bc-4d213d9375e1" name="jetbrains.mps.lang.smodel">
      <concept id="1179409122411" name="jetbrains.mps.lang.smodel.structure.Node_ConceptMethodCall" flags="nn" index="2qgKlT" />
      <concept id="1143226024141" name="jetbrains.mps.lang.smodel.structure.SModelType" flags="in" index="H_c77" />
      <concept id="1145383075378" name="jetbrains.mps.lang.smodel.structure.SNodeListType" flags="in" index="2I9FWS">
        <reference id="1145383142433" name="elementConcept" index="2I9WkF" />
      </concept>
      <concept id="1171315804604" name="jetbrains.mps.lang.smodel.structure.Model_RootsOperation" flags="nn" index="2RRcyG">
        <reference id="1171315804605" name="concept" index="2RRcyH" />
      </concept>
    </language>
    <language id="ceab5195-25ea-4f22-9b92-103b95ca8c0c" name="jetbrains.mps.lang.core">
      <concept id="1169194658468" name="jetbrains.mps.lang.core.structure.INamedConcept" flags="ng" index="TrEIO">
        <property id="1169194664001" name="name" index="TrG5h" />
      </concept>
    </language>
    <language id="83888646-71ce-4f1c-9c53-c54016f6ad4f" name="jetbrains.mps.baseLanguage.collections">
      <concept id="1204796164442" name="jetbrains.mps.baseLanguage.collections.structure.InternalSequenceOperation" flags="nn" index="23sCx2">
        <child id="1204796294226" name="closure" index="23t8la" />
      </concept>
      <concept id="1203518072036" name="jetbrains.mps.baseLanguage.collections.structure.SmartClosureParameterDeclaration" flags="ig" index="Rh6nW" />
      <concept id="1205679737078" name="jetbrains.mps.baseLanguage.collections.structure.SortOperation" flags="nn" index="2S7cBI">
        <child id="1205679832066" name="ascending" index="2S7zOq" />
      </concept>
      <concept id="1178286324487" name="jetbrains.mps.baseLanguage.collections.structure.SortDirection" flags="nn" index="1nlBCl" />
      <concept id="1165525191778" name="jetbrains.mps.baseLanguage.collections.structure.GetFirstOperation" flags="nn" index="1uHKPH" />
      <concept id="1165530316231" name="jetbrains.mps.baseLanguage.collections.structure.IsEmptyOperation" flags="nn" index="1v1jN8" />
      <concept id="1176501494711" name="jetbrains.mps.baseLanguage.collections.structure.IsNotEmptyOperation" flags="nn" index="3GX2aA" />
    </language>
  </registry>
  <node concept="sE7Ow" id="5VZG9FqCIvC">
    <property role="TrG5h" value="CorrectLanguageVersion" />
    <property role="2uzpH1" value="Correct Language Version" />
    <property role="1teQrl" value="true" />
    <node concept="tnohg" id="5VZG9FqCIvD" role="tncku">
      <node concept="3clFbS" id="5VZG9FqCIvE" role="2VODD2">
        <node concept="3cpWs8" id="IkVTleIcuK" role="3cqZAp">
          <node concept="3cpWsn" id="IkVTleIcuL" role="3cpWs9">
            <property role="TrG5h" value="lang" />
            <node concept="3uibUv" id="IkVTleIcuM" role="1tU5fm">
              <ref role="3uigEE" to="w1kc:~Language" resolve="Language" />
            </node>
            <node concept="1eOMI4" id="IkVTleIcuN" role="33vP2m">
              <node concept="10QFUN" id="IkVTleIcuO" role="1eOMHV">
                <node concept="2OqwBi" id="IkVTleIcuP" role="10QFUP">
                  <node concept="2WthIp" id="IkVTleIcuQ" role="2Oq$k0" />
                  <node concept="1DTwFV" id="IkVTleIcuR" role="2OqNvi">
                    <ref role="2WH_rO" node="5VZG9FqCIyg" resolve="module" />
                  </node>
                </node>
                <node concept="3uibUv" id="IkVTleIcuS" role="10QFUM">
                  <ref role="3uigEE" to="w1kc:~Language" resolve="Language" />
                </node>
              </node>
            </node>
          </node>
        </node>
        <node concept="3cpWs8" id="IkVTleIcuT" role="3cqZAp">
          <node concept="3cpWsn" id="IkVTleIcuU" role="3cpWs9">
            <property role="TrG5h" value="mig" />
            <node concept="1qvjxa" id="7XWR6$5jLCw" role="33vP2m">
              <ref role="1quiSB" to="che4:2LiUEk8oQ$g" resolve="migration" />
              <node concept="37vLTw" id="7XWR6$5jLUF" role="1qvjxb">
                <ref role="3cqZAo" node="IkVTleIcuL" resolve="lang" />
              </node>
            </node>
            <node concept="3uibUv" id="IkVTleIcuV" role="1tU5fm">
              <ref role="3uigEE" to="mhbf:~SModel" resolve="SModel" />
            </node>
          </node>
        </node>
        <node concept="3cpWs8" id="5_ej6Dn7iR5" role="3cqZAp">
          <node concept="3cpWsn" id="5_ej6Dn7iR6" role="3cpWs9">
            <property role="TrG5h" value="scripts" />
            <node concept="2I9FWS" id="5_ej6Dn7iR7" role="1tU5fm">
              <ref role="2I9WkF" to="53vh:4uVwhQyFcjm" resolve="IMigrationUnit" />
            </node>
            <node concept="2EnYce" id="QpUtmQuES5" role="33vP2m">
              <node concept="1eOMI4" id="5_ej6Dn7iR9" role="2Oq$k0">
                <node concept="10QFUN" id="5_ej6Dn7iRa" role="1eOMHV">
                  <node concept="37vLTw" id="5_ej6Dn7iRb" role="10QFUP">
                    <ref role="3cqZAo" node="IkVTleIcuU" resolve="mig" />
                  </node>
                  <node concept="H_c77" id="5_ej6Dn7iRc" role="10QFUM" />
                </node>
              </node>
              <node concept="2RRcyG" id="5_ej6Dn7iRd" role="2OqNvi">
                <ref role="2RRcyH" to="53vh:4uVwhQyFcjm" resolve="IMigrationUnit" />
              </node>
            </node>
          </node>
        </node>
        <node concept="3clFbJ" id="5_ej6Dn7V_h" role="3cqZAp">
          <node concept="3clFbS" id="5_ej6Dn7V_k" role="3clFbx">
            <node concept="3cpWs8" id="5_ej6Dn7iRl" role="3cqZAp">
              <node concept="3cpWsn" id="5_ej6Dn7iRm" role="3cpWs9">
                <property role="TrG5h" value="maxFrom" />
                <node concept="10Oyi0" id="5_ej6Dn7iRn" role="1tU5fm" />
                <node concept="2OqwBi" id="5_ej6Dn7iRo" role="33vP2m">
                  <node concept="2qgKlT" id="4uVwhQyMehm" role="2OqNvi">
                    <ref role="37wK5l" to="buve:4uVwhQyFcnl" resolve="fromVersion" />
                  </node>
                  <node concept="2OqwBi" id="5_ej6Dn7iRp" role="2Oq$k0">
                    <node concept="2OqwBi" id="5_ej6Dn7iRq" role="2Oq$k0">
                      <node concept="37vLTw" id="5_ej6Dn7iRr" role="2Oq$k0">
                        <ref role="3cqZAo" node="5_ej6Dn7iR6" resolve="scripts" />
                      </node>
                      <node concept="2S7cBI" id="5_ej6Dn7iRs" role="2OqNvi">
                        <node concept="1bVj0M" id="5_ej6Dn7iRt" role="23t8la">
                          <node concept="3clFbS" id="5_ej6Dn7iRu" role="1bW5cS">
                            <node concept="3clFbF" id="5_ej6Dn7iRv" role="3cqZAp">
                              <node concept="2OqwBi" id="5_ej6Dn7iRw" role="3clFbG">
                                <node concept="2qgKlT" id="4uVwhQyMdZS" role="2OqNvi">
                                  <ref role="37wK5l" to="buve:4uVwhQyFcnl" resolve="fromVersion" />
                                </node>
                                <node concept="37vLTw" id="5_ej6Dn7iRx" role="2Oq$k0">
                                  <ref role="3cqZAo" node="5_ej6Dn7iRz" resolve="it" />
                                </node>
                              </node>
                            </node>
                          </node>
                          <node concept="Rh6nW" id="5_ej6Dn7iRz" role="1bW2Oz">
                            <property role="TrG5h" value="it" />
                            <node concept="2jxLKc" id="5_ej6Dn7iR$" role="1tU5fm" />
                          </node>
                        </node>
                        <node concept="1nlBCl" id="5_ej6Dn7iR_" role="2S7zOq">
                          <property role="3clFbU" value="false" />
                        </node>
                      </node>
                    </node>
                    <node concept="1uHKPH" id="5_ej6Dn7iRA" role="2OqNvi" />
                  </node>
                </node>
              </node>
            </node>
            <node concept="3clFbF" id="5$lI4SjhVoz" role="3cqZAp">
              <node concept="2OqwBi" id="5$lI4SjhVsG" role="3clFbG">
                <node concept="37vLTw" id="5$lI4SjhVox" role="2Oq$k0">
                  <ref role="3cqZAo" node="IkVTleIcuL" resolve="lang" />
                </node>
                <node concept="liA8E" id="5$lI4SjhWt4" role="2OqNvi">
                  <ref role="37wK5l" to="w1kc:~Language.setLanguageVersion(int):void" resolve="setLanguageVersion" />
                  <node concept="3cpWs3" id="5$lI4SjhWP6" role="37wK5m">
                    <node concept="3cmrfG" id="5$lI4SjhWPl" role="3uHU7w">
                      <property role="3cmrfH" value="1" />
                    </node>
                    <node concept="37vLTw" id="5$lI4SjhWtZ" role="3uHU7B">
                      <ref role="3cqZAo" node="5_ej6Dn7iRm" resolve="maxFrom" />
                    </node>
                  </node>
                </node>
              </node>
            </node>
          </node>
          <node concept="2OqwBi" id="5_ej6Dn7Xed" role="3clFbw">
            <node concept="37vLTw" id="5_ej6Dn7Wbt" role="2Oq$k0">
              <ref role="3cqZAo" node="5_ej6Dn7iR6" resolve="scripts" />
            </node>
            <node concept="3GX2aA" id="5_ej6Dn85AV" role="2OqNvi" />
          </node>
          <node concept="9aQIb" id="5_ej6Dn87nt" role="9aQIa">
            <node concept="3clFbS" id="5_ej6Dn87nu" role="9aQI4">
              <node concept="3cpWs8" id="5_ej6Dna7Wm" role="3cqZAp">
                <node concept="3cpWsn" id="5_ej6Dna7Wn" role="3cpWs9">
                  <property role="TrG5h" value="v" />
                  <node concept="10Oyi0" id="5_ej6Dna7Wg" role="1tU5fm" />
                  <node concept="2OqwBi" id="5_ej6Dna7Wo" role="33vP2m">
                    <node concept="37vLTw" id="5_ej6Dna7Wp" role="2Oq$k0">
                      <ref role="3cqZAo" node="IkVTleIcuL" resolve="lang" />
                    </node>
                    <node concept="liA8E" id="5_ej6Dna7Wq" role="2OqNvi">
                      <ref role="37wK5l" to="w1kc:~Language.getLanguageVersion():int" resolve="getLanguageVersion" />
                    </node>
                  </node>
                </node>
              </node>
              <node concept="3clFbF" id="WEmn41A9bH" role="3cqZAp">
                <node concept="2OqwBi" id="WEmn41A9IP" role="3clFbG">
                  <node concept="2YIFZM" id="WEmn41A9ti" role="2Oq$k0">
                    <ref role="37wK5l" to="bd8o:~ApplicationManager.getApplication():com.intellij.openapi.application.Application" resolve="getApplication" />
                    <ref role="1Pybhc" to="bd8o:~ApplicationManager" resolve="ApplicationManager" />
                  </node>
                  <node concept="liA8E" id="WEmn41Aaal" role="2OqNvi">
                    <ref role="37wK5l" to="bd8o:~Application.invokeLater(java.lang.Runnable):void" resolve="invokeLater" />
                    <node concept="1bVj0M" id="5_ej6Dn9EPJ" role="37wK5m">
                      <node concept="3clFbS" id="5_ej6Dn9EPK" role="1bW5cS">
                        <node concept="3cpWs8" id="5_ej6Dnb2iY" role="3cqZAp">
                          <node concept="3cpWsn" id="5_ej6Dnb2iZ" role="3cpWs9">
                            <property role="TrG5h" value="validator" />
                            <node concept="3uibUv" id="5_ej6Dnb2iX" role="1tU5fm">
                              <ref role="3uigEE" to="jkm4:~InputValidator" resolve="InputValidator" />
                            </node>
                            <node concept="2ShNRf" id="5_ej6Dnb2j0" role="33vP2m">
                              <node concept="YeOm9" id="5_ej6Dnb2j1" role="2ShVmc">
                                <node concept="1Y3b0j" id="5_ej6Dnb2j2" role="YeSDq">
                                  <property role="2bfB8j" value="true" />
                                  <ref role="1Y3XeK" to="jkm4:~InputValidator" resolve="InputValidator" />
                                  <ref role="37wK5l" to="wyt6:~Object.&lt;init&gt;()" resolve="Object" />
                                  <node concept="3Tm1VV" id="5_ej6Dnb2j3" role="1B3o_S" />
                                  <node concept="3clFb_" id="5_ej6Dnb2j4" role="jymVt">
                                    <property role="1EzhhJ" value="false" />
                                    <property role="TrG5h" value="checkInput" />
                                    <property role="DiZV1" value="false" />
                                    <property role="IEkAT" value="false" />
                                    <node concept="3Tm1VV" id="5_ej6Dnb2j5" role="1B3o_S" />
                                    <node concept="10P_77" id="5_ej6Dnb2j6" role="3clF45" />
                                    <node concept="37vLTG" id="5_ej6Dnb2j7" role="3clF46">
                                      <property role="TrG5h" value="s" />
                                      <node concept="3uibUv" id="5_ej6Dnb2j8" role="1tU5fm">
                                        <ref role="3uigEE" to="wyt6:~String" resolve="String" />
                                      </node>
                                    </node>
                                    <node concept="3clFbS" id="5_ej6Dnb2j9" role="3clF47">
                                      <node concept="SfApY" id="5_ej6Dnb2ja" role="3cqZAp">
                                        <node concept="3clFbS" id="5_ej6Dnb2jb" role="SfCbr">
                                          <node concept="3cpWs6" id="5_ej6Dnb2jc" role="3cqZAp">
                                            <node concept="2d3UOw" id="5_ej6Dnb2jd" role="3cqZAk">
                                              <node concept="3cmrfG" id="5_ej6Dnb2je" role="3uHU7w">
                                                <property role="3cmrfH" value="0" />
                                              </node>
                                              <node concept="2YIFZM" id="5_ej6Dnb2jf" role="3uHU7B">
                                                <ref role="37wK5l" to="wyt6:~Integer.parseInt(java.lang.String):int" resolve="parseInt" />
                                                <ref role="1Pybhc" to="wyt6:~Integer" resolve="Integer" />
                                                <node concept="37vLTw" id="5_ej6Dnb2jg" role="37wK5m">
                                                  <ref role="3cqZAo" node="5_ej6Dnb2j7" resolve="s" />
                                                </node>
                                              </node>
                                            </node>
                                          </node>
                                        </node>
                                        <node concept="TDmWw" id="5_ej6Dnb2jh" role="TEbGg">
                                          <node concept="3cpWsn" id="5_ej6Dnb2ji" role="TDEfY">
                                            <property role="TrG5h" value="e" />
                                            <node concept="3uibUv" id="5_ej6Dnb2jj" role="1tU5fm">
                                              <ref role="3uigEE" to="wyt6:~NumberFormatException" resolve="NumberFormatException" />
                                            </node>
                                          </node>
                                          <node concept="3clFbS" id="5_ej6Dnb2jk" role="TDEfX">
                                            <node concept="3cpWs6" id="5_ej6Dnb2jl" role="3cqZAp">
                                              <node concept="3clFbT" id="5_ej6Dnb2jm" role="3cqZAk">
                                                <property role="3clFbU" value="false" />
                                              </node>
                                            </node>
                                          </node>
                                        </node>
                                      </node>
                                    </node>
                                  </node>
                                  <node concept="3clFb_" id="5_ej6Dnb2jn" role="jymVt">
                                    <property role="1EzhhJ" value="false" />
                                    <property role="TrG5h" value="canClose" />
                                    <property role="DiZV1" value="false" />
                                    <property role="IEkAT" value="false" />
                                    <node concept="3Tm1VV" id="5_ej6Dnb2jo" role="1B3o_S" />
                                    <node concept="10P_77" id="5_ej6Dnb2jp" role="3clF45" />
                                    <node concept="37vLTG" id="5_ej6Dnb2jq" role="3clF46">
                                      <property role="TrG5h" value="s" />
                                      <node concept="3uibUv" id="5_ej6Dnb2jr" role="1tU5fm">
                                        <ref role="3uigEE" to="wyt6:~String" resolve="String" />
                                      </node>
                                    </node>
                                    <node concept="3clFbS" id="5_ej6Dnb2js" role="3clF47">
                                      <node concept="3cpWs6" id="5_ej6Dnb2jt" role="3cqZAp">
                                        <node concept="1rXfSq" id="5_ej6Dnb2ju" role="3cqZAk">
                                          <ref role="37wK5l" node="5_ej6Dnb2j4" resolve="checkInput" />
                                          <node concept="37vLTw" id="5_ej6Dnb2jv" role="37wK5m">
                                            <ref role="3cqZAo" node="5_ej6Dnb2jq" resolve="s" />
                                          </node>
                                        </node>
                                      </node>
                                    </node>
                                  </node>
                                </node>
                              </node>
                            </node>
                          </node>
                        </node>
                        <node concept="3cpWs8" id="5_ej6Dnb3Zl" role="3cqZAp">
                          <node concept="3cpWsn" id="5_ej6Dnb3Zm" role="3cpWs9">
                            <property role="TrG5h" value="result" />
                            <node concept="17QB3L" id="WEmn41FHIl" role="1tU5fm" />
                            <node concept="2YIFZM" id="5_ej6Dnb3Zn" role="33vP2m">
                              <ref role="1Pybhc" to="jkm4:~Messages" resolve="Messages" />
                              <ref role="37wK5l" to="jkm4:~Messages.showInputDialog(com.intellij.openapi.project.Project,java.lang.String,java.lang.String,javax.swing.Icon,java.lang.String,com.intellij.openapi.ui.InputValidator):java.lang.String" resolve="showInputDialog" />
                              <node concept="2OqwBi" id="5_ej6Dnb3Zo" role="37wK5m">
                                <node concept="2WthIp" id="5_ej6Dnb3Zp" role="2Oq$k0" />
                                <node concept="1DTwFV" id="5_ej6Dnb3Zq" role="2OqNvi">
                                  <ref role="2WH_rO" node="5VZG9FqE87q" resolve="project" />
                                </node>
                              </node>
                              <node concept="3cpWs3" id="5_ej6Dnb3Zr" role="37wK5m">
                                <node concept="Xl_RD" id="5_ej6Dnb3Zs" role="3uHU7w">
                                  <property role="Xl_RC" value="Please enter new version" />
                                </node>
                                <node concept="3cpWs3" id="5_ej6Dnb3Zt" role="3uHU7B">
                                  <node concept="3cpWs3" id="5_ej6Dnb3Zu" role="3uHU7B">
                                    <node concept="3cpWs3" id="5_ej6Dnb3Zv" role="3uHU7B">
                                      <node concept="Xl_RD" id="5_ej6Dnb3Zw" role="3uHU7B">
                                        <property role="Xl_RC" value="No scripts found\n" />
                                      </node>
                                      <node concept="Xl_RD" id="5_ej6Dnb3Zx" role="3uHU7w">
                                        <property role="Xl_RC" value="Current language version is " />
                                      </node>
                                    </node>
                                    <node concept="37vLTw" id="5_ej6Dnb3Zy" role="3uHU7w">
                                      <ref role="3cqZAo" node="5_ej6Dna7Wn" resolve="v" />
                                    </node>
                                  </node>
                                  <node concept="Xl_RD" id="5_ej6Dnb3Zz" role="3uHU7w">
                                    <property role="Xl_RC" value="\n" />
                                  </node>
                                </node>
                              </node>
                              <node concept="Xl_RD" id="5_ej6Dnb3Z$" role="37wK5m">
                                <property role="Xl_RC" value="Set Language Version" />
                              </node>
                              <node concept="10Nm6u" id="5_ej6Dnb3Z_" role="37wK5m" />
                              <node concept="Xl_RD" id="5_ej6Dnb3ZA" role="37wK5m">
                                <property role="Xl_RC" value="0" />
                              </node>
                              <node concept="37vLTw" id="5_ej6Dnb3ZB" role="37wK5m">
                                <ref role="3cqZAo" node="5_ej6Dnb2iZ" resolve="validator" />
                              </node>
                            </node>
                          </node>
                        </node>
                        <node concept="3clFbJ" id="5_ej6Dnb5tq" role="3cqZAp">
                          <node concept="3clFbS" id="5_ej6Dnb5tt" role="3clFbx">
                            <node concept="3cpWs6" id="5_ej6Dnb73q" role="3cqZAp" />
                          </node>
                          <node concept="3clFbC" id="5_ej6Dnb6mI" role="3clFbw">
                            <node concept="10Nm6u" id="5_ej6Dnb6C_" role="3uHU7w" />
                            <node concept="37vLTw" id="5_ej6Dnb5Qm" role="3uHU7B">
                              <ref role="3cqZAo" node="5_ej6Dnb3Zm" resolve="result" />
                            </node>
                          </node>
                        </node>
                        <node concept="3clFbH" id="5_ej6Dnb8r2" role="3cqZAp" />
                        <node concept="1QHqEO" id="5_ej6Dnb9Uo" role="3cqZAp">
                          <node concept="1QHqEC" id="5_ej6Dnb9Uq" role="1QHqEI">
                            <node concept="3clFbS" id="5_ej6Dnb9Us" role="1bW5cS">
                              <node concept="3clFbF" id="5$lI4SjhNvo" role="3cqZAp">
                                <node concept="2OqwBi" id="5$lI4SjhNDC" role="3clFbG">
                                  <node concept="37vLTw" id="5$lI4SjhNvm" role="2Oq$k0">
                                    <ref role="3cqZAo" node="IkVTleIcuL" resolve="lang" />
                                  </node>
                                  <node concept="liA8E" id="5$lI4SjhTU9" role="2OqNvi">
                                    <ref role="37wK5l" to="w1kc:~Language.setLanguageVersion(int):void" resolve="setLanguageVersion" />
                                    <node concept="2YIFZM" id="5$lI4SjgTae" role="37wK5m">
                                      <ref role="37wK5l" to="wyt6:~Integer.parseInt(java.lang.String):int" resolve="parseInt" />
                                      <ref role="1Pybhc" to="wyt6:~Integer" resolve="Integer" />
                                      <node concept="37vLTw" id="5$lI4SjgTaf" role="37wK5m">
                                        <ref role="3cqZAo" node="5_ej6Dnb3Zm" resolve="result" />
                                      </node>
                                    </node>
                                  </node>
                                </node>
                              </node>
                            </node>
                          </node>
                          <node concept="2OqwBi" id="WEmn41FJVb" role="ukAjM">
                            <node concept="2OqwBi" id="WEmn41FIvZ" role="2Oq$k0">
                              <node concept="2WthIp" id="WEmn41FI10" role="2Oq$k0" />
                              <node concept="1DTwFV" id="WEmn41FJjU" role="2OqNvi">
                                <ref role="2WH_rO" node="5VZG9FqCIyg" resolve="module" />
                              </node>
                            </node>
                            <node concept="liA8E" id="WEmn41FL4U" role="2OqNvi">
                              <ref role="37wK5l" to="lui2:~SModule.getRepository():org.jetbrains.mps.openapi.module.SRepository" resolve="getRepository" />
                            </node>
                          </node>
                        </node>
                      </node>
                    </node>
                  </node>
                </node>
              </node>
            </node>
          </node>
        </node>
      </node>
    </node>
    <node concept="1DS2jV" id="5VZG9FqCIyg" role="1NuT2Z">
      <property role="TrG5h" value="module" />
      <ref role="1DUlNI" to="qq03:~MPSCommonDataKeys.MODULE" resolve="MODULE" />
      <node concept="1oajcY" id="MGgIRlKYhO" role="1oa70y" />
    </node>
    <node concept="1DS2jV" id="5VZG9FqE87q" role="1NuT2Z">
      <property role="TrG5h" value="project" />
      <ref role="1DUlNI" to="qkt:~CommonDataKeys.PROJECT" resolve="PROJECT" />
      <node concept="1oajcY" id="5VZG9FqE87r" role="1oa70y" />
    </node>
    <node concept="2ScWuX" id="LEy1UHDOrc" role="tmbBb">
      <node concept="3clFbS" id="LEy1UHDOrd" role="2VODD2">
        <node concept="3clFbJ" id="MGgIRlL1ve" role="3cqZAp">
          <node concept="3clFbS" id="MGgIRlL1vh" role="3clFbx">
            <node concept="3cpWs6" id="MGgIRlL3Df" role="3cqZAp">
              <node concept="3clFbT" id="MGgIRlL4$P" role="3cqZAk">
                <property role="3clFbU" value="false" />
              </node>
            </node>
          </node>
          <node concept="3fqX7Q" id="MGgIRlL21N" role="3clFbw">
            <node concept="2ZW3vV" id="IkVTleGDpr" role="3fr31v">
              <node concept="3uibUv" id="IkVTleGDEi" role="2ZW6by">
                <ref role="3uigEE" to="w1kc:~Language" resolve="Language" />
              </node>
              <node concept="2OqwBi" id="MGgIRlL34a" role="2ZW6bz">
                <node concept="2WthIp" id="MGgIRlL34d" role="2Oq$k0" />
                <node concept="1DTwFV" id="MGgIRlL34f" role="2OqNvi">
                  <ref role="2WH_rO" node="5VZG9FqCIyg" resolve="module" />
                </node>
              </node>
            </node>
          </node>
        </node>
        <node concept="3clFbH" id="5_ej6Dnb$9K" role="3cqZAp" />
        <node concept="3cpWs8" id="IkVTleGFeE" role="3cqZAp">
          <node concept="3cpWsn" id="IkVTleGFeF" role="3cpWs9">
            <property role="TrG5h" value="lang" />
            <node concept="3uibUv" id="IkVTleGFeC" role="1tU5fm">
              <ref role="3uigEE" to="w1kc:~Language" resolve="Language" />
            </node>
            <node concept="1eOMI4" id="IkVTleGFeG" role="33vP2m">
              <node concept="10QFUN" id="IkVTleGFeH" role="1eOMHV">
                <node concept="2OqwBi" id="IkVTleGFeI" role="10QFUP">
                  <node concept="2WthIp" id="IkVTleGFeJ" role="2Oq$k0" />
                  <node concept="1DTwFV" id="IkVTleGFeK" role="2OqNvi">
                    <ref role="2WH_rO" node="5VZG9FqCIyg" resolve="module" />
                  </node>
                </node>
                <node concept="3uibUv" id="IkVTleGFeL" role="10QFUM">
                  <ref role="3uigEE" to="w1kc:~Language" resolve="Language" />
                </node>
              </node>
            </node>
          </node>
        </node>
        <node concept="3cpWs8" id="6ErrHV2$AsH" role="3cqZAp">
          <node concept="3cpWsn" id="6ErrHV2$AsI" role="3cpWs9">
            <property role="TrG5h" value="langId" />
            <node concept="3uibUv" id="6ErrHV2$AsF" role="1tU5fm">
              <ref role="3uigEE" to="e8bb:~SLanguageId" resolve="SLanguageId" />
            </node>
            <node concept="2YIFZM" id="6ErrHV2$AsJ" role="33vP2m">
              <ref role="1Pybhc" to="e8bb:~MetaIdByDeclaration" resolve="MetaIdByDeclaration" />
              <ref role="37wK5l" to="e8bb:~MetaIdByDeclaration.getLanguageId(jetbrains.mps.smodel.Language):jetbrains.mps.smodel.adapter.ids.SLanguageId" resolve="getLanguageId" />
              <node concept="37vLTw" id="6ErrHV2$AsK" role="37wK5m">
                <ref role="3cqZAo" node="IkVTleGFeF" resolve="lang" />
              </node>
            </node>
          </node>
        </node>
        <node concept="3cpWs8" id="6ErrHV2$M89" role="3cqZAp">
          <node concept="3cpWsn" id="6ErrHV2$M8a" role="3cpWs9">
            <property role="TrG5h" value="slang" />
            <node concept="3uibUv" id="2G4N_X5GKYl" role="1tU5fm">
              <ref role="3uigEE" to="c17a:~SLanguage" resolve="SLanguage" />
            </node>
            <node concept="2YIFZM" id="2G4N_X5HwN_" role="33vP2m">
              <ref role="1Pybhc" to="2k9e:~MetaAdapterFactory" resolve="MetaAdapterFactory" />
              <ref role="37wK5l" to="2k9e:~MetaAdapterFactory.getLanguage(jetbrains.mps.smodel.adapter.ids.SLanguageId,java.lang.String):org.jetbrains.mps.openapi.language.SLanguage" resolve="getLanguage" />
              <node concept="37vLTw" id="2G4N_X5HwNA" role="37wK5m">
                <ref role="3cqZAo" node="6ErrHV2$AsI" resolve="langId" />
              </node>
              <node concept="2OqwBi" id="2G4N_X5HwNB" role="37wK5m">
                <node concept="37vLTw" id="2G4N_X5HwNC" role="2Oq$k0">
                  <ref role="3cqZAo" node="IkVTleGFeF" resolve="lang" />
                </node>
                <node concept="liA8E" id="2G4N_X5HwND" role="2OqNvi">
                  <ref role="37wK5l" to="z1c3:~AbstractModule.getModuleName():java.lang.String" resolve="getModuleName" />
                </node>
              </node>
            </node>
          </node>
        </node>
        <node concept="3clFbH" id="14XAQ5_$$lf" role="3cqZAp" />
        <node concept="3cpWs8" id="IkVTleGLuQ" role="3cqZAp">
          <node concept="3cpWsn" id="IkVTleGLuR" role="3cpWs9">
            <property role="TrG5h" value="mig" />
            <node concept="1qvjxa" id="7XWR6$5jIEY" role="33vP2m">
              <ref role="1quiSB" to="che4:2LiUEk8oQ$g" resolve="migration" />
              <node concept="37vLTw" id="7XWR6$5jLmf" role="1qvjxb">
                <ref role="3cqZAo" node="IkVTleGFeF" resolve="lang" />
              </node>
            </node>
            <node concept="3uibUv" id="IkVTleGLuE" role="1tU5fm">
              <ref role="3uigEE" to="mhbf:~SModel" resolve="SModel" />
            </node>
          </node>
        </node>
        <node concept="3clFbJ" id="IkVTleGMpa" role="3cqZAp">
          <node concept="3clFbS" id="IkVTleGMpd" role="3clFbx">
            <node concept="3cpWs6" id="IkVTleGNmr" role="3cqZAp">
              <node concept="3y3z36" id="14XAQ5_$CUX" role="3cqZAk">
                <node concept="3cmrfG" id="14XAQ5_$DoP" role="3uHU7w">
                  <property role="3cmrfH" value="0" />
                </node>
                <node concept="2OqwBi" id="14XAQ5_$AoH" role="3uHU7B">
                  <node concept="37vLTw" id="14XAQ5_$_VK" role="2Oq$k0">
                    <ref role="3cqZAo" node="6ErrHV2$M8a" resolve="slang" />
                  </node>
                  <node concept="liA8E" id="14XAQ5_$B30" role="2OqNvi">
                    <ref role="37wK5l" to="c17a:~SLanguage.getLanguageVersion():int" resolve="getLanguageVersion" />
                  </node>
                </node>
              </node>
            </node>
          </node>
          <node concept="3clFbC" id="IkVTleGMQT" role="3clFbw">
            <node concept="10Nm6u" id="IkVTleGN2a" role="3uHU7w" />
            <node concept="37vLTw" id="IkVTleGMF2" role="3uHU7B">
              <ref role="3cqZAo" node="IkVTleGLuR" resolve="mig" />
            </node>
          </node>
        </node>
        <node concept="3clFbH" id="5_ej6Dnbz$R" role="3cqZAp" />
        <node concept="3cpWs8" id="5_ej6Dnbhkg" role="3cqZAp">
          <node concept="3cpWsn" id="5_ej6Dnbhkh" role="3cpWs9">
            <property role="TrG5h" value="migrations" />
            <node concept="2I9FWS" id="5_ej6Dnbhk0" role="1tU5fm">
              <ref role="2I9WkF" to="53vh:4uVwhQyFcjm" resolve="IMigrationUnit" />
            </node>
            <node concept="2OqwBi" id="5_ej6Dnbhki" role="33vP2m">
              <node concept="1eOMI4" id="5_ej6Dnbhkj" role="2Oq$k0">
                <node concept="10QFUN" id="5_ej6Dnbhkk" role="1eOMHV">
                  <node concept="37vLTw" id="5_ej6Dnbhkl" role="10QFUP">
                    <ref role="3cqZAo" node="IkVTleGLuR" resolve="mig" />
                  </node>
                  <node concept="H_c77" id="5_ej6Dnbhkm" role="10QFUM" />
                </node>
              </node>
              <node concept="2RRcyG" id="5_ej6Dnbhkn" role="2OqNvi">
                <ref role="2RRcyH" to="53vh:4uVwhQyFcjm" resolve="IMigrationUnit" />
              </node>
            </node>
          </node>
        </node>
        <node concept="3clFbJ" id="41oOO0GdZJa" role="3cqZAp">
          <node concept="3clFbS" id="41oOO0GdZJc" role="3clFbx">
            <node concept="3cpWs6" id="41oOO0Ge4q3" role="3cqZAp">
              <node concept="3clFbT" id="41oOO0Ge5n3" role="3cqZAk">
                <property role="3clFbU" value="false" />
              </node>
            </node>
          </node>
          <node concept="3clFbC" id="41oOO0Ge3mZ" role="3clFbw">
            <node concept="3cmrfG" id="41oOO0Ge3Py" role="3uHU7w">
              <property role="3cmrfH" value="0" />
            </node>
            <node concept="2OqwBi" id="41oOO0Ge0LC" role="3uHU7B">
              <node concept="37vLTw" id="41oOO0Ge0jD" role="2Oq$k0">
                <ref role="3cqZAo" node="IkVTleGFeF" resolve="lang" />
              </node>
              <node concept="liA8E" id="41oOO0Ge2sS" role="2OqNvi">
                <ref role="37wK5l" to="w1kc:~Language.getLanguageVersion():int" resolve="getLanguageVersion" />
              </node>
            </node>
          </node>
        </node>
        <node concept="3clFbJ" id="5_ej6DnbljN" role="3cqZAp">
          <node concept="3clFbS" id="5_ej6DnbljQ" role="3clFbx">
            <node concept="3cpWs6" id="5_ej6Dnby2Z" role="3cqZAp">
              <node concept="3clFbT" id="5_ej6Dnbz21" role="3cqZAk">
                <property role="3clFbU" value="true" />
              </node>
            </node>
          </node>
          <node concept="1Wc70l" id="5_ej6DnbtGg" role="3clFbw">
            <node concept="3y3z36" id="5_ej6DnbwUs" role="3uHU7w">
              <node concept="3cmrfG" id="5_ej6Dnbxtn" role="3uHU7w">
                <property role="3cmrfH" value="0" />
              </node>
              <node concept="2OqwBi" id="5_ej6DnbuLJ" role="3uHU7B">
                <node concept="37vLTw" id="5_ej6Dnbuf7" role="2Oq$k0">
                  <ref role="3cqZAo" node="IkVTleGFeF" resolve="lang" />
                </node>
                <node concept="liA8E" id="5_ej6DnbvNl" role="2OqNvi">
                  <ref role="37wK5l" to="w1kc:~Language.getLanguageVersion():int" resolve="getLanguageVersion" />
                </node>
              </node>
            </node>
            <node concept="2OqwBi" id="5_ej6Dnbn8v" role="3uHU7B">
              <node concept="37vLTw" id="5_ej6DnblRx" role="2Oq$k0">
                <ref role="3cqZAo" node="5_ej6Dnbhkh" resolve="migrations" />
              </node>
              <node concept="1v1jN8" id="5_ej6Dnbt2n" role="2OqNvi" />
            </node>
          </node>
        </node>
        <node concept="3clFbH" id="5_ej6DnbkHA" role="3cqZAp" />
        <node concept="3cpWs8" id="IkVTleHE5a" role="3cqZAp">
          <node concept="3cpWsn" id="IkVTleHE5b" role="3cpWs9">
            <property role="TrG5h" value="maxFrom" />
            <node concept="10Oyi0" id="IkVTleHE55" role="1tU5fm" />
            <node concept="2OqwBi" id="IkVTleHE5c" role="33vP2m">
              <node concept="2qgKlT" id="4uVwhQyMEyy" role="2OqNvi">
                <ref role="37wK5l" to="buve:4uVwhQyFcnl" resolve="fromVersion" />
              </node>
              <node concept="2OqwBi" id="IkVTleHE5d" role="2Oq$k0">
                <node concept="2OqwBi" id="IkVTleHE5e" role="2Oq$k0">
                  <node concept="37vLTw" id="5_ej6Dnbhko" role="2Oq$k0">
                    <ref role="3cqZAo" node="5_ej6Dnbhkh" resolve="migrations" />
                  </node>
                  <node concept="2S7cBI" id="IkVTleHE5l" role="2OqNvi">
                    <node concept="1bVj0M" id="IkVTleHE5m" role="23t8la">
                      <node concept="3clFbS" id="IkVTleHE5n" role="1bW5cS">
                        <node concept="3clFbF" id="IkVTleHE5o" role="3cqZAp">
                          <node concept="2OqwBi" id="IkVTleHE5p" role="3clFbG">
                            <node concept="2qgKlT" id="4uVwhQyMwbQ" role="2OqNvi">
                              <ref role="37wK5l" to="buve:4uVwhQyFcnl" resolve="fromVersion" />
                            </node>
                            <node concept="37vLTw" id="IkVTleHE5q" role="2Oq$k0">
                              <ref role="3cqZAo" node="IkVTleHE5s" resolve="it" />
                            </node>
                          </node>
                        </node>
                      </node>
                      <node concept="Rh6nW" id="IkVTleHE5s" role="1bW2Oz">
                        <property role="TrG5h" value="it" />
                        <node concept="2jxLKc" id="IkVTleHE5t" role="1tU5fm" />
                      </node>
                    </node>
                    <node concept="1nlBCl" id="IkVTleHE5u" role="2S7zOq">
                      <property role="3clFbU" value="false" />
                    </node>
                  </node>
                </node>
                <node concept="1uHKPH" id="IkVTleHE5v" role="2OqNvi" />
              </node>
            </node>
          </node>
        </node>
        <node concept="3clFbH" id="5$lI4Sjgcti" role="3cqZAp" />
        <node concept="3clFbJ" id="5$lI4Sjfle4" role="3cqZAp">
          <node concept="3clFbS" id="5$lI4Sjfle7" role="3clFbx">
            <node concept="3clFbJ" id="5$lI4SjgfCv" role="3cqZAp">
              <node concept="3clFbS" id="5$lI4SjgfCy" role="3clFbx">
                <node concept="3cpWs6" id="5$lI4SjgEXK" role="3cqZAp">
                  <node concept="3clFbT" id="5$lI4SjgGWk" role="3cqZAk">
                    <property role="3clFbU" value="true" />
                  </node>
                </node>
              </node>
              <node concept="3y3z36" id="5$lI4Sjgpbv" role="3clFbw">
                <node concept="2OqwBi" id="5$lI4SjghuX" role="3uHU7B">
                  <node concept="2OqwBi" id="5$lI4SjggvB" role="2Oq$k0">
                    <node concept="2OqwBi" id="5$lI4SjggvC" role="2Oq$k0">
                      <node concept="liA8E" id="5$lI4SjggvD" role="2OqNvi">
                        <ref role="37wK5l" to="w1kc:~Language.getModuleDescriptor():jetbrains.mps.project.structure.modules.LanguageDescriptor" resolve="getModuleDescriptor" />
                      </node>
                      <node concept="37vLTw" id="5$lI4Sjgz20" role="2Oq$k0">
                        <ref role="3cqZAo" node="IkVTleGFeF" resolve="lang" />
                      </node>
                    </node>
                    <node concept="liA8E" id="5$lI4SjggvI" role="2OqNvi">
                      <ref role="37wK5l" to="w0gx:~ModuleDescriptor.getLanguageVersions():java.util.Map" resolve="getLanguageVersions" />
                    </node>
                  </node>
                  <node concept="liA8E" id="5$lI4Sjgk$u" role="2OqNvi">
                    <ref role="37wK5l" to="33ny:~Map.get(java.lang.Object):java.lang.Object" resolve="get" />
                    <node concept="37vLTw" id="6ErrHV2$Q7s" role="37wK5m">
                      <ref role="3cqZAo" node="6ErrHV2$M8a" resolve="slang" />
                    </node>
                  </node>
                </node>
                <node concept="2OqwBi" id="5$lI4SjgDOk" role="3uHU7w">
                  <node concept="37vLTw" id="5$lI4SjgDOl" role="2Oq$k0">
                    <ref role="3cqZAo" node="IkVTleGFeF" resolve="lang" />
                  </node>
                  <node concept="liA8E" id="5$lI4SjgDOm" role="2OqNvi">
                    <ref role="37wK5l" to="w1kc:~Language.getLanguageVersion():int" resolve="getLanguageVersion" />
                  </node>
                </node>
              </node>
            </node>
          </node>
          <node concept="2OqwBi" id="5$lI4Sjfz4o" role="3clFbw">
            <node concept="2OqwBi" id="5$lI4Sjfulh" role="2Oq$k0">
              <node concept="2OqwBi" id="5$lI4Sjfmzn" role="2Oq$k0">
                <node concept="liA8E" id="5$lI4SjftNv" role="2OqNvi">
                  <ref role="37wK5l" to="w1kc:~Language.getModuleDescriptor():jetbrains.mps.project.structure.modules.LanguageDescriptor" resolve="getModuleDescriptor" />
                </node>
                <node concept="37vLTw" id="5$lI4Sjgtns" role="2Oq$k0">
                  <ref role="3cqZAo" node="IkVTleGFeF" resolve="lang" />
                </node>
              </node>
              <node concept="liA8E" id="5$lI4SjfvtZ" role="2OqNvi">
                <ref role="37wK5l" to="w0gx:~ModuleDescriptor.getLanguageVersions():java.util.Map" resolve="getLanguageVersions" />
              </node>
            </node>
            <node concept="liA8E" id="5$lI4SjfCcX" role="2OqNvi">
              <ref role="37wK5l" to="33ny:~Map.containsKey(java.lang.Object):boolean" resolve="containsKey" />
              <node concept="37vLTw" id="6ErrHV2$M8h" role="37wK5m">
                <ref role="3cqZAo" node="6ErrHV2$M8a" resolve="slang" />
              </node>
            </node>
          </node>
        </node>
        <node concept="3cpWs6" id="IkVTleHNUM" role="3cqZAp">
          <node concept="3y3z36" id="MGgIRlJxp8" role="3cqZAk">
            <node concept="2OqwBi" id="MGgIRlJxpd" role="3uHU7B">
              <node concept="37vLTw" id="MGgIRlJxpe" role="2Oq$k0">
                <ref role="3cqZAo" node="IkVTleGFeF" resolve="lang" />
              </node>
              <node concept="liA8E" id="MGgIRlJxpf" role="2OqNvi">
                <ref role="37wK5l" to="w1kc:~Language.getLanguageVersion():int" resolve="getLanguageVersion" />
              </node>
            </node>
            <node concept="3cpWs3" id="MGgIRlJxpa" role="3uHU7w">
              <node concept="37vLTw" id="MGgIRlJxpb" role="3uHU7B">
                <ref role="3cqZAo" node="IkVTleHE5b" resolve="maxFrom" />
              </node>
              <node concept="3cmrfG" id="MGgIRlJxpc" role="3uHU7w">
                <property role="3cmrfH" value="1" />
              </node>
            </node>
          </node>
        </node>
      </node>
    </node>
  </node>
  <node concept="tC5Ba" id="3QgUde4uGPg">
    <property role="TrG5h" value="MigrationGroup" />
    <node concept="ftmFs" id="3QgUde4uLgE" role="ftER_">
      <node concept="tCFHf" id="3QgUde4uLhn" role="ftvYc">
        <ref role="tCJdB" node="5VZG9FqCIvC" resolve="CorrectLanguageVersion" />
      </node>
    </node>
    <node concept="tT9cl" id="3QgUde4v2dh" role="2f5YQi">
      <ref role="tU$_T" to="tprs:hyf4IKE" resolve="LanguageActions" />
      <ref role="2f8Tey" to="tprs:1Fww89lo1oU" resolve="ex" />
    </node>
  </node>
  <node concept="2DaZZR" id="6BA70xd3rV5" />
</model>

