<?xml version="1.0" encoding="UTF-8"?>
<model ref="r:8c8fe51b-5d1c-4239-ae72-28ec2edb2fcc(jetbrains.mps.samples.generator_demo.demoLang5.structure)">
  <persistence version="9" />
  <languages>
    <use id="982eb8df-2c96-4bd7-9963-11712ea622e5" name="jetbrains.mps.lang.resources" version="2" />
  </languages>
  <imports />
  <registry />
</model>

