<?xml version="1.0" encoding="UTF-8"?>
<model ref="r:00000000-0000-4000-0000-011c8959036c(jetbrains.mps.baseLanguage.classifiers.actions)">
  <persistence version="9" />
  <languages>
    <use id="83888646-71ce-4f1c-9c53-c54016f6ad4f" name="jetbrains.mps.baseLanguage.collections" version="0" />
    <use id="aee9cad2-acd4-4608-aef2-0004f6a1cdbd" name="jetbrains.mps.lang.actions" version="0" />
    <use id="7866978e-a0f0-4cc7-81bc-4d213d9375e1" name="jetbrains.mps.lang.smodel" version="4" />
    <use id="f3061a53-9226-4cc5-a443-f952ceaf5816" name="jetbrains.mps.baseLanguage" version="4" />
    <devkit ref="fbc25dd2-5da4-483a-8b19-70928e1b62d7(jetbrains.mps.devkit.general-purpose)" />
  </languages>
  <imports>
    <import index="tp4f" ref="r:00000000-0000-4000-0000-011c89590373(jetbrains.mps.baseLanguage.classifiers.structure)" />
    <import index="tpee" ref="r:00000000-0000-4000-0000-011c895902ca(jetbrains.mps.baseLanguage.structure)" />
    <import index="tp4h" ref="r:00000000-0000-4000-0000-011c8959036d(jetbrains.mps.baseLanguage.classifiers.behavior)" />
    <import index="tpck" ref="r:00000000-0000-4000-0000-011c89590288(jetbrains.mps.lang.core.structure)" implicit="true" />
  </imports>
  <registry>
    <language id="f3061a53-9226-4cc5-a443-f952ceaf5816" name="jetbrains.mps.baseLanguage">
      <concept id="1082485599095" name="jetbrains.mps.baseLanguage.structure.BlockStatement" flags="nn" index="9aQIb">
        <child id="1082485599096" name="statements" index="9aQI4" />
      </concept>
      <concept id="1215693861676" name="jetbrains.mps.baseLanguage.structure.BaseAssignmentExpression" flags="nn" index="d038R">
        <child id="1068498886297" name="rValue" index="37vLTx" />
        <child id="1068498886295" name="lValue" index="37vLTJ" />
      </concept>
      <concept id="4836112446988635817" name="jetbrains.mps.baseLanguage.structure.UndefinedType" flags="in" index="2jxLKc" />
      <concept id="1197027756228" name="jetbrains.mps.baseLanguage.structure.DotExpression" flags="nn" index="2OqwBi">
        <child id="1197027771414" name="operand" index="2Oq$k0" />
        <child id="1197027833540" name="operation" index="2OqNvi" />
      </concept>
      <concept id="1145552977093" name="jetbrains.mps.baseLanguage.structure.GenericNewExpression" flags="nn" index="2ShNRf">
        <child id="1145553007750" name="creator" index="2ShVmc" />
      </concept>
      <concept id="1137021947720" name="jetbrains.mps.baseLanguage.structure.ConceptFunction" flags="in" index="2VMwT0">
        <child id="1137022507850" name="body" index="2VODD2" />
      </concept>
      <concept id="1070475926800" name="jetbrains.mps.baseLanguage.structure.StringLiteral" flags="nn" index="Xl_RD">
        <property id="1070475926801" name="value" index="Xl_RC" />
      </concept>
      <concept id="1070534058343" name="jetbrains.mps.baseLanguage.structure.NullLiteral" flags="nn" index="10Nm6u" />
      <concept id="1070534644030" name="jetbrains.mps.baseLanguage.structure.BooleanType" flags="in" index="10P_77" />
      <concept id="1068431474542" name="jetbrains.mps.baseLanguage.structure.VariableDeclaration" flags="ng" index="33uBYm">
        <child id="1068431790190" name="initializer" index="33vP2m" />
      </concept>
      <concept id="1068498886296" name="jetbrains.mps.baseLanguage.structure.VariableReference" flags="nn" index="37vLTw">
        <reference id="1068581517664" name="variableDeclaration" index="3cqZAo" />
      </concept>
      <concept id="1068498886294" name="jetbrains.mps.baseLanguage.structure.AssignmentExpression" flags="nn" index="37vLTI" />
      <concept id="4972933694980447171" name="jetbrains.mps.baseLanguage.structure.BaseVariableDeclaration" flags="ng" index="19Szcq">
        <child id="5680397130376446158" name="type" index="1tU5fm" />
      </concept>
      <concept id="1068580123155" name="jetbrains.mps.baseLanguage.structure.ExpressionStatement" flags="nn" index="3clFbF">
        <child id="1068580123156" name="expression" index="3clFbG" />
      </concept>
      <concept id="1068580123159" name="jetbrains.mps.baseLanguage.structure.IfStatement" flags="nn" index="3clFbJ">
        <child id="1082485599094" name="ifFalseStatement" index="9aQIa" />
        <child id="1068580123160" name="condition" index="3clFbw" />
        <child id="1068580123161" name="ifTrue" index="3clFbx" />
      </concept>
      <concept id="1068580123136" name="jetbrains.mps.baseLanguage.structure.StatementList" flags="sn" stub="5293379017992965193" index="3clFbS">
        <child id="1068581517665" name="statement" index="3cqZAp" />
      </concept>
      <concept id="1068580320020" name="jetbrains.mps.baseLanguage.structure.IntegerConstant" flags="nn" index="3cmrfG">
        <property id="1068580320021" name="value" index="3cmrfH" />
      </concept>
      <concept id="1068581242875" name="jetbrains.mps.baseLanguage.structure.PlusExpression" flags="nn" index="3cpWs3" />
      <concept id="1068581242878" name="jetbrains.mps.baseLanguage.structure.ReturnStatement" flags="nn" index="3cpWs6">
        <child id="1068581517676" name="expression" index="3cqZAk" />
      </concept>
      <concept id="1068581242864" name="jetbrains.mps.baseLanguage.structure.LocalVariableDeclarationStatement" flags="nn" index="3cpWs8">
        <child id="1068581242865" name="localVariableDeclaration" index="3cpWs9" />
      </concept>
      <concept id="1068581242863" name="jetbrains.mps.baseLanguage.structure.LocalVariableDeclaration" flags="nr" index="3cpWsn" />
      <concept id="1081506762703" name="jetbrains.mps.baseLanguage.structure.GreaterThanExpression" flags="nn" index="3eOSWO" />
      <concept id="1204053956946" name="jetbrains.mps.baseLanguage.structure.IMethodCall" flags="ng" index="1ndlxa">
        <reference id="1068499141037" name="baseMethodDeclaration" index="37wK5l" />
        <child id="1068499141038" name="actualArgument" index="37wK5m" />
      </concept>
      <concept id="1081773326031" name="jetbrains.mps.baseLanguage.structure.BinaryOperation" flags="nn" index="3uHJSO">
        <child id="1081773367579" name="rightExpression" index="3uHU7w" />
        <child id="1081773367580" name="leftExpression" index="3uHU7B" />
      </concept>
      <concept id="1073239437375" name="jetbrains.mps.baseLanguage.structure.NotEqualsExpression" flags="nn" index="3y3z36" />
    </language>
    <language id="fd392034-7849-419d-9071-12563d152375" name="jetbrains.mps.baseLanguage.closures">
      <concept id="1199569711397" name="jetbrains.mps.baseLanguage.closures.structure.ClosureLiteral" flags="nn" index="1bVj0M">
        <child id="1199569906740" name="parameter" index="1bW2Oz" />
        <child id="1199569916463" name="body" index="1bW5cS" />
      </concept>
    </language>
    <language id="aee9cad2-acd4-4608-aef2-0004f6a1cdbd" name="jetbrains.mps.lang.actions">
      <concept id="5979988948250981289" name="jetbrains.mps.lang.actions.structure.SNodeCreatorAndInitializer" flags="nn" index="2fJWfE" />
      <concept id="1179456248444" name="jetbrains.mps.lang.actions.structure.QueryFunction_SubstituteVariableInitializer" flags="in" index="2t4xHI" />
      <concept id="1177323996388" name="jetbrains.mps.lang.actions.structure.AddMenuPart" flags="ng" index="tYCnQ" />
      <concept id="1177333529597" name="jetbrains.mps.lang.actions.structure.ConceptPart" flags="ng" index="uyZFJ">
        <reference id="1177333551023" name="concept" index="uz4UX" />
        <child id="1177333559040" name="part" index="uz6Si" />
      </concept>
      <concept id="1177337641126" name="jetbrains.mps.lang.actions.structure.ParameterizedSubstituteMenuPart" flags="ng" index="uMFAO">
        <child id="1177337679534" name="type" index="uMOYW" />
        <child id="1177338017561" name="query" index="uO7ob" />
        <child id="1177339421668" name="handler" index="uTubQ" />
      </concept>
      <concept id="1177337833147" name="jetbrains.mps.lang.actions.structure.ConceptFunctionParameter_parameterObject" flags="nn" index="uNquD" />
      <concept id="1177337890340" name="jetbrains.mps.lang.actions.structure.QueryFunction_ParameterizedSubstitute_Query" flags="in" index="uNCsQ" />
      <concept id="1177339225103" name="jetbrains.mps.lang.actions.structure.QueryFunction_ParameterizedSubstitute_Handler" flags="in" index="uSIkt" />
      <concept id="1177497140107" name="jetbrains.mps.lang.actions.structure.ConceptFunctionParameter_sourceNode" flags="nn" index="Cj7Ep" />
      <concept id="1177498071304" name="jetbrains.mps.lang.actions.structure.QueryFunction_SideTransform_String" flags="in" index="CmF0q" />
      <concept id="1177508764419" name="jetbrains.mps.lang.actions.structure.ParameterizedSideTransformMenuPart" flags="ng" index="CZtCh">
        <child id="1177508914797" name="type" index="D02tZ" />
        <child id="1177508922313" name="query" index="D04br" />
        <child id="1177508933220" name="matchingText" index="D06XQ" />
        <child id="1177508966300" name="handler" index="D0eUe" />
      </concept>
      <concept id="1177508842676" name="jetbrains.mps.lang.actions.structure.QueryFunction_ParameterizedSideTransform_Query" flags="in" index="CZKQA" />
      <concept id="1177509289232" name="jetbrains.mps.lang.actions.structure.QueryFunction_ParameterizedSideTransform_Handler" flags="in" index="D1tK2" />
      <concept id="767145758118872830" name="jetbrains.mps.lang.actions.structure.NF_Link_SetNewChildOperation" flags="nn" index="2DeJnY" />
      <concept id="1154465102724" name="jetbrains.mps.lang.actions.structure.NodeSubstitutePreconditionFunction" flags="in" index="3buRE8" />
      <concept id="1154465273778" name="jetbrains.mps.lang.actions.structure.ConceptFunctionParameter_parentNode" flags="nn" index="3bvxqY" />
      <concept id="1221135252814" name="jetbrains.mps.lang.actions.structure.PasteWrappers" flags="ig" index="1hljLi">
        <child id="1221135321084" name="wrapper" index="1hl$rw" />
      </concept>
      <concept id="1221135315536" name="jetbrains.mps.lang.actions.structure.PasteWrapper" flags="lg" index="1hlzdc">
        <reference id="1221135563864" name="sourceConcept" index="1hmvP4" />
        <reference id="1221137152191" name="targetConcept" index="1hszAz" />
        <child id="1221137217490" name="wrapperFunction" index="1hsNre" />
      </concept>
      <concept id="1221137268788" name="jetbrains.mps.lang.actions.structure.ConceptFunctionParameter_nodeToPasteWrap" flags="nn" index="1ht04C" />
      <concept id="1221137293320" name="jetbrains.mps.lang.actions.structure.QueryFunction_PasteWrapper" flags="in" index="1ht64k" />
      <concept id="1154622616118" name="jetbrains.mps.lang.actions.structure.SideTransformHintSubstitutePreconditionFunction" flags="in" index="3kRJcU" />
      <concept id="1178539929008" name="jetbrains.mps.lang.actions.structure.SubstituteNodeBuilderVariableDeclaration" flags="ig" index="1At2My">
        <child id="1179456561288" name="initializerBlock" index="2t5I6q" />
      </concept>
      <concept id="1178541723620" name="jetbrains.mps.lang.actions.structure.SubstituteNodeBuilderVariableReference" flags="nn" index="1AzSVQ" />
      <concept id="1112056943463" name="jetbrains.mps.lang.actions.structure.NodeSubstituteActions" flags="ng" index="3FK_9_">
        <child id="1112058057696" name="actionsBuilder" index="3FOPby" />
      </concept>
      <concept id="1112058030570" name="jetbrains.mps.lang.actions.structure.NodeSubstituteActionsBuilder" flags="ig" index="3FOIzC">
        <reference id="1112058088712" name="applicableConcept" index="3FOWKa" />
        <child id="1177324142645" name="part" index="tZc4B" />
        <child id="1154465386371" name="precondition" index="3bvWUf" />
        <child id="1178540170602" name="variable" index="1AtXLS" />
      </concept>
      <concept id="1138079221458" name="jetbrains.mps.lang.actions.structure.SideTransformHintSubstituteActionsBuilder" flags="ig" index="3UNGvq">
        <property id="1215605257730" name="side" index="7I3sp" />
        <reference id="1138079221462" name="applicableConcept" index="3UNGvu" />
        <child id="1177442283389" name="part" index="_1QTJ" />
        <child id="1154622757656" name="precondition" index="3kShCk" />
      </concept>
      <concept id="1138079416598" name="jetbrains.mps.lang.actions.structure.SideTransformHintSubstituteActions" flags="ng" index="3UOs0u">
        <child id="1138079416599" name="actionsBuilder" index="3UOs0v" />
      </concept>
    </language>
    <language id="7866978e-a0f0-4cc7-81bc-4d213d9375e1" name="jetbrains.mps.lang.smodel">
      <concept id="1177026924588" name="jetbrains.mps.lang.smodel.structure.RefConcept_Reference" flags="nn" index="chp4Y">
        <reference id="1177026940964" name="conceptDeclaration" index="cht4Q" />
      </concept>
      <concept id="1138411891628" name="jetbrains.mps.lang.smodel.structure.SNodeOperation" flags="nn" index="eCIE_">
        <child id="1144104376918" name="parameter" index="1xVPHs" />
      </concept>
      <concept id="1140725362528" name="jetbrains.mps.lang.smodel.structure.Link_SetTargetOperation" flags="nn" index="2oxUTD">
        <child id="1140725362529" name="linkTarget" index="2oxUTC" />
      </concept>
      <concept id="1179409122411" name="jetbrains.mps.lang.smodel.structure.Node_ConceptMethodCall" flags="nn" index="2qgKlT" />
      <concept id="1138757581985" name="jetbrains.mps.lang.smodel.structure.Link_SetNewChildOperation" flags="nn" index="zfrQC">
        <reference id="1139880128956" name="concept" index="1A9B2P" />
      </concept>
      <concept id="1173122760281" name="jetbrains.mps.lang.smodel.structure.Node_GetAncestorsOperation" flags="nn" index="z$bX8" />
      <concept id="2396822768958367367" name="jetbrains.mps.lang.smodel.structure.AbstractTypeCastExpression" flags="nn" index="$5XWr">
        <reference id="6733348108486823428" name="concept" index="1m5ApE" />
        <child id="6733348108486823193" name="leftExpression" index="1m5AlR" />
      </concept>
      <concept id="1171305280644" name="jetbrains.mps.lang.smodel.structure.Node_GetDescendantsOperation" flags="nn" index="2Rf3mk" />
      <concept id="1171407110247" name="jetbrains.mps.lang.smodel.structure.Node_GetAncestorOperation" flags="nn" index="2Xjw5R" />
      <concept id="1154546920561" name="jetbrains.mps.lang.smodel.structure.OperationParm_ConceptList" flags="ng" index="3gmYPX">
        <child id="1154546920563" name="concept" index="3gmYPZ" />
      </concept>
      <concept id="1154546950173" name="jetbrains.mps.lang.smodel.structure.ConceptReference" flags="ng" index="3gn64h">
        <reference id="1154546997487" name="concept" index="3gnhBz" />
      </concept>
      <concept id="1139621453865" name="jetbrains.mps.lang.smodel.structure.Node_IsInstanceOfOperation" flags="nn" index="1mIQ4w">
        <child id="1177027386292" name="conceptArgument" index="cj9EA" />
      </concept>
      <concept id="1171999116870" name="jetbrains.mps.lang.smodel.structure.Node_IsNullOperation" flags="nn" index="3w_OXm" />
      <concept id="1144100932627" name="jetbrains.mps.lang.smodel.structure.OperationParm_Inclusion" flags="ng" index="1xIGOp" />
      <concept id="1144101972840" name="jetbrains.mps.lang.smodel.structure.OperationParm_Concept" flags="ng" index="1xMEDy">
        <child id="1207343664468" name="conceptArgument" index="ri$Ld" />
      </concept>
      <concept id="1180636770613" name="jetbrains.mps.lang.smodel.structure.SNodeCreator" flags="nn" index="3zrR0B">
        <child id="1180636770616" name="createdType" index="3zrR0E" />
      </concept>
      <concept id="1139867745658" name="jetbrains.mps.lang.smodel.structure.Node_ReplaceWithNewOperation" flags="nn" index="1_qnLN">
        <reference id="1139867957129" name="concept" index="1_rbq0" />
      </concept>
      <concept id="1140131837776" name="jetbrains.mps.lang.smodel.structure.Node_ReplaceWithAnotherOperation" flags="nn" index="1P9Npp">
        <child id="1140131861877" name="replacementNode" index="1P9ThW" />
      </concept>
      <concept id="1140137987495" name="jetbrains.mps.lang.smodel.structure.SNodeTypeCastExpression" flags="nn" index="1PxgMI" />
      <concept id="1138055754698" name="jetbrains.mps.lang.smodel.structure.SNodeType" flags="in" index="3Tqbb2">
        <reference id="1138405853777" name="concept" index="ehGHo" />
      </concept>
      <concept id="1138056022639" name="jetbrains.mps.lang.smodel.structure.SPropertyAccess" flags="nn" index="3TrcHB">
        <reference id="1138056395725" name="property" index="3TsBF5" />
      </concept>
      <concept id="1138056143562" name="jetbrains.mps.lang.smodel.structure.SLinkAccess" flags="nn" index="3TrEf2">
        <reference id="1138056516764" name="link" index="3Tt5mk" />
      </concept>
      <concept id="1138056282393" name="jetbrains.mps.lang.smodel.structure.SLinkListAccess" flags="nn" index="3Tsc0h">
        <reference id="1138056546658" name="link" index="3TtcxE" />
      </concept>
    </language>
    <language id="ceab5195-25ea-4f22-9b92-103b95ca8c0c" name="jetbrains.mps.lang.core">
      <concept id="1169194658468" name="jetbrains.mps.lang.core.structure.INamedConcept" flags="ng" index="TrEIO">
        <property id="1169194664001" name="name" index="TrG5h" />
      </concept>
    </language>
    <language id="83888646-71ce-4f1c-9c53-c54016f6ad4f" name="jetbrains.mps.baseLanguage.collections">
      <concept id="1204796164442" name="jetbrains.mps.baseLanguage.collections.structure.InternalSequenceOperation" flags="nn" index="23sCx2">
        <child id="1204796294226" name="closure" index="23t8la" />
      </concept>
      <concept id="540871147943773365" name="jetbrains.mps.baseLanguage.collections.structure.SingleArgumentSequenceOperation" flags="nn" index="25WWJ4">
        <child id="540871147943773366" name="argument" index="25WWJ7" />
      </concept>
      <concept id="1204980550705" name="jetbrains.mps.baseLanguage.collections.structure.VisitAllOperation" flags="nn" index="2es0OD" />
      <concept id="1151702311717" name="jetbrains.mps.baseLanguage.collections.structure.ToListOperation" flags="nn" index="ANE8D" />
      <concept id="1203518072036" name="jetbrains.mps.baseLanguage.collections.structure.SmartClosureParameterDeclaration" flags="ig" index="Rh6nW" />
      <concept id="1160666733551" name="jetbrains.mps.baseLanguage.collections.structure.AddAllElementsOperation" flags="nn" index="X8dFx" />
      <concept id="1162935959151" name="jetbrains.mps.baseLanguage.collections.structure.GetSizeOperation" flags="nn" index="34oBXx" />
    </language>
  </registry>
  <node concept="3FK_9_" id="hz6wKbZ">
    <property role="TrG5h" value="SubstituteMembersInsideOfClassifier" />
    <node concept="3FOIzC" id="hz6wOjc" role="3FOPby">
      <ref role="3FOWKa" to="tpee:fz3vP1J" resolve="Expression" />
      <node concept="1At2My" id="hz6xjZ6" role="1AtXLS">
        <property role="TrG5h" value="contextClassifier" />
        <node concept="2t4xHI" id="hz6xjZ7" role="2t5I6q">
          <node concept="3clFbS" id="hz6xjZ8" role="2VODD2">
            <node concept="3cpWs8" id="hz6xmB9" role="3cqZAp">
              <node concept="3cpWsn" id="hz6xmBa" role="3cpWs9">
                <property role="TrG5h" value="contextPart" />
                <node concept="3Tqbb2" id="hz6xmBb" role="1tU5fm" />
                <node concept="2OqwBi" id="hz6xo2y" role="33vP2m">
                  <node concept="3bvxqY" id="hz6xo2z" role="2Oq$k0" />
                  <node concept="2Xjw5R" id="hz6xo2$" role="2OqNvi">
                    <node concept="3gmYPX" id="hz6xo2_" role="1xVPHs">
                      <node concept="3gn64h" id="hz6xo2A" role="3gmYPZ">
                        <ref role="3gnhBz" to="tp4f:hyWqMFP" resolve="IClassifier" />
                      </node>
                      <node concept="3gn64h" id="hz6xo2B" role="3gmYPZ">
                        <ref role="3gnhBz" to="tp4f:hyWrxye" resolve="IClassifierPart" />
                      </node>
                    </node>
                    <node concept="1xIGOp" id="hz6xo2C" role="1xVPHs" />
                  </node>
                </node>
              </node>
            </node>
            <node concept="3clFbJ" id="hz6xowV" role="3cqZAp">
              <node concept="3clFbS" id="hz6xowW" role="3clFbx">
                <node concept="3cpWs6" id="hz6xqSI" role="3cqZAp">
                  <node concept="1PxgMI" id="hz6xrvP" role="3cqZAk">
                    <ref role="1m5ApE" to="tp4f:hyWqMFP" resolve="IClassifier" />
                    <node concept="37vLTw" id="3GM_nagTuDA" role="1m5AlR">
                      <ref role="3cqZAo" node="hz6xmBa" resolve="contextPart" />
                    </node>
                  </node>
                </node>
              </node>
              <node concept="2OqwBi" id="hz6xpCk" role="3clFbw">
                <node concept="37vLTw" id="3GM_nagTugs" role="2Oq$k0">
                  <ref role="3cqZAo" node="hz6xmBa" resolve="contextPart" />
                </node>
                <node concept="1mIQ4w" id="hz6xqpb" role="2OqNvi">
                  <node concept="chp4Y" id="hz6xqC6" role="cj9EA">
                    <ref role="cht4Q" to="tp4f:hyWqMFP" resolve="IClassifier" />
                  </node>
                </node>
              </node>
              <node concept="9aQIb" id="hz6xsVU" role="9aQIa">
                <node concept="3clFbS" id="hz6xsVV" role="9aQI4">
                  <node concept="3cpWs6" id="hz6xtgX" role="3cqZAp">
                    <node concept="2OqwBi" id="hz6xusu" role="3cqZAk">
                      <node concept="1PxgMI" id="hz6xtXc" role="2Oq$k0">
                        <ref role="1m5ApE" to="tp4f:hyWrxye" resolve="IClassifierPart" />
                        <node concept="37vLTw" id="3GM_nagTwaB" role="1m5AlR">
                          <ref role="3cqZAo" node="hz6xmBa" resolve="contextPart" />
                        </node>
                      </node>
                      <node concept="2qgKlT" id="hz6xv6g" role="2OqNvi">
                        <ref role="37wK5l" to="tp4h:hEwIfO4" resolve="getMainClassifier" />
                      </node>
                    </node>
                  </node>
                </node>
              </node>
            </node>
          </node>
        </node>
        <node concept="3Tqbb2" id="hz6xkjr" role="1tU5fm">
          <ref role="ehGHo" to="tp4f:hyWqMFP" resolve="IClassifier" />
        </node>
      </node>
      <node concept="1At2My" id="hJlX9Wk" role="1AtXLS">
        <property role="TrG5h" value="multipleClassifiers" />
        <node concept="2t4xHI" id="hJlX9Wl" role="2t5I6q">
          <node concept="3clFbS" id="hJlX9Wm" role="2VODD2">
            <node concept="3cpWs6" id="hJlXsR$" role="3cqZAp">
              <node concept="3eOSWO" id="hJlXCmY" role="3cqZAk">
                <node concept="3cmrfG" id="hJlXCoJ" role="3uHU7w">
                  <property role="3cmrfH" value="1" />
                </node>
                <node concept="2OqwBi" id="hJlXAIX" role="3uHU7B">
                  <node concept="2OqwBi" id="hJlXtb8" role="2Oq$k0">
                    <node concept="3bvxqY" id="hJlXtb9" role="2Oq$k0" />
                    <node concept="z$bX8" id="hJlXwuV" role="2OqNvi">
                      <node concept="1xIGOp" id="hJlXyxk" role="1xVPHs" />
                      <node concept="3gmYPX" id="hJlXyYT" role="1xVPHs">
                        <node concept="3gn64h" id="hJlXzDT" role="3gmYPZ">
                          <ref role="3gnhBz" to="tp4f:hyWqMFP" resolve="IClassifier" />
                        </node>
                        <node concept="3gn64h" id="hJlX$kD" role="3gmYPZ">
                          <ref role="3gnhBz" to="tp4f:hyWrxye" resolve="IClassifierPart" />
                        </node>
                        <node concept="3gn64h" id="hJlYcTD" role="3gmYPZ">
                          <ref role="3gnhBz" to="tpee:g7pOWCK" resolve="Classifier" />
                        </node>
                      </node>
                    </node>
                  </node>
                  <node concept="34oBXx" id="hJlXB$e" role="2OqNvi" />
                </node>
              </node>
            </node>
          </node>
        </node>
        <node concept="10P_77" id="hJlXaQY" role="1tU5fm" />
      </node>
      <node concept="3buRE8" id="hz6wPQO" role="3bvWUf">
        <node concept="3clFbS" id="hz6wPQP" role="2VODD2">
          <node concept="3cpWs6" id="hz6xf1r" role="3cqZAp">
            <node concept="3y3z36" id="hz6xjcZ" role="3cqZAk">
              <node concept="10Nm6u" id="hz6xjvP" role="3uHU7w" />
              <node concept="2OqwBi" id="hz6xgyS" role="3uHU7B">
                <node concept="3bvxqY" id="hz6xgsx" role="2Oq$k0" />
                <node concept="2Xjw5R" id="hz6xh1F" role="2OqNvi">
                  <node concept="3gmYPX" id="hz6xhNx" role="1xVPHs">
                    <node concept="3gn64h" id="hz6xi8M" role="3gmYPZ">
                      <ref role="3gnhBz" to="tp4f:hyWqMFP" resolve="IClassifier" />
                    </node>
                    <node concept="3gn64h" id="hz6xiyd" role="3gmYPZ">
                      <ref role="3gnhBz" to="tp4f:hyWrxye" resolve="IClassifierPart" />
                    </node>
                  </node>
                  <node concept="1xIGOp" id="hz6xiSd" role="1xVPHs" />
                </node>
              </node>
            </node>
          </node>
        </node>
      </node>
      <node concept="tYCnQ" id="hz6x$LN" role="tZc4B">
        <ref role="uz4UX" to="tpee:hqOqwz4" resolve="DotExpression" />
        <node concept="uMFAO" id="hz6x_wX" role="uz6Si">
          <node concept="3Tqbb2" id="hz6xBD2" role="uMOYW">
            <ref role="ehGHo" to="tp4f:hyWqYN0" resolve="IMember" />
          </node>
          <node concept="uNCsQ" id="hz6x_wZ" role="uO7ob">
            <node concept="3clFbS" id="hz6x_x0" role="2VODD2">
              <node concept="3cpWs6" id="3YYagzpKB_L" role="3cqZAp">
                <node concept="2OqwBi" id="pcTQVzSLA7" role="3cqZAk">
                  <node concept="1AzSVQ" id="pcTQVzSLA8" role="2Oq$k0">
                    <ref role="3cqZAo" node="hz6xjZ6" resolve="contextClassifier" />
                  </node>
                  <node concept="2qgKlT" id="pcTQVzSLA9" role="2OqNvi">
                    <ref role="37wK5l" to="tp4h:hEwJink" resolve="getMembers" />
                    <node concept="3bvxqY" id="pcTQVzSLAa" role="37wK5m" />
                  </node>
                </node>
              </node>
            </node>
          </node>
          <node concept="uSIkt" id="hz6x_x1" role="uTubQ">
            <node concept="3clFbS" id="hz6x_x2" role="2VODD2">
              <node concept="3cpWs8" id="hz6z4g9" role="3cqZAp">
                <node concept="3cpWsn" id="hz6z4ga" role="3cpWs9">
                  <property role="TrG5h" value="result" />
                  <node concept="3Tqbb2" id="hz6z4gb" role="1tU5fm">
                    <ref role="ehGHo" to="tpee:hqOqwz4" resolve="DotExpression" />
                  </node>
                  <node concept="2ShNRf" id="hz6z5wM" role="33vP2m">
                    <node concept="2fJWfE" id="5wUAOoBBjn8" role="2ShVmc">
                      <node concept="3Tqbb2" id="5wUAOoBBjn9" role="3zrR0E">
                        <ref role="ehGHo" to="tpee:hqOqwz4" resolve="DotExpression" />
                      </node>
                    </node>
                  </node>
                </node>
              </node>
              <node concept="3clFbF" id="hz6z5YS" role="3cqZAp">
                <node concept="2OqwBi" id="hz6z7jf" role="3clFbG">
                  <node concept="2OqwBi" id="hz6z69a" role="2Oq$k0">
                    <node concept="37vLTw" id="3GM_nagTAGp" role="2Oq$k0">
                      <ref role="3cqZAo" node="hz6z4ga" resolve="result" />
                    </node>
                    <node concept="3TrEf2" id="hz6z7bE" role="2OqNvi">
                      <ref role="3Tt5mk" to="tpee:hqOq$gm" />
                    </node>
                  </node>
                  <node concept="2DeJnY" id="5wUAOoBBjpe" role="2OqNvi">
                    <ref role="1A9B2P" to="tp4f:hyWthE1" resolve="ThisClassifierExpression" />
                  </node>
                </node>
              </node>
              <node concept="3clFbJ" id="hJlXE$b" role="3cqZAp">
                <node concept="3clFbS" id="hJlXE$c" role="3clFbx">
                  <node concept="3clFbF" id="hJlXFVE" role="3cqZAp">
                    <node concept="2OqwBi" id="hJlXFVF" role="3clFbG">
                      <node concept="2OqwBi" id="hJlXFVG" role="2Oq$k0">
                        <node concept="1PxgMI" id="hJlXFVH" role="2Oq$k0">
                          <ref role="1m5ApE" to="tp4f:hyWthE1" resolve="ThisClassifierExpression" />
                          <node concept="2OqwBi" id="hJlXFVI" role="1m5AlR">
                            <node concept="37vLTw" id="3GM_nagTyul" role="2Oq$k0">
                              <ref role="3cqZAo" node="hz6z4ga" resolve="result" />
                            </node>
                            <node concept="3TrEf2" id="hJlXFVK" role="2OqNvi">
                              <ref role="3Tt5mk" to="tpee:hqOq$gm" />
                            </node>
                          </node>
                        </node>
                        <node concept="3TrEf2" id="hJlXFVL" role="2OqNvi">
                          <ref role="3Tt5mk" to="tp4f:hJ2nkJ3" />
                        </node>
                      </node>
                      <node concept="2oxUTD" id="hJlXFVM" role="2OqNvi">
                        <node concept="1AzSVQ" id="hJlXFVN" role="2oxUTC">
                          <ref role="3cqZAo" node="hz6xjZ6" resolve="contextClassifier" />
                        </node>
                      </node>
                    </node>
                  </node>
                </node>
                <node concept="1AzSVQ" id="hJlXF05" role="3clFbw">
                  <ref role="3cqZAo" node="hJlX9Wk" resolve="multipleClassifiers" />
                </node>
              </node>
              <node concept="3clFbF" id="hz6zRyW" role="3cqZAp">
                <node concept="2OqwBi" id="hz6zSRk" role="3clFbG">
                  <node concept="2OqwBi" id="hz6zS6C" role="2Oq$k0">
                    <node concept="37vLTw" id="3GM_nagTrld" role="2Oq$k0">
                      <ref role="3cqZAo" node="hz6z4ga" resolve="result" />
                    </node>
                    <node concept="3TrEf2" id="hz6zSKX" role="2OqNvi">
                      <ref role="3Tt5mk" to="tpee:hqOqNr4" />
                    </node>
                  </node>
                  <node concept="2oxUTD" id="hz6zTfx" role="2OqNvi">
                    <node concept="2OqwBi" id="hz6zTWg" role="2oxUTC">
                      <node concept="uNquD" id="hz6zTSl" role="2Oq$k0" />
                      <node concept="2qgKlT" id="hz6zUh2" role="2OqNvi">
                        <ref role="37wK5l" to="tp4h:hEwIBCC" resolve="createOperation" />
                      </node>
                    </node>
                  </node>
                </node>
              </node>
              <node concept="3cpWs6" id="hz6zU_5" role="3cqZAp">
                <node concept="37vLTw" id="3GM_nagT_Hj" role="3cqZAk">
                  <ref role="3cqZAo" node="hz6z4ga" resolve="result" />
                </node>
              </node>
            </node>
          </node>
        </node>
      </node>
    </node>
  </node>
  <node concept="3UOs0u" id="hJm8wL2">
    <property role="TrG5h" value="OuterClassesOnThisExpression" />
    <node concept="3UNGvq" id="hJm8wL3" role="3UOs0v">
      <property role="7I3sp" value="left" />
      <ref role="3UNGvu" to="tp4f:hyWthE1" resolve="ThisClassifierExpression" />
      <node concept="tYCnQ" id="hJm8wL4" role="_1QTJ">
        <ref role="uz4UX" to="tp4f:hyWthE1" resolve="ThisClassifierExpression" />
        <node concept="CZtCh" id="hJm8wL5" role="uz6Si">
          <node concept="3Tqbb2" id="hJm8wL6" role="D02tZ">
            <ref role="ehGHo" to="tp4f:hyWqMFP" resolve="IClassifier" />
          </node>
          <node concept="CZKQA" id="hJm8wL7" role="D04br">
            <node concept="3clFbS" id="hJm8wL8" role="2VODD2">
              <node concept="3clFbF" id="hJm8wL9" role="3cqZAp">
                <node concept="2OqwBi" id="hJm8wLa" role="3clFbG">
                  <node concept="Cj7Ep" id="hJm8M8u" role="2Oq$k0" />
                  <node concept="2qgKlT" id="hJm8wLc" role="2OqNvi">
                    <ref role="37wK5l" to="tp4h:hJm8WEN" resolve="getPossibleClassifiers" />
                  </node>
                </node>
              </node>
            </node>
          </node>
          <node concept="D1tK2" id="hJm8wLd" role="D0eUe">
            <node concept="3clFbS" id="hJm8wLe" role="2VODD2">
              <node concept="3cpWs8" id="hJm8wLf" role="3cqZAp">
                <node concept="3cpWsn" id="hJm8wLg" role="3cpWs9">
                  <property role="TrG5h" value="expr" />
                  <node concept="3Tqbb2" id="hJm8wLh" role="1tU5fm">
                    <ref role="ehGHo" to="tp4f:hyWthE1" resolve="ThisClassifierExpression" />
                  </node>
                  <node concept="2ShNRf" id="hJm8wLi" role="33vP2m">
                    <node concept="2fJWfE" id="5wUAOoBBjng" role="2ShVmc">
                      <node concept="3Tqbb2" id="5wUAOoBBjnh" role="3zrR0E">
                        <ref role="ehGHo" to="tp4f:hyWthE1" resolve="ThisClassifierExpression" />
                      </node>
                    </node>
                  </node>
                </node>
              </node>
              <node concept="3clFbF" id="hJm8wLl" role="3cqZAp">
                <node concept="2OqwBi" id="hJm8wLm" role="3clFbG">
                  <node concept="2OqwBi" id="hJm8wLn" role="2Oq$k0">
                    <node concept="37vLTw" id="3GM_nagTyoK" role="2Oq$k0">
                      <ref role="3cqZAo" node="hJm8wLg" resolve="expr" />
                    </node>
                    <node concept="3TrEf2" id="hJm9Akv" role="2OqNvi">
                      <ref role="3Tt5mk" to="tp4f:hJ2nkJ3" />
                    </node>
                  </node>
                  <node concept="2oxUTD" id="hJm8wLq" role="2OqNvi">
                    <node concept="uNquD" id="hJm8wLr" role="2oxUTC" />
                  </node>
                </node>
              </node>
              <node concept="3clFbF" id="hJm8wLs" role="3cqZAp">
                <node concept="2OqwBi" id="hJm8wLt" role="3clFbG">
                  <node concept="Cj7Ep" id="hJm8wLu" role="2Oq$k0" />
                  <node concept="1P9Npp" id="hJm8wLv" role="2OqNvi">
                    <node concept="37vLTw" id="3GM_nagT$K_" role="1P9ThW">
                      <ref role="3cqZAo" node="hJm8wLg" resolve="expr" />
                    </node>
                  </node>
                </node>
              </node>
              <node concept="3cpWs6" id="hJm8wLx" role="3cqZAp">
                <node concept="37vLTw" id="3GM_nagTt3n" role="3cqZAk">
                  <ref role="3cqZAo" node="hJm8wLg" resolve="expr" />
                </node>
              </node>
            </node>
          </node>
          <node concept="CmF0q" id="hJm8wLz" role="D06XQ">
            <node concept="3clFbS" id="hJm8wL$" role="2VODD2">
              <node concept="3clFbF" id="hJm8wL_" role="3cqZAp">
                <node concept="3cpWs3" id="hJm8wLA" role="3clFbG">
                  <node concept="Xl_RD" id="hJm8wLB" role="3uHU7w">
                    <property role="Xl_RC" value="." />
                  </node>
                  <node concept="uNquD" id="hJm8wLC" role="3uHU7B" />
                </node>
              </node>
            </node>
          </node>
        </node>
      </node>
      <node concept="3kRJcU" id="hJm8wLD" role="3kShCk">
        <node concept="3clFbS" id="hJm8wLE" role="2VODD2">
          <node concept="3clFbF" id="hJm8wLF" role="3cqZAp">
            <node concept="2OqwBi" id="hJm8wLG" role="3clFbG">
              <node concept="2OqwBi" id="hJm8wLH" role="2Oq$k0">
                <node concept="Cj7Ep" id="hJm8wLI" role="2Oq$k0" />
                <node concept="3TrEf2" id="hJm8Abw" role="2OqNvi">
                  <ref role="3Tt5mk" to="tp4f:hJ2nkJ3" />
                </node>
              </node>
              <node concept="3w_OXm" id="hJm8wLK" role="2OqNvi" />
            </node>
          </node>
        </node>
      </node>
    </node>
  </node>
  <node concept="1hljLi" id="1_s71rgvgLk">
    <property role="TrG5h" value="adapt_toBL" />
    <node concept="1hlzdc" id="1_s71rgvgV3" role="1hl$rw">
      <ref role="1hmvP4" to="tp4f:hyXrIf3" resolve="DefaultClassifierMethodDeclaration" />
      <ref role="1hszAz" to="tpee:h9ngReX" resolve="ClassifierMember" />
      <node concept="1ht64k" id="1_s71rgvgV4" role="1hsNre">
        <node concept="3clFbS" id="1_s71rgvgV5" role="2VODD2">
          <node concept="3cpWs8" id="1_s71rgvlII" role="3cqZAp">
            <node concept="3cpWsn" id="1_s71rgvlIL" role="3cpWs9">
              <property role="TrG5h" value="imd" />
              <node concept="3Tqbb2" id="1_s71rgvlIH" role="1tU5fm">
                <ref role="ehGHo" to="tpee:fzclF8t" resolve="InstanceMethodDeclaration" />
              </node>
              <node concept="2ShNRf" id="1_s71rgvlXP" role="33vP2m">
                <node concept="3zrR0B" id="1_s71rgvnKZ" role="2ShVmc">
                  <node concept="3Tqbb2" id="1_s71rgvnL1" role="3zrR0E">
                    <ref role="ehGHo" to="tpee:fzclF8t" resolve="InstanceMethodDeclaration" />
                  </node>
                </node>
              </node>
            </node>
          </node>
          <node concept="3clFbF" id="1_s71rgvo75" role="3cqZAp">
            <node concept="37vLTI" id="1_s71rgvzxS" role="3clFbG">
              <node concept="2OqwBi" id="1_s71rgvozN" role="37vLTJ">
                <node concept="37vLTw" id="1_s71rgvo74" role="2Oq$k0">
                  <ref role="3cqZAo" node="1_s71rgvlIL" resolve="imd" />
                </node>
                <node concept="3TrcHB" id="1_s71rgvu6H" role="2OqNvi">
                  <ref role="3TsBF5" to="tpck:h0TrG11" resolve="name" />
                </node>
              </node>
              <node concept="2OqwBi" id="1_s71rgv$nm" role="37vLTx">
                <node concept="1ht04C" id="1_s71rgvzTR" role="2Oq$k0" />
                <node concept="3TrcHB" id="1_s71rgvCMG" role="2OqNvi">
                  <ref role="3TsBF5" to="tpck:h0TrG11" resolve="name" />
                </node>
              </node>
            </node>
          </node>
          <node concept="3clFbF" id="1_s71rgvDwF" role="3cqZAp">
            <node concept="2OqwBi" id="1_s71rgw2W1" role="3clFbG">
              <node concept="2OqwBi" id="1_s71rgvDXR" role="2Oq$k0">
                <node concept="37vLTw" id="1_s71rgvDwE" role="2Oq$k0">
                  <ref role="3cqZAo" node="1_s71rgvlIL" resolve="imd" />
                </node>
                <node concept="3Tsc0h" id="1_s71rgvU6d" role="2OqNvi">
                  <ref role="3TtcxE" to="tpee:fzclF7Y" />
                </node>
              </node>
              <node concept="X8dFx" id="1_s71rgwyee" role="2OqNvi">
                <node concept="2OqwBi" id="1_s71rgwB5L" role="25WWJ7">
                  <node concept="1ht04C" id="1_s71rgw$Jg" role="2Oq$k0" />
                  <node concept="3Tsc0h" id="1_s71rgwL0B" role="2OqNvi">
                    <ref role="3TtcxE" to="tpee:fzclF7Y" />
                  </node>
                </node>
              </node>
            </node>
          </node>
          <node concept="3clFbF" id="1_s71rgwPSJ" role="3cqZAp">
            <node concept="37vLTI" id="1_s71rgx5Tw" role="3clFbG">
              <node concept="2OqwBi" id="1_s71rgwQiS" role="37vLTJ">
                <node concept="37vLTw" id="1_s71rgwPSI" role="2Oq$k0">
                  <ref role="3cqZAo" node="1_s71rgvlIL" resolve="imd" />
                </node>
                <node concept="3TrEf2" id="1_s71rgx1Nn" role="2OqNvi">
                  <ref role="3Tt5mk" to="tpee:fzclF7X" />
                </node>
              </node>
              <node concept="2OqwBi" id="1_s71rgxalI" role="37vLTx">
                <node concept="1ht04C" id="1_s71rgx8A1" role="2Oq$k0" />
                <node concept="3TrEf2" id="1_s71rgxhE$" role="2OqNvi">
                  <ref role="3Tt5mk" to="tpee:fzclF7X" />
                </node>
              </node>
            </node>
          </node>
          <node concept="3clFbF" id="1_s71rgxnVq" role="3cqZAp">
            <node concept="37vLTI" id="1_s71rgxC0R" role="3clFbG">
              <node concept="2OqwBi" id="1_s71rgxpmX" role="37vLTJ">
                <node concept="37vLTw" id="1_s71rgxnVp" role="2Oq$k0">
                  <ref role="3cqZAo" node="1_s71rgvlIL" resolve="imd" />
                </node>
                <node concept="3TrEf2" id="1_s71rgxB5M" role="2OqNvi">
                  <ref role="3Tt5mk" to="tpee:fzclF7Z" />
                </node>
              </node>
              <node concept="2OqwBi" id="1_s71rgxMgG" role="37vLTx">
                <node concept="1ht04C" id="1_s71rgxJw9" role="2Oq$k0" />
                <node concept="3TrEf2" id="1_s71rgxUhe" role="2OqNvi">
                  <ref role="3Tt5mk" to="tpee:fzclF7Z" />
                </node>
              </node>
            </node>
          </node>
          <node concept="3clFbF" id="1_s71rgxZJV" role="3cqZAp">
            <node concept="2OqwBi" id="1_s71rgynt9" role="3clFbG">
              <node concept="2OqwBi" id="1_s71rgy2tG" role="2Oq$k0">
                <node concept="37vLTw" id="1_s71rgxZJU" role="2Oq$k0">
                  <ref role="3cqZAo" node="1_s71rgvlIL" resolve="imd" />
                </node>
                <node concept="3Tsc0h" id="1_s71rgyeZH" role="2OqNvi">
                  <ref role="3TtcxE" to="tpee:gWSfm_9" />
                </node>
              </node>
              <node concept="X8dFx" id="1_s71rgyBU3" role="2OqNvi">
                <node concept="2OqwBi" id="1_s71rgyLi$" role="25WWJ7">
                  <node concept="1ht04C" id="1_s71rgyJtM" role="2Oq$k0" />
                  <node concept="3Tsc0h" id="1_s71rgyYAB" role="2OqNvi">
                    <ref role="3TtcxE" to="tpee:gWSfm_9" />
                  </node>
                </node>
              </node>
            </node>
          </node>
          <node concept="3clFbF" id="1_s71rgz51w" role="3cqZAp">
            <node concept="2OqwBi" id="1_s71rgzxeS" role="3clFbG">
              <node concept="2OqwBi" id="1_s71rgz7w3" role="2Oq$k0">
                <node concept="37vLTw" id="1_s71rgz51v" role="2Oq$k0">
                  <ref role="3cqZAo" node="1_s71rgvlIL" resolve="imd" />
                </node>
                <node concept="3Tsc0h" id="1_s71rgzkAX" role="2OqNvi">
                  <ref role="3TtcxE" to="tpee:g96eVAe" />
                </node>
              </node>
              <node concept="X8dFx" id="1_s71rgzOKv" role="2OqNvi">
                <node concept="2OqwBi" id="1_s71rgzXfW" role="25WWJ7">
                  <node concept="1ht04C" id="1_s71rgzTlN" role="2Oq$k0" />
                  <node concept="3Tsc0h" id="1_s71rg$6S7" role="2OqNvi">
                    <ref role="3TtcxE" to="tpee:g96eVAe" />
                  </node>
                </node>
              </node>
            </node>
          </node>
          <node concept="3clFbF" id="1_s71rg$kKO" role="3cqZAp">
            <node concept="37vLTI" id="1_s71rg$Geo" role="3clFbG">
              <node concept="2OqwBi" id="1_s71rg$n21" role="37vLTJ">
                <node concept="37vLTw" id="1_s71rg$kKN" role="2Oq$k0">
                  <ref role="3cqZAo" node="1_s71rgvlIL" resolve="imd" />
                </node>
                <node concept="3TrcHB" id="1_s71rg$x2i" role="2OqNvi">
                  <ref role="3TsBF5" to="tpee:hcDiZZi" resolve="isFinal" />
                </node>
              </node>
              <node concept="2OqwBi" id="1_s71rg$QfM" role="37vLTx">
                <node concept="1ht04C" id="1_s71rg$MLp" role="2Oq$k0" />
                <node concept="3TrcHB" id="1_s71rg_44P" role="2OqNvi">
                  <ref role="3TsBF5" to="tpee:hcDiZZi" resolve="isFinal" />
                </node>
              </node>
            </node>
          </node>
          <node concept="3clFbF" id="1_s71rg_gob" role="3cqZAp">
            <node concept="37vLTI" id="1_s71rg_AMD" role="3clFbG">
              <node concept="2OqwBi" id="1_s71rg_jKK" role="37vLTJ">
                <node concept="37vLTw" id="1_s71rg_goa" role="2Oq$k0">
                  <ref role="3cqZAo" node="1_s71rgvlIL" resolve="imd" />
                </node>
                <node concept="3TrcHB" id="1_s71rg_yKI" role="2OqNvi">
                  <ref role="3TsBF5" to="tpee:3HnrdCzoiLU" resolve="isSynchronized" />
                </node>
              </node>
              <node concept="2OqwBi" id="1_s71rg_ITl" role="37vLTx">
                <node concept="1ht04C" id="1_s71rg_Gu3" role="2Oq$k0" />
                <node concept="3TrcHB" id="1_s71rg_Q1w" role="2OqNvi">
                  <ref role="3TsBF5" to="tpee:3HnrdCzoiLU" resolve="isSynchronized" />
                </node>
              </node>
            </node>
          </node>
          <node concept="3clFbF" id="1_s71rgB4lR" role="3cqZAp">
            <node concept="37vLTI" id="1_s71rgBmTd" role="3clFbG">
              <node concept="2OqwBi" id="1_s71rgB6_f" role="37vLTJ">
                <node concept="37vLTw" id="1_s71rgB4lQ" role="2Oq$k0">
                  <ref role="3cqZAo" node="1_s71rgvlIL" resolve="imd" />
                </node>
                <node concept="3TrEf2" id="1_s71rgBk7k" role="2OqNvi">
                  <ref role="3Tt5mk" to="tpee:h9B3oxE" />
                </node>
              </node>
              <node concept="2OqwBi" id="1_s71rgByzg" role="37vLTx">
                <node concept="1ht04C" id="1_s71rgBvzC" role="2Oq$k0" />
                <node concept="3TrEf2" id="1_s71rgC1Bm" role="2OqNvi">
                  <ref role="3Tt5mk" to="tpee:h9B3oxE" />
                </node>
              </node>
            </node>
          </node>
          <node concept="3clFbF" id="1_s71rgCd6Q" role="3cqZAp">
            <node concept="2OqwBi" id="1_s71rgDojL" role="3clFbG">
              <node concept="2OqwBi" id="1_s71rgCU5s" role="2Oq$k0">
                <node concept="2OqwBi" id="1_s71rgCvQv" role="2Oq$k0">
                  <node concept="2OqwBi" id="1_s71rgCfZG" role="2Oq$k0">
                    <node concept="37vLTw" id="1_s71rgCd6P" role="2Oq$k0">
                      <ref role="3cqZAo" node="1_s71rgvlIL" resolve="imd" />
                    </node>
                    <node concept="3TrEf2" id="1_s71rgCoSt" role="2OqNvi">
                      <ref role="3Tt5mk" to="tpee:fzclF7Z" />
                    </node>
                  </node>
                  <node concept="2Rf3mk" id="1_s71rgCERw" role="2OqNvi">
                    <node concept="1xMEDy" id="1_s71rgCERy" role="1xVPHs">
                      <node concept="chp4Y" id="1_s71rgCKf0" role="ri$Ld">
                        <ref role="cht4Q" to="tp4f:hyWthE1" resolve="ThisClassifierExpression" />
                      </node>
                    </node>
                  </node>
                </node>
                <node concept="ANE8D" id="1_s71rgD8gU" role="2OqNvi" />
              </node>
              <node concept="2es0OD" id="1_s71rgDIuU" role="2OqNvi">
                <node concept="1bVj0M" id="1_s71rgDIuW" role="23t8la">
                  <node concept="3clFbS" id="1_s71rgDIuX" role="1bW5cS">
                    <node concept="3clFbF" id="1_s71rgDOu2" role="3cqZAp">
                      <node concept="2OqwBi" id="1_s71rgDP$I" role="3clFbG">
                        <node concept="37vLTw" id="1_s71rgDOu1" role="2Oq$k0">
                          <ref role="3cqZAo" node="1_s71rgDIuY" resolve="it" />
                        </node>
                        <node concept="1_qnLN" id="1_s71rgDXOt" role="2OqNvi">
                          <ref role="1_rbq0" to="tpee:f$Xjq0c" resolve="ThisExpression" />
                        </node>
                      </node>
                    </node>
                  </node>
                  <node concept="Rh6nW" id="1_s71rgDIuY" role="1bW2Oz">
                    <property role="TrG5h" value="it" />
                    <node concept="2jxLKc" id="1_s71rgDIuZ" role="1tU5fm" />
                  </node>
                </node>
              </node>
            </node>
          </node>
          <node concept="3clFbF" id="1_s71rgvnYw" role="3cqZAp">
            <node concept="37vLTw" id="1_s71rgvnYv" role="3clFbG">
              <ref role="3cqZAo" node="1_s71rgvlIL" resolve="imd" />
            </node>
          </node>
        </node>
      </node>
    </node>
  </node>
</model>

