<?xml version="1.0" encoding="UTF-8"?>
<model ref="r:a0e4ce7a-b15e-427f-b0fd-cb52ffcd3e91(jetbrains.mps.lang.aspect.constraints)">
  <persistence version="9" />
  <languages>
    <use id="3f4bc5f5-c6c1-4a28-8b10-c83066ffa4a1" name="jetbrains.mps.lang.constraints" version="0" />
    <devkit ref="fbc25dd2-5da4-483a-8b19-70928e1b62d7(jetbrains.mps.devkit.general-purpose)" />
  </languages>
  <imports>
    <import index="6xgk" ref="r:6e9ad488-5df2-49e4-8c01-8a7f3812adf7(jetbrains.mps.lang.scopes.runtime)" />
    <import index="mhfm" ref="3f233e7f-b8a6-46d2-a57f-795d56775243/java:org.jetbrains.annotations(Annotations/)" />
    <import index="hfbu" ref="r:2ea71bfd-fe13-4525-9346-023b05757b39(jetbrains.mps.lang.aspect.structure)" implicit="true" />
    <import index="tpee" ref="r:00000000-0000-4000-0000-011c895902ca(jetbrains.mps.baseLanguage.structure)" implicit="true" />
    <import index="tpck" ref="r:00000000-0000-4000-0000-011c89590288(jetbrains.mps.lang.core.structure)" implicit="true" />
  </imports>
  <registry>
    <language id="f3061a53-9226-4cc5-a443-f952ceaf5816" name="jetbrains.mps.baseLanguage">
      <concept id="1188207840427" name="jetbrains.mps.baseLanguage.structure.AnnotationInstance" flags="nn" index="2AHcQZ">
        <reference id="1188208074048" name="annotation" index="2AI5Lk" />
      </concept>
      <concept id="1188208481402" name="jetbrains.mps.baseLanguage.structure.HasAnnotation" flags="ng" index="2AJDlI">
        <child id="1188208488637" name="annotation" index="2AJF6D" />
      </concept>
      <concept id="1197027756228" name="jetbrains.mps.baseLanguage.structure.DotExpression" flags="nn" index="2OqwBi">
        <child id="1197027771414" name="operand" index="2Oq$k0" />
        <child id="1197027833540" name="operation" index="2OqNvi" />
      </concept>
      <concept id="1145552977093" name="jetbrains.mps.baseLanguage.structure.GenericNewExpression" flags="nn" index="2ShNRf">
        <child id="1145553007750" name="creator" index="2ShVmc" />
      </concept>
      <concept id="1137021947720" name="jetbrains.mps.baseLanguage.structure.ConceptFunction" flags="in" index="2VMwT0">
        <child id="1137022507850" name="body" index="2VODD2" />
      </concept>
      <concept id="1182160077978" name="jetbrains.mps.baseLanguage.structure.AnonymousClassCreator" flags="nn" index="YeOm9">
        <child id="1182160096073" name="cls" index="YeSDq" />
      </concept>
      <concept id="1068498886296" name="jetbrains.mps.baseLanguage.structure.VariableReference" flags="nn" index="37vLTw">
        <reference id="1068581517664" name="variableDeclaration" index="3cqZAo" />
      </concept>
      <concept id="1068498886292" name="jetbrains.mps.baseLanguage.structure.ParameterDeclaration" flags="ir" index="37vLTG" />
      <concept id="1225271177708" name="jetbrains.mps.baseLanguage.structure.StringType" flags="in" index="17QB3L" />
      <concept id="4972933694980447171" name="jetbrains.mps.baseLanguage.structure.BaseVariableDeclaration" flags="ng" index="19Szcq">
        <child id="5680397130376446158" name="type" index="1tU5fm" />
      </concept>
      <concept id="1068580123132" name="jetbrains.mps.baseLanguage.structure.BaseMethodDeclaration" flags="ng" index="3clF44">
        <child id="1068580123133" name="returnType" index="3clF45" />
        <child id="1068580123134" name="parameter" index="3clF46" />
        <child id="1068580123135" name="body" index="3clF47" />
      </concept>
      <concept id="1068580123165" name="jetbrains.mps.baseLanguage.structure.InstanceMethodDeclaration" flags="ig" index="3clFb_">
        <property id="1178608670077" name="isAbstract" index="1EzhhJ" />
      </concept>
      <concept id="1068580123136" name="jetbrains.mps.baseLanguage.structure.StatementList" flags="sn" stub="5293379017992965193" index="3clFbS">
        <child id="1068581517665" name="statement" index="3cqZAp" />
      </concept>
      <concept id="1068581242878" name="jetbrains.mps.baseLanguage.structure.ReturnStatement" flags="nn" index="3cpWs6">
        <child id="1068581517676" name="expression" index="3cqZAk" />
      </concept>
      <concept id="1204053956946" name="jetbrains.mps.baseLanguage.structure.IMethodCall" flags="ng" index="1ndlxa">
        <reference id="1068499141037" name="baseMethodDeclaration" index="37wK5l" />
        <child id="1068499141038" name="actualArgument" index="37wK5m" />
      </concept>
      <concept id="1107461130800" name="jetbrains.mps.baseLanguage.structure.Classifier" flags="ng" index="3pOWGL">
        <property id="521412098689998745" name="nonStatic" index="2bfB8j" />
        <child id="5375687026011219971" name="member" index="jymVt" unordered="true" />
      </concept>
      <concept id="1178549954367" name="jetbrains.mps.baseLanguage.structure.IVisible" flags="ng" index="1B3ioH">
        <child id="1178549979242" name="visibility" index="1B3o_S" />
      </concept>
      <concept id="1146644602865" name="jetbrains.mps.baseLanguage.structure.PublicVisibility" flags="nn" index="3Tm1VV" />
      <concept id="1170345865475" name="jetbrains.mps.baseLanguage.structure.AnonymousClass" flags="ig" index="1Y3b0j">
        <reference id="1170346070688" name="classifier" index="1Y3XeK" />
      </concept>
    </language>
    <language id="3f4bc5f5-c6c1-4a28-8b10-c83066ffa4a1" name="jetbrains.mps.lang.constraints">
      <concept id="5676632058862809931" name="jetbrains.mps.lang.constraints.structure.ConstraintFunction_ReferentSearchScope_Scope" flags="in" index="13QW63" />
      <concept id="1163200647017" name="jetbrains.mps.lang.constraints.structure.ConstraintFunctionParameter_referenceNode" flags="nn" index="3kakTB" />
      <concept id="1213093968558" name="jetbrains.mps.lang.constraints.structure.ConceptConstraints" flags="ng" index="1M2fIO">
        <reference id="1213093996982" name="concept" index="1M2myG" />
        <child id="1213100494875" name="referent" index="1Mr941" />
      </concept>
      <concept id="1148687176410" name="jetbrains.mps.lang.constraints.structure.NodeReferentConstraint" flags="ng" index="1N5Pfh">
        <reference id="1148687202698" name="applicableLink" index="1N5Vy1" />
        <child id="1148687345559" name="searchScopeFactory" index="1N6uqs" />
      </concept>
    </language>
    <language id="7866978e-a0f0-4cc7-81bc-4d213d9375e1" name="jetbrains.mps.lang.smodel">
      <concept id="1177026924588" name="jetbrains.mps.lang.smodel.structure.RefConcept_Reference" flags="nn" index="chp4Y">
        <reference id="1177026940964" name="conceptDeclaration" index="cht4Q" />
      </concept>
      <concept id="4693937538533521280" name="jetbrains.mps.lang.smodel.structure.OfConceptOperation" flags="ng" index="v3k3i">
        <child id="4693937538533538124" name="requestedConcept" index="v3oSu" />
      </concept>
      <concept id="2396822768958367367" name="jetbrains.mps.lang.smodel.structure.AbstractTypeCastExpression" flags="nn" index="$5XWr">
        <reference id="6733348108486823428" name="concept" index="1m5ApE" />
        <child id="6733348108486823193" name="leftExpression" index="1m5AlR" />
      </concept>
      <concept id="1139613262185" name="jetbrains.mps.lang.smodel.structure.Node_GetParentOperation" flags="nn" index="1mfA1w" />
      <concept id="1140137987495" name="jetbrains.mps.lang.smodel.structure.SNodeTypeCastExpression" flags="nn" index="1PxgMI" />
      <concept id="1138055754698" name="jetbrains.mps.lang.smodel.structure.SNodeType" flags="in" index="3Tqbb2" />
      <concept id="1138056022639" name="jetbrains.mps.lang.smodel.structure.SPropertyAccess" flags="nn" index="3TrcHB">
        <reference id="1138056395725" name="property" index="3TsBF5" />
      </concept>
      <concept id="1138056143562" name="jetbrains.mps.lang.smodel.structure.SLinkAccess" flags="nn" index="3TrEf2">
        <reference id="1138056516764" name="link" index="3Tt5mk" />
      </concept>
      <concept id="1138056282393" name="jetbrains.mps.lang.smodel.structure.SLinkListAccess" flags="nn" index="3Tsc0h">
        <reference id="1138056546658" name="link" index="3TtcxE" />
      </concept>
    </language>
    <language id="ceab5195-25ea-4f22-9b92-103b95ca8c0c" name="jetbrains.mps.lang.core">
      <concept id="1133920641626" name="jetbrains.mps.lang.core.structure.BaseConcept" flags="ng" index="2VYdi">
        <property id="1193676396447" name="virtualPackage" index="3GE5qa" />
      </concept>
      <concept id="1169194658468" name="jetbrains.mps.lang.core.structure.INamedConcept" flags="ng" index="TrEIO">
        <property id="1169194664001" name="name" index="TrG5h" />
      </concept>
    </language>
  </registry>
  <node concept="1M2fIO" id="4F0TDiuDP71">
    <property role="3GE5qa" value="simple.gen.byInterface" />
    <ref role="1M2myG" to="hfbu:4F0TDiuCZaK" resolve="AspectMethodDescriptor" />
    <node concept="1N5Pfh" id="4F0TDiuDP72" role="1Mr941">
      <ref role="1N5Vy1" to="hfbu:4F0TDiuCZaL" />
      <node concept="13QW63" id="4F0TDiuDRns" role="1N6uqs">
        <node concept="3clFbS" id="4F0TDiuDRnt" role="2VODD2">
          <node concept="3cpWs6" id="4F0TDiuDRnR" role="3cqZAp">
            <node concept="2ShNRf" id="4F0TDiuDRo_" role="3cqZAk">
              <node concept="YeOm9" id="4F0TDiuDR$c" role="2ShVmc">
                <node concept="1Y3b0j" id="4F0TDiuDR$f" role="YeSDq">
                  <property role="2bfB8j" value="true" />
                  <ref role="1Y3XeK" to="6xgk:2DmG$ciAhAi" resolve="SimpleScope" />
                  <ref role="37wK5l" to="6xgk:2DmG$ciAhAo" resolve="SimpleScope" />
                  <node concept="2OqwBi" id="4F0TDiuDTWM" role="37wK5m">
                    <node concept="2OqwBi" id="4F0TDiuDRWo" role="2Oq$k0">
                      <node concept="2OqwBi" id="4F0TDiuDPLU" role="2Oq$k0">
                        <node concept="1PxgMI" id="4F0TDiuDPHq" role="2Oq$k0">
                          <ref role="1m5ApE" to="hfbu:4F0TDiuCZaF" resolve="GenerationDescriptor_ByInterface" />
                          <node concept="2OqwBi" id="4F0TDiuDPdj" role="1m5AlR">
                            <node concept="3kakTB" id="4F0TDiuDPb0" role="2Oq$k0" />
                            <node concept="1mfA1w" id="4F0TDiuDPpq" role="2OqNvi" />
                          </node>
                        </node>
                        <node concept="3TrEf2" id="4F0TDiuDPUK" role="2OqNvi">
                          <ref role="3Tt5mk" to="hfbu:7NyVmB7TXSN" />
                        </node>
                      </node>
                      <node concept="3Tsc0h" id="4F0TDiuDSNk" role="2OqNvi">
                        <ref role="3TtcxE" to="tpee:4EqhHTp4Mw3" />
                      </node>
                    </node>
                    <node concept="v3k3i" id="4F0TDiuDWAw" role="2OqNvi">
                      <node concept="chp4Y" id="4F0TDiuDWG6" role="v3oSu">
                        <ref role="cht4Q" to="tpee:fzclF8t" resolve="InstanceMethodDeclaration" />
                      </node>
                    </node>
                  </node>
                  <node concept="3Tm1VV" id="4F0TDiuDR$g" role="1B3o_S" />
                  <node concept="3clFb_" id="4F0TDiuDR$r" role="jymVt">
                    <property role="1EzhhJ" value="false" />
                    <property role="TrG5h" value="getReferenceText" />
                    <node concept="3Tm1VV" id="4F0TDiuDR$s" role="1B3o_S" />
                    <node concept="37vLTG" id="4F0TDiuDR$u" role="3clF46">
                      <property role="TrG5h" value="target" />
                      <node concept="3Tqbb2" id="4F0TDiuDR$v" role="1tU5fm" />
                      <node concept="2AHcQZ" id="4F0TDiuDR$w" role="2AJF6D">
                        <ref role="2AI5Lk" to="mhfm:~NotNull" resolve="NotNull" />
                      </node>
                    </node>
                    <node concept="17QB3L" id="4F0TDiuDR$x" role="3clF45" />
                    <node concept="2AHcQZ" id="4F0TDiuDR$y" role="2AJF6D">
                      <ref role="2AI5Lk" to="mhfm:~Nullable" resolve="Nullable" />
                    </node>
                    <node concept="3clFbS" id="4F0TDiuDR$z" role="3clF47">
                      <node concept="3cpWs6" id="4F0TDiuDXiY" role="3cqZAp">
                        <node concept="2OqwBi" id="4F0TDiuDY0n" role="3cqZAk">
                          <node concept="1PxgMI" id="4F0TDiuDXBr" role="2Oq$k0">
                            <ref role="1m5ApE" to="tpee:fzclF8t" resolve="InstanceMethodDeclaration" />
                            <node concept="37vLTw" id="4F0TDiuDXtH" role="1m5AlR">
                              <ref role="3cqZAo" node="4F0TDiuDR$u" resolve="target" />
                            </node>
                          </node>
                          <node concept="3TrcHB" id="4F0TDiuDYMV" role="2OqNvi">
                            <ref role="3TsBF5" to="tpck:h0TrG11" resolve="name" />
                          </node>
                        </node>
                      </node>
                    </node>
                  </node>
                </node>
              </node>
            </node>
          </node>
        </node>
      </node>
    </node>
  </node>
</model>

