<?xml version="1.0" encoding="UTF-8"?>
<model ref="r:2b4fd559-cd7b-4f90-8197-013c655f64e4(jetbrains.mps.lang.aspect.editor)">
  <persistence version="9" />
  <languages>
    <use id="13744753-c81f-424a-9c1b-cf8943bf4e86" name="jetbrains.mps.lang.sharedConcepts" version="0" />
    <use id="63650c59-16c8-498a-99c8-005c7ee9515d" name="jetbrains.mps.lang.access" version="0" />
    <use id="ed6d7656-532c-4bc2-81d1-af945aeb8280" name="jetbrains.mps.baseLanguage.blTypes" version="0" />
    <use id="9ded098b-ad6a-4657-bfd9-48636cfe8bc3" name="jetbrains.mps.lang.traceable" version="0" />
    <use id="18bc6592-03a6-4e29-a83a-7ff23bde13ba" name="jetbrains.mps.lang.editor" version="3" />
    <devkit ref="fbc25dd2-5da4-483a-8b19-70928e1b62d7(jetbrains.mps.devkit.general-purpose)" />
  </languages>
  <imports>
    <import index="53vh" ref="r:53885008-7612-46ff-8b11-27f1d42c3adb(jetbrains.mps.lang.migration.structure)" />
    <import index="tpen" ref="r:00000000-0000-4000-0000-011c895902c3(jetbrains.mps.baseLanguage.editor)" />
    <import index="c17a" ref="8865b7a8-5271-43d3-884c-6fd1d9cfdd34/java:org.jetbrains.mps.openapi.language(MPS.OpenAPI/)" />
    <import index="33ny" ref="6354ebe7-c22a-4a0f-ac54-50b52ab9b065/java:java.util(JDK/)" />
    <import index="vndm" ref="6ed54515-acc8-4d1e-a16c-9fd6cfe951ea/java:jetbrains.mps.smodel.language(MPS.Core/)" />
    <import index="ddhc" ref="498d89d2-c2e9-11e2-ad49-6cf049e62fe5/java:com.intellij.ide(MPS.IDEA/)" />
    <import index="dxuu" ref="6354ebe7-c22a-4a0f-ac54-50b52ab9b065/java:javax.swing(JDK/)" />
    <import index="hyam" ref="6354ebe7-c22a-4a0f-ac54-50b52ab9b065/java:java.awt.event(JDK/)" />
    <import index="z60i" ref="6354ebe7-c22a-4a0f-ac54-50b52ab9b065/java:java.awt(JDK/)" />
    <import index="hfbu" ref="r:2ea71bfd-fe13-4525-9346-023b05757b39(jetbrains.mps.lang.aspect.structure)" implicit="true" />
    <import index="tpck" ref="r:00000000-0000-4000-0000-011c89590288(jetbrains.mps.lang.core.structure)" implicit="true" />
    <import index="tp25" ref="r:00000000-0000-4000-0000-011c89590301(jetbrains.mps.lang.smodel.structure)" implicit="true" />
    <import index="tpeu" ref="r:00000000-0000-4000-0000-011c895902fa(jetbrains.mps.lang.smodel.behavior)" implicit="true" />
    <import index="tpco" ref="r:00000000-0000-4000-0000-011c89590284(jetbrains.mps.lang.core.editor)" implicit="true" />
    <import index="wyt6" ref="6354ebe7-c22a-4a0f-ac54-50b52ab9b065/java:java.lang(JDK/)" implicit="true" />
  </imports>
  <registry>
    <language id="13744753-c81f-424a-9c1b-cf8943bf4e86" name="jetbrains.mps.lang.sharedConcepts">
      <concept id="1161622665029" name="jetbrains.mps.lang.sharedConcepts.structure.ConceptFunctionParameter_model" flags="nn" index="1Q6Npb" />
    </language>
    <language id="18bc6592-03a6-4e29-a83a-7ff23bde13ba" name="jetbrains.mps.lang.editor">
      <concept id="1071666914219" name="jetbrains.mps.lang.editor.structure.ConceptEditorDeclaration" flags="ig" index="24kQdi" />
      <concept id="1198489924438" name="jetbrains.mps.lang.editor.structure.CellModel_Block" flags="sg" stub="8104358048506730066" index="b$f91">
        <child id="1198489985045" name="header" index="b$u42" />
        <child id="1198489993734" name="body" index="b$wch" />
      </concept>
      <concept id="1140524381322" name="jetbrains.mps.lang.editor.structure.CellModel_ListWithRole" flags="ng" index="2czfm3">
        <child id="1140524464360" name="cellLayout" index="2czzBx" />
        <child id="1140524464359" name="emptyCellModel" index="2czzBI" />
      </concept>
      <concept id="1106270549637" name="jetbrains.mps.lang.editor.structure.CellLayout_Horizontal" flags="nn" index="2iRfu4" />
      <concept id="1106270571710" name="jetbrains.mps.lang.editor.structure.CellLayout_Vertical" flags="nn" index="2iRkQZ" />
      <concept id="1237303669825" name="jetbrains.mps.lang.editor.structure.CellLayout_Indent" flags="nn" index="l2Vlx" />
      <concept id="1237308012275" name="jetbrains.mps.lang.editor.structure.IndentLayoutNewLineStyleClassItem" flags="ln" index="ljvvj" />
      <concept id="1142886221719" name="jetbrains.mps.lang.editor.structure.QueryFunction_NodeCondition" flags="in" index="pkWqt" />
      <concept id="1142886811589" name="jetbrains.mps.lang.editor.structure.ConceptFunctionParameter_node" flags="nn" index="pncrf" />
      <concept id="1080736578640" name="jetbrains.mps.lang.editor.structure.BaseEditorComponent" flags="ig" index="2wURMF">
        <child id="1080736633877" name="cellModel" index="2wV5jI" />
      </concept>
      <concept id="1164824717996" name="jetbrains.mps.lang.editor.structure.CellMenuDescriptor" flags="ng" index="OXEIz">
        <child id="1164824815888" name="cellMenuPart" index="OY2wv" />
      </concept>
      <concept id="1078939183254" name="jetbrains.mps.lang.editor.structure.CellModel_Component" flags="sg" stub="3162947552742194261" index="PMmxH">
        <reference id="1078939183255" name="editorComponent" index="PMmxG" />
      </concept>
      <concept id="1186414536763" name="jetbrains.mps.lang.editor.structure.BooleanStyleSheetItem" flags="ln" index="VOi$J">
        <property id="1186414551515" name="flag" index="VOm3f" />
      </concept>
      <concept id="1186414928363" name="jetbrains.mps.lang.editor.structure.SelectableStyleSheetItem" flags="ln" index="VPM3Z" />
      <concept id="1165253627126" name="jetbrains.mps.lang.editor.structure.CellMenuPart_AbstractGroup" flags="ng" index="1exORT">
        <child id="1165253890469" name="parameterObjectType" index="1eyP2E" />
      </concept>
      <concept id="1165270418989" name="jetbrains.mps.lang.editor.structure.CellMenuPart_ReplaceChild_Group" flags="ng" index="1fxSsy">
        <child id="1165270418991" name="parametersFunction" index="1fxSsw" />
        <child id="1165270418992" name="createFunction" index="1fxSsZ" />
      </concept>
      <concept id="1165270662927" name="jetbrains.mps.lang.editor.structure.CellMenuPart_ReplaceChild_Group_Query" flags="in" index="1fyNS0" />
      <concept id="1165270999881" name="jetbrains.mps.lang.editor.structure.CellMenuPart_ReplaceChild_Group_Create" flags="in" index="1f$696" />
      <concept id="1103016434866" name="jetbrains.mps.lang.editor.structure.CellModel_JComponent" flags="sg" stub="8104358048506731196" index="3gTLQM">
        <child id="1176475119347" name="componentProvider" index="3FoqZy" />
      </concept>
      <concept id="1088013125922" name="jetbrains.mps.lang.editor.structure.CellModel_RefCell" flags="sg" stub="730538219795941030" index="1iCGBv">
        <child id="1088186146602" name="editorComponent" index="1sWHZn" />
      </concept>
      <concept id="1381004262292414836" name="jetbrains.mps.lang.editor.structure.ICellStyle" flags="ng" index="1k5N5V">
        <reference id="1381004262292426837" name="parentStyleClass" index="1k5W1q" />
      </concept>
      <concept id="1165420413719" name="jetbrains.mps.lang.editor.structure.CellMenuPart_Generic_Group" flags="ng" index="1ou48o">
        <child id="1165420413721" name="handlerFunction" index="1ou48m" />
        <child id="1165420413720" name="parametersFunction" index="1ou48n" />
      </concept>
      <concept id="1165420626554" name="jetbrains.mps.lang.editor.structure.CellMenuPart_Generic_Group_Handler" flags="in" index="1ouSdP" />
      <concept id="1165424453110" name="jetbrains.mps.lang.editor.structure.CellMenuPart_Generic_Item" flags="ng" index="1oHujT">
        <property id="1165424453111" name="matchingText" index="1oHujS" />
        <child id="1165424453112" name="handlerFunction" index="1oHujR" />
      </concept>
      <concept id="1165424657443" name="jetbrains.mps.lang.editor.structure.CellMenuPart_Generic_Item_Handler" flags="in" index="1oIgkG" />
      <concept id="1088185857835" name="jetbrains.mps.lang.editor.structure.InlineEditorComponent" flags="ig" index="1sVBvm" />
      <concept id="1139848536355" name="jetbrains.mps.lang.editor.structure.CellModel_WithRole" flags="ng" index="1$h60E">
        <property id="1214560368769" name="emptyNoTargetText" index="39s7Ar" />
        <property id="1139852716018" name="noTargetText" index="1$x2rV" />
        <property id="1140017977771" name="readOnly" index="1Intyy" />
        <property id="1140114345053" name="allowEmptyText" index="1O74Pk" />
        <reference id="1140103550593" name="relationDeclaration" index="1NtTu8" />
      </concept>
      <concept id="1073389214265" name="jetbrains.mps.lang.editor.structure.EditorCellModel" flags="ng" index="3EYTF0">
        <child id="1142887637401" name="renderingCondition" index="pqm2j" />
        <child id="1164826688380" name="menuDescriptor" index="P5bDN" />
      </concept>
      <concept id="1073389446423" name="jetbrains.mps.lang.editor.structure.CellModel_Collection" flags="sn" stub="3013115976261988961" index="3EZMnI">
        <child id="1106270802874" name="cellLayout" index="2iSdaV" />
        <child id="1073389446424" name="childCellModel" index="3EZMnx" />
      </concept>
      <concept id="1073389577006" name="jetbrains.mps.lang.editor.structure.CellModel_Constant" flags="sn" stub="3610246225209162225" index="3F0ifn">
        <property id="1082639509531" name="nullText" index="ilYzB" />
        <property id="1073389577007" name="text" index="3F0ifm" />
      </concept>
      <concept id="1073389658414" name="jetbrains.mps.lang.editor.structure.CellModel_Property" flags="sg" stub="730538219796134133" index="3F0A7n" />
      <concept id="1219418625346" name="jetbrains.mps.lang.editor.structure.IStyleContainer" flags="ng" index="3F0Thp">
        <child id="1219418656006" name="styleItem" index="3F10Kt" />
      </concept>
      <concept id="1073389882823" name="jetbrains.mps.lang.editor.structure.CellModel_RefNode" flags="sg" stub="730538219795960754" index="3F1sOY" />
      <concept id="1073390211982" name="jetbrains.mps.lang.editor.structure.CellModel_RefNodeList" flags="sg" stub="2794558372793454595" index="3F2HdR">
        <child id="1165347032372" name="elementMenuDescriptor" index="1k68KV" />
      </concept>
      <concept id="1176474535556" name="jetbrains.mps.lang.editor.structure.QueryFunction_JComponent" flags="in" index="3Fmcul" />
      <concept id="1163613035599" name="jetbrains.mps.lang.editor.structure.CellMenuPart_AbstractGroup_Query" flags="in" index="3GJtP1" />
      <concept id="1163613549566" name="jetbrains.mps.lang.editor.structure.CellMenuPart_AbstractGroup_parameterObject" flags="nn" index="3GLrbK" />
      <concept id="1163613822479" name="jetbrains.mps.lang.editor.structure.CellMenuPart_Abstract_editedNode" flags="nn" index="3GMtW1" />
      <concept id="1088612959204" name="jetbrains.mps.lang.editor.structure.CellModel_Alternation" flags="sg" stub="8104358048506729361" index="1QoScp">
        <property id="1088613081987" name="vertical" index="1QpmdY" />
        <child id="1145918517974" name="alternationCondition" index="3e4ffs" />
        <child id="1088612958265" name="ifTrueCellModel" index="1QoS34" />
        <child id="1088612973955" name="ifFalseCellModel" index="1QoVPY" />
      </concept>
      <concept id="1198256887712" name="jetbrains.mps.lang.editor.structure.CellModel_Indent" flags="ng" index="3XFhqQ" />
      <concept id="1166049232041" name="jetbrains.mps.lang.editor.structure.AbstractComponent" flags="ng" index="1XWOmA">
        <reference id="1166049300910" name="conceptDeclaration" index="1XX52x" />
      </concept>
    </language>
    <language id="f3061a53-9226-4cc5-a443-f952ceaf5816" name="jetbrains.mps.baseLanguage">
      <concept id="1215693861676" name="jetbrains.mps.baseLanguage.structure.BaseAssignmentExpression" flags="nn" index="d038R">
        <child id="1068498886297" name="rValue" index="37vLTx" />
        <child id="1068498886295" name="lValue" index="37vLTJ" />
      </concept>
      <concept id="1202948039474" name="jetbrains.mps.baseLanguage.structure.InstanceMethodCallOperation" flags="nn" index="liA8E" />
      <concept id="1188207840427" name="jetbrains.mps.baseLanguage.structure.AnnotationInstance" flags="nn" index="2AHcQZ">
        <reference id="1188208074048" name="annotation" index="2AI5Lk" />
      </concept>
      <concept id="1188208481402" name="jetbrains.mps.baseLanguage.structure.HasAnnotation" flags="ng" index="2AJDlI">
        <child id="1188208488637" name="annotation" index="2AJF6D" />
      </concept>
      <concept id="1197027756228" name="jetbrains.mps.baseLanguage.structure.DotExpression" flags="nn" index="2OqwBi">
        <child id="1197027771414" name="operand" index="2Oq$k0" />
        <child id="1197027833540" name="operation" index="2OqNvi" />
      </concept>
      <concept id="1145552977093" name="jetbrains.mps.baseLanguage.structure.GenericNewExpression" flags="nn" index="2ShNRf">
        <child id="1145553007750" name="creator" index="2ShVmc" />
      </concept>
      <concept id="1137021947720" name="jetbrains.mps.baseLanguage.structure.ConceptFunction" flags="in" index="2VMwT0">
        <child id="1137022507850" name="body" index="2VODD2" />
      </concept>
      <concept id="1070475926800" name="jetbrains.mps.baseLanguage.structure.StringLiteral" flags="nn" index="Xl_RD">
        <property id="1070475926801" name="value" index="Xl_RC" />
      </concept>
      <concept id="1182160077978" name="jetbrains.mps.baseLanguage.structure.AnonymousClassCreator" flags="nn" index="YeOm9">
        <child id="1182160096073" name="cls" index="YeSDq" />
      </concept>
      <concept id="1081236700937" name="jetbrains.mps.baseLanguage.structure.StaticMethodCall" flags="nn" index="2YIFZM">
        <reference id="1144433194310" name="classConcept" index="1Pybhc" />
      </concept>
      <concept id="1068431474542" name="jetbrains.mps.baseLanguage.structure.VariableDeclaration" flags="ng" index="33uBYm">
        <property id="1176718929932" name="isFinal" index="3TUv4t" />
        <child id="1068431790190" name="initializer" index="33vP2m" />
      </concept>
      <concept id="1068498886296" name="jetbrains.mps.baseLanguage.structure.VariableReference" flags="nn" index="37vLTw">
        <reference id="1068581517664" name="variableDeclaration" index="3cqZAo" />
      </concept>
      <concept id="1068498886292" name="jetbrains.mps.baseLanguage.structure.ParameterDeclaration" flags="ir" index="37vLTG" />
      <concept id="1068498886294" name="jetbrains.mps.baseLanguage.structure.AssignmentExpression" flags="nn" index="37vLTI" />
      <concept id="1225271408483" name="jetbrains.mps.baseLanguage.structure.IsNotEmptyOperation" flags="nn" index="17RvpY" />
      <concept id="4972933694980447171" name="jetbrains.mps.baseLanguage.structure.BaseVariableDeclaration" flags="ng" index="19Szcq">
        <child id="5680397130376446158" name="type" index="1tU5fm" />
      </concept>
      <concept id="1068580123132" name="jetbrains.mps.baseLanguage.structure.BaseMethodDeclaration" flags="ng" index="3clF44">
        <child id="1068580123133" name="returnType" index="3clF45" />
        <child id="1068580123134" name="parameter" index="3clF46" />
        <child id="1068580123135" name="body" index="3clF47" />
      </concept>
      <concept id="1068580123165" name="jetbrains.mps.baseLanguage.structure.InstanceMethodDeclaration" flags="ig" index="3clFb_" />
      <concept id="1068580123155" name="jetbrains.mps.baseLanguage.structure.ExpressionStatement" flags="nn" index="3clFbF">
        <child id="1068580123156" name="expression" index="3clFbG" />
      </concept>
      <concept id="1068580123136" name="jetbrains.mps.baseLanguage.structure.StatementList" flags="sn" stub="5293379017992965193" index="3clFbS">
        <child id="1068581517665" name="statement" index="3cqZAp" />
      </concept>
      <concept id="1068580320020" name="jetbrains.mps.baseLanguage.structure.IntegerConstant" flags="nn" index="3cmrfG">
        <property id="1068580320021" name="value" index="3cmrfH" />
      </concept>
      <concept id="1068581242878" name="jetbrains.mps.baseLanguage.structure.ReturnStatement" flags="nn" index="3cpWs6">
        <child id="1068581517676" name="expression" index="3cqZAk" />
      </concept>
      <concept id="1068581242864" name="jetbrains.mps.baseLanguage.structure.LocalVariableDeclarationStatement" flags="nn" index="3cpWs8">
        <child id="1068581242865" name="localVariableDeclaration" index="3cpWs9" />
      </concept>
      <concept id="1068581242863" name="jetbrains.mps.baseLanguage.structure.LocalVariableDeclaration" flags="nr" index="3cpWsn" />
      <concept id="1068581517677" name="jetbrains.mps.baseLanguage.structure.VoidType" flags="in" index="3cqZAl" />
      <concept id="1204053956946" name="jetbrains.mps.baseLanguage.structure.IMethodCall" flags="ng" index="1ndlxa">
        <reference id="1068499141037" name="baseMethodDeclaration" index="37wK5l" />
        <child id="1068499141038" name="actualArgument" index="37wK5m" />
      </concept>
      <concept id="1212685548494" name="jetbrains.mps.baseLanguage.structure.ClassCreator" flags="nn" index="1pGfFk">
        <child id="1212687122400" name="typeParameter" index="1pMfVU" />
      </concept>
      <concept id="1107461130800" name="jetbrains.mps.baseLanguage.structure.Classifier" flags="ng" index="3pOWGL">
        <child id="5375687026011219971" name="member" index="jymVt" unordered="true" />
      </concept>
      <concept id="1107535904670" name="jetbrains.mps.baseLanguage.structure.ClassifierType" flags="in" index="3uibUv">
        <reference id="1107535924139" name="classifier" index="3uigEE" />
        <child id="1109201940907" name="parameter" index="11_B2D" />
      </concept>
      <concept id="1178549954367" name="jetbrains.mps.baseLanguage.structure.IVisible" flags="ng" index="1B3ioH">
        <child id="1178549979242" name="visibility" index="1B3o_S" />
      </concept>
      <concept id="1146644602865" name="jetbrains.mps.baseLanguage.structure.PublicVisibility" flags="nn" index="3Tm1VV" />
      <concept id="1170345865475" name="jetbrains.mps.baseLanguage.structure.AnonymousClass" flags="ig" index="1Y3b0j">
        <reference id="1170346070688" name="classifier" index="1Y3XeK" />
      </concept>
    </language>
    <language id="63650c59-16c8-498a-99c8-005c7ee9515d" name="jetbrains.mps.lang.access">
      <concept id="8974276187400348173" name="jetbrains.mps.lang.access.structure.CommandClosureLiteral" flags="nn" index="1QHqEC" />
      <concept id="8974276187400348170" name="jetbrains.mps.lang.access.structure.BaseExecuteCommandStatement" flags="nn" index="1QHqEJ">
        <child id="8974276187400348171" name="commandClosureLiteral" index="1QHqEI" />
      </concept>
      <concept id="8974276187400348181" name="jetbrains.mps.lang.access.structure.ExecuteLightweightCommandStatement" flags="nn" index="1QHqEK" />
    </language>
    <language id="fd392034-7849-419d-9071-12563d152375" name="jetbrains.mps.baseLanguage.closures">
      <concept id="1199569711397" name="jetbrains.mps.baseLanguage.closures.structure.ClosureLiteral" flags="nn" index="1bVj0M">
        <child id="1199569906740" name="parameter" index="1bW2Oz" />
        <child id="1199569916463" name="body" index="1bW5cS" />
      </concept>
    </language>
    <language id="3a13115c-633c-4c5c-bbcc-75c4219e9555" name="jetbrains.mps.lang.quotation">
      <concept id="1196350785110" name="jetbrains.mps.lang.quotation.structure.AbstractAntiquotation" flags="ng" index="2c44t0">
        <child id="1196350785111" name="expression" index="2c44t1" />
      </concept>
      <concept id="1196350785117" name="jetbrains.mps.lang.quotation.structure.ReferenceAntiquotation" flags="ng" index="2c44tb" />
      <concept id="1196350785113" name="jetbrains.mps.lang.quotation.structure.Quotation" flags="nn" index="2c44tf">
        <child id="1196350785114" name="quotedNode" index="2c44tc" />
      </concept>
    </language>
    <language id="7866978e-a0f0-4cc7-81bc-4d213d9375e1" name="jetbrains.mps.lang.smodel">
      <concept id="1204851882688" name="jetbrains.mps.lang.smodel.structure.LinkRefQualifier" flags="ng" index="26LbJo">
        <reference id="1204851882689" name="link" index="26LbJp" />
      </concept>
      <concept id="1138411891628" name="jetbrains.mps.lang.smodel.structure.SNodeOperation" flags="nn" index="eCIE_">
        <child id="1144104376918" name="parameter" index="1xVPHs" />
      </concept>
      <concept id="1179409122411" name="jetbrains.mps.lang.smodel.structure.Node_ConceptMethodCall" flags="nn" index="2qgKlT" />
      <concept id="7835263205327057228" name="jetbrains.mps.lang.smodel.structure.Node_GetChildrenAndChildAttributesOperation" flags="ng" index="Bykcj" />
      <concept id="1143235216708" name="jetbrains.mps.lang.smodel.structure.Model_CreateNewNodeOperation" flags="nn" index="I8ghe">
        <reference id="1143235391024" name="concept" index="I8UWU" />
      </concept>
      <concept id="5168775467716640652" name="jetbrains.mps.lang.smodel.structure.OperationParm_LinkQualifier" flags="ng" index="1aIX9F">
        <child id="5168775467716640653" name="linkQualifier" index="1aIX9E" />
      </concept>
      <concept id="1171999116870" name="jetbrains.mps.lang.smodel.structure.Node_IsNullOperation" flags="nn" index="3w_OXm" />
      <concept id="1138055754698" name="jetbrains.mps.lang.smodel.structure.SNodeType" flags="in" index="3Tqbb2">
        <reference id="1138405853777" name="concept" index="ehGHo" />
      </concept>
      <concept id="1138056022639" name="jetbrains.mps.lang.smodel.structure.SPropertyAccess" flags="nn" index="3TrcHB">
        <reference id="1138056395725" name="property" index="3TsBF5" />
      </concept>
      <concept id="1138056143562" name="jetbrains.mps.lang.smodel.structure.SLinkAccess" flags="nn" index="3TrEf2">
        <reference id="1138056516764" name="link" index="3Tt5mk" />
      </concept>
      <concept id="1138056282393" name="jetbrains.mps.lang.smodel.structure.SLinkListAccess" flags="nn" index="3Tsc0h">
        <reference id="1138056546658" name="link" index="3TtcxE" />
      </concept>
    </language>
    <language id="ceab5195-25ea-4f22-9b92-103b95ca8c0c" name="jetbrains.mps.lang.core">
      <concept id="1133920641626" name="jetbrains.mps.lang.core.structure.BaseConcept" flags="ng" index="2VYdi">
        <property id="1193676396447" name="virtualPackage" index="3GE5qa" />
        <child id="5169995583184591170" name="smodelAttribute" index="lGtFl" />
      </concept>
      <concept id="3364660638048049745" name="jetbrains.mps.lang.core.structure.LinkAttribute" flags="ng" index="A9Btn">
        <property id="1757699476691236116" name="linkRole" index="2qtEX8" />
        <property id="1341860900488019036" name="linkId" index="P3scX" />
      </concept>
      <concept id="1169194658468" name="jetbrains.mps.lang.core.structure.INamedConcept" flags="ng" index="TrEIO">
        <property id="1169194664001" name="name" index="TrG5h" />
      </concept>
    </language>
    <language id="83888646-71ce-4f1c-9c53-c54016f6ad4f" name="jetbrains.mps.baseLanguage.collections">
      <concept id="1176501494711" name="jetbrains.mps.baseLanguage.collections.structure.IsNotEmptyOperation" flags="nn" index="3GX2aA" />
    </language>
  </registry>
  <node concept="24kQdi" id="2PMNsNJsb2v">
    <ref role="1XX52x" to="hfbu:2PMNsNJsb26" resolve="LanguageAspectDescriptor" />
    <node concept="3EZMnI" id="536fTXa3qK2" role="2wV5jI">
      <node concept="3F0ifn" id="536fTXa3qK9" role="3EZMnx">
        <property role="3F0ifm" value="aspect" />
      </node>
      <node concept="3F0A7n" id="536fTXa3qKf" role="3EZMnx">
        <ref role="1NtTu8" to="tpck:h0TrG11" resolve="name" />
      </node>
      <node concept="3F0ifn" id="2MgTSGzdRrt" role="3EZMnx">
        <property role="3F0ifm" value="{" />
        <node concept="ljvvj" id="2MgTSGzdRrK" role="3F10Kt">
          <property role="VOm3f" value="true" />
        </node>
      </node>
      <node concept="l2Vlx" id="536fTXa3qK5" role="2iSdaV" />
      <node concept="PMmxH" id="2MgTSGzdIWC" role="3EZMnx">
        <ref role="PMmxG" to="tpen:3Z61ZaMckgv" resolve="ClassifierMembers_Component" />
        <node concept="ljvvj" id="2MgTSGzdRDF" role="3F10Kt">
          <property role="VOm3f" value="true" />
        </node>
      </node>
      <node concept="3F0ifn" id="2MgTSGzdRDx" role="3EZMnx">
        <property role="3F0ifm" value="}" />
      </node>
    </node>
  </node>
  <node concept="24kQdi" id="2Y$EcRKMt2c">
    <property role="3GE5qa" value="simple" />
    <ref role="1XX52x" to="hfbu:2Y$EcRKMsxU" resolve="LanguageReference" />
    <node concept="3F1sOY" id="34EJa6aIpC2" role="2wV5jI">
      <property role="39s7Ar" value="true" />
      <ref role="1NtTu8" to="tp25:34EJa6aIpny" />
      <node concept="OXEIz" id="34EJa6aIpE5" role="P5bDN">
        <node concept="1ou48o" id="34EJa6aIpE7" role="OY2wv">
          <node concept="1ouSdP" id="34EJa6aIpE8" role="1ou48m">
            <node concept="3clFbS" id="34EJa6aIpE9" role="2VODD2">
              <node concept="3cpWs8" id="34EJa6aIrBN" role="3cqZAp">
                <node concept="3cpWsn" id="34EJa6aIrBO" role="3cpWs9">
                  <property role="TrG5h" value="lid" />
                  <node concept="3Tqbb2" id="34EJa6aIrBK" role="1tU5fm">
                    <ref role="ehGHo" to="tp25:34EJa6aIcz0" resolve="LanguageId" />
                  </node>
                  <node concept="2OqwBi" id="34EJa6aIrBP" role="33vP2m">
                    <node concept="1Q6Npb" id="34EJa6aIrBQ" role="2Oq$k0" />
                    <node concept="I8ghe" id="34EJa6aIrBR" role="2OqNvi">
                      <ref role="I8UWU" to="tp25:34EJa6aIcz0" resolve="LanguageId" />
                    </node>
                  </node>
                </node>
              </node>
              <node concept="3clFbF" id="34EJa6aIrIT" role="3cqZAp">
                <node concept="2OqwBi" id="34EJa6aIrLx" role="3clFbG">
                  <node concept="37vLTw" id="34EJa6aIrIR" role="2Oq$k0">
                    <ref role="3cqZAo" node="34EJa6aIrBO" resolve="lid" />
                  </node>
                  <node concept="2qgKlT" id="34EJa6aIs4N" role="2OqNvi">
                    <ref role="37wK5l" to="tpeu:34EJa6aIcyw" resolve="setLanguage" />
                    <node concept="3GLrbK" id="34EJa6aIs69" role="37wK5m" />
                  </node>
                </node>
              </node>
              <node concept="3clFbF" id="34EJa6aIqfK" role="3cqZAp">
                <node concept="37vLTI" id="34EJa6aIqDP" role="3clFbG">
                  <node concept="2OqwBi" id="34EJa6aIqhq" role="37vLTJ">
                    <node concept="3GMtW1" id="34EJa6aIqfI" role="2Oq$k0" />
                    <node concept="3TrEf2" id="34EJa6aIqu9" role="2OqNvi">
                      <ref role="3Tt5mk" to="tp25:34EJa6aIpny" />
                    </node>
                  </node>
                  <node concept="37vLTw" id="34EJa6aIrBS" role="37vLTx">
                    <ref role="3cqZAo" node="34EJa6aIrBO" resolve="lid" />
                  </node>
                </node>
              </node>
            </node>
          </node>
          <node concept="3GJtP1" id="34EJa6aIpEf" role="1ou48n">
            <node concept="3clFbS" id="34EJa6aIpEg" role="2VODD2">
              <node concept="3cpWs8" id="34EJa6aIpEh" role="3cqZAp">
                <node concept="3cpWsn" id="34EJa6aIpEi" role="3cpWs9">
                  <property role="TrG5h" value="allLanguages" />
                  <node concept="3uibUv" id="34EJa6aIpEj" role="1tU5fm">
                    <ref role="3uigEE" to="33ny:~Collection" resolve="Collection" />
                    <node concept="3uibUv" id="34EJa6aIpEk" role="11_B2D">
                      <ref role="3uigEE" to="c17a:~SLanguage" resolve="SLanguage" />
                    </node>
                  </node>
                  <node concept="2OqwBi" id="34EJa6aIpEl" role="33vP2m">
                    <node concept="2YIFZM" id="34EJa6aIpEm" role="2Oq$k0">
                      <ref role="37wK5l" to="vndm:~LanguageRegistry.getInstance():jetbrains.mps.smodel.language.LanguageRegistry" resolve="getInstance" />
                      <ref role="1Pybhc" to="vndm:~LanguageRegistry" resolve="LanguageRegistry" />
                    </node>
                    <node concept="liA8E" id="34EJa6aIpEn" role="2OqNvi">
                      <ref role="37wK5l" to="vndm:~LanguageRegistry.getAllLanguages():java.util.Collection" resolve="getAllLanguages" />
                    </node>
                  </node>
                </node>
              </node>
              <node concept="3cpWs6" id="34EJa6aIpEo" role="3cqZAp">
                <node concept="2ShNRf" id="34EJa6aIpEp" role="3cqZAk">
                  <node concept="1pGfFk" id="34EJa6aIpEq" role="2ShVmc">
                    <ref role="37wK5l" to="33ny:~ArrayList.&lt;init&gt;(java.util.Collection)" resolve="ArrayList" />
                    <node concept="37vLTw" id="34EJa6aIpEr" role="37wK5m">
                      <ref role="3cqZAo" node="34EJa6aIpEi" resolve="allLanguages" />
                    </node>
                    <node concept="3uibUv" id="34EJa6aIpEs" role="1pMfVU">
                      <ref role="3uigEE" to="c17a:~SLanguage" resolve="SLanguage" />
                    </node>
                  </node>
                </node>
              </node>
            </node>
          </node>
          <node concept="3uibUv" id="34EJa6aIpEt" role="1eyP2E">
            <ref role="3uigEE" to="c17a:~SLanguage" resolve="SLanguage" />
          </node>
        </node>
      </node>
    </node>
  </node>
  <node concept="24kQdi" id="2Y$EcRKMt2D">
    <property role="3GE5qa" value="simple" />
    <ref role="1XX52x" to="hfbu:2Y$EcRKMr1Q" resolve="SimpleLanguageAspectDescriptor" />
    <node concept="b$f91" id="2Y$EcRKMt2F" role="2wV5jI">
      <node concept="3EZMnI" id="2Y$EcRKMt2S" role="b$wch">
        <node concept="3EZMnI" id="2Y$EcRKMt35" role="3EZMnx">
          <node concept="VPM3Z" id="2Y$EcRKMt37" role="3F10Kt">
            <property role="VOm3f" value="false" />
          </node>
          <node concept="3F0ifn" id="2Y$EcRKMt3g" role="3EZMnx">
            <property role="3F0ifm" value="aspect name:" />
          </node>
          <node concept="3F0A7n" id="5KGdJjE3gcL" role="3EZMnx">
            <ref role="1NtTu8" to="tpck:h0TrG11" resolve="name" />
          </node>
          <node concept="2iRfu4" id="2Y$EcRKMt3a" role="2iSdaV" />
        </node>
        <node concept="3EZMnI" id="2Y$EcRKMt3q" role="3EZMnx">
          <node concept="VPM3Z" id="2Y$EcRKMt3r" role="3F10Kt">
            <property role="VOm3f" value="false" />
          </node>
          <node concept="3F0ifn" id="2Y$EcRKMt3s" role="3EZMnx">
            <property role="3F0ifm" value="main languages (deprecated):" />
          </node>
          <node concept="3F2HdR" id="5LFbgO_wI61" role="3EZMnx">
            <ref role="1NtTu8" to="hfbu:2Y$EcRKMr2k" />
            <node concept="2iRkQZ" id="5LFbgO_wI68" role="2czzBx" />
            <node concept="3F0ifn" id="1qO9DUnuMUe" role="2czzBI">
              <property role="ilYzB" value="&lt;no languages&gt;" />
            </node>
          </node>
          <node concept="2iRfu4" id="2Y$EcRKMt3u" role="2iSdaV" />
          <node concept="pkWqt" id="5iYmYly3gTt" role="pqm2j">
            <node concept="3clFbS" id="5iYmYly3gTu" role="2VODD2">
              <node concept="3clFbF" id="5iYmYly3h0A" role="3cqZAp">
                <node concept="2OqwBi" id="5iYmYly3bRr" role="3clFbG">
                  <node concept="2OqwBi" id="5iYmYly39Cx" role="2Oq$k0">
                    <node concept="pncrf" id="5iYmYly39sB" role="2Oq$k0" />
                    <node concept="3Tsc0h" id="5HOQcpHNug$" role="2OqNvi">
                      <ref role="3TtcxE" to="hfbu:2Y$EcRKMr2k" />
                    </node>
                  </node>
                  <node concept="3GX2aA" id="5iYmYly3emO" role="2OqNvi" />
                </node>
              </node>
            </node>
          </node>
        </node>
        <node concept="3EZMnI" id="2Y$EcRKMt3I" role="3EZMnx">
          <node concept="VPM3Z" id="2Y$EcRKMt3J" role="3F10Kt">
            <property role="VOm3f" value="false" />
          </node>
          <node concept="3F0ifn" id="2Y$EcRKMt3K" role="3EZMnx">
            <property role="3F0ifm" value="additional languages (deprecated):" />
          </node>
          <node concept="3F2HdR" id="2Y$EcRKMt47" role="3EZMnx">
            <ref role="1NtTu8" to="hfbu:2Y$EcRKMr2m" />
            <node concept="2iRkQZ" id="2Y$EcRKMt4d" role="2czzBx" />
            <node concept="3F0ifn" id="5KGdJjE3t_8" role="2czzBI">
              <property role="ilYzB" value="&lt;no languages&gt;" />
              <ref role="1k5W1q" to="tpen:hshO_Yc" resolve="Comment" />
            </node>
          </node>
          <node concept="2iRfu4" id="2Y$EcRKMt3M" role="2iSdaV" />
          <node concept="pkWqt" id="5iYmYly3hif" role="pqm2j">
            <node concept="3clFbS" id="5iYmYly3hig" role="2VODD2">
              <node concept="3clFbF" id="5iYmYly3hsl" role="3cqZAp">
                <node concept="2OqwBi" id="5iYmYly3hsn" role="3clFbG">
                  <node concept="2OqwBi" id="5iYmYly3hso" role="2Oq$k0">
                    <node concept="pncrf" id="5iYmYly3hsp" role="2Oq$k0" />
                    <node concept="3Tsc0h" id="5HOQcpHNuKf" role="2OqNvi">
                      <ref role="3TtcxE" to="hfbu:2Y$EcRKMr2m" />
                    </node>
                  </node>
                  <node concept="3GX2aA" id="5iYmYly3hsr" role="2OqNvi" />
                </node>
              </node>
            </node>
          </node>
        </node>
        <node concept="3EZMnI" id="5iYmYly32cS" role="3EZMnx">
          <node concept="VPM3Z" id="5iYmYly32cT" role="3F10Kt">
            <property role="VOm3f" value="false" />
          </node>
          <node concept="3F0ifn" id="5iYmYly32cU" role="3EZMnx">
            <property role="3F0ifm" value="main languages:" />
          </node>
          <node concept="3F2HdR" id="5iYmYly32cV" role="3EZMnx">
            <ref role="1NtTu8" to="hfbu:5iYmYly31HR" />
            <node concept="2iRkQZ" id="5iYmYly32cW" role="2czzBx" />
            <node concept="3F0ifn" id="5iYmYly32cX" role="2czzBI">
              <property role="ilYzB" value="&lt;no languages&gt;" />
            </node>
            <node concept="OXEIz" id="5HOQcpHNOzF" role="1k68KV">
              <node concept="1fxSsy" id="5HOQcpHO9n$" role="OY2wv">
                <node concept="1fyNS0" id="5HOQcpHO9n_" role="1fxSsw">
                  <node concept="3clFbS" id="5HOQcpHO9nA" role="2VODD2">
                    <node concept="3cpWs8" id="5HOQcpHO9nB" role="3cqZAp">
                      <node concept="3cpWsn" id="5HOQcpHO9nC" role="3cpWs9">
                        <property role="TrG5h" value="allLanguages" />
                        <node concept="3uibUv" id="5HOQcpHO9nD" role="1tU5fm">
                          <ref role="3uigEE" to="33ny:~Collection" resolve="Collection" />
                          <node concept="3uibUv" id="5HOQcpHO9nE" role="11_B2D">
                            <ref role="3uigEE" to="c17a:~SLanguage" resolve="SLanguage" />
                          </node>
                        </node>
                        <node concept="2OqwBi" id="5HOQcpHO9nF" role="33vP2m">
                          <node concept="2YIFZM" id="5HOQcpHO9nG" role="2Oq$k0">
                            <ref role="1Pybhc" to="vndm:~LanguageRegistry" resolve="LanguageRegistry" />
                            <ref role="37wK5l" to="vndm:~LanguageRegistry.getInstance():jetbrains.mps.smodel.language.LanguageRegistry" resolve="getInstance" />
                          </node>
                          <node concept="liA8E" id="5HOQcpHO9nH" role="2OqNvi">
                            <ref role="37wK5l" to="vndm:~LanguageRegistry.getAllLanguages():java.util.Collection" resolve="getAllLanguages" />
                          </node>
                        </node>
                      </node>
                    </node>
                    <node concept="3cpWs6" id="5HOQcpHO9nI" role="3cqZAp">
                      <node concept="2ShNRf" id="5HOQcpHO9nJ" role="3cqZAk">
                        <node concept="1pGfFk" id="5HOQcpHO9nK" role="2ShVmc">
                          <ref role="37wK5l" to="33ny:~ArrayList.&lt;init&gt;(java.util.Collection)" resolve="ArrayList" />
                          <node concept="37vLTw" id="5HOQcpHO9nL" role="37wK5m">
                            <ref role="3cqZAo" node="5HOQcpHO9nC" resolve="allLanguages" />
                          </node>
                          <node concept="3uibUv" id="5HOQcpHO9nM" role="1pMfVU">
                            <ref role="3uigEE" to="c17a:~SLanguage" resolve="SLanguage" />
                          </node>
                        </node>
                      </node>
                    </node>
                  </node>
                </node>
                <node concept="3uibUv" id="5HOQcpHO9nN" role="1eyP2E">
                  <ref role="3uigEE" to="c17a:~SLanguage" resolve="SLanguage" />
                </node>
                <node concept="1f$696" id="5HOQcpHO9nO" role="1fxSsZ">
                  <node concept="3clFbS" id="5HOQcpHO9nP" role="2VODD2">
                    <node concept="3cpWs8" id="5HOQcpHO9nQ" role="3cqZAp">
                      <node concept="3cpWsn" id="5HOQcpHO9nR" role="3cpWs9">
                        <property role="TrG5h" value="lid" />
                        <node concept="3Tqbb2" id="5HOQcpHO9nS" role="1tU5fm">
                          <ref role="ehGHo" to="tp25:34EJa6aIcz0" resolve="LanguageId" />
                        </node>
                        <node concept="2OqwBi" id="5HOQcpHO9nT" role="33vP2m">
                          <node concept="1Q6Npb" id="5HOQcpHO9nU" role="2Oq$k0" />
                          <node concept="I8ghe" id="5HOQcpHO9nV" role="2OqNvi">
                            <ref role="I8UWU" to="tp25:34EJa6aIcz0" resolve="LanguageId" />
                          </node>
                        </node>
                      </node>
                    </node>
                    <node concept="3clFbF" id="5HOQcpHO9nW" role="3cqZAp">
                      <node concept="2OqwBi" id="5HOQcpHO9nX" role="3clFbG">
                        <node concept="37vLTw" id="5HOQcpHO9nY" role="2Oq$k0">
                          <ref role="3cqZAo" node="5HOQcpHO9nR" resolve="lid" />
                        </node>
                        <node concept="2qgKlT" id="5HOQcpHO9nZ" role="2OqNvi">
                          <ref role="37wK5l" to="tpeu:34EJa6aIcyw" resolve="setLanguage" />
                          <node concept="3GLrbK" id="5HOQcpHO9o0" role="37wK5m" />
                        </node>
                      </node>
                    </node>
                    <node concept="3cpWs6" id="5HOQcpHO9o1" role="3cqZAp">
                      <node concept="37vLTw" id="5HOQcpHO9o2" role="3cqZAk">
                        <ref role="3cqZAo" node="5HOQcpHO9nR" resolve="lid" />
                      </node>
                    </node>
                  </node>
                </node>
              </node>
            </node>
          </node>
          <node concept="2iRfu4" id="5iYmYly32cY" role="2iSdaV" />
        </node>
        <node concept="3EZMnI" id="5iYmYly32cZ" role="3EZMnx">
          <node concept="VPM3Z" id="5iYmYly32d0" role="3F10Kt">
            <property role="VOm3f" value="false" />
          </node>
          <node concept="3F0ifn" id="5iYmYly32d1" role="3EZMnx">
            <property role="3F0ifm" value="additional languages:" />
          </node>
          <node concept="3F2HdR" id="5iYmYly32d2" role="3EZMnx">
            <ref role="1NtTu8" to="hfbu:5iYmYly31HX" />
            <node concept="2iRkQZ" id="5iYmYly32d3" role="2czzBx" />
            <node concept="3F0ifn" id="5iYmYly32d4" role="2czzBI">
              <property role="ilYzB" value="&lt;no languages&gt;" />
              <ref role="1k5W1q" to="tpen:hshO_Yc" resolve="Comment" />
            </node>
            <node concept="OXEIz" id="5HOQcpHNUYF" role="1k68KV">
              <node concept="1fxSsy" id="5HOQcpHO4Jd" role="OY2wv">
                <node concept="1fyNS0" id="5HOQcpHO4Jf" role="1fxSsw">
                  <node concept="3clFbS" id="5HOQcpHO4Jh" role="2VODD2">
                    <node concept="3cpWs8" id="5HOQcpHO7_D" role="3cqZAp">
                      <node concept="3cpWsn" id="5HOQcpHO7_E" role="3cpWs9">
                        <property role="TrG5h" value="allLanguages" />
                        <node concept="3uibUv" id="5HOQcpHO7_F" role="1tU5fm">
                          <ref role="3uigEE" to="33ny:~Collection" resolve="Collection" />
                          <node concept="3uibUv" id="5HOQcpHO7_G" role="11_B2D">
                            <ref role="3uigEE" to="c17a:~SLanguage" resolve="SLanguage" />
                          </node>
                        </node>
                        <node concept="2OqwBi" id="5HOQcpHO7_H" role="33vP2m">
                          <node concept="2YIFZM" id="5HOQcpHO7_I" role="2Oq$k0">
                            <ref role="37wK5l" to="vndm:~LanguageRegistry.getInstance():jetbrains.mps.smodel.language.LanguageRegistry" resolve="getInstance" />
                            <ref role="1Pybhc" to="vndm:~LanguageRegistry" resolve="LanguageRegistry" />
                          </node>
                          <node concept="liA8E" id="5HOQcpHO7_J" role="2OqNvi">
                            <ref role="37wK5l" to="vndm:~LanguageRegistry.getAllLanguages():java.util.Collection" resolve="getAllLanguages" />
                          </node>
                        </node>
                      </node>
                    </node>
                    <node concept="3cpWs6" id="5HOQcpHO7_K" role="3cqZAp">
                      <node concept="2ShNRf" id="5HOQcpHO7_L" role="3cqZAk">
                        <node concept="1pGfFk" id="5HOQcpHO7_M" role="2ShVmc">
                          <ref role="37wK5l" to="33ny:~ArrayList.&lt;init&gt;(java.util.Collection)" resolve="ArrayList" />
                          <node concept="37vLTw" id="5HOQcpHO7_N" role="37wK5m">
                            <ref role="3cqZAo" node="5HOQcpHO7_E" resolve="allLanguages" />
                          </node>
                          <node concept="3uibUv" id="5HOQcpHO7_O" role="1pMfVU">
                            <ref role="3uigEE" to="c17a:~SLanguage" resolve="SLanguage" />
                          </node>
                        </node>
                      </node>
                    </node>
                  </node>
                </node>
                <node concept="3uibUv" id="5HOQcpHO8pw" role="1eyP2E">
                  <ref role="3uigEE" to="c17a:~SLanguage" resolve="SLanguage" />
                </node>
                <node concept="1f$696" id="5HOQcpHO5nM" role="1fxSsZ">
                  <node concept="3clFbS" id="5HOQcpHO5nN" role="2VODD2">
                    <node concept="3cpWs8" id="5HOQcpHNUYK" role="3cqZAp">
                      <node concept="3cpWsn" id="5HOQcpHNUYL" role="3cpWs9">
                        <property role="TrG5h" value="lid" />
                        <node concept="3Tqbb2" id="5HOQcpHNUYM" role="1tU5fm">
                          <ref role="ehGHo" to="tp25:34EJa6aIcz0" resolve="LanguageId" />
                        </node>
                        <node concept="2OqwBi" id="5HOQcpHNUYN" role="33vP2m">
                          <node concept="1Q6Npb" id="5HOQcpHNUYO" role="2Oq$k0" />
                          <node concept="I8ghe" id="5HOQcpHNUYP" role="2OqNvi">
                            <ref role="I8UWU" to="tp25:34EJa6aIcz0" resolve="LanguageId" />
                          </node>
                        </node>
                      </node>
                    </node>
                    <node concept="3clFbF" id="5HOQcpHNUYQ" role="3cqZAp">
                      <node concept="2OqwBi" id="5HOQcpHNUYR" role="3clFbG">
                        <node concept="37vLTw" id="5HOQcpHNUYS" role="2Oq$k0">
                          <ref role="3cqZAo" node="5HOQcpHNUYL" resolve="lid" />
                        </node>
                        <node concept="2qgKlT" id="5HOQcpHNUYT" role="2OqNvi">
                          <ref role="37wK5l" to="tpeu:34EJa6aIcyw" resolve="setLanguage" />
                          <node concept="3GLrbK" id="5HOQcpHNUYU" role="37wK5m" />
                        </node>
                      </node>
                    </node>
                    <node concept="3cpWs6" id="5HOQcpHO6oA" role="3cqZAp">
                      <node concept="37vLTw" id="5HOQcpHO6BI" role="3cqZAk">
                        <ref role="3cqZAo" node="5HOQcpHNUYL" resolve="lid" />
                      </node>
                    </node>
                  </node>
                </node>
              </node>
            </node>
          </node>
          <node concept="2iRfu4" id="5iYmYly32d5" role="2iSdaV" />
        </node>
        <node concept="3F0ifn" id="5iYmYly322I" role="3EZMnx" />
        <node concept="3EZMnI" id="2Y$EcRKMt79" role="3EZMnx">
          <node concept="VPM3Z" id="2Y$EcRKMt7a" role="3F10Kt">
            <property role="VOm3f" value="false" />
          </node>
          <node concept="3F0ifn" id="2Y$EcRKMt7b" role="3EZMnx">
            <property role="3F0ifm" value="help url:" />
          </node>
          <node concept="1QoScp" id="4voYo4rtpIi" role="3EZMnx">
            <property role="1QpmdY" value="true" />
            <node concept="pkWqt" id="4voYo4rtpIl" role="3e4ffs">
              <node concept="3clFbS" id="4voYo4rtpIn" role="2VODD2">
                <node concept="3clFbF" id="4voYo4rtpJE" role="3cqZAp">
                  <node concept="2OqwBi" id="4voYo4rtq8j" role="3clFbG">
                    <node concept="2OqwBi" id="4voYo4rtpMH" role="2Oq$k0">
                      <node concept="pncrf" id="4voYo4rtpJD" role="2Oq$k0" />
                      <node concept="3TrcHB" id="4voYo4rtpXB" role="2OqNvi">
                        <ref role="3TsBF5" to="hfbu:2Y$EcRKMr2p" resolve="helpUrl" />
                      </node>
                    </node>
                    <node concept="17RvpY" id="4voYo4rtqkm" role="2OqNvi" />
                  </node>
                </node>
              </node>
            </node>
            <node concept="3F1sOY" id="4voYo4rtqoO" role="1QoVPY">
              <ref role="1NtTu8" to="hfbu:4voYo4rtpI9" />
            </node>
            <node concept="3F0A7n" id="2Y$EcRKMt7E" role="1QoS34">
              <property role="1$x2rV" value="&lt;no help URL&gt;" />
              <property role="1O74Pk" value="true" />
              <ref role="1NtTu8" to="hfbu:2Y$EcRKMr2p" resolve="helpUrl" />
            </node>
          </node>
          <node concept="2iRfu4" id="2Y$EcRKMt7d" role="2iSdaV" />
        </node>
        <node concept="3EZMnI" id="2Y$EcRKMt6D" role="3EZMnx">
          <node concept="VPM3Z" id="2Y$EcRKMt6E" role="3F10Kt">
            <property role="VOm3f" value="false" />
          </node>
          <node concept="3F0ifn" id="2Y$EcRKMt6F" role="3EZMnx">
            <property role="3F0ifm" value="icon:" />
          </node>
          <node concept="3F1sOY" id="2Y$EcRKNZk8" role="3EZMnx">
            <ref role="1NtTu8" to="hfbu:2Y$EcRKNZil" />
          </node>
          <node concept="2iRfu4" id="2Y$EcRKMt6H" role="2iSdaV" />
        </node>
        <node concept="2iRkQZ" id="5KGdJjE3g6T" role="2iSdaV" />
      </node>
      <node concept="3EZMnI" id="5KGdJjE3gcC" role="b$u42">
        <node concept="2iRfu4" id="5KGdJjE3gcD" role="2iSdaV" />
        <node concept="3F0ifn" id="2Y$EcRKMt2L" role="3EZMnx">
          <property role="3F0ifm" value="language aspect" />
        </node>
      </node>
    </node>
  </node>
  <node concept="24kQdi" id="5KGdJjE3jHN">
    <property role="3GE5qa" value="simple.gen.trivial" />
    <ref role="1XX52x" to="hfbu:5KGdJjE3jGJ" resolve="GenerationDescriptor_Class" />
    <node concept="3EZMnI" id="5KGdJjE3jHP" role="2wV5jI">
      <node concept="PMmxH" id="4F0TDiuDFzK" role="3EZMnx">
        <ref role="PMmxG" to="tpco:2wZex4PafBj" resolve="alias" />
      </node>
      <node concept="3EZMnI" id="4YpmBa6a3wD" role="3EZMnx">
        <node concept="2iRfu4" id="4YpmBa6a3wE" role="2iSdaV" />
        <node concept="3XFhqQ" id="4YpmBa6a3x3" role="3EZMnx" />
        <node concept="3F0ifn" id="5$xTughlYSN" role="3EZMnx">
          <property role="3F0ifm" value="// descriptor class will be generated manually" />
          <ref role="1k5W1q" to="tpen:hshO_Yc" resolve="Comment" />
        </node>
      </node>
      <node concept="3EZMnI" id="2Y$EcRKMt98" role="3EZMnx">
        <node concept="3XFhqQ" id="5$xTughlO0n" role="3EZMnx" />
        <node concept="VPM3Z" id="2Y$EcRKMt99" role="3F10Kt">
          <property role="VOm3f" value="false" />
        </node>
        <node concept="3F0ifn" id="2Y$EcRKMt9a" role="3EZMnx">
          <property role="3F0ifm" value="interface class:" />
        </node>
        <node concept="1iCGBv" id="2Y$EcRKMtaz" role="3EZMnx">
          <ref role="1NtTu8" to="hfbu:7NyVmB7TXSN" />
          <node concept="1sVBvm" id="2Y$EcRKMta_" role="1sWHZn">
            <node concept="3F0A7n" id="2Y$EcRKMtaH" role="2wV5jI">
              <property role="1Intyy" value="true" />
              <ref role="1NtTu8" to="tpck:h0TrG11" resolve="name" />
            </node>
          </node>
        </node>
        <node concept="2iRfu4" id="2Y$EcRKMt9c" role="2iSdaV" />
      </node>
      <node concept="3EZMnI" id="2Y$EcRKMtaK" role="3EZMnx">
        <node concept="3XFhqQ" id="5$xTughlO0g" role="3EZMnx" />
        <node concept="VPM3Z" id="2Y$EcRKMtaL" role="3F10Kt">
          <property role="VOm3f" value="false" />
        </node>
        <node concept="3F0ifn" id="2Y$EcRKMtaM" role="3EZMnx">
          <property role="3F0ifm" value="impl template:" />
        </node>
        <node concept="1iCGBv" id="5$xTughlNDC" role="3EZMnx">
          <ref role="1NtTu8" to="hfbu:5$xTughlvvt" />
          <node concept="1sVBvm" id="5$xTughlNDE" role="1sWHZn">
            <node concept="3F0A7n" id="5$xTughlNDP" role="2wV5jI">
              <property role="1Intyy" value="true" />
              <ref role="1NtTu8" to="tpck:h0TrG11" resolve="name" />
            </node>
          </node>
        </node>
        <node concept="2iRfu4" id="2Y$EcRKMtaO" role="2iSdaV" />
      </node>
      <node concept="2iRkQZ" id="5KGdJjE3jHS" role="2iSdaV" />
    </node>
  </node>
  <node concept="24kQdi" id="4F0TDiuCZbo">
    <property role="3GE5qa" value="simple.gen.byInterface" />
    <ref role="1XX52x" to="hfbu:4F0TDiuCZaK" resolve="AspectMethodDescriptor" />
    <node concept="3EZMnI" id="7Jfx5bwRf65" role="2wV5jI">
      <node concept="2iRkQZ" id="7Jfx5bwRf66" role="2iSdaV" />
      <node concept="3EZMnI" id="4F0TDiuCZbI" role="3EZMnx">
        <node concept="3F0ifn" id="4F0TDiuCZc9" role="3EZMnx">
          <property role="3F0ifm" value="method" />
        </node>
        <node concept="2iRfu4" id="4F0TDiuCZbJ" role="2iSdaV" />
        <node concept="1iCGBv" id="4F0TDiuCZbq" role="3EZMnx">
          <ref role="1NtTu8" to="hfbu:4F0TDiuCZaL" />
          <node concept="1sVBvm" id="4F0TDiuCZbs" role="1sWHZn">
            <node concept="3F0A7n" id="4F0TDiuCZbE" role="2wV5jI">
              <property role="1Intyy" value="true" />
              <ref role="1NtTu8" to="tpck:h0TrG11" resolve="name" />
            </node>
          </node>
        </node>
        <node concept="3F0ifn" id="4F0TDiuCZcu" role="3EZMnx">
          <property role="3F0ifm" value="returns aspects" />
        </node>
        <node concept="1iCGBv" id="4F0TDiuCZcR" role="3EZMnx">
          <ref role="1NtTu8" to="hfbu:4F0TDiuCZaT" />
          <node concept="1sVBvm" id="4F0TDiuCZcT" role="1sWHZn">
            <node concept="3F0A7n" id="4F0TDiuCZdd" role="2wV5jI">
              <property role="1Intyy" value="true" />
              <ref role="1NtTu8" to="tpck:h0TrG11" resolve="name" />
            </node>
          </node>
        </node>
        <node concept="3F1sOY" id="6QQeWCmSzeM" role="3EZMnx">
          <property role="1$x2rV" value="&lt;all aspect classes&gt;" />
          <ref role="1NtTu8" to="hfbu:4F0TDiuCZaO" />
          <node concept="pkWqt" id="6QQeWCmSzeX" role="pqm2j">
            <node concept="3clFbS" id="6QQeWCmSzeY" role="2VODD2">
              <node concept="3clFbF" id="6QQeWCmSzk1" role="3cqZAp">
                <node concept="2OqwBi" id="6QQeWCmSzYI" role="3clFbG">
                  <node concept="2OqwBi" id="6QQeWCmSzo1" role="2Oq$k0">
                    <node concept="pncrf" id="6QQeWCmSzk0" role="2Oq$k0" />
                    <node concept="3TrEf2" id="6QQeWCmSzAM" role="2OqNvi">
                      <ref role="3Tt5mk" to="hfbu:4F0TDiuCZaO" />
                    </node>
                  </node>
                  <node concept="3w_OXm" id="6QQeWCmS$EG" role="2OqNvi" />
                </node>
              </node>
            </node>
          </node>
          <node concept="OXEIz" id="6QQeWCmSEjl" role="P5bDN">
            <node concept="1oHujT" id="6QQeWCmSEqo" role="OY2wv">
              <property role="1oHujS" value="per-concept method" />
              <node concept="1oIgkG" id="6QQeWCmSEqp" role="1oHujR">
                <node concept="3clFbS" id="6QQeWCmSEqq" role="2VODD2">
                  <node concept="3clFbF" id="6QQeWCmSEqz" role="3cqZAp">
                    <node concept="37vLTI" id="6QQeWCmSEKW" role="3clFbG">
                      <node concept="2c44tf" id="6QQeWCmSEPF" role="37vLTx">
                        <node concept="1bVj0M" id="6QQeWCmSEQK" role="2c44tc">
                          <node concept="3clFbS" id="6QQeWCmSEQM" role="1bW5cS" />
                          <node concept="37vLTG" id="6QQeWCmSERY" role="1bW2Oz">
                            <property role="TrG5h" value="aspect" />
                            <node concept="3Tqbb2" id="6QQeWCmSERX" role="1tU5fm">
                              <ref role="ehGHo" to="tpck:gw2VY9q" resolve="BaseConcept" />
                              <node concept="2c44tb" id="6QQeWCmSEXU" role="lGtFl">
                                <property role="P3scX" value="7866978e-a0f0-4cc7-81bc-4d213d9375e1/1138055754698/1138405853777" />
                                <property role="2qtEX8" value="concept" />
                                <node concept="2OqwBi" id="6QQeWCmSF1S" role="2c44t1">
                                  <node concept="3GMtW1" id="6QQeWCmSEZz" role="2Oq$k0" />
                                  <node concept="3TrEf2" id="6QQeWCmSFad" role="2OqNvi">
                                    <ref role="3Tt5mk" to="hfbu:4F0TDiuCZaT" />
                                  </node>
                                </node>
                              </node>
                            </node>
                          </node>
                        </node>
                      </node>
                      <node concept="2OqwBi" id="6QQeWCmSErC" role="37vLTJ">
                        <node concept="3GMtW1" id="6QQeWCmSEqy" role="2Oq$k0" />
                        <node concept="3TrEf2" id="6QQeWCmSE_e" role="2OqNvi">
                          <ref role="3Tt5mk" to="hfbu:4F0TDiuCZaO" />
                        </node>
                      </node>
                    </node>
                  </node>
                </node>
              </node>
            </node>
          </node>
        </node>
      </node>
      <node concept="3EZMnI" id="7Jfx5bwRf6P" role="3EZMnx">
        <node concept="VPM3Z" id="7Jfx5bwRf6R" role="3F10Kt">
          <property role="VOm3f" value="false" />
        </node>
        <node concept="3XFhqQ" id="7Jfx5bwRf79" role="3EZMnx" />
        <node concept="3F0ifn" id="4F0TDiuCZed" role="3EZMnx">
          <property role="3F0ifm" value="by concept" />
        </node>
        <node concept="3F1sOY" id="4F0TDiuCZd$" role="3EZMnx">
          <ref role="1NtTu8" to="hfbu:4F0TDiuCZaO" />
        </node>
        <node concept="2iRfu4" id="7Jfx5bwRf6U" role="2iSdaV" />
        <node concept="pkWqt" id="6QQeWCmS$Uu" role="pqm2j">
          <node concept="3clFbS" id="6QQeWCmS$Uv" role="2VODD2">
            <node concept="3clFbF" id="6QQeWCmS$Uw" role="3cqZAp">
              <node concept="2OqwBi" id="2_1mL0eofE7" role="3clFbG">
                <node concept="2OqwBi" id="6QQeWCmS$Uy" role="2Oq$k0">
                  <node concept="pncrf" id="6QQeWCmS$Uz" role="2Oq$k0" />
                  <node concept="Bykcj" id="2_1mL0eofE4" role="2OqNvi">
                    <node concept="1aIX9F" id="2_1mL0eofE5" role="1xVPHs">
                      <node concept="26LbJo" id="2_1mL0eofE6" role="1aIX9E">
                        <ref role="26LbJp" to="hfbu:4F0TDiuCZaO" />
                      </node>
                    </node>
                  </node>
                </node>
                <node concept="3GX2aA" id="2_1mL0eofE8" role="2OqNvi" />
              </node>
            </node>
          </node>
        </node>
      </node>
    </node>
  </node>
  <node concept="24kQdi" id="4F0TDiuCZAY">
    <property role="3GE5qa" value="simple.gen.byInterface" />
    <ref role="1XX52x" to="hfbu:4F0TDiuCZaF" resolve="GenerationDescriptor_ByInterface" />
    <node concept="3EZMnI" id="4F0TDiuCZB0" role="2wV5jI">
      <node concept="3EZMnI" id="1_lQ6trUnWI" role="3EZMnx">
        <node concept="3F0ifn" id="6QQeWCmSLQP" role="3EZMnx">
          <property role="3F0ifm" value="generate interface" />
        </node>
        <node concept="2iRfu4" id="1_lQ6trUnWJ" role="2iSdaV" />
        <node concept="1iCGBv" id="4F0TDiuCZBa" role="3EZMnx">
          <ref role="1NtTu8" to="hfbu:7NyVmB7TXSN" />
          <node concept="1sVBvm" id="4F0TDiuCZBb" role="1sWHZn">
            <node concept="3F0A7n" id="4F0TDiuCZBc" role="2wV5jI">
              <property role="1Intyy" value="true" />
              <ref role="1NtTu8" to="tpck:h0TrG11" resolve="name" />
            </node>
          </node>
        </node>
      </node>
      <node concept="3EZMnI" id="4F0TDiuCZBe" role="3EZMnx">
        <node concept="3XFhqQ" id="4F0TDiuCZBf" role="3EZMnx" />
        <node concept="VPM3Z" id="4F0TDiuCZBg" role="3F10Kt">
          <property role="VOm3f" value="false" />
        </node>
        <node concept="3F2HdR" id="4F0TDiuCZS6" role="3EZMnx">
          <ref role="1NtTu8" to="hfbu:4F0TDiuCZaH" />
          <node concept="2iRkQZ" id="4F0TDiuCZSr" role="2czzBx" />
          <node concept="3F0ifn" id="6QQeWCmSHE0" role="2czzBI">
            <property role="3F0ifm" value="&lt;methods generators&gt;" />
            <ref role="1k5W1q" to="tpen:hshO_Yc" resolve="Comment" />
          </node>
        </node>
        <node concept="2iRfu4" id="4F0TDiuCZBl" role="2iSdaV" />
      </node>
      <node concept="2iRkQZ" id="4F0TDiuCZBm" role="2iSdaV" />
    </node>
  </node>
  <node concept="24kQdi" id="7Mb2akaesrc">
    <ref role="1XX52x" to="hfbu:4voYo4rsXen" resolve="HelpURL" />
    <node concept="3EZMnI" id="7Mb2akaesrd" role="2wV5jI">
      <node concept="3F0A7n" id="4voYo4rtbR_" role="3EZMnx">
        <property role="1$x2rV" value="&lt;no URL&gt;" />
        <ref role="1NtTu8" to="hfbu:4voYo4rsXeo" resolve="url" />
      </node>
      <node concept="3gTLQM" id="7Mb2akaesrG" role="3EZMnx">
        <node concept="3Fmcul" id="7Mb2akaesrH" role="3FoqZy">
          <node concept="3clFbS" id="7Mb2akaesrI" role="2VODD2">
            <node concept="3cpWs8" id="1nhYb0FOxH8" role="3cqZAp">
              <node concept="3cpWsn" id="1nhYb0FOxH9" role="3cpWs9">
                <property role="TrG5h" value="button" />
                <property role="3TUv4t" value="true" />
                <node concept="3uibUv" id="1nhYb0FOxHa" role="1tU5fm">
                  <ref role="3uigEE" to="dxuu:~JButton" resolve="JButton" />
                </node>
                <node concept="2ShNRf" id="1nhYb0FOxHb" role="33vP2m">
                  <node concept="1pGfFk" id="1nhYb0FOxHc" role="2ShVmc">
                    <ref role="37wK5l" to="dxuu:~JButton.&lt;init&gt;()" resolve="JButton" />
                  </node>
                </node>
              </node>
            </node>
            <node concept="3clFbF" id="1nhYb0FOxHd" role="3cqZAp">
              <node concept="2OqwBi" id="1nhYb0FOxHe" role="3clFbG">
                <node concept="37vLTw" id="3GM_nagT$qV" role="2Oq$k0">
                  <ref role="3cqZAo" node="1nhYb0FOxH9" resolve="button" />
                </node>
                <node concept="liA8E" id="1nhYb0FOxHg" role="2OqNvi">
                  <ref role="37wK5l" to="dxuu:~AbstractButton.setAction(javax.swing.Action):void" resolve="setAction" />
                  <node concept="2ShNRf" id="1nhYb0FOxHh" role="37wK5m">
                    <node concept="YeOm9" id="1nhYb0FOxHi" role="2ShVmc">
                      <node concept="1Y3b0j" id="1nhYb0FOxHj" role="YeSDq">
                        <property role="TrG5h" value="" />
                        <ref role="1Y3XeK" to="dxuu:~AbstractAction" resolve="AbstractAction" />
                        <ref role="37wK5l" to="dxuu:~AbstractAction.&lt;init&gt;(java.lang.String)" resolve="AbstractAction" />
                        <node concept="3clFb_" id="1nhYb0FOxHk" role="jymVt">
                          <property role="TrG5h" value="actionPerformed" />
                          <node concept="3Tm1VV" id="1nhYb0FOxHl" role="1B3o_S" />
                          <node concept="3cqZAl" id="1nhYb0FOxHm" role="3clF45" />
                          <node concept="37vLTG" id="1nhYb0FOxHn" role="3clF46">
                            <property role="TrG5h" value="e" />
                            <node concept="3uibUv" id="1nhYb0FOxHo" role="1tU5fm">
                              <ref role="3uigEE" to="hyam:~ActionEvent" resolve="ActionEvent" />
                            </node>
                          </node>
                          <node concept="3clFbS" id="1nhYb0FOxHp" role="3clF47">
                            <node concept="1QHqEK" id="4voYo4ru_Tj" role="3cqZAp">
                              <node concept="1QHqEC" id="4voYo4ru_Tl" role="1QHqEI">
                                <node concept="3clFbS" id="4voYo4ru_Tn" role="1bW5cS">
                                  <node concept="3clFbF" id="4voYo4rtpcg" role="3cqZAp">
                                    <node concept="2YIFZM" id="4voYo4rtpmO" role="3clFbG">
                                      <ref role="37wK5l" to="ddhc:~BrowserUtil.browse(java.lang.String):void" resolve="browse" />
                                      <ref role="1Pybhc" to="ddhc:~BrowserUtil" resolve="BrowserUtil" />
                                      <node concept="2OqwBi" id="4voYo4rtppr" role="37wK5m">
                                        <node concept="pncrf" id="4voYo4rtpnJ" role="2Oq$k0" />
                                        <node concept="3TrcHB" id="4voYo4rtptm" role="2OqNvi">
                                          <ref role="3TsBF5" to="hfbu:4voYo4rsXeo" resolve="url" />
                                        </node>
                                      </node>
                                    </node>
                                  </node>
                                </node>
                              </node>
                            </node>
                          </node>
                          <node concept="2AHcQZ" id="3tYsUK_SdJp" role="2AJF6D">
                            <ref role="2AI5Lk" to="wyt6:~Override" resolve="Override" />
                          </node>
                        </node>
                        <node concept="Xl_RD" id="4voYo4rtnnI" role="37wK5m">
                          <property role="Xl_RC" value="Test" />
                        </node>
                      </node>
                    </node>
                  </node>
                </node>
              </node>
            </node>
            <node concept="3clFbF" id="1CsuQTaREIw" role="3cqZAp">
              <node concept="2OqwBi" id="1CsuQTaRGKr" role="3clFbG">
                <node concept="37vLTw" id="1CsuQTaREIv" role="2Oq$k0">
                  <ref role="3cqZAo" node="1nhYb0FOxH9" resolve="button" />
                </node>
                <node concept="liA8E" id="1CsuQTaROEb" role="2OqNvi">
                  <ref role="37wK5l" to="dxuu:~JComponent.setPreferredSize(java.awt.Dimension):void" resolve="setPreferredSize" />
                  <node concept="2ShNRf" id="1CsuQTaRPXM" role="37wK5m">
                    <node concept="1pGfFk" id="1CsuQTaS2Hb" role="2ShVmc">
                      <ref role="37wK5l" to="z60i:~Dimension.&lt;init&gt;(int,int)" resolve="Dimension" />
                      <node concept="3cmrfG" id="4voYo4ruybd" role="37wK5m">
                        <property role="3cmrfH" value="40" />
                      </node>
                      <node concept="3cmrfG" id="4voYo4ruJxy" role="37wK5m">
                        <property role="3cmrfH" value="20" />
                      </node>
                    </node>
                  </node>
                </node>
              </node>
            </node>
            <node concept="3cpWs6" id="1nhYb0FOxJ6" role="3cqZAp">
              <node concept="37vLTw" id="3GM_nagTuKx" role="3cqZAk">
                <ref role="3cqZAo" node="1nhYb0FOxH9" resolve="button" />
              </node>
            </node>
          </node>
        </node>
      </node>
      <node concept="2iRfu4" id="4voYo4ruG$4" role="2iSdaV" />
    </node>
  </node>
</model>

