<?xml version="1.0" encoding="UTF-8"?>
<model ref="r:33cde0a0-dbcb-4270-bdee-9b4160731fdf(jetbrains.mps.lang.aspect.plugin)">
  <persistence version="9" />
  <languages>
    <use id="28f9e497-3b42-4291-aeba-0a1039153ab1" name="jetbrains.mps.lang.plugin" version="1" />
    <use id="c0080a47-7e37-4558-bee9-9ae18e690549" name="jetbrains.mps.lang.extension" version="2" />
    <devkit ref="fbc25dd2-5da4-483a-8b19-70928e1b62d7(jetbrains.mps.devkit.general-purpose)" />
  </languages>
  <imports>
    <import index="vndm" ref="6ed54515-acc8-4d1e-a16c-9fd6cfe951ea/java:jetbrains.mps.smodel.language(MPS.Core/)" />
  </imports>
  <registry>
    <language id="f3061a53-9226-4cc5-a443-f952ceaf5816" name="jetbrains.mps.baseLanguage">
      <concept id="1107535904670" name="jetbrains.mps.baseLanguage.structure.ClassifierType" flags="in" index="3uibUv">
        <reference id="1107535924139" name="classifier" index="3uigEE" />
      </concept>
    </language>
    <language id="c0080a47-7e37-4558-bee9-9ae18e690549" name="jetbrains.mps.lang.extension">
      <concept id="3729007189729192406" name="jetbrains.mps.lang.extension.structure.ExtensionPointDeclaration" flags="ng" index="vrV6u">
        <child id="8029776554053057803" name="objectType" index="luc8K" />
      </concept>
    </language>
    <language id="ceab5195-25ea-4f22-9b92-103b95ca8c0c" name="jetbrains.mps.lang.core">
      <concept id="1169194658468" name="jetbrains.mps.lang.core.structure.INamedConcept" flags="ng" index="TrEIO">
        <property id="1169194664001" name="name" index="TrG5h" />
      </concept>
    </language>
  </registry>
  <node concept="vrV6u" id="2Sw9hCAHJv3">
    <property role="TrG5h" value="LanguageAspectsEP" />
    <node concept="3uibUv" id="2Sw9hCAHLuy" role="luc8K">
      <ref role="3uigEE" to="vndm:~LanguageAspectDescriptor" resolve="LanguageAspectDescriptor" />
    </node>
  </node>
</model>

