<?xml version="1.0" encoding="UTF-8"?>
<model ref="r:91efff54-b103-4338-b907-08418b213738(jetbrains.mps.baseLanguage.jdk7.generator.template.util)">
  <persistence version="9" />
  <languages>
    <use id="b401a680-8325-4110-8fd3-84331ff25bef" name="jetbrains.mps.lang.generator" version="0" />
    <use id="d7706f63-9be2-479c-a3da-ae92af1e64d5" name="jetbrains.mps.lang.generator.generationContext" version="0" />
    <devkit ref="fbc25dd2-5da4-483a-8b19-70928e1b62d7(jetbrains.mps.devkit.general-purpose)" />
  </languages>
  <imports>
    <import index="w1kc" ref="6ed54515-acc8-4d1e-a16c-9fd6cfe951ea/java:jetbrains.mps.smodel(MPS.Core/)" />
    <import index="mhbf" ref="8865b7a8-5271-43d3-884c-6fd1d9cfdd34/java:org.jetbrains.mps.openapi.model(MPS.OpenAPI/)" />
    <import index="rymi" ref="r:64af8966-9a33-4cc7-8f2a-fe243f26c38f(jetbrains.mps.baseLanguage.jdk7.structure)" implicit="true" />
    <import index="tpee" ref="r:00000000-0000-4000-0000-011c895902ca(jetbrains.mps.baseLanguage.structure)" implicit="true" />
    <import index="wyt6" ref="6354ebe7-c22a-4a0f-ac54-50b52ab9b065/java:java.lang(JDK/)" implicit="true" />
  </imports>
  <registry>
    <language id="f3061a53-9226-4cc5-a443-f952ceaf5816" name="jetbrains.mps.baseLanguage">
      <concept id="1215693861676" name="jetbrains.mps.baseLanguage.structure.BaseAssignmentExpression" flags="nn" index="d038R">
        <child id="1068498886297" name="rValue" index="37vLTx" />
        <child id="1068498886295" name="lValue" index="37vLTJ" />
      </concept>
      <concept id="4836112446988635817" name="jetbrains.mps.baseLanguage.structure.UndefinedType" flags="in" index="2jxLKc" />
      <concept id="1202948039474" name="jetbrains.mps.baseLanguage.structure.InstanceMethodCallOperation" flags="nn" index="liA8E" />
      <concept id="1239714755177" name="jetbrains.mps.baseLanguage.structure.AbstractUnaryNumberOperation" flags="nn" index="2$Kvd9">
        <child id="1239714902950" name="expression" index="2$L3a6" />
      </concept>
      <concept id="1154032098014" name="jetbrains.mps.baseLanguage.structure.AbstractLoopStatement" flags="nn" index="2LF5Ji">
        <child id="1154032183016" name="body" index="2LFqv$" />
      </concept>
      <concept id="1197027756228" name="jetbrains.mps.baseLanguage.structure.DotExpression" flags="nn" index="2OqwBi">
        <child id="1197027771414" name="operand" index="2Oq$k0" />
        <child id="1197027833540" name="operation" index="2OqNvi" />
      </concept>
      <concept id="1145552977093" name="jetbrains.mps.baseLanguage.structure.GenericNewExpression" flags="nn" index="2ShNRf">
        <child id="1145553007750" name="creator" index="2ShVmc" />
      </concept>
      <concept id="1070475926800" name="jetbrains.mps.baseLanguage.structure.StringLiteral" flags="nn" index="Xl_RD">
        <property id="1070475926801" name="value" index="Xl_RC" />
      </concept>
      <concept id="1081236700938" name="jetbrains.mps.baseLanguage.structure.StaticMethodDeclaration" flags="ig" index="2YIFZL" />
      <concept id="1070534058343" name="jetbrains.mps.baseLanguage.structure.NullLiteral" flags="nn" index="10Nm6u" />
      <concept id="1070534370425" name="jetbrains.mps.baseLanguage.structure.IntegerType" flags="in" index="10Oyi0" />
      <concept id="1070534934090" name="jetbrains.mps.baseLanguage.structure.CastExpression" flags="nn" index="10QFUN">
        <child id="1070534934091" name="type" index="10QFUM" />
        <child id="1070534934092" name="expression" index="10QFUP" />
      </concept>
      <concept id="1068390468198" name="jetbrains.mps.baseLanguage.structure.ClassConcept" flags="ig" index="312cEu" />
      <concept id="1068431474542" name="jetbrains.mps.baseLanguage.structure.VariableDeclaration" flags="ng" index="33uBYm">
        <property id="1176718929932" name="isFinal" index="3TUv4t" />
        <child id="1068431790190" name="initializer" index="33vP2m" />
      </concept>
      <concept id="1068498886296" name="jetbrains.mps.baseLanguage.structure.VariableReference" flags="nn" index="37vLTw">
        <reference id="1068581517664" name="variableDeclaration" index="3cqZAo" />
      </concept>
      <concept id="1068498886292" name="jetbrains.mps.baseLanguage.structure.ParameterDeclaration" flags="ir" index="37vLTG" />
      <concept id="1068498886294" name="jetbrains.mps.baseLanguage.structure.AssignmentExpression" flags="nn" index="37vLTI" />
      <concept id="1225271177708" name="jetbrains.mps.baseLanguage.structure.StringType" flags="in" index="17QB3L" />
      <concept id="4972933694980447171" name="jetbrains.mps.baseLanguage.structure.BaseVariableDeclaration" flags="ng" index="19Szcq">
        <child id="5680397130376446158" name="type" index="1tU5fm" />
      </concept>
      <concept id="1068580123132" name="jetbrains.mps.baseLanguage.structure.BaseMethodDeclaration" flags="ng" index="3clF44">
        <child id="1068580123133" name="returnType" index="3clF45" />
        <child id="1068580123134" name="parameter" index="3clF46" />
        <child id="1068580123135" name="body" index="3clF47" />
      </concept>
      <concept id="1068580123155" name="jetbrains.mps.baseLanguage.structure.ExpressionStatement" flags="nn" index="3clFbF">
        <child id="1068580123156" name="expression" index="3clFbG" />
      </concept>
      <concept id="1068580123157" name="jetbrains.mps.baseLanguage.structure.Statement" flags="nn" index="3clFbH" />
      <concept id="1068580123159" name="jetbrains.mps.baseLanguage.structure.IfStatement" flags="nn" index="3clFbJ">
        <child id="1068580123160" name="condition" index="3clFbw" />
        <child id="1068580123161" name="ifTrue" index="3clFbx" />
      </concept>
      <concept id="1068580123136" name="jetbrains.mps.baseLanguage.structure.StatementList" flags="sn" stub="5293379017992965193" index="3clFbS">
        <child id="1068581517665" name="statement" index="3cqZAp" />
      </concept>
      <concept id="1068580123137" name="jetbrains.mps.baseLanguage.structure.BooleanConstant" flags="nn" index="3clFbT">
        <property id="1068580123138" name="value" index="3clFbU" />
      </concept>
      <concept id="1068580123140" name="jetbrains.mps.baseLanguage.structure.ConstructorDeclaration" flags="ig" index="3clFbW" />
      <concept id="1068580320020" name="jetbrains.mps.baseLanguage.structure.IntegerConstant" flags="nn" index="3cmrfG">
        <property id="1068580320021" name="value" index="3cmrfH" />
      </concept>
      <concept id="1068581242875" name="jetbrains.mps.baseLanguage.structure.PlusExpression" flags="nn" index="3cpWs3" />
      <concept id="1068581242878" name="jetbrains.mps.baseLanguage.structure.ReturnStatement" flags="nn" index="3cpWs6">
        <child id="1068581517676" name="expression" index="3cqZAk" />
      </concept>
      <concept id="1068581242864" name="jetbrains.mps.baseLanguage.structure.LocalVariableDeclarationStatement" flags="nn" index="3cpWs8">
        <child id="1068581242865" name="localVariableDeclaration" index="3cpWs9" />
      </concept>
      <concept id="1068581242863" name="jetbrains.mps.baseLanguage.structure.LocalVariableDeclaration" flags="nr" index="3cpWsn" />
      <concept id="1068581517677" name="jetbrains.mps.baseLanguage.structure.VoidType" flags="in" index="3cqZAl" />
      <concept id="1204053956946" name="jetbrains.mps.baseLanguage.structure.IMethodCall" flags="ng" index="1ndlxa">
        <reference id="1068499141037" name="baseMethodDeclaration" index="37wK5l" />
        <child id="1068499141038" name="actualArgument" index="37wK5m" />
      </concept>
      <concept id="1107461130800" name="jetbrains.mps.baseLanguage.structure.Classifier" flags="ng" index="3pOWGL">
        <child id="5375687026011219971" name="member" index="jymVt" unordered="true" />
      </concept>
      <concept id="7812454656619025412" name="jetbrains.mps.baseLanguage.structure.LocalMethodCall" flags="nn" index="1rXfSq" />
      <concept id="1081773326031" name="jetbrains.mps.baseLanguage.structure.BinaryOperation" flags="nn" index="3uHJSO">
        <child id="1081773367579" name="rightExpression" index="3uHU7w" />
        <child id="1081773367580" name="leftExpression" index="3uHU7B" />
      </concept>
      <concept id="1214918800624" name="jetbrains.mps.baseLanguage.structure.PostfixIncrementExpression" flags="nn" index="3uNrnE" />
      <concept id="1073239437375" name="jetbrains.mps.baseLanguage.structure.NotEqualsExpression" flags="nn" index="3y3z36" />
      <concept id="1178549954367" name="jetbrains.mps.baseLanguage.structure.IVisible" flags="ng" index="1B3ioH">
        <child id="1178549979242" name="visibility" index="1B3o_S" />
      </concept>
      <concept id="1144226303539" name="jetbrains.mps.baseLanguage.structure.ForeachStatement" flags="nn" index="1DcWWT">
        <child id="1144226360166" name="iterable" index="1DdaDG" />
      </concept>
      <concept id="1144230876926" name="jetbrains.mps.baseLanguage.structure.AbstractForStatement" flags="nn" index="1DupvO">
        <child id="1144230900587" name="variable" index="1Duv9x" />
      </concept>
      <concept id="1146644602865" name="jetbrains.mps.baseLanguage.structure.PublicVisibility" flags="nn" index="3Tm1VV" />
    </language>
    <language id="fd392034-7849-419d-9071-12563d152375" name="jetbrains.mps.baseLanguage.closures">
      <concept id="1199569711397" name="jetbrains.mps.baseLanguage.closures.structure.ClosureLiteral" flags="nn" index="1bVj0M">
        <child id="1199569906740" name="parameter" index="1bW2Oz" />
        <child id="1199569916463" name="body" index="1bW5cS" />
      </concept>
    </language>
    <language id="d7706f63-9be2-479c-a3da-ae92af1e64d5" name="jetbrains.mps.lang.generator.generationContext">
      <concept id="1217889960776" name="jetbrains.mps.lang.generator.generationContext.structure.GenerationContextOp_UserObjectAccessBase" flags="nn" index="2fTw9j">
        <child id="1217890689512" name="userKey" index="2fWi3N" />
      </concept>
      <concept id="1217894033795" name="jetbrains.mps.lang.generator.generationContext.structure.GenerationContextOp_TransientObjectAccess" flags="nn" index="2g92yo" />
      <concept id="1216860049633" name="jetbrains.mps.lang.generator.generationContext.structure.GenerationContextType" flags="in" index="1iwH7U" />
    </language>
    <language id="7866978e-a0f0-4cc7-81bc-4d213d9375e1" name="jetbrains.mps.lang.smodel">
      <concept id="2396822768958367367" name="jetbrains.mps.lang.smodel.structure.AbstractTypeCastExpression" flags="nn" index="$5XWr">
        <reference id="6733348108486823428" name="concept" index="1m5ApE" />
        <child id="6733348108486823193" name="leftExpression" index="1m5AlR" />
      </concept>
      <concept id="1145404486709" name="jetbrains.mps.lang.smodel.structure.SemanticDowncastExpression" flags="nn" index="2JrnkZ">
        <child id="1145404616321" name="leftExpression" index="2JrQYb" />
      </concept>
      <concept id="3562215692195599741" name="jetbrains.mps.lang.smodel.structure.SLinkImplicitSelect" flags="nn" index="13MTOL">
        <reference id="3562215692195600259" name="link" index="13MTZf" />
      </concept>
      <concept id="1140137987495" name="jetbrains.mps.lang.smodel.structure.SNodeTypeCastExpression" flags="nn" index="1PxgMI" />
      <concept id="1138055754698" name="jetbrains.mps.lang.smodel.structure.SNodeType" flags="in" index="3Tqbb2">
        <reference id="1138405853777" name="concept" index="ehGHo" />
      </concept>
      <concept id="1138056022639" name="jetbrains.mps.lang.smodel.structure.SPropertyAccess" flags="nn" index="3TrcHB">
        <reference id="1138056395725" name="property" index="3TsBF5" />
      </concept>
      <concept id="1138056282393" name="jetbrains.mps.lang.smodel.structure.SLinkListAccess" flags="nn" index="3Tsc0h">
        <reference id="1138056546658" name="link" index="3TtcxE" />
      </concept>
    </language>
    <language id="ceab5195-25ea-4f22-9b92-103b95ca8c0c" name="jetbrains.mps.lang.core">
      <concept id="1169194658468" name="jetbrains.mps.lang.core.structure.INamedConcept" flags="ng" index="TrEIO">
        <property id="1169194664001" name="name" index="TrG5h" />
      </concept>
    </language>
    <language id="83888646-71ce-4f1c-9c53-c54016f6ad4f" name="jetbrains.mps.baseLanguage.collections">
      <concept id="1204796164442" name="jetbrains.mps.baseLanguage.collections.structure.InternalSequenceOperation" flags="nn" index="23sCx2">
        <child id="1204796294226" name="closure" index="23t8la" />
      </concept>
      <concept id="1151689724996" name="jetbrains.mps.baseLanguage.collections.structure.SequenceType" flags="in" index="A3Dl8">
        <child id="1151689745422" name="elementType" index="A3Ik2" />
      </concept>
      <concept id="1203518072036" name="jetbrains.mps.baseLanguage.collections.structure.SmartClosureParameterDeclaration" flags="ig" index="Rh6nW" />
      <concept id="1205679737078" name="jetbrains.mps.baseLanguage.collections.structure.SortOperation" flags="nn" index="2S7cBI">
        <child id="1205679832066" name="ascending" index="2S7zOq" />
      </concept>
      <concept id="1178286324487" name="jetbrains.mps.baseLanguage.collections.structure.SortDirection" flags="nn" index="1nlBCl" />
      <concept id="1197683403723" name="jetbrains.mps.baseLanguage.collections.structure.MapType" flags="in" index="3rvAFt">
        <child id="1197683466920" name="keyType" index="3rvQeY" />
        <child id="1197683475734" name="valueType" index="3rvSg0" />
      </concept>
      <concept id="1197686869805" name="jetbrains.mps.baseLanguage.collections.structure.HashMapCreator" flags="nn" index="3rGOSV">
        <child id="1197687026896" name="keyType" index="3rHrn6" />
        <child id="1197687035757" name="valueType" index="3rHtpV" />
      </concept>
      <concept id="1197932370469" name="jetbrains.mps.baseLanguage.collections.structure.MapElement" flags="nn" index="3EllGN">
        <child id="1197932505799" name="map" index="3ElQJh" />
        <child id="1197932525128" name="key" index="3ElVtu" />
      </concept>
    </language>
  </registry>
  <node concept="312cEu" id="12k5PAfftuV">
    <property role="TrG5h" value="SwitchGenUtil" />
    <node concept="3Tm1VV" id="12k5PAfftuW" role="1B3o_S" />
    <node concept="3clFbW" id="12k5PAfftuX" role="jymVt">
      <node concept="3cqZAl" id="12k5PAfftuY" role="3clF45" />
      <node concept="3Tm1VV" id="12k5PAfftuZ" role="1B3o_S" />
      <node concept="3clFbS" id="12k5PAfftv0" role="3clF47" />
    </node>
    <node concept="2YIFZL" id="12k5PAfftwv" role="jymVt">
      <property role="TrG5h" value="getNodes" />
      <node concept="37vLTG" id="12k5PAfftwz" role="3clF46">
        <property role="TrG5h" value="node" />
        <node concept="3Tqbb2" id="12k5PAfftw$" role="1tU5fm">
          <ref role="ehGHo" to="rymi:mfnC6nNy4D" resolve="StringSwitchStatement" />
        </node>
      </node>
      <node concept="3Tm1VV" id="12k5PAfftwx" role="1B3o_S" />
      <node concept="3clFbS" id="12k5PAfftwy" role="3clF47">
        <node concept="3clFbF" id="12k5PAfftwC" role="3cqZAp">
          <node concept="2OqwBi" id="12k5PAfftwD" role="3clFbG">
            <node concept="2OqwBi" id="12k5PAfftwE" role="2Oq$k0">
              <node concept="2OqwBi" id="12k5PAfftwF" role="2Oq$k0">
                <node concept="37vLTw" id="2BHiRxgmhEf" role="2Oq$k0">
                  <ref role="3cqZAo" node="12k5PAfftwz" resolve="node" />
                </node>
                <node concept="3Tsc0h" id="12k5PAfftwH" role="2OqNvi">
                  <ref role="3TtcxE" to="tpee:gVKbHMJ" />
                </node>
              </node>
              <node concept="13MTOL" id="12k5PAfftwI" role="2OqNvi">
                <ref role="13MTZf" to="tpee:gVKbmvf" />
              </node>
            </node>
            <node concept="2S7cBI" id="12k5PAfftwJ" role="2OqNvi">
              <node concept="1bVj0M" id="12k5PAfftwK" role="23t8la">
                <node concept="3clFbS" id="12k5PAfftwL" role="1bW5cS">
                  <node concept="3clFbF" id="12k5PAfftwM" role="3cqZAp">
                    <node concept="2OqwBi" id="12k5PAfftwN" role="3clFbG">
                      <node concept="1PxgMI" id="12k5PAfftwO" role="2Oq$k0">
                        <ref role="1m5ApE" to="tpee:f$Xl_Og" resolve="StringLiteral" />
                        <node concept="37vLTw" id="2BHiRxglRL1" role="1m5AlR">
                          <ref role="3cqZAo" node="12k5PAfftwR" resolve="it" />
                        </node>
                      </node>
                      <node concept="3TrcHB" id="12k5PAfftwQ" role="2OqNvi">
                        <ref role="3TsBF5" to="tpee:f$Xl_Oh" resolve="value" />
                      </node>
                    </node>
                  </node>
                </node>
                <node concept="Rh6nW" id="12k5PAfftwR" role="1bW2Oz">
                  <property role="TrG5h" value="it" />
                  <node concept="2jxLKc" id="12k5PAfftwS" role="1tU5fm" />
                </node>
              </node>
              <node concept="1nlBCl" id="12k5PAfftwT" role="2S7zOq">
                <property role="3clFbU" value="true" />
              </node>
            </node>
          </node>
        </node>
      </node>
      <node concept="A3Dl8" id="12k5PAfftw_" role="3clF45">
        <node concept="3Tqbb2" id="12k5PAfftwA" role="A3Ik2">
          <ref role="ehGHo" to="tpee:fz3vP1J" resolve="Expression" />
        </node>
      </node>
    </node>
    <node concept="2YIFZL" id="12k5PAfftv1" role="jymVt">
      <property role="TrG5h" value="getMap" />
      <node concept="3Tm1VV" id="12k5PAfftv3" role="1B3o_S" />
      <node concept="3clFbS" id="12k5PAfftv4" role="3clF47">
        <node concept="3cpWs8" id="12k5PAfftxd" role="3cqZAp">
          <node concept="3cpWsn" id="12k5PAfftxe" role="3cpWs9">
            <property role="TrG5h" value="m" />
            <node concept="3rvAFt" id="12k5PAfftxg" role="1tU5fm">
              <node concept="10Oyi0" id="12k5PAfftxh" role="3rvSg0" />
              <node concept="17QB3L" id="12k5PAfftxi" role="3rvQeY" />
            </node>
            <node concept="10QFUN" id="12k5PAfftxI" role="33vP2m">
              <node concept="2OqwBi" id="12k5PAfftxk" role="10QFUP">
                <node concept="37vLTw" id="2BHiRxgm7OC" role="2Oq$k0">
                  <ref role="3cqZAo" node="12k5PAfftwr" resolve="genContext" />
                </node>
                <node concept="2g92yo" id="12k5PAfftxm" role="2OqNvi">
                  <node concept="3cpWs3" id="12k5PAfftxn" role="2fWi3N">
                    <node concept="Xl_RD" id="12k5PAfftxo" role="3uHU7B">
                      <property role="Xl_RC" value="switch" />
                    </node>
                    <node concept="2OqwBi" id="1R1KclLA1dz" role="3uHU7w">
                      <node concept="2OqwBi" id="1R1KclLA1d$" role="2Oq$k0">
                        <node concept="liA8E" id="24cAaiVCalb" role="2OqNvi">
                          <ref role="37wK5l" to="mhbf:~SNode.getNodeId():org.jetbrains.mps.openapi.model.SNodeId" resolve="getNodeId" />
                        </node>
                        <node concept="2JrnkZ" id="1R1KclLA1d_" role="2Oq$k0">
                          <node concept="37vLTw" id="2BHiRxghfUn" role="2JrQYb">
                            <ref role="3cqZAo" node="12k5PAfftvb" resolve="node" />
                          </node>
                        </node>
                      </node>
                      <node concept="liA8E" id="1R1KclLA1dC" role="2OqNvi">
                        <ref role="37wK5l" to="wyt6:~Object.toString():java.lang.String" resolve="toString" />
                      </node>
                    </node>
                  </node>
                </node>
              </node>
              <node concept="3rvAFt" id="12k5PAfftxL" role="10QFUM">
                <node concept="10Oyi0" id="12k5PAfftxM" role="3rvSg0" />
                <node concept="17QB3L" id="12k5PAfftxN" role="3rvQeY" />
              </node>
            </node>
          </node>
        </node>
        <node concept="3clFbJ" id="12k5PAfftxu" role="3cqZAp">
          <node concept="3clFbS" id="12k5PAfftxv" role="3clFbx">
            <node concept="3cpWs6" id="12k5PAfftxC" role="3cqZAp">
              <node concept="37vLTw" id="3GM_nagTtW_" role="3cqZAk">
                <ref role="3cqZAo" node="12k5PAfftxe" resolve="m" />
              </node>
            </node>
          </node>
          <node concept="3y3z36" id="12k5PAfftxz" role="3clFbw">
            <node concept="37vLTw" id="3GM_nagT$zR" role="3uHU7B">
              <ref role="3cqZAo" node="12k5PAfftxe" resolve="m" />
            </node>
            <node concept="10Nm6u" id="12k5PAfftxA" role="3uHU7w" />
          </node>
        </node>
        <node concept="3clFbH" id="12k5PAfftx0" role="3cqZAp" />
        <node concept="3cpWs8" id="12k5PAfftvd" role="3cqZAp">
          <node concept="3cpWsn" id="12k5PAfftve" role="3cpWs9">
            <property role="TrG5h" value="nodes" />
            <property role="3TUv4t" value="true" />
            <node concept="A3Dl8" id="12k5PAfftvf" role="1tU5fm">
              <node concept="3Tqbb2" id="12k5PAfftvg" role="A3Ik2">
                <ref role="ehGHo" to="tpee:fz3vP1J" resolve="Expression" />
              </node>
            </node>
            <node concept="1rXfSq" id="4hiugqysnXf" role="33vP2m">
              <ref role="37wK5l" node="12k5PAfftwv" resolve="getNodes" />
              <node concept="37vLTw" id="2BHiRxghiVV" role="37wK5m">
                <ref role="3cqZAo" node="12k5PAfftvb" resolve="node" />
              </node>
            </node>
          </node>
        </node>
        <node concept="3clFbF" id="12k5PAfftxP" role="3cqZAp">
          <node concept="37vLTI" id="12k5PAfftxR" role="3clFbG">
            <node concept="37vLTw" id="3GM_nagTAVX" role="37vLTJ">
              <ref role="3cqZAo" node="12k5PAfftxe" resolve="m" />
            </node>
            <node concept="2ShNRf" id="12k5PAfftxU" role="37vLTx">
              <node concept="3rGOSV" id="12k5PAfftxV" role="2ShVmc">
                <node concept="17QB3L" id="12k5PAfftxW" role="3rHrn6" />
                <node concept="10Oyi0" id="12k5PAfftxX" role="3rHtpV" />
              </node>
            </node>
          </node>
        </node>
        <node concept="3cpWs8" id="12k5PAfftvF" role="3cqZAp">
          <node concept="3cpWsn" id="12k5PAfftvG" role="3cpWs9">
            <property role="TrG5h" value="index" />
            <node concept="10Oyi0" id="12k5PAfftvH" role="1tU5fm" />
            <node concept="3cmrfG" id="12k5PAfftvI" role="33vP2m">
              <property role="3cmrfH" value="0" />
            </node>
          </node>
        </node>
        <node concept="1DcWWT" id="12k5PAfftvJ" role="3cqZAp">
          <node concept="3clFbS" id="12k5PAfftvK" role="2LFqv$">
            <node concept="3clFbF" id="12k5PAfftvL" role="3cqZAp">
              <node concept="37vLTI" id="12k5PAfftvM" role="3clFbG">
                <node concept="3EllGN" id="12k5PAfftvN" role="37vLTJ">
                  <node concept="2OqwBi" id="12k5PAfftvO" role="3ElVtu">
                    <node concept="1PxgMI" id="12k5PAfftvP" role="2Oq$k0">
                      <ref role="1m5ApE" to="tpee:f$Xl_Og" resolve="StringLiteral" />
                      <node concept="37vLTw" id="3GM_nagT_vH" role="1m5AlR">
                        <ref role="3cqZAo" node="12k5PAfftvV" resolve="e" />
                      </node>
                    </node>
                    <node concept="3TrcHB" id="12k5PAfftvR" role="2OqNvi">
                      <ref role="3TsBF5" to="tpee:f$Xl_Oh" resolve="value" />
                    </node>
                  </node>
                  <node concept="37vLTw" id="3GM_nagTrMH" role="3ElQJh">
                    <ref role="3cqZAo" node="12k5PAfftxe" resolve="m" />
                  </node>
                </node>
                <node concept="3uNrnE" id="12k5PAfftvT" role="37vLTx">
                  <node concept="37vLTw" id="3GM_nagTwWI" role="2$L3a6">
                    <ref role="3cqZAo" node="12k5PAfftvG" resolve="index" />
                  </node>
                </node>
              </node>
            </node>
          </node>
          <node concept="3cpWsn" id="12k5PAfftvV" role="1Duv9x">
            <property role="TrG5h" value="e" />
            <node concept="3Tqbb2" id="12k5PAfftvW" role="1tU5fm">
              <ref role="ehGHo" to="tpee:fz3vP1J" resolve="Expression" />
            </node>
          </node>
          <node concept="37vLTw" id="3GM_nagTxKD" role="1DdaDG">
            <ref role="3cqZAo" node="12k5PAfftve" resolve="nodes" />
          </node>
        </node>
        <node concept="3clFbF" id="12k5PAfftwb" role="3cqZAp">
          <node concept="37vLTI" id="12k5PAfftwc" role="3clFbG">
            <node concept="2OqwBi" id="12k5PAfftwd" role="37vLTJ">
              <node concept="37vLTw" id="2BHiRxghfGH" role="2Oq$k0">
                <ref role="3cqZAo" node="12k5PAfftwr" resolve="genContext" />
              </node>
              <node concept="2g92yo" id="12k5PAfftwf" role="2OqNvi">
                <node concept="3cpWs3" id="12k5PAfftwg" role="2fWi3N">
                  <node concept="Xl_RD" id="12k5PAfftwh" role="3uHU7B">
                    <property role="Xl_RC" value="switch" />
                  </node>
                  <node concept="2OqwBi" id="1R1KclLA19S" role="3uHU7w">
                    <node concept="2OqwBi" id="1R1KclLA19T" role="2Oq$k0">
                      <node concept="liA8E" id="24cAaiVCamZ" role="2OqNvi">
                        <ref role="37wK5l" to="mhbf:~SNode.getNodeId():org.jetbrains.mps.openapi.model.SNodeId" resolve="getNodeId" />
                      </node>
                      <node concept="2JrnkZ" id="1R1KclLA19U" role="2Oq$k0">
                        <node concept="37vLTw" id="2BHiRxglawp" role="2JrQYb">
                          <ref role="3cqZAo" node="12k5PAfftvb" resolve="node" />
                        </node>
                      </node>
                    </node>
                    <node concept="liA8E" id="1R1KclLA19X" role="2OqNvi">
                      <ref role="37wK5l" to="wyt6:~Object.toString():java.lang.String" resolve="toString" />
                    </node>
                  </node>
                </node>
              </node>
            </node>
            <node concept="37vLTw" id="3GM_nagTr3S" role="37vLTx">
              <ref role="3cqZAo" node="12k5PAfftxe" resolve="m" />
            </node>
          </node>
        </node>
        <node concept="3clFbF" id="12k5PAfftwn" role="3cqZAp">
          <node concept="37vLTw" id="3GM_nagT_Yu" role="3clFbG">
            <ref role="3cqZAo" node="12k5PAfftxe" resolve="m" />
          </node>
        </node>
      </node>
      <node concept="37vLTG" id="12k5PAfftvb" role="3clF46">
        <property role="TrG5h" value="node" />
        <node concept="3Tqbb2" id="12k5PAfftvc" role="1tU5fm">
          <ref role="ehGHo" to="rymi:mfnC6nNy4D" resolve="StringSwitchStatement" />
        </node>
      </node>
      <node concept="37vLTG" id="12k5PAfftwr" role="3clF46">
        <property role="TrG5h" value="genContext" />
        <node concept="1iwH7U" id="12k5PAfftwt" role="1tU5fm" />
      </node>
      <node concept="3rvAFt" id="12k5PAfftxF" role="3clF45">
        <node concept="10Oyi0" id="12k5PAfftxG" role="3rvSg0" />
        <node concept="17QB3L" id="12k5PAfftxH" role="3rvQeY" />
      </node>
    </node>
  </node>
</model>

