<?xml version="1.0" encoding="UTF-8"?>
<model ref="r:9b7a7baa-7b52-4b41-8293-5aa14d41220f(jetbrains.mps.baseLanguage.overloadedOperators.constraints)">
  <persistence version="9" />
  <languages>
    <use id="fd392034-7849-419d-9071-12563d152375" name="jetbrains.mps.baseLanguage.closures" version="-1" />
    <use id="83888646-71ce-4f1c-9c53-c54016f6ad4f" name="jetbrains.mps.baseLanguage.collections" version="-1" />
    <use id="3f4bc5f5-c6c1-4a28-8b10-c83066ffa4a1" name="jetbrains.mps.lang.constraints" version="-1" />
    <use id="13744753-c81f-424a-9c1b-cf8943bf4e86" name="jetbrains.mps.lang.sharedConcepts" version="-1" />
    <use id="7866978e-a0f0-4cc7-81bc-4d213d9375e1" name="jetbrains.mps.lang.smodel" version="4" />
    <use id="f3061a53-9226-4cc5-a443-f952ceaf5816" name="jetbrains.mps.baseLanguage" version="-1" />
    <devkit ref="fbc25dd2-5da4-483a-8b19-70928e1b62d7(jetbrains.mps.devkit.general-purpose)" />
  </languages>
  <imports>
    <import index="vgj4" ref="r:a258f9a5-18d3-4bea-a833-20735290774c(jetbrains.mps.baseLanguage.overloadedOperators.structure)" />
    <import index="tpce" ref="r:00000000-0000-4000-0000-011c89590292(jetbrains.mps.lang.structure.structure)" />
    <import index="tpee" ref="r:00000000-0000-4000-0000-011c895902ca(jetbrains.mps.baseLanguage.structure)" />
    <import index="p369" ref="r:9e7859f6-b0f4-49cf-8c48-60da2fce4fb2(jetbrains.mps.baseLanguage.overloadedOperators.behavior)" />
    <import index="w1kc" ref="6ed54515-acc8-4d1e-a16c-9fd6cfe951ea/java:jetbrains.mps.smodel(MPS.Core/)" />
    <import index="mhbf" ref="8865b7a8-5271-43d3-884c-6fd1d9cfdd34/java:org.jetbrains.mps.openapi.model(MPS.OpenAPI/)" />
    <import index="lui2" ref="8865b7a8-5271-43d3-884c-6fd1d9cfdd34/java:org.jetbrains.mps.openapi.module(MPS.OpenAPI/)" />
    <import index="gp7a" ref="6ed54515-acc8-4d1e-a16c-9fd6cfe951ea/java:jetbrains.mps.project.dependency(MPS.Core/)" />
    <import index="33ny" ref="6354ebe7-c22a-4a0f-ac54-50b52ab9b065/java:java.util(JDK/)" />
    <import index="o8zo" ref="r:314576fc-3aee-4386-a0a5-a38348ac317d(jetbrains.mps.scope)" />
    <import index="cttk" ref="r:5ff047e0-2953-4750-806a-bdc16824aa89(jetbrains.mps.smodel)" />
    <import index="tpcc" ref="r:00000000-0000-4000-0000-011c89590290(jetbrains.mps.lang.structure.plugin)" />
    <import index="tpcn" ref="r:00000000-0000-4000-0000-011c8959028b(jetbrains.mps.lang.structure.behavior)" implicit="true" />
  </imports>
  <registry>
    <language id="13744753-c81f-424a-9c1b-cf8943bf4e86" name="jetbrains.mps.lang.sharedConcepts">
      <concept id="1161622665029" name="jetbrains.mps.lang.sharedConcepts.structure.ConceptFunctionParameter_model" flags="nn" index="1Q6Npb" />
    </language>
    <language id="f3061a53-9226-4cc5-a443-f952ceaf5816" name="jetbrains.mps.baseLanguage">
      <concept id="4836112446988635817" name="jetbrains.mps.baseLanguage.structure.UndefinedType" flags="in" index="2jxLKc" />
      <concept id="1202948039474" name="jetbrains.mps.baseLanguage.structure.InstanceMethodCallOperation" flags="nn" index="liA8E" />
      <concept id="1154032098014" name="jetbrains.mps.baseLanguage.structure.AbstractLoopStatement" flags="nn" index="2LF5Ji">
        <child id="1154032183016" name="body" index="2LFqv$" />
      </concept>
      <concept id="1197027756228" name="jetbrains.mps.baseLanguage.structure.DotExpression" flags="nn" index="2OqwBi">
        <child id="1197027771414" name="operand" index="2Oq$k0" />
        <child id="1197027833540" name="operation" index="2OqNvi" />
      </concept>
      <concept id="1145552977093" name="jetbrains.mps.baseLanguage.structure.GenericNewExpression" flags="nn" index="2ShNRf">
        <child id="1145553007750" name="creator" index="2ShVmc" />
      </concept>
      <concept id="1137021947720" name="jetbrains.mps.baseLanguage.structure.ConceptFunction" flags="in" index="2VMwT0">
        <child id="1137022507850" name="body" index="2VODD2" />
      </concept>
      <concept id="1068431474542" name="jetbrains.mps.baseLanguage.structure.VariableDeclaration" flags="ng" index="33uBYm">
        <child id="1068431790190" name="initializer" index="33vP2m" />
      </concept>
      <concept id="1068498886296" name="jetbrains.mps.baseLanguage.structure.VariableReference" flags="nn" index="37vLTw">
        <reference id="1068581517664" name="variableDeclaration" index="3cqZAo" />
      </concept>
      <concept id="4972933694980447171" name="jetbrains.mps.baseLanguage.structure.BaseVariableDeclaration" flags="ng" index="19Szcq">
        <child id="5680397130376446158" name="type" index="1tU5fm" />
      </concept>
      <concept id="1068580123155" name="jetbrains.mps.baseLanguage.structure.ExpressionStatement" flags="nn" index="3clFbF">
        <child id="1068580123156" name="expression" index="3clFbG" />
      </concept>
      <concept id="1068580123157" name="jetbrains.mps.baseLanguage.structure.Statement" flags="nn" index="3clFbH" />
      <concept id="1068580123136" name="jetbrains.mps.baseLanguage.structure.StatementList" flags="sn" stub="5293379017992965193" index="3clFbS">
        <child id="1068581517665" name="statement" index="3cqZAp" />
      </concept>
      <concept id="1068580123137" name="jetbrains.mps.baseLanguage.structure.BooleanConstant" flags="nn" index="3clFbT">
        <property id="1068580123138" name="value" index="3clFbU" />
      </concept>
      <concept id="1068581242878" name="jetbrains.mps.baseLanguage.structure.ReturnStatement" flags="nn" index="3cpWs6">
        <child id="1068581517676" name="expression" index="3cqZAk" />
      </concept>
      <concept id="1068581242864" name="jetbrains.mps.baseLanguage.structure.LocalVariableDeclarationStatement" flags="nn" index="3cpWs8">
        <child id="1068581242865" name="localVariableDeclaration" index="3cpWs9" />
      </concept>
      <concept id="1068581242863" name="jetbrains.mps.baseLanguage.structure.LocalVariableDeclaration" flags="nr" index="3cpWsn" />
      <concept id="1081516740877" name="jetbrains.mps.baseLanguage.structure.NotExpression" flags="nn" index="3fqX7Q">
        <child id="1081516765348" name="expression" index="3fr31v" />
      </concept>
      <concept id="1204053956946" name="jetbrains.mps.baseLanguage.structure.IMethodCall" flags="ng" index="1ndlxa">
        <reference id="1068499141037" name="baseMethodDeclaration" index="37wK5l" />
        <child id="1068499141038" name="actualArgument" index="37wK5m" />
      </concept>
      <concept id="1212685548494" name="jetbrains.mps.baseLanguage.structure.ClassCreator" flags="nn" index="1pGfFk" />
      <concept id="1107535904670" name="jetbrains.mps.baseLanguage.structure.ClassifierType" flags="in" index="3uibUv">
        <reference id="1107535924139" name="classifier" index="3uigEE" />
        <child id="1109201940907" name="parameter" index="11_B2D" />
      </concept>
      <concept id="1081773326031" name="jetbrains.mps.baseLanguage.structure.BinaryOperation" flags="nn" index="3uHJSO">
        <child id="1081773367579" name="rightExpression" index="3uHU7w" />
        <child id="1081773367580" name="leftExpression" index="3uHU7B" />
      </concept>
      <concept id="1144226303539" name="jetbrains.mps.baseLanguage.structure.ForeachStatement" flags="nn" index="1DcWWT">
        <child id="1144226360166" name="iterable" index="1DdaDG" />
      </concept>
      <concept id="1144230876926" name="jetbrains.mps.baseLanguage.structure.AbstractForStatement" flags="nn" index="1DupvO">
        <child id="1144230900587" name="variable" index="1Duv9x" />
      </concept>
      <concept id="1080120340718" name="jetbrains.mps.baseLanguage.structure.AndExpression" flags="nn" index="1Wc70l" />
    </language>
    <language id="3f4bc5f5-c6c1-4a28-8b10-c83066ffa4a1" name="jetbrains.mps.lang.constraints">
      <concept id="1148934636683" name="jetbrains.mps.lang.constraints.structure.ConceptParameter_ReferentSearchScope_enclosingNode" flags="nn" index="21POm0" />
      <concept id="5676632058862809931" name="jetbrains.mps.lang.constraints.structure.ConstraintFunction_ReferentSearchScope_Scope" flags="in" index="13QW63" />
      <concept id="1213093968558" name="jetbrains.mps.lang.constraints.structure.ConceptConstraints" flags="ng" index="1M2fIO">
        <reference id="1213093996982" name="concept" index="1M2myG" />
        <child id="1213100494875" name="referent" index="1Mr941" />
      </concept>
      <concept id="1148684180339" name="jetbrains.mps.lang.constraints.structure.ConstraintFunction_ReferentSearchScope_Factory" flags="in" index="1MUpDS" />
      <concept id="1148687176410" name="jetbrains.mps.lang.constraints.structure.NodeReferentConstraint" flags="ng" index="1N5Pfh">
        <reference id="1148687202698" name="applicableLink" index="1N5Vy1" />
        <child id="1148687345559" name="searchScopeFactory" index="1N6uqs" />
      </concept>
    </language>
    <language id="fd392034-7849-419d-9071-12563d152375" name="jetbrains.mps.baseLanguage.closures">
      <concept id="1199569711397" name="jetbrains.mps.baseLanguage.closures.structure.ClosureLiteral" flags="nn" index="1bVj0M">
        <child id="1199569906740" name="parameter" index="1bW2Oz" />
        <child id="1199569916463" name="body" index="1bW5cS" />
      </concept>
    </language>
    <language id="69b8a993-9b87-4d96-bf0c-3559f4bb0c63" name="jetbrains.mps.lang.slanguage">
      <concept id="6171083915388330090" name="jetbrains.mps.lang.slanguage.structure.AspectModelRefExpression" flags="ng" index="1qvjxa">
        <reference id="6171083915388597767" name="aspect" index="1quiSB" />
        <child id="6171083915388330091" name="lang" index="1qvjxb" />
      </concept>
    </language>
    <language id="7866978e-a0f0-4cc7-81bc-4d213d9375e1" name="jetbrains.mps.lang.smodel">
      <concept id="1179409122411" name="jetbrains.mps.lang.smodel.structure.Node_ConceptMethodCall" flags="nn" index="2qgKlT" />
      <concept id="1143226024141" name="jetbrains.mps.lang.smodel.structure.SModelType" flags="in" index="H_c77" />
      <concept id="1143234257716" name="jetbrains.mps.lang.smodel.structure.Node_GetModelOperation" flags="nn" index="I4A8Y" />
      <concept id="1145383075378" name="jetbrains.mps.lang.smodel.structure.SNodeListType" flags="in" index="2I9FWS">
        <reference id="1145383142433" name="elementConcept" index="2I9WkF" />
      </concept>
      <concept id="1145404486709" name="jetbrains.mps.lang.smodel.structure.SemanticDowncastExpression" flags="nn" index="2JrnkZ">
        <child id="1145404616321" name="leftExpression" index="2JrQYb" />
      </concept>
      <concept id="1171315804604" name="jetbrains.mps.lang.smodel.structure.Model_RootsOperation" flags="nn" index="2RRcyG">
        <reference id="1171315804605" name="concept" index="2RRcyH" />
      </concept>
      <concept id="1145567426890" name="jetbrains.mps.lang.smodel.structure.SNodeListCreator" flags="nn" index="2T8Vx0">
        <child id="1145567471833" name="createdType" index="2T96Bj" />
      </concept>
      <concept id="2644386474300074836" name="jetbrains.mps.lang.smodel.structure.ConceptIdRefExpression" flags="nn" index="35c_gC">
        <reference id="2644386474300074837" name="conceptDeclaration" index="35c_gD" />
      </concept>
      <concept id="1219352745532" name="jetbrains.mps.lang.smodel.structure.NodeRefExpression" flags="nn" index="3B5_sB">
        <reference id="1219352800908" name="referentNode" index="3B5MYn" />
      </concept>
      <concept id="1138056022639" name="jetbrains.mps.lang.smodel.structure.SPropertyAccess" flags="nn" index="3TrcHB">
        <reference id="1138056395725" name="property" index="3TsBF5" />
      </concept>
      <concept id="1172424058054" name="jetbrains.mps.lang.smodel.structure.ConceptRefExpression" flags="nn" index="3TUQnm">
        <reference id="1172424100906" name="conceptDeclaration" index="3TV0OU" />
      </concept>
    </language>
    <language id="ceab5195-25ea-4f22-9b92-103b95ca8c0c" name="jetbrains.mps.lang.core">
      <concept id="1169194658468" name="jetbrains.mps.lang.core.structure.INamedConcept" flags="ng" index="TrEIO">
        <property id="1169194664001" name="name" index="TrG5h" />
      </concept>
    </language>
    <language id="83888646-71ce-4f1c-9c53-c54016f6ad4f" name="jetbrains.mps.baseLanguage.collections">
      <concept id="1204796164442" name="jetbrains.mps.baseLanguage.collections.structure.InternalSequenceOperation" flags="nn" index="23sCx2">
        <child id="1204796294226" name="closure" index="23t8la" />
      </concept>
      <concept id="540871147943773365" name="jetbrains.mps.baseLanguage.collections.structure.SingleArgumentSequenceOperation" flags="nn" index="25WWJ4">
        <child id="540871147943773366" name="argument" index="25WWJ7" />
      </concept>
      <concept id="1203518072036" name="jetbrains.mps.baseLanguage.collections.structure.SmartClosureParameterDeclaration" flags="ig" index="Rh6nW" />
      <concept id="1160666733551" name="jetbrains.mps.baseLanguage.collections.structure.AddAllElementsOperation" flags="nn" index="X8dFx" />
      <concept id="1202120902084" name="jetbrains.mps.baseLanguage.collections.structure.WhereOperation" flags="nn" index="3zZkjj" />
    </language>
  </registry>
  <node concept="1M2fIO" id="2t$Vq$DP4vF">
    <ref role="1M2myG" to="vgj4:2t$Vq$DOzUO" resolve="BinaryOperationReference" />
    <node concept="1N5Pfh" id="2t$Vq$DP4vV" role="1Mr941">
      <ref role="1N5Vy1" to="vgj4:2t$Vq$DOzUP" />
      <node concept="1MUpDS" id="2t$Vq$DP4wg" role="1N6uqs">
        <node concept="3clFbS" id="2t$Vq$DP4wh" role="2VODD2">
          <node concept="3cpWs8" id="2t$Vq$DP4wi" role="3cqZAp">
            <node concept="3cpWsn" id="2t$Vq$DP4wj" role="3cpWs9">
              <property role="TrG5h" value="result" />
              <node concept="2I9FWS" id="2t$Vq$DP4wk" role="1tU5fm">
                <ref role="2I9WkF" to="tpce:f_TIwhg" resolve="ConceptDeclaration" />
              </node>
              <node concept="2ShNRf" id="2t$Vq$DP4wl" role="33vP2m">
                <node concept="2T8Vx0" id="2t$Vq$DP4wm" role="2ShVmc">
                  <node concept="2I9FWS" id="2t$Vq$DP4wn" role="2T96Bj">
                    <ref role="2I9WkF" to="tpce:f_TIwhg" resolve="ConceptDeclaration" />
                  </node>
                </node>
              </node>
            </node>
          </node>
          <node concept="3clFbH" id="2t$Vq$DP4wo" role="3cqZAp" />
          <node concept="3cpWs8" id="7A48itixhQF" role="3cqZAp">
            <node concept="3cpWsn" id="7A48itixhQG" role="3cpWs9">
              <property role="TrG5h" value="sourceModule" />
              <node concept="3uibUv" id="7A48itixhQD" role="1tU5fm">
                <ref role="3uigEE" to="lui2:~SModule" resolve="SModule" />
              </node>
              <node concept="2OqwBi" id="7A48itixhQH" role="33vP2m">
                <node concept="2JrnkZ" id="7A48itixhQI" role="2Oq$k0">
                  <node concept="2OqwBi" id="7A48itixhQJ" role="2JrQYb">
                    <node concept="21POm0" id="7A48itixhQK" role="2Oq$k0" />
                    <node concept="I4A8Y" id="7A48itixhQL" role="2OqNvi" />
                  </node>
                </node>
                <node concept="liA8E" id="7A48itixhQM" role="2OqNvi">
                  <ref role="37wK5l" to="mhbf:~SModel.getModule():org.jetbrains.mps.openapi.module.SModule" resolve="getModule" />
                </node>
              </node>
            </node>
          </node>
          <node concept="3cpWs8" id="7A48itiybvH" role="3cqZAp">
            <node concept="3cpWsn" id="7A48itiybvI" role="3cpWs9">
              <property role="TrG5h" value="langs" />
              <node concept="3uibUv" id="7A48itiybvx" role="1tU5fm">
                <ref role="3uigEE" to="33ny:~Collection" resolve="Collection" />
                <node concept="3uibUv" id="7A48itiybv$" role="11_B2D">
                  <ref role="3uigEE" to="w1kc:~Language" resolve="Language" />
                </node>
              </node>
              <node concept="2OqwBi" id="7A48itiybvJ" role="33vP2m">
                <node concept="2ShNRf" id="7A48itiybvK" role="2Oq$k0">
                  <node concept="1pGfFk" id="7A48itiybvL" role="2ShVmc">
                    <ref role="37wK5l" to="gp7a:~GlobalModuleDependenciesManager.&lt;init&gt;(org.jetbrains.mps.openapi.module.SModule)" resolve="GlobalModuleDependenciesManager" />
                    <node concept="37vLTw" id="7A48itiybvM" role="37wK5m">
                      <ref role="3cqZAo" node="7A48itixhQG" resolve="sourceModule" />
                    </node>
                  </node>
                </node>
                <node concept="liA8E" id="7A48itiybvN" role="2OqNvi">
                  <ref role="37wK5l" to="gp7a:~GlobalModuleDependenciesManager.getUsedLanguages():java.util.Collection" resolve="getUsedLanguages" />
                </node>
              </node>
            </node>
          </node>
          <node concept="1DcWWT" id="4ZIcP0eo5y0" role="3cqZAp">
            <node concept="37vLTw" id="7A48itiyzxn" role="1DdaDG">
              <ref role="3cqZAo" node="7A48itiybvI" resolve="langs" />
            </node>
            <node concept="3cpWsn" id="4ZIcP0eo5y1" role="1Duv9x">
              <property role="TrG5h" value="language" />
              <node concept="3uibUv" id="4ZIcP0eo5y5" role="1tU5fm">
                <ref role="3uigEE" to="w1kc:~Language" resolve="Language" />
              </node>
            </node>
            <node concept="3clFbS" id="4ZIcP0eo5y2" role="2LFqv$">
              <node concept="3cpWs8" id="4ZIcP0eo5yc" role="3cqZAp">
                <node concept="3cpWsn" id="4ZIcP0eo5yd" role="3cpWs9">
                  <property role="TrG5h" value="sm" />
                  <node concept="1qvjxa" id="57HLayrAnHL" role="33vP2m">
                    <ref role="1quiSB" to="tpcc:2LiUEk8oQ$g" resolve="structure" />
                    <node concept="37vLTw" id="57HLayrAo4f" role="1qvjxb">
                      <ref role="3cqZAo" node="4ZIcP0eo5y1" resolve="language" />
                    </node>
                  </node>
                  <node concept="H_c77" id="57HLayrApno" role="1tU5fm" />
                </node>
              </node>
              <node concept="3clFbF" id="4ZIcP0eo5yp" role="3cqZAp">
                <node concept="2OqwBi" id="4ZIcP0eo5yq" role="3clFbG">
                  <node concept="37vLTw" id="3GM_nagTAE1" role="2Oq$k0">
                    <ref role="3cqZAo" node="2t$Vq$DP4wj" resolve="result" />
                  </node>
                  <node concept="X8dFx" id="4ZIcP0eo5ys" role="2OqNvi">
                    <node concept="2OqwBi" id="4ZIcP0eo5yt" role="25WWJ7">
                      <node concept="2OqwBi" id="4ZIcP0eo5yu" role="2Oq$k0">
                        <node concept="37vLTw" id="57HLayrAscy" role="2Oq$k0">
                          <ref role="3cqZAo" node="4ZIcP0eo5yd" resolve="sm" />
                        </node>
                        <node concept="2RRcyG" id="4ZIcP0eo5yw" role="2OqNvi">
                          <ref role="2RRcyH" to="tpce:f_TIwhg" resolve="ConceptDeclaration" />
                        </node>
                      </node>
                      <node concept="3zZkjj" id="4ZIcP0eo5yx" role="2OqNvi">
                        <node concept="1bVj0M" id="4ZIcP0eo5yy" role="23t8la">
                          <node concept="3clFbS" id="4ZIcP0eo5yz" role="1bW5cS">
                            <node concept="3clFbF" id="4ZIcP0eo5y$" role="3cqZAp">
                              <node concept="1Wc70l" id="4ZIcP0eo5y_" role="3clFbG">
                                <node concept="3fqX7Q" id="4ZIcP0eo5yA" role="3uHU7w">
                                  <node concept="2OqwBi" id="2wdLO7Ke57L" role="3fr31v">
                                    <node concept="3TrcHB" id="2wdLO7Ke57M" role="2OqNvi">
                                      <ref role="3TsBF5" to="tpce:40UcGlRb7V2" resolve="abstract" />
                                    </node>
                                    <node concept="37vLTw" id="2BHiRxgmDvf" role="2Oq$k0">
                                      <ref role="3cqZAo" node="4ZIcP0eo5yI" resolve="it" />
                                    </node>
                                  </node>
                                </node>
                                <node concept="2OqwBi" id="73yVtVlYoaU" role="3uHU7B">
                                  <node concept="37vLTw" id="73yVtVlYlgq" role="2Oq$k0">
                                    <ref role="3cqZAo" node="4ZIcP0eo5yI" resolve="it" />
                                  </node>
                                  <node concept="2qgKlT" id="73yVtVlYpQb" role="2OqNvi">
                                    <ref role="37wK5l" to="tpcn:73yVtVlWOga" resolve="isSubconceptOf" />
                                    <node concept="3B5_sB" id="73yVtVlYsGX" role="37wK5m">
                                      <ref role="3B5MYn" to="tpee:fJuHJVf" resolve="BinaryOperation" />
                                    </node>
                                  </node>
                                </node>
                              </node>
                            </node>
                          </node>
                          <node concept="Rh6nW" id="4ZIcP0eo5yI" role="1bW2Oz">
                            <property role="TrG5h" value="it" />
                            <node concept="2jxLKc" id="1P4c1XrzThK" role="1tU5fm" />
                          </node>
                        </node>
                      </node>
                    </node>
                  </node>
                </node>
              </node>
            </node>
          </node>
          <node concept="3cpWs6" id="2t$Vq$DP4x3" role="3cqZAp">
            <node concept="37vLTw" id="3GM_nagTAmH" role="3cqZAk">
              <ref role="3cqZAo" node="2t$Vq$DP4wj" resolve="result" />
            </node>
          </node>
        </node>
      </node>
    </node>
  </node>
  <node concept="1M2fIO" id="2t$Vq$DPw93">
    <ref role="1M2myG" to="vgj4:2t$Vq$DPw8R" resolve="CustomOperator" />
    <node concept="1N5Pfh" id="2t$Vq$DPw9q" role="1Mr941">
      <ref role="1N5Vy1" to="vgj4:2t$Vq$DPw8T" />
      <node concept="1MUpDS" id="2t$Vq$DPw9r" role="1N6uqs">
        <node concept="3clFbS" id="2t$Vq$DPw9s" role="2VODD2">
          <node concept="3clFbF" id="ZogSShkHVK" role="3cqZAp">
            <node concept="2OqwBi" id="L_Hr3kEsbe" role="3clFbG">
              <node concept="2qgKlT" id="L_Hr3kEsbf" role="2OqNvi">
                <ref role="37wK5l" to="p369:ZogSShiOAT" resolve="getVisibleCustomOperators" />
                <node concept="1Q6Npb" id="L_Hr3kEsbh" role="37wK5m" />
              </node>
              <node concept="3TUQnm" id="L_Hr3kEsbj" role="2Oq$k0">
                <ref role="3TV0OU" to="vgj4:1n8rXLwx7pJ" resolve="CustomOperatorUsage" />
              </node>
            </node>
          </node>
        </node>
      </node>
    </node>
  </node>
  <node concept="1M2fIO" id="1n8rXLwx7v6">
    <ref role="1M2myG" to="vgj4:1n8rXLwx7pJ" resolve="CustomOperatorUsage" />
    <node concept="1N5Pfh" id="1n8rXLwx7vi" role="1Mr941">
      <ref role="1N5Vy1" to="vgj4:1n8rXLwx7pK" />
      <node concept="1MUpDS" id="1n8rXLwx7vj" role="1N6uqs">
        <node concept="3clFbS" id="1n8rXLwx7vk" role="2VODD2">
          <node concept="3clFbF" id="ZogSShkHV$" role="3cqZAp">
            <node concept="2OqwBi" id="L_Hr3kEsBE" role="3clFbG">
              <node concept="2qgKlT" id="L_Hr3kEsBF" role="2OqNvi">
                <ref role="37wK5l" to="p369:ZogSShiOAT" resolve="getVisibleCustomOperators" />
                <node concept="1Q6Npb" id="L_Hr3kEsBG" role="37wK5m" />
              </node>
              <node concept="3TUQnm" id="L_Hr3kEsBH" role="2Oq$k0">
                <ref role="3TV0OU" to="vgj4:1n8rXLwx7pJ" resolve="CustomOperatorUsage" />
              </node>
            </node>
          </node>
        </node>
      </node>
    </node>
  </node>
  <node concept="1M2fIO" id="6oKb3Me04dk">
    <ref role="1M2myG" to="vgj4:6oKb3MdXML9" resolve="ContainerImport" />
    <node concept="1N5Pfh" id="6oKb3Me04gb" role="1Mr941">
      <ref role="1N5Vy1" to="vgj4:6oKb3MdXMP5" />
      <node concept="13QW63" id="6oKb3Me04gd" role="1N6uqs">
        <node concept="3clFbS" id="6oKb3Me04ge" role="2VODD2">
          <node concept="3cpWs6" id="6oKb3Me04WS" role="3cqZAp">
            <node concept="2ShNRf" id="6oKb3Me04Xy" role="3cqZAk">
              <node concept="1pGfFk" id="6oKb3Me05Li" role="2ShVmc">
                <ref role="37wK5l" to="o8zo:4k9eBec$QVW" resolve="ModelPlusImportedScope" />
                <node concept="1Q6Npb" id="6oKb3Me063G" role="37wK5m" />
                <node concept="3clFbT" id="6oKb3Me06hk" role="37wK5m">
                  <property role="3clFbU" value="true" />
                </node>
                <node concept="35c_gC" id="4k9eBec_oDr" role="37wK5m">
                  <ref role="35c_gD" to="vgj4:qQXsgj0h87" resolve="OverloadedOperatorContainer" />
                </node>
              </node>
            </node>
          </node>
        </node>
      </node>
    </node>
  </node>
</model>

