<?xml version="1.0" encoding="UTF-8"?>
<model ref="r:9657ec16-7dab-4be4-9ea2-13982a8c441b(jetbrains.mps.baseLanguage.overloadedOperators.util)">
  <persistence version="9" />
  <languages>
    <use id="7a5dda62-9140-4668-ab76-d5ed1746f2b2" name="jetbrains.mps.lang.typesystem" version="0" />
    <devkit ref="fbc25dd2-5da4-483a-8b19-70928e1b62d7(jetbrains.mps.devkit.general-purpose)" />
  </languages>
  <imports>
    <import index="vgj4" ref="r:a258f9a5-18d3-4bea-a833-20735290774c(jetbrains.mps.baseLanguage.overloadedOperators.structure)" />
    <import index="w1kc" ref="6ed54515-acc8-4d1e-a16c-9fd6cfe951ea/java:jetbrains.mps.smodel(MPS.Core/)" />
    <import index="mhbf" ref="8865b7a8-5271-43d3-884c-6fd1d9cfdd34/java:org.jetbrains.mps.openapi.model(MPS.OpenAPI/)" />
    <import index="tpee" ref="r:00000000-0000-4000-0000-011c895902ca(jetbrains.mps.baseLanguage.structure)" implicit="true" />
  </imports>
  <registry>
    <language id="f3061a53-9226-4cc5-a443-f952ceaf5816" name="jetbrains.mps.baseLanguage">
      <concept id="1215693861676" name="jetbrains.mps.baseLanguage.structure.BaseAssignmentExpression" flags="nn" index="d038R">
        <child id="1068498886297" name="rValue" index="37vLTx" />
        <child id="1068498886295" name="lValue" index="37vLTJ" />
      </concept>
      <concept id="1202948039474" name="jetbrains.mps.baseLanguage.structure.InstanceMethodCallOperation" flags="nn" index="liA8E" />
      <concept id="1154032098014" name="jetbrains.mps.baseLanguage.structure.AbstractLoopStatement" flags="nn" index="2LF5Ji">
        <child id="1154032183016" name="body" index="2LFqv$" />
      </concept>
      <concept id="1197027756228" name="jetbrains.mps.baseLanguage.structure.DotExpression" flags="nn" index="2OqwBi">
        <child id="1197027771414" name="operand" index="2Oq$k0" />
        <child id="1197027833540" name="operation" index="2OqNvi" />
      </concept>
      <concept id="1145552977093" name="jetbrains.mps.baseLanguage.structure.GenericNewExpression" flags="nn" index="2ShNRf">
        <child id="1145553007750" name="creator" index="2ShVmc" />
      </concept>
      <concept id="1070475926800" name="jetbrains.mps.baseLanguage.structure.StringLiteral" flags="nn" index="Xl_RD">
        <property id="1070475926801" name="value" index="Xl_RC" />
      </concept>
      <concept id="1081236700938" name="jetbrains.mps.baseLanguage.structure.StaticMethodDeclaration" flags="ig" index="2YIFZL" />
      <concept id="1070534058343" name="jetbrains.mps.baseLanguage.structure.NullLiteral" flags="nn" index="10Nm6u" />
      <concept id="1070534644030" name="jetbrains.mps.baseLanguage.structure.BooleanType" flags="in" index="10P_77" />
      <concept id="1070534934090" name="jetbrains.mps.baseLanguage.structure.CastExpression" flags="nn" index="10QFUN">
        <child id="1070534934091" name="type" index="10QFUM" />
        <child id="1070534934092" name="expression" index="10QFUP" />
      </concept>
      <concept id="1068390468200" name="jetbrains.mps.baseLanguage.structure.FieldDeclaration" flags="ig" index="312cEg" />
      <concept id="1068390468198" name="jetbrains.mps.baseLanguage.structure.ClassConcept" flags="ig" index="312cEu" />
      <concept id="1068431474542" name="jetbrains.mps.baseLanguage.structure.VariableDeclaration" flags="ng" index="33uBYm">
        <child id="1068431790190" name="initializer" index="33vP2m" />
      </concept>
      <concept id="1068498886296" name="jetbrains.mps.baseLanguage.structure.VariableReference" flags="nn" index="37vLTw">
        <reference id="1068581517664" name="variableDeclaration" index="3cqZAo" />
      </concept>
      <concept id="1068498886292" name="jetbrains.mps.baseLanguage.structure.ParameterDeclaration" flags="ir" index="37vLTG" />
      <concept id="1068498886294" name="jetbrains.mps.baseLanguage.structure.AssignmentExpression" flags="nn" index="37vLTI" />
      <concept id="4972933694980447171" name="jetbrains.mps.baseLanguage.structure.BaseVariableDeclaration" flags="ng" index="19Szcq">
        <child id="5680397130376446158" name="type" index="1tU5fm" />
      </concept>
      <concept id="1068580123132" name="jetbrains.mps.baseLanguage.structure.BaseMethodDeclaration" flags="ng" index="3clF44">
        <property id="1181808852946" name="isFinal" index="DiZV1" />
        <child id="1068580123133" name="returnType" index="3clF45" />
        <child id="1068580123134" name="parameter" index="3clF46" />
        <child id="1068580123135" name="body" index="3clF47" />
      </concept>
      <concept id="1068580123165" name="jetbrains.mps.baseLanguage.structure.InstanceMethodDeclaration" flags="ig" index="3clFb_" />
      <concept id="1068580123152" name="jetbrains.mps.baseLanguage.structure.EqualsExpression" flags="nn" index="3clFbC" />
      <concept id="1068580123155" name="jetbrains.mps.baseLanguage.structure.ExpressionStatement" flags="nn" index="3clFbF">
        <child id="1068580123156" name="expression" index="3clFbG" />
      </concept>
      <concept id="1068580123159" name="jetbrains.mps.baseLanguage.structure.IfStatement" flags="nn" index="3clFbJ">
        <child id="1068580123160" name="condition" index="3clFbw" />
        <child id="1068580123161" name="ifTrue" index="3clFbx" />
        <child id="1206060520071" name="elsifClauses" index="3eNLev" />
      </concept>
      <concept id="1068580123136" name="jetbrains.mps.baseLanguage.structure.StatementList" flags="sn" stub="5293379017992965193" index="3clFbS">
        <child id="1068581517665" name="statement" index="3cqZAp" />
      </concept>
      <concept id="1068580123137" name="jetbrains.mps.baseLanguage.structure.BooleanConstant" flags="nn" index="3clFbT">
        <property id="1068580123138" name="value" index="3clFbU" />
      </concept>
      <concept id="1068580123140" name="jetbrains.mps.baseLanguage.structure.ConstructorDeclaration" flags="ig" index="3clFbW" />
      <concept id="1068581242878" name="jetbrains.mps.baseLanguage.structure.ReturnStatement" flags="nn" index="3cpWs6">
        <child id="1068581517676" name="expression" index="3cqZAk" />
      </concept>
      <concept id="1068581242864" name="jetbrains.mps.baseLanguage.structure.LocalVariableDeclarationStatement" flags="nn" index="3cpWs8">
        <child id="1068581242865" name="localVariableDeclaration" index="3cpWs9" />
      </concept>
      <concept id="1068581242863" name="jetbrains.mps.baseLanguage.structure.LocalVariableDeclaration" flags="nr" index="3cpWsn" />
      <concept id="1068581517677" name="jetbrains.mps.baseLanguage.structure.VoidType" flags="in" index="3cqZAl" />
      <concept id="1206060495898" name="jetbrains.mps.baseLanguage.structure.ElsifClause" flags="ng" index="3eNFk2">
        <child id="1206060619838" name="condition" index="3eO9$A" />
        <child id="1206060644605" name="statementList" index="3eOfB_" />
      </concept>
      <concept id="1079359253375" name="jetbrains.mps.baseLanguage.structure.ParenthesizedExpression" flags="nn" index="1eOMI4">
        <child id="1079359253376" name="expression" index="1eOMHV" />
      </concept>
      <concept id="1081516740877" name="jetbrains.mps.baseLanguage.structure.NotExpression" flags="nn" index="3fqX7Q">
        <child id="1081516765348" name="expression" index="3fr31v" />
      </concept>
      <concept id="1204053956946" name="jetbrains.mps.baseLanguage.structure.IMethodCall" flags="ng" index="1ndlxa">
        <reference id="1068499141037" name="baseMethodDeclaration" index="37wK5l" />
        <child id="1068499141038" name="actualArgument" index="37wK5m" />
      </concept>
      <concept id="1107461130800" name="jetbrains.mps.baseLanguage.structure.Classifier" flags="ng" index="3pOWGL">
        <child id="5375687026011219971" name="member" index="jymVt" unordered="true" />
      </concept>
      <concept id="7812454656619025412" name="jetbrains.mps.baseLanguage.structure.LocalMethodCall" flags="nn" index="1rXfSq" />
      <concept id="1081773326031" name="jetbrains.mps.baseLanguage.structure.BinaryOperation" flags="nn" index="3uHJSO">
        <child id="1081773367579" name="rightExpression" index="3uHU7w" />
        <child id="1081773367580" name="leftExpression" index="3uHU7B" />
      </concept>
      <concept id="1073239437375" name="jetbrains.mps.baseLanguage.structure.NotEqualsExpression" flags="nn" index="3y3z36" />
      <concept id="1178549954367" name="jetbrains.mps.baseLanguage.structure.IVisible" flags="ng" index="1B3ioH">
        <child id="1178549979242" name="visibility" index="1B3o_S" />
      </concept>
      <concept id="1144226303539" name="jetbrains.mps.baseLanguage.structure.ForeachStatement" flags="nn" index="1DcWWT">
        <child id="1144226360166" name="iterable" index="1DdaDG" />
      </concept>
      <concept id="1144230876926" name="jetbrains.mps.baseLanguage.structure.AbstractForStatement" flags="nn" index="1DupvO">
        <child id="1144230900587" name="variable" index="1Duv9x" />
      </concept>
      <concept id="1146644602865" name="jetbrains.mps.baseLanguage.structure.PublicVisibility" flags="nn" index="3Tm1VV" />
      <concept id="1146644623116" name="jetbrains.mps.baseLanguage.structure.PrivateVisibility" flags="nn" index="3Tm6S6" />
      <concept id="1080120340718" name="jetbrains.mps.baseLanguage.structure.AndExpression" flags="nn" index="1Wc70l" />
    </language>
    <language id="7a5dda62-9140-4668-ab76-d5ed1746f2b2" name="jetbrains.mps.lang.typesystem">
      <concept id="1177406296561" name="jetbrains.mps.lang.typesystem.structure.IsStrongSubtypeExpression" flags="nn" index="yS_3z" />
      <concept id="1176543928247" name="jetbrains.mps.lang.typesystem.structure.IsSubtypeExpression" flags="nn" index="3JuTUA">
        <child id="1176543945045" name="subtypeExpression" index="3JuY14" />
        <child id="1176543950311" name="supertypeExpression" index="3JuZjQ" />
      </concept>
    </language>
    <language id="7866978e-a0f0-4cc7-81bc-4d213d9375e1" name="jetbrains.mps.lang.smodel">
      <concept id="1204834851141" name="jetbrains.mps.lang.smodel.structure.PoundExpression" flags="ng" index="25Kdxt">
        <child id="1204834868751" name="expression" index="25KhWn" />
      </concept>
      <concept id="1177026924588" name="jetbrains.mps.lang.smodel.structure.RefConcept_Reference" flags="nn" index="chp4Y">
        <reference id="1177026940964" name="conceptDeclaration" index="cht4Q" />
      </concept>
      <concept id="2396822768958367367" name="jetbrains.mps.lang.smodel.structure.AbstractTypeCastExpression" flags="nn" index="$5XWr">
        <reference id="6733348108486823428" name="concept" index="1m5ApE" />
        <child id="6733348108486823193" name="leftExpression" index="1m5AlR" />
      </concept>
      <concept id="1143226024141" name="jetbrains.mps.lang.smodel.structure.SModelType" flags="in" index="H_c77" />
      <concept id="1145404486709" name="jetbrains.mps.lang.smodel.structure.SemanticDowncastExpression" flags="nn" index="2JrnkZ">
        <child id="1145404616321" name="leftExpression" index="2JrQYb" />
      </concept>
      <concept id="1171315804604" name="jetbrains.mps.lang.smodel.structure.Model_RootsOperation" flags="nn" index="2RRcyG">
        <reference id="1171315804605" name="concept" index="2RRcyH" />
      </concept>
      <concept id="3562215692195599741" name="jetbrains.mps.lang.smodel.structure.SLinkImplicitSelect" flags="nn" index="13MTOL">
        <reference id="3562215692195600259" name="link" index="13MTZf" />
      </concept>
      <concept id="1176109685393" name="jetbrains.mps.lang.smodel.structure.Model_RootsIncludingImportedOperation" flags="nn" index="3lApI0">
        <reference id="1176109685394" name="concept" index="3lApI3" />
      </concept>
      <concept id="1139621453865" name="jetbrains.mps.lang.smodel.structure.Node_IsInstanceOfOperation" flags="nn" index="1mIQ4w">
        <child id="1177027386292" name="conceptArgument" index="cj9EA" />
      </concept>
      <concept id="1140137987495" name="jetbrains.mps.lang.smodel.structure.SNodeTypeCastExpression" flags="nn" index="1PxgMI" />
      <concept id="1138055754698" name="jetbrains.mps.lang.smodel.structure.SNodeType" flags="in" index="3Tqbb2">
        <reference id="1138405853777" name="concept" index="ehGHo" />
      </concept>
      <concept id="1138056022639" name="jetbrains.mps.lang.smodel.structure.SPropertyAccess" flags="nn" index="3TrcHB">
        <reference id="1138056395725" name="property" index="3TsBF5" />
      </concept>
      <concept id="1138056143562" name="jetbrains.mps.lang.smodel.structure.SLinkAccess" flags="nn" index="3TrEf2">
        <reference id="1138056516764" name="link" index="3Tt5mk" />
      </concept>
    </language>
    <language id="ceab5195-25ea-4f22-9b92-103b95ca8c0c" name="jetbrains.mps.lang.core">
      <concept id="1169194658468" name="jetbrains.mps.lang.core.structure.INamedConcept" flags="ng" index="TrEIO">
        <property id="1169194664001" name="name" index="TrG5h" />
      </concept>
    </language>
    <language id="83888646-71ce-4f1c-9c53-c54016f6ad4f" name="jetbrains.mps.baseLanguage.collections">
      <concept id="1151689724996" name="jetbrains.mps.baseLanguage.collections.structure.SequenceType" flags="in" index="A3Dl8">
        <child id="1151689745422" name="elementType" index="A3Ik2" />
      </concept>
      <concept id="1153943597977" name="jetbrains.mps.baseLanguage.collections.structure.ForEachStatement" flags="nn" index="2Gpval">
        <child id="1153944400369" name="variable" index="2Gsz3X" />
        <child id="1153944424730" name="inputSequence" index="2GsD0m" />
      </concept>
      <concept id="1153944193378" name="jetbrains.mps.baseLanguage.collections.structure.ForEachVariable" flags="nr" index="2GrKxI" />
      <concept id="1153944233411" name="jetbrains.mps.baseLanguage.collections.structure.ForEachVariableReference" flags="nn" index="2GrUjf">
        <reference id="1153944258490" name="variable" index="2Gs0qQ" />
      </concept>
      <concept id="1197683403723" name="jetbrains.mps.baseLanguage.collections.structure.MapType" flags="in" index="3rvAFt">
        <child id="1197683466920" name="keyType" index="3rvQeY" />
        <child id="1197683475734" name="valueType" index="3rvSg0" />
      </concept>
      <concept id="1197686869805" name="jetbrains.mps.baseLanguage.collections.structure.HashMapCreator" flags="nn" index="3rGOSV">
        <child id="1197687026896" name="keyType" index="3rHrn6" />
        <child id="1197687035757" name="valueType" index="3rHtpV" />
      </concept>
      <concept id="1165525191778" name="jetbrains.mps.baseLanguage.collections.structure.GetFirstOperation" flags="nn" index="1uHKPH" />
      <concept id="1165530316231" name="jetbrains.mps.baseLanguage.collections.structure.IsEmptyOperation" flags="nn" index="1v1jN8" />
      <concept id="1240824834947" name="jetbrains.mps.baseLanguage.collections.structure.ValueAccessOperation" flags="nn" index="3AV6Ez" />
      <concept id="1240825616499" name="jetbrains.mps.baseLanguage.collections.structure.KeyAccessOperation" flags="nn" index="3AY5_j" />
      <concept id="1197932370469" name="jetbrains.mps.baseLanguage.collections.structure.MapElement" flags="nn" index="3EllGN">
        <child id="1197932505799" name="map" index="3ElQJh" />
        <child id="1197932525128" name="key" index="3ElVtu" />
      </concept>
    </language>
  </registry>
  <node concept="312cEu" id="4nxgFhR8gIc">
    <property role="TrG5h" value="BinaryOperationUtil" />
    <node concept="3Tm1VV" id="4nxgFhR8gP1" role="1B3o_S" />
    <node concept="312cEg" id="6oKb3MdYOPT" role="jymVt">
      <property role="TrG5h" value="myModel" />
      <node concept="3Tm6S6" id="6oKb3MdYOPU" role="1B3o_S" />
      <node concept="H_c77" id="6oKb3MdYOPW" role="1tU5fm" />
    </node>
    <node concept="3clFbW" id="4nxgFhR8gP2" role="jymVt">
      <node concept="3cqZAl" id="4nxgFhR8gP3" role="3clF45" />
      <node concept="3Tm1VV" id="4nxgFhR8gP4" role="1B3o_S" />
      <node concept="3clFbS" id="4nxgFhR8gP5" role="3clF47">
        <node concept="3clFbF" id="6oKb3MdYOPX" role="3cqZAp">
          <node concept="37vLTI" id="6oKb3MdYOPZ" role="3clFbG">
            <node concept="37vLTw" id="6oKb3MdYPFM" role="37vLTJ">
              <ref role="3cqZAo" node="6oKb3MdYOPT" resolve="myModel" />
            </node>
            <node concept="37vLTw" id="6oKb3MdYOQ7" role="37vLTx">
              <ref role="3cqZAo" node="6oKb3MdYMw0" resolve="m" />
            </node>
          </node>
        </node>
      </node>
      <node concept="37vLTG" id="6oKb3MdYMw0" role="3clF46">
        <property role="TrG5h" value="m" />
        <node concept="H_c77" id="6oKb3MdYMvZ" role="1tU5fm" />
      </node>
    </node>
    <node concept="3clFb_" id="6oKb3MdYOFU" role="jymVt">
      <property role="TrG5h" value="getOperatorContainers" />
      <property role="DiZV1" value="false" />
      <node concept="A3Dl8" id="4$YdxKk_$sl" role="3clF45">
        <node concept="3Tqbb2" id="4$YdxKk_$sm" role="A3Ik2">
          <ref role="ehGHo" to="vgj4:qQXsgj0fxd" resolve="OverloadedBinaryOperator" />
        </node>
      </node>
      <node concept="3clFbS" id="6oKb3MdYIvw" role="3clF47">
        <node concept="3cpWs8" id="6oKb3MdZyLl" role="3cqZAp">
          <node concept="3cpWsn" id="6oKb3MdZyLm" role="3cpWs9">
            <property role="TrG5h" value="visibleContainers" />
            <node concept="A3Dl8" id="6oKb3MdZyLa" role="1tU5fm">
              <node concept="3Tqbb2" id="6oKb3MdZyLd" role="A3Ik2">
                <ref role="ehGHo" to="vgj4:qQXsgj0h87" resolve="OverloadedOperatorContainer" />
              </node>
            </node>
            <node concept="2OqwBi" id="6oKb3MdZyLn" role="33vP2m">
              <node concept="2OqwBi" id="6oKb3MdZyLo" role="2Oq$k0">
                <node concept="2RRcyG" id="6oKb3MdZyLp" role="2OqNvi">
                  <ref role="2RRcyH" to="vgj4:6oKb3MdXML9" resolve="ContainerImport" />
                </node>
                <node concept="37vLTw" id="6oKb3MdZyLq" role="2Oq$k0">
                  <ref role="3cqZAo" node="6oKb3MdYOPT" resolve="myModel" />
                </node>
              </node>
              <node concept="13MTOL" id="6oKb3MdZyLr" role="2OqNvi">
                <ref role="13MTZf" to="vgj4:6oKb3MdXMP5" />
              </node>
            </node>
          </node>
        </node>
        <node concept="3clFbJ" id="6oKb3MdZyVG" role="3cqZAp">
          <node concept="3clFbS" id="6oKb3MdZyVJ" role="3clFbx">
            <node concept="3clFbF" id="6oKb3MdZzxx" role="3cqZAp">
              <node concept="37vLTI" id="6oKb3MdZzDX" role="3clFbG">
                <node concept="37vLTw" id="6oKb3MdZzxw" role="37vLTJ">
                  <ref role="3cqZAo" node="6oKb3MdZyLm" resolve="visibleContainers" />
                </node>
                <node concept="2OqwBi" id="6oKb3MdZzKE" role="37vLTx">
                  <node concept="37vLTw" id="6oKb3MdZzKF" role="2Oq$k0">
                    <ref role="3cqZAo" node="6oKb3MdYOPT" resolve="myModel" />
                  </node>
                  <node concept="3lApI0" id="6oKb3MdZzKG" role="2OqNvi">
                    <ref role="3lApI3" to="vgj4:qQXsgj0h87" resolve="OverloadedOperatorContainer" />
                  </node>
                </node>
              </node>
            </node>
          </node>
          <node concept="2OqwBi" id="6oKb3MdZzcD" role="3clFbw">
            <node concept="37vLTw" id="6oKb3MdZyYb" role="2Oq$k0">
              <ref role="3cqZAo" node="6oKb3MdZyLm" resolve="visibleContainers" />
            </node>
            <node concept="1v1jN8" id="6oKb3MdZzwN" role="2OqNvi" />
          </node>
        </node>
        <node concept="3cpWs6" id="6oKb3MdZ$5C" role="3cqZAp">
          <node concept="2OqwBi" id="6oKb3MdZ_sC" role="3cqZAk">
            <node concept="37vLTw" id="6oKb3MdZ$LC" role="2Oq$k0">
              <ref role="3cqZAo" node="6oKb3MdZyLm" resolve="visibleContainers" />
            </node>
            <node concept="13MTOL" id="6oKb3MdZAGy" role="2OqNvi">
              <ref role="13MTZf" to="vgj4:qQXsgj0h88" />
            </node>
          </node>
        </node>
      </node>
      <node concept="3Tm6S6" id="6oKb3MdYOFR" role="1B3o_S" />
    </node>
    <node concept="3clFb_" id="6oKb3MdZhMT" role="jymVt">
      <property role="TrG5h" value="hasOverloadedOperators" />
      <property role="DiZV1" value="false" />
      <node concept="10P_77" id="4nxgFhR8gKH" role="3clF45" />
      <node concept="37vLTG" id="4nxgFhR8gK_" role="3clF46">
        <property role="TrG5h" value="node" />
        <node concept="3Tqbb2" id="4nxgFhR8gKA" role="1tU5fm">
          <ref role="ehGHo" to="tpee:fJuHJVf" resolve="BinaryOperation" />
        </node>
      </node>
      <node concept="37vLTG" id="4nxgFhR8gKB" role="3clF46">
        <property role="TrG5h" value="leftType" />
        <node concept="3Tqbb2" id="4nxgFhR8gKC" role="1tU5fm" />
      </node>
      <node concept="37vLTG" id="4nxgFhR8gKD" role="3clF46">
        <property role="TrG5h" value="rightType" />
        <node concept="3Tqbb2" id="4nxgFhR8gKE" role="1tU5fm" />
      </node>
      <node concept="3clFbS" id="4nxgFhR8gKJ" role="3clF47">
        <node concept="1DcWWT" id="4nxgFhR8gKT" role="3cqZAp">
          <node concept="3clFbS" id="4nxgFhR8gKU" role="2LFqv$">
            <node concept="3clFbJ" id="4nxgFhR8gKV" role="3cqZAp">
              <node concept="3clFbS" id="4nxgFhR8gKW" role="3clFbx">
                <node concept="3cpWs6" id="4nxgFhR8gKX" role="3cqZAp">
                  <node concept="3clFbT" id="4nxgFhR8gKY" role="3cqZAk">
                    <property role="3clFbU" value="true" />
                  </node>
                </node>
              </node>
              <node concept="1rXfSq" id="4hiugqyspGQ" role="3clFbw">
                <ref role="37wK5l" node="4nxgFhR8gId" resolve="isOverloading" />
                <node concept="37vLTw" id="2BHiRxglGUE" role="37wK5m">
                  <ref role="3cqZAo" node="4nxgFhR8gK_" resolve="node" />
                </node>
                <node concept="37vLTw" id="2BHiRxgm7TK" role="37wK5m">
                  <ref role="3cqZAo" node="4nxgFhR8gKB" resolve="leftType" />
                </node>
                <node concept="37vLTw" id="2BHiRxgmLs5" role="37wK5m">
                  <ref role="3cqZAo" node="4nxgFhR8gKD" resolve="rightType" />
                </node>
                <node concept="37vLTw" id="3GM_nagTtpC" role="37wK5m">
                  <ref role="3cqZAo" node="4nxgFhR8gLk" resolve="operator" />
                </node>
              </node>
            </node>
            <node concept="3clFbJ" id="4nxgFhR8gL5" role="3cqZAp">
              <node concept="3clFbS" id="4nxgFhR8gL6" role="3clFbx">
                <node concept="3cpWs6" id="4nxgFhR8gL7" role="3cqZAp">
                  <node concept="3clFbT" id="4nxgFhR8gL8" role="3cqZAk">
                    <property role="3clFbU" value="true" />
                  </node>
                </node>
              </node>
              <node concept="1Wc70l" id="4nxgFhR8gL9" role="3clFbw">
                <node concept="2OqwBi" id="4nxgFhR8gLa" role="3uHU7B">
                  <node concept="37vLTw" id="3GM_nagTvN4" role="2Oq$k0">
                    <ref role="3cqZAo" node="4nxgFhR8gLk" resolve="operator" />
                  </node>
                  <node concept="3TrcHB" id="4nxgFhR8gLc" role="2OqNvi">
                    <ref role="3TsBF5" to="vgj4:2kpoMNxbyry" resolve="commutative" />
                  </node>
                </node>
                <node concept="1rXfSq" id="4hiugqyswEv" role="3uHU7w">
                  <ref role="37wK5l" node="4nxgFhR8gId" resolve="isOverloading" />
                  <node concept="1PxgMI" id="4nxgFhR8gLe" role="37wK5m">
                    <ref role="1m5ApE" to="tpee:fJuHJVf" resolve="BinaryOperation" />
                    <node concept="37vLTw" id="2BHiRxglqda" role="1m5AlR">
                      <ref role="3cqZAo" node="4nxgFhR8gK_" resolve="node" />
                    </node>
                  </node>
                  <node concept="37vLTw" id="2BHiRxglJSw" role="37wK5m">
                    <ref role="3cqZAo" node="4nxgFhR8gKD" resolve="rightType" />
                  </node>
                  <node concept="37vLTw" id="2BHiRxglBLT" role="37wK5m">
                    <ref role="3cqZAo" node="4nxgFhR8gKB" resolve="leftType" />
                  </node>
                  <node concept="37vLTw" id="3GM_nagT$Ns" role="37wK5m">
                    <ref role="3cqZAo" node="4nxgFhR8gLk" resolve="operator" />
                  </node>
                </node>
              </node>
            </node>
          </node>
          <node concept="1rXfSq" id="6oKb3MdZjur" role="1DdaDG">
            <ref role="37wK5l" node="6oKb3MdYOFU" resolve="getOperatorContainers" />
          </node>
          <node concept="3cpWsn" id="4nxgFhR8gLk" role="1Duv9x">
            <property role="TrG5h" value="operator" />
            <node concept="3Tqbb2" id="4nxgFhR8gLl" role="1tU5fm">
              <ref role="ehGHo" to="vgj4:qQXsgj0fxd" resolve="OverloadedBinaryOperator" />
            </node>
          </node>
        </node>
        <node concept="3cpWs6" id="4nxgFhR8gLm" role="3cqZAp">
          <node concept="3clFbT" id="4nxgFhR8gLn" role="3cqZAk">
            <property role="3clFbU" value="false" />
          </node>
        </node>
      </node>
      <node concept="3Tm1VV" id="4nxgFhR8gKI" role="1B3o_S" />
    </node>
    <node concept="3clFb_" id="6oKb3MdZwpl" role="jymVt">
      <property role="TrG5h" value="getOverloadedOperators" />
      <property role="DiZV1" value="false" />
      <node concept="3rvAFt" id="4nxgFhR8gKx" role="3clF45">
        <node concept="10P_77" id="4nxgFhR8gKy" role="3rvSg0" />
        <node concept="3Tqbb2" id="4nxgFhR8gKz" role="3rvQeY">
          <ref role="ehGHo" to="vgj4:qQXsgj0fxd" resolve="OverloadedBinaryOperator" />
        </node>
      </node>
      <node concept="37vLTG" id="4nxgFhR8gJu" role="3clF46">
        <property role="TrG5h" value="node" />
        <node concept="3Tqbb2" id="4nxgFhR8gJv" role="1tU5fm" />
      </node>
      <node concept="37vLTG" id="4nxgFhR8gJw" role="3clF46">
        <property role="TrG5h" value="leftType" />
        <node concept="3Tqbb2" id="4nxgFhR8gJx" role="1tU5fm" />
      </node>
      <node concept="37vLTG" id="4nxgFhR8gJy" role="3clF46">
        <property role="TrG5h" value="rightType" />
        <node concept="3Tqbb2" id="4nxgFhR8gJz" role="1tU5fm" />
      </node>
      <node concept="3clFbS" id="4nxgFhR8gJB" role="3clF47">
        <node concept="3cpWs8" id="4nxgFhR8gJC" role="3cqZAp">
          <node concept="3cpWsn" id="4nxgFhR8gJD" role="3cpWs9">
            <property role="TrG5h" value="result" />
            <node concept="2ShNRf" id="4nxgFhR8gJE" role="33vP2m">
              <node concept="3rGOSV" id="4nxgFhR8gJF" role="2ShVmc">
                <node concept="10P_77" id="4nxgFhR8gJG" role="3rHtpV" />
                <node concept="3Tqbb2" id="4nxgFhR8gJH" role="3rHrn6">
                  <ref role="ehGHo" to="vgj4:qQXsgj0fxd" resolve="OverloadedBinaryOperator" />
                </node>
              </node>
            </node>
            <node concept="3rvAFt" id="4nxgFhR8gJI" role="1tU5fm">
              <node concept="3Tqbb2" id="4nxgFhR8gJJ" role="3rvQeY">
                <ref role="ehGHo" to="vgj4:qQXsgj0fxd" resolve="OverloadedBinaryOperator" />
              </node>
              <node concept="10P_77" id="4nxgFhR8gJK" role="3rvSg0" />
            </node>
          </node>
        </node>
        <node concept="3clFbJ" id="4nxgFhR8gJL" role="3cqZAp">
          <node concept="3clFbS" id="4nxgFhR8gJM" role="3clFbx">
            <node concept="3cpWs6" id="4nxgFhR8gJN" role="3cqZAp">
              <node concept="37vLTw" id="3GM_nagT_hR" role="3cqZAk">
                <ref role="3cqZAo" node="4nxgFhR8gJD" resolve="result" />
              </node>
            </node>
          </node>
          <node concept="3fqX7Q" id="4nxgFhR8gJP" role="3clFbw">
            <node concept="2OqwBi" id="4nxgFhR8gJQ" role="3fr31v">
              <node concept="37vLTw" id="2BHiRxgheKU" role="2Oq$k0">
                <ref role="3cqZAo" node="4nxgFhR8gJu" resolve="node" />
              </node>
              <node concept="1mIQ4w" id="4nxgFhR8gJS" role="2OqNvi">
                <node concept="chp4Y" id="4nxgFhR8gJT" role="cj9EA">
                  <ref role="cht4Q" to="tpee:fJuHJVf" resolve="BinaryOperation" />
                </node>
              </node>
            </node>
          </node>
        </node>
        <node concept="1DcWWT" id="4nxgFhR8gJU" role="3cqZAp">
          <node concept="3clFbS" id="4nxgFhR8gJV" role="2LFqv$">
            <node concept="3clFbJ" id="4nxgFhR8gJW" role="3cqZAp">
              <node concept="3clFbS" id="4nxgFhR8gJX" role="3clFbx">
                <node concept="3clFbF" id="4nxgFhR8gJY" role="3cqZAp">
                  <node concept="37vLTI" id="4nxgFhR8gJZ" role="3clFbG">
                    <node concept="3clFbT" id="4nxgFhR8gK0" role="37vLTx">
                      <property role="3clFbU" value="false" />
                    </node>
                    <node concept="3EllGN" id="4nxgFhR8gK1" role="37vLTJ">
                      <node concept="37vLTw" id="3GM_nagTvxn" role="3ElVtu">
                        <ref role="3cqZAo" node="4nxgFhR8gKt" resolve="operator" />
                      </node>
                      <node concept="37vLTw" id="3GM_nagTxY_" role="3ElQJh">
                        <ref role="3cqZAo" node="4nxgFhR8gJD" resolve="result" />
                      </node>
                    </node>
                  </node>
                </node>
              </node>
              <node concept="1rXfSq" id="4hiugqyso4W" role="3clFbw">
                <ref role="37wK5l" node="4nxgFhR8gId" resolve="isOverloading" />
                <node concept="1PxgMI" id="4nxgFhR8gK5" role="37wK5m">
                  <ref role="1m5ApE" to="tpee:fJuHJVf" resolve="BinaryOperation" />
                  <node concept="37vLTw" id="2BHiRxgm5Fh" role="1m5AlR">
                    <ref role="3cqZAo" node="4nxgFhR8gJu" resolve="node" />
                  </node>
                </node>
                <node concept="37vLTw" id="2BHiRxghix4" role="37wK5m">
                  <ref role="3cqZAo" node="4nxgFhR8gJw" resolve="leftType" />
                </node>
                <node concept="37vLTw" id="2BHiRxgl9A8" role="37wK5m">
                  <ref role="3cqZAo" node="4nxgFhR8gJy" resolve="rightType" />
                </node>
                <node concept="37vLTw" id="3GM_nagTAqA" role="37wK5m">
                  <ref role="3cqZAo" node="4nxgFhR8gKt" resolve="operator" />
                </node>
              </node>
            </node>
            <node concept="3clFbJ" id="4nxgFhR8gKa" role="3cqZAp">
              <node concept="3clFbS" id="4nxgFhR8gKb" role="3clFbx">
                <node concept="3clFbF" id="4nxgFhR8gKc" role="3cqZAp">
                  <node concept="37vLTI" id="4nxgFhR8gKd" role="3clFbG">
                    <node concept="3clFbT" id="4nxgFhR8gKe" role="37vLTx">
                      <property role="3clFbU" value="true" />
                    </node>
                    <node concept="3EllGN" id="4nxgFhR8gKf" role="37vLTJ">
                      <node concept="37vLTw" id="3GM_nagTrKc" role="3ElVtu">
                        <ref role="3cqZAo" node="4nxgFhR8gKt" resolve="operator" />
                      </node>
                      <node concept="37vLTw" id="3GM_nagT$WH" role="3ElQJh">
                        <ref role="3cqZAo" node="4nxgFhR8gJD" resolve="result" />
                      </node>
                    </node>
                  </node>
                </node>
              </node>
              <node concept="1Wc70l" id="4nxgFhR8gKi" role="3clFbw">
                <node concept="2OqwBi" id="4nxgFhR8gKj" role="3uHU7B">
                  <node concept="37vLTw" id="3GM_nagTyG8" role="2Oq$k0">
                    <ref role="3cqZAo" node="4nxgFhR8gKt" resolve="operator" />
                  </node>
                  <node concept="3TrcHB" id="4nxgFhR8gKl" role="2OqNvi">
                    <ref role="3TsBF5" to="vgj4:2kpoMNxbyry" resolve="commutative" />
                  </node>
                </node>
                <node concept="1rXfSq" id="4hiugqysmOE" role="3uHU7w">
                  <ref role="37wK5l" node="4nxgFhR8gId" resolve="isOverloading" />
                  <node concept="1PxgMI" id="4nxgFhR8gKn" role="37wK5m">
                    <ref role="1m5ApE" to="tpee:fJuHJVf" resolve="BinaryOperation" />
                    <node concept="37vLTw" id="2BHiRxgmJeH" role="1m5AlR">
                      <ref role="3cqZAo" node="4nxgFhR8gJu" resolve="node" />
                    </node>
                  </node>
                  <node concept="37vLTw" id="2BHiRxgmaoQ" role="37wK5m">
                    <ref role="3cqZAo" node="4nxgFhR8gJy" resolve="rightType" />
                  </node>
                  <node concept="37vLTw" id="2BHiRxgmNF5" role="37wK5m">
                    <ref role="3cqZAo" node="4nxgFhR8gJw" resolve="leftType" />
                  </node>
                  <node concept="37vLTw" id="3GM_nagTzOf" role="37wK5m">
                    <ref role="3cqZAo" node="4nxgFhR8gKt" resolve="operator" />
                  </node>
                </node>
              </node>
            </node>
          </node>
          <node concept="1rXfSq" id="6oKb3MdZxi4" role="1DdaDG">
            <ref role="37wK5l" node="6oKb3MdYOFU" resolve="getOperatorContainers" />
          </node>
          <node concept="3cpWsn" id="4nxgFhR8gKt" role="1Duv9x">
            <property role="TrG5h" value="operator" />
            <node concept="3Tqbb2" id="4nxgFhR8gKu" role="1tU5fm">
              <ref role="ehGHo" to="vgj4:qQXsgj0fxd" resolve="OverloadedBinaryOperator" />
            </node>
          </node>
        </node>
        <node concept="3cpWs6" id="4nxgFhR8gKv" role="3cqZAp">
          <node concept="37vLTw" id="3GM_nagTy7D" role="3cqZAk">
            <ref role="3cqZAo" node="4nxgFhR8gJD" resolve="result" />
          </node>
        </node>
      </node>
      <node concept="3Tm6S6" id="6oKb3MdZ4zf" role="1B3o_S" />
    </node>
    <node concept="2YIFZL" id="4nxgFhR8gId" role="jymVt">
      <property role="TrG5h" value="isOverloading" />
      <node concept="37vLTG" id="4nxgFhR8gIe" role="3clF46">
        <property role="TrG5h" value="node" />
        <node concept="3Tqbb2" id="4nxgFhR8gIf" role="1tU5fm">
          <ref role="ehGHo" to="tpee:fJuHJVf" resolve="BinaryOperation" />
        </node>
      </node>
      <node concept="37vLTG" id="4nxgFhR8gIg" role="3clF46">
        <property role="TrG5h" value="leftType" />
        <node concept="3Tqbb2" id="4nxgFhR8gIh" role="1tU5fm" />
      </node>
      <node concept="37vLTG" id="4nxgFhR8gIi" role="3clF46">
        <property role="TrG5h" value="rightType" />
        <node concept="3Tqbb2" id="4nxgFhR8gIj" role="1tU5fm" />
      </node>
      <node concept="37vLTG" id="4nxgFhR8gIk" role="3clF46">
        <property role="TrG5h" value="operator" />
        <node concept="3Tqbb2" id="4nxgFhR8gIl" role="1tU5fm">
          <ref role="ehGHo" to="vgj4:qQXsgj0fxd" resolve="OverloadedBinaryOperator" />
        </node>
      </node>
      <node concept="10P_77" id="4nxgFhR8gIm" role="3clF45" />
      <node concept="3Tm6S6" id="6oKb3MdYOxV" role="1B3o_S" />
      <node concept="3clFbS" id="4nxgFhR8gIo" role="3clF47">
        <node concept="3clFbJ" id="4nxgFhR8gIp" role="3cqZAp">
          <node concept="3clFbS" id="4nxgFhR8gIq" role="3clFbx">
            <node concept="3cpWs6" id="4nxgFhR8gIr" role="3cqZAp">
              <node concept="3clFbT" id="4nxgFhR8gIs" role="3cqZAk">
                <property role="3clFbU" value="false" />
              </node>
            </node>
          </node>
          <node concept="3fqX7Q" id="4nxgFhR8gIt" role="3clFbw">
            <node concept="1eOMI4" id="3$myXoLqlcC" role="3fr31v">
              <node concept="1Wc70l" id="4nxgFhR8gIu" role="1eOMHV">
                <node concept="3JuTUA" id="4nxgFhR8gIv" role="3uHU7B">
                  <node concept="2OqwBi" id="4nxgFhR8gIw" role="3JuZjQ">
                    <node concept="37vLTw" id="2BHiRxghiZw" role="2Oq$k0">
                      <ref role="3cqZAo" node="4nxgFhR8gIk" resolve="operator" />
                    </node>
                    <node concept="3TrEf2" id="4nxgFhR8gIy" role="2OqNvi">
                      <ref role="3Tt5mk" to="vgj4:5MF4VwFWPAL" />
                    </node>
                  </node>
                  <node concept="37vLTw" id="2BHiRxgm8Ch" role="3JuY14">
                    <ref role="3cqZAo" node="4nxgFhR8gIg" resolve="leftType" />
                  </node>
                </node>
                <node concept="3JuTUA" id="4nxgFhR8gI$" role="3uHU7w">
                  <node concept="37vLTw" id="2BHiRxgm98g" role="3JuY14">
                    <ref role="3cqZAo" node="4nxgFhR8gIi" resolve="rightType" />
                  </node>
                  <node concept="2OqwBi" id="4nxgFhR8gIA" role="3JuZjQ">
                    <node concept="37vLTw" id="2BHiRxghgf9" role="2Oq$k0">
                      <ref role="3cqZAo" node="4nxgFhR8gIk" resolve="operator" />
                    </node>
                    <node concept="3TrEf2" id="4nxgFhR8gIC" role="2OqNvi">
                      <ref role="3Tt5mk" to="vgj4:5MF4VwFWPAM" />
                    </node>
                  </node>
                </node>
              </node>
            </node>
          </node>
        </node>
        <node concept="3clFbJ" id="4nxgFhR8gID" role="3cqZAp">
          <node concept="3clFbS" id="4nxgFhR8gIE" role="3clFbx">
            <node concept="3clFbJ" id="4nxgFhR8gIF" role="3cqZAp">
              <node concept="3clFbS" id="4nxgFhR8gIG" role="3clFbx">
                <node concept="3cpWs6" id="4nxgFhR8gIH" role="3cqZAp">
                  <node concept="3clFbT" id="4nxgFhR8gII" role="3cqZAk">
                    <property role="3clFbU" value="true" />
                  </node>
                </node>
              </node>
              <node concept="2OqwBi" id="4nxgFhR8gIJ" role="3clFbw">
                <node concept="37vLTw" id="2BHiRxgm9jI" role="2Oq$k0">
                  <ref role="3cqZAo" node="4nxgFhR8gIe" resolve="node" />
                </node>
                <node concept="1mIQ4w" id="4nxgFhR8gIL" role="2OqNvi">
                  <node concept="25Kdxt" id="4nxgFhR8gIM" role="cj9EA">
                    <node concept="2OqwBi" id="4nxgFhR8gIN" role="25KhWn">
                      <node concept="1PxgMI" id="4nxgFhR8gIO" role="2Oq$k0">
                        <ref role="1m5ApE" to="vgj4:2t$Vq$DOzUO" resolve="BinaryOperationReference" />
                        <node concept="2OqwBi" id="4nxgFhR8gIP" role="1m5AlR">
                          <node concept="37vLTw" id="2BHiRxghelK" role="2Oq$k0">
                            <ref role="3cqZAo" node="4nxgFhR8gIk" resolve="operator" />
                          </node>
                          <node concept="3TrEf2" id="4nxgFhR8gIR" role="2OqNvi">
                            <ref role="3Tt5mk" to="vgj4:2t$Vq$DOzUQ" />
                          </node>
                        </node>
                      </node>
                      <node concept="3TrEf2" id="4nxgFhR8gIS" role="2OqNvi">
                        <ref role="3Tt5mk" to="vgj4:2t$Vq$DOzUP" />
                      </node>
                    </node>
                  </node>
                </node>
              </node>
            </node>
          </node>
          <node concept="2OqwBi" id="4nxgFhR8gIT" role="3clFbw">
            <node concept="2OqwBi" id="4nxgFhR8gIU" role="2Oq$k0">
              <node concept="37vLTw" id="2BHiRxglb0U" role="2Oq$k0">
                <ref role="3cqZAo" node="4nxgFhR8gIk" resolve="operator" />
              </node>
              <node concept="3TrEf2" id="4nxgFhR8gIW" role="2OqNvi">
                <ref role="3Tt5mk" to="vgj4:2t$Vq$DOzUQ" />
              </node>
            </node>
            <node concept="1mIQ4w" id="4nxgFhR8gIX" role="2OqNvi">
              <node concept="chp4Y" id="4nxgFhR8gIY" role="cj9EA">
                <ref role="cht4Q" to="vgj4:2t$Vq$DOzUO" resolve="BinaryOperationReference" />
              </node>
            </node>
          </node>
          <node concept="3eNFk2" id="4nxgFhR8gIZ" role="3eNLev">
            <node concept="1Wc70l" id="4nxgFhR8gJ0" role="3eO9$A">
              <node concept="2OqwBi" id="4nxgFhR8gJ1" role="3uHU7w">
                <node concept="37vLTw" id="2BHiRxgmG9Z" role="2Oq$k0">
                  <ref role="3cqZAo" node="4nxgFhR8gIe" resolve="node" />
                </node>
                <node concept="1mIQ4w" id="4nxgFhR8gJ3" role="2OqNvi">
                  <node concept="chp4Y" id="4nxgFhR8gJ4" role="cj9EA">
                    <ref role="cht4Q" to="vgj4:1n8rXLwx7pJ" resolve="CustomOperatorUsage" />
                  </node>
                </node>
              </node>
              <node concept="2OqwBi" id="4nxgFhR8gJ5" role="3uHU7B">
                <node concept="2OqwBi" id="4nxgFhR8gJ6" role="2Oq$k0">
                  <node concept="37vLTw" id="2BHiRxglYEe" role="2Oq$k0">
                    <ref role="3cqZAo" node="4nxgFhR8gIk" resolve="operator" />
                  </node>
                  <node concept="3TrEf2" id="4nxgFhR8gJ8" role="2OqNvi">
                    <ref role="3Tt5mk" to="vgj4:2t$Vq$DOzUQ" />
                  </node>
                </node>
                <node concept="1mIQ4w" id="4nxgFhR8gJ9" role="2OqNvi">
                  <node concept="chp4Y" id="4nxgFhR8gJa" role="cj9EA">
                    <ref role="cht4Q" to="vgj4:2t$Vq$DPw8R" resolve="CustomOperator" />
                  </node>
                </node>
              </node>
            </node>
            <node concept="3clFbS" id="4nxgFhR8gJb" role="3eOfB_">
              <node concept="3clFbJ" id="4nxgFhR8gJc" role="3cqZAp">
                <node concept="3clFbS" id="4nxgFhR8gJd" role="3clFbx">
                  <node concept="3cpWs6" id="4nxgFhR8gJe" role="3cqZAp">
                    <node concept="3clFbT" id="4nxgFhR8gJf" role="3cqZAk">
                      <property role="3clFbU" value="true" />
                    </node>
                  </node>
                </node>
                <node concept="3clFbC" id="4nxgFhR8gJg" role="3clFbw">
                  <node concept="2OqwBi" id="4nxgFhR8gJh" role="3uHU7w">
                    <node concept="1PxgMI" id="4nxgFhR8gJi" role="2Oq$k0">
                      <ref role="1m5ApE" to="vgj4:2t$Vq$DPw8R" resolve="CustomOperator" />
                      <node concept="2OqwBi" id="4nxgFhR8gJj" role="1m5AlR">
                        <node concept="37vLTw" id="2BHiRxgm935" role="2Oq$k0">
                          <ref role="3cqZAo" node="4nxgFhR8gIk" resolve="operator" />
                        </node>
                        <node concept="3TrEf2" id="4nxgFhR8gJl" role="2OqNvi">
                          <ref role="3Tt5mk" to="vgj4:2t$Vq$DOzUQ" />
                        </node>
                      </node>
                    </node>
                    <node concept="3TrEf2" id="4nxgFhR8gJm" role="2OqNvi">
                      <ref role="3Tt5mk" to="vgj4:2t$Vq$DPw8T" />
                    </node>
                  </node>
                  <node concept="2OqwBi" id="4nxgFhR8gJn" role="3uHU7B">
                    <node concept="1PxgMI" id="4nxgFhR8gJo" role="2Oq$k0">
                      <ref role="1m5ApE" to="vgj4:1n8rXLwx7pJ" resolve="CustomOperatorUsage" />
                      <node concept="37vLTw" id="2BHiRxgkWfO" role="1m5AlR">
                        <ref role="3cqZAo" node="4nxgFhR8gIe" resolve="node" />
                      </node>
                    </node>
                    <node concept="3TrEf2" id="4nxgFhR8gJq" role="2OqNvi">
                      <ref role="3Tt5mk" to="vgj4:1n8rXLwx7pK" />
                    </node>
                  </node>
                </node>
              </node>
            </node>
          </node>
        </node>
        <node concept="3cpWs6" id="4nxgFhR8gJr" role="3cqZAp">
          <node concept="3clFbT" id="4nxgFhR8gJs" role="3cqZAk">
            <property role="3clFbU" value="false" />
          </node>
        </node>
      </node>
    </node>
    <node concept="2YIFZL" id="4nxgFhR8gLo" role="jymVt">
      <property role="TrG5h" value="isSubTypeOperatorStraight" />
      <node concept="10P_77" id="4nxgFhR8gLp" role="3clF45" />
      <node concept="3Tm6S6" id="6oKb3MdYVZ9" role="1B3o_S" />
      <node concept="3clFbS" id="4nxgFhR8gLr" role="3clF47">
        <node concept="3clFbJ" id="4nxgFhR8gLs" role="3cqZAp">
          <node concept="3clFbS" id="4nxgFhR8gLt" role="3clFbx">
            <node concept="3cpWs6" id="4nxgFhR8gLu" role="3cqZAp">
              <node concept="3clFbT" id="4nxgFhR8gLv" role="3cqZAk">
                <property role="3clFbU" value="false" />
              </node>
            </node>
          </node>
          <node concept="yS_3z" id="4nxgFhR8gLw" role="3clFbw">
            <node concept="2OqwBi" id="4nxgFhR8gLx" role="3JuY14">
              <node concept="37vLTw" id="2BHiRxglGdi" role="2Oq$k0">
                <ref role="3cqZAo" node="4nxgFhR8gM1" resolve="superOperator" />
              </node>
              <node concept="3TrEf2" id="4nxgFhR8gLz" role="2OqNvi">
                <ref role="3Tt5mk" to="vgj4:5MF4VwFWPAL" />
              </node>
            </node>
            <node concept="2OqwBi" id="4nxgFhR8gL$" role="3JuZjQ">
              <node concept="37vLTw" id="2BHiRxglt8B" role="2Oq$k0">
                <ref role="3cqZAo" node="4nxgFhR8gLZ" resolve="subOperator" />
              </node>
              <node concept="3TrEf2" id="4nxgFhR8gLA" role="2OqNvi">
                <ref role="3Tt5mk" to="vgj4:5MF4VwFWPAL" />
              </node>
            </node>
          </node>
        </node>
        <node concept="3clFbJ" id="4nxgFhR8gLB" role="3cqZAp">
          <node concept="3clFbS" id="4nxgFhR8gLC" role="3clFbx">
            <node concept="3cpWs6" id="4nxgFhR8gLD" role="3cqZAp">
              <node concept="3clFbT" id="4nxgFhR8gLE" role="3cqZAk">
                <property role="3clFbU" value="true" />
              </node>
            </node>
          </node>
          <node concept="yS_3z" id="4nxgFhR8gLF" role="3clFbw">
            <node concept="2OqwBi" id="4nxgFhR8gLG" role="3JuY14">
              <node concept="37vLTw" id="2BHiRxglCty" role="2Oq$k0">
                <ref role="3cqZAo" node="4nxgFhR8gLZ" resolve="subOperator" />
              </node>
              <node concept="3TrEf2" id="4nxgFhR8gLI" role="2OqNvi">
                <ref role="3Tt5mk" to="vgj4:5MF4VwFWPAL" />
              </node>
            </node>
            <node concept="2OqwBi" id="4nxgFhR8gLJ" role="3JuZjQ">
              <node concept="37vLTw" id="2BHiRxgm6xZ" role="2Oq$k0">
                <ref role="3cqZAo" node="4nxgFhR8gM1" resolve="superOperator" />
              </node>
              <node concept="3TrEf2" id="4nxgFhR8gLL" role="2OqNvi">
                <ref role="3Tt5mk" to="vgj4:5MF4VwFWPAL" />
              </node>
            </node>
          </node>
        </node>
        <node concept="3clFbJ" id="4nxgFhR8gLM" role="3cqZAp">
          <node concept="3clFbS" id="4nxgFhR8gLN" role="3clFbx">
            <node concept="3cpWs6" id="4nxgFhR8gLO" role="3cqZAp">
              <node concept="3clFbT" id="4nxgFhR8gLP" role="3cqZAk">
                <property role="3clFbU" value="false" />
              </node>
            </node>
          </node>
          <node concept="yS_3z" id="4nxgFhR8gLQ" role="3clFbw">
            <node concept="2OqwBi" id="4nxgFhR8gLR" role="3JuY14">
              <node concept="37vLTw" id="2BHiRxgmaNl" role="2Oq$k0">
                <ref role="3cqZAo" node="4nxgFhR8gM1" resolve="superOperator" />
              </node>
              <node concept="3TrEf2" id="4nxgFhR8gLT" role="2OqNvi">
                <ref role="3Tt5mk" to="vgj4:5MF4VwFWPAM" />
              </node>
            </node>
            <node concept="2OqwBi" id="4nxgFhR8gLU" role="3JuZjQ">
              <node concept="37vLTw" id="2BHiRxgm5Hl" role="2Oq$k0">
                <ref role="3cqZAo" node="4nxgFhR8gLZ" resolve="subOperator" />
              </node>
              <node concept="3TrEf2" id="4nxgFhR8gLW" role="2OqNvi">
                <ref role="3Tt5mk" to="vgj4:5MF4VwFWPAM" />
              </node>
            </node>
          </node>
        </node>
        <node concept="3cpWs6" id="4nxgFhR8gLX" role="3cqZAp">
          <node concept="3clFbT" id="4nxgFhR8gLY" role="3cqZAk">
            <property role="3clFbU" value="true" />
          </node>
        </node>
      </node>
      <node concept="37vLTG" id="4nxgFhR8gLZ" role="3clF46">
        <property role="TrG5h" value="subOperator" />
        <node concept="3Tqbb2" id="4nxgFhR8gM0" role="1tU5fm">
          <ref role="ehGHo" to="vgj4:qQXsgj0fxd" resolve="OverloadedBinaryOperator" />
        </node>
      </node>
      <node concept="37vLTG" id="4nxgFhR8gM1" role="3clF46">
        <property role="TrG5h" value="superOperator" />
        <node concept="3Tqbb2" id="4nxgFhR8gM2" role="1tU5fm">
          <ref role="ehGHo" to="vgj4:qQXsgj0fxd" resolve="OverloadedBinaryOperator" />
        </node>
      </node>
    </node>
    <node concept="2YIFZL" id="4nxgFhR8gM3" role="jymVt">
      <property role="TrG5h" value="isReversedSubTypeOperator" />
      <node concept="10P_77" id="4nxgFhR8gM4" role="3clF45" />
      <node concept="3Tm6S6" id="6oKb3MdYW2R" role="1B3o_S" />
      <node concept="3clFbS" id="4nxgFhR8gM6" role="3clF47">
        <node concept="3clFbJ" id="4nxgFhR8gM7" role="3cqZAp">
          <node concept="3clFbS" id="4nxgFhR8gM8" role="3clFbx">
            <node concept="3cpWs6" id="4nxgFhR8gM9" role="3cqZAp">
              <node concept="3clFbT" id="4nxgFhR8gMa" role="3cqZAk">
                <property role="3clFbU" value="false" />
              </node>
            </node>
          </node>
          <node concept="yS_3z" id="4nxgFhR8gMb" role="3clFbw">
            <node concept="2OqwBi" id="4nxgFhR8gMc" role="3JuY14">
              <node concept="37vLTw" id="2BHiRxglnp2" role="2Oq$k0">
                <ref role="3cqZAo" node="4nxgFhR8gMG" resolve="superOperator" />
              </node>
              <node concept="3TrEf2" id="4nxgFhR8gMe" role="2OqNvi">
                <ref role="3Tt5mk" to="vgj4:5MF4VwFWPAM" />
              </node>
            </node>
            <node concept="2OqwBi" id="4nxgFhR8gMf" role="3JuZjQ">
              <node concept="37vLTw" id="2BHiRxglrz6" role="2Oq$k0">
                <ref role="3cqZAo" node="4nxgFhR8gME" resolve="subOperator" />
              </node>
              <node concept="3TrEf2" id="4nxgFhR8gMh" role="2OqNvi">
                <ref role="3Tt5mk" to="vgj4:5MF4VwFWPAL" />
              </node>
            </node>
          </node>
        </node>
        <node concept="3clFbJ" id="4nxgFhR8gMi" role="3cqZAp">
          <node concept="3clFbS" id="4nxgFhR8gMj" role="3clFbx">
            <node concept="3cpWs6" id="4nxgFhR8gMk" role="3cqZAp">
              <node concept="3clFbT" id="4nxgFhR8gMl" role="3cqZAk">
                <property role="3clFbU" value="true" />
              </node>
            </node>
          </node>
          <node concept="yS_3z" id="4nxgFhR8gMm" role="3clFbw">
            <node concept="2OqwBi" id="4nxgFhR8gMn" role="3JuY14">
              <node concept="37vLTw" id="2BHiRxgm83F" role="2Oq$k0">
                <ref role="3cqZAo" node="4nxgFhR8gME" resolve="subOperator" />
              </node>
              <node concept="3TrEf2" id="4nxgFhR8gMp" role="2OqNvi">
                <ref role="3Tt5mk" to="vgj4:5MF4VwFWPAL" />
              </node>
            </node>
            <node concept="2OqwBi" id="4nxgFhR8gMq" role="3JuZjQ">
              <node concept="37vLTw" id="2BHiRxghfyh" role="2Oq$k0">
                <ref role="3cqZAo" node="4nxgFhR8gMG" resolve="superOperator" />
              </node>
              <node concept="3TrEf2" id="4nxgFhR8gMs" role="2OqNvi">
                <ref role="3Tt5mk" to="vgj4:5MF4VwFWPAM" />
              </node>
            </node>
          </node>
        </node>
        <node concept="3clFbJ" id="4nxgFhR8gMt" role="3cqZAp">
          <node concept="3clFbS" id="4nxgFhR8gMu" role="3clFbx">
            <node concept="3cpWs6" id="4nxgFhR8gMv" role="3cqZAp">
              <node concept="3clFbT" id="4nxgFhR8gMw" role="3cqZAk">
                <property role="3clFbU" value="false" />
              </node>
            </node>
          </node>
          <node concept="yS_3z" id="4nxgFhR8gMx" role="3clFbw">
            <node concept="2OqwBi" id="4nxgFhR8gMy" role="3JuY14">
              <node concept="37vLTw" id="2BHiRxgmgmX" role="2Oq$k0">
                <ref role="3cqZAo" node="4nxgFhR8gMG" resolve="superOperator" />
              </node>
              <node concept="3TrEf2" id="4nxgFhR8gM$" role="2OqNvi">
                <ref role="3Tt5mk" to="vgj4:5MF4VwFWPAL" />
              </node>
            </node>
            <node concept="2OqwBi" id="4nxgFhR8gM_" role="3JuZjQ">
              <node concept="37vLTw" id="2BHiRxgmaN$" role="2Oq$k0">
                <ref role="3cqZAo" node="4nxgFhR8gME" resolve="subOperator" />
              </node>
              <node concept="3TrEf2" id="4nxgFhR8gMB" role="2OqNvi">
                <ref role="3Tt5mk" to="vgj4:5MF4VwFWPAM" />
              </node>
            </node>
          </node>
        </node>
        <node concept="3cpWs6" id="4nxgFhR8gMC" role="3cqZAp">
          <node concept="3clFbT" id="4nxgFhR8gMD" role="3cqZAk">
            <property role="3clFbU" value="true" />
          </node>
        </node>
      </node>
      <node concept="37vLTG" id="4nxgFhR8gME" role="3clF46">
        <property role="TrG5h" value="subOperator" />
        <node concept="3Tqbb2" id="4nxgFhR8gMF" role="1tU5fm">
          <ref role="ehGHo" to="vgj4:qQXsgj0fxd" resolve="OverloadedBinaryOperator" />
        </node>
      </node>
      <node concept="37vLTG" id="4nxgFhR8gMG" role="3clF46">
        <property role="TrG5h" value="superOperator" />
        <node concept="3Tqbb2" id="4nxgFhR8gMH" role="1tU5fm">
          <ref role="ehGHo" to="vgj4:qQXsgj0fxd" resolve="OverloadedBinaryOperator" />
        </node>
      </node>
    </node>
    <node concept="2YIFZL" id="4nxgFhR8gMI" role="jymVt">
      <property role="TrG5h" value="isSubTypeOperator" />
      <node concept="10P_77" id="4nxgFhR8gMJ" role="3clF45" />
      <node concept="3Tm6S6" id="6oKb3MdYW6_" role="1B3o_S" />
      <node concept="3clFbS" id="4nxgFhR8gML" role="3clF47">
        <node concept="3clFbJ" id="4nxgFhR8gMM" role="3cqZAp">
          <node concept="3clFbS" id="4nxgFhR8gMN" role="3clFbx">
            <node concept="3cpWs6" id="4nxgFhR8gMO" role="3cqZAp">
              <node concept="1rXfSq" id="4hiugqystS2" role="3cqZAk">
                <ref role="37wK5l" node="4nxgFhR8gLo" resolve="isSubTypeOperatorStraight" />
                <node concept="37vLTw" id="2BHiRxghg8s" role="37wK5m">
                  <ref role="3cqZAo" node="4nxgFhR8gMY" resolve="subOperator" />
                </node>
                <node concept="37vLTw" id="2BHiRxghfFf" role="37wK5m">
                  <ref role="3cqZAo" node="4nxgFhR8gN0" resolve="superOperator" />
                </node>
              </node>
            </node>
          </node>
          <node concept="3fqX7Q" id="4nxgFhR8gMS" role="3clFbw">
            <node concept="37vLTw" id="2BHiRxghfce" role="3fr31v">
              <ref role="3cqZAo" node="4nxgFhR8gN2" resolve="reversed" />
            </node>
          </node>
        </node>
        <node concept="3cpWs6" id="4nxgFhR8gMU" role="3cqZAp">
          <node concept="1rXfSq" id="4hiugqysqLY" role="3cqZAk">
            <ref role="37wK5l" node="4nxgFhR8gM3" resolve="isReversedSubTypeOperator" />
            <node concept="37vLTw" id="2BHiRxgm$CG" role="37wK5m">
              <ref role="3cqZAo" node="4nxgFhR8gMY" resolve="subOperator" />
            </node>
            <node concept="37vLTw" id="2BHiRxgmztg" role="37wK5m">
              <ref role="3cqZAo" node="4nxgFhR8gN0" resolve="superOperator" />
            </node>
          </node>
        </node>
      </node>
      <node concept="37vLTG" id="4nxgFhR8gMY" role="3clF46">
        <property role="TrG5h" value="subOperator" />
        <node concept="3Tqbb2" id="4nxgFhR8gMZ" role="1tU5fm">
          <ref role="ehGHo" to="vgj4:qQXsgj0fxd" resolve="OverloadedBinaryOperator" />
        </node>
      </node>
      <node concept="37vLTG" id="4nxgFhR8gN0" role="3clF46">
        <property role="TrG5h" value="superOperator" />
        <node concept="3Tqbb2" id="4nxgFhR8gN1" role="1tU5fm">
          <ref role="ehGHo" to="vgj4:qQXsgj0fxd" resolve="OverloadedBinaryOperator" />
        </node>
      </node>
      <node concept="37vLTG" id="4nxgFhR8gN2" role="3clF46">
        <property role="TrG5h" value="reversed" />
        <node concept="10P_77" id="4nxgFhR8gN3" role="1tU5fm" />
      </node>
    </node>
    <node concept="3clFb_" id="6oKb3MdZuqN" role="jymVt">
      <property role="TrG5h" value="getNearestOverloaded" />
      <property role="DiZV1" value="false" />
      <node concept="3Tqbb2" id="4nxgFhR8gOS" role="3clF45">
        <ref role="ehGHo" to="vgj4:qQXsgj0fxd" resolve="OverloadedBinaryOperator" />
      </node>
      <node concept="37vLTG" id="4nxgFhR8gOT" role="3clF46">
        <property role="TrG5h" value="node" />
        <node concept="3Tqbb2" id="4nxgFhR8gOU" role="1tU5fm" />
      </node>
      <node concept="37vLTG" id="4nxgFhR8gOV" role="3clF46">
        <property role="TrG5h" value="leftType" />
        <node concept="3Tqbb2" id="4nxgFhR8gOW" role="1tU5fm" />
      </node>
      <node concept="37vLTG" id="4nxgFhR8gOX" role="3clF46">
        <property role="TrG5h" value="rightType" />
        <node concept="3Tqbb2" id="4nxgFhR8gOY" role="1tU5fm" />
      </node>
      <node concept="3clFbS" id="4nxgFhR8gN6" role="3clF47">
        <node concept="3clFbJ" id="4nxgFhR8gN7" role="3cqZAp">
          <node concept="3clFbS" id="4nxgFhR8gN8" role="3clFbx">
            <node concept="3cpWs6" id="4nxgFhR8gN9" role="3cqZAp">
              <node concept="10Nm6u" id="4nxgFhR8gNa" role="3cqZAk" />
            </node>
          </node>
          <node concept="3fqX7Q" id="4nxgFhR8gNb" role="3clFbw">
            <node concept="2OqwBi" id="4nxgFhR8gNc" role="3fr31v">
              <node concept="37vLTw" id="2BHiRxgmtvm" role="2Oq$k0">
                <ref role="3cqZAo" node="4nxgFhR8gOT" resolve="node" />
              </node>
              <node concept="1mIQ4w" id="4nxgFhR8gNe" role="2OqNvi">
                <node concept="chp4Y" id="4nxgFhR8gNf" role="cj9EA">
                  <ref role="cht4Q" to="tpee:fJuHJVf" resolve="BinaryOperation" />
                </node>
              </node>
            </node>
          </node>
        </node>
        <node concept="3cpWs8" id="4nxgFhR8gNg" role="3cqZAp">
          <node concept="3cpWsn" id="4nxgFhR8gNh" role="3cpWs9">
            <property role="TrG5h" value="result" />
            <node concept="3Tqbb2" id="4nxgFhR8gNi" role="1tU5fm">
              <ref role="ehGHo" to="vgj4:qQXsgj0fxd" resolve="OverloadedBinaryOperator" />
            </node>
            <node concept="10QFUN" id="4nxgFhR8gNj" role="33vP2m">
              <node concept="3Tqbb2" id="4nxgFhR8gNk" role="10QFUM">
                <ref role="ehGHo" to="vgj4:qQXsgj0fxd" resolve="OverloadedBinaryOperator" />
              </node>
              <node concept="1eOMI4" id="4nxgFhR8gNl" role="10QFUP">
                <node concept="2OqwBi" id="4nxgFhR8gNm" role="1eOMHV">
                  <node concept="2JrnkZ" id="4nxgFhR8gNn" role="2Oq$k0">
                    <node concept="37vLTw" id="2BHiRxgkWgS" role="2JrQYb">
                      <ref role="3cqZAo" node="4nxgFhR8gOT" resolve="node" />
                    </node>
                  </node>
                  <node concept="liA8E" id="4nxgFhR8gNp" role="2OqNvi">
                    <ref role="37wK5l" to="mhbf:~SNode.getUserObject(java.lang.Object):java.lang.Object" resolve="getUserObject" />
                    <node concept="Xl_RD" id="4nxgFhR8gNq" role="37wK5m">
                      <property role="Xl_RC" value="operator" />
                    </node>
                  </node>
                </node>
              </node>
            </node>
          </node>
        </node>
        <node concept="3clFbJ" id="4nxgFhR8gNr" role="3cqZAp">
          <node concept="3clFbS" id="4nxgFhR8gNs" role="3clFbx">
            <node concept="3cpWs6" id="4nxgFhR8gNt" role="3cqZAp">
              <node concept="37vLTw" id="3GM_nagTzEP" role="3cqZAk">
                <ref role="3cqZAo" node="4nxgFhR8gNh" resolve="result" />
              </node>
            </node>
          </node>
          <node concept="3y3z36" id="4nxgFhR8gNv" role="3clFbw">
            <node concept="10Nm6u" id="4nxgFhR8gNw" role="3uHU7w" />
            <node concept="37vLTw" id="3GM_nagTvIT" role="3uHU7B">
              <ref role="3cqZAo" node="4nxgFhR8gNh" resolve="result" />
            </node>
          </node>
        </node>
        <node concept="3cpWs8" id="4nxgFhR8gNy" role="3cqZAp">
          <node concept="3cpWsn" id="4nxgFhR8gNz" role="3cpWs9">
            <property role="TrG5h" value="operatorMap" />
            <node concept="3rvAFt" id="4nxgFhR8gN$" role="1tU5fm">
              <node concept="3Tqbb2" id="4nxgFhR8gN_" role="3rvQeY">
                <ref role="ehGHo" to="vgj4:qQXsgj0fxd" resolve="OverloadedBinaryOperator" />
              </node>
              <node concept="10P_77" id="4nxgFhR8gNA" role="3rvSg0" />
            </node>
            <node concept="1rXfSq" id="4hiugqysgvK" role="33vP2m">
              <ref role="37wK5l" node="6oKb3MdZwpl" resolve="getOverloadedOperators" />
              <node concept="1PxgMI" id="4nxgFhR8gNC" role="37wK5m">
                <ref role="1m5ApE" to="tpee:fJuHJVf" resolve="BinaryOperation" />
                <node concept="37vLTw" id="2BHiRxgkXAr" role="1m5AlR">
                  <ref role="3cqZAo" node="4nxgFhR8gOT" resolve="node" />
                </node>
              </node>
              <node concept="37vLTw" id="2BHiRxgmz1r" role="37wK5m">
                <ref role="3cqZAo" node="4nxgFhR8gOV" resolve="leftType" />
              </node>
              <node concept="37vLTw" id="2BHiRxgl5ut" role="37wK5m">
                <ref role="3cqZAo" node="4nxgFhR8gOX" resolve="rightType" />
              </node>
            </node>
          </node>
        </node>
        <node concept="3clFbJ" id="4nxgFhR8gNH" role="3cqZAp">
          <node concept="3clFbS" id="4nxgFhR8gNI" role="3clFbx">
            <node concept="3cpWs6" id="4nxgFhR8gNJ" role="3cqZAp">
              <node concept="10Nm6u" id="4nxgFhR8gNK" role="3cqZAk" />
            </node>
          </node>
          <node concept="2OqwBi" id="5eo3iW6uLhH" role="3clFbw">
            <node concept="37vLTw" id="3GM_nagTAwW" role="2Oq$k0">
              <ref role="3cqZAo" node="4nxgFhR8gNz" resolve="operatorMap" />
            </node>
            <node concept="1v1jN8" id="5eo3iW6uLhI" role="2OqNvi" />
          </node>
        </node>
        <node concept="3clFbF" id="4nxgFhR8gNQ" role="3cqZAp">
          <node concept="37vLTI" id="4nxgFhR8gNR" role="3clFbG">
            <node concept="37vLTw" id="3GM_nagTv5b" role="37vLTJ">
              <ref role="3cqZAo" node="4nxgFhR8gNh" resolve="result" />
            </node>
            <node concept="2OqwBi" id="4nxgFhR8gNT" role="37vLTx">
              <node concept="2OqwBi" id="4nxgFhR8gNU" role="2Oq$k0">
                <node concept="37vLTw" id="3GM_nagTxjE" role="2Oq$k0">
                  <ref role="3cqZAo" node="4nxgFhR8gNz" resolve="operatorMap" />
                </node>
                <node concept="1uHKPH" id="4nxgFhR8gNW" role="2OqNvi" />
              </node>
              <node concept="3AY5_j" id="4nxgFhR8gNX" role="2OqNvi" />
            </node>
          </node>
        </node>
        <node concept="3cpWs8" id="4nxgFhR8gNY" role="3cqZAp">
          <node concept="3cpWsn" id="4nxgFhR8gNZ" role="3cpWs9">
            <property role="TrG5h" value="resultReversed" />
            <node concept="10P_77" id="4nxgFhR8gO0" role="1tU5fm" />
            <node concept="2OqwBi" id="4nxgFhR8gO1" role="33vP2m">
              <node concept="2OqwBi" id="4nxgFhR8gO2" role="2Oq$k0">
                <node concept="37vLTw" id="3GM_nagTv_f" role="2Oq$k0">
                  <ref role="3cqZAo" node="4nxgFhR8gNz" resolve="operatorMap" />
                </node>
                <node concept="1uHKPH" id="4nxgFhR8gO4" role="2OqNvi" />
              </node>
              <node concept="3AV6Ez" id="4nxgFhR8gO5" role="2OqNvi" />
            </node>
          </node>
        </node>
        <node concept="2Gpval" id="4nxgFhR8gO6" role="3cqZAp">
          <node concept="2GrKxI" id="4nxgFhR8gO7" role="2Gsz3X">
            <property role="TrG5h" value="operatorEntry" />
          </node>
          <node concept="37vLTw" id="3GM_nagTsMV" role="2GsD0m">
            <ref role="3cqZAo" node="4nxgFhR8gNz" resolve="operatorMap" />
          </node>
          <node concept="3clFbS" id="4nxgFhR8gO9" role="2LFqv$">
            <node concept="3cpWs8" id="4nxgFhR8gOa" role="3cqZAp">
              <node concept="3cpWsn" id="4nxgFhR8gOb" role="3cpWs9">
                <property role="TrG5h" value="operator" />
                <node concept="3Tqbb2" id="4nxgFhR8gOc" role="1tU5fm">
                  <ref role="ehGHo" to="vgj4:qQXsgj0fxd" resolve="OverloadedBinaryOperator" />
                </node>
                <node concept="2OqwBi" id="4nxgFhR8gOd" role="33vP2m">
                  <node concept="2GrUjf" id="4nxgFhR8gOe" role="2Oq$k0">
                    <ref role="2Gs0qQ" node="4nxgFhR8gO7" resolve="operatorEntry" />
                  </node>
                  <node concept="3AY5_j" id="4nxgFhR8gOf" role="2OqNvi" />
                </node>
              </node>
            </node>
            <node concept="3cpWs8" id="4nxgFhR8gOg" role="3cqZAp">
              <node concept="3cpWsn" id="4nxgFhR8gOh" role="3cpWs9">
                <property role="TrG5h" value="reversed" />
                <node concept="10P_77" id="4nxgFhR8gOi" role="1tU5fm" />
                <node concept="3y3z36" id="4nxgFhR8gOj" role="33vP2m">
                  <node concept="2OqwBi" id="4nxgFhR8gOk" role="3uHU7B">
                    <node concept="2GrUjf" id="4nxgFhR8gOl" role="2Oq$k0">
                      <ref role="2Gs0qQ" node="4nxgFhR8gO7" resolve="operatorEntry" />
                    </node>
                    <node concept="3AV6Ez" id="4nxgFhR8gOm" role="2OqNvi" />
                  </node>
                  <node concept="37vLTw" id="3GM_nagTwI2" role="3uHU7w">
                    <ref role="3cqZAo" node="4nxgFhR8gNZ" resolve="resultReversed" />
                  </node>
                </node>
              </node>
            </node>
            <node concept="3clFbJ" id="4nxgFhR8gOo" role="3cqZAp">
              <node concept="3clFbS" id="4nxgFhR8gOp" role="3clFbx">
                <node concept="3clFbF" id="4nxgFhR8gOq" role="3cqZAp">
                  <node concept="37vLTI" id="4nxgFhR8gOr" role="3clFbG">
                    <node concept="37vLTw" id="3GM_nagT__5" role="37vLTx">
                      <ref role="3cqZAo" node="4nxgFhR8gOb" resolve="operator" />
                    </node>
                    <node concept="37vLTw" id="3GM_nagTvZE" role="37vLTJ">
                      <ref role="3cqZAo" node="4nxgFhR8gNh" resolve="result" />
                    </node>
                  </node>
                </node>
                <node concept="3clFbF" id="4nxgFhR8gOu" role="3cqZAp">
                  <node concept="37vLTI" id="4nxgFhR8gOv" role="3clFbG">
                    <node concept="37vLTw" id="3GM_nagT_8E" role="37vLTJ">
                      <ref role="3cqZAo" node="4nxgFhR8gNZ" resolve="resultReversed" />
                    </node>
                    <node concept="2OqwBi" id="4nxgFhR8gOx" role="37vLTx">
                      <node concept="2GrUjf" id="4nxgFhR8gOy" role="2Oq$k0">
                        <ref role="2Gs0qQ" node="4nxgFhR8gO7" resolve="operatorEntry" />
                      </node>
                      <node concept="3AV6Ez" id="4nxgFhR8gOz" role="2OqNvi" />
                    </node>
                  </node>
                </node>
              </node>
              <node concept="1rXfSq" id="4hiugqyskEu" role="3clFbw">
                <ref role="37wK5l" node="4nxgFhR8gMI" resolve="isSubTypeOperator" />
                <node concept="37vLTw" id="3GM_nagTxW_" role="37wK5m">
                  <ref role="3cqZAo" node="4nxgFhR8gOb" resolve="operator" />
                </node>
                <node concept="37vLTw" id="3GM_nagTrZy" role="37wK5m">
                  <ref role="3cqZAo" node="4nxgFhR8gNh" resolve="result" />
                </node>
                <node concept="37vLTw" id="3GM_nagTu_w" role="37wK5m">
                  <ref role="3cqZAo" node="4nxgFhR8gOh" resolve="reversed" />
                </node>
              </node>
            </node>
          </node>
        </node>
        <node concept="3clFbF" id="4nxgFhR8gOC" role="3cqZAp">
          <node concept="2OqwBi" id="4nxgFhR8gOD" role="3clFbG">
            <node concept="2JrnkZ" id="4nxgFhR8gOE" role="2Oq$k0">
              <node concept="37vLTw" id="2BHiRxglBBR" role="2JrQYb">
                <ref role="3cqZAo" node="4nxgFhR8gOT" resolve="node" />
              </node>
            </node>
            <node concept="liA8E" id="4nxgFhR8gOG" role="2OqNvi">
              <ref role="37wK5l" to="mhbf:~SNode.putUserObject(java.lang.Object,java.lang.Object):void" resolve="putUserObject" />
              <node concept="Xl_RD" id="4nxgFhR8gOH" role="37wK5m">
                <property role="Xl_RC" value="operator" />
              </node>
              <node concept="37vLTw" id="3GM_nagTrfS" role="37wK5m">
                <ref role="3cqZAo" node="4nxgFhR8gNh" resolve="result" />
              </node>
            </node>
          </node>
        </node>
        <node concept="3clFbF" id="4nxgFhR8gOJ" role="3cqZAp">
          <node concept="2OqwBi" id="4nxgFhR8gOK" role="3clFbG">
            <node concept="2JrnkZ" id="4nxgFhR8gOL" role="2Oq$k0">
              <node concept="37vLTw" id="2BHiRxgmFo_" role="2JrQYb">
                <ref role="3cqZAo" node="4nxgFhR8gOT" resolve="node" />
              </node>
            </node>
            <node concept="liA8E" id="4nxgFhR8gON" role="2OqNvi">
              <ref role="37wK5l" to="mhbf:~SNode.putUserObject(java.lang.Object,java.lang.Object):void" resolve="putUserObject" />
              <node concept="Xl_RD" id="4nxgFhR8gOO" role="37wK5m">
                <property role="Xl_RC" value="reversed" />
              </node>
              <node concept="37vLTw" id="3GM_nagT_8n" role="37wK5m">
                <ref role="3cqZAo" node="4nxgFhR8gNZ" resolve="resultReversed" />
              </node>
            </node>
          </node>
        </node>
        <node concept="3cpWs6" id="4nxgFhR8gOQ" role="3cqZAp">
          <node concept="37vLTw" id="3GM_nagTwLF" role="3cqZAk">
            <ref role="3cqZAo" node="4nxgFhR8gNh" resolve="result" />
          </node>
        </node>
      </node>
      <node concept="3Tm1VV" id="4nxgFhR8gN5" role="1B3o_S" />
    </node>
  </node>
</model>

