<?xml version="1.0" encoding="UTF-8"?>
<model ref="r:00000000-0000-4000-0000-011c895902dc(jetbrains.mps.baseLanguage.blTypes.editor)">
  <persistence version="9" />
  <languages>
    <use id="18bc6592-03a6-4e29-a83a-7ff23bde13ba" name="jetbrains.mps.lang.editor" version="3" />
  </languages>
  <imports>
    <import index="tpdt" ref="r:00000000-0000-4000-0000-011c895902dd(jetbrains.mps.baseLanguage.blTypes.structure)" />
    <import index="tpck" ref="r:00000000-0000-4000-0000-011c89590288(jetbrains.mps.lang.core.structure)" />
  </imports>
  <registry>
    <language id="18bc6592-03a6-4e29-a83a-7ff23bde13ba" name="jetbrains.mps.lang.editor">
      <concept id="1071666914219" name="jetbrains.mps.lang.editor.structure.ConceptEditorDeclaration" flags="ig" index="24kQdi" />
      <concept id="1140524381322" name="jetbrains.mps.lang.editor.structure.CellModel_ListWithRole" flags="ng" index="2czfm3">
        <property id="1140524450557" name="separatorText" index="2czwfO" />
        <child id="1140524464360" name="cellLayout" index="2czzBx" />
      </concept>
      <concept id="1237303669825" name="jetbrains.mps.lang.editor.structure.CellLayout_Indent" flags="nn" index="l2Vlx" />
      <concept id="1080736578640" name="jetbrains.mps.lang.editor.structure.BaseEditorComponent" flags="ig" index="2wURMF">
        <child id="1080736633877" name="cellModel" index="2wV5jI" />
      </concept>
      <concept id="1186403751766" name="jetbrains.mps.lang.editor.structure.FontStyleStyleClassItem" flags="ln" index="Vb9p2">
        <property id="1186403771423" name="style" index="Vbekb" />
      </concept>
      <concept id="1088013125922" name="jetbrains.mps.lang.editor.structure.CellModel_RefCell" flags="sg" stub="730538219795941030" index="1iCGBv">
        <child id="1088186146602" name="editorComponent" index="1sWHZn" />
      </concept>
      <concept id="1088185857835" name="jetbrains.mps.lang.editor.structure.InlineEditorComponent" flags="ig" index="1sVBvm" />
      <concept id="1215007762405" name="jetbrains.mps.lang.editor.structure.FloatStyleClassItem" flags="ln" index="3$6MrZ">
        <property id="1215007802031" name="value" index="3$6WeP" />
      </concept>
      <concept id="1215007897487" name="jetbrains.mps.lang.editor.structure.PaddingRightStyleClassItem" flags="ln" index="3$7jql" />
      <concept id="1139848536355" name="jetbrains.mps.lang.editor.structure.CellModel_WithRole" flags="ng" index="1$h60E">
        <property id="1140017977771" name="readOnly" index="1Intyy" />
        <reference id="1140103550593" name="relationDeclaration" index="1NtTu8" />
      </concept>
      <concept id="1073389446423" name="jetbrains.mps.lang.editor.structure.CellModel_Collection" flags="sn" stub="3013115976261988961" index="3EZMnI">
        <child id="1106270802874" name="cellLayout" index="2iSdaV" />
        <child id="1073389446424" name="childCellModel" index="3EZMnx" />
      </concept>
      <concept id="1073389577006" name="jetbrains.mps.lang.editor.structure.CellModel_Constant" flags="sn" stub="3610246225209162225" index="3F0ifn">
        <property id="1073389577007" name="text" index="3F0ifm" />
      </concept>
      <concept id="1073389658414" name="jetbrains.mps.lang.editor.structure.CellModel_Property" flags="sg" stub="730538219796134133" index="3F0A7n" />
      <concept id="1219418625346" name="jetbrains.mps.lang.editor.structure.IStyleContainer" flags="ng" index="3F0Thp">
        <child id="1219418656006" name="styleItem" index="3F10Kt" />
      </concept>
      <concept id="1073390211982" name="jetbrains.mps.lang.editor.structure.CellModel_RefNodeList" flags="sg" stub="2794558372793454595" index="3F2HdR" />
      <concept id="1166049232041" name="jetbrains.mps.lang.editor.structure.AbstractComponent" flags="ng" index="1XWOmA">
        <reference id="1166049300910" name="conceptDeclaration" index="1XX52x" />
      </concept>
    </language>
  </registry>
  <node concept="24kQdi" id="gRDMIcq">
    <ref role="1XX52x" to="tpdt:gRDMI7h" resolve="PrimitiveTypeDescriptor" />
    <node concept="3EZMnI" id="gRDMIcr" role="2wV5jI">
      <node concept="3F0ifn" id="gRDMIcs" role="3EZMnx">
        <property role="3F0ifm" value="Primitive" />
      </node>
      <node concept="3F0A7n" id="gRDMIct" role="3EZMnx">
        <ref role="1NtTu8" to="tpck:h0TrG11" resolve="name" />
        <node concept="Vb9p2" id="hEUNQZg" role="3F10Kt">
          <property role="Vbekb" value="ITALIC" />
        </node>
      </node>
      <node concept="3F0ifn" id="gRDMIcu" role="3EZMnx">
        <property role="3F0ifm" value="extends" />
      </node>
      <node concept="3F2HdR" id="gRDMIcv" role="3EZMnx">
        <property role="2czwfO" value="," />
        <ref role="1NtTu8" to="tpdt:gRDMI7g" />
        <node concept="l2Vlx" id="i0NSiLk" role="2czzBx" />
      </node>
      <node concept="l2Vlx" id="i0I8OMN" role="2iSdaV" />
    </node>
  </node>
  <node concept="24kQdi" id="gRDMZCx">
    <ref role="1XX52x" to="tpdt:gRDMZzC" resolve="PrimitiveTypeRef" />
    <node concept="3EZMnI" id="gRDMZCy" role="2wV5jI">
      <node concept="1iCGBv" id="gRDMZCz" role="3EZMnx">
        <ref role="1NtTu8" to="tpdt:gRDMZzB" />
        <node concept="1sVBvm" id="gRDMZC$" role="1sWHZn">
          <node concept="3F0A7n" id="gRDMZC_" role="2wV5jI">
            <property role="1Intyy" value="true" />
            <ref role="1NtTu8" to="tpck:h0TrG11" resolve="name" />
            <node concept="Vb9p2" id="hEUNQYf" role="3F10Kt">
              <property role="Vbekb" value="ITALIC" />
            </node>
            <node concept="3$7jql" id="hPGIslb" role="3F10Kt">
              <property role="3$6WeP" value="0.0" />
            </node>
          </node>
        </node>
      </node>
      <node concept="l2Vlx" id="i0I8Q3X" role="2iSdaV" />
    </node>
  </node>
</model>

