<?xml version="1.0" encoding="UTF-8"?>
<model ref="r:00000000-0000-4000-0000-011c895902dd(jetbrains.mps.baseLanguage.blTypes.structure)">
  <persistence version="9" />
  <languages>
    <use id="c72da2b9-7cce-4447-8389-f407dc1158b7" name="jetbrains.mps.lang.structure" version="3" />
    <use id="982eb8df-2c96-4bd7-9963-11712ea622e5" name="jetbrains.mps.lang.resources" version="2" />
  </languages>
  <imports>
    <import index="tpck" ref="r:00000000-0000-4000-0000-011c89590288(jetbrains.mps.lang.core.structure)" />
  </imports>
  <registry>
    <language id="982eb8df-2c96-4bd7-9963-11712ea622e5" name="jetbrains.mps.lang.resources">
      <concept id="8974276187400029883" name="jetbrains.mps.lang.resources.structure.FileIcon" flags="ng" index="1QGGSu">
        <property id="2756621024541341363" name="file" index="1iqoE4" />
      </concept>
    </language>
    <language id="c72da2b9-7cce-4447-8389-f407dc1158b7" name="jetbrains.mps.lang.structure">
      <concept id="1169125787135" name="jetbrains.mps.lang.structure.structure.AbstractConceptDeclaration" flags="ig" index="PkWjJ">
        <property id="6714410169261853888" name="conceptId" index="EcuMT" />
        <child id="1071489727083" name="linkDeclaration" index="1TKVEi" />
      </concept>
      <concept id="1169127622168" name="jetbrains.mps.lang.structure.structure.InterfaceConceptReference" flags="ig" index="PrWs8">
        <reference id="1169127628841" name="intfc" index="PrY4T" />
      </concept>
      <concept id="1071489090640" name="jetbrains.mps.lang.structure.structure.ConceptDeclaration" flags="ig" index="1TIwiD">
        <property id="1096454100552" name="rootable" index="19KtqR" />
        <reference id="1071489389519" name="extends" index="1TJDcQ" />
        <child id="6327362524875300597" name="icon" index="rwd14" />
        <child id="1169129564478" name="implements" index="PzmwI" />
      </concept>
      <concept id="1071489288298" name="jetbrains.mps.lang.structure.structure.LinkDeclaration" flags="ig" index="1TJgyj">
        <property id="1071599776563" name="role" index="20kJfa" />
        <property id="1071599893252" name="sourceCardinality" index="20lbJX" />
        <property id="1071599937831" name="metaClass" index="20lmBu" />
        <property id="241647608299431140" name="linkId" index="IQ2ns" />
        <reference id="1071599976176" name="target" index="20lvS9" />
      </concept>
    </language>
    <language id="ceab5195-25ea-4f22-9b92-103b95ca8c0c" name="jetbrains.mps.lang.core">
      <concept id="1169194658468" name="jetbrains.mps.lang.core.structure.INamedConcept" flags="ng" index="TrEIO">
        <property id="1169194664001" name="name" index="TrG5h" />
      </concept>
    </language>
  </registry>
  <node concept="1TIwiD" id="gRDMI7h">
    <property role="19KtqR" value="true" />
    <property role="TrG5h" value="PrimitiveTypeDescriptor" />
    <property role="EcuMT" value="1159268590033" />
    <ref role="1TJDcQ" to="tpck:gw2VY9q" resolve="BaseConcept" />
    <node concept="1TJgyj" id="gRDMI7g" role="1TKVEi">
      <property role="20lmBu" value="aggregation" />
      <property role="20kJfa" value="extends" />
      <property role="20lbJX" value="0..n" />
      <property role="IQ2ns" value="1159268590032" />
      <ref role="20lvS9" node="gRDMZzC" resolve="PrimitiveTypeRef" />
    </node>
    <node concept="PrWs8" id="hJVCj0r" role="PzmwI">
      <ref role="PrY4T" to="tpck:h0TrEE$" resolve="INamedConcept" />
    </node>
    <node concept="1QGGSu" id="4Q8sAA5iJPJ" role="rwd14">
      <property role="1iqoE4" value="${module}/icons/primitive.png" />
    </node>
  </node>
  <node concept="1TIwiD" id="gRDMZzC">
    <property role="TrG5h" value="PrimitiveTypeRef" />
    <property role="EcuMT" value="1159268661480" />
    <ref role="1TJDcQ" to="tpck:gw2VY9q" resolve="BaseConcept" />
    <node concept="1TJgyj" id="gRDMZzB" role="1TKVEi">
      <property role="20kJfa" value="descriptor" />
      <property role="20lbJX" value="1" />
      <property role="IQ2ns" value="1159268661479" />
      <ref role="20lvS9" node="gRDMI7h" resolve="PrimitiveTypeDescriptor" />
    </node>
    <node concept="PrWs8" id="1$21UiM4N0a" role="PzmwI">
      <ref role="PrY4T" to="tpck:19gBtYEAf4C" resolve="InterfacePart" />
    </node>
  </node>
</model>

