<?xml version="1.0" encoding="UTF-8"?>
<model ref="r:983279f4-89a9-45ad-aeeb-5621fd5cbb63(jetbrains.mps.baseLnaguage.extensionMethods.sandbox)">
  <persistence version="9" />
  <languages>
    <use id="5dc5fc0d-37ef-4782-8192-8b5ce1f69f80" name="jetbrains.mps.baseLanguage.extensionMethods" version="0" />
    <use id="f3061a53-9226-4cc5-a443-f952ceaf5816" name="jetbrains.mps.baseLanguage" version="4" />
    <devkit ref="fbc25dd2-5da4-483a-8b19-70928e1b62d7(jetbrains.mps.devkit.general-purpose)" />
  </languages>
  <imports>
    <import index="wyt6" ref="6354ebe7-c22a-4a0f-ac54-50b52ab9b065/java:java.lang(JDK/)" />
    <import index="33ny" ref="6354ebe7-c22a-4a0f-ac54-50b52ab9b065/java:java.util(JDK/)" />
  </imports>
  <registry>
    <language id="5dc5fc0d-37ef-4782-8192-8b5ce1f69f80" name="jetbrains.mps.baseLanguage.extensionMethods">
      <concept id="8022092943110829337" name="jetbrains.mps.baseLanguage.extensionMethods.structure.BaseExtensionMethodContainer" flags="ng" index="a7sou">
        <child id="8022092943110829339" name="methods" index="a7sos" />
        <child id="1973189701690661983" name="staticFields" index="1gQj7b" />
      </concept>
      <concept id="8022092943109322131" name="jetbrains.mps.baseLanguage.extensionMethods.structure.SimpleExtensionMethodsContainer" flags="ng" index="apGqk" />
      <concept id="1550313277221324859" name="jetbrains.mps.baseLanguage.extensionMethods.structure.ExtensionMethodCall" flags="nn" index="AQDAd" />
      <concept id="1550313277222152185" name="jetbrains.mps.baseLanguage.extensionMethods.structure.ExtensionMethodDeclaration" flags="ng" index="ATzpf">
        <child id="8022092943109605394" name="extendedType" index="aoRGl" />
      </concept>
      <concept id="1894531970723270160" name="jetbrains.mps.baseLanguage.extensionMethods.structure.TypeExtension" flags="ng" index="KRBjq">
        <child id="1894531970723323134" name="type" index="KRMoO" />
      </concept>
      <concept id="7685333756920172912" name="jetbrains.mps.baseLanguage.extensionMethods.structure.LocalExtendedMethodCall" flags="nn" index="Vb5G_" />
      <concept id="3316739663067157299" name="jetbrains.mps.baseLanguage.extensionMethods.structure.ThisExtensionExpression" flags="nn" index="2V_BSl" />
      <concept id="1973189701691027447" name="jetbrains.mps.baseLanguage.extensionMethods.structure.ExtensionStaticFieldDeclaration" flags="ng" index="1gCC9z" />
      <concept id="1973189701690850247" name="jetbrains.mps.baseLanguage.extensionMethods.structure.ExtensionStaticFieldReference" flags="nn" index="1gRXpj" />
    </language>
    <language id="f3061a53-9226-4cc5-a443-f952ceaf5816" name="jetbrains.mps.baseLanguage">
      <concept id="1215693861676" name="jetbrains.mps.baseLanguage.structure.BaseAssignmentExpression" flags="nn" index="d038R">
        <child id="1068498886297" name="rValue" index="37vLTx" />
        <child id="1068498886295" name="lValue" index="37vLTJ" />
      </concept>
      <concept id="1215695189714" name="jetbrains.mps.baseLanguage.structure.PlusAssignmentExpression" flags="nn" index="d57v9" />
      <concept id="1202948039474" name="jetbrains.mps.baseLanguage.structure.InstanceMethodCallOperation" flags="nn" index="liA8E" />
      <concept id="1154032098014" name="jetbrains.mps.baseLanguage.structure.AbstractLoopStatement" flags="nn" index="2LF5Ji">
        <child id="1154032183016" name="body" index="2LFqv$" />
      </concept>
      <concept id="1197027756228" name="jetbrains.mps.baseLanguage.structure.DotExpression" flags="nn" index="2OqwBi">
        <child id="1197027771414" name="operand" index="2Oq$k0" />
        <child id="1197027833540" name="operation" index="2OqNvi" />
      </concept>
      <concept id="1145552977093" name="jetbrains.mps.baseLanguage.structure.GenericNewExpression" flags="nn" index="2ShNRf">
        <child id="1145553007750" name="creator" index="2ShVmc" />
      </concept>
      <concept id="1070462154015" name="jetbrains.mps.baseLanguage.structure.StaticFieldDeclaration" flags="ig" index="Wx3nA" />
      <concept id="1070475926800" name="jetbrains.mps.baseLanguage.structure.StringLiteral" flags="nn" index="Xl_RD">
        <property id="1070475926801" name="value" index="Xl_RC" />
      </concept>
      <concept id="1070534058343" name="jetbrains.mps.baseLanguage.structure.NullLiteral" flags="nn" index="10Nm6u" />
      <concept id="1070534370425" name="jetbrains.mps.baseLanguage.structure.IntegerType" flags="in" index="10Oyi0" />
      <concept id="1068390468198" name="jetbrains.mps.baseLanguage.structure.ClassConcept" flags="ig" index="312cEu" />
      <concept id="1068431474542" name="jetbrains.mps.baseLanguage.structure.VariableDeclaration" flags="ng" index="33uBYm">
        <child id="1068431790190" name="initializer" index="33vP2m" />
      </concept>
      <concept id="1109279763828" name="jetbrains.mps.baseLanguage.structure.TypeVariableDeclaration" flags="ng" index="16euLQ" />
      <concept id="1109279851642" name="jetbrains.mps.baseLanguage.structure.GenericDeclaration" flags="ng" index="16eOlS">
        <child id="1109279881614" name="typeVariableDeclaration" index="16eVyc" />
      </concept>
      <concept id="1109283449304" name="jetbrains.mps.baseLanguage.structure.TypeVariableReference" flags="in" index="16syzq">
        <reference id="1109283546497" name="typeVariableDeclaration" index="16sUi3" />
      </concept>
      <concept id="1092119917967" name="jetbrains.mps.baseLanguage.structure.MulExpression" flags="nn" index="17qRlL" />
      <concept id="1068498886296" name="jetbrains.mps.baseLanguage.structure.VariableReference" flags="nn" index="37vLTw">
        <reference id="1068581517664" name="variableDeclaration" index="3cqZAo" />
      </concept>
      <concept id="1068498886292" name="jetbrains.mps.baseLanguage.structure.ParameterDeclaration" flags="ir" index="37vLTG" />
      <concept id="1068498886294" name="jetbrains.mps.baseLanguage.structure.AssignmentExpression" flags="nn" index="37vLTI" />
      <concept id="1225271177708" name="jetbrains.mps.baseLanguage.structure.StringType" flags="in" index="17QB3L" />
      <concept id="4972933694980447171" name="jetbrains.mps.baseLanguage.structure.BaseVariableDeclaration" flags="ng" index="19Szcq">
        <child id="5680397130376446158" name="type" index="1tU5fm" />
      </concept>
      <concept id="1068580123132" name="jetbrains.mps.baseLanguage.structure.BaseMethodDeclaration" flags="ng" index="3clF44">
        <child id="1068580123133" name="returnType" index="3clF45" />
        <child id="1068580123134" name="parameter" index="3clF46" />
        <child id="1068580123135" name="body" index="3clF47" />
      </concept>
      <concept id="1068580123165" name="jetbrains.mps.baseLanguage.structure.InstanceMethodDeclaration" flags="ig" index="3clFb_" />
      <concept id="1068580123155" name="jetbrains.mps.baseLanguage.structure.ExpressionStatement" flags="nn" index="3clFbF">
        <child id="1068580123156" name="expression" index="3clFbG" />
      </concept>
      <concept id="1068580123157" name="jetbrains.mps.baseLanguage.structure.Statement" flags="nn" index="3clFbH" />
      <concept id="1068580123136" name="jetbrains.mps.baseLanguage.structure.StatementList" flags="sn" stub="5293379017992965193" index="3clFbS">
        <child id="1068581517665" name="statement" index="3cqZAp" />
      </concept>
      <concept id="1068580123140" name="jetbrains.mps.baseLanguage.structure.ConstructorDeclaration" flags="ig" index="3clFbW" />
      <concept id="1068580320020" name="jetbrains.mps.baseLanguage.structure.IntegerConstant" flags="nn" index="3cmrfG">
        <property id="1068580320021" name="value" index="3cmrfH" />
      </concept>
      <concept id="1068581242875" name="jetbrains.mps.baseLanguage.structure.PlusExpression" flags="nn" index="3cpWs3" />
      <concept id="1068581242878" name="jetbrains.mps.baseLanguage.structure.ReturnStatement" flags="nn" index="3cpWs6">
        <child id="1068581517676" name="expression" index="3cqZAk" />
      </concept>
      <concept id="1068581242864" name="jetbrains.mps.baseLanguage.structure.LocalVariableDeclarationStatement" flags="nn" index="3cpWs8">
        <child id="1068581242865" name="localVariableDeclaration" index="3cpWs9" />
      </concept>
      <concept id="1068581242863" name="jetbrains.mps.baseLanguage.structure.LocalVariableDeclaration" flags="nr" index="3cpWsn" />
      <concept id="1068581517677" name="jetbrains.mps.baseLanguage.structure.VoidType" flags="in" index="3cqZAl" />
      <concept id="1204053956946" name="jetbrains.mps.baseLanguage.structure.IMethodCall" flags="ng" index="1ndlxa">
        <reference id="1068499141037" name="baseMethodDeclaration" index="37wK5l" />
        <child id="1068499141038" name="actualArgument" index="37wK5m" />
        <child id="4972241301747169160" name="typeArgument" index="3PaCim" />
      </concept>
      <concept id="1212685548494" name="jetbrains.mps.baseLanguage.structure.ClassCreator" flags="nn" index="1pGfFk">
        <child id="1212687122400" name="typeParameter" index="1pMfVU" />
      </concept>
      <concept id="1107461130800" name="jetbrains.mps.baseLanguage.structure.Classifier" flags="ng" index="3pOWGL">
        <child id="5375687026011219971" name="member" index="jymVt" unordered="true" />
      </concept>
      <concept id="1171903916106" name="jetbrains.mps.baseLanguage.structure.UpperBoundType" flags="in" index="3qUE_q">
        <child id="1171903916107" name="bound" index="3qUE_r" />
      </concept>
      <concept id="1107535904670" name="jetbrains.mps.baseLanguage.structure.ClassifierType" flags="in" index="3uibUv">
        <reference id="1107535924139" name="classifier" index="3uigEE" />
        <child id="1109201940907" name="parameter" index="11_B2D" />
      </concept>
      <concept id="1081773326031" name="jetbrains.mps.baseLanguage.structure.BinaryOperation" flags="nn" index="3uHJSO">
        <child id="1081773367579" name="rightExpression" index="3uHU7w" />
        <child id="1081773367580" name="leftExpression" index="3uHU7B" />
      </concept>
      <concept id="1178549954367" name="jetbrains.mps.baseLanguage.structure.IVisible" flags="ng" index="1B3ioH">
        <child id="1178549979242" name="visibility" index="1B3o_S" />
      </concept>
      <concept id="1144226303539" name="jetbrains.mps.baseLanguage.structure.ForeachStatement" flags="nn" index="1DcWWT">
        <child id="1144226360166" name="iterable" index="1DdaDG" />
      </concept>
      <concept id="1144230876926" name="jetbrains.mps.baseLanguage.structure.AbstractForStatement" flags="nn" index="1DupvO">
        <child id="1144230900587" name="variable" index="1Duv9x" />
      </concept>
      <concept id="1146644602865" name="jetbrains.mps.baseLanguage.structure.PublicVisibility" flags="nn" index="3Tm1VV" />
      <concept id="1146644623116" name="jetbrains.mps.baseLanguage.structure.PrivateVisibility" flags="nn" index="3Tm6S6" />
    </language>
    <language id="ceab5195-25ea-4f22-9b92-103b95ca8c0c" name="jetbrains.mps.lang.core">
      <concept id="1169194658468" name="jetbrains.mps.lang.core.structure.INamedConcept" flags="ng" index="TrEIO">
        <property id="1169194664001" name="name" index="TrG5h" />
      </concept>
    </language>
  </registry>
  <node concept="KRBjq" id="5SZJ3zZTB8Z">
    <property role="TrG5h" value="StringExtensionMethods" />
    <node concept="ATzpf" id="5SZJ3zZTB96" role="a7sos">
      <property role="TrG5h" value="foo" />
      <node concept="17QB3L" id="5SZJ3zZTB9j" role="3clF45" />
      <node concept="3clFbS" id="5SZJ3zZTB98" role="3clF47">
        <node concept="3clFbF" id="6EBM_lhyQTd" role="3cqZAp">
          <node concept="Vb5G_" id="6xkNu_iwnMm" role="3clFbG">
            <ref role="37wK5l" to="wyt6:~String.charAt(int):char" resolve="charAt" />
            <node concept="3cmrfG" id="6EBM_lhyQTk" role="37wK5m">
              <property role="3cmrfH" value="2" />
            </node>
          </node>
        </node>
        <node concept="3clFbF" id="6EBM_lhyT4F" role="3cqZAp">
          <node concept="Vb5G_" id="6xkNu_iwnLl" role="3clFbG">
            <ref role="37wK5l" to="wyt6:~String.charAt(int):char" resolve="charAt" />
            <node concept="3cmrfG" id="6EBM_lhyT4J" role="37wK5m">
              <property role="3cmrfH" value="3" />
            </node>
          </node>
        </node>
        <node concept="3clFbF" id="6EBM_lhz7$6" role="3cqZAp">
          <node concept="Vb5G_" id="6EBM_lhz7$7" role="3clFbG">
            <ref role="37wK5l" to="wyt6:~String.charAt(int):char" resolve="charAt" />
            <node concept="3cmrfG" id="6EBM_lhz7$8" role="37wK5m">
              <property role="3cmrfH" value="4" />
            </node>
          </node>
        </node>
        <node concept="3clFbF" id="6EBM_lhz7$a" role="3cqZAp">
          <node concept="Vb5G_" id="6xkNu_iwnLk" role="3clFbG">
            <ref role="37wK5l" to="wyt6:~String.contains(java.lang.CharSequence):boolean" resolve="contains" />
            <node concept="Xl_RD" id="6EBM_lhz7$h" role="37wK5m">
              <property role="Xl_RC" value="" />
            </node>
          </node>
        </node>
        <node concept="3clFbF" id="6EBM_lhz7$j" role="3cqZAp">
          <node concept="Vb5G_" id="6xkNu_iwnLj" role="3clFbG">
            <ref role="37wK5l" to="wyt6:~String.contains(java.lang.CharSequence):boolean" resolve="contains" />
            <node concept="Xl_RD" id="6EBM_lhz7$n" role="37wK5m">
              <property role="Xl_RC" value="" />
            </node>
          </node>
        </node>
        <node concept="3clFbF" id="6EBM_lhz7$p" role="3cqZAp">
          <node concept="Vb5G_" id="6EBM_lhz7$q" role="3clFbG">
            <ref role="37wK5l" to="wyt6:~String.contains(java.lang.CharSequence):boolean" resolve="contains" />
            <node concept="Xl_RD" id="6EBM_lhz7$r" role="37wK5m">
              <property role="Xl_RC" value="df" />
            </node>
          </node>
        </node>
        <node concept="3clFbF" id="6xkNu_iwjx9" role="3cqZAp">
          <node concept="Vb5G_" id="6xkNu_iwjxa" role="3clFbG">
            <ref role="37wK5l" to="wyt6:~String.charAt(int):char" resolve="charAt" />
            <node concept="3cmrfG" id="6xkNu_iwjxb" role="37wK5m">
              <property role="3cmrfH" value="1" />
            </node>
          </node>
        </node>
        <node concept="3clFbF" id="AconhCZAPr" role="3cqZAp">
          <node concept="Vb5G_" id="AconhCZAPz" role="3clFbG">
            <ref role="37wK5l" to="wyt6:~String.charAt(int):char" resolve="charAt" />
            <node concept="3cmrfG" id="AconhCZAPy" role="37wK5m">
              <property role="3cmrfH" value="1" />
            </node>
          </node>
        </node>
        <node concept="3cpWs6" id="5SZJ3zZTB9l" role="3cqZAp">
          <node concept="3cpWs3" id="5SZJ3zZTCqs" role="3cqZAk">
            <node concept="1gRXpj" id="5SZJ3zZTCqv" role="3uHU7w">
              <ref role="3cqZAo" node="5SZJ3zZTB94" resolve="str" />
            </node>
            <node concept="2V_BSl" id="5SZJ3zZTB9n" role="3uHU7B" />
          </node>
        </node>
      </node>
      <node concept="3Tm1VV" id="5SZJ3zZTB9i" role="1B3o_S" />
    </node>
    <node concept="ATzpf" id="6EBM_lhyT4K" role="a7sos">
      <property role="TrG5h" value="foo2" />
      <node concept="3Tm1VV" id="6EBM_lhyT4L" role="1B3o_S" />
      <node concept="17QB3L" id="6EBM_lhyT4O" role="3clF45" />
      <node concept="3clFbS" id="6EBM_lhyT4N" role="3clF47">
        <node concept="3clFbF" id="6EBM_lhyT4P" role="3cqZAp">
          <node concept="2OqwBi" id="6EBM_lhyT4Q" role="3clFbG">
            <node concept="AQDAd" id="6EBM_lhyT4R" role="2OqNvi">
              <ref role="37wK5l" node="5SZJ3zZTB96" resolve="foo" />
            </node>
            <node concept="2V_BSl" id="6EBM_lhyT4S" role="2Oq$k0" />
          </node>
        </node>
      </node>
      <node concept="16euLQ" id="6xkNu_iwnpD" role="16eVyc">
        <property role="TrG5h" value="T" />
      </node>
    </node>
    <node concept="ATzpf" id="3VdvqYUcHPN" role="a7sos">
      <property role="TrG5h" value="safeCast" />
      <node concept="3Tm1VV" id="3VdvqYUcHPO" role="1B3o_S" />
      <node concept="3clFbS" id="3VdvqYUcHPQ" role="3clF47">
        <node concept="3clFbF" id="3VdvqYUcHPY" role="3cqZAp">
          <node concept="10Nm6u" id="3VdvqYUcHPZ" role="3clFbG" />
        </node>
      </node>
      <node concept="16euLQ" id="3VdvqYUcHPS" role="16eVyc">
        <property role="TrG5h" value="T" />
      </node>
      <node concept="3uibUv" id="3VdvqYUcKiS" role="3clF45">
        <ref role="3uigEE" to="wyt6:~Iterable" resolve="Iterable" />
        <node concept="16syzq" id="3VdvqYUcKiU" role="11_B2D">
          <ref role="16sUi3" node="3VdvqYUcHPS" resolve="T" />
        </node>
      </node>
      <node concept="37vLTG" id="3VdvqYUcHPU" role="3clF46">
        <property role="TrG5h" value="iterable" />
        <node concept="3uibUv" id="3VdvqYUcVNi" role="1tU5fm">
          <ref role="3uigEE" to="wyt6:~Iterable" resolve="Iterable" />
          <node concept="3qUE_q" id="3VdvqYUcVOz" role="11_B2D">
            <node concept="16syzq" id="3VdvqYUcVO_" role="3qUE_r">
              <ref role="16sUi3" node="3VdvqYUcHPS" resolve="T" />
            </node>
          </node>
        </node>
      </node>
    </node>
    <node concept="ATzpf" id="3VdvqYUcHQ0" role="a7sos">
      <property role="TrG5h" value="testFoo3" />
      <node concept="3Tm1VV" id="3VdvqYUcHQ1" role="1B3o_S" />
      <node concept="3clFbS" id="3VdvqYUcHQ3" role="3clF47">
        <node concept="3cpWs8" id="3VdvqYUcHRL" role="3cqZAp">
          <node concept="3cpWsn" id="3VdvqYUcHRM" role="3cpWs9">
            <property role="TrG5h" value="list" />
            <node concept="3uibUv" id="3VdvqYUcHRN" role="1tU5fm">
              <ref role="3uigEE" to="33ny:~List" resolve="List" />
              <node concept="3uibUv" id="3VdvqYUcHRP" role="11_B2D">
                <ref role="3uigEE" to="wyt6:~String" resolve="String" />
              </node>
            </node>
            <node concept="10Nm6u" id="3VdvqYUcHRR" role="33vP2m" />
          </node>
        </node>
        <node concept="3cpWs8" id="3VdvqYUcKjA" role="3cqZAp">
          <node concept="3cpWsn" id="3VdvqYUcKjB" role="3cpWs9">
            <property role="TrG5h" value="my" />
            <node concept="3uibUv" id="3VdvqYUcKjC" role="1tU5fm">
              <ref role="3uigEE" to="wyt6:~Iterable" resolve="Iterable" />
              <node concept="3uibUv" id="3VdvqYUcKjE" role="11_B2D">
                <ref role="3uigEE" to="wyt6:~Object" resolve="Object" />
              </node>
            </node>
            <node concept="2OqwBi" id="3VdvqYUcKk1" role="33vP2m">
              <node concept="2V_BSl" id="3VdvqYUcKjG" role="2Oq$k0" />
              <node concept="AQDAd" id="3VdvqYUcKk7" role="2OqNvi">
                <ref role="37wK5l" node="3VdvqYUcHPN" resolve="safeCast" />
                <node concept="37vLTw" id="3GM_nagT_KX" role="37wK5m">
                  <ref role="3cqZAo" node="3VdvqYUcHRM" resolve="list" />
                </node>
                <node concept="3uibUv" id="3VdvqYUcVOB" role="3PaCim">
                  <ref role="3uigEE" to="wyt6:~Object" resolve="Object" />
                </node>
              </node>
            </node>
          </node>
        </node>
        <node concept="3clFbF" id="3VdvqYUddQB" role="3cqZAp">
          <node concept="2OqwBi" id="3VdvqYUddRl" role="3clFbG">
            <node concept="37vLTw" id="3GM_nagTBpy" role="2Oq$k0">
              <ref role="3cqZAo" node="3VdvqYUcKjB" resolve="my" />
            </node>
            <node concept="liA8E" id="3VdvqYUddSr" role="2OqNvi">
              <ref role="37wK5l" to="wyt6:~Object.hashCode():int" resolve="hashCode" />
            </node>
          </node>
        </node>
      </node>
      <node concept="3cqZAl" id="3VdvqYUcHQ4" role="3clF45" />
    </node>
    <node concept="1gCC9z" id="5SZJ3zZTB94" role="1gQj7b">
      <property role="TrG5h" value="str" />
      <node concept="17QB3L" id="5SZJ3zZTB9b" role="1tU5fm" />
      <node concept="Xl_RD" id="5SZJ3zZTB9g" role="33vP2m">
        <property role="Xl_RC" value="str" />
      </node>
    </node>
    <node concept="1gCC9z" id="5SZJ3zZTB99" role="1gQj7b">
      <property role="TrG5h" value="a" />
      <node concept="10Oyi0" id="5SZJ3zZTB9c" role="1tU5fm" />
      <node concept="3cmrfG" id="5SZJ3zZTB9e" role="33vP2m">
        <property role="3cmrfH" value="0" />
      </node>
    </node>
    <node concept="17QB3L" id="5SZJ3zZTB93" role="KRMoO" />
  </node>
  <node concept="apGqk" id="5SZJ3zZTB91">
    <property role="TrG5h" value="Abc" />
    <node concept="ATzpf" id="2FW7B7OQM5l" role="a7sos">
      <property role="TrG5h" value="foo" />
      <node concept="3cqZAl" id="2FW7B7OQM5o" role="3clF45" />
      <node concept="3clFbS" id="2FW7B7OQM5n" role="3clF47">
        <node concept="3cpWs8" id="2FW7B7OQM5p" role="3cqZAp">
          <node concept="3cpWsn" id="2FW7B7OQM5q" role="3cpWs9">
            <property role="TrG5h" value="a" />
            <node concept="10Oyi0" id="2FW7B7OQM5r" role="1tU5fm" />
            <node concept="17qRlL" id="2FW7B7OQM5v" role="33vP2m">
              <node concept="3cmrfG" id="2FW7B7OQM5y" role="3uHU7w">
                <property role="3cmrfH" value="2" />
              </node>
              <node concept="1gRXpj" id="2FW7B7OQM5u" role="3uHU7B">
                <ref role="3cqZAo" node="5SZJ3zZTCqY" resolve="b" />
              </node>
            </node>
          </node>
        </node>
      </node>
      <node concept="10Oyi0" id="2FW7B7OQM6f" role="aoRGl" />
    </node>
    <node concept="ATzpf" id="6xkNu_iwnBJ" role="a7sos">
      <property role="TrG5h" value="sum" />
      <node concept="3Tm1VV" id="6xkNu_iwnBK" role="1B3o_S" />
      <node concept="10Oyi0" id="6xkNu_iwnCe" role="3clF45" />
      <node concept="3clFbS" id="6xkNu_iwnBM" role="3clF47">
        <node concept="3cpWs8" id="6xkNu_iwnBR" role="3cqZAp">
          <node concept="3cpWsn" id="6xkNu_iwnBS" role="3cpWs9">
            <property role="TrG5h" value="res" />
            <node concept="10Oyi0" id="6xkNu_iwnBT" role="1tU5fm" />
            <node concept="3cmrfG" id="6xkNu_iwnBV" role="33vP2m">
              <property role="3cmrfH" value="0" />
            </node>
          </node>
        </node>
        <node concept="1DcWWT" id="6xkNu_iwnBX" role="3cqZAp">
          <node concept="3cpWsn" id="6xkNu_iwnBY" role="1Duv9x">
            <property role="TrG5h" value="a" />
            <node concept="10Oyi0" id="6xkNu_iwnC2" role="1tU5fm" />
          </node>
          <node concept="3clFbS" id="6xkNu_iwnBZ" role="2LFqv$">
            <node concept="3clFbF" id="6xkNu_iwnC4" role="3cqZAp">
              <node concept="d57v9" id="6xkNu_iwnC6" role="3clFbG">
                <node concept="37vLTw" id="3GM_nagTyT7" role="37vLTx">
                  <ref role="3cqZAo" node="6xkNu_iwnBY" resolve="a" />
                </node>
                <node concept="37vLTw" id="3GM_nagTwrX" role="37vLTJ">
                  <ref role="3cqZAo" node="6xkNu_iwnBS" resolve="res" />
                </node>
              </node>
            </node>
          </node>
          <node concept="2V_BSl" id="6xkNu_iwnC3" role="1DdaDG" />
        </node>
        <node concept="3clFbH" id="6xkNu_iwnIL" role="3cqZAp" />
        <node concept="3cpWs6" id="6xkNu_iwnCb" role="3cqZAp">
          <node concept="37vLTw" id="3GM_nagTvEn" role="3cqZAk">
            <ref role="3cqZAo" node="6xkNu_iwnBS" resolve="res" />
          </node>
        </node>
      </node>
      <node concept="3uibUv" id="6xkNu_iwnCN" role="aoRGl">
        <ref role="3uigEE" to="33ny:~LinkedList" resolve="LinkedList" />
        <node concept="3uibUv" id="6xkNu_iwnCP" role="11_B2D">
          <ref role="3uigEE" to="wyt6:~Integer" resolve="Integer" />
        </node>
      </node>
    </node>
    <node concept="1gCC9z" id="5SZJ3zZTCqY" role="1gQj7b">
      <property role="TrG5h" value="b" />
      <node concept="10Oyi0" id="5SZJ3zZTCr0" role="1tU5fm" />
      <node concept="3cmrfG" id="5SZJ3zZTCr2" role="33vP2m">
        <property role="3cmrfH" value="2" />
      </node>
    </node>
  </node>
  <node concept="312cEu" id="2FW7B7OPm_l">
    <property role="TrG5h" value="Test" />
    <node concept="3Tm1VV" id="2FW7B7OPm_m" role="1B3o_S" />
    <node concept="Wx3nA" id="2FW7B7OPnjF" role="jymVt">
      <property role="TrG5h" value="d" />
      <node concept="3Tm6S6" id="2FW7B7OPnjG" role="1B3o_S" />
      <node concept="10Oyi0" id="2FW7B7OPnjI" role="1tU5fm" />
      <node concept="3cmrfG" id="2FW7B7OPnjK" role="33vP2m">
        <property role="3cmrfH" value="3" />
      </node>
    </node>
    <node concept="3clFbW" id="2FW7B7OPm_n" role="jymVt">
      <node concept="3cqZAl" id="2FW7B7OPm_o" role="3clF45" />
      <node concept="3Tm1VV" id="2FW7B7OPm_p" role="1B3o_S" />
      <node concept="3clFbS" id="2FW7B7OPm_q" role="3clF47" />
    </node>
    <node concept="3clFb_" id="2FW7B7OPm_r" role="jymVt">
      <property role="TrG5h" value="foo" />
      <node concept="3cqZAl" id="2FW7B7OPm_s" role="3clF45" />
      <node concept="3Tm1VV" id="2FW7B7OPm_t" role="1B3o_S" />
      <node concept="3clFbS" id="2FW7B7OPm_u" role="3clF47">
        <node concept="3cpWs8" id="6xkNu_iwnCg" role="3cqZAp">
          <node concept="3cpWsn" id="6xkNu_iwnCh" role="3cpWs9">
            <property role="TrG5h" value="fl" />
            <node concept="2ShNRf" id="6xkNu_iwnCH" role="33vP2m">
              <node concept="1pGfFk" id="6xkNu_iwnCJ" role="2ShVmc">
                <ref role="37wK5l" to="33ny:~LinkedList.&lt;init&gt;()" resolve="LinkedList" />
                <node concept="3uibUv" id="6xkNu_iwnCL" role="1pMfVU">
                  <ref role="3uigEE" to="wyt6:~Integer" resolve="Integer" />
                </node>
              </node>
            </node>
            <node concept="3uibUv" id="6xkNu_iwnCD" role="1tU5fm">
              <ref role="3uigEE" to="33ny:~LinkedList" resolve="LinkedList" />
              <node concept="3uibUv" id="6xkNu_iwnCF" role="11_B2D">
                <ref role="3uigEE" to="wyt6:~Integer" resolve="Integer" />
              </node>
            </node>
          </node>
        </node>
        <node concept="3clFbF" id="6xkNu_iwnCQ" role="3cqZAp">
          <node concept="2OqwBi" id="6xkNu_iwnCS" role="3clFbG">
            <node concept="37vLTw" id="3GM_nagTtnG" role="2Oq$k0">
              <ref role="3cqZAo" node="6xkNu_iwnCh" resolve="fl" />
            </node>
            <node concept="AQDAd" id="6xkNu_iwnCW" role="2OqNvi">
              <ref role="37wK5l" node="6xkNu_iwnBJ" resolve="sum" />
            </node>
          </node>
        </node>
        <node concept="3clFbF" id="2FW7B7OPnjM" role="3cqZAp">
          <node concept="37vLTI" id="2FW7B7OPnjO" role="3clFbG">
            <node concept="3cmrfG" id="2FW7B7OPnjR" role="37vLTx">
              <property role="3cmrfH" value="3" />
            </node>
            <node concept="37vLTw" id="2BHiRxeold2" role="37vLTJ">
              <ref role="3cqZAo" node="2FW7B7OPnjF" resolve="d" />
            </node>
          </node>
        </node>
      </node>
    </node>
  </node>
</model>

