<?xml version="1.0" encoding="UTF-8"?>
<model ref="r:9e3cf32c-e5a6-495e-bbac-365ec913b4e2(jetbrains.mps.core.xml.sax.actions)">
  <persistence version="9" />
  <languages>
    <use id="aee9cad2-acd4-4608-aef2-0004f6a1cdbd" name="jetbrains.mps.lang.actions" version="0" />
    <devkit ref="fbc25dd2-5da4-483a-8b19-70928e1b62d7(jetbrains.mps.devkit.general-purpose)" />
  </languages>
  <imports>
    <import index="nv7r" ref="r:7fae86c9-9d2f-4341-8a38-92d558a78a9a(jetbrains.mps.core.xml.sax.structure)" implicit="true" />
    <import index="tpee" ref="r:00000000-0000-4000-0000-011c895902ca(jetbrains.mps.baseLanguage.structure)" implicit="true" />
  </imports>
  <registry>
    <language id="f3061a53-9226-4cc5-a443-f952ceaf5816" name="jetbrains.mps.baseLanguage">
      <concept id="1215693861676" name="jetbrains.mps.baseLanguage.structure.BaseAssignmentExpression" flags="nn" index="d038R">
        <child id="1068498886297" name="rValue" index="37vLTx" />
        <child id="1068498886295" name="lValue" index="37vLTJ" />
      </concept>
      <concept id="1197027756228" name="jetbrains.mps.baseLanguage.structure.DotExpression" flags="nn" index="2OqwBi">
        <child id="1197027771414" name="operand" index="2Oq$k0" />
        <child id="1197027833540" name="operation" index="2OqNvi" />
      </concept>
      <concept id="1145552977093" name="jetbrains.mps.baseLanguage.structure.GenericNewExpression" flags="nn" index="2ShNRf">
        <child id="1145553007750" name="creator" index="2ShVmc" />
      </concept>
      <concept id="1137021947720" name="jetbrains.mps.baseLanguage.structure.ConceptFunction" flags="in" index="2VMwT0">
        <child id="1137022507850" name="body" index="2VODD2" />
      </concept>
      <concept id="1068431474542" name="jetbrains.mps.baseLanguage.structure.VariableDeclaration" flags="ng" index="33uBYm">
        <child id="1068431790190" name="initializer" index="33vP2m" />
      </concept>
      <concept id="1068498886296" name="jetbrains.mps.baseLanguage.structure.VariableReference" flags="nn" index="37vLTw">
        <reference id="1068581517664" name="variableDeclaration" index="3cqZAo" />
      </concept>
      <concept id="1068498886294" name="jetbrains.mps.baseLanguage.structure.AssignmentExpression" flags="nn" index="37vLTI" />
      <concept id="4972933694980447171" name="jetbrains.mps.baseLanguage.structure.BaseVariableDeclaration" flags="ng" index="19Szcq">
        <child id="5680397130376446158" name="type" index="1tU5fm" />
      </concept>
      <concept id="1068580123155" name="jetbrains.mps.baseLanguage.structure.ExpressionStatement" flags="nn" index="3clFbF">
        <child id="1068580123156" name="expression" index="3clFbG" />
      </concept>
      <concept id="1068580123136" name="jetbrains.mps.baseLanguage.structure.StatementList" flags="sn" stub="5293379017992965193" index="3clFbS">
        <child id="1068581517665" name="statement" index="3cqZAp" />
      </concept>
      <concept id="1068581242864" name="jetbrains.mps.baseLanguage.structure.LocalVariableDeclarationStatement" flags="nn" index="3cpWs8">
        <child id="1068581242865" name="localVariableDeclaration" index="3cpWs9" />
      </concept>
      <concept id="1068581242863" name="jetbrains.mps.baseLanguage.structure.LocalVariableDeclaration" flags="nr" index="3cpWsn" />
    </language>
    <language id="aee9cad2-acd4-4608-aef2-0004f6a1cdbd" name="jetbrains.mps.lang.actions">
      <concept id="1177323996388" name="jetbrains.mps.lang.actions.structure.AddMenuPart" flags="ng" index="tYCnQ" />
      <concept id="1177333529597" name="jetbrains.mps.lang.actions.structure.ConceptPart" flags="ng" index="uyZFJ">
        <reference id="1177333551023" name="concept" index="uz4UX" />
        <child id="1177333559040" name="part" index="uz6Si" />
      </concept>
      <concept id="1177402519659" name="jetbrains.mps.lang.actions.structure.WrapperSubstituteMenuPart" flags="ng" index="yEb5T">
        <reference id="1177402731616" name="wrappedConcept" index="yEYPM" />
        <child id="1177402719158" name="wrapperBlock" index="yEVE$" />
      </concept>
      <concept id="1177402571666" name="jetbrains.mps.lang.actions.structure.QueryFunction_SubstituteWrapper" flags="in" index="yEnE0" />
      <concept id="1177402641904" name="jetbrains.mps.lang.actions.structure.ConceptFunctionParameter_nodeToWrap" flags="nn" index="yECNy" />
      <concept id="1112056943463" name="jetbrains.mps.lang.actions.structure.NodeSubstituteActions" flags="ng" index="3FK_9_">
        <child id="1112058057696" name="actionsBuilder" index="3FOPby" />
      </concept>
      <concept id="1112058030570" name="jetbrains.mps.lang.actions.structure.NodeSubstituteActionsBuilder" flags="ig" index="3FOIzC">
        <reference id="1112058088712" name="applicableConcept" index="3FOWKa" />
        <child id="1177324142645" name="part" index="tZc4B" />
      </concept>
    </language>
    <language id="7866978e-a0f0-4cc7-81bc-4d213d9375e1" name="jetbrains.mps.lang.smodel">
      <concept id="1180636770613" name="jetbrains.mps.lang.smodel.structure.SNodeCreator" flags="nn" index="3zrR0B">
        <child id="1180636770616" name="createdType" index="3zrR0E" />
      </concept>
      <concept id="1138055754698" name="jetbrains.mps.lang.smodel.structure.SNodeType" flags="in" index="3Tqbb2">
        <reference id="1138405853777" name="concept" index="ehGHo" />
      </concept>
      <concept id="1138056143562" name="jetbrains.mps.lang.smodel.structure.SLinkAccess" flags="nn" index="3TrEf2">
        <reference id="1138056516764" name="link" index="3Tt5mk" />
      </concept>
    </language>
    <language id="ceab5195-25ea-4f22-9b92-103b95ca8c0c" name="jetbrains.mps.lang.core">
      <concept id="1169194658468" name="jetbrains.mps.lang.core.structure.INamedConcept" flags="ng" index="TrEIO">
        <property id="1169194664001" name="name" index="TrG5h" />
      </concept>
    </language>
  </registry>
  <node concept="3FK_9_" id="460Ozqr9YtN">
    <property role="TrG5h" value="ctor_XMLSAXNodeParam" />
    <node concept="3FOIzC" id="460Ozqr9YuC" role="3FOPby">
      <ref role="3FOWKa" to="nv7r:QrUm5N2YfH" resolve="XMLSAXNodeRuleParam" />
      <node concept="tYCnQ" id="460Ozqr9YuE" role="tZc4B">
        <ref role="uz4UX" to="nv7r:QrUm5N2YfH" resolve="XMLSAXNodeRuleParam" />
        <node concept="yEb5T" id="460Ozqr9YuG" role="uz6Si">
          <ref role="yEYPM" to="tpee:fz3vP1H" resolve="Type" />
          <node concept="yEnE0" id="460Ozqr9YuH" role="yEVE$">
            <node concept="3clFbS" id="460Ozqr9YuI" role="2VODD2">
              <node concept="3cpWs8" id="460Ozqr9Z6f" role="3cqZAp">
                <node concept="3cpWsn" id="460Ozqr9Z6i" role="3cpWs9">
                  <property role="TrG5h" value="res" />
                  <node concept="2ShNRf" id="460Ozqr9ZfY" role="33vP2m">
                    <node concept="3zrR0B" id="460Ozqr9Zo8" role="2ShVmc">
                      <node concept="3Tqbb2" id="460Ozqr9Zoa" role="3zrR0E">
                        <ref role="ehGHo" to="nv7r:QrUm5N2YfH" resolve="XMLSAXNodeRuleParam" />
                      </node>
                    </node>
                  </node>
                  <node concept="3Tqbb2" id="460Ozqr9Z6e" role="1tU5fm">
                    <ref role="ehGHo" to="nv7r:QrUm5N2YfH" resolve="XMLSAXNodeRuleParam" />
                  </node>
                </node>
              </node>
              <node concept="3clFbF" id="460Ozqr9ZCg" role="3cqZAp">
                <node concept="37vLTI" id="460Ozqra3oo" role="3clFbG">
                  <node concept="2OqwBi" id="460Ozqr9ZKw" role="37vLTJ">
                    <node concept="3TrEf2" id="460Ozqra26o" role="2OqNvi">
                      <ref role="3Tt5mk" to="tpee:4VkOLwjf83e" />
                    </node>
                    <node concept="37vLTw" id="460Ozqr9ZCf" role="2Oq$k0">
                      <ref role="3cqZAo" node="460Ozqr9Z6i" resolve="res" />
                    </node>
                  </node>
                  <node concept="yECNy" id="460Ozqra3y$" role="37vLTx" />
                </node>
              </node>
              <node concept="3clFbF" id="460Ozqr9Zzw" role="3cqZAp">
                <node concept="37vLTw" id="460Ozqr9Zzv" role="3clFbG">
                  <ref role="3cqZAo" node="460Ozqr9Z6i" resolve="res" />
                </node>
              </node>
            </node>
          </node>
        </node>
      </node>
    </node>
  </node>
</model>

