<?xml version="1.0" encoding="UTF-8"?>
<model ref="r:00000000-0000-4000-0000-011c89590515(jetbrains.mps.baseLanguage.regexp.constraints)">
  <persistence version="9" />
  <languages>
    <use id="83888646-71ce-4f1c-9c53-c54016f6ad4f" name="jetbrains.mps.baseLanguage.collections" version="0" />
    <use id="3f4bc5f5-c6c1-4a28-8b10-c83066ffa4a1" name="jetbrains.mps.lang.constraints" version="0" />
    <use id="7a5dda62-9140-4668-ab76-d5ed1746f2b2" name="jetbrains.mps.lang.typesystem" version="0" />
    <use id="7866978e-a0f0-4cc7-81bc-4d213d9375e1" name="jetbrains.mps.lang.smodel" version="4" />
    <use id="f3061a53-9226-4cc5-a443-f952ceaf5816" name="jetbrains.mps.baseLanguage" version="4" />
    <devkit ref="fbc25dd2-5da4-483a-8b19-70928e1b62d7(jetbrains.mps.devkit.general-purpose)" />
  </languages>
  <imports>
    <import index="tpfo" ref="r:00000000-0000-4000-0000-011c89590518(jetbrains.mps.baseLanguage.regexp.structure)" />
    <import index="wyt6" ref="6354ebe7-c22a-4a0f-ac54-50b52ab9b065/java:java.lang(JDK/)" />
    <import index="tpee" ref="r:00000000-0000-4000-0000-011c895902ca(jetbrains.mps.baseLanguage.structure)" />
    <import index="tpfs" ref="r:00000000-0000-4000-0000-011c89590514(jetbrains.mps.baseLanguage.regexp.behavior)" />
    <import index="tpck" ref="r:00000000-0000-4000-0000-011c89590288(jetbrains.mps.lang.core.structure)" implicit="true" />
  </imports>
  <registry>
    <language id="f3061a53-9226-4cc5-a443-f952ceaf5816" name="jetbrains.mps.baseLanguage">
      <concept id="1082485599095" name="jetbrains.mps.baseLanguage.structure.BlockStatement" flags="nn" index="9aQIb">
        <child id="1082485599096" name="statements" index="9aQI4" />
      </concept>
      <concept id="1215693861676" name="jetbrains.mps.baseLanguage.structure.BaseAssignmentExpression" flags="nn" index="d038R">
        <child id="1068498886297" name="rValue" index="37vLTx" />
        <child id="1068498886295" name="lValue" index="37vLTJ" />
      </concept>
      <concept id="1202948039474" name="jetbrains.mps.baseLanguage.structure.InstanceMethodCallOperation" flags="nn" index="liA8E" />
      <concept id="1076505808687" name="jetbrains.mps.baseLanguage.structure.WhileStatement" flags="nn" index="2$JKZl">
        <child id="1076505808688" name="condition" index="2$JKZa" />
      </concept>
      <concept id="1154032098014" name="jetbrains.mps.baseLanguage.structure.AbstractLoopStatement" flags="nn" index="2LF5Ji">
        <child id="1154032183016" name="body" index="2LFqv$" />
      </concept>
      <concept id="1197027756228" name="jetbrains.mps.baseLanguage.structure.DotExpression" flags="nn" index="2OqwBi">
        <child id="1197027771414" name="operand" index="2Oq$k0" />
        <child id="1197027833540" name="operation" index="2OqNvi" />
      </concept>
      <concept id="1145552977093" name="jetbrains.mps.baseLanguage.structure.GenericNewExpression" flags="nn" index="2ShNRf">
        <child id="1145553007750" name="creator" index="2ShVmc" />
      </concept>
      <concept id="1137021947720" name="jetbrains.mps.baseLanguage.structure.ConceptFunction" flags="in" index="2VMwT0">
        <child id="1137022507850" name="body" index="2VODD2" />
      </concept>
      <concept id="1070475926800" name="jetbrains.mps.baseLanguage.structure.StringLiteral" flags="nn" index="Xl_RD">
        <property id="1070475926801" name="value" index="Xl_RC" />
      </concept>
      <concept id="1081236700938" name="jetbrains.mps.baseLanguage.structure.StaticMethodDeclaration" flags="ig" index="2YIFZL" />
      <concept id="1081236700937" name="jetbrains.mps.baseLanguage.structure.StaticMethodCall" flags="nn" index="2YIFZM">
        <reference id="1144433194310" name="classConcept" index="1Pybhc" />
      </concept>
      <concept id="1070534058343" name="jetbrains.mps.baseLanguage.structure.NullLiteral" flags="nn" index="10Nm6u" />
      <concept id="1070534644030" name="jetbrains.mps.baseLanguage.structure.BooleanType" flags="in" index="10P_77" />
      <concept id="1068390468198" name="jetbrains.mps.baseLanguage.structure.ClassConcept" flags="ig" index="312cEu" />
      <concept id="1068431474542" name="jetbrains.mps.baseLanguage.structure.VariableDeclaration" flags="ng" index="33uBYm">
        <child id="1068431790190" name="initializer" index="33vP2m" />
      </concept>
      <concept id="1068498886296" name="jetbrains.mps.baseLanguage.structure.VariableReference" flags="nn" index="37vLTw">
        <reference id="1068581517664" name="variableDeclaration" index="3cqZAo" />
      </concept>
      <concept id="1068498886292" name="jetbrains.mps.baseLanguage.structure.ParameterDeclaration" flags="ir" index="37vLTG" />
      <concept id="1068498886294" name="jetbrains.mps.baseLanguage.structure.AssignmentExpression" flags="nn" index="37vLTI" />
      <concept id="1225271408483" name="jetbrains.mps.baseLanguage.structure.IsNotEmptyOperation" flags="nn" index="17RvpY" />
      <concept id="4972933694980447171" name="jetbrains.mps.baseLanguage.structure.BaseVariableDeclaration" flags="ng" index="19Szcq">
        <child id="5680397130376446158" name="type" index="1tU5fm" />
      </concept>
      <concept id="1068580123132" name="jetbrains.mps.baseLanguage.structure.BaseMethodDeclaration" flags="ng" index="3clF44">
        <child id="1068580123133" name="returnType" index="3clF45" />
        <child id="1068580123134" name="parameter" index="3clF46" />
        <child id="1068580123135" name="body" index="3clF47" />
      </concept>
      <concept id="1068580123152" name="jetbrains.mps.baseLanguage.structure.EqualsExpression" flags="nn" index="3clFbC" />
      <concept id="1068580123155" name="jetbrains.mps.baseLanguage.structure.ExpressionStatement" flags="nn" index="3clFbF">
        <child id="1068580123156" name="expression" index="3clFbG" />
      </concept>
      <concept id="1068580123157" name="jetbrains.mps.baseLanguage.structure.Statement" flags="nn" index="3clFbH" />
      <concept id="1068580123159" name="jetbrains.mps.baseLanguage.structure.IfStatement" flags="nn" index="3clFbJ">
        <child id="1082485599094" name="ifFalseStatement" index="9aQIa" />
        <child id="1068580123160" name="condition" index="3clFbw" />
        <child id="1068580123161" name="ifTrue" index="3clFbx" />
      </concept>
      <concept id="1068580123136" name="jetbrains.mps.baseLanguage.structure.StatementList" flags="sn" stub="5293379017992965193" index="3clFbS">
        <child id="1068581517665" name="statement" index="3cqZAp" />
      </concept>
      <concept id="1068580123137" name="jetbrains.mps.baseLanguage.structure.BooleanConstant" flags="nn" index="3clFbT">
        <property id="1068580123138" name="value" index="3clFbU" />
      </concept>
      <concept id="1068580123140" name="jetbrains.mps.baseLanguage.structure.ConstructorDeclaration" flags="ig" index="3clFbW" />
      <concept id="1068580320020" name="jetbrains.mps.baseLanguage.structure.IntegerConstant" flags="nn" index="3cmrfG">
        <property id="1068580320021" name="value" index="3cmrfH" />
      </concept>
      <concept id="1068581242875" name="jetbrains.mps.baseLanguage.structure.PlusExpression" flags="nn" index="3cpWs3" />
      <concept id="1068581242878" name="jetbrains.mps.baseLanguage.structure.ReturnStatement" flags="nn" index="3cpWs6">
        <child id="1068581517676" name="expression" index="3cqZAk" />
      </concept>
      <concept id="1068581242864" name="jetbrains.mps.baseLanguage.structure.LocalVariableDeclarationStatement" flags="nn" index="3cpWs8">
        <child id="1068581242865" name="localVariableDeclaration" index="3cpWs9" />
      </concept>
      <concept id="1068581242869" name="jetbrains.mps.baseLanguage.structure.MinusExpression" flags="nn" index="3cpWsd" />
      <concept id="1068581242863" name="jetbrains.mps.baseLanguage.structure.LocalVariableDeclaration" flags="nr" index="3cpWsn" />
      <concept id="1068581517677" name="jetbrains.mps.baseLanguage.structure.VoidType" flags="in" index="3cqZAl" />
      <concept id="1081506773034" name="jetbrains.mps.baseLanguage.structure.LessThanExpression" flags="nn" index="3eOVzh" />
      <concept id="1204053956946" name="jetbrains.mps.baseLanguage.structure.IMethodCall" flags="ng" index="1ndlxa">
        <reference id="1068499141037" name="baseMethodDeclaration" index="37wK5l" />
        <child id="1068499141038" name="actualArgument" index="37wK5m" />
      </concept>
      <concept id="1107461130800" name="jetbrains.mps.baseLanguage.structure.Classifier" flags="ng" index="3pOWGL">
        <child id="5375687026011219971" name="member" index="jymVt" unordered="true" />
      </concept>
      <concept id="7812454656619025412" name="jetbrains.mps.baseLanguage.structure.LocalMethodCall" flags="nn" index="1rXfSq" />
      <concept id="1081773326031" name="jetbrains.mps.baseLanguage.structure.BinaryOperation" flags="nn" index="3uHJSO">
        <child id="1081773367579" name="rightExpression" index="3uHU7w" />
        <child id="1081773367580" name="leftExpression" index="3uHU7B" />
      </concept>
      <concept id="1073239437375" name="jetbrains.mps.baseLanguage.structure.NotEqualsExpression" flags="nn" index="3y3z36" />
      <concept id="1081855346303" name="jetbrains.mps.baseLanguage.structure.BreakStatement" flags="nn" index="3zACq4" />
      <concept id="1178549954367" name="jetbrains.mps.baseLanguage.structure.IVisible" flags="ng" index="1B3ioH">
        <child id="1178549979242" name="visibility" index="1B3o_S" />
      </concept>
      <concept id="1144226303539" name="jetbrains.mps.baseLanguage.structure.ForeachStatement" flags="nn" index="1DcWWT">
        <child id="1144226360166" name="iterable" index="1DdaDG" />
      </concept>
      <concept id="1144230876926" name="jetbrains.mps.baseLanguage.structure.AbstractForStatement" flags="nn" index="1DupvO">
        <child id="1144230900587" name="variable" index="1Duv9x" />
      </concept>
      <concept id="1163668896201" name="jetbrains.mps.baseLanguage.structure.TernaryOperatorExpression" flags="nn" index="3K4zz7">
        <child id="1163668914799" name="condition" index="3K4Cdx" />
        <child id="1163668922816" name="ifTrue" index="3K4E3e" />
        <child id="1163668934364" name="ifFalse" index="3K4GZi" />
      </concept>
      <concept id="1146644602865" name="jetbrains.mps.baseLanguage.structure.PublicVisibility" flags="nn" index="3Tm1VV" />
      <concept id="1146644623116" name="jetbrains.mps.baseLanguage.structure.PrivateVisibility" flags="nn" index="3Tm6S6" />
      <concept id="1080120340718" name="jetbrains.mps.baseLanguage.structure.AndExpression" flags="nn" index="1Wc70l" />
      <concept id="1200397529627" name="jetbrains.mps.baseLanguage.structure.CharConstant" flags="nn" index="1Xhbcc">
        <property id="1200397540847" name="charConstant" index="1XhdNS" />
      </concept>
    </language>
    <language id="3f4bc5f5-c6c1-4a28-8b10-c83066ffa4a1" name="jetbrains.mps.lang.constraints">
      <concept id="1148934636683" name="jetbrains.mps.lang.constraints.structure.ConceptParameter_ReferentSearchScope_enclosingNode" flags="nn" index="21POm0" />
      <concept id="1202989531578" name="jetbrains.mps.lang.constraints.structure.ConstraintFunction_CanBeAChild" flags="in" index="nKS2y" />
      <concept id="1202989658459" name="jetbrains.mps.lang.constraints.structure.ConstraintFunctionParameter_parentNode" flags="nn" index="nLn13" />
      <concept id="3906442776579556545" name="jetbrains.mps.lang.constraints.structure.ConstraintFunction_ReferentSearchScope_Presentation" flags="in" index="Bn3R3" />
      <concept id="3906442776579549644" name="jetbrains.mps.lang.constraints.structure.ConstraintFunctionParameter_parameterNode" flags="nn" index="Bn53e" />
      <concept id="1147467115080" name="jetbrains.mps.lang.constraints.structure.NodePropertyConstraint" flags="ng" index="EnEH3">
        <reference id="1147467295099" name="applicableProperty" index="EomxK" />
        <child id="1147468630220" name="propertyGetter" index="EtsB7" />
        <child id="1212097481299" name="propertyValidator" index="QCWH9" />
      </concept>
      <concept id="1147467790433" name="jetbrains.mps.lang.constraints.structure.ConstraintFunction_PropertyGetter" flags="in" index="Eqf_E" />
      <concept id="1147468365020" name="jetbrains.mps.lang.constraints.structure.ConstraintsFunctionParameter_node" flags="nn" index="EsrRn" />
      <concept id="1212096972063" name="jetbrains.mps.lang.constraints.structure.ConstraintFunction_PropertyValidator" flags="in" index="QB0g5" />
      <concept id="6768994795311967741" name="jetbrains.mps.lang.constraints.structure.ConstraintFunctionParameter_smartReference" flags="nn" index="18Yu4q" />
      <concept id="1213093968558" name="jetbrains.mps.lang.constraints.structure.ConceptConstraints" flags="ng" index="1M2fIO">
        <reference id="1213093996982" name="concept" index="1M2myG" />
        <child id="1213098023997" name="property" index="1MhHOB" />
        <child id="1213100494875" name="referent" index="1Mr941" />
        <child id="1213106463729" name="canBeChild" index="1MLUbF" />
      </concept>
      <concept id="1148684180339" name="jetbrains.mps.lang.constraints.structure.ConstraintFunction_ReferentSearchScope_Factory" flags="in" index="1MUpDS" />
      <concept id="1148687176410" name="jetbrains.mps.lang.constraints.structure.NodeReferentConstraint" flags="ng" index="1N5Pfh">
        <reference id="1148687202698" name="applicableLink" index="1N5Vy1" />
        <child id="3906442776579556548" name="presentation" index="Bn3R6" />
        <child id="1148687345559" name="searchScopeFactory" index="1N6uqs" />
      </concept>
      <concept id="1153138554286" name="jetbrains.mps.lang.constraints.structure.ConstraintsFunctionParameter_propertyValue" flags="nn" index="1Wqviy" />
    </language>
    <language id="7a5dda62-9140-4668-ab76-d5ed1746f2b2" name="jetbrains.mps.lang.typesystem">
      <concept id="1176544042499" name="jetbrains.mps.lang.typesystem.structure.Node_TypeOperation" flags="nn" index="3JvlWi" />
      <concept id="1178870617262" name="jetbrains.mps.lang.typesystem.structure.CoerceExpression" flags="nn" index="1UaxmW">
        <child id="1178870894644" name="pattern" index="1Ub_4A" />
        <child id="1178870894645" name="nodeToCoerce" index="1Ub_4B" />
      </concept>
      <concept id="1174642788531" name="jetbrains.mps.lang.typesystem.structure.ConceptReference" flags="ig" index="1YaCAy">
        <reference id="1174642800329" name="concept" index="1YaFvo" />
      </concept>
    </language>
    <language id="7866978e-a0f0-4cc7-81bc-4d213d9375e1" name="jetbrains.mps.lang.smodel">
      <concept id="1177026924588" name="jetbrains.mps.lang.smodel.structure.RefConcept_Reference" flags="nn" index="chp4Y">
        <reference id="1177026940964" name="conceptDeclaration" index="cht4Q" />
      </concept>
      <concept id="1138411891628" name="jetbrains.mps.lang.smodel.structure.SNodeOperation" flags="nn" index="eCIE_">
        <child id="1144104376918" name="parameter" index="1xVPHs" />
      </concept>
      <concept id="1179409122411" name="jetbrains.mps.lang.smodel.structure.Node_ConceptMethodCall" flags="nn" index="2qgKlT" />
      <concept id="1173122760281" name="jetbrains.mps.lang.smodel.structure.Node_GetAncestorsOperation" flags="nn" index="z$bX8" />
      <concept id="2396822768958367367" name="jetbrains.mps.lang.smodel.structure.AbstractTypeCastExpression" flags="nn" index="$5XWr">
        <reference id="6733348108486823428" name="concept" index="1m5ApE" />
        <child id="6733348108486823193" name="leftExpression" index="1m5AlR" />
      </concept>
      <concept id="1145383075378" name="jetbrains.mps.lang.smodel.structure.SNodeListType" flags="in" index="2I9FWS">
        <reference id="1145383142433" name="elementConcept" index="2I9WkF" />
      </concept>
      <concept id="1171305280644" name="jetbrains.mps.lang.smodel.structure.Node_GetDescendantsOperation" flags="nn" index="2Rf3mk" />
      <concept id="1145567426890" name="jetbrains.mps.lang.smodel.structure.SNodeListCreator" flags="nn" index="2T8Vx0">
        <child id="1145567471833" name="createdType" index="2T96Bj" />
      </concept>
      <concept id="1171407110247" name="jetbrains.mps.lang.smodel.structure.Node_GetAncestorOperation" flags="nn" index="2Xjw5R" />
      <concept id="1139613262185" name="jetbrains.mps.lang.smodel.structure.Node_GetParentOperation" flags="nn" index="1mfA1w" />
      <concept id="1139621453865" name="jetbrains.mps.lang.smodel.structure.Node_IsInstanceOfOperation" flags="nn" index="1mIQ4w">
        <child id="1177027386292" name="conceptArgument" index="cj9EA" />
      </concept>
      <concept id="1172008320231" name="jetbrains.mps.lang.smodel.structure.Node_IsNotNullOperation" flags="nn" index="3x8VRR" />
      <concept id="1144100932627" name="jetbrains.mps.lang.smodel.structure.OperationParm_Inclusion" flags="ng" index="1xIGOp" />
      <concept id="1144101972840" name="jetbrains.mps.lang.smodel.structure.OperationParm_Concept" flags="ng" index="1xMEDy">
        <child id="1207343664468" name="conceptArgument" index="ri$Ld" />
      </concept>
      <concept id="1140137987495" name="jetbrains.mps.lang.smodel.structure.SNodeTypeCastExpression" flags="nn" index="1PxgMI" />
      <concept id="1138055754698" name="jetbrains.mps.lang.smodel.structure.SNodeType" flags="in" index="3Tqbb2">
        <reference id="1138405853777" name="concept" index="ehGHo" />
      </concept>
      <concept id="1138056022639" name="jetbrains.mps.lang.smodel.structure.SPropertyAccess" flags="nn" index="3TrcHB">
        <reference id="1138056395725" name="property" index="3TsBF5" />
      </concept>
      <concept id="1138056143562" name="jetbrains.mps.lang.smodel.structure.SLinkAccess" flags="nn" index="3TrEf2">
        <reference id="1138056516764" name="link" index="3Tt5mk" />
      </concept>
      <concept id="1138056282393" name="jetbrains.mps.lang.smodel.structure.SLinkListAccess" flags="nn" index="3Tsc0h">
        <reference id="1138056546658" name="link" index="3TtcxE" />
      </concept>
    </language>
    <language id="ceab5195-25ea-4f22-9b92-103b95ca8c0c" name="jetbrains.mps.lang.core">
      <concept id="1133920641626" name="jetbrains.mps.lang.core.structure.BaseConcept" flags="ng" index="2VYdi">
        <property id="1193676396447" name="virtualPackage" index="3GE5qa" />
      </concept>
      <concept id="1169194658468" name="jetbrains.mps.lang.core.structure.INamedConcept" flags="ng" index="TrEIO">
        <property id="1169194664001" name="name" index="TrG5h" />
      </concept>
    </language>
    <language id="83888646-71ce-4f1c-9c53-c54016f6ad4f" name="jetbrains.mps.baseLanguage.collections">
      <concept id="540871147943773365" name="jetbrains.mps.baseLanguage.collections.structure.SingleArgumentSequenceOperation" flags="nn" index="25WWJ4">
        <child id="540871147943773366" name="argument" index="25WWJ7" />
      </concept>
      <concept id="1160612413312" name="jetbrains.mps.baseLanguage.collections.structure.AddElementOperation" flags="nn" index="TSZUe" />
      <concept id="1160666733551" name="jetbrains.mps.baseLanguage.collections.structure.AddAllElementsOperation" flags="nn" index="X8dFx" />
      <concept id="1172254888721" name="jetbrains.mps.baseLanguage.collections.structure.ContainsOperation" flags="nn" index="3JPx81" />
    </language>
  </registry>
  <node concept="1M2fIO" id="hDMFMpX">
    <ref role="1M2myG" to="tpfo:h5TxZXu" resolve="MatchVariableReference" />
    <node concept="1N5Pfh" id="hDMFMpY" role="1Mr941">
      <ref role="1N5Vy1" to="tpfo:h5Ty1Yp" />
      <node concept="1MUpDS" id="hDMFMpZ" role="1N6uqs">
        <node concept="3clFbS" id="hDMFMq0" role="2VODD2">
          <node concept="3cpWs6" id="2fFuTuK1YTH" role="3cqZAp">
            <node concept="2YIFZM" id="6XMl2rPap0g" role="3cqZAk">
              <ref role="37wK5l" node="6XMl2rPaoYz" resolve="collectMatchReferences" />
              <ref role="1Pybhc" node="6XMl2rPaoYr" resolve="RegexUtil" />
              <node concept="21POm0" id="2fFuTuK1YTL" role="37wK5m" />
            </node>
          </node>
        </node>
      </node>
    </node>
  </node>
  <node concept="1M2fIO" id="hDMFMN6">
    <ref role="1M2myG" to="tpfo:h6e2xLl" resolve="MatchVariableReferenceRegexp" />
    <node concept="1N5Pfh" id="hDMFMN7" role="1Mr941">
      <ref role="1N5Vy1" to="tpfo:h6e2_cP" />
      <node concept="1MUpDS" id="hDMFMN8" role="1N6uqs">
        <node concept="3clFbS" id="hDMFMN9" role="2VODD2">
          <node concept="3cpWs8" id="hMT8AcE" role="3cqZAp">
            <node concept="3cpWsn" id="hMT8AcF" role="3cpWs9">
              <property role="TrG5h" value="matches" />
              <node concept="2I9FWS" id="hMT8AcG" role="1tU5fm">
                <ref role="2I9WkF" to="tpfo:h5Tukr7" resolve="MatchParensRegexp" />
              </node>
              <node concept="2ShNRf" id="hMT8C$C" role="33vP2m">
                <node concept="2T8Vx0" id="hMT8C$D" role="2ShVmc">
                  <node concept="2I9FWS" id="hMT8C$E" role="2T96Bj">
                    <ref role="2I9WkF" to="tpfo:h5Tukr7" resolve="MatchParensRegexp" />
                  </node>
                </node>
              </node>
            </node>
          </node>
          <node concept="3cpWs8" id="hDMFMNh" role="3cqZAp">
            <node concept="3cpWsn" id="hDMFMNi" role="3cpWs9">
              <property role="TrG5h" value="top" />
              <node concept="3Tqbb2" id="hDMFMNj" role="1tU5fm" />
              <node concept="21POm0" id="hDMFMNk" role="33vP2m" />
            </node>
          </node>
          <node concept="2$JKZl" id="hDMFMNl" role="3cqZAp">
            <node concept="1Wc70l" id="hDMFMNm" role="2$JKZa">
              <node concept="2OqwBi" id="hDMFMNn" role="3uHU7w">
                <node concept="2OqwBi" id="hDMFMNo" role="2Oq$k0">
                  <node concept="37vLTw" id="3GM_nagTwPy" role="2Oq$k0">
                    <ref role="3cqZAo" node="hDMFMNi" resolve="top" />
                  </node>
                  <node concept="1mfA1w" id="hDMFMNq" role="2OqNvi" />
                </node>
                <node concept="1mIQ4w" id="hDMFMNr" role="2OqNvi">
                  <node concept="chp4Y" id="hDMFMNs" role="cj9EA">
                    <ref role="cht4Q" to="tpfo:h5OC6VX" resolve="Regexp" />
                  </node>
                </node>
              </node>
              <node concept="3y3z36" id="hDMFMNt" role="3uHU7B">
                <node concept="2OqwBi" id="hDMFMNu" role="3uHU7B">
                  <node concept="37vLTw" id="3GM_nagTxyW" role="2Oq$k0">
                    <ref role="3cqZAo" node="hDMFMNi" resolve="top" />
                  </node>
                  <node concept="1mfA1w" id="hDMFMNw" role="2OqNvi" />
                </node>
                <node concept="10Nm6u" id="hDMFMNx" role="3uHU7w" />
              </node>
            </node>
            <node concept="3clFbS" id="hDMFMNy" role="2LFqv$">
              <node concept="3clFbF" id="hDMFMNz" role="3cqZAp">
                <node concept="37vLTI" id="hDMFMN$" role="3clFbG">
                  <node concept="37vLTw" id="3GM_nagTBE0" role="37vLTJ">
                    <ref role="3cqZAo" node="hDMFMNi" resolve="top" />
                  </node>
                  <node concept="2OqwBi" id="hDMFMNA" role="37vLTx">
                    <node concept="37vLTw" id="3GM_nagT$XM" role="2Oq$k0">
                      <ref role="3cqZAo" node="hDMFMNi" resolve="top" />
                    </node>
                    <node concept="1mfA1w" id="hDMFMNC" role="2OqNvi" />
                  </node>
                </node>
              </node>
            </node>
          </node>
          <node concept="3clFbF" id="hDMFMND" role="3cqZAp">
            <node concept="2OqwBi" id="hDMFMNE" role="3clFbG">
              <node concept="37vLTw" id="3GM_nagT_sY" role="2Oq$k0">
                <ref role="3cqZAo" node="hMT8AcF" resolve="matches" />
              </node>
              <node concept="X8dFx" id="hDMFMNG" role="2OqNvi">
                <node concept="2OqwBi" id="hDMFMNH" role="25WWJ7">
                  <node concept="37vLTw" id="3GM_nagTtqc" role="2Oq$k0">
                    <ref role="3cqZAo" node="hDMFMNi" resolve="top" />
                  </node>
                  <node concept="2Rf3mk" id="hDMFMNJ" role="2OqNvi">
                    <node concept="1xMEDy" id="hDMFMNK" role="1xVPHs">
                      <node concept="chp4Y" id="hDMFMNL" role="ri$Ld">
                        <ref role="cht4Q" to="tpfo:h5Tukr7" resolve="MatchParensRegexp" />
                      </node>
                    </node>
                    <node concept="1xIGOp" id="hDMFMNM" role="1xVPHs" />
                  </node>
                </node>
              </node>
            </node>
          </node>
          <node concept="3clFbJ" id="hDMFMNN" role="3cqZAp">
            <node concept="2OqwBi" id="hDMFMNO" role="3clFbw">
              <node concept="37vLTw" id="3GM_nagTt0z" role="2Oq$k0">
                <ref role="3cqZAo" node="hDMFMNi" resolve="top" />
              </node>
              <node concept="1mIQ4w" id="hDMFMNQ" role="2OqNvi">
                <node concept="chp4Y" id="hDMFMNR" role="cj9EA">
                  <ref role="cht4Q" to="tpfo:h5Tukr7" resolve="MatchParensRegexp" />
                </node>
              </node>
            </node>
            <node concept="3clFbS" id="hDMFMNS" role="3clFbx">
              <node concept="3clFbF" id="hDMFMNT" role="3cqZAp">
                <node concept="2OqwBi" id="hDMFMNU" role="3clFbG">
                  <node concept="37vLTw" id="3GM_nagTBnI" role="2Oq$k0">
                    <ref role="3cqZAo" node="hMT8AcF" resolve="matches" />
                  </node>
                  <node concept="TSZUe" id="hDMFMNW" role="2OqNvi">
                    <node concept="1PxgMI" id="7BLlDyieGRO" role="25WWJ7">
                      <ref role="1m5ApE" to="tpfo:h5Tukr7" resolve="MatchParensRegexp" />
                      <node concept="37vLTw" id="3GM_nagTwyg" role="1m5AlR">
                        <ref role="3cqZAo" node="hDMFMNi" resolve="top" />
                      </node>
                    </node>
                  </node>
                </node>
              </node>
            </node>
          </node>
          <node concept="3cpWs6" id="hDMFMNY" role="3cqZAp">
            <node concept="37vLTw" id="3GM_nagTt9p" role="3cqZAk">
              <ref role="3cqZAo" node="hMT8AcF" resolve="matches" />
            </node>
          </node>
        </node>
      </node>
      <node concept="Bn3R3" id="7BLlDyieGRU" role="Bn3R6">
        <node concept="3clFbS" id="7BLlDyieGRV" role="2VODD2">
          <node concept="3clFbF" id="7BLlDyieI40" role="3cqZAp">
            <node concept="3K4zz7" id="7BLlDyieI42" role="3clFbG">
              <node concept="3cpWs3" id="7BLlDyieI47" role="3K4E3e">
                <node concept="Xl_RD" id="7BLlDyieI46" role="3uHU7B">
                  <property role="Xl_RC" value="\\" />
                </node>
                <node concept="2OqwBi" id="7BLlDyieI4b" role="3uHU7w">
                  <node concept="Bn53e" id="7BLlDyieI4a" role="2Oq$k0" />
                  <node concept="3TrcHB" id="7BLlDyieI4f" role="2OqNvi">
                    <ref role="3TsBF5" to="tpck:h0TrG11" resolve="name" />
                  </node>
                </node>
              </node>
              <node concept="2OqwBi" id="7BLlDyieI4m" role="3K4GZi">
                <node concept="Bn53e" id="7BLlDyieI4l" role="2Oq$k0" />
                <node concept="3TrcHB" id="7BLlDyieI4q" role="2OqNvi">
                  <ref role="3TsBF5" to="tpck:h0TrG11" resolve="name" />
                </node>
              </node>
              <node concept="18Yu4q" id="7BLlDyieI41" role="3K4Cdx" />
            </node>
          </node>
        </node>
      </node>
    </node>
  </node>
  <node concept="1M2fIO" id="hVb82Cr">
    <property role="3GE5qa" value="Operations" />
    <ref role="1M2myG" to="tpfo:hMkq05M" resolve="ReplaceWithRegexpOperation" />
    <node concept="nKS2y" id="hVb8lvX" role="1MLUbF">
      <node concept="3clFbS" id="hVb8lvY" role="2VODD2">
        <node concept="3cpWs8" id="hVb8pnQ" role="3cqZAp">
          <node concept="3cpWsn" id="hVb8pnR" role="3cpWs9">
            <property role="TrG5h" value="can" />
            <node concept="10P_77" id="hVb8pnS" role="1tU5fm" />
            <node concept="3clFbT" id="hVb8pnT" role="33vP2m">
              <property role="3clFbU" value="false" />
            </node>
          </node>
        </node>
        <node concept="3clFbJ" id="hVb8pnU" role="3cqZAp">
          <node concept="3clFbS" id="hVb8pnV" role="3clFbx">
            <node concept="3cpWs8" id="hVb8pnW" role="3cqZAp">
              <node concept="3cpWsn" id="hVb8pnX" role="3cpWs9">
                <property role="TrG5h" value="type" />
                <node concept="3Tqbb2" id="hVb8pnY" role="1tU5fm" />
                <node concept="2OqwBi" id="hVb8pnZ" role="33vP2m">
                  <node concept="2OqwBi" id="hVb8po0" role="2Oq$k0">
                    <node concept="1PxgMI" id="hVb8po1" role="2Oq$k0">
                      <ref role="1m5ApE" to="tpee:hqOqwz4" resolve="DotExpression" />
                      <node concept="nLn13" id="hVb8po2" role="1m5AlR" />
                    </node>
                    <node concept="3TrEf2" id="hVb8po3" role="2OqNvi">
                      <ref role="3Tt5mk" to="tpee:hqOq$gm" />
                    </node>
                  </node>
                  <node concept="3JvlWi" id="hVb8po4" role="2OqNvi" />
                </node>
              </node>
            </node>
            <node concept="3clFbF" id="hVbbSKQ" role="3cqZAp">
              <node concept="37vLTI" id="hVbbSKR" role="3clFbG">
                <node concept="3y3z36" id="hVbbSKS" role="37vLTx">
                  <node concept="10Nm6u" id="hVbbSKT" role="3uHU7w" />
                  <node concept="1UaxmW" id="hVbbSKU" role="3uHU7B">
                    <node concept="1YaCAy" id="hVbbSKV" role="1Ub_4A">
                      <property role="TrG5h" value="stringType" />
                      <ref role="1YaFvo" to="tpee:hP7QB7G" resolve="StringType" />
                    </node>
                    <node concept="37vLTw" id="3GM_nagTuCs" role="1Ub_4B">
                      <ref role="3cqZAo" node="hVb8pnX" resolve="type" />
                    </node>
                  </node>
                </node>
                <node concept="37vLTw" id="3GM_nagTw_F" role="37vLTJ">
                  <ref role="3cqZAo" node="hVb8pnR" resolve="can" />
                </node>
              </node>
            </node>
          </node>
          <node concept="2OqwBi" id="hVb8pod" role="3clFbw">
            <node concept="nLn13" id="hVb8poe" role="2Oq$k0" />
            <node concept="1mIQ4w" id="hVb8pof" role="2OqNvi">
              <node concept="chp4Y" id="hVb8pog" role="cj9EA">
                <ref role="cht4Q" to="tpee:hqOqwz4" resolve="DotExpression" />
              </node>
            </node>
          </node>
        </node>
        <node concept="3cpWs6" id="hVbaT_r" role="3cqZAp">
          <node concept="37vLTw" id="3GM_nagT_$e" role="3cqZAk">
            <ref role="3cqZAo" node="hVb8pnR" resolve="can" />
          </node>
        </node>
      </node>
    </node>
  </node>
  <node concept="1M2fIO" id="hVb9$7w">
    <property role="3GE5qa" value="Operations" />
    <ref role="1M2myG" to="tpfo:hMkpEUl" resolve="MatchRegexpOperation" />
    <node concept="nKS2y" id="hVb9Bxk" role="1MLUbF">
      <node concept="3clFbS" id="hVb9Bxl" role="2VODD2">
        <node concept="3cpWs8" id="hVb9GD3" role="3cqZAp">
          <node concept="3cpWsn" id="hVb9GD4" role="3cpWs9">
            <property role="TrG5h" value="can" />
            <node concept="10P_77" id="hVb9GD5" role="1tU5fm" />
            <node concept="3clFbT" id="hVb9GD6" role="33vP2m">
              <property role="3clFbU" value="false" />
            </node>
          </node>
        </node>
        <node concept="3clFbJ" id="hVb9GD7" role="3cqZAp">
          <node concept="3clFbS" id="hVb9GD8" role="3clFbx">
            <node concept="3cpWs8" id="hVb9GD9" role="3cqZAp">
              <node concept="3cpWsn" id="hVb9GDa" role="3cpWs9">
                <property role="TrG5h" value="type" />
                <node concept="3Tqbb2" id="hVb9GDb" role="1tU5fm" />
                <node concept="2OqwBi" id="hVb9GDc" role="33vP2m">
                  <node concept="2OqwBi" id="hVb9GDd" role="2Oq$k0">
                    <node concept="1PxgMI" id="hVb9GDe" role="2Oq$k0">
                      <ref role="1m5ApE" to="tpee:hqOqwz4" resolve="DotExpression" />
                      <node concept="nLn13" id="hVb9GDf" role="1m5AlR" />
                    </node>
                    <node concept="3TrEf2" id="hVb9GDg" role="2OqNvi">
                      <ref role="3Tt5mk" to="tpee:hqOq$gm" />
                    </node>
                  </node>
                  <node concept="3JvlWi" id="hVb9GDh" role="2OqNvi" />
                </node>
              </node>
            </node>
            <node concept="3clFbF" id="hVbbMbN" role="3cqZAp">
              <node concept="37vLTI" id="hVbbMbO" role="3clFbG">
                <node concept="3y3z36" id="hVbbMbP" role="37vLTx">
                  <node concept="10Nm6u" id="hVbbMbQ" role="3uHU7w" />
                  <node concept="1UaxmW" id="hVbbMbR" role="3uHU7B">
                    <node concept="1YaCAy" id="hVbbMbS" role="1Ub_4A">
                      <property role="TrG5h" value="stringType" />
                      <ref role="1YaFvo" to="tpee:hP7QB7G" resolve="StringType" />
                    </node>
                    <node concept="37vLTw" id="3GM_nagTwSD" role="1Ub_4B">
                      <ref role="3cqZAo" node="hVb9GDa" resolve="type" />
                    </node>
                  </node>
                </node>
                <node concept="37vLTw" id="3GM_nagT_04" role="37vLTJ">
                  <ref role="3cqZAo" node="hVb9GD4" resolve="can" />
                </node>
              </node>
            </node>
          </node>
          <node concept="2OqwBi" id="hVb9GDq" role="3clFbw">
            <node concept="nLn13" id="hVb9GDr" role="2Oq$k0" />
            <node concept="1mIQ4w" id="hVb9GDs" role="2OqNvi">
              <node concept="chp4Y" id="hVb9GDt" role="cj9EA">
                <ref role="cht4Q" to="tpee:hqOqwz4" resolve="DotExpression" />
              </node>
            </node>
          </node>
        </node>
        <node concept="3cpWs6" id="hVbaWTq" role="3cqZAp">
          <node concept="37vLTw" id="3GM_nagTuAg" role="3cqZAk">
            <ref role="3cqZAo" node="hVb9GD4" resolve="can" />
          </node>
        </node>
      </node>
    </node>
  </node>
  <node concept="1M2fIO" id="4Nb4hHGDCf6">
    <ref role="1M2myG" to="tpfo:h5STpZg" resolve="PredefinedSymbolClassDeclaration" />
    <node concept="EnEH3" id="4Nb4hHGDCf7" role="1MhHOB">
      <ref role="EomxK" to="tpck:gOOYnlO" resolve="shortDescription" />
      <node concept="Eqf_E" id="4Nb4hHGDCf8" role="EtsB7">
        <node concept="3clFbS" id="4Nb4hHGDCf9" role="2VODD2">
          <node concept="3clFbF" id="4Nb4hHGDCfa" role="3cqZAp">
            <node concept="2OqwBi" id="4Nb4hHGDCfc" role="3clFbG">
              <node concept="EsrRn" id="4Nb4hHGDCfb" role="2Oq$k0" />
              <node concept="3TrcHB" id="4Nb4hHGDCfg" role="2OqNvi">
                <ref role="3TsBF5" to="tpfo:h5STZDk" resolve="description" />
              </node>
            </node>
          </node>
        </node>
      </node>
    </node>
  </node>
  <node concept="1M2fIO" id="4Nb4hHGDZxR">
    <ref role="1M2myG" to="tpfo:h5OD$ld" resolve="RegexpDeclaration" />
    <node concept="EnEH3" id="4Nb4hHGDZxS" role="1MhHOB">
      <ref role="EomxK" to="tpck:gOOYnlO" resolve="shortDescription" />
      <node concept="Eqf_E" id="4Nb4hHGDZxT" role="EtsB7">
        <node concept="3clFbS" id="4Nb4hHGDZxU" role="2VODD2">
          <node concept="3clFbF" id="4Nb4hHGDZxW" role="3cqZAp">
            <node concept="3K4zz7" id="4Nb4hHGDZy8" role="3clFbG">
              <node concept="2OqwBi" id="4Nb4hHGDZyd" role="3K4E3e">
                <node concept="EsrRn" id="4Nb4hHGDZyc" role="2Oq$k0" />
                <node concept="3TrcHB" id="4Nb4hHGDZyh" role="2OqNvi">
                  <ref role="3TsBF5" to="tpfo:h5ZnDD8" resolve="description" />
                </node>
              </node>
              <node concept="2OqwBi" id="4Nb4hHGDZy3" role="3K4Cdx">
                <node concept="2OqwBi" id="4Nb4hHGDZxY" role="2Oq$k0">
                  <node concept="EsrRn" id="4Nb4hHGDZxX" role="2Oq$k0" />
                  <node concept="3TrcHB" id="4Nb4hHGDZy2" role="2OqNvi">
                    <ref role="3TsBF5" to="tpfo:h5ZnDD8" resolve="description" />
                  </node>
                </node>
                <node concept="17RvpY" id="4Nb4hHGDZy7" role="2OqNvi" />
              </node>
              <node concept="Xl_RD" id="4Nb4hHGDZyi" role="3K4GZi">
                <property role="Xl_RC" value="regular expression" />
              </node>
            </node>
          </node>
        </node>
      </node>
    </node>
  </node>
  <node concept="1M2fIO" id="AN4d42I2wr">
    <property role="3GE5qa" value="Regexps" />
    <ref role="1M2myG" to="tpfo:h5OC9$H" resolve="StringLiteralRegexp" />
    <node concept="EnEH3" id="AN4d42I2ws" role="1MhHOB">
      <ref role="EomxK" to="tpfo:h5OCbxf" resolve="text" />
      <node concept="QB0g5" id="AN4d42I2wt" role="QCWH9">
        <node concept="3clFbS" id="AN4d42I2wu" role="2VODD2">
          <node concept="3clFbF" id="AN4d42I2wv" role="3cqZAp">
            <node concept="3y3z36" id="4Tc5uQul51u" role="3clFbG">
              <node concept="1Xhbcc" id="4Tc5uQul5fK" role="3uHU7w">
                <property role="1XhdNS" value=" " />
              </node>
              <node concept="2OqwBi" id="3iI_KKpcfT6" role="3uHU7B">
                <node concept="1Wqviy" id="3iI_KKpcfT7" role="2Oq$k0" />
                <node concept="liA8E" id="3iI_KKpcfT8" role="2OqNvi">
                  <ref role="37wK5l" to="wyt6:~String.charAt(int):char" resolve="charAt" />
                  <node concept="3cpWsd" id="4Tc5uQul3CL" role="37wK5m">
                    <node concept="3cmrfG" id="4Tc5uQul3CQ" role="3uHU7w">
                      <property role="3cmrfH" value="1" />
                    </node>
                    <node concept="2OqwBi" id="4Tc5uQul050" role="3uHU7B">
                      <node concept="1Wqviy" id="4Tc5uQukZCN" role="2Oq$k0" />
                      <node concept="liA8E" id="4Tc5uQul1kF" role="2OqNvi">
                        <ref role="37wK5l" to="wyt6:~String.length():int" resolve="length" />
                      </node>
                    </node>
                  </node>
                </node>
              </node>
            </node>
          </node>
        </node>
      </node>
    </node>
  </node>
  <node concept="1M2fIO" id="3iI_KKp9pEG">
    <property role="3GE5qa" value="Operations" />
    <ref role="1M2myG" to="tpfo:3iI_KKp8X6a" resolve="ReplaceRegexpOperation" />
    <node concept="nKS2y" id="3iI_KKp9pEH" role="1MLUbF">
      <node concept="3clFbS" id="3iI_KKp9pEI" role="2VODD2">
        <node concept="3cpWs8" id="3iI_KKp9pEJ" role="3cqZAp">
          <node concept="3cpWsn" id="3iI_KKp9pEK" role="3cpWs9">
            <property role="TrG5h" value="can" />
            <node concept="10P_77" id="3iI_KKp9pEL" role="1tU5fm" />
            <node concept="3clFbT" id="3iI_KKp9pEM" role="33vP2m">
              <property role="3clFbU" value="false" />
            </node>
          </node>
        </node>
        <node concept="3clFbJ" id="3iI_KKp9pEN" role="3cqZAp">
          <node concept="3clFbS" id="3iI_KKp9pEO" role="3clFbx">
            <node concept="3cpWs8" id="3iI_KKp9pEP" role="3cqZAp">
              <node concept="3cpWsn" id="3iI_KKp9pEQ" role="3cpWs9">
                <property role="TrG5h" value="type" />
                <node concept="3Tqbb2" id="3iI_KKp9pER" role="1tU5fm" />
                <node concept="2OqwBi" id="3iI_KKp9pES" role="33vP2m">
                  <node concept="2OqwBi" id="3iI_KKp9pET" role="2Oq$k0">
                    <node concept="1PxgMI" id="3iI_KKp9pEU" role="2Oq$k0">
                      <ref role="1m5ApE" to="tpee:hqOqwz4" resolve="DotExpression" />
                      <node concept="nLn13" id="3iI_KKp9pEV" role="1m5AlR" />
                    </node>
                    <node concept="3TrEf2" id="3iI_KKp9pEW" role="2OqNvi">
                      <ref role="3Tt5mk" to="tpee:hqOq$gm" />
                    </node>
                  </node>
                  <node concept="3JvlWi" id="3iI_KKp9pEX" role="2OqNvi" />
                </node>
              </node>
            </node>
            <node concept="3clFbF" id="3iI_KKp9pEY" role="3cqZAp">
              <node concept="37vLTI" id="3iI_KKp9pEZ" role="3clFbG">
                <node concept="3y3z36" id="3iI_KKp9pF0" role="37vLTx">
                  <node concept="10Nm6u" id="3iI_KKp9pF1" role="3uHU7w" />
                  <node concept="1UaxmW" id="3iI_KKp9pF2" role="3uHU7B">
                    <node concept="1YaCAy" id="3iI_KKp9pF3" role="1Ub_4A">
                      <property role="TrG5h" value="stringType" />
                      <ref role="1YaFvo" to="tpee:hP7QB7G" resolve="StringType" />
                    </node>
                    <node concept="37vLTw" id="3GM_nagT_yD" role="1Ub_4B">
                      <ref role="3cqZAo" node="3iI_KKp9pEQ" resolve="type" />
                    </node>
                  </node>
                </node>
                <node concept="37vLTw" id="3GM_nagTtfo" role="37vLTJ">
                  <ref role="3cqZAo" node="3iI_KKp9pEK" resolve="can" />
                </node>
              </node>
            </node>
          </node>
          <node concept="2OqwBi" id="3iI_KKp9pF6" role="3clFbw">
            <node concept="nLn13" id="3iI_KKp9pF7" role="2Oq$k0" />
            <node concept="1mIQ4w" id="3iI_KKp9pF8" role="2OqNvi">
              <node concept="chp4Y" id="3iI_KKp9pF9" role="cj9EA">
                <ref role="cht4Q" to="tpee:hqOqwz4" resolve="DotExpression" />
              </node>
            </node>
          </node>
        </node>
        <node concept="3cpWs6" id="3iI_KKp9pFa" role="3cqZAp">
          <node concept="37vLTw" id="3GM_nagT_9N" role="3cqZAk">
            <ref role="3cqZAo" node="3iI_KKp9pEK" resolve="can" />
          </node>
        </node>
      </node>
    </node>
  </node>
  <node concept="1M2fIO" id="3iI_KKpaKiI">
    <property role="3GE5qa" value="Replaces" />
    <ref role="1M2myG" to="tpfo:3iI_KKpaF_e" resolve="MatchVariableReferenceReplacement" />
    <node concept="1N5Pfh" id="3iI_KKpaKiL" role="1Mr941">
      <ref role="1N5Vy1" to="tpfo:3iI_KKpaFJ5" />
      <node concept="1MUpDS" id="3iI_KKpaKiM" role="1N6uqs">
        <node concept="3clFbS" id="3iI_KKpaKiN" role="2VODD2">
          <node concept="3cpWs8" id="3iI_KKpaKiO" role="3cqZAp">
            <node concept="3cpWsn" id="3iI_KKpaKiP" role="3cpWs9">
              <property role="TrG5h" value="matches" />
              <node concept="2I9FWS" id="3iI_KKpaKiQ" role="1tU5fm">
                <ref role="2I9WkF" to="tpfo:h5Tukr7" resolve="MatchParensRegexp" />
              </node>
              <node concept="2ShNRf" id="3iI_KKpaKiR" role="33vP2m">
                <node concept="2T8Vx0" id="3iI_KKpaKiS" role="2ShVmc">
                  <node concept="2I9FWS" id="3iI_KKpaKiT" role="2T96Bj">
                    <ref role="2I9WkF" to="tpfo:h5Tukr7" resolve="MatchParensRegexp" />
                  </node>
                </node>
              </node>
            </node>
          </node>
          <node concept="3cpWs8" id="3iI_KKpaKiU" role="3cqZAp">
            <node concept="3cpWsn" id="3iI_KKpaKiV" role="3cpWs9">
              <property role="TrG5h" value="top" />
              <node concept="3Tqbb2" id="3iI_KKpaKiW" role="1tU5fm">
                <ref role="ehGHo" to="tpfo:3iI_KKp8X6a" resolve="ReplaceRegexpOperation" />
              </node>
              <node concept="2OqwBi" id="3iI_KKpaKk0" role="33vP2m">
                <node concept="21POm0" id="3iI_KKpaKiX" role="2Oq$k0" />
                <node concept="2Xjw5R" id="3iI_KKpaKk6" role="2OqNvi">
                  <node concept="1xMEDy" id="3iI_KKpaKk7" role="1xVPHs">
                    <node concept="chp4Y" id="3iI_KKpaKkc" role="ri$Ld">
                      <ref role="cht4Q" to="tpfo:3iI_KKp8X6a" resolve="ReplaceRegexpOperation" />
                    </node>
                  </node>
                  <node concept="1xIGOp" id="3iI_KKpaKki" role="1xVPHs" />
                </node>
              </node>
            </node>
          </node>
          <node concept="3clFbJ" id="3iI_KKpaKkm" role="3cqZAp">
            <node concept="3clFbS" id="3iI_KKpaKkn" role="3clFbx">
              <node concept="3clFbF" id="3iI_KKpaKkw" role="3cqZAp">
                <node concept="2OqwBi" id="3iI_KKpaKkG" role="3clFbG">
                  <node concept="2OqwBi" id="3iI_KKpaKkB" role="2Oq$k0">
                    <node concept="37vLTw" id="3GM_nagTu_s" role="2Oq$k0">
                      <ref role="3cqZAo" node="3iI_KKpaKiV" resolve="top" />
                    </node>
                    <node concept="3TrEf2" id="3iI_KKpaKkF" role="2OqNvi">
                      <ref role="3Tt5mk" to="tpfo:3iI_KKp9eSV" />
                    </node>
                  </node>
                  <node concept="2qgKlT" id="3iI_KKpaKkK" role="2OqNvi">
                    <ref role="37wK5l" to="tpfs:hMuDF1A" resolve="getString" />
                    <node concept="37vLTw" id="3GM_nagTArx" role="37wK5m">
                      <ref role="3cqZAo" node="3iI_KKpaKiP" resolve="matches" />
                    </node>
                  </node>
                </node>
              </node>
            </node>
            <node concept="2OqwBi" id="3iI_KKpaKkr" role="3clFbw">
              <node concept="37vLTw" id="3GM_nagTzMy" role="2Oq$k0">
                <ref role="3cqZAo" node="3iI_KKpaKiV" resolve="top" />
              </node>
              <node concept="3x8VRR" id="3iI_KKpaKkv" role="2OqNvi" />
            </node>
          </node>
          <node concept="3cpWs6" id="3iI_KKpaKjC" role="3cqZAp">
            <node concept="37vLTw" id="3GM_nagTvZw" role="3cqZAk">
              <ref role="3cqZAo" node="3iI_KKpaKiP" resolve="matches" />
            </node>
          </node>
        </node>
      </node>
      <node concept="Bn3R3" id="3iI_KKpaKjE" role="Bn3R6">
        <node concept="3clFbS" id="3iI_KKpaKjF" role="2VODD2">
          <node concept="3clFbF" id="3iI_KKpaKjG" role="3cqZAp">
            <node concept="3K4zz7" id="3iI_KKpaKjH" role="3clFbG">
              <node concept="3cpWs3" id="3iI_KKpaKjJ" role="3K4E3e">
                <node concept="Xl_RD" id="3iI_KKpaKjK" role="3uHU7B">
                  <property role="Xl_RC" value="\\" />
                </node>
                <node concept="2OqwBi" id="3iI_KKpaKjL" role="3uHU7w">
                  <node concept="Bn53e" id="3iI_KKpaKjM" role="2Oq$k0" />
                  <node concept="3TrcHB" id="3iI_KKpaKjN" role="2OqNvi">
                    <ref role="3TsBF5" to="tpck:h0TrG11" resolve="name" />
                  </node>
                </node>
              </node>
              <node concept="2OqwBi" id="3iI_KKpaKjP" role="3K4GZi">
                <node concept="Bn53e" id="3iI_KKpaKjQ" role="2Oq$k0" />
                <node concept="3TrcHB" id="3iI_KKpaKjR" role="2OqNvi">
                  <ref role="3TsBF5" to="tpck:h0TrG11" resolve="name" />
                </node>
              </node>
              <node concept="18Yu4q" id="3iI_KKpaKjS" role="3K4Cdx" />
            </node>
          </node>
        </node>
      </node>
    </node>
  </node>
  <node concept="1M2fIO" id="3iI_KKpaM14">
    <property role="3GE5qa" value="Replaces" />
    <ref role="1M2myG" to="tpfo:3iI_KKpaF_c" resolve="LiteralReplacement" />
    <node concept="EnEH3" id="3iI_KKpaM15" role="1MhHOB">
      <ref role="EomxK" to="tpfo:3iI_KKpaM0V" resolve="text" />
      <node concept="QB0g5" id="3iI_KKpaM16" role="QCWH9">
        <node concept="3clFbS" id="3iI_KKpaM17" role="2VODD2">
          <node concept="3clFbF" id="3iI_KKpaM18" role="3cqZAp">
            <node concept="3eOVzh" id="3iI_KKpcfTd" role="3clFbG">
              <node concept="3cmrfG" id="3iI_KKpcfTg" role="3uHU7w">
                <property role="3cmrfH" value="1" />
              </node>
              <node concept="2OqwBi" id="3iI_KKpaM1a" role="3uHU7B">
                <node concept="1Wqviy" id="3iI_KKpaM19" role="2Oq$k0" />
                <node concept="liA8E" id="3iI_KKpaM1e" role="2OqNvi">
                  <ref role="37wK5l" to="wyt6:~String.indexOf(java.lang.String):int" resolve="indexOf" />
                  <node concept="Xl_RD" id="3iI_KKpaM1f" role="37wK5m">
                    <property role="Xl_RC" value=" " />
                  </node>
                </node>
              </node>
            </node>
          </node>
        </node>
      </node>
    </node>
  </node>
  <node concept="312cEu" id="6XMl2rPaoYr">
    <property role="TrG5h" value="RegexUtil" />
    <node concept="3Tm1VV" id="6XMl2rPaoYs" role="1B3o_S" />
    <node concept="3clFbW" id="6XMl2rPaoYt" role="jymVt">
      <node concept="3cqZAl" id="6XMl2rPaoYu" role="3clF45" />
      <node concept="3Tm1VV" id="6XMl2rPaoYv" role="1B3o_S" />
      <node concept="3clFbS" id="6XMl2rPaoYw" role="3clF47" />
    </node>
    <node concept="2YIFZL" id="6XMl2rPaoYz" role="jymVt">
      <property role="TrG5h" value="collectMatchReferences" />
      <node concept="3Tm1VV" id="6XMl2rPaoY$" role="1B3o_S" />
      <node concept="3clFbS" id="6XMl2rPaoY_" role="3clF47">
        <node concept="3cpWs8" id="6XMl2rPaoYA" role="3cqZAp">
          <node concept="3cpWsn" id="6XMl2rPaoYB" role="3cpWs9">
            <property role="TrG5h" value="matches" />
            <node concept="2I9FWS" id="6XMl2rPaoYC" role="1tU5fm">
              <ref role="2I9WkF" to="tpfo:h5Tukr7" resolve="MatchParensRegexp" />
            </node>
            <node concept="2ShNRf" id="6XMl2rPaoYD" role="33vP2m">
              <node concept="2T8Vx0" id="6XMl2rPaoYE" role="2ShVmc">
                <node concept="2I9FWS" id="6XMl2rPaoYF" role="2T96Bj">
                  <ref role="2I9WkF" to="tpfo:h5Tukr7" resolve="MatchParensRegexp" />
                </node>
              </node>
            </node>
          </node>
        </node>
        <node concept="1DcWWT" id="6XMl2rPaoYG" role="3cqZAp">
          <node concept="2OqwBi" id="6XMl2rPaoYH" role="1DdaDG">
            <node concept="37vLTw" id="2BHiRxglPir" role="2Oq$k0">
              <ref role="3cqZAo" node="6XMl2rPap0e" resolve="enclosingNode" />
            </node>
            <node concept="z$bX8" id="6XMl2rPaoYJ" role="2OqNvi">
              <node concept="1xMEDy" id="6XMl2rPaoYK" role="1xVPHs">
                <node concept="chp4Y" id="6XMl2rPaoYL" role="ri$Ld">
                  <ref role="cht4Q" to="tpfo:h5YMW1U" resolve="RegexpUsingConstruction" />
                </node>
              </node>
              <node concept="1xIGOp" id="6XMl2rPaoYM" role="1xVPHs" />
            </node>
          </node>
          <node concept="3cpWsn" id="6XMl2rPaoYN" role="1Duv9x">
            <property role="TrG5h" value="ruc" />
            <node concept="3Tqbb2" id="6XMl2rPaoYO" role="1tU5fm">
              <ref role="ehGHo" to="tpfo:h5YMW1U" resolve="RegexpUsingConstruction" />
            </node>
          </node>
          <node concept="3clFbS" id="6XMl2rPaoYP" role="2LFqv$">
            <node concept="3clFbF" id="6XMl2rPaoYQ" role="3cqZAp">
              <node concept="2OqwBi" id="6XMl2rPaoYR" role="3clFbG">
                <node concept="37vLTw" id="3GM_nagTr1Q" role="2Oq$k0">
                  <ref role="3cqZAo" node="6XMl2rPaoYB" resolve="matches" />
                </node>
                <node concept="X8dFx" id="6XMl2rPaoYT" role="2OqNvi">
                  <node concept="1rXfSq" id="4hiugqysvUR" role="25WWJ7">
                    <ref role="37wK5l" node="6XMl2rPap1Z" resolve="collectNamedParentheses" />
                    <node concept="37vLTw" id="3GM_nagTrwf" role="37wK5m">
                      <ref role="3cqZAo" node="6XMl2rPaoYN" resolve="ruc" />
                    </node>
                  </node>
                </node>
              </node>
            </node>
          </node>
        </node>
        <node concept="1DcWWT" id="6XMl2rPaoYW" role="3cqZAp">
          <node concept="3clFbS" id="6XMl2rPaoYX" role="2LFqv$">
            <node concept="3cpWs8" id="6XMl2rPaoYY" role="3cqZAp">
              <node concept="3cpWsn" id="6XMl2rPaoYZ" role="3cpWs9">
                <property role="TrG5h" value="toCollect" />
                <node concept="3Tqbb2" id="6XMl2rPaoZ0" role="1tU5fm" />
                <node concept="10Nm6u" id="6XMl2rPaoZ1" role="33vP2m" />
              </node>
            </node>
            <node concept="3clFbJ" id="6XMl2rPaoZ2" role="3cqZAp">
              <node concept="3clFbS" id="6XMl2rPaoZ3" role="3clFbx">
                <node concept="3clFbF" id="6XMl2rPaoZ4" role="3cqZAp">
                  <node concept="37vLTI" id="6XMl2rPaoZ5" role="3clFbG">
                    <node concept="37vLTw" id="3GM_nagTyEM" role="37vLTJ">
                      <ref role="3cqZAo" node="6XMl2rPaoYZ" resolve="toCollect" />
                    </node>
                    <node concept="2OqwBi" id="6XMl2rPaoZ7" role="37vLTx">
                      <node concept="37vLTw" id="3GM_nagTsfq" role="2Oq$k0">
                        <ref role="3cqZAo" node="6XMl2rPap09" resolve="ifst" />
                      </node>
                      <node concept="3TrEf2" id="6XMl2rPaoZ9" role="2OqNvi">
                        <ref role="3Tt5mk" to="tpee:fzclF8o" />
                      </node>
                    </node>
                  </node>
                </node>
              </node>
              <node concept="2OqwBi" id="6XMl2rPaoZa" role="3clFbw">
                <node concept="2OqwBi" id="6XMl2rPaoZb" role="2Oq$k0">
                  <node concept="37vLTw" id="2BHiRxgllgv" role="2Oq$k0">
                    <ref role="3cqZAo" node="6XMl2rPap0e" resolve="enclosingNode" />
                  </node>
                  <node concept="z$bX8" id="6XMl2rPaoZd" role="2OqNvi">
                    <node concept="1xIGOp" id="6XMl2rPaoZe" role="1xVPHs" />
                  </node>
                </node>
                <node concept="3JPx81" id="6XMl2rPaoZf" role="2OqNvi">
                  <node concept="2OqwBi" id="6XMl2rPaoZg" role="25WWJ7">
                    <node concept="37vLTw" id="3GM_nagTyL_" role="2Oq$k0">
                      <ref role="3cqZAo" node="6XMl2rPap09" resolve="ifst" />
                    </node>
                    <node concept="3TrEf2" id="6XMl2rPaoZi" role="2OqNvi">
                      <ref role="3Tt5mk" to="tpee:fzclF8p" />
                    </node>
                  </node>
                </node>
              </node>
              <node concept="9aQIb" id="6XMl2rPaoZj" role="9aQIa">
                <node concept="3clFbS" id="6XMl2rPaoZk" role="9aQI4">
                  <node concept="1DcWWT" id="6XMl2rPaoZl" role="3cqZAp">
                    <node concept="2OqwBi" id="6XMl2rPaoZm" role="1DdaDG">
                      <node concept="37vLTw" id="3GM_nagTuxs" role="2Oq$k0">
                        <ref role="3cqZAo" node="6XMl2rPap09" resolve="ifst" />
                      </node>
                      <node concept="3Tsc0h" id="6XMl2rPaoZo" role="2OqNvi">
                        <ref role="3TtcxE" to="tpee:hzeNLa7" />
                      </node>
                    </node>
                    <node concept="3cpWsn" id="6XMl2rPaoZp" role="1Duv9x">
                      <property role="TrG5h" value="elseif" />
                      <node concept="3Tqbb2" id="6XMl2rPaoZq" role="1tU5fm">
                        <ref role="ehGHo" to="tpee:hzeNFgq" resolve="ElsifClause" />
                      </node>
                    </node>
                    <node concept="3clFbS" id="6XMl2rPaoZr" role="2LFqv$">
                      <node concept="3clFbJ" id="6XMl2rPaoZs" role="3cqZAp">
                        <node concept="3clFbS" id="6XMl2rPaoZt" role="3clFbx">
                          <node concept="3clFbF" id="6XMl2rPaoZu" role="3cqZAp">
                            <node concept="37vLTI" id="6XMl2rPaoZv" role="3clFbG">
                              <node concept="37vLTw" id="3GM_nagTv21" role="37vLTJ">
                                <ref role="3cqZAo" node="6XMl2rPaoYZ" resolve="toCollect" />
                              </node>
                              <node concept="2OqwBi" id="6XMl2rPaoZx" role="37vLTx">
                                <node concept="37vLTw" id="3GM_nagTrEz" role="2Oq$k0">
                                  <ref role="3cqZAo" node="6XMl2rPaoZp" resolve="elseif" />
                                </node>
                                <node concept="3TrEf2" id="6XMl2rPaoZz" role="2OqNvi">
                                  <ref role="3Tt5mk" to="tpee:hzeO9wY" />
                                </node>
                              </node>
                            </node>
                          </node>
                          <node concept="3zACq4" id="6XMl2rPaoZ$" role="3cqZAp" />
                        </node>
                        <node concept="2OqwBi" id="6XMl2rPaoZ_" role="3clFbw">
                          <node concept="2OqwBi" id="6XMl2rPaoZA" role="2Oq$k0">
                            <node concept="37vLTw" id="2BHiRxgmJfL" role="2Oq$k0">
                              <ref role="3cqZAo" node="6XMl2rPap0e" resolve="enclosingNode" />
                            </node>
                            <node concept="z$bX8" id="6XMl2rPaoZC" role="2OqNvi">
                              <node concept="1xIGOp" id="6XMl2rPaoZD" role="1xVPHs" />
                            </node>
                          </node>
                          <node concept="3JPx81" id="6XMl2rPaoZE" role="2OqNvi">
                            <node concept="2OqwBi" id="6XMl2rPaoZF" role="25WWJ7">
                              <node concept="37vLTw" id="3GM_nagTsoY" role="2Oq$k0">
                                <ref role="3cqZAo" node="6XMl2rPaoZp" resolve="elseif" />
                              </node>
                              <node concept="3TrEf2" id="6XMl2rPaoZH" role="2OqNvi">
                                <ref role="3Tt5mk" to="tpee:hzeOfzX" />
                              </node>
                            </node>
                          </node>
                        </node>
                      </node>
                    </node>
                  </node>
                </node>
              </node>
            </node>
            <node concept="3clFbJ" id="6XMl2rPaoZI" role="3cqZAp">
              <node concept="3clFbS" id="6XMl2rPaoZJ" role="3clFbx">
                <node concept="1DcWWT" id="6XMl2rPaoZK" role="3cqZAp">
                  <node concept="3clFbS" id="6XMl2rPaoZL" role="2LFqv$">
                    <node concept="3clFbF" id="6XMl2rPaoZM" role="3cqZAp">
                      <node concept="2OqwBi" id="6XMl2rPaoZN" role="3clFbG">
                        <node concept="37vLTw" id="3GM_nagTv2I" role="2Oq$k0">
                          <ref role="3cqZAo" node="6XMl2rPaoYB" resolve="matches" />
                        </node>
                        <node concept="X8dFx" id="6XMl2rPaoZP" role="2OqNvi">
                          <node concept="1rXfSq" id="4hiugqysqyR" role="25WWJ7">
                            <ref role="37wK5l" node="6XMl2rPap1Z" resolve="collectNamedParentheses" />
                            <node concept="37vLTw" id="3GM_nagTuc5" role="37wK5m">
                              <ref role="3cqZAo" node="6XMl2rPaoZY" resolve="expr" />
                            </node>
                          </node>
                        </node>
                      </node>
                    </node>
                  </node>
                  <node concept="2OqwBi" id="6XMl2rPaoZS" role="1DdaDG">
                    <node concept="37vLTw" id="3GM_nagTrQh" role="2Oq$k0">
                      <ref role="3cqZAo" node="6XMl2rPaoYZ" resolve="toCollect" />
                    </node>
                    <node concept="2Rf3mk" id="6XMl2rPaoZU" role="2OqNvi">
                      <node concept="1xMEDy" id="6XMl2rPaoZV" role="1xVPHs">
                        <node concept="chp4Y" id="6XMl2rPaoZW" role="ri$Ld">
                          <ref role="cht4Q" to="tpfo:5kfJOUWnufP" resolve="FindMatchExpression" />
                        </node>
                      </node>
                      <node concept="1xIGOp" id="6XMl2rPaoZX" role="1xVPHs" />
                    </node>
                  </node>
                  <node concept="3cpWsn" id="6XMl2rPaoZY" role="1Duv9x">
                    <property role="TrG5h" value="expr" />
                    <node concept="3Tqbb2" id="6XMl2rPaoZZ" role="1tU5fm">
                      <ref role="ehGHo" to="tpfo:5kfJOUWnufP" resolve="FindMatchExpression" />
                    </node>
                  </node>
                </node>
              </node>
              <node concept="3y3z36" id="6XMl2rPap00" role="3clFbw">
                <node concept="10Nm6u" id="6XMl2rPap01" role="3uHU7w" />
                <node concept="37vLTw" id="3GM_nagTBhS" role="3uHU7B">
                  <ref role="3cqZAo" node="6XMl2rPaoYZ" resolve="toCollect" />
                </node>
              </node>
            </node>
          </node>
          <node concept="2OqwBi" id="6XMl2rPap03" role="1DdaDG">
            <node concept="37vLTw" id="2BHiRxgkW$1" role="2Oq$k0">
              <ref role="3cqZAo" node="6XMl2rPap0e" resolve="enclosingNode" />
            </node>
            <node concept="z$bX8" id="6XMl2rPap05" role="2OqNvi">
              <node concept="1xMEDy" id="6XMl2rPap06" role="1xVPHs">
                <node concept="chp4Y" id="6XMl2rPap07" role="ri$Ld">
                  <ref role="cht4Q" to="tpee:fzclF8n" resolve="IfStatement" />
                </node>
              </node>
              <node concept="1xIGOp" id="6XMl2rPap08" role="1xVPHs" />
            </node>
          </node>
          <node concept="3cpWsn" id="6XMl2rPap09" role="1Duv9x">
            <property role="TrG5h" value="ifst" />
            <node concept="3Tqbb2" id="6XMl2rPap0a" role="1tU5fm">
              <ref role="ehGHo" to="tpee:fzclF8n" resolve="IfStatement" />
            </node>
          </node>
        </node>
        <node concept="3cpWs6" id="6XMl2rPap0b" role="3cqZAp">
          <node concept="37vLTw" id="3GM_nagTujM" role="3cqZAk">
            <ref role="3cqZAo" node="6XMl2rPaoYB" resolve="matches" />
          </node>
        </node>
      </node>
      <node concept="2I9FWS" id="6XMl2rPap0d" role="3clF45">
        <ref role="2I9WkF" to="tpfo:h5Tukr7" resolve="MatchParensRegexp" />
      </node>
      <node concept="37vLTG" id="6XMl2rPap0e" role="3clF46">
        <property role="TrG5h" value="enclosingNode" />
        <node concept="3Tqbb2" id="6XMl2rPap0f" role="1tU5fm" />
      </node>
    </node>
    <node concept="2YIFZL" id="6XMl2rPap0i" role="jymVt">
      <property role="TrG5h" value="findRegexpUsingConstructionFor" />
      <node concept="3Tqbb2" id="6XMl2rPap0j" role="3clF45">
        <ref role="ehGHo" to="tpfo:h5YMW1U" resolve="RegexpUsingConstruction" />
      </node>
      <node concept="3clFbS" id="6XMl2rPap0k" role="3clF47">
        <node concept="3cpWs8" id="6XMl2rPap0l" role="3cqZAp">
          <node concept="3cpWsn" id="6XMl2rPap0m" role="3cpWs9">
            <property role="TrG5h" value="parens" />
            <node concept="3Tqbb2" id="6XMl2rPap0n" role="1tU5fm">
              <ref role="ehGHo" to="tpfo:h5Tukr7" resolve="MatchParensRegexp" />
            </node>
            <node concept="2OqwBi" id="6XMl2rPap0o" role="33vP2m">
              <node concept="37vLTw" id="2BHiRxgkX47" role="2Oq$k0">
                <ref role="3cqZAo" node="6XMl2rPap1R" resolve="ref" />
              </node>
              <node concept="3TrEf2" id="6XMl2rPap0q" role="2OqNvi">
                <ref role="3Tt5mk" to="tpfo:h5Ty1Yp" />
              </node>
            </node>
          </node>
        </node>
        <node concept="3cpWs8" id="6XMl2rPap0r" role="3cqZAp">
          <node concept="3cpWsn" id="6XMl2rPap0s" role="3cpWs9">
            <property role="TrG5h" value="ruc" />
            <node concept="3Tqbb2" id="6XMl2rPap0t" role="1tU5fm">
              <ref role="ehGHo" to="tpfo:h5YMW1U" resolve="RegexpUsingConstruction" />
            </node>
            <node concept="2OqwBi" id="6XMl2rPap0u" role="33vP2m">
              <node concept="37vLTw" id="3GM_nagTtdW" role="2Oq$k0">
                <ref role="3cqZAo" node="6XMl2rPap0m" resolve="parens" />
              </node>
              <node concept="2Xjw5R" id="6XMl2rPap0w" role="2OqNvi">
                <node concept="1xMEDy" id="6XMl2rPap0x" role="1xVPHs">
                  <node concept="chp4Y" id="6XMl2rPap0y" role="ri$Ld">
                    <ref role="cht4Q" to="tpfo:h5YMW1U" resolve="RegexpUsingConstruction" />
                  </node>
                </node>
              </node>
            </node>
          </node>
        </node>
        <node concept="3clFbJ" id="6XMl2rPap0z" role="3cqZAp">
          <node concept="3y3z36" id="6XMl2rPap0$" role="3clFbw">
            <node concept="10Nm6u" id="6XMl2rPap0_" role="3uHU7w" />
            <node concept="37vLTw" id="3GM_nagTrAN" role="3uHU7B">
              <ref role="3cqZAo" node="6XMl2rPap0s" resolve="ruc" />
            </node>
          </node>
          <node concept="3clFbS" id="6XMl2rPap0B" role="3clFbx">
            <node concept="3cpWs6" id="6XMl2rPap0C" role="3cqZAp">
              <node concept="37vLTw" id="3GM_nagTssz" role="3cqZAk">
                <ref role="3cqZAo" node="6XMl2rPap0s" resolve="ruc" />
              </node>
            </node>
          </node>
        </node>
        <node concept="3clFbH" id="6XMl2rPap0E" role="3cqZAp" />
        <node concept="3cpWs8" id="6XMl2rPap0F" role="3cqZAp">
          <node concept="3cpWsn" id="6XMl2rPap0G" role="3cpWs9">
            <property role="TrG5h" value="dcl" />
            <node concept="3Tqbb2" id="6XMl2rPap0H" role="1tU5fm">
              <ref role="ehGHo" to="tpfo:h5OD$ld" resolve="RegexpDeclaration" />
            </node>
            <node concept="2OqwBi" id="6XMl2rPap0I" role="33vP2m">
              <node concept="37vLTw" id="3GM_nagTuXa" role="2Oq$k0">
                <ref role="3cqZAo" node="6XMl2rPap0m" resolve="parens" />
              </node>
              <node concept="2Xjw5R" id="6XMl2rPap0K" role="2OqNvi">
                <node concept="1xMEDy" id="6XMl2rPap0L" role="1xVPHs">
                  <node concept="chp4Y" id="6XMl2rPap0M" role="ri$Ld">
                    <ref role="cht4Q" to="tpfo:h5OD$ld" resolve="RegexpDeclaration" />
                  </node>
                </node>
              </node>
            </node>
          </node>
        </node>
        <node concept="3clFbJ" id="6XMl2rPap0N" role="3cqZAp">
          <node concept="3clFbS" id="6XMl2rPap0O" role="3clFbx">
            <node concept="1DcWWT" id="6XMl2rPap0P" role="3cqZAp">
              <node concept="2OqwBi" id="6XMl2rPap0Q" role="1DdaDG">
                <node concept="37vLTw" id="2BHiRxgheTf" role="2Oq$k0">
                  <ref role="3cqZAo" node="6XMl2rPap1R" resolve="ref" />
                </node>
                <node concept="z$bX8" id="6XMl2rPap0S" role="2OqNvi">
                  <node concept="1xMEDy" id="6XMl2rPap0T" role="1xVPHs">
                    <node concept="chp4Y" id="6XMl2rPap0U" role="ri$Ld">
                      <ref role="cht4Q" to="tpfo:h5YMW1U" resolve="RegexpUsingConstruction" />
                    </node>
                  </node>
                </node>
              </node>
              <node concept="3cpWsn" id="6XMl2rPap0V" role="1Duv9x">
                <property role="TrG5h" value="parentRuc" />
                <node concept="3Tqbb2" id="6XMl2rPap0W" role="1tU5fm">
                  <ref role="ehGHo" to="tpfo:h5YMW1U" resolve="RegexpUsingConstruction" />
                </node>
              </node>
              <node concept="3clFbS" id="6XMl2rPap0X" role="2LFqv$">
                <node concept="1DcWWT" id="6XMl2rPap0Y" role="3cqZAp">
                  <node concept="3cpWsn" id="6XMl2rPap0Z" role="1Duv9x">
                    <property role="TrG5h" value="regref" />
                    <node concept="3Tqbb2" id="6XMl2rPap10" role="1tU5fm">
                      <ref role="ehGHo" to="tpfo:h5ZmeCE" resolve="RegexpDeclarationReferenceRegexp" />
                    </node>
                  </node>
                  <node concept="3clFbS" id="6XMl2rPap11" role="2LFqv$">
                    <node concept="3clFbJ" id="6XMl2rPap12" role="3cqZAp">
                      <node concept="3clFbC" id="6XMl2rPap13" role="3clFbw">
                        <node concept="37vLTw" id="3GM_nagTuU$" role="3uHU7w">
                          <ref role="3cqZAo" node="6XMl2rPap0G" resolve="dcl" />
                        </node>
                        <node concept="2OqwBi" id="6XMl2rPap15" role="3uHU7B">
                          <node concept="37vLTw" id="3GM_nagTxmX" role="2Oq$k0">
                            <ref role="3cqZAo" node="6XMl2rPap0Z" resolve="regref" />
                          </node>
                          <node concept="3TrEf2" id="6XMl2rPap17" role="2OqNvi">
                            <ref role="3Tt5mk" to="tpfo:h5ZmkoQ" />
                          </node>
                        </node>
                      </node>
                      <node concept="3clFbS" id="6XMl2rPap18" role="3clFbx">
                        <node concept="3cpWs6" id="6XMl2rPap19" role="3cqZAp">
                          <node concept="37vLTw" id="3GM_nagT_4x" role="3cqZAk">
                            <ref role="3cqZAo" node="6XMl2rPap0V" resolve="parentRuc" />
                          </node>
                        </node>
                      </node>
                    </node>
                  </node>
                  <node concept="2OqwBi" id="6XMl2rPap1b" role="1DdaDG">
                    <node concept="37vLTw" id="3GM_nagTsLO" role="2Oq$k0">
                      <ref role="3cqZAo" node="6XMl2rPap0V" resolve="parentRuc" />
                    </node>
                    <node concept="2Rf3mk" id="6XMl2rPap1d" role="2OqNvi">
                      <node concept="1xMEDy" id="6XMl2rPap1e" role="1xVPHs">
                        <node concept="chp4Y" id="6XMl2rPap1f" role="ri$Ld">
                          <ref role="cht4Q" to="tpfo:h5ZmeCE" resolve="RegexpDeclarationReferenceRegexp" />
                        </node>
                      </node>
                    </node>
                  </node>
                </node>
              </node>
            </node>
          </node>
          <node concept="3y3z36" id="6XMl2rPap1g" role="3clFbw">
            <node concept="10Nm6u" id="6XMl2rPap1h" role="3uHU7w" />
            <node concept="37vLTw" id="3GM_nagTB6m" role="3uHU7B">
              <ref role="3cqZAo" node="6XMl2rPap0G" resolve="dcl" />
            </node>
          </node>
        </node>
        <node concept="3clFbH" id="6XMl2rPap1j" role="3cqZAp" />
        <node concept="1DcWWT" id="6XMl2rPap1k" role="3cqZAp">
          <node concept="3cpWsn" id="6XMl2rPap1l" role="1Duv9x">
            <property role="TrG5h" value="ifst" />
            <node concept="3Tqbb2" id="6XMl2rPap1m" role="1tU5fm">
              <ref role="ehGHo" to="tpee:fzclF8n" resolve="IfStatement" />
            </node>
          </node>
          <node concept="3clFbS" id="6XMl2rPap1n" role="2LFqv$">
            <node concept="1DcWWT" id="6XMl2rPap1o" role="3cqZAp">
              <node concept="2OqwBi" id="6XMl2rPap1p" role="1DdaDG">
                <node concept="2OqwBi" id="6XMl2rPap1q" role="2Oq$k0">
                  <node concept="37vLTw" id="3GM_nagTsZy" role="2Oq$k0">
                    <ref role="3cqZAo" node="6XMl2rPap1l" resolve="ifst" />
                  </node>
                  <node concept="3TrEf2" id="6XMl2rPap1s" role="2OqNvi">
                    <ref role="3Tt5mk" to="tpee:fzclF8o" />
                  </node>
                </node>
                <node concept="2Rf3mk" id="6XMl2rPap1t" role="2OqNvi">
                  <node concept="1xMEDy" id="6XMl2rPap1u" role="1xVPHs">
                    <node concept="chp4Y" id="6XMl2rPap1v" role="ri$Ld">
                      <ref role="cht4Q" to="tpfo:5kfJOUWnufP" resolve="FindMatchExpression" />
                    </node>
                  </node>
                  <node concept="1xIGOp" id="6XMl2rPap1w" role="1xVPHs" />
                </node>
              </node>
              <node concept="3cpWsn" id="6XMl2rPap1x" role="1Duv9x">
                <property role="TrG5h" value="expr" />
                <node concept="3Tqbb2" id="6XMl2rPap1y" role="1tU5fm">
                  <ref role="ehGHo" to="tpfo:5kfJOUWnufP" resolve="FindMatchExpression" />
                </node>
              </node>
              <node concept="3clFbS" id="6XMl2rPap1z" role="2LFqv$">
                <node concept="3clFbJ" id="6XMl2rPap1$" role="3cqZAp">
                  <node concept="3clFbS" id="6XMl2rPap1_" role="3clFbx">
                    <node concept="3cpWs6" id="6XMl2rPap1A" role="3cqZAp">
                      <node concept="37vLTw" id="3GM_nagTBCk" role="3cqZAk">
                        <ref role="3cqZAo" node="6XMl2rPap1x" resolve="expr" />
                      </node>
                    </node>
                  </node>
                  <node concept="2OqwBi" id="6XMl2rPap1C" role="3clFbw">
                    <node concept="1rXfSq" id="4hiugqyst_A" role="2Oq$k0">
                      <ref role="37wK5l" node="6XMl2rPap1Z" resolve="collectNamedParentheses" />
                      <node concept="37vLTw" id="3GM_nagTrav" role="37wK5m">
                        <ref role="3cqZAo" node="6XMl2rPap1x" resolve="expr" />
                      </node>
                    </node>
                    <node concept="3JPx81" id="6XMl2rPap1F" role="2OqNvi">
                      <node concept="2OqwBi" id="6XMl2rPap1G" role="25WWJ7">
                        <node concept="37vLTw" id="2BHiRxgha2o" role="2Oq$k0">
                          <ref role="3cqZAo" node="6XMl2rPap1R" resolve="ref" />
                        </node>
                        <node concept="3TrEf2" id="6XMl2rPap1I" role="2OqNvi">
                          <ref role="3Tt5mk" to="tpfo:h5Ty1Yp" />
                        </node>
                      </node>
                    </node>
                  </node>
                </node>
              </node>
            </node>
          </node>
          <node concept="2OqwBi" id="6XMl2rPap1J" role="1DdaDG">
            <node concept="37vLTw" id="2BHiRxgma5j" role="2Oq$k0">
              <ref role="3cqZAo" node="6XMl2rPap1R" resolve="ref" />
            </node>
            <node concept="z$bX8" id="6XMl2rPap1L" role="2OqNvi">
              <node concept="1xMEDy" id="6XMl2rPap1M" role="1xVPHs">
                <node concept="chp4Y" id="6XMl2rPap1N" role="ri$Ld">
                  <ref role="cht4Q" to="tpee:fzclF8n" resolve="IfStatement" />
                </node>
              </node>
              <node concept="1xIGOp" id="6XMl2rPap1O" role="1xVPHs" />
            </node>
          </node>
        </node>
        <node concept="3cpWs6" id="6XMl2rPap1P" role="3cqZAp">
          <node concept="10Nm6u" id="6XMl2rPap1Q" role="3cqZAk" />
        </node>
      </node>
      <node concept="37vLTG" id="6XMl2rPap1R" role="3clF46">
        <property role="TrG5h" value="ref" />
        <node concept="3Tqbb2" id="6XMl2rPap1S" role="1tU5fm">
          <ref role="ehGHo" to="tpfo:h5TxZXu" resolve="MatchVariableReference" />
        </node>
      </node>
      <node concept="3Tm1VV" id="6XMl2rPap1T" role="1B3o_S" />
    </node>
    <node concept="2YIFZL" id="6XMl2rPap1Z" role="jymVt">
      <property role="TrG5h" value="collectNamedParentheses" />
      <node concept="3clFbS" id="6XMl2rPap20" role="3clF47">
        <node concept="3cpWs8" id="6XMl2rPap21" role="3cqZAp">
          <node concept="3cpWsn" id="6XMl2rPap22" role="3cpWs9">
            <property role="TrG5h" value="res" />
            <node concept="2I9FWS" id="6XMl2rPap23" role="1tU5fm">
              <ref role="2I9WkF" to="tpfo:h5Tukr7" resolve="MatchParensRegexp" />
            </node>
            <node concept="2ShNRf" id="6XMl2rPap24" role="33vP2m">
              <node concept="2T8Vx0" id="6XMl2rPap25" role="2ShVmc">
                <node concept="2I9FWS" id="6XMl2rPap26" role="2T96Bj">
                  <ref role="2I9WkF" to="tpfo:h5Tukr7" resolve="MatchParensRegexp" />
                </node>
              </node>
            </node>
          </node>
        </node>
        <node concept="3clFbF" id="6XMl2rPap27" role="3cqZAp">
          <node concept="1rXfSq" id="4hiugqysqJk" role="3clFbG">
            <ref role="37wK5l" node="6XMl2rPaX79" resolve="collectNamedParenthesesInternal" />
            <node concept="37vLTw" id="2BHiRxgmDZj" role="37wK5m">
              <ref role="3cqZAo" node="6XMl2rPap2h" resolve="node" />
            </node>
            <node concept="2ShNRf" id="6XMl2rPap2a" role="37wK5m">
              <node concept="2T8Vx0" id="6XMl2rPap2b" role="2ShVmc">
                <node concept="2I9FWS" id="6XMl2rPap2c" role="2T96Bj" />
              </node>
            </node>
            <node concept="37vLTw" id="3GM_nagTBq8" role="37wK5m">
              <ref role="3cqZAo" node="6XMl2rPap22" resolve="res" />
            </node>
          </node>
        </node>
        <node concept="3cpWs6" id="6XMl2rPap2e" role="3cqZAp">
          <node concept="37vLTw" id="3GM_nagT_E5" role="3cqZAk">
            <ref role="3cqZAo" node="6XMl2rPap22" resolve="res" />
          </node>
        </node>
      </node>
      <node concept="2I9FWS" id="6XMl2rPap2g" role="3clF45">
        <ref role="2I9WkF" to="tpfo:h5Tukr7" resolve="MatchParensRegexp" />
      </node>
      <node concept="37vLTG" id="6XMl2rPap2h" role="3clF46">
        <property role="TrG5h" value="node" />
        <node concept="3Tqbb2" id="6XMl2rPap2i" role="1tU5fm" />
      </node>
      <node concept="3Tm1VV" id="6XMl2rPap2j" role="1B3o_S" />
    </node>
    <node concept="2YIFZL" id="6XMl2rPaX79" role="jymVt">
      <property role="TrG5h" value="collectNamedParenthesesInternal" />
      <node concept="3Tm6S6" id="6XMl2rPaX7a" role="1B3o_S" />
      <node concept="3clFbS" id="6XMl2rPaX7b" role="3clF47">
        <node concept="3clFbJ" id="6XMl2rPaX7c" role="3cqZAp">
          <node concept="3clFbS" id="6XMl2rPaX7d" role="3clFbx">
            <node concept="3cpWs6" id="6XMl2rPaX7e" role="3cqZAp" />
          </node>
          <node concept="2OqwBi" id="6XMl2rPaX7f" role="3clFbw">
            <node concept="37vLTw" id="2BHiRxgl5xR" role="2Oq$k0">
              <ref role="3cqZAo" node="6XMl2rPaX81" resolve="seen" />
            </node>
            <node concept="3JPx81" id="6XMl2rPaX7h" role="2OqNvi">
              <node concept="37vLTw" id="2BHiRxgm6v$" role="25WWJ7">
                <ref role="3cqZAo" node="6XMl2rPaX7Z" resolve="node" />
              </node>
            </node>
          </node>
        </node>
        <node concept="3clFbF" id="6XMl2rPaX7j" role="3cqZAp">
          <node concept="2OqwBi" id="6XMl2rPaX7k" role="3clFbG">
            <node concept="37vLTw" id="2BHiRxgm8uM" role="2Oq$k0">
              <ref role="3cqZAo" node="6XMl2rPaX81" resolve="seen" />
            </node>
            <node concept="TSZUe" id="6XMl2rPaX7m" role="2OqNvi">
              <node concept="37vLTw" id="2BHiRxglnWb" role="25WWJ7">
                <ref role="3cqZAo" node="6XMl2rPaX7Z" resolve="node" />
              </node>
            </node>
          </node>
        </node>
        <node concept="3clFbH" id="6XMl2rPaX7o" role="3cqZAp" />
        <node concept="1DcWWT" id="6XMl2rPaX7p" role="3cqZAp">
          <node concept="2OqwBi" id="6XMl2rPaX7q" role="1DdaDG">
            <node concept="37vLTw" id="2BHiRxghiIu" role="2Oq$k0">
              <ref role="3cqZAo" node="6XMl2rPaX7Z" resolve="node" />
            </node>
            <node concept="2Rf3mk" id="6XMl2rPaX7s" role="2OqNvi">
              <node concept="1xMEDy" id="6XMl2rPaX7t" role="1xVPHs">
                <node concept="chp4Y" id="6XMl2rPaX7u" role="ri$Ld">
                  <ref role="cht4Q" to="tpfo:h5ZmeCE" resolve="RegexpDeclarationReferenceRegexp" />
                </node>
              </node>
            </node>
          </node>
          <node concept="3cpWsn" id="6XMl2rPaX7v" role="1Duv9x">
            <property role="TrG5h" value="ref" />
            <node concept="3Tqbb2" id="6XMl2rPaX7w" role="1tU5fm">
              <ref role="ehGHo" to="tpfo:h5ZmeCE" resolve="RegexpDeclarationReferenceRegexp" />
            </node>
          </node>
          <node concept="3clFbS" id="6XMl2rPaX7x" role="2LFqv$">
            <node concept="3clFbJ" id="6XMl2rPaX7y" role="3cqZAp">
              <node concept="3y3z36" id="6XMl2rPaX7z" role="3clFbw">
                <node concept="10Nm6u" id="6XMl2rPaX7$" role="3uHU7w" />
                <node concept="2OqwBi" id="6XMl2rPaX7_" role="3uHU7B">
                  <node concept="37vLTw" id="3GM_nagTuGS" role="2Oq$k0">
                    <ref role="3cqZAo" node="6XMl2rPaX7v" resolve="ref" />
                  </node>
                  <node concept="3TrEf2" id="6XMl2rPaX7B" role="2OqNvi">
                    <ref role="3Tt5mk" to="tpfo:h5ZmkoQ" />
                  </node>
                </node>
              </node>
              <node concept="3clFbS" id="6XMl2rPaX7C" role="3clFbx">
                <node concept="3clFbF" id="6XMl2rPaX7D" role="3cqZAp">
                  <node concept="1rXfSq" id="4hiugqystW8" role="3clFbG">
                    <ref role="37wK5l" node="6XMl2rPaX79" resolve="collectNamedParenthesesInternal" />
                    <node concept="2OqwBi" id="6XMl2rPaX7F" role="37wK5m">
                      <node concept="37vLTw" id="3GM_nagTxDU" role="2Oq$k0">
                        <ref role="3cqZAo" node="6XMl2rPaX7v" resolve="ref" />
                      </node>
                      <node concept="3TrEf2" id="6XMl2rPaX7H" role="2OqNvi">
                        <ref role="3Tt5mk" to="tpfo:h5ZmkoQ" />
                      </node>
                    </node>
                    <node concept="37vLTw" id="2BHiRxgheNA" role="37wK5m">
                      <ref role="3cqZAo" node="6XMl2rPaX81" resolve="seen" />
                    </node>
                    <node concept="37vLTw" id="2BHiRxgmPaA" role="37wK5m">
                      <ref role="3cqZAo" node="6XMl2rPaX83" resolve="found" />
                    </node>
                  </node>
                </node>
              </node>
            </node>
          </node>
        </node>
        <node concept="1DcWWT" id="6XMl2rPaX7K" role="3cqZAp">
          <node concept="2OqwBi" id="6XMl2rPaX7L" role="1DdaDG">
            <node concept="37vLTw" id="2BHiRxgm9FA" role="2Oq$k0">
              <ref role="3cqZAo" node="6XMl2rPaX7Z" resolve="node" />
            </node>
            <node concept="2Rf3mk" id="6XMl2rPaX7N" role="2OqNvi">
              <node concept="1xMEDy" id="6XMl2rPaX7O" role="1xVPHs">
                <node concept="chp4Y" id="6XMl2rPaX7P" role="ri$Ld">
                  <ref role="cht4Q" to="tpfo:h5Tukr7" resolve="MatchParensRegexp" />
                </node>
              </node>
            </node>
          </node>
          <node concept="3cpWsn" id="6XMl2rPaX7Q" role="1Duv9x">
            <property role="TrG5h" value="mpe" />
            <node concept="3Tqbb2" id="6XMl2rPaX7R" role="1tU5fm">
              <ref role="ehGHo" to="tpfo:h5Tukr7" resolve="MatchParensRegexp" />
            </node>
          </node>
          <node concept="3clFbS" id="6XMl2rPaX7S" role="2LFqv$">
            <node concept="3clFbF" id="6XMl2rPaX7T" role="3cqZAp">
              <node concept="2OqwBi" id="6XMl2rPaX7U" role="3clFbG">
                <node concept="TSZUe" id="6XMl2rPaX7V" role="2OqNvi">
                  <node concept="37vLTw" id="3GM_nagTwYb" role="25WWJ7">
                    <ref role="3cqZAo" node="6XMl2rPaX7Q" resolve="mpe" />
                  </node>
                </node>
                <node concept="37vLTw" id="2BHiRxglXPr" role="2Oq$k0">
                  <ref role="3cqZAo" node="6XMl2rPaX83" resolve="found" />
                </node>
              </node>
            </node>
          </node>
        </node>
      </node>
      <node concept="3cqZAl" id="6XMl2rPaX7Y" role="3clF45" />
      <node concept="37vLTG" id="6XMl2rPaX7Z" role="3clF46">
        <property role="TrG5h" value="node" />
        <node concept="3Tqbb2" id="6XMl2rPaX80" role="1tU5fm" />
      </node>
      <node concept="37vLTG" id="6XMl2rPaX81" role="3clF46">
        <property role="TrG5h" value="seen" />
        <node concept="2I9FWS" id="6XMl2rPaX82" role="1tU5fm" />
      </node>
      <node concept="37vLTG" id="6XMl2rPaX83" role="3clF46">
        <property role="TrG5h" value="found" />
        <node concept="2I9FWS" id="6XMl2rPaX84" role="1tU5fm">
          <ref role="2I9WkF" to="tpfo:h5Tukr7" resolve="MatchParensRegexp" />
        </node>
      </node>
    </node>
    <node concept="2YIFZL" id="6XMl2rPaX87" role="jymVt">
      <property role="TrG5h" value="getRegexpIfContainer" />
      <node concept="3Tqbb2" id="6XMl2rPaX88" role="3clF45">
        <ref role="ehGHo" to="tpee:fzclF8n" resolve="IfStatement" />
      </node>
      <node concept="3Tm1VV" id="6XMl2rPaX89" role="1B3o_S" />
      <node concept="3clFbS" id="6XMl2rPaX8a" role="3clF47">
        <node concept="3cpWs8" id="6XMl2rPaX8b" role="3cqZAp">
          <node concept="3cpWsn" id="6XMl2rPaX8c" role="3cpWs9">
            <property role="TrG5h" value="container" />
            <node concept="3Tqbb2" id="6XMl2rPaX8d" role="1tU5fm">
              <ref role="ehGHo" to="tpee:fzclF8l" resolve="Statement" />
            </node>
            <node concept="2OqwBi" id="6XMl2rPaX8e" role="33vP2m">
              <node concept="37vLTw" id="2BHiRxghfB6" role="2Oq$k0">
                <ref role="3cqZAo" node="6XMl2rPaX8J" resolve="n" />
              </node>
              <node concept="2Xjw5R" id="6XMl2rPaX8g" role="2OqNvi">
                <node concept="1xMEDy" id="6XMl2rPaX8h" role="1xVPHs">
                  <node concept="chp4Y" id="6XMl2rPaX8i" role="ri$Ld">
                    <ref role="cht4Q" to="tpee:fzclF8l" resolve="Statement" />
                  </node>
                </node>
              </node>
            </node>
          </node>
        </node>
        <node concept="3clFbJ" id="6XMl2rPaX8j" role="3cqZAp">
          <node concept="3clFbS" id="6XMl2rPaX8k" role="3clFbx">
            <node concept="3cpWs6" id="6XMl2rPaX8l" role="3cqZAp">
              <node concept="1PxgMI" id="6XMl2rPaX8m" role="3cqZAk">
                <ref role="1m5ApE" to="tpee:fzclF8n" resolve="IfStatement" />
                <node concept="37vLTw" id="3GM_nagTtPL" role="1m5AlR">
                  <ref role="3cqZAo" node="6XMl2rPaX8c" resolve="container" />
                </node>
              </node>
            </node>
          </node>
          <node concept="1Wc70l" id="6XMl2rPaX8o" role="3clFbw">
            <node concept="2OqwBi" id="6XMl2rPaX8p" role="3uHU7w">
              <node concept="37vLTw" id="3GM_nagTt9k" role="2Oq$k0">
                <ref role="3cqZAo" node="6XMl2rPaX8c" resolve="container" />
              </node>
              <node concept="1mIQ4w" id="6XMl2rPaX8r" role="2OqNvi">
                <node concept="chp4Y" id="6XMl2rPaX8s" role="cj9EA">
                  <ref role="cht4Q" to="tpee:fzclF8n" resolve="IfStatement" />
                </node>
              </node>
            </node>
            <node concept="1Wc70l" id="6XMl2rPaX8t" role="3uHU7B">
              <node concept="1Wc70l" id="6XMl2rPaX8u" role="3uHU7B">
                <node concept="2OqwBi" id="6XMl2rPaX8v" role="3uHU7B">
                  <node concept="37vLTw" id="3GM_nagTyLm" role="2Oq$k0">
                    <ref role="3cqZAo" node="6XMl2rPaX8c" resolve="container" />
                  </node>
                  <node concept="3x8VRR" id="6XMl2rPaX8x" role="2OqNvi" />
                </node>
                <node concept="2OqwBi" id="6XMl2rPaX8y" role="3uHU7w">
                  <node concept="2OqwBi" id="6XMl2rPaX8z" role="2Oq$k0">
                    <node concept="37vLTw" id="3GM_nagTxIy" role="2Oq$k0">
                      <ref role="3cqZAo" node="6XMl2rPaX8c" resolve="container" />
                    </node>
                    <node concept="1mfA1w" id="6XMl2rPaX8_" role="2OqNvi" />
                  </node>
                  <node concept="3x8VRR" id="6XMl2rPaX8A" role="2OqNvi" />
                </node>
              </node>
              <node concept="2OqwBi" id="6XMl2rPaX8B" role="3uHU7w">
                <node concept="2OqwBi" id="6XMl2rPaX8C" role="2Oq$k0">
                  <node concept="37vLTw" id="3GM_nagTwHA" role="2Oq$k0">
                    <ref role="3cqZAo" node="6XMl2rPaX8c" resolve="container" />
                  </node>
                  <node concept="1mfA1w" id="6XMl2rPaX8E" role="2OqNvi" />
                </node>
                <node concept="1mIQ4w" id="6XMl2rPaX8F" role="2OqNvi">
                  <node concept="chp4Y" id="6XMl2rPaX8G" role="cj9EA">
                    <ref role="cht4Q" to="tpee:fzclF80" resolve="StatementList" />
                  </node>
                </node>
              </node>
            </node>
          </node>
        </node>
        <node concept="3cpWs6" id="6XMl2rPaX8H" role="3cqZAp">
          <node concept="10Nm6u" id="6XMl2rPaX8I" role="3cqZAk" />
        </node>
      </node>
      <node concept="37vLTG" id="6XMl2rPaX8J" role="3clF46">
        <property role="TrG5h" value="n" />
        <node concept="3Tqbb2" id="6XMl2rPaX8K" role="1tU5fm">
          <ref role="ehGHo" to="tpfo:5kfJOUWnufP" resolve="FindMatchExpression" />
        </node>
      </node>
    </node>
  </node>
</model>

