<?xml version="1.0" encoding="UTF-8"?>
<model ref="r:5c2005a8-261b-4759-9059-c2decf025b8a(jetbrains.mps.baseLanguage.regexp.intentions)">
  <persistence version="9" />
  <languages>
    <use id="aee9cad2-acd4-4608-aef2-0004f6a1cdbd" name="jetbrains.mps.lang.actions" version="0" />
    <use id="d7a92d38-f7db-40d0-8431-763b0c3c9f20" name="jetbrains.mps.lang.intentions" version="0" />
    <use id="13744753-c81f-424a-9c1b-cf8943bf4e86" name="jetbrains.mps.lang.sharedConcepts" version="0" />
    <use id="7866978e-a0f0-4cc7-81bc-4d213d9375e1" name="jetbrains.mps.lang.smodel" version="4" />
    <use id="f3061a53-9226-4cc5-a443-f952ceaf5816" name="jetbrains.mps.baseLanguage" version="4" />
    <devkit ref="fbc25dd2-5da4-483a-8b19-70928e1b62d7(jetbrains.mps.devkit.general-purpose)" />
  </languages>
  <imports>
    <import index="tpfo" ref="r:00000000-0000-4000-0000-011c89590518(jetbrains.mps.baseLanguage.regexp.structure)" />
    <import index="exr9" ref="1ed103c3-3aa6-49b7-9c21-6765ee11f224/java:jetbrains.mps.nodeEditor(MPS.Editor/)" />
    <import index="cj4x" ref="1ed103c3-3aa6-49b7-9c21-6765ee11f224/java:jetbrains.mps.openapi.editor(MPS.Editor/)" />
  </imports>
  <registry>
    <language id="13744753-c81f-424a-9c1b-cf8943bf4e86" name="jetbrains.mps.lang.sharedConcepts">
      <concept id="1194033889146" name="jetbrains.mps.lang.sharedConcepts.structure.ConceptFunctionParameter_editorContext" flags="nn" index="1XNTG" />
    </language>
    <language id="f3061a53-9226-4cc5-a443-f952ceaf5816" name="jetbrains.mps.baseLanguage">
      <concept id="1202948039474" name="jetbrains.mps.baseLanguage.structure.InstanceMethodCallOperation" flags="nn" index="liA8E" />
      <concept id="1197027756228" name="jetbrains.mps.baseLanguage.structure.DotExpression" flags="nn" index="2OqwBi">
        <child id="1197027771414" name="operand" index="2Oq$k0" />
        <child id="1197027833540" name="operation" index="2OqNvi" />
      </concept>
      <concept id="1137021947720" name="jetbrains.mps.baseLanguage.structure.ConceptFunction" flags="in" index="2VMwT0">
        <child id="1137022507850" name="body" index="2VODD2" />
      </concept>
      <concept id="1070475926800" name="jetbrains.mps.baseLanguage.structure.StringLiteral" flags="nn" index="Xl_RD">
        <property id="1070475926801" name="value" index="Xl_RC" />
      </concept>
      <concept id="1068431474542" name="jetbrains.mps.baseLanguage.structure.VariableDeclaration" flags="ng" index="33uBYm">
        <child id="1068431790190" name="initializer" index="33vP2m" />
      </concept>
      <concept id="1068498886296" name="jetbrains.mps.baseLanguage.structure.VariableReference" flags="nn" index="37vLTw">
        <reference id="1068581517664" name="variableDeclaration" index="3cqZAo" />
      </concept>
      <concept id="4972933694980447171" name="jetbrains.mps.baseLanguage.structure.BaseVariableDeclaration" flags="ng" index="19Szcq">
        <child id="5680397130376446158" name="type" index="1tU5fm" />
      </concept>
      <concept id="1068580123155" name="jetbrains.mps.baseLanguage.structure.ExpressionStatement" flags="nn" index="3clFbF">
        <child id="1068580123156" name="expression" index="3clFbG" />
      </concept>
      <concept id="1068580123136" name="jetbrains.mps.baseLanguage.structure.StatementList" flags="sn" stub="5293379017992965193" index="3clFbS">
        <child id="1068581517665" name="statement" index="3cqZAp" />
      </concept>
      <concept id="1068581242864" name="jetbrains.mps.baseLanguage.structure.LocalVariableDeclarationStatement" flags="nn" index="3cpWs8">
        <child id="1068581242865" name="localVariableDeclaration" index="3cpWs9" />
      </concept>
      <concept id="1068581242863" name="jetbrains.mps.baseLanguage.structure.LocalVariableDeclaration" flags="nr" index="3cpWsn" />
      <concept id="1204053956946" name="jetbrains.mps.baseLanguage.structure.IMethodCall" flags="ng" index="1ndlxa">
        <reference id="1068499141037" name="baseMethodDeclaration" index="37wK5l" />
        <child id="1068499141038" name="actualArgument" index="37wK5m" />
      </concept>
    </language>
    <language id="d7a92d38-f7db-40d0-8431-763b0c3c9f20" name="jetbrains.mps.lang.intentions">
      <concept id="1192794744107" name="jetbrains.mps.lang.intentions.structure.IntentionDeclaration" flags="ig" index="2S6QgY" />
      <concept id="1192794782375" name="jetbrains.mps.lang.intentions.structure.DescriptionBlock" flags="in" index="2S6ZIM" />
      <concept id="1192795911897" name="jetbrains.mps.lang.intentions.structure.ExecuteBlock" flags="in" index="2Sbjvc" />
      <concept id="1192796902958" name="jetbrains.mps.lang.intentions.structure.ConceptFunctionParameter_node" flags="nn" index="2Sf5sV" />
      <concept id="2522969319638091381" name="jetbrains.mps.lang.intentions.structure.BaseIntentionDeclaration" flags="ig" index="2ZfUlf">
        <reference id="2522969319638198290" name="forConcept" index="2ZfgGC" />
        <child id="2522969319638198291" name="executeFunction" index="2ZfgGD" />
        <child id="2522969319638093993" name="descriptionFunction" index="2ZfVej" />
      </concept>
    </language>
    <language id="aee9cad2-acd4-4608-aef2-0004f6a1cdbd" name="jetbrains.mps.lang.actions">
      <concept id="767145758118872828" name="jetbrains.mps.lang.actions.structure.NF_Node_ReplaceWithNewOperation" flags="nn" index="2DeJnW" />
    </language>
    <language id="7866978e-a0f0-4cc7-81bc-4d213d9375e1" name="jetbrains.mps.lang.smodel">
      <concept id="1139867745658" name="jetbrains.mps.lang.smodel.structure.Node_ReplaceWithNewOperation" flags="nn" index="1_qnLN">
        <reference id="1139867957129" name="concept" index="1_rbq0" />
      </concept>
      <concept id="1138055754698" name="jetbrains.mps.lang.smodel.structure.SNodeType" flags="in" index="3Tqbb2">
        <reference id="1138405853777" name="concept" index="ehGHo" />
      </concept>
    </language>
    <language id="ceab5195-25ea-4f22-9b92-103b95ca8c0c" name="jetbrains.mps.lang.core">
      <concept id="1169194658468" name="jetbrains.mps.lang.core.structure.INamedConcept" flags="ng" index="TrEIO">
        <property id="1169194664001" name="name" index="TrG5h" />
      </concept>
    </language>
  </registry>
  <node concept="2S6QgY" id="gY_W6Ijzaw">
    <property role="TrG5h" value="convertToNamed" />
    <ref role="2ZfgGC" to="tpfo:h5P8g6K" resolve="ParensRegexp" />
    <node concept="2S6ZIM" id="gY_W6Ijzax" role="2ZfVej">
      <node concept="3clFbS" id="gY_W6Ijzay" role="2VODD2">
        <node concept="3clFbF" id="gY_W6IjCmz" role="3cqZAp">
          <node concept="Xl_RD" id="gY_W6IjCm$" role="3clFbG">
            <property role="Xl_RC" value="Convert parentheses to named capturing group" />
          </node>
        </node>
      </node>
    </node>
    <node concept="2Sbjvc" id="gY_W6Ijzaz" role="2ZfgGD">
      <node concept="3clFbS" id="gY_W6Ijza$" role="2VODD2">
        <node concept="3cpWs8" id="gY_W6IloCS" role="3cqZAp">
          <node concept="3cpWsn" id="gY_W6IloCT" role="3cpWs9">
            <property role="TrG5h" value="n" />
            <node concept="3Tqbb2" id="gY_W6IloCU" role="1tU5fm">
              <ref role="ehGHo" to="tpfo:h5Tukr7" resolve="MatchParensRegexp" />
            </node>
            <node concept="2OqwBi" id="gY_W6IloD1" role="33vP2m">
              <node concept="2Sf5sV" id="gY_W6IloD2" role="2Oq$k0" />
              <node concept="2DeJnW" id="5wUAOoBBjoy" role="2OqNvi">
                <ref role="1_rbq0" to="tpfo:h5Tukr7" resolve="MatchParensRegexp" />
              </node>
            </node>
          </node>
        </node>
        <node concept="3clFbF" id="gY_W6IloJi" role="3cqZAp">
          <node concept="2OqwBi" id="gY_W6IloJk" role="3clFbG">
            <node concept="1XNTG" id="gY_W6IloJj" role="2Oq$k0" />
            <node concept="liA8E" id="gY_W6IloJo" role="2OqNvi">
              <ref role="37wK5l" to="cj4x:~EditorContext.flushEvents():void" resolve="flushEvents" />
            </node>
          </node>
        </node>
        <node concept="3clFbF" id="gY_W6IloDd" role="3cqZAp">
          <node concept="2OqwBi" id="gY_W6IloDf" role="3clFbG">
            <node concept="1XNTG" id="gY_W6IloDe" role="2Oq$k0" />
            <node concept="liA8E" id="gY_W6IloJf" role="2OqNvi">
              <ref role="37wK5l" to="cj4x:~EditorContext.selectWRTFocusPolicy(org.jetbrains.mps.openapi.model.SNode):void" resolve="selectWRTFocusPolicy" />
              <node concept="37vLTw" id="3GM_nagTrVt" role="37wK5m">
                <ref role="3cqZAo" node="gY_W6IloCT" resolve="n" />
              </node>
            </node>
          </node>
        </node>
      </node>
    </node>
  </node>
</model>

