<?xml version="1.0" encoding="UTF-8"?>
<model ref="r:00000000-0000-4000-0000-011c89590517(jetbrains.mps.baseLanguage.regexp.typesystem)">
  <persistence version="9" />
  <languages>
    <use id="3a13115c-633c-4c5c-bbcc-75c4219e9555" name="jetbrains.mps.lang.quotation" version="0" />
    <use id="7a5dda62-9140-4668-ab76-d5ed1746f2b2" name="jetbrains.mps.lang.typesystem" version="0" />
    <use id="7866978e-a0f0-4cc7-81bc-4d213d9375e1" name="jetbrains.mps.lang.smodel" version="4" />
    <use id="f3061a53-9226-4cc5-a443-f952ceaf5816" name="jetbrains.mps.baseLanguage" version="4" />
    <devkit ref="fbc25dd2-5da4-483a-8b19-70928e1b62d7(jetbrains.mps.devkit.general-purpose)" />
  </languages>
  <imports>
    <import index="tpfo" ref="r:00000000-0000-4000-0000-011c89590518(jetbrains.mps.baseLanguage.regexp.structure)" />
    <import index="tpfs" ref="r:00000000-0000-4000-0000-011c89590514(jetbrains.mps.baseLanguage.regexp.behavior)" />
    <import index="33ny" ref="6354ebe7-c22a-4a0f-ac54-50b52ab9b065/java:java.util(JDK/)" />
    <import index="ni5j" ref="6354ebe7-c22a-4a0f-ac54-50b52ab9b065/java:java.util.regex(JDK/)" />
  </imports>
  <registry>
    <language id="f3061a53-9226-4cc5-a443-f952ceaf5816" name="jetbrains.mps.baseLanguage">
      <concept id="1197027756228" name="jetbrains.mps.baseLanguage.structure.DotExpression" flags="nn" index="2OqwBi">
        <child id="1197027771414" name="operand" index="2Oq$k0" />
        <child id="1197027833540" name="operation" index="2OqNvi" />
      </concept>
      <concept id="1070475926800" name="jetbrains.mps.baseLanguage.structure.StringLiteral" flags="nn" index="Xl_RD">
        <property id="1070475926801" name="value" index="Xl_RC" />
      </concept>
      <concept id="1070534644030" name="jetbrains.mps.baseLanguage.structure.BooleanType" flags="in" index="10P_77" />
      <concept id="1225271177708" name="jetbrains.mps.baseLanguage.structure.StringType" flags="in" index="17QB3L" />
      <concept id="1068580123159" name="jetbrains.mps.baseLanguage.structure.IfStatement" flags="nn" index="3clFbJ">
        <child id="1068580123160" name="condition" index="3clFbw" />
        <child id="1068580123161" name="ifTrue" index="3clFbx" />
      </concept>
      <concept id="1068580123136" name="jetbrains.mps.baseLanguage.structure.StatementList" flags="sn" stub="5293379017992965193" index="3clFbS">
        <child id="1068581517665" name="statement" index="3cqZAp" />
      </concept>
      <concept id="1081516740877" name="jetbrains.mps.baseLanguage.structure.NotExpression" flags="nn" index="3fqX7Q">
        <child id="1081516765348" name="expression" index="3fr31v" />
      </concept>
      <concept id="1204053956946" name="jetbrains.mps.baseLanguage.structure.IMethodCall" flags="ng" index="1ndlxa">
        <reference id="1068499141037" name="baseMethodDeclaration" index="37wK5l" />
      </concept>
      <concept id="1107535904670" name="jetbrains.mps.baseLanguage.structure.ClassifierType" flags="in" index="3uibUv">
        <reference id="1107535924139" name="classifier" index="3uigEE" />
        <child id="1109201940907" name="parameter" index="11_B2D" />
      </concept>
    </language>
    <language id="3a13115c-633c-4c5c-bbcc-75c4219e9555" name="jetbrains.mps.lang.quotation">
      <concept id="1196350785113" name="jetbrains.mps.lang.quotation.structure.Quotation" flags="nn" index="2c44tf">
        <child id="1196350785114" name="quotedNode" index="2c44tc" />
      </concept>
    </language>
    <language id="7a5dda62-9140-4668-ab76-d5ed1746f2b2" name="jetbrains.mps.lang.typesystem">
      <concept id="1185788614172" name="jetbrains.mps.lang.typesystem.structure.NormalTypeClause" flags="ng" index="mw_s8">
        <child id="1185788644032" name="normalType" index="mwGJk" />
      </concept>
      <concept id="1175517767210" name="jetbrains.mps.lang.typesystem.structure.ReportErrorStatement" flags="nn" index="2MkqsV">
        <child id="1175517851849" name="errorString" index="2MkJ7o" />
      </concept>
      <concept id="1212056081426" name="jetbrains.mps.lang.typesystem.structure.AbstractInequationStatement" flags="ng" index="Ob1k8">
        <property id="1212056105818" name="inequationPriority" index="Ob790" />
      </concept>
      <concept id="1227096774658" name="jetbrains.mps.lang.typesystem.structure.MessageStatement" flags="ng" index="2OEH$v">
        <child id="1227096802790" name="nodeToReport" index="2OEOjV" />
      </concept>
      <concept id="1195213580585" name="jetbrains.mps.lang.typesystem.structure.AbstractCheckingRule" flags="ig" index="18hYwZ">
        <child id="1195213635060" name="body" index="18ibNy" />
      </concept>
      <concept id="1195214364922" name="jetbrains.mps.lang.typesystem.structure.NonTypesystemRule" flags="ig" index="18kY7G" />
      <concept id="1174642788531" name="jetbrains.mps.lang.typesystem.structure.ConceptReference" flags="ig" index="1YaCAy">
        <reference id="1174642800329" name="concept" index="1YaFvo" />
      </concept>
      <concept id="1174643105530" name="jetbrains.mps.lang.typesystem.structure.InferenceRule" flags="ig" index="1YbPZF" />
      <concept id="1174648085619" name="jetbrains.mps.lang.typesystem.structure.AbstractRule" flags="ng" index="1YuPPy">
        <child id="1174648101952" name="applicableNode" index="1YuTPh" />
      </concept>
      <concept id="1174650418652" name="jetbrains.mps.lang.typesystem.structure.ApplicableNodeReference" flags="nn" index="1YBJjd">
        <reference id="1174650432090" name="applicableNode" index="1YBMHb" />
      </concept>
      <concept id="1174657487114" name="jetbrains.mps.lang.typesystem.structure.TypeOfExpression" flags="nn" index="1Z2H0r">
        <child id="1174657509053" name="term" index="1Z2MuG" />
      </concept>
      <concept id="1174658326157" name="jetbrains.mps.lang.typesystem.structure.CreateEquationStatement" flags="nn" index="1Z5TYs" />
      <concept id="1174660718586" name="jetbrains.mps.lang.typesystem.structure.AbstractEquationStatement" flags="nn" index="1Zf1VF">
        <child id="1174660783413" name="leftExpression" index="1ZfhK$" />
        <child id="1174660783414" name="rightExpression" index="1ZfhKB" />
      </concept>
      <concept id="1174663118805" name="jetbrains.mps.lang.typesystem.structure.CreateLessThanInequationStatement" flags="nn" index="1ZobV4" />
    </language>
    <language id="7866978e-a0f0-4cc7-81bc-4d213d9375e1" name="jetbrains.mps.lang.smodel">
      <concept id="1179409122411" name="jetbrains.mps.lang.smodel.structure.Node_ConceptMethodCall" flags="nn" index="2qgKlT" />
      <concept id="1138056143562" name="jetbrains.mps.lang.smodel.structure.SLinkAccess" flags="nn" index="3TrEf2">
        <reference id="1138056516764" name="link" index="3Tt5mk" />
      </concept>
    </language>
    <language id="ceab5195-25ea-4f22-9b92-103b95ca8c0c" name="jetbrains.mps.lang.core">
      <concept id="1133920641626" name="jetbrains.mps.lang.core.structure.BaseConcept" flags="ng" index="2VYdi">
        <property id="1193676396447" name="virtualPackage" index="3GE5qa" />
      </concept>
      <concept id="1169194658468" name="jetbrains.mps.lang.core.structure.INamedConcept" flags="ng" index="TrEIO">
        <property id="1169194664001" name="name" index="TrG5h" />
      </concept>
    </language>
  </registry>
  <node concept="1YbPZF" id="h9gWUfR">
    <property role="TrG5h" value="MatchVariableReference" />
    <node concept="3clFbS" id="h9gWUfS" role="18ibNy">
      <node concept="1Z5TYs" id="hMupAeq" role="3cqZAp">
        <node concept="mw_s8" id="hMupAer" role="1ZfhK$">
          <node concept="1Z2H0r" id="hMupAes" role="mwGJk">
            <node concept="1YBJjd" id="h9gWUfW" role="1Z2MuG">
              <ref role="1YBMHb" node="h9gWUfK" resolve="mvr" />
            </node>
          </node>
        </node>
        <node concept="mw_s8" id="hMupAet" role="1ZfhKB">
          <node concept="2c44tf" id="hrWDUGF" role="mwGJk">
            <node concept="17QB3L" id="hP3iOzQ" role="2c44tc" />
          </node>
        </node>
      </node>
    </node>
    <node concept="1YaCAy" id="h9gWUfK" role="1YuTPh">
      <property role="TrG5h" value="mvr" />
      <ref role="1YaFvo" to="tpfo:h5TxZXu" resolve="MatchVariableReference" />
    </node>
  </node>
  <node concept="1YbPZF" id="h9gWUfX">
    <property role="TrG5h" value="MatchRegexpStatement" />
    <node concept="3clFbS" id="h9gWUfY" role="18ibNy">
      <node concept="1ZobV4" id="h9gWUfZ" role="3cqZAp">
        <property role="Ob790" value="0" />
        <node concept="mw_s8" id="hgnxcYw" role="1ZfhK$">
          <node concept="1Z2H0r" id="h9gWUg0" role="mwGJk">
            <node concept="2OqwBi" id="hxx$RW$" role="1Z2MuG">
              <node concept="1YBJjd" id="h9gWUg2" role="2Oq$k0">
                <ref role="1YBMHb" node="h9gWUfL" resolve="mrs" />
              </node>
              <node concept="3TrEf2" id="h9gWUg3" role="2OqNvi">
                <ref role="3Tt5mk" to="tpfo:h5QpSLu" />
              </node>
            </node>
          </node>
        </node>
        <node concept="mw_s8" id="hgnxcYx" role="1ZfhKB">
          <node concept="2c44tf" id="hrWDUGX" role="mwGJk">
            <node concept="17QB3L" id="hP3iQpD" role="2c44tc" />
          </node>
        </node>
      </node>
    </node>
    <node concept="1YaCAy" id="h9gWUfL" role="1YuTPh">
      <property role="TrG5h" value="mrs" />
      <ref role="1YaFvo" to="tpfo:h5QpiWk" resolve="MatchRegexpStatement" />
    </node>
  </node>
  <node concept="1YbPZF" id="h9gWUg6">
    <property role="TrG5h" value="ForEachMatchStatement" />
    <node concept="3clFbS" id="h9gWUg7" role="18ibNy">
      <node concept="1ZobV4" id="h9gWUg8" role="3cqZAp">
        <property role="Ob790" value="0" />
        <node concept="mw_s8" id="hgnxcYy" role="1ZfhK$">
          <node concept="1Z2H0r" id="h9gWUg9" role="mwGJk">
            <node concept="2OqwBi" id="hxx$JUo" role="1Z2MuG">
              <node concept="1YBJjd" id="h9gWUgb" role="2Oq$k0">
                <ref role="1YBMHb" node="h9gWUfM" resolve="fm" />
              </node>
              <node concept="3TrEf2" id="h9gWUgc" role="2OqNvi">
                <ref role="3Tt5mk" to="tpfo:h6sG6YG" />
              </node>
            </node>
          </node>
        </node>
        <node concept="mw_s8" id="hgnxcYz" role="1ZfhKB">
          <node concept="2c44tf" id="hrWDUGZ" role="mwGJk">
            <node concept="17QB3L" id="hP3iPcV" role="2c44tc" />
          </node>
        </node>
      </node>
    </node>
    <node concept="1YaCAy" id="h9gWUfM" role="1YuTPh">
      <property role="TrG5h" value="fm" />
      <ref role="1YaFvo" to="tpfo:h6sFZsI" resolve="ForEachMatchStatement" />
    </node>
  </node>
  <node concept="1YbPZF" id="h9gWUgf">
    <property role="TrG5h" value="ReplaceWithRegexpExpression" />
    <node concept="3clFbS" id="h9gWUgg" role="18ibNy">
      <node concept="1ZobV4" id="h9gWUgh" role="3cqZAp">
        <property role="Ob790" value="0" />
        <node concept="mw_s8" id="hgnxcY$" role="1ZfhK$">
          <node concept="1Z2H0r" id="h9gWUgi" role="mwGJk">
            <node concept="2OqwBi" id="hxx$_jc" role="1Z2MuG">
              <node concept="1YBJjd" id="h9gWUgk" role="2Oq$k0">
                <ref role="1YBMHb" node="h9gWUfN" resolve="rr" />
              </node>
              <node concept="3TrEf2" id="h9gWUgl" role="2OqNvi">
                <ref role="3Tt5mk" to="tpfo:h5YXr9F" />
              </node>
            </node>
          </node>
        </node>
        <node concept="mw_s8" id="hgnxcY_" role="1ZfhKB">
          <node concept="2c44tf" id="hrWDUH1" role="mwGJk">
            <node concept="17QB3L" id="hP3iQt$" role="2c44tc" />
          </node>
        </node>
      </node>
    </node>
    <node concept="1YaCAy" id="h9gWUfN" role="1YuTPh">
      <property role="TrG5h" value="rr" />
      <ref role="1YaFvo" to="tpfo:h5YWZsH" resolve="ReplaceWithRegexpExpression" />
    </node>
  </node>
  <node concept="1YbPZF" id="h9gWUgo">
    <property role="TrG5h" value="SplitExpression" />
    <node concept="3clFbS" id="h9gWUgp" role="18ibNy">
      <node concept="1ZobV4" id="h9gWUgq" role="3cqZAp">
        <property role="Ob790" value="0" />
        <node concept="mw_s8" id="hgnxcYA" role="1ZfhK$">
          <node concept="1Z2H0r" id="h9gWUgr" role="mwGJk">
            <node concept="2OqwBi" id="hxx$DMW" role="1Z2MuG">
              <node concept="1YBJjd" id="h9gWUgt" role="2Oq$k0">
                <ref role="1YBMHb" node="h9gWUfO" resolve="se" />
              </node>
              <node concept="3TrEf2" id="h9gWUgu" role="2OqNvi">
                <ref role="3Tt5mk" to="tpfo:h6tg_Ex" />
              </node>
            </node>
          </node>
        </node>
        <node concept="mw_s8" id="hgnxcYB" role="1ZfhKB">
          <node concept="2c44tf" id="hrWDUH3" role="mwGJk">
            <node concept="17QB3L" id="hP3iQHg" role="2c44tc" />
          </node>
        </node>
      </node>
      <node concept="1Z5TYs" id="hNV0byB" role="3cqZAp">
        <node concept="mw_s8" id="hNV0byE" role="1ZfhK$">
          <node concept="1Z2H0r" id="hNV0byG" role="mwGJk">
            <node concept="1YBJjd" id="h9gWUg_" role="1Z2MuG">
              <ref role="1YBMHb" node="h9gWUfO" resolve="se" />
            </node>
          </node>
        </node>
        <node concept="mw_s8" id="hNV0byI" role="1ZfhKB">
          <node concept="2c44tf" id="hrWDUH5" role="mwGJk">
            <node concept="3uibUv" id="hrWDUH6" role="2c44tc">
              <ref role="3uigEE" to="33ny:~List" resolve="List" />
              <node concept="17QB3L" id="hP3iQT1" role="11_B2D" />
            </node>
          </node>
        </node>
      </node>
    </node>
    <node concept="1YaCAy" id="h9gWUfO" role="1YuTPh">
      <property role="TrG5h" value="se" />
      <ref role="1YaFvo" to="tpfo:h6tgssO" resolve="SplitExpression" />
    </node>
  </node>
  <node concept="1YbPZF" id="h9gWUgA">
    <property role="TrG5h" value="FindMatchStatement" />
    <node concept="3clFbS" id="h9gWUgB" role="18ibNy">
      <node concept="1ZobV4" id="h9gWUgC" role="3cqZAp">
        <property role="Ob790" value="0" />
        <node concept="mw_s8" id="hgnxcYC" role="1ZfhK$">
          <node concept="1Z2H0r" id="h9gWUgD" role="mwGJk">
            <node concept="2OqwBi" id="hxx$V3J" role="1Z2MuG">
              <node concept="1YBJjd" id="h9gWUgF" role="2Oq$k0">
                <ref role="1YBMHb" node="h9gWUfQ" resolve="fm" />
              </node>
              <node concept="3TrEf2" id="h9gWUgG" role="2OqNvi">
                <ref role="3Tt5mk" to="tpfo:h6ty3YW" />
              </node>
            </node>
          </node>
        </node>
        <node concept="mw_s8" id="hgnxcYD" role="1ZfhKB">
          <node concept="2c44tf" id="hrWDUH8" role="mwGJk">
            <node concept="17QB3L" id="hP3iOs0" role="2c44tc" />
          </node>
        </node>
      </node>
    </node>
    <node concept="1YaCAy" id="h9gWUfQ" role="1YuTPh">
      <property role="TrG5h" value="fm" />
      <ref role="1YaFvo" to="tpfo:h6ty0uz" resolve="FindMatchStatement" />
    </node>
  </node>
  <node concept="1YbPZF" id="hanhaLU">
    <property role="TrG5h" value="MatchRegexpExpression" />
    <node concept="3clFbS" id="hanhaLV" role="18ibNy">
      <node concept="1Z5TYs" id="hNV0byu" role="3cqZAp">
        <node concept="mw_s8" id="hNV0byx" role="1ZfhK$">
          <node concept="1Z2H0r" id="hNV0byz" role="mwGJk">
            <node concept="1YBJjd" id="hanhoEg" role="1Z2MuG">
              <ref role="1YBMHb" node="hanheYK" resolve="matchRegexpExpression" />
            </node>
          </node>
        </node>
        <node concept="mw_s8" id="hNV0by_" role="1ZfhKB">
          <node concept="2c44tf" id="hrWDUHa" role="mwGJk">
            <node concept="10P_77" id="hrWDUHb" role="2c44tc" />
          </node>
        </node>
      </node>
    </node>
    <node concept="1YaCAy" id="hanheYK" role="1YuTPh">
      <property role="TrG5h" value="matchRegexpExpression" />
      <ref role="1YaFvo" to="tpfo:hanawKM" resolve="MatchRegexpExpression" />
    </node>
  </node>
  <node concept="1YbPZF" id="hMko2Gg">
    <property role="TrG5h" value="typeof_SplitOperation" />
    <property role="3GE5qa" value="Operations" />
    <node concept="3clFbS" id="hMko2Gh" role="18ibNy">
      <node concept="1Z5TYs" id="hNV0by5" role="3cqZAp">
        <node concept="mw_s8" id="hNV0by8" role="1ZfhK$">
          <node concept="1Z2H0r" id="hNV0bya" role="mwGJk">
            <node concept="1YBJjd" id="hMko6sR" role="1Z2MuG">
              <ref role="1YBMHb" node="hMko2Gi" resolve="so" />
            </node>
          </node>
        </node>
        <node concept="mw_s8" id="hNV0byc" role="1ZfhKB">
          <node concept="2c44tf" id="hMko4TF" role="mwGJk">
            <node concept="3uibUv" id="hMko4TG" role="2c44tc">
              <ref role="3uigEE" to="33ny:~List" resolve="List" />
              <node concept="17QB3L" id="hP3iPh6" role="11_B2D" />
            </node>
          </node>
        </node>
      </node>
    </node>
    <node concept="1YaCAy" id="hMko2Gi" role="1YuTPh">
      <property role="TrG5h" value="so" />
      <ref role="1YaFvo" to="tpfo:hMkaFxF" resolve="SplitOperation" />
    </node>
  </node>
  <node concept="1YbPZF" id="hMkvBtI">
    <property role="TrG5h" value="typeof_MatchRegexpOperation" />
    <property role="3GE5qa" value="Operations" />
    <node concept="3clFbS" id="hMkvBtJ" role="18ibNy">
      <node concept="1Z5TYs" id="hNV0bz0" role="3cqZAp">
        <node concept="mw_s8" id="hNV0bz3" role="1ZfhK$">
          <node concept="1Z2H0r" id="hNV0bz5" role="mwGJk">
            <node concept="1YBJjd" id="hMkvD5A" role="1Z2MuG">
              <ref role="1YBMHb" node="hMkvBtK" resolve="operation" />
            </node>
          </node>
        </node>
        <node concept="mw_s8" id="hNV0bz7" role="1ZfhKB">
          <node concept="2c44tf" id="hMkvBL$" role="mwGJk">
            <node concept="10P_77" id="hMkvBL_" role="2c44tc" />
          </node>
        </node>
      </node>
    </node>
    <node concept="1YaCAy" id="hMkvBtK" role="1YuTPh">
      <property role="TrG5h" value="operation" />
      <ref role="1YaFvo" to="tpfo:hMkpEUl" resolve="MatchRegexpOperation" />
    </node>
  </node>
  <node concept="18kY7G" id="7eq8FHGGy94">
    <property role="TrG5h" value="check_StringLiteralRegexp" />
    <node concept="3clFbS" id="7eq8FHGGy95" role="18ibNy">
      <node concept="3clFbJ" id="7eq8FHGGyE8" role="3cqZAp">
        <node concept="3fqX7Q" id="7eq8FHGGyEb" role="3clFbw">
          <node concept="2OqwBi" id="7eq8FHGGyEe" role="3fr31v">
            <node concept="1YBJjd" id="7eq8FHGGyEd" role="2Oq$k0">
              <ref role="1YBMHb" node="7eq8FHGGyDO" resolve="literal" />
            </node>
            <node concept="2qgKlT" id="48bMILtL4iH" role="2OqNvi">
              <ref role="37wK5l" to="tpfs:48bMILtL4il" resolve="isValid" />
            </node>
          </node>
        </node>
        <node concept="3clFbS" id="7eq8FHGGyEa" role="3clFbx">
          <node concept="2MkqsV" id="7eq8FHGGyEj" role="3cqZAp">
            <node concept="Xl_RD" id="7eq8FHGGyEm" role="2MkJ7o">
              <property role="Xl_RC" value="Incorrect regexp string literal" />
            </node>
            <node concept="1YBJjd" id="7eq8FHGGyEn" role="2OEOjV">
              <ref role="1YBMHb" node="7eq8FHGGyDO" resolve="literal" />
            </node>
          </node>
        </node>
      </node>
    </node>
    <node concept="1YaCAy" id="7eq8FHGGyDO" role="1YuTPh">
      <property role="TrG5h" value="literal" />
      <ref role="1YaFvo" to="tpfo:h5OC9$H" resolve="StringLiteralRegexp" />
    </node>
  </node>
  <node concept="1YbPZF" id="zc38bydMD2">
    <property role="TrG5h" value="typeof_InlineRegexpExpression" />
    <node concept="3clFbS" id="zc38bydMD3" role="18ibNy">
      <node concept="1Z5TYs" id="zc38bydN8C" role="3cqZAp">
        <node concept="mw_s8" id="zc38bydN8G" role="1ZfhKB">
          <node concept="2c44tf" id="zc38bydN8H" role="mwGJk">
            <node concept="3uibUv" id="zc38bydN8K" role="2c44tc">
              <ref role="3uigEE" to="ni5j:~Pattern" resolve="Pattern" />
            </node>
          </node>
        </node>
        <node concept="mw_s8" id="zc38bydN8F" role="1ZfhK$">
          <node concept="1Z2H0r" id="zc38bydN8_" role="mwGJk">
            <node concept="1YBJjd" id="zc38bydN8B" role="1Z2MuG">
              <ref role="1YBMHb" node="zc38bydMD4" resolve="expression" />
            </node>
          </node>
        </node>
      </node>
    </node>
    <node concept="1YaCAy" id="zc38bydMD4" role="1YuTPh">
      <property role="TrG5h" value="expression" />
      <ref role="1YaFvo" to="tpfo:h5Qi9ot" resolve="InlineRegexpExpression" />
    </node>
  </node>
  <node concept="1YbPZF" id="5kfJOUWnPS5">
    <property role="TrG5h" value="typeof_FindMatchExpression" />
    <property role="3GE5qa" value="Expressions" />
    <node concept="3clFbS" id="5kfJOUWnPS6" role="18ibNy">
      <node concept="1Z5TYs" id="5kfJOUWnQnF" role="3cqZAp">
        <node concept="mw_s8" id="5kfJOUWnQnJ" role="1ZfhKB">
          <node concept="2c44tf" id="5kfJOUWnQnK" role="mwGJk">
            <node concept="10P_77" id="5kfJOUWnQnM" role="2c44tc" />
          </node>
        </node>
        <node concept="mw_s8" id="5kfJOUWnQnI" role="1ZfhK$">
          <node concept="1Z2H0r" id="5kfJOUWnQnC" role="mwGJk">
            <node concept="1YBJjd" id="5kfJOUWnQnE" role="1Z2MuG">
              <ref role="1YBMHb" node="5kfJOUWnPS7" resolve="expression" />
            </node>
          </node>
        </node>
      </node>
    </node>
    <node concept="1YaCAy" id="5kfJOUWnPS7" role="1YuTPh">
      <property role="TrG5h" value="expression" />
      <ref role="1YaFvo" to="tpfo:5kfJOUWnufP" resolve="FindMatchExpression" />
    </node>
  </node>
  <node concept="1YbPZF" id="3iI_KKp9pFc">
    <property role="TrG5h" value="typeof_ReplaceRegexpOperation" />
    <property role="3GE5qa" value="Operations" />
    <node concept="3clFbS" id="3iI_KKp9pFd" role="18ibNy">
      <node concept="1Z5TYs" id="3iI_KKp9pFf" role="3cqZAp">
        <node concept="mw_s8" id="3iI_KKp9pFg" role="1ZfhK$">
          <node concept="1Z2H0r" id="3iI_KKp9pFh" role="mwGJk">
            <node concept="1YBJjd" id="3iI_KKp9pFm" role="1Z2MuG">
              <ref role="1YBMHb" node="3iI_KKp9pFe" resolve="operation" />
            </node>
          </node>
        </node>
        <node concept="mw_s8" id="3iI_KKp9pFj" role="1ZfhKB">
          <node concept="2c44tf" id="3iI_KKp9pFk" role="mwGJk">
            <node concept="17QB3L" id="3iI_KKpbdNj" role="2c44tc" />
          </node>
        </node>
      </node>
    </node>
    <node concept="1YaCAy" id="3iI_KKp9pFe" role="1YuTPh">
      <property role="TrG5h" value="operation" />
      <ref role="1YaFvo" to="tpfo:3iI_KKp8X6a" resolve="ReplaceRegexpOperation" />
    </node>
  </node>
  <node concept="18kY7G" id="3iI_KKpaMbx">
    <property role="TrG5h" value="check_LiteralReplacement" />
    <node concept="3clFbS" id="3iI_KKpaMby" role="18ibNy">
      <node concept="3clFbJ" id="3iI_KKpaMb_" role="3cqZAp">
        <node concept="3fqX7Q" id="3iI_KKpaMbA" role="3clFbw">
          <node concept="2OqwBi" id="3iI_KKpaMbB" role="3fr31v">
            <node concept="1YBJjd" id="3iI_KKpaMFd" role="2Oq$k0">
              <ref role="1YBMHb" node="3iI_KKpaMb$" resolve="literal" />
            </node>
            <node concept="2qgKlT" id="3iI_KKpaMFT" role="2OqNvi">
              <ref role="37wK5l" to="tpfs:3iI_KKpaMFg" resolve="isValid" />
            </node>
          </node>
        </node>
        <node concept="3clFbS" id="3iI_KKpaMbE" role="3clFbx">
          <node concept="2MkqsV" id="3iI_KKpaMbF" role="3cqZAp">
            <node concept="Xl_RD" id="3iI_KKpaMbG" role="2MkJ7o">
              <property role="Xl_RC" value="Incorrect regexp string literal" />
            </node>
            <node concept="1YBJjd" id="3iI_KKpaMbH" role="2OEOjV">
              <ref role="1YBMHb" node="3iI_KKpaMb$" resolve="literal" />
            </node>
          </node>
        </node>
      </node>
    </node>
    <node concept="1YaCAy" id="3iI_KKpaMb$" role="1YuTPh">
      <property role="TrG5h" value="literal" />
      <ref role="1YaFvo" to="tpfo:3iI_KKpaF_c" resolve="LiteralReplacement" />
    </node>
  </node>
</model>

