<?xml version="1.0" encoding="UTF-8"?>
<model ref="r:00000000-0000-4000-0000-011c89590357(jetbrains.mps.lang.findUsages.behavior)">
  <persistence version="9" />
  <languages>
    <use id="af65afd8-f0dd-4942-87d9-63a55f2a9db1" name="jetbrains.mps.lang.behavior" version="0" />
    <use id="fe9d76d7-5809-45c9-ae28-a40915b4d6ff" name="jetbrains.mps.lang.checkedName" version="0" />
    <use id="7866978e-a0f0-4cc7-81bc-4d213d9375e1" name="jetbrains.mps.lang.smodel" version="4" />
    <use id="f3061a53-9226-4cc5-a443-f952ceaf5816" name="jetbrains.mps.baseLanguage" version="4" />
    <devkit ref="fbc25dd2-5da4-483a-8b19-70928e1b62d7(jetbrains.mps.devkit.general-purpose)" />
  </languages>
  <imports>
    <import index="tp3b" ref="r:00000000-0000-4000-0000-011c8959035b(jetbrains.mps.lang.findUsages.structure)" />
    <import index="tpck" ref="r:00000000-0000-4000-0000-011c89590288(jetbrains.mps.lang.core.structure)" />
    <import index="tpcu" ref="r:00000000-0000-4000-0000-011c89590282(jetbrains.mps.lang.core.behavior)" />
    <import index="18ew" ref="6ed54515-acc8-4d1e-a16c-9fd6cfe951ea/java:jetbrains.mps.util(MPS.Core/)" />
    <import index="mjwp" ref="r:82ee0621-a317-4778-9ea5-72584de35a48(jetbrains.mps.lang.checkedName.behavior)" />
    <import index="tpcw" ref="r:00000000-0000-4000-0000-011c895902bc(jetbrains.mps.lang.sharedConcepts.structure)" />
    <import index="unno" ref="r:61e3d524-8c49-4491-b5e3-f6d6e9364527(jetbrains.mps.util)" />
    <import index="tpee" ref="r:00000000-0000-4000-0000-011c895902ca(jetbrains.mps.baseLanguage.structure)" />
    <import index="tpek" ref="r:00000000-0000-4000-0000-011c895902c0(jetbrains.mps.baseLanguage.behavior)" />
    <import index="tpcn" ref="r:00000000-0000-4000-0000-011c8959028b(jetbrains.mps.lang.structure.behavior)" implicit="true" />
    <import index="tpce" ref="r:00000000-0000-4000-0000-011c89590292(jetbrains.mps.lang.structure.structure)" implicit="true" />
  </imports>
  <registry>
    <language id="af65afd8-f0dd-4942-87d9-63a55f2a9db1" name="jetbrains.mps.lang.behavior">
      <concept id="1225194240794" name="jetbrains.mps.lang.behavior.structure.ConceptBehavior" flags="ng" index="13h7C7">
        <reference id="1225194240799" name="concept" index="13h7C2" />
        <child id="1225194240805" name="method" index="13h7CS" />
        <child id="1225194240801" name="constructor" index="13h7CW" />
      </concept>
      <concept id="1225194413805" name="jetbrains.mps.lang.behavior.structure.ConceptConstructorDeclaration" flags="in" index="13hLZK" />
      <concept id="1225194472830" name="jetbrains.mps.lang.behavior.structure.ConceptMethodDeclaration" flags="ng" index="13i0hz">
        <property id="5864038008284099149" name="isStatic" index="2Ki8OM" />
        <property id="1225194472833" name="isPrivate" index="13i0is" />
        <property id="1225194472832" name="isVirtual" index="13i0it" />
        <property id="1225194472834" name="isAbstract" index="13i0iv" />
        <reference id="1225194472831" name="overriddenMethod" index="13i0hy" />
      </concept>
      <concept id="1225194628440" name="jetbrains.mps.lang.behavior.structure.SuperNodeExpression" flags="nn" index="13iAh5">
        <reference id="5299096511375896640" name="superConcept" index="3eA5LN" />
      </concept>
      <concept id="1225194691553" name="jetbrains.mps.lang.behavior.structure.ThisNodeExpression" flags="nn" index="13iPFW" />
    </language>
    <language id="f3061a53-9226-4cc5-a443-f952ceaf5816" name="jetbrains.mps.baseLanguage">
      <concept id="1197027756228" name="jetbrains.mps.baseLanguage.structure.DotExpression" flags="nn" index="2OqwBi">
        <child id="1197027771414" name="operand" index="2Oq$k0" />
        <child id="1197027833540" name="operation" index="2OqNvi" />
      </concept>
      <concept id="1137021947720" name="jetbrains.mps.baseLanguage.structure.ConceptFunction" flags="in" index="2VMwT0">
        <child id="1137022507850" name="body" index="2VODD2" />
      </concept>
      <concept id="1070475926800" name="jetbrains.mps.baseLanguage.structure.StringLiteral" flags="nn" index="Xl_RD">
        <property id="1070475926801" name="value" index="Xl_RC" />
      </concept>
      <concept id="1081236700937" name="jetbrains.mps.baseLanguage.structure.StaticMethodCall" flags="nn" index="2YIFZM">
        <reference id="1144433194310" name="classConcept" index="1Pybhc" />
      </concept>
      <concept id="1070534644030" name="jetbrains.mps.baseLanguage.structure.BooleanType" flags="in" index="10P_77" />
      <concept id="1068431474542" name="jetbrains.mps.baseLanguage.structure.VariableDeclaration" flags="ng" index="33uBYm">
        <child id="1068431790190" name="initializer" index="33vP2m" />
      </concept>
      <concept id="1068498886296" name="jetbrains.mps.baseLanguage.structure.VariableReference" flags="nn" index="37vLTw">
        <reference id="1068581517664" name="variableDeclaration" index="3cqZAo" />
      </concept>
      <concept id="1068498886292" name="jetbrains.mps.baseLanguage.structure.ParameterDeclaration" flags="ir" index="37vLTG" />
      <concept id="1225271177708" name="jetbrains.mps.baseLanguage.structure.StringType" flags="in" index="17QB3L" />
      <concept id="4972933694980447171" name="jetbrains.mps.baseLanguage.structure.BaseVariableDeclaration" flags="ng" index="19Szcq">
        <child id="5680397130376446158" name="type" index="1tU5fm" />
      </concept>
      <concept id="1068580123132" name="jetbrains.mps.baseLanguage.structure.BaseMethodDeclaration" flags="ng" index="3clF44">
        <child id="1068580123133" name="returnType" index="3clF45" />
        <child id="1068580123134" name="parameter" index="3clF46" />
        <child id="1068580123135" name="body" index="3clF47" />
      </concept>
      <concept id="1068580123155" name="jetbrains.mps.baseLanguage.structure.ExpressionStatement" flags="nn" index="3clFbF">
        <child id="1068580123156" name="expression" index="3clFbG" />
      </concept>
      <concept id="1068580123136" name="jetbrains.mps.baseLanguage.structure.StatementList" flags="sn" stub="5293379017992965193" index="3clFbS">
        <child id="1068581517665" name="statement" index="3cqZAp" />
      </concept>
      <concept id="1068580123137" name="jetbrains.mps.baseLanguage.structure.BooleanConstant" flags="nn" index="3clFbT">
        <property id="1068580123138" name="value" index="3clFbU" />
      </concept>
      <concept id="1068581242875" name="jetbrains.mps.baseLanguage.structure.PlusExpression" flags="nn" index="3cpWs3" />
      <concept id="1068581242878" name="jetbrains.mps.baseLanguage.structure.ReturnStatement" flags="nn" index="3cpWs6">
        <child id="1068581517676" name="expression" index="3cqZAk" />
      </concept>
      <concept id="1068581242864" name="jetbrains.mps.baseLanguage.structure.LocalVariableDeclarationStatement" flags="nn" index="3cpWs8">
        <child id="1068581242865" name="localVariableDeclaration" index="3cpWs9" />
      </concept>
      <concept id="1068581242863" name="jetbrains.mps.baseLanguage.structure.LocalVariableDeclaration" flags="nr" index="3cpWsn" />
      <concept id="1068581517677" name="jetbrains.mps.baseLanguage.structure.VoidType" flags="in" index="3cqZAl" />
      <concept id="1204053956946" name="jetbrains.mps.baseLanguage.structure.IMethodCall" flags="ng" index="1ndlxa">
        <reference id="1068499141037" name="baseMethodDeclaration" index="37wK5l" />
        <child id="1068499141038" name="actualArgument" index="37wK5m" />
      </concept>
      <concept id="1081773326031" name="jetbrains.mps.baseLanguage.structure.BinaryOperation" flags="nn" index="3uHJSO">
        <child id="1081773367579" name="rightExpression" index="3uHU7w" />
        <child id="1081773367580" name="leftExpression" index="3uHU7B" />
      </concept>
      <concept id="1178549954367" name="jetbrains.mps.baseLanguage.structure.IVisible" flags="ng" index="1B3ioH">
        <child id="1178549979242" name="visibility" index="1B3o_S" />
      </concept>
      <concept id="1146644602865" name="jetbrains.mps.baseLanguage.structure.PublicVisibility" flags="nn" index="3Tm1VV" />
    </language>
    <language id="fe9d76d7-5809-45c9-ae28-a40915b4d6ff" name="jetbrains.mps.lang.checkedName">
      <concept id="4844813484172611385" name="jetbrains.mps.lang.checkedName.structure.PropertyRefExpression" flags="nn" index="2$7rc8">
        <reference id="4844813484172611387" name="propertyDeclaration" index="2$7rca" />
        <child id="4844813484172611386" name="nodeExpr" index="2$7rcb" />
      </concept>
      <concept id="4844813484172611390" name="jetbrains.mps.lang.checkedName.structure.PropertyRefType" flags="in" index="2$7rcf" />
    </language>
    <language id="3a13115c-633c-4c5c-bbcc-75c4219e9555" name="jetbrains.mps.lang.quotation">
      <concept id="1196350785113" name="jetbrains.mps.lang.quotation.structure.Quotation" flags="nn" index="2c44tf">
        <child id="1196350785114" name="quotedNode" index="2c44tc" />
      </concept>
    </language>
    <language id="7866978e-a0f0-4cc7-81bc-4d213d9375e1" name="jetbrains.mps.lang.smodel">
      <concept id="1140725362528" name="jetbrains.mps.lang.smodel.structure.Link_SetTargetOperation" flags="nn" index="2oxUTD">
        <child id="1140725362529" name="linkTarget" index="2oxUTC" />
      </concept>
      <concept id="1179409122411" name="jetbrains.mps.lang.smodel.structure.Node_ConceptMethodCall" flags="nn" index="2qgKlT" />
      <concept id="1143234257716" name="jetbrains.mps.lang.smodel.structure.Node_GetModelOperation" flags="nn" index="I4A8Y" />
      <concept id="1145404486709" name="jetbrains.mps.lang.smodel.structure.SemanticDowncastExpression" flags="nn" index="2JrnkZ">
        <child id="1145404616321" name="leftExpression" index="2JrQYb" />
      </concept>
      <concept id="1219352745532" name="jetbrains.mps.lang.smodel.structure.NodeRefExpression" flags="nn" index="3B5_sB">
        <reference id="1219352800908" name="referentNode" index="3B5MYn" />
      </concept>
      <concept id="1138055754698" name="jetbrains.mps.lang.smodel.structure.SNodeType" flags="in" index="3Tqbb2">
        <reference id="1138405853777" name="concept" index="ehGHo" />
      </concept>
      <concept id="1138056022639" name="jetbrains.mps.lang.smodel.structure.SPropertyAccess" flags="nn" index="3TrcHB">
        <reference id="1138056395725" name="property" index="3TsBF5" />
      </concept>
      <concept id="1138056143562" name="jetbrains.mps.lang.smodel.structure.SLinkAccess" flags="nn" index="3TrEf2">
        <reference id="1138056516764" name="link" index="3Tt5mk" />
      </concept>
    </language>
    <language id="ceab5195-25ea-4f22-9b92-103b95ca8c0c" name="jetbrains.mps.lang.core">
      <concept id="1133920641626" name="jetbrains.mps.lang.core.structure.BaseConcept" flags="ng" index="2VYdi">
        <property id="1193676396447" name="virtualPackage" index="3GE5qa" />
      </concept>
      <concept id="1169194658468" name="jetbrains.mps.lang.core.structure.INamedConcept" flags="ng" index="TrEIO">
        <property id="1169194664001" name="name" index="TrG5h" />
      </concept>
    </language>
    <language id="83888646-71ce-4f1c-9c53-c54016f6ad4f" name="jetbrains.mps.baseLanguage.collections">
      <concept id="540871147943773365" name="jetbrains.mps.baseLanguage.collections.structure.SingleArgumentSequenceOperation" flags="nn" index="25WWJ4">
        <child id="540871147943773366" name="argument" index="25WWJ7" />
      </concept>
      <concept id="1151688443754" name="jetbrains.mps.baseLanguage.collections.structure.ListType" flags="in" index="_YKpA">
        <child id="1151688676805" name="elementType" index="_ZDj9" />
      </concept>
      <concept id="1160612413312" name="jetbrains.mps.baseLanguage.collections.structure.AddElementOperation" flags="nn" index="TSZUe" />
    </language>
  </registry>
  <node concept="13h7C7" id="hEwIc4$">
    <ref role="13h7C2" to="tp3b:hqPqlEd" resolve="FinderDeclaration" />
    <node concept="13i0hz" id="hEwIc4_" role="13h7CS">
      <property role="13i0is" value="false" />
      <property role="TrG5h" value="getGeneratedClassName" />
      <node concept="17QB3L" id="1T1C7Px8xDj" role="3clF45" />
      <node concept="3clFbS" id="hEwIc4B" role="3clF47">
        <node concept="3cpWs6" id="hEwIc4C" role="3cqZAp">
          <node concept="3cpWs3" id="hEwIc4D" role="3cqZAk">
            <node concept="2YIFZM" id="hEwIc4E" role="3uHU7B">
              <ref role="1Pybhc" to="18ew:~NameUtil" resolve="NameUtil" />
              <ref role="37wK5l" to="18ew:~NameUtil.toValidIdentifier(java.lang.String):java.lang.String" resolve="toValidIdentifier" />
              <node concept="2OqwBi" id="hEwIc4F" role="37wK5m">
                <node concept="13iPFW" id="hEwIc4G" role="2Oq$k0" />
                <node concept="3TrcHB" id="hEwIc4H" role="2OqNvi">
                  <ref role="3TsBF5" to="tpck:h0TrG11" resolve="name" />
                </node>
              </node>
            </node>
            <node concept="Xl_RD" id="hEwIc4I" role="3uHU7w">
              <property role="Xl_RC" value="_Finder" />
            </node>
          </node>
        </node>
      </node>
      <node concept="3Tm1VV" id="hJrm0t_" role="1B3o_S" />
    </node>
    <node concept="13i0hz" id="hEwIc4J" role="13h7CS">
      <property role="13i0is" value="false" />
      <property role="TrG5h" value="getConceptName" />
      <node concept="17QB3L" id="1T1C7Px8xDi" role="3clF45" />
      <node concept="3clFbS" id="hEwIc4L" role="3clF47">
        <node concept="3cpWs6" id="hEwIc4M" role="3cqZAp">
          <node concept="2OqwBi" id="hEwIc4N" role="3cqZAk">
            <node concept="2OqwBi" id="hEwIc4O" role="2Oq$k0">
              <node concept="13iPFW" id="hEwIc4P" role="2Oq$k0" />
              <node concept="3TrEf2" id="hJgLZn3" role="2OqNvi">
                <ref role="3Tt5mk" to="tp3b:hJgKJ91" />
              </node>
            </node>
            <node concept="2qgKlT" id="hEwIc4R" role="2OqNvi">
              <ref role="37wK5l" to="tpcu:hEwIO9y" resolve="getFqName" />
            </node>
          </node>
        </node>
      </node>
      <node concept="3Tm1VV" id="hJrm0zq" role="1B3o_S" />
    </node>
    <node concept="13i0hz" id="hEwIc4S" role="13h7CS">
      <property role="13i0is" value="false" />
      <property role="TrG5h" value="getGeneratedClassLongName" />
      <node concept="17QB3L" id="1T1C7Px8xDh" role="3clF45" />
      <node concept="3clFbS" id="hEwIc4U" role="3clF47">
        <node concept="3cpWs6" id="hEwIc4V" role="3cqZAp">
          <node concept="3cpWs3" id="hEwIc4X" role="3cqZAk">
            <node concept="2OqwBi" id="hEwIc4Y" role="3uHU7w">
              <node concept="13iPFW" id="hEwIc4Z" role="2Oq$k0" />
              <node concept="2qgKlT" id="hEwIc50" role="2OqNvi">
                <ref role="37wK5l" node="hEwIc4_" resolve="getGeneratedClassName" />
              </node>
            </node>
            <node concept="3cpWs3" id="hEwIc4W" role="3uHU7B">
              <node concept="2YIFZM" id="791rit5f656" role="3uHU7B">
                <ref role="37wK5l" to="unno:7WvVJ3rORmu" resolve="getModelLongName" />
                <ref role="1Pybhc" to="unno:1NYD3hytmTa" resolve="SNodeOperations" />
                <node concept="2JrnkZ" id="791rit5f659" role="37wK5m">
                  <node concept="2OqwBi" id="791rit5f65a" role="2JrQYb">
                    <node concept="13iPFW" id="791rit5f65b" role="2Oq$k0" />
                    <node concept="I4A8Y" id="791rit5f65c" role="2OqNvi" />
                  </node>
                </node>
              </node>
              <node concept="Xl_RD" id="hEwIc51" role="3uHU7w">
                <property role="Xl_RC" value="." />
              </node>
            </node>
          </node>
        </node>
      </node>
      <node concept="3Tm1VV" id="hJrm0EU" role="1B3o_S" />
    </node>
    <node concept="13i0hz" id="4lITsQs7dzO" role="13h7CS">
      <property role="TrG5h" value="getPropertyToCheck" />
      <ref role="13i0hy" to="mjwp:4cWf37B8oYh" resolve="getPropertyToCheck" />
      <node concept="3clFbS" id="4lITsQs7dzR" role="3clF47">
        <node concept="3clFbF" id="4lITsQs7dzW" role="3cqZAp">
          <node concept="2$7rc8" id="4lITsQs7dzX" role="3clFbG">
            <ref role="2$7rca" to="tp3b:hr9L4KS" resolve="description" />
            <node concept="13iPFW" id="4lITsQs7dzY" role="2$7rcb" />
          </node>
        </node>
      </node>
      <node concept="2$7rcf" id="4lITsQs7dzT" role="3clF45" />
      <node concept="3Tm1VV" id="4lITsQs7dzU" role="1B3o_S" />
    </node>
    <node concept="13i0hz" id="7KX5Yh0wKiq" role="13h7CS">
      <property role="TrG5h" value="getBaseConcept" />
      <property role="13i0it" value="true" />
      <ref role="13i0hy" to="tpcn:2hxg_BDjKM8" resolve="getBaseConcept" />
      <node concept="3Tm1VV" id="7KX5Yh0wKir" role="1B3o_S" />
      <node concept="3clFbS" id="7KX5Yh0wKis" role="3clF47">
        <node concept="3clFbF" id="7KX5Yh0wKsw" role="3cqZAp">
          <node concept="2OqwBi" id="7KX5Yh0wKsy" role="3clFbG">
            <node concept="13iPFW" id="7KX5Yh0wKsx" role="2Oq$k0" />
            <node concept="3TrEf2" id="7KX5Yh0wKsA" role="2OqNvi">
              <ref role="3Tt5mk" to="tp3b:hJgKJ91" />
            </node>
          </node>
        </node>
      </node>
      <node concept="3Tqbb2" id="7KX5Yh0wKit" role="3clF45">
        <ref role="ehGHo" to="tpce:h0PkWnZ" resolve="AbstractConceptDeclaration" />
      </node>
    </node>
    <node concept="13i0hz" id="5r_35Ihc984" role="13h7CS">
      <property role="TrG5h" value="setBaseConcept" />
      <property role="13i0it" value="true" />
      <ref role="13i0hy" to="tpcn:5r_35Ihc58c" resolve="setBaseConcept" />
      <node concept="3Tm1VV" id="5r_35Ihc985" role="1B3o_S" />
      <node concept="3clFbS" id="5r_35Ihc986" role="3clF47">
        <node concept="3clFbF" id="5r_35Ihc98f" role="3cqZAp">
          <node concept="2OqwBi" id="5r_35Ihc98m" role="3clFbG">
            <node concept="2OqwBi" id="5r_35Ihc98h" role="2Oq$k0">
              <node concept="13iPFW" id="5r_35Ihc98g" role="2Oq$k0" />
              <node concept="3TrEf2" id="5r_35Ihc98l" role="2OqNvi">
                <ref role="3Tt5mk" to="tp3b:hJgKJ91" />
              </node>
            </node>
            <node concept="2oxUTD" id="5r_35Ihc98q" role="2OqNvi">
              <node concept="37vLTw" id="2BHiRxglFDM" role="2oxUTC">
                <ref role="3cqZAo" node="5r_35Ihc987" resolve="baseConcept" />
              </node>
            </node>
          </node>
        </node>
      </node>
      <node concept="37vLTG" id="5r_35Ihc987" role="3clF46">
        <property role="TrG5h" value="baseConcept" />
        <node concept="3Tqbb2" id="5r_35Ihc988" role="1tU5fm">
          <ref role="ehGHo" to="tpce:h0PkWnZ" resolve="AbstractConceptDeclaration" />
        </node>
      </node>
      <node concept="3cqZAl" id="5r_35Ihc989" role="3clF45" />
    </node>
    <node concept="13hLZK" id="hH5Dw_J" role="13h7CW">
      <node concept="3clFbS" id="hH5Dw_K" role="2VODD2" />
    </node>
  </node>
  <node concept="13h7C7" id="hEwIqB9">
    <property role="3GE5qa" value="Statements" />
    <ref role="13h7C2" to="tp3b:hzmZew1" resolve="ExecuteFinderExpression" />
    <node concept="13hLZK" id="hEwIqBa" role="13h7CW">
      <node concept="3clFbS" id="hEwIqBb" role="2VODD2" />
    </node>
  </node>
  <node concept="13h7C7" id="hEwIE7W">
    <property role="3GE5qa" value="Statements" />
    <ref role="13h7C2" to="tp3b:h$fgBI3" resolve="CheckCancelledStatusStatement" />
    <node concept="13hLZK" id="hEwIE7X" role="13h7CW">
      <node concept="3clFbS" id="hEwIE7Y" role="2VODD2" />
    </node>
  </node>
  <node concept="13h7C7" id="hEwIGJR">
    <property role="3GE5qa" value="Statements" />
    <ref role="13h7C2" to="tp3b:htO1afO" resolve="ResultStatement" />
    <node concept="13hLZK" id="hEwIGJS" role="13h7CW">
      <node concept="3clFbS" id="hEwIGJT" role="2VODD2" />
    </node>
  </node>
  <node concept="13h7C7" id="hEwIR_J">
    <property role="3GE5qa" value="Statements" />
    <ref role="13h7C2" to="tp3b:htO21hq" resolve="NodeStatement" />
    <node concept="13hLZK" id="hEwIR_K" role="13h7CW">
      <node concept="3clFbS" id="hEwIR_L" role="2VODD2" />
    </node>
  </node>
  <node concept="13h7C7" id="1653mnvAmAA">
    <ref role="13h7C2" to="tp3b:hGQTw5h" resolve="IsVisibleBlock" />
    <node concept="13hLZK" id="1653mnvAmAB" role="13h7CW">
      <node concept="3clFbS" id="1653mnvAmAC" role="2VODD2" />
    </node>
    <node concept="13i0hz" id="1653mnvAmAx" role="13h7CS">
      <property role="2Ki8OM" value="true" />
      <property role="13i0is" value="false" />
      <property role="TrG5h" value="showName" />
      <property role="13i0it" value="false" />
      <ref role="13i0hy" to="tpek:1653mnvAgry" resolve="showName" />
      <node concept="3Tm1VV" id="1653mnvAmAy" role="1B3o_S" />
      <node concept="10P_77" id="1653mnvAmAw" role="3clF45" />
      <node concept="3clFbS" id="1653mnvAmAz" role="3clF47">
        <node concept="3cpWs6" id="1653mnvAmA$" role="3cqZAp">
          <node concept="3clFbT" id="1653mnvAmA_" role="3cqZAk">
            <property role="3clFbU" value="true" />
          </node>
        </node>
      </node>
    </node>
    <node concept="13i0hz" id="2D1PBM_bxL5" role="13h7CS">
      <property role="2Ki8OM" value="true" />
      <property role="13i0is" value="false" />
      <property role="TrG5h" value="getApplicableConceptFunctionParameter" />
      <property role="13i0it" value="false" />
      <ref role="13i0hy" to="tpek:2D1PBM_bxJg" resolve="getApplicableConceptFunctionParameter" />
      <node concept="3Tm1VV" id="2D1PBM_bxL6" role="1B3o_S" />
      <node concept="_YKpA" id="2D1PBM_bxL3" role="3clF45">
        <node concept="3Tqbb2" id="2D1PBM_bxL4" role="_ZDj9">
          <ref role="ehGHo" to="tpce:f_TIwhg" resolve="ConceptDeclaration" />
        </node>
      </node>
      <node concept="3clFbS" id="2D1PBM_bxL7" role="3clF47">
        <node concept="3cpWs8" id="2D1PBM_bxL8" role="3cqZAp">
          <node concept="3cpWsn" id="2D1PBM_bxL9" role="3cpWs9">
            <property role="TrG5h" value="result" />
            <node concept="_YKpA" id="2D1PBM_bxLd" role="1tU5fm">
              <node concept="3Tqbb2" id="2D1PBM_bxLe" role="_ZDj9">
                <ref role="ehGHo" to="tpce:f_TIwhg" resolve="ConceptDeclaration" />
              </node>
            </node>
            <node concept="2OqwBi" id="2D1PBM_bxLl" role="33vP2m">
              <node concept="13iAh5" id="2D1PBM_bxLh" role="2Oq$k0">
                <ref role="3eA5LN" to="tpee:gyVMwX8" resolve="ConceptFunction" />
              </node>
              <node concept="2qgKlT" id="2D1PBM_bxLg" role="2OqNvi">
                <ref role="37wK5l" to="tpek:2D1PBM_bxJg" resolve="getApplicableConceptFunctionParameter" />
              </node>
            </node>
          </node>
        </node>
        <node concept="3clFbF" id="2D1PBM_bxLn" role="3cqZAp">
          <node concept="2OqwBi" id="2D1PBM_bxLo" role="3clFbG">
            <node concept="37vLTw" id="2D1PBM_bxLp" role="2Oq$k0">
              <ref role="3cqZAo" node="2D1PBM_bxL9" resolve="result" />
            </node>
            <node concept="TSZUe" id="2D1PBM_bxLq" role="2OqNvi">
              <node concept="3B5_sB" id="2D1PBM_bxLm" role="25WWJ7">
                <ref role="3B5MYn" to="tp3b:hr9LhY2" resolve="ConceptFunctionParameter_node" />
              </node>
            </node>
          </node>
        </node>
        <node concept="3clFbF" id="2D1PBM_bxLs" role="3cqZAp">
          <node concept="2OqwBi" id="2D1PBM_bxLt" role="3clFbG">
            <node concept="37vLTw" id="2D1PBM_bxLu" role="2Oq$k0">
              <ref role="3cqZAo" node="2D1PBM_bxL9" resolve="result" />
            </node>
            <node concept="TSZUe" id="2D1PBM_bxLv" role="2OqNvi">
              <node concept="3B5_sB" id="2D1PBM_bxLr" role="25WWJ7">
                <ref role="3B5MYn" to="tpcw:gTQ7B__" resolve="ConceptFunctionParameter_scope" />
              </node>
            </node>
          </node>
        </node>
        <node concept="3cpWs6" id="2D1PBM_bxLw" role="3cqZAp">
          <node concept="37vLTw" id="2D1PBM_bxLx" role="3cqZAk">
            <ref role="3cqZAo" node="2D1PBM_bxL9" resolve="result" />
          </node>
        </node>
      </node>
    </node>
    <node concept="13i0hz" id="$yZ68hBhQk" role="13h7CS">
      <property role="13i0is" value="false" />
      <property role="TrG5h" value="getExpectedReturnType" />
      <property role="13i0it" value="false" />
      <property role="13i0iv" value="false" />
      <ref role="13i0hy" to="tpek:hEwIGRD" resolve="getExpectedReturnType" />
      <node concept="3Tm1VV" id="$yZ68hBhQl" role="1B3o_S" />
      <node concept="3clFbS" id="$yZ68hBhQm" role="3clF47">
        <node concept="3cpWs6" id="$yZ68hBhQn" role="3cqZAp">
          <node concept="2c44tf" id="$yZ68hBhQj" role="3cqZAk">
            <node concept="10P_77" id="WumdsTu768" role="2c44tc" />
          </node>
        </node>
      </node>
      <node concept="3Tqbb2" id="$yZ68hBhQo" role="3clF45" />
    </node>
  </node>
  <node concept="13h7C7" id="1653mnvAOS2">
    <ref role="13h7C2" to="tp3b:hqPqlEk" resolve="IsApplicableBlock" />
    <node concept="13hLZK" id="1653mnvAOS3" role="13h7CW">
      <node concept="3clFbS" id="1653mnvAOS4" role="2VODD2" />
    </node>
    <node concept="13i0hz" id="1653mnvAORX" role="13h7CS">
      <property role="2Ki8OM" value="true" />
      <property role="13i0is" value="false" />
      <property role="TrG5h" value="showName" />
      <property role="13i0it" value="false" />
      <ref role="13i0hy" to="tpek:1653mnvAgry" resolve="showName" />
      <node concept="3Tm1VV" id="1653mnvAORY" role="1B3o_S" />
      <node concept="10P_77" id="1653mnvAORW" role="3clF45" />
      <node concept="3clFbS" id="1653mnvAORZ" role="3clF47">
        <node concept="3cpWs6" id="1653mnvAOS0" role="3cqZAp">
          <node concept="3clFbT" id="1653mnvAOS1" role="3cqZAk">
            <property role="3clFbU" value="true" />
          </node>
        </node>
      </node>
    </node>
    <node concept="13i0hz" id="2D1PBM_bzVM" role="13h7CS">
      <property role="2Ki8OM" value="true" />
      <property role="13i0is" value="false" />
      <property role="TrG5h" value="getApplicableConceptFunctionParameter" />
      <property role="13i0it" value="false" />
      <ref role="13i0hy" to="tpek:2D1PBM_bxJg" resolve="getApplicableConceptFunctionParameter" />
      <node concept="3Tm1VV" id="2D1PBM_bzVN" role="1B3o_S" />
      <node concept="_YKpA" id="2D1PBM_bzVK" role="3clF45">
        <node concept="3Tqbb2" id="2D1PBM_bzVL" role="_ZDj9">
          <ref role="ehGHo" to="tpce:f_TIwhg" resolve="ConceptDeclaration" />
        </node>
      </node>
      <node concept="3clFbS" id="2D1PBM_bzVO" role="3clF47">
        <node concept="3cpWs8" id="2D1PBM_bzVP" role="3cqZAp">
          <node concept="3cpWsn" id="2D1PBM_bzVQ" role="3cpWs9">
            <property role="TrG5h" value="result" />
            <node concept="_YKpA" id="2D1PBM_bzVU" role="1tU5fm">
              <node concept="3Tqbb2" id="2D1PBM_bzVV" role="_ZDj9">
                <ref role="ehGHo" to="tpce:f_TIwhg" resolve="ConceptDeclaration" />
              </node>
            </node>
            <node concept="2OqwBi" id="2D1PBM_bzW2" role="33vP2m">
              <node concept="13iAh5" id="2D1PBM_bzVY" role="2Oq$k0">
                <ref role="3eA5LN" to="tpee:gyVMwX8" resolve="ConceptFunction" />
              </node>
              <node concept="2qgKlT" id="2D1PBM_bzVX" role="2OqNvi">
                <ref role="37wK5l" to="tpek:2D1PBM_bxJg" resolve="getApplicableConceptFunctionParameter" />
              </node>
            </node>
          </node>
        </node>
        <node concept="3clFbF" id="2D1PBM_bzW4" role="3cqZAp">
          <node concept="2OqwBi" id="2D1PBM_bzW5" role="3clFbG">
            <node concept="37vLTw" id="2D1PBM_bzW6" role="2Oq$k0">
              <ref role="3cqZAo" node="2D1PBM_bzVQ" resolve="result" />
            </node>
            <node concept="TSZUe" id="2D1PBM_bzW7" role="2OqNvi">
              <node concept="3B5_sB" id="2D1PBM_bzW3" role="25WWJ7">
                <ref role="3B5MYn" to="tp3b:hr9LhY2" resolve="ConceptFunctionParameter_node" />
              </node>
            </node>
          </node>
        </node>
        <node concept="3cpWs6" id="2D1PBM_bzW8" role="3cqZAp">
          <node concept="37vLTw" id="2D1PBM_bzW9" role="3cqZAk">
            <ref role="3cqZAo" node="2D1PBM_bzVQ" resolve="result" />
          </node>
        </node>
      </node>
    </node>
    <node concept="13i0hz" id="$yZ68hBi6e" role="13h7CS">
      <property role="13i0is" value="false" />
      <property role="TrG5h" value="getExpectedReturnType" />
      <property role="13i0it" value="false" />
      <property role="13i0iv" value="false" />
      <ref role="13i0hy" to="tpek:hEwIGRD" resolve="getExpectedReturnType" />
      <node concept="3Tm1VV" id="$yZ68hBi6f" role="1B3o_S" />
      <node concept="3clFbS" id="$yZ68hBi6g" role="3clF47">
        <node concept="3cpWs6" id="$yZ68hBi6h" role="3cqZAp">
          <node concept="2c44tf" id="$yZ68hBi6d" role="3cqZAk">
            <node concept="10P_77" id="hqPqlEm" role="2c44tc" />
          </node>
        </node>
      </node>
      <node concept="3Tqbb2" id="$yZ68hBi6i" role="3clF45" />
    </node>
  </node>
  <node concept="13h7C7" id="1653mnvB2_K">
    <ref role="13h7C2" to="tp3b:hzAGkKQ" resolve="CategorizeBlock" />
    <node concept="13hLZK" id="1653mnvB2_L" role="13h7CW">
      <node concept="3clFbS" id="1653mnvB2_M" role="2VODD2" />
    </node>
    <node concept="13i0hz" id="1653mnvB2_F" role="13h7CS">
      <property role="2Ki8OM" value="true" />
      <property role="13i0is" value="false" />
      <property role="TrG5h" value="showName" />
      <property role="13i0it" value="false" />
      <ref role="13i0hy" to="tpek:1653mnvAgry" resolve="showName" />
      <node concept="3Tm1VV" id="1653mnvB2_G" role="1B3o_S" />
      <node concept="10P_77" id="1653mnvB2_E" role="3clF45" />
      <node concept="3clFbS" id="1653mnvB2_H" role="3clF47">
        <node concept="3cpWs6" id="1653mnvB2_I" role="3cqZAp">
          <node concept="3clFbT" id="1653mnvB2_J" role="3cqZAk">
            <property role="3clFbU" value="true" />
          </node>
        </node>
      </node>
    </node>
    <node concept="13i0hz" id="2D1PBM_bz0n" role="13h7CS">
      <property role="2Ki8OM" value="true" />
      <property role="13i0is" value="false" />
      <property role="TrG5h" value="getApplicableConceptFunctionParameter" />
      <property role="13i0it" value="false" />
      <ref role="13i0hy" to="tpek:2D1PBM_bxJg" resolve="getApplicableConceptFunctionParameter" />
      <node concept="3Tm1VV" id="2D1PBM_bz0o" role="1B3o_S" />
      <node concept="_YKpA" id="2D1PBM_bz0l" role="3clF45">
        <node concept="3Tqbb2" id="2D1PBM_bz0m" role="_ZDj9">
          <ref role="ehGHo" to="tpce:f_TIwhg" resolve="ConceptDeclaration" />
        </node>
      </node>
      <node concept="3clFbS" id="2D1PBM_bz0p" role="3clF47">
        <node concept="3cpWs8" id="2D1PBM_bz0q" role="3cqZAp">
          <node concept="3cpWsn" id="2D1PBM_bz0r" role="3cpWs9">
            <property role="TrG5h" value="result" />
            <node concept="_YKpA" id="2D1PBM_bz0v" role="1tU5fm">
              <node concept="3Tqbb2" id="2D1PBM_bz0w" role="_ZDj9">
                <ref role="ehGHo" to="tpce:f_TIwhg" resolve="ConceptDeclaration" />
              </node>
            </node>
            <node concept="2OqwBi" id="2D1PBM_bz0B" role="33vP2m">
              <node concept="13iAh5" id="2D1PBM_bz0z" role="2Oq$k0">
                <ref role="3eA5LN" to="tpee:gyVMwX8" resolve="ConceptFunction" />
              </node>
              <node concept="2qgKlT" id="2D1PBM_bz0y" role="2OqNvi">
                <ref role="37wK5l" to="tpek:2D1PBM_bxJg" resolve="getApplicableConceptFunctionParameter" />
              </node>
            </node>
          </node>
        </node>
        <node concept="3clFbF" id="2D1PBM_bz0D" role="3cqZAp">
          <node concept="2OqwBi" id="2D1PBM_bz0E" role="3clFbG">
            <node concept="37vLTw" id="2D1PBM_bz0F" role="2Oq$k0">
              <ref role="3cqZAo" node="2D1PBM_bz0r" resolve="result" />
            </node>
            <node concept="TSZUe" id="2D1PBM_bz0G" role="2OqNvi">
              <node concept="3B5_sB" id="2D1PBM_bz0C" role="25WWJ7">
                <ref role="3B5MYn" to="tpcw:hzB55RO" resolve="ConceptFunctionParameter_node" />
              </node>
            </node>
          </node>
        </node>
        <node concept="3cpWs6" id="2D1PBM_bz0H" role="3cqZAp">
          <node concept="37vLTw" id="2D1PBM_bz0I" role="3cqZAk">
            <ref role="3cqZAo" node="2D1PBM_bz0r" resolve="result" />
          </node>
        </node>
      </node>
    </node>
    <node concept="13i0hz" id="$yZ68hBhQG" role="13h7CS">
      <property role="13i0is" value="false" />
      <property role="TrG5h" value="getExpectedReturnType" />
      <property role="13i0it" value="false" />
      <property role="13i0iv" value="false" />
      <ref role="13i0hy" to="tpek:hEwIGRD" resolve="getExpectedReturnType" />
      <node concept="3Tm1VV" id="$yZ68hBhQH" role="1B3o_S" />
      <node concept="3clFbS" id="$yZ68hBhQI" role="3clF47">
        <node concept="3cpWs6" id="$yZ68hBhQJ" role="3cqZAp">
          <node concept="2c44tf" id="$yZ68hBhQF" role="3cqZAk">
            <node concept="17QB3L" id="hP37UOA" role="2c44tc" />
          </node>
        </node>
      </node>
      <node concept="3Tqbb2" id="$yZ68hBhQK" role="3clF45" />
    </node>
  </node>
  <node concept="13h7C7" id="1653mnvB2SP">
    <ref role="13h7C2" to="tp3b:hqPqlE8" resolve="FindBlock" />
    <node concept="13hLZK" id="1653mnvB2SQ" role="13h7CW">
      <node concept="3clFbS" id="1653mnvB2SR" role="2VODD2" />
    </node>
    <node concept="13i0hz" id="1653mnvB2SK" role="13h7CS">
      <property role="2Ki8OM" value="true" />
      <property role="13i0is" value="false" />
      <property role="TrG5h" value="showName" />
      <property role="13i0it" value="false" />
      <ref role="13i0hy" to="tpek:1653mnvAgry" resolve="showName" />
      <node concept="3Tm1VV" id="1653mnvB2SL" role="1B3o_S" />
      <node concept="10P_77" id="1653mnvB2SJ" role="3clF45" />
      <node concept="3clFbS" id="1653mnvB2SM" role="3clF47">
        <node concept="3cpWs6" id="1653mnvB2SN" role="3cqZAp">
          <node concept="3clFbT" id="1653mnvB2SO" role="3cqZAk">
            <property role="3clFbU" value="true" />
          </node>
        </node>
      </node>
    </node>
    <node concept="13i0hz" id="2D1PBM_bzRz" role="13h7CS">
      <property role="2Ki8OM" value="true" />
      <property role="13i0is" value="false" />
      <property role="TrG5h" value="getApplicableConceptFunctionParameter" />
      <property role="13i0it" value="false" />
      <ref role="13i0hy" to="tpek:2D1PBM_bxJg" resolve="getApplicableConceptFunctionParameter" />
      <node concept="3Tm1VV" id="2D1PBM_bzR$" role="1B3o_S" />
      <node concept="_YKpA" id="2D1PBM_bzRx" role="3clF45">
        <node concept="3Tqbb2" id="2D1PBM_bzRy" role="_ZDj9">
          <ref role="ehGHo" to="tpce:f_TIwhg" resolve="ConceptDeclaration" />
        </node>
      </node>
      <node concept="3clFbS" id="2D1PBM_bzR_" role="3clF47">
        <node concept="3cpWs8" id="2D1PBM_bzRA" role="3cqZAp">
          <node concept="3cpWsn" id="2D1PBM_bzRB" role="3cpWs9">
            <property role="TrG5h" value="result" />
            <node concept="_YKpA" id="2D1PBM_bzRF" role="1tU5fm">
              <node concept="3Tqbb2" id="2D1PBM_bzRG" role="_ZDj9">
                <ref role="ehGHo" to="tpce:f_TIwhg" resolve="ConceptDeclaration" />
              </node>
            </node>
            <node concept="2OqwBi" id="2D1PBM_bzRN" role="33vP2m">
              <node concept="13iAh5" id="2D1PBM_bzRJ" role="2Oq$k0">
                <ref role="3eA5LN" to="tpee:gyVMwX8" resolve="ConceptFunction" />
              </node>
              <node concept="2qgKlT" id="2D1PBM_bzRI" role="2OqNvi">
                <ref role="37wK5l" to="tpek:2D1PBM_bxJg" resolve="getApplicableConceptFunctionParameter" />
              </node>
            </node>
          </node>
        </node>
        <node concept="3clFbF" id="2D1PBM_bzRP" role="3cqZAp">
          <node concept="2OqwBi" id="2D1PBM_bzRQ" role="3clFbG">
            <node concept="37vLTw" id="2D1PBM_bzRR" role="2Oq$k0">
              <ref role="3cqZAo" node="2D1PBM_bzRB" resolve="result" />
            </node>
            <node concept="TSZUe" id="2D1PBM_bzRS" role="2OqNvi">
              <node concept="3B5_sB" id="2D1PBM_bzRO" role="25WWJ7">
                <ref role="3B5MYn" to="tp3b:hr9LhY2" resolve="ConceptFunctionParameter_node" />
              </node>
            </node>
          </node>
        </node>
        <node concept="3clFbF" id="2D1PBM_bzRU" role="3cqZAp">
          <node concept="2OqwBi" id="2D1PBM_bzRV" role="3clFbG">
            <node concept="37vLTw" id="2D1PBM_bzRW" role="2Oq$k0">
              <ref role="3cqZAo" node="2D1PBM_bzRB" resolve="result" />
            </node>
            <node concept="TSZUe" id="2D1PBM_bzRX" role="2OqNvi">
              <node concept="3B5_sB" id="2D1PBM_bzRT" role="25WWJ7">
                <ref role="3B5MYn" to="tpcw:gTQ7B__" resolve="ConceptFunctionParameter_scope" />
              </node>
            </node>
          </node>
        </node>
        <node concept="3clFbF" id="uYrIA36LhD" role="3cqZAp">
          <node concept="2OqwBi" id="uYrIA36NUg" role="3clFbG">
            <node concept="TSZUe" id="uYrIA377Pe" role="2OqNvi">
              <node concept="3B5_sB" id="uYrIA377Xc" role="25WWJ7">
                <ref role="3B5MYn" to="tpcw:uYrIA378mk" resolve="ConceptFunctionParameter_progressMonitor" />
              </node>
            </node>
            <node concept="37vLTw" id="uYrIA36LhC" role="2Oq$k0">
              <ref role="3cqZAo" node="2D1PBM_bzRB" resolve="result" />
            </node>
          </node>
        </node>
        <node concept="3cpWs6" id="2D1PBM_bzRY" role="3cqZAp">
          <node concept="37vLTw" id="2D1PBM_bzRZ" role="3cqZAk">
            <ref role="3cqZAo" node="2D1PBM_bzRB" resolve="result" />
          </node>
        </node>
      </node>
    </node>
    <node concept="13i0hz" id="$yZ68hBisH" role="13h7CS">
      <property role="13i0is" value="false" />
      <property role="TrG5h" value="getExpectedReturnType" />
      <property role="13i0it" value="false" />
      <property role="13i0iv" value="false" />
      <ref role="13i0hy" to="tpek:hEwIGRD" resolve="getExpectedReturnType" />
      <node concept="3Tm1VV" id="$yZ68hBisI" role="1B3o_S" />
      <node concept="3clFbS" id="$yZ68hBisJ" role="3clF47">
        <node concept="3cpWs6" id="$yZ68hBisK" role="3cqZAp">
          <node concept="2c44tf" id="$yZ68hBisG" role="3cqZAk">
            <node concept="3cqZAl" id="hz_Fpmq" role="2c44tc" />
          </node>
        </node>
      </node>
      <node concept="3Tqbb2" id="$yZ68hBisL" role="3clF45" />
    </node>
  </node>
  <node concept="13h7C7" id="1653mnvB6f9">
    <ref role="13h7C2" to="tp3b:hzAHsKp" resolve="SearchedNodesBlock" />
    <node concept="13hLZK" id="1653mnvB6fa" role="13h7CW">
      <node concept="3clFbS" id="1653mnvB6fb" role="2VODD2" />
    </node>
    <node concept="13i0hz" id="1653mnvB6f4" role="13h7CS">
      <property role="2Ki8OM" value="true" />
      <property role="13i0is" value="false" />
      <property role="TrG5h" value="showName" />
      <property role="13i0it" value="false" />
      <ref role="13i0hy" to="tpek:1653mnvAgry" resolve="showName" />
      <node concept="3Tm1VV" id="1653mnvB6f5" role="1B3o_S" />
      <node concept="10P_77" id="1653mnvB6f3" role="3clF45" />
      <node concept="3clFbS" id="1653mnvB6f6" role="3clF47">
        <node concept="3cpWs6" id="1653mnvB6f7" role="3cqZAp">
          <node concept="3clFbT" id="1653mnvB6f8" role="3cqZAk">
            <property role="3clFbU" value="true" />
          </node>
        </node>
      </node>
    </node>
    <node concept="13i0hz" id="2D1PBM_byR1" role="13h7CS">
      <property role="2Ki8OM" value="true" />
      <property role="13i0is" value="false" />
      <property role="TrG5h" value="getApplicableConceptFunctionParameter" />
      <property role="13i0it" value="false" />
      <ref role="13i0hy" to="tpek:2D1PBM_bxJg" resolve="getApplicableConceptFunctionParameter" />
      <node concept="3Tm1VV" id="2D1PBM_byR2" role="1B3o_S" />
      <node concept="_YKpA" id="2D1PBM_byQZ" role="3clF45">
        <node concept="3Tqbb2" id="2D1PBM_byR0" role="_ZDj9">
          <ref role="ehGHo" to="tpce:f_TIwhg" resolve="ConceptDeclaration" />
        </node>
      </node>
      <node concept="3clFbS" id="2D1PBM_byR3" role="3clF47">
        <node concept="3cpWs8" id="2D1PBM_byR4" role="3cqZAp">
          <node concept="3cpWsn" id="2D1PBM_byR5" role="3cpWs9">
            <property role="TrG5h" value="result" />
            <node concept="_YKpA" id="2D1PBM_byR9" role="1tU5fm">
              <node concept="3Tqbb2" id="2D1PBM_byRa" role="_ZDj9">
                <ref role="ehGHo" to="tpce:f_TIwhg" resolve="ConceptDeclaration" />
              </node>
            </node>
            <node concept="2OqwBi" id="2D1PBM_byRh" role="33vP2m">
              <node concept="13iAh5" id="2D1PBM_byRd" role="2Oq$k0">
                <ref role="3eA5LN" to="tpee:gyVMwX8" resolve="ConceptFunction" />
              </node>
              <node concept="2qgKlT" id="2D1PBM_byRc" role="2OqNvi">
                <ref role="37wK5l" to="tpek:2D1PBM_bxJg" resolve="getApplicableConceptFunctionParameter" />
              </node>
            </node>
          </node>
        </node>
        <node concept="3clFbF" id="2D1PBM_byRj" role="3cqZAp">
          <node concept="2OqwBi" id="2D1PBM_byRk" role="3clFbG">
            <node concept="37vLTw" id="2D1PBM_byRl" role="2Oq$k0">
              <ref role="3cqZAo" node="2D1PBM_byR5" resolve="result" />
            </node>
            <node concept="TSZUe" id="2D1PBM_byRm" role="2OqNvi">
              <node concept="3B5_sB" id="2D1PBM_byRi" role="25WWJ7">
                <ref role="3B5MYn" to="tpcw:gTQ7B__" resolve="ConceptFunctionParameter_scope" />
              </node>
            </node>
          </node>
        </node>
        <node concept="3clFbF" id="2D1PBM_byRo" role="3cqZAp">
          <node concept="2OqwBi" id="2D1PBM_byRp" role="3clFbG">
            <node concept="37vLTw" id="2D1PBM_byRq" role="2Oq$k0">
              <ref role="3cqZAo" node="2D1PBM_byR5" resolve="result" />
            </node>
            <node concept="TSZUe" id="2D1PBM_byRr" role="2OqNvi">
              <node concept="3B5_sB" id="2D1PBM_byRn" role="25WWJ7">
                <ref role="3B5MYn" to="tp3b:hr9LhY2" resolve="ConceptFunctionParameter_node" />
              </node>
            </node>
          </node>
        </node>
        <node concept="3cpWs6" id="2D1PBM_byRs" role="3cqZAp">
          <node concept="37vLTw" id="2D1PBM_byRt" role="3cqZAk">
            <ref role="3cqZAo" node="2D1PBM_byR5" resolve="result" />
          </node>
        </node>
      </node>
    </node>
    <node concept="13i0hz" id="$yZ68hB7AG" role="13h7CS">
      <property role="13i0is" value="false" />
      <property role="TrG5h" value="getExpectedReturnType" />
      <property role="13i0it" value="false" />
      <property role="13i0iv" value="false" />
      <ref role="13i0hy" to="tpek:hEwIGRD" resolve="getExpectedReturnType" />
      <node concept="3Tm1VV" id="$yZ68hB7AH" role="1B3o_S" />
      <node concept="3clFbS" id="$yZ68hB7AI" role="3clF47">
        <node concept="3cpWs6" id="$yZ68hB7AJ" role="3cqZAp">
          <node concept="2c44tf" id="$yZ68hB7AF" role="3cqZAk">
            <node concept="3cqZAl" id="hzB7xFN" role="2c44tc" />
          </node>
        </node>
      </node>
      <node concept="3Tqbb2" id="$yZ68hB7AK" role="3clF45" />
    </node>
  </node>
  <node concept="13h7C7" id="5A3OU5C5ll">
    <property role="3GE5qa" value="Methods" />
    <ref role="13h7C2" to="tp3b:5A3OU5C4Ef" resolve="IsUsedByDefault" />
    <node concept="13hLZK" id="5A3OU5C5nQ" role="13h7CW">
      <node concept="3clFbS" id="5A3OU5C5nR" role="2VODD2" />
    </node>
    <node concept="13i0hz" id="5A3OU5C7pr" role="13h7CS">
      <property role="2Ki8OM" value="true" />
      <property role="13i0iv" value="false" />
      <property role="13i0is" value="false" />
      <property role="TrG5h" value="showName" />
      <property role="13i0it" value="false" />
      <ref role="13i0hy" to="tpek:1653mnvAgry" resolve="showName" />
      <node concept="3Tm1VV" id="5A3OU5C7ps" role="1B3o_S" />
      <node concept="10P_77" id="5A3OU5C7pt" role="3clF45" />
      <node concept="3clFbS" id="5A3OU5C7px" role="3clF47">
        <node concept="3clFbF" id="5A3OU5C7p_" role="3cqZAp">
          <node concept="3clFbT" id="5A3OU5C7$B" role="3clFbG">
            <property role="3clFbU" value="true" />
          </node>
        </node>
      </node>
    </node>
    <node concept="13i0hz" id="5A3OU5CaL7" role="13h7CS">
      <property role="2Ki8OM" value="true" />
      <property role="13i0iv" value="false" />
      <property role="13i0is" value="false" />
      <property role="TrG5h" value="getApplicableConceptFunctionParameter" />
      <property role="13i0it" value="false" />
      <ref role="13i0hy" to="tpek:2D1PBM_bxJg" resolve="getApplicableConceptFunctionParameter" />
      <node concept="3Tm1VV" id="5A3OU5CaL8" role="1B3o_S" />
      <node concept="_YKpA" id="5A3OU5CaL9" role="3clF45">
        <node concept="3Tqbb2" id="5A3OU5CaLa" role="_ZDj9">
          <ref role="ehGHo" to="tpce:f_TIwhg" resolve="ConceptDeclaration" />
        </node>
      </node>
      <node concept="3clFbS" id="5A3OU5CaLg" role="3clF47">
        <node concept="3cpWs8" id="5A3OU5Cb0y" role="3cqZAp">
          <node concept="3cpWsn" id="5A3OU5Cb0z" role="3cpWs9">
            <property role="TrG5h" value="result" />
            <node concept="_YKpA" id="5A3OU5Cb0$" role="1tU5fm">
              <node concept="3Tqbb2" id="5A3OU5Cb0_" role="_ZDj9">
                <ref role="ehGHo" to="tpce:f_TIwhg" resolve="ConceptDeclaration" />
              </node>
            </node>
            <node concept="2OqwBi" id="5A3OU5Cb0A" role="33vP2m">
              <node concept="13iAh5" id="5A3OU5Cb0B" role="2Oq$k0">
                <ref role="3eA5LN" to="tpee:gyVMwX8" resolve="ConceptFunction" />
              </node>
              <node concept="2qgKlT" id="5A3OU5Cb0C" role="2OqNvi">
                <ref role="37wK5l" to="tpek:2D1PBM_bxJg" resolve="getApplicableConceptFunctionParameter" />
              </node>
            </node>
          </node>
        </node>
        <node concept="3clFbF" id="5A3OU5Cb0D" role="3cqZAp">
          <node concept="2OqwBi" id="5A3OU5Cb0E" role="3clFbG">
            <node concept="37vLTw" id="5A3OU5Cb0F" role="2Oq$k0">
              <ref role="3cqZAo" node="5A3OU5Cb0z" resolve="result" />
            </node>
            <node concept="TSZUe" id="5A3OU5Cb0G" role="2OqNvi">
              <node concept="3B5_sB" id="5A3OU5Cb0H" role="25WWJ7">
                <ref role="3B5MYn" to="tp3b:hr9LhY2" resolve="ConceptFunctionParameter_node" />
              </node>
            </node>
          </node>
        </node>
        <node concept="3cpWs6" id="5A3OU5Cb0I" role="3cqZAp">
          <node concept="37vLTw" id="5A3OU5Cb0J" role="3cqZAk">
            <ref role="3cqZAo" node="5A3OU5Cb0z" resolve="result" />
          </node>
        </node>
      </node>
    </node>
    <node concept="13i0hz" id="$yZ68hB7Ak" role="13h7CS">
      <property role="13i0is" value="false" />
      <property role="TrG5h" value="getExpectedReturnType" />
      <property role="13i0it" value="false" />
      <property role="13i0iv" value="false" />
      <ref role="13i0hy" to="tpek:hEwIGRD" resolve="getExpectedReturnType" />
      <node concept="3Tm1VV" id="$yZ68hB7Al" role="1B3o_S" />
      <node concept="3clFbS" id="$yZ68hB7Am" role="3clF47">
        <node concept="3cpWs6" id="$yZ68hB7An" role="3cqZAp">
          <node concept="2c44tf" id="$yZ68hB7y7" role="3cqZAk">
            <node concept="10P_77" id="5A3OU5C4F9" role="2c44tc" />
          </node>
        </node>
      </node>
      <node concept="3Tqbb2" id="$yZ68hB7Ao" role="3clF45" />
    </node>
  </node>
</model>

