<?xml version="1.0" encoding="UTF-8"?>
<model ref="r:390b21f6-c313-46da-a7d6-8dd5e6a64da3(jetbrains.mps.lang.findUsages.dataFlow)">
  <persistence version="9" />
  <languages>
    <use id="7fa12e9c-b949-4976-b4fa-19accbc320b4" name="jetbrains.mps.lang.dataFlow" version="0" />
    <use id="7866978e-a0f0-4cc7-81bc-4d213d9375e1" name="jetbrains.mps.lang.smodel" version="4" />
    <use id="f3061a53-9226-4cc5-a443-f952ceaf5816" name="jetbrains.mps.baseLanguage" version="4" />
    <devkit ref="fbc25dd2-5da4-483a-8b19-70928e1b62d7(jetbrains.mps.devkit.general-purpose)" />
  </languages>
  <imports>
    <import index="tp3b" ref="r:00000000-0000-4000-0000-011c8959035b(jetbrains.mps.lang.findUsages.structure)" />
  </imports>
  <registry>
    <language id="f3061a53-9226-4cc5-a443-f952ceaf5816" name="jetbrains.mps.baseLanguage">
      <concept id="1197027756228" name="jetbrains.mps.baseLanguage.structure.DotExpression" flags="nn" index="2OqwBi">
        <child id="1197027771414" name="operand" index="2Oq$k0" />
        <child id="1197027833540" name="operation" index="2OqNvi" />
      </concept>
      <concept id="1137021947720" name="jetbrains.mps.baseLanguage.structure.ConceptFunction" flags="in" index="2VMwT0">
        <child id="1137022507850" name="body" index="2VODD2" />
      </concept>
      <concept id="1068580123136" name="jetbrains.mps.baseLanguage.structure.StatementList" flags="sn" stub="5293379017992965193" index="3clFbS">
        <child id="1068581517665" name="statement" index="3cqZAp" />
      </concept>
    </language>
    <language id="7fa12e9c-b949-4976-b4fa-19accbc320b4" name="jetbrains.mps.lang.dataFlow">
      <concept id="1206442055221" name="jetbrains.mps.lang.dataFlow.structure.DataFlowBuilderDeclaration" flags="ig" index="3_zdsH">
        <reference id="1206442096288" name="conceptDeclaration" index="3_znuS" />
        <child id="1206442812839" name="builderBlock" index="3_A6iZ" />
      </concept>
      <concept id="1206442659665" name="jetbrains.mps.lang.dataFlow.structure.BuilderBlock" flags="in" index="3__wT9" />
      <concept id="1206442747519" name="jetbrains.mps.lang.dataFlow.structure.NodeParameter" flags="nn" index="3__QtB" />
      <concept id="1206454052847" name="jetbrains.mps.lang.dataFlow.structure.EmitCodeForStatement" flags="nn" index="3AgYrR">
        <child id="1206454079161" name="codeFor" index="3Ah4Yx" />
      </concept>
    </language>
    <language id="7866978e-a0f0-4cc7-81bc-4d213d9375e1" name="jetbrains.mps.lang.smodel">
      <concept id="1138056143562" name="jetbrains.mps.lang.smodel.structure.SLinkAccess" flags="nn" index="3TrEf2">
        <reference id="1138056516764" name="link" index="3Tt5mk" />
      </concept>
    </language>
    <language id="ceab5195-25ea-4f22-9b92-103b95ca8c0c" name="jetbrains.mps.lang.core">
      <concept id="1133920641626" name="jetbrains.mps.lang.core.structure.BaseConcept" flags="ng" index="2VYdi">
        <property id="1193676396447" name="virtualPackage" index="3GE5qa" />
      </concept>
    </language>
  </registry>
  <node concept="3_zdsH" id="1lvusB2cA0v">
    <property role="3GE5qa" value="Statements" />
    <ref role="3_znuS" to="tp3b:htO1afO" resolve="ResultStatement" />
    <node concept="3__wT9" id="1lvusB2cA0w" role="3_A6iZ">
      <node concept="3clFbS" id="1lvusB2cA0x" role="2VODD2">
        <node concept="3AgYrR" id="2qHItohYSSd" role="3cqZAp">
          <node concept="2OqwBi" id="2qHItohYSD5" role="3Ah4Yx">
            <node concept="3__QtB" id="1lvusB2cGW_" role="2Oq$k0" />
            <node concept="3TrEf2" id="2qHItohYSDb" role="2OqNvi">
              <ref role="3Tt5mk" to="tp3b:htO1k2z" />
            </node>
          </node>
        </node>
      </node>
    </node>
  </node>
  <node concept="3_zdsH" id="1lvusB2cO6_">
    <property role="3GE5qa" value="Statements" />
    <ref role="3_znuS" to="tp3b:hzmZew1" resolve="ExecuteFinderExpression" />
    <node concept="3__wT9" id="1lvusB2cO6A" role="3_A6iZ">
      <node concept="3clFbS" id="1lvusB2cO6B" role="2VODD2">
        <node concept="3AgYrR" id="1lvusB2cO6C" role="3cqZAp">
          <node concept="2OqwBi" id="1lvusB2cO6F" role="3Ah4Yx">
            <node concept="3__QtB" id="1lvusB2cO6E" role="2Oq$k0" />
            <node concept="3TrEf2" id="1lvusB2cOoj" role="2OqNvi">
              <ref role="3Tt5mk" to="tp3b:hzmZew4" />
            </node>
          </node>
        </node>
        <node concept="3AgYrR" id="1lvusB2cOol" role="3cqZAp">
          <node concept="2OqwBi" id="1lvusB2cOom" role="3Ah4Yx">
            <node concept="3__QtB" id="1lvusB2cOon" role="2Oq$k0" />
            <node concept="3TrEf2" id="1lvusB2cOop" role="2OqNvi">
              <ref role="3Tt5mk" to="tp3b:hzmZew5" />
            </node>
          </node>
        </node>
      </node>
    </node>
  </node>
  <node concept="3_zdsH" id="5$1A31LN6eb">
    <property role="3GE5qa" value="Statements" />
    <ref role="3_znuS" to="tp3b:1JlDhgSjx_p" resolve="ExecuteFindersGetSearchResults" />
    <node concept="3__wT9" id="5$1A31LN6ec" role="3_A6iZ">
      <node concept="3clFbS" id="5$1A31LN6ed" role="2VODD2">
        <node concept="3AgYrR" id="5$1A31LN77P" role="3cqZAp">
          <node concept="2OqwBi" id="5$1A31LN77S" role="3Ah4Yx">
            <node concept="3__QtB" id="5$1A31LN77R" role="2Oq$k0" />
            <node concept="3TrEf2" id="5$1A31LN77W" role="2OqNvi">
              <ref role="3Tt5mk" to="tp3b:5xq1uvO4jl0" />
            </node>
          </node>
        </node>
        <node concept="3AgYrR" id="5$1A31LN77Y" role="3cqZAp">
          <node concept="2OqwBi" id="5$1A31LN781" role="3Ah4Yx">
            <node concept="3__QtB" id="5$1A31LN780" role="2Oq$k0" />
            <node concept="3TrEf2" id="5$1A31LN785" role="2OqNvi">
              <ref role="3Tt5mk" to="tp3b:5xq1uvO4jkY" />
            </node>
          </node>
        </node>
        <node concept="3AgYrR" id="5$1A31LN787" role="3cqZAp">
          <node concept="2OqwBi" id="5$1A31LN78a" role="3Ah4Yx">
            <node concept="3__QtB" id="5$1A31LN789" role="2Oq$k0" />
            <node concept="3TrEf2" id="5$1A31LN78e" role="2OqNvi">
              <ref role="3Tt5mk" to="tp3b:5xq1uvO4jkZ" />
            </node>
          </node>
        </node>
      </node>
    </node>
  </node>
  <node concept="3_zdsH" id="5$1A31LNYW6">
    <property role="3GE5qa" value="Statements" />
    <ref role="3_znuS" to="tp3b:htO21hq" resolve="NodeStatement" />
    <node concept="3__wT9" id="5$1A31LNYW7" role="3_A6iZ">
      <node concept="3clFbS" id="5$1A31LNYW8" role="2VODD2">
        <node concept="3AgYrR" id="5$1A31LNYW9" role="3cqZAp">
          <node concept="2OqwBi" id="5$1A31LNYWc" role="3Ah4Yx">
            <node concept="3__QtB" id="5$1A31LNYWb" role="2Oq$k0" />
            <node concept="3TrEf2" id="5$1A31LNYWg" role="2OqNvi">
              <ref role="3Tt5mk" to="tp3b:htO26cB" />
            </node>
          </node>
        </node>
      </node>
    </node>
  </node>
</model>

