<?xml version="1.0" encoding="UTF-8"?>
<model ref="r:3fe3892d-7b9f-411e-8209-952fc977b7ad(jetbrains.mps.samples.notesOrganizer.actions)">
  <persistence version="9" />
  <languages>
    <use id="aee9cad2-acd4-4608-aef2-0004f6a1cdbd" name="jetbrains.mps.lang.actions" version="0" />
    <devkit ref="fbc25dd2-5da4-483a-8b19-70928e1b62d7(jetbrains.mps.devkit.general-purpose)" />
  </languages>
  <imports>
    <import index="g4p9" ref="r:d80ddecc-25d5-4844-86af-49ea7b4962af(jetbrains.mps.samples.notesOrganizer.structure)" implicit="true" />
  </imports>
  <registry>
    <language id="f3061a53-9226-4cc5-a443-f952ceaf5816" name="jetbrains.mps.baseLanguage">
      <concept id="1197027756228" name="jetbrains.mps.baseLanguage.structure.DotExpression" flags="nn" index="2OqwBi">
        <child id="1197027771414" name="operand" index="2Oq$k0" />
        <child id="1197027833540" name="operation" index="2OqNvi" />
      </concept>
      <concept id="1137021947720" name="jetbrains.mps.baseLanguage.structure.ConceptFunction" flags="in" index="2VMwT0">
        <child id="1137022507850" name="body" index="2VODD2" />
      </concept>
      <concept id="1068580123155" name="jetbrains.mps.baseLanguage.structure.ExpressionStatement" flags="nn" index="3clFbF">
        <child id="1068580123156" name="expression" index="3clFbG" />
      </concept>
      <concept id="1068580123136" name="jetbrains.mps.baseLanguage.structure.StatementList" flags="sn" stub="5293379017992965193" index="3clFbS">
        <child id="1068581517665" name="statement" index="3cqZAp" />
      </concept>
    </language>
    <language id="aee9cad2-acd4-4608-aef2-0004f6a1cdbd" name="jetbrains.mps.lang.actions">
      <concept id="767145758118872833" name="jetbrains.mps.lang.actions.structure.NF_LinkList_AddNewChildOperation" flags="nn" index="2DeJg1" />
      <concept id="1158700664498" name="jetbrains.mps.lang.actions.structure.NodeFactories" flags="ng" index="37WguZ">
        <child id="1158700779049" name="nodeFactory" index="37WGs$" />
      </concept>
      <concept id="1158700725281" name="jetbrains.mps.lang.actions.structure.NodeFactory" flags="ig" index="37WvkG">
        <reference id="1158700943156" name="applicableConcept" index="37XkoT" />
        <child id="1158701448518" name="setupFunction" index="37ZfLb" />
      </concept>
      <concept id="1158701162220" name="jetbrains.mps.lang.actions.structure.NodeSetupFunction" flags="in" index="37Y9Zx" />
      <concept id="5584396657084912703" name="jetbrains.mps.lang.actions.structure.NodeSetupFunction_NewNode" flags="nn" index="1r4Lsj" />
    </language>
    <language id="7866978e-a0f0-4cc7-81bc-4d213d9375e1" name="jetbrains.mps.lang.smodel">
      <concept id="1139184414036" name="jetbrains.mps.lang.smodel.structure.LinkList_AddNewChildOperation" flags="nn" index="WFELt">
        <reference id="1139877738879" name="concept" index="1A0vxQ" />
      </concept>
      <concept id="1138056282393" name="jetbrains.mps.lang.smodel.structure.SLinkListAccess" flags="nn" index="3Tsc0h">
        <reference id="1138056546658" name="link" index="3TtcxE" />
      </concept>
    </language>
    <language id="ceab5195-25ea-4f22-9b92-103b95ca8c0c" name="jetbrains.mps.lang.core">
      <concept id="1169194658468" name="jetbrains.mps.lang.core.structure.INamedConcept" flags="ng" index="TrEIO">
        <property id="1169194664001" name="name" index="TrG5h" />
      </concept>
    </language>
  </registry>
  <node concept="37WguZ" id="7IxbKGmfEFw">
    <property role="TrG5h" value="Notes" />
    <node concept="37WvkG" id="7IxbKGmfEFx" role="37WGs$">
      <ref role="37XkoT" to="g4p9:7IxbKGmfvcH" resolve="Note" />
      <node concept="37Y9Zx" id="7IxbKGmfEFy" role="37ZfLb">
        <node concept="3clFbS" id="7IxbKGmfEFz" role="2VODD2">
          <node concept="3clFbF" id="7IxbKGmfEFC" role="3cqZAp">
            <node concept="2OqwBi" id="7IxbKGmfF9d" role="3clFbG">
              <node concept="2OqwBi" id="7IxbKGmfEGR" role="2Oq$k0">
                <node concept="1r4Lsj" id="7IxbKGmfEFB" role="2Oq$k0" />
                <node concept="3Tsc0h" id="7IxbKGmfEJz" role="2OqNvi">
                  <ref role="3TtcxE" to="g4p9:7IxbKGmfvfZ" />
                </node>
              </node>
              <node concept="2DeJg1" id="7IxbKGmfHkq" role="2OqNvi">
                <ref role="1A0vxQ" to="g4p9:7IxbKGmfvg4" resolve="TextNotePart" />
              </node>
            </node>
          </node>
        </node>
      </node>
    </node>
  </node>
</model>

