<?xml version="1.0" encoding="UTF-8"?>
<model ref="r:31435044-ac3f-41ac-91b1-10c17ad3b966(jetbrains.mps.samples.notesOrganizer.constraints)">
  <persistence version="9" />
  <languages>
    <use id="3f4bc5f5-c6c1-4a28-8b10-c83066ffa4a1" name="jetbrains.mps.lang.constraints" version="0" />
    <use id="13744753-c81f-424a-9c1b-cf8943bf4e86" name="jetbrains.mps.lang.sharedConcepts" version="0" />
    <devkit ref="fbc25dd2-5da4-483a-8b19-70928e1b62d7(jetbrains.mps.devkit.general-purpose)" />
  </languages>
  <imports>
    <import index="o8zo" ref="r:314576fc-3aee-4386-a0a5-a38348ac317d(jetbrains.mps.scope)" />
    <import index="z60i" ref="6354ebe7-c22a-4a0f-ac54-50b52ab9b065/java:java.awt(JDK/)" />
    <import index="g4p9" ref="r:d80ddecc-25d5-4844-86af-49ea7b4962af(jetbrains.mps.samples.notesOrganizer.structure)" implicit="true" />
    <import index="tpck" ref="r:00000000-0000-4000-0000-011c89590288(jetbrains.mps.lang.core.structure)" implicit="true" />
    <import index="tpek" ref="r:00000000-0000-4000-0000-011c895902c0(jetbrains.mps.baseLanguage.behavior)" implicit="true" />
    <import index="tpee" ref="r:00000000-0000-4000-0000-011c895902ca(jetbrains.mps.baseLanguage.structure)" implicit="true" />
  </imports>
  <registry>
    <language id="f3061a53-9226-4cc5-a443-f952ceaf5816" name="jetbrains.mps.baseLanguage">
      <concept id="4836112446988635817" name="jetbrains.mps.baseLanguage.structure.UndefinedType" flags="in" index="2jxLKc" />
      <concept id="1197027756228" name="jetbrains.mps.baseLanguage.structure.DotExpression" flags="nn" index="2OqwBi">
        <child id="1197027771414" name="operand" index="2Oq$k0" />
        <child id="1197027833540" name="operation" index="2OqNvi" />
      </concept>
      <concept id="1145552977093" name="jetbrains.mps.baseLanguage.structure.GenericNewExpression" flags="nn" index="2ShNRf">
        <child id="1145553007750" name="creator" index="2ShVmc" />
      </concept>
      <concept id="1137021947720" name="jetbrains.mps.baseLanguage.structure.ConceptFunction" flags="in" index="2VMwT0">
        <child id="1137022507850" name="body" index="2VODD2" />
      </concept>
      <concept id="1182160077978" name="jetbrains.mps.baseLanguage.structure.AnonymousClassCreator" flags="nn" index="YeOm9">
        <child id="1182160096073" name="cls" index="YeSDq" />
      </concept>
      <concept id="1068498886296" name="jetbrains.mps.baseLanguage.structure.VariableReference" flags="nn" index="37vLTw">
        <reference id="1068581517664" name="variableDeclaration" index="3cqZAo" />
      </concept>
      <concept id="1068498886292" name="jetbrains.mps.baseLanguage.structure.ParameterDeclaration" flags="ir" index="37vLTG" />
      <concept id="1225271177708" name="jetbrains.mps.baseLanguage.structure.StringType" flags="in" index="17QB3L" />
      <concept id="1225271283259" name="jetbrains.mps.baseLanguage.structure.NPEEqualsExpression" flags="nn" index="17R0WA" />
      <concept id="4972933694980447171" name="jetbrains.mps.baseLanguage.structure.BaseVariableDeclaration" flags="ng" index="19Szcq">
        <child id="5680397130376446158" name="type" index="1tU5fm" />
      </concept>
      <concept id="1068580123132" name="jetbrains.mps.baseLanguage.structure.BaseMethodDeclaration" flags="ng" index="3clF44">
        <child id="1068580123133" name="returnType" index="3clF45" />
        <child id="1068580123134" name="parameter" index="3clF46" />
        <child id="1068580123135" name="body" index="3clF47" />
      </concept>
      <concept id="1068580123165" name="jetbrains.mps.baseLanguage.structure.InstanceMethodDeclaration" flags="ig" index="3clFb_">
        <property id="1178608670077" name="isAbstract" index="1EzhhJ" />
      </concept>
      <concept id="1068580123155" name="jetbrains.mps.baseLanguage.structure.ExpressionStatement" flags="nn" index="3clFbF">
        <child id="1068580123156" name="expression" index="3clFbG" />
      </concept>
      <concept id="1068580123136" name="jetbrains.mps.baseLanguage.structure.StatementList" flags="sn" stub="5293379017992965193" index="3clFbS">
        <child id="1068581517665" name="statement" index="3cqZAp" />
      </concept>
      <concept id="1204053956946" name="jetbrains.mps.baseLanguage.structure.IMethodCall" flags="ng" index="1ndlxa">
        <reference id="1068499141037" name="baseMethodDeclaration" index="37wK5l" />
        <child id="1068499141038" name="actualArgument" index="37wK5m" />
      </concept>
      <concept id="1107461130800" name="jetbrains.mps.baseLanguage.structure.Classifier" flags="ng" index="3pOWGL">
        <property id="521412098689998745" name="nonStatic" index="2bfB8j" />
        <child id="5375687026011219971" name="member" index="jymVt" unordered="true" />
      </concept>
      <concept id="1081773326031" name="jetbrains.mps.baseLanguage.structure.BinaryOperation" flags="nn" index="3uHJSO">
        <child id="1081773367579" name="rightExpression" index="3uHU7w" />
        <child id="1081773367580" name="leftExpression" index="3uHU7B" />
      </concept>
      <concept id="1178549954367" name="jetbrains.mps.baseLanguage.structure.IVisible" flags="ng" index="1B3ioH">
        <child id="1178549979242" name="visibility" index="1B3o_S" />
      </concept>
      <concept id="1146644602865" name="jetbrains.mps.baseLanguage.structure.PublicVisibility" flags="nn" index="3Tm1VV" />
      <concept id="1080120340718" name="jetbrains.mps.baseLanguage.structure.AndExpression" flags="nn" index="1Wc70l" />
      <concept id="1170345865475" name="jetbrains.mps.baseLanguage.structure.AnonymousClass" flags="ig" index="1Y3b0j">
        <reference id="1170346070688" name="classifier" index="1Y3XeK" />
      </concept>
    </language>
    <language id="3f4bc5f5-c6c1-4a28-8b10-c83066ffa4a1" name="jetbrains.mps.lang.constraints">
      <concept id="5676632058862809931" name="jetbrains.mps.lang.constraints.structure.ConstraintFunction_ReferentSearchScope_Scope" flags="in" index="13QW63" />
      <concept id="1213093968558" name="jetbrains.mps.lang.constraints.structure.ConceptConstraints" flags="ng" index="1M2fIO">
        <reference id="1213093996982" name="concept" index="1M2myG" />
        <child id="1213100494875" name="referent" index="1Mr941" />
      </concept>
      <concept id="1148687176410" name="jetbrains.mps.lang.constraints.structure.NodeReferentConstraint" flags="ng" index="1N5Pfh">
        <reference id="1148687202698" name="applicableLink" index="1N5Vy1" />
        <child id="1148687345559" name="searchScopeFactory" index="1N6uqs" />
      </concept>
    </language>
    <language id="fd392034-7849-419d-9071-12563d152375" name="jetbrains.mps.baseLanguage.closures">
      <concept id="1199569711397" name="jetbrains.mps.baseLanguage.closures.structure.ClosureLiteral" flags="nn" index="1bVj0M">
        <child id="1199569906740" name="parameter" index="1bW2Oz" />
        <child id="1199569916463" name="body" index="1bW5cS" />
      </concept>
    </language>
    <language id="7866978e-a0f0-4cc7-81bc-4d213d9375e1" name="jetbrains.mps.lang.smodel">
      <concept id="1177026924588" name="jetbrains.mps.lang.smodel.structure.RefConcept_Reference" flags="nn" index="chp4Y">
        <reference id="1177026940964" name="conceptDeclaration" index="cht4Q" />
      </concept>
      <concept id="1179409122411" name="jetbrains.mps.lang.smodel.structure.Node_ConceptMethodCall" flags="nn" index="2qgKlT" />
      <concept id="2396822768958367367" name="jetbrains.mps.lang.smodel.structure.AbstractTypeCastExpression" flags="nn" index="$5XWr">
        <reference id="6733348108486823428" name="concept" index="1m5ApE" />
        <child id="6733348108486823193" name="leftExpression" index="1m5AlR" />
      </concept>
      <concept id="1139621453865" name="jetbrains.mps.lang.smodel.structure.Node_IsInstanceOfOperation" flags="nn" index="1mIQ4w">
        <child id="1177027386292" name="conceptArgument" index="cj9EA" />
      </concept>
      <concept id="1219352745532" name="jetbrains.mps.lang.smodel.structure.NodeRefExpression" flags="nn" index="3B5_sB">
        <reference id="1219352800908" name="referentNode" index="3B5MYn" />
      </concept>
      <concept id="1140137987495" name="jetbrains.mps.lang.smodel.structure.SNodeTypeCastExpression" flags="nn" index="1PxgMI" />
      <concept id="1138055754698" name="jetbrains.mps.lang.smodel.structure.SNodeType" flags="in" index="3Tqbb2" />
      <concept id="1138056022639" name="jetbrains.mps.lang.smodel.structure.SPropertyAccess" flags="nn" index="3TrcHB">
        <reference id="1138056395725" name="property" index="3TsBF5" />
      </concept>
      <concept id="1138056143562" name="jetbrains.mps.lang.smodel.structure.SLinkAccess" flags="nn" index="3TrEf2">
        <reference id="1138056516764" name="link" index="3Tt5mk" />
      </concept>
    </language>
    <language id="ceab5195-25ea-4f22-9b92-103b95ca8c0c" name="jetbrains.mps.lang.core">
      <concept id="1169194658468" name="jetbrains.mps.lang.core.structure.INamedConcept" flags="ng" index="TrEIO">
        <property id="1169194664001" name="name" index="TrG5h" />
      </concept>
    </language>
    <language id="83888646-71ce-4f1c-9c53-c54016f6ad4f" name="jetbrains.mps.baseLanguage.collections">
      <concept id="1204796164442" name="jetbrains.mps.baseLanguage.collections.structure.InternalSequenceOperation" flags="nn" index="23sCx2">
        <child id="1204796294226" name="closure" index="23t8la" />
      </concept>
      <concept id="1203518072036" name="jetbrains.mps.baseLanguage.collections.structure.SmartClosureParameterDeclaration" flags="ig" index="Rh6nW" />
      <concept id="1202120902084" name="jetbrains.mps.baseLanguage.collections.structure.WhereOperation" flags="nn" index="3zZkjj" />
    </language>
  </registry>
  <node concept="1M2fIO" id="7IxbKGmfIFQ">
    <ref role="1M2myG" to="g4p9:7IxbKGmfht5" resolve="NotesConfiguration" />
  </node>
  <node concept="1M2fIO" id="3o4bEdk_OMR">
    <ref role="1M2myG" to="g4p9:3o4bEdk_OMp" resolve="NoteMetaInfo" />
    <node concept="1N5Pfh" id="3o4bEdk_P4R" role="1Mr941">
      <ref role="1N5Vy1" to="g4p9:3o4bEdk_OMt" />
      <node concept="13QW63" id="3o4bEdk_P4T" role="1N6uqs">
        <node concept="3clFbS" id="3o4bEdk_P4U" role="2VODD2">
          <node concept="3clFbF" id="3o4bEdk_P5i" role="3cqZAp">
            <node concept="2ShNRf" id="3o4bEdk_P5j" role="3clFbG">
              <node concept="YeOm9" id="3o4bEdk_P5k" role="2ShVmc">
                <node concept="1Y3b0j" id="3o4bEdk_P5l" role="YeSDq">
                  <property role="2bfB8j" value="true" />
                  <ref role="1Y3XeK" to="o8zo:4IP40Bi3e_R" resolve="ListScope" />
                  <ref role="37wK5l" to="o8zo:4IP40Bi3e_T" resolve="ListScope" />
                  <node concept="3Tm1VV" id="3o4bEdk_P5m" role="1B3o_S" />
                  <node concept="3clFb_" id="3o4bEdk_P5n" role="jymVt">
                    <property role="1EzhhJ" value="false" />
                    <property role="TrG5h" value="getName" />
                    <node concept="17QB3L" id="3o4bEdk_P5o" role="3clF45" />
                    <node concept="3Tm1VV" id="3o4bEdk_P5p" role="1B3o_S" />
                    <node concept="37vLTG" id="3o4bEdk_P5q" role="3clF46">
                      <property role="TrG5h" value="child" />
                      <node concept="3Tqbb2" id="3o4bEdk_P5r" role="1tU5fm" />
                    </node>
                    <node concept="3clFbS" id="3o4bEdk_P5s" role="3clF47">
                      <node concept="3clFbF" id="3o4bEdk_P5t" role="3cqZAp">
                        <node concept="2OqwBi" id="3o4bEdk_P5u" role="3clFbG">
                          <node concept="1PxgMI" id="3o4bEdk_P5v" role="2Oq$k0">
                            <ref role="1m5ApE" to="tpck:h0TrEE$" resolve="INamedConcept" />
                            <node concept="37vLTw" id="3o4bEdk_P5w" role="1m5AlR">
                              <ref role="3cqZAo" node="3o4bEdk_P5q" resolve="child" />
                            </node>
                          </node>
                          <node concept="3TrcHB" id="3o4bEdk_P5x" role="2OqNvi">
                            <ref role="3TsBF5" to="tpck:h0TrG11" resolve="name" />
                          </node>
                        </node>
                      </node>
                    </node>
                  </node>
                  <node concept="2OqwBi" id="3o4bEdk_P5y" role="37wK5m">
                    <node concept="2OqwBi" id="3o4bEdk_P5z" role="2Oq$k0">
                      <node concept="3B5_sB" id="3o4bEdk_P5$" role="2Oq$k0">
                        <ref role="3B5MYn" to="z60i:~Color" resolve="Color" />
                      </node>
                      <node concept="2qgKlT" id="3o4bEdk_P5_" role="2OqNvi">
                        <ref role="37wK5l" to="tpek:4_LVZ3pBr7M" resolve="staticFields" />
                      </node>
                    </node>
                    <node concept="3zZkjj" id="3o4bEdk_P5A" role="2OqNvi">
                      <node concept="1bVj0M" id="3o4bEdk_P5B" role="23t8la">
                        <node concept="3clFbS" id="3o4bEdk_P5C" role="1bW5cS">
                          <node concept="3clFbF" id="3o4bEdk_P5D" role="3cqZAp">
                            <node concept="1Wc70l" id="3o4bEdk_P5E" role="3clFbG">
                              <node concept="17R0WA" id="3o4bEdk_P5F" role="3uHU7w">
                                <node concept="3B5_sB" id="3o4bEdk_P5G" role="3uHU7w">
                                  <ref role="3B5MYn" to="z60i:~Color" resolve="Color" />
                                </node>
                                <node concept="2OqwBi" id="3o4bEdk_P5H" role="3uHU7B">
                                  <node concept="1PxgMI" id="3o4bEdk_P5I" role="2Oq$k0">
                                    <ref role="1m5ApE" to="tpee:g7uibYu" resolve="ClassifierType" />
                                    <node concept="2OqwBi" id="3o4bEdk_P5J" role="1m5AlR">
                                      <node concept="37vLTw" id="3o4bEdk_P5K" role="2Oq$k0">
                                        <ref role="3cqZAo" node="3o4bEdk_P5T" resolve="it" />
                                      </node>
                                      <node concept="3TrEf2" id="3o4bEdk_P5L" role="2OqNvi">
                                        <ref role="3Tt5mk" to="tpee:4VkOLwjf83e" />
                                      </node>
                                    </node>
                                  </node>
                                  <node concept="3TrEf2" id="3o4bEdk_P5M" role="2OqNvi">
                                    <ref role="3Tt5mk" to="tpee:g7uigIF" />
                                  </node>
                                </node>
                              </node>
                              <node concept="2OqwBi" id="3o4bEdk_P5N" role="3uHU7B">
                                <node concept="2OqwBi" id="3o4bEdk_P5O" role="2Oq$k0">
                                  <node concept="37vLTw" id="3o4bEdk_P5P" role="2Oq$k0">
                                    <ref role="3cqZAo" node="3o4bEdk_P5T" resolve="it" />
                                  </node>
                                  <node concept="3TrEf2" id="3o4bEdk_P5Q" role="2OqNvi">
                                    <ref role="3Tt5mk" to="tpee:4VkOLwjf83e" />
                                  </node>
                                </node>
                                <node concept="1mIQ4w" id="3o4bEdk_P5R" role="2OqNvi">
                                  <node concept="chp4Y" id="3o4bEdk_P5S" role="cj9EA">
                                    <ref role="cht4Q" to="tpee:g7uibYu" resolve="ClassifierType" />
                                  </node>
                                </node>
                              </node>
                            </node>
                          </node>
                        </node>
                        <node concept="Rh6nW" id="3o4bEdk_P5T" role="1bW2Oz">
                          <property role="TrG5h" value="it" />
                          <node concept="2jxLKc" id="3o4bEdk_P5U" role="1tU5fm" />
                        </node>
                      </node>
                    </node>
                  </node>
                </node>
              </node>
            </node>
          </node>
        </node>
      </node>
    </node>
  </node>
</model>

