<?xml version="1.0" encoding="UTF-8"?>
<model ref="r:ea884767-f424-4c97-a82e-eccd57dbc217(jetbrains.mps.core.xml.textGen)">
  <persistence version="9" />
  <languages>
    <use id="b83431fe-5c8f-40bc-8a36-65e25f4dd253" name="jetbrains.mps.lang.textGen" version="0" />
    <devkit ref="fbc25dd2-5da4-483a-8b19-70928e1b62d7(jetbrains.mps.devkit.general-purpose)" />
  </languages>
  <imports>
    <import index="iuxj" ref="r:64db3a92-5968-4a73-b456-34504a2d97a6(jetbrains.mps.core.xml.structure)" />
    <import index="t7at" ref="r:d4d8dc74-6f4e-4494-bacc-55342de185e1(jetbrains.mps.core.xml.behavior)" implicit="true" />
    <import index="wyt6" ref="6354ebe7-c22a-4a0f-ac54-50b52ab9b065/java:java.lang(JDK/)" implicit="true" />
  </imports>
  <registry>
    <language id="f3061a53-9226-4cc5-a443-f952ceaf5816" name="jetbrains.mps.baseLanguage">
      <concept id="1082485599095" name="jetbrains.mps.baseLanguage.structure.BlockStatement" flags="nn" index="9aQIb">
        <child id="1082485599096" name="statements" index="9aQI4" />
      </concept>
      <concept id="1215693861676" name="jetbrains.mps.baseLanguage.structure.BaseAssignmentExpression" flags="nn" index="d038R">
        <child id="1068498886297" name="rValue" index="37vLTx" />
        <child id="1068498886295" name="lValue" index="37vLTJ" />
      </concept>
      <concept id="1202948039474" name="jetbrains.mps.baseLanguage.structure.InstanceMethodCallOperation" flags="nn" index="liA8E" />
      <concept id="1197027756228" name="jetbrains.mps.baseLanguage.structure.DotExpression" flags="nn" index="2OqwBi">
        <child id="1197027771414" name="operand" index="2Oq$k0" />
        <child id="1197027833540" name="operation" index="2OqNvi" />
      </concept>
      <concept id="1137021947720" name="jetbrains.mps.baseLanguage.structure.ConceptFunction" flags="in" index="2VMwT0">
        <child id="1137022507850" name="body" index="2VODD2" />
      </concept>
      <concept id="1070475926800" name="jetbrains.mps.baseLanguage.structure.StringLiteral" flags="nn" index="Xl_RD">
        <property id="1070475926801" name="value" index="Xl_RC" />
      </concept>
      <concept id="1070534644030" name="jetbrains.mps.baseLanguage.structure.BooleanType" flags="in" index="10P_77" />
      <concept id="1068431474542" name="jetbrains.mps.baseLanguage.structure.VariableDeclaration" flags="ng" index="33uBYm">
        <child id="1068431790190" name="initializer" index="33vP2m" />
      </concept>
      <concept id="1068498886296" name="jetbrains.mps.baseLanguage.structure.VariableReference" flags="nn" index="37vLTw">
        <reference id="1068581517664" name="variableDeclaration" index="3cqZAo" />
      </concept>
      <concept id="1068498886294" name="jetbrains.mps.baseLanguage.structure.AssignmentExpression" flags="nn" index="37vLTI" />
      <concept id="1225271408483" name="jetbrains.mps.baseLanguage.structure.IsNotEmptyOperation" flags="nn" index="17RvpY" />
      <concept id="4972933694980447171" name="jetbrains.mps.baseLanguage.structure.BaseVariableDeclaration" flags="ng" index="19Szcq">
        <child id="5680397130376446158" name="type" index="1tU5fm" />
      </concept>
      <concept id="1068580123155" name="jetbrains.mps.baseLanguage.structure.ExpressionStatement" flags="nn" index="3clFbF">
        <child id="1068580123156" name="expression" index="3clFbG" />
      </concept>
      <concept id="1068580123157" name="jetbrains.mps.baseLanguage.structure.Statement" flags="nn" index="3clFbH" />
      <concept id="1068580123159" name="jetbrains.mps.baseLanguage.structure.IfStatement" flags="nn" index="3clFbJ">
        <child id="1082485599094" name="ifFalseStatement" index="9aQIa" />
        <child id="1068580123160" name="condition" index="3clFbw" />
        <child id="1068580123161" name="ifTrue" index="3clFbx" />
      </concept>
      <concept id="1068580123136" name="jetbrains.mps.baseLanguage.structure.StatementList" flags="sn" stub="5293379017992965193" index="3clFbS">
        <child id="1068581517665" name="statement" index="3cqZAp" />
      </concept>
      <concept id="1068581242878" name="jetbrains.mps.baseLanguage.structure.ReturnStatement" flags="nn" index="3cpWs6" />
      <concept id="1068581242864" name="jetbrains.mps.baseLanguage.structure.LocalVariableDeclarationStatement" flags="nn" index="3cpWs8">
        <child id="1068581242865" name="localVariableDeclaration" index="3cpWs9" />
      </concept>
      <concept id="1068581242863" name="jetbrains.mps.baseLanguage.structure.LocalVariableDeclaration" flags="nr" index="3cpWsn" />
      <concept id="1081516740877" name="jetbrains.mps.baseLanguage.structure.NotExpression" flags="nn" index="3fqX7Q">
        <child id="1081516765348" name="expression" index="3fr31v" />
      </concept>
      <concept id="1204053956946" name="jetbrains.mps.baseLanguage.structure.IMethodCall" flags="ng" index="1ndlxa">
        <reference id="1068499141037" name="baseMethodDeclaration" index="37wK5l" />
        <child id="1068499141038" name="actualArgument" index="37wK5m" />
      </concept>
      <concept id="1081773326031" name="jetbrains.mps.baseLanguage.structure.BinaryOperation" flags="nn" index="3uHJSO">
        <child id="1081773367579" name="rightExpression" index="3uHU7w" />
        <child id="1081773367580" name="leftExpression" index="3uHU7B" />
      </concept>
      <concept id="6329021646629104957" name="jetbrains.mps.baseLanguage.structure.TextCommentPart" flags="nn" index="3SKdUq">
        <property id="6329021646629104958" name="text" index="3SKdUp" />
      </concept>
      <concept id="6329021646629104954" name="jetbrains.mps.baseLanguage.structure.SingleLineComment" flags="nn" index="3SKdUt">
        <child id="6329021646629175155" name="commentPart" index="3SKWNk" />
      </concept>
      <concept id="1080120340718" name="jetbrains.mps.baseLanguage.structure.AndExpression" flags="nn" index="1Wc70l" />
    </language>
    <language id="b83431fe-5c8f-40bc-8a36-65e25f4dd253" name="jetbrains.mps.lang.textGen">
      <concept id="8931911391946696733" name="jetbrains.mps.lang.textGen.structure.ExtensionDeclaration" flags="in" index="9MYSb" />
      <concept id="1237305208784" name="jetbrains.mps.lang.textGen.structure.NewLineAppendPart" flags="ng" index="l8MVK" />
      <concept id="1237305334312" name="jetbrains.mps.lang.textGen.structure.NodeAppendPart" flags="ng" index="l9hG8">
        <child id="1237305790512" name="value" index="lb14g" />
      </concept>
      <concept id="1237305491868" name="jetbrains.mps.lang.textGen.structure.CollectionAppendPart" flags="ng" index="l9S2W">
        <property id="1237306003719" name="separator" index="lbP0B" />
        <property id="1237983969951" name="withSeparator" index="XA4eZ" />
        <child id="1237305945551" name="list" index="lbANJ" />
      </concept>
      <concept id="1237305557638" name="jetbrains.mps.lang.textGen.structure.ConstantStringAppendPart" flags="ng" index="la8eA">
        <property id="1237305576108" name="value" index="lacIc" />
      </concept>
      <concept id="1237306079178" name="jetbrains.mps.lang.textGen.structure.AppendOperation" flags="nn" index="lc7rE">
        <child id="1237306115446" name="part" index="lcghm" />
      </concept>
      <concept id="1233670071145" name="jetbrains.mps.lang.textGen.structure.ConceptTextGenDeclaration" flags="ig" index="WtQ9Q">
        <reference id="1233670257997" name="conceptDeclaration" index="WuzLi" />
        <child id="1233749296504" name="textGenBlock" index="11c4hB" />
        <child id="7991274449437422201" name="extension" index="33IsuW" />
      </concept>
      <concept id="1233748055915" name="jetbrains.mps.lang.textGen.structure.NodeParameter" flags="nn" index="117lpO" />
      <concept id="1233749247888" name="jetbrains.mps.lang.textGen.structure.GenerateTextDeclaration" flags="in" index="11bSqf" />
      <concept id="1233920501193" name="jetbrains.mps.lang.textGen.structure.IndentBufferOperation" flags="nn" index="1bpajm" />
      <concept id="1236188139846" name="jetbrains.mps.lang.textGen.structure.WithIndentOperation" flags="nn" index="3izx1p">
        <child id="1236188238861" name="list" index="3izTki" />
      </concept>
    </language>
    <language id="7866978e-a0f0-4cc7-81bc-4d213d9375e1" name="jetbrains.mps.lang.smodel">
      <concept id="1177026924588" name="jetbrains.mps.lang.smodel.structure.RefConcept_Reference" flags="nn" index="chp4Y">
        <reference id="1177026940964" name="conceptDeclaration" index="cht4Q" />
      </concept>
      <concept id="1179409122411" name="jetbrains.mps.lang.smodel.structure.Node_ConceptMethodCall" flags="nn" index="2qgKlT" />
      <concept id="2396822768958367367" name="jetbrains.mps.lang.smodel.structure.AbstractTypeCastExpression" flags="nn" index="$5XWr">
        <reference id="6733348108486823428" name="concept" index="1m5ApE" />
        <child id="6733348108486823193" name="leftExpression" index="1m5AlR" />
      </concept>
      <concept id="1143511969223" name="jetbrains.mps.lang.smodel.structure.Node_GetPrevSiblingOperation" flags="nn" index="YBYNd" />
      <concept id="1143512015885" name="jetbrains.mps.lang.smodel.structure.Node_GetNextSiblingOperation" flags="nn" index="YCak7" />
      <concept id="1139621453865" name="jetbrains.mps.lang.smodel.structure.Node_IsInstanceOfOperation" flags="nn" index="1mIQ4w">
        <child id="1177027386292" name="conceptArgument" index="cj9EA" />
      </concept>
      <concept id="1172008320231" name="jetbrains.mps.lang.smodel.structure.Node_IsNotNullOperation" flags="nn" index="3x8VRR" />
      <concept id="1140137987495" name="jetbrains.mps.lang.smodel.structure.SNodeTypeCastExpression" flags="nn" index="1PxgMI" />
      <concept id="1138055754698" name="jetbrains.mps.lang.smodel.structure.SNodeType" flags="in" index="3Tqbb2" />
      <concept id="1138056022639" name="jetbrains.mps.lang.smodel.structure.SPropertyAccess" flags="nn" index="3TrcHB">
        <reference id="1138056395725" name="property" index="3TsBF5" />
      </concept>
      <concept id="1138056143562" name="jetbrains.mps.lang.smodel.structure.SLinkAccess" flags="nn" index="3TrEf2">
        <reference id="1138056516764" name="link" index="3Tt5mk" />
      </concept>
      <concept id="1138056282393" name="jetbrains.mps.lang.smodel.structure.SLinkListAccess" flags="nn" index="3Tsc0h">
        <reference id="1138056546658" name="link" index="3TtcxE" />
      </concept>
    </language>
    <language id="ceab5195-25ea-4f22-9b92-103b95ca8c0c" name="jetbrains.mps.lang.core">
      <concept id="1169194658468" name="jetbrains.mps.lang.core.structure.INamedConcept" flags="ng" index="TrEIO">
        <property id="1169194664001" name="name" index="TrG5h" />
      </concept>
    </language>
    <language id="83888646-71ce-4f1c-9c53-c54016f6ad4f" name="jetbrains.mps.baseLanguage.collections">
      <concept id="1165530316231" name="jetbrains.mps.baseLanguage.collections.structure.IsEmptyOperation" flags="nn" index="1v1jN8" />
      <concept id="1176501494711" name="jetbrains.mps.baseLanguage.collections.structure.IsNotEmptyOperation" flags="nn" index="3GX2aA" />
    </language>
  </registry>
  <node concept="WtQ9Q" id="2EZ251g0OqZ">
    <ref role="WuzLi" to="iuxj:5M4a$b5iSRN" resolve="XmlAttribute" />
    <node concept="11bSqf" id="2EZ251g0Or0" role="11c4hB">
      <node concept="3clFbS" id="2EZ251g0Or1" role="2VODD2">
        <node concept="3clFbJ" id="2EZ251g110T" role="3cqZAp">
          <node concept="3clFbS" id="2EZ251g110U" role="3clFbx">
            <node concept="lc7rE" id="2EZ251g1116" role="3cqZAp">
              <node concept="l8MVK" id="2EZ251g1118" role="lcghm" />
            </node>
            <node concept="1bpajm" id="2EZ251g111b" role="3cqZAp" />
            <node concept="lc7rE" id="2EZ251g111d" role="3cqZAp">
              <node concept="la8eA" id="2EZ251g111h" role="lcghm">
                <property role="lacIc" value="\t" />
              </node>
            </node>
          </node>
          <node concept="2OqwBi" id="2EZ251g1110" role="3clFbw">
            <node concept="117lpO" id="2EZ251g110X" role="2Oq$k0" />
            <node concept="2qgKlT" id="2EZ251g1115" role="2OqNvi">
              <ref role="37wK5l" to="t7at:2EZ251fZScc" resolve="isMultiline" />
            </node>
          </node>
        </node>
        <node concept="lc7rE" id="2EZ251g0R6W" role="3cqZAp">
          <node concept="l9hG8" id="2EZ251g0R6Y" role="lcghm">
            <node concept="2OqwBi" id="2EZ251g0R73" role="lb14g">
              <node concept="117lpO" id="2EZ251g0R70" role="2Oq$k0" />
              <node concept="3TrcHB" id="2EZ251g0R7_" role="2OqNvi">
                <ref role="3TsBF5" to="iuxj:5M4a$b5iSRQ" resolve="attrName" />
              </node>
            </node>
          </node>
          <node concept="la8eA" id="2EZ251g0R7c" role="lcghm">
            <property role="lacIc" value="=&quot;" />
          </node>
          <node concept="l9S2W" id="2EZ251g0R7m" role="lcghm">
            <node concept="2OqwBi" id="2EZ251g0R7r" role="lbANJ">
              <node concept="117lpO" id="2EZ251g0R7o" role="2Oq$k0" />
              <node concept="3Tsc0h" id="2EZ251g0R7x" role="2OqNvi">
                <ref role="3TtcxE" to="iuxj:5M4a$b5jfOu" />
              </node>
            </node>
          </node>
          <node concept="la8eA" id="2EZ251g0R7z" role="lcghm">
            <property role="lacIc" value="&quot;" />
          </node>
        </node>
      </node>
    </node>
  </node>
  <node concept="WtQ9Q" id="2EZ251g0PH1">
    <ref role="WuzLi" to="iuxj:5M4a$b5iL2M" resolve="XmlElement" />
    <node concept="11bSqf" id="2EZ251g0PH2" role="11c4hB">
      <node concept="3clFbS" id="2EZ251g0PH3" role="2VODD2">
        <node concept="3clFbJ" id="2EZ251g16zq" role="3cqZAp">
          <node concept="3clFbS" id="2EZ251g16zr" role="3clFbx">
            <node concept="lc7rE" id="2EZ251g16hJ" role="3cqZAp">
              <node concept="l8MVK" id="2EZ251g16hK" role="lcghm" />
            </node>
            <node concept="1bpajm" id="2EZ251g16hL" role="3cqZAp" />
          </node>
          <node concept="2OqwBi" id="2EZ251g16zF" role="3clFbw">
            <node concept="2OqwBi" id="2EZ251g16zx" role="2Oq$k0">
              <node concept="117lpO" id="2EZ251g16zu" role="2Oq$k0" />
              <node concept="YBYNd" id="2EZ251g16zB" role="2OqNvi" />
            </node>
            <node concept="3x8VRR" id="2EZ251g16zL" role="2OqNvi" />
          </node>
        </node>
        <node concept="lc7rE" id="i1nuIir" role="3cqZAp">
          <node concept="la8eA" id="i1nuIis" role="lcghm">
            <property role="lacIc" value="&lt;" />
          </node>
          <node concept="l9hG8" id="i1nuIit" role="lcghm">
            <node concept="2OqwBi" id="i1nuIiu" role="lb14g">
              <node concept="117lpO" id="i1nuIiv" role="2Oq$k0" />
              <node concept="3TrcHB" id="2EZ251g0QU$" role="2OqNvi">
                <ref role="3TsBF5" to="iuxj:5M4a$b5iL2Q" resolve="tagName" />
              </node>
            </node>
          </node>
        </node>
        <node concept="3clFbJ" id="i1nLxRN" role="3cqZAp">
          <node concept="3clFbS" id="i1nLxRO" role="3clFbx">
            <node concept="lc7rE" id="i1nLQLr" role="3cqZAp">
              <node concept="la8eA" id="i1nLRkF" role="lcghm">
                <property role="lacIc" value=" " />
              </node>
            </node>
          </node>
          <node concept="2OqwBi" id="i1nLOSy" role="3clFbw">
            <node concept="2OqwBi" id="i1nLywl" role="2Oq$k0">
              <node concept="117lpO" id="i1nLysY" role="2Oq$k0" />
              <node concept="3Tsc0h" id="2EZ251g0QUx" role="2OqNvi">
                <ref role="3TtcxE" to="iuxj:5M4a$b5iL2P" />
              </node>
            </node>
            <node concept="3GX2aA" id="i1nLQ74" role="2OqNvi" />
          </node>
        </node>
        <node concept="3izx1p" id="2EZ251g16zN" role="3cqZAp">
          <node concept="3clFbS" id="2EZ251g16zO" role="3izTki">
            <node concept="lc7rE" id="i1nLx6v" role="3cqZAp">
              <node concept="l9S2W" id="i1nLxjB" role="lcghm">
                <property role="XA4eZ" value="true" />
                <property role="lbP0B" value=" " />
                <node concept="2OqwBi" id="i1nLxjC" role="lbANJ">
                  <node concept="117lpO" id="i1nLxjD" role="2Oq$k0" />
                  <node concept="3Tsc0h" id="2EZ251g0QUA" role="2OqNvi">
                    <ref role="3TtcxE" to="iuxj:5M4a$b5iL2P" />
                  </node>
                </node>
              </node>
            </node>
          </node>
        </node>
        <node concept="3clFbJ" id="i1nuIiA" role="3cqZAp">
          <node concept="3clFbS" id="i1nuIiB" role="3clFbx">
            <node concept="lc7rE" id="i1nuIiC" role="3cqZAp">
              <node concept="la8eA" id="i1nuIiD" role="lcghm">
                <property role="lacIc" value=" /&gt;" />
              </node>
            </node>
            <node concept="3cpWs6" id="i1nuIiF" role="3cqZAp" />
          </node>
          <node concept="1Wc70l" id="2EZ251g0QV5" role="3clFbw">
            <node concept="2OqwBi" id="i1nuIiG" role="3uHU7B">
              <node concept="2OqwBi" id="i1nuIiH" role="2Oq$k0">
                <node concept="117lpO" id="i1nuIiI" role="2Oq$k0" />
                <node concept="3Tsc0h" id="2EZ251g0QUD" role="2OqNvi">
                  <ref role="3TtcxE" to="iuxj:1q3yNZeA$$y" />
                </node>
              </node>
              <node concept="1v1jN8" id="i1nuIiK" role="2OqNvi" />
            </node>
            <node concept="2OqwBi" id="64xzUTVornZ" role="3uHU7w">
              <node concept="117lpO" id="2EZ251g0QV9" role="2Oq$k0" />
              <node concept="3TrcHB" id="64xzUTVoro5" role="2OqNvi">
                <ref role="3TsBF5" to="iuxj:64xzUTVornl" resolve="shortEmptyNotation" />
              </node>
            </node>
          </node>
        </node>
        <node concept="lc7rE" id="i1nuIiL" role="3cqZAp">
          <node concept="la8eA" id="i1nuIiM" role="lcghm">
            <property role="lacIc" value="&gt;" />
          </node>
        </node>
        <node concept="3clFbJ" id="2EZ251g0QUK" role="3cqZAp">
          <node concept="3clFbS" id="2EZ251g0QUL" role="3clFbx">
            <node concept="lc7rE" id="2EZ251g0R4S" role="3cqZAp">
              <node concept="l8MVK" id="2EZ251g0R4U" role="lcghm" />
            </node>
            <node concept="3izx1p" id="i1nHRwk" role="3cqZAp">
              <node concept="3clFbS" id="i1nHRwl" role="3izTki">
                <node concept="1bpajm" id="2EZ251g16hO" role="3cqZAp" />
                <node concept="lc7rE" id="i1nHSuQ" role="3cqZAp">
                  <node concept="l9S2W" id="i1nHSuR" role="lcghm">
                    <node concept="2OqwBi" id="i1nHSuS" role="lbANJ">
                      <node concept="117lpO" id="i1nHSuT" role="2Oq$k0" />
                      <node concept="3Tsc0h" id="2EZ251g0QVb" role="2OqNvi">
                        <ref role="3TtcxE" to="iuxj:1q3yNZeA$$y" />
                      </node>
                    </node>
                  </node>
                </node>
              </node>
            </node>
            <node concept="lc7rE" id="2EZ251g0R51" role="3cqZAp">
              <node concept="l8MVK" id="2EZ251g0R53" role="lcghm" />
            </node>
            <node concept="1bpajm" id="2EZ251g0R55" role="3cqZAp" />
          </node>
          <node concept="2OqwBi" id="2EZ251g0QUR" role="3clFbw">
            <node concept="117lpO" id="2EZ251g0QUO" role="2Oq$k0" />
            <node concept="2qgKlT" id="2EZ251g0QUX" role="2OqNvi">
              <ref role="37wK5l" to="t7at:7HilnpQ3Ckr" resolve="isMultiline" />
            </node>
          </node>
          <node concept="9aQIb" id="2EZ251g0QUY" role="9aQIa">
            <node concept="3clFbS" id="2EZ251g0QUZ" role="9aQI4">
              <node concept="3izx1p" id="2EZ251g0R56" role="3cqZAp">
                <node concept="3clFbS" id="2EZ251g0R57" role="3izTki">
                  <node concept="3izx1p" id="2EZ251g0R5e" role="3cqZAp">
                    <node concept="3clFbS" id="2EZ251g0R5f" role="3izTki">
                      <node concept="lc7rE" id="2EZ251g0R58" role="3cqZAp">
                        <node concept="l9S2W" id="2EZ251g0R59" role="lcghm">
                          <node concept="2OqwBi" id="2EZ251g0R5a" role="lbANJ">
                            <node concept="117lpO" id="2EZ251g0R5b" role="2Oq$k0" />
                            <node concept="3Tsc0h" id="2EZ251g0R5c" role="2OqNvi">
                              <ref role="3TtcxE" to="iuxj:1q3yNZeA$$y" />
                            </node>
                          </node>
                        </node>
                      </node>
                    </node>
                  </node>
                </node>
              </node>
            </node>
          </node>
        </node>
        <node concept="lc7rE" id="i1nuIiT" role="3cqZAp">
          <node concept="la8eA" id="i1nuIiV" role="lcghm">
            <property role="lacIc" value="&lt;/" />
          </node>
          <node concept="l9hG8" id="i1nuIiW" role="lcghm">
            <node concept="2OqwBi" id="i1nuIiX" role="lb14g">
              <node concept="117lpO" id="i1nuIiY" role="2Oq$k0" />
              <node concept="3TrcHB" id="2EZ251g0QUH" role="2OqNvi">
                <ref role="3TsBF5" to="iuxj:5M4a$b5iL2Q" resolve="tagName" />
              </node>
            </node>
          </node>
          <node concept="la8eA" id="i1nuIj0" role="lcghm">
            <property role="lacIc" value="&gt;" />
          </node>
        </node>
      </node>
    </node>
  </node>
  <node concept="WtQ9Q" id="2EZ251g0R5g">
    <ref role="WuzLi" to="iuxj:5M4a$b5jfOv" resolve="XmlTextValue" />
    <node concept="11bSqf" id="2EZ251g0R5h" role="11c4hB">
      <node concept="3clFbS" id="2EZ251g0R5i" role="2VODD2">
        <node concept="3clFbJ" id="2EZ251g0R5y" role="3cqZAp">
          <node concept="3clFbS" id="2EZ251g0R5z" role="3clFbx">
            <node concept="lc7rE" id="2EZ251g0R5X" role="3cqZAp">
              <node concept="l8MVK" id="2EZ251g0R5Z" role="lcghm" />
            </node>
            <node concept="1bpajm" id="2EZ251g0R61" role="3cqZAp" />
            <node concept="lc7rE" id="2EZ251g15Wh" role="3cqZAp">
              <node concept="la8eA" id="2EZ251g15Wj" role="lcghm">
                <property role="lacIc" value="\t\t" />
              </node>
            </node>
          </node>
          <node concept="2OqwBi" id="2EZ251g0R5D" role="3clFbw">
            <node concept="117lpO" id="2EZ251g0R5A" role="2Oq$k0" />
            <node concept="2qgKlT" id="2EZ251g0R5I" role="2OqNvi">
              <ref role="37wK5l" to="t7at:2EZ251g0bS6" resolve="onNewLine" />
            </node>
          </node>
        </node>
        <node concept="lc7rE" id="2EZ251g0R5j" role="3cqZAp">
          <node concept="l9hG8" id="2EZ251g0R5l" role="lcghm">
            <node concept="2OqwBi" id="2EZ251g0R5q" role="lb14g">
              <node concept="117lpO" id="2EZ251g0R5n" role="2Oq$k0" />
              <node concept="3TrcHB" id="2EZ251g0R5w" role="2OqNvi">
                <ref role="3TsBF5" to="iuxj:5M4a$b5jfOw" resolve="text" />
              </node>
            </node>
          </node>
        </node>
        <node concept="3clFbJ" id="2EZ251g0R63" role="3cqZAp">
          <node concept="3clFbS" id="2EZ251g0R64" role="3clFbx">
            <node concept="3clFbJ" id="2EZ251g112z" role="3cqZAp">
              <node concept="3clFbS" id="2EZ251g112$" role="3clFbx">
                <node concept="3cpWs6" id="2EZ251g113r" role="3cqZAp" />
              </node>
              <node concept="1Wc70l" id="2EZ251g112Z" role="3clFbw">
                <node concept="2OqwBi" id="2EZ251g112O" role="3uHU7B">
                  <node concept="2OqwBi" id="2EZ251g112E" role="2Oq$k0">
                    <node concept="117lpO" id="2EZ251g112B" role="2Oq$k0" />
                    <node concept="YCak7" id="2EZ251g112K" role="2OqNvi" />
                  </node>
                  <node concept="1mIQ4w" id="2EZ251g112U" role="2OqNvi">
                    <node concept="chp4Y" id="2EZ251g112W" role="cj9EA">
                      <ref role="cht4Q" to="iuxj:5M4a$b5jfOs" resolve="XmlValuePart" />
                    </node>
                  </node>
                </node>
                <node concept="2OqwBi" id="2EZ251g113k" role="3uHU7w">
                  <node concept="1PxgMI" id="2EZ251g113g" role="2Oq$k0">
                    <ref role="1m5ApE" to="iuxj:5M4a$b5jfOs" resolve="XmlValuePart" />
                    <node concept="2OqwBi" id="2EZ251g1132" role="1m5AlR">
                      <node concept="117lpO" id="2EZ251g1133" role="2Oq$k0" />
                      <node concept="YCak7" id="2EZ251g1134" role="2OqNvi" />
                    </node>
                  </node>
                  <node concept="2qgKlT" id="2EZ251g113q" role="2OqNvi">
                    <ref role="37wK5l" to="t7at:2EZ251g0bS6" resolve="onNewLine" />
                  </node>
                </node>
              </node>
            </node>
            <node concept="lc7rE" id="2EZ251g0R6h" role="3cqZAp">
              <node concept="l8MVK" id="2EZ251g0R6j" role="lcghm" />
            </node>
            <node concept="1bpajm" id="2EZ251g0R6l" role="3cqZAp" />
            <node concept="lc7rE" id="2EZ251g15Wl" role="3cqZAp">
              <node concept="la8eA" id="2EZ251g15Wm" role="lcghm">
                <property role="lacIc" value="\t\t" />
              </node>
            </node>
          </node>
          <node concept="2OqwBi" id="2EZ251g0R6a" role="3clFbw">
            <node concept="117lpO" id="2EZ251g0R67" role="2Oq$k0" />
            <node concept="2qgKlT" id="2EZ251g0R6g" role="2OqNvi">
              <ref role="37wK5l" to="t7at:2EZ251g0bSd" resolve="hasNewLineAfter" />
            </node>
          </node>
        </node>
      </node>
    </node>
  </node>
  <node concept="WtQ9Q" id="2EZ251g0R6m">
    <ref role="WuzLi" to="iuxj:5M4a$b5jfOx" resolve="XmlEntityRefValue" />
    <node concept="11bSqf" id="2EZ251g0R6n" role="11c4hB">
      <node concept="3clFbS" id="2EZ251g0R6o" role="2VODD2">
        <node concept="lc7rE" id="2EZ251g0R6p" role="3cqZAp">
          <node concept="la8eA" id="2EZ251g0R6B" role="lcghm">
            <property role="lacIc" value="&amp;" />
          </node>
          <node concept="l9hG8" id="2EZ251g0R6s" role="lcghm">
            <node concept="2OqwBi" id="2EZ251g0R6x" role="lb14g">
              <node concept="117lpO" id="2EZ251g0R6u" role="2Oq$k0" />
              <node concept="3TrcHB" id="2EZ251g0R6I" role="2OqNvi">
                <ref role="3TsBF5" to="iuxj:5M4a$b5jg9o" resolve="entityName" />
              </node>
            </node>
          </node>
          <node concept="la8eA" id="2EZ251g0R6F" role="lcghm">
            <property role="lacIc" value=";" />
          </node>
        </node>
      </node>
    </node>
  </node>
  <node concept="WtQ9Q" id="2EZ251g0R6J">
    <ref role="WuzLi" to="iuxj:2EZ251fZHvY" resolve="XmlCharRefValue" />
    <node concept="11bSqf" id="2EZ251g0R6K" role="11c4hB">
      <node concept="3clFbS" id="2EZ251g0R6L" role="2VODD2">
        <node concept="lc7rE" id="2EZ251g0R6M" role="3cqZAp">
          <node concept="la8eA" id="2EZ251g0R6N" role="lcghm">
            <property role="lacIc" value="&amp;#" />
          </node>
          <node concept="l9hG8" id="2EZ251g0R6O" role="lcghm">
            <node concept="2OqwBi" id="2EZ251g0R6P" role="lb14g">
              <node concept="117lpO" id="2EZ251g0R6Q" role="2Oq$k0" />
              <node concept="3TrcHB" id="2EZ251g0R6V" role="2OqNvi">
                <ref role="3TsBF5" to="iuxj:2EZ251fZHw6" resolve="charCode" />
              </node>
            </node>
          </node>
          <node concept="la8eA" id="2EZ251g0R6S" role="lcghm">
            <property role="lacIc" value=";" />
          </node>
        </node>
      </node>
    </node>
  </node>
  <node concept="WtQ9Q" id="2EZ251g0R7A">
    <ref role="WuzLi" to="iuxj:5M4a$b5ikxU" resolve="XmlCDATA" />
    <node concept="11bSqf" id="2EZ251g0R7B" role="11c4hB">
      <node concept="3clFbS" id="2EZ251g0R7C" role="2VODD2">
        <node concept="3cpWs8" id="2EZ251g16gV" role="3cqZAp">
          <node concept="3cpWsn" id="2EZ251g16gW" role="3cpWs9">
            <property role="TrG5h" value="left" />
            <node concept="3Tqbb2" id="2EZ251g16gX" role="1tU5fm" />
            <node concept="2OqwBi" id="2EZ251g16gY" role="33vP2m">
              <node concept="117lpO" id="2EZ251g16gZ" role="2Oq$k0" />
              <node concept="YBYNd" id="2EZ251g16h0" role="2OqNvi" />
            </node>
          </node>
        </node>
        <node concept="3clFbJ" id="2EZ251g16h1" role="3cqZAp">
          <node concept="3clFbS" id="2EZ251g16h2" role="3clFbx">
            <node concept="lc7rE" id="2EZ251g16h3" role="3cqZAp">
              <node concept="l8MVK" id="2EZ251g16h4" role="lcghm" />
            </node>
            <node concept="1bpajm" id="2EZ251g16h5" role="3cqZAp" />
          </node>
          <node concept="1Wc70l" id="2EZ251g16h6" role="3clFbw">
            <node concept="2OqwBi" id="2EZ251g16h7" role="3uHU7B">
              <node concept="37vLTw" id="3GM_nagTuZZ" role="2Oq$k0">
                <ref role="3cqZAo" node="2EZ251g16gW" resolve="left" />
              </node>
              <node concept="1mIQ4w" id="2EZ251g16h9" role="2OqNvi">
                <node concept="chp4Y" id="2EZ251g16ha" role="cj9EA">
                  <ref role="cht4Q" to="iuxj:5M4a$b5ikxF" resolve="XmlContent" />
                </node>
              </node>
            </node>
            <node concept="2OqwBi" id="2EZ251g16hb" role="3uHU7w">
              <node concept="1PxgMI" id="2EZ251g16hc" role="2Oq$k0">
                <ref role="1m5ApE" to="iuxj:5M4a$b5ikxF" resolve="XmlContent" />
                <node concept="37vLTw" id="3GM_nagTxFh" role="1m5AlR">
                  <ref role="3cqZAo" node="2EZ251g16gW" resolve="left" />
                </node>
              </node>
              <node concept="2qgKlT" id="1Qs9WekW9I5" role="2OqNvi">
                <ref role="37wK5l" to="t7at:1Qs9WekVZ9E" resolve="hasNewLineAfter" />
              </node>
            </node>
          </node>
        </node>
        <node concept="lc7rE" id="2EZ251g0R7D" role="3cqZAp">
          <node concept="la8eA" id="2EZ251g0R7E" role="lcghm">
            <property role="lacIc" value="&lt;![CDATA[" />
          </node>
          <node concept="l9hG8" id="2EZ251g0R7F" role="lcghm">
            <node concept="2OqwBi" id="2EZ251g0R7G" role="lb14g">
              <node concept="117lpO" id="2EZ251g0R7H" role="2Oq$k0" />
              <node concept="3TrcHB" id="2EZ251g0R7N" role="2OqNvi">
                <ref role="3TsBF5" to="iuxj:1q3yNZeAMoN" resolve="content" />
              </node>
            </node>
          </node>
          <node concept="la8eA" id="2EZ251g0R7J" role="lcghm">
            <property role="lacIc" value="]]&gt;" />
          </node>
        </node>
      </node>
    </node>
  </node>
  <node concept="WtQ9Q" id="2EZ251g0R7O">
    <ref role="WuzLi" to="iuxj:1q3yNZeB6Xd" resolve="XmlEntityRef" />
    <node concept="11bSqf" id="2EZ251g0R7P" role="11c4hB">
      <node concept="3clFbS" id="2EZ251g0R7Q" role="2VODD2">
        <node concept="3cpWs8" id="2EZ251g16fW" role="3cqZAp">
          <node concept="3cpWsn" id="2EZ251g16fX" role="3cpWs9">
            <property role="TrG5h" value="left" />
            <node concept="3Tqbb2" id="2EZ251g16fY" role="1tU5fm" />
            <node concept="2OqwBi" id="2EZ251g16fZ" role="33vP2m">
              <node concept="117lpO" id="2EZ251g16g0" role="2Oq$k0" />
              <node concept="YBYNd" id="2EZ251g16g1" role="2OqNvi" />
            </node>
          </node>
        </node>
        <node concept="3clFbJ" id="2EZ251g16g2" role="3cqZAp">
          <node concept="3clFbS" id="2EZ251g16g3" role="3clFbx">
            <node concept="lc7rE" id="2EZ251g16g4" role="3cqZAp">
              <node concept="l8MVK" id="2EZ251g16g5" role="lcghm" />
            </node>
            <node concept="1bpajm" id="2EZ251g16g6" role="3cqZAp" />
          </node>
          <node concept="1Wc70l" id="2EZ251g16g7" role="3clFbw">
            <node concept="2OqwBi" id="2EZ251g16g8" role="3uHU7B">
              <node concept="37vLTw" id="3GM_nagTr6q" role="2Oq$k0">
                <ref role="3cqZAo" node="2EZ251g16fX" resolve="left" />
              </node>
              <node concept="1mIQ4w" id="2EZ251g16ga" role="2OqNvi">
                <node concept="chp4Y" id="2EZ251g16gb" role="cj9EA">
                  <ref role="cht4Q" to="iuxj:5M4a$b5ikxF" resolve="XmlContent" />
                </node>
              </node>
            </node>
            <node concept="2OqwBi" id="2EZ251g16gc" role="3uHU7w">
              <node concept="1PxgMI" id="2EZ251g16gd" role="2Oq$k0">
                <ref role="1m5ApE" to="iuxj:5M4a$b5ikxF" resolve="XmlContent" />
                <node concept="37vLTw" id="3GM_nagTvim" role="1m5AlR">
                  <ref role="3cqZAo" node="2EZ251g16fX" resolve="left" />
                </node>
              </node>
              <node concept="2qgKlT" id="1Qs9WekW9Ib" role="2OqNvi">
                <ref role="37wK5l" to="t7at:1Qs9WekVZ9E" resolve="hasNewLineAfter" />
              </node>
            </node>
          </node>
        </node>
        <node concept="lc7rE" id="2EZ251g0R7R" role="3cqZAp">
          <node concept="la8eA" id="2EZ251g0R7S" role="lcghm">
            <property role="lacIc" value="&amp;" />
          </node>
          <node concept="l9hG8" id="2EZ251g0R7T" role="lcghm">
            <node concept="2OqwBi" id="2EZ251g0R7U" role="lb14g">
              <node concept="117lpO" id="2EZ251g0R7V" role="2Oq$k0" />
              <node concept="3TrcHB" id="2EZ251g0R80" role="2OqNvi">
                <ref role="3TsBF5" to="iuxj:1q3yNZeB6Yf" resolve="entityName" />
              </node>
            </node>
          </node>
          <node concept="la8eA" id="2EZ251g0R7X" role="lcghm">
            <property role="lacIc" value=";" />
          </node>
        </node>
      </node>
    </node>
  </node>
  <node concept="WtQ9Q" id="2EZ251g0R81">
    <ref role="WuzLi" to="iuxj:2EZ251fZDy6" resolve="XmlCharRef" />
    <node concept="11bSqf" id="2EZ251g0R82" role="11c4hB">
      <node concept="3clFbS" id="2EZ251g0R83" role="2VODD2">
        <node concept="3cpWs8" id="2EZ251g16gA" role="3cqZAp">
          <node concept="3cpWsn" id="2EZ251g16gB" role="3cpWs9">
            <property role="TrG5h" value="left" />
            <node concept="3Tqbb2" id="2EZ251g16gC" role="1tU5fm" />
            <node concept="2OqwBi" id="2EZ251g16gD" role="33vP2m">
              <node concept="117lpO" id="2EZ251g16gE" role="2Oq$k0" />
              <node concept="YBYNd" id="2EZ251g16gF" role="2OqNvi" />
            </node>
          </node>
        </node>
        <node concept="3clFbJ" id="2EZ251g16gG" role="3cqZAp">
          <node concept="3clFbS" id="2EZ251g16gH" role="3clFbx">
            <node concept="lc7rE" id="2EZ251g16gI" role="3cqZAp">
              <node concept="l8MVK" id="2EZ251g16gJ" role="lcghm" />
            </node>
            <node concept="1bpajm" id="2EZ251g16gK" role="3cqZAp" />
          </node>
          <node concept="1Wc70l" id="2EZ251g16gL" role="3clFbw">
            <node concept="2OqwBi" id="2EZ251g16gM" role="3uHU7B">
              <node concept="37vLTw" id="3GM_nagTwh3" role="2Oq$k0">
                <ref role="3cqZAo" node="2EZ251g16gB" resolve="left" />
              </node>
              <node concept="1mIQ4w" id="2EZ251g16gO" role="2OqNvi">
                <node concept="chp4Y" id="2EZ251g16gP" role="cj9EA">
                  <ref role="cht4Q" to="iuxj:5M4a$b5ikxF" resolve="XmlContent" />
                </node>
              </node>
            </node>
            <node concept="2OqwBi" id="2EZ251g16gQ" role="3uHU7w">
              <node concept="1PxgMI" id="2EZ251g16gR" role="2Oq$k0">
                <ref role="1m5ApE" to="iuxj:5M4a$b5ikxF" resolve="XmlContent" />
                <node concept="37vLTw" id="3GM_nagTAg7" role="1m5AlR">
                  <ref role="3cqZAo" node="2EZ251g16gB" resolve="left" />
                </node>
              </node>
              <node concept="2qgKlT" id="1Qs9WekW9I7" role="2OqNvi">
                <ref role="37wK5l" to="t7at:1Qs9WekVZ9E" resolve="hasNewLineAfter" />
              </node>
            </node>
          </node>
        </node>
        <node concept="lc7rE" id="2EZ251g0R84" role="3cqZAp">
          <node concept="la8eA" id="2EZ251g0R85" role="lcghm">
            <property role="lacIc" value="&amp;#" />
          </node>
          <node concept="l9hG8" id="2EZ251g0R86" role="lcghm">
            <node concept="2OqwBi" id="2EZ251g0R87" role="lb14g">
              <node concept="117lpO" id="2EZ251g0R88" role="2Oq$k0" />
              <node concept="3TrcHB" id="2EZ251g0R8d" role="2OqNvi">
                <ref role="3TsBF5" to="iuxj:2EZ251fZDy7" resolve="charCode" />
              </node>
            </node>
          </node>
          <node concept="la8eA" id="2EZ251g0R8a" role="lcghm">
            <property role="lacIc" value=";" />
          </node>
        </node>
      </node>
    </node>
  </node>
  <node concept="WtQ9Q" id="2EZ251g0R8e">
    <ref role="WuzLi" to="iuxj:5M4a$b5ikxS" resolve="XmlComment" />
    <node concept="11bSqf" id="2EZ251g0R8f" role="11c4hB">
      <node concept="3clFbS" id="2EZ251g0R8g" role="2VODD2">
        <node concept="3cpWs8" id="2EZ251g16gh" role="3cqZAp">
          <node concept="3cpWsn" id="2EZ251g16gi" role="3cpWs9">
            <property role="TrG5h" value="left" />
            <node concept="3Tqbb2" id="2EZ251g16gj" role="1tU5fm" />
            <node concept="2OqwBi" id="2EZ251g16gk" role="33vP2m">
              <node concept="117lpO" id="2EZ251g16gl" role="2Oq$k0" />
              <node concept="YBYNd" id="2EZ251g16gm" role="2OqNvi" />
            </node>
          </node>
        </node>
        <node concept="3clFbJ" id="2EZ251g16gn" role="3cqZAp">
          <node concept="3clFbS" id="2EZ251g16go" role="3clFbx">
            <node concept="lc7rE" id="2EZ251g16gp" role="3cqZAp">
              <node concept="l8MVK" id="2EZ251g16gq" role="lcghm" />
            </node>
            <node concept="1bpajm" id="2EZ251g16gr" role="3cqZAp" />
          </node>
          <node concept="1Wc70l" id="2EZ251g16gs" role="3clFbw">
            <node concept="2OqwBi" id="2EZ251g16gt" role="3uHU7B">
              <node concept="37vLTw" id="3GM_nagTy0K" role="2Oq$k0">
                <ref role="3cqZAo" node="2EZ251g16gi" resolve="left" />
              </node>
              <node concept="1mIQ4w" id="2EZ251g16gv" role="2OqNvi">
                <node concept="chp4Y" id="1Qs9WekWVVZ" role="cj9EA">
                  <ref role="cht4Q" to="iuxj:1Qs9WekVZ4Y" resolve="XmlPart" />
                </node>
              </node>
            </node>
            <node concept="2OqwBi" id="2EZ251g16gx" role="3uHU7w">
              <node concept="1PxgMI" id="2EZ251g16gy" role="2Oq$k0">
                <ref role="1m5ApE" to="iuxj:1Qs9WekVZ4Y" resolve="XmlPart" />
                <node concept="37vLTw" id="3GM_nagTwfH" role="1m5AlR">
                  <ref role="3cqZAo" node="2EZ251g16gi" resolve="left" />
                </node>
              </node>
              <node concept="2qgKlT" id="1Qs9WekW9I9" role="2OqNvi">
                <ref role="37wK5l" to="t7at:1Qs9WekVZ9E" resolve="hasNewLineAfter" />
              </node>
            </node>
          </node>
        </node>
        <node concept="lc7rE" id="2EZ251g0R8h" role="3cqZAp">
          <node concept="la8eA" id="2EZ251g0R8i" role="lcghm">
            <property role="lacIc" value="&lt;!--" />
          </node>
          <node concept="l9S2W" id="2EZ251g0R8r" role="lcghm">
            <node concept="2OqwBi" id="2EZ251g0R8w" role="lbANJ">
              <node concept="117lpO" id="2EZ251g0R8t" role="2Oq$k0" />
              <node concept="3Tsc0h" id="2EZ251g0R8A" role="2OqNvi">
                <ref role="3TtcxE" to="iuxj:1q3yNZeAYLR" />
              </node>
            </node>
          </node>
          <node concept="la8eA" id="2EZ251g0R8n" role="lcghm">
            <property role="lacIc" value="--&gt;" />
          </node>
        </node>
      </node>
    </node>
  </node>
  <node concept="WtQ9Q" id="2EZ251g0R8B">
    <ref role="WuzLi" to="iuxj:1q3yNZeAYLu" resolve="XmlCommentLine" />
    <node concept="11bSqf" id="2EZ251g0R8C" role="11c4hB">
      <node concept="3clFbS" id="2EZ251g0R8D" role="2VODD2">
        <node concept="lc7rE" id="2EZ251g0R8P" role="3cqZAp">
          <node concept="l9hG8" id="2EZ251g0R8R" role="lcghm">
            <node concept="2OqwBi" id="2EZ251g0R8W" role="lb14g">
              <node concept="117lpO" id="2EZ251g0R8T" role="2Oq$k0" />
              <node concept="3TrcHB" id="2EZ251g0R92" role="2OqNvi">
                <ref role="3TsBF5" to="iuxj:1q3yNZeAYLv" resolve="text" />
              </node>
            </node>
          </node>
        </node>
      </node>
    </node>
  </node>
  <node concept="WtQ9Q" id="2EZ251g0R9c">
    <ref role="WuzLi" to="iuxj:5SJpJa5_6F9" resolve="XmlDocument" />
    <node concept="11bSqf" id="2EZ251g0R9d" role="11c4hB">
      <node concept="3clFbS" id="2EZ251g0R9e" role="2VODD2">
        <node concept="3clFbJ" id="1Qs9WekWoUZ" role="3cqZAp">
          <node concept="3clFbS" id="1Qs9WekWoV0" role="3clFbx">
            <node concept="lc7rE" id="1Qs9WekWoVU" role="3cqZAp">
              <node concept="l9hG8" id="1Qs9WekWoVW" role="lcghm">
                <node concept="2OqwBi" id="1Qs9WekWoWj" role="lb14g">
                  <node concept="117lpO" id="1Qs9WekWoVY" role="2Oq$k0" />
                  <node concept="3TrEf2" id="1Qs9WekWoWp" role="2OqNvi">
                    <ref role="3Tt5mk" to="iuxj:5M4a$b5ikxO" />
                  </node>
                </node>
              </node>
            </node>
          </node>
          <node concept="2OqwBi" id="1Qs9WekWoVO" role="3clFbw">
            <node concept="2OqwBi" id="1Qs9WekWoVo" role="2Oq$k0">
              <node concept="117lpO" id="1Qs9WekWoV3" role="2Oq$k0" />
              <node concept="3TrEf2" id="1Qs9WekWoVu" role="2OqNvi">
                <ref role="3Tt5mk" to="iuxj:5M4a$b5ikxO" />
              </node>
            </node>
            <node concept="3x8VRR" id="1Qs9WekWoVT" role="2OqNvi" />
          </node>
        </node>
        <node concept="lc7rE" id="2EZ251g0R9f" role="3cqZAp">
          <node concept="l9hG8" id="2EZ251g0R9h" role="lcghm">
            <node concept="2OqwBi" id="2EZ251g0R9m" role="lb14g">
              <node concept="117lpO" id="2EZ251g0R9j" role="2Oq$k0" />
              <node concept="3TrEf2" id="2EZ251g0R9s" role="2OqNvi">
                <ref role="3Tt5mk" to="iuxj:5M4a$b5ikxJ" />
              </node>
            </node>
          </node>
        </node>
      </node>
    </node>
  </node>
  <node concept="WtQ9Q" id="2EZ251g0R9t">
    <ref role="WuzLi" to="iuxj:5M4a$b5j9j0" resolve="XmlFile" />
    <node concept="11bSqf" id="2EZ251g0R9u" role="11c4hB">
      <node concept="3clFbS" id="2EZ251g0R9v" role="2VODD2">
        <node concept="lc7rE" id="2EZ251g0R9L" role="3cqZAp">
          <node concept="l9hG8" id="2EZ251g0R9N" role="lcghm">
            <node concept="2OqwBi" id="2EZ251g0R9S" role="lb14g">
              <node concept="117lpO" id="2EZ251g0R9P" role="2Oq$k0" />
              <node concept="3TrEf2" id="2EZ251g0R9Y" role="2OqNvi">
                <ref role="3Tt5mk" to="iuxj:5M4a$b5j9j1" />
              </node>
            </node>
          </node>
        </node>
      </node>
    </node>
    <node concept="9MYSb" id="2EZ251g0R9y" role="33IsuW">
      <node concept="3clFbS" id="2EZ251g0R9z" role="2VODD2">
        <node concept="3clFbF" id="2EZ251g0R9$" role="3cqZAp">
          <node concept="Xl_RD" id="2EZ251g0R9_" role="3clFbG">
            <property role="Xl_RC" value="xml" />
          </node>
        </node>
      </node>
    </node>
  </node>
  <node concept="WtQ9Q" id="2EZ251g0R9Z">
    <ref role="WuzLi" to="iuxj:1q3yNZeAEkj" resolve="XmlText" />
    <node concept="11bSqf" id="2EZ251g0Ra0" role="11c4hB">
      <node concept="3clFbS" id="2EZ251g0Ra1" role="2VODD2">
        <node concept="3cpWs8" id="2EZ251g16cK" role="3cqZAp">
          <node concept="3cpWsn" id="2EZ251g16cL" role="3cpWs9">
            <property role="TrG5h" value="needNewLine" />
            <node concept="10P_77" id="2EZ251g16cM" role="1tU5fm" />
            <node concept="2OqwBi" id="2EZ251g0Rah" role="33vP2m">
              <node concept="117lpO" id="2EZ251g0Rai" role="2Oq$k0" />
              <node concept="2qgKlT" id="1Qs9WekW9If" role="2OqNvi">
                <ref role="37wK5l" to="t7at:1Qs9WekVZ9$" resolve="onNewLine" />
              </node>
            </node>
          </node>
        </node>
        <node concept="3clFbJ" id="2EZ251g16d4" role="3cqZAp">
          <node concept="3clFbS" id="2EZ251g16d5" role="3clFbx">
            <node concept="3cpWs8" id="2EZ251g16db" role="3cqZAp">
              <node concept="3cpWsn" id="2EZ251g16dc" role="3cpWs9">
                <property role="TrG5h" value="left" />
                <node concept="3Tqbb2" id="2EZ251g16dd" role="1tU5fm" />
                <node concept="2OqwBi" id="2EZ251g16di" role="33vP2m">
                  <node concept="117lpO" id="2EZ251g16df" role="2Oq$k0" />
                  <node concept="YBYNd" id="2EZ251g16do" role="2OqNvi" />
                </node>
              </node>
            </node>
            <node concept="3clFbJ" id="2EZ251g16dq" role="3cqZAp">
              <node concept="3clFbS" id="2EZ251g16dr" role="3clFbx">
                <node concept="3clFbF" id="2EZ251g16dD" role="3cqZAp">
                  <node concept="37vLTI" id="2EZ251g16dH" role="3clFbG">
                    <node concept="37vLTw" id="3GM_nagTsw3" role="37vLTJ">
                      <ref role="3cqZAo" node="2EZ251g16cL" resolve="needNewLine" />
                    </node>
                    <node concept="2OqwBi" id="2EZ251g16dR" role="37vLTx">
                      <node concept="1PxgMI" id="2EZ251g16dN" role="2Oq$k0">
                        <ref role="1m5ApE" to="iuxj:5M4a$b5ikxF" resolve="XmlContent" />
                        <node concept="37vLTw" id="3GM_nagTxjM" role="1m5AlR">
                          <ref role="3cqZAo" node="2EZ251g16dc" resolve="left" />
                        </node>
                      </node>
                      <node concept="2qgKlT" id="1Qs9WekW9Ih" role="2OqNvi">
                        <ref role="37wK5l" to="t7at:1Qs9WekVZ9E" resolve="hasNewLineAfter" />
                      </node>
                    </node>
                  </node>
                </node>
              </node>
              <node concept="2OqwBi" id="2EZ251g16dx" role="3clFbw">
                <node concept="37vLTw" id="3GM_nagT_KU" role="2Oq$k0">
                  <ref role="3cqZAo" node="2EZ251g16dc" resolve="left" />
                </node>
                <node concept="1mIQ4w" id="2EZ251g16dA" role="2OqNvi">
                  <node concept="chp4Y" id="2EZ251g16dC" role="cj9EA">
                    <ref role="cht4Q" to="iuxj:5M4a$b5ikxF" resolve="XmlContent" />
                  </node>
                </node>
              </node>
            </node>
          </node>
          <node concept="3fqX7Q" id="2EZ251g16d8" role="3clFbw">
            <node concept="37vLTw" id="3GM_nagTzLJ" role="3fr31v">
              <ref role="3cqZAo" node="2EZ251g16cL" resolve="needNewLine" />
            </node>
          </node>
        </node>
        <node concept="3clFbJ" id="2EZ251g0Rac" role="3cqZAp">
          <node concept="3clFbS" id="2EZ251g0Rad" role="3clFbx">
            <node concept="lc7rE" id="2EZ251g0Rae" role="3cqZAp">
              <node concept="l8MVK" id="2EZ251g0Raf" role="lcghm" />
            </node>
            <node concept="1bpajm" id="2EZ251g0Rag" role="3cqZAp" />
          </node>
          <node concept="37vLTw" id="3GM_nagTril" role="3clFbw">
            <ref role="3cqZAo" node="2EZ251g16cL" resolve="needNewLine" />
          </node>
        </node>
        <node concept="lc7rE" id="2EZ251g0Rak" role="3cqZAp">
          <node concept="l9hG8" id="2EZ251g0Ral" role="lcghm">
            <node concept="2OqwBi" id="2EZ251g0Ram" role="lb14g">
              <node concept="117lpO" id="2EZ251g0Ran" role="2Oq$k0" />
              <node concept="3TrcHB" id="2EZ251g0RaC" role="2OqNvi">
                <ref role="3TsBF5" to="iuxj:1q3yNZeAEDC" resolve="value" />
              </node>
            </node>
          </node>
        </node>
      </node>
    </node>
  </node>
  <node concept="WtQ9Q" id="2EZ251g0RaD">
    <ref role="WuzLi" to="iuxj:5M4a$b5ikxP" resolve="XmlProcessingInstruction" />
    <node concept="11bSqf" id="2EZ251g0RaE" role="11c4hB">
      <node concept="3clFbS" id="2EZ251g0RaF" role="2VODD2">
        <node concept="3cpWs8" id="2EZ251g16fk" role="3cqZAp">
          <node concept="3cpWsn" id="2EZ251g16fl" role="3cpWs9">
            <property role="TrG5h" value="left" />
            <node concept="3Tqbb2" id="2EZ251g16fm" role="1tU5fm" />
            <node concept="2OqwBi" id="2EZ251g16fn" role="33vP2m">
              <node concept="117lpO" id="2EZ251g16fo" role="2Oq$k0" />
              <node concept="YBYNd" id="2EZ251g16fp" role="2OqNvi" />
            </node>
          </node>
        </node>
        <node concept="3clFbJ" id="2EZ251g16fq" role="3cqZAp">
          <node concept="3clFbS" id="2EZ251g16fr" role="3clFbx">
            <node concept="lc7rE" id="2EZ251g16fF" role="3cqZAp">
              <node concept="l8MVK" id="2EZ251g16fG" role="lcghm" />
            </node>
            <node concept="1bpajm" id="2EZ251g16fH" role="3cqZAp" />
          </node>
          <node concept="1Wc70l" id="2EZ251g16fN" role="3clFbw">
            <node concept="2OqwBi" id="2EZ251g16fz" role="3uHU7B">
              <node concept="37vLTw" id="3GM_nagTvUl" role="2Oq$k0">
                <ref role="3cqZAo" node="2EZ251g16fl" resolve="left" />
              </node>
              <node concept="1mIQ4w" id="2EZ251g16f_" role="2OqNvi">
                <node concept="chp4Y" id="1Qs9WekWVW0" role="cj9EA">
                  <ref role="cht4Q" to="iuxj:1Qs9WekVZ4Y" resolve="XmlPart" />
                </node>
              </node>
            </node>
            <node concept="2OqwBi" id="2EZ251g16fv" role="3uHU7w">
              <node concept="1PxgMI" id="2EZ251g16fw" role="2Oq$k0">
                <ref role="1m5ApE" to="iuxj:1Qs9WekVZ4Y" resolve="XmlPart" />
                <node concept="37vLTw" id="3GM_nagTxlT" role="1m5AlR">
                  <ref role="3cqZAo" node="2EZ251g16fl" resolve="left" />
                </node>
              </node>
              <node concept="2qgKlT" id="1Qs9WekW9Id" role="2OqNvi">
                <ref role="37wK5l" to="t7at:1Qs9WekVZ9E" resolve="hasNewLineAfter" />
              </node>
            </node>
          </node>
        </node>
        <node concept="lc7rE" id="2EZ251g0RaG" role="3cqZAp">
          <node concept="la8eA" id="2EZ251g0RaI" role="lcghm">
            <property role="lacIc" value="&lt;?" />
          </node>
          <node concept="l9hG8" id="2EZ251g0RaK" role="lcghm">
            <node concept="2OqwBi" id="2EZ251g0RaP" role="lb14g">
              <node concept="117lpO" id="2EZ251g0RaM" role="2Oq$k0" />
              <node concept="3TrcHB" id="2EZ251g0RaV" role="2OqNvi">
                <ref role="3TsBF5" to="iuxj:5M4a$b5ikxQ" resolve="target" />
              </node>
            </node>
          </node>
          <node concept="la8eA" id="2EZ251g0RaX" role="lcghm">
            <property role="lacIc" value=" " />
          </node>
          <node concept="l9hG8" id="2EZ251g0RaZ" role="lcghm">
            <node concept="2OqwBi" id="2EZ251g0Rb4" role="lb14g">
              <node concept="117lpO" id="2EZ251g0Rb1" role="2Oq$k0" />
              <node concept="3TrcHB" id="2EZ251g0Rb9" role="2OqNvi">
                <ref role="3TsBF5" to="iuxj:5M4a$b5ikxR" resolve="rawData" />
              </node>
            </node>
          </node>
          <node concept="la8eA" id="2EZ251g0Rbb" role="lcghm">
            <property role="lacIc" value="?&gt;" />
          </node>
        </node>
      </node>
    </node>
  </node>
  <node concept="WtQ9Q" id="2EZ251g0Rbc">
    <ref role="WuzLi" to="iuxj:2EZ251g0wSW" resolve="XmlNoSpaceValue" />
    <node concept="11bSqf" id="2EZ251g0Rbd" role="11c4hB">
      <node concept="3clFbS" id="2EZ251g0Rbe" role="2VODD2">
        <node concept="3SKdUt" id="2EZ251g0Rbf" role="3cqZAp">
          <node concept="3SKdUq" id="2EZ251g0Rbg" role="3SKWNk">
            <property role="3SKdUp" value="empty" />
          </node>
        </node>
      </node>
    </node>
  </node>
  <node concept="WtQ9Q" id="1Qs9WekWoWq">
    <ref role="WuzLi" to="iuxj:5M4a$b5ikxL" resolve="XmlProlog" />
    <node concept="11bSqf" id="1Qs9WekWoWr" role="11c4hB">
      <node concept="3clFbS" id="1Qs9WekWoWs" role="2VODD2">
        <node concept="lc7rE" id="1Qs9WekWq9K" role="3cqZAp">
          <node concept="l9S2W" id="1Qs9WekWq9M" role="lcghm">
            <node concept="2OqwBi" id="1Qs9WekWqa9" role="lbANJ">
              <node concept="117lpO" id="1Qs9WekWq9O" role="2Oq$k0" />
              <node concept="3Tsc0h" id="1Qs9WekWqaf" role="2OqNvi">
                <ref role="3TtcxE" to="iuxj:6A8NbxeeX3A" />
              </node>
            </node>
          </node>
        </node>
        <node concept="lc7rE" id="1Qs9WekWVTe" role="3cqZAp">
          <node concept="l8MVK" id="1Qs9WekWVTg" role="lcghm" />
        </node>
      </node>
    </node>
  </node>
  <node concept="WtQ9Q" id="1Qs9WekWqag">
    <ref role="WuzLi" to="iuxj:4ygopIO0uXI" resolve="XmlDeclaration" />
    <node concept="11bSqf" id="1Qs9WekWqah" role="11c4hB">
      <node concept="3clFbS" id="1Qs9WekWqai" role="2VODD2">
        <node concept="lc7rE" id="1Qs9WekWqaj" role="3cqZAp">
          <node concept="la8eA" id="1Qs9WekWqal" role="lcghm">
            <property role="lacIc" value="&lt;?xml" />
          </node>
          <node concept="la8eA" id="1Qs9WekWVRp" role="lcghm">
            <property role="lacIc" value=" " />
          </node>
          <node concept="la8eA" id="1Qs9WekWVRr" role="lcghm">
            <property role="lacIc" value="version" />
          </node>
          <node concept="la8eA" id="1Qs9WekWVRt" role="lcghm">
            <property role="lacIc" value=" = " />
          </node>
          <node concept="la8eA" id="1Qs9WekWVRv" role="lcghm">
            <property role="lacIc" value="&quot;" />
          </node>
          <node concept="l9hG8" id="1Qs9WekWVRx" role="lcghm">
            <node concept="2OqwBi" id="1Qs9WekWVRS" role="lb14g">
              <node concept="117lpO" id="1Qs9WekWVRz" role="2Oq$k0" />
              <node concept="3TrcHB" id="1Qs9WekWVRY" role="2OqNvi">
                <ref role="3TsBF5" to="iuxj:4KP_IS_Dagz" resolve="version" />
              </node>
            </node>
          </node>
          <node concept="la8eA" id="1Qs9WekWVS0" role="lcghm">
            <property role="lacIc" value="&quot;" />
          </node>
        </node>
        <node concept="3clFbJ" id="2Vk3fdkaNVV" role="3cqZAp">
          <node concept="3clFbS" id="2Vk3fdkaNVW" role="3clFbx">
            <node concept="lc7rE" id="2Vk3fdkaNX6" role="3cqZAp">
              <node concept="la8eA" id="2Vk3fdkaNX8" role="lcghm">
                <property role="lacIc" value=" " />
              </node>
              <node concept="la8eA" id="2Vk3fdkaNX9" role="lcghm">
                <property role="lacIc" value="encoding" />
              </node>
              <node concept="la8eA" id="2Vk3fdkaNXa" role="lcghm">
                <property role="lacIc" value=" = " />
              </node>
              <node concept="la8eA" id="2Vk3fdkaNXb" role="lcghm">
                <property role="lacIc" value="&quot;" />
              </node>
              <node concept="l9hG8" id="2Vk3fdkaNXc" role="lcghm">
                <node concept="2OqwBi" id="2Vk3fdkaNXd" role="lb14g">
                  <node concept="117lpO" id="2Vk3fdkaNXe" role="2Oq$k0" />
                  <node concept="3TrcHB" id="2Vk3fdkaNXj" role="2OqNvi">
                    <ref role="3TsBF5" to="iuxj:2Vk3fdkalhm" resolve="encoding" />
                  </node>
                </node>
              </node>
              <node concept="la8eA" id="2Vk3fdkaNXg" role="lcghm">
                <property role="lacIc" value="&quot;" />
              </node>
            </node>
          </node>
          <node concept="2OqwBi" id="2Vk3fdkaNWW" role="3clFbw">
            <node concept="2OqwBi" id="2Vk3fdkaNWn" role="2Oq$k0">
              <node concept="117lpO" id="2Vk3fdkaNVZ" role="2Oq$k0" />
              <node concept="3TrcHB" id="2Vk3fdkaNWs" role="2OqNvi">
                <ref role="3TsBF5" to="iuxj:2Vk3fdkalhm" resolve="encoding" />
              </node>
            </node>
            <node concept="17RvpY" id="2Vk3fdkaNX2" role="2OqNvi" />
          </node>
        </node>
        <node concept="3clFbJ" id="2Vk3fdkaNXk" role="3cqZAp">
          <node concept="3clFbS" id="2Vk3fdkaNXl" role="3clFbx">
            <node concept="lc7rE" id="2Vk3fdkaNXm" role="3cqZAp">
              <node concept="la8eA" id="2Vk3fdkaNXn" role="lcghm">
                <property role="lacIc" value=" " />
              </node>
              <node concept="la8eA" id="2Vk3fdkaNXo" role="lcghm">
                <property role="lacIc" value="standalone" />
              </node>
              <node concept="la8eA" id="2Vk3fdkaNXp" role="lcghm">
                <property role="lacIc" value=" = " />
              </node>
              <node concept="la8eA" id="2Vk3fdkaNXq" role="lcghm">
                <property role="lacIc" value="&quot;" />
              </node>
              <node concept="l9hG8" id="2Vk3fdkaNXr" role="lcghm">
                <node concept="2OqwBi" id="2Vk3fdkaNXs" role="lb14g">
                  <node concept="117lpO" id="2Vk3fdkaNXt" role="2Oq$k0" />
                  <node concept="3TrcHB" id="2Vk3fdkaNXC" role="2OqNvi">
                    <ref role="3TsBF5" to="iuxj:2Vk3fdkalho" resolve="standalone" />
                  </node>
                </node>
              </node>
              <node concept="la8eA" id="2Vk3fdkaNXv" role="lcghm">
                <property role="lacIc" value="&quot;" />
              </node>
            </node>
          </node>
          <node concept="2OqwBi" id="2Vk3fdkaNXw" role="3clFbw">
            <node concept="2OqwBi" id="2Vk3fdkaNXx" role="2Oq$k0">
              <node concept="117lpO" id="2Vk3fdkaNXy" role="2Oq$k0" />
              <node concept="3TrcHB" id="2Vk3fdkaNXA" role="2OqNvi">
                <ref role="3TsBF5" to="iuxj:2Vk3fdkalho" resolve="standalone" />
              </node>
            </node>
            <node concept="17RvpY" id="2Vk3fdkaNX$" role="2OqNvi" />
          </node>
        </node>
        <node concept="lc7rE" id="2Vk3fdkaNW1" role="3cqZAp">
          <node concept="la8eA" id="1Qs9WekWVS2" role="lcghm">
            <property role="lacIc" value="?&gt;" />
          </node>
        </node>
      </node>
    </node>
  </node>
  <node concept="WtQ9Q" id="1Qs9WekWVUc">
    <ref role="WuzLi" to="iuxj:6A8NbxeffEC" resolve="XmlWhitespace" />
    <node concept="11bSqf" id="1Qs9WekWVUd" role="11c4hB">
      <node concept="3clFbS" id="1Qs9WekWVUe" role="2VODD2">
        <node concept="3cpWs8" id="1Qs9WekWVUf" role="3cqZAp">
          <node concept="3cpWsn" id="1Qs9WekWVUg" role="3cpWs9">
            <property role="TrG5h" value="needNewLine" />
            <node concept="10P_77" id="1Qs9WekWVUh" role="1tU5fm" />
            <node concept="2OqwBi" id="1Qs9WekWVUi" role="33vP2m">
              <node concept="117lpO" id="1Qs9WekWVUj" role="2Oq$k0" />
              <node concept="2qgKlT" id="1Qs9WekWVUT" role="2OqNvi">
                <ref role="37wK5l" to="t7at:1Qs9WekVZ9$" resolve="onNewLine" />
              </node>
            </node>
          </node>
        </node>
        <node concept="3clFbJ" id="1Qs9WekWVUl" role="3cqZAp">
          <node concept="3clFbS" id="1Qs9WekWVUm" role="3clFbx">
            <node concept="3cpWs8" id="1Qs9WekWVUn" role="3cqZAp">
              <node concept="3cpWsn" id="1Qs9WekWVUo" role="3cpWs9">
                <property role="TrG5h" value="left" />
                <node concept="3Tqbb2" id="1Qs9WekWVUp" role="1tU5fm" />
                <node concept="2OqwBi" id="1Qs9WekWVUq" role="33vP2m">
                  <node concept="117lpO" id="1Qs9WekWVUr" role="2Oq$k0" />
                  <node concept="YBYNd" id="1Qs9WekWVUs" role="2OqNvi" />
                </node>
              </node>
            </node>
            <node concept="3clFbJ" id="1Qs9WekWVUt" role="3cqZAp">
              <node concept="3clFbS" id="1Qs9WekWVUu" role="3clFbx">
                <node concept="3clFbF" id="1Qs9WekWVUv" role="3cqZAp">
                  <node concept="37vLTI" id="1Qs9WekWVUw" role="3clFbG">
                    <node concept="37vLTw" id="3GM_nagTuJz" role="37vLTJ">
                      <ref role="3cqZAo" node="1Qs9WekWVUg" resolve="needNewLine" />
                    </node>
                    <node concept="2OqwBi" id="1Qs9WekWVUy" role="37vLTx">
                      <node concept="1PxgMI" id="1Qs9WekWVUz" role="2Oq$k0">
                        <ref role="1m5ApE" to="iuxj:6A8NbxeeX3_" resolve="XmlPrologElement" />
                        <node concept="37vLTw" id="3GM_nagTAJI" role="1m5AlR">
                          <ref role="3cqZAo" node="1Qs9WekWVUo" resolve="left" />
                        </node>
                      </node>
                      <node concept="2qgKlT" id="1Qs9WekWVUW" role="2OqNvi">
                        <ref role="37wK5l" to="t7at:1Qs9WekVZ9E" resolve="hasNewLineAfter" />
                      </node>
                    </node>
                  </node>
                </node>
              </node>
              <node concept="2OqwBi" id="1Qs9WekWVUA" role="3clFbw">
                <node concept="37vLTw" id="3GM_nagT_hW" role="2Oq$k0">
                  <ref role="3cqZAo" node="1Qs9WekWVUo" resolve="left" />
                </node>
                <node concept="1mIQ4w" id="1Qs9WekWVUC" role="2OqNvi">
                  <node concept="chp4Y" id="1Qs9WekWVUU" role="cj9EA">
                    <ref role="cht4Q" to="iuxj:6A8NbxeeX3_" resolve="XmlPrologElement" />
                  </node>
                </node>
              </node>
            </node>
          </node>
          <node concept="3fqX7Q" id="1Qs9WekWVUE" role="3clFbw">
            <node concept="37vLTw" id="3GM_nagTAz3" role="3fr31v">
              <ref role="3cqZAo" node="1Qs9WekWVUg" resolve="needNewLine" />
            </node>
          </node>
        </node>
        <node concept="3clFbJ" id="1Qs9WekWVUG" role="3cqZAp">
          <node concept="3clFbS" id="1Qs9WekWVUH" role="3clFbx">
            <node concept="lc7rE" id="1Qs9WekWVUI" role="3cqZAp">
              <node concept="l8MVK" id="1Qs9WekWVUJ" role="lcghm" />
            </node>
            <node concept="1bpajm" id="1Qs9WekWVUK" role="3cqZAp" />
          </node>
          <node concept="37vLTw" id="3GM_nagTsvC" role="3clFbw">
            <ref role="3cqZAo" node="1Qs9WekWVUg" resolve="needNewLine" />
          </node>
        </node>
        <node concept="lc7rE" id="1Qs9WekWVUM" role="3cqZAp">
          <node concept="l9hG8" id="1Qs9WekWVUN" role="lcghm">
            <node concept="2OqwBi" id="1Qs9WekWVUO" role="lb14g">
              <node concept="117lpO" id="1Qs9WekWVUP" role="2Oq$k0" />
              <node concept="3TrcHB" id="1Qs9WekWVUQ" role="2OqNvi">
                <ref role="3TsBF5" to="iuxj:4ygopINZTHj" resolve="value" />
              </node>
            </node>
          </node>
        </node>
      </node>
    </node>
  </node>
  <node concept="WtQ9Q" id="1Qs9WekXwbI">
    <ref role="WuzLi" to="iuxj:1Qs9WekX0qr" resolve="XmlDoctypeDeclaration" />
    <node concept="11bSqf" id="1Qs9WekXwbJ" role="11c4hB">
      <node concept="3clFbS" id="1Qs9WekXwbK" role="2VODD2">
        <node concept="3cpWs8" id="1Qs9WekXwbL" role="3cqZAp">
          <node concept="3cpWsn" id="1Qs9WekXwbM" role="3cpWs9">
            <property role="TrG5h" value="left" />
            <node concept="3Tqbb2" id="1Qs9WekXwbN" role="1tU5fm" />
            <node concept="2OqwBi" id="1Qs9WekXwbO" role="33vP2m">
              <node concept="117lpO" id="1Qs9WekXwbP" role="2Oq$k0" />
              <node concept="YBYNd" id="1Qs9WekXwbQ" role="2OqNvi" />
            </node>
          </node>
        </node>
        <node concept="3clFbJ" id="1Qs9WekXwbR" role="3cqZAp">
          <node concept="3clFbS" id="1Qs9WekXwbS" role="3clFbx">
            <node concept="lc7rE" id="1Qs9WekXwbT" role="3cqZAp">
              <node concept="l8MVK" id="1Qs9WekXwbU" role="lcghm" />
            </node>
            <node concept="1bpajm" id="1Qs9WekXwbV" role="3cqZAp" />
          </node>
          <node concept="1Wc70l" id="1Qs9WekXwbW" role="3clFbw">
            <node concept="2OqwBi" id="1Qs9WekXwbX" role="3uHU7B">
              <node concept="37vLTw" id="3GM_nagTAiy" role="2Oq$k0">
                <ref role="3cqZAo" node="1Qs9WekXwbM" resolve="left" />
              </node>
              <node concept="1mIQ4w" id="1Qs9WekXwbZ" role="2OqNvi">
                <node concept="chp4Y" id="1Qs9WekXwc0" role="cj9EA">
                  <ref role="cht4Q" to="iuxj:1Qs9WekVZ4Y" resolve="XmlPart" />
                </node>
              </node>
            </node>
            <node concept="2OqwBi" id="1Qs9WekXwc1" role="3uHU7w">
              <node concept="1PxgMI" id="1Qs9WekXwc2" role="2Oq$k0">
                <ref role="1m5ApE" to="iuxj:1Qs9WekVZ4Y" resolve="XmlPart" />
                <node concept="37vLTw" id="3GM_nagTxqU" role="1m5AlR">
                  <ref role="3cqZAo" node="1Qs9WekXwbM" resolve="left" />
                </node>
              </node>
              <node concept="2qgKlT" id="1Qs9WekXwc4" role="2OqNvi">
                <ref role="37wK5l" to="t7at:1Qs9WekVZ9E" resolve="hasNewLineAfter" />
              </node>
            </node>
          </node>
        </node>
        <node concept="lc7rE" id="1Qs9WekXwc5" role="3cqZAp">
          <node concept="la8eA" id="1Qs9WekXwc6" role="lcghm">
            <property role="lacIc" value="&lt;!DOCTYPE" />
          </node>
          <node concept="la8eA" id="1Qs9WekXwcj" role="lcghm">
            <property role="lacIc" value=" " />
          </node>
          <node concept="l9hG8" id="1Qs9WekXwcl" role="lcghm">
            <node concept="2OqwBi" id="1Qs9WekXwcG" role="lb14g">
              <node concept="117lpO" id="1Qs9WekXwcn" role="2Oq$k0" />
              <node concept="3TrcHB" id="1Qs9WekXwcP" role="2OqNvi">
                <ref role="3TsBF5" to="iuxj:1Qs9WekX0qu" resolve="doctypeName" />
              </node>
            </node>
          </node>
        </node>
        <node concept="3clFbJ" id="1Qs9WekXwdg" role="3cqZAp">
          <node concept="3clFbS" id="1Qs9WekXwdh" role="3clFbx">
            <node concept="lc7rE" id="1Qs9WekXwed" role="3cqZAp">
              <node concept="la8eA" id="1Qs9WekXM3A" role="lcghm">
                <property role="lacIc" value=" " />
              </node>
              <node concept="l9hG8" id="1Qs9WekXwef" role="lcghm">
                <node concept="2OqwBi" id="1Qs9WekXweA" role="lb14g">
                  <node concept="117lpO" id="1Qs9WekXweh" role="2Oq$k0" />
                  <node concept="3TrEf2" id="1Qs9WekXweF" role="2OqNvi">
                    <ref role="3Tt5mk" to="iuxj:1Qs9WekXwd0" />
                  </node>
                </node>
              </node>
            </node>
          </node>
          <node concept="2OqwBi" id="1Qs9WekXwe4" role="3clFbw">
            <node concept="2OqwBi" id="1Qs9WekXwdD" role="2Oq$k0">
              <node concept="117lpO" id="1Qs9WekXwdk" role="2Oq$k0" />
              <node concept="3TrEf2" id="1Qs9WekXwdI" role="2OqNvi">
                <ref role="3Tt5mk" to="iuxj:1Qs9WekXwd0" />
              </node>
            </node>
            <node concept="3x8VRR" id="1Qs9WekXwec" role="2OqNvi" />
          </node>
        </node>
        <node concept="lc7rE" id="1Qs9WekXwcf" role="3cqZAp">
          <node concept="la8eA" id="1Qs9WekXwch" role="lcghm">
            <property role="lacIc" value="&gt;" />
          </node>
        </node>
      </node>
    </node>
  </node>
  <node concept="WtQ9Q" id="1Qs9WekXLqJ">
    <ref role="WuzLi" to="iuxj:1Qs9WekXwcZ" resolve="XmlExternalId" />
    <node concept="11bSqf" id="1Qs9WekXLqK" role="11c4hB">
      <node concept="3clFbS" id="1Qs9WekXLqL" role="2VODD2">
        <node concept="3clFbJ" id="1Qs9WekXLre" role="3cqZAp">
          <node concept="2OqwBi" id="1Qs9WekXLrA" role="3clFbw">
            <node concept="117lpO" id="1Qs9WekXLrh" role="2Oq$k0" />
            <node concept="3TrcHB" id="1Qs9WekXLrG" role="2OqNvi">
              <ref role="3TsBF5" to="iuxj:1Qs9WekXwd5" resolve="isPublic" />
            </node>
          </node>
          <node concept="3clFbS" id="1Qs9WekXLrg" role="3clFbx">
            <node concept="lc7rE" id="1Qs9WekXLuP" role="3cqZAp">
              <node concept="la8eA" id="1Qs9WekXLuR" role="lcghm">
                <property role="lacIc" value="PUBLIC" />
              </node>
            </node>
            <node concept="lc7rE" id="1Qs9WekXLyA" role="3cqZAp">
              <node concept="la8eA" id="1Qs9WekXLyC" role="lcghm">
                <property role="lacIc" value=" " />
              </node>
            </node>
            <node concept="3clFbJ" id="1Qs9WekXLyF" role="3cqZAp">
              <node concept="1Wc70l" id="1Qs9WekXLyG" role="3clFbw">
                <node concept="2OqwBi" id="1Qs9WekXLyH" role="3uHU7w">
                  <node concept="2OqwBi" id="1Qs9WekXLyI" role="2Oq$k0">
                    <node concept="117lpO" id="1Qs9WekXLyJ" role="2Oq$k0" />
                    <node concept="3TrcHB" id="1Qs9WekXLzg" role="2OqNvi">
                      <ref role="3TsBF5" to="iuxj:1Qs9WekXwd3" resolve="publicId" />
                    </node>
                  </node>
                  <node concept="liA8E" id="1Qs9WekXLyL" role="2OqNvi">
                    <ref role="37wK5l" to="wyt6:~String.contains(java.lang.CharSequence):boolean" resolve="contains" />
                    <node concept="Xl_RD" id="1Qs9WekXLyM" role="37wK5m">
                      <property role="Xl_RC" value="'" />
                    </node>
                  </node>
                </node>
                <node concept="2OqwBi" id="1Qs9WekXLyN" role="3uHU7B">
                  <node concept="2OqwBi" id="1Qs9WekXLyO" role="2Oq$k0">
                    <node concept="117lpO" id="1Qs9WekXLyP" role="2Oq$k0" />
                    <node concept="3TrcHB" id="1Qs9WekXLze" role="2OqNvi">
                      <ref role="3TsBF5" to="iuxj:1Qs9WekXwd3" resolve="publicId" />
                    </node>
                  </node>
                  <node concept="17RvpY" id="1Qs9WekXLyR" role="2OqNvi" />
                </node>
              </node>
              <node concept="3clFbS" id="1Qs9WekXLyS" role="3clFbx">
                <node concept="lc7rE" id="1Qs9WekXLyT" role="3cqZAp">
                  <node concept="la8eA" id="1Qs9WekXLyU" role="lcghm">
                    <property role="lacIc" value="&quot;" />
                  </node>
                  <node concept="l9hG8" id="1Qs9WekXLyV" role="lcghm">
                    <node concept="2OqwBi" id="1Qs9WekXLyW" role="lb14g">
                      <node concept="117lpO" id="1Qs9WekXLyX" role="2Oq$k0" />
                      <node concept="3TrcHB" id="1Qs9WekXLzN" role="2OqNvi">
                        <ref role="3TsBF5" to="iuxj:1Qs9WekXwd3" resolve="publicId" />
                      </node>
                    </node>
                  </node>
                  <node concept="la8eA" id="1Qs9WekXLyZ" role="lcghm">
                    <property role="lacIc" value="&quot;" />
                  </node>
                </node>
              </node>
              <node concept="9aQIb" id="1Qs9WekXLz0" role="9aQIa">
                <node concept="3clFbS" id="1Qs9WekXLz1" role="9aQI4">
                  <node concept="lc7rE" id="1Qs9WekXLz2" role="3cqZAp">
                    <node concept="la8eA" id="1Qs9WekXLz3" role="lcghm">
                      <property role="lacIc" value="'" />
                    </node>
                    <node concept="l9hG8" id="1Qs9WekXLz4" role="lcghm">
                      <node concept="2OqwBi" id="1Qs9WekXLz5" role="lb14g">
                        <node concept="117lpO" id="1Qs9WekXLz6" role="2Oq$k0" />
                        <node concept="3TrcHB" id="1Qs9WekXLzP" role="2OqNvi">
                          <ref role="3TsBF5" to="iuxj:1Qs9WekXwd3" resolve="publicId" />
                        </node>
                      </node>
                    </node>
                    <node concept="la8eA" id="1Qs9WekXLz8" role="lcghm">
                      <property role="lacIc" value="'" />
                    </node>
                  </node>
                </node>
              </node>
            </node>
          </node>
          <node concept="9aQIb" id="1Qs9WekXLuS" role="9aQIa">
            <node concept="3clFbS" id="1Qs9WekXLuT" role="9aQI4">
              <node concept="lc7rE" id="1Qs9WekXLuU" role="3cqZAp">
                <node concept="la8eA" id="1Qs9WekXLuW" role="lcghm">
                  <property role="lacIc" value="SYSTEM" />
                </node>
              </node>
            </node>
          </node>
        </node>
        <node concept="lc7rE" id="1Qs9WekXM3C" role="3cqZAp">
          <node concept="la8eA" id="1Qs9WekXM3E" role="lcghm">
            <property role="lacIc" value=" " />
          </node>
        </node>
        <node concept="3clFbJ" id="1Qs9WekXLwO" role="3cqZAp">
          <node concept="1Wc70l" id="1Qs9WekXLyx" role="3clFbw">
            <node concept="2OqwBi" id="1Qs9WekXLxC" role="3uHU7w">
              <node concept="2OqwBi" id="1Qs9WekXLxc" role="2Oq$k0">
                <node concept="117lpO" id="1Qs9WekXLwR" role="2Oq$k0" />
                <node concept="3TrcHB" id="1Qs9WekXLxi" role="2OqNvi">
                  <ref role="3TsBF5" to="iuxj:1Qs9WekXwd4" resolve="systemId" />
                </node>
              </node>
              <node concept="liA8E" id="1Qs9WekXLxI" role="2OqNvi">
                <ref role="37wK5l" to="wyt6:~String.contains(java.lang.CharSequence):boolean" resolve="contains" />
                <node concept="Xl_RD" id="1Qs9WekXLxJ" role="37wK5m">
                  <property role="Xl_RC" value="'" />
                </node>
              </node>
            </node>
            <node concept="2OqwBi" id="1Qs9WekXLvR" role="3uHU7B">
              <node concept="2OqwBi" id="1Qs9WekXLvr" role="2Oq$k0">
                <node concept="117lpO" id="1Qs9WekXLv6" role="2Oq$k0" />
                <node concept="3TrcHB" id="1Qs9WekXLvx" role="2OqNvi">
                  <ref role="3TsBF5" to="iuxj:1Qs9WekXwd4" resolve="systemId" />
                </node>
              </node>
              <node concept="17RvpY" id="1Qs9WekXLvX" role="2OqNvi" />
            </node>
          </node>
          <node concept="3clFbS" id="1Qs9WekXLwQ" role="3clFbx">
            <node concept="lc7rE" id="1Qs9WekXLxK" role="3cqZAp">
              <node concept="la8eA" id="1Qs9WekXLxM" role="lcghm">
                <property role="lacIc" value="&quot;" />
              </node>
              <node concept="l9hG8" id="1Qs9WekXLxO" role="lcghm">
                <node concept="2OqwBi" id="1Qs9WekXLyb" role="lb14g">
                  <node concept="117lpO" id="1Qs9WekXLxQ" role="2Oq$k0" />
                  <node concept="3TrcHB" id="1Qs9WekXLyh" role="2OqNvi">
                    <ref role="3TsBF5" to="iuxj:1Qs9WekXwd4" resolve="systemId" />
                  </node>
                </node>
              </node>
              <node concept="la8eA" id="1Qs9WekXLyj" role="lcghm">
                <property role="lacIc" value="&quot;" />
              </node>
            </node>
          </node>
          <node concept="9aQIb" id="1Qs9WekXLyk" role="9aQIa">
            <node concept="3clFbS" id="1Qs9WekXLyl" role="9aQI4">
              <node concept="lc7rE" id="1Qs9WekXLym" role="3cqZAp">
                <node concept="la8eA" id="1Qs9WekXLyn" role="lcghm">
                  <property role="lacIc" value="'" />
                </node>
                <node concept="l9hG8" id="1Qs9WekXLyo" role="lcghm">
                  <node concept="2OqwBi" id="1Qs9WekXLyp" role="lb14g">
                    <node concept="117lpO" id="1Qs9WekXLyq" role="2Oq$k0" />
                    <node concept="3TrcHB" id="1Qs9WekXLyr" role="2OqNvi">
                      <ref role="3TsBF5" to="iuxj:1Qs9WekXwd4" resolve="systemId" />
                    </node>
                  </node>
                </node>
                <node concept="la8eA" id="1Qs9WekXLys" role="lcghm">
                  <property role="lacIc" value="'" />
                </node>
              </node>
            </node>
          </node>
        </node>
        <node concept="3clFbH" id="1Qs9WekXLyD" role="3cqZAp" />
      </node>
    </node>
  </node>
</model>

