<?xml version="1.0" encoding="UTF-8"?>
<model ref="r:6b933bd4-3712-4b1d-8046-c244bf51a0fc(jetbrains.mps.lang.project.constraints)">
  <persistence version="9" />
  <languages>
    <use id="83888646-71ce-4f1c-9c53-c54016f6ad4f" name="jetbrains.mps.baseLanguage.collections" version="0" />
    <use id="3f4bc5f5-c6c1-4a28-8b10-c83066ffa4a1" name="jetbrains.mps.lang.constraints" version="0" />
    <use id="7866978e-a0f0-4cc7-81bc-4d213d9375e1" name="jetbrains.mps.lang.smodel" version="4" />
    <use id="f3061a53-9226-4cc5-a443-f952ceaf5816" name="jetbrains.mps.baseLanguage" version="4" />
    <devkit ref="fbc25dd2-5da4-483a-8b19-70928e1b62d7(jetbrains.mps.devkit.general-purpose)" />
  </languages>
  <imports>
    <import index="inbo" ref="r:22db907b-8239-4180-8797-e91cea0b9573(jetbrains.mps.smodel.search)" />
    <import index="33ny" ref="6354ebe7-c22a-4a0f-ac54-50b52ab9b065/java:java.util(JDK/)" />
    <import index="mhfm" ref="3f233e7f-b8a6-46d2-a57f-795d56775243/java:org.jetbrains.annotations(Annotations/)" />
    <import index="mhbf" ref="8865b7a8-5271-43d3-884c-6fd1d9cfdd34/java:org.jetbrains.mps.openapi.model(MPS.OpenAPI/)" />
    <import index="y49u" ref="8865b7a8-5271-43d3-884c-6fd1d9cfdd34/java:org.jetbrains.mps.util(MPS.OpenAPI/)" />
    <import index="hypd" ref="r:aa31e43e-9240-4f4d-b6db-5c1c9a86c59e(jetbrains.mps.lang.project.structure)" implicit="true" />
    <import index="tpck" ref="r:00000000-0000-4000-0000-011c89590288(jetbrains.mps.lang.core.structure)" implicit="true" />
    <import index="wyt6" ref="6354ebe7-c22a-4a0f-ac54-50b52ab9b065/java:java.lang(JDK/)" implicit="true" />
  </imports>
  <registry>
    <language id="f3061a53-9226-4cc5-a443-f952ceaf5816" name="jetbrains.mps.baseLanguage">
      <concept id="1188207840427" name="jetbrains.mps.baseLanguage.structure.AnnotationInstance" flags="nn" index="2AHcQZ">
        <reference id="1188208074048" name="annotation" index="2AI5Lk" />
      </concept>
      <concept id="1188208481402" name="jetbrains.mps.baseLanguage.structure.HasAnnotation" flags="ng" index="2AJDlI">
        <child id="1188208488637" name="annotation" index="2AJF6D" />
      </concept>
      <concept id="1197027756228" name="jetbrains.mps.baseLanguage.structure.DotExpression" flags="nn" index="2OqwBi">
        <child id="1197027771414" name="operand" index="2Oq$k0" />
        <child id="1197027833540" name="operation" index="2OqNvi" />
      </concept>
      <concept id="1145552977093" name="jetbrains.mps.baseLanguage.structure.GenericNewExpression" flags="nn" index="2ShNRf">
        <child id="1145553007750" name="creator" index="2ShVmc" />
      </concept>
      <concept id="1137021947720" name="jetbrains.mps.baseLanguage.structure.ConceptFunction" flags="in" index="2VMwT0">
        <child id="1137022507850" name="body" index="2VODD2" />
      </concept>
      <concept id="1068390468198" name="jetbrains.mps.baseLanguage.structure.ClassConcept" flags="ig" index="312cEu">
        <child id="1165602531693" name="superclass" index="1zkMxy" />
      </concept>
      <concept id="1068498886292" name="jetbrains.mps.baseLanguage.structure.ParameterDeclaration" flags="ir" index="37vLTG" />
      <concept id="4972933694980447171" name="jetbrains.mps.baseLanguage.structure.BaseVariableDeclaration" flags="ng" index="19Szcq">
        <child id="5680397130376446158" name="type" index="1tU5fm" />
      </concept>
      <concept id="1068580123132" name="jetbrains.mps.baseLanguage.structure.BaseMethodDeclaration" flags="ng" index="3clF44">
        <child id="1068580123133" name="returnType" index="3clF45" />
        <child id="1068580123134" name="parameter" index="3clF46" />
        <child id="1068580123135" name="body" index="3clF47" />
      </concept>
      <concept id="1068580123165" name="jetbrains.mps.baseLanguage.structure.InstanceMethodDeclaration" flags="ig" index="3clFb_" />
      <concept id="1068580123155" name="jetbrains.mps.baseLanguage.structure.ExpressionStatement" flags="nn" index="3clFbF">
        <child id="1068580123156" name="expression" index="3clFbG" />
      </concept>
      <concept id="1068580123136" name="jetbrains.mps.baseLanguage.structure.StatementList" flags="sn" stub="5293379017992965193" index="3clFbS">
        <child id="1068581517665" name="statement" index="3cqZAp" />
      </concept>
      <concept id="1068580123140" name="jetbrains.mps.baseLanguage.structure.ConstructorDeclaration" flags="ig" index="3clFbW" />
      <concept id="1068581517677" name="jetbrains.mps.baseLanguage.structure.VoidType" flags="in" index="3cqZAl" />
      <concept id="1107461130800" name="jetbrains.mps.baseLanguage.structure.Classifier" flags="ng" index="3pOWGL">
        <child id="5375687026011219971" name="member" index="jymVt" unordered="true" />
      </concept>
      <concept id="1107535904670" name="jetbrains.mps.baseLanguage.structure.ClassifierType" flags="in" index="3uibUv">
        <reference id="1107535924139" name="classifier" index="3uigEE" />
        <child id="1109201940907" name="parameter" index="11_B2D" />
      </concept>
      <concept id="1178549954367" name="jetbrains.mps.baseLanguage.structure.IVisible" flags="ng" index="1B3ioH">
        <child id="1178549979242" name="visibility" index="1B3o_S" />
      </concept>
      <concept id="1146644602865" name="jetbrains.mps.baseLanguage.structure.PublicVisibility" flags="nn" index="3Tm1VV" />
    </language>
    <language id="3f4bc5f5-c6c1-4a28-8b10-c83066ffa4a1" name="jetbrains.mps.lang.constraints">
      <concept id="1147467115080" name="jetbrains.mps.lang.constraints.structure.NodePropertyConstraint" flags="ng" index="EnEH3">
        <reference id="1147467295099" name="applicableProperty" index="EomxK" />
        <child id="1147468630220" name="propertyGetter" index="EtsB7" />
      </concept>
      <concept id="1147467790433" name="jetbrains.mps.lang.constraints.structure.ConstraintFunction_PropertyGetter" flags="in" index="Eqf_E" />
      <concept id="1147468365020" name="jetbrains.mps.lang.constraints.structure.ConstraintsFunctionParameter_node" flags="nn" index="EsrRn" />
      <concept id="1213093968558" name="jetbrains.mps.lang.constraints.structure.ConceptConstraints" flags="ng" index="1M2fIO">
        <reference id="1213093996982" name="concept" index="1M2myG" />
        <child id="1213098023997" name="property" index="1MhHOB" />
      </concept>
    </language>
    <language id="7866978e-a0f0-4cc7-81bc-4d213d9375e1" name="jetbrains.mps.lang.smodel">
      <concept id="1138056022639" name="jetbrains.mps.lang.smodel.structure.SPropertyAccess" flags="nn" index="3TrcHB">
        <reference id="1138056395725" name="property" index="3TsBF5" />
      </concept>
    </language>
    <language id="ceab5195-25ea-4f22-9b92-103b95ca8c0c" name="jetbrains.mps.lang.core">
      <concept id="1169194658468" name="jetbrains.mps.lang.core.structure.INamedConcept" flags="ng" index="TrEIO">
        <property id="1169194664001" name="name" index="TrG5h" />
      </concept>
    </language>
    <language id="83888646-71ce-4f1c-9c53-c54016f6ad4f" name="jetbrains.mps.baseLanguage.collections">
      <concept id="1160600644654" name="jetbrains.mps.baseLanguage.collections.structure.ListCreatorWithInit" flags="nn" index="Tc6Ow" />
    </language>
  </registry>
  <node concept="1M2fIO" id="5xDtKQA8cYQ">
    <ref role="1M2myG" to="hypd:5xDtKQA7vSu" resolve="Module" />
    <node concept="EnEH3" id="5xDtKQA8ea$" role="1MhHOB">
      <ref role="EomxK" to="tpck:h0TrG11" resolve="name" />
      <node concept="Eqf_E" id="5xDtKQA8ea_" role="EtsB7">
        <node concept="3clFbS" id="5xDtKQA8eaA" role="2VODD2">
          <node concept="3clFbF" id="5xDtKQA8gtz" role="3cqZAp">
            <node concept="2OqwBi" id="3D5F99qcGrf" role="3clFbG">
              <node concept="EsrRn" id="3D5F99qcGre" role="2Oq$k0" />
              <node concept="3TrcHB" id="3D5F99qcO8W" role="2OqNvi">
                <ref role="3TsBF5" to="hypd:5xDtKQA7vSz" resolve="namespace" />
              </node>
            </node>
          </node>
        </node>
      </node>
    </node>
  </node>
  <node concept="1M2fIO" id="3D5F99qcQMi">
    <ref role="1M2myG" to="hypd:5xDtKQA7vSC" resolve="ModuleDependency" />
  </node>
  <node concept="312cEu" id="3D5F99qcQYA">
    <property role="TrG5h" value="ModuleSearchScope" />
    <node concept="3Tm1VV" id="3D5F99qcQYB" role="1B3o_S" />
    <node concept="3uibUv" id="3D5F99qcR0o" role="1zkMxy">
      <ref role="3uigEE" to="inbo:41J4moeYzAF" resolve="AbstractSearchScope" />
    </node>
    <node concept="3clFbW" id="3D5F99qcQYC" role="jymVt">
      <node concept="3cqZAl" id="3D5F99qcQYD" role="3clF45" />
      <node concept="3Tm1VV" id="3D5F99qcQYE" role="1B3o_S" />
      <node concept="3clFbS" id="3D5F99qcQYF" role="3clF47" />
    </node>
    <node concept="3clFb_" id="3D5F99qcRUu" role="jymVt">
      <property role="TrG5h" value="getNodes" />
      <node concept="3Tm1VV" id="3D5F99qcRUv" role="1B3o_S" />
      <node concept="3uibUv" id="3D5F99qcRUw" role="3clF45">
        <ref role="3uigEE" to="33ny:~List" resolve="List" />
        <node concept="3uibUv" id="3D5F99qcRUx" role="11_B2D">
          <ref role="3uigEE" to="mhbf:~SNode" resolve="SNode" />
        </node>
      </node>
      <node concept="37vLTG" id="3D5F99qcRUy" role="3clF46">
        <property role="TrG5h" value="condition" />
        <node concept="3uibUv" id="3D5F99qcRUz" role="1tU5fm">
          <ref role="3uigEE" to="y49u:~Condition" resolve="Condition" />
          <node concept="3uibUv" id="3D5F99qcRU$" role="11_B2D">
            <ref role="3uigEE" to="mhbf:~SNode" resolve="SNode" />
          </node>
        </node>
      </node>
      <node concept="2AHcQZ" id="3D5F99qcRU_" role="2AJF6D">
        <ref role="2AI5Lk" to="mhfm:~NotNull" resolve="NotNull" />
      </node>
      <node concept="3clFbS" id="3D5F99qcRUA" role="3clF47">
        <node concept="3clFbF" id="3D5F99qcRUS" role="3cqZAp">
          <node concept="2ShNRf" id="3D5F99qcRUT" role="3clFbG">
            <node concept="Tc6Ow" id="3D5F99qcRUV" role="2ShVmc" />
          </node>
        </node>
      </node>
      <node concept="2AHcQZ" id="3tYsUK_Sf8H" role="2AJF6D">
        <ref role="2AI5Lk" to="wyt6:~Override" resolve="Override" />
      </node>
    </node>
  </node>
</model>

