<?xml version="1.0" encoding="UTF-8"?>
<model ref="r:d209fa1f-db47-4e3b-92ec-6c4d44d11cab(jetbrains.mps.lang.extension.behavior)">
  <persistence version="9" />
  <languages>
    <use id="af65afd8-f0dd-4942-87d9-63a55f2a9db1" name="jetbrains.mps.lang.behavior" version="0" />
    <use id="7a5dda62-9140-4668-ab76-d5ed1746f2b2" name="jetbrains.mps.lang.typesystem" version="0" />
    <use id="f2801650-65d5-424e-bb1b-463a8781b786" name="jetbrains.mps.baseLanguage.javadoc" version="2" />
    <use id="7866978e-a0f0-4cc7-81bc-4d213d9375e1" name="jetbrains.mps.lang.smodel" version="4" />
    <devkit ref="fbc25dd2-5da4-483a-8b19-70928e1b62d7(jetbrains.mps.devkit.general-purpose)" />
  </languages>
  <imports>
    <import index="v54s" ref="r:2a0fe383-d602-4f5b-813c-e41afdbbb97e(jetbrains.mps.lang.extension.structure)" />
    <import index="z1c3" ref="6ed54515-acc8-4d1e-a16c-9fd6cfe951ea/java:jetbrains.mps.project(MPS.Core/)" />
    <import index="w1kc" ref="6ed54515-acc8-4d1e-a16c-9fd6cfe951ea/java:jetbrains.mps.smodel(MPS.Core/)" />
    <import index="wyt6" ref="6354ebe7-c22a-4a0f-ac54-50b52ab9b065/java:java.lang(JDK/)" />
    <import index="tpee" ref="r:00000000-0000-4000-0000-011c895902ca(jetbrains.mps.baseLanguage.structure)" />
    <import index="tp68" ref="r:00000000-0000-4000-0000-011c895903ac(jetbrains.mps.baseLanguageInternal.structure)" />
    <import index="18ew" ref="6ed54515-acc8-4d1e-a16c-9fd6cfe951ea/java:jetbrains.mps.util(MPS.Core/)" />
    <import index="tpck" ref="r:00000000-0000-4000-0000-011c89590288(jetbrains.mps.lang.core.structure)" />
    <import index="lui2" ref="8865b7a8-5271-43d3-884c-6fd1d9cfdd34/java:org.jetbrains.mps.openapi.module(MPS.OpenAPI/)" />
    <import index="mhbf" ref="8865b7a8-5271-43d3-884c-6fd1d9cfdd34/java:org.jetbrains.mps.openapi.model(MPS.OpenAPI/)" />
    <import index="tpek" ref="r:00000000-0000-4000-0000-011c895902c0(jetbrains.mps.baseLanguage.behavior)" />
    <import index="tpcu" ref="r:00000000-0000-4000-0000-011c89590282(jetbrains.mps.lang.core.behavior)" />
    <import index="bmr5" ref="6ed54515-acc8-4d1e-a16c-9fd6cfe951ea/java:jetbrains.mps.smodel.structure(MPS.Core/)" />
    <import index="90d" ref="r:421d64ed-8024-497f-aeab-8bddeb389dd2(jetbrains.mps.lang.extension.methods)" />
    <import index="tp2g" ref="r:00000000-0000-4000-0000-011c89590334(jetbrains.mps.baseLanguage.closures.constraints)" />
    <import index="fnmy" ref="r:89c0fb70-0977-4113-a076-5906f9d8630f(jetbrains.mps.baseLanguage.scopes)" />
    <import index="o8zo" ref="r:314576fc-3aee-4386-a0a5-a38348ac317d(jetbrains.mps.scope)" />
    <import index="6xgk" ref="r:6e9ad488-5df2-49e4-8c01-8a7f3812adf7(jetbrains.mps.lang.scopes.runtime)" />
    <import index="9nqt" ref="c7d5b9dd-a05f-4be2-bc73-f2e16994cc67/r:3d68296b-7ada-4491-8aa4-88e8ea6e4f67(jetbrains.mps.lang.classLike/jetbrains.mps.baseLanguage.lightweightdsl.behavior)" />
    <import index="oubp" ref="c7d5b9dd-a05f-4be2-bc73-f2e16994cc67/r:7cc2086d-c7d0-49c7-811c-ebbaf40d9195(jetbrains.mps.lang.classLike/jetbrains.mps.baseLanguage.lightweightdsl.structure)" />
    <import index="tpce" ref="r:00000000-0000-4000-0000-011c89590292(jetbrains.mps.lang.structure.structure)" implicit="true" />
  </imports>
  <registry>
    <language id="af65afd8-f0dd-4942-87d9-63a55f2a9db1" name="jetbrains.mps.lang.behavior">
      <concept id="1225194240794" name="jetbrains.mps.lang.behavior.structure.ConceptBehavior" flags="ng" index="13h7C7">
        <reference id="1225194240799" name="concept" index="13h7C2" />
        <child id="1225194240805" name="method" index="13h7CS" />
        <child id="1225194240801" name="constructor" index="13h7CW" />
      </concept>
      <concept id="1225194413805" name="jetbrains.mps.lang.behavior.structure.ConceptConstructorDeclaration" flags="in" index="13hLZK" />
      <concept id="1225194472830" name="jetbrains.mps.lang.behavior.structure.ConceptMethodDeclaration" flags="ng" index="13i0hz">
        <property id="5864038008284099149" name="isStatic" index="2Ki8OM" />
        <property id="1225194472833" name="isPrivate" index="13i0is" />
        <property id="1225194472832" name="isVirtual" index="13i0it" />
        <property id="1225194472834" name="isAbstract" index="13i0iv" />
        <reference id="1225194472831" name="overriddenMethod" index="13i0hy" />
      </concept>
      <concept id="1225194691553" name="jetbrains.mps.lang.behavior.structure.ThisNodeExpression" flags="nn" index="13iPFW" />
    </language>
    <language id="f3061a53-9226-4cc5-a443-f952ceaf5816" name="jetbrains.mps.baseLanguage">
      <concept id="1082485599095" name="jetbrains.mps.baseLanguage.structure.BlockStatement" flags="nn" index="9aQIb">
        <child id="1082485599096" name="statements" index="9aQI4" />
      </concept>
      <concept id="1215693861676" name="jetbrains.mps.baseLanguage.structure.BaseAssignmentExpression" flags="nn" index="d038R">
        <child id="1068498886297" name="rValue" index="37vLTx" />
        <child id="1068498886295" name="lValue" index="37vLTJ" />
      </concept>
      <concept id="1153417849900" name="jetbrains.mps.baseLanguage.structure.GreaterThanOrEqualsExpression" flags="nn" index="2d3UOw" />
      <concept id="1202948039474" name="jetbrains.mps.baseLanguage.structure.InstanceMethodCallOperation" flags="nn" index="liA8E" />
      <concept id="1188207840427" name="jetbrains.mps.baseLanguage.structure.AnnotationInstance" flags="nn" index="2AHcQZ">
        <reference id="1188208074048" name="annotation" index="2AI5Lk" />
      </concept>
      <concept id="1188208481402" name="jetbrains.mps.baseLanguage.structure.HasAnnotation" flags="ng" index="2AJDlI">
        <child id="1188208488637" name="annotation" index="2AJF6D" />
      </concept>
      <concept id="1224848483129" name="jetbrains.mps.baseLanguage.structure.IBLDeprecatable" flags="ng" index="IEa8$">
        <property id="1224848525476" name="isDeprecated" index="IEkAT" />
      </concept>
      <concept id="1197027756228" name="jetbrains.mps.baseLanguage.structure.DotExpression" flags="nn" index="2OqwBi">
        <child id="1197027771414" name="operand" index="2Oq$k0" />
        <child id="1197027833540" name="operation" index="2OqNvi" />
      </concept>
      <concept id="1137021947720" name="jetbrains.mps.baseLanguage.structure.ConceptFunction" flags="in" index="2VMwT0">
        <child id="1137022507850" name="body" index="2VODD2" />
      </concept>
      <concept id="1070475926800" name="jetbrains.mps.baseLanguage.structure.StringLiteral" flags="nn" index="Xl_RD">
        <property id="1070475926801" name="value" index="Xl_RC" />
      </concept>
      <concept id="1081236700937" name="jetbrains.mps.baseLanguage.structure.StaticMethodCall" flags="nn" index="2YIFZM">
        <reference id="1144433194310" name="classConcept" index="1Pybhc" />
      </concept>
      <concept id="1070534370425" name="jetbrains.mps.baseLanguage.structure.IntegerType" flags="in" index="10Oyi0" />
      <concept id="1070534644030" name="jetbrains.mps.baseLanguage.structure.BooleanType" flags="in" index="10P_77" />
      <concept id="1068431474542" name="jetbrains.mps.baseLanguage.structure.VariableDeclaration" flags="ng" index="33uBYm">
        <child id="1068431790190" name="initializer" index="33vP2m" />
      </concept>
      <concept id="1068498886296" name="jetbrains.mps.baseLanguage.structure.VariableReference" flags="nn" index="37vLTw">
        <reference id="1068581517664" name="variableDeclaration" index="3cqZAo" />
      </concept>
      <concept id="1068498886294" name="jetbrains.mps.baseLanguage.structure.AssignmentExpression" flags="nn" index="37vLTI" />
      <concept id="1225271177708" name="jetbrains.mps.baseLanguage.structure.StringType" flags="in" index="17QB3L" />
      <concept id="4972933694980447171" name="jetbrains.mps.baseLanguage.structure.BaseVariableDeclaration" flags="ng" index="19Szcq">
        <child id="5680397130376446158" name="type" index="1tU5fm" />
      </concept>
      <concept id="1068580123132" name="jetbrains.mps.baseLanguage.structure.BaseMethodDeclaration" flags="ng" index="3clF44">
        <child id="1068580123133" name="returnType" index="3clF45" />
        <child id="1068580123135" name="body" index="3clF47" />
      </concept>
      <concept id="1068580123155" name="jetbrains.mps.baseLanguage.structure.ExpressionStatement" flags="nn" index="3clFbF">
        <child id="1068580123156" name="expression" index="3clFbG" />
      </concept>
      <concept id="1068580123159" name="jetbrains.mps.baseLanguage.structure.IfStatement" flags="nn" index="3clFbJ">
        <child id="1082485599094" name="ifFalseStatement" index="9aQIa" />
        <child id="1068580123160" name="condition" index="3clFbw" />
        <child id="1068580123161" name="ifTrue" index="3clFbx" />
      </concept>
      <concept id="1068580123136" name="jetbrains.mps.baseLanguage.structure.StatementList" flags="sn" stub="5293379017992965193" index="3clFbS">
        <child id="1068581517665" name="statement" index="3cqZAp" />
      </concept>
      <concept id="1068580123137" name="jetbrains.mps.baseLanguage.structure.BooleanConstant" flags="nn" index="3clFbT">
        <property id="1068580123138" name="value" index="3clFbU" />
      </concept>
      <concept id="1068580320020" name="jetbrains.mps.baseLanguage.structure.IntegerConstant" flags="nn" index="3cmrfG">
        <property id="1068580320021" name="value" index="3cmrfH" />
      </concept>
      <concept id="1068581242875" name="jetbrains.mps.baseLanguage.structure.PlusExpression" flags="nn" index="3cpWs3" />
      <concept id="1068581242878" name="jetbrains.mps.baseLanguage.structure.ReturnStatement" flags="nn" index="3cpWs6">
        <child id="1068581517676" name="expression" index="3cqZAk" />
      </concept>
      <concept id="1068581242864" name="jetbrains.mps.baseLanguage.structure.LocalVariableDeclarationStatement" flags="nn" index="3cpWs8">
        <child id="1068581242865" name="localVariableDeclaration" index="3cpWs9" />
      </concept>
      <concept id="1068581242863" name="jetbrains.mps.baseLanguage.structure.LocalVariableDeclaration" flags="nr" index="3cpWsn" />
      <concept id="1068581517677" name="jetbrains.mps.baseLanguage.structure.VoidType" flags="in" index="3cqZAl" />
      <concept id="1204053956946" name="jetbrains.mps.baseLanguage.structure.IMethodCall" flags="ng" index="1ndlxa">
        <reference id="1068499141037" name="baseMethodDeclaration" index="37wK5l" />
        <child id="1068499141038" name="actualArgument" index="37wK5m" />
      </concept>
      <concept id="1107535904670" name="jetbrains.mps.baseLanguage.structure.ClassifierType" flags="in" index="3uibUv">
        <reference id="1107535924139" name="classifier" index="3uigEE" />
      </concept>
      <concept id="1081773326031" name="jetbrains.mps.baseLanguage.structure.BinaryOperation" flags="nn" index="3uHJSO">
        <child id="1081773367579" name="rightExpression" index="3uHU7w" />
        <child id="1081773367580" name="leftExpression" index="3uHU7B" />
      </concept>
      <concept id="1178549954367" name="jetbrains.mps.baseLanguage.structure.IVisible" flags="ng" index="1B3ioH">
        <child id="1178549979242" name="visibility" index="1B3o_S" />
      </concept>
      <concept id="1146644602865" name="jetbrains.mps.baseLanguage.structure.PublicVisibility" flags="nn" index="3Tm1VV" />
    </language>
    <language id="f2801650-65d5-424e-bb1b-463a8781b786" name="jetbrains.mps.baseLanguage.javadoc">
      <concept id="5349172909345501395" name="jetbrains.mps.baseLanguage.javadoc.structure.BaseDocComment" flags="ng" index="P$AiS">
        <child id="5383422241790532083" name="tags" index="3nqlJM" />
      </concept>
      <concept id="5349172909345532724" name="jetbrains.mps.baseLanguage.javadoc.structure.MethodDocComment" flags="ng" index="P$JXv" />
      <concept id="8465538089690331500" name="jetbrains.mps.baseLanguage.javadoc.structure.CommentLine" flags="ng" index="TZ5HA" />
      <concept id="8465538089690331492" name="jetbrains.mps.baseLanguage.javadoc.structure.DeprecatedBlockDocTag" flags="ng" index="TZ5HI">
        <child id="2667874559098216723" name="text" index="3HnX3l" />
      </concept>
    </language>
    <language id="3a13115c-633c-4c5c-bbcc-75c4219e9555" name="jetbrains.mps.lang.quotation">
      <concept id="1196350785113" name="jetbrains.mps.lang.quotation.structure.Quotation" flags="nn" index="2c44tf">
        <child id="1196350785114" name="quotedNode" index="2c44tc" />
      </concept>
    </language>
    <language id="7a5dda62-9140-4668-ab76-d5ed1746f2b2" name="jetbrains.mps.lang.typesystem">
      <concept id="1178870617262" name="jetbrains.mps.lang.typesystem.structure.CoerceExpression" flags="nn" index="1UaxmW">
        <child id="1178870894644" name="pattern" index="1Ub_4A" />
        <child id="1178870894645" name="nodeToCoerce" index="1Ub_4B" />
      </concept>
      <concept id="1174642788531" name="jetbrains.mps.lang.typesystem.structure.ConceptReference" flags="ig" index="1YaCAy">
        <reference id="1174642800329" name="concept" index="1YaFvo" />
      </concept>
    </language>
    <language id="7866978e-a0f0-4cc7-81bc-4d213d9375e1" name="jetbrains.mps.lang.smodel">
      <concept id="1177026924588" name="jetbrains.mps.lang.smodel.structure.RefConcept_Reference" flags="nn" index="chp4Y">
        <reference id="1177026940964" name="conceptDeclaration" index="cht4Q" />
      </concept>
      <concept id="1138411891628" name="jetbrains.mps.lang.smodel.structure.SNodeOperation" flags="nn" index="eCIE_">
        <child id="1144104376918" name="parameter" index="1xVPHs" />
      </concept>
      <concept id="1179409122411" name="jetbrains.mps.lang.smodel.structure.Node_ConceptMethodCall" flags="nn" index="2qgKlT" />
      <concept id="2396822768958367367" name="jetbrains.mps.lang.smodel.structure.AbstractTypeCastExpression" flags="nn" index="$5XWr">
        <reference id="6733348108486823428" name="concept" index="1m5ApE" />
        <child id="6733348108486823193" name="leftExpression" index="1m5AlR" />
      </concept>
      <concept id="1143234257716" name="jetbrains.mps.lang.smodel.structure.Node_GetModelOperation" flags="nn" index="I4A8Y" />
      <concept id="1145404486709" name="jetbrains.mps.lang.smodel.structure.SemanticDowncastExpression" flags="nn" index="2JrnkZ">
        <child id="1145404616321" name="leftExpression" index="2JrQYb" />
      </concept>
      <concept id="1171407110247" name="jetbrains.mps.lang.smodel.structure.Node_GetAncestorOperation" flags="nn" index="2Xjw5R" />
      <concept id="1139621453865" name="jetbrains.mps.lang.smodel.structure.Node_IsInstanceOfOperation" flags="nn" index="1mIQ4w">
        <child id="1177027386292" name="conceptArgument" index="cj9EA" />
      </concept>
      <concept id="1144101972840" name="jetbrains.mps.lang.smodel.structure.OperationParm_Concept" flags="ng" index="1xMEDy">
        <child id="1207343664468" name="conceptArgument" index="ri$Ld" />
      </concept>
      <concept id="1219352745532" name="jetbrains.mps.lang.smodel.structure.NodeRefExpression" flags="nn" index="3B5_sB">
        <reference id="1219352800908" name="referentNode" index="3B5MYn" />
      </concept>
      <concept id="1172323065820" name="jetbrains.mps.lang.smodel.structure.Node_GetConceptOperation" flags="nn" index="3NT_Vc" />
      <concept id="1140137987495" name="jetbrains.mps.lang.smodel.structure.SNodeTypeCastExpression" flags="nn" index="1PxgMI" />
      <concept id="1138055754698" name="jetbrains.mps.lang.smodel.structure.SNodeType" flags="in" index="3Tqbb2">
        <reference id="1138405853777" name="concept" index="ehGHo" />
      </concept>
      <concept id="1138056022639" name="jetbrains.mps.lang.smodel.structure.SPropertyAccess" flags="nn" index="3TrcHB">
        <reference id="1138056395725" name="property" index="3TsBF5" />
      </concept>
      <concept id="1138056143562" name="jetbrains.mps.lang.smodel.structure.SLinkAccess" flags="nn" index="3TrEf2">
        <reference id="1138056516764" name="link" index="3Tt5mk" />
      </concept>
    </language>
    <language id="ceab5195-25ea-4f22-9b92-103b95ca8c0c" name="jetbrains.mps.lang.core">
      <concept id="1133920641626" name="jetbrains.mps.lang.core.structure.BaseConcept" flags="ng" index="2VYdi">
        <child id="5169995583184591170" name="smodelAttribute" index="lGtFl" />
      </concept>
      <concept id="1169194658468" name="jetbrains.mps.lang.core.structure.INamedConcept" flags="ng" index="TrEIO">
        <property id="1169194664001" name="name" index="TrG5h" />
      </concept>
    </language>
  </registry>
  <node concept="13h7C7" id="3vRuGRRXlg">
    <ref role="13h7C2" to="v54s:3f064wGFUBm" resolve="ExtensionPointDeclaration" />
    <node concept="13i0hz" id="5Sg$D5FMgdu" role="13h7CS">
      <property role="TrG5h" value="getObjectClassifierType" />
      <property role="IEkAT" value="false" />
      <node concept="3Tm1VV" id="5Sg$D5FMgdv" role="1B3o_S" />
      <node concept="3Tqbb2" id="5Sg$D5FMgec" role="3clF45">
        <ref role="ehGHo" to="tpee:g7uibYu" resolve="ClassifierType" />
      </node>
      <node concept="3clFbS" id="5Sg$D5FMgdx" role="3clF47">
        <node concept="3clFbJ" id="5Sg$D5FMgdI" role="3cqZAp">
          <node concept="3clFbS" id="5Sg$D5FMgdJ" role="3clFbx">
            <node concept="3cpWs6" id="5Sg$D5FMgdK" role="3cqZAp">
              <node concept="1PxgMI" id="5Sg$D5FMgdL" role="3cqZAk">
                <ref role="1m5ApE" to="tpee:g7uibYu" resolve="ClassifierType" />
                <node concept="2OqwBi" id="5Sg$D5FMge6" role="1m5AlR">
                  <node concept="13iPFW" id="5Sg$D5FMge7" role="2Oq$k0" />
                  <node concept="3TrEf2" id="5Sg$D5FMge8" role="2OqNvi">
                    <ref role="3Tt5mk" to="v54s:6XJvNHU5VOb" />
                  </node>
                </node>
              </node>
            </node>
          </node>
          <node concept="2OqwBi" id="5Sg$D5FMgdN" role="3clFbw">
            <node concept="2OqwBi" id="5Sg$D5FMge0" role="2Oq$k0">
              <node concept="13iPFW" id="5Sg$D5FMgdX" role="2Oq$k0" />
              <node concept="3TrEf2" id="5Sg$D5FMge5" role="2OqNvi">
                <ref role="3Tt5mk" to="v54s:6XJvNHU5VOb" />
              </node>
            </node>
            <node concept="1mIQ4w" id="5Sg$D5FMgdP" role="2OqNvi">
              <node concept="chp4Y" id="5Sg$D5FMgdQ" role="cj9EA">
                <ref role="cht4Q" to="tp68:h6eloLH" resolve="InternalClassifierType" />
              </node>
            </node>
          </node>
          <node concept="9aQIb" id="5Sg$D5FMgdR" role="9aQIa">
            <node concept="3clFbS" id="5Sg$D5FMgdS" role="9aQI4">
              <node concept="3cpWs6" id="5Sg$D5FMgdT" role="3cqZAp">
                <node concept="1UaxmW" id="5Sg$D5FMgdU" role="3cqZAk">
                  <node concept="1YaCAy" id="5Sg$D5FMgdW" role="1Ub_4A">
                    <property role="TrG5h" value="classifierType" />
                    <ref role="1YaFvo" to="tpee:g7uibYu" resolve="ClassifierType" />
                  </node>
                  <node concept="2OqwBi" id="5Sg$D5FMge9" role="1Ub_4B">
                    <node concept="13iPFW" id="5Sg$D5FMgea" role="2Oq$k0" />
                    <node concept="3TrEf2" id="5Sg$D5FMgeb" role="2OqNvi">
                      <ref role="3Tt5mk" to="v54s:6XJvNHU5VOb" />
                    </node>
                  </node>
                </node>
              </node>
            </node>
          </node>
        </node>
      </node>
      <node concept="P$JXv" id="aRphP9Vw$f" role="lGtFl">
        <node concept="TZ5HI" id="aRphP9Vw$g" role="3nqlJM">
          <node concept="TZ5HA" id="aRphP9Vw$h" role="3HnX3l" />
        </node>
      </node>
      <node concept="2AHcQZ" id="aRphP9Vw$i" role="2AJF6D">
        <ref role="2AI5Lk" to="wyt6:~Deprecated" resolve="Deprecated" />
      </node>
    </node>
    <node concept="13hLZK" id="3vRuGRRXlh" role="13h7CW">
      <node concept="3clFbS" id="3vRuGRRXli" role="2VODD2" />
    </node>
  </node>
  <node concept="13h7C7" id="6XJvNHU5VO0">
    <ref role="13h7C2" to="v54s:6XJvNHU5Sl_" resolve="ExtensionObjectGetter" />
    <node concept="13hLZK" id="6XJvNHU5VO1" role="13h7CW">
      <node concept="3clFbS" id="6XJvNHU5VO2" role="2VODD2" />
    </node>
    <node concept="13i0hz" id="6XJvNHU5VO3" role="13h7CS">
      <property role="13i0iv" value="false" />
      <property role="13i0is" value="false" />
      <property role="TrG5h" value="getExpectedReturnType" />
      <property role="13i0it" value="false" />
      <ref role="13i0hy" to="tpek:hEwIGRD" resolve="getExpectedReturnType" />
      <node concept="3Tm1VV" id="6XJvNHU5VO4" role="1B3o_S" />
      <node concept="3clFbS" id="6XJvNHU5VO5" role="3clF47">
        <node concept="3clFbF" id="6j5CbT7vrfg" role="3cqZAp">
          <node concept="2OqwBi" id="6j5CbT7vrfF" role="3clFbG">
            <node concept="2OqwBi" id="6j5CbT7vrfy" role="2Oq$k0">
              <node concept="2OqwBi" id="6j5CbT7vrfk" role="2Oq$k0">
                <node concept="13iPFW" id="6j5CbT7vrfh" role="2Oq$k0" />
                <node concept="2Xjw5R" id="6j5CbT7vrfr" role="2OqNvi">
                  <node concept="1xMEDy" id="6j5CbT7vrfs" role="1xVPHs">
                    <node concept="chp4Y" id="6j5CbT7vrfv" role="ri$Ld">
                      <ref role="cht4Q" to="v54s:3f064wGFUBk" resolve="ExtensionDeclaration" />
                    </node>
                  </node>
                </node>
              </node>
              <node concept="3TrEf2" id="6j5CbT7vrfB" role="2OqNvi">
                <ref role="3Tt5mk" to="v54s:3f064wGFUBl" />
              </node>
            </node>
            <node concept="3TrEf2" id="6j5CbT7vrfL" role="2OqNvi">
              <ref role="3Tt5mk" to="v54s:6XJvNHU5VOb" />
            </node>
          </node>
        </node>
      </node>
      <node concept="3Tqbb2" id="6XJvNHU5VO6" role="3clF45" />
    </node>
    <node concept="13i0hz" id="6j5CbT7vrku" role="13h7CS">
      <property role="TrG5h" value="getReturnClassifierType" />
      <node concept="3Tm1VV" id="6j5CbT7vrkv" role="1B3o_S" />
      <node concept="3Tqbb2" id="6j5CbT7vrky" role="3clF45">
        <ref role="ehGHo" to="tpee:g7uibYu" resolve="ClassifierType" />
      </node>
      <node concept="3clFbS" id="6j5CbT7vrkx" role="3clF47">
        <node concept="3clFbF" id="5Sg$D5FMgef" role="3cqZAp">
          <node concept="2OqwBi" id="5Sg$D5FMgeG" role="3clFbG">
            <node concept="2OqwBi" id="5Sg$D5FMgex" role="2Oq$k0">
              <node concept="2OqwBi" id="5Sg$D5FMgej" role="2Oq$k0">
                <node concept="13iPFW" id="5Sg$D5FMgeg" role="2Oq$k0" />
                <node concept="2Xjw5R" id="5Sg$D5FMgep" role="2OqNvi">
                  <node concept="1xMEDy" id="5Sg$D5FMgeq" role="1xVPHs">
                    <node concept="chp4Y" id="5Sg$D5FMgeu" role="ri$Ld">
                      <ref role="cht4Q" to="v54s:3f064wGFUBk" resolve="ExtensionDeclaration" />
                    </node>
                  </node>
                </node>
              </node>
              <node concept="3TrEf2" id="5Sg$D5FMgeC" role="2OqNvi">
                <ref role="3Tt5mk" to="v54s:3f064wGFUBl" />
              </node>
            </node>
            <node concept="2qgKlT" id="5Sg$D5FMgeM" role="2OqNvi">
              <ref role="37wK5l" node="5Sg$D5FMgdu" resolve="getObjectClassifierType" />
            </node>
          </node>
        </node>
      </node>
    </node>
  </node>
  <node concept="13h7C7" id="5JRjEZJSeHN">
    <ref role="13h7C2" to="v54s:5JRjEZJSe_0" resolve="ExtensionPointExpression" />
    <node concept="13hLZK" id="5JRjEZJSeHO" role="13h7CW">
      <node concept="3clFbS" id="5JRjEZJSeHP" role="2VODD2" />
    </node>
    <node concept="13i0hz" id="5JRjEZJSeK4" role="13h7CS">
      <property role="13i0iv" value="false" />
      <property role="13i0is" value="false" />
      <property role="TrG5h" value="getPresentation" />
      <property role="13i0it" value="false" />
      <ref role="13i0hy" to="tpcu:hEwIMiw" resolve="getPresentation" />
      <node concept="3Tm1VV" id="5JRjEZJSeK5" role="1B3o_S" />
      <node concept="3clFbS" id="5JRjEZJSeK6" role="3clF47">
        <node concept="3clFbF" id="5JRjEZJSfjw" role="3cqZAp">
          <node concept="3cpWs3" id="5JRjEZJSfkn" role="3clFbG">
            <node concept="Xl_RD" id="5JRjEZJSfkq" role="3uHU7w">
              <property role="Xl_RC" value="/" />
            </node>
            <node concept="3cpWs3" id="5JRjEZJSfjP" role="3uHU7B">
              <node concept="3cpWs3" id="5JRjEZJSfjJ" role="3uHU7B">
                <node concept="2OqwBi" id="2wdLO7Ke40n" role="3uHU7B">
                  <node concept="3TrcHB" id="2wdLO7Ke40o" role="2OqNvi">
                    <ref role="3TsBF5" to="tpce:4qF2Hm2r7ja" resolve="conceptAlias" />
                  </node>
                  <node concept="2OqwBi" id="2wdLO7Ke40p" role="2Oq$k0">
                    <node concept="3NT_Vc" id="2wdLO7Ke40q" role="2OqNvi" />
                    <node concept="13iPFW" id="2wdLO7Ke40r" role="2Oq$k0" />
                  </node>
                </node>
                <node concept="Xl_RD" id="5JRjEZJSfjM" role="3uHU7w">
                  <property role="Xl_RC" value="/" />
                </node>
              </node>
              <node concept="2OqwBi" id="5JRjEZJSfkd" role="3uHU7w">
                <node concept="2OqwBi" id="5JRjEZJSfk4" role="2Oq$k0">
                  <node concept="13iPFW" id="5JRjEZJSfjT" role="2Oq$k0" />
                  <node concept="3TrEf2" id="5JRjEZJSfk9" role="2OqNvi">
                    <ref role="3Tt5mk" to="v54s:5JRjEZJSeHl" />
                  </node>
                </node>
                <node concept="3TrcHB" id="5JRjEZJSfkj" role="2OqNvi">
                  <ref role="3TsBF5" to="tpck:h0TrG11" resolve="name" />
                </node>
              </node>
            </node>
          </node>
        </node>
      </node>
      <node concept="17QB3L" id="5JRjEZJSeK7" role="3clF45" />
    </node>
  </node>
  <node concept="13h7C7" id="4y_vFkED6Yg">
    <ref role="13h7C2" to="v54s:3f064wGFUBk" resolve="ExtensionDeclaration" />
    <node concept="13i0hz" id="4y_vFkED6Yj" role="13h7CS">
      <property role="TrG5h" value="getJavaName" />
      <node concept="3Tm1VV" id="4y_vFkED6Yk" role="1B3o_S" />
      <node concept="17QB3L" id="4y_vFkED7xF" role="3clF45" />
      <node concept="3clFbS" id="4y_vFkED6Ym" role="3clF47">
        <node concept="3clFbF" id="3vRuGRS5eW" role="3cqZAp">
          <node concept="3cpWs3" id="3vRuGRS5eX" role="3clFbG">
            <node concept="2YIFZM" id="3vRuGRS5eY" role="3uHU7w">
              <ref role="37wK5l" to="18ew:~NameUtil.toValidIdentifier(java.lang.String):java.lang.String" resolve="toValidIdentifier" />
              <ref role="1Pybhc" to="18ew:~NameUtil" resolve="NameUtil" />
              <node concept="2OqwBi" id="3vRuGRS5eZ" role="37wK5m">
                <node concept="2OqwBi" id="3vRuGRS5f0" role="2Oq$k0">
                  <node concept="13iPFW" id="4y_vFkED7zy" role="2Oq$k0" />
                  <node concept="3TrEf2" id="3vRuGRS5f2" role="2OqNvi">
                    <ref role="3Tt5mk" to="v54s:3f064wGFUBl" />
                  </node>
                </node>
                <node concept="3TrcHB" id="4y_vFkED6Yf" role="2OqNvi">
                  <ref role="3TsBF5" to="v54s:58aSpRitLIm" resolve="extensionName" />
                </node>
              </node>
            </node>
            <node concept="Xl_RD" id="3vRuGRS5f4" role="3uHU7B">
              <property role="Xl_RC" value="Extension_" />
            </node>
          </node>
        </node>
      </node>
    </node>
    <node concept="13hLZK" id="4y_vFkED6Yh" role="13h7CW">
      <node concept="3clFbS" id="4y_vFkED6Yi" role="2VODD2" />
    </node>
  </node>
  <node concept="13h7C7" id="2KgYA8kbFkV">
    <ref role="13h7C2" to="v54s:2KgYA8kbFkS" resolve="ExtensionPointType" />
    <node concept="13hLZK" id="2KgYA8kbFkW" role="13h7CW">
      <node concept="3clFbS" id="2KgYA8kbFkX" role="2VODD2" />
    </node>
    <node concept="13i0hz" id="2KgYA8kbGNH" role="13h7CS">
      <property role="13i0iv" value="false" />
      <property role="13i0is" value="false" />
      <property role="TrG5h" value="getPresentation" />
      <property role="13i0it" value="false" />
      <ref role="13i0hy" to="tpcu:hEwIMiw" resolve="getPresentation" />
      <node concept="3Tm1VV" id="2KgYA8kbGNI" role="1B3o_S" />
      <node concept="3clFbS" id="2KgYA8kbGNJ" role="3clF47">
        <node concept="3clFbF" id="2KgYA8kbGNR" role="3cqZAp">
          <node concept="3cpWs3" id="2KgYA8kbGOF" role="3clFbG">
            <node concept="Xl_RD" id="2KgYA8kbGOI" role="3uHU7w">
              <property role="Xl_RC" value="/" />
            </node>
            <node concept="3cpWs3" id="2KgYA8kbGOi" role="3uHU7B">
              <node concept="3cpWs3" id="2KgYA8kbGOc" role="3uHU7B">
                <node concept="2OqwBi" id="2wdLO7Kf0yO" role="3uHU7B">
                  <node concept="3TrcHB" id="2wdLO7Kf0yP" role="2OqNvi">
                    <ref role="3TsBF5" to="tpce:4qF2Hm2r7ja" resolve="conceptAlias" />
                  </node>
                  <node concept="2OqwBi" id="2wdLO7Kf0yQ" role="2Oq$k0">
                    <node concept="3NT_Vc" id="2wdLO7Kf0yR" role="2OqNvi" />
                    <node concept="13iPFW" id="2wdLO7Kf0yS" role="2Oq$k0" />
                  </node>
                </node>
                <node concept="Xl_RD" id="2KgYA8kbGOf" role="3uHU7w">
                  <property role="Xl_RC" value="/" />
                </node>
              </node>
              <node concept="2OqwBi" id="2KgYA8kbGOx" role="3uHU7w">
                <node concept="2OqwBi" id="2KgYA8kbGOo" role="2Oq$k0">
                  <node concept="13iPFW" id="2KgYA8kbGOl" role="2Oq$k0" />
                  <node concept="3TrEf2" id="2KgYA8kbGOt" role="2OqNvi">
                    <ref role="3Tt5mk" to="v54s:2KgYA8kbFkT" />
                  </node>
                </node>
                <node concept="3TrcHB" id="aRphP9WKMZ" role="2OqNvi">
                  <ref role="3TsBF5" to="tpck:h0TrG11" resolve="name" />
                </node>
              </node>
            </node>
          </node>
        </node>
      </node>
      <node concept="17QB3L" id="2KgYA8kbGNK" role="3clF45" />
    </node>
  </node>
  <node concept="13h7C7" id="1653mnvB6$Z">
    <ref role="13h7C2" to="v54s:66AaOfxkOUu" resolve="ExtensionFieldReference" />
    <node concept="13hLZK" id="1653mnvB6_0" role="13h7CW">
      <node concept="3clFbS" id="1653mnvB6_1" role="2VODD2" />
    </node>
    <node concept="13i0hz" id="1653mnvB6$U" role="13h7CS">
      <property role="2Ki8OM" value="true" />
      <property role="13i0is" value="false" />
      <property role="TrG5h" value="lvalue" />
      <property role="13i0it" value="false" />
      <ref role="13i0hy" to="tpek:1653mnvAgpj" resolve="lvalue" />
      <node concept="3Tm1VV" id="1653mnvB6$V" role="1B3o_S" />
      <node concept="10P_77" id="1653mnvB6$T" role="3clF45" />
      <node concept="3clFbS" id="1653mnvB6$W" role="3clF47">
        <node concept="3cpWs6" id="1653mnvB6$X" role="3cqZAp">
          <node concept="3clFbT" id="1653mnvB6$Y" role="3cqZAk">
            <property role="3clFbU" value="true" />
          </node>
        </node>
      </node>
    </node>
  </node>
  <node concept="13h7C7" id="$yZ68hB4_I">
    <ref role="13h7C2" to="v54s:66AaOfxk_fJ" resolve="ExtensionFunction" />
    <node concept="13hLZK" id="$yZ68hB4_J" role="13h7CW">
      <node concept="3clFbS" id="$yZ68hB4_K" role="2VODD2" />
    </node>
    <node concept="13i0hz" id="$yZ68hB4Cz" role="13h7CS">
      <property role="13i0is" value="false" />
      <property role="TrG5h" value="getExpectedReturnType" />
      <property role="13i0it" value="false" />
      <property role="13i0iv" value="false" />
      <ref role="13i0hy" to="tpek:hEwIGRD" resolve="getExpectedReturnType" />
      <node concept="3Tm1VV" id="$yZ68hB4C$" role="1B3o_S" />
      <node concept="3clFbS" id="$yZ68hB4C_" role="3clF47">
        <node concept="3cpWs6" id="$yZ68hB4CA" role="3cqZAp">
          <node concept="2c44tf" id="$yZ68hB4Cy" role="3cqZAk">
            <node concept="3cqZAl" id="66AaOfxk_fP" role="2c44tc" />
          </node>
        </node>
      </node>
      <node concept="3Tqbb2" id="$yZ68hB4CB" role="3clF45" />
    </node>
  </node>
  <node concept="13h7C7" id="aRphP9VDR5">
    <ref role="13h7C2" to="v54s:aRphP9VDPM" resolve="IRootWithUniqueName" />
    <node concept="13i0hz" id="3vRuGRRXlj" role="13h7CS">
      <property role="TrG5h" value="getId" />
      <node concept="3Tm1VV" id="3vRuGRRXlk" role="1B3o_S" />
      <node concept="17QB3L" id="3vRuGRRXln" role="3clF45" />
      <node concept="3clFbS" id="3vRuGRRXlm" role="3clF47">
        <node concept="3cpWs8" id="3vRuGRSaFL" role="3cqZAp">
          <node concept="3cpWsn" id="3vRuGRSaFM" role="3cpWs9">
            <property role="TrG5h" value="module" />
            <node concept="2OqwBi" id="256tImPkKBn" role="33vP2m">
              <node concept="2JrnkZ" id="256tImPkKBq" role="2Oq$k0">
                <node concept="2OqwBi" id="256tImPkKBr" role="2JrQYb">
                  <node concept="13iPFW" id="256tImPkKBs" role="2Oq$k0" />
                  <node concept="I4A8Y" id="256tImPkKBt" role="2OqNvi" />
                </node>
              </node>
              <node concept="liA8E" id="256tImPkKBo" role="2OqNvi">
                <ref role="37wK5l" to="mhbf:~SModel.getModule():org.jetbrains.mps.openapi.module.SModule" resolve="getModule" />
              </node>
            </node>
            <node concept="3uibUv" id="3vRuGRSaFN" role="1tU5fm">
              <ref role="3uigEE" to="lui2:~SModule" resolve="SModule" />
            </node>
          </node>
        </node>
        <node concept="3cpWs8" id="3vRuGRSbg7" role="3cqZAp">
          <node concept="3cpWsn" id="3vRuGRSbg8" role="3cpWs9">
            <property role="TrG5h" value="moduleFqName" />
            <node concept="2OqwBi" id="75gf1bhG9b4" role="33vP2m">
              <node concept="liA8E" id="75gf1bhG9b5" role="2OqNvi">
                <ref role="37wK5l" to="lui2:~SModule.getModuleName():java.lang.String" resolve="getModuleName" />
              </node>
              <node concept="37vLTw" id="3GM_nagT_$0" role="2Oq$k0">
                <ref role="3cqZAo" node="3vRuGRSaFM" resolve="module" />
              </node>
            </node>
            <node concept="3uibUv" id="3vRuGRSbg9" role="1tU5fm">
              <ref role="3uigEE" to="wyt6:~String" resolve="String" />
            </node>
          </node>
        </node>
        <node concept="3cpWs8" id="3vRuGRSbgu" role="3cqZAp">
          <node concept="3cpWsn" id="3vRuGRSbgv" role="3cpWs9">
            <property role="TrG5h" value="atIdx" />
            <node concept="10Oyi0" id="3vRuGRSbgw" role="1tU5fm" />
            <node concept="2OqwBi" id="3vRuGRSbgx" role="33vP2m">
              <node concept="37vLTw" id="3GM_nagTt$O" role="2Oq$k0">
                <ref role="3cqZAo" node="3vRuGRSbg8" resolve="moduleFqName" />
              </node>
              <node concept="liA8E" id="3vRuGRSbgz" role="2OqNvi">
                <ref role="37wK5l" to="wyt6:~String.indexOf(java.lang.String):int" resolve="indexOf" />
                <node concept="Xl_RD" id="3vRuGRSbg$" role="37wK5m">
                  <property role="Xl_RC" value="@" />
                </node>
              </node>
            </node>
          </node>
        </node>
        <node concept="3clFbJ" id="3vRuGRSbgG" role="3cqZAp">
          <node concept="3clFbS" id="3vRuGRSbgH" role="3clFbx">
            <node concept="3clFbF" id="3vRuGRSbgX" role="3cqZAp">
              <node concept="37vLTI" id="3vRuGRSbh1" role="3clFbG">
                <node concept="2OqwBi" id="3vRuGRSbh8" role="37vLTx">
                  <node concept="37vLTw" id="3GM_nagTxPV" role="2Oq$k0">
                    <ref role="3cqZAo" node="3vRuGRSbg8" resolve="moduleFqName" />
                  </node>
                  <node concept="liA8E" id="3vRuGRSbhe" role="2OqNvi">
                    <ref role="37wK5l" to="wyt6:~String.substring(int,int):java.lang.String" resolve="substring" />
                    <node concept="3cmrfG" id="3vRuGRSbhf" role="37wK5m">
                      <property role="3cmrfH" value="0" />
                    </node>
                    <node concept="37vLTw" id="3GM_nagT$Xw" role="37wK5m">
                      <ref role="3cqZAo" node="3vRuGRSbgv" resolve="atIdx" />
                    </node>
                  </node>
                </node>
                <node concept="37vLTw" id="3GM_nagTA8O" role="37vLTJ">
                  <ref role="3cqZAo" node="3vRuGRSbg8" resolve="moduleFqName" />
                </node>
              </node>
            </node>
          </node>
          <node concept="2d3UOw" id="3vRuGRSbgT" role="3clFbw">
            <node concept="3cmrfG" id="3vRuGRSbgW" role="3uHU7w">
              <property role="3cmrfH" value="0" />
            </node>
            <node concept="37vLTw" id="3GM_nagTugA" role="3uHU7B">
              <ref role="3cqZAo" node="3vRuGRSbgv" resolve="atIdx" />
            </node>
          </node>
        </node>
        <node concept="3clFbF" id="3vRuGRRXlo" role="3cqZAp">
          <node concept="3cpWs3" id="3vRuGRRYJ3" role="3clFbG">
            <node concept="2OqwBi" id="3vRuGRRYJ9" role="3uHU7w">
              <node concept="13iPFW" id="3vRuGRRYJ6" role="2Oq$k0" />
              <node concept="3TrcHB" id="aRphP9VT6y" role="2OqNvi">
                <ref role="3TsBF5" to="tpck:h0TrG11" resolve="name" />
              </node>
            </node>
            <node concept="3cpWs3" id="3vRuGRRYIX" role="3uHU7B">
              <node concept="37vLTw" id="3GM_nagTxFw" role="3uHU7B">
                <ref role="3cqZAo" node="3vRuGRSbg8" resolve="moduleFqName" />
              </node>
              <node concept="Xl_RD" id="3vRuGRRYJ0" role="3uHU7w">
                <property role="Xl_RC" value="." />
              </node>
            </node>
          </node>
        </node>
      </node>
    </node>
    <node concept="13hLZK" id="aRphP9VDR6" role="13h7CW">
      <node concept="3clFbS" id="aRphP9VDR7" role="2VODD2" />
    </node>
  </node>
  <node concept="13h7C7" id="UBgfI9ge6e">
    <ref role="13h7C2" to="v54s:7335HkeYeM" resolve="Extension" />
    <node concept="13i0hz" id="UBgfI9gdE3" role="13h7CS">
      <property role="13i0iv" value="false" />
      <property role="13i0it" value="false" />
      <property role="TrG5h" value="getDescriptor" />
      <ref role="13i0hy" to="9nqt:UBgfI9eMAt" resolve="getDescriptor" />
      <node concept="3Tm1VV" id="UBgfI9gdE4" role="1B3o_S" />
      <node concept="3clFbS" id="UBgfI9gdE7" role="3clF47">
        <node concept="3cpWs6" id="UBgfI9gdWW" role="3cqZAp">
          <node concept="3B5_sB" id="UBgfI9gdWX" role="3cqZAk">
            <ref role="3B5MYn" to="90d:3zLwYDe0svo" resolve="Extension" />
          </node>
        </node>
      </node>
      <node concept="3Tqbb2" id="UBgfI9gdE8" role="3clF45">
        <ref role="ehGHo" to="oubp:3geGFOI0X5w" resolve="DSLDescriptor" />
      </node>
    </node>
    <node concept="13hLZK" id="UBgfI9ge6f" role="13h7CW">
      <node concept="3clFbS" id="UBgfI9ge6g" role="2VODD2" />
    </node>
  </node>
</model>

