<?xml version="1.0" encoding="UTF-8"?>
<model ref="r:322cf3da-5abf-4bd1-9dec-f21af259347a(jetbrains.mps.lang.extension.editor)">
  <persistence version="9" />
  <languages>
    <use id="18bc6592-03a6-4e29-a83a-7ff23bde13ba" name="jetbrains.mps.lang.editor" version="3" />
    <devkit ref="fbc25dd2-5da4-483a-8b19-70928e1b62d7(jetbrains.mps.devkit.general-purpose)" />
  </languages>
  <imports>
    <import index="v54s" ref="r:2a0fe383-d602-4f5b-813c-e41afdbbb97e(jetbrains.mps.lang.extension.structure)" />
    <import index="tpen" ref="r:00000000-0000-4000-0000-011c895902c3(jetbrains.mps.baseLanguage.editor)" />
    <import index="tpco" ref="r:00000000-0000-4000-0000-011c89590284(jetbrains.mps.lang.core.editor)" />
    <import index="w0jm" ref="r:d209fa1f-db47-4e3b-92ec-6c4d44d11cab(jetbrains.mps.lang.extension.behavior)" />
    <import index="tpck" ref="r:00000000-0000-4000-0000-011c89590288(jetbrains.mps.lang.core.structure)" implicit="true" />
  </imports>
  <registry>
    <language id="18bc6592-03a6-4e29-a83a-7ff23bde13ba" name="jetbrains.mps.lang.editor">
      <concept id="1071666914219" name="jetbrains.mps.lang.editor.structure.ConceptEditorDeclaration" flags="ig" index="24kQdi">
        <child id="1078153129734" name="inspectedCellModel" index="6VMZX" />
      </concept>
      <concept id="1140524381322" name="jetbrains.mps.lang.editor.structure.CellModel_ListWithRole" flags="ng" index="2czfm3">
        <child id="1140524464360" name="cellLayout" index="2czzBx" />
        <child id="1140524464359" name="emptyCellModel" index="2czzBI" />
      </concept>
      <concept id="1106270549637" name="jetbrains.mps.lang.editor.structure.CellLayout_Horizontal" flags="nn" index="2iRfu4" />
      <concept id="1106270571710" name="jetbrains.mps.lang.editor.structure.CellLayout_Vertical" flags="nn" index="2iRkQZ" />
      <concept id="1237303669825" name="jetbrains.mps.lang.editor.structure.CellLayout_Indent" flags="nn" index="l2Vlx" />
      <concept id="1237307900041" name="jetbrains.mps.lang.editor.structure.IndentLayoutIndentStyleClassItem" flags="ln" index="lj46D" />
      <concept id="1237308012275" name="jetbrains.mps.lang.editor.structure.IndentLayoutNewLineStyleClassItem" flags="ln" index="ljvvj" />
      <concept id="1142886221719" name="jetbrains.mps.lang.editor.structure.QueryFunction_NodeCondition" flags="in" index="pkWqt" />
      <concept id="1142886811589" name="jetbrains.mps.lang.editor.structure.ConceptFunctionParameter_node" flags="nn" index="pncrf" />
      <concept id="1237385578942" name="jetbrains.mps.lang.editor.structure.IndentLayoutOnNewLineStyleClassItem" flags="ln" index="pVoyu" />
      <concept id="1080736578640" name="jetbrains.mps.lang.editor.structure.BaseEditorComponent" flags="ig" index="2wURMF">
        <child id="1080736633877" name="cellModel" index="2wV5jI" />
      </concept>
      <concept id="1078939183254" name="jetbrains.mps.lang.editor.structure.CellModel_Component" flags="sg" stub="3162947552742194261" index="PMmxH">
        <reference id="1078939183255" name="editorComponent" index="PMmxG" />
      </concept>
      <concept id="1186414536763" name="jetbrains.mps.lang.editor.structure.BooleanStyleSheetItem" flags="ln" index="VOi$J">
        <property id="1186414551515" name="flag" index="VOm3f" />
      </concept>
      <concept id="1233758997495" name="jetbrains.mps.lang.editor.structure.PunctuationLeftStyleClassItem" flags="ln" index="11L4FC" />
      <concept id="1233759184865" name="jetbrains.mps.lang.editor.structure.PunctuationRightStyleClassItem" flags="ln" index="11LMrY" />
      <concept id="1088013125922" name="jetbrains.mps.lang.editor.structure.CellModel_RefCell" flags="sg" stub="730538219795941030" index="1iCGBv">
        <child id="1088186146602" name="editorComponent" index="1sWHZn" />
      </concept>
      <concept id="1381004262292414836" name="jetbrains.mps.lang.editor.structure.ICellStyle" flags="ng" index="1k5N5V">
        <reference id="1381004262292426837" name="parentStyleClass" index="1k5W1q" />
      </concept>
      <concept id="1088185857835" name="jetbrains.mps.lang.editor.structure.InlineEditorComponent" flags="ig" index="1sVBvm" />
      <concept id="1215007762405" name="jetbrains.mps.lang.editor.structure.FloatStyleClassItem" flags="ln" index="3$6MrZ">
        <property id="1215007802031" name="value" index="3$6WeP" />
      </concept>
      <concept id="1215007883204" name="jetbrains.mps.lang.editor.structure.PaddingLeftStyleClassItem" flags="ln" index="3$7fVu" />
      <concept id="1215007897487" name="jetbrains.mps.lang.editor.structure.PaddingRightStyleClassItem" flags="ln" index="3$7jql" />
      <concept id="1139848536355" name="jetbrains.mps.lang.editor.structure.CellModel_WithRole" flags="ng" index="1$h60E">
        <property id="1214560368769" name="emptyNoTargetText" index="39s7Ar" />
        <property id="1139852716018" name="noTargetText" index="1$x2rV" />
        <property id="1140017977771" name="readOnly" index="1Intyy" />
        <reference id="1140103550593" name="relationDeclaration" index="1NtTu8" />
      </concept>
      <concept id="1073389214265" name="jetbrains.mps.lang.editor.structure.EditorCellModel" flags="ng" index="3EYTF0">
        <property id="1130859485024" name="attractsFocus" index="1cu_pB" />
      </concept>
      <concept id="1073389446423" name="jetbrains.mps.lang.editor.structure.CellModel_Collection" flags="sn" stub="3013115976261988961" index="3EZMnI">
        <child id="1106270802874" name="cellLayout" index="2iSdaV" />
        <child id="1073389446424" name="childCellModel" index="3EZMnx" />
      </concept>
      <concept id="1073389577006" name="jetbrains.mps.lang.editor.structure.CellModel_Constant" flags="sn" stub="3610246225209162225" index="3F0ifn">
        <property id="1082639509531" name="nullText" index="ilYzB" />
        <property id="1073389577007" name="text" index="3F0ifm" />
      </concept>
      <concept id="1073389658414" name="jetbrains.mps.lang.editor.structure.CellModel_Property" flags="sg" stub="730538219796134133" index="3F0A7n" />
      <concept id="1219418625346" name="jetbrains.mps.lang.editor.structure.IStyleContainer" flags="ng" index="3F0Thp">
        <child id="1219418656006" name="styleItem" index="3F10Kt" />
      </concept>
      <concept id="1073389882823" name="jetbrains.mps.lang.editor.structure.CellModel_RefNode" flags="sg" stub="730538219795960754" index="3F1sOY" />
      <concept id="1073390211982" name="jetbrains.mps.lang.editor.structure.CellModel_RefNodeList" flags="sg" stub="2794558372793454595" index="3F2HdR" />
      <concept id="1225898583838" name="jetbrains.mps.lang.editor.structure.ReadOnlyModelAccessor" flags="ng" index="1HfYo3">
        <child id="1225898971709" name="getter" index="1Hhtcw" />
      </concept>
      <concept id="1225900081164" name="jetbrains.mps.lang.editor.structure.CellModel_ReadOnlyModelAccessor" flags="sg" stub="3708815482283559694" index="1HlG4h">
        <child id="1225900141900" name="modelAccessor" index="1HlULh" />
      </concept>
      <concept id="1088612959204" name="jetbrains.mps.lang.editor.structure.CellModel_Alternation" flags="sg" stub="8104358048506729361" index="1QoScp">
        <property id="1088613081987" name="vertical" index="1QpmdY" />
        <child id="1145918517974" name="alternationCondition" index="3e4ffs" />
        <child id="1088612958265" name="ifTrueCellModel" index="1QoS34" />
        <child id="1088612973955" name="ifFalseCellModel" index="1QoVPY" />
      </concept>
      <concept id="1176717841777" name="jetbrains.mps.lang.editor.structure.QueryFunction_ModelAccess_Getter" flags="in" index="3TQlhw" />
      <concept id="1198256887712" name="jetbrains.mps.lang.editor.structure.CellModel_Indent" flags="ng" index="3XFhqQ" />
      <concept id="1166049232041" name="jetbrains.mps.lang.editor.structure.AbstractComponent" flags="ng" index="1XWOmA">
        <reference id="1166049300910" name="conceptDeclaration" index="1XX52x" />
      </concept>
    </language>
    <language id="f3061a53-9226-4cc5-a443-f952ceaf5816" name="jetbrains.mps.baseLanguage">
      <concept id="1197027756228" name="jetbrains.mps.baseLanguage.structure.DotExpression" flags="nn" index="2OqwBi">
        <child id="1197027771414" name="operand" index="2Oq$k0" />
        <child id="1197027833540" name="operation" index="2OqNvi" />
      </concept>
      <concept id="1137021947720" name="jetbrains.mps.baseLanguage.structure.ConceptFunction" flags="in" index="2VMwT0">
        <child id="1137022507850" name="body" index="2VODD2" />
      </concept>
      <concept id="1070534058343" name="jetbrains.mps.baseLanguage.structure.NullLiteral" flags="nn" index="10Nm6u" />
      <concept id="1068580123155" name="jetbrains.mps.baseLanguage.structure.ExpressionStatement" flags="nn" index="3clFbF">
        <child id="1068580123156" name="expression" index="3clFbG" />
      </concept>
      <concept id="1068580123136" name="jetbrains.mps.baseLanguage.structure.StatementList" flags="sn" stub="5293379017992965193" index="3clFbS">
        <child id="1068581517665" name="statement" index="3cqZAp" />
      </concept>
      <concept id="1204053956946" name="jetbrains.mps.baseLanguage.structure.IMethodCall" flags="ng" index="1ndlxa">
        <reference id="1068499141037" name="baseMethodDeclaration" index="37wK5l" />
      </concept>
      <concept id="1081773326031" name="jetbrains.mps.baseLanguage.structure.BinaryOperation" flags="nn" index="3uHJSO">
        <child id="1081773367579" name="rightExpression" index="3uHU7w" />
        <child id="1081773367580" name="leftExpression" index="3uHU7B" />
      </concept>
      <concept id="1073239437375" name="jetbrains.mps.baseLanguage.structure.NotEqualsExpression" flags="nn" index="3y3z36" />
    </language>
    <language id="7866978e-a0f0-4cc7-81bc-4d213d9375e1" name="jetbrains.mps.lang.smodel">
      <concept id="1179409122411" name="jetbrains.mps.lang.smodel.structure.Node_ConceptMethodCall" flags="nn" index="2qgKlT" />
      <concept id="1138056022639" name="jetbrains.mps.lang.smodel.structure.SPropertyAccess" flags="nn" index="3TrcHB">
        <reference id="1138056395725" name="property" index="3TsBF5" />
      </concept>
    </language>
  </registry>
  <node concept="24kQdi" id="3f064wGFUBo">
    <ref role="1XX52x" to="v54s:3f064wGFUBm" resolve="ExtensionPointDeclaration" />
    <node concept="3EZMnI" id="3f064wGFUBp" role="2wV5jI">
      <node concept="3F0ifn" id="aRphP9TKU2" role="3EZMnx">
        <property role="3F0ifm" value="extension" />
        <ref role="1k5W1q" to="tpen:hgVS8CF" resolve="KeyWord" />
      </node>
      <node concept="3F0ifn" id="aRphP9TKU6" role="3EZMnx">
        <property role="3F0ifm" value="point" />
        <ref role="1k5W1q" to="tpen:hgVS8CF" resolve="KeyWord" />
      </node>
      <node concept="1QoScp" id="aRphP9VKq1" role="3EZMnx">
        <property role="1QpmdY" value="true" />
        <node concept="3F0A7n" id="aRphP9VMqM" role="1QoS34">
          <ref role="1NtTu8" to="v54s:58aSpRitLIm" resolve="extensionName" />
        </node>
        <node concept="pkWqt" id="aRphP9VKq4" role="3e4ffs">
          <node concept="3clFbS" id="aRphP9VKq6" role="2VODD2">
            <node concept="3clFbF" id="aRphP9VKvl" role="3cqZAp">
              <node concept="3y3z36" id="aRphP9VMkP" role="3clFbG">
                <node concept="2OqwBi" id="aRphP9VKzI" role="3uHU7B">
                  <node concept="pncrf" id="aRphP9VKvk" role="2Oq$k0" />
                  <node concept="3TrcHB" id="aRphP9VMf1" role="2OqNvi">
                    <ref role="3TsBF5" to="v54s:58aSpRitLIm" resolve="extensionName" />
                  </node>
                </node>
                <node concept="10Nm6u" id="aRphP9VL8B" role="3uHU7w" />
              </node>
            </node>
          </node>
        </node>
        <node concept="3F0A7n" id="aRphP9VMwx" role="1QoVPY">
          <ref role="1NtTu8" to="tpck:h0TrG11" resolve="name" />
        </node>
      </node>
      <node concept="3F0ifn" id="6XJvNHU5VOd" role="3EZMnx">
        <property role="3F0ifm" value="&lt;" />
        <ref role="1k5W1q" to="tpen:hgVS8CF" resolve="KeyWord" />
        <node concept="11LMrY" id="4y_vFkECYPM" role="3F10Kt">
          <property role="VOm3f" value="true" />
        </node>
      </node>
      <node concept="3F1sOY" id="6XJvNHU5VOh" role="3EZMnx">
        <ref role="1NtTu8" to="v54s:6XJvNHU5VOb" />
      </node>
      <node concept="3F0ifn" id="6XJvNHU5VOf" role="3EZMnx">
        <property role="3F0ifm" value="&gt;" />
        <ref role="1k5W1q" to="tpen:hgVS8CF" resolve="KeyWord" />
        <node concept="11L4FC" id="58aSpRitWee" role="3F10Kt">
          <property role="VOm3f" value="true" />
        </node>
      </node>
      <node concept="l2Vlx" id="3f064wGFUBs" role="2iSdaV" />
    </node>
  </node>
  <node concept="24kQdi" id="3f064wGFUBt">
    <ref role="1XX52x" to="v54s:3f064wGFUBk" resolve="ExtensionDeclaration" />
    <node concept="3EZMnI" id="3f064wGFUBu" role="2wV5jI">
      <node concept="3EZMnI" id="66AaOfxkTMj" role="3EZMnx">
        <node concept="2iRfu4" id="66AaOfxkTMk" role="2iSdaV" />
        <node concept="3F0ifn" id="6QpPHkSsU__" role="3EZMnx">
          <property role="3F0ifm" value="Extension" />
          <ref role="1k5W1q" to="tpen:hgVS8CF" resolve="KeyWord" />
          <node concept="3$7fVu" id="6QpPHkSsU_A" role="3F10Kt">
            <property role="3$6WeP" value="0.5" />
          </node>
          <node concept="3$7jql" id="6QpPHkSsU_B" role="3F10Kt">
            <property role="3$6WeP" value="0.5" />
          </node>
        </node>
        <node concept="3F0A7n" id="3BInSoF6sVd" role="3EZMnx">
          <ref role="1NtTu8" to="tpck:h0TrG11" resolve="name" />
        </node>
        <node concept="3F0ifn" id="3BInSoF6sUV" role="3EZMnx">
          <property role="3F0ifm" value="of" />
          <ref role="1k5W1q" to="tpen:hgVS8CF" resolve="KeyWord" />
        </node>
        <node concept="1iCGBv" id="3f064wGFUBw" role="3EZMnx">
          <ref role="1NtTu8" to="v54s:3f064wGFUBl" />
          <node concept="1sVBvm" id="3f064wGFUBx" role="1sWHZn">
            <node concept="3F0A7n" id="3f064wGFUBy" role="2wV5jI">
              <property role="1Intyy" value="true" />
              <ref role="1NtTu8" to="v54s:58aSpRitLIm" resolve="extensionName" />
            </node>
          </node>
        </node>
      </node>
      <node concept="3XFhqQ" id="2CVPr4rxYbY" role="3EZMnx" />
      <node concept="3F2HdR" id="66AaOfxkOVw" role="3EZMnx">
        <ref role="1NtTu8" to="v54s:66AaOfxkOVs" />
        <node concept="l2Vlx" id="66AaOfxkOVx" role="2czzBx" />
        <node concept="3F0ifn" id="66AaOfxkOVy" role="2czzBI">
          <property role="3F0ifm" value="" />
          <property role="ilYzB" value="&lt;no fields&gt;" />
        </node>
        <node concept="pVoyu" id="66AaOfxkOVz" role="3F10Kt">
          <property role="VOm3f" value="true" />
        </node>
        <node concept="lj46D" id="66AaOfxkOV$" role="3F10Kt">
          <property role="VOm3f" value="true" />
        </node>
      </node>
      <node concept="3XFhqQ" id="2CVPr4rxYjv" role="3EZMnx" />
      <node concept="3EZMnI" id="66AaOfxkTMn" role="3EZMnx">
        <node concept="3F0ifn" id="66AaOfxk_gx" role="3EZMnx">
          <property role="3F0ifm" value="on activate" />
          <ref role="1k5W1q" to="tpen:hgVS8CF" resolve="KeyWord" />
        </node>
        <node concept="2iRfu4" id="66AaOfxkTMo" role="2iSdaV" />
        <node concept="3F1sOY" id="66AaOfxk_fS" role="3EZMnx">
          <property role="1$x2rV" value="&lt;do nothing&gt;" />
          <property role="39s7Ar" value="true" />
          <ref role="1NtTu8" to="v54s:66AaOfxk_fI" />
        </node>
      </node>
      <node concept="3XFhqQ" id="2CVPr4rxYk5" role="3EZMnx" />
      <node concept="3EZMnI" id="66AaOfxkTMp" role="3EZMnx">
        <node concept="3F0ifn" id="66AaOfxk_ps" role="3EZMnx">
          <property role="3F0ifm" value="on deactivate" />
          <ref role="1k5W1q" to="tpen:hgVS8CF" resolve="KeyWord" />
        </node>
        <node concept="3F1sOY" id="66AaOfxk_fZ" role="3EZMnx">
          <property role="1$x2rV" value="&lt;do nothing&gt;" />
          <ref role="1NtTu8" to="v54s:66AaOfxk_fQ" />
        </node>
        <node concept="2iRfu4" id="66AaOfxkTMq" role="2iSdaV" />
      </node>
      <node concept="3XFhqQ" id="2CVPr4rxYkD" role="3EZMnx" />
      <node concept="3EZMnI" id="66AaOfxkTMs" role="3EZMnx">
        <node concept="3F0ifn" id="66AaOfxkTMw" role="3EZMnx">
          <property role="3F0ifm" value="extension object" />
          <ref role="1k5W1q" to="tpen:hgVS8CF" resolve="KeyWord" />
        </node>
        <node concept="l2Vlx" id="66AaOfxkTMu" role="2iSdaV" />
        <node concept="3F1sOY" id="6XJvNHU5VOl" role="3EZMnx">
          <ref role="1NtTu8" to="v54s:6XJvNHU5VOj" />
        </node>
      </node>
      <node concept="2iRkQZ" id="66AaOfxkTMi" role="2iSdaV" />
    </node>
  </node>
  <node concept="24kQdi" id="5JRjEZJSe_2">
    <ref role="1XX52x" to="v54s:5JRjEZJSe_0" resolve="ExtensionPointExpression" />
    <node concept="3EZMnI" id="5JRjEZJSe_4" role="2wV5jI">
      <node concept="PMmxH" id="2wdLO7KhYdk" role="3EZMnx">
        <property role="1cu_pB" value="0" />
        <ref role="PMmxG" to="tpco:2wZex4PafBj" resolve="alias" />
        <ref role="1k5W1q" to="tpen:hgVS8CF" resolve="KeyWord" />
      </node>
      <node concept="3F0ifn" id="5JRjEZJSe_9" role="3EZMnx">
        <property role="3F0ifm" value="/" />
        <ref role="1k5W1q" to="tpen:hY9fg1G" resolve="LeftParenAfterName" />
      </node>
      <node concept="1iCGBv" id="5JRjEZJSeHn" role="3EZMnx">
        <ref role="1NtTu8" to="v54s:5JRjEZJSeHl" />
        <ref role="1k5W1q" to="tpen:hFIVf2f" resolve="ClassName" />
        <node concept="1sVBvm" id="5JRjEZJSeHo" role="1sWHZn">
          <node concept="3F0A7n" id="5JRjEZJSeHq" role="2wV5jI">
            <property role="1Intyy" value="true" />
            <ref role="1NtTu8" to="tpck:h0TrG11" resolve="name" />
            <ref role="1k5W1q" to="tpen:hFIVf2f" resolve="ClassName" />
          </node>
        </node>
      </node>
      <node concept="3F0ifn" id="5JRjEZJSe_e" role="3EZMnx">
        <property role="3F0ifm" value="/" />
        <ref role="1k5W1q" to="tpen:hFCSUmN" resolve="RightParen" />
      </node>
      <node concept="l2Vlx" id="aRphP9Usp7" role="2iSdaV" />
    </node>
    <node concept="3EZMnI" id="5JRjEZJSeHs" role="6VMZX">
      <node concept="3F0ifn" id="5JRjEZJSeHv" role="3EZMnx">
        <property role="3F0ifm" value="id:" />
      </node>
      <node concept="1iCGBv" id="5JRjEZJSeHx" role="3EZMnx">
        <ref role="1NtTu8" to="v54s:5JRjEZJSeHl" />
        <node concept="1sVBvm" id="5JRjEZJSeHy" role="1sWHZn">
          <node concept="1HlG4h" id="5JRjEZJSeH$" role="2wV5jI">
            <node concept="1HfYo3" id="5JRjEZJSeH_" role="1HlULh">
              <node concept="3TQlhw" id="5JRjEZJSeHA" role="1Hhtcw">
                <node concept="3clFbS" id="5JRjEZJSeHB" role="2VODD2">
                  <node concept="3clFbF" id="5JRjEZJSeHC" role="3cqZAp">
                    <node concept="2OqwBi" id="5JRjEZJSeHG" role="3clFbG">
                      <node concept="pncrf" id="5JRjEZJSeHD" role="2Oq$k0" />
                      <node concept="2qgKlT" id="5JRjEZJSeHM" role="2OqNvi">
                        <ref role="37wK5l" to="w0jm:3vRuGRRXlj" resolve="getId" />
                      </node>
                    </node>
                  </node>
                </node>
              </node>
            </node>
          </node>
        </node>
      </node>
      <node concept="l2Vlx" id="aRphP9Uspl" role="2iSdaV" />
    </node>
  </node>
  <node concept="24kQdi" id="66AaOfxkOUw">
    <ref role="1XX52x" to="v54s:66AaOfxkOUp" resolve="ExtensionFieldDeclaration" />
    <node concept="3EZMnI" id="66AaOfxkOUy" role="2wV5jI">
      <node concept="3F1sOY" id="66AaOfxkOUB" role="3EZMnx">
        <ref role="1NtTu8" to="v54s:66AaOfxkOUt" />
      </node>
      <node concept="3F0A7n" id="66AaOfxkOU_" role="3EZMnx">
        <ref role="1NtTu8" to="tpck:h0TrG11" resolve="name" />
        <ref role="1k5W1q" to="tpen:hshQ_OE" resolve="Field" />
      </node>
      <node concept="l2Vlx" id="66AaOfxkOU$" role="2iSdaV" />
    </node>
  </node>
  <node concept="24kQdi" id="66AaOfxkOUD">
    <ref role="1XX52x" to="v54s:66AaOfxkOUu" resolve="ExtensionFieldReference" />
    <node concept="3EZMnI" id="66AaOfxkOUF" role="2wV5jI">
      <node concept="1iCGBv" id="66AaOfxkOUI" role="3EZMnx">
        <ref role="1NtTu8" to="v54s:66AaOfxkOUv" />
        <node concept="1sVBvm" id="66AaOfxkOUJ" role="1sWHZn">
          <node concept="3F0A7n" id="66AaOfxkOUL" role="2wV5jI">
            <property role="1Intyy" value="true" />
            <ref role="1NtTu8" to="tpck:h0TrG11" resolve="name" />
            <ref role="1k5W1q" to="tpen:hshQ_OE" resolve="Field" />
          </node>
        </node>
      </node>
      <node concept="l2Vlx" id="66AaOfxkOUH" role="2iSdaV" />
    </node>
  </node>
  <node concept="24kQdi" id="2KgYA8kbLuU">
    <ref role="1XX52x" to="v54s:2KgYA8kbFkS" resolve="ExtensionPointType" />
    <node concept="3EZMnI" id="2KgYA8kbLuW" role="2wV5jI">
      <node concept="PMmxH" id="2wdLO7KhY75" role="3EZMnx">
        <property role="1cu_pB" value="0" />
        <ref role="PMmxG" to="tpco:2wZex4PafBj" resolve="alias" />
        <ref role="1k5W1q" to="tpen:hgVS8CF" resolve="KeyWord" />
      </node>
      <node concept="3F0ifn" id="2KgYA8kbLv1" role="3EZMnx">
        <property role="3F0ifm" value="&lt;" />
        <ref role="1k5W1q" to="tpen:75A9veqzBn9" resolve="LeftAngleBracket" />
        <node concept="11L4FC" id="2KgYA8kbNj6" role="3F10Kt">
          <property role="VOm3f" value="true" />
        </node>
      </node>
      <node concept="1iCGBv" id="aRphP9WICM" role="3EZMnx">
        <ref role="1NtTu8" to="v54s:2KgYA8kbFkT" />
        <node concept="1sVBvm" id="aRphP9WICO" role="1sWHZn">
          <node concept="3F0A7n" id="aRphP9WKRI" role="2wV5jI">
            <property role="1Intyy" value="true" />
            <ref role="1NtTu8" to="tpck:h0TrG11" resolve="name" />
          </node>
        </node>
      </node>
      <node concept="3F0ifn" id="2KgYA8kbLv3" role="3EZMnx">
        <property role="3F0ifm" value="&gt;" />
        <ref role="1k5W1q" to="tpen:75A9veqzBna" resolve="RightAngleBracket" />
        <node concept="11LMrY" id="2KgYA8kbLv9" role="3F10Kt">
          <property role="VOm3f" value="false" />
        </node>
      </node>
      <node concept="l2Vlx" id="3tZJV069ks5" role="2iSdaV" />
    </node>
  </node>
  <node concept="24kQdi" id="2KgYA8kbNrw">
    <ref role="1XX52x" to="v54s:2KgYA8kbJt7" resolve="GetExtensionObjectsOperation" />
    <node concept="3EZMnI" id="2KgYA8kbNry" role="2wV5jI">
      <node concept="PMmxH" id="2wdLO7KhY2E" role="3EZMnx">
        <property role="1cu_pB" value="0" />
        <ref role="PMmxG" to="tpco:2wZex4PafBj" resolve="alias" />
      </node>
      <node concept="l2Vlx" id="aRphP9UyfR" role="2iSdaV" />
    </node>
  </node>
  <node concept="24kQdi" id="7335HkeY$G">
    <ref role="1XX52x" to="v54s:7335HkeYeM" resolve="Extension" />
    <node concept="3EZMnI" id="536fTXa3qK2" role="2wV5jI">
      <node concept="PMmxH" id="55uxGWy6HAu" role="3EZMnx">
        <ref role="PMmxG" to="tpco:2wZex4PafBj" resolve="alias" />
        <ref role="1k5W1q" to="tpen:hgVS8CF" resolve="KeyWord" />
      </node>
      <node concept="3F0A7n" id="3zLwYDe0Esz" role="3EZMnx">
        <ref role="1NtTu8" to="tpck:h0TrG11" resolve="name" />
      </node>
      <node concept="3F0ifn" id="536fTXa3qKp" role="3EZMnx">
        <property role="3F0ifm" value="of" />
        <ref role="1k5W1q" to="tpen:hgVS8CF" resolve="KeyWord" />
      </node>
      <node concept="1iCGBv" id="7335HkeZ06" role="3EZMnx">
        <ref role="1NtTu8" to="v54s:7335HkeYl_" />
        <node concept="1sVBvm" id="7335HkeZ08" role="1sWHZn">
          <node concept="3F0A7n" id="7335HkeZ1u" role="2wV5jI">
            <property role="1Intyy" value="true" />
            <ref role="1NtTu8" to="tpck:h0TrG11" resolve="name" />
          </node>
        </node>
      </node>
      <node concept="3F0ifn" id="2MgTSGzdRrt" role="3EZMnx">
        <property role="3F0ifm" value="{" />
        <ref role="1k5W1q" to="tpen:hFD5onb" resolve="LeftBrace" />
        <node concept="ljvvj" id="2MgTSGzdRrK" role="3F10Kt">
          <property role="VOm3f" value="true" />
        </node>
      </node>
      <node concept="l2Vlx" id="536fTXa3qK5" role="2iSdaV" />
      <node concept="PMmxH" id="2MgTSGzdIWC" role="3EZMnx">
        <ref role="PMmxG" to="tpen:3Z61ZaMckgv" resolve="ClassifierMembers_Component" />
        <node concept="ljvvj" id="2MgTSGzdRDF" role="3F10Kt">
          <property role="VOm3f" value="true" />
        </node>
      </node>
      <node concept="3F0ifn" id="2MgTSGzdRDx" role="3EZMnx">
        <property role="3F0ifm" value="}" />
        <ref role="1k5W1q" to="tpen:hFD5_7H" resolve="RightBrace" />
      </node>
    </node>
  </node>
</model>

