<?xml version="1.0" encoding="UTF-8"?>
<model ref="r:28855287-2116-4523-9c44-f18e3449e08d(BHL1.structure)">
  <persistence version="9" />
  <languages>
    <use id="c72da2b9-7cce-4447-8389-f407dc1158b7" name="jetbrains.mps.lang.structure" version="3" />
    <use id="982eb8df-2c96-4bd7-9963-11712ea622e5" name="jetbrains.mps.lang.resources" version="2" />
    <devkit ref="fbc25dd2-5da4-483a-8b19-70928e1b62d7(jetbrains.mps.devkit.general-purpose)" />
  </languages>
  <imports>
    <import index="tpck" ref="r:00000000-0000-4000-0000-011c89590288(jetbrains.mps.lang.core.structure)" implicit="true" />
  </imports>
  <registry>
    <language id="c72da2b9-7cce-4447-8389-f407dc1158b7" name="jetbrains.mps.lang.structure">
      <concept id="1169125787135" name="jetbrains.mps.lang.structure.structure.AbstractConceptDeclaration" flags="ig" index="PkWjJ">
        <property id="6714410169261853888" name="conceptId" index="EcuMT" />
        <child id="1071489727084" name="propertyDeclaration" index="1TKVEl" />
      </concept>
      <concept id="1169125989551" name="jetbrains.mps.lang.structure.structure.InterfaceConceptDeclaration" flags="ig" index="PlHQZ" />
      <concept id="1169127622168" name="jetbrains.mps.lang.structure.structure.InterfaceConceptReference" flags="ig" index="PrWs8">
        <reference id="1169127628841" name="intfc" index="PrY4T" />
      </concept>
      <concept id="1071489090640" name="jetbrains.mps.lang.structure.structure.ConceptDeclaration" flags="ig" index="1TIwiD">
        <reference id="1071489389519" name="extends" index="1TJDcQ" />
        <child id="1169129564478" name="implements" index="PzmwI" />
      </concept>
      <concept id="1071489288299" name="jetbrains.mps.lang.structure.structure.PropertyDeclaration" flags="ig" index="1TJgyi">
        <property id="241647608299431129" name="propertyId" index="IQ2nx" />
        <reference id="1082985295845" name="dataType" index="AX2Wp" />
      </concept>
    </language>
    <language id="ceab5195-25ea-4f22-9b92-103b95ca8c0c" name="jetbrains.mps.lang.core">
      <concept id="1169194658468" name="jetbrains.mps.lang.core.structure.INamedConcept" flags="ng" index="TrEIO">
        <property id="1169194664001" name="name" index="TrG5h" />
      </concept>
    </language>
  </registry>
  <node concept="1TIwiD" id="7Ts2tYwvl$u">
    <property role="TrG5h" value="A1" />
    <property role="EcuMT" value="9105163402711226654" />
    <ref role="1TJDcQ" to="tpck:gw2VY9q" resolve="BaseConcept" />
    <node concept="PrWs8" id="6EMTxOPT3__" role="PzmwI">
      <ref role="PrY4T" node="7Ts2tYwvl$v" resolve="I1" />
    </node>
  </node>
  <node concept="PlHQZ" id="7Ts2tYwvl$v">
    <property role="TrG5h" value="I1" />
    <property role="EcuMT" value="9105163402711226655" />
    <node concept="1TJgyi" id="7Ts2tYwvlBb" role="1TKVEl">
      <property role="TrG5h" value="a" />
      <property role="IQ2nx" value="9105163402711226827" />
      <ref role="AX2Wp" to="tpck:fKAQMTA" resolve="integer" />
    </node>
  </node>
  <node concept="1TIwiD" id="5jWiLvujMjb">
    <property role="TrG5h" value="A" />
    <property role="EcuMT" value="6123852159203091659" />
    <ref role="1TJDcQ" to="tpck:gw2VY9q" resolve="BaseConcept" />
    <node concept="PrWs8" id="5jWiLvujNtj" role="PzmwI">
      <ref role="PrY4T" node="5jWiLvujMjc" resolve="I" />
    </node>
  </node>
  <node concept="PlHQZ" id="5jWiLvujMjc">
    <property role="TrG5h" value="I" />
    <property role="EcuMT" value="6123852159203091660" />
  </node>
</model>

