<?xml version="1.0" encoding="UTF-8"?>
<model ref="r:4df57e9b-2a09-44c7-b16d-4af6620e3aaa(jetbrains.mps.lang.access.intentions)">
  <persistence version="9" />
  <languages>
    <use id="d7a92d38-f7db-40d0-8431-763b0c3c9f20" name="jetbrains.mps.lang.intentions" version="0" />
    <use id="13744753-c81f-424a-9c1b-cf8943bf4e86" name="jetbrains.mps.lang.sharedConcepts" version="0" />
    <use id="aee9cad2-acd4-4608-aef2-0004f6a1cdbd" name="jetbrains.mps.lang.actions" version="0" />
    <devkit ref="fbc25dd2-5da4-483a-8b19-70928e1b62d7(jetbrains.mps.devkit.general-purpose)" />
  </languages>
  <imports>
    <import index="qff7" ref="r:2ba2e307-a81d-4a21-9e0b-de3624e2fb83(jetbrains.mps.lang.access.structure)" />
    <import index="cj4x" ref="1ed103c3-3aa6-49b7-9c21-6765ee11f224/java:jetbrains.mps.openapi.editor(MPS.Editor/)" />
    <import index="tpee" ref="r:00000000-0000-4000-0000-011c895902ca(jetbrains.mps.baseLanguage.structure)" implicit="true" />
    <import index="tp2c" ref="r:00000000-0000-4000-0000-011c89590338(jetbrains.mps.baseLanguage.closures.structure)" implicit="true" />
  </imports>
  <registry>
    <language id="13744753-c81f-424a-9c1b-cf8943bf4e86" name="jetbrains.mps.lang.sharedConcepts">
      <concept id="1194033889146" name="jetbrains.mps.lang.sharedConcepts.structure.ConceptFunctionParameter_editorContext" flags="nn" index="1XNTG" />
    </language>
    <language id="f3061a53-9226-4cc5-a443-f952ceaf5816" name="jetbrains.mps.baseLanguage">
      <concept id="1202948039474" name="jetbrains.mps.baseLanguage.structure.InstanceMethodCallOperation" flags="nn" index="liA8E" />
      <concept id="1154032098014" name="jetbrains.mps.baseLanguage.structure.AbstractLoopStatement" flags="nn" index="2LF5Ji">
        <child id="1154032183016" name="body" index="2LFqv$" />
      </concept>
      <concept id="1197027756228" name="jetbrains.mps.baseLanguage.structure.DotExpression" flags="nn" index="2OqwBi">
        <child id="1197027771414" name="operand" index="2Oq$k0" />
        <child id="1197027833540" name="operation" index="2OqNvi" />
      </concept>
      <concept id="1145552977093" name="jetbrains.mps.baseLanguage.structure.GenericNewExpression" flags="nn" index="2ShNRf">
        <child id="1145553007750" name="creator" index="2ShVmc" />
      </concept>
      <concept id="1137021947720" name="jetbrains.mps.baseLanguage.structure.ConceptFunction" flags="in" index="2VMwT0">
        <child id="1137022507850" name="body" index="2VODD2" />
      </concept>
      <concept id="1070475926800" name="jetbrains.mps.baseLanguage.structure.StringLiteral" flags="nn" index="Xl_RD">
        <property id="1070475926801" name="value" index="Xl_RC" />
      </concept>
      <concept id="1068431474542" name="jetbrains.mps.baseLanguage.structure.VariableDeclaration" flags="ng" index="33uBYm">
        <child id="1068431790190" name="initializer" index="33vP2m" />
      </concept>
      <concept id="1068498886296" name="jetbrains.mps.baseLanguage.structure.VariableReference" flags="nn" index="37vLTw">
        <reference id="1068581517664" name="variableDeclaration" index="3cqZAo" />
      </concept>
      <concept id="4972933694980447171" name="jetbrains.mps.baseLanguage.structure.BaseVariableDeclaration" flags="ng" index="19Szcq">
        <child id="5680397130376446158" name="type" index="1tU5fm" />
      </concept>
      <concept id="1068580123155" name="jetbrains.mps.baseLanguage.structure.ExpressionStatement" flags="nn" index="3clFbF">
        <child id="1068580123156" name="expression" index="3clFbG" />
      </concept>
      <concept id="1068580123136" name="jetbrains.mps.baseLanguage.structure.StatementList" flags="sn" stub="5293379017992965193" index="3clFbS">
        <child id="1068581517665" name="statement" index="3cqZAp" />
      </concept>
      <concept id="1068581242878" name="jetbrains.mps.baseLanguage.structure.ReturnStatement" flags="nn" index="3cpWs6">
        <child id="1068581517676" name="expression" index="3cqZAk" />
      </concept>
      <concept id="1068581242864" name="jetbrains.mps.baseLanguage.structure.LocalVariableDeclarationStatement" flags="nn" index="3cpWs8">
        <child id="1068581242865" name="localVariableDeclaration" index="3cpWs9" />
      </concept>
      <concept id="1068581242863" name="jetbrains.mps.baseLanguage.structure.LocalVariableDeclaration" flags="nr" index="3cpWsn" />
      <concept id="1204053956946" name="jetbrains.mps.baseLanguage.structure.IMethodCall" flags="ng" index="1ndlxa">
        <reference id="1068499141037" name="baseMethodDeclaration" index="37wK5l" />
        <child id="1068499141038" name="actualArgument" index="37wK5m" />
      </concept>
    </language>
    <language id="d7a92d38-f7db-40d0-8431-763b0c3c9f20" name="jetbrains.mps.lang.intentions">
      <concept id="1192794782375" name="jetbrains.mps.lang.intentions.structure.DescriptionBlock" flags="in" index="2S6ZIM" />
      <concept id="1192795911897" name="jetbrains.mps.lang.intentions.structure.ExecuteBlock" flags="in" index="2Sbjvc" />
      <concept id="1192796902958" name="jetbrains.mps.lang.intentions.structure.ConceptFunctionParameter_node" flags="nn" index="2Sf5sV" />
      <concept id="2522969319638198293" name="jetbrains.mps.lang.intentions.structure.SurroundWithIntentionDeclaration" flags="ig" index="2ZfgGJ" />
      <concept id="2522969319638091381" name="jetbrains.mps.lang.intentions.structure.BaseIntentionDeclaration" flags="ig" index="2ZfUlf">
        <reference id="2522969319638198290" name="forConcept" index="2ZfgGC" />
        <child id="2522969319638198291" name="executeFunction" index="2ZfgGD" />
        <child id="2522969319638093993" name="descriptionFunction" index="2ZfVej" />
      </concept>
    </language>
    <language id="aee9cad2-acd4-4608-aef2-0004f6a1cdbd" name="jetbrains.mps.lang.actions">
      <concept id="5979988948250981289" name="jetbrains.mps.lang.actions.structure.SNodeCreatorAndInitializer" flags="nn" index="2fJWfE" />
    </language>
    <language id="7866978e-a0f0-4cc7-81bc-4d213d9375e1" name="jetbrains.mps.lang.smodel">
      <concept id="1177026924588" name="jetbrains.mps.lang.smodel.structure.RefConcept_Reference" flags="nn" index="chp4Y">
        <reference id="1177026940964" name="conceptDeclaration" index="cht4Q" />
      </concept>
      <concept id="1138411891628" name="jetbrains.mps.lang.smodel.structure.SNodeOperation" flags="nn" index="eCIE_">
        <child id="1144104376918" name="parameter" index="1xVPHs" />
      </concept>
      <concept id="1143224066846" name="jetbrains.mps.lang.smodel.structure.Node_InsertNextSiblingOperation" flags="nn" index="HtI8k">
        <child id="1143224066849" name="insertedNode" index="HtI8F" />
      </concept>
      <concept id="1145383075378" name="jetbrains.mps.lang.smodel.structure.SNodeListType" flags="in" index="2I9FWS" />
      <concept id="1171407110247" name="jetbrains.mps.lang.smodel.structure.Node_GetAncestorOperation" flags="nn" index="2Xjw5R" />
      <concept id="1144100932627" name="jetbrains.mps.lang.smodel.structure.OperationParm_Inclusion" flags="ng" index="1xIGOp" />
      <concept id="1144101972840" name="jetbrains.mps.lang.smodel.structure.OperationParm_Concept" flags="ng" index="1xMEDy">
        <child id="1207343664468" name="conceptArgument" index="ri$Ld" />
      </concept>
      <concept id="1180636770613" name="jetbrains.mps.lang.smodel.structure.SNodeCreator" flags="nn" index="3zrR0B">
        <child id="1180636770616" name="createdType" index="3zrR0E" />
      </concept>
      <concept id="1138055754698" name="jetbrains.mps.lang.smodel.structure.SNodeType" flags="in" index="3Tqbb2">
        <reference id="1138405853777" name="concept" index="ehGHo" />
      </concept>
      <concept id="1138056143562" name="jetbrains.mps.lang.smodel.structure.SLinkAccess" flags="nn" index="3TrEf2">
        <reference id="1138056516764" name="link" index="3Tt5mk" />
      </concept>
      <concept id="1138056282393" name="jetbrains.mps.lang.smodel.structure.SLinkListAccess" flags="nn" index="3Tsc0h">
        <reference id="1138056546658" name="link" index="3TtcxE" />
      </concept>
    </language>
    <language id="ceab5195-25ea-4f22-9b92-103b95ca8c0c" name="jetbrains.mps.lang.core">
      <concept id="1169194658468" name="jetbrains.mps.lang.core.structure.INamedConcept" flags="ng" index="TrEIO">
        <property id="1169194664001" name="name" index="TrG5h" />
      </concept>
    </language>
    <language id="83888646-71ce-4f1c-9c53-c54016f6ad4f" name="jetbrains.mps.baseLanguage.collections">
      <concept id="540871147943773365" name="jetbrains.mps.baseLanguage.collections.structure.SingleArgumentSequenceOperation" flags="nn" index="25WWJ4">
        <child id="540871147943773366" name="argument" index="25WWJ7" />
      </concept>
      <concept id="1153943597977" name="jetbrains.mps.baseLanguage.collections.structure.ForEachStatement" flags="nn" index="2Gpval">
        <child id="1153944400369" name="variable" index="2Gsz3X" />
        <child id="1153944424730" name="inputSequence" index="2GsD0m" />
      </concept>
      <concept id="1153944193378" name="jetbrains.mps.baseLanguage.collections.structure.ForEachVariable" flags="nr" index="2GrKxI" />
      <concept id="1153944233411" name="jetbrains.mps.baseLanguage.collections.structure.ForEachVariableReference" flags="nn" index="2GrUjf">
        <reference id="1153944258490" name="variable" index="2Gs0qQ" />
      </concept>
      <concept id="1160612413312" name="jetbrains.mps.baseLanguage.collections.structure.AddElementOperation" flags="nn" index="TSZUe" />
      <concept id="1165525191778" name="jetbrains.mps.baseLanguage.collections.structure.GetFirstOperation" flags="nn" index="1uHKPH" />
    </language>
  </registry>
  <node concept="2ZfgGJ" id="1pHnQCApRAr">
    <property role="TrG5h" value="SurroundWithExecuteLightweightCommandStatement" />
    <ref role="2ZfgGC" to="tpee:fzclF8l" resolve="Statement" />
    <node concept="2S6ZIM" id="1pHnQCApRAs" role="2ZfVej">
      <node concept="3clFbS" id="1pHnQCApRAt" role="2VODD2">
        <node concept="3cpWs6" id="7DH4b15vcvK" role="3cqZAp">
          <node concept="Xl_RD" id="7DH4b15vcvM" role="3cqZAk">
            <property role="Xl_RC" value="Read Action" />
          </node>
        </node>
      </node>
    </node>
    <node concept="2Sbjvc" id="1pHnQCApRAu" role="2ZfgGD">
      <node concept="3clFbS" id="1pHnQCApRAv" role="2VODD2">
        <node concept="3cpWs8" id="7DH4b15vcvO" role="3cqZAp">
          <node concept="3cpWsn" id="7DH4b15vcvP" role="3cpWs9">
            <property role="TrG5h" value="readActionStatement" />
            <node concept="3Tqbb2" id="7DH4b15vcvQ" role="1tU5fm">
              <ref role="ehGHo" to="qff7:7Mb2akafE8l" resolve="ExecuteLightweightCommandStatement" />
            </node>
            <node concept="2ShNRf" id="7DH4b15vcvS" role="33vP2m">
              <node concept="2fJWfE" id="5wUAOoBBflq" role="2ShVmc">
                <node concept="3Tqbb2" id="5wUAOoBBflr" role="3zrR0E">
                  <ref role="ehGHo" to="qff7:7Mb2akafE8l" resolve="ExecuteLightweightCommandStatement" />
                </node>
              </node>
            </node>
          </node>
        </node>
        <node concept="3cpWs8" id="7DH4b15vgjg" role="3cqZAp">
          <node concept="3cpWsn" id="7DH4b15vgjh" role="3cpWs9">
            <property role="TrG5h" value="selectedNodes" />
            <node concept="2I9FWS" id="7DH4b15vgji" role="1tU5fm" />
            <node concept="2OqwBi" id="7DH4b15vgjl" role="33vP2m">
              <node concept="1XNTG" id="7DH4b15vgjk" role="2Oq$k0" />
              <node concept="liA8E" id="7DH4b15vgjp" role="2OqNvi">
                <ref role="37wK5l" to="cj4x:~EditorContext.getSelectedNodes():java.util.List" resolve="getSelectedNodes" />
              </node>
            </node>
          </node>
        </node>
        <node concept="3clFbF" id="7DH4b15vgjr" role="3cqZAp">
          <node concept="2OqwBi" id="7DH4b15vgjt" role="3clFbG">
            <node concept="2Sf5sV" id="7DH4b15vgjs" role="2Oq$k0" />
            <node concept="HtI8k" id="7DH4b15vgjx" role="2OqNvi">
              <node concept="37vLTw" id="3GM_nagTB01" role="HtI8F">
                <ref role="3cqZAo" node="7DH4b15vcvP" resolve="readActionStatement" />
              </node>
            </node>
          </node>
        </node>
        <node concept="2Gpval" id="7DH4b15vgj_" role="3cqZAp">
          <node concept="2GrKxI" id="7DH4b15vgjA" role="2Gsz3X">
            <property role="TrG5h" value="selectedNode" />
          </node>
          <node concept="37vLTw" id="3GM_nagTBj5" role="2GsD0m">
            <ref role="3cqZAo" node="7DH4b15vgjh" resolve="selectedNodes" />
          </node>
          <node concept="3clFbS" id="7DH4b15vgjC" role="2LFqv$">
            <node concept="3clFbF" id="7DH4b15vgjG" role="3cqZAp">
              <node concept="2OqwBi" id="7DH4b15vgjX" role="3clFbG">
                <node concept="2OqwBi" id="7DH4b15vgjS" role="2Oq$k0">
                  <node concept="2OqwBi" id="7DH4b15vgjN" role="2Oq$k0">
                    <node concept="2OqwBi" id="7DH4b15vgjI" role="2Oq$k0">
                      <node concept="37vLTw" id="3GM_nagT_I_" role="2Oq$k0">
                        <ref role="3cqZAo" node="7DH4b15vcvP" resolve="readActionStatement" />
                      </node>
                      <node concept="3TrEf2" id="7DH4b15vgjM" role="2OqNvi">
                        <ref role="3Tt5mk" to="qff7:7Mb2akafE8b" />
                      </node>
                    </node>
                    <node concept="3TrEf2" id="7DH4b15vgjR" role="2OqNvi">
                      <ref role="3Tt5mk" to="tp2c:htbW58J" />
                    </node>
                  </node>
                  <node concept="3Tsc0h" id="7DH4b15vgjW" role="2OqNvi">
                    <ref role="3TtcxE" to="tpee:fzcqZ_x" />
                  </node>
                </node>
                <node concept="TSZUe" id="7DH4b15vgk1" role="2OqNvi">
                  <node concept="2OqwBi" id="7DH4b15vgka" role="25WWJ7">
                    <node concept="2GrUjf" id="7DH4b15vgk5" role="2Oq$k0">
                      <ref role="2Gs0qQ" node="7DH4b15vgjA" resolve="selectedNode" />
                    </node>
                    <node concept="2Xjw5R" id="7DH4b15vgkj" role="2OqNvi">
                      <node concept="1xMEDy" id="7DH4b15vgkk" role="1xVPHs">
                        <node concept="chp4Y" id="7DH4b15vgkr" role="ri$Ld">
                          <ref role="cht4Q" to="tpee:fzclF8l" resolve="Statement" />
                        </node>
                      </node>
                      <node concept="1xIGOp" id="7DH4b15vgkv" role="1xVPHs" />
                    </node>
                  </node>
                </node>
              </node>
            </node>
          </node>
        </node>
        <node concept="3clFbF" id="7DH4b15vgk$" role="3cqZAp">
          <node concept="2OqwBi" id="7DH4b15vgkA" role="3clFbG">
            <node concept="1XNTG" id="7DH4b15vgk_" role="2Oq$k0" />
            <node concept="liA8E" id="7DH4b15vgkE" role="2OqNvi">
              <ref role="37wK5l" to="cj4x:~EditorContext.select(org.jetbrains.mps.openapi.model.SNode):void" resolve="select" />
              <node concept="2OqwBi" id="7DH4b15vgkV" role="37wK5m">
                <node concept="2OqwBi" id="7DH4b15vgkQ" role="2Oq$k0">
                  <node concept="2OqwBi" id="7DH4b15vgkL" role="2Oq$k0">
                    <node concept="2OqwBi" id="7DH4b15vgkG" role="2Oq$k0">
                      <node concept="37vLTw" id="3GM_nagTuVL" role="2Oq$k0">
                        <ref role="3cqZAo" node="7DH4b15vcvP" resolve="readActionStatement" />
                      </node>
                      <node concept="3TrEf2" id="7DH4b15vgkK" role="2OqNvi">
                        <ref role="3Tt5mk" to="qff7:7Mb2akafE8b" />
                      </node>
                    </node>
                    <node concept="3TrEf2" id="7DH4b15vgkP" role="2OqNvi">
                      <ref role="3Tt5mk" to="tp2c:htbW58J" />
                    </node>
                  </node>
                  <node concept="3Tsc0h" id="7DH4b15vgkU" role="2OqNvi">
                    <ref role="3TtcxE" to="tpee:fzcqZ_x" />
                  </node>
                </node>
                <node concept="1uHKPH" id="7DH4b15vgkZ" role="2OqNvi" />
              </node>
            </node>
          </node>
        </node>
      </node>
    </node>
  </node>
</model>

