<?xml version="1.0" encoding="UTF-8"?>
<model ref="r:06347ba9-55db-4390-a23e-cfba36a9507f(jetbrains.mps.lang.constraints.scripts)">
  <persistence version="9" />
  <languages>
    <use id="0eddeefa-c2d6-4437-bc2c-de50fd4ce470" name="jetbrains.mps.lang.script" version="0" />
    <devkit ref="fbc25dd2-5da4-483a-8b19-70928e1b62d7(jetbrains.mps.devkit.general-purpose)" />
  </languages>
  <imports>
    <import index="tp1t" ref="r:00000000-0000-4000-0000-011c8959030d(jetbrains.mps.lang.constraints.structure)" />
    <import index="tpck" ref="r:00000000-0000-4000-0000-011c89590288(jetbrains.mps.lang.core.structure)" implicit="true" />
  </imports>
  <registry>
    <language id="f3061a53-9226-4cc5-a443-f952ceaf5816" name="jetbrains.mps.baseLanguage">
      <concept id="1197027756228" name="jetbrains.mps.baseLanguage.structure.DotExpression" flags="nn" index="2OqwBi">
        <child id="1197027771414" name="operand" index="2Oq$k0" />
        <child id="1197027833540" name="operation" index="2OqNvi" />
      </concept>
      <concept id="1137021947720" name="jetbrains.mps.baseLanguage.structure.ConceptFunction" flags="in" index="2VMwT0">
        <child id="1137022507850" name="body" index="2VODD2" />
      </concept>
      <concept id="1070475926800" name="jetbrains.mps.baseLanguage.structure.StringLiteral" flags="nn" index="Xl_RD">
        <property id="1070475926801" name="value" index="Xl_RC" />
      </concept>
      <concept id="1225271283259" name="jetbrains.mps.baseLanguage.structure.NPEEqualsExpression" flags="nn" index="17R0WA" />
      <concept id="1068580123155" name="jetbrains.mps.baseLanguage.structure.ExpressionStatement" flags="nn" index="3clFbF">
        <child id="1068580123156" name="expression" index="3clFbG" />
      </concept>
      <concept id="1068580123136" name="jetbrains.mps.baseLanguage.structure.StatementList" flags="sn" stub="5293379017992965193" index="3clFbS">
        <child id="1068581517665" name="statement" index="3cqZAp" />
      </concept>
      <concept id="1081773326031" name="jetbrains.mps.baseLanguage.structure.BinaryOperation" flags="nn" index="3uHJSO">
        <child id="1081773367579" name="rightExpression" index="3uHU7w" />
        <child id="1081773367580" name="leftExpression" index="3uHU7B" />
      </concept>
    </language>
    <language id="0eddeefa-c2d6-4437-bc2c-de50fd4ce470" name="jetbrains.mps.lang.script">
      <concept id="1177457067821" name="jetbrains.mps.lang.script.structure.MigrationScript" flags="ig" index="_UgoZ">
        <property id="1177457669450" name="title" index="_Wzho" />
        <child id="1177458178889" name="part" index="_YvDr" />
      </concept>
      <concept id="1177457850499" name="jetbrains.mps.lang.script.structure.MigrationScriptPart_Instance" flags="lg" index="_XfAh">
        <property id="1177457972041" name="description" index="_XH9r" />
        <reference id="1177457957477" name="affectedInstanceConcept" index="_XDHR" />
        <child id="1177457957478" name="affectedInstancePredicate" index="_XDHO" />
        <child id="1177458005323" name="affectedInstanceUpdater" index="_XPhp" />
      </concept>
      <concept id="1177458061340" name="jetbrains.mps.lang.script.structure.MigrationScriptPart_Instance_Predicate" flags="in" index="_Y34e" />
      <concept id="1177458237937" name="jetbrains.mps.lang.script.structure.MigrationScriptPart_node" flags="nn" index="_YI3z" />
      <concept id="1177458491964" name="jetbrains.mps.lang.script.structure.MigrationScriptPart_Instance_Updater" flags="in" index="_ZGcI" />
    </language>
    <language id="7866978e-a0f0-4cc7-81bc-4d213d9375e1" name="jetbrains.mps.lang.smodel">
      <concept id="1138056022639" name="jetbrains.mps.lang.smodel.structure.SPropertyAccess" flags="nn" index="3TrcHB">
        <reference id="1138056395725" name="property" index="3TsBF5" />
      </concept>
      <concept id="1138056143562" name="jetbrains.mps.lang.smodel.structure.SLinkAccess" flags="nn" index="3TrEf2">
        <reference id="1138056516764" name="link" index="3Tt5mk" />
      </concept>
    </language>
    <language id="ceab5195-25ea-4f22-9b92-103b95ca8c0c" name="jetbrains.mps.lang.core">
      <concept id="1169194658468" name="jetbrains.mps.lang.core.structure.INamedConcept" flags="ng" index="TrEIO">
        <property id="1169194664001" name="name" index="TrG5h" />
      </concept>
    </language>
  </registry>
  <node concept="_UgoZ" id="5q_ktuflj1c">
    <property role="TrG5h" value="ShowGetNameUsages" />
    <property role="_Wzho" value="Show getters for name property" />
    <node concept="_XfAh" id="5q_ktuflj1d" role="_YvDr">
      <property role="_XH9r" value="Show getters for name property" />
      <ref role="_XDHR" to="tp1t:gGEnED8" resolve="NodePropertyConstraint" />
      <node concept="_ZGcI" id="5q_ktuflj1e" role="_XPhp">
        <node concept="3clFbS" id="5q_ktuflj1f" role="2VODD2" />
      </node>
      <node concept="_Y34e" id="5q_ktuflCfD" role="_XDHO">
        <node concept="3clFbS" id="5q_ktuflCfE" role="2VODD2">
          <node concept="3clFbF" id="5q_ktuflEaT" role="3cqZAp">
            <node concept="17R0WA" id="5q_ktuflHM2" role="3clFbG">
              <node concept="Xl_RD" id="5q_ktuflHM5" role="3uHU7w">
                <property role="Xl_RC" value="name" />
              </node>
              <node concept="2OqwBi" id="5q_ktuflHLX" role="3uHU7B">
                <node concept="2OqwBi" id="5q_ktuflEaV" role="2Oq$k0">
                  <node concept="_YI3z" id="5q_ktuflEaU" role="2Oq$k0" />
                  <node concept="3TrEf2" id="5q_ktuflHLW" role="2OqNvi">
                    <ref role="3Tt5mk" to="tp1t:gGEom_V" />
                  </node>
                </node>
                <node concept="3TrcHB" id="5q_ktuflHM1" role="2OqNvi">
                  <ref role="3TsBF5" to="tpck:h0TrG11" resolve="name" />
                </node>
              </node>
            </node>
          </node>
        </node>
      </node>
    </node>
  </node>
</model>

