<?xml version="1.0" encoding="UTF-8"?>
<model ref="r:00000000-0000-4000-0000-011c89590309(jetbrains.mps.lang.constraints.typesystem)">
  <persistence version="9" />
  <languages>
    <use id="83888646-71ce-4f1c-9c53-c54016f6ad4f" name="jetbrains.mps.baseLanguage.collections" version="0" />
    <use id="3a13115c-633c-4c5c-bbcc-75c4219e9555" name="jetbrains.mps.lang.quotation" version="0" />
    <use id="7a5dda62-9140-4668-ab76-d5ed1746f2b2" name="jetbrains.mps.lang.typesystem" version="0" />
    <use id="7866978e-a0f0-4cc7-81bc-4d213d9375e1" name="jetbrains.mps.lang.smodel" version="4" />
    <use id="f3061a53-9226-4cc5-a443-f952ceaf5816" name="jetbrains.mps.baseLanguage" version="4" />
  </languages>
  <imports>
    <import index="tp1t" ref="r:00000000-0000-4000-0000-011c8959030d(jetbrains.mps.lang.constraints.structure)" />
    <import index="tpce" ref="r:00000000-0000-4000-0000-011c89590292(jetbrains.mps.lang.structure.structure)" />
    <import index="tpck" ref="r:00000000-0000-4000-0000-011c89590288(jetbrains.mps.lang.core.structure)" />
    <import index="tpcn" ref="r:00000000-0000-4000-0000-011c8959028b(jetbrains.mps.lang.structure.behavior)" />
    <import index="tp22" ref="r:00000000-0000-4000-0000-011c89590306(jetbrains.mps.lang.constraints.behavior)" />
    <import index="1i04" ref="r:3270011d-8b2d-4938-8dff-d256a759e017(jetbrains.mps.lang.behavior.structure)" />
    <import index="tpee" ref="r:00000000-0000-4000-0000-011c895902ca(jetbrains.mps.baseLanguage.structure)" implicit="true" />
    <import index="tpcw" ref="r:00000000-0000-4000-0000-011c895902bc(jetbrains.mps.lang.sharedConcepts.structure)" implicit="true" />
  </imports>
  <registry>
    <language id="f3061a53-9226-4cc5-a443-f952ceaf5816" name="jetbrains.mps.baseLanguage">
      <concept id="1080223426719" name="jetbrains.mps.baseLanguage.structure.OrExpression" flags="nn" index="22lmx$" />
      <concept id="1082485599095" name="jetbrains.mps.baseLanguage.structure.BlockStatement" flags="nn" index="9aQIb">
        <child id="1082485599096" name="statements" index="9aQI4" />
      </concept>
      <concept id="1215693861676" name="jetbrains.mps.baseLanguage.structure.BaseAssignmentExpression" flags="nn" index="d038R">
        <child id="1068498886297" name="rValue" index="37vLTx" />
        <child id="1068498886295" name="lValue" index="37vLTJ" />
      </concept>
      <concept id="1154032098014" name="jetbrains.mps.baseLanguage.structure.AbstractLoopStatement" flags="nn" index="2LF5Ji">
        <child id="1154032183016" name="body" index="2LFqv$" />
      </concept>
      <concept id="1197027756228" name="jetbrains.mps.baseLanguage.structure.DotExpression" flags="nn" index="2OqwBi">
        <child id="1197027771414" name="operand" index="2Oq$k0" />
        <child id="1197027833540" name="operation" index="2OqNvi" />
      </concept>
      <concept id="1070475926800" name="jetbrains.mps.baseLanguage.structure.StringLiteral" flags="nn" index="Xl_RD">
        <property id="1070475926801" name="value" index="Xl_RC" />
      </concept>
      <concept id="1070534058343" name="jetbrains.mps.baseLanguage.structure.NullLiteral" flags="nn" index="10Nm6u" />
      <concept id="1070534644030" name="jetbrains.mps.baseLanguage.structure.BooleanType" flags="in" index="10P_77" />
      <concept id="1068431474542" name="jetbrains.mps.baseLanguage.structure.VariableDeclaration" flags="ng" index="33uBYm">
        <child id="1068431790190" name="initializer" index="33vP2m" />
      </concept>
      <concept id="1068498886296" name="jetbrains.mps.baseLanguage.structure.VariableReference" flags="nn" index="37vLTw">
        <reference id="1068581517664" name="variableDeclaration" index="3cqZAo" />
      </concept>
      <concept id="1068498886294" name="jetbrains.mps.baseLanguage.structure.AssignmentExpression" flags="nn" index="37vLTI" />
      <concept id="4972933694980447171" name="jetbrains.mps.baseLanguage.structure.BaseVariableDeclaration" flags="ng" index="19Szcq">
        <child id="5680397130376446158" name="type" index="1tU5fm" />
      </concept>
      <concept id="1068580123155" name="jetbrains.mps.baseLanguage.structure.ExpressionStatement" flags="nn" index="3clFbF">
        <child id="1068580123156" name="expression" index="3clFbG" />
      </concept>
      <concept id="1068580123159" name="jetbrains.mps.baseLanguage.structure.IfStatement" flags="nn" index="3clFbJ">
        <child id="1082485599094" name="ifFalseStatement" index="9aQIa" />
        <child id="1068580123160" name="condition" index="3clFbw" />
        <child id="1068580123161" name="ifTrue" index="3clFbx" />
        <child id="1206060520071" name="elsifClauses" index="3eNLev" />
      </concept>
      <concept id="1068580123136" name="jetbrains.mps.baseLanguage.structure.StatementList" flags="sn" stub="5293379017992965193" index="3clFbS">
        <child id="1068581517665" name="statement" index="3cqZAp" />
      </concept>
      <concept id="1068580123137" name="jetbrains.mps.baseLanguage.structure.BooleanConstant" flags="nn" index="3clFbT">
        <property id="1068580123138" name="value" index="3clFbU" />
      </concept>
      <concept id="1068581242875" name="jetbrains.mps.baseLanguage.structure.PlusExpression" flags="nn" index="3cpWs3" />
      <concept id="1068581242878" name="jetbrains.mps.baseLanguage.structure.ReturnStatement" flags="nn" index="3cpWs6" />
      <concept id="1068581242864" name="jetbrains.mps.baseLanguage.structure.LocalVariableDeclarationStatement" flags="nn" index="3cpWs8">
        <child id="1068581242865" name="localVariableDeclaration" index="3cpWs9" />
      </concept>
      <concept id="1068581242863" name="jetbrains.mps.baseLanguage.structure.LocalVariableDeclaration" flags="nr" index="3cpWsn" />
      <concept id="1206060495898" name="jetbrains.mps.baseLanguage.structure.ElsifClause" flags="ng" index="3eNFk2">
        <child id="1206060619838" name="condition" index="3eO9$A" />
        <child id="1206060644605" name="statementList" index="3eOfB_" />
      </concept>
      <concept id="1081516740877" name="jetbrains.mps.baseLanguage.structure.NotExpression" flags="nn" index="3fqX7Q">
        <child id="1081516765348" name="expression" index="3fr31v" />
      </concept>
      <concept id="1204053956946" name="jetbrains.mps.baseLanguage.structure.IMethodCall" flags="ng" index="1ndlxa">
        <reference id="1068499141037" name="baseMethodDeclaration" index="37wK5l" />
      </concept>
      <concept id="1081773326031" name="jetbrains.mps.baseLanguage.structure.BinaryOperation" flags="nn" index="3uHJSO">
        <child id="1081773367579" name="rightExpression" index="3uHU7w" />
        <child id="1081773367580" name="leftExpression" index="3uHU7B" />
      </concept>
      <concept id="1073239437375" name="jetbrains.mps.baseLanguage.structure.NotEqualsExpression" flags="nn" index="3y3z36" />
      <concept id="1144226303539" name="jetbrains.mps.baseLanguage.structure.ForeachStatement" flags="nn" index="1DcWWT">
        <child id="1144226360166" name="iterable" index="1DdaDG" />
      </concept>
      <concept id="1144230876926" name="jetbrains.mps.baseLanguage.structure.AbstractForStatement" flags="nn" index="1DupvO">
        <child id="1144230900587" name="variable" index="1Duv9x" />
      </concept>
    </language>
    <language id="3a13115c-633c-4c5c-bbcc-75c4219e9555" name="jetbrains.mps.lang.quotation">
      <concept id="1196350785110" name="jetbrains.mps.lang.quotation.structure.AbstractAntiquotation" flags="ng" index="2c44t0">
        <child id="1196350785111" name="expression" index="2c44t1" />
      </concept>
      <concept id="1196350785117" name="jetbrains.mps.lang.quotation.structure.ReferenceAntiquotation" flags="ng" index="2c44tb" />
      <concept id="1196350785113" name="jetbrains.mps.lang.quotation.structure.Quotation" flags="nn" index="2c44tf">
        <child id="1196350785114" name="quotedNode" index="2c44tc" />
      </concept>
    </language>
    <language id="7a5dda62-9140-4668-ab76-d5ed1746f2b2" name="jetbrains.mps.lang.typesystem">
      <concept id="1207055528241" name="jetbrains.mps.lang.typesystem.structure.WarningStatement" flags="nn" index="a7r0C">
        <child id="1207055552304" name="warningText" index="a7wSD" />
      </concept>
      <concept id="1185788614172" name="jetbrains.mps.lang.typesystem.structure.NormalTypeClause" flags="ng" index="mw_s8">
        <child id="1185788644032" name="normalType" index="mwGJk" />
      </concept>
      <concept id="1175517767210" name="jetbrains.mps.lang.typesystem.structure.ReportErrorStatement" flags="nn" index="2MkqsV">
        <child id="1175517851849" name="errorString" index="2MkJ7o" />
      </concept>
      <concept id="1227096774658" name="jetbrains.mps.lang.typesystem.structure.MessageStatement" flags="ng" index="2OEH$v">
        <child id="1227096802790" name="nodeToReport" index="2OEOjV" />
      </concept>
      <concept id="1195213580585" name="jetbrains.mps.lang.typesystem.structure.AbstractCheckingRule" flags="ig" index="18hYwZ">
        <child id="1195213635060" name="body" index="18ibNy" />
      </concept>
      <concept id="1195214364922" name="jetbrains.mps.lang.typesystem.structure.NonTypesystemRule" flags="ig" index="18kY7G" />
      <concept id="1174642788531" name="jetbrains.mps.lang.typesystem.structure.ConceptReference" flags="ig" index="1YaCAy">
        <reference id="1174642800329" name="concept" index="1YaFvo" />
      </concept>
      <concept id="1174643105530" name="jetbrains.mps.lang.typesystem.structure.InferenceRule" flags="ig" index="1YbPZF" />
      <concept id="1174648085619" name="jetbrains.mps.lang.typesystem.structure.AbstractRule" flags="ng" index="1YuPPy">
        <child id="1174648101952" name="applicableNode" index="1YuTPh" />
      </concept>
      <concept id="1174650418652" name="jetbrains.mps.lang.typesystem.structure.ApplicableNodeReference" flags="nn" index="1YBJjd">
        <reference id="1174650432090" name="applicableNode" index="1YBMHb" />
      </concept>
      <concept id="1174657487114" name="jetbrains.mps.lang.typesystem.structure.TypeOfExpression" flags="nn" index="1Z2H0r">
        <child id="1174657509053" name="term" index="1Z2MuG" />
      </concept>
      <concept id="1174658326157" name="jetbrains.mps.lang.typesystem.structure.CreateEquationStatement" flags="nn" index="1Z5TYs" />
      <concept id="1174660718586" name="jetbrains.mps.lang.typesystem.structure.AbstractEquationStatement" flags="nn" index="1Zf1VF">
        <child id="1174660783413" name="leftExpression" index="1ZfhK$" />
        <child id="1174660783414" name="rightExpression" index="1ZfhKB" />
      </concept>
    </language>
    <language id="7866978e-a0f0-4cc7-81bc-4d213d9375e1" name="jetbrains.mps.lang.smodel">
      <concept id="1177026924588" name="jetbrains.mps.lang.smodel.structure.RefConcept_Reference" flags="nn" index="chp4Y">
        <reference id="1177026940964" name="conceptDeclaration" index="cht4Q" />
      </concept>
      <concept id="1138411891628" name="jetbrains.mps.lang.smodel.structure.SNodeOperation" flags="nn" index="eCIE_">
        <child id="1144104376918" name="parameter" index="1xVPHs" />
      </concept>
      <concept id="1179409122411" name="jetbrains.mps.lang.smodel.structure.Node_ConceptMethodCall" flags="nn" index="2qgKlT" />
      <concept id="1145383075378" name="jetbrains.mps.lang.smodel.structure.SNodeListType" flags="in" index="2I9FWS">
        <reference id="1145383142433" name="elementConcept" index="2I9WkF" />
      </concept>
      <concept id="1171305280644" name="jetbrains.mps.lang.smodel.structure.Node_GetDescendantsOperation" flags="nn" index="2Rf3mk" />
      <concept id="1171310072040" name="jetbrains.mps.lang.smodel.structure.Node_GetContainingRootOperation" flags="nn" index="2Rxl7S" />
      <concept id="1171407110247" name="jetbrains.mps.lang.smodel.structure.Node_GetAncestorOperation" flags="nn" index="2Xjw5R" />
      <concept id="1139621453865" name="jetbrains.mps.lang.smodel.structure.Node_IsInstanceOfOperation" flags="nn" index="1mIQ4w">
        <child id="1177027386292" name="conceptArgument" index="cj9EA" />
      </concept>
      <concept id="1171999116870" name="jetbrains.mps.lang.smodel.structure.Node_IsNullOperation" flags="nn" index="3w_OXm" />
      <concept id="1172008320231" name="jetbrains.mps.lang.smodel.structure.Node_IsNotNullOperation" flags="nn" index="3x8VRR" />
      <concept id="1144101972840" name="jetbrains.mps.lang.smodel.structure.OperationParm_Concept" flags="ng" index="1xMEDy">
        <child id="1207343664468" name="conceptArgument" index="ri$Ld" />
      </concept>
      <concept id="1172323065820" name="jetbrains.mps.lang.smodel.structure.Node_GetConceptOperation" flags="nn" index="3NT_Vc" />
      <concept id="1138055754698" name="jetbrains.mps.lang.smodel.structure.SNodeType" flags="in" index="3Tqbb2">
        <reference id="1138405853777" name="concept" index="ehGHo" />
      </concept>
      <concept id="1138056022639" name="jetbrains.mps.lang.smodel.structure.SPropertyAccess" flags="nn" index="3TrcHB">
        <reference id="1138056395725" name="property" index="3TsBF5" />
      </concept>
      <concept id="1138056143562" name="jetbrains.mps.lang.smodel.structure.SLinkAccess" flags="nn" index="3TrEf2">
        <reference id="1138056516764" name="link" index="3Tt5mk" />
      </concept>
      <concept id="1138056282393" name="jetbrains.mps.lang.smodel.structure.SLinkListAccess" flags="nn" index="3Tsc0h">
        <reference id="1138056546658" name="link" index="3TtcxE" />
      </concept>
      <concept id="1172420572800" name="jetbrains.mps.lang.smodel.structure.ConceptNodeType" flags="in" index="3THzug" />
    </language>
    <language id="ceab5195-25ea-4f22-9b92-103b95ca8c0c" name="jetbrains.mps.lang.core">
      <concept id="1133920641626" name="jetbrains.mps.lang.core.structure.BaseConcept" flags="ng" index="2VYdi">
        <property id="1193676396447" name="virtualPackage" index="3GE5qa" />
        <child id="5169995583184591170" name="smodelAttribute" index="lGtFl" />
      </concept>
      <concept id="3364660638048049745" name="jetbrains.mps.lang.core.structure.LinkAttribute" flags="ng" index="A9Btn">
        <property id="1757699476691236116" name="linkRole" index="2qtEX8" />
        <property id="1341860900488019036" name="linkId" index="P3scX" />
      </concept>
      <concept id="1169194658468" name="jetbrains.mps.lang.core.structure.INamedConcept" flags="ng" index="TrEIO">
        <property id="1169194664001" name="name" index="TrG5h" />
      </concept>
    </language>
    <language id="83888646-71ce-4f1c-9c53-c54016f6ad4f" name="jetbrains.mps.baseLanguage.collections">
      <concept id="540871147943773365" name="jetbrains.mps.baseLanguage.collections.structure.SingleArgumentSequenceOperation" flags="nn" index="25WWJ4">
        <child id="540871147943773366" name="argument" index="25WWJ7" />
      </concept>
      <concept id="1153943597977" name="jetbrains.mps.baseLanguage.collections.structure.ForEachStatement" flags="nn" index="2Gpval">
        <child id="1153944400369" name="variable" index="2Gsz3X" />
        <child id="1153944424730" name="inputSequence" index="2GsD0m" />
      </concept>
      <concept id="1153944193378" name="jetbrains.mps.baseLanguage.collections.structure.ForEachVariable" flags="nr" index="2GrKxI" />
      <concept id="1153944233411" name="jetbrains.mps.baseLanguage.collections.structure.ForEachVariableReference" flags="nn" index="2GrUjf">
        <reference id="1153944258490" name="variable" index="2Gs0qQ" />
      </concept>
      <concept id="1165530316231" name="jetbrains.mps.baseLanguage.collections.structure.IsEmptyOperation" flags="nn" index="1v1jN8" />
      <concept id="1172254888721" name="jetbrains.mps.baseLanguage.collections.structure.ContainsOperation" flags="nn" index="3JPx81" />
    </language>
  </registry>
  <node concept="1YbPZF" id="h9gNisf">
    <property role="TrG5h" value="typeof_ConstraintsFunctionParameter_node" />
    <node concept="3clFbS" id="h9gNisg" role="18ibNy">
      <node concept="3cpWs8" id="h9gNish" role="3cqZAp">
        <node concept="3cpWsn" id="h9gNis0" role="3cpWs9">
          <property role="TrG5h" value="applicableConcept" />
          <node concept="3THzug" id="hdfDKqU" role="1tU5fm" />
        </node>
      </node>
      <node concept="3clFbJ" id="1cLdD6E7kPB" role="3cqZAp">
        <node concept="3clFbS" id="1cLdD6E7kPC" role="3clFbx">
          <node concept="3clFbF" id="1cLdD6E7kPX" role="3cqZAp">
            <node concept="37vLTI" id="1cLdD6E7kPZ" role="3clFbG">
              <node concept="2OqwBi" id="1cLdD6E7kQc" role="37vLTx">
                <node concept="2OqwBi" id="1cLdD6E7kQ3" role="2Oq$k0">
                  <node concept="1YBJjd" id="1cLdD6E7kQ2" role="2Oq$k0">
                    <ref role="1YBMHb" node="h9gNirZ" resolve="node" />
                  </node>
                  <node concept="2Xjw5R" id="1cLdD6E7kQ7" role="2OqNvi">
                    <node concept="1xMEDy" id="1cLdD6E7kQ8" role="1xVPHs">
                      <node concept="chp4Y" id="1cLdD6E7kQg" role="ri$Ld">
                        <ref role="cht4Q" to="tp1t:hDM2fEI" resolve="ConceptConstraints" />
                      </node>
                    </node>
                  </node>
                </node>
                <node concept="3TrEf2" id="1cLdD6E7kQh" role="2OqNvi">
                  <ref role="3Tt5mk" to="tp1t:hDM2mAQ" />
                </node>
              </node>
              <node concept="37vLTw" id="3GM_nagTvkG" role="37vLTJ">
                <ref role="3cqZAo" node="h9gNis0" resolve="applicableConcept" />
              </node>
            </node>
          </node>
        </node>
        <node concept="22lmx$" id="6kp4dbAeoLB" role="3clFbw">
          <node concept="22lmx$" id="6kp4dbAemvU" role="3uHU7B">
            <node concept="22lmx$" id="6kp4dbAdnx1" role="3uHU7B">
              <node concept="22lmx$" id="1fdcuoJ028q" role="3uHU7B">
                <node concept="2OqwBi" id="1cLdD6E7kPQ" role="3uHU7B">
                  <node concept="2OqwBi" id="1cLdD6E7kPG" role="2Oq$k0">
                    <node concept="1YBJjd" id="1cLdD6E7kPF" role="2Oq$k0">
                      <ref role="1YBMHb" node="h9gNirZ" resolve="node" />
                    </node>
                    <node concept="2Xjw5R" id="1cLdD6E7kPL" role="2OqNvi">
                      <node concept="1xMEDy" id="1cLdD6E7kPM" role="1xVPHs">
                        <node concept="chp4Y" id="1cLdD6E7kPP" role="ri$Ld">
                          <ref role="cht4Q" to="tp1t:3gr0SYj1Ynf" resolve="ConstraintFunction_GetAlternativeIcon" />
                        </node>
                      </node>
                    </node>
                  </node>
                  <node concept="3x8VRR" id="1cLdD6E7kPU" role="2OqNvi" />
                </node>
                <node concept="2OqwBi" id="1fdcuoJ02rO" role="3uHU7w">
                  <node concept="2OqwBi" id="1fdcuoJ02rP" role="2Oq$k0">
                    <node concept="1YBJjd" id="1fdcuoJ02rQ" role="2Oq$k0">
                      <ref role="1YBMHb" node="h9gNirZ" resolve="node" />
                    </node>
                    <node concept="2Xjw5R" id="1fdcuoJ02rR" role="2OqNvi">
                      <node concept="1xMEDy" id="1fdcuoJ02rS" role="1xVPHs">
                        <node concept="chp4Y" id="1fdcuoJ02Ck" role="ri$Ld">
                          <ref role="cht4Q" to="tp1t:1fdcuoIX_DM" resolve="ConstraintFunction_GetInstanceIcon" />
                        </node>
                      </node>
                    </node>
                  </node>
                  <node concept="3x8VRR" id="1fdcuoJ02rU" role="2OqNvi" />
                </node>
              </node>
              <node concept="2OqwBi" id="6kp4dbAdrTk" role="3uHU7w">
                <node concept="2OqwBi" id="6kp4dbAdoj8" role="2Oq$k0">
                  <node concept="1YBJjd" id="6kp4dbAdnIi" role="2Oq$k0">
                    <ref role="1YBMHb" node="h9gNirZ" resolve="node" />
                  </node>
                  <node concept="2Xjw5R" id="6kp4dbAdriz" role="2OqNvi">
                    <node concept="1xMEDy" id="6kp4dbAdri_" role="1xVPHs">
                      <node concept="chp4Y" id="6kp4dbAephg" role="ri$Ld">
                        <ref role="cht4Q" to="tp1t:hwnKS6U" resolve="ConstraintFunction_CanBeAChild" />
                      </node>
                    </node>
                  </node>
                </node>
                <node concept="3x8VRR" id="6kp4dbAdvdD" role="2OqNvi" />
              </node>
            </node>
            <node concept="2OqwBi" id="6kp4dbAemMD" role="3uHU7w">
              <node concept="2OqwBi" id="6kp4dbAemME" role="2Oq$k0">
                <node concept="1YBJjd" id="6kp4dbAemMF" role="2Oq$k0">
                  <ref role="1YBMHb" node="h9gNirZ" resolve="node" />
                </node>
                <node concept="2Xjw5R" id="6kp4dbAemMG" role="2OqNvi">
                  <node concept="1xMEDy" id="6kp4dbAemMH" role="1xVPHs">
                    <node concept="chp4Y" id="6kp4dbAepqK" role="ri$Ld">
                      <ref role="cht4Q" to="tp1t:hwosYPg" resolve="ConstraintFunction_CanBeAParent" />
                    </node>
                  </node>
                </node>
              </node>
              <node concept="3x8VRR" id="6kp4dbAemMJ" role="2OqNvi" />
            </node>
          </node>
          <node concept="2OqwBi" id="6kp4dbAep7s" role="3uHU7w">
            <node concept="2OqwBi" id="6kp4dbAep7t" role="2Oq$k0">
              <node concept="1YBJjd" id="6kp4dbAep7u" role="2Oq$k0">
                <ref role="1YBMHb" node="h9gNirZ" resolve="node" />
              </node>
              <node concept="2Xjw5R" id="6kp4dbAep7v" role="2OqNvi">
                <node concept="1xMEDy" id="6kp4dbAep7w" role="1xVPHs">
                  <node concept="chp4Y" id="6kp4dbAep7x" role="ri$Ld">
                    <ref role="cht4Q" to="tp1t:6O3HjXnmTq5" resolve="ConstraintFunction_CanBeAnAncestor" />
                  </node>
                </node>
              </node>
            </node>
            <node concept="3x8VRR" id="6kp4dbAep7y" role="2OqNvi" />
          </node>
        </node>
        <node concept="9aQIb" id="1cLdD6E7kPV" role="9aQIa">
          <node concept="3clFbS" id="1cLdD6E7kPW" role="9aQI4">
            <node concept="3clFbF" id="1cLdD6E7kPz" role="3cqZAp">
              <node concept="37vLTI" id="1cLdD6E7kP$" role="3clFbG">
                <node concept="2OqwBi" id="hxx$JMr" role="37vLTx">
                  <node concept="2OqwBi" id="hxx$EIw" role="2Oq$k0">
                    <node concept="1YBJjd" id="h9gNisl" role="2Oq$k0">
                      <ref role="1YBMHb" node="h9gNirZ" resolve="node" />
                    </node>
                    <node concept="2Xjw5R" id="h9gNism" role="2OqNvi">
                      <node concept="1xMEDy" id="h9gNisn" role="1xVPHs">
                        <node concept="chp4Y" id="h_efEIM" role="ri$Ld">
                          <ref role="cht4Q" to="tp1t:gGEnED8" resolve="NodePropertyConstraint" />
                        </node>
                      </node>
                    </node>
                  </node>
                  <node concept="2qgKlT" id="haqRx6B" role="2OqNvi">
                    <ref role="37wK5l" to="tp22:hEwIoOT" resolve="getApplicableConcept" />
                  </node>
                </node>
                <node concept="37vLTw" id="3GM_nagT_5j" role="37vLTJ">
                  <ref role="3cqZAo" node="h9gNis0" resolve="applicableConcept" />
                </node>
              </node>
            </node>
          </node>
        </node>
      </node>
      <node concept="3clFbJ" id="h9gNisp" role="3cqZAp">
        <node concept="2OqwBi" id="hxx$NZB" role="3clFbw">
          <node concept="37vLTw" id="3GM_nagTxui" role="2Oq$k0">
            <ref role="3cqZAo" node="h9gNis0" resolve="applicableConcept" />
          </node>
          <node concept="3w_OXm" id="h9gNiss" role="2OqNvi" />
        </node>
        <node concept="3clFbS" id="h9gNist" role="3clFbx">
          <node concept="1Z5TYs" id="hCQplp0" role="3cqZAp">
            <node concept="mw_s8" id="hCQplp1" role="1ZfhK$">
              <node concept="1Z2H0r" id="hCQplp2" role="mwGJk">
                <node concept="1YBJjd" id="h9gNisx" role="1Z2MuG">
                  <ref role="1YBMHb" node="h9gNirZ" resolve="node" />
                </node>
              </node>
            </node>
            <node concept="mw_s8" id="hCQplp3" role="1ZfhKB">
              <node concept="2c44tf" id="hrBGIdc" role="mwGJk">
                <node concept="3Tqbb2" id="hrBGIdd" role="2c44tc" />
              </node>
            </node>
          </node>
        </node>
        <node concept="9aQIb" id="h9gNisy" role="9aQIa">
          <node concept="3clFbS" id="h9gNisz" role="9aQI4">
            <node concept="1Z5TYs" id="hCQpmz2" role="3cqZAp">
              <node concept="mw_s8" id="hCQpmz3" role="1ZfhK$">
                <node concept="1Z2H0r" id="hCQpmz4" role="mwGJk">
                  <node concept="1YBJjd" id="h9gNisD" role="1Z2MuG">
                    <ref role="1YBMHb" node="h9gNirZ" resolve="node" />
                  </node>
                </node>
              </node>
              <node concept="mw_s8" id="hCQpmz5" role="1ZfhKB">
                <node concept="2c44tf" id="hrBGIde" role="mwGJk">
                  <node concept="3Tqbb2" id="hrBGIdf" role="2c44tc">
                    <node concept="2c44tb" id="hrBGIdy" role="lGtFl">
                      <property role="2qtEX8" value="concept" />
                      <property role="P3scX" value="7866978e-a0f0-4cc7-81bc-4d213d9375e1/1138055754698/1138405853777" />
                      <node concept="37vLTw" id="3GM_nagTrux" role="2c44t1">
                        <ref role="3cqZAo" node="h9gNis0" resolve="applicableConcept" />
                      </node>
                    </node>
                  </node>
                </node>
              </node>
            </node>
          </node>
        </node>
      </node>
    </node>
    <node concept="1YaCAy" id="h9gNirZ" role="1YuTPh">
      <property role="TrG5h" value="node" />
      <ref role="1YaFvo" to="tp1t:gGEsrNs" resolve="ConstraintsFunctionParameter_node" />
    </node>
  </node>
  <node concept="1YbPZF" id="h9gNit5">
    <property role="TrG5h" value="typeof_ConstraintsFunctionParameter_propertyValue" />
    <node concept="3clFbS" id="h9gNit6" role="18ibNy">
      <node concept="3cpWs8" id="hdgYnmR" role="3cqZAp">
        <node concept="3cpWsn" id="hdgYnmS" role="3cpWs9">
          <property role="TrG5h" value="propertyConstraint" />
          <node concept="3Tqbb2" id="hdgYnmT" role="1tU5fm">
            <ref role="ehGHo" to="tp1t:gGEnED8" resolve="NodePropertyConstraint" />
          </node>
          <node concept="2OqwBi" id="hxx$SWL" role="33vP2m">
            <node concept="1YBJjd" id="hdgYfMO" role="2Oq$k0">
              <ref role="1YBMHb" node="h9gNis4" resolve="node" />
            </node>
            <node concept="2Xjw5R" id="hdgYhie" role="2OqNvi">
              <node concept="1xMEDy" id="hdgYikH" role="1xVPHs">
                <node concept="chp4Y" id="h_efEJh" role="ri$Ld">
                  <ref role="cht4Q" to="tp1t:gGEnED8" resolve="NodePropertyConstraint" />
                </node>
              </node>
            </node>
          </node>
        </node>
      </node>
      <node concept="3cpWs8" id="hdgYud_" role="3cqZAp">
        <node concept="3cpWsn" id="hdgYudA" role="3cpWs9">
          <property role="TrG5h" value="property" />
          <node concept="3Tqbb2" id="hdgYudB" role="1tU5fm">
            <ref role="ehGHo" to="tpce:f_TJgxF" resolve="PropertyDeclaration" />
          </node>
          <node concept="2OqwBi" id="hxx$Z6o" role="33vP2m">
            <node concept="37vLTw" id="3GM_nagTwuY" role="2Oq$k0">
              <ref role="3cqZAo" node="hdgYnmS" resolve="propertyConstraint" />
            </node>
            <node concept="3TrEf2" id="hdgYsfL" role="2OqNvi">
              <ref role="3Tt5mk" to="tp1t:gGEom_V" />
            </node>
          </node>
        </node>
      </node>
      <node concept="3cpWs8" id="hdgY_2P" role="3cqZAp">
        <node concept="3cpWsn" id="hdgY_2Q" role="3cpWs9">
          <property role="TrG5h" value="dataType" />
          <node concept="3Tqbb2" id="hdgY_2R" role="1tU5fm">
            <ref role="ehGHo" to="tpce:fKAxPRU" resolve="DataTypeDeclaration" />
          </node>
          <node concept="2OqwBi" id="hxx$Cxk" role="33vP2m">
            <node concept="37vLTw" id="3GM_nagTtqe" role="2Oq$k0">
              <ref role="3cqZAo" node="hdgYudA" resolve="property" />
            </node>
            <node concept="3TrEf2" id="hdgY$qe" role="2OqNvi">
              <ref role="3Tt5mk" to="tpce:fKAX2Z_" />
            </node>
          </node>
        </node>
      </node>
      <node concept="3clFbJ" id="hdgYAra" role="3cqZAp">
        <node concept="3clFbS" id="hdgYArb" role="3clFbx">
          <node concept="1Z5TYs" id="hCQDDTx" role="3cqZAp">
            <node concept="mw_s8" id="hCQDDTy" role="1ZfhK$">
              <node concept="1Z2H0r" id="hCQDDTz" role="mwGJk">
                <node concept="1YBJjd" id="hdgYIII" role="1Z2MuG">
                  <ref role="1YBMHb" node="h9gNis4" resolve="node" />
                </node>
              </node>
            </node>
            <node concept="mw_s8" id="hCQDDT$" role="1ZfhKB">
              <node concept="2OqwBi" id="hxx$GwW" role="mwGJk">
                <node concept="37vLTw" id="3GM_nagTzdz" role="2Oq$k0">
                  <ref role="3cqZAo" node="hdgY_2Q" resolve="dataType" />
                </node>
                <node concept="2qgKlT" id="hdgYGzI" role="2OqNvi">
                  <ref role="37wK5l" to="tpcn:hEwI9ym" resolve="toBaseLanguageType" />
                </node>
              </node>
            </node>
          </node>
        </node>
        <node concept="3y3z36" id="hdgYBkL" role="3clFbw">
          <node concept="10Nm6u" id="hdgYBRy" role="3uHU7w" />
          <node concept="37vLTw" id="3GM_nagTrLb" role="3uHU7B">
            <ref role="3cqZAo" node="hdgY_2Q" resolve="dataType" />
          </node>
        </node>
      </node>
    </node>
    <node concept="1YaCAy" id="h9gNis4" role="1YuTPh">
      <property role="TrG5h" value="node" />
      <ref role="1YaFvo" to="tp1t:gLWqvmI" resolve="ConstraintsFunctionParameter_propertyValue" />
    </node>
  </node>
  <node concept="1YbPZF" id="h9gNitc">
    <property role="TrG5h" value="typeof_ConstraintFunctionParameter_referenceNode" />
    <node concept="3clFbS" id="h9gNitd" role="18ibNy">
      <node concept="3cpWs8" id="h9gNite" role="3cqZAp">
        <node concept="3cpWsn" id="h9gNis7" role="3cpWs9">
          <property role="TrG5h" value="applicableConcept" />
          <node concept="3THzug" id="hdfDIrc" role="1tU5fm" />
          <node concept="2OqwBi" id="hxx_6K8" role="33vP2m">
            <node concept="2OqwBi" id="hxx$Uh$" role="2Oq$k0">
              <node concept="1YBJjd" id="h9gNiti" role="2Oq$k0">
                <ref role="1YBMHb" node="h9gNis6" resolve="node" />
              </node>
              <node concept="2Xjw5R" id="h9gNitj" role="2OqNvi">
                <node concept="1xMEDy" id="h9gNitk" role="1xVPHs">
                  <node concept="chp4Y" id="h_efEIL" role="ri$Ld">
                    <ref role="cht4Q" to="tp1t:gHN5Pbq" resolve="NodeReferentConstraint" />
                  </node>
                </node>
              </node>
            </node>
            <node concept="2qgKlT" id="haqRxcm" role="2OqNvi">
              <ref role="37wK5l" to="tp22:hEwIMWq" resolve="getApplicableConcept" />
            </node>
          </node>
        </node>
      </node>
      <node concept="3clFbJ" id="3oQug8hr9Pu" role="3cqZAp">
        <node concept="3clFbS" id="3oQug8hr9Pv" role="3clFbx">
          <node concept="3clFbF" id="3oQug8hr9PC" role="3cqZAp">
            <node concept="37vLTI" id="3oQug8hr9PE" role="3clFbG">
              <node concept="2OqwBi" id="3oQug8hr9PR" role="37vLTx">
                <node concept="2OqwBi" id="3oQug8hr9PI" role="2Oq$k0">
                  <node concept="1YBJjd" id="3oQug8hr9PH" role="2Oq$k0">
                    <ref role="1YBMHb" node="h9gNis6" resolve="node" />
                  </node>
                  <node concept="2Xjw5R" id="3oQug8hr9PM" role="2OqNvi">
                    <node concept="1xMEDy" id="3oQug8hr9PN" role="1xVPHs">
                      <node concept="chp4Y" id="3oQug8hr9PQ" role="ri$Ld">
                        <ref role="cht4Q" to="tp1t:gREP7xi" resolve="NodeDefaultSearchScope" />
                      </node>
                    </node>
                  </node>
                </node>
                <node concept="2qgKlT" id="3oQug8hr9PV" role="2OqNvi">
                  <ref role="37wK5l" to="tp22:hEwIhhr" resolve="getReferentConcept" />
                </node>
              </node>
              <node concept="37vLTw" id="3GM_nagTwpp" role="37vLTJ">
                <ref role="3cqZAo" node="h9gNis7" resolve="applicableConcept" />
              </node>
            </node>
          </node>
        </node>
        <node concept="2OqwBi" id="3oQug8hr9Pz" role="3clFbw">
          <node concept="37vLTw" id="3GM_nagTxAD" role="2Oq$k0">
            <ref role="3cqZAo" node="h9gNis7" resolve="applicableConcept" />
          </node>
          <node concept="3w_OXm" id="3oQug8hr9PB" role="2OqNvi" />
        </node>
      </node>
      <node concept="3clFbJ" id="h9gNitm" role="3cqZAp">
        <node concept="2OqwBi" id="hxx$GtN" role="3clFbw">
          <node concept="37vLTw" id="3GM_nagTv$m" role="2Oq$k0">
            <ref role="3cqZAo" node="h9gNis7" resolve="applicableConcept" />
          </node>
          <node concept="3w_OXm" id="h9gNitp" role="2OqNvi" />
        </node>
        <node concept="3clFbS" id="h9gNitq" role="3clFbx">
          <node concept="1Z5TYs" id="hCQDB7U" role="3cqZAp">
            <node concept="mw_s8" id="hCQDB7V" role="1ZfhK$">
              <node concept="1Z2H0r" id="hCQDB7W" role="mwGJk">
                <node concept="1YBJjd" id="h9gNitu" role="1Z2MuG">
                  <ref role="1YBMHb" node="h9gNis6" resolve="node" />
                </node>
              </node>
            </node>
            <node concept="mw_s8" id="hCQDB7X" role="1ZfhKB">
              <node concept="2c44tf" id="hrBGIdG" role="mwGJk">
                <node concept="3Tqbb2" id="hrBGIdH" role="2c44tc" />
              </node>
            </node>
          </node>
        </node>
        <node concept="9aQIb" id="h9gNitv" role="9aQIa">
          <node concept="3clFbS" id="h9gNitw" role="9aQI4">
            <node concept="1Z5TYs" id="hCQDCm_" role="3cqZAp">
              <node concept="mw_s8" id="hCQDCmA" role="1ZfhK$">
                <node concept="1Z2H0r" id="hCQDCmB" role="mwGJk">
                  <node concept="1YBJjd" id="h9gNitA" role="1Z2MuG">
                    <ref role="1YBMHb" node="h9gNis6" resolve="node" />
                  </node>
                </node>
              </node>
              <node concept="mw_s8" id="hCQDCmC" role="1ZfhKB">
                <node concept="2c44tf" id="hrBGIdI" role="mwGJk">
                  <node concept="3Tqbb2" id="hrBGIdJ" role="2c44tc">
                    <node concept="2c44tb" id="hrBGIdM" role="lGtFl">
                      <property role="2qtEX8" value="concept" />
                      <property role="P3scX" value="7866978e-a0f0-4cc7-81bc-4d213d9375e1/1138055754698/1138405853777" />
                      <node concept="37vLTw" id="3GM_nagTuC2" role="2c44t1">
                        <ref role="3cqZAo" node="h9gNis7" resolve="applicableConcept" />
                      </node>
                    </node>
                  </node>
                </node>
              </node>
            </node>
          </node>
        </node>
      </node>
    </node>
    <node concept="1YaCAy" id="h9gNis6" role="1YuTPh">
      <property role="TrG5h" value="node" />
      <ref role="1YaFvo" to="tp1t:gVkakXD" resolve="ConstraintFunctionParameter_referenceNode" />
    </node>
  </node>
  <node concept="1YbPZF" id="h9gNitB">
    <property role="TrG5h" value="typeof_ConstraintFunctionParameter_oldReferentNode" />
    <node concept="3clFbS" id="h9gNitC" role="18ibNy">
      <node concept="3cpWs8" id="h9gNitD" role="3cqZAp">
        <node concept="3cpWsn" id="h9gNis9" role="3cpWs9">
          <property role="TrG5h" value="targetConcept" />
          <node concept="3THzug" id="hdfDC58" role="1tU5fm" />
          <node concept="2OqwBi" id="hxx_5YL" role="33vP2m">
            <node concept="2OqwBi" id="hxx$TWP" role="2Oq$k0">
              <node concept="2OqwBi" id="hxx$E1P" role="2Oq$k0">
                <node concept="1YBJjd" id="h9gNitI" role="2Oq$k0">
                  <ref role="1YBMHb" node="h9gNis8" resolve="node" />
                </node>
                <node concept="2Xjw5R" id="h9gNitJ" role="2OqNvi">
                  <node concept="1xMEDy" id="h9gNitK" role="1xVPHs">
                    <node concept="chp4Y" id="h_efEJ7" role="ri$Ld">
                      <ref role="cht4Q" to="tp1t:gHN5Pbq" resolve="NodeReferentConstraint" />
                    </node>
                  </node>
                </node>
              </node>
              <node concept="3TrEf2" id="h9gNitL" role="2OqNvi">
                <ref role="3Tt5mk" to="tp1t:gHN5VAa" />
              </node>
            </node>
            <node concept="3TrEf2" id="h9gNitM" role="2OqNvi">
              <ref role="3Tt5mk" to="tpce:fA0lvVK" />
            </node>
          </node>
        </node>
      </node>
      <node concept="3clFbJ" id="h9gNitN" role="3cqZAp">
        <node concept="2OqwBi" id="hxx_3iv" role="3clFbw">
          <node concept="37vLTw" id="3GM_nagTyIF" role="2Oq$k0">
            <ref role="3cqZAo" node="h9gNis9" resolve="targetConcept" />
          </node>
          <node concept="3w_OXm" id="hdfDD7k" role="2OqNvi" />
        </node>
        <node concept="3clFbS" id="h9gNitR" role="3clFbx">
          <node concept="1Z5TYs" id="hCQDzLE" role="3cqZAp">
            <node concept="mw_s8" id="hCQDzLF" role="1ZfhK$">
              <node concept="1Z2H0r" id="hCQDzLG" role="mwGJk">
                <node concept="1YBJjd" id="h9gNitV" role="1Z2MuG">
                  <ref role="1YBMHb" node="h9gNis8" resolve="node" />
                </node>
              </node>
            </node>
            <node concept="mw_s8" id="hCQDzLH" role="1ZfhKB">
              <node concept="2c44tf" id="hrBGIdO" role="mwGJk">
                <node concept="3Tqbb2" id="hrBGIdP" role="2c44tc" />
              </node>
            </node>
          </node>
        </node>
        <node concept="9aQIb" id="h9gNitW" role="9aQIa">
          <node concept="3clFbS" id="h9gNitX" role="9aQI4">
            <node concept="1Z5TYs" id="hCQD_cz" role="3cqZAp">
              <node concept="mw_s8" id="hCQD_c$" role="1ZfhK$">
                <node concept="1Z2H0r" id="hCQD_c_" role="mwGJk">
                  <node concept="1YBJjd" id="h9gNiu3" role="1Z2MuG">
                    <ref role="1YBMHb" node="h9gNis8" resolve="node" />
                  </node>
                </node>
              </node>
              <node concept="mw_s8" id="hCQD_cA" role="1ZfhKB">
                <node concept="2c44tf" id="hrBGIdQ" role="mwGJk">
                  <node concept="3Tqbb2" id="hrBGIdR" role="2c44tc">
                    <node concept="2c44tb" id="hrBGIdU" role="lGtFl">
                      <property role="2qtEX8" value="concept" />
                      <property role="P3scX" value="7866978e-a0f0-4cc7-81bc-4d213d9375e1/1138055754698/1138405853777" />
                      <node concept="37vLTw" id="3GM_nagT$la" role="2c44t1">
                        <ref role="3cqZAo" node="h9gNis9" resolve="targetConcept" />
                      </node>
                    </node>
                  </node>
                </node>
              </node>
            </node>
          </node>
        </node>
      </node>
    </node>
    <node concept="1YaCAy" id="h9gNis8" role="1YuTPh">
      <property role="TrG5h" value="node" />
      <ref role="1YaFvo" to="tp1t:gVki8JJ" resolve="ConstraintFunctionParameter_oldReferentNode" />
    </node>
  </node>
  <node concept="1YbPZF" id="h9gNiu4">
    <property role="TrG5h" value="typeof_ConstraintFunctionParameter_newReferentNode" />
    <node concept="3clFbS" id="h9gNiu5" role="18ibNy">
      <node concept="3cpWs8" id="h9gNiu6" role="3cqZAp">
        <node concept="3cpWsn" id="h9gNisc" role="3cpWs9">
          <property role="TrG5h" value="targetConcept" />
          <node concept="3THzug" id="hdfDudZ" role="1tU5fm" />
          <node concept="2OqwBi" id="hxx$R7t" role="33vP2m">
            <node concept="2OqwBi" id="hxx$Rx7" role="2Oq$k0">
              <node concept="2OqwBi" id="hxx$Qme" role="2Oq$k0">
                <node concept="1YBJjd" id="h9gNiub" role="2Oq$k0">
                  <ref role="1YBMHb" node="h9gNisb" resolve="node" />
                </node>
                <node concept="2Xjw5R" id="h9gNiuc" role="2OqNvi">
                  <node concept="1xMEDy" id="h9gNiud" role="1xVPHs">
                    <node concept="chp4Y" id="h_efEJ6" role="ri$Ld">
                      <ref role="cht4Q" to="tp1t:gHN5Pbq" resolve="NodeReferentConstraint" />
                    </node>
                  </node>
                </node>
              </node>
              <node concept="3TrEf2" id="h9gNiue" role="2OqNvi">
                <ref role="3Tt5mk" to="tp1t:gHN5VAa" />
              </node>
            </node>
            <node concept="3TrEf2" id="h9gNiuf" role="2OqNvi">
              <ref role="3Tt5mk" to="tpce:fA0lvVK" />
            </node>
          </node>
        </node>
      </node>
      <node concept="3clFbJ" id="h9gNiug" role="3cqZAp">
        <node concept="2OqwBi" id="hxx$Tor" role="3clFbw">
          <node concept="37vLTw" id="3GM_nagTzgP" role="2Oq$k0">
            <ref role="3cqZAo" node="h9gNisc" resolve="targetConcept" />
          </node>
          <node concept="3w_OXm" id="hdfDxuJ" role="2OqNvi" />
        </node>
        <node concept="3clFbS" id="h9gNiuk" role="3clFbx">
          <node concept="1Z5TYs" id="h_efHGT" role="3cqZAp">
            <node concept="mw_s8" id="h_efHGU" role="1ZfhK$">
              <node concept="1Z2H0r" id="h_efHGV" role="mwGJk">
                <node concept="1YBJjd" id="h9gNiuo" role="1Z2MuG">
                  <ref role="1YBMHb" node="h9gNisb" resolve="node" />
                </node>
              </node>
            </node>
            <node concept="mw_s8" id="h_efHGW" role="1ZfhKB">
              <node concept="2c44tf" id="hrBGIdW" role="mwGJk">
                <node concept="3Tqbb2" id="hrBGIdX" role="2c44tc" />
              </node>
            </node>
          </node>
        </node>
        <node concept="9aQIb" id="h9gNiup" role="9aQIa">
          <node concept="3clFbS" id="h9gNiuq" role="9aQI4">
            <node concept="1Z5TYs" id="h_efIK6" role="3cqZAp">
              <node concept="mw_s8" id="h_efIK7" role="1ZfhK$">
                <node concept="1Z2H0r" id="h_efIK8" role="mwGJk">
                  <node concept="1YBJjd" id="h9gNiuw" role="1Z2MuG">
                    <ref role="1YBMHb" node="h9gNisb" resolve="node" />
                  </node>
                </node>
              </node>
              <node concept="mw_s8" id="h_efIK9" role="1ZfhKB">
                <node concept="2c44tf" id="hrBGIdY" role="mwGJk">
                  <node concept="3Tqbb2" id="hrBGIdZ" role="2c44tc">
                    <node concept="2c44tb" id="hrBGIe2" role="lGtFl">
                      <property role="2qtEX8" value="concept" />
                      <property role="P3scX" value="7866978e-a0f0-4cc7-81bc-4d213d9375e1/1138055754698/1138405853777" />
                      <node concept="37vLTw" id="3GM_nagTtau" role="2c44t1">
                        <ref role="3cqZAo" node="h9gNisc" resolve="targetConcept" />
                      </node>
                    </node>
                  </node>
                </node>
              </node>
            </node>
          </node>
        </node>
      </node>
    </node>
    <node concept="1YaCAy" id="h9gNisb" role="1YuTPh">
      <property role="TrG5h" value="node" />
      <ref role="1YaFvo" to="tp1t:gVkhV$q" resolve="ConstraintFunctionParameter_newReferentNode" />
    </node>
  </node>
  <node concept="18kY7G" id="hrWhlMD">
    <property role="TrG5h" value="check_ConceptBehavior" />
    <node concept="3clFbS" id="hrWhlME" role="18ibNy">
      <node concept="3cpWs8" id="hrWhFeT" role="3cqZAp">
        <node concept="3cpWsn" id="hrWhFeU" role="3cpWs9">
          <property role="TrG5h" value="methodDeclarations" />
          <node concept="2I9FWS" id="hrWhFeV" role="1tU5fm">
            <ref role="2I9WkF" to="1i04:hP3i0lY" resolve="ConceptMethodDeclaration" />
          </node>
          <node concept="2OqwBi" id="hxx$Z$$" role="33vP2m">
            <node concept="2OqwBi" id="hxx$MYs" role="2Oq$k0">
              <node concept="1YBJjd" id="hrWhs0V" role="2Oq$k0">
                <ref role="1YBMHb" node="hrWhnTt" resolve="nodeToCheck" />
              </node>
              <node concept="3TrEf2" id="hrWhsq9" role="2OqNvi">
                <ref role="3Tt5mk" to="1i04:hP3h7Gv" />
              </node>
            </node>
            <node concept="2qgKlT" id="hrWhtHG" role="2OqNvi">
              <ref role="37wK5l" to="tpcn:hEwILIz" resolve="getNotImplementedConceptMethods" />
            </node>
          </node>
        </node>
      </node>
      <node concept="3clFbJ" id="hsAYbQy" role="3cqZAp">
        <node concept="2OqwBi" id="2wdLO7KgHwR" role="3clFbw">
          <node concept="3TrcHB" id="2wdLO7KgHwS" role="2OqNvi">
            <ref role="3TsBF5" to="tpce:40UcGlRb7V2" resolve="abstract" />
          </node>
          <node concept="2OqwBi" id="2wdLO7KgHwT" role="2Oq$k0">
            <node concept="1YBJjd" id="2wdLO7KgHwU" role="2Oq$k0">
              <ref role="1YBMHb" node="hrWhnTt" resolve="nodeToCheck" />
            </node>
            <node concept="3TrEf2" id="2wdLO7KgHwV" role="2OqNvi">
              <ref role="3Tt5mk" to="1i04:hP3h7Gv" />
            </node>
          </node>
        </node>
        <node concept="3clFbS" id="hsAYbQz" role="3clFbx">
          <node concept="3cpWs6" id="hsAYelV" role="3cqZAp" />
        </node>
      </node>
      <node concept="3clFbJ" id="hsAYgKZ" role="3cqZAp">
        <node concept="3clFbS" id="hsAYgL0" role="3clFbx">
          <node concept="3cpWs6" id="hsAYjpc" role="3cqZAp" />
        </node>
        <node concept="2OqwBi" id="hxx$XxB" role="3clFbw">
          <node concept="2OqwBi" id="hxx_0xM" role="2Oq$k0">
            <node concept="1YBJjd" id="hsAYh0F" role="2Oq$k0">
              <ref role="1YBMHb" node="hrWhnTt" resolve="nodeToCheck" />
            </node>
            <node concept="3TrEf2" id="hsAYh$R" role="2OqNvi">
              <ref role="3Tt5mk" to="1i04:hP3h7Gv" />
            </node>
          </node>
          <node concept="1mIQ4w" id="hsAYieF" role="2OqNvi">
            <node concept="chp4Y" id="hsAYj4r" role="cj9EA">
              <ref role="cht4Q" to="tpce:h0PlHMJ" resolve="InterfaceConceptDeclaration" />
            </node>
          </node>
        </node>
      </node>
      <node concept="3clFbJ" id="hrWhK51" role="3cqZAp">
        <node concept="3clFbS" id="hrWhK52" role="3clFbx">
          <node concept="3cpWs8" id="hsB0zMd" role="3cqZAp">
            <node concept="3cpWsn" id="hsB0zMe" role="3cpWs9">
              <property role="TrG5h" value="notImplementedMethods" />
              <node concept="10P_77" id="hsB0zMf" role="1tU5fm" />
              <node concept="3clFbT" id="hsB0_Ti" role="33vP2m">
                <property role="3clFbU" value="false" />
              </node>
            </node>
          </node>
          <node concept="1DcWWT" id="hsB0vpE" role="3cqZAp">
            <node concept="37vLTw" id="3GM_nagTxSS" role="1DdaDG">
              <ref role="3cqZAo" node="hrWhFeU" resolve="methodDeclarations" />
            </node>
            <node concept="3cpWsn" id="hsB0vpG" role="1Duv9x">
              <property role="TrG5h" value="cm" />
              <node concept="3Tqbb2" id="hsB0vSJ" role="1tU5fm">
                <ref role="ehGHo" to="1i04:hP3i0lY" resolve="ConceptMethodDeclaration" />
              </node>
            </node>
            <node concept="3clFbS" id="hsB0vpI" role="2LFqv$">
              <node concept="3clFbJ" id="hsB0Arf" role="3cqZAp">
                <node concept="3clFbS" id="hsB0Arh" role="3clFbx">
                  <node concept="3clFbF" id="hsB0HdR" role="3cqZAp">
                    <node concept="37vLTI" id="hsB0Hq6" role="3clFbG">
                      <node concept="3clFbT" id="hsB0HCN" role="37vLTx">
                        <property role="3clFbU" value="true" />
                      </node>
                      <node concept="37vLTw" id="3GM_nagTy_y" role="37vLTJ">
                        <ref role="3cqZAo" node="hsB0zMe" resolve="notImplementedMethods" />
                      </node>
                    </node>
                  </node>
                </node>
                <node concept="3fqX7Q" id="hsB0C_z" role="3clFbw">
                  <node concept="2OqwBi" id="h_efC6P" role="3fr31v">
                    <node concept="2OqwBi" id="hxx_2iF" role="2Oq$k0">
                      <node concept="1YBJjd" id="hsB0Ec7" role="2Oq$k0">
                        <ref role="1YBMHb" node="hrWhnTt" resolve="nodeToCheck" />
                      </node>
                      <node concept="3Tsc0h" id="hsB0EXZ" role="2OqNvi">
                        <ref role="3TtcxE" to="1i04:hP3h7G_" />
                      </node>
                    </node>
                    <node concept="3JPx81" id="hsB0GaV" role="2OqNvi">
                      <node concept="37vLTw" id="3GM_nagTyh2" role="25WWJ7">
                        <ref role="3cqZAo" node="hsB0vpG" resolve="cm" />
                      </node>
                    </node>
                  </node>
                </node>
              </node>
            </node>
          </node>
          <node concept="3clFbJ" id="hsB0IfD" role="3cqZAp">
            <node concept="3clFbS" id="hsB0IfE" role="3clFbx">
              <node concept="2MkqsV" id="hsB0IGL" role="3cqZAp">
                <node concept="3cpWs3" id="hsB0IGO" role="2MkJ7o">
                  <node concept="37vLTw" id="3GM_nagT_vy" role="3uHU7w">
                    <ref role="3cqZAo" node="hrWhFeU" resolve="methodDeclarations" />
                  </node>
                  <node concept="3cpWs3" id="hsB0IGN" role="3uHU7B">
                    <node concept="3cpWs3" id="hsB0IGM" role="3uHU7B">
                      <node concept="Xl_RD" id="hsB0IGW" role="3uHU7B">
                        <property role="Xl_RC" value="Concept " />
                      </node>
                      <node concept="2OqwBi" id="hxx$X3e" role="3uHU7w">
                        <node concept="2OqwBi" id="hxx$V$U" role="2Oq$k0">
                          <node concept="1YBJjd" id="hsB0IGV" role="2Oq$k0">
                            <ref role="1YBMHb" node="hrWhnTt" resolve="nodeToCheck" />
                          </node>
                          <node concept="3TrEf2" id="hsB0IGU" role="2OqNvi">
                            <ref role="3Tt5mk" to="1i04:hP3h7Gv" />
                          </node>
                        </node>
                        <node concept="3TrcHB" id="hsB0IGS" role="2OqNvi">
                          <ref role="3TsBF5" to="tpck:h0TrG11" resolve="name" />
                        </node>
                      </node>
                    </node>
                    <node concept="Xl_RD" id="hsB0IGQ" role="3uHU7w">
                      <property role="Xl_RC" value=" doesn't implement " />
                    </node>
                  </node>
                </node>
                <node concept="1YBJjd" id="hsB0IGX" role="2OEOjV">
                  <ref role="1YBMHb" node="hrWhnTt" resolve="nodeToCheck" />
                </node>
              </node>
            </node>
            <node concept="37vLTw" id="3GM_nagTtPd" role="3clFbw">
              <ref role="3cqZAo" node="hsB0zMe" resolve="notImplementedMethods" />
            </node>
          </node>
        </node>
        <node concept="3fqX7Q" id="hrWhLSo" role="3clFbw">
          <node concept="2OqwBi" id="h_efC3y" role="3fr31v">
            <node concept="37vLTw" id="3GM_nagTAV9" role="2Oq$k0">
              <ref role="3cqZAo" node="hrWhFeU" resolve="methodDeclarations" />
            </node>
            <node concept="1v1jN8" id="hrWhLSr" role="2OqNvi" />
          </node>
        </node>
      </node>
      <node concept="1DcWWT" id="hsAZ8V0" role="3cqZAp">
        <node concept="3clFbS" id="hsAZ8V1" role="2LFqv$">
          <node concept="3clFbJ" id="hsAZcZf" role="3cqZAp">
            <node concept="2OqwBi" id="2wdLO7KeVB3" role="3clFbw">
              <node concept="3TrcHB" id="2wdLO7KeVB4" role="2OqNvi">
                <ref role="3TsBF5" to="tpce:40UcGlRb7V2" resolve="abstract" />
              </node>
              <node concept="2OqwBi" id="2wdLO7KeVB5" role="2Oq$k0">
                <node concept="3NT_Vc" id="2wdLO7KeVB6" role="2OqNvi" />
                <node concept="37vLTw" id="3GM_nagTww2" role="2Oq$k0">
                  <ref role="3cqZAo" node="hsAZ8V4" resolve="cmd" />
                </node>
              </node>
            </node>
            <node concept="3clFbS" id="hsAZcZg" role="3clFbx">
              <node concept="2MkqsV" id="hsAZecL" role="3cqZAp">
                <node concept="Xl_RD" id="hsAZeCa" role="2MkJ7o">
                  <property role="Xl_RC" value="Abstract method in non abstract concept" />
                </node>
                <node concept="37vLTw" id="3GM_nagTBJx" role="2OEOjV">
                  <ref role="3cqZAo" node="hsAZ8V4" resolve="cmd" />
                </node>
              </node>
            </node>
          </node>
        </node>
        <node concept="2OqwBi" id="hxx$Ntt" role="1DdaDG">
          <node concept="1YBJjd" id="hsAZbtX" role="2Oq$k0">
            <ref role="1YBMHb" node="hrWhnTt" resolve="nodeToCheck" />
          </node>
          <node concept="3Tsc0h" id="hsAZcCx" role="2OqNvi">
            <ref role="3TtcxE" to="1i04:hP3h7G_" />
          </node>
        </node>
        <node concept="3cpWsn" id="hsAZ8V4" role="1Duv9x">
          <property role="TrG5h" value="cmd" />
          <node concept="3Tqbb2" id="hsAZ9TQ" role="1tU5fm">
            <ref role="ehGHo" to="1i04:hP3i0lY" resolve="ConceptMethodDeclaration" />
          </node>
        </node>
      </node>
    </node>
    <node concept="1YaCAy" id="hrWhnTt" role="1YuTPh">
      <property role="TrG5h" value="nodeToCheck" />
      <ref role="1YaFvo" to="1i04:hP3h7Gq" resolve="ConceptBehavior" />
    </node>
  </node>
  <node concept="1YbPZF" id="3oQug8hq$is">
    <property role="TrG5h" value="typeof_ConstraintFunctionParameter_parameterNode" />
    <property role="3GE5qa" value="Parameters" />
    <node concept="3clFbS" id="3oQug8hq$it" role="18ibNy">
      <node concept="3clFbJ" id="5RKjesl1UVp" role="3cqZAp">
        <node concept="3clFbS" id="5RKjesl1UVq" role="3clFbx">
          <node concept="3cpWs8" id="5RKjesl1UVG" role="3cqZAp">
            <node concept="3cpWsn" id="5RKjesl1UVH" role="3cpWs9">
              <property role="TrG5h" value="constraint" />
              <node concept="3Tqbb2" id="5RKjesl1UVI" role="1tU5fm">
                <ref role="ehGHo" to="tp1t:gHN5Pbq" resolve="NodeReferentConstraint" />
              </node>
              <node concept="2OqwBi" id="5RKjesl1UVK" role="33vP2m">
                <node concept="1YBJjd" id="5RKjesl1UVL" role="2Oq$k0">
                  <ref role="1YBMHb" node="3oQug8hq$iu" resolve="node" />
                </node>
                <node concept="2Xjw5R" id="5RKjesl1UVM" role="2OqNvi">
                  <node concept="1xMEDy" id="5RKjesl1UVN" role="1xVPHs">
                    <node concept="chp4Y" id="5RKjesl1UVO" role="ri$Ld">
                      <ref role="cht4Q" to="tp1t:gHN5Pbq" resolve="NodeReferentConstraint" />
                    </node>
                  </node>
                </node>
              </node>
            </node>
          </node>
          <node concept="1Z5TYs" id="5RKjesl1UVU" role="3cqZAp">
            <node concept="mw_s8" id="5RKjesl1UVY" role="1ZfhKB">
              <node concept="2c44tf" id="5RKjesl1UVZ" role="mwGJk">
                <node concept="3Tqbb2" id="5RKjesl1UW1" role="2c44tc">
                  <node concept="2c44tb" id="5RKjesl1UW2" role="lGtFl">
                    <property role="2qtEX8" value="concept" />
                    <property role="P3scX" value="7866978e-a0f0-4cc7-81bc-4d213d9375e1/1138055754698/1138405853777" />
                    <node concept="2OqwBi" id="5RKjesl1UWa" role="2c44t1">
                      <node concept="2OqwBi" id="5RKjesl1UW5" role="2Oq$k0">
                        <node concept="37vLTw" id="3GM_nagTysm" role="2Oq$k0">
                          <ref role="3cqZAo" node="5RKjesl1UVH" resolve="constraint" />
                        </node>
                        <node concept="3TrEf2" id="5RKjesl1UW9" role="2OqNvi">
                          <ref role="3Tt5mk" to="tp1t:gHN5VAa" />
                        </node>
                      </node>
                      <node concept="3TrEf2" id="5RKjesl1UWe" role="2OqNvi">
                        <ref role="3Tt5mk" to="tpce:fA0lvVK" />
                      </node>
                    </node>
                  </node>
                </node>
              </node>
            </node>
            <node concept="mw_s8" id="5RKjesl1UVX" role="1ZfhK$">
              <node concept="1Z2H0r" id="5RKjesl1UVR" role="mwGJk">
                <node concept="1YBJjd" id="5RKjesl1UVT" role="1Z2MuG">
                  <ref role="1YBMHb" node="3oQug8hq$iu" resolve="node" />
                </node>
              </node>
            </node>
          </node>
        </node>
        <node concept="2OqwBi" id="5RKjesl1UVB" role="3clFbw">
          <node concept="2OqwBi" id="5RKjesl1UVu" role="2Oq$k0">
            <node concept="1YBJjd" id="5RKjesl1UVt" role="2Oq$k0">
              <ref role="1YBMHb" node="3oQug8hq$iu" resolve="node" />
            </node>
            <node concept="2Xjw5R" id="5RKjesl1UVy" role="2OqNvi">
              <node concept="1xMEDy" id="5RKjesl1UVz" role="1xVPHs">
                <node concept="chp4Y" id="5RKjesl1UVA" role="ri$Ld">
                  <ref role="cht4Q" to="tp1t:gHN5Pbq" resolve="NodeReferentConstraint" />
                </node>
              </node>
            </node>
          </node>
          <node concept="3x8VRR" id="5RKjesl1UVF" role="2OqNvi" />
        </node>
        <node concept="3eNFk2" id="5RKjesl1UWu" role="3eNLev">
          <node concept="2OqwBi" id="5RKjesl1UWF" role="3eO9$A">
            <node concept="2OqwBi" id="5RKjesl1UWy" role="2Oq$k0">
              <node concept="1YBJjd" id="5RKjesl1UWx" role="2Oq$k0">
                <ref role="1YBMHb" node="3oQug8hq$iu" resolve="node" />
              </node>
              <node concept="2Xjw5R" id="5RKjesl1UWA" role="2OqNvi">
                <node concept="1xMEDy" id="5RKjesl1UWB" role="1xVPHs">
                  <node concept="chp4Y" id="5RKjesl1UWE" role="ri$Ld">
                    <ref role="cht4Q" to="tp1t:gREP7xi" resolve="NodeDefaultSearchScope" />
                  </node>
                </node>
              </node>
            </node>
            <node concept="3x8VRR" id="5RKjesl1UWJ" role="2OqNvi" />
          </node>
          <node concept="3clFbS" id="5RKjesl1UWw" role="3eOfB_">
            <node concept="3cpWs8" id="5RKjesl1UWK" role="3cqZAp">
              <node concept="3cpWsn" id="5RKjesl1UWL" role="3cpWs9">
                <property role="TrG5h" value="defaultScope" />
                <node concept="3Tqbb2" id="5RKjesl1UWM" role="1tU5fm">
                  <ref role="ehGHo" to="tp1t:gREP7xi" resolve="NodeDefaultSearchScope" />
                </node>
                <node concept="2OqwBi" id="5RKjesl1UWO" role="33vP2m">
                  <node concept="1YBJjd" id="5RKjesl1UWP" role="2Oq$k0">
                    <ref role="1YBMHb" node="3oQug8hq$iu" resolve="node" />
                  </node>
                  <node concept="2Xjw5R" id="5RKjesl1UWQ" role="2OqNvi">
                    <node concept="1xMEDy" id="5RKjesl1UWR" role="1xVPHs">
                      <node concept="chp4Y" id="5RKjesl1UWS" role="ri$Ld">
                        <ref role="cht4Q" to="tp1t:gREP7xi" resolve="NodeDefaultSearchScope" />
                      </node>
                    </node>
                  </node>
                </node>
              </node>
            </node>
            <node concept="1Z5TYs" id="5RKjesl1UWY" role="3cqZAp">
              <node concept="mw_s8" id="5RKjesl1UX2" role="1ZfhKB">
                <node concept="2c44tf" id="5RKjesl1UX3" role="mwGJk">
                  <node concept="3Tqbb2" id="5RKjesl1UX5" role="2c44tc">
                    <node concept="2c44tb" id="5RKjesl1UX6" role="lGtFl">
                      <property role="2qtEX8" value="concept" />
                      <property role="P3scX" value="7866978e-a0f0-4cc7-81bc-4d213d9375e1/1138055754698/1138405853777" />
                      <node concept="2OqwBi" id="5RKjesl1UXd" role="2c44t1">
                        <node concept="37vLTw" id="3GM_nagTxcC" role="2Oq$k0">
                          <ref role="3cqZAo" node="5RKjesl1UWL" resolve="defaultScope" />
                        </node>
                        <node concept="2qgKlT" id="5RKjesl1UXh" role="2OqNvi">
                          <ref role="37wK5l" to="tp22:hEwIhhr" resolve="getReferentConcept" />
                        </node>
                      </node>
                    </node>
                  </node>
                </node>
              </node>
              <node concept="mw_s8" id="5RKjesl1UX1" role="1ZfhK$">
                <node concept="1Z2H0r" id="5RKjesl1UWV" role="mwGJk">
                  <node concept="1YBJjd" id="5RKjesl1UWX" role="1Z2MuG">
                    <ref role="1YBMHb" node="3oQug8hq$iu" resolve="node" />
                  </node>
                </node>
              </node>
            </node>
          </node>
        </node>
        <node concept="9aQIb" id="5RKjesl1UXi" role="9aQIa">
          <node concept="3clFbS" id="5RKjesl1UXj" role="9aQI4">
            <node concept="1Z5TYs" id="5RKjesl1UXo" role="3cqZAp">
              <node concept="mw_s8" id="5RKjesl1UXs" role="1ZfhKB">
                <node concept="2c44tf" id="5RKjesl1UXt" role="mwGJk">
                  <node concept="3Tqbb2" id="5RKjesl1UXv" role="2c44tc" />
                </node>
              </node>
              <node concept="mw_s8" id="5RKjesl1UXr" role="1ZfhK$">
                <node concept="1Z2H0r" id="5RKjesl1UXl" role="mwGJk">
                  <node concept="1YBJjd" id="5RKjesl1UXn" role="1Z2MuG">
                    <ref role="1YBMHb" node="3oQug8hq$iu" resolve="node" />
                  </node>
                </node>
              </node>
            </node>
          </node>
        </node>
      </node>
    </node>
    <node concept="1YaCAy" id="3oQug8hq$iu" role="1YuTPh">
      <property role="TrG5h" value="node" />
      <ref role="1YaFvo" to="tp1t:3oQug8hqyBc" resolve="ConstraintFunctionParameter_parameterNode" />
    </node>
  </node>
  <node concept="18kY7G" id="2_ZlElkqg8w">
    <property role="TrG5h" value="check_ConstraintFunction_ReferentSearchScope_Validator" />
    <property role="3GE5qa" value="Functions" />
    <node concept="3clFbS" id="2_ZlElkqg8x" role="18ibNy">
      <node concept="3cpWs8" id="sZm2ZQHs0l" role="3cqZAp">
        <node concept="3cpWsn" id="sZm2ZQHs0m" role="3cpWs9">
          <property role="TrG5h" value="factory" />
          <node concept="3Tqbb2" id="sZm2ZQHs0n" role="1tU5fm">
            <ref role="ehGHo" to="tp1t:gHMUpHN" resolve="ConstraintFunction_ReferentSearchScope_Factory" />
          </node>
          <node concept="2OqwBi" id="sZm2ZQHs0q" role="33vP2m">
            <node concept="1YBJjd" id="sZm2ZQHs0p" role="2Oq$k0">
              <ref role="1YBMHb" node="2_ZlElkqg8y" resolve="validator" />
            </node>
            <node concept="2qgKlT" id="sZm2ZQHs0u" role="2OqNvi">
              <ref role="37wK5l" to="tp22:2_ZlElkqg5e" resolve="getSearchScopeFactory" />
            </node>
          </node>
        </node>
      </node>
      <node concept="3clFbJ" id="2_ZlElkqg8z" role="3cqZAp">
        <node concept="2OqwBi" id="sZm2ZQHs0x" role="3clFbw">
          <node concept="37vLTw" id="3GM_nagTue1" role="2Oq$k0">
            <ref role="3cqZAo" node="sZm2ZQHs0m" resolve="factory" />
          </node>
          <node concept="3w_OXm" id="sZm2ZQHs0_" role="2OqNvi" />
        </node>
        <node concept="3clFbS" id="2_ZlElkqg8_" role="3clFbx">
          <node concept="a7r0C" id="2_ZlElkqg8I" role="3cqZAp">
            <node concept="Xl_RD" id="2_ZlElkqg8J" role="a7wSD">
              <property role="Xl_RC" value="Validator function is not used when no search scope defined" />
            </node>
            <node concept="1YBJjd" id="2_ZlElkqg8O" role="2OEOjV">
              <ref role="1YBMHb" node="2_ZlElkqg8y" resolve="validator" />
            </node>
          </node>
        </node>
        <node concept="3eNFk2" id="sZm2ZQHs0g" role="3eNLev">
          <node concept="3fqX7Q" id="VRQOUtq4mB" role="3eO9$A">
            <node concept="2OqwBi" id="sZm2ZQHs0B" role="3fr31v">
              <node concept="37vLTw" id="3GM_nagTv6s" role="2Oq$k0">
                <ref role="3cqZAo" node="sZm2ZQHs0m" resolve="factory" />
              </node>
              <node concept="2qgKlT" id="sZm2ZQHs0F" role="2OqNvi">
                <ref role="37wK5l" to="tp22:2_ZlElkqf_i" resolve="isNodeSequenceReturned" />
              </node>
            </node>
          </node>
          <node concept="3clFbS" id="sZm2ZQHs0i" role="3eOfB_">
            <node concept="a7r0C" id="sZm2ZQHs0G" role="3cqZAp">
              <node concept="Xl_RD" id="sZm2ZQHs0H" role="a7wSD">
                <property role="Xl_RC" value="Validator function is not used when ISearchScope interface returned as search scope" />
              </node>
              <node concept="1YBJjd" id="sZm2ZQHs0I" role="2OEOjV">
                <ref role="1YBMHb" node="2_ZlElkqg8y" resolve="validator" />
              </node>
            </node>
          </node>
        </node>
      </node>
    </node>
    <node concept="1YaCAy" id="2_ZlElkqg8y" role="1YuTPh">
      <property role="TrG5h" value="validator" />
      <ref role="1YaFvo" to="tp1t:31gaXo4G$ca" resolve="ConstraintFunction_ReferentSearchScope_Validator" />
    </node>
  </node>
  <node concept="1YbPZF" id="2_ZlElkqgaK">
    <property role="TrG5h" value="typeof_ConstraintFunctionParameter_checkedNode" />
    <property role="3GE5qa" value="Parameters" />
    <node concept="3clFbS" id="2_ZlElkqgaL" role="18ibNy">
      <node concept="3clFbJ" id="2_ZlElkqgaP" role="3cqZAp">
        <node concept="3clFbS" id="2_ZlElkqgaQ" role="3clFbx">
          <node concept="3cpWs8" id="2_ZlElkqgaR" role="3cqZAp">
            <node concept="3cpWsn" id="2_ZlElkqgaS" role="3cpWs9">
              <property role="TrG5h" value="constraint" />
              <node concept="3Tqbb2" id="2_ZlElkqgaT" role="1tU5fm">
                <ref role="ehGHo" to="tp1t:gHN5Pbq" resolve="NodeReferentConstraint" />
              </node>
              <node concept="2OqwBi" id="2_ZlElkqgaU" role="33vP2m">
                <node concept="1YBJjd" id="2_ZlElkqgaV" role="2Oq$k0">
                  <ref role="1YBMHb" node="2_ZlElkqgaM" resolve="node" />
                </node>
                <node concept="2Xjw5R" id="2_ZlElkqgaW" role="2OqNvi">
                  <node concept="1xMEDy" id="2_ZlElkqgaX" role="1xVPHs">
                    <node concept="chp4Y" id="2_ZlElkqgaY" role="ri$Ld">
                      <ref role="cht4Q" to="tp1t:gHN5Pbq" resolve="NodeReferentConstraint" />
                    </node>
                  </node>
                </node>
              </node>
            </node>
          </node>
          <node concept="1Z5TYs" id="2_ZlElkqgaZ" role="3cqZAp">
            <node concept="mw_s8" id="2_ZlElkqgb0" role="1ZfhKB">
              <node concept="2c44tf" id="2_ZlElkqgb1" role="mwGJk">
                <node concept="3Tqbb2" id="2_ZlElkqgb2" role="2c44tc">
                  <node concept="2c44tb" id="2_ZlElkqgb3" role="lGtFl">
                    <property role="2qtEX8" value="concept" />
                    <property role="P3scX" value="7866978e-a0f0-4cc7-81bc-4d213d9375e1/1138055754698/1138405853777" />
                    <node concept="2OqwBi" id="2_ZlElkqgb4" role="2c44t1">
                      <node concept="2OqwBi" id="2_ZlElkqgb5" role="2Oq$k0">
                        <node concept="37vLTw" id="3GM_nagTvRD" role="2Oq$k0">
                          <ref role="3cqZAo" node="2_ZlElkqgaS" resolve="constraint" />
                        </node>
                        <node concept="3TrEf2" id="2_ZlElkqgb7" role="2OqNvi">
                          <ref role="3Tt5mk" to="tp1t:gHN5VAa" />
                        </node>
                      </node>
                      <node concept="3TrEf2" id="2_ZlElkqgb8" role="2OqNvi">
                        <ref role="3Tt5mk" to="tpce:fA0lvVK" />
                      </node>
                    </node>
                  </node>
                </node>
              </node>
            </node>
            <node concept="mw_s8" id="2_ZlElkqgb9" role="1ZfhK$">
              <node concept="1Z2H0r" id="2_ZlElkqgba" role="mwGJk">
                <node concept="1YBJjd" id="2_ZlElkqgbb" role="1Z2MuG">
                  <ref role="1YBMHb" node="2_ZlElkqgaM" resolve="node" />
                </node>
              </node>
            </node>
          </node>
        </node>
        <node concept="2OqwBi" id="2_ZlElkqgbc" role="3clFbw">
          <node concept="2OqwBi" id="2_ZlElkqgbd" role="2Oq$k0">
            <node concept="1YBJjd" id="2_ZlElkqgbe" role="2Oq$k0">
              <ref role="1YBMHb" node="2_ZlElkqgaM" resolve="node" />
            </node>
            <node concept="2Xjw5R" id="2_ZlElkqgbf" role="2OqNvi">
              <node concept="1xMEDy" id="2_ZlElkqgbg" role="1xVPHs">
                <node concept="chp4Y" id="2_ZlElkqgbh" role="ri$Ld">
                  <ref role="cht4Q" to="tp1t:gHN5Pbq" resolve="NodeReferentConstraint" />
                </node>
              </node>
            </node>
          </node>
          <node concept="3x8VRR" id="2_ZlElkqgbi" role="2OqNvi" />
        </node>
        <node concept="3eNFk2" id="2_ZlElkqgbj" role="3eNLev">
          <node concept="2OqwBi" id="2_ZlElkqgbk" role="3eO9$A">
            <node concept="2OqwBi" id="2_ZlElkqgbl" role="2Oq$k0">
              <node concept="1YBJjd" id="2_ZlElkqgbm" role="2Oq$k0">
                <ref role="1YBMHb" node="2_ZlElkqgaM" resolve="node" />
              </node>
              <node concept="2Xjw5R" id="2_ZlElkqgbn" role="2OqNvi">
                <node concept="1xMEDy" id="2_ZlElkqgbo" role="1xVPHs">
                  <node concept="chp4Y" id="2_ZlElkqgbp" role="ri$Ld">
                    <ref role="cht4Q" to="tp1t:gREP7xi" resolve="NodeDefaultSearchScope" />
                  </node>
                </node>
              </node>
            </node>
            <node concept="3x8VRR" id="2_ZlElkqgbq" role="2OqNvi" />
          </node>
          <node concept="3clFbS" id="2_ZlElkqgbr" role="3eOfB_">
            <node concept="3cpWs8" id="2_ZlElkqgbs" role="3cqZAp">
              <node concept="3cpWsn" id="2_ZlElkqgbt" role="3cpWs9">
                <property role="TrG5h" value="defaultScope" />
                <node concept="3Tqbb2" id="2_ZlElkqgbu" role="1tU5fm">
                  <ref role="ehGHo" to="tp1t:gREP7xi" resolve="NodeDefaultSearchScope" />
                </node>
                <node concept="2OqwBi" id="2_ZlElkqgbv" role="33vP2m">
                  <node concept="1YBJjd" id="2_ZlElkqgbw" role="2Oq$k0">
                    <ref role="1YBMHb" node="2_ZlElkqgaM" resolve="node" />
                  </node>
                  <node concept="2Xjw5R" id="2_ZlElkqgbx" role="2OqNvi">
                    <node concept="1xMEDy" id="2_ZlElkqgby" role="1xVPHs">
                      <node concept="chp4Y" id="2_ZlElkqgbz" role="ri$Ld">
                        <ref role="cht4Q" to="tp1t:gREP7xi" resolve="NodeDefaultSearchScope" />
                      </node>
                    </node>
                  </node>
                </node>
              </node>
            </node>
            <node concept="1Z5TYs" id="2_ZlElkqgb$" role="3cqZAp">
              <node concept="mw_s8" id="2_ZlElkqgb_" role="1ZfhKB">
                <node concept="2c44tf" id="2_ZlElkqgbA" role="mwGJk">
                  <node concept="3Tqbb2" id="2_ZlElkqgbB" role="2c44tc">
                    <node concept="2c44tb" id="2_ZlElkqgbC" role="lGtFl">
                      <property role="2qtEX8" value="concept" />
                      <property role="P3scX" value="7866978e-a0f0-4cc7-81bc-4d213d9375e1/1138055754698/1138405853777" />
                      <node concept="2OqwBi" id="2_ZlElkqgbD" role="2c44t1">
                        <node concept="37vLTw" id="3GM_nagTzYX" role="2Oq$k0">
                          <ref role="3cqZAo" node="2_ZlElkqgbt" resolve="defaultScope" />
                        </node>
                        <node concept="2qgKlT" id="2_ZlElkqgbF" role="2OqNvi">
                          <ref role="37wK5l" to="tp22:hEwIhhr" resolve="getReferentConcept" />
                        </node>
                      </node>
                    </node>
                  </node>
                </node>
              </node>
              <node concept="mw_s8" id="2_ZlElkqgbG" role="1ZfhK$">
                <node concept="1Z2H0r" id="2_ZlElkqgbH" role="mwGJk">
                  <node concept="1YBJjd" id="2_ZlElkqgbI" role="1Z2MuG">
                    <ref role="1YBMHb" node="2_ZlElkqgaM" resolve="node" />
                  </node>
                </node>
              </node>
            </node>
          </node>
        </node>
        <node concept="9aQIb" id="2_ZlElkqgbJ" role="9aQIa">
          <node concept="3clFbS" id="2_ZlElkqgbK" role="9aQI4">
            <node concept="1Z5TYs" id="2_ZlElkqgbL" role="3cqZAp">
              <node concept="mw_s8" id="2_ZlElkqgbM" role="1ZfhKB">
                <node concept="2c44tf" id="2_ZlElkqgbN" role="mwGJk">
                  <node concept="3Tqbb2" id="2_ZlElkqgbO" role="2c44tc" />
                </node>
              </node>
              <node concept="mw_s8" id="2_ZlElkqgbP" role="1ZfhK$">
                <node concept="1Z2H0r" id="2_ZlElkqgbQ" role="mwGJk">
                  <node concept="1YBJjd" id="2_ZlElkqgbR" role="1Z2MuG">
                    <ref role="1YBMHb" node="2_ZlElkqgaM" resolve="node" />
                  </node>
                </node>
              </node>
            </node>
          </node>
        </node>
      </node>
    </node>
    <node concept="1YaCAy" id="2_ZlElkqgaM" role="1YuTPh">
      <property role="TrG5h" value="node" />
      <ref role="1YaFvo" to="tp1t:2_ZlElkqgaC" resolve="ConstraintFunctionParameter_checkedNode" />
    </node>
  </node>
  <node concept="1YbPZF" id="4lJSeleXj_v">
    <property role="TrG5h" value="typeof_ConstraintFunctionParameter_linkTarget" />
    <property role="3GE5qa" value="Parameters" />
    <node concept="3clFbS" id="4lJSeleXj_w" role="18ibNy">
      <node concept="3cpWs8" id="6s_yi1IfH2o" role="3cqZAp">
        <node concept="3cpWsn" id="6s_yi1IfH2p" role="3cpWs9">
          <property role="TrG5h" value="target" />
          <node concept="3THzug" id="6s_yi1IfH2q" role="1tU5fm" />
          <node concept="2OqwBi" id="6s_yi1IfH2H" role="33vP2m">
            <node concept="2OqwBi" id="6s_yi1IfH2C" role="2Oq$k0">
              <node concept="2OqwBi" id="6s_yi1IfH2t" role="2Oq$k0">
                <node concept="1YBJjd" id="6s_yi1IfH2s" role="2Oq$k0">
                  <ref role="1YBMHb" node="4lJSeleXj_x" resolve="node" />
                </node>
                <node concept="2Xjw5R" id="6s_yi1IfH2x" role="2OqNvi">
                  <node concept="1xMEDy" id="6s_yi1IfH2y" role="1xVPHs">
                    <node concept="chp4Y" id="6s_yi1IfH2B" role="ri$Ld">
                      <ref role="cht4Q" to="tp1t:gHN5Pbq" resolve="NodeReferentConstraint" />
                    </node>
                  </node>
                </node>
              </node>
              <node concept="3TrEf2" id="6s_yi1IfH2G" role="2OqNvi">
                <ref role="3Tt5mk" to="tp1t:gHN5VAa" />
              </node>
            </node>
            <node concept="3TrEf2" id="6s_yi1IfH2L" role="2OqNvi">
              <ref role="3Tt5mk" to="tpce:fA0lvVK" />
            </node>
          </node>
        </node>
      </node>
      <node concept="3clFbJ" id="6s_yi1IfH2N" role="3cqZAp">
        <node concept="3clFbS" id="6s_yi1IfH2O" role="3clFbx">
          <node concept="3clFbF" id="6s_yi1IfH2X" role="3cqZAp">
            <node concept="37vLTI" id="6s_yi1IfH2Z" role="3clFbG">
              <node concept="2OqwBi" id="6s_yi1IfH3c" role="37vLTx">
                <node concept="2OqwBi" id="6s_yi1IfH33" role="2Oq$k0">
                  <node concept="1YBJjd" id="6s_yi1IfH32" role="2Oq$k0">
                    <ref role="1YBMHb" node="4lJSeleXj_x" resolve="node" />
                  </node>
                  <node concept="2Xjw5R" id="6s_yi1IfH37" role="2OqNvi">
                    <node concept="1xMEDy" id="6s_yi1IfH38" role="1xVPHs">
                      <node concept="chp4Y" id="6s_yi1IfH3b" role="ri$Ld">
                        <ref role="cht4Q" to="tp1t:hDM2fEI" resolve="ConceptConstraints" />
                      </node>
                    </node>
                  </node>
                </node>
                <node concept="3TrEf2" id="6s_yi1IfH3g" role="2OqNvi">
                  <ref role="3Tt5mk" to="tp1t:hDM2mAQ" />
                </node>
              </node>
              <node concept="37vLTw" id="3GM_nagTtmv" role="37vLTJ">
                <ref role="3cqZAo" node="6s_yi1IfH2p" resolve="target" />
              </node>
            </node>
          </node>
        </node>
        <node concept="2OqwBi" id="6s_yi1IfH2S" role="3clFbw">
          <node concept="37vLTw" id="3GM_nagTyAJ" role="2Oq$k0">
            <ref role="3cqZAo" node="6s_yi1IfH2p" resolve="target" />
          </node>
          <node concept="3w_OXm" id="6s_yi1IfH2W" role="2OqNvi" />
        </node>
      </node>
      <node concept="1Z5TYs" id="6s_yi1IfDrl" role="3cqZAp">
        <node concept="mw_s8" id="6s_yi1IfDrp" role="1ZfhKB">
          <node concept="2c44tf" id="6s_yi1IfDrq" role="mwGJk">
            <node concept="3THzug" id="6s_yi1IfDrs" role="2c44tc">
              <node concept="2c44tb" id="6s_yi1IfDrt" role="lGtFl">
                <property role="2qtEX8" value="conceptDeclaraton" />
                <property role="P3scX" value="7866978e-a0f0-4cc7-81bc-4d213d9375e1/1172420572800/1180481110358" />
                <node concept="37vLTw" id="3GM_nagT_fg" role="2c44t1">
                  <ref role="3cqZAo" node="6s_yi1IfH2p" resolve="target" />
                </node>
              </node>
            </node>
          </node>
        </node>
        <node concept="mw_s8" id="6s_yi1IfDro" role="1ZfhK$">
          <node concept="1Z2H0r" id="6s_yi1IfDri" role="mwGJk">
            <node concept="1YBJjd" id="6s_yi1IfDrk" role="1Z2MuG">
              <ref role="1YBMHb" node="4lJSeleXj_x" resolve="node" />
            </node>
          </node>
        </node>
      </node>
    </node>
    <node concept="1YaCAy" id="4lJSeleXj_x" role="1YuTPh">
      <property role="TrG5h" value="node" />
      <ref role="1YaFvo" to="tp1t:hyXa2tv" resolve="ConstraintFunctionParameter_linkTarget" />
    </node>
  </node>
  <node concept="18kY7G" id="7ipADkTeV77">
    <property role="TrG5h" value="check_IOperationContextUsages" />
    <property role="3GE5qa" value="" />
    <node concept="3clFbS" id="7ipADkTeV78" role="18ibNy">
      <node concept="3clFbJ" id="2zIgRAzeNN_" role="3cqZAp">
        <node concept="3clFbS" id="2zIgRAzeNNA" role="3clFbx">
          <node concept="2Gpval" id="7ipADkTeV7v" role="3cqZAp">
            <node concept="2GrKxI" id="7ipADkTeV7w" role="2Gsz3X">
              <property role="TrG5h" value="param" />
            </node>
            <node concept="3clFbS" id="7ipADkTeV7y" role="2LFqv$">
              <node concept="2MkqsV" id="7ipADkTeV7z" role="3cqZAp">
                <node concept="Xl_RD" id="7ipADkTeV7A" role="2MkJ7o">
                  <property role="Xl_RC" value="operationContext is deprecated" />
                </node>
                <node concept="2GrUjf" id="7ipADkTeV7B" role="2OEOjV">
                  <ref role="2Gs0qQ" node="7ipADkTeV7w" resolve="param" />
                </node>
              </node>
            </node>
            <node concept="2OqwBi" id="7ipADkTeV7m" role="2GsD0m">
              <node concept="2OqwBi" id="7ipADkTeV7h" role="2Oq$k0">
                <node concept="1YBJjd" id="7ipADkTeV7g" role="2Oq$k0">
                  <ref role="1YBMHb" node="7ipADkTeV7a" resolve="conceptFunction" />
                </node>
                <node concept="3TrEf2" id="7ipADkTeV7l" role="2OqNvi">
                  <ref role="3Tt5mk" to="tpee:gyVODHa" />
                </node>
              </node>
              <node concept="2Rf3mk" id="7ipADkTeV7q" role="2OqNvi">
                <node concept="1xMEDy" id="7ipADkTeV7r" role="1xVPHs">
                  <node concept="chp4Y" id="7ipADkTeV7u" role="ri$Ld">
                    <ref role="cht4Q" to="tpcw:gTQ799U" resolve="ConceptFunctionParameter_operationContext" />
                  </node>
                </node>
              </node>
            </node>
          </node>
        </node>
        <node concept="2OqwBi" id="2zIgRAzf0Nz" role="3clFbw">
          <node concept="2OqwBi" id="2zIgRAzf0N9" role="2Oq$k0">
            <node concept="1YBJjd" id="2zIgRAzf0MQ" role="2Oq$k0">
              <ref role="1YBMHb" node="7ipADkTeV7a" resolve="conceptFunction" />
            </node>
            <node concept="2Rxl7S" id="2zIgRAzf0Nf" role="2OqNvi" />
          </node>
          <node concept="1mIQ4w" id="2zIgRAzf0ND" role="2OqNvi">
            <node concept="chp4Y" id="2zIgRAzf0NF" role="cj9EA">
              <ref role="cht4Q" to="tp1t:hDM2fEI" resolve="ConceptConstraints" />
            </node>
          </node>
        </node>
      </node>
    </node>
    <node concept="1YaCAy" id="7ipADkTeV7a" role="1YuTPh">
      <property role="TrG5h" value="conceptFunction" />
      <ref role="1YaFvo" to="tpee:gyVMwX8" resolve="ConceptFunction" />
    </node>
  </node>
</model>

