<?xml version="1.0" encoding="UTF-8"?>
<model ref="r:51084303-7aff-48f9-ad2c-085e46b32c5e(jetbrains.mps.samples.KajaSceneConstruction.typesystem)">
  <persistence version="9" />
  <languages>
    <use id="7a5dda62-9140-4668-ab76-d5ed1746f2b2" name="jetbrains.mps.lang.typesystem" version="0" />
    <use id="b56912a3-674f-4530-b0cf-55261b526a1f" name="jetbrains.mps.samples.KajaSceneConstruction" version="0" />
    <devkit ref="fbc25dd2-5da4-483a-8b19-70928e1b62d7(jetbrains.mps.devkit.general-purpose)" />
  </languages>
  <imports>
    <import index="rvtb" ref="r:ce42c9d0-9778-4b7f-ba63-609d51a475fd(jetbrains.mps.samples.KajaSceneConstruction.structure)" />
  </imports>
  <registry />
</model>

