<?xml version="1.0" encoding="UTF-8"?>
<model ref="r:9da2e6e5-b7a9-4059-9bac-c3700f7d675c(jetbrains.mps.core.properties.structure)">
  <persistence version="9" />
  <languages>
    <use id="c72da2b9-7cce-4447-8389-f407dc1158b7" name="jetbrains.mps.lang.structure" version="3" />
    <use id="982eb8df-2c96-4bd7-9963-11712ea622e5" name="jetbrains.mps.lang.resources" version="2" />
  </languages>
  <imports>
    <import index="tpck" ref="r:00000000-0000-4000-0000-011c89590288(jetbrains.mps.lang.core.structure)" implicit="true" />
    <import index="356a" ref="r:3b7ed80f-6cfd-45bc-b051-2f66c620dd27(jetbrains.mps.lang.traceable.structure)" implicit="true" />
  </imports>
  <registry>
    <language id="c72da2b9-7cce-4447-8389-f407dc1158b7" name="jetbrains.mps.lang.structure">
      <concept id="1169125787135" name="jetbrains.mps.lang.structure.structure.AbstractConceptDeclaration" flags="ig" index="PkWjJ">
        <property id="6714410169261853888" name="conceptId" index="EcuMT" />
        <property id="4628067390765956807" name="final" index="R5$K2" />
        <property id="4628067390765956802" name="abstract" index="R5$K7" />
        <property id="5092175715804935370" name="conceptAlias" index="34LRSv" />
        <child id="1071489727083" name="linkDeclaration" index="1TKVEi" />
        <child id="1071489727084" name="propertyDeclaration" index="1TKVEl" />
      </concept>
      <concept id="1169127622168" name="jetbrains.mps.lang.structure.structure.InterfaceConceptReference" flags="ig" index="PrWs8">
        <reference id="1169127628841" name="intfc" index="PrY4T" />
      </concept>
      <concept id="1071489090640" name="jetbrains.mps.lang.structure.structure.ConceptDeclaration" flags="ig" index="1TIwiD">
        <property id="5404671619616246344" name="staticScope" index="2_RsDV" />
        <property id="1096454100552" name="rootable" index="19KtqR" />
        <reference id="1071489389519" name="extends" index="1TJDcQ" />
        <child id="1169129564478" name="implements" index="PzmwI" />
      </concept>
      <concept id="1071489288299" name="jetbrains.mps.lang.structure.structure.PropertyDeclaration" flags="ig" index="1TJgyi">
        <property id="241647608299431129" name="propertyId" index="IQ2nx" />
        <reference id="1082985295845" name="dataType" index="AX2Wp" />
      </concept>
      <concept id="1071489288298" name="jetbrains.mps.lang.structure.structure.LinkDeclaration" flags="ig" index="1TJgyj">
        <property id="1071599776563" name="role" index="20kJfa" />
        <property id="1071599893252" name="sourceCardinality" index="20lbJX" />
        <property id="1071599937831" name="metaClass" index="20lmBu" />
        <property id="241647608299431140" name="linkId" index="IQ2ns" />
        <reference id="1071599976176" name="target" index="20lvS9" />
      </concept>
    </language>
    <language id="ceab5195-25ea-4f22-9b92-103b95ca8c0c" name="jetbrains.mps.lang.core">
      <concept id="1169194658468" name="jetbrains.mps.lang.core.structure.INamedConcept" flags="ng" index="TrEIO">
        <property id="1169194664001" name="name" index="TrG5h" />
      </concept>
    </language>
  </registry>
  <node concept="1TIwiD" id="3rV3sBXeytk">
    <property role="R5$K7" value="false" />
    <property role="19KtqR" value="true" />
    <property role="R5$K2" value="false" />
    <property role="TrG5h" value="PropertiesFile" />
    <property role="34LRSv" value="properties file" />
    <property role="EcuMT" value="3961775458390517588" />
    <ref role="1TJDcQ" to="tpck:gw2VY9q" resolve="BaseConcept" />
    <node concept="1TJgyj" id="3rV3sBXezF3" role="1TKVEi">
      <property role="20lmBu" value="aggregation" />
      <property role="20kJfa" value="lines" />
      <property role="20lbJX" value="0..n" />
      <property role="IQ2ns" value="3961775458390522563" />
      <ref role="20lvS9" node="3rV3sBXezF2" resolve="PropertiesLine" />
    </node>
    <node concept="PrWs8" id="3rV3sBXezF0" role="PzmwI">
      <ref role="PrY4T" to="tpck:h0TrEE$" resolve="INamedConcept" />
    </node>
    <node concept="PrWs8" id="7BASdL19Ywx" role="PzmwI">
      <ref role="PrY4T" to="356a:4pl5GY7LKm$" resolve="UnitConcept" />
    </node>
  </node>
  <node concept="1TIwiD" id="3rV3sBXezF1">
    <property role="R5$K7" value="false" />
    <property role="R5$K2" value="false" />
    <property role="TrG5h" value="PropertiesDeclaration" />
    <property role="34LRSv" value="property" />
    <property role="EcuMT" value="3961775458390522561" />
    <ref role="1TJDcQ" node="3rV3sBXezF2" resolve="PropertiesLine" />
    <node concept="1TJgyi" id="3rV3sBXezF$" role="1TKVEl">
      <property role="TrG5h" value="value" />
      <property role="IQ2nx" value="3961775458390522596" />
      <ref role="AX2Wp" to="tpck:fKAOsGN" resolve="string" />
    </node>
    <node concept="PrWs8" id="3rV3sBXezFz" role="PzmwI">
      <ref role="PrY4T" to="tpck:h0TrEE$" resolve="INamedConcept" />
    </node>
  </node>
  <node concept="1TIwiD" id="3rV3sBXezF2">
    <property role="R5$K7" value="false" />
    <property role="R5$K2" value="false" />
    <property role="TrG5h" value="PropertiesLine" />
    <property role="34LRSv" value="&lt;empty line&gt;" />
    <property role="EcuMT" value="3961775458390522562" />
    <ref role="1TJDcQ" to="tpck:gw2VY9q" resolve="BaseConcept" />
  </node>
  <node concept="1TIwiD" id="3rV3sBXezFp">
    <property role="R5$K7" value="false" />
    <property role="R5$K2" value="false" />
    <property role="TrG5h" value="PropertiesComment" />
    <property role="2_RsDV" value="none" />
    <property role="34LRSv" value="#" />
    <property role="EcuMT" value="3961775458390522585" />
    <ref role="1TJDcQ" node="3rV3sBXezF2" resolve="PropertiesLine" />
    <node concept="1TJgyi" id="3rV3sBXezFq" role="1TKVEl">
      <property role="TrG5h" value="text" />
      <property role="IQ2nx" value="3961775458390522586" />
      <ref role="AX2Wp" to="tpck:fKAOsGN" resolve="string" />
    </node>
  </node>
</model>

