<?xml version="1.0" encoding="UTF-8"?>
<model ref="r:8a713d47-0d34-47f0-a8dc-1c3960c96703(updatedLanguage.migration)">
  <persistence version="9" />
  <languages>
    <use id="90746344-04fd-4286-97d5-b46ae6a81709" name="jetbrains.mps.lang.migration" version="0" />
    <use id="28f9e497-3b42-4291-aeba-0a1039153ab1" name="jetbrains.mps.lang.plugin" version="1" />
    <use id="d4615e3b-d671-4ba9-af01-2b78369b0ba7" name="jetbrains.mps.lang.pattern" version="1" />
    <use id="a59395ba-5d94-4758-a87c-b11e086d5491" name="updatedLanguage" version="1" />
    <use id="ed6d7656-532c-4bc2-81d1-af945aeb8280" name="jetbrains.mps.baseLanguage.blTypes" version="0" />
    <use id="9ded098b-ad6a-4657-bfd9-48636cfe8bc3" name="jetbrains.mps.lang.traceable" version="0" />
    <use id="c7d5b9dd-a05f-4be2-bc73-f2e16994cc67" name="jetbrains.mps.baseLanguage.lightweightdsl" version="1" />
    <use id="7866978e-a0f0-4cc7-81bc-4d213d9375e1" name="jetbrains.mps.lang.smodel" version="4" />
    <devkit ref="fbc25dd2-5da4-483a-8b19-70928e1b62d7(jetbrains.mps.devkit.general-purpose)" />
  </languages>
  <imports>
    <import index="c17a" ref="8865b7a8-5271-43d3-884c-6fd1d9cfdd34/java:org.jetbrains.mps.openapi.language(MPS.OpenAPI/)" />
    <import index="lui2" ref="8865b7a8-5271-43d3-884c-6fd1d9cfdd34/java:org.jetbrains.mps.openapi.module(MPS.OpenAPI/)" />
    <import index="9gjt" ref="r:d2da4af1-e84b-4016-92ec-5817a38dc1f9(updatedLanguage.structure)" />
    <import index="wyt6" ref="6354ebe7-c22a-4a0f-ac54-50b52ab9b065/java:java.lang(JDK/)" />
    <import index="mhbf" ref="8865b7a8-5271-43d3-884c-6fd1d9cfdd34/java:org.jetbrains.mps.openapi.model(MPS.OpenAPI/)" />
    <import index="slm6" ref="90746344-04fd-4286-97d5-b46ae6a81709/r:52a3d974-bd4f-4651-ba6e-a2de5e336d95(jetbrains.mps.lang.migration/jetbrains.mps.lang.migration.methods)" implicit="true" />
  </imports>
  <registry>
    <language id="f3061a53-9226-4cc5-a443-f952ceaf5816" name="jetbrains.mps.baseLanguage">
      <concept id="1215693861676" name="jetbrains.mps.baseLanguage.structure.BaseAssignmentExpression" flags="nn" index="d038R">
        <child id="1068498886297" name="rValue" index="37vLTx" />
        <child id="1068498886295" name="lValue" index="37vLTJ" />
      </concept>
      <concept id="1465982738277781862" name="jetbrains.mps.baseLanguage.structure.PlaceholderMember" flags="ng" index="2tJIrI" />
      <concept id="1197027756228" name="jetbrains.mps.baseLanguage.structure.DotExpression" flags="nn" index="2OqwBi">
        <child id="1197027771414" name="operand" index="2Oq$k0" />
        <child id="1197027833540" name="operation" index="2OqNvi" />
      </concept>
      <concept id="1068498886296" name="jetbrains.mps.baseLanguage.structure.VariableReference" flags="nn" index="37vLTw">
        <reference id="1068581517664" name="variableDeclaration" index="3cqZAo" />
      </concept>
      <concept id="1068498886292" name="jetbrains.mps.baseLanguage.structure.ParameterDeclaration" flags="ir" index="37vLTG" />
      <concept id="1068498886294" name="jetbrains.mps.baseLanguage.structure.AssignmentExpression" flags="nn" index="37vLTI" />
      <concept id="4972933694980447171" name="jetbrains.mps.baseLanguage.structure.BaseVariableDeclaration" flags="ng" index="19Szcq">
        <child id="5680397130376446158" name="type" index="1tU5fm" />
      </concept>
      <concept id="1068580123132" name="jetbrains.mps.baseLanguage.structure.BaseMethodDeclaration" flags="ng" index="3clF44">
        <child id="1068580123133" name="returnType" index="3clF45" />
        <child id="1068580123134" name="parameter" index="3clF46" />
        <child id="1068580123135" name="body" index="3clF47" />
      </concept>
      <concept id="1068580123155" name="jetbrains.mps.baseLanguage.structure.ExpressionStatement" flags="nn" index="3clFbF">
        <child id="1068580123156" name="expression" index="3clFbG" />
      </concept>
      <concept id="1068580123136" name="jetbrains.mps.baseLanguage.structure.StatementList" flags="sn" stub="5293379017992965193" index="3clFbS">
        <child id="1068581517665" name="statement" index="3cqZAp" />
      </concept>
      <concept id="1068581242878" name="jetbrains.mps.baseLanguage.structure.ReturnStatement" flags="nn" index="3cpWs6">
        <child id="1068581517676" name="expression" index="3cqZAk" />
      </concept>
      <concept id="1107461130800" name="jetbrains.mps.baseLanguage.structure.Classifier" flags="ng" index="3pOWGL">
        <child id="5375687026011219971" name="member" index="jymVt" unordered="true" />
      </concept>
      <concept id="1107535904670" name="jetbrains.mps.baseLanguage.structure.ClassifierType" flags="in" index="3uibUv">
        <reference id="1107535924139" name="classifier" index="3uigEE" />
      </concept>
      <concept id="1178549954367" name="jetbrains.mps.baseLanguage.structure.IVisible" flags="ng" index="1B3ioH">
        <child id="1178549979242" name="visibility" index="1B3o_S" />
      </concept>
      <concept id="1146644602865" name="jetbrains.mps.baseLanguage.structure.PublicVisibility" flags="nn" index="3Tm1VV" />
    </language>
    <language id="d4615e3b-d671-4ba9-af01-2b78369b0ba7" name="jetbrains.mps.lang.pattern">
      <concept id="1136720037777" name="jetbrains.mps.lang.pattern.structure.PatternExpression" flags="in" index="2DMOqp">
        <child id="9046399079000773837" name="pattern" index="HM535" />
      </concept>
    </language>
    <language id="fd392034-7849-419d-9071-12563d152375" name="jetbrains.mps.baseLanguage.closures">
      <concept id="1199569711397" name="jetbrains.mps.baseLanguage.closures.structure.ClosureLiteral" flags="nn" index="1bVj0M">
        <property id="890797661671409019" name="forceMultiLine" index="3yWfEV" />
        <child id="1199569906740" name="parameter" index="1bW2Oz" />
        <child id="1199569916463" name="body" index="1bW5cS" />
      </concept>
    </language>
    <language id="c7d5b9dd-a05f-4be2-bc73-f2e16994cc67" name="jetbrains.mps.baseLanguage.lightweightdsl">
      <concept id="3751132065236767083" name="jetbrains.mps.baseLanguage.lightweightdsl.structure.DependentTypeInstance" flags="ig" index="q3mfm">
        <reference id="3751132065236767084" name="decl" index="q3mfh" />
        <reference id="9097849371505568270" name="point" index="1QQUv3" />
      </concept>
      <concept id="3751132065236767060" name="jetbrains.mps.baseLanguage.lightweightdsl.structure.MethodInstance" flags="ig" index="q3mfD">
        <reference id="19209059688387895" name="decl" index="2VtyIY" />
      </concept>
      <concept id="6478870542308703666" name="jetbrains.mps.baseLanguage.lightweightdsl.structure.MemberPlaceholder" flags="ng" index="3tTeZs">
        <property id="6478870542308703667" name="caption" index="3tTeZt" />
        <reference id="6478870542308703669" name="decl" index="3tTeZr" />
      </concept>
    </language>
    <language id="3a13115c-633c-4c5c-bbcc-75c4219e9555" name="jetbrains.mps.lang.quotation">
      <concept id="1196350785113" name="jetbrains.mps.lang.quotation.structure.Quotation" flags="nn" index="2c44tf">
        <child id="1196350785114" name="quotedNode" index="2c44tc" />
      </concept>
    </language>
    <language id="a59395ba-5d94-4758-a87c-b11e086d5491" name="updatedLanguage">
      <concept id="297352798234498871" name="updatedLanguage.structure.MigratingConcept" flags="lg" index="1zB3ZW" />
    </language>
    <language id="7866978e-a0f0-4cc7-81bc-4d213d9375e1" name="jetbrains.mps.lang.smodel">
      <concept id="1138055754698" name="jetbrains.mps.lang.smodel.structure.SNodeType" flags="in" index="3Tqbb2">
        <reference id="1138405853777" name="concept" index="ehGHo" />
      </concept>
      <concept id="1138056022639" name="jetbrains.mps.lang.smodel.structure.SPropertyAccess" flags="nn" index="3TrcHB">
        <reference id="1138056395725" name="property" index="3TsBF5" />
      </concept>
    </language>
    <language id="ceab5195-25ea-4f22-9b92-103b95ca8c0c" name="jetbrains.mps.lang.core">
      <concept id="1169194658468" name="jetbrains.mps.lang.core.structure.INamedConcept" flags="ng" index="TrEIO">
        <property id="1169194664001" name="name" index="TrG5h" />
      </concept>
    </language>
    <language id="90746344-04fd-4286-97d5-b46ae6a81709" name="jetbrains.mps.lang.migration">
      <concept id="5636302460526173897" name="jetbrains.mps.lang.migration.structure.TransformStatement" flags="ng" index="3SqFnK">
        <child id="5636302460526173936" name="consequence" index="3SqFn9" />
        <child id="5636302460526173934" name="pattern" index="3SqFnn" />
      </concept>
      <concept id="5636302460526210743" name="jetbrains.mps.lang.migration.structure.ConsequenceFunction" flags="ng" index="3SqKme" />
      <concept id="8352104482584315555" name="jetbrains.mps.lang.migration.structure.MigrationScript" flags="ig" index="3SyAh_">
        <property id="5820409521797704727" name="fromVersion" index="qMTe8" />
      </concept>
    </language>
  </registry>
  <node concept="3SyAh_" id="gwqcHBJ5j2">
    <property role="qMTe8" value="0" />
    <property role="TrG5h" value="TestMigration" />
    <node concept="3Tm1VV" id="gwqcHBJ5j3" role="1B3o_S" />
    <node concept="3tTeZs" id="gwqcHBJ5nw" role="jymVt">
      <property role="3tTeZt" value="&lt;no execute after&gt;" />
      <ref role="3tTeZr" to="slm6:7ay_HjIMt1a" resolve="execute after" />
    </node>
    <node concept="3tTeZs" id="gwqcHBJ5nx" role="jymVt">
      <property role="3tTeZt" value="&lt;no required data&gt;" />
      <ref role="3tTeZr" to="slm6:3A3gNhf1WPI" resolve="requires data" />
    </node>
    <node concept="3tTeZs" id="gwqcHBJ5ny" role="jymVt">
      <property role="3tTeZt" value="&lt;no produced data&gt;" />
      <ref role="3tTeZr" to="slm6:536fTXa4WHO" resolve="produces data" />
    </node>
    <node concept="2tJIrI" id="gwqcHBJ5nz" role="jymVt" />
    <node concept="3tTeZs" id="gwqcHBJ5n$" role="jymVt">
      <property role="3tTeZt" value="&lt;description&gt;" />
      <ref role="3tTeZr" to="slm6:1_lSsE3RFpE" resolve="description" />
    </node>
    <node concept="q3mfD" id="gwqcHBJ5n_" role="jymVt">
      <property role="TrG5h" value="execute" />
      <ref role="2VtyIY" to="slm6:4ubqdNOF9cA" resolve="execute" />
      <node concept="3Tm1VV" id="gwqcHBJ5nZ" role="1B3o_S" />
      <node concept="3clFbS" id="gwqcHBJ5o1" role="3clF47">
        <node concept="3SqFnK" id="gwqcHBJpZA" role="3cqZAp">
          <node concept="2DMOqp" id="gwqcHBJpZB" role="3SqFnn">
            <node concept="2c44tf" id="7oTZmjkCraY" role="HM535">
              <node concept="1zB3ZW" id="gwqcHBJq0$" role="2c44tc" />
            </node>
          </node>
          <node concept="3SqKme" id="gwqcHBKkTH" role="3SqFn9">
            <property role="3yWfEV" value="true" />
            <node concept="37vLTG" id="gwqcHBKkTJ" role="1bW2Oz">
              <property role="TrG5h" value="node" />
              <node concept="3Tqbb2" id="gwqcHBKkTK" role="1tU5fm">
                <ref role="ehGHo" to="9gjt:gwqcHBJ5sR" resolve="MigratingConcept" />
              </node>
            </node>
            <node concept="3clFbS" id="gwqcHBKkTL" role="1bW5cS">
              <node concept="3clFbF" id="gwqcHBKrWC" role="3cqZAp">
                <node concept="37vLTI" id="gwqcHBKsA5" role="3clFbG">
                  <node concept="2OqwBi" id="gwqcHBKt2F" role="37vLTx">
                    <node concept="37vLTw" id="gwqcHBKsNH" role="2Oq$k0">
                      <ref role="3cqZAo" node="gwqcHBKkTJ" resolve="node" />
                    </node>
                    <node concept="3TrcHB" id="gwqcHBKtpR" role="2OqNvi">
                      <ref role="3TsBF5" to="9gjt:gwqcHBJ5ue" resolve="value" />
                    </node>
                  </node>
                  <node concept="2OqwBi" id="gwqcHBKrYs" role="37vLTJ">
                    <node concept="37vLTw" id="gwqcHBKrWA" role="2Oq$k0">
                      <ref role="3cqZAo" node="gwqcHBKkTJ" resolve="node" />
                    </node>
                    <node concept="3TrcHB" id="gwqcHBKs9O" role="2OqNvi">
                      <ref role="3TsBF5" to="9gjt:gwqcHBJaMf" resolve="newvalue" />
                    </node>
                  </node>
                </node>
              </node>
              <node concept="3cpWs6" id="gwqcHBKLyC" role="3cqZAp">
                <node concept="37vLTw" id="gwqcHBKLMl" role="3cqZAk">
                  <ref role="3cqZAo" node="gwqcHBKkTJ" resolve="node" />
                </node>
              </node>
            </node>
          </node>
        </node>
      </node>
      <node concept="37vLTG" id="gwqcHBJ5o3" role="3clF46">
        <property role="TrG5h" value="m" />
        <node concept="3uibUv" id="gwqcHBJ5o2" role="1tU5fm">
          <ref role="3uigEE" to="lui2:~SModule" resolve="SModule" />
        </node>
      </node>
      <node concept="q3mfm" id="gwqcHBJ5o4" role="3clF45">
        <ref role="q3mfh" to="slm6:4F5w8gPXEEe" />
        <ref role="1QQUv3" node="gwqcHBJ5n_" resolve="execute" />
      </node>
    </node>
  </node>
</model>

