<?xml version="1.0" encoding="UTF-8"?>
<model ref="r:87ff4c00-c6ac-42d9-bd84-c1eed9616ae7(jetbrains.mps.lang.editor.menus.testMetaLanguage.editor)">
  <persistence version="9" />
  <languages>
    <use id="18bc6592-03a6-4e29-a83a-7ff23bde13ba" name="jetbrains.mps.lang.editor" version="3" />
    <devkit ref="fbc25dd2-5da4-483a-8b19-70928e1b62d7(jetbrains.mps.devkit.general-purpose)" />
  </languages>
  <imports>
    <import index="ue84" ref="r:72a1f653-d94c-4c5e-9b1c-92f598e4fc7c(jetbrains.mps.lang.editor.menus.testMetaLanguage.structure)" implicit="true" />
    <import index="tpco" ref="r:00000000-0000-4000-0000-011c89590284(jetbrains.mps.lang.core.editor)" implicit="true" />
    <import index="tpd3" ref="r:00000000-0000-4000-0000-011c895902bb(jetbrains.mps.lang.sharedConcepts.editor)" implicit="true" />
    <import index="tpc2" ref="r:00000000-0000-4000-0000-011c8959029e(jetbrains.mps.lang.editor.structure)" implicit="true" />
    <import index="tpck" ref="r:00000000-0000-4000-0000-011c89590288(jetbrains.mps.lang.core.structure)" implicit="true" />
    <import index="tpc5" ref="r:00000000-0000-4000-0000-011c89590299(jetbrains.mps.lang.editor.editor)" implicit="true" />
  </imports>
  <registry>
    <language id="18bc6592-03a6-4e29-a83a-7ff23bde13ba" name="jetbrains.mps.lang.editor">
      <concept id="1071666914219" name="jetbrains.mps.lang.editor.structure.ConceptEditorDeclaration" flags="ig" index="24kQdi" />
      <concept id="1237303669825" name="jetbrains.mps.lang.editor.structure.CellLayout_Indent" flags="nn" index="l2Vlx" />
      <concept id="1237307900041" name="jetbrains.mps.lang.editor.structure.IndentLayoutIndentStyleClassItem" flags="ln" index="lj46D" />
      <concept id="1237308012275" name="jetbrains.mps.lang.editor.structure.IndentLayoutNewLineStyleClassItem" flags="ln" index="ljvvj" />
      <concept id="1237385578942" name="jetbrains.mps.lang.editor.structure.IndentLayoutOnNewLineStyleClassItem" flags="ln" index="pVoyu" />
      <concept id="1080736578640" name="jetbrains.mps.lang.editor.structure.BaseEditorComponent" flags="ig" index="2wURMF">
        <child id="1080736633877" name="cellModel" index="2wV5jI" />
      </concept>
      <concept id="1078939183254" name="jetbrains.mps.lang.editor.structure.CellModel_Component" flags="sg" stub="3162947552742194261" index="PMmxH">
        <reference id="1078939183255" name="editorComponent" index="PMmxG" />
      </concept>
      <concept id="1186414536763" name="jetbrains.mps.lang.editor.structure.BooleanStyleSheetItem" flags="ln" index="VOi$J">
        <property id="1186414551515" name="flag" index="VOm3f" />
      </concept>
      <concept id="1186414976055" name="jetbrains.mps.lang.editor.structure.DrawBorderStyleClassItem" flags="ln" index="VPXOz" />
      <concept id="1088013125922" name="jetbrains.mps.lang.editor.structure.CellModel_RefCell" flags="sg" stub="730538219795941030" index="1iCGBv">
        <child id="1088186146602" name="editorComponent" index="1sWHZn" />
      </concept>
      <concept id="1381004262292414836" name="jetbrains.mps.lang.editor.structure.ICellStyle" flags="ng" index="1k5N5V">
        <reference id="1381004262292426837" name="parentStyleClass" index="1k5W1q" />
      </concept>
      <concept id="1088185857835" name="jetbrains.mps.lang.editor.structure.InlineEditorComponent" flags="ig" index="1sVBvm" />
      <concept id="1139848536355" name="jetbrains.mps.lang.editor.structure.CellModel_WithRole" flags="ng" index="1$h60E">
        <property id="1139852716018" name="noTargetText" index="1$x2rV" />
        <property id="1140017977771" name="readOnly" index="1Intyy" />
        <reference id="1140103550593" name="relationDeclaration" index="1NtTu8" />
      </concept>
      <concept id="1073389446423" name="jetbrains.mps.lang.editor.structure.CellModel_Collection" flags="sn" stub="3013115976261988961" index="3EZMnI">
        <child id="1106270802874" name="cellLayout" index="2iSdaV" />
        <child id="1073389446424" name="childCellModel" index="3EZMnx" />
      </concept>
      <concept id="1073389577006" name="jetbrains.mps.lang.editor.structure.CellModel_Constant" flags="sn" stub="3610246225209162225" index="3F0ifn">
        <property id="1073389577007" name="text" index="3F0ifm" />
      </concept>
      <concept id="1073389658414" name="jetbrains.mps.lang.editor.structure.CellModel_Property" flags="sg" stub="730538219796134133" index="3F0A7n" />
      <concept id="1219418625346" name="jetbrains.mps.lang.editor.structure.IStyleContainer" flags="ng" index="3F0Thp">
        <child id="1219418656006" name="styleItem" index="3F10Kt" />
      </concept>
      <concept id="1166049232041" name="jetbrains.mps.lang.editor.structure.AbstractComponent" flags="ng" index="1XWOmA">
        <reference id="1166049300910" name="conceptDeclaration" index="1XX52x" />
      </concept>
    </language>
    <language id="ceab5195-25ea-4f22-9b92-103b95ca8c0c" name="jetbrains.mps.lang.core">
      <concept id="1133920641626" name="jetbrains.mps.lang.core.structure.BaseConcept" flags="ng" index="2VYdi">
        <property id="1193676396447" name="virtualPackage" index="3GE5qa" />
      </concept>
    </language>
  </registry>
  <node concept="24kQdi" id="3fN3Qovygyb">
    <property role="3GE5qa" value="" />
    <ref role="1XX52x" to="ue84:3fN3QovxAWl" resolve="TransformationFeature_Unavailable" />
    <node concept="PMmxH" id="3fN3Qovygyd" role="2wV5jI">
      <ref role="PMmxG" to="tpco:2wZex4PafBj" resolve="alias" />
    </node>
  </node>
  <node concept="24kQdi" id="478VZjcfvNK">
    <property role="3GE5qa" value="" />
    <ref role="1XX52x" to="ue84:478VZjcfvKt" resolve="TransformationFeature_Optional" />
    <node concept="PMmxH" id="478VZjcfvNM" role="2wV5jI">
      <ref role="PMmxG" to="tpco:2wZex4PafBj" resolve="alias" />
    </node>
  </node>
  <node concept="24kQdi" id="478VZjcfwBv">
    <property role="3GE5qa" value="" />
    <ref role="1XX52x" to="ue84:478VZjcfwBo" resolve="TransformationFeature_Required" />
    <node concept="PMmxH" id="478VZjcfwBx" role="2wV5jI">
      <ref role="PMmxG" to="tpco:2wZex4PafBj" resolve="alias" />
    </node>
  </node>
  <node concept="24kQdi" id="2mvci7PA06M">
    <ref role="1XX52x" to="ue84:2mvci7PA05Z" resolve="TransformationMenu_Test" />
    <node concept="3EZMnI" id="1qY_lWSjNP1" role="2wV5jI">
      <node concept="3F0ifn" id="1qY_lWSjNP8" role="3EZMnx">
        <property role="3F0ifm" value="test transformation menu for" />
      </node>
      <node concept="1iCGBv" id="30jUJZlxZvQ" role="3EZMnx">
        <property role="1$x2rV" value="&lt;no concept&gt;" />
        <ref role="1k5W1q" to="tpd3:hwSE21y" resolve="ReferenceOnConcept" />
        <ref role="1NtTu8" to="tpc2:5HVj4Ph44AO" />
        <node concept="1sVBvm" id="30jUJZlxZvR" role="1sWHZn">
          <node concept="3F0A7n" id="30jUJZlxZvS" role="2wV5jI">
            <property role="1Intyy" value="true" />
            <property role="1$x2rV" value="&lt;no name&gt;" />
            <ref role="1NtTu8" to="tpck:h0TrG11" resolve="name" />
          </node>
        </node>
        <node concept="ljvvj" id="6V0bp$oSbge" role="3F10Kt">
          <property role="VOm3f" value="true" />
        </node>
        <node concept="VPXOz" id="3ZEXHePwoF7" role="3F10Kt">
          <property role="VOm3f" value="true" />
        </node>
      </node>
      <node concept="PMmxH" id="6VgTvK0jg97" role="3EZMnx">
        <ref role="PMmxG" to="tpc5:6VgTvK0jg8i" resolve="TransformationMenu_Sections_Component" />
        <node concept="lj46D" id="6VgTvK0jg98" role="3F10Kt">
          <property role="VOm3f" value="true" />
        </node>
        <node concept="pVoyu" id="6VgTvK0jg99" role="3F10Kt">
          <property role="VOm3f" value="true" />
        </node>
      </node>
      <node concept="l2Vlx" id="6V0bp$oSbgm" role="2iSdaV" />
    </node>
  </node>
</model>

