<?xml version="1.0" encoding="UTF-8"?>
<model ref="r:5faf59d4-3434-4aef-b295-eb4e8aaf9953(jetbrains.mps.samples.xmlLiterals.actions)">
  <persistence version="9" />
  <languages>
    <use id="aee9cad2-acd4-4608-aef2-0004f6a1cdbd" name="jetbrains.mps.lang.actions" version="0" />
    <devkit ref="fbc25dd2-5da4-483a-8b19-70928e1b62d7(jetbrains.mps.devkit.general-purpose)" />
  </languages>
  <imports>
    <import index="iuxj" ref="r:64db3a92-5968-4a73-b456-34504a2d97a6(jetbrains.mps.core.xml.structure)" implicit="true" />
    <import index="v5hn" ref="r:a9473eef-c3e7-4713-b3b3-57facda6958d(jetbrains.mps.samples.xmlLiterals.structure)" implicit="true" />
  </imports>
  <registry>
    <language id="aee9cad2-acd4-4608-aef2-0004f6a1cdbd" name="jetbrains.mps.lang.actions">
      <concept id="1180134965967" name="jetbrains.mps.lang.actions.structure.ConceptSubstitutePart" flags="ng" index="35xCft">
        <reference id="1180135092669" name="concept" index="35y72J" />
      </concept>
      <concept id="1112056943463" name="jetbrains.mps.lang.actions.structure.NodeSubstituteActions" flags="ng" index="3FK_9_">
        <child id="1112058057696" name="actionsBuilder" index="3FOPby" />
      </concept>
      <concept id="1112058030570" name="jetbrains.mps.lang.actions.structure.NodeSubstituteActionsBuilder" flags="ig" index="3FOIzC">
        <reference id="1112058088712" name="applicableConcept" index="3FOWKa" />
        <child id="1177324142645" name="part" index="tZc4B" />
      </concept>
    </language>
    <language id="ceab5195-25ea-4f22-9b92-103b95ca8c0c" name="jetbrains.mps.lang.core">
      <concept id="1169194658468" name="jetbrains.mps.lang.core.structure.INamedConcept" flags="ng" index="TrEIO">
        <property id="1169194664001" name="name" index="TrG5h" />
      </concept>
    </language>
  </registry>
  <node concept="3FK_9_" id="4q4J4YKAn5r">
    <property role="TrG5h" value="Create_TextMacro" />
    <node concept="3FOIzC" id="4q4J4YKAn8K" role="3FOPby">
      <ref role="3FOWKa" to="iuxj:1q3yNZeAEkj" resolve="XmlText" />
      <node concept="35xCft" id="4q4J4YKAn9$" role="tZc4B">
        <ref role="35y72J" to="v5hn:7W5DrJIdOFx" resolve="TextMacro" />
      </node>
    </node>
  </node>
</model>

