<?xml version="1.0" encoding="UTF-8"?>
<model ref="r:95faf3fd-a89c-4a10-a7cd-04dccacd63bd(decl.migration)">
  <persistence version="9" />
  <languages>
    <use id="90746344-04fd-4286-97d5-b46ae6a81709" name="jetbrains.mps.lang.migration" version="-1" />
    <use id="d4615e3b-d671-4ba9-af01-2b78369b0ba7" name="jetbrains.mps.lang.pattern" version="1" />
    <use id="28f9e497-3b42-4291-aeba-0a1039153ab1" name="jetbrains.mps.lang.plugin" version="1" />
    <use id="9de7c5ce-ea6f-4fb4-a7ba-45e62b53cbad" name="decl" version="-1" />
    <use id="c7d5b9dd-a05f-4be2-bc73-f2e16994cc67" name="jetbrains.mps.baseLanguage.lightweightdsl" version="-1" />
    <devkit ref="fbc25dd2-5da4-483a-8b19-70928e1b62d7(jetbrains.mps.devkit.general-purpose)" />
  </languages>
  <imports>
    <import index="lui2" ref="8865b7a8-5271-43d3-884c-6fd1d9cfdd34/java:org.jetbrains.mps.openapi.module(MPS.OpenAPI/)" />
    <import index="wyt6" ref="6354ebe7-c22a-4a0f-ac54-50b52ab9b065/java:java.lang(JDK/)" />
    <import index="mhbf" ref="8865b7a8-5271-43d3-884c-6fd1d9cfdd34/java:org.jetbrains.mps.openapi.model(MPS.OpenAPI/)" />
    <import index="3whe" ref="r:56f66470-c4a8-46fa-8473-a0079c000cbf(decl.structure)" />
    <import index="tpck" ref="r:00000000-0000-4000-0000-011c89590288(jetbrains.mps.lang.core.structure)" />
    <import index="w1kc" ref="6ed54515-acc8-4d1e-a16c-9fd6cfe951ea/java:jetbrains.mps.smodel(MPS.Core/)" />
    <import index="slm6" ref="90746344-04fd-4286-97d5-b46ae6a81709/r:52a3d974-bd4f-4651-ba6e-a2de5e336d95(jetbrains.mps.lang.migration/jetbrains.mps.lang.migration.methods)" />
    <import index="che4" ref="r:e5186c75-12ba-46bf-934f-f0e026ef8c26(jetbrains.mps.lang.migration.plugin)" />
  </imports>
  <registry>
    <language id="f3061a53-9226-4cc5-a443-f952ceaf5816" name="jetbrains.mps.baseLanguage">
      <concept id="1215693861676" name="jetbrains.mps.baseLanguage.structure.BaseAssignmentExpression" flags="nn" index="d038R">
        <child id="1068498886297" name="rValue" index="37vLTx" />
        <child id="1068498886295" name="lValue" index="37vLTJ" />
      </concept>
      <concept id="4836112446988635817" name="jetbrains.mps.baseLanguage.structure.UndefinedType" flags="in" index="2jxLKc" />
      <concept id="1202948039474" name="jetbrains.mps.baseLanguage.structure.InstanceMethodCallOperation" flags="nn" index="liA8E" />
      <concept id="1465982738277781862" name="jetbrains.mps.baseLanguage.structure.PlaceholderMember" flags="ng" index="2tJIrI" />
      <concept id="1197027756228" name="jetbrains.mps.baseLanguage.structure.DotExpression" flags="nn" index="2OqwBi">
        <child id="1197027771414" name="operand" index="2Oq$k0" />
        <child id="1197027833540" name="operation" index="2OqNvi" />
      </concept>
      <concept id="1145552977093" name="jetbrains.mps.baseLanguage.structure.GenericNewExpression" flags="nn" index="2ShNRf">
        <child id="1145553007750" name="creator" index="2ShVmc" />
      </concept>
      <concept id="1070534934090" name="jetbrains.mps.baseLanguage.structure.CastExpression" flags="nn" index="10QFUN">
        <child id="1070534934091" name="type" index="10QFUM" />
        <child id="1070534934092" name="expression" index="10QFUP" />
      </concept>
      <concept id="1068431474542" name="jetbrains.mps.baseLanguage.structure.VariableDeclaration" flags="ng" index="33uBYm">
        <child id="1068431790190" name="initializer" index="33vP2m" />
      </concept>
      <concept id="1068498886296" name="jetbrains.mps.baseLanguage.structure.VariableReference" flags="nn" index="37vLTw">
        <reference id="1068581517664" name="variableDeclaration" index="3cqZAo" />
      </concept>
      <concept id="1068498886292" name="jetbrains.mps.baseLanguage.structure.ParameterDeclaration" flags="ir" index="37vLTG" />
      <concept id="1068498886294" name="jetbrains.mps.baseLanguage.structure.AssignmentExpression" flags="nn" index="37vLTI" />
      <concept id="1225271177708" name="jetbrains.mps.baseLanguage.structure.StringType" flags="in" index="17QB3L" />
      <concept id="4972933694980447171" name="jetbrains.mps.baseLanguage.structure.BaseVariableDeclaration" flags="ng" index="19Szcq">
        <child id="5680397130376446158" name="type" index="1tU5fm" />
      </concept>
      <concept id="1068580123132" name="jetbrains.mps.baseLanguage.structure.BaseMethodDeclaration" flags="ng" index="3clF44">
        <child id="1068580123133" name="returnType" index="3clF45" />
        <child id="1068580123134" name="parameter" index="3clF46" />
        <child id="1068580123135" name="body" index="3clF47" />
      </concept>
      <concept id="1068580123155" name="jetbrains.mps.baseLanguage.structure.ExpressionStatement" flags="nn" index="3clFbF">
        <child id="1068580123156" name="expression" index="3clFbG" />
      </concept>
      <concept id="1068580123157" name="jetbrains.mps.baseLanguage.structure.Statement" flags="nn" index="3clFbH" />
      <concept id="1068580123136" name="jetbrains.mps.baseLanguage.structure.StatementList" flags="sn" stub="5293379017992965193" index="3clFbS">
        <child id="1068581517665" name="statement" index="3cqZAp" />
      </concept>
      <concept id="1068581242878" name="jetbrains.mps.baseLanguage.structure.ReturnStatement" flags="nn" index="3cpWs6">
        <child id="1068581517676" name="expression" index="3cqZAk" />
      </concept>
      <concept id="1068581242864" name="jetbrains.mps.baseLanguage.structure.LocalVariableDeclarationStatement" flags="nn" index="3cpWs8">
        <child id="1068581242865" name="localVariableDeclaration" index="3cpWs9" />
      </concept>
      <concept id="1068581242863" name="jetbrains.mps.baseLanguage.structure.LocalVariableDeclaration" flags="nr" index="3cpWsn" />
      <concept id="1079359253375" name="jetbrains.mps.baseLanguage.structure.ParenthesizedExpression" flags="nn" index="1eOMI4">
        <child id="1079359253376" name="expression" index="1eOMHV" />
      </concept>
      <concept id="1081516740877" name="jetbrains.mps.baseLanguage.structure.NotExpression" flags="nn" index="3fqX7Q">
        <child id="1081516765348" name="expression" index="3fr31v" />
      </concept>
      <concept id="1204053956946" name="jetbrains.mps.baseLanguage.structure.IMethodCall" flags="ng" index="1ndlxa">
        <reference id="1068499141037" name="baseMethodDeclaration" index="37wK5l" />
      </concept>
      <concept id="1107461130800" name="jetbrains.mps.baseLanguage.structure.Classifier" flags="ng" index="3pOWGL">
        <child id="5375687026011219971" name="member" index="jymVt" unordered="true" />
      </concept>
      <concept id="1107535904670" name="jetbrains.mps.baseLanguage.structure.ClassifierType" flags="in" index="3uibUv">
        <reference id="1107535924139" name="classifier" index="3uigEE" />
      </concept>
      <concept id="1178549954367" name="jetbrains.mps.baseLanguage.structure.IVisible" flags="ng" index="1B3ioH">
        <child id="1178549979242" name="visibility" index="1B3o_S" />
      </concept>
      <concept id="6329021646629104957" name="jetbrains.mps.baseLanguage.structure.TextCommentPart" flags="nn" index="3SKdUq">
        <property id="6329021646629104958" name="text" index="3SKdUp" />
      </concept>
      <concept id="6329021646629104954" name="jetbrains.mps.baseLanguage.structure.SingleLineComment" flags="nn" index="3SKdUt">
        <child id="6329021646629175155" name="commentPart" index="3SKWNk" />
      </concept>
      <concept id="1146644602865" name="jetbrains.mps.baseLanguage.structure.PublicVisibility" flags="nn" index="3Tm1VV" />
      <concept id="1146644623116" name="jetbrains.mps.baseLanguage.structure.PrivateVisibility" flags="nn" index="3Tm6S6" />
    </language>
    <language id="fd392034-7849-419d-9071-12563d152375" name="jetbrains.mps.baseLanguage.closures">
      <concept id="1199569711397" name="jetbrains.mps.baseLanguage.closures.structure.ClosureLiteral" flags="nn" index="1bVj0M">
        <child id="1199569906740" name="parameter" index="1bW2Oz" />
        <child id="1199569916463" name="body" index="1bW5cS" />
      </concept>
    </language>
    <language id="c7d5b9dd-a05f-4be2-bc73-f2e16994cc67" name="jetbrains.mps.baseLanguage.lightweightdsl">
      <concept id="3751132065236767083" name="jetbrains.mps.baseLanguage.lightweightdsl.structure.DependentTypeInstance" flags="ig" index="q3mfm">
        <reference id="3751132065236767084" name="decl" index="q3mfh" />
        <reference id="9097849371505568270" name="point" index="1QQUv3" />
      </concept>
      <concept id="3751132065236767060" name="jetbrains.mps.baseLanguage.lightweightdsl.structure.MethodInstance" flags="ig" index="q3mfD">
        <reference id="19209059688387895" name="decl" index="2VtyIY" />
      </concept>
      <concept id="6478870542308708689" name="jetbrains.mps.baseLanguage.lightweightdsl.structure.PropertyInstance" flags="ig" index="3tT0cZ">
        <reference id="8585153554445465961" name="decl" index="25KYV2" />
      </concept>
      <concept id="6478870542308703666" name="jetbrains.mps.baseLanguage.lightweightdsl.structure.MemberPlaceholder" flags="ng" index="3tTeZs">
        <property id="6478870542308703667" name="caption" index="3tTeZt" />
        <reference id="6478870542308703669" name="decl" index="3tTeZr" />
      </concept>
      <concept id="6478870542308871428" name="jetbrains.mps.baseLanguage.lightweightdsl.structure.StringPropertyInstance" flags="ig" index="3tYpXE">
        <property id="6478870542308871429" name="value" index="3tYpXF" />
      </concept>
    </language>
    <language id="69b8a993-9b87-4d96-bf0c-3559f4bb0c63" name="jetbrains.mps.lang.slanguage">
      <concept id="2030416617761226491" name="jetbrains.mps.lang.slanguage.structure.Model_IsAspectOperation" flags="nn" index="3zA4fs">
        <reference id="2030416617761226680" name="aspect" index="3zA4av" />
      </concept>
    </language>
    <language id="3a13115c-633c-4c5c-bbcc-75c4219e9555" name="jetbrains.mps.lang.quotation">
      <concept id="1196350785110" name="jetbrains.mps.lang.quotation.structure.AbstractAntiquotation" flags="ng" index="2c44t0">
        <child id="1196350785111" name="expression" index="2c44t1" />
      </concept>
      <concept id="1196350785118" name="jetbrains.mps.lang.quotation.structure.ListAntiquotation" flags="ng" index="2c44t8" />
      <concept id="1196350785113" name="jetbrains.mps.lang.quotation.structure.Quotation" flags="nn" index="2c44tf">
        <child id="1196350785114" name="quotedNode" index="2c44tc" />
      </concept>
      <concept id="1196866233735" name="jetbrains.mps.lang.quotation.structure.PropertyAntiquotation" flags="ng" index="2EMmih" />
    </language>
    <language id="7866978e-a0f0-4cc7-81bc-4d213d9375e1" name="jetbrains.mps.lang.smodel">
      <concept id="1177026924588" name="jetbrains.mps.lang.smodel.structure.RefConcept_Reference" flags="nn" index="chp4Y">
        <reference id="1177026940964" name="conceptDeclaration" index="cht4Q" />
      </concept>
      <concept id="4693937538533521280" name="jetbrains.mps.lang.smodel.structure.OfConceptOperation" flags="ng" index="v3k3i">
        <child id="4693937538533538124" name="requestedConcept" index="v3oSu" />
      </concept>
      <concept id="1143226024141" name="jetbrains.mps.lang.smodel.structure.SModelType" flags="in" index="H_c77" />
      <concept id="1143234257716" name="jetbrains.mps.lang.smodel.structure.Node_GetModelOperation" flags="nn" index="I4A8Y" />
      <concept id="1145404486709" name="jetbrains.mps.lang.smodel.structure.SemanticDowncastExpression" flags="nn" index="2JrnkZ">
        <child id="1145404616321" name="leftExpression" index="2JrQYb" />
      </concept>
      <concept id="1171315804604" name="jetbrains.mps.lang.smodel.structure.Model_RootsOperation" flags="nn" index="2RRcyG" />
      <concept id="1180636770613" name="jetbrains.mps.lang.smodel.structure.SNodeCreator" flags="nn" index="3zrR0B">
        <child id="1180636770616" name="createdType" index="3zrR0E" />
      </concept>
      <concept id="1206482823744" name="jetbrains.mps.lang.smodel.structure.Model_AddRootOperation" flags="nn" index="3BYIHo">
        <child id="1206482823746" name="nodeArgument" index="3BYIHq" />
      </concept>
      <concept id="1140133623887" name="jetbrains.mps.lang.smodel.structure.Node_DeleteOperation" flags="nn" index="1PgB_6" />
      <concept id="1138055754698" name="jetbrains.mps.lang.smodel.structure.SNodeType" flags="in" index="3Tqbb2">
        <reference id="1138405853777" name="concept" index="ehGHo" />
      </concept>
      <concept id="1138056022639" name="jetbrains.mps.lang.smodel.structure.SPropertyAccess" flags="nn" index="3TrcHB">
        <reference id="1138056395725" name="property" index="3TsBF5" />
      </concept>
      <concept id="1138056282393" name="jetbrains.mps.lang.smodel.structure.SLinkListAccess" flags="nn" index="3Tsc0h">
        <reference id="1138056546658" name="link" index="3TtcxE" />
      </concept>
    </language>
    <language id="ceab5195-25ea-4f22-9b92-103b95ca8c0c" name="jetbrains.mps.lang.core">
      <concept id="1133920641626" name="jetbrains.mps.lang.core.structure.BaseConcept" flags="ng" index="2VYdi">
        <child id="5169995583184591170" name="smodelAttribute" index="lGtFl" />
      </concept>
      <concept id="3364660638048049750" name="jetbrains.mps.lang.core.structure.PropertyAttribute" flags="ng" index="A9Btg">
        <property id="1757699476691236117" name="propertyName" index="2qtEX9" />
        <property id="1341860900487648621" name="propertyId" index="P4ACc" />
      </concept>
      <concept id="1169194658468" name="jetbrains.mps.lang.core.structure.INamedConcept" flags="ng" index="TrEIO">
        <property id="1169194664001" name="name" index="TrG5h" />
      </concept>
    </language>
    <language id="90746344-04fd-4286-97d5-b46ae6a81709" name="jetbrains.mps.lang.migration">
      <concept id="5820409521797704955" name="jetbrains.mps.lang.migration.structure.ProducedDataDeclaration" flags="ng" index="qMTd$">
        <reference id="5820409521797704981" name="dataType" index="qMTaa" />
      </concept>
      <concept id="8352104482584315555" name="jetbrains.mps.lang.migration.structure.MigrationScript" flags="ig" index="3SyAh_">
        <property id="5820409521797704727" name="fromVersion" index="qMTe8" />
      </concept>
    </language>
    <language id="83888646-71ce-4f1c-9c53-c54016f6ad4f" name="jetbrains.mps.baseLanguage.collections">
      <concept id="1204796164442" name="jetbrains.mps.baseLanguage.collections.structure.InternalSequenceOperation" flags="nn" index="23sCx2">
        <child id="1204796294226" name="closure" index="23t8la" />
      </concept>
      <concept id="540871147943773365" name="jetbrains.mps.baseLanguage.collections.structure.SingleArgumentSequenceOperation" flags="nn" index="25WWJ4">
        <child id="540871147943773366" name="argument" index="25WWJ7" />
      </concept>
      <concept id="1204980550705" name="jetbrains.mps.baseLanguage.collections.structure.VisitAllOperation" flags="nn" index="2es0OD" />
      <concept id="1151689724996" name="jetbrains.mps.baseLanguage.collections.structure.SequenceType" flags="in" index="A3Dl8">
        <child id="1151689745422" name="elementType" index="A3Ik2" />
      </concept>
      <concept id="1203518072036" name="jetbrains.mps.baseLanguage.collections.structure.SmartClosureParameterDeclaration" flags="ig" index="Rh6nW" />
      <concept id="1160612413312" name="jetbrains.mps.baseLanguage.collections.structure.AddElementOperation" flags="nn" index="TSZUe" />
      <concept id="1201792049884" name="jetbrains.mps.baseLanguage.collections.structure.TranslateOperation" flags="nn" index="3goQfb" />
      <concept id="1202120902084" name="jetbrains.mps.baseLanguage.collections.structure.WhereOperation" flags="nn" index="3zZkjj" />
    </language>
    <language id="9de7c5ce-ea6f-4fb4-a7ba-45e62b53cbad" name="decl">
      <concept id="7709929535540733442" name="decl.structure.NewComponentMember" flags="ng" index="zNoCi" />
      <concept id="7709929535540731249" name="decl.structure.NewComponent" flags="ng" index="zNr5x">
        <child id="7709929535540731252" name="member" index="zNr5$" />
      </concept>
    </language>
  </registry>
  <node concept="3SyAh_" id="1Ij79tqp16x">
    <property role="qMTe8" value="1" />
    <property role="TrG5h" value="SampleDeclMigration" />
    <node concept="3Tm1VV" id="1Ij79tqp16y" role="1B3o_S" />
    <node concept="3tTeZs" id="1Ij79tqp1g_" role="jymVt">
      <property role="3tTeZt" value="&lt;no execute after&gt;" />
      <ref role="3tTeZr" to="slm6:7ay_HjIMt1a" resolve="execute after" />
    </node>
    <node concept="3tTeZs" id="1Ij79tqp1gA" role="jymVt">
      <property role="3tTeZt" value="&lt;no required data&gt;" />
      <ref role="3tTeZr" to="slm6:3A3gNhf1WPI" resolve="requires data" />
    </node>
    <node concept="qMTd$" id="1Ij79tqsN1v" role="jymVt">
      <ref role="qMTaa" to="3whe:1Ij79tqsMYb" resolve="DeclMigrationData_WholeModule" />
    </node>
    <node concept="2tJIrI" id="1Ij79tqp1gC" role="jymVt" />
    <node concept="3tYpXE" id="1Ij79tqsN2S" role="jymVt">
      <property role="TrG5h" value="description" />
      <property role="3tYpXF" value="migrate the declarations using smodel API" />
      <ref role="25KYV2" to="slm6:1_lSsE3RFpE" resolve="description" />
      <node concept="3Tm6S6" id="1Ij79tqsN2T" role="1B3o_S" />
      <node concept="17QB3L" id="1Ij79tqsN2U" role="1tU5fm" />
    </node>
    <node concept="q3mfD" id="1Ij79tqp1gE" role="jymVt">
      <property role="TrG5h" value="execute" />
      <ref role="2VtyIY" to="slm6:4ubqdNOF9cA" resolve="execute" />
      <node concept="3Tm1VV" id="1Ij79tqp1h4" role="1B3o_S" />
      <node concept="3clFbS" id="1Ij79tqp1h6" role="3clF47">
        <node concept="3SKdUt" id="1Ij79tquKTR" role="3cqZAp">
          <node concept="3SKdUq" id="1Ij79tquLrZ" role="3SKWNk">
            <property role="3SKdUp" value="get all old instances in all models of the module" />
          </node>
        </node>
        <node concept="3cpWs8" id="1Ij79tqteYv" role="3cqZAp">
          <node concept="3cpWsn" id="1Ij79tqteYw" role="3cpWs9">
            <property role="TrG5h" value="models" />
            <node concept="A3Dl8" id="1Ij79tqtjMk" role="1tU5fm">
              <node concept="H_c77" id="1Ij79tqtjSd" role="A3Ik2" />
            </node>
            <node concept="2OqwBi" id="4Bpw$w4mP6Z" role="33vP2m">
              <node concept="1eOMI4" id="4Bpw$w4mOBW" role="2Oq$k0">
                <node concept="10QFUN" id="1Ij79tqtkmU" role="1eOMHV">
                  <node concept="2OqwBi" id="1Ij79tqteYx" role="10QFUP">
                    <node concept="37vLTw" id="1Ij79tqteYy" role="2Oq$k0">
                      <ref role="3cqZAo" node="1Ij79tqp1h8" resolve="m" />
                    </node>
                    <node concept="liA8E" id="1Ij79tqteYz" role="2OqNvi">
                      <ref role="37wK5l" to="lui2:~SModule.getModels():java.lang.Iterable" resolve="getModels" />
                    </node>
                  </node>
                  <node concept="A3Dl8" id="1Ij79tqtkmV" role="10QFUM">
                    <node concept="H_c77" id="1Ij79tqtkmW" role="A3Ik2" />
                  </node>
                </node>
              </node>
              <node concept="3zZkjj" id="4Bpw$w4mQL_" role="2OqNvi">
                <node concept="1bVj0M" id="4Bpw$w4mQLB" role="23t8la">
                  <node concept="3clFbS" id="4Bpw$w4mQLC" role="1bW5cS">
                    <node concept="3clFbF" id="4Bpw$w4mRd1" role="3cqZAp">
                      <node concept="3fqX7Q" id="4Bpw$w4mVZb" role="3clFbG">
                        <node concept="2OqwBi" id="7XWR6$5jt0D" role="3fr31v">
                          <node concept="37vLTw" id="7XWR6$5jsKM" role="2Oq$k0">
                            <ref role="3cqZAo" node="4Bpw$w4mQLD" resolve="it" />
                          </node>
                          <node concept="3zA4fs" id="7XWR6$5jtib" role="2OqNvi">
                            <ref role="3zA4av" to="che4:2LiUEk8oQ$g" resolve="migration" />
                          </node>
                        </node>
                      </node>
                    </node>
                  </node>
                  <node concept="Rh6nW" id="4Bpw$w4mQLD" role="1bW2Oz">
                    <property role="TrG5h" value="it" />
                    <node concept="2jxLKc" id="4Bpw$w4mQLE" role="1tU5fm" />
                  </node>
                </node>
              </node>
            </node>
          </node>
        </node>
        <node concept="3cpWs8" id="1Ij79tqtpsr" role="3cqZAp">
          <node concept="3cpWsn" id="1Ij79tqtpss" role="3cpWs9">
            <property role="TrG5h" value="components" />
            <node concept="A3Dl8" id="1Ij79tqtprI" role="1tU5fm">
              <node concept="3Tqbb2" id="1Ij79tqtprL" role="A3Ik2">
                <ref role="ehGHo" to="3whe:6FZb119cmNq" resolve="OldComponent" />
              </node>
            </node>
            <node concept="2OqwBi" id="1Ij79tqtpst" role="33vP2m">
              <node concept="2OqwBi" id="1Ij79tqtpsu" role="2Oq$k0">
                <node concept="37vLTw" id="1Ij79tqtpsv" role="2Oq$k0">
                  <ref role="3cqZAo" node="1Ij79tqteYw" resolve="models" />
                </node>
                <node concept="3goQfb" id="1Ij79tqtpsw" role="2OqNvi">
                  <node concept="1bVj0M" id="1Ij79tqtpsx" role="23t8la">
                    <node concept="3clFbS" id="1Ij79tqtpsy" role="1bW5cS">
                      <node concept="3clFbF" id="1Ij79tqtpsz" role="3cqZAp">
                        <node concept="2OqwBi" id="1Ij79tqtps$" role="3clFbG">
                          <node concept="37vLTw" id="1Ij79tqtps_" role="2Oq$k0">
                            <ref role="3cqZAo" node="1Ij79tqtpsB" resolve="it" />
                          </node>
                          <node concept="2RRcyG" id="1Ij79tqtpsA" role="2OqNvi" />
                        </node>
                      </node>
                    </node>
                    <node concept="Rh6nW" id="1Ij79tqtpsB" role="1bW2Oz">
                      <property role="TrG5h" value="it" />
                      <node concept="2jxLKc" id="1Ij79tqtpsC" role="1tU5fm" />
                    </node>
                  </node>
                </node>
              </node>
              <node concept="v3k3i" id="1Ij79tqtpsD" role="2OqNvi">
                <node concept="chp4Y" id="1Ij79tqtpsE" role="v3oSu">
                  <ref role="cht4Q" to="3whe:6FZb119cmNq" resolve="OldComponent" />
                </node>
              </node>
            </node>
          </node>
        </node>
        <node concept="3clFbH" id="1Ij79tquLPD" role="3cqZAp" />
        <node concept="3SKdUt" id="1Ij79tquMIW" role="3cqZAp">
          <node concept="3SKdUq" id="1Ij79tquNfr" role="3SKWNk">
            <property role="3SKdUp" value="create the produced data to hold mapping between old and new ids of the instances" />
          </node>
        </node>
        <node concept="3cpWs8" id="1Ij79tqtrze" role="3cqZAp">
          <node concept="3cpWsn" id="1Ij79tqtrzf" role="3cpWs9">
            <property role="TrG5h" value="res" />
            <node concept="3Tqbb2" id="1Ij79tqtrzc" role="1tU5fm">
              <ref role="ehGHo" to="3whe:1Ij79tqsMYb" resolve="DeclMigrationData_WholeModule" />
            </node>
            <node concept="2ShNRf" id="1Ij79tqtrzg" role="33vP2m">
              <node concept="3zrR0B" id="1Ij79tqtrzh" role="2ShVmc">
                <node concept="3Tqbb2" id="1Ij79tqtrzi" role="3zrR0E">
                  <ref role="ehGHo" to="3whe:1Ij79tqsMYb" resolve="DeclMigrationData_WholeModule" />
                </node>
              </node>
            </node>
          </node>
        </node>
        <node concept="3clFbH" id="1Ij79tquNLZ" role="3cqZAp" />
        <node concept="3SKdUt" id="1Ij79tquOFm" role="3cqZAp">
          <node concept="3SKdUq" id="1Ij79tquP8n" role="3SKWNk">
            <property role="3SKdUp" value="for each old instance create a new one" />
          </node>
        </node>
        <node concept="3clFbF" id="1Ij79tqtskL" role="3cqZAp">
          <node concept="2OqwBi" id="1Ij79tqtsA4" role="3clFbG">
            <node concept="37vLTw" id="1Ij79tqtskJ" role="2Oq$k0">
              <ref role="3cqZAo" node="1Ij79tqtpss" resolve="components" />
            </node>
            <node concept="2es0OD" id="1Ij79tqtAUz" role="2OqNvi">
              <node concept="1bVj0M" id="1Ij79tqtAU_" role="23t8la">
                <node concept="3clFbS" id="1Ij79tqtAUA" role="1bW5cS">
                  <node concept="3cpWs8" id="1Ij79tqtB1W" role="3cqZAp">
                    <node concept="3cpWsn" id="1Ij79tqtB1Z" role="3cpWs9">
                      <property role="TrG5h" value="newNode" />
                      <node concept="3Tqbb2" id="1Ij79tqtB1V" role="1tU5fm">
                        <ref role="ehGHo" to="3whe:6FZb119cDPL" resolve="NewComponent" />
                      </node>
                      <node concept="2c44tf" id="1Ij79tqtBih" role="33vP2m">
                        <node concept="zNr5x" id="1Ij79tqtBne" role="2c44tc">
                          <node concept="zNoCi" id="1Ij79tqtD5w" role="zNr5$">
                            <node concept="2c44t8" id="1Ij79tqtD9Q" role="lGtFl">
                              <node concept="2OqwBi" id="1Ij79tqtDkK" role="2c44t1">
                                <node concept="37vLTw" id="1Ij79tqtDeP" role="2Oq$k0">
                                  <ref role="3cqZAo" node="1Ij79tqtAUB" resolve="oldNode" />
                                </node>
                                <node concept="3Tsc0h" id="1Ij79tqtDHi" role="2OqNvi">
                                  <ref role="3TtcxE" to="3whe:6FZb119crGB" />
                                </node>
                              </node>
                            </node>
                          </node>
                          <node concept="2EMmih" id="1Ij79tqtBrO" role="lGtFl">
                            <property role="P4ACc" value="ceab5195-25ea-4f22-9b92-103b95ca8c0c/1169194658468/1169194664001" />
                            <property role="2qtEX9" value="name" />
                            <node concept="2OqwBi" id="1Ij79tqtBA6" role="2c44t1">
                              <node concept="37vLTw" id="1Ij79tqtBwI" role="2Oq$k0">
                                <ref role="3cqZAo" node="1Ij79tqtAUB" resolve="oldNode" />
                              </node>
                              <node concept="3TrcHB" id="1Ij79tqtBVg" role="2OqNvi">
                                <ref role="3TsBF5" to="tpck:h0TrG11" resolve="name" />
                              </node>
                            </node>
                          </node>
                        </node>
                      </node>
                    </node>
                  </node>
                  <node concept="3SKdUt" id="1Ij79tquQep" role="3cqZAp">
                    <node concept="3SKdUq" id="1Ij79tquQve" role="3SKWNk">
                      <property role="3SKdUp" value="add it to the model" />
                    </node>
                  </node>
                  <node concept="3clFbF" id="1Ij79tqtE0e" role="3cqZAp">
                    <node concept="2OqwBi" id="1Ij79tqtEMX" role="3clFbG">
                      <node concept="2OqwBi" id="1Ij79tqtE3N" role="2Oq$k0">
                        <node concept="37vLTw" id="1Ij79tqtE0c" role="2Oq$k0">
                          <ref role="3cqZAo" node="1Ij79tqtAUB" resolve="oldNode" />
                        </node>
                        <node concept="I4A8Y" id="1Ij79tqtEqK" role="2OqNvi" />
                      </node>
                      <node concept="3BYIHo" id="1Ij79tqtOpY" role="2OqNvi">
                        <node concept="37vLTw" id="1Ij79tqtOyn" role="3BYIHq">
                          <ref role="3cqZAo" node="1Ij79tqtB1Z" resolve="newNode" />
                        </node>
                      </node>
                    </node>
                  </node>
                  <node concept="3clFbH" id="1Ij79tquSbt" role="3cqZAp" />
                  <node concept="3SKdUt" id="1Ij79tquSKt" role="3cqZAp">
                    <node concept="3SKdUq" id="1Ij79tquT1x" role="3SKWNk">
                      <property role="3SKdUp" value="store the id mapping" />
                    </node>
                  </node>
                  <node concept="3cpWs8" id="1Ij79tqtPkS" role="3cqZAp">
                    <node concept="3cpWsn" id="1Ij79tqtPkT" role="3cpWs9">
                      <property role="TrG5h" value="data" />
                      <node concept="3Tqbb2" id="1Ij79tqtPkQ" role="1tU5fm">
                        <ref role="ehGHo" to="3whe:1Ij79tqsMxw" resolve="DeclMigrationData_Component" />
                      </node>
                      <node concept="2ShNRf" id="1Ij79tqtPkU" role="33vP2m">
                        <node concept="3zrR0B" id="1Ij79tqtPkV" role="2ShVmc">
                          <node concept="3Tqbb2" id="1Ij79tqtPkW" role="3zrR0E">
                            <ref role="ehGHo" to="3whe:1Ij79tqsMxw" resolve="DeclMigrationData_Component" />
                          </node>
                        </node>
                      </node>
                    </node>
                  </node>
                  <node concept="3clFbF" id="1Ij79tqtOQz" role="3cqZAp">
                    <node concept="37vLTI" id="1Ij79tqtT0n" role="3clFbG">
                      <node concept="2OqwBi" id="1Ij79tqtV$6" role="37vLTx">
                        <node concept="2OqwBi" id="1Ij79tqtUss" role="2Oq$k0">
                          <node concept="2JrnkZ" id="1Ij79tqtUeN" role="2Oq$k0">
                            <node concept="37vLTw" id="1Ij79tqtTd_" role="2JrQYb">
                              <ref role="3cqZAo" node="1Ij79tqtAUB" resolve="oldNode" />
                            </node>
                          </node>
                          <node concept="liA8E" id="1Ij79tqtViG" role="2OqNvi">
                            <ref role="37wK5l" to="mhbf:~SNode.getNodeId():org.jetbrains.mps.openapi.model.SNodeId" resolve="getNodeId" />
                          </node>
                        </node>
                        <node concept="liA8E" id="1Ij79tqtWJJ" role="2OqNvi">
                          <ref role="37wK5l" to="wyt6:~Object.toString():java.lang.String" resolve="toString" />
                        </node>
                      </node>
                      <node concept="2OqwBi" id="1Ij79tqtPBt" role="37vLTJ">
                        <node concept="37vLTw" id="1Ij79tqtPkX" role="2Oq$k0">
                          <ref role="3cqZAo" node="1Ij79tqtPkT" resolve="data" />
                        </node>
                        <node concept="3TrcHB" id="1Ij79tqtPZS" role="2OqNvi">
                          <ref role="3TsBF5" to="3whe:1Ij79tqsMXH" resolve="oldId" />
                        </node>
                      </node>
                    </node>
                  </node>
                  <node concept="3clFbF" id="1Ij79tqtXkV" role="3cqZAp">
                    <node concept="37vLTI" id="1Ij79tqtYBf" role="3clFbG">
                      <node concept="2OqwBi" id="1Ij79tqu1f1" role="37vLTx">
                        <node concept="2OqwBi" id="1Ij79tqu0nw" role="2Oq$k0">
                          <node concept="2JrnkZ" id="1Ij79tqu078" role="2Oq$k0">
                            <node concept="37vLTw" id="1Ij79tqtYY2" role="2JrQYb">
                              <ref role="3cqZAo" node="1Ij79tqtB1Z" resolve="newNode" />
                            </node>
                          </node>
                          <node concept="liA8E" id="1Ij79tqu0Uk" role="2OqNvi">
                            <ref role="37wK5l" to="mhbf:~SNode.getNodeId():org.jetbrains.mps.openapi.model.SNodeId" resolve="getNodeId" />
                          </node>
                        </node>
                        <node concept="liA8E" id="1Ij79tqucWj" role="2OqNvi">
                          <ref role="37wK5l" to="wyt6:~Object.toString():java.lang.String" resolve="toString" />
                        </node>
                      </node>
                      <node concept="2OqwBi" id="1Ij79tqtXua" role="37vLTJ">
                        <node concept="37vLTw" id="1Ij79tqtXkT" role="2Oq$k0">
                          <ref role="3cqZAo" node="1Ij79tqtPkT" resolve="data" />
                        </node>
                        <node concept="3TrcHB" id="1Ij79tqtXZT" role="2OqNvi">
                          <ref role="3TsBF5" to="3whe:1Ij79tqsMXV" resolve="newId" />
                        </node>
                      </node>
                    </node>
                  </node>
                  <node concept="3clFbF" id="1Ij79tqudsx" role="3cqZAp">
                    <node concept="2OqwBi" id="1Ij79tqueVQ" role="3clFbG">
                      <node concept="2OqwBi" id="1Ij79tqudBD" role="2Oq$k0">
                        <node concept="37vLTw" id="1Ij79tqudsv" role="2Oq$k0">
                          <ref role="3cqZAo" node="1Ij79tqtrzf" resolve="res" />
                        </node>
                        <node concept="3Tsc0h" id="1Ij79tquebu" role="2OqNvi">
                          <ref role="3TtcxE" to="3whe:1Ij79tqsMYq" />
                        </node>
                      </node>
                      <node concept="TSZUe" id="1Ij79tqumLj" role="2OqNvi">
                        <node concept="37vLTw" id="1Ij79tqunfT" role="25WWJ7">
                          <ref role="3cqZAo" node="1Ij79tqtPkT" resolve="data" />
                        </node>
                      </node>
                    </node>
                  </node>
                  <node concept="3clFbH" id="26zNOMRIENx" role="3cqZAp" />
                </node>
                <node concept="Rh6nW" id="1Ij79tqtAUB" role="1bW2Oz">
                  <property role="TrG5h" value="oldNode" />
                  <node concept="2jxLKc" id="1Ij79tqtAUC" role="1tU5fm" />
                </node>
              </node>
            </node>
          </node>
        </node>
        <node concept="3clFbH" id="1Ij79tquVCf" role="3cqZAp" />
        <node concept="3SKdUt" id="1Ij79tquWdM" role="3cqZAp">
          <node concept="3SKdUq" id="1Ij79tquWEJ" role="3SKWNk">
            <property role="3SKdUp" value="remove the old instances from their models" />
          </node>
        </node>
        <node concept="3clFbF" id="1Ij79tquoi_" role="3cqZAp">
          <node concept="2OqwBi" id="1Ij79tquoOS" role="3clFbG">
            <node concept="37vLTw" id="1Ij79tquoiz" role="2Oq$k0">
              <ref role="3cqZAo" node="1Ij79tqtpss" resolve="components" />
            </node>
            <node concept="2es0OD" id="1Ij79tquznh" role="2OqNvi">
              <node concept="1bVj0M" id="1Ij79tquznj" role="23t8la">
                <node concept="3clFbS" id="1Ij79tquznk" role="1bW5cS">
                  <node concept="3clFbF" id="1Ij79tquzvy" role="3cqZAp">
                    <node concept="2OqwBi" id="1Ij79tquzyz" role="3clFbG">
                      <node concept="37vLTw" id="1Ij79tquzvx" role="2Oq$k0">
                        <ref role="3cqZAo" node="1Ij79tquznl" resolve="it" />
                      </node>
                      <node concept="1PgB_6" id="1Ij79tquKfW" role="2OqNvi" />
                    </node>
                  </node>
                </node>
                <node concept="Rh6nW" id="1Ij79tquznl" role="1bW2Oz">
                  <property role="TrG5h" value="it" />
                  <node concept="2jxLKc" id="1Ij79tquznm" role="1tU5fm" />
                </node>
              </node>
            </node>
          </node>
        </node>
        <node concept="3clFbH" id="1Ij79tquX9M" role="3cqZAp" />
        <node concept="3SKdUt" id="1Ij79tquXJB" role="3cqZAp">
          <node concept="3SKdUq" id="1Ij79tquXLF" role="3SKWNk">
            <property role="3SKdUp" value="return the produced data" />
          </node>
        </node>
        <node concept="3cpWs6" id="1Ij79tqtrTT" role="3cqZAp">
          <node concept="37vLTw" id="1Ij79tqtrzj" role="3cqZAk">
            <ref role="3cqZAo" node="1Ij79tqtrzf" resolve="res" />
          </node>
        </node>
      </node>
      <node concept="37vLTG" id="1Ij79tqp1h8" role="3clF46">
        <property role="TrG5h" value="m" />
        <node concept="3uibUv" id="1Ij79tqp1h7" role="1tU5fm">
          <ref role="3uigEE" to="lui2:~SModule" resolve="SModule" />
        </node>
      </node>
      <node concept="q3mfm" id="1Ij79tqp1h9" role="3clF45">
        <ref role="q3mfh" to="slm6:4F5w8gPXEEe" />
        <ref role="1QQUv3" node="1Ij79tqp1gE" resolve="execute" />
      </node>
    </node>
  </node>
</model>

