<?xml version="1.0" encoding="UTF-8"?>
<model ref="r:434ecf17-d4cc-42e0-a652-1b1c8f95ce59(jetbrains.mps.console.ideCommands.migration)">
  <persistence version="9" />
  <languages>
    <use id="90746344-04fd-4286-97d5-b46ae6a81709" name="jetbrains.mps.lang.migration" version="0" />
    <use id="28f9e497-3b42-4291-aeba-0a1039153ab1" name="jetbrains.mps.lang.plugin" version="1" />
    <use id="d4615e3b-d671-4ba9-af01-2b78369b0ba7" name="jetbrains.mps.lang.pattern" version="1" />
    <use id="1a8554c4-eb84-43ba-8c34-6f0d90c6e75a" name="jetbrains.mps.lang.smodel.query" version="2" />
    <use id="ed6d7656-532c-4bc2-81d1-af945aeb8280" name="jetbrains.mps.baseLanguage.blTypes" version="0" />
    <use id="9ded098b-ad6a-4657-bfd9-48636cfe8bc3" name="jetbrains.mps.lang.traceable" version="0" />
    <devkit ref="fbc25dd2-5da4-483a-8b19-70928e1b62d7(jetbrains.mps.devkit.general-purpose)" />
  </languages>
  <imports>
    <import index="c17a" ref="8865b7a8-5271-43d3-884c-6fd1d9cfdd34/java:org.jetbrains.mps.openapi.language(MPS.OpenAPI/)" />
    <import index="lui2" ref="8865b7a8-5271-43d3-884c-6fd1d9cfdd34/java:org.jetbrains.mps.openapi.module(MPS.OpenAPI/)" />
    <import index="3aup" ref="6ed54515-acc8-4d1e-a16c-9fd6cfe951ea/java:jetbrains.mps.lang.migration.runtime.base(MPS.Core/)" />
    <import index="6f4m" ref="528ff3b9-5fc4-40dd-931f-c6ce3650640e/r:f69c3fa1-0e30-4980-84e2-190ae44e4c3d(jetbrains.mps.lang.migration.runtime/jetbrains.mps.lang.migration.runtime.base)" />
    <import index="slm6" ref="90746344-04fd-4286-97d5-b46ae6a81709/r:52a3d974-bd4f-4651-ba6e-a2de5e336d95(jetbrains.mps.lang.migration/jetbrains.mps.lang.migration.methods)" implicit="true" />
    <import index="caxt" ref="r:135a606f-0376-4c5c-9ab8-4030f051a062(jetbrains.mps.console.ideCommands.structure)" implicit="true" />
  </imports>
  <registry>
    <language id="f3061a53-9226-4cc5-a443-f952ceaf5816" name="jetbrains.mps.baseLanguage">
      <concept id="4836112446988635817" name="jetbrains.mps.baseLanguage.structure.UndefinedType" flags="in" index="2jxLKc" />
      <concept id="1465982738277781862" name="jetbrains.mps.baseLanguage.structure.PlaceholderMember" flags="ng" index="2tJIrI" />
      <concept id="1197027756228" name="jetbrains.mps.baseLanguage.structure.DotExpression" flags="nn" index="2OqwBi">
        <child id="1197027771414" name="operand" index="2Oq$k0" />
        <child id="1197027833540" name="operation" index="2OqNvi" />
      </concept>
      <concept id="1145552977093" name="jetbrains.mps.baseLanguage.structure.GenericNewExpression" flags="nn" index="2ShNRf">
        <child id="1145553007750" name="creator" index="2ShVmc" />
      </concept>
      <concept id="1070475926800" name="jetbrains.mps.baseLanguage.structure.StringLiteral" flags="nn" index="Xl_RD">
        <property id="1070475926801" name="value" index="Xl_RC" />
      </concept>
      <concept id="1182160077978" name="jetbrains.mps.baseLanguage.structure.AnonymousClassCreator" flags="nn" index="YeOm9">
        <child id="1182160096073" name="cls" index="YeSDq" />
      </concept>
      <concept id="1070534934090" name="jetbrains.mps.baseLanguage.structure.CastExpression" flags="nn" index="10QFUN">
        <child id="1070534934091" name="type" index="10QFUM" />
        <child id="1070534934092" name="expression" index="10QFUP" />
      </concept>
      <concept id="1068498886296" name="jetbrains.mps.baseLanguage.structure.VariableReference" flags="nn" index="37vLTw">
        <reference id="1068581517664" name="variableDeclaration" index="3cqZAo" />
      </concept>
      <concept id="1225271177708" name="jetbrains.mps.baseLanguage.structure.StringType" flags="in" index="17QB3L" />
      <concept id="4972933694980447171" name="jetbrains.mps.baseLanguage.structure.BaseVariableDeclaration" flags="ng" index="19Szcq">
        <child id="5680397130376446158" name="type" index="1tU5fm" />
      </concept>
      <concept id="1068580123132" name="jetbrains.mps.baseLanguage.structure.BaseMethodDeclaration" flags="ng" index="3clF44">
        <child id="1068580123133" name="returnType" index="3clF45" />
        <child id="1068580123134" name="parameter" index="3clF46" />
        <child id="1068580123135" name="body" index="3clF47" />
      </concept>
      <concept id="1068580123165" name="jetbrains.mps.baseLanguage.structure.InstanceMethodDeclaration" flags="ig" index="3clFb_">
        <property id="1178608670077" name="isAbstract" index="1EzhhJ" />
      </concept>
      <concept id="1068580123155" name="jetbrains.mps.baseLanguage.structure.ExpressionStatement" flags="nn" index="3clFbF">
        <child id="1068580123156" name="expression" index="3clFbG" />
      </concept>
      <concept id="1068580123136" name="jetbrains.mps.baseLanguage.structure.StatementList" flags="sn" stub="5293379017992965193" index="3clFbS">
        <child id="1068581517665" name="statement" index="3cqZAp" />
      </concept>
      <concept id="1068581242878" name="jetbrains.mps.baseLanguage.structure.ReturnStatement" flags="nn" index="3cpWs6">
        <child id="1068581517676" name="expression" index="3cqZAk" />
      </concept>
      <concept id="1079359253375" name="jetbrains.mps.baseLanguage.structure.ParenthesizedExpression" flags="nn" index="1eOMI4">
        <child id="1079359253376" name="expression" index="1eOMHV" />
      </concept>
      <concept id="1204053956946" name="jetbrains.mps.baseLanguage.structure.IMethodCall" flags="ng" index="1ndlxa">
        <reference id="1068499141037" name="baseMethodDeclaration" index="37wK5l" />
        <child id="1068499141038" name="actualArgument" index="37wK5m" />
      </concept>
      <concept id="1107461130800" name="jetbrains.mps.baseLanguage.structure.Classifier" flags="ng" index="3pOWGL">
        <property id="521412098689998745" name="nonStatic" index="2bfB8j" />
        <child id="5375687026011219971" name="member" index="jymVt" unordered="true" />
      </concept>
      <concept id="1107535904670" name="jetbrains.mps.baseLanguage.structure.ClassifierType" flags="in" index="3uibUv">
        <reference id="1107535924139" name="classifier" index="3uigEE" />
      </concept>
      <concept id="1178549954367" name="jetbrains.mps.baseLanguage.structure.IVisible" flags="ng" index="1B3ioH">
        <child id="1178549979242" name="visibility" index="1B3o_S" />
      </concept>
      <concept id="1146644602865" name="jetbrains.mps.baseLanguage.structure.PublicVisibility" flags="nn" index="3Tm1VV" />
      <concept id="1170345865475" name="jetbrains.mps.baseLanguage.structure.AnonymousClass" flags="ig" index="1Y3b0j">
        <reference id="1170346070688" name="classifier" index="1Y3XeK" />
      </concept>
    </language>
    <language id="fd392034-7849-419d-9071-12563d152375" name="jetbrains.mps.baseLanguage.closures">
      <concept id="1199569711397" name="jetbrains.mps.baseLanguage.closures.structure.ClosureLiteral" flags="nn" index="1bVj0M">
        <child id="1199569906740" name="parameter" index="1bW2Oz" />
        <child id="1199569916463" name="body" index="1bW5cS" />
      </concept>
    </language>
    <language id="c7d5b9dd-a05f-4be2-bc73-f2e16994cc67" name="jetbrains.mps.baseLanguage.lightweightdsl">
      <concept id="8880393040217246788" name="jetbrains.mps.baseLanguage.lightweightdsl.structure.MethodParameterInstance" flags="ig" index="ffn8J">
        <reference id="8880393040217294897" name="decl" index="ffrpq" />
      </concept>
      <concept id="3751132065236767083" name="jetbrains.mps.baseLanguage.lightweightdsl.structure.DependentTypeInstance" flags="ig" index="q3mfm">
        <reference id="3751132065236767084" name="decl" index="q3mfh" />
        <reference id="9097849371505568270" name="point" index="1QQUv3" />
      </concept>
      <concept id="3751132065236767060" name="jetbrains.mps.baseLanguage.lightweightdsl.structure.MethodInstance" flags="ig" index="q3mfD">
        <reference id="19209059688387895" name="decl" index="2VtyIY" />
      </concept>
      <concept id="6478870542308703666" name="jetbrains.mps.baseLanguage.lightweightdsl.structure.MemberPlaceholder" flags="ng" index="3tTeZs">
        <property id="6478870542308703667" name="caption" index="3tTeZt" />
        <reference id="6478870542308703669" name="decl" index="3tTeZr" />
      </concept>
    </language>
    <language id="7866978e-a0f0-4cc7-81bc-4d213d9375e1" name="jetbrains.mps.lang.smodel">
      <concept id="1177026924588" name="jetbrains.mps.lang.smodel.structure.RefConcept_Reference" flags="nn" index="chp4Y">
        <reference id="1177026940964" name="conceptDeclaration" index="cht4Q" />
      </concept>
    </language>
    <language id="ceab5195-25ea-4f22-9b92-103b95ca8c0c" name="jetbrains.mps.lang.core">
      <concept id="1169194658468" name="jetbrains.mps.lang.core.structure.INamedConcept" flags="ng" index="TrEIO">
        <property id="1169194664001" name="name" index="TrG5h" />
      </concept>
    </language>
    <language id="90746344-04fd-4286-97d5-b46ae6a81709" name="jetbrains.mps.lang.migration">
      <concept id="8352104482584315555" name="jetbrains.mps.lang.migration.structure.MigrationScript" flags="ig" index="3SyAh_">
        <property id="5820409521797704727" name="fromVersion" index="qMTe8" />
      </concept>
    </language>
    <language id="1a8554c4-eb84-43ba-8c34-6f0d90c6e75a" name="jetbrains.mps.lang.smodel.query">
      <concept id="7738379549910147341" name="jetbrains.mps.lang.smodel.query.structure.InstancesExpression" flags="ng" index="qVDSY">
        <child id="7738379549910147342" name="conceptArg" index="qVDSX" />
      </concept>
      <concept id="4234138103881610891" name="jetbrains.mps.lang.smodel.query.structure.WithStatement" flags="ng" index="L3pyB">
        <child id="4234138103881610935" name="scope" index="L3pyr" />
        <child id="4234138103881610892" name="stmts" index="L3pyw" />
      </concept>
      <concept id="4307205004131544317" name="jetbrains.mps.lang.smodel.query.structure.QueryExpression" flags="ng" index="1dNuzs">
        <child id="4307205004132279624" name="parameter" index="1dOa5D" />
      </concept>
      <concept id="4307205004132277753" name="jetbrains.mps.lang.smodel.query.structure.QueryParameterList" flags="ng" index="1dO9Bo" />
    </language>
    <language id="83888646-71ce-4f1c-9c53-c54016f6ad4f" name="jetbrains.mps.baseLanguage.collections">
      <concept id="1204796164442" name="jetbrains.mps.baseLanguage.collections.structure.InternalSequenceOperation" flags="nn" index="23sCx2">
        <child id="1204796294226" name="closure" index="23t8la" />
      </concept>
      <concept id="1151689724996" name="jetbrains.mps.baseLanguage.collections.structure.SequenceType" flags="in" index="A3Dl8">
        <child id="1151689745422" name="elementType" index="A3Ik2" />
      </concept>
      <concept id="1203518072036" name="jetbrains.mps.baseLanguage.collections.structure.SmartClosureParameterDeclaration" flags="ig" index="Rh6nW" />
      <concept id="1202128969694" name="jetbrains.mps.baseLanguage.collections.structure.SelectOperation" flags="nn" index="3$u5V9" />
    </language>
  </registry>
  <node concept="3SyAh_" id="7Nk8HJUviBI">
    <property role="qMTe8" value="0" />
    <property role="TrG5h" value="OfAspectCheckMigration" />
    <node concept="3Tm1VV" id="7Nk8HJUviBJ" role="1B3o_S" />
    <node concept="3tTeZs" id="7Nk8HJUviBK" role="jymVt">
      <property role="3tTeZt" value="&lt;no execute after&gt;" />
      <ref role="3tTeZr" to="slm6:7ay_HjIMt1a" resolve="execute after" />
    </node>
    <node concept="3tTeZs" id="7Nk8HJUviBL" role="jymVt">
      <property role="3tTeZt" value="&lt;no required data&gt;" />
      <ref role="3tTeZr" to="slm6:3A3gNhf1WPI" resolve="requires data" />
    </node>
    <node concept="3tTeZs" id="7Nk8HJUviBM" role="jymVt">
      <property role="3tTeZt" value="&lt;no produced data&gt;" />
      <ref role="3tTeZr" to="slm6:536fTXa4WHO" resolve="produces data" />
    </node>
    <node concept="2tJIrI" id="7Nk8HJUviBN" role="jymVt" />
    <node concept="3tTeZs" id="7Nk8HJUvoRW" role="jymVt">
      <property role="3tTeZt" value="&lt;description&gt;" />
      <ref role="3tTeZr" to="slm6:1_lSsE3RFpE" resolve="description" />
    </node>
    <node concept="q3mfD" id="7Nk8HJUviBQ" role="jymVt">
      <property role="TrG5h" value="execute" />
      <ref role="2VtyIY" to="slm6:4ubqdNOF9cA" resolve="execute" />
      <node concept="3Tm1VV" id="7Nk8HJUviBS" role="1B3o_S" />
      <node concept="3clFbS" id="7Nk8HJUviBU" role="3clF47" />
      <node concept="ffn8J" id="7Nk8HJUviBW" role="3clF46">
        <property role="TrG5h" value="m" />
        <ref role="ffrpq" to="slm6:7fCCGqboj9J" resolve="m" />
        <node concept="3uibUv" id="7Nk8HJUviBV" role="1tU5fm">
          <ref role="3uigEE" to="lui2:~SModule" resolve="SModule" />
        </node>
      </node>
      <node concept="q3mfm" id="7Nk8HJUviBX" role="3clF45">
        <ref role="q3mfh" to="slm6:4F5w8gPXEEe" />
        <ref role="1QQUv3" node="7Nk8HJUviBQ" resolve="execute" />
      </node>
    </node>
    <node concept="q3mfD" id="7Nk8HJUvwDN" role="jymVt">
      <property role="TrG5h" value="check" />
      <ref role="2VtyIY" to="slm6:1JWcQ2VeXpD" resolve="check" />
      <node concept="3Tm1VV" id="7Nk8HJUvwDP" role="1B3o_S" />
      <node concept="3clFbS" id="7Nk8HJUvwDR" role="3clF47">
        <node concept="L3pyB" id="cJvQJ4oj1g" role="3cqZAp">
          <node concept="3clFbS" id="cJvQJ4oj1i" role="L3pyw">
            <node concept="3cpWs6" id="13xmEyWwAOC" role="3cqZAp">
              <node concept="2OqwBi" id="13xmEyWww1q" role="3cqZAk">
                <node concept="qVDSY" id="13xmEyWwudu" role="2Oq$k0">
                  <node concept="1dO9Bo" id="13xmEyWwudv" role="1dOa5D" />
                  <node concept="chp4Y" id="7Nk8HJUvyiN" role="qVDSX">
                    <ref role="cht4Q" to="caxt:59iQg8ryOmC" resolve="OfAspectOperation" />
                  </node>
                </node>
                <node concept="3$u5V9" id="13xmEyWww9Q" role="2OqNvi">
                  <node concept="1bVj0M" id="13xmEyWww9S" role="23t8la">
                    <node concept="3clFbS" id="13xmEyWww9T" role="1bW5cS">
                      <node concept="3clFbF" id="13xmEyWwwfl" role="3cqZAp">
                        <node concept="1eOMI4" id="13xmEyWwAxy" role="3clFbG">
                          <node concept="10QFUN" id="13xmEyWwAxz" role="1eOMHV">
                            <node concept="2ShNRf" id="13xmEyWwAxn" role="10QFUP">
                              <node concept="YeOm9" id="13xmEyWwAxo" role="2ShVmc">
                                <node concept="1Y3b0j" id="13xmEyWwAxp" role="YeSDq">
                                  <property role="2bfB8j" value="true" />
                                  <ref role="37wK5l" to="6f4m:4JdgAL_5wEf" resolve="NotMigratedNode" />
                                  <ref role="1Y3XeK" to="6f4m:4JdgAL_5vM9" resolve="NotMigratedNode" />
                                  <node concept="3Tm1VV" id="13xmEyWwAxq" role="1B3o_S" />
                                  <node concept="3clFb_" id="13xmEyWwAxr" role="jymVt">
                                    <property role="TrG5h" value="getMessage" />
                                    <property role="1EzhhJ" value="false" />
                                    <node concept="17QB3L" id="7Nk8HJUv$CS" role="3clF45" />
                                    <node concept="3Tm1VV" id="13xmEyWwAxt" role="1B3o_S" />
                                    <node concept="3clFbS" id="13xmEyWwAxu" role="3clF47">
                                      <node concept="3clFbF" id="13xmEyWwAxv" role="3cqZAp">
                                        <node concept="Xl_RD" id="13xmEyWwAxw" role="3clFbG">
                                          <property role="Xl_RC" value="ofAspect operation using old aspects should be migrated manually" />
                                        </node>
                                      </node>
                                    </node>
                                  </node>
                                  <node concept="37vLTw" id="13xmEyWwAxx" role="37wK5m">
                                    <ref role="3cqZAo" node="13xmEyWww9U" resolve="it" />
                                  </node>
                                </node>
                              </node>
                            </node>
                            <node concept="3uibUv" id="13xmEyWwAEM" role="10QFUM">
                              <ref role="3uigEE" to="6f4m:3n7MNzO_IjP" resolve="Problem" />
                            </node>
                          </node>
                        </node>
                      </node>
                    </node>
                    <node concept="Rh6nW" id="13xmEyWww9U" role="1bW2Oz">
                      <property role="TrG5h" value="it" />
                      <node concept="2jxLKc" id="13xmEyWww9V" role="1tU5fm" />
                    </node>
                  </node>
                </node>
              </node>
            </node>
          </node>
          <node concept="37vLTw" id="cJvQJ4ojco" role="L3pyr">
            <ref role="3cqZAo" node="7Nk8HJUvwDT" resolve="m" />
          </node>
        </node>
      </node>
      <node concept="ffn8J" id="7Nk8HJUvwDT" role="3clF46">
        <property role="TrG5h" value="m" />
        <ref role="ffrpq" to="slm6:1JWcQ2VeXI5" resolve="m" />
        <node concept="3uibUv" id="7Nk8HJUvwDS" role="1tU5fm">
          <ref role="3uigEE" to="lui2:~SModule" resolve="SModule" />
        </node>
      </node>
      <node concept="A3Dl8" id="7Nk8HJUvx18" role="3clF45">
        <node concept="3uibUv" id="7Nk8HJUvx19" role="A3Ik2">
          <ref role="3uigEE" to="6f4m:3n7MNzO_IjP" resolve="Problem" />
        </node>
      </node>
    </node>
  </node>
</model>

