<?xml version="1.0" encoding="UTF-8"?>
<model ref="r:71e81c80-d7fe-47f3-91de-9281cfae8376(jetbrains.mps.console.ideCommands.typesystem)">
  <persistence version="9" />
  <languages>
    <use id="7a5dda62-9140-4668-ab76-d5ed1746f2b2" name="jetbrains.mps.lang.typesystem" version="0" />
    <devkit ref="fbc25dd2-5da4-483a-8b19-70928e1b62d7(jetbrains.mps.devkit.general-purpose)" />
  </languages>
  <imports>
    <import index="unno" ref="r:61e3d524-8c49-4491-b5e3-f6d6e9364527(jetbrains.mps.util)" />
    <import index="caxt" ref="r:135a606f-0376-4c5c-9ab8-4030f051a062(jetbrains.mps.console.ideCommands.structure)" />
    <import index="2u9t" ref="r:18b0a31c-6c8b-45fd-b098-332c1656d60c(jetbrains.mps.console.ideCommands.behavior)" />
    <import index="tpee" ref="r:00000000-0000-4000-0000-011c895902ca(jetbrains.mps.baseLanguage.structure)" />
    <import index="qkt" ref="498d89d2-c2e9-11e2-ad49-6cf049e62fe5/java:com.intellij.openapi.actionSystem(MPS.IDEA/)" />
    <import index="tpcu" ref="r:00000000-0000-4000-0000-011c89590282(jetbrains.mps.lang.core.behavior)" />
    <import index="tp4k" ref="r:00000000-0000-4000-0000-011c89590368(jetbrains.mps.lang.plugin.structure)" />
    <import index="tp4s" ref="r:00000000-0000-4000-0000-011c89590360(jetbrains.mps.lang.plugin.behavior)" />
    <import index="lui2" ref="8865b7a8-5271-43d3-884c-6fd1d9cfdd34/java:org.jetbrains.mps.openapi.module(MPS.OpenAPI/)" />
    <import index="tpek" ref="r:00000000-0000-4000-0000-011c895902c0(jetbrains.mps.baseLanguage.behavior)" />
    <import index="mhbf" ref="8865b7a8-5271-43d3-884c-6fd1d9cfdd34/java:org.jetbrains.mps.openapi.model(MPS.OpenAPI/)" />
  </imports>
  <registry>
    <language id="f3061a53-9226-4cc5-a443-f952ceaf5816" name="jetbrains.mps.baseLanguage">
      <concept id="1082485599095" name="jetbrains.mps.baseLanguage.structure.BlockStatement" flags="nn" index="9aQIb">
        <child id="1082485599096" name="statements" index="9aQI4" />
      </concept>
      <concept id="4836112446988635817" name="jetbrains.mps.baseLanguage.structure.UndefinedType" flags="in" index="2jxLKc" />
      <concept id="1202948039474" name="jetbrains.mps.baseLanguage.structure.InstanceMethodCallOperation" flags="nn" index="liA8E" />
      <concept id="1154032098014" name="jetbrains.mps.baseLanguage.structure.AbstractLoopStatement" flags="nn" index="2LF5Ji">
        <child id="1154032183016" name="body" index="2LFqv$" />
      </concept>
      <concept id="1197027756228" name="jetbrains.mps.baseLanguage.structure.DotExpression" flags="nn" index="2OqwBi">
        <child id="1197027771414" name="operand" index="2Oq$k0" />
        <child id="1197027833540" name="operation" index="2OqNvi" />
      </concept>
      <concept id="1070475926800" name="jetbrains.mps.baseLanguage.structure.StringLiteral" flags="nn" index="Xl_RD">
        <property id="1070475926801" name="value" index="Xl_RC" />
      </concept>
      <concept id="1081236700937" name="jetbrains.mps.baseLanguage.structure.StaticMethodCall" flags="nn" index="2YIFZM">
        <reference id="1144433194310" name="classConcept" index="1Pybhc" />
      </concept>
      <concept id="1070534058343" name="jetbrains.mps.baseLanguage.structure.NullLiteral" flags="nn" index="10Nm6u" />
      <concept id="1068431474542" name="jetbrains.mps.baseLanguage.structure.VariableDeclaration" flags="ng" index="33uBYm">
        <child id="1068431790190" name="initializer" index="33vP2m" />
      </concept>
      <concept id="1068498886296" name="jetbrains.mps.baseLanguage.structure.VariableReference" flags="nn" index="37vLTw">
        <reference id="1068581517664" name="variableDeclaration" index="3cqZAo" />
      </concept>
      <concept id="1225271283259" name="jetbrains.mps.baseLanguage.structure.NPEEqualsExpression" flags="nn" index="17R0WA" />
      <concept id="4972933694980447171" name="jetbrains.mps.baseLanguage.structure.BaseVariableDeclaration" flags="ng" index="19Szcq">
        <child id="5680397130376446158" name="type" index="1tU5fm" />
      </concept>
      <concept id="1068580123152" name="jetbrains.mps.baseLanguage.structure.EqualsExpression" flags="nn" index="3clFbC" />
      <concept id="1068580123155" name="jetbrains.mps.baseLanguage.structure.ExpressionStatement" flags="nn" index="3clFbF">
        <child id="1068580123156" name="expression" index="3clFbG" />
      </concept>
      <concept id="1068580123157" name="jetbrains.mps.baseLanguage.structure.Statement" flags="nn" index="3clFbH" />
      <concept id="1068580123159" name="jetbrains.mps.baseLanguage.structure.IfStatement" flags="nn" index="3clFbJ">
        <child id="1082485599094" name="ifFalseStatement" index="9aQIa" />
        <child id="1068580123160" name="condition" index="3clFbw" />
        <child id="1068580123161" name="ifTrue" index="3clFbx" />
      </concept>
      <concept id="1068580123136" name="jetbrains.mps.baseLanguage.structure.StatementList" flags="sn" stub="5293379017992965193" index="3clFbS">
        <child id="1068581517665" name="statement" index="3cqZAp" />
      </concept>
      <concept id="1068580320020" name="jetbrains.mps.baseLanguage.structure.IntegerConstant" flags="nn" index="3cmrfG">
        <property id="1068580320021" name="value" index="3cmrfH" />
      </concept>
      <concept id="1068581242875" name="jetbrains.mps.baseLanguage.structure.PlusExpression" flags="nn" index="3cpWs3" />
      <concept id="1068581242864" name="jetbrains.mps.baseLanguage.structure.LocalVariableDeclarationStatement" flags="nn" index="3cpWs8">
        <child id="1068581242865" name="localVariableDeclaration" index="3cpWs9" />
      </concept>
      <concept id="1068581242869" name="jetbrains.mps.baseLanguage.structure.MinusExpression" flags="nn" index="3cpWsd" />
      <concept id="1068581242863" name="jetbrains.mps.baseLanguage.structure.LocalVariableDeclaration" flags="nr" index="3cpWsn" />
      <concept id="1068581517677" name="jetbrains.mps.baseLanguage.structure.VoidType" flags="in" index="3cqZAl" />
      <concept id="1081506762703" name="jetbrains.mps.baseLanguage.structure.GreaterThanExpression" flags="nn" index="3eOSWO" />
      <concept id="1204053956946" name="jetbrains.mps.baseLanguage.structure.IMethodCall" flags="ng" index="1ndlxa">
        <reference id="1068499141037" name="baseMethodDeclaration" index="37wK5l" />
        <child id="1068499141038" name="actualArgument" index="37wK5m" />
      </concept>
      <concept id="1171903607971" name="jetbrains.mps.baseLanguage.structure.WildCardType" flags="in" index="3qTvmN" />
      <concept id="1107535904670" name="jetbrains.mps.baseLanguage.structure.ClassifierType" flags="in" index="3uibUv">
        <reference id="1107535924139" name="classifier" index="3uigEE" />
      </concept>
      <concept id="1081773326031" name="jetbrains.mps.baseLanguage.structure.BinaryOperation" flags="nn" index="3uHJSO">
        <child id="1081773367579" name="rightExpression" index="3uHU7w" />
        <child id="1081773367580" name="leftExpression" index="3uHU7B" />
      </concept>
      <concept id="1073239437375" name="jetbrains.mps.baseLanguage.structure.NotEqualsExpression" flags="nn" index="3y3z36" />
      <concept id="1080120340718" name="jetbrains.mps.baseLanguage.structure.AndExpression" flags="nn" index="1Wc70l" />
    </language>
    <language id="fd392034-7849-419d-9071-12563d152375" name="jetbrains.mps.baseLanguage.closures">
      <concept id="1199569711397" name="jetbrains.mps.baseLanguage.closures.structure.ClosureLiteral" flags="nn" index="1bVj0M">
        <child id="1199569906740" name="parameter" index="1bW2Oz" />
        <child id="1199569916463" name="body" index="1bW5cS" />
      </concept>
    </language>
    <language id="3a13115c-633c-4c5c-bbcc-75c4219e9555" name="jetbrains.mps.lang.quotation">
      <concept id="1196350785110" name="jetbrains.mps.lang.quotation.structure.AbstractAntiquotation" flags="ng" index="2c44t0">
        <child id="1196350785111" name="expression" index="2c44t1" />
      </concept>
      <concept id="1196350785117" name="jetbrains.mps.lang.quotation.structure.ReferenceAntiquotation" flags="ng" index="2c44tb" />
      <concept id="1196350785112" name="jetbrains.mps.lang.quotation.structure.Antiquotation" flags="ng" index="2c44te" />
      <concept id="1196350785113" name="jetbrains.mps.lang.quotation.structure.Quotation" flags="nn" index="2c44tf">
        <child id="1196350785114" name="quotedNode" index="2c44tc" />
      </concept>
    </language>
    <language id="7a5dda62-9140-4668-ab76-d5ed1746f2b2" name="jetbrains.mps.lang.typesystem">
      <concept id="1185788614172" name="jetbrains.mps.lang.typesystem.structure.NormalTypeClause" flags="ng" index="mw_s8">
        <child id="1185788644032" name="normalType" index="mwGJk" />
      </concept>
      <concept id="1179479408386" name="jetbrains.mps.lang.typesystem.structure.JoinType" flags="ng" index="2usRSg">
        <child id="1179479418730" name="argument" index="2usUpS" />
      </concept>
      <concept id="1175517400280" name="jetbrains.mps.lang.typesystem.structure.AssertStatement" flags="nn" index="2Mj0R9">
        <child id="1175517761460" name="condition" index="2MkoU_" />
      </concept>
      <concept id="1175517767210" name="jetbrains.mps.lang.typesystem.structure.ReportErrorStatement" flags="nn" index="2MkqsV">
        <child id="1175517851849" name="errorString" index="2MkJ7o" />
      </concept>
      <concept id="1227096774658" name="jetbrains.mps.lang.typesystem.structure.MessageStatement" flags="ng" index="2OEH$v">
        <child id="1227096802790" name="nodeToReport" index="2OEOjV" />
      </concept>
      <concept id="1195213580585" name="jetbrains.mps.lang.typesystem.structure.AbstractCheckingRule" flags="ig" index="18hYwZ">
        <child id="1195213635060" name="body" index="18ibNy" />
      </concept>
      <concept id="1195214364922" name="jetbrains.mps.lang.typesystem.structure.NonTypesystemRule" flags="ig" index="18kY7G" />
      <concept id="1174642788531" name="jetbrains.mps.lang.typesystem.structure.ConceptReference" flags="ig" index="1YaCAy">
        <reference id="1174642800329" name="concept" index="1YaFvo" />
      </concept>
      <concept id="1174643105530" name="jetbrains.mps.lang.typesystem.structure.InferenceRule" flags="ig" index="1YbPZF" />
      <concept id="1174648085619" name="jetbrains.mps.lang.typesystem.structure.AbstractRule" flags="ng" index="1YuPPy">
        <child id="1174648101952" name="applicableNode" index="1YuTPh" />
      </concept>
      <concept id="1174650418652" name="jetbrains.mps.lang.typesystem.structure.ApplicableNodeReference" flags="nn" index="1YBJjd">
        <reference id="1174650432090" name="applicableNode" index="1YBMHb" />
      </concept>
      <concept id="1174657487114" name="jetbrains.mps.lang.typesystem.structure.TypeOfExpression" flags="nn" index="1Z2H0r">
        <child id="1174657509053" name="term" index="1Z2MuG" />
      </concept>
      <concept id="1174658326157" name="jetbrains.mps.lang.typesystem.structure.CreateEquationStatement" flags="nn" index="1Z5TYs" />
      <concept id="1174660718586" name="jetbrains.mps.lang.typesystem.structure.AbstractEquationStatement" flags="nn" index="1Zf1VF">
        <property id="1206359757216" name="checkOnly" index="3wDh2S" />
        <child id="1174660783413" name="leftExpression" index="1ZfhK$" />
        <child id="1174660783414" name="rightExpression" index="1ZfhKB" />
      </concept>
      <concept id="1174663118805" name="jetbrains.mps.lang.typesystem.structure.CreateLessThanInequationStatement" flags="nn" index="1ZobV4" />
      <concept id="1174663239020" name="jetbrains.mps.lang.typesystem.structure.CreateGreaterThanInequationStatement" flags="nn" index="1ZoDhX" />
      <concept id="1174665551739" name="jetbrains.mps.lang.typesystem.structure.TypeVarDeclaration" flags="ng" index="1ZxtTE" />
      <concept id="1174666260556" name="jetbrains.mps.lang.typesystem.structure.TypeVarReference" flags="nn" index="1Z$b5t">
        <reference id="1174666276259" name="typeVarDeclaration" index="1Z$eMM" />
      </concept>
    </language>
    <language id="7866978e-a0f0-4cc7-81bc-4d213d9375e1" name="jetbrains.mps.lang.smodel">
      <concept id="1177026924588" name="jetbrains.mps.lang.smodel.structure.RefConcept_Reference" flags="nn" index="chp4Y">
        <reference id="1177026940964" name="conceptDeclaration" index="cht4Q" />
      </concept>
      <concept id="1179409122411" name="jetbrains.mps.lang.smodel.structure.Node_ConceptMethodCall" flags="nn" index="2qgKlT" />
      <concept id="8758390115029295477" name="jetbrains.mps.lang.smodel.structure.SReferenceType" flags="in" index="2z4iKi" />
      <concept id="2396822768958367367" name="jetbrains.mps.lang.smodel.structure.AbstractTypeCastExpression" flags="nn" index="$5XWr">
        <reference id="6733348108486823428" name="concept" index="1m5ApE" />
        <child id="6733348108486823193" name="leftExpression" index="1m5AlR" />
      </concept>
      <concept id="1143226024141" name="jetbrains.mps.lang.smodel.structure.SModelType" flags="in" index="H_c77" />
      <concept id="1143234257716" name="jetbrains.mps.lang.smodel.structure.Node_GetModelOperation" flags="nn" index="I4A8Y" />
      <concept id="1145404486709" name="jetbrains.mps.lang.smodel.structure.SemanticDowncastExpression" flags="nn" index="2JrnkZ">
        <child id="1145404616321" name="leftExpression" index="2JrQYb" />
      </concept>
      <concept id="1139621453865" name="jetbrains.mps.lang.smodel.structure.Node_IsInstanceOfOperation" flags="nn" index="1mIQ4w">
        <child id="1177027386292" name="conceptArgument" index="cj9EA" />
      </concept>
      <concept id="1219352745532" name="jetbrains.mps.lang.smodel.structure.NodeRefExpression" flags="nn" index="3B5_sB">
        <reference id="1219352800908" name="referentNode" index="3B5MYn" />
      </concept>
      <concept id="1140137987495" name="jetbrains.mps.lang.smodel.structure.SNodeTypeCastExpression" flags="nn" index="1PxgMI" />
      <concept id="1138055754698" name="jetbrains.mps.lang.smodel.structure.SNodeType" flags="in" index="3Tqbb2">
        <reference id="1138405853777" name="concept" index="ehGHo" />
      </concept>
      <concept id="1138056143562" name="jetbrains.mps.lang.smodel.structure.SLinkAccess" flags="nn" index="3TrEf2">
        <reference id="1138056516764" name="link" index="3Tt5mk" />
      </concept>
      <concept id="1138056282393" name="jetbrains.mps.lang.smodel.structure.SLinkListAccess" flags="nn" index="3Tsc0h">
        <reference id="1138056546658" name="link" index="3TtcxE" />
      </concept>
    </language>
    <language id="ceab5195-25ea-4f22-9b92-103b95ca8c0c" name="jetbrains.mps.lang.core">
      <concept id="1133920641626" name="jetbrains.mps.lang.core.structure.BaseConcept" flags="ng" index="2VYdi">
        <property id="1193676396447" name="virtualPackage" index="3GE5qa" />
        <child id="5169995583184591170" name="smodelAttribute" index="lGtFl" />
      </concept>
      <concept id="3364660638048049745" name="jetbrains.mps.lang.core.structure.LinkAttribute" flags="ng" index="A9Btn">
        <property id="1757699476691236116" name="linkRole" index="2qtEX8" />
        <property id="1341860900488019036" name="linkId" index="P3scX" />
      </concept>
      <concept id="1169194658468" name="jetbrains.mps.lang.core.structure.INamedConcept" flags="ng" index="TrEIO">
        <property id="1169194664001" name="name" index="TrG5h" />
      </concept>
    </language>
    <language id="83888646-71ce-4f1c-9c53-c54016f6ad4f" name="jetbrains.mps.baseLanguage.collections">
      <concept id="1204796164442" name="jetbrains.mps.baseLanguage.collections.structure.InternalSequenceOperation" flags="nn" index="23sCx2">
        <child id="1204796294226" name="closure" index="23t8la" />
      </concept>
      <concept id="1176906603202" name="jetbrains.mps.baseLanguage.collections.structure.BinaryOperation" flags="nn" index="56pJg">
        <child id="1176906787974" name="rightExpression" index="576Qk" />
      </concept>
      <concept id="1176923520476" name="jetbrains.mps.baseLanguage.collections.structure.ExcludeOperation" flags="nn" index="66VNe" />
      <concept id="1151689724996" name="jetbrains.mps.baseLanguage.collections.structure.SequenceType" flags="in" index="A3Dl8">
        <child id="1151689745422" name="elementType" index="A3Ik2" />
      </concept>
      <concept id="1153943597977" name="jetbrains.mps.baseLanguage.collections.structure.ForEachStatement" flags="nn" index="2Gpval">
        <child id="1153944400369" name="variable" index="2Gsz3X" />
        <child id="1153944424730" name="inputSequence" index="2GsD0m" />
      </concept>
      <concept id="1153944193378" name="jetbrains.mps.baseLanguage.collections.structure.ForEachVariable" flags="nr" index="2GrKxI" />
      <concept id="1153944233411" name="jetbrains.mps.baseLanguage.collections.structure.ForEachVariableReference" flags="nn" index="2GrUjf">
        <reference id="1153944258490" name="variable" index="2Gs0qQ" />
      </concept>
      <concept id="1235566554328" name="jetbrains.mps.baseLanguage.collections.structure.AnyOperation" flags="nn" index="2HwmR7" />
      <concept id="1203518072036" name="jetbrains.mps.baseLanguage.collections.structure.SmartClosureParameterDeclaration" flags="ig" index="Rh6nW" />
      <concept id="1205753243362" name="jetbrains.mps.baseLanguage.collections.structure.ChunkOperation" flags="nn" index="2WvAvU">
        <child id="1205753261887" name="length" index="2WvESB" />
      </concept>
      <concept id="1205753630278" name="jetbrains.mps.baseLanguage.collections.structure.TailOperation" flags="nn" index="2Wx4Xu" />
      <concept id="1162935959151" name="jetbrains.mps.baseLanguage.collections.structure.GetSizeOperation" flags="nn" index="34oBXx" />
      <concept id="1165525191778" name="jetbrains.mps.baseLanguage.collections.structure.GetFirstOperation" flags="nn" index="1uHKPH" />
      <concept id="1202120902084" name="jetbrains.mps.baseLanguage.collections.structure.WhereOperation" flags="nn" index="3zZkjj" />
      <concept id="1202128969694" name="jetbrains.mps.baseLanguage.collections.structure.SelectOperation" flags="nn" index="3$u5V9" />
      <concept id="1176501494711" name="jetbrains.mps.baseLanguage.collections.structure.IsNotEmptyOperation" flags="nn" index="3GX2aA" />
      <concept id="1178894719932" name="jetbrains.mps.baseLanguage.collections.structure.DistinctOperation" flags="nn" index="1VAtEI" />
    </language>
  </registry>
  <node concept="18kY7G" id="7Q$BpsAOSVi">
    <property role="TrG5h" value="check_ShowGenPlan" />
    <node concept="3clFbS" id="7Q$BpsAOSVj" role="18ibNy">
      <node concept="3cpWs8" id="bxo68MxEVe" role="3cqZAp">
        <node concept="3cpWsn" id="bxo68MxEVf" role="3cpWs9">
          <property role="TrG5h" value="model" />
          <node concept="H_c77" id="bxo68MxEV6" role="1tU5fm" />
          <node concept="2OqwBi" id="bxo68MxEVg" role="33vP2m">
            <node concept="2OqwBi" id="bxo68MxEVh" role="2Oq$k0">
              <node concept="1YBJjd" id="bxo68MxEVi" role="2Oq$k0">
                <ref role="1YBMHb" node="7Q$BpsAOSVl" resolve="showGenPlan" />
              </node>
              <node concept="3TrEf2" id="bxo68MxEVj" role="2OqNvi">
                <ref role="3Tt5mk" to="caxt:67MRmR$vSpU" />
              </node>
            </node>
            <node concept="2qgKlT" id="bxo68MxEVk" role="2OqNvi">
              <ref role="37wK5l" to="2u9t:67MRmR$z8Z2" resolve="getModel" />
              <node concept="2OqwBi" id="bxo68MxEVl" role="37wK5m">
                <node concept="2JrnkZ" id="bxo68MxEVm" role="2Oq$k0">
                  <node concept="2OqwBi" id="bxo68MxEVn" role="2JrQYb">
                    <node concept="1YBJjd" id="bxo68MxEVo" role="2Oq$k0">
                      <ref role="1YBMHb" node="7Q$BpsAOSVl" resolve="showGenPlan" />
                    </node>
                    <node concept="I4A8Y" id="bxo68MxEVp" role="2OqNvi" />
                  </node>
                </node>
                <node concept="liA8E" id="bxo68MxEVq" role="2OqNvi">
                  <ref role="37wK5l" to="mhbf:~SModel.getRepository():org.jetbrains.mps.openapi.module.SRepository" resolve="getRepository" />
                </node>
              </node>
            </node>
          </node>
        </node>
      </node>
      <node concept="3clFbJ" id="7Q$BpsAP2ta" role="3cqZAp">
        <node concept="3clFbS" id="7Q$BpsAP2td" role="3clFbx">
          <node concept="2Mj0R9" id="7Q$BpsAOYvU" role="3cqZAp">
            <node concept="Xl_RD" id="7Q$BpsAP0Un" role="2MkJ7o">
              <property role="Xl_RC" value="model should be generatable" />
            </node>
            <node concept="2OqwBi" id="7Q$BpsAOYQ1" role="2OEOjV">
              <node concept="1YBJjd" id="7Q$BpsAOYEA" role="2Oq$k0">
                <ref role="1YBMHb" node="7Q$BpsAOSVl" resolve="showGenPlan" />
              </node>
              <node concept="3TrEf2" id="7Q$BpsAP0RJ" role="2OqNvi">
                <ref role="3Tt5mk" to="caxt:67MRmR$vSpU" />
              </node>
            </node>
            <node concept="2YIFZM" id="7Q$BpsAOV5x" role="2MkoU_">
              <ref role="1Pybhc" to="unno:1NYD3hytmTa" resolve="SNodeOperations" />
              <ref role="37wK5l" to="unno:54ElNE$imKq" resolve="isGeneratable" />
              <node concept="37vLTw" id="bxo68MxF0F" role="37wK5m">
                <ref role="3cqZAo" node="bxo68MxEVf" resolve="model" />
              </node>
            </node>
          </node>
        </node>
        <node concept="3y3z36" id="7Q$BpsAP7vZ" role="3clFbw">
          <node concept="37vLTw" id="bxo68MxEVr" role="3uHU7B">
            <ref role="3cqZAo" node="bxo68MxEVf" resolve="model" />
          </node>
          <node concept="10Nm6u" id="7Q$BpsAP7w1" role="3uHU7w" />
        </node>
      </node>
    </node>
    <node concept="1YaCAy" id="7Q$BpsAOSVl" role="1YuTPh">
      <property role="TrG5h" value="showGenPlan" />
      <ref role="1YaFvo" to="caxt:67MRmR$vSn$" resolve="ShowGenPlan" />
    </node>
  </node>
  <node concept="1YbPZF" id="4PRmqZe_ouQ">
    <property role="TrG5h" value="typeof_ActionCallParameter" />
    <property role="3GE5qa" value="expression.callAction" />
    <node concept="3clFbS" id="4PRmqZe_ouR" role="18ibNy">
      <node concept="3cpWs8" id="4PRmqZe_ouS" role="3cqZAp">
        <node concept="3cpWsn" id="4PRmqZe_ouT" role="3cpWs9">
          <property role="TrG5h" value="type" />
          <node concept="3Tqbb2" id="4PRmqZe_ouU" role="1tU5fm">
            <ref role="ehGHo" to="tpee:fz3vP1H" resolve="Type" />
          </node>
          <node concept="2OqwBi" id="4PRmqZe_ouV" role="33vP2m">
            <node concept="2OqwBi" id="4PRmqZe_ouW" role="2Oq$k0">
              <node concept="1YBJjd" id="4PRmqZe_ouX" role="2Oq$k0">
                <ref role="1YBMHb" node="4PRmqZe_ovM" resolve="actionCallParameter" />
              </node>
              <node concept="2qgKlT" id="4PRmqZe_ouY" role="2OqNvi">
                <ref role="37wK5l" to="2u9t:4PRmqZe_o$D" resolve="getParameterDeclaration" />
              </node>
            </node>
            <node concept="3TrEf2" id="4PRmqZeCztM" role="2OqNvi">
              <ref role="3Tt5mk" to="tpee:4VkOLwjf83e" />
            </node>
          </node>
        </node>
      </node>
      <node concept="1ZobV4" id="4PRmqZe_ov0" role="3cqZAp">
        <property role="3wDh2S" value="true" />
        <node concept="mw_s8" id="4PRmqZe_ov1" role="1ZfhK$">
          <node concept="37vLTw" id="4PRmqZe_ov2" role="mwGJk">
            <ref role="3cqZAo" node="4PRmqZe_ouT" resolve="type" />
          </node>
        </node>
        <node concept="mw_s8" id="4PRmqZe_ov3" role="1ZfhKB">
          <node concept="2c44tf" id="4PRmqZe_ov4" role="mwGJk">
            <node concept="3uibUv" id="4PRmqZe_ov5" role="2c44tc">
              <ref role="3uigEE" to="qkt:~DataKey" resolve="DataKey" />
            </node>
          </node>
        </node>
      </node>
      <node concept="3clFbJ" id="4PRmqZe_ov6" role="3cqZAp">
        <node concept="3clFbS" id="4PRmqZe_ov7" role="3clFbx">
          <node concept="3cpWs8" id="4PRmqZe_ov8" role="3cqZAp">
            <node concept="3cpWsn" id="4PRmqZe_ov9" role="3cpWs9">
              <property role="TrG5h" value="typeParameter" />
              <node concept="3Tqbb2" id="4PRmqZe_ova" role="1tU5fm">
                <ref role="ehGHo" to="tpee:fz3vP1H" resolve="Type" />
              </node>
              <node concept="2OqwBi" id="4PRmqZe_ovb" role="33vP2m">
                <node concept="2OqwBi" id="4PRmqZe_ovc" role="2Oq$k0">
                  <node concept="1PxgMI" id="4PRmqZe_ovd" role="2Oq$k0">
                    <ref role="1m5ApE" to="tpee:g7uibYu" resolve="ClassifierType" />
                    <node concept="37vLTw" id="4PRmqZe_ove" role="1m5AlR">
                      <ref role="3cqZAo" node="4PRmqZe_ouT" resolve="type" />
                    </node>
                  </node>
                  <node concept="3Tsc0h" id="4PRmqZe_ovf" role="2OqNvi">
                    <ref role="3TtcxE" to="tpee:g91_B6F" />
                  </node>
                </node>
                <node concept="1uHKPH" id="4PRmqZe_ovg" role="2OqNvi" />
              </node>
            </node>
          </node>
          <node concept="1ZobV4" id="4PRmqZe_ovh" role="3cqZAp">
            <node concept="mw_s8" id="4PRmqZe_ovi" role="1ZfhK$">
              <node concept="1Z2H0r" id="4PRmqZe_ovj" role="mwGJk">
                <node concept="2OqwBi" id="4PRmqZe_ovk" role="1Z2MuG">
                  <node concept="1YBJjd" id="4PRmqZe_ovl" role="2Oq$k0">
                    <ref role="1YBMHb" node="4PRmqZe_ovM" resolve="actionCallParameter" />
                  </node>
                  <node concept="3TrEf2" id="4PRmqZe_ovm" role="2OqNvi">
                    <ref role="3Tt5mk" to="caxt:4PRmqZe_ouG" />
                  </node>
                </node>
              </node>
            </node>
            <node concept="mw_s8" id="4PRmqZe_ovn" role="1ZfhKB">
              <node concept="37vLTw" id="4PRmqZe_ovo" role="mwGJk">
                <ref role="3cqZAo" node="4PRmqZe_ov9" resolve="typeParameter" />
              </node>
            </node>
          </node>
        </node>
        <node concept="1Wc70l" id="4PRmqZe_ovp" role="3clFbw">
          <node concept="1Wc70l" id="4PRmqZe_ovq" role="3uHU7B">
            <node concept="2OqwBi" id="4PRmqZe_ovr" role="3uHU7B">
              <node concept="37vLTw" id="4PRmqZe_ovs" role="2Oq$k0">
                <ref role="3cqZAo" node="4PRmqZe_ouT" resolve="type" />
              </node>
              <node concept="1mIQ4w" id="4PRmqZe_ovt" role="2OqNvi">
                <node concept="chp4Y" id="4PRmqZe_ovu" role="cj9EA">
                  <ref role="cht4Q" to="tpee:g7uibYu" resolve="ClassifierType" />
                </node>
              </node>
            </node>
            <node concept="17R0WA" id="4PRmqZe_ovv" role="3uHU7w">
              <node concept="2OqwBi" id="4PRmqZe_ovw" role="3uHU7B">
                <node concept="1PxgMI" id="4PRmqZe_ovx" role="2Oq$k0">
                  <ref role="1m5ApE" to="tpee:g7uibYu" resolve="ClassifierType" />
                  <node concept="37vLTw" id="4PRmqZe_ovy" role="1m5AlR">
                    <ref role="3cqZAo" node="4PRmqZe_ouT" resolve="type" />
                  </node>
                </node>
                <node concept="3TrEf2" id="4PRmqZe_ovz" role="2OqNvi">
                  <ref role="3Tt5mk" to="tpee:g7uigIF" />
                </node>
              </node>
              <node concept="3B5_sB" id="4PRmqZe_ov$" role="3uHU7w">
                <ref role="3B5MYn" to="qkt:~DataKey" resolve="DataKey" />
              </node>
            </node>
          </node>
          <node concept="3clFbC" id="4PRmqZe_ov_" role="3uHU7w">
            <node concept="3cmrfG" id="4PRmqZe_ovA" role="3uHU7w">
              <property role="3cmrfH" value="1" />
            </node>
            <node concept="2OqwBi" id="4PRmqZe_ovB" role="3uHU7B">
              <node concept="2OqwBi" id="4PRmqZe_ovC" role="2Oq$k0">
                <node concept="1PxgMI" id="4PRmqZe_ovD" role="2Oq$k0">
                  <ref role="1m5ApE" to="tpee:g7uibYu" resolve="ClassifierType" />
                  <node concept="37vLTw" id="4PRmqZe_ovE" role="1m5AlR">
                    <ref role="3cqZAo" node="4PRmqZe_ouT" resolve="type" />
                  </node>
                </node>
                <node concept="3Tsc0h" id="4PRmqZe_ovF" role="2OqNvi">
                  <ref role="3TtcxE" to="tpee:g91_B6F" />
                </node>
              </node>
              <node concept="34oBXx" id="4PRmqZe_ovG" role="2OqNvi" />
            </node>
          </node>
        </node>
        <node concept="9aQIb" id="4PRmqZe_ovH" role="9aQIa">
          <node concept="3clFbS" id="4PRmqZe_ovI" role="9aQI4">
            <node concept="2MkqsV" id="4PRmqZe_ovJ" role="3cqZAp">
              <node concept="1YBJjd" id="4PRmqZe_ovK" role="2OEOjV">
                <ref role="1YBMHb" node="4PRmqZe_ovM" resolve="actionCallParameter" />
              </node>
              <node concept="Xl_RD" id="4PRmqZe_ovL" role="2MkJ7o">
                <property role="Xl_RC" value="Only DataKey&lt;...&gt; type is allowed" />
              </node>
            </node>
          </node>
        </node>
      </node>
    </node>
    <node concept="1YaCAy" id="4PRmqZe_ovM" role="1YuTPh">
      <property role="TrG5h" value="actionCallParameter" />
      <ref role="1YaFvo" to="caxt:4PRmqZe_ouF" resolve="ActionCallParameter" />
    </node>
  </node>
  <node concept="18kY7G" id="4PRmqZe_ovN">
    <property role="TrG5h" value="check_CallActionDuplicatedParameters" />
    <property role="3GE5qa" value="expression.callAction" />
    <node concept="3clFbS" id="4PRmqZe_ovO" role="18ibNy">
      <node concept="3cpWs8" id="4PRmqZe_ovP" role="3cqZAp">
        <node concept="3cpWsn" id="4PRmqZe_ovQ" role="3cpWs9">
          <property role="TrG5h" value="parameters" />
          <node concept="A3Dl8" id="4PRmqZe_ovR" role="1tU5fm">
            <node concept="3Tqbb2" id="4PRmqZe_ovS" role="A3Ik2">
              <ref role="ehGHo" to="caxt:4PRmqZe_ouF" resolve="ActionCallParameter" />
            </node>
          </node>
          <node concept="2OqwBi" id="4PRmqZe_ovT" role="33vP2m">
            <node concept="1YBJjd" id="4PRmqZe_ovU" role="2Oq$k0">
              <ref role="1YBMHb" node="4PRmqZe_ox9" resolve="callAction" />
            </node>
            <node concept="3Tsc0h" id="4PRmqZe_ovV" role="2OqNvi">
              <ref role="3TtcxE" to="caxt:4PRmqZe_ouJ" />
            </node>
          </node>
        </node>
      </node>
      <node concept="3cpWs8" id="4PRmqZe_ovW" role="3cqZAp">
        <node concept="3cpWsn" id="4PRmqZe_ovX" role="3cpWs9">
          <property role="TrG5h" value="parameterFields" />
          <node concept="A3Dl8" id="4PRmqZe_ovY" role="1tU5fm">
            <node concept="3Tqbb2" id="4PRmqZe_ovZ" role="A3Ik2">
              <ref role="ehGHo" to="tpee:f$Wx3kv" resolve="StaticFieldDeclaration" />
            </node>
          </node>
          <node concept="2OqwBi" id="4PRmqZe_ow0" role="33vP2m">
            <node concept="2OqwBi" id="4PRmqZe_ow1" role="2Oq$k0">
              <node concept="37vLTw" id="4PRmqZe_ow2" role="2Oq$k0">
                <ref role="3cqZAo" node="4PRmqZe_ovQ" resolve="parameters" />
              </node>
              <node concept="3$u5V9" id="4PRmqZe_ow3" role="2OqNvi">
                <node concept="1bVj0M" id="4PRmqZe_ow4" role="23t8la">
                  <node concept="3clFbS" id="4PRmqZe_ow5" role="1bW5cS">
                    <node concept="3clFbF" id="4PRmqZe_ow6" role="3cqZAp">
                      <node concept="2OqwBi" id="4PRmqZe_ow7" role="3clFbG">
                        <node concept="37vLTw" id="4PRmqZe_ow8" role="2Oq$k0">
                          <ref role="3cqZAo" node="4PRmqZe_owa" resolve="it" />
                        </node>
                        <node concept="2qgKlT" id="4PRmqZe_ow9" role="2OqNvi">
                          <ref role="37wK5l" to="2u9t:4PRmqZe_o$D" resolve="getParameterDeclaration" />
                        </node>
                      </node>
                    </node>
                  </node>
                  <node concept="Rh6nW" id="4PRmqZe_owa" role="1bW2Oz">
                    <property role="TrG5h" value="it" />
                    <node concept="2jxLKc" id="4PRmqZe_owb" role="1tU5fm" />
                  </node>
                </node>
              </node>
            </node>
            <node concept="1VAtEI" id="4PRmqZe_owc" role="2OqNvi" />
          </node>
        </node>
      </node>
      <node concept="3cpWs8" id="4PRmqZe_owd" role="3cqZAp">
        <node concept="3cpWsn" id="4PRmqZe_owe" role="3cpWs9">
          <property role="TrG5h" value="grouped" />
          <node concept="A3Dl8" id="4PRmqZe_owf" role="1tU5fm">
            <node concept="A3Dl8" id="4PRmqZe_owg" role="A3Ik2">
              <node concept="3Tqbb2" id="4PRmqZe_owh" role="A3Ik2">
                <ref role="ehGHo" to="caxt:4PRmqZe_ouF" resolve="ActionCallParameter" />
              </node>
            </node>
          </node>
          <node concept="2OqwBi" id="4PRmqZe_owi" role="33vP2m">
            <node concept="37vLTw" id="4PRmqZe_owj" role="2Oq$k0">
              <ref role="3cqZAo" node="4PRmqZe_ovX" resolve="parameterFields" />
            </node>
            <node concept="3$u5V9" id="4PRmqZe_owk" role="2OqNvi">
              <node concept="1bVj0M" id="4PRmqZe_owl" role="23t8la">
                <node concept="3clFbS" id="4PRmqZe_owm" role="1bW5cS">
                  <node concept="3clFbF" id="4PRmqZe_own" role="3cqZAp">
                    <node concept="2OqwBi" id="4PRmqZe_owo" role="3clFbG">
                      <node concept="37vLTw" id="4PRmqZe_owp" role="2Oq$k0">
                        <ref role="3cqZAo" node="4PRmqZe_ovQ" resolve="parameters" />
                      </node>
                      <node concept="3zZkjj" id="4PRmqZe_owq" role="2OqNvi">
                        <node concept="1bVj0M" id="4PRmqZe_owr" role="23t8la">
                          <node concept="3clFbS" id="4PRmqZe_ows" role="1bW5cS">
                            <node concept="3clFbF" id="4PRmqZe_owt" role="3cqZAp">
                              <node concept="17R0WA" id="4PRmqZe_owu" role="3clFbG">
                                <node concept="2OqwBi" id="4PRmqZe_owv" role="3uHU7B">
                                  <node concept="37vLTw" id="4PRmqZe_oww" role="2Oq$k0">
                                    <ref role="3cqZAo" node="4PRmqZe_owz" resolve="p" />
                                  </node>
                                  <node concept="2qgKlT" id="4PRmqZe_owx" role="2OqNvi">
                                    <ref role="37wK5l" to="2u9t:4PRmqZe_o$D" resolve="getParameterDeclaration" />
                                  </node>
                                </node>
                                <node concept="37vLTw" id="4PRmqZe_owy" role="3uHU7w">
                                  <ref role="3cqZAo" node="4PRmqZe_ow_" resolve="c" />
                                </node>
                              </node>
                            </node>
                          </node>
                          <node concept="Rh6nW" id="4PRmqZe_owz" role="1bW2Oz">
                            <property role="TrG5h" value="p" />
                            <node concept="2jxLKc" id="4PRmqZe_ow$" role="1tU5fm" />
                          </node>
                        </node>
                      </node>
                    </node>
                  </node>
                </node>
                <node concept="Rh6nW" id="4PRmqZe_ow_" role="1bW2Oz">
                  <property role="TrG5h" value="c" />
                  <node concept="2jxLKc" id="4PRmqZe_owA" role="1tU5fm" />
                </node>
              </node>
            </node>
          </node>
        </node>
      </node>
      <node concept="3clFbH" id="4PRmqZe_owB" role="3cqZAp" />
      <node concept="2Gpval" id="4PRmqZe_owC" role="3cqZAp">
        <node concept="2GrKxI" id="4PRmqZe_owD" role="2Gsz3X">
          <property role="TrG5h" value="group" />
        </node>
        <node concept="37vLTw" id="4PRmqZe_owE" role="2GsD0m">
          <ref role="3cqZAo" node="4PRmqZe_owe" resolve="grouped" />
        </node>
        <node concept="3clFbS" id="4PRmqZe_owF" role="2LFqv$">
          <node concept="3clFbJ" id="4PRmqZe_owG" role="3cqZAp">
            <node concept="3clFbS" id="4PRmqZe_owH" role="3clFbx">
              <node concept="2Gpval" id="4PRmqZe_owI" role="3cqZAp">
                <node concept="2GrKxI" id="4PRmqZe_owJ" role="2Gsz3X">
                  <property role="TrG5h" value="other" />
                </node>
                <node concept="2OqwBi" id="4PRmqZe_owK" role="2GsD0m">
                  <node concept="2GrUjf" id="4PRmqZe_owL" role="2Oq$k0">
                    <ref role="2Gs0qQ" node="4PRmqZe_owD" resolve="group" />
                  </node>
                  <node concept="2Wx4Xu" id="4PRmqZe_owM" role="2OqNvi">
                    <node concept="3cpWsd" id="4PRmqZe_owN" role="2WvESB">
                      <node concept="3cmrfG" id="4PRmqZe_owO" role="3uHU7w">
                        <property role="3cmrfH" value="1" />
                      </node>
                      <node concept="2OqwBi" id="4PRmqZe_owP" role="3uHU7B">
                        <node concept="2GrUjf" id="4PRmqZe_owQ" role="2Oq$k0">
                          <ref role="2Gs0qQ" node="4PRmqZe_owD" resolve="group" />
                        </node>
                        <node concept="34oBXx" id="4PRmqZe_owR" role="2OqNvi" />
                      </node>
                    </node>
                  </node>
                </node>
                <node concept="3clFbS" id="4PRmqZe_owS" role="2LFqv$">
                  <node concept="2MkqsV" id="4PRmqZe_owT" role="3cqZAp">
                    <node concept="3cpWs3" id="4PRmqZe_owU" role="2MkJ7o">
                      <node concept="2OqwBi" id="4PRmqZe_owV" role="3uHU7w">
                        <node concept="2OqwBi" id="4PRmqZe_owW" role="2Oq$k0">
                          <node concept="2OqwBi" id="4PRmqZe_owX" role="2Oq$k0">
                            <node concept="2GrUjf" id="4PRmqZe_owY" role="2Oq$k0">
                              <ref role="2Gs0qQ" node="4PRmqZe_owD" resolve="group" />
                            </node>
                            <node concept="1uHKPH" id="4PRmqZe_owZ" role="2OqNvi" />
                          </node>
                          <node concept="2qgKlT" id="4PRmqZe_ox0" role="2OqNvi">
                            <ref role="37wK5l" to="2u9t:4PRmqZe_o$D" resolve="getParameterDeclaration" />
                          </node>
                        </node>
                        <node concept="2qgKlT" id="4PRmqZeCudp" role="2OqNvi">
                          <ref role="37wK5l" to="tpcu:hEwIO9y" resolve="getFqName" />
                        </node>
                      </node>
                      <node concept="Xl_RD" id="4PRmqZe_ox2" role="3uHU7B">
                        <property role="Xl_RC" value="Duplicated parameter: " />
                      </node>
                    </node>
                    <node concept="2GrUjf" id="4PRmqZe_ox3" role="2OEOjV">
                      <ref role="2Gs0qQ" node="4PRmqZe_owJ" resolve="other" />
                    </node>
                  </node>
                </node>
              </node>
            </node>
            <node concept="3eOSWO" id="4PRmqZe_ox4" role="3clFbw">
              <node concept="3cmrfG" id="4PRmqZe_ox5" role="3uHU7w">
                <property role="3cmrfH" value="1" />
              </node>
              <node concept="2OqwBi" id="4PRmqZe_ox6" role="3uHU7B">
                <node concept="2GrUjf" id="4PRmqZe_ox7" role="2Oq$k0">
                  <ref role="2Gs0qQ" node="4PRmqZe_owD" resolve="group" />
                </node>
                <node concept="34oBXx" id="4PRmqZe_ox8" role="2OqNvi" />
              </node>
            </node>
          </node>
        </node>
      </node>
    </node>
    <node concept="1YaCAy" id="4PRmqZe_ox9" role="1YuTPh">
      <property role="TrG5h" value="callAction" />
      <ref role="1YaFvo" to="caxt:4PRmqZe_ouH" resolve="CallActionExpression" />
    </node>
  </node>
  <node concept="18kY7G" id="4PRmqZe_oxa">
    <property role="TrG5h" value="check_RequiredParametersArePassed" />
    <property role="3GE5qa" value="expression.callAction" />
    <node concept="3clFbS" id="4PRmqZe_oxb" role="18ibNy">
      <node concept="3cpWs8" id="4PRmqZe_oxc" role="3cqZAp">
        <node concept="3cpWsn" id="4PRmqZe_oxd" role="3cpWs9">
          <property role="TrG5h" value="requiredParameters" />
          <node concept="A3Dl8" id="4PRmqZe_oxe" role="1tU5fm">
            <node concept="3Tqbb2" id="4PRmqZe_oxf" role="A3Ik2">
              <ref role="ehGHo" to="tpee:f$Wx3kv" resolve="StaticFieldDeclaration" />
            </node>
          </node>
          <node concept="2OqwBi" id="4PRmqZe_oxg" role="33vP2m">
            <node concept="2OqwBi" id="4PRmqZe_oxh" role="2Oq$k0">
              <node concept="2OqwBi" id="4PRmqZe_oxi" role="2Oq$k0">
                <node concept="2OqwBi" id="4PRmqZe_oxj" role="2Oq$k0">
                  <node concept="1YBJjd" id="4PRmqZe_oxk" role="2Oq$k0">
                    <ref role="1YBMHb" node="4PRmqZe_oyt" resolve="callAction" />
                  </node>
                  <node concept="3TrEf2" id="4PRmqZe_oxl" role="2OqNvi">
                    <ref role="3Tt5mk" to="caxt:4PRmqZe_ouI" />
                  </node>
                </node>
                <node concept="3Tsc0h" id="4PRmqZe_oxm" role="2OqNvi">
                  <ref role="3TtcxE" to="tp4k:hHNuT6$" />
                </node>
              </node>
              <node concept="3zZkjj" id="4PRmqZe_oxn" role="2OqNvi">
                <node concept="1bVj0M" id="4PRmqZe_oxo" role="23t8la">
                  <node concept="3clFbS" id="4PRmqZe_oxp" role="1bW5cS">
                    <node concept="3clFbF" id="4PRmqZe_oxq" role="3cqZAp">
                      <node concept="2OqwBi" id="4PRmqZe_oxr" role="3clFbG">
                        <node concept="2OqwBi" id="4PRmqZe_oxs" role="2Oq$k0">
                          <node concept="37vLTw" id="4PRmqZe_oxt" role="2Oq$k0">
                            <ref role="3cqZAo" node="4PRmqZe_oxD" resolve="it" />
                          </node>
                          <node concept="3Tsc0h" id="4PRmqZe_oxu" role="2OqNvi">
                            <ref role="3TtcxE" to="tp4k:4Ns790kX6MM" />
                          </node>
                        </node>
                        <node concept="2HwmR7" id="4PRmqZe_oxv" role="2OqNvi">
                          <node concept="1bVj0M" id="4PRmqZe_oxw" role="23t8la">
                            <node concept="3clFbS" id="4PRmqZe_oxx" role="1bW5cS">
                              <node concept="3clFbF" id="4PRmqZe_oxy" role="3cqZAp">
                                <node concept="2OqwBi" id="4PRmqZe_oxz" role="3clFbG">
                                  <node concept="37vLTw" id="4PRmqZe_ox$" role="2Oq$k0">
                                    <ref role="3cqZAo" node="4PRmqZe_oxB" resolve="it" />
                                  </node>
                                  <node concept="1mIQ4w" id="4PRmqZe_ox_" role="2OqNvi">
                                    <node concept="chp4Y" id="4PRmqZe_oxA" role="cj9EA">
                                      <ref role="cht4Q" to="tp4k:4Ns790kXiYI" resolve="RequiredCondition" />
                                    </node>
                                  </node>
                                </node>
                              </node>
                            </node>
                            <node concept="Rh6nW" id="4PRmqZe_oxB" role="1bW2Oz">
                              <property role="TrG5h" value="it" />
                              <node concept="2jxLKc" id="4PRmqZe_oxC" role="1tU5fm" />
                            </node>
                          </node>
                        </node>
                      </node>
                    </node>
                  </node>
                  <node concept="Rh6nW" id="4PRmqZe_oxD" role="1bW2Oz">
                    <property role="TrG5h" value="it" />
                    <node concept="2jxLKc" id="4PRmqZe_oxE" role="1tU5fm" />
                  </node>
                </node>
              </node>
            </node>
            <node concept="3$u5V9" id="4PRmqZe_oxF" role="2OqNvi">
              <node concept="1bVj0M" id="4PRmqZe_oxG" role="23t8la">
                <node concept="3clFbS" id="4PRmqZe_oxH" role="1bW5cS">
                  <node concept="3clFbF" id="4PRmqZe_oxI" role="3cqZAp">
                    <node concept="2OqwBi" id="4PRmqZe_oxJ" role="3clFbG">
                      <node concept="37vLTw" id="4PRmqZe_oxK" role="2Oq$k0">
                        <ref role="3cqZAo" node="4PRmqZe_oxM" resolve="it" />
                      </node>
                      <node concept="2qgKlT" id="4PRmqZe_oxL" role="2OqNvi">
                        <ref role="37wK5l" to="tp4s:112RIkgil0h" resolve="getFieldDeclaration" />
                      </node>
                    </node>
                  </node>
                </node>
                <node concept="Rh6nW" id="4PRmqZe_oxM" role="1bW2Oz">
                  <property role="TrG5h" value="it" />
                  <node concept="2jxLKc" id="4PRmqZe_oxN" role="1tU5fm" />
                </node>
              </node>
            </node>
          </node>
        </node>
      </node>
      <node concept="3cpWs8" id="4PRmqZe_oxO" role="3cqZAp">
        <node concept="3cpWsn" id="4PRmqZe_oxP" role="3cpWs9">
          <property role="TrG5h" value="passedParameters" />
          <node concept="A3Dl8" id="4PRmqZe_oxQ" role="1tU5fm">
            <node concept="3Tqbb2" id="4PRmqZe_oxR" role="A3Ik2">
              <ref role="ehGHo" to="tpee:f$Wx3kv" resolve="StaticFieldDeclaration" />
            </node>
          </node>
          <node concept="2OqwBi" id="4PRmqZe_oxS" role="33vP2m">
            <node concept="2OqwBi" id="4PRmqZe_oxT" role="2Oq$k0">
              <node concept="1YBJjd" id="4PRmqZe_oxU" role="2Oq$k0">
                <ref role="1YBMHb" node="4PRmqZe_oyt" resolve="callAction" />
              </node>
              <node concept="3Tsc0h" id="4PRmqZe_oxV" role="2OqNvi">
                <ref role="3TtcxE" to="caxt:4PRmqZe_ouJ" />
              </node>
            </node>
            <node concept="3$u5V9" id="4PRmqZe_oxW" role="2OqNvi">
              <node concept="1bVj0M" id="4PRmqZe_oxX" role="23t8la">
                <node concept="3clFbS" id="4PRmqZe_oxY" role="1bW5cS">
                  <node concept="3clFbF" id="4PRmqZe_oxZ" role="3cqZAp">
                    <node concept="2OqwBi" id="4PRmqZe_oy0" role="3clFbG">
                      <node concept="37vLTw" id="4PRmqZe_oy1" role="2Oq$k0">
                        <ref role="3cqZAo" node="4PRmqZe_oy3" resolve="it" />
                      </node>
                      <node concept="2qgKlT" id="4PRmqZe_oy2" role="2OqNvi">
                        <ref role="37wK5l" to="2u9t:4PRmqZe_o$D" resolve="getParameterDeclaration" />
                      </node>
                    </node>
                  </node>
                </node>
                <node concept="Rh6nW" id="4PRmqZe_oy3" role="1bW2Oz">
                  <property role="TrG5h" value="it" />
                  <node concept="2jxLKc" id="4PRmqZe_oy4" role="1tU5fm" />
                </node>
              </node>
            </node>
          </node>
        </node>
      </node>
      <node concept="3cpWs8" id="4PRmqZe_oy5" role="3cqZAp">
        <node concept="3cpWsn" id="4PRmqZe_oy6" role="3cpWs9">
          <property role="TrG5h" value="missed" />
          <node concept="A3Dl8" id="4PRmqZe_oy7" role="1tU5fm">
            <node concept="3Tqbb2" id="4PRmqZe_oy8" role="A3Ik2">
              <ref role="ehGHo" to="tpee:f$Wx3kv" resolve="StaticFieldDeclaration" />
            </node>
          </node>
          <node concept="2OqwBi" id="4PRmqZe_oy9" role="33vP2m">
            <node concept="37vLTw" id="4PRmqZe_oya" role="2Oq$k0">
              <ref role="3cqZAo" node="4PRmqZe_oxd" resolve="requiredParameters" />
            </node>
            <node concept="66VNe" id="4PRmqZe_oyb" role="2OqNvi">
              <node concept="37vLTw" id="4PRmqZe_oyc" role="576Qk">
                <ref role="3cqZAo" node="4PRmqZe_oxP" resolve="passedParameters" />
              </node>
            </node>
          </node>
        </node>
      </node>
      <node concept="3clFbJ" id="4PRmqZe_oyd" role="3cqZAp">
        <node concept="3clFbS" id="4PRmqZe_oye" role="3clFbx">
          <node concept="2MkqsV" id="4PRmqZe_oyf" role="3cqZAp">
            <node concept="3cpWs3" id="4PRmqZe_oyg" role="2MkJ7o">
              <node concept="Xl_RD" id="4PRmqZe_oyh" role="3uHU7w">
                <property role="Xl_RC" value=" is required" />
              </node>
              <node concept="3cpWs3" id="4PRmqZe_oyi" role="3uHU7B">
                <node concept="Xl_RD" id="4PRmqZe_oyj" role="3uHU7B">
                  <property role="Xl_RC" value="Parameter " />
                </node>
                <node concept="2OqwBi" id="4PRmqZe_oyk" role="3uHU7w">
                  <node concept="2OqwBi" id="4PRmqZe_oyl" role="2Oq$k0">
                    <node concept="37vLTw" id="4PRmqZe_oym" role="2Oq$k0">
                      <ref role="3cqZAo" node="4PRmqZe_oy6" resolve="missed" />
                    </node>
                    <node concept="1uHKPH" id="4PRmqZe_oyn" role="2OqNvi" />
                  </node>
                  <node concept="2qgKlT" id="4PRmqZe_oyo" role="2OqNvi">
                    <ref role="37wK5l" to="tpcu:hEwIO9y" resolve="getFqName" />
                  </node>
                </node>
              </node>
            </node>
            <node concept="1YBJjd" id="4PRmqZe_oyp" role="2OEOjV">
              <ref role="1YBMHb" node="4PRmqZe_oyt" resolve="callAction" />
            </node>
          </node>
        </node>
        <node concept="2OqwBi" id="4PRmqZe_oyq" role="3clFbw">
          <node concept="37vLTw" id="4PRmqZe_oyr" role="2Oq$k0">
            <ref role="3cqZAo" node="4PRmqZe_oy6" resolve="missed" />
          </node>
          <node concept="3GX2aA" id="4PRmqZe_oys" role="2OqNvi" />
        </node>
      </node>
    </node>
    <node concept="1YaCAy" id="4PRmqZe_oyt" role="1YuTPh">
      <property role="TrG5h" value="callAction" />
      <ref role="1YaFvo" to="caxt:4PRmqZe_ouH" resolve="CallActionExpression" />
    </node>
  </node>
  <node concept="1YbPZF" id="4PRmqZe_oyu">
    <property role="TrG5h" value="typeof_ModelProperties" />
    <property role="3GE5qa" value="expression.callAction" />
    <node concept="3clFbS" id="4PRmqZe_oyv" role="18ibNy">
      <node concept="1Z5TYs" id="4PRmqZe_oyw" role="3cqZAp">
        <node concept="mw_s8" id="4PRmqZe_oyx" role="1ZfhKB">
          <node concept="2c44tf" id="4PRmqZe_oyy" role="mwGJk">
            <node concept="3cqZAl" id="4PRmqZe_oyz" role="2c44tc" />
          </node>
        </node>
        <node concept="mw_s8" id="4PRmqZe_oy$" role="1ZfhK$">
          <node concept="1Z2H0r" id="4PRmqZe_oy_" role="mwGJk">
            <node concept="1YBJjd" id="4PRmqZe_oyA" role="1Z2MuG">
              <ref role="1YBMHb" node="4PRmqZe_oyK" resolve="modelProperties" />
            </node>
          </node>
        </node>
      </node>
      <node concept="1Z5TYs" id="4PRmqZe_oyB" role="3cqZAp">
        <property role="3wDh2S" value="true" />
        <node concept="mw_s8" id="4PRmqZe_oyC" role="1ZfhKB">
          <node concept="2c44tf" id="4PRmqZe_oyD" role="mwGJk">
            <node concept="H_c77" id="4PRmqZe_oyE" role="2c44tc" />
          </node>
        </node>
        <node concept="mw_s8" id="4PRmqZe_oyF" role="1ZfhK$">
          <node concept="1Z2H0r" id="4PRmqZe_oyG" role="mwGJk">
            <node concept="2OqwBi" id="4PRmqZe_oyH" role="1Z2MuG">
              <node concept="1YBJjd" id="4PRmqZe_oyI" role="2Oq$k0">
                <ref role="1YBMHb" node="4PRmqZe_oyK" resolve="modelProperties" />
              </node>
              <node concept="3TrEf2" id="4PRmqZe_oyJ" role="2OqNvi">
                <ref role="3Tt5mk" to="caxt:4PRmqZe_ouL" />
              </node>
            </node>
          </node>
        </node>
      </node>
    </node>
    <node concept="1YaCAy" id="4PRmqZe_oyK" role="1YuTPh">
      <property role="TrG5h" value="modelProperties" />
      <ref role="1YaFvo" to="caxt:4PRmqZe_ouK" resolve="ModelProperties" />
    </node>
  </node>
  <node concept="1YbPZF" id="4PRmqZe_oyL">
    <property role="TrG5h" value="typeof_CallAction" />
    <property role="3GE5qa" value="expression.callAction" />
    <node concept="3clFbS" id="4PRmqZe_oyM" role="18ibNy">
      <node concept="1Z5TYs" id="4PRmqZe_oyN" role="3cqZAp">
        <node concept="mw_s8" id="4PRmqZe_oyO" role="1ZfhKB">
          <node concept="2c44tf" id="4PRmqZe_oyP" role="mwGJk">
            <node concept="3cqZAl" id="4PRmqZe_oyQ" role="2c44tc" />
          </node>
        </node>
        <node concept="mw_s8" id="4PRmqZe_oyR" role="1ZfhK$">
          <node concept="1Z2H0r" id="4PRmqZe_oyS" role="mwGJk">
            <node concept="1YBJjd" id="4PRmqZe_oyT" role="1Z2MuG">
              <ref role="1YBMHb" node="4PRmqZe_oyU" resolve="callAction" />
            </node>
          </node>
        </node>
      </node>
    </node>
    <node concept="1YaCAy" id="4PRmqZe_oyU" role="1YuTPh">
      <property role="TrG5h" value="callAction" />
      <ref role="1YaFvo" to="caxt:4PRmqZe_ouH" resolve="CallActionExpression" />
    </node>
  </node>
  <node concept="1YbPZF" id="4PRmqZe_oyV">
    <property role="TrG5h" value="typeof_ModuleProperties" />
    <property role="3GE5qa" value="expression.callAction" />
    <node concept="3clFbS" id="4PRmqZe_oyW" role="18ibNy">
      <node concept="1Z5TYs" id="4PRmqZe_oyX" role="3cqZAp">
        <node concept="mw_s8" id="4PRmqZe_oyY" role="1ZfhKB">
          <node concept="2c44tf" id="4PRmqZe_oyZ" role="mwGJk">
            <node concept="3cqZAl" id="4PRmqZe_oz0" role="2c44tc" />
          </node>
        </node>
        <node concept="mw_s8" id="4PRmqZe_oz1" role="1ZfhK$">
          <node concept="1Z2H0r" id="4PRmqZe_oz2" role="mwGJk">
            <node concept="1YBJjd" id="4PRmqZe_oz3" role="1Z2MuG">
              <ref role="1YBMHb" node="4PRmqZe_ozd" resolve="moduleProperties" />
            </node>
          </node>
        </node>
      </node>
      <node concept="1Z5TYs" id="4PRmqZe_oz4" role="3cqZAp">
        <property role="3wDh2S" value="true" />
        <node concept="mw_s8" id="4PRmqZe_oz5" role="1ZfhKB">
          <node concept="2c44tf" id="4PRmqZe_oz6" role="mwGJk">
            <node concept="3uibUv" id="4PRmqZe_oz7" role="2c44tc">
              <ref role="3uigEE" to="lui2:~SModule" resolve="SModule" />
            </node>
          </node>
        </node>
        <node concept="mw_s8" id="4PRmqZe_oz8" role="1ZfhK$">
          <node concept="1Z2H0r" id="4PRmqZe_oz9" role="mwGJk">
            <node concept="2OqwBi" id="4PRmqZe_oza" role="1Z2MuG">
              <node concept="1YBJjd" id="4PRmqZe_ozb" role="2Oq$k0">
                <ref role="1YBMHb" node="4PRmqZe_ozd" resolve="moduleProperties" />
              </node>
              <node concept="3TrEf2" id="4PRmqZe_ozc" role="2OqNvi">
                <ref role="3Tt5mk" to="caxt:4PRmqZe_ouO" />
              </node>
            </node>
          </node>
        </node>
      </node>
    </node>
    <node concept="1YaCAy" id="4PRmqZe_ozd" role="1YuTPh">
      <property role="TrG5h" value="moduleProperties" />
      <ref role="1YaFvo" to="caxt:4PRmqZe_ouN" resolve="ModuleProperties" />
    </node>
  </node>
  <node concept="1YbPZF" id="2tFdLTRKaC4">
    <property role="TrG5h" value="typeof_AbsractMake" />
    <property role="3GE5qa" value="make" />
    <node concept="3clFbS" id="2tFdLTRKaC5" role="18ibNy">
      <node concept="1Z5TYs" id="2tFdLTRKaJ5" role="3cqZAp">
        <node concept="mw_s8" id="2tFdLTRKaJ6" role="1ZfhKB">
          <node concept="2c44tf" id="2tFdLTRKaJ7" role="mwGJk">
            <node concept="3cqZAl" id="2tFdLTRKaJ8" role="2c44tc" />
          </node>
        </node>
        <node concept="mw_s8" id="2tFdLTRKaJ9" role="1ZfhK$">
          <node concept="1Z2H0r" id="2tFdLTRKaJa" role="mwGJk">
            <node concept="1YBJjd" id="2tFdLTRKaSs" role="1Z2MuG">
              <ref role="1YBMHb" node="2tFdLTRKaC7" resolve="absractMake" />
            </node>
          </node>
        </node>
      </node>
      <node concept="1ZxtTE" id="127aYrrKmv0" role="3cqZAp">
        <property role="TrG5h" value="v" />
      </node>
      <node concept="1ZobV4" id="2tFdLTRKaJi" role="3cqZAp">
        <node concept="mw_s8" id="2tFdLTRKaJj" role="1ZfhK$">
          <node concept="1Z2H0r" id="2tFdLTRKaJk" role="mwGJk">
            <node concept="2OqwBi" id="4AHaCIo6UGx" role="1Z2MuG">
              <node concept="1YBJjd" id="4AHaCIo6UDo" role="2Oq$k0">
                <ref role="1YBMHb" node="2tFdLTRKaC7" resolve="absractMake" />
              </node>
              <node concept="3TrEf2" id="4AHaCIo6V9r" role="2OqNvi">
                <ref role="3Tt5mk" to="caxt:2tFdLTRKabK" />
              </node>
            </node>
          </node>
        </node>
        <node concept="mw_s8" id="2tFdLTRKaJm" role="1ZfhKB">
          <node concept="2c44tf" id="2tFdLTRKaJn" role="mwGJk">
            <node concept="2usRSg" id="2tFdLTRKaJo" role="2c44tc">
              <node concept="3uibUv" id="2tFdLTRKaJs" role="2usUpS">
                <ref role="3uigEE" to="lui2:~SModule" resolve="SModule" />
                <node concept="2c44te" id="127aYrrKmvN" role="lGtFl">
                  <node concept="1Z$b5t" id="127aYrrKmw7" role="2c44t1">
                    <ref role="1Z$eMM" node="127aYrrKmv0" resolve="v" />
                  </node>
                </node>
              </node>
              <node concept="A3Dl8" id="2tFdLTRKaJt" role="2usUpS">
                <node concept="3qTvmN" id="127aYrrKmuk" role="A3Ik2">
                  <node concept="2c44te" id="127aYrrKmun" role="lGtFl">
                    <node concept="1Z$b5t" id="127aYrrKmvA" role="2c44t1">
                      <ref role="1Z$eMM" node="127aYrrKmv0" resolve="v" />
                    </node>
                  </node>
                </node>
              </node>
            </node>
          </node>
        </node>
      </node>
      <node concept="1ZobV4" id="127aYrrKmBR" role="3cqZAp">
        <node concept="mw_s8" id="127aYrrKmC$" role="1ZfhKB">
          <node concept="2c44tf" id="127aYrrKmCw" role="mwGJk">
            <node concept="2usRSg" id="127aYrrKmD5" role="2c44tc">
              <node concept="3uibUv" id="127aYrrKmDE" role="2usUpS">
                <ref role="3uigEE" to="lui2:~SModule" resolve="SModule" />
              </node>
              <node concept="H_c77" id="127aYrrKmEV" role="2usUpS" />
            </node>
          </node>
        </node>
        <node concept="mw_s8" id="127aYrrKmBU" role="1ZfhK$">
          <node concept="1Z$b5t" id="127aYrrKmxL" role="mwGJk">
            <ref role="1Z$eMM" node="127aYrrKmv0" resolve="v" />
          </node>
        </node>
      </node>
    </node>
    <node concept="1YaCAy" id="2tFdLTRKaC7" role="1YuTPh">
      <property role="TrG5h" value="absractMake" />
      <ref role="1YaFvo" to="caxt:2tFdLTRKaaq" resolve="AbsractMake" />
    </node>
  </node>
  <node concept="1YbPZF" id="59iQg8rzHxh">
    <property role="TrG5h" value="typeof_OfAspectOperation" />
    <node concept="3clFbS" id="59iQg8rzHxi" role="18ibNy">
      <node concept="1ZoDhX" id="2rpbYG7pQr4" role="3cqZAp">
        <property role="3wDh2S" value="false" />
        <node concept="mw_s8" id="2rpbYG7pQr6" role="1ZfhK$">
          <node concept="2c44tf" id="2rpbYG7pQr7" role="mwGJk">
            <node concept="A3Dl8" id="59iQg8rzIl2" role="2c44tc">
              <node concept="H_c77" id="59iQg8rzIlW" role="A3Ik2" />
            </node>
          </node>
        </node>
        <node concept="mw_s8" id="2rpbYG7pQrc" role="1ZfhKB">
          <node concept="1Z2H0r" id="2rpbYG7pQrd" role="mwGJk">
            <node concept="2OqwBi" id="2rpbYG7pQre" role="1Z2MuG">
              <node concept="1YBJjd" id="59iQg8rzHWS" role="2Oq$k0">
                <ref role="1YBMHb" node="59iQg8rzHxk" resolve="ofAspectOperation" />
              </node>
              <node concept="2qgKlT" id="2rpbYG7pQrg" role="2OqNvi">
                <ref role="37wK5l" to="tpek:hEwIP$m" resolve="getOperand" />
              </node>
            </node>
          </node>
        </node>
      </node>
      <node concept="1Z5TYs" id="hz1N4AP" role="3cqZAp">
        <node concept="mw_s8" id="hz1N55C" role="1ZfhK$">
          <node concept="1Z2H0r" id="hz1N55D" role="mwGJk">
            <node concept="1YBJjd" id="59iQg8rzI5G" role="1Z2MuG">
              <ref role="1YBMHb" node="59iQg8rzHxk" resolve="ofAspectOperation" />
            </node>
          </node>
        </node>
        <node concept="mw_s8" id="hz1N6aE" role="1ZfhKB">
          <node concept="2c44tf" id="hz1N6aF" role="mwGJk">
            <node concept="A3Dl8" id="59iQg8rzIzX" role="2c44tc">
              <node concept="H_c77" id="59iQg8rzI$S" role="A3Ik2" />
            </node>
          </node>
        </node>
      </node>
    </node>
    <node concept="1YaCAy" id="59iQg8rzHxk" role="1YuTPh">
      <property role="TrG5h" value="ofAspectOperation" />
      <ref role="1YaFvo" to="caxt:59iQg8ryOmC" resolve="OfAspectOperation" />
    </node>
  </node>
  <node concept="1YbPZF" id="6_TW7xV9dnY">
    <property role="TrG5h" value="typeof_ShowExpression" />
    <property role="3GE5qa" value="" />
    <node concept="3clFbS" id="6_TW7xV9dnZ" role="18ibNy">
      <node concept="1Z5TYs" id="6_TW7xV9dwz" role="3cqZAp">
        <node concept="mw_s8" id="6_TW7xV9dxK" role="1ZfhKB">
          <node concept="2c44tf" id="6_TW7xV9dxG" role="mwGJk">
            <node concept="3cqZAl" id="6_TW7xV9dyt" role="2c44tc" />
          </node>
        </node>
        <node concept="mw_s8" id="6_TW7xV9dwA" role="1ZfhK$">
          <node concept="1Z2H0r" id="6_TW7xV9dpk" role="mwGJk">
            <node concept="1YBJjd" id="6_TW7xV9dpZ" role="1Z2MuG">
              <ref role="1YBMHb" node="6_TW7xV9do1" resolve="showExpression" />
            </node>
          </node>
        </node>
      </node>
      <node concept="1ZxtTE" id="1rQJladTemf" role="3cqZAp">
        <property role="TrG5h" value="Concept" />
      </node>
      <node concept="1ZobV4" id="6_TW7xVwwFu" role="3cqZAp">
        <property role="3wDh2S" value="true" />
        <node concept="mw_s8" id="6_TW7xVwwFx" role="1ZfhK$">
          <node concept="1Z2H0r" id="6_TW7xVwuDy" role="mwGJk">
            <node concept="2OqwBi" id="6_TW7xVwvF7" role="1Z2MuG">
              <node concept="1YBJjd" id="6_TW7xVwuEm" role="2Oq$k0">
                <ref role="1YBMHb" node="6_TW7xV9do1" resolve="showExpression" />
              </node>
              <node concept="3TrEf2" id="6_TW7xVwwtZ" role="2OqNvi">
                <ref role="3Tt5mk" to="caxt:6_TW7xVwuxP" />
              </node>
            </node>
          </node>
        </node>
        <node concept="mw_s8" id="6_TW7xVwwOK" role="1ZfhKB">
          <node concept="2c44tf" id="6_TW7xVwwOL" role="mwGJk">
            <node concept="2usRSg" id="6_TW7xVwwOM" role="2c44tc">
              <node concept="A3Dl8" id="6_TW7xVwwON" role="2usUpS">
                <node concept="3Tqbb2" id="6_TW7xVwwOO" role="A3Ik2">
                  <node concept="2c44tb" id="1rQJladTel_" role="lGtFl">
                    <property role="P3scX" value="7866978e-a0f0-4cc7-81bc-4d213d9375e1/1138055754698/1138405853777" />
                    <property role="2qtEX8" value="concept" />
                    <node concept="1Z$b5t" id="1rQJladTemV" role="2c44t1">
                      <ref role="1Z$eMM" node="1rQJladTemf" resolve="Concept" />
                    </node>
                  </node>
                </node>
              </node>
              <node concept="A3Dl8" id="6_TW7xVwwOP" role="2usUpS">
                <node concept="2z4iKi" id="6_TW7xVwwOQ" role="A3Ik2" />
              </node>
              <node concept="A3Dl8" id="6_TW7xVwwOR" role="2usUpS">
                <node concept="H_c77" id="6_TW7xVwwOS" role="A3Ik2" />
              </node>
              <node concept="A3Dl8" id="6_TW7xVwwOT" role="2usUpS">
                <node concept="3uibUv" id="6_TW7xVwwOU" role="A3Ik2">
                  <ref role="3uigEE" to="lui2:~SModule" resolve="SModule" />
                </node>
              </node>
            </node>
          </node>
        </node>
      </node>
    </node>
    <node concept="1YaCAy" id="6_TW7xV9do1" role="1YuTPh">
      <property role="TrG5h" value="showExpression" />
      <ref role="1YaFvo" to="caxt:7mV0m3L$tuv" resolve="ShowExpression" />
    </node>
  </node>
</model>

