<?xml version="1.0" encoding="UTF-8"?>
<model ref="r:9671f46e-60f3-401c-9c47-99bb337f72bd(jetbrains.mps.baseLanguage.javadoc.actions)">
  <persistence version="9" />
  <languages>
    <use id="aee9cad2-acd4-4608-aef2-0004f6a1cdbd" name="jetbrains.mps.lang.actions" version="0" />
    <use id="13744753-c81f-424a-9c1b-cf8943bf4e86" name="jetbrains.mps.lang.sharedConcepts" version="0" />
    <use id="18bc6592-03a6-4e29-a83a-7ff23bde13ba" name="jetbrains.mps.lang.editor" version="3" />
    <devkit ref="fbc25dd2-5da4-483a-8b19-70928e1b62d7(jetbrains.mps.devkit.general-purpose)" />
  </languages>
  <imports>
    <import index="m373" ref="r:4095af4f-a097-4799-aaa9-03df087ddfa6(jetbrains.mps.baseLanguage.javadoc.structure)" />
    <import index="serg" ref="r:87ed07dc-bdb2-44c5-8db4-8d5a74e959ff(jetbrains.mps.baseLanguage.javadoc.editor)" />
    <import index="tpee" ref="r:00000000-0000-4000-0000-011c895902ca(jetbrains.mps.baseLanguage.structure)" implicit="true" />
    <import index="tpek" ref="r:00000000-0000-4000-0000-011c895902c0(jetbrains.mps.baseLanguage.behavior)" implicit="true" />
    <import index="cj4x" ref="1ed103c3-3aa6-49b7-9c21-6765ee11f224/java:jetbrains.mps.openapi.editor(MPS.Editor/)" implicit="true" />
  </imports>
  <registry>
    <language id="13744753-c81f-424a-9c1b-cf8943bf4e86" name="jetbrains.mps.lang.sharedConcepts">
      <concept id="1194033889146" name="jetbrains.mps.lang.sharedConcepts.structure.ConceptFunctionParameter_editorContext" flags="nn" index="1XNTG" />
    </language>
    <language id="f3061a53-9226-4cc5-a443-f952ceaf5816" name="jetbrains.mps.baseLanguage">
      <concept id="1215693861676" name="jetbrains.mps.baseLanguage.structure.BaseAssignmentExpression" flags="nn" index="d038R">
        <child id="1068498886297" name="rValue" index="37vLTx" />
        <child id="1068498886295" name="lValue" index="37vLTJ" />
      </concept>
      <concept id="4836112446988635817" name="jetbrains.mps.baseLanguage.structure.UndefinedType" flags="in" index="2jxLKc" />
      <concept id="1202948039474" name="jetbrains.mps.baseLanguage.structure.InstanceMethodCallOperation" flags="nn" index="liA8E" />
      <concept id="1197027756228" name="jetbrains.mps.baseLanguage.structure.DotExpression" flags="nn" index="2OqwBi">
        <child id="1197027771414" name="operand" index="2Oq$k0" />
        <child id="1197027833540" name="operation" index="2OqNvi" />
      </concept>
      <concept id="1145552977093" name="jetbrains.mps.baseLanguage.structure.GenericNewExpression" flags="nn" index="2ShNRf">
        <child id="1145553007750" name="creator" index="2ShVmc" />
      </concept>
      <concept id="1137021947720" name="jetbrains.mps.baseLanguage.structure.ConceptFunction" flags="in" index="2VMwT0">
        <child id="1137022507850" name="body" index="2VODD2" />
      </concept>
      <concept id="1070475926800" name="jetbrains.mps.baseLanguage.structure.StringLiteral" flags="nn" index="Xl_RD">
        <property id="1070475926801" name="value" index="Xl_RC" />
      </concept>
      <concept id="1081236700937" name="jetbrains.mps.baseLanguage.structure.StaticMethodCall" flags="nn" index="2YIFZM">
        <reference id="1144433194310" name="classConcept" index="1Pybhc" />
      </concept>
      <concept id="1070534058343" name="jetbrains.mps.baseLanguage.structure.NullLiteral" flags="nn" index="10Nm6u" />
      <concept id="1070534644030" name="jetbrains.mps.baseLanguage.structure.BooleanType" flags="in" index="10P_77" />
      <concept id="1068431474542" name="jetbrains.mps.baseLanguage.structure.VariableDeclaration" flags="ng" index="33uBYm">
        <child id="1068431790190" name="initializer" index="33vP2m" />
      </concept>
      <concept id="1068498886296" name="jetbrains.mps.baseLanguage.structure.VariableReference" flags="nn" index="37vLTw">
        <reference id="1068581517664" name="variableDeclaration" index="3cqZAo" />
      </concept>
      <concept id="1068498886294" name="jetbrains.mps.baseLanguage.structure.AssignmentExpression" flags="nn" index="37vLTI" />
      <concept id="1225271177708" name="jetbrains.mps.baseLanguage.structure.StringType" flags="in" index="17QB3L" />
      <concept id="1225271283259" name="jetbrains.mps.baseLanguage.structure.NPEEqualsExpression" flags="nn" index="17R0WA" />
      <concept id="4972933694980447171" name="jetbrains.mps.baseLanguage.structure.BaseVariableDeclaration" flags="ng" index="19Szcq">
        <child id="5680397130376446158" name="type" index="1tU5fm" />
      </concept>
      <concept id="1068580123155" name="jetbrains.mps.baseLanguage.structure.ExpressionStatement" flags="nn" index="3clFbF">
        <child id="1068580123156" name="expression" index="3clFbG" />
      </concept>
      <concept id="1068580123157" name="jetbrains.mps.baseLanguage.structure.Statement" flags="nn" index="3clFbH" />
      <concept id="1068580123159" name="jetbrains.mps.baseLanguage.structure.IfStatement" flags="nn" index="3clFbJ">
        <child id="1068580123160" name="condition" index="3clFbw" />
        <child id="1068580123161" name="ifTrue" index="3clFbx" />
        <child id="1206060520071" name="elsifClauses" index="3eNLev" />
      </concept>
      <concept id="1068580123136" name="jetbrains.mps.baseLanguage.structure.StatementList" flags="sn" stub="5293379017992965193" index="3clFbS">
        <child id="1068581517665" name="statement" index="3cqZAp" />
      </concept>
      <concept id="1068581242864" name="jetbrains.mps.baseLanguage.structure.LocalVariableDeclarationStatement" flags="nn" index="3cpWs8">
        <child id="1068581242865" name="localVariableDeclaration" index="3cpWs9" />
      </concept>
      <concept id="1068581242863" name="jetbrains.mps.baseLanguage.structure.LocalVariableDeclaration" flags="nr" index="3cpWsn" />
      <concept id="1206060495898" name="jetbrains.mps.baseLanguage.structure.ElsifClause" flags="ng" index="3eNFk2">
        <child id="1206060619838" name="condition" index="3eO9$A" />
        <child id="1206060644605" name="statementList" index="3eOfB_" />
      </concept>
      <concept id="1204053956946" name="jetbrains.mps.baseLanguage.structure.IMethodCall" flags="ng" index="1ndlxa">
        <reference id="1068499141037" name="baseMethodDeclaration" index="37wK5l" />
        <child id="1068499141038" name="actualArgument" index="37wK5m" />
      </concept>
      <concept id="1081773326031" name="jetbrains.mps.baseLanguage.structure.BinaryOperation" flags="nn" index="3uHJSO">
        <child id="1081773367579" name="rightExpression" index="3uHU7w" />
        <child id="1081773367580" name="leftExpression" index="3uHU7B" />
      </concept>
      <concept id="1073239437375" name="jetbrains.mps.baseLanguage.structure.NotEqualsExpression" flags="nn" index="3y3z36" />
      <concept id="1080120340718" name="jetbrains.mps.baseLanguage.structure.AndExpression" flags="nn" index="1Wc70l" />
    </language>
    <language id="fd392034-7849-419d-9071-12563d152375" name="jetbrains.mps.baseLanguage.closures">
      <concept id="1199569711397" name="jetbrains.mps.baseLanguage.closures.structure.ClosureLiteral" flags="nn" index="1bVj0M">
        <child id="1199569906740" name="parameter" index="1bW2Oz" />
        <child id="1199569916463" name="body" index="1bW5cS" />
      </concept>
    </language>
    <language id="aee9cad2-acd4-4608-aef2-0004f6a1cdbd" name="jetbrains.mps.lang.actions">
      <concept id="1177323996388" name="jetbrains.mps.lang.actions.structure.AddMenuPart" flags="ng" index="tYCnQ" />
      <concept id="1177333529597" name="jetbrains.mps.lang.actions.structure.ConceptPart" flags="ng" index="uyZFJ">
        <reference id="1177333551023" name="concept" index="uz4UX" />
        <child id="1177333559040" name="part" index="uz6Si" />
      </concept>
      <concept id="1177337833147" name="jetbrains.mps.lang.actions.structure.ConceptFunctionParameter_parameterObject" flags="nn" index="uNquD" />
      <concept id="1177497140107" name="jetbrains.mps.lang.actions.structure.ConceptFunctionParameter_sourceNode" flags="nn" index="Cj7Ep" />
      <concept id="1177508764419" name="jetbrains.mps.lang.actions.structure.ParameterizedSideTransformMenuPart" flags="ng" index="CZtCh">
        <child id="1177508914797" name="type" index="D02tZ" />
        <child id="1177508922313" name="query" index="D04br" />
        <child id="1177508966300" name="handler" index="D0eUe" />
      </concept>
      <concept id="1177508842676" name="jetbrains.mps.lang.actions.structure.QueryFunction_ParameterizedSideTransform_Query" flags="in" index="CZKQA" />
      <concept id="1177509289232" name="jetbrains.mps.lang.actions.structure.QueryFunction_ParameterizedSideTransform_Handler" flags="in" index="D1tK2" />
      <concept id="767145758118872833" name="jetbrains.mps.lang.actions.structure.NF_LinkList_AddNewChildOperation" flags="nn" index="2DeJg1" />
      <concept id="1138079221458" name="jetbrains.mps.lang.actions.structure.SideTransformHintSubstituteActionsBuilder" flags="ig" index="3UNGvq">
        <property id="1215605257730" name="side" index="7I3sp" />
        <reference id="1138079221462" name="applicableConcept" index="3UNGvu" />
        <child id="1177442283389" name="part" index="_1QTJ" />
      </concept>
      <concept id="1138079416598" name="jetbrains.mps.lang.actions.structure.SideTransformHintSubstituteActions" flags="ng" index="3UOs0u">
        <child id="1138079416599" name="actionsBuilder" index="3UOs0v" />
      </concept>
    </language>
    <language id="7866978e-a0f0-4cc7-81bc-4d213d9375e1" name="jetbrains.mps.lang.smodel">
      <concept id="1177026924588" name="jetbrains.mps.lang.smodel.structure.RefConcept_Reference" flags="nn" index="chp4Y">
        <reference id="1177026940964" name="conceptDeclaration" index="cht4Q" />
      </concept>
      <concept id="1138411891628" name="jetbrains.mps.lang.smodel.structure.SNodeOperation" flags="nn" index="eCIE_">
        <child id="1144104376918" name="parameter" index="1xVPHs" />
      </concept>
      <concept id="1179409122411" name="jetbrains.mps.lang.smodel.structure.Node_ConceptMethodCall" flags="nn" index="2qgKlT" />
      <concept id="1139184414036" name="jetbrains.mps.lang.smodel.structure.LinkList_AddNewChildOperation" flags="nn" index="WFELt">
        <reference id="1139877738879" name="concept" index="1A0vxQ" />
      </concept>
      <concept id="1171407110247" name="jetbrains.mps.lang.smodel.structure.Node_GetAncestorOperation" flags="nn" index="2Xjw5R" />
      <concept id="1139621453865" name="jetbrains.mps.lang.smodel.structure.Node_IsInstanceOfOperation" flags="nn" index="1mIQ4w">
        <child id="1177027386292" name="conceptArgument" index="cj9EA" />
      </concept>
      <concept id="1144101972840" name="jetbrains.mps.lang.smodel.structure.OperationParm_Concept" flags="ng" index="1xMEDy">
        <child id="1207343664468" name="conceptArgument" index="ri$Ld" />
      </concept>
      <concept id="1138055754698" name="jetbrains.mps.lang.smodel.structure.SNodeType" flags="in" index="3Tqbb2">
        <reference id="1138405853777" name="concept" index="ehGHo" />
      </concept>
      <concept id="1138056022639" name="jetbrains.mps.lang.smodel.structure.SPropertyAccess" flags="nn" index="3TrcHB">
        <reference id="1138056395725" name="property" index="3TsBF5" />
      </concept>
      <concept id="1138056282393" name="jetbrains.mps.lang.smodel.structure.SLinkListAccess" flags="nn" index="3Tsc0h">
        <reference id="1138056546658" name="link" index="3TtcxE" />
      </concept>
    </language>
    <language id="ceab5195-25ea-4f22-9b92-103b95ca8c0c" name="jetbrains.mps.lang.core">
      <concept id="1169194658468" name="jetbrains.mps.lang.core.structure.INamedConcept" flags="ng" index="TrEIO">
        <property id="1169194664001" name="name" index="TrG5h" />
      </concept>
    </language>
    <language id="83888646-71ce-4f1c-9c53-c54016f6ad4f" name="jetbrains.mps.baseLanguage.collections">
      <concept id="1204796164442" name="jetbrains.mps.baseLanguage.collections.structure.InternalSequenceOperation" flags="nn" index="23sCx2">
        <child id="1204796294226" name="closure" index="23t8la" />
      </concept>
      <concept id="540871147943773365" name="jetbrains.mps.baseLanguage.collections.structure.SingleArgumentSequenceOperation" flags="nn" index="25WWJ4">
        <child id="540871147943773366" name="argument" index="25WWJ7" />
      </concept>
      <concept id="1151688443754" name="jetbrains.mps.baseLanguage.collections.structure.ListType" flags="in" index="_YKpA">
        <child id="1151688676805" name="elementType" index="_ZDj9" />
      </concept>
      <concept id="1237721394592" name="jetbrains.mps.baseLanguage.collections.structure.AbstractContainerCreator" flags="nn" index="HWqM0">
        <child id="1237721435808" name="initValue" index="HW$Y0" />
        <child id="1237721435807" name="elementType" index="HW$YZ" />
      </concept>
      <concept id="1203518072036" name="jetbrains.mps.baseLanguage.collections.structure.SmartClosureParameterDeclaration" flags="ig" index="Rh6nW" />
      <concept id="1160600644654" name="jetbrains.mps.baseLanguage.collections.structure.ListCreatorWithInit" flags="nn" index="Tc6Ow" />
      <concept id="1160612413312" name="jetbrains.mps.baseLanguage.collections.structure.AddElementOperation" flags="nn" index="TSZUe" />
      <concept id="1165525191778" name="jetbrains.mps.baseLanguage.collections.structure.GetFirstOperation" flags="nn" index="1uHKPH" />
      <concept id="1202120902084" name="jetbrains.mps.baseLanguage.collections.structure.WhereOperation" flags="nn" index="3zZkjj" />
    </language>
  </registry>
  <node concept="3UOs0u" id="2jmmsyJvDt4">
    <property role="TrG5h" value="AddDocTags" />
    <node concept="3UNGvq" id="2jmmsyJvDt5" role="3UOs0v">
      <property role="7I3sp" value="left" />
      <ref role="3UNGvu" to="m373:7LZmMWLAga7" resolve="TextCommentLinePart" />
      <node concept="tYCnQ" id="2jmmsyJvEg0" role="_1QTJ">
        <ref role="uz4UX" to="m373:7LZmMWLAga7" resolve="TextCommentLinePart" />
        <node concept="CZtCh" id="2jmmsyJvEg2" role="uz6Si">
          <node concept="17QB3L" id="2jmmsyJvEpT" role="D02tZ" />
          <node concept="D1tK2" id="2jmmsyJvEg4" role="D0eUe">
            <node concept="3clFbS" id="2jmmsyJvEg5" role="2VODD2">
              <node concept="3cpWs8" id="3g1u8JoxtcG" role="3cqZAp">
                <node concept="3cpWsn" id="3g1u8JoxtcH" role="3cpWs9">
                  <property role="TrG5h" value="comment" />
                  <node concept="3Tqbb2" id="3g1u8JoxtcD" role="1tU5fm">
                    <ref role="ehGHo" to="m373:4CW56HZFB3j" resolve="BaseDocComment" />
                  </node>
                  <node concept="2OqwBi" id="3g1u8JoxtcI" role="33vP2m">
                    <node concept="Cj7Ep" id="3g1u8JoxtcJ" role="2Oq$k0" />
                    <node concept="2Xjw5R" id="3g1u8JoxtcK" role="2OqNvi">
                      <node concept="1xMEDy" id="3g1u8JoxtcL" role="1xVPHs">
                        <node concept="chp4Y" id="3g1u8JoxtcM" role="ri$Ld">
                          <ref role="cht4Q" to="m373:4CW56HZFB3j" resolve="BaseDocComment" />
                        </node>
                      </node>
                    </node>
                  </node>
                </node>
              </node>
              <node concept="3cpWs8" id="2jmmsyJuVTO" role="3cqZAp">
                <node concept="3cpWsn" id="2jmmsyJuVTP" role="3cpWs9">
                  <property role="TrG5h" value="isClassifier" />
                  <node concept="10P_77" id="2jmmsyJuVTJ" role="1tU5fm" />
                  <node concept="2OqwBi" id="2jmmsyJuVTQ" role="33vP2m">
                    <node concept="37vLTw" id="3g1u8JoxtcN" role="2Oq$k0">
                      <ref role="3cqZAo" node="3g1u8JoxtcH" resolve="comment" />
                    </node>
                    <node concept="1mIQ4w" id="2jmmsyJuVTW" role="2OqNvi">
                      <node concept="chp4Y" id="2jmmsyJuVTX" role="cj9EA">
                        <ref role="cht4Q" to="m373:1MQnpZAqBpc" resolve="ClassifierDocComment" />
                      </node>
                    </node>
                  </node>
                </node>
              </node>
              <node concept="3cpWs8" id="2jmmsyJuW4P" role="3cqZAp">
                <node concept="3cpWsn" id="2jmmsyJuW4Q" role="3cpWs9">
                  <property role="TrG5h" value="isMethod" />
                  <node concept="10P_77" id="2jmmsyJuW4R" role="1tU5fm" />
                  <node concept="2OqwBi" id="2jmmsyJuW4S" role="33vP2m">
                    <node concept="37vLTw" id="3g1u8JoxtcO" role="2Oq$k0">
                      <ref role="3cqZAo" node="3g1u8JoxtcH" resolve="comment" />
                    </node>
                    <node concept="1mIQ4w" id="2jmmsyJuW4Y" role="2OqNvi">
                      <node concept="chp4Y" id="2jmmsyJuW95" role="cj9EA">
                        <ref role="cht4Q" to="m373:4CW56HZFIGO" resolve="MethodDocComment" />
                      </node>
                    </node>
                  </node>
                </node>
              </node>
              <node concept="3clFbH" id="2jmmsyJuVIT" role="3cqZAp" />
              <node concept="3cpWs8" id="3g1u8Joz1kt" role="3cqZAp">
                <node concept="3cpWsn" id="3g1u8Joz1ku" role="3cpWs9">
                  <property role="TrG5h" value="tag" />
                  <node concept="3Tqbb2" id="3g1u8Joz1km" role="1tU5fm">
                    <ref role="ehGHo" to="m373:4CW56HZFI4X" resolve="BaseBlockDocTag" />
                  </node>
                  <node concept="10Nm6u" id="3g1u8Joz6$x" role="33vP2m" />
                </node>
              </node>
              <node concept="3clFbJ" id="2jmmsyJuX2H" role="3cqZAp">
                <node concept="3clFbS" id="2jmmsyJuX2J" role="3clFbx">
                  <node concept="3clFbF" id="3g1u8Joz2hi" role="3cqZAp">
                    <node concept="37vLTI" id="3g1u8Joz2hk" role="3clFbG">
                      <node concept="2OqwBi" id="3g1u8Joz1kv" role="37vLTx">
                        <node concept="2OqwBi" id="3g1u8Joz1kw" role="2Oq$k0">
                          <node concept="37vLTw" id="3g1u8Joz1kx" role="2Oq$k0">
                            <ref role="3cqZAo" node="3g1u8JoxtcH" resolve="comment" />
                          </node>
                          <node concept="3Tsc0h" id="3g1u8Joz1ky" role="2OqNvi">
                            <ref role="3TtcxE" to="m373:4EPKw6tR9BN" />
                          </node>
                        </node>
                        <node concept="2DeJg1" id="3g1u8Joz1kz" role="2OqNvi">
                          <ref role="1A0vxQ" to="m373:4CW56HZFI4Y" resolve="AuthorBlockDocTag" />
                        </node>
                      </node>
                      <node concept="37vLTw" id="3g1u8Joz2ho" role="37vLTJ">
                        <ref role="3cqZAo" node="3g1u8Joz1ku" resolve="tag" />
                      </node>
                    </node>
                  </node>
                </node>
                <node concept="17R0WA" id="2jmmsyJuXlh" role="3clFbw">
                  <node concept="Xl_RD" id="2jmmsyJuXly" role="3uHU7w">
                    <property role="Xl_RC" value="@author" />
                  </node>
                  <node concept="uNquD" id="2jmmsyJvGz9" role="3uHU7B" />
                </node>
              </node>
              <node concept="3clFbJ" id="2jmmsyJuXE$" role="3cqZAp">
                <node concept="3clFbS" id="2jmmsyJuXE_" role="3clFbx">
                  <node concept="3clFbF" id="3g1u8Joz74T" role="3cqZAp">
                    <node concept="37vLTI" id="3g1u8Joz74U" role="3clFbG">
                      <node concept="37vLTw" id="3g1u8Joz750" role="37vLTJ">
                        <ref role="3cqZAo" node="3g1u8Joz1ku" resolve="tag" />
                      </node>
                      <node concept="2OqwBi" id="2jmmsyJuXEB" role="37vLTx">
                        <node concept="2OqwBi" id="2jmmsyJuXEC" role="2Oq$k0">
                          <node concept="37vLTw" id="3g1u8JoxtcQ" role="2Oq$k0">
                            <ref role="3cqZAo" node="3g1u8JoxtcH" resolve="comment" />
                          </node>
                          <node concept="3Tsc0h" id="4EPKw6tVcjU" role="2OqNvi">
                            <ref role="3TtcxE" to="m373:4EPKw6tR9BN" />
                          </node>
                        </node>
                        <node concept="2DeJg1" id="2jmmsyJuXEJ" role="2OqNvi">
                          <ref role="1A0vxQ" to="m373:7lVCwDcxXQH" resolve="SinceBlockDocTag" />
                        </node>
                      </node>
                    </node>
                  </node>
                </node>
                <node concept="17R0WA" id="2jmmsyJuXEK" role="3clFbw">
                  <node concept="Xl_RD" id="2jmmsyJuXEL" role="3uHU7w">
                    <property role="Xl_RC" value="@since" />
                  </node>
                  <node concept="uNquD" id="2jmmsyJvJVo" role="3uHU7B" />
                </node>
              </node>
              <node concept="3clFbH" id="2jmmsyJuZnp" role="3cqZAp" />
              <node concept="3clFbJ" id="2jmmsyJuXL1" role="3cqZAp">
                <node concept="3clFbS" id="2jmmsyJuXL2" role="3clFbx">
                  <node concept="3clFbF" id="3g1u8Joz7Sd" role="3cqZAp">
                    <node concept="37vLTI" id="3g1u8Joz7Se" role="3clFbG">
                      <node concept="37vLTw" id="3g1u8Joz7Sf" role="37vLTJ">
                        <ref role="3cqZAo" node="3g1u8Joz1ku" resolve="tag" />
                      </node>
                      <node concept="2OqwBi" id="2jmmsyJuXL4" role="37vLTx">
                        <node concept="2OqwBi" id="2jmmsyJuXL5" role="2Oq$k0">
                          <node concept="37vLTw" id="3g1u8JoxtcR" role="2Oq$k0">
                            <ref role="3cqZAo" node="3g1u8JoxtcH" resolve="comment" />
                          </node>
                          <node concept="3Tsc0h" id="4EPKw6tVcDZ" role="2OqNvi">
                            <ref role="3TtcxE" to="m373:4EPKw6tR9BN" />
                          </node>
                        </node>
                        <node concept="2DeJg1" id="2jmmsyJuXLc" role="2OqNvi">
                          <ref role="1A0vxQ" to="m373:7lVCwDcxXQw" resolve="VersionBlockDocTag" />
                        </node>
                      </node>
                    </node>
                  </node>
                </node>
                <node concept="17R0WA" id="2jmmsyJuXLd" role="3clFbw">
                  <node concept="Xl_RD" id="2jmmsyJuXLe" role="3uHU7w">
                    <property role="Xl_RC" value="@version" />
                  </node>
                  <node concept="uNquD" id="2jmmsyJvJI2" role="3uHU7B" />
                </node>
              </node>
              <node concept="3clFbJ" id="2jmmsyJuXRe" role="3cqZAp">
                <node concept="3clFbS" id="2jmmsyJuXRf" role="3clFbx">
                  <node concept="3clFbF" id="6fG3n$Aff9D" role="3cqZAp">
                    <node concept="2OqwBi" id="6fG3n$Afgx0" role="3clFbG">
                      <node concept="2OqwBi" id="6fG3n$AffmZ" role="2Oq$k0">
                        <node concept="Cj7Ep" id="6fG3n$Aff9B" role="2Oq$k0" />
                        <node concept="2Xjw5R" id="6fG3n$Afg7t" role="2OqNvi">
                          <node concept="1xMEDy" id="6fG3n$Afg7v" role="1xVPHs">
                            <node concept="chp4Y" id="6fG3n$Afgjk" role="ri$Ld">
                              <ref role="cht4Q" to="tpee:hOIEacT" resolve="IBLDeprecatable" />
                            </node>
                          </node>
                        </node>
                      </node>
                      <node concept="2qgKlT" id="6fG3n$AfgYt" role="2OqNvi">
                        <ref role="37wK5l" to="tpek:6Va_BJexupi" resolve="markDeprecated" />
                      </node>
                    </node>
                  </node>
                  <node concept="3clFbF" id="6fG3n$Ah1ng" role="3cqZAp">
                    <node concept="2OqwBi" id="6fG3n$Ah1$8" role="3clFbG">
                      <node concept="1XNTG" id="6fG3n$Ah1ne" role="2Oq$k0" />
                      <node concept="liA8E" id="6fG3n$Ah26r" role="2OqNvi">
                        <ref role="37wK5l" to="cj4x:~EditorContext.selectWRTFocusPolicy(org.jetbrains.mps.openapi.model.SNode):void" resolve="selectWRTFocusPolicy" />
                        <node concept="2OqwBi" id="4EPKw6tVkXi" role="37wK5m">
                          <node concept="2OqwBi" id="4EPKw6tVhPK" role="2Oq$k0">
                            <node concept="2OqwBi" id="6fG3n$Ah2jA" role="2Oq$k0">
                              <node concept="37vLTw" id="3g1u8JoxtcS" role="2Oq$k0">
                                <ref role="3cqZAo" node="3g1u8JoxtcH" resolve="comment" />
                              </node>
                              <node concept="3Tsc0h" id="4EPKw6tVgT_" role="2OqNvi">
                                <ref role="3TtcxE" to="m373:4EPKw6tR9BN" />
                              </node>
                            </node>
                            <node concept="3zZkjj" id="4EPKw6tVjjH" role="2OqNvi">
                              <node concept="1bVj0M" id="4EPKw6tVjjJ" role="23t8la">
                                <node concept="3clFbS" id="4EPKw6tVjjK" role="1bW5cS">
                                  <node concept="3clFbF" id="4EPKw6tVjAg" role="3cqZAp">
                                    <node concept="2OqwBi" id="4EPKw6tVjQb" role="3clFbG">
                                      <node concept="37vLTw" id="4EPKw6tVjAf" role="2Oq$k0">
                                        <ref role="3cqZAo" node="4EPKw6tVjjL" resolve="it" />
                                      </node>
                                      <node concept="1mIQ4w" id="4EPKw6tVkgM" role="2OqNvi">
                                        <node concept="chp4Y" id="4EPKw6tVkz1" role="cj9EA">
                                          <ref role="cht4Q" to="m373:7lVCwDcxZ_$" resolve="DeprecatedBlockDocTag" />
                                        </node>
                                      </node>
                                    </node>
                                  </node>
                                </node>
                                <node concept="Rh6nW" id="4EPKw6tVjjL" role="1bW2Oz">
                                  <property role="TrG5h" value="it" />
                                  <node concept="2jxLKc" id="4EPKw6tVjjM" role="1tU5fm" />
                                </node>
                              </node>
                            </node>
                          </node>
                          <node concept="1uHKPH" id="4EPKw6tVqSy" role="2OqNvi" />
                        </node>
                      </node>
                    </node>
                  </node>
                </node>
                <node concept="17R0WA" id="2jmmsyJuXRq" role="3clFbw">
                  <node concept="Xl_RD" id="2jmmsyJuXRr" role="3uHU7w">
                    <property role="Xl_RC" value="@deprecated" />
                  </node>
                  <node concept="uNquD" id="2jmmsyJvJwT" role="3uHU7B" />
                </node>
              </node>
              <node concept="3clFbJ" id="2jmmsyJuXYi" role="3cqZAp">
                <node concept="3clFbS" id="2jmmsyJuXYj" role="3clFbx">
                  <node concept="3clFbF" id="3g1u8Joz8oR" role="3cqZAp">
                    <node concept="37vLTI" id="3g1u8Joz8oS" role="3clFbG">
                      <node concept="37vLTw" id="3g1u8Joz8oT" role="37vLTJ">
                        <ref role="3cqZAo" node="3g1u8Joz1ku" resolve="tag" />
                      </node>
                      <node concept="2OqwBi" id="2jmmsyJuXYl" role="37vLTx">
                        <node concept="2OqwBi" id="2jmmsyJuXYm" role="2Oq$k0">
                          <node concept="37vLTw" id="3g1u8JoxtcT" role="2Oq$k0">
                            <ref role="3cqZAo" node="3g1u8JoxtcH" resolve="comment" />
                          </node>
                          <node concept="3Tsc0h" id="4EPKw6tVd0r" role="2OqNvi">
                            <ref role="3TtcxE" to="m373:4EPKw6tR9BN" />
                          </node>
                        </node>
                        <node concept="2DeJg1" id="2jmmsyJuXYt" role="2OqNvi">
                          <ref role="1A0vxQ" to="m373:1V5cIK_baeF" resolve="SeeBlockDocTag" />
                        </node>
                      </node>
                    </node>
                  </node>
                </node>
                <node concept="17R0WA" id="2jmmsyJuXYu" role="3clFbw">
                  <node concept="Xl_RD" id="2jmmsyJuXYv" role="3uHU7w">
                    <property role="Xl_RC" value="@see" />
                  </node>
                  <node concept="uNquD" id="2jmmsyJvJjX" role="3uHU7B" />
                </node>
              </node>
              <node concept="3clFbJ" id="2jmmsyJuY6d" role="3cqZAp">
                <node concept="3clFbS" id="2jmmsyJuY6e" role="3clFbx">
                  <node concept="3clFbF" id="3g1u8Joz8TP" role="3cqZAp">
                    <node concept="37vLTI" id="3g1u8Joz8TQ" role="3clFbG">
                      <node concept="37vLTw" id="3g1u8Joz8TR" role="37vLTJ">
                        <ref role="3cqZAo" node="3g1u8Joz1ku" resolve="tag" />
                      </node>
                      <node concept="2OqwBi" id="2jmmsyJuY6g" role="37vLTx">
                        <node concept="2OqwBi" id="2jmmsyJuY6h" role="2Oq$k0">
                          <node concept="2OqwBi" id="2jmmsyJuY6i" role="2Oq$k0">
                            <node concept="Cj7Ep" id="2jmmsyJvHyk" role="2Oq$k0" />
                            <node concept="2Xjw5R" id="2jmmsyJuY6k" role="2OqNvi">
                              <node concept="1xMEDy" id="2jmmsyJuY6l" role="1xVPHs">
                                <node concept="chp4Y" id="2jmmsyJv252" role="ri$Ld">
                                  <ref role="cht4Q" to="m373:1MQnpZAqBpc" resolve="ClassifierDocComment" />
                                </node>
                              </node>
                            </node>
                          </node>
                          <node concept="3Tsc0h" id="4EPKw6tVdoc" role="2OqNvi">
                            <ref role="3TtcxE" to="m373:4EPKw6tR9BN" />
                          </node>
                        </node>
                        <node concept="2DeJg1" id="2jmmsyJuY6o" role="2OqNvi">
                          <ref role="1A0vxQ" to="m373:7lVCwDc$5Ya" resolve="ParameterBlockDocTag" />
                        </node>
                      </node>
                    </node>
                  </node>
                </node>
                <node concept="1Wc70l" id="2jmmsyJv22F" role="3clFbw">
                  <node concept="37vLTw" id="2jmmsyJv24h" role="3uHU7w">
                    <ref role="3cqZAo" node="2jmmsyJuVTP" resolve="isClassifier" />
                  </node>
                  <node concept="17R0WA" id="2jmmsyJuY6p" role="3uHU7B">
                    <node concept="uNquD" id="2jmmsyJvIIn" role="3uHU7B" />
                    <node concept="Xl_RD" id="2jmmsyJuY6q" role="3uHU7w">
                      <property role="Xl_RC" value="@param" />
                    </node>
                  </node>
                </node>
              </node>
              <node concept="3clFbJ" id="2jmmsyJuYgi" role="3cqZAp">
                <node concept="3clFbS" id="2jmmsyJuYgj" role="3clFbx">
                  <node concept="3clFbF" id="3g1u8Joz9r7" role="3cqZAp">
                    <node concept="37vLTI" id="3g1u8Joz9r8" role="3clFbG">
                      <node concept="37vLTw" id="3g1u8Joz9r9" role="37vLTJ">
                        <ref role="3cqZAo" node="3g1u8Joz1ku" resolve="tag" />
                      </node>
                      <node concept="2OqwBi" id="2jmmsyJuYgl" role="37vLTx">
                        <node concept="2OqwBi" id="2jmmsyJuYgm" role="2Oq$k0">
                          <node concept="2OqwBi" id="2jmmsyJuYgn" role="2Oq$k0">
                            <node concept="Cj7Ep" id="2jmmsyJvHJ0" role="2Oq$k0" />
                            <node concept="2Xjw5R" id="2jmmsyJuYgp" role="2OqNvi">
                              <node concept="1xMEDy" id="2jmmsyJuYgq" role="1xVPHs">
                                <node concept="chp4Y" id="2jmmsyJv2_X" role="ri$Ld">
                                  <ref role="cht4Q" to="m373:4CW56HZFIGO" resolve="MethodDocComment" />
                                </node>
                              </node>
                            </node>
                          </node>
                          <node concept="3Tsc0h" id="4EPKw6tVdJX" role="2OqNvi">
                            <ref role="3TtcxE" to="m373:4EPKw6tR9BN" />
                          </node>
                        </node>
                        <node concept="2DeJg1" id="2jmmsyJuYgt" role="2OqNvi">
                          <ref role="1A0vxQ" to="m373:7lVCwDc$5Ya" resolve="ParameterBlockDocTag" />
                        </node>
                      </node>
                    </node>
                  </node>
                </node>
                <node concept="1Wc70l" id="3g1u8JoxtX5" role="3clFbw">
                  <node concept="37vLTw" id="3g1u8Joxu9o" role="3uHU7w">
                    <ref role="3cqZAo" node="2jmmsyJuW4Q" resolve="isMethod" />
                  </node>
                  <node concept="17R0WA" id="2jmmsyJuYgu" role="3uHU7B">
                    <node concept="uNquD" id="2jmmsyJvIUG" role="3uHU7B" />
                    <node concept="Xl_RD" id="2jmmsyJuYgv" role="3uHU7w">
                      <property role="Xl_RC" value="@param" />
                    </node>
                  </node>
                </node>
              </node>
              <node concept="3clFbJ" id="2jmmsyJuYpL" role="3cqZAp">
                <node concept="3clFbS" id="2jmmsyJuYpM" role="3clFbx">
                  <node concept="3clFbF" id="3g1u8Joz9WD" role="3cqZAp">
                    <node concept="37vLTI" id="3g1u8Joz9WE" role="3clFbG">
                      <node concept="37vLTw" id="3g1u8Joz9WF" role="37vLTJ">
                        <ref role="3cqZAo" node="3g1u8Joz1ku" resolve="tag" />
                      </node>
                      <node concept="2OqwBi" id="2jmmsyJuYpO" role="37vLTx">
                        <node concept="2OqwBi" id="2jmmsyJuYpP" role="2Oq$k0">
                          <node concept="2OqwBi" id="2jmmsyJuYpQ" role="2Oq$k0">
                            <node concept="Cj7Ep" id="2jmmsyJvHWu" role="2Oq$k0" />
                            <node concept="2Xjw5R" id="2jmmsyJuYpS" role="2OqNvi">
                              <node concept="1xMEDy" id="2jmmsyJuYpT" role="1xVPHs">
                                <node concept="chp4Y" id="2jmmsyJv2Sf" role="ri$Ld">
                                  <ref role="cht4Q" to="m373:4CW56HZFIGO" resolve="MethodDocComment" />
                                </node>
                              </node>
                            </node>
                          </node>
                          <node concept="3Tsc0h" id="4EPKw6tVe7I" role="2OqNvi">
                            <ref role="3TtcxE" to="m373:4EPKw6tR9BN" />
                          </node>
                        </node>
                        <node concept="2DeJg1" id="2jmmsyJuYpW" role="2OqNvi">
                          <ref role="1A0vxQ" to="m373:55c3QxKjG9K" resolve="ThrowsBlockDocTag" />
                        </node>
                      </node>
                    </node>
                  </node>
                </node>
                <node concept="1Wc70l" id="3g1u8Joxuuw" role="3clFbw">
                  <node concept="37vLTw" id="3g1u8JoxuEY" role="3uHU7w">
                    <ref role="3cqZAo" node="2jmmsyJuW4Q" resolve="isMethod" />
                  </node>
                  <node concept="17R0WA" id="2jmmsyJuYpX" role="3uHU7B">
                    <node concept="uNquD" id="2jmmsyJvJ7e" role="3uHU7B" />
                    <node concept="Xl_RD" id="2jmmsyJuYpY" role="3uHU7w">
                      <property role="Xl_RC" value="@throws" />
                    </node>
                  </node>
                </node>
              </node>
              <node concept="3clFbJ" id="2jmmsyJuY$r" role="3cqZAp">
                <node concept="3clFbS" id="2jmmsyJuY$s" role="3clFbx">
                  <node concept="3clFbF" id="3g1u8Jozaur" role="3cqZAp">
                    <node concept="37vLTI" id="3g1u8Jozaus" role="3clFbG">
                      <node concept="37vLTw" id="3g1u8Jozaut" role="37vLTJ">
                        <ref role="3cqZAo" node="3g1u8Joz1ku" resolve="tag" />
                      </node>
                      <node concept="2OqwBi" id="2jmmsyJuY$u" role="37vLTx">
                        <node concept="2OqwBi" id="2jmmsyJuY$v" role="2Oq$k0">
                          <node concept="2OqwBi" id="2jmmsyJuY$w" role="2Oq$k0">
                            <node concept="Cj7Ep" id="2jmmsyJvIap" role="2Oq$k0" />
                            <node concept="2Xjw5R" id="2jmmsyJuY$y" role="2OqNvi">
                              <node concept="1xMEDy" id="2jmmsyJuY$z" role="1xVPHs">
                                <node concept="chp4Y" id="2jmmsyJv2TC" role="ri$Ld">
                                  <ref role="cht4Q" to="m373:4CW56HZFIGO" resolve="MethodDocComment" />
                                </node>
                              </node>
                            </node>
                          </node>
                          <node concept="3Tsc0h" id="4EPKw6tVevv" role="2OqNvi">
                            <ref role="3TtcxE" to="m373:4EPKw6tR9BN" />
                          </node>
                        </node>
                        <node concept="2DeJg1" id="4EPKw6tVf2x" role="2OqNvi">
                          <ref role="1A0vxQ" to="m373:55c3QxKk96e" resolve="ReturnBlockDocTag" />
                        </node>
                      </node>
                    </node>
                  </node>
                </node>
                <node concept="1Wc70l" id="3g1u8Joxv0h" role="3clFbw">
                  <node concept="37vLTw" id="3g1u8JoxvcU" role="3uHU7w">
                    <ref role="3cqZAo" node="2jmmsyJuW4Q" resolve="isMethod" />
                  </node>
                  <node concept="17R0WA" id="2jmmsyJuY$B" role="3uHU7B">
                    <node concept="uNquD" id="2jmmsyJvIy3" role="3uHU7B" />
                    <node concept="Xl_RD" id="2jmmsyJuY$C" role="3uHU7w">
                      <property role="Xl_RC" value="@return" />
                    </node>
                  </node>
                </node>
              </node>
              <node concept="3clFbH" id="9ETj$bpOeF" role="3cqZAp" />
              <node concept="3clFbF" id="2jmmsyJuVDF" role="3cqZAp">
                <node concept="37vLTI" id="2jmmsyJuVDG" role="3clFbG">
                  <node concept="Xl_RD" id="2jmmsyJuVDH" role="37vLTx">
                    <property role="Xl_RC" value="" />
                  </node>
                  <node concept="2OqwBi" id="2jmmsyJuVDI" role="37vLTJ">
                    <node concept="Cj7Ep" id="2jmmsyJvIor" role="2Oq$k0" />
                    <node concept="3TrcHB" id="2jmmsyJuVDK" role="2OqNvi">
                      <ref role="3TsBF5" to="m373:7LZmMWLAga8" resolve="text" />
                    </node>
                  </node>
                </node>
              </node>
              <node concept="3clFbF" id="3g1u8JoxvK3" role="3cqZAp">
                <node concept="2YIFZM" id="3g1u8JoxwKG" role="3clFbG">
                  <ref role="37wK5l" to="serg:6sifs2elSJW" resolve="organizeTags" />
                  <ref role="1Pybhc" to="serg:6sifs2elSJd" resolve="DocTagHelper" />
                  <node concept="37vLTw" id="3g1u8Joxx0P" role="37wK5m">
                    <ref role="3cqZAo" node="3g1u8JoxtcH" resolve="comment" />
                  </node>
                </node>
              </node>
              <node concept="3clFbJ" id="3g1u8Joz3Il" role="3cqZAp">
                <node concept="3clFbS" id="3g1u8Joz3In" role="3clFbx">
                  <node concept="3clFbF" id="3g1u8Joz4JP" role="3cqZAp">
                    <node concept="2OqwBi" id="3g1u8Joz51$" role="3clFbG">
                      <node concept="1XNTG" id="3g1u8Joz4JN" role="2Oq$k0" />
                      <node concept="liA8E" id="3g1u8Joz5zb" role="2OqNvi">
                        <ref role="37wK5l" to="cj4x:~EditorContext.selectWRTFocusPolicy(org.jetbrains.mps.openapi.model.SNode):void" resolve="selectWRTFocusPolicy" />
                        <node concept="37vLTw" id="3g1u8Joz5OJ" role="37wK5m">
                          <ref role="3cqZAo" node="3g1u8Joz1ku" resolve="tag" />
                        </node>
                      </node>
                    </node>
                  </node>
                </node>
                <node concept="3y3z36" id="3g1u8Joz4gR" role="3clFbw">
                  <node concept="10Nm6u" id="3g1u8Joz4ux" role="3uHU7w" />
                  <node concept="37vLTw" id="3g1u8Joz3Zo" role="3uHU7B">
                    <ref role="3cqZAo" node="3g1u8Joz1ku" resolve="tag" />
                  </node>
                </node>
              </node>
              <node concept="3clFbF" id="2jmmsyJvKDU" role="3cqZAp">
                <node concept="10Nm6u" id="2jmmsyJvKDR" role="3clFbG" />
              </node>
            </node>
          </node>
          <node concept="CZKQA" id="2jmmsyJvEg6" role="D04br">
            <node concept="3clFbS" id="2jmmsyJvEg7" role="2VODD2">
              <node concept="3cpWs8" id="2jmmsyJuGOJ" role="3cqZAp">
                <node concept="3cpWsn" id="2jmmsyJuGOK" role="3cpWs9">
                  <property role="TrG5h" value="options" />
                  <node concept="_YKpA" id="2jmmsyJuGOF" role="1tU5fm">
                    <node concept="17QB3L" id="2jmmsyJuGOI" role="_ZDj9" />
                  </node>
                  <node concept="2ShNRf" id="2jmmsyJuGOL" role="33vP2m">
                    <node concept="Tc6Ow" id="2jmmsyJuGOM" role="2ShVmc">
                      <node concept="17QB3L" id="2jmmsyJuGON" role="HW$YZ" />
                      <node concept="Xl_RD" id="2jmmsyJuHp0" role="HW$Y0">
                        <property role="Xl_RC" value="@author" />
                      </node>
                      <node concept="Xl_RD" id="2jmmsyJuI90" role="HW$Y0">
                        <property role="Xl_RC" value="@since" />
                      </node>
                      <node concept="Xl_RD" id="2jmmsyJuINN" role="HW$Y0">
                        <property role="Xl_RC" value="@version" />
                      </node>
                      <node concept="Xl_RD" id="2jmmsyJuJv1" role="HW$Y0">
                        <property role="Xl_RC" value="@deprecated" />
                      </node>
                      <node concept="Xl_RD" id="2jmmsyJuKqD" role="HW$Y0">
                        <property role="Xl_RC" value="@see" />
                      </node>
                    </node>
                  </node>
                </node>
              </node>
              <node concept="3clFbJ" id="2jmmsyJuKW0" role="3cqZAp">
                <node concept="3clFbS" id="2jmmsyJuKW2" role="3clFbx">
                  <node concept="3clFbF" id="2jmmsyJuMR8" role="3cqZAp">
                    <node concept="2OqwBi" id="2jmmsyJuNh3" role="3clFbG">
                      <node concept="37vLTw" id="2jmmsyJuMR6" role="2Oq$k0">
                        <ref role="3cqZAo" node="2jmmsyJuGOK" resolve="options" />
                      </node>
                      <node concept="TSZUe" id="2jmmsyJuR1G" role="2OqNvi">
                        <node concept="Xl_RD" id="2jmmsyJuRrl" role="25WWJ7">
                          <property role="Xl_RC" value="@param" />
                        </node>
                      </node>
                    </node>
                  </node>
                </node>
                <node concept="2OqwBi" id="2jmmsyJuM2q" role="3clFbw">
                  <node concept="2OqwBi" id="2jmmsyJuLds" role="2Oq$k0">
                    <node concept="Cj7Ep" id="2jmmsyJvFnq" role="2Oq$k0" />
                    <node concept="2Xjw5R" id="2jmmsyJuLFg" role="2OqNvi">
                      <node concept="1xMEDy" id="2jmmsyJuLFi" role="1xVPHs">
                        <node concept="chp4Y" id="2jmmsyJuLPQ" role="ri$Ld">
                          <ref role="cht4Q" to="m373:4CW56HZFB3j" resolve="BaseDocComment" />
                        </node>
                      </node>
                    </node>
                  </node>
                  <node concept="1mIQ4w" id="2jmmsyJuMwr" role="2OqNvi">
                    <node concept="chp4Y" id="2jmmsyJuMFm" role="cj9EA">
                      <ref role="cht4Q" to="m373:1MQnpZAqBpc" resolve="ClassifierDocComment" />
                    </node>
                  </node>
                </node>
                <node concept="3eNFk2" id="2jmmsyJuStB" role="3eNLev">
                  <node concept="3clFbS" id="2jmmsyJuStD" role="3eOfB_">
                    <node concept="3clFbF" id="2jmmsyJuT6e" role="3cqZAp">
                      <node concept="2OqwBi" id="2jmmsyJuT6f" role="3clFbG">
                        <node concept="37vLTw" id="2jmmsyJuT6g" role="2Oq$k0">
                          <ref role="3cqZAo" node="2jmmsyJuGOK" resolve="options" />
                        </node>
                        <node concept="TSZUe" id="2jmmsyJuT6h" role="2OqNvi">
                          <node concept="Xl_RD" id="2jmmsyJuT6i" role="25WWJ7">
                            <property role="Xl_RC" value="@param" />
                          </node>
                        </node>
                      </node>
                    </node>
                    <node concept="3clFbF" id="2jmmsyJuTmE" role="3cqZAp">
                      <node concept="2OqwBi" id="2jmmsyJuTmF" role="3clFbG">
                        <node concept="37vLTw" id="2jmmsyJuTmG" role="2Oq$k0">
                          <ref role="3cqZAo" node="2jmmsyJuGOK" resolve="options" />
                        </node>
                        <node concept="TSZUe" id="2jmmsyJuTmH" role="2OqNvi">
                          <node concept="Xl_RD" id="2jmmsyJuTmI" role="25WWJ7">
                            <property role="Xl_RC" value="@throws" />
                          </node>
                        </node>
                      </node>
                    </node>
                    <node concept="3clFbF" id="2jmmsyJuTmX" role="3cqZAp">
                      <node concept="2OqwBi" id="2jmmsyJuTmY" role="3clFbG">
                        <node concept="37vLTw" id="2jmmsyJuTmZ" role="2Oq$k0">
                          <ref role="3cqZAo" node="2jmmsyJuGOK" resolve="options" />
                        </node>
                        <node concept="TSZUe" id="2jmmsyJuTn0" role="2OqNvi">
                          <node concept="Xl_RD" id="2jmmsyJuTn1" role="25WWJ7">
                            <property role="Xl_RC" value="@return" />
                          </node>
                        </node>
                      </node>
                    </node>
                  </node>
                  <node concept="2OqwBi" id="2jmmsyJuSE8" role="3eO9$A">
                    <node concept="2OqwBi" id="2jmmsyJuSE9" role="2Oq$k0">
                      <node concept="Cj7Ep" id="2jmmsyJvFzb" role="2Oq$k0" />
                      <node concept="2Xjw5R" id="2jmmsyJuSEb" role="2OqNvi">
                        <node concept="1xMEDy" id="2jmmsyJuSEc" role="1xVPHs">
                          <node concept="chp4Y" id="2jmmsyJuSEd" role="ri$Ld">
                            <ref role="cht4Q" to="m373:4CW56HZFB3j" resolve="BaseDocComment" />
                          </node>
                        </node>
                      </node>
                    </node>
                    <node concept="1mIQ4w" id="2jmmsyJuSEe" role="2OqNvi">
                      <node concept="chp4Y" id="2jmmsyJuSQE" role="cj9EA">
                        <ref role="cht4Q" to="m373:4CW56HZFIGO" resolve="MethodDocComment" />
                      </node>
                    </node>
                  </node>
                </node>
              </node>
              <node concept="3clFbF" id="2jmmsyJuxI6" role="3cqZAp">
                <node concept="37vLTw" id="2jmmsyJuGOO" role="3clFbG">
                  <ref role="3cqZAo" node="2jmmsyJuGOK" resolve="options" />
                </node>
              </node>
            </node>
          </node>
        </node>
      </node>
    </node>
  </node>
</model>

