<?xml version="1.0" encoding="UTF-8"?>
<model ref="r:9d0684e9-039f-4e88-b824-947b454f70f2(jetbrains.mps.baseLanguage.javadoc.behavior)">
  <persistence version="9" />
  <languages>
    <use id="83888646-71ce-4f1c-9c53-c54016f6ad4f" name="jetbrains.mps.baseLanguage.collections" version="0" />
    <use id="af65afd8-f0dd-4942-87d9-63a55f2a9db1" name="jetbrains.mps.lang.behavior" version="0" />
    <use id="7866978e-a0f0-4cc7-81bc-4d213d9375e1" name="jetbrains.mps.lang.smodel" version="4" />
    <use id="f3061a53-9226-4cc5-a443-f952ceaf5816" name="jetbrains.mps.baseLanguage" version="4" />
    <devkit ref="fbc25dd2-5da4-483a-8b19-70928e1b62d7(jetbrains.mps.devkit.general-purpose)" />
  </languages>
  <imports>
    <import index="m373" ref="r:4095af4f-a097-4799-aaa9-03df087ddfa6(jetbrains.mps.baseLanguage.javadoc.structure)" />
    <import index="serg" ref="r:87ed07dc-bdb2-44c5-8db4-8d5a74e959ff(jetbrains.mps.baseLanguage.javadoc.editor)" />
    <import index="wyt6" ref="6354ebe7-c22a-4a0f-ac54-50b52ab9b065/java:java.lang(JDK/)" />
    <import index="tpee" ref="r:00000000-0000-4000-0000-011c895902ca(jetbrains.mps.baseLanguage.structure)" />
  </imports>
  <registry>
    <language id="af65afd8-f0dd-4942-87d9-63a55f2a9db1" name="jetbrains.mps.lang.behavior">
      <concept id="1225194240794" name="jetbrains.mps.lang.behavior.structure.ConceptBehavior" flags="ng" index="13h7C7">
        <reference id="1225194240799" name="concept" index="13h7C2" />
        <child id="1225194240805" name="method" index="13h7CS" />
        <child id="1225194240801" name="constructor" index="13h7CW" />
      </concept>
      <concept id="1225194413805" name="jetbrains.mps.lang.behavior.structure.ConceptConstructorDeclaration" flags="in" index="13hLZK" />
      <concept id="1225194472830" name="jetbrains.mps.lang.behavior.structure.ConceptMethodDeclaration" flags="ng" index="13i0hz">
        <property id="1225194472832" name="isVirtual" index="13i0it" />
        <property id="1225194472834" name="isAbstract" index="13i0iv" />
        <reference id="1225194472831" name="overriddenMethod" index="13i0hy" />
      </concept>
      <concept id="1225194628440" name="jetbrains.mps.lang.behavior.structure.SuperNodeExpression" flags="nn" index="13iAh5" />
      <concept id="1225194691553" name="jetbrains.mps.lang.behavior.structure.ThisNodeExpression" flags="nn" index="13iPFW" />
    </language>
    <language id="f3061a53-9226-4cc5-a443-f952ceaf5816" name="jetbrains.mps.baseLanguage">
      <concept id="1082485599095" name="jetbrains.mps.baseLanguage.structure.BlockStatement" flags="nn" index="9aQIb">
        <child id="1082485599096" name="statements" index="9aQI4" />
      </concept>
      <concept id="1215693861676" name="jetbrains.mps.baseLanguage.structure.BaseAssignmentExpression" flags="nn" index="d038R">
        <child id="1068498886297" name="rValue" index="37vLTx" />
        <child id="1068498886295" name="lValue" index="37vLTJ" />
      </concept>
      <concept id="1153417849900" name="jetbrains.mps.baseLanguage.structure.GreaterThanOrEqualsExpression" flags="nn" index="2d3UOw" />
      <concept id="1202948039474" name="jetbrains.mps.baseLanguage.structure.InstanceMethodCallOperation" flags="nn" index="liA8E" />
      <concept id="1154032098014" name="jetbrains.mps.baseLanguage.structure.AbstractLoopStatement" flags="nn" index="2LF5Ji">
        <child id="1154032183016" name="body" index="2LFqv$" />
      </concept>
      <concept id="1197027756228" name="jetbrains.mps.baseLanguage.structure.DotExpression" flags="nn" index="2OqwBi">
        <child id="1197027771414" name="operand" index="2Oq$k0" />
        <child id="1197027833540" name="operation" index="2OqNvi" />
      </concept>
      <concept id="1145552977093" name="jetbrains.mps.baseLanguage.structure.GenericNewExpression" flags="nn" index="2ShNRf">
        <child id="1145553007750" name="creator" index="2ShVmc" />
      </concept>
      <concept id="1137021947720" name="jetbrains.mps.baseLanguage.structure.ConceptFunction" flags="in" index="2VMwT0">
        <child id="1137022507850" name="body" index="2VODD2" />
      </concept>
      <concept id="1070475926800" name="jetbrains.mps.baseLanguage.structure.StringLiteral" flags="nn" index="Xl_RD" />
      <concept id="1070534058343" name="jetbrains.mps.baseLanguage.structure.NullLiteral" flags="nn" index="10Nm6u" />
      <concept id="1070534370425" name="jetbrains.mps.baseLanguage.structure.IntegerType" flags="in" index="10Oyi0" />
      <concept id="1070534644030" name="jetbrains.mps.baseLanguage.structure.BooleanType" flags="in" index="10P_77" />
      <concept id="1068431474542" name="jetbrains.mps.baseLanguage.structure.VariableDeclaration" flags="ng" index="33uBYm">
        <child id="1068431790190" name="initializer" index="33vP2m" />
      </concept>
      <concept id="1068498886296" name="jetbrains.mps.baseLanguage.structure.VariableReference" flags="nn" index="37vLTw">
        <reference id="1068581517664" name="variableDeclaration" index="3cqZAo" />
      </concept>
      <concept id="1068498886292" name="jetbrains.mps.baseLanguage.structure.ParameterDeclaration" flags="ir" index="37vLTG" />
      <concept id="1068498886294" name="jetbrains.mps.baseLanguage.structure.AssignmentExpression" flags="nn" index="37vLTI" />
      <concept id="1225271177708" name="jetbrains.mps.baseLanguage.structure.StringType" flags="in" index="17QB3L" />
      <concept id="1225271369338" name="jetbrains.mps.baseLanguage.structure.IsEmptyOperation" flags="nn" index="17RlXB" />
      <concept id="1225271408483" name="jetbrains.mps.baseLanguage.structure.IsNotEmptyOperation" flags="nn" index="17RvpY" />
      <concept id="4972933694980447171" name="jetbrains.mps.baseLanguage.structure.BaseVariableDeclaration" flags="ng" index="19Szcq">
        <child id="5680397130376446158" name="type" index="1tU5fm" />
      </concept>
      <concept id="1068580123132" name="jetbrains.mps.baseLanguage.structure.BaseMethodDeclaration" flags="ng" index="3clF44">
        <property id="1181808852946" name="isFinal" index="DiZV1" />
        <child id="1068580123133" name="returnType" index="3clF45" />
        <child id="1068580123134" name="parameter" index="3clF46" />
        <child id="1068580123135" name="body" index="3clF47" />
      </concept>
      <concept id="1068580123152" name="jetbrains.mps.baseLanguage.structure.EqualsExpression" flags="nn" index="3clFbC" />
      <concept id="1068580123155" name="jetbrains.mps.baseLanguage.structure.ExpressionStatement" flags="nn" index="3clFbF">
        <child id="1068580123156" name="expression" index="3clFbG" />
      </concept>
      <concept id="1068580123157" name="jetbrains.mps.baseLanguage.structure.Statement" flags="nn" index="3clFbH" />
      <concept id="1068580123159" name="jetbrains.mps.baseLanguage.structure.IfStatement" flags="nn" index="3clFbJ">
        <child id="1082485599094" name="ifFalseStatement" index="9aQIa" />
        <child id="1068580123160" name="condition" index="3clFbw" />
        <child id="1068580123161" name="ifTrue" index="3clFbx" />
      </concept>
      <concept id="1068580123136" name="jetbrains.mps.baseLanguage.structure.StatementList" flags="sn" stub="5293379017992965193" index="3clFbS">
        <child id="1068581517665" name="statement" index="3cqZAp" />
      </concept>
      <concept id="1068580320020" name="jetbrains.mps.baseLanguage.structure.IntegerConstant" flags="nn" index="3cmrfG">
        <property id="1068580320021" name="value" index="3cmrfH" />
      </concept>
      <concept id="1068581242875" name="jetbrains.mps.baseLanguage.structure.PlusExpression" flags="nn" index="3cpWs3" />
      <concept id="1068581242878" name="jetbrains.mps.baseLanguage.structure.ReturnStatement" flags="nn" index="3cpWs6">
        <child id="1068581517676" name="expression" index="3cqZAk" />
      </concept>
      <concept id="1068581242864" name="jetbrains.mps.baseLanguage.structure.LocalVariableDeclarationStatement" flags="nn" index="3cpWs8">
        <child id="1068581242865" name="localVariableDeclaration" index="3cpWs9" />
      </concept>
      <concept id="1068581242869" name="jetbrains.mps.baseLanguage.structure.MinusExpression" flags="nn" index="3cpWsd" />
      <concept id="1068581242863" name="jetbrains.mps.baseLanguage.structure.LocalVariableDeclaration" flags="nr" index="3cpWsn" />
      <concept id="1079359253375" name="jetbrains.mps.baseLanguage.structure.ParenthesizedExpression" flags="nn" index="1eOMI4">
        <child id="1079359253376" name="expression" index="1eOMHV" />
      </concept>
      <concept id="1081506773034" name="jetbrains.mps.baseLanguage.structure.LessThanExpression" flags="nn" index="3eOVzh" />
      <concept id="1081516740877" name="jetbrains.mps.baseLanguage.structure.NotExpression" flags="nn" index="3fqX7Q">
        <child id="1081516765348" name="expression" index="3fr31v" />
      </concept>
      <concept id="1204053956946" name="jetbrains.mps.baseLanguage.structure.IMethodCall" flags="ng" index="1ndlxa">
        <reference id="1068499141037" name="baseMethodDeclaration" index="37wK5l" />
        <child id="1068499141038" name="actualArgument" index="37wK5m" />
      </concept>
      <concept id="1212685548494" name="jetbrains.mps.baseLanguage.structure.ClassCreator" flags="nn" index="1pGfFk" />
      <concept id="1107535904670" name="jetbrains.mps.baseLanguage.structure.ClassifierType" flags="in" index="3uibUv">
        <reference id="1107535924139" name="classifier" index="3uigEE" />
      </concept>
      <concept id="1081773326031" name="jetbrains.mps.baseLanguage.structure.BinaryOperation" flags="nn" index="3uHJSO">
        <child id="1081773367579" name="rightExpression" index="3uHU7w" />
        <child id="1081773367580" name="leftExpression" index="3uHU7B" />
      </concept>
      <concept id="1178549954367" name="jetbrains.mps.baseLanguage.structure.IVisible" flags="ng" index="1B3ioH">
        <child id="1178549979242" name="visibility" index="1B3o_S" />
      </concept>
      <concept id="1163668896201" name="jetbrains.mps.baseLanguage.structure.TernaryOperatorExpression" flags="nn" index="3K4zz7">
        <child id="1163668914799" name="condition" index="3K4Cdx" />
        <child id="1163668922816" name="ifTrue" index="3K4E3e" />
        <child id="1163668934364" name="ifFalse" index="3K4GZi" />
      </concept>
      <concept id="6329021646629104957" name="jetbrains.mps.baseLanguage.structure.TextCommentPart" flags="nn" index="3SKdUq">
        <property id="6329021646629104958" name="text" index="3SKdUp" />
      </concept>
      <concept id="6329021646629104954" name="jetbrains.mps.baseLanguage.structure.SingleLineComment" flags="nn" index="3SKdUt">
        <child id="6329021646629175155" name="commentPart" index="3SKWNk" />
      </concept>
      <concept id="1146644602865" name="jetbrains.mps.baseLanguage.structure.PublicVisibility" flags="nn" index="3Tm1VV" />
      <concept id="1080120340718" name="jetbrains.mps.baseLanguage.structure.AndExpression" flags="nn" index="1Wc70l" />
    </language>
    <language id="7866978e-a0f0-4cc7-81bc-4d213d9375e1" name="jetbrains.mps.lang.smodel">
      <concept id="1179168000618" name="jetbrains.mps.lang.smodel.structure.Node_GetIndexInParentOperation" flags="nn" index="2bSWHS" />
      <concept id="1177026924588" name="jetbrains.mps.lang.smodel.structure.RefConcept_Reference" flags="nn" index="chp4Y">
        <reference id="1177026940964" name="conceptDeclaration" index="cht4Q" />
      </concept>
      <concept id="1179409122411" name="jetbrains.mps.lang.smodel.structure.Node_ConceptMethodCall" flags="nn" index="2qgKlT" />
      <concept id="2396822768958367367" name="jetbrains.mps.lang.smodel.structure.AbstractTypeCastExpression" flags="nn" index="$5XWr">
        <reference id="6733348108486823428" name="concept" index="1m5ApE" />
        <child id="6733348108486823193" name="leftExpression" index="1m5AlR" />
      </concept>
      <concept id="1143224066846" name="jetbrains.mps.lang.smodel.structure.Node_InsertNextSiblingOperation" flags="nn" index="HtI8k">
        <child id="1143224066849" name="insertedNode" index="HtI8F" />
      </concept>
      <concept id="1143224127713" name="jetbrains.mps.lang.smodel.structure.Node_InsertPrevSiblingOperation" flags="nn" index="HtX7F">
        <child id="1143224127716" name="insertedNode" index="HtX7I" />
      </concept>
      <concept id="1145570846907" name="jetbrains.mps.lang.smodel.structure.Node_GetNextSiblingsOperation" flags="nn" index="2TlYAL" />
      <concept id="1139184414036" name="jetbrains.mps.lang.smodel.structure.LinkList_AddNewChildOperation" flags="nn" index="WFELt" />
      <concept id="1143511969223" name="jetbrains.mps.lang.smodel.structure.Node_GetPrevSiblingOperation" flags="nn" index="YBYNd" />
      <concept id="1139613262185" name="jetbrains.mps.lang.smodel.structure.Node_GetParentOperation" flags="nn" index="1mfA1w" />
      <concept id="1139621453865" name="jetbrains.mps.lang.smodel.structure.Node_IsInstanceOfOperation" flags="nn" index="1mIQ4w">
        <child id="1177027386292" name="conceptArgument" index="cj9EA" />
      </concept>
      <concept id="1171999116870" name="jetbrains.mps.lang.smodel.structure.Node_IsNullOperation" flags="nn" index="3w_OXm" />
      <concept id="1140133623887" name="jetbrains.mps.lang.smodel.structure.Node_DeleteOperation" flags="nn" index="1PgB_6" />
      <concept id="1140137987495" name="jetbrains.mps.lang.smodel.structure.SNodeTypeCastExpression" flags="nn" index="1PxgMI" />
      <concept id="1138055754698" name="jetbrains.mps.lang.smodel.structure.SNodeType" flags="in" index="3Tqbb2">
        <reference id="1138405853777" name="concept" index="ehGHo" />
      </concept>
      <concept id="1138056022639" name="jetbrains.mps.lang.smodel.structure.SPropertyAccess" flags="nn" index="3TrcHB">
        <reference id="1138056395725" name="property" index="3TsBF5" />
      </concept>
      <concept id="1138056143562" name="jetbrains.mps.lang.smodel.structure.SLinkAccess" flags="nn" index="3TrEf2">
        <reference id="1138056516764" name="link" index="3Tt5mk" />
      </concept>
      <concept id="1138056282393" name="jetbrains.mps.lang.smodel.structure.SLinkListAccess" flags="nn" index="3Tsc0h">
        <reference id="1138056546658" name="link" index="3TtcxE" />
      </concept>
    </language>
    <language id="ceab5195-25ea-4f22-9b92-103b95ca8c0c" name="jetbrains.mps.lang.core">
      <concept id="1133920641626" name="jetbrains.mps.lang.core.structure.BaseConcept" flags="ng" index="2VYdi">
        <property id="1193676396447" name="virtualPackage" index="3GE5qa" />
      </concept>
      <concept id="1169194658468" name="jetbrains.mps.lang.core.structure.INamedConcept" flags="ng" index="TrEIO">
        <property id="1169194664001" name="name" index="TrG5h" />
      </concept>
    </language>
    <language id="83888646-71ce-4f1c-9c53-c54016f6ad4f" name="jetbrains.mps.baseLanguage.collections">
      <concept id="540871147943773365" name="jetbrains.mps.baseLanguage.collections.structure.SingleArgumentSequenceOperation" flags="nn" index="25WWJ4">
        <child id="540871147943773366" name="argument" index="25WWJ7" />
      </concept>
      <concept id="1151689724996" name="jetbrains.mps.baseLanguage.collections.structure.SequenceType" flags="in" index="A3Dl8">
        <child id="1151689745422" name="elementType" index="A3Ik2" />
      </concept>
      <concept id="1153943597977" name="jetbrains.mps.baseLanguage.collections.structure.ForEachStatement" flags="nn" index="2Gpval">
        <child id="1153944400369" name="variable" index="2Gsz3X" />
        <child id="1153944424730" name="inputSequence" index="2GsD0m" />
      </concept>
      <concept id="1153944193378" name="jetbrains.mps.baseLanguage.collections.structure.ForEachVariable" flags="nr" index="2GrKxI" />
      <concept id="1153944233411" name="jetbrains.mps.baseLanguage.collections.structure.ForEachVariableReference" flags="nn" index="2GrUjf">
        <reference id="1153944258490" name="variable" index="2Gs0qQ" />
      </concept>
      <concept id="1160612413312" name="jetbrains.mps.baseLanguage.collections.structure.AddElementOperation" flags="nn" index="TSZUe" />
      <concept id="1162934736510" name="jetbrains.mps.baseLanguage.collections.structure.GetElementOperation" flags="nn" index="34jXtK" />
      <concept id="1162935959151" name="jetbrains.mps.baseLanguage.collections.structure.GetSizeOperation" flags="nn" index="34oBXx" />
      <concept id="1175845471038" name="jetbrains.mps.baseLanguage.collections.structure.ReverseOperation" flags="nn" index="35Qw8J" />
      <concept id="1165525191778" name="jetbrains.mps.baseLanguage.collections.structure.GetFirstOperation" flags="nn" index="1uHKPH" />
      <concept id="1165530316231" name="jetbrains.mps.baseLanguage.collections.structure.IsEmptyOperation" flags="nn" index="1v1jN8" />
      <concept id="1225711141656" name="jetbrains.mps.baseLanguage.collections.structure.ListElementAccessExpression" flags="nn" index="1y4W85">
        <child id="1225711182005" name="list" index="1y566C" />
        <child id="1225711191269" name="index" index="1y58nS" />
      </concept>
      <concept id="1165595910856" name="jetbrains.mps.baseLanguage.collections.structure.GetLastOperation" flags="nn" index="1yVyf7" />
      <concept id="1176501494711" name="jetbrains.mps.baseLanguage.collections.structure.IsNotEmptyOperation" flags="nn" index="3GX2aA" />
    </language>
  </registry>
  <node concept="13h7C7" id="7lVCwDcz6WK">
    <ref role="13h7C2" to="m373:4CW56HZFB3j" resolve="BaseDocComment" />
    <node concept="13i0hz" id="7lVCwDcz6WN" role="13h7CS">
      <property role="TrG5h" value="isTagSectionEmpty" />
      <property role="13i0it" value="true" />
      <node concept="3Tm1VV" id="7lVCwDcz6WO" role="1B3o_S" />
      <node concept="3clFbS" id="7lVCwDcz6WQ" role="3clF47">
        <node concept="3cpWs6" id="7lVCwDcz6WT" role="3cqZAp">
          <node concept="1Wc70l" id="67rxNLYuObV" role="3cqZAk">
            <node concept="2OqwBi" id="67rxNLYuOcd" role="3uHU7w">
              <node concept="2OqwBi" id="67rxNLYuOc2" role="2Oq$k0">
                <node concept="13iPFW" id="67rxNLYuOc1" role="2Oq$k0" />
                <node concept="3Tsc0h" id="67rxNLYuOc9" role="2OqNvi">
                  <ref role="3TtcxE" to="m373:1V5cIK_bvvt" />
                </node>
              </node>
              <node concept="1v1jN8" id="67rxNLYuOck" role="2OqNvi" />
            </node>
            <node concept="1Wc70l" id="7lVCwDczbPS" role="3uHU7B">
              <node concept="1Wc70l" id="7lVCwDczbPB" role="3uHU7B">
                <node concept="1Wc70l" id="7lVCwDczbPv" role="3uHU7B">
                  <node concept="2OqwBi" id="7lVCwDczbPx" role="3uHU7B">
                    <node concept="2OqwBi" id="7lVCwDczbPy" role="2Oq$k0">
                      <node concept="13iPFW" id="7lVCwDczbPz" role="2Oq$k0" />
                      <node concept="3Tsc0h" id="7lVCwDczbP$" role="2OqNvi">
                        <ref role="3TtcxE" to="m373:4CW56HZFIGM" />
                      </node>
                    </node>
                    <node concept="1v1jN8" id="67rxNLYuOcw" role="2OqNvi" />
                  </node>
                  <node concept="2OqwBi" id="7lVCwDczbPJ" role="3uHU7w">
                    <node concept="2OqwBi" id="7lVCwDczbPK" role="2Oq$k0">
                      <node concept="13iPFW" id="7lVCwDczbPL" role="2Oq$k0" />
                      <node concept="3TrEf2" id="7lVCwDczbPM" role="2OqNvi">
                        <ref role="3Tt5mk" to="m373:7lVCwDcxZ_F" />
                      </node>
                    </node>
                    <node concept="3w_OXm" id="7lVCwDczbPN" role="2OqNvi" />
                  </node>
                </node>
                <node concept="2OqwBi" id="7lVCwDczbPE" role="3uHU7w">
                  <node concept="2OqwBi" id="7lVCwDczbPF" role="2Oq$k0">
                    <node concept="13iPFW" id="7lVCwDczbPG" role="2Oq$k0" />
                    <node concept="3Tsc0h" id="7lVCwDczbPH" role="2OqNvi">
                      <ref role="3TtcxE" to="m373:7lVCwDcxZ_y" />
                    </node>
                  </node>
                  <node concept="1v1jN8" id="67rxNLYuOcA" role="2OqNvi" />
                </node>
              </node>
              <node concept="2OqwBi" id="7lVCwDczbQ9" role="3uHU7w">
                <node concept="2OqwBi" id="7lVCwDczbQ0" role="2Oq$k0">
                  <node concept="13iPFW" id="7lVCwDczbPX" role="2Oq$k0" />
                  <node concept="3Tsc0h" id="7lVCwDczbQ6" role="2OqNvi">
                    <ref role="3TtcxE" to="m373:7lVCwDcxZ_z" />
                  </node>
                </node>
                <node concept="1v1jN8" id="67rxNLYuOcD" role="2OqNvi" />
              </node>
            </node>
          </node>
        </node>
      </node>
      <node concept="10P_77" id="7lVCwDcz6WS" role="3clF45" />
    </node>
    <node concept="13i0hz" id="4iGwz$GSfd_" role="13h7CS">
      <property role="TrG5h" value="hasTags" />
      <node concept="3Tm1VV" id="4iGwz$GSfdA" role="1B3o_S" />
      <node concept="10P_77" id="4iGwz$GSfhg" role="3clF45" />
      <node concept="3clFbS" id="4iGwz$GSfdC" role="3clF47">
        <node concept="3clFbF" id="4iGwz$GSfhk" role="3cqZAp">
          <node concept="2OqwBi" id="4iGwz$GSgbG" role="3clFbG">
            <node concept="2OqwBi" id="4iGwz$GSfj$" role="2Oq$k0">
              <node concept="13iPFW" id="4iGwz$GSfhj" role="2Oq$k0" />
              <node concept="3Tsc0h" id="4iGwz$GSft2" role="2OqNvi">
                <ref role="3TtcxE" to="m373:4EPKw6tR9BN" />
              </node>
            </node>
            <node concept="3GX2aA" id="4iGwz$GSjJe" role="2OqNvi" />
          </node>
        </node>
      </node>
    </node>
    <node concept="13hLZK" id="7lVCwDcz6WL" role="13h7CW">
      <node concept="3clFbS" id="7lVCwDcz6WM" role="2VODD2" />
    </node>
  </node>
  <node concept="13h7C7" id="7lVCwDc$uQc">
    <ref role="13h7C2" to="m373:4CW56HZFIGO" resolve="MethodDocComment" />
    <node concept="13i0hz" id="7lVCwDc$uQj" role="13h7CS">
      <property role="TrG5h" value="isTagSectionEmpty" />
      <property role="DiZV1" value="true" />
      <ref role="13i0hy" node="7lVCwDcz6WN" resolve="isTagSectionEmpty" />
      <node concept="3Tm1VV" id="7lVCwDc$uQk" role="1B3o_S" />
      <node concept="3clFbS" id="7lVCwDc$uQl" role="3clF47">
        <node concept="3cpWs6" id="6dH7047oQwl" role="3cqZAp">
          <node concept="1Wc70l" id="7LZmMWLzR7V" role="3cqZAk">
            <node concept="2OqwBi" id="7LZmMWLzR84" role="3uHU7w">
              <node concept="2OqwBi" id="7LZmMWLzR7Z" role="2Oq$k0">
                <node concept="13iPFW" id="7LZmMWLzR7Y" role="2Oq$k0" />
                <node concept="3TrEf2" id="7LZmMWLzR83" role="2OqNvi">
                  <ref role="3Tt5mk" to="m373:55c3QxKk96o" />
                </node>
              </node>
              <node concept="3w_OXm" id="7LZmMWLzR88" role="2OqNvi" />
            </node>
            <node concept="1Wc70l" id="7LZmMWLzR7t" role="3uHU7B">
              <node concept="1Wc70l" id="6dH7047oQwm" role="3uHU7B">
                <node concept="2OqwBi" id="6dH7047oQwg" role="3uHU7B">
                  <node concept="13iAh5" id="6dH7047oQwe" role="2Oq$k0" />
                  <node concept="2qgKlT" id="6dH7047oQwk" role="2OqNvi">
                    <ref role="37wK5l" node="7lVCwDcz6WN" resolve="isTagSectionEmpty" />
                  </node>
                </node>
                <node concept="2OqwBi" id="6dH7047oQwv" role="3uHU7w">
                  <node concept="2OqwBi" id="6dH7047oQwq" role="2Oq$k0">
                    <node concept="13iPFW" id="6dH7047oQwp" role="2Oq$k0" />
                    <node concept="3Tsc0h" id="6dH7047oQwu" role="2OqNvi">
                      <ref role="3TtcxE" to="m373:7lVCwDc$eFT" />
                    </node>
                  </node>
                  <node concept="1v1jN8" id="6dH7047oQwz" role="2OqNvi" />
                </node>
              </node>
              <node concept="2OqwBi" id="7LZmMWLzR7A" role="3uHU7w">
                <node concept="2OqwBi" id="7LZmMWLzR7x" role="2Oq$k0">
                  <node concept="13iPFW" id="7LZmMWLzR7w" role="2Oq$k0" />
                  <node concept="3Tsc0h" id="7LZmMWLzR7_" role="2OqNvi">
                    <ref role="3TtcxE" to="m373:55c3QxKk96c" />
                  </node>
                </node>
                <node concept="1v1jN8" id="7LZmMWLzR7E" role="2OqNvi" />
              </node>
            </node>
          </node>
        </node>
      </node>
      <node concept="10P_77" id="7lVCwDc$uRN" role="3clF45" />
    </node>
    <node concept="13hLZK" id="7lVCwDc$uQd" role="13h7CW">
      <node concept="3clFbS" id="7lVCwDc$uQe" role="2VODD2" />
    </node>
  </node>
  <node concept="13h7C7" id="1MQnpZAs9xO">
    <ref role="13h7C2" to="m373:1MQnpZAqBpc" resolve="ClassifierDocComment" />
    <node concept="13i0hz" id="1MQnpZAs9xR" role="13h7CS">
      <property role="TrG5h" value="isTagSectionEmpty" />
      <ref role="13i0hy" node="7lVCwDcz6WN" resolve="isTagSectionEmpty" />
      <node concept="3clFbS" id="1MQnpZAs9xU" role="3clF47">
        <node concept="3cpWs6" id="7LZmMWLzwt$" role="3cqZAp">
          <node concept="1Wc70l" id="7LZmMWLzR77" role="3cqZAk">
            <node concept="2OqwBi" id="7LZmMWLz$Im" role="3uHU7B">
              <node concept="13iAh5" id="7LZmMWLzwtA" role="2Oq$k0" />
              <node concept="2qgKlT" id="7LZmMWLz$Iq" role="2OqNvi">
                <ref role="37wK5l" node="7lVCwDcz6WN" resolve="isTagSectionEmpty" />
              </node>
            </node>
            <node concept="2OqwBi" id="7LZmMWLzR7g" role="3uHU7w">
              <node concept="2OqwBi" id="7LZmMWLzR7b" role="2Oq$k0">
                <node concept="13iPFW" id="7LZmMWLzR7a" role="2Oq$k0" />
                <node concept="3Tsc0h" id="7LZmMWLzR7f" role="2OqNvi">
                  <ref role="3TtcxE" to="m373:1MQnpZAqBpe" />
                </node>
              </node>
              <node concept="1v1jN8" id="7LZmMWLzR7k" role="2OqNvi" />
            </node>
          </node>
        </node>
      </node>
      <node concept="10P_77" id="1MQnpZAs9xW" role="3clF45" />
      <node concept="3Tm1VV" id="1MQnpZAs9xX" role="1B3o_S" />
    </node>
    <node concept="13hLZK" id="1MQnpZAs9xP" role="13h7CW">
      <node concept="3clFbS" id="1MQnpZAs9xQ" role="2VODD2" />
    </node>
  </node>
  <node concept="13h7C7" id="62wYidUJP5f">
    <ref role="13h7C2" to="m373:7lVCwDcxZ_G" resolve="CommentLine" />
    <node concept="13i0hz" id="ooaTF_3fF3" role="13h7CS">
      <property role="TrG5h" value="tryMergeToRight" />
      <node concept="3Tm1VV" id="ooaTF_3fF4" role="1B3o_S" />
      <node concept="3clFbS" id="ooaTF_3fF6" role="3clF47">
        <node concept="3clFbJ" id="ooaTF_3fFa" role="3cqZAp">
          <node concept="1Wc70l" id="ooaTF_3fLw" role="3clFbw">
            <node concept="2OqwBi" id="ooaTF_3fLx" role="3uHU7w">
              <node concept="1y4W85" id="ooaTF_3fLy" role="2Oq$k0">
                <node concept="3cpWs3" id="ooaTF_3fLz" role="1y58nS">
                  <node concept="3cmrfG" id="ooaTF_3fL$" role="3uHU7w">
                    <property role="3cmrfH" value="1" />
                  </node>
                  <node concept="37vLTw" id="2BHiRxgm7MH" role="3uHU7B">
                    <ref role="3cqZAo" node="ooaTF_3fF8" resolve="index" />
                  </node>
                </node>
                <node concept="2OqwBi" id="ooaTF_3fLA" role="1y566C">
                  <node concept="13iPFW" id="ooaTF_3fLB" role="2Oq$k0" />
                  <node concept="3Tsc0h" id="ooaTF_3fLC" role="2OqNvi">
                    <ref role="3TtcxE" to="m373:7LZmMWLAgad" />
                  </node>
                </node>
              </node>
              <node concept="1mIQ4w" id="ooaTF_3fLD" role="2OqNvi">
                <node concept="chp4Y" id="ooaTF_3fLE" role="cj9EA">
                  <ref role="cht4Q" to="m373:7LZmMWLAga7" resolve="TextCommentLinePart" />
                </node>
              </node>
            </node>
            <node concept="1Wc70l" id="ooaTF_3fLt" role="3uHU7B">
              <node concept="2OqwBi" id="ooaTF_3fLF" role="3uHU7w">
                <node concept="1y4W85" id="ooaTF_3fLG" role="2Oq$k0">
                  <node concept="37vLTw" id="2BHiRxgmnAD" role="1y58nS">
                    <ref role="3cqZAo" node="ooaTF_3fF8" resolve="index" />
                  </node>
                  <node concept="2OqwBi" id="ooaTF_3fLI" role="1y566C">
                    <node concept="13iPFW" id="ooaTF_3fLJ" role="2Oq$k0" />
                    <node concept="3Tsc0h" id="ooaTF_3fLK" role="2OqNvi">
                      <ref role="3TtcxE" to="m373:7LZmMWLAgad" />
                    </node>
                  </node>
                </node>
                <node concept="1mIQ4w" id="ooaTF_3fLL" role="2OqNvi">
                  <node concept="chp4Y" id="ooaTF_3fLM" role="cj9EA">
                    <ref role="cht4Q" to="m373:7LZmMWLAga7" resolve="TextCommentLinePart" />
                  </node>
                </node>
              </node>
              <node concept="1Wc70l" id="ooaTF_3fLP" role="3uHU7B">
                <node concept="3eOVzh" id="ooaTF_3xRH" role="3uHU7w">
                  <node concept="3cpWs3" id="ooaTF_3xRI" role="3uHU7B">
                    <node concept="37vLTw" id="2BHiRxgm_iq" role="3uHU7B">
                      <ref role="3cqZAo" node="ooaTF_3fF8" resolve="index" />
                    </node>
                    <node concept="3cmrfG" id="ooaTF_3xRK" role="3uHU7w">
                      <property role="3cmrfH" value="1" />
                    </node>
                  </node>
                  <node concept="2OqwBi" id="ooaTF_3xRL" role="3uHU7w">
                    <node concept="2OqwBi" id="ooaTF_3xRM" role="2Oq$k0">
                      <node concept="13iPFW" id="ooaTF_3xRN" role="2Oq$k0" />
                      <node concept="3Tsc0h" id="ooaTF_3xRO" role="2OqNvi">
                        <ref role="3TtcxE" to="m373:7LZmMWLAgad" />
                      </node>
                    </node>
                    <node concept="34oBXx" id="ooaTF_3xRP" role="2OqNvi" />
                  </node>
                </node>
                <node concept="2d3UOw" id="ooaTF_3fLZ" role="3uHU7B">
                  <node concept="37vLTw" id="2BHiRxgmzuY" role="3uHU7B">
                    <ref role="3cqZAo" node="ooaTF_3fF8" resolve="index" />
                  </node>
                  <node concept="3cmrfG" id="ooaTF_3fM1" role="3uHU7w">
                    <property role="3cmrfH" value="0" />
                  </node>
                </node>
              </node>
            </node>
          </node>
          <node concept="3clFbS" id="ooaTF_3fFO" role="3clFbx">
            <node concept="3cpWs8" id="ooaTF_3fH_" role="3cqZAp">
              <node concept="3cpWsn" id="ooaTF_3fHA" role="3cpWs9">
                <property role="TrG5h" value="leftPart" />
                <node concept="3Tqbb2" id="ooaTF_3fHB" role="1tU5fm">
                  <ref role="ehGHo" to="m373:7LZmMWLAga7" resolve="TextCommentLinePart" />
                </node>
                <node concept="1PxgMI" id="ooaTF_3fHQ" role="33vP2m">
                  <ref role="1m5ApE" to="m373:7LZmMWLAga7" resolve="TextCommentLinePart" />
                  <node concept="1y4W85" id="ooaTF_3fHJ" role="1m5AlR">
                    <node concept="37vLTw" id="2BHiRxgmhE_" role="1y58nS">
                      <ref role="3cqZAo" node="ooaTF_3fF8" resolve="index" />
                    </node>
                    <node concept="2OqwBi" id="ooaTF_3fHE" role="1y566C">
                      <node concept="13iPFW" id="ooaTF_3fHD" role="2Oq$k0" />
                      <node concept="3Tsc0h" id="ooaTF_3fHI" role="2OqNvi">
                        <ref role="3TtcxE" to="m373:7LZmMWLAgad" />
                      </node>
                    </node>
                  </node>
                </node>
              </node>
            </node>
            <node concept="3cpWs8" id="7bwTG8cd5Gz" role="3cqZAp">
              <node concept="3cpWsn" id="7bwTG8cd5G$" role="3cpWs9">
                <property role="TrG5h" value="offset" />
                <node concept="10Oyi0" id="7bwTG8cd5G_" role="1tU5fm" />
                <node concept="2OqwBi" id="7bwTG8cd5GM" role="33vP2m">
                  <node concept="2OqwBi" id="7bwTG8cd5GE" role="2Oq$k0">
                    <node concept="37vLTw" id="3GM_nagTvEV" role="2Oq$k0">
                      <ref role="3cqZAo" node="ooaTF_3fHA" resolve="leftPart" />
                    </node>
                    <node concept="3TrcHB" id="7bwTG8cd5GK" role="2OqNvi">
                      <ref role="3TsBF5" to="m373:7LZmMWLAga8" resolve="text" />
                    </node>
                  </node>
                  <node concept="liA8E" id="7bwTG8cd5GQ" role="2OqNvi">
                    <ref role="37wK5l" to="wyt6:~String.length():int" resolve="length" />
                  </node>
                </node>
              </node>
            </node>
            <node concept="3cpWs8" id="ooaTF_3fHV" role="3cqZAp">
              <node concept="3cpWsn" id="ooaTF_3fHW" role="3cpWs9">
                <property role="TrG5h" value="rightPart" />
                <node concept="3Tqbb2" id="ooaTF_3fHX" role="1tU5fm">
                  <ref role="ehGHo" to="m373:7LZmMWLAga7" resolve="TextCommentLinePart" />
                </node>
                <node concept="1PxgMI" id="ooaTF_3fHY" role="33vP2m">
                  <ref role="1m5ApE" to="m373:7LZmMWLAga7" resolve="TextCommentLinePart" />
                  <node concept="1y4W85" id="ooaTF_3fHZ" role="1m5AlR">
                    <node concept="3cpWs3" id="ooaTF_3fI5" role="1y58nS">
                      <node concept="3cmrfG" id="ooaTF_3fI8" role="3uHU7w">
                        <property role="3cmrfH" value="1" />
                      </node>
                      <node concept="37vLTw" id="2BHiRxgm6nd" role="3uHU7B">
                        <ref role="3cqZAo" node="ooaTF_3fF8" resolve="index" />
                      </node>
                    </node>
                    <node concept="2OqwBi" id="ooaTF_3fI1" role="1y566C">
                      <node concept="13iPFW" id="ooaTF_3fI2" role="2Oq$k0" />
                      <node concept="3Tsc0h" id="ooaTF_3fI3" role="2OqNvi">
                        <ref role="3TtcxE" to="m373:7LZmMWLAgad" />
                      </node>
                    </node>
                  </node>
                </node>
              </node>
            </node>
            <node concept="3cpWs8" id="ooaTF_3fIh" role="3cqZAp">
              <node concept="3cpWsn" id="ooaTF_3fIi" role="3cpWs9">
                <property role="TrG5h" value="text" />
                <node concept="17QB3L" id="ooaTF_3fIj" role="1tU5fm" />
                <node concept="3cpWs3" id="ooaTF_3fIX" role="33vP2m">
                  <node concept="1eOMI4" id="ooaTF_3fIV" role="3uHU7B">
                    <node concept="3K4zz7" id="ooaTF_3fIF" role="1eOMHV">
                      <node concept="2OqwBi" id="ooaTF_3fIN" role="3K4GZi">
                        <node concept="37vLTw" id="3GM_nagTBmH" role="2Oq$k0">
                          <ref role="3cqZAo" node="ooaTF_3fHA" resolve="leftPart" />
                        </node>
                        <node concept="3TrcHB" id="ooaTF_3fIS" role="2OqNvi">
                          <ref role="3TsBF5" to="m373:7LZmMWLAga8" resolve="text" />
                        </node>
                      </node>
                      <node concept="2OqwBi" id="ooaTF_3fIA" role="3K4Cdx">
                        <node concept="2OqwBi" id="ooaTF_3fIu" role="2Oq$k0">
                          <node concept="37vLTw" id="3GM_nagTA4z" role="2Oq$k0">
                            <ref role="3cqZAo" node="ooaTF_3fHA" resolve="leftPart" />
                          </node>
                          <node concept="3TrcHB" id="ooaTF_3fI$" role="2OqNvi">
                            <ref role="3TsBF5" to="m373:7LZmMWLAga8" resolve="text" />
                          </node>
                        </node>
                        <node concept="17RlXB" id="ooaTF_3fIE" role="2OqNvi" />
                      </node>
                      <node concept="Xl_RD" id="ooaTF_3fIJ" role="3K4E3e" />
                    </node>
                  </node>
                  <node concept="1eOMI4" id="ooaTF_3fJ0" role="3uHU7w">
                    <node concept="3K4zz7" id="ooaTF_3fJ1" role="1eOMHV">
                      <node concept="2OqwBi" id="ooaTF_3fJ2" role="3K4GZi">
                        <node concept="37vLTw" id="3GM_nagTwSL" role="2Oq$k0">
                          <ref role="3cqZAo" node="ooaTF_3fHW" resolve="rightPart" />
                        </node>
                        <node concept="3TrcHB" id="ooaTF_3fJ4" role="2OqNvi">
                          <ref role="3TsBF5" to="m373:7LZmMWLAga8" resolve="text" />
                        </node>
                      </node>
                      <node concept="2OqwBi" id="ooaTF_3fJ5" role="3K4Cdx">
                        <node concept="2OqwBi" id="ooaTF_3fJ6" role="2Oq$k0">
                          <node concept="37vLTw" id="3GM_nagT$fT" role="2Oq$k0">
                            <ref role="3cqZAo" node="ooaTF_3fHW" resolve="rightPart" />
                          </node>
                          <node concept="3TrcHB" id="ooaTF_3fJ8" role="2OqNvi">
                            <ref role="3TsBF5" to="m373:7LZmMWLAga8" resolve="text" />
                          </node>
                        </node>
                        <node concept="17RlXB" id="ooaTF_3fJ9" role="2OqNvi" />
                      </node>
                      <node concept="Xl_RD" id="ooaTF_3fJa" role="3K4E3e" />
                    </node>
                  </node>
                </node>
              </node>
            </node>
            <node concept="3clFbF" id="ooaTF_3fJu" role="3cqZAp">
              <node concept="37vLTI" id="ooaTF_3fJE" role="3clFbG">
                <node concept="37vLTw" id="3GM_nagTumy" role="37vLTx">
                  <ref role="3cqZAo" node="ooaTF_3fIi" resolve="text" />
                </node>
                <node concept="2OqwBi" id="ooaTF_3fJy" role="37vLTJ">
                  <node concept="37vLTw" id="3GM_nagTADY" role="2Oq$k0">
                    <ref role="3cqZAo" node="ooaTF_3fHA" resolve="leftPart" />
                  </node>
                  <node concept="3TrcHB" id="ooaTF_3fJC" role="2OqNvi">
                    <ref role="3TsBF5" to="m373:7LZmMWLAga8" resolve="text" />
                  </node>
                </node>
              </node>
            </node>
            <node concept="3clFbF" id="ooaTF_3fJJ" role="3cqZAp">
              <node concept="2OqwBi" id="ooaTF_3fJN" role="3clFbG">
                <node concept="37vLTw" id="3GM_nagTA0c" role="2Oq$k0">
                  <ref role="3cqZAo" node="ooaTF_3fHW" resolve="rightPart" />
                </node>
                <node concept="1PgB_6" id="ooaTF_3fJS" role="2OqNvi" />
              </node>
            </node>
            <node concept="3cpWs6" id="ooaTF_3fK2" role="3cqZAp">
              <node concept="2ShNRf" id="7bwTG8cd4qo" role="3cqZAk">
                <node concept="1pGfFk" id="7bwTG8cd5Gl" role="2ShVmc">
                  <ref role="37wK5l" to="serg:4MwXQrlKKtK" resolve="NodeCaretPair" />
                  <node concept="37vLTw" id="3GM_nagTy4C" role="37wK5m">
                    <ref role="3cqZAo" node="ooaTF_3fHA" resolve="leftPart" />
                  </node>
                  <node concept="37vLTw" id="3GM_nagTrDf" role="37wK5m">
                    <ref role="3cqZAo" node="7bwTG8cd5G$" resolve="offset" />
                  </node>
                </node>
              </node>
            </node>
          </node>
        </node>
        <node concept="3cpWs6" id="ooaTF_3fJY" role="3cqZAp">
          <node concept="10Nm6u" id="7bwTG8cd5Gn" role="3cqZAk" />
        </node>
      </node>
      <node concept="37vLTG" id="ooaTF_3fF8" role="3clF46">
        <property role="TrG5h" value="index" />
        <node concept="10Oyi0" id="ooaTF_3fF9" role="1tU5fm" />
      </node>
      <node concept="3uibUv" id="7bwTG8cd5Go" role="3clF45">
        <ref role="3uigEE" to="serg:4MwXQrlKKtI" resolve="NodeCaretPair" />
      </node>
    </node>
    <node concept="13hLZK" id="62wYidUJP5g" role="13h7CW">
      <node concept="3clFbS" id="62wYidUJP5h" role="2VODD2" />
    </node>
  </node>
  <node concept="13h7C7" id="3veQ_zQpHmu">
    <property role="3GE5qa" value="tag" />
    <ref role="13h7C2" to="m373:4CW56HZFI4Y" resolve="AuthorBlockDocTag" />
    <node concept="13hLZK" id="3veQ_zQpHmv" role="13h7CW">
      <node concept="3clFbS" id="3veQ_zQpHmw" role="2VODD2" />
    </node>
  </node>
  <node concept="13h7C7" id="5J4Ewzxp26c">
    <property role="3GE5qa" value="tag" />
    <ref role="13h7C2" to="m373:5J4Ewzxlbep" resolve="HTMLElement" />
    <node concept="13hLZK" id="5J4Ewzxp26d" role="13h7CW">
      <node concept="3clFbS" id="5J4Ewzxp26e" role="2VODD2">
        <node concept="3clFbF" id="5J4Ewzxp26f" role="3cqZAp">
          <node concept="2OqwBi" id="5J4Ewzxp26m" role="3clFbG">
            <node concept="2OqwBi" id="5J4Ewzxp26h" role="2Oq$k0">
              <node concept="13iPFW" id="5J4Ewzxp26g" role="2Oq$k0" />
              <node concept="3Tsc0h" id="5J4Ewzxp26l" role="2OqNvi">
                <ref role="3TtcxE" to="m373:5J4Ewzxlber" />
              </node>
            </node>
            <node concept="WFELt" id="5J4Ewzxp26q" role="2OqNvi" />
          </node>
        </node>
      </node>
    </node>
    <node concept="13i0hz" id="1DytxaBQUnh" role="13h7CS">
      <property role="TrG5h" value="smartDelete" />
      <ref role="13i0hy" node="7PYAiugbmRz" resolve="smartDelete" />
      <node concept="3clFbS" id="1DytxaBQUnk" role="3clF47">
        <node concept="3cpWs8" id="ooaTF_2Xnc" role="3cqZAp">
          <node concept="3cpWsn" id="ooaTF_2Xnd" role="3cpWs9">
            <property role="TrG5h" value="line" />
            <node concept="3Tqbb2" id="ooaTF_2Xne" role="1tU5fm">
              <ref role="ehGHo" to="m373:7lVCwDcxZ_G" resolve="CommentLine" />
            </node>
            <node concept="1PxgMI" id="ooaTF_2Xnm" role="33vP2m">
              <ref role="1m5ApE" to="m373:7lVCwDcxZ_G" resolve="CommentLine" />
              <node concept="2OqwBi" id="ooaTF_2Xnh" role="1m5AlR">
                <node concept="13iPFW" id="ooaTF_2Xng" role="2Oq$k0" />
                <node concept="1mfA1w" id="ooaTF_2Xnl" role="2OqNvi" />
              </node>
            </node>
          </node>
        </node>
        <node concept="3cpWs8" id="ooaTF_3fDD" role="3cqZAp">
          <node concept="3cpWsn" id="ooaTF_3fDE" role="3cpWs9">
            <property role="TrG5h" value="index" />
            <node concept="10Oyi0" id="ooaTF_3fDF" role="1tU5fm" />
            <node concept="2OqwBi" id="ooaTF_3fDI" role="33vP2m">
              <node concept="13iPFW" id="ooaTF_3fDH" role="2Oq$k0" />
              <node concept="2bSWHS" id="ooaTF_3fDM" role="2OqNvi" />
            </node>
          </node>
        </node>
        <node concept="3cpWs8" id="ooaTF_2Xz9" role="3cqZAp">
          <node concept="3cpWsn" id="ooaTF_2Xza" role="3cpWs9">
            <property role="TrG5h" value="lines" />
            <node concept="A3Dl8" id="ooaTF_2Xzb" role="1tU5fm">
              <node concept="3Tqbb2" id="ooaTF_2Xzd" role="A3Ik2">
                <ref role="ehGHo" to="m373:7lVCwDcxZ_G" resolve="CommentLine" />
              </node>
            </node>
            <node concept="2OqwBi" id="ooaTF_2Xzi" role="33vP2m">
              <node concept="13iPFW" id="ooaTF_2Xzh" role="2Oq$k0" />
              <node concept="3Tsc0h" id="ooaTF_2Xzm" role="2OqNvi">
                <ref role="3TtcxE" to="m373:5J4Ewzxlber" />
              </node>
            </node>
          </node>
        </node>
        <node concept="3clFbH" id="4MwXQrlLO5t" role="3cqZAp" />
        <node concept="3cpWs8" id="4MwXQrlLO5w" role="3cqZAp">
          <node concept="3cpWsn" id="4MwXQrlLO5x" role="3cpWs9">
            <property role="TrG5h" value="nodeToSelect" />
            <node concept="3Tqbb2" id="4MwXQrlLO5y" role="1tU5fm" />
            <node concept="10Nm6u" id="4MwXQrlLPON" role="33vP2m" />
          </node>
        </node>
        <node concept="3cpWs8" id="4MwXQrlLO5_" role="3cqZAp">
          <node concept="3cpWsn" id="4MwXQrlLO5A" role="3cpWs9">
            <property role="TrG5h" value="caret" />
            <node concept="10Oyi0" id="4MwXQrlLO5B" role="1tU5fm" />
            <node concept="3cmrfG" id="4MwXQrlMNE$" role="33vP2m">
              <property role="3cmrfH" value="-1" />
            </node>
          </node>
        </node>
        <node concept="3clFbH" id="4MwXQrlLO5v" role="3cqZAp" />
        <node concept="3clFbJ" id="ooaTF_2Xyi" role="3cqZAp">
          <node concept="3clFbS" id="ooaTF_2Xyj" role="3clFbx">
            <node concept="3cpWs8" id="4MwXQrlL7PF" role="3cqZAp">
              <node concept="3cpWsn" id="4MwXQrlL7PG" role="3cpWs9">
                <property role="TrG5h" value="prev" />
                <node concept="3Tqbb2" id="4MwXQrlL7PH" role="1tU5fm" />
                <node concept="2OqwBi" id="4MwXQrlL7PK" role="33vP2m">
                  <node concept="13iPFW" id="4MwXQrlL7PJ" role="2Oq$k0" />
                  <node concept="YBYNd" id="4MwXQrlL7PO" role="2OqNvi" />
                </node>
              </node>
            </node>
            <node concept="3clFbJ" id="4MwXQrlL7QJ" role="3cqZAp">
              <node concept="3clFbS" id="4MwXQrlL7QK" role="3clFbx">
                <node concept="3clFbF" id="4MwXQrlL7Ra" role="3cqZAp">
                  <node concept="37vLTI" id="4MwXQrlL7Rc" role="3clFbG">
                    <node concept="37vLTw" id="3GM_nagTsoS" role="37vLTJ">
                      <ref role="3cqZAo" node="4MwXQrlLO5A" resolve="caret" />
                    </node>
                    <node concept="2OqwBi" id="4MwXQrlL7Ry" role="37vLTx">
                      <node concept="2OqwBi" id="4MwXQrlL7Rf" role="2Oq$k0">
                        <node concept="1PxgMI" id="4MwXQrlL7Rg" role="2Oq$k0">
                          <ref role="1m5ApE" to="m373:7LZmMWLAga7" resolve="TextCommentLinePart" />
                          <node concept="37vLTw" id="3GM_nagTtU_" role="1m5AlR">
                            <ref role="3cqZAo" node="4MwXQrlL7PG" resolve="prev" />
                          </node>
                        </node>
                        <node concept="3TrcHB" id="4MwXQrlL7Ri" role="2OqNvi">
                          <ref role="3TsBF5" to="m373:7LZmMWLAga8" resolve="text" />
                        </node>
                      </node>
                      <node concept="liA8E" id="4MwXQrlL7RA" role="2OqNvi">
                        <ref role="37wK5l" to="wyt6:~String.length():int" resolve="length" />
                      </node>
                    </node>
                  </node>
                </node>
              </node>
              <node concept="2OqwBi" id="4MwXQrlL7R5" role="3clFbw">
                <node concept="2OqwBi" id="4MwXQrlL7QN" role="2Oq$k0">
                  <node concept="1PxgMI" id="4MwXQrlL7QO" role="2Oq$k0">
                    <ref role="1m5ApE" to="m373:7LZmMWLAga7" resolve="TextCommentLinePart" />
                    <node concept="37vLTw" id="3GM_nagTzEI" role="1m5AlR">
                      <ref role="3cqZAo" node="4MwXQrlL7PG" resolve="prev" />
                    </node>
                  </node>
                  <node concept="3TrcHB" id="4MwXQrlL7QQ" role="2OqNvi">
                    <ref role="3TsBF5" to="m373:7LZmMWLAga8" resolve="text" />
                  </node>
                </node>
                <node concept="17RvpY" id="4MwXQrlL7R9" role="2OqNvi" />
              </node>
            </node>
            <node concept="3clFbF" id="ooaTF_3fMg" role="3cqZAp">
              <node concept="2OqwBi" id="ooaTF_3fMh" role="3clFbG">
                <node concept="13iPFW" id="ooaTF_3fMi" role="2Oq$k0" />
                <node concept="1PgB_6" id="ooaTF_3fMj" role="2OqNvi" />
              </node>
            </node>
            <node concept="3clFbF" id="39FuRsD2OV_" role="3cqZAp">
              <node concept="2OqwBi" id="39FuRsD2OVB" role="3clFbG">
                <node concept="37vLTw" id="3GM_nagTtqG" role="2Oq$k0">
                  <ref role="3cqZAo" node="ooaTF_2Xnd" resolve="line" />
                </node>
                <node concept="2qgKlT" id="39FuRsD2OVF" role="2OqNvi">
                  <ref role="37wK5l" node="ooaTF_3fF3" resolve="tryMergeToRight" />
                  <node concept="3cpWsd" id="39FuRsD2OVH" role="37wK5m">
                    <node concept="3cmrfG" id="39FuRsD2OVK" role="3uHU7w">
                      <property role="3cmrfH" value="1" />
                    </node>
                    <node concept="37vLTw" id="3GM_nagTvxK" role="3uHU7B">
                      <ref role="3cqZAo" node="ooaTF_3fDE" resolve="index" />
                    </node>
                  </node>
                </node>
              </node>
            </node>
            <node concept="3cpWs6" id="4MwXQrlL7RF" role="3cqZAp">
              <node concept="2ShNRf" id="4MwXQrlL7RG" role="3cqZAk">
                <node concept="1pGfFk" id="4MwXQrlL7RH" role="2ShVmc">
                  <ref role="37wK5l" to="serg:4MwXQrlKKtK" resolve="NodeCaretPair" />
                  <node concept="37vLTw" id="3GM_nagTyJX" role="37wK5m">
                    <ref role="3cqZAo" node="4MwXQrlL7PG" resolve="prev" />
                  </node>
                  <node concept="37vLTw" id="3GM_nagT_wM" role="37wK5m">
                    <ref role="3cqZAo" node="4MwXQrlLO5A" resolve="caret" />
                  </node>
                </node>
              </node>
            </node>
          </node>
          <node concept="2OqwBi" id="5eo3iW6uLil" role="3clFbw">
            <node concept="37vLTw" id="3GM_nagTwOT" role="2Oq$k0">
              <ref role="3cqZAo" node="ooaTF_2Xza" resolve="lines" />
            </node>
            <node concept="1v1jN8" id="5eo3iW6uLim" role="2OqNvi" />
          </node>
          <node concept="9aQIb" id="ooaTF_3Gjf" role="9aQIa">
            <node concept="3clFbS" id="ooaTF_3Gjg" role="9aQI4">
              <node concept="3SKdUt" id="6pumIWoCFWR" role="3cqZAp">
                <node concept="3SKdUq" id="6pumIWoCFWS" role="3SKWNk">
                  <property role="3SKdUp" value=" Merging first line" />
                </node>
              </node>
              <node concept="2Gpval" id="39FuRsD2A4_" role="3cqZAp">
                <node concept="2GrKxI" id="39FuRsD2A4A" role="2Gsz3X">
                  <property role="TrG5h" value="part" />
                </node>
                <node concept="2OqwBi" id="39FuRsD2A4X" role="2GsD0m">
                  <node concept="2OqwBi" id="39FuRsD2A4N" role="2Oq$k0">
                    <node concept="2OqwBi" id="39FuRsD2A4F" role="2Oq$k0">
                      <node concept="13iPFW" id="39FuRsD2A4E" role="2Oq$k0" />
                      <node concept="3Tsc0h" id="39FuRsD2A4L" role="2OqNvi">
                        <ref role="3TtcxE" to="m373:5J4Ewzxlber" />
                      </node>
                    </node>
                    <node concept="1uHKPH" id="39FuRsD2A4S" role="2OqNvi" />
                  </node>
                  <node concept="3Tsc0h" id="39FuRsD2A57" role="2OqNvi">
                    <ref role="3TtcxE" to="m373:7LZmMWLAgad" />
                  </node>
                </node>
                <node concept="3clFbS" id="39FuRsD2A4C" role="2LFqv$">
                  <node concept="3clFbF" id="39FuRsD2A5c" role="3cqZAp">
                    <node concept="2OqwBi" id="39FuRsD2A5e" role="3clFbG">
                      <node concept="13iPFW" id="39FuRsD2A5d" role="2Oq$k0" />
                      <node concept="HtX7F" id="39FuRsD2A5i" role="2OqNvi">
                        <node concept="2GrUjf" id="39FuRsD2A5k" role="HtX7I">
                          <ref role="2Gs0qQ" node="39FuRsD2A4A" resolve="part" />
                        </node>
                      </node>
                    </node>
                  </node>
                </node>
              </node>
              <node concept="3clFbF" id="39FuRsD2A6m" role="3cqZAp">
                <node concept="2OqwBi" id="39FuRsD2A6n" role="3clFbG">
                  <node concept="2OqwBi" id="39FuRsD2A6o" role="2Oq$k0">
                    <node concept="2OqwBi" id="39FuRsD2A6p" role="2Oq$k0">
                      <node concept="13iPFW" id="39FuRsD2A6q" role="2Oq$k0" />
                      <node concept="3Tsc0h" id="39FuRsD2A6r" role="2OqNvi">
                        <ref role="3TtcxE" to="m373:5J4Ewzxlber" />
                      </node>
                    </node>
                    <node concept="1uHKPH" id="39FuRsD2A6s" role="2OqNvi" />
                  </node>
                  <node concept="1PgB_6" id="39FuRsD2A6t" role="2OqNvi" />
                </node>
              </node>
              <node concept="3clFbJ" id="4MwXQrlLO5D" role="3cqZAp">
                <node concept="3clFbS" id="4MwXQrlLO5E" role="3clFbx">
                  <node concept="3clFbF" id="4MwXQrlLO5I" role="3cqZAp">
                    <node concept="37vLTI" id="4MwXQrlLO5K" role="3clFbG">
                      <node concept="37vLTw" id="3GM_nagTz1B" role="37vLTJ">
                        <ref role="3cqZAo" node="4MwXQrlLO5x" resolve="nodeToSelect" />
                      </node>
                      <node concept="1y4W85" id="4MwXQrlLO6M" role="37vLTx">
                        <node concept="3cpWsd" id="4MwXQrlLO6N" role="1y58nS">
                          <node concept="3cmrfG" id="4MwXQrlLO6O" role="3uHU7w">
                            <property role="3cmrfH" value="1" />
                          </node>
                          <node concept="37vLTw" id="3GM_nagT$pn" role="3uHU7B">
                            <ref role="3cqZAo" node="ooaTF_3fDE" resolve="index" />
                          </node>
                        </node>
                        <node concept="2OqwBi" id="4MwXQrlLO6Q" role="1y566C">
                          <node concept="37vLTw" id="3GM_nagTu7z" role="2Oq$k0">
                            <ref role="3cqZAo" node="ooaTF_2Xnd" resolve="line" />
                          </node>
                          <node concept="3Tsc0h" id="4MwXQrlLO6S" role="2OqNvi">
                            <ref role="3TtcxE" to="m373:7LZmMWLAgad" />
                          </node>
                        </node>
                      </node>
                    </node>
                  </node>
                  <node concept="3clFbF" id="4MwXQrlLO5P" role="3cqZAp">
                    <node concept="37vLTI" id="4MwXQrlLO5R" role="3clFbG">
                      <node concept="37vLTw" id="3GM_nagTBEy" role="37vLTJ">
                        <ref role="3cqZAo" node="4MwXQrlLO5A" resolve="caret" />
                      </node>
                      <node concept="2OqwBi" id="4MwXQrlLO7o" role="37vLTx">
                        <node concept="2OqwBi" id="4MwXQrlLO7e" role="2Oq$k0">
                          <node concept="1PxgMI" id="4MwXQrlLO78" role="2Oq$k0">
                            <ref role="1m5ApE" to="m373:7LZmMWLAga7" resolve="TextCommentLinePart" />
                            <node concept="1y4W85" id="4MwXQrlLO6C" role="1m5AlR">
                              <node concept="3cpWsd" id="4MwXQrlLO6D" role="1y58nS">
                                <node concept="3cmrfG" id="4MwXQrlLO6E" role="3uHU7w">
                                  <property role="3cmrfH" value="1" />
                                </node>
                                <node concept="37vLTw" id="3GM_nagTw9y" role="3uHU7B">
                                  <ref role="3cqZAo" node="ooaTF_3fDE" resolve="index" />
                                </node>
                              </node>
                              <node concept="2OqwBi" id="4MwXQrlLO6G" role="1y566C">
                                <node concept="37vLTw" id="3GM_nagTyWR" role="2Oq$k0">
                                  <ref role="3cqZAo" node="ooaTF_2Xnd" resolve="line" />
                                </node>
                                <node concept="3Tsc0h" id="4MwXQrlLO6I" role="2OqNvi">
                                  <ref role="3TtcxE" to="m373:7LZmMWLAgad" />
                                </node>
                              </node>
                            </node>
                          </node>
                          <node concept="3TrcHB" id="4MwXQrlLO7l" role="2OqNvi">
                            <ref role="3TsBF5" to="m373:7LZmMWLAga8" resolve="text" />
                          </node>
                        </node>
                        <node concept="liA8E" id="4MwXQrlLO7t" role="2OqNvi">
                          <ref role="37wK5l" to="wyt6:~String.length():int" resolve="length" />
                        </node>
                      </node>
                    </node>
                  </node>
                </node>
                <node concept="37vLTw" id="2BHiRxgm_zk" role="3clFbw">
                  <ref role="3cqZAo" node="4MwXQrlL7P$" resolve="isBeginning" />
                </node>
              </node>
              <node concept="3clFbF" id="ooaTF_3GjG" role="3cqZAp">
                <node concept="2OqwBi" id="ooaTF_3GjH" role="3clFbG">
                  <node concept="37vLTw" id="3GM_nagTvmN" role="2Oq$k0">
                    <ref role="3cqZAo" node="ooaTF_2Xnd" resolve="line" />
                  </node>
                  <node concept="2qgKlT" id="ooaTF_3GjJ" role="2OqNvi">
                    <ref role="37wK5l" node="ooaTF_3fF3" resolve="tryMergeToRight" />
                    <node concept="3cpWsd" id="ooaTF_3GjK" role="37wK5m">
                      <node concept="3cmrfG" id="ooaTF_3GjL" role="3uHU7w">
                        <property role="3cmrfH" value="1" />
                      </node>
                      <node concept="37vLTw" id="3GM_nagTvkf" role="3uHU7B">
                        <ref role="3cqZAo" node="ooaTF_3fDE" resolve="index" />
                      </node>
                    </node>
                  </node>
                </node>
              </node>
              <node concept="3clFbH" id="39FuRsD2A4o" role="3cqZAp" />
              <node concept="3SKdUt" id="6pumIWoCFO1" role="3cqZAp">
                <node concept="3SKdUq" id="6pumIWoCFO2" role="3SKWNk">
                  <property role="3SKdUp" value=" Merging other lines" />
                </node>
              </node>
              <node concept="3cpWs8" id="39FuRsD1DZu" role="3cqZAp">
                <node concept="3cpWsn" id="39FuRsD1DZv" role="3cpWs9">
                  <property role="TrG5h" value="lastElementLine" />
                  <node concept="3Tqbb2" id="39FuRsD1DZw" role="1tU5fm">
                    <ref role="ehGHo" to="m373:7lVCwDcxZ_G" resolve="CommentLine" />
                  </node>
                  <node concept="2OqwBi" id="39FuRsD1DZy" role="33vP2m">
                    <node concept="2OqwBi" id="39FuRsD1DZz" role="2Oq$k0">
                      <node concept="13iPFW" id="39FuRsD1DZ$" role="2Oq$k0" />
                      <node concept="3Tsc0h" id="39FuRsD1DZ_" role="2OqNvi">
                        <ref role="3TtcxE" to="m373:5J4Ewzxlber" />
                      </node>
                    </node>
                    <node concept="1yVyf7" id="39FuRsD1DZA" role="2OqNvi" />
                  </node>
                </node>
              </node>
              <node concept="2Gpval" id="39FuRsD2A7h" role="3cqZAp">
                <node concept="2GrKxI" id="39FuRsD2A7i" role="2Gsz3X">
                  <property role="TrG5h" value="elementLine" />
                </node>
                <node concept="2OqwBi" id="39FuRsD2A7w" role="2GsD0m">
                  <node concept="2OqwBi" id="39FuRsD2A7n" role="2Oq$k0">
                    <node concept="13iPFW" id="39FuRsD2A7m" role="2Oq$k0" />
                    <node concept="3Tsc0h" id="39FuRsD2A7u" role="2OqNvi">
                      <ref role="3TtcxE" to="m373:5J4Ewzxlber" />
                    </node>
                  </node>
                  <node concept="35Qw8J" id="39FuRsD2A7_" role="2OqNvi" />
                </node>
                <node concept="3clFbS" id="39FuRsD2A7k" role="2LFqv$">
                  <node concept="3clFbF" id="39FuRsD2A7D" role="3cqZAp">
                    <node concept="2OqwBi" id="39FuRsD2A7F" role="3clFbG">
                      <node concept="37vLTw" id="3GM_nagTACV" role="2Oq$k0">
                        <ref role="3cqZAo" node="ooaTF_2Xnd" resolve="line" />
                      </node>
                      <node concept="HtI8k" id="39FuRsD2A7J" role="2OqNvi">
                        <node concept="2GrUjf" id="39FuRsD2A7Q" role="HtI8F">
                          <ref role="2Gs0qQ" node="39FuRsD2A7i" resolve="elementLine" />
                        </node>
                      </node>
                    </node>
                  </node>
                </node>
              </node>
              <node concept="3clFbH" id="39FuRsD1jZY" role="3cqZAp" />
              <node concept="3clFbJ" id="39FuRsD2YQx" role="3cqZAp">
                <node concept="3clFbS" id="39FuRsD2YQy" role="3clFbx">
                  <node concept="3clFbF" id="39FuRsD38WI" role="3cqZAp">
                    <node concept="37vLTI" id="39FuRsD38WK" role="3clFbG">
                      <node concept="2OqwBi" id="39FuRsD38WO" role="37vLTx">
                        <node concept="13iPFW" id="39FuRsD38WN" role="2Oq$k0" />
                        <node concept="2bSWHS" id="39FuRsD38WS" role="2OqNvi" />
                      </node>
                      <node concept="37vLTw" id="3GM_nagTz5U" role="37vLTJ">
                        <ref role="3cqZAo" node="ooaTF_3fDE" resolve="index" />
                      </node>
                    </node>
                  </node>
                  <node concept="3clFbF" id="39FuRsD38WU" role="3cqZAp">
                    <node concept="2OqwBi" id="39FuRsD38WW" role="3clFbG">
                      <node concept="13iPFW" id="39FuRsD38WV" role="2Oq$k0" />
                      <node concept="1PgB_6" id="39FuRsD38X0" role="2OqNvi" />
                    </node>
                  </node>
                  <node concept="3clFbJ" id="4MwXQrlMNF7" role="3cqZAp">
                    <node concept="3clFbS" id="4MwXQrlMNF8" role="3clFbx">
                      <node concept="3clFbF" id="4MwXQrlMNF9" role="3cqZAp">
                        <node concept="37vLTI" id="4MwXQrlMNFa" role="3clFbG">
                          <node concept="37vLTw" id="3GM_nagTvPI" role="37vLTJ">
                            <ref role="3cqZAo" node="4MwXQrlLO5x" resolve="nodeToSelect" />
                          </node>
                          <node concept="1y4W85" id="4MwXQrlMNFc" role="37vLTx">
                            <node concept="3cpWsd" id="4MwXQrlMNFd" role="1y58nS">
                              <node concept="3cmrfG" id="4MwXQrlMNFe" role="3uHU7w">
                                <property role="3cmrfH" value="1" />
                              </node>
                              <node concept="37vLTw" id="3GM_nagTsRu" role="3uHU7B">
                                <ref role="3cqZAo" node="ooaTF_3fDE" resolve="index" />
                              </node>
                            </node>
                            <node concept="2OqwBi" id="4MwXQrlMNFg" role="1y566C">
                              <node concept="37vLTw" id="3GM_nagT$g_" role="2Oq$k0">
                                <ref role="3cqZAo" node="ooaTF_2Xnd" resolve="line" />
                              </node>
                              <node concept="3Tsc0h" id="4MwXQrlMNFi" role="2OqNvi">
                                <ref role="3TtcxE" to="m373:7LZmMWLAgad" />
                              </node>
                            </node>
                          </node>
                        </node>
                      </node>
                      <node concept="3clFbF" id="4MwXQrlMNFj" role="3cqZAp">
                        <node concept="37vLTI" id="4MwXQrlMNFk" role="3clFbG">
                          <node concept="37vLTw" id="3GM_nagTxRy" role="37vLTJ">
                            <ref role="3cqZAo" node="4MwXQrlLO5A" resolve="caret" />
                          </node>
                          <node concept="2OqwBi" id="4MwXQrlMNFm" role="37vLTx">
                            <node concept="2OqwBi" id="4MwXQrlMNFn" role="2Oq$k0">
                              <node concept="1PxgMI" id="4MwXQrlMNFo" role="2Oq$k0">
                                <ref role="1m5ApE" to="m373:7LZmMWLAga7" resolve="TextCommentLinePart" />
                                <node concept="1y4W85" id="4MwXQrlMNFp" role="1m5AlR">
                                  <node concept="3cpWsd" id="4MwXQrlMNFq" role="1y58nS">
                                    <node concept="3cmrfG" id="4MwXQrlMNFr" role="3uHU7w">
                                      <property role="3cmrfH" value="1" />
                                    </node>
                                    <node concept="37vLTw" id="3GM_nagTs1I" role="3uHU7B">
                                      <ref role="3cqZAo" node="ooaTF_3fDE" resolve="index" />
                                    </node>
                                  </node>
                                  <node concept="2OqwBi" id="4MwXQrlMNFt" role="1y566C">
                                    <node concept="37vLTw" id="3GM_nagTBAa" role="2Oq$k0">
                                      <ref role="3cqZAo" node="ooaTF_2Xnd" resolve="line" />
                                    </node>
                                    <node concept="3Tsc0h" id="4MwXQrlMNFv" role="2OqNvi">
                                      <ref role="3TtcxE" to="m373:7LZmMWLAgad" />
                                    </node>
                                  </node>
                                </node>
                              </node>
                              <node concept="3TrcHB" id="4MwXQrlMNFw" role="2OqNvi">
                                <ref role="3TsBF5" to="m373:7LZmMWLAga8" resolve="text" />
                              </node>
                            </node>
                            <node concept="liA8E" id="4MwXQrlMNFx" role="2OqNvi">
                              <ref role="37wK5l" to="wyt6:~String.length():int" resolve="length" />
                            </node>
                          </node>
                        </node>
                      </node>
                    </node>
                    <node concept="3fqX7Q" id="4MwXQrlMNFy" role="3clFbw">
                      <node concept="37vLTw" id="2BHiRxgmhEV" role="3fr31v">
                        <ref role="3cqZAo" node="4MwXQrlL7P$" resolve="isBeginning" />
                      </node>
                    </node>
                  </node>
                  <node concept="3clFbF" id="39FuRsD38X2" role="3cqZAp">
                    <node concept="2OqwBi" id="39FuRsD38X4" role="3clFbG">
                      <node concept="37vLTw" id="3GM_nagTxMS" role="2Oq$k0">
                        <ref role="3cqZAo" node="ooaTF_2Xnd" resolve="line" />
                      </node>
                      <node concept="2qgKlT" id="39FuRsD38X8" role="2OqNvi">
                        <ref role="37wK5l" node="ooaTF_3fF3" resolve="tryMergeToRight" />
                        <node concept="3cpWsd" id="39FuRsD38Xa" role="37wK5m">
                          <node concept="3cmrfG" id="39FuRsD38Xd" role="3uHU7w">
                            <property role="3cmrfH" value="1" />
                          </node>
                          <node concept="37vLTw" id="3GM_nagTuek" role="3uHU7B">
                            <ref role="3cqZAo" node="ooaTF_3fDE" resolve="index" />
                          </node>
                        </node>
                      </node>
                    </node>
                  </node>
                </node>
                <node concept="2OqwBi" id="39FuRsD2YQC" role="3clFbw">
                  <node concept="37vLTw" id="3GM_nagTxm0" role="2Oq$k0">
                    <ref role="3cqZAo" node="39FuRsD1DZv" resolve="lastElementLine" />
                  </node>
                  <node concept="3w_OXm" id="39FuRsD2YQH" role="2OqNvi" />
                </node>
                <node concept="9aQIb" id="39FuRsD2YQK" role="9aQIa">
                  <node concept="3clFbS" id="39FuRsD2YQL" role="9aQI4">
                    <node concept="3SKdUt" id="6pumIWoCG09" role="3cqZAp">
                      <node concept="3SKdUq" id="6pumIWoCG0a" role="3SKWNk">
                        <property role="3SKdUp" value=" Merging last line parts" />
                      </node>
                    </node>
                    <node concept="3clFbF" id="39FuRsD2YQN" role="3cqZAp">
                      <node concept="37vLTI" id="39FuRsD2YQO" role="3clFbG">
                        <node concept="37vLTw" id="3GM_nagTzLd" role="37vLTJ">
                          <ref role="3cqZAo" node="ooaTF_3fDE" resolve="index" />
                        </node>
                        <node concept="3cpWsd" id="39FuRsD2YQQ" role="37vLTx">
                          <node concept="3cmrfG" id="39FuRsD2YQR" role="3uHU7w">
                            <property role="3cmrfH" value="1" />
                          </node>
                          <node concept="2OqwBi" id="39FuRsD2YQS" role="3uHU7B">
                            <node concept="2OqwBi" id="39FuRsD2YQT" role="2Oq$k0">
                              <node concept="37vLTw" id="3GM_nagT$dj" role="2Oq$k0">
                                <ref role="3cqZAo" node="39FuRsD1DZv" resolve="lastElementLine" />
                              </node>
                              <node concept="3Tsc0h" id="39FuRsD2YQV" role="2OqNvi">
                                <ref role="3TtcxE" to="m373:7LZmMWLAgad" />
                              </node>
                            </node>
                            <node concept="34oBXx" id="39FuRsD2YQW" role="2OqNvi" />
                          </node>
                        </node>
                      </node>
                    </node>
                    <node concept="2Gpval" id="39FuRsD2YQX" role="3cqZAp">
                      <node concept="2GrKxI" id="39FuRsD2YQY" role="2Gsz3X">
                        <property role="TrG5h" value="linePart" />
                      </node>
                      <node concept="2OqwBi" id="39FuRsD2YQZ" role="2GsD0m">
                        <node concept="13iPFW" id="39FuRsD2YR0" role="2Oq$k0" />
                        <node concept="2TlYAL" id="39FuRsD2YR1" role="2OqNvi" />
                      </node>
                      <node concept="3clFbS" id="39FuRsD2YR2" role="2LFqv$">
                        <node concept="3clFbF" id="39FuRsD2YR3" role="3cqZAp">
                          <node concept="2OqwBi" id="39FuRsD2YR4" role="3clFbG">
                            <node concept="2OqwBi" id="39FuRsD2YR5" role="2Oq$k0">
                              <node concept="37vLTw" id="3GM_nagTAnt" role="2Oq$k0">
                                <ref role="3cqZAo" node="39FuRsD1DZv" resolve="lastElementLine" />
                              </node>
                              <node concept="3Tsc0h" id="39FuRsD2YR7" role="2OqNvi">
                                <ref role="3TtcxE" to="m373:7LZmMWLAgad" />
                              </node>
                            </node>
                            <node concept="TSZUe" id="3IxUQxtNDi6" role="2OqNvi">
                              <node concept="1PxgMI" id="39FuRsD2YR9" role="25WWJ7">
                                <ref role="1m5ApE" to="m373:7LZmMWLAga6" resolve="CommentLinePart" />
                                <node concept="2GrUjf" id="39FuRsD2YRa" role="1m5AlR">
                                  <ref role="2Gs0qQ" node="39FuRsD2YQY" resolve="linePart" />
                                </node>
                              </node>
                            </node>
                          </node>
                        </node>
                      </node>
                    </node>
                    <node concept="3clFbF" id="39FuRsD2YRb" role="3cqZAp">
                      <node concept="2OqwBi" id="39FuRsD2YRc" role="3clFbG">
                        <node concept="13iPFW" id="39FuRsD2YRd" role="2Oq$k0" />
                        <node concept="1PgB_6" id="39FuRsD2YRe" role="2OqNvi" />
                      </node>
                    </node>
                    <node concept="3clFbJ" id="4MwXQrlLO7w" role="3cqZAp">
                      <node concept="3clFbS" id="4MwXQrlLO7x" role="3clFbx">
                        <node concept="3clFbF" id="4MwXQrlLO7y" role="3cqZAp">
                          <node concept="37vLTI" id="4MwXQrlLO7z" role="3clFbG">
                            <node concept="37vLTw" id="3GM_nagTzmb" role="37vLTJ">
                              <ref role="3cqZAo" node="4MwXQrlLO5x" resolve="nodeToSelect" />
                            </node>
                            <node concept="1y4W85" id="4MwXQrlLO8c" role="37vLTx">
                              <node concept="37vLTw" id="3GM_nagTB5U" role="1y58nS">
                                <ref role="3cqZAo" node="ooaTF_3fDE" resolve="index" />
                              </node>
                              <node concept="2OqwBi" id="4MwXQrlLO85" role="1y566C">
                                <node concept="37vLTw" id="3GM_nagTurT" role="2Oq$k0">
                                  <ref role="3cqZAo" node="39FuRsD1DZv" resolve="lastElementLine" />
                                </node>
                                <node concept="3Tsc0h" id="4MwXQrlLO8a" role="2OqNvi">
                                  <ref role="3TtcxE" to="m373:7LZmMWLAgad" />
                                </node>
                              </node>
                            </node>
                          </node>
                        </node>
                        <node concept="3clFbF" id="4MwXQrlLO7G" role="3cqZAp">
                          <node concept="37vLTI" id="4MwXQrlLO7H" role="3clFbG">
                            <node concept="37vLTw" id="3GM_nagTrel" role="37vLTJ">
                              <ref role="3cqZAo" node="4MwXQrlLO5A" resolve="caret" />
                            </node>
                            <node concept="2OqwBi" id="4MwXQrlLO7J" role="37vLTx">
                              <node concept="2OqwBi" id="4MwXQrlLO7K" role="2Oq$k0">
                                <node concept="1PxgMI" id="4MwXQrlLO7L" role="2Oq$k0">
                                  <ref role="1m5ApE" to="m373:7LZmMWLAga7" resolve="TextCommentLinePart" />
                                  <node concept="1y4W85" id="4MwXQrlLO8n" role="1m5AlR">
                                    <node concept="37vLTw" id="3GM_nagTv4o" role="1y58nS">
                                      <ref role="3cqZAo" node="ooaTF_3fDE" resolve="index" />
                                    </node>
                                    <node concept="2OqwBi" id="4MwXQrlLO8r" role="1y566C">
                                      <node concept="37vLTw" id="3GM_nagTti0" role="2Oq$k0">
                                        <ref role="3cqZAo" node="39FuRsD1DZv" resolve="lastElementLine" />
                                      </node>
                                      <node concept="3Tsc0h" id="4MwXQrlLO8t" role="2OqNvi">
                                        <ref role="3TtcxE" to="m373:7LZmMWLAgad" />
                                      </node>
                                    </node>
                                  </node>
                                </node>
                                <node concept="3TrcHB" id="4MwXQrlLO7T" role="2OqNvi">
                                  <ref role="3TsBF5" to="m373:7LZmMWLAga8" resolve="text" />
                                </node>
                              </node>
                              <node concept="liA8E" id="4MwXQrlLO7U" role="2OqNvi">
                                <ref role="37wK5l" to="wyt6:~String.length():int" resolve="length" />
                              </node>
                            </node>
                          </node>
                        </node>
                      </node>
                      <node concept="3fqX7Q" id="4MwXQrlLO7Z" role="3clFbw">
                        <node concept="37vLTw" id="2BHiRxglxS4" role="3fr31v">
                          <ref role="3cqZAo" node="4MwXQrlL7P$" resolve="isBeginning" />
                        </node>
                      </node>
                    </node>
                    <node concept="3clFbF" id="39FuRsD2YRf" role="3cqZAp">
                      <node concept="2OqwBi" id="39FuRsD2YRg" role="3clFbG">
                        <node concept="37vLTw" id="3GM_nagTu$1" role="2Oq$k0">
                          <ref role="3cqZAo" node="39FuRsD1DZv" resolve="lastElementLine" />
                        </node>
                        <node concept="2qgKlT" id="39FuRsD2YRi" role="2OqNvi">
                          <ref role="37wK5l" node="ooaTF_3fF3" resolve="tryMergeToRight" />
                          <node concept="37vLTw" id="3GM_nagTuwx" role="37wK5m">
                            <ref role="3cqZAo" node="ooaTF_3fDE" resolve="index" />
                          </node>
                        </node>
                      </node>
                    </node>
                  </node>
                </node>
              </node>
            </node>
          </node>
        </node>
        <node concept="3cpWs6" id="4MwXQrlL0c2" role="3cqZAp">
          <node concept="2ShNRf" id="4MwXQrlLOQv" role="3cqZAk">
            <node concept="1pGfFk" id="4MwXQrlLPOF" role="2ShVmc">
              <ref role="37wK5l" to="serg:4MwXQrlKKtK" resolve="NodeCaretPair" />
              <node concept="37vLTw" id="3GM_nagTubL" role="37wK5m">
                <ref role="3cqZAo" node="4MwXQrlLO5x" resolve="nodeToSelect" />
              </node>
              <node concept="37vLTw" id="3GM_nagTz1x" role="37wK5m">
                <ref role="3cqZAo" node="4MwXQrlLO5A" resolve="caret" />
              </node>
            </node>
          </node>
        </node>
      </node>
      <node concept="3Tm1VV" id="1DytxaBQUno" role="1B3o_S" />
      <node concept="37vLTG" id="4MwXQrlL7P$" role="3clF46">
        <property role="TrG5h" value="isBeginning" />
        <node concept="10P_77" id="4MwXQrlL7PD" role="1tU5fm" />
      </node>
      <node concept="3uibUv" id="4MwXQrlL7PC" role="3clF45">
        <ref role="3uigEE" to="serg:4MwXQrlKKtI" resolve="NodeCaretPair" />
      </node>
    </node>
  </node>
  <node concept="13h7C7" id="7PYAiugbmRr">
    <ref role="13h7C2" to="m373:7LZmMWLAga6" resolve="CommentLinePart" />
    <node concept="13hLZK" id="7PYAiugbmRs" role="13h7CW">
      <node concept="3clFbS" id="7PYAiugbmRt" role="2VODD2" />
    </node>
    <node concept="13i0hz" id="7PYAiugbmRz" role="13h7CS">
      <property role="13i0iv" value="false" />
      <property role="TrG5h" value="smartDelete" />
      <property role="13i0it" value="true" />
      <node concept="3Tm1VV" id="7PYAiugbmR$" role="1B3o_S" />
      <node concept="3uibUv" id="4MwXQrlL0bJ" role="3clF45">
        <ref role="3uigEE" to="serg:4MwXQrlKKtI" resolve="NodeCaretPair" />
      </node>
      <node concept="3clFbS" id="7PYAiugbmRA" role="3clF47">
        <node concept="3clFbF" id="7PYAiugbmRD" role="3cqZAp">
          <node concept="2OqwBi" id="7PYAiugbmRG" role="3clFbG">
            <node concept="13iPFW" id="7PYAiugbmRF" role="2Oq$k0" />
            <node concept="1PgB_6" id="7PYAiugbmRK" role="2OqNvi" />
          </node>
        </node>
        <node concept="3cpWs6" id="4MwXQrlL0bL" role="3cqZAp">
          <node concept="10Nm6u" id="4MwXQrlL0bN" role="3cqZAk" />
        </node>
      </node>
      <node concept="37vLTG" id="4MwXQrlL7Pw" role="3clF46">
        <property role="TrG5h" value="isBeginning" />
        <node concept="10P_77" id="4MwXQrlL7Px" role="1tU5fm" />
      </node>
    </node>
  </node>
  <node concept="13h7C7" id="39FuRsD2unG">
    <ref role="13h7C2" to="m373:7LZmMWLAga9" resolve="InlineTagCommentLinePart" />
    <node concept="13hLZK" id="39FuRsD2unH" role="13h7CW">
      <node concept="3clFbS" id="39FuRsD2unI" role="2VODD2" />
    </node>
    <node concept="13i0hz" id="39FuRsD2MS8" role="13h7CS">
      <property role="TrG5h" value="smartDelete" />
      <property role="13i0it" value="true" />
      <ref role="13i0hy" node="7PYAiugbmRz" resolve="smartDelete" />
      <node concept="3Tm1VV" id="39FuRsD2MS9" role="1B3o_S" />
      <node concept="3clFbS" id="39FuRsD2MSa" role="3clF47">
        <node concept="3cpWs8" id="39FuRsD2MSe" role="3cqZAp">
          <node concept="3cpWsn" id="39FuRsD2MSf" role="3cpWs9">
            <property role="TrG5h" value="index" />
            <node concept="10Oyi0" id="39FuRsD2MSg" role="1tU5fm" />
            <node concept="2OqwBi" id="39FuRsD2MSj" role="33vP2m">
              <node concept="13iPFW" id="39FuRsD2MSi" role="2Oq$k0" />
              <node concept="2bSWHS" id="39FuRsD2MSn" role="2OqNvi" />
            </node>
          </node>
        </node>
        <node concept="3cpWs8" id="39FuRsD2MSy" role="3cqZAp">
          <node concept="3cpWsn" id="39FuRsD2MSz" role="3cpWs9">
            <property role="TrG5h" value="line" />
            <node concept="3Tqbb2" id="39FuRsD2MS$" role="1tU5fm">
              <ref role="ehGHo" to="m373:7lVCwDcxZ_G" resolve="CommentLine" />
            </node>
            <node concept="1PxgMI" id="39FuRsD2MSG" role="33vP2m">
              <ref role="1m5ApE" to="m373:7lVCwDcxZ_G" resolve="CommentLine" />
              <node concept="2OqwBi" id="39FuRsD2MSB" role="1m5AlR">
                <node concept="13iPFW" id="39FuRsD2MSA" role="2Oq$k0" />
                <node concept="1mfA1w" id="39FuRsD2MSF" role="2OqNvi" />
              </node>
            </node>
          </node>
        </node>
        <node concept="3clFbF" id="39FuRsD2MSp" role="3cqZAp">
          <node concept="2OqwBi" id="39FuRsD2MSr" role="3clFbG">
            <node concept="13iPFW" id="39FuRsD2MSq" role="2Oq$k0" />
            <node concept="1PgB_6" id="39FuRsD2MSv" role="2OqNvi" />
          </node>
        </node>
        <node concept="3cpWs8" id="7bwTG8cdgJA" role="3cqZAp">
          <node concept="3cpWsn" id="7bwTG8cdgJB" role="3cpWs9">
            <property role="TrG5h" value="pair" />
            <node concept="3uibUv" id="7bwTG8cdgJC" role="1tU5fm">
              <ref role="3uigEE" to="serg:4MwXQrlKKtI" resolve="NodeCaretPair" />
            </node>
            <node concept="2OqwBi" id="7bwTG8cdgJD" role="33vP2m">
              <node concept="37vLTw" id="3GM_nagTwsH" role="2Oq$k0">
                <ref role="3cqZAo" node="39FuRsD2MSz" resolve="line" />
              </node>
              <node concept="2qgKlT" id="7bwTG8cdgJF" role="2OqNvi">
                <ref role="37wK5l" node="ooaTF_3fF3" resolve="tryMergeToRight" />
                <node concept="3cpWsd" id="7bwTG8cdgJG" role="37wK5m">
                  <node concept="3cmrfG" id="7bwTG8cdgJH" role="3uHU7w">
                    <property role="3cmrfH" value="1" />
                  </node>
                  <node concept="37vLTw" id="3GM_nagT_ut" role="3uHU7B">
                    <ref role="3cqZAo" node="39FuRsD2MSf" resolve="index" />
                  </node>
                </node>
              </node>
            </node>
          </node>
        </node>
        <node concept="3clFbJ" id="7bwTG8cdlXo" role="3cqZAp">
          <node concept="3clFbS" id="7bwTG8cdlXp" role="3clFbx">
            <node concept="3cpWs6" id="7bwTG8cdlXx" role="3cqZAp">
              <node concept="2ShNRf" id="7bwTG8cdlXz" role="3cqZAk">
                <node concept="1pGfFk" id="7bwTG8cdnfw" role="2ShVmc">
                  <ref role="37wK5l" to="serg:4MwXQrlKKtK" resolve="NodeCaretPair" />
                  <node concept="2OqwBi" id="7bwTG8cdBos" role="37wK5m">
                    <node concept="2OqwBi" id="7bwTG8cdBol" role="2Oq$k0">
                      <node concept="37vLTw" id="3GM_nagTsaH" role="2Oq$k0">
                        <ref role="3cqZAo" node="39FuRsD2MSz" resolve="line" />
                      </node>
                      <node concept="3Tsc0h" id="7bwTG8cdBor" role="2OqNvi">
                        <ref role="3TtcxE" to="m373:7LZmMWLAgad" />
                      </node>
                    </node>
                    <node concept="34jXtK" id="7bwTG8cdBow" role="2OqNvi">
                      <node concept="37vLTw" id="3GM_nagTr6i" role="25WWJ7">
                        <ref role="3cqZAo" node="39FuRsD2MSf" resolve="index" />
                      </node>
                    </node>
                  </node>
                  <node concept="3cmrfG" id="7bwTG8cdnfC" role="37wK5m">
                    <property role="3cmrfH" value="0" />
                  </node>
                </node>
              </node>
            </node>
          </node>
          <node concept="3clFbC" id="7bwTG8cdlXt" role="3clFbw">
            <node concept="10Nm6u" id="7bwTG8cdlXw" role="3uHU7w" />
            <node concept="37vLTw" id="3GM_nagTurF" role="3uHU7B">
              <ref role="3cqZAo" node="7bwTG8cdgJB" resolve="pair" />
            </node>
          </node>
          <node concept="9aQIb" id="7bwTG8cdnfE" role="9aQIa">
            <node concept="3clFbS" id="7bwTG8cdnfF" role="9aQI4">
              <node concept="3cpWs6" id="7bwTG8cdnfG" role="3cqZAp">
                <node concept="37vLTw" id="3GM_nagTz42" role="3cqZAk">
                  <ref role="3cqZAo" node="7bwTG8cdgJB" resolve="pair" />
                </node>
              </node>
            </node>
          </node>
        </node>
      </node>
      <node concept="3uibUv" id="7bwTG8cc2_S" role="3clF45">
        <ref role="3uigEE" to="serg:4MwXQrlKKtI" resolve="NodeCaretPair" />
      </node>
      <node concept="37vLTG" id="7bwTG8ccs_L" role="3clF46">
        <property role="TrG5h" value="isBegining" />
        <node concept="10P_77" id="7bwTG8ccs_M" role="1tU5fm" />
      </node>
    </node>
  </node>
  <node concept="13h7C7" id="1653mnvANL4">
    <ref role="13h7C2" to="m373:5VgPTPXL4JM" resolve="FieldDocComment" />
    <node concept="13hLZK" id="1653mnvANL5" role="13h7CW">
      <node concept="3clFbS" id="1653mnvANL6" role="2VODD2" />
    </node>
  </node>
  <node concept="13h7C7" id="7EYLKYFTDa_">
    <property role="3GE5qa" value="tag" />
    <ref role="13h7C2" to="m373:4iGwz$GTsqK" resolve="EmptyBlockDocTag" />
    <node concept="13hLZK" id="7EYLKYFTDaA" role="13h7CW">
      <node concept="3clFbS" id="7EYLKYFTDaB" role="2VODD2" />
    </node>
  </node>
</model>

