<?xml version="1.0" encoding="UTF-8"?>
<model ref="r:28bcf003-0004-46b6-9fe7-2093e7fb1368(jetbrains.mps.baseLanguage.javadoc.constraints)">
  <persistence version="9" />
  <languages>
    <use id="fd392034-7849-419d-9071-12563d152375" name="jetbrains.mps.baseLanguage.closures" version="0" />
    <use id="83888646-71ce-4f1c-9c53-c54016f6ad4f" name="jetbrains.mps.baseLanguage.collections" version="0" />
    <use id="3f4bc5f5-c6c1-4a28-8b10-c83066ffa4a1" name="jetbrains.mps.lang.constraints" version="0" />
    <use id="3a13115c-633c-4c5c-bbcc-75c4219e9555" name="jetbrains.mps.lang.quotation" version="0" />
    <use id="13744753-c81f-424a-9c1b-cf8943bf4e86" name="jetbrains.mps.lang.sharedConcepts" version="0" />
    <use id="7866978e-a0f0-4cc7-81bc-4d213d9375e1" name="jetbrains.mps.lang.smodel" version="4" />
    <use id="f3061a53-9226-4cc5-a443-f952ceaf5816" name="jetbrains.mps.baseLanguage" version="4" />
    <devkit ref="fbc25dd2-5da4-483a-8b19-70928e1b62d7(jetbrains.mps.devkit.general-purpose)" />
  </languages>
  <imports>
    <import index="m373" ref="r:4095af4f-a097-4799-aaa9-03df087ddfa6(jetbrains.mps.baseLanguage.javadoc.structure)" />
    <import index="tpee" ref="r:00000000-0000-4000-0000-011c895902ca(jetbrains.mps.baseLanguage.structure)" />
  </imports>
  <registry>
    <language id="13744753-c81f-424a-9c1b-cf8943bf4e86" name="jetbrains.mps.lang.sharedConcepts">
      <concept id="1161622665029" name="jetbrains.mps.lang.sharedConcepts.structure.ConceptFunctionParameter_model" flags="nn" index="1Q6Npb" />
    </language>
    <language id="f3061a53-9226-4cc5-a443-f952ceaf5816" name="jetbrains.mps.baseLanguage">
      <concept id="1080223426719" name="jetbrains.mps.baseLanguage.structure.OrExpression" flags="nn" index="22lmx$" />
      <concept id="4836112446988635817" name="jetbrains.mps.baseLanguage.structure.UndefinedType" flags="in" index="2jxLKc" />
      <concept id="1197027756228" name="jetbrains.mps.baseLanguage.structure.DotExpression" flags="nn" index="2OqwBi">
        <child id="1197027771414" name="operand" index="2Oq$k0" />
        <child id="1197027833540" name="operation" index="2OqNvi" />
      </concept>
      <concept id="1137021947720" name="jetbrains.mps.baseLanguage.structure.ConceptFunction" flags="in" index="2VMwT0">
        <child id="1137022507850" name="body" index="2VODD2" />
      </concept>
      <concept id="1068431474542" name="jetbrains.mps.baseLanguage.structure.VariableDeclaration" flags="ng" index="33uBYm">
        <child id="1068431790190" name="initializer" index="33vP2m" />
      </concept>
      <concept id="1068498886296" name="jetbrains.mps.baseLanguage.structure.VariableReference" flags="nn" index="37vLTw">
        <reference id="1068581517664" name="variableDeclaration" index="3cqZAo" />
      </concept>
      <concept id="1225271283259" name="jetbrains.mps.baseLanguage.structure.NPEEqualsExpression" flags="nn" index="17R0WA" />
      <concept id="4972933694980447171" name="jetbrains.mps.baseLanguage.structure.BaseVariableDeclaration" flags="ng" index="19Szcq">
        <child id="5680397130376446158" name="type" index="1tU5fm" />
      </concept>
      <concept id="1068580123152" name="jetbrains.mps.baseLanguage.structure.EqualsExpression" flags="nn" index="3clFbC" />
      <concept id="1068580123155" name="jetbrains.mps.baseLanguage.structure.ExpressionStatement" flags="nn" index="3clFbF">
        <child id="1068580123156" name="expression" index="3clFbG" />
      </concept>
      <concept id="1068580123157" name="jetbrains.mps.baseLanguage.structure.Statement" flags="nn" index="3clFbH" />
      <concept id="1068580123159" name="jetbrains.mps.baseLanguage.structure.IfStatement" flags="nn" index="3clFbJ">
        <child id="1068580123160" name="condition" index="3clFbw" />
        <child id="1068580123161" name="ifTrue" index="3clFbx" />
      </concept>
      <concept id="1068580123136" name="jetbrains.mps.baseLanguage.structure.StatementList" flags="sn" stub="5293379017992965193" index="3clFbS">
        <child id="1068581517665" name="statement" index="3cqZAp" />
      </concept>
      <concept id="1068580123137" name="jetbrains.mps.baseLanguage.structure.BooleanConstant" flags="nn" index="3clFbT">
        <property id="1068580123138" name="value" index="3clFbU" />
      </concept>
      <concept id="1068581242878" name="jetbrains.mps.baseLanguage.structure.ReturnStatement" flags="nn" index="3cpWs6">
        <child id="1068581517676" name="expression" index="3cqZAk" />
      </concept>
      <concept id="1068581242864" name="jetbrains.mps.baseLanguage.structure.LocalVariableDeclarationStatement" flags="nn" index="3cpWs8">
        <child id="1068581242865" name="localVariableDeclaration" index="3cpWs9" />
      </concept>
      <concept id="1068581242863" name="jetbrains.mps.baseLanguage.structure.LocalVariableDeclaration" flags="nr" index="3cpWsn" />
      <concept id="1079359253375" name="jetbrains.mps.baseLanguage.structure.ParenthesizedExpression" flags="nn" index="1eOMI4">
        <child id="1079359253376" name="expression" index="1eOMHV" />
      </concept>
      <concept id="1081516740877" name="jetbrains.mps.baseLanguage.structure.NotExpression" flags="nn" index="3fqX7Q">
        <child id="1081516765348" name="expression" index="3fr31v" />
      </concept>
      <concept id="1081773326031" name="jetbrains.mps.baseLanguage.structure.BinaryOperation" flags="nn" index="3uHJSO">
        <child id="1081773367579" name="rightExpression" index="3uHU7w" />
        <child id="1081773367580" name="leftExpression" index="3uHU7B" />
      </concept>
      <concept id="6329021646629104957" name="jetbrains.mps.baseLanguage.structure.TextCommentPart" flags="nn" index="3SKdUq">
        <property id="6329021646629104958" name="text" index="3SKdUp" />
      </concept>
      <concept id="6329021646629104954" name="jetbrains.mps.baseLanguage.structure.SingleLineComment" flags="nn" index="3SKdUt">
        <child id="6329021646629175155" name="commentPart" index="3SKWNk" />
      </concept>
      <concept id="1146644623116" name="jetbrains.mps.baseLanguage.structure.PrivateVisibility" flags="nn" index="3Tm6S6" />
      <concept id="1080120340718" name="jetbrains.mps.baseLanguage.structure.AndExpression" flags="nn" index="1Wc70l" />
    </language>
    <language id="3f4bc5f5-c6c1-4a28-8b10-c83066ffa4a1" name="jetbrains.mps.lang.constraints">
      <concept id="1148934636683" name="jetbrains.mps.lang.constraints.structure.ConceptParameter_ReferentSearchScope_enclosingNode" flags="nn" index="21POm0" />
      <concept id="1202989531578" name="jetbrains.mps.lang.constraints.structure.ConstraintFunction_CanBeAChild" flags="in" index="nKS2y" />
      <concept id="1202989658459" name="jetbrains.mps.lang.constraints.structure.ConstraintFunctionParameter_parentNode" flags="nn" index="nLn13" />
      <concept id="1203001093456" name="jetbrains.mps.lang.constraints.structure.ConstraintFunction_CanBeAParent" flags="in" index="osYL8" />
      <concept id="1147468365020" name="jetbrains.mps.lang.constraints.structure.ConstraintsFunctionParameter_node" flags="nn" index="EsrRn" />
      <concept id="1213093968558" name="jetbrains.mps.lang.constraints.structure.ConceptConstraints" flags="ng" index="1M2fIO">
        <reference id="1213093996982" name="concept" index="1M2myG" />
        <child id="1213100494875" name="referent" index="1Mr941" />
        <child id="1213106463729" name="canBeChild" index="1MLUbF" />
        <child id="1213106478122" name="canBeParent" index="1MLXOK" />
      </concept>
      <concept id="1148684180339" name="jetbrains.mps.lang.constraints.structure.ConstraintFunction_ReferentSearchScope_Factory" flags="in" index="1MUpDS" />
      <concept id="1148687176410" name="jetbrains.mps.lang.constraints.structure.NodeReferentConstraint" flags="ng" index="1N5Pfh">
        <reference id="1148687202698" name="applicableLink" index="1N5Vy1" />
        <child id="1148687345559" name="searchScopeFactory" index="1N6uqs" />
      </concept>
    </language>
    <language id="fd392034-7849-419d-9071-12563d152375" name="jetbrains.mps.baseLanguage.closures">
      <concept id="1199569711397" name="jetbrains.mps.baseLanguage.closures.structure.ClosureLiteral" flags="nn" index="1bVj0M">
        <child id="1199569906740" name="parameter" index="1bW2Oz" />
        <child id="1199569916463" name="body" index="1bW5cS" />
      </concept>
    </language>
    <language id="3a13115c-633c-4c5c-bbcc-75c4219e9555" name="jetbrains.mps.lang.quotation">
      <concept id="1196350785113" name="jetbrains.mps.lang.quotation.structure.Quotation" flags="nn" index="2c44tf">
        <child id="1196350785114" name="quotedNode" index="2c44tc" />
      </concept>
    </language>
    <language id="7866978e-a0f0-4cc7-81bc-4d213d9375e1" name="jetbrains.mps.lang.smodel">
      <concept id="1177026924588" name="jetbrains.mps.lang.smodel.structure.RefConcept_Reference" flags="nn" index="chp4Y">
        <reference id="1177026940964" name="conceptDeclaration" index="cht4Q" />
      </concept>
      <concept id="1138411891628" name="jetbrains.mps.lang.smodel.structure.SNodeOperation" flags="nn" index="eCIE_">
        <child id="1144104376918" name="parameter" index="1xVPHs" />
      </concept>
      <concept id="2396822768958367367" name="jetbrains.mps.lang.smodel.structure.AbstractTypeCastExpression" flags="nn" index="$5XWr">
        <reference id="6733348108486823428" name="concept" index="1m5ApE" />
        <child id="6733348108486823193" name="leftExpression" index="1m5AlR" />
      </concept>
      <concept id="1171407110247" name="jetbrains.mps.lang.smodel.structure.Node_GetAncestorOperation" flags="nn" index="2Xjw5R" />
      <concept id="1182511038748" name="jetbrains.mps.lang.smodel.structure.Model_NodesIncludingImportedOperation" flags="nn" index="1j9C0f">
        <reference id="1182511038750" name="concept" index="1j9C0d" />
      </concept>
      <concept id="1139621453865" name="jetbrains.mps.lang.smodel.structure.Node_IsInstanceOfOperation" flags="nn" index="1mIQ4w">
        <child id="1177027386292" name="conceptArgument" index="cj9EA" />
      </concept>
      <concept id="1172008320231" name="jetbrains.mps.lang.smodel.structure.Node_IsNotNullOperation" flags="nn" index="3x8VRR" />
      <concept id="1144101972840" name="jetbrains.mps.lang.smodel.structure.OperationParm_Concept" flags="ng" index="1xMEDy">
        <child id="1207343664468" name="conceptArgument" index="ri$Ld" />
      </concept>
      <concept id="1140137987495" name="jetbrains.mps.lang.smodel.structure.SNodeTypeCastExpression" flags="nn" index="1PxgMI">
        <property id="1238684351431" name="asCast" index="1BlNFB" />
      </concept>
      <concept id="1138055754698" name="jetbrains.mps.lang.smodel.structure.SNodeType" flags="in" index="3Tqbb2">
        <reference id="1138405853777" name="concept" index="ehGHo" />
      </concept>
      <concept id="1138056143562" name="jetbrains.mps.lang.smodel.structure.SLinkAccess" flags="nn" index="3TrEf2">
        <reference id="1138056516764" name="link" index="3Tt5mk" />
      </concept>
      <concept id="1138056282393" name="jetbrains.mps.lang.smodel.structure.SLinkListAccess" flags="nn" index="3Tsc0h">
        <reference id="1138056546658" name="link" index="3TtcxE" />
      </concept>
    </language>
    <language id="ceab5195-25ea-4f22-9b92-103b95ca8c0c" name="jetbrains.mps.lang.core">
      <concept id="1133920641626" name="jetbrains.mps.lang.core.structure.BaseConcept" flags="ng" index="2VYdi">
        <property id="1193676396447" name="virtualPackage" index="3GE5qa" />
      </concept>
      <concept id="1169194658468" name="jetbrains.mps.lang.core.structure.INamedConcept" flags="ng" index="TrEIO">
        <property id="1169194664001" name="name" index="TrG5h" />
      </concept>
    </language>
    <language id="83888646-71ce-4f1c-9c53-c54016f6ad4f" name="jetbrains.mps.baseLanguage.collections">
      <concept id="1204796164442" name="jetbrains.mps.baseLanguage.collections.structure.InternalSequenceOperation" flags="nn" index="23sCx2">
        <child id="1204796294226" name="closure" index="23t8la" />
      </concept>
      <concept id="1235566831861" name="jetbrains.mps.baseLanguage.collections.structure.AllOperation" flags="nn" index="2HxqBE" />
      <concept id="1203518072036" name="jetbrains.mps.baseLanguage.collections.structure.SmartClosureParameterDeclaration" flags="ig" index="Rh6nW" />
      <concept id="3055999550620853964" name="jetbrains.mps.baseLanguage.collections.structure.RemoveWhereOperation" flags="nn" index="1aUR6E" />
    </language>
  </registry>
  <node concept="1M2fIO" id="5VgPTPXJPtU">
    <property role="3GE5qa" value="reference" />
    <ref role="1M2myG" to="m373:5VgPTPXJCro" resolve="DocMethodParameterReference" />
    <node concept="1N5Pfh" id="5VgPTPXJPtV" role="1Mr941">
      <ref role="1N5Vy1" to="m373:5VgPTPXJCrt" />
      <node concept="1MUpDS" id="5VgPTPXJPtW" role="1N6uqs">
        <node concept="3clFbS" id="5VgPTPXJPtX" role="2VODD2">
          <node concept="3clFbF" id="5VgPTPXJPA3" role="3cqZAp">
            <node concept="2OqwBi" id="5VgPTPXJVOo" role="3clFbG">
              <node concept="2OqwBi" id="5VgPTPXJPA5" role="2Oq$k0">
                <node concept="21POm0" id="5VgPTPXK8gc" role="2Oq$k0" />
                <node concept="2Xjw5R" id="5VgPTPXJPAd" role="2OqNvi">
                  <node concept="1xMEDy" id="5VgPTPXJPAe" role="1xVPHs">
                    <node concept="chp4Y" id="5VgPTPXK22B" role="ri$Ld">
                      <ref role="cht4Q" to="tpee:fzclF7W" resolve="BaseMethodDeclaration" />
                    </node>
                  </node>
                </node>
              </node>
              <node concept="3Tsc0h" id="5VgPTPXK2_4" role="2OqNvi">
                <ref role="3TtcxE" to="tpee:fzclF7Y" />
              </node>
            </node>
          </node>
        </node>
      </node>
    </node>
  </node>
  <node concept="1M2fIO" id="5VgPTPXKdVm">
    <property role="3GE5qa" value="reference" />
    <ref role="1M2myG" to="m373:5VgPTPXJCrr" resolve="DocTypeParameterReference" />
    <node concept="1N5Pfh" id="5VgPTPXKdVn" role="1Mr941">
      <ref role="1N5Vy1" to="m373:5VgPTPXJCru" />
      <node concept="1MUpDS" id="5VgPTPXKdVo" role="1N6uqs">
        <node concept="3clFbS" id="5VgPTPXKdVp" role="2VODD2">
          <node concept="3clFbF" id="5VgPTPXKdVq" role="3cqZAp">
            <node concept="2OqwBi" id="5VgPTPXKiIe" role="3clFbG">
              <node concept="2OqwBi" id="5VgPTPXKdVs" role="2Oq$k0">
                <node concept="21POm0" id="5VgPTPXKdVr" role="2Oq$k0" />
                <node concept="2Xjw5R" id="5VgPTPXKdVw" role="2OqNvi">
                  <node concept="1xMEDy" id="5VgPTPXKdVx" role="1xVPHs">
                    <node concept="chp4Y" id="5VgPTPXKoXh" role="ri$Ld">
                      <ref role="cht4Q" to="tpee:g96eOhU" resolve="GenericDeclaration" />
                    </node>
                  </node>
                </node>
              </node>
              <node concept="3Tsc0h" id="5VgPTPXKjgJ" role="2OqNvi">
                <ref role="3TtcxE" to="tpee:g96eVAe" />
              </node>
            </node>
          </node>
        </node>
      </node>
    </node>
  </node>
  <node concept="1M2fIO" id="7LZmMWL$mIK">
    <property role="3GE5qa" value="tag" />
    <ref role="1M2myG" to="m373:55c3QxKk96e" resolve="ReturnBlockDocTag" />
    <node concept="nKS2y" id="7LZmMWL$mIL" role="1MLUbF">
      <node concept="3clFbS" id="7LZmMWL$mIM" role="2VODD2">
        <node concept="3clFbJ" id="4iGwz$GX0xB" role="3cqZAp">
          <node concept="3clFbS" id="4iGwz$GX0xV" role="3clFbx">
            <node concept="3cpWs6" id="4iGwz$GX1fI" role="3cqZAp">
              <node concept="3clFbT" id="4iGwz$GX1_3" role="3cqZAk">
                <property role="3clFbU" value="false" />
              </node>
            </node>
          </node>
          <node concept="3fqX7Q" id="4iGwz$GX149" role="3clFbw">
            <node concept="2OqwBi" id="4iGwz$GX14b" role="3fr31v">
              <node concept="nLn13" id="4iGwz$GX14c" role="2Oq$k0" />
              <node concept="1mIQ4w" id="4iGwz$GX14d" role="2OqNvi">
                <node concept="chp4Y" id="4iGwz$GX14e" role="cj9EA">
                  <ref role="cht4Q" to="m373:4CW56HZFIGO" resolve="MethodDocComment" />
                </node>
              </node>
            </node>
          </node>
        </node>
        <node concept="3clFbH" id="4iGwz$GX053" role="3cqZAp" />
        <node concept="3clFbJ" id="4EPKw6tSuf5" role="3cqZAp">
          <node concept="3clFbS" id="4EPKw6tSufJ" role="3clFbx">
            <node concept="3cpWs8" id="7LZmMWL$ux7" role="3cqZAp">
              <node concept="3cpWsn" id="7LZmMWL$ux8" role="3cpWs9">
                <property role="TrG5h" value="returnType" />
                <node concept="3Tqbb2" id="7LZmMWL$ux9" role="1tU5fm">
                  <ref role="ehGHo" to="tpee:fz3vP1H" resolve="Type" />
                </node>
                <node concept="2OqwBi" id="7LZmMWL$uxw" role="33vP2m">
                  <node concept="2OqwBi" id="7LZmMWL$uxr" role="2Oq$k0">
                    <node concept="nLn13" id="7LZmMWL$uxs" role="2Oq$k0" />
                    <node concept="2Xjw5R" id="7LZmMWL$uxt" role="2OqNvi">
                      <node concept="1xMEDy" id="7LZmMWL$uxu" role="1xVPHs">
                        <node concept="chp4Y" id="7LZmMWL$uxv" role="ri$Ld">
                          <ref role="cht4Q" to="tpee:fzclF7W" resolve="BaseMethodDeclaration" />
                        </node>
                      </node>
                    </node>
                  </node>
                  <node concept="3TrEf2" id="7LZmMWL$ux$" role="2OqNvi">
                    <ref role="3Tt5mk" to="tpee:fzclF7X" />
                  </node>
                </node>
              </node>
            </node>
            <node concept="3cpWs6" id="7LZmMWL$urx" role="3cqZAp">
              <node concept="3fqX7Q" id="7LZmMWL$urz" role="3cqZAk">
                <node concept="1eOMI4" id="3$myXoLqkLp" role="3fr31v">
                  <node concept="1Wc70l" id="7LZmMWL$uxJ" role="1eOMHV">
                    <node concept="2OqwBi" id="7LZmMWL$uxK" role="3uHU7B">
                      <node concept="37vLTw" id="3GM_nagTwm1" role="2Oq$k0">
                        <ref role="3cqZAo" node="7LZmMWL$ux8" resolve="returnType" />
                      </node>
                      <node concept="3x8VRR" id="7LZmMWL$uxM" role="2OqNvi" />
                    </node>
                    <node concept="2OqwBi" id="7LZmMWL$uxS" role="3uHU7w">
                      <node concept="37vLTw" id="3GM_nagTwH9" role="2Oq$k0">
                        <ref role="3cqZAo" node="7LZmMWL$ux8" resolve="returnType" />
                      </node>
                      <node concept="1mIQ4w" id="7LZmMWL$uxW" role="2OqNvi">
                        <node concept="chp4Y" id="7LZmMWL$uxY" role="cj9EA">
                          <ref role="cht4Q" to="tpee:fzcqZ_H" resolve="VoidType" />
                        </node>
                      </node>
                    </node>
                  </node>
                </node>
              </node>
            </node>
          </node>
          <node concept="2OqwBi" id="4EPKw6tStIb" role="3clFbw">
            <node concept="2OqwBi" id="4EPKw6tStIc" role="2Oq$k0">
              <node concept="1PxgMI" id="4EPKw6tStId" role="2Oq$k0">
                <property role="1BlNFB" value="true" />
                <ref role="1m5ApE" to="m373:4CW56HZFB3j" resolve="BaseDocComment" />
                <node concept="nLn13" id="4EPKw6tStIe" role="1m5AlR" />
              </node>
              <node concept="3Tsc0h" id="4EPKw6tStIf" role="2OqNvi">
                <ref role="3TtcxE" to="m373:4EPKw6tR9BN" />
              </node>
            </node>
            <node concept="2HxqBE" id="4EPKw6tStIg" role="2OqNvi">
              <node concept="1bVj0M" id="4EPKw6tStIh" role="23t8la">
                <node concept="3clFbS" id="4EPKw6tStIi" role="1bW5cS">
                  <node concept="3clFbF" id="4EPKw6tStIj" role="3cqZAp">
                    <node concept="22lmx$" id="4EPKw6tStIk" role="3clFbG">
                      <node concept="17R0WA" id="4EPKw6tStIl" role="3uHU7w">
                        <node concept="EsrRn" id="4EPKw6tStIm" role="3uHU7w" />
                        <node concept="37vLTw" id="4EPKw6tStIn" role="3uHU7B">
                          <ref role="3cqZAo" node="4EPKw6tStIt" resolve="it" />
                        </node>
                      </node>
                      <node concept="3fqX7Q" id="4EPKw6tStIo" role="3uHU7B">
                        <node concept="2OqwBi" id="4EPKw6tStIp" role="3fr31v">
                          <node concept="37vLTw" id="4EPKw6tStIq" role="2Oq$k0">
                            <ref role="3cqZAo" node="4EPKw6tStIt" resolve="it" />
                          </node>
                          <node concept="1mIQ4w" id="4EPKw6tStIr" role="2OqNvi">
                            <node concept="chp4Y" id="4EPKw6tStXd" role="cj9EA">
                              <ref role="cht4Q" to="m373:55c3QxKk96e" resolve="ReturnBlockDocTag" />
                            </node>
                          </node>
                        </node>
                      </node>
                    </node>
                  </node>
                </node>
                <node concept="Rh6nW" id="4EPKw6tStIt" role="1bW2Oz">
                  <property role="TrG5h" value="it" />
                  <node concept="2jxLKc" id="4EPKw6tStIu" role="1tU5fm" />
                </node>
              </node>
            </node>
          </node>
        </node>
        <node concept="3cpWs6" id="4EPKw6tSuNY" role="3cqZAp">
          <node concept="3clFbT" id="4EPKw6tSv1T" role="3cqZAk">
            <property role="3clFbU" value="false" />
          </node>
        </node>
      </node>
    </node>
  </node>
  <node concept="1M2fIO" id="1V5cIK_b9IN">
    <property role="3GE5qa" value="reference" />
    <ref role="1M2myG" to="m373:1V5cIK_b9CC" resolve="FieldDocReference" />
    <node concept="1N5Pfh" id="67rxNLYs8Ir" role="1Mr941">
      <ref role="1N5Vy1" to="m373:1V5cIK_b9CD" />
      <node concept="1MUpDS" id="67rxNLYs8Iu" role="1N6uqs">
        <node concept="3clFbS" id="67rxNLYs8Iv" role="2VODD2">
          <node concept="3clFbF" id="67rxNLYs8Rm" role="3cqZAp">
            <node concept="2OqwBi" id="2dnyg8EkKH9" role="3clFbG">
              <node concept="2OqwBi" id="67rxNLYs8Ro" role="2Oq$k0">
                <node concept="1Q6Npb" id="67rxNLYs8Rn" role="2Oq$k0" />
                <node concept="1j9C0f" id="67rxNLYs8Rs" role="2OqNvi">
                  <ref role="1j9C0d" to="tpee:fz12cDC" resolve="FieldDeclaration" />
                </node>
              </node>
              <node concept="1aUR6E" id="2dnyg8EkKHd" role="2OqNvi">
                <node concept="1bVj0M" id="2dnyg8EkKHe" role="23t8la">
                  <node concept="3clFbS" id="2dnyg8EkKHf" role="1bW5cS">
                    <node concept="3clFbF" id="2dnyg8EkKHp" role="3cqZAp">
                      <node concept="3clFbC" id="2dnyg8EkKI0" role="3clFbG">
                        <node concept="2c44tf" id="2dnyg8EkKIc" role="3uHU7w">
                          <node concept="3Tm6S6" id="2dnyg8EkKIn" role="2c44tc" />
                        </node>
                        <node concept="2OqwBi" id="2dnyg8EkKHA" role="3uHU7B">
                          <node concept="37vLTw" id="2BHiRxghfjd" role="2Oq$k0">
                            <ref role="3cqZAo" node="2dnyg8EkKHg" resolve="it" />
                          </node>
                          <node concept="3TrEf2" id="2dnyg8EkKHP" role="2OqNvi">
                            <ref role="3Tt5mk" to="tpee:h9B3oxE" />
                          </node>
                        </node>
                      </node>
                    </node>
                  </node>
                  <node concept="Rh6nW" id="2dnyg8EkKHg" role="1bW2Oz">
                    <property role="TrG5h" value="it" />
                    <node concept="2jxLKc" id="1P4c1XrzTmx" role="1tU5fm" />
                  </node>
                </node>
              </node>
            </node>
          </node>
        </node>
      </node>
    </node>
  </node>
  <node concept="1M2fIO" id="2dnyg8El0fJ">
    <property role="3GE5qa" value="reference" />
    <ref role="1M2myG" to="m373:1V5cIK_ctb$" resolve="ClassifierDocReference" />
    <node concept="1N5Pfh" id="2dnyg8El0fK" role="1Mr941">
      <ref role="1N5Vy1" to="m373:1V5cIK_ctb_" />
      <node concept="1MUpDS" id="2dnyg8El0fL" role="1N6uqs">
        <node concept="3clFbS" id="2dnyg8El0fM" role="2VODD2">
          <node concept="3clFbF" id="2dnyg8El0fN" role="3cqZAp">
            <node concept="2OqwBi" id="2dnyg8El0fO" role="3clFbG">
              <node concept="2OqwBi" id="2dnyg8El0fP" role="2Oq$k0">
                <node concept="1Q6Npb" id="2dnyg8El0fQ" role="2Oq$k0" />
                <node concept="1j9C0f" id="2dnyg8El0fR" role="2OqNvi">
                  <ref role="1j9C0d" to="tpee:g7pOWCK" resolve="Classifier" />
                </node>
              </node>
              <node concept="1aUR6E" id="2dnyg8El0fT" role="2OqNvi">
                <node concept="1bVj0M" id="2dnyg8El0fU" role="23t8la">
                  <node concept="3clFbS" id="2dnyg8El0fV" role="1bW5cS">
                    <node concept="3clFbF" id="2dnyg8El0fW" role="3cqZAp">
                      <node concept="3clFbC" id="2dnyg8El0fX" role="3clFbG">
                        <node concept="2c44tf" id="2dnyg8El0fY" role="3uHU7w">
                          <node concept="3Tm6S6" id="2dnyg8El0fZ" role="2c44tc" />
                        </node>
                        <node concept="2OqwBi" id="2dnyg8El0g0" role="3uHU7B">
                          <node concept="37vLTw" id="2BHiRxglK7L" role="2Oq$k0">
                            <ref role="3cqZAo" node="2dnyg8El0g3" resolve="it" />
                          </node>
                          <node concept="3TrEf2" id="2dnyg8El0g2" role="2OqNvi">
                            <ref role="3Tt5mk" to="tpee:h9B3oxE" />
                          </node>
                        </node>
                      </node>
                    </node>
                  </node>
                  <node concept="Rh6nW" id="2dnyg8El0g3" role="1bW2Oz">
                    <property role="TrG5h" value="it" />
                    <node concept="2jxLKc" id="1P4c1XrzTav" role="1tU5fm" />
                  </node>
                </node>
              </node>
            </node>
          </node>
        </node>
      </node>
    </node>
  </node>
  <node concept="1M2fIO" id="2dnyg8El0gz">
    <property role="3GE5qa" value="reference" />
    <ref role="1M2myG" to="m373:1V5cIK_ctbj" resolve="MethodDocReference" />
    <node concept="1N5Pfh" id="2dnyg8El0g_" role="1Mr941">
      <ref role="1N5Vy1" to="m373:1V5cIK_ctbk" />
      <node concept="1MUpDS" id="2dnyg8El0gA" role="1N6uqs">
        <node concept="3clFbS" id="2dnyg8El0gB" role="2VODD2">
          <node concept="3clFbF" id="2dnyg8El0gC" role="3cqZAp">
            <node concept="2OqwBi" id="2dnyg8El0gD" role="3clFbG">
              <node concept="2OqwBi" id="2dnyg8El0gE" role="2Oq$k0">
                <node concept="1Q6Npb" id="2dnyg8El0gF" role="2Oq$k0" />
                <node concept="1j9C0f" id="2dnyg8El0gG" role="2OqNvi">
                  <ref role="1j9C0d" to="tpee:fzclF7W" resolve="BaseMethodDeclaration" />
                </node>
              </node>
              <node concept="1aUR6E" id="2dnyg8El0gI" role="2OqNvi">
                <node concept="1bVj0M" id="2dnyg8El0gJ" role="23t8la">
                  <node concept="3clFbS" id="2dnyg8El0gK" role="1bW5cS">
                    <node concept="3clFbF" id="2dnyg8El0gL" role="3cqZAp">
                      <node concept="1Wc70l" id="2dnyg8El1c0" role="3clFbG">
                        <node concept="3clFbC" id="2dnyg8El0gM" role="3uHU7w">
                          <node concept="2c44tf" id="2dnyg8El0gN" role="3uHU7w">
                            <node concept="3Tm6S6" id="2dnyg8El0gO" role="2c44tc" />
                          </node>
                          <node concept="2OqwBi" id="2dnyg8El1d7" role="3uHU7B">
                            <node concept="1PxgMI" id="2dnyg8El1cC" role="2Oq$k0">
                              <ref role="1m5ApE" to="tpee:h9B3isZ" resolve="IVisible" />
                              <node concept="37vLTw" id="2BHiRxglB3K" role="1m5AlR">
                                <ref role="3cqZAo" node="2dnyg8El0gS" resolve="it" />
                              </node>
                            </node>
                            <node concept="3TrEf2" id="2dnyg8El1dm" role="2OqNvi">
                              <ref role="3Tt5mk" to="tpee:h9B3oxE" />
                            </node>
                          </node>
                        </node>
                        <node concept="2OqwBi" id="2dnyg8El0gP" role="3uHU7B">
                          <node concept="37vLTw" id="2BHiRxgmI8H" role="2Oq$k0">
                            <ref role="3cqZAo" node="2dnyg8El0gS" resolve="it" />
                          </node>
                          <node concept="1mIQ4w" id="2dnyg8El1ba" role="2OqNvi">
                            <node concept="chp4Y" id="2dnyg8El1bl" role="cj9EA">
                              <ref role="cht4Q" to="tpee:h9B3isZ" resolve="IVisible" />
                            </node>
                          </node>
                        </node>
                      </node>
                    </node>
                  </node>
                  <node concept="Rh6nW" id="2dnyg8El0gS" role="1bW2Oz">
                    <property role="TrG5h" value="it" />
                    <node concept="2jxLKc" id="1P4c1XrzTdi" role="1tU5fm" />
                  </node>
                </node>
              </node>
            </node>
          </node>
        </node>
      </node>
    </node>
  </node>
  <node concept="1M2fIO" id="5CSG7KHrnMa">
    <property role="3GE5qa" value="reference" />
    <ref role="1M2myG" to="m373:5CSG7KHrnLV" resolve="StaticFieldDocReference" />
    <node concept="1N5Pfh" id="5CSG7KHrnMl" role="1Mr941">
      <ref role="1N5Vy1" to="m373:5CSG7KHrnM6" />
      <node concept="1MUpDS" id="5CSG7KHrnMm" role="1N6uqs">
        <node concept="3clFbS" id="5CSG7KHrnMn" role="2VODD2">
          <node concept="3clFbF" id="5CSG7KHrnMo" role="3cqZAp">
            <node concept="2OqwBi" id="5CSG7KHrnMx" role="3clFbG">
              <node concept="2OqwBi" id="5CSG7KHrnMq" role="2Oq$k0">
                <node concept="1Q6Npb" id="5CSG7KHrnMp" role="2Oq$k0" />
                <node concept="1j9C0f" id="5CSG7KHrnMu" role="2OqNvi">
                  <ref role="1j9C0d" to="tpee:f$Wx3kv" resolve="StaticFieldDeclaration" />
                </node>
              </node>
              <node concept="1aUR6E" id="5CSG7KHrnM_" role="2OqNvi">
                <node concept="1bVj0M" id="5CSG7KHrnMA" role="23t8la">
                  <node concept="3clFbS" id="5CSG7KHrnMB" role="1bW5cS">
                    <node concept="3clFbF" id="5CSG7KHrnML" role="3cqZAp">
                      <node concept="3clFbC" id="5CSG7KHrnNe" role="3clFbG">
                        <node concept="2c44tf" id="5CSG7KHrnNq" role="3uHU7w">
                          <node concept="3Tm6S6" id="5CSG7KHrnN_" role="2c44tc" />
                        </node>
                        <node concept="2OqwBi" id="5CSG7KHrnMP" role="3uHU7B">
                          <node concept="37vLTw" id="2BHiRxgm5WJ" role="2Oq$k0">
                            <ref role="3cqZAo" node="5CSG7KHrnMC" resolve="it" />
                          </node>
                          <node concept="3TrEf2" id="5CSG7KHrnN3" role="2OqNvi">
                            <ref role="3Tt5mk" to="tpee:h9B3oxE" />
                          </node>
                        </node>
                      </node>
                    </node>
                  </node>
                  <node concept="Rh6nW" id="5CSG7KHrnMC" role="1bW2Oz">
                    <property role="TrG5h" value="it" />
                    <node concept="2jxLKc" id="1P4c1XrzTeZ" role="1tU5fm" />
                  </node>
                </node>
              </node>
            </node>
          </node>
        </node>
      </node>
    </node>
  </node>
  <node concept="1M2fIO" id="2eoNJJ2iWF4">
    <property role="3GE5qa" value="tag" />
    <ref role="1M2myG" to="m373:62wYidULuwV" resolve="ValueInlineDocTag" />
    <node concept="osYL8" id="3qMIh8uQaGy" role="1MLXOK">
      <node concept="3clFbS" id="3qMIh8uQaGz" role="2VODD2">
        <node concept="3SKdUt" id="6pumIWoCFZj" role="3cqZAp">
          <node concept="3SKdUq" id="6pumIWoCFZk" role="3SKWNk">
            <property role="3SKdUp" value=" TODO check for constant" />
          </node>
        </node>
        <node concept="3clFbF" id="3qMIh8uQb6H" role="3cqZAp">
          <node concept="3clFbT" id="3qMIh8uQb6I" role="3clFbG">
            <property role="3clFbU" value="true" />
          </node>
        </node>
      </node>
    </node>
  </node>
  <node concept="1M2fIO" id="4EPKw6tSk53">
    <property role="3GE5qa" value="tag" />
    <ref role="1M2myG" to="m373:7lVCwDcxZ_$" resolve="DeprecatedBlockDocTag" />
    <node concept="nKS2y" id="4EPKw6tSk54" role="1MLUbF">
      <node concept="3clFbS" id="4EPKw6tSk55" role="2VODD2">
        <node concept="3clFbF" id="4EPKw6tSka4" role="3cqZAp">
          <node concept="2OqwBi" id="4EPKw6tSlMx" role="3clFbG">
            <node concept="2OqwBi" id="4EPKw6tSkA9" role="2Oq$k0">
              <node concept="1PxgMI" id="4EPKw6tSkhU" role="2Oq$k0">
                <property role="1BlNFB" value="true" />
                <ref role="1m5ApE" to="m373:4CW56HZFB3j" resolve="BaseDocComment" />
                <node concept="nLn13" id="4EPKw6tSka3" role="1m5AlR" />
              </node>
              <node concept="3Tsc0h" id="4EPKw6tSkYh" role="2OqNvi">
                <ref role="3TtcxE" to="m373:4EPKw6tR9BN" />
              </node>
            </node>
            <node concept="2HxqBE" id="4EPKw6tSshF" role="2OqNvi">
              <node concept="1bVj0M" id="4EPKw6tSshH" role="23t8la">
                <node concept="3clFbS" id="4EPKw6tSshI" role="1bW5cS">
                  <node concept="3clFbF" id="4EPKw6tSshJ" role="3cqZAp">
                    <node concept="22lmx$" id="4EPKw6tSsxK" role="3clFbG">
                      <node concept="17R0WA" id="4EPKw6tSt8V" role="3uHU7w">
                        <node concept="EsrRn" id="4EPKw6tSti3" role="3uHU7w" />
                        <node concept="37vLTw" id="4EPKw6tSsST" role="3uHU7B">
                          <ref role="3cqZAo" node="4EPKw6tSshO" resolve="it" />
                        </node>
                      </node>
                      <node concept="3fqX7Q" id="4EPKw6tSsJM" role="3uHU7B">
                        <node concept="2OqwBi" id="4EPKw6tSsJO" role="3fr31v">
                          <node concept="37vLTw" id="4EPKw6tSsJP" role="2Oq$k0">
                            <ref role="3cqZAo" node="4EPKw6tSshO" resolve="it" />
                          </node>
                          <node concept="1mIQ4w" id="4EPKw6tSsJQ" role="2OqNvi">
                            <node concept="chp4Y" id="4EPKw6tSsJR" role="cj9EA">
                              <ref role="cht4Q" to="m373:7lVCwDcxZ_$" resolve="DeprecatedBlockDocTag" />
                            </node>
                          </node>
                        </node>
                      </node>
                    </node>
                  </node>
                </node>
                <node concept="Rh6nW" id="4EPKw6tSshO" role="1bW2Oz">
                  <property role="TrG5h" value="it" />
                  <node concept="2jxLKc" id="4EPKw6tSshP" role="1tU5fm" />
                </node>
              </node>
            </node>
          </node>
        </node>
      </node>
    </node>
  </node>
  <node concept="1M2fIO" id="4EPKw6tR9Ef">
    <property role="3GE5qa" value="tag" />
    <ref role="1M2myG" to="m373:7lVCwDc$5Ya" resolve="ParameterBlockDocTag" />
    <node concept="nKS2y" id="4EPKw6tR9Eg" role="1MLUbF">
      <node concept="3clFbS" id="4EPKw6tR9Eh" role="2VODD2">
        <node concept="3clFbF" id="4EPKw6tRv3D" role="3cqZAp">
          <node concept="22lmx$" id="4EPKw6tRDe1" role="3clFbG">
            <node concept="2OqwBi" id="4EPKw6tRDrA" role="3uHU7w">
              <node concept="nLn13" id="4EPKw6tRDks" role="2Oq$k0" />
              <node concept="1mIQ4w" id="4EPKw6tRDEL" role="2OqNvi">
                <node concept="chp4Y" id="4EPKw6tRDLi" role="cj9EA">
                  <ref role="cht4Q" to="m373:4CW56HZFIGO" resolve="MethodDocComment" />
                </node>
              </node>
            </node>
            <node concept="2OqwBi" id="4EPKw6tRvri" role="3uHU7B">
              <node concept="nLn13" id="4EPKw6tRv3C" role="2Oq$k0" />
              <node concept="1mIQ4w" id="4EPKw6tRCOA" role="2OqNvi">
                <node concept="chp4Y" id="4EPKw6tRCUc" role="cj9EA">
                  <ref role="cht4Q" to="m373:1MQnpZAqBpc" resolve="ClassifierDocComment" />
                </node>
              </node>
            </node>
          </node>
        </node>
      </node>
    </node>
  </node>
  <node concept="1M2fIO" id="4EPKw6tRDSL">
    <property role="3GE5qa" value="tag" />
    <ref role="1M2myG" to="m373:55c3QxKjG9K" resolve="ThrowsBlockDocTag" />
    <node concept="nKS2y" id="4EPKw6tRDSM" role="1MLUbF">
      <node concept="3clFbS" id="4EPKw6tRDSN" role="2VODD2">
        <node concept="3clFbF" id="4EPKw6tRDXL" role="3cqZAp">
          <node concept="2OqwBi" id="4EPKw6tRDXN" role="3clFbG">
            <node concept="nLn13" id="4EPKw6tRDXO" role="2Oq$k0" />
            <node concept="1mIQ4w" id="4EPKw6tRDXP" role="2OqNvi">
              <node concept="chp4Y" id="4EPKw6tRDXQ" role="cj9EA">
                <ref role="cht4Q" to="m373:4CW56HZFIGO" resolve="MethodDocComment" />
              </node>
            </node>
          </node>
        </node>
      </node>
    </node>
  </node>
</model>

