<?xml version="1.0" encoding="UTF-8"?>
<model ref="r:84fe4b11-ad68-47d5-a834-0274798d73f7(jetbrains.mps.baseLanguage.javadoc.textGen)">
  <persistence version="9" />
  <languages>
    <use id="83888646-71ce-4f1c-9c53-c54016f6ad4f" name="jetbrains.mps.baseLanguage.collections" version="0" />
    <use id="b83431fe-5c8f-40bc-8a36-65e25f4dd253" name="jetbrains.mps.lang.textGen" version="0" />
    <use id="7866978e-a0f0-4cc7-81bc-4d213d9375e1" name="jetbrains.mps.lang.smodel" version="4" />
    <use id="f3061a53-9226-4cc5-a443-f952ceaf5816" name="jetbrains.mps.baseLanguage" version="4" />
    <devkit ref="fbc25dd2-5da4-483a-8b19-70928e1b62d7(jetbrains.mps.devkit.general-purpose)" />
  </languages>
  <imports>
    <import index="m373" ref="r:4095af4f-a097-4799-aaa9-03df087ddfa6(jetbrains.mps.baseLanguage.javadoc.structure)" />
    <import index="tpcu" ref="r:00000000-0000-4000-0000-011c89590282(jetbrains.mps.lang.core.behavior)" />
    <import index="tpee" ref="r:00000000-0000-4000-0000-011c895902ca(jetbrains.mps.baseLanguage.structure)" />
    <import index="bzl4" ref="r:9d0684e9-039f-4e88-b824-947b454f70f2(jetbrains.mps.baseLanguage.javadoc.behavior)" />
    <import index="tpck" ref="r:00000000-0000-4000-0000-011c89590288(jetbrains.mps.lang.core.structure)" implicit="true" />
  </imports>
  <registry>
    <language id="f3061a53-9226-4cc5-a443-f952ceaf5816" name="jetbrains.mps.baseLanguage">
      <concept id="1080223426719" name="jetbrains.mps.baseLanguage.structure.OrExpression" flags="nn" index="22lmx$" />
      <concept id="1082485599095" name="jetbrains.mps.baseLanguage.structure.BlockStatement" flags="nn" index="9aQIb">
        <child id="1082485599096" name="statements" index="9aQI4" />
      </concept>
      <concept id="4836112446988635817" name="jetbrains.mps.baseLanguage.structure.UndefinedType" flags="in" index="2jxLKc" />
      <concept id="1239714755177" name="jetbrains.mps.baseLanguage.structure.AbstractUnaryNumberOperation" flags="nn" index="2$Kvd9">
        <child id="1239714902950" name="expression" index="2$L3a6" />
      </concept>
      <concept id="1154032098014" name="jetbrains.mps.baseLanguage.structure.AbstractLoopStatement" flags="nn" index="2LF5Ji">
        <child id="1154032183016" name="body" index="2LFqv$" />
      </concept>
      <concept id="1197027756228" name="jetbrains.mps.baseLanguage.structure.DotExpression" flags="nn" index="2OqwBi">
        <child id="1197027771414" name="operand" index="2Oq$k0" />
        <child id="1197027833540" name="operation" index="2OqNvi" />
      </concept>
      <concept id="1137021947720" name="jetbrains.mps.baseLanguage.structure.ConceptFunction" flags="in" index="2VMwT0">
        <child id="1137022507850" name="body" index="2VODD2" />
      </concept>
      <concept id="1070534370425" name="jetbrains.mps.baseLanguage.structure.IntegerType" flags="in" index="10Oyi0" />
      <concept id="1068431474542" name="jetbrains.mps.baseLanguage.structure.VariableDeclaration" flags="ng" index="33uBYm">
        <child id="1068431790190" name="initializer" index="33vP2m" />
      </concept>
      <concept id="1068498886296" name="jetbrains.mps.baseLanguage.structure.VariableReference" flags="nn" index="37vLTw">
        <reference id="1068581517664" name="variableDeclaration" index="3cqZAo" />
      </concept>
      <concept id="1068498886292" name="jetbrains.mps.baseLanguage.structure.ParameterDeclaration" flags="ir" index="37vLTG" />
      <concept id="4972933694980447171" name="jetbrains.mps.baseLanguage.structure.BaseVariableDeclaration" flags="ng" index="19Szcq">
        <child id="5680397130376446158" name="type" index="1tU5fm" />
      </concept>
      <concept id="1068580123132" name="jetbrains.mps.baseLanguage.structure.BaseMethodDeclaration" flags="ng" index="3clF44">
        <child id="1068580123133" name="returnType" index="3clF45" />
        <child id="1068580123134" name="parameter" index="3clF46" />
        <child id="1068580123135" name="body" index="3clF47" />
      </concept>
      <concept id="1068580123155" name="jetbrains.mps.baseLanguage.structure.ExpressionStatement" flags="nn" index="3clFbF">
        <child id="1068580123156" name="expression" index="3clFbG" />
      </concept>
      <concept id="1068580123157" name="jetbrains.mps.baseLanguage.structure.Statement" flags="nn" index="3clFbH" />
      <concept id="1068580123159" name="jetbrains.mps.baseLanguage.structure.IfStatement" flags="nn" index="3clFbJ">
        <child id="1082485599094" name="ifFalseStatement" index="9aQIa" />
        <child id="1068580123160" name="condition" index="3clFbw" />
        <child id="1068580123161" name="ifTrue" index="3clFbx" />
      </concept>
      <concept id="1068580123136" name="jetbrains.mps.baseLanguage.structure.StatementList" flags="sn" stub="5293379017992965193" index="3clFbS">
        <child id="1068581517665" name="statement" index="3cqZAp" />
      </concept>
      <concept id="1068580320020" name="jetbrains.mps.baseLanguage.structure.IntegerConstant" flags="nn" index="3cmrfG">
        <property id="1068580320021" name="value" index="3cmrfH" />
      </concept>
      <concept id="1068581242864" name="jetbrains.mps.baseLanguage.structure.LocalVariableDeclarationStatement" flags="nn" index="3cpWs8">
        <child id="1068581242865" name="localVariableDeclaration" index="3cpWs9" />
      </concept>
      <concept id="1068581242863" name="jetbrains.mps.baseLanguage.structure.LocalVariableDeclaration" flags="nr" index="3cpWsn" />
      <concept id="1068581517677" name="jetbrains.mps.baseLanguage.structure.VoidType" flags="in" index="3cqZAl" />
      <concept id="1081506773034" name="jetbrains.mps.baseLanguage.structure.LessThanExpression" flags="nn" index="3eOVzh" />
      <concept id="1081516740877" name="jetbrains.mps.baseLanguage.structure.NotExpression" flags="nn" index="3fqX7Q">
        <child id="1081516765348" name="expression" index="3fr31v" />
      </concept>
      <concept id="1204053956946" name="jetbrains.mps.baseLanguage.structure.IMethodCall" flags="ng" index="1ndlxa">
        <reference id="1068499141037" name="baseMethodDeclaration" index="37wK5l" />
      </concept>
      <concept id="1081773326031" name="jetbrains.mps.baseLanguage.structure.BinaryOperation" flags="nn" index="3uHJSO">
        <child id="1081773367579" name="rightExpression" index="3uHU7w" />
        <child id="1081773367580" name="leftExpression" index="3uHU7B" />
      </concept>
      <concept id="1214918800624" name="jetbrains.mps.baseLanguage.structure.PostfixIncrementExpression" flags="nn" index="3uNrnE" />
      <concept id="1073239437375" name="jetbrains.mps.baseLanguage.structure.NotEqualsExpression" flags="nn" index="3y3z36" />
      <concept id="1144230876926" name="jetbrains.mps.baseLanguage.structure.AbstractForStatement" flags="nn" index="1DupvO">
        <child id="1144230900587" name="variable" index="1Duv9x" />
      </concept>
      <concept id="1144231330558" name="jetbrains.mps.baseLanguage.structure.ForStatement" flags="nn" index="1Dw8fO">
        <child id="1144231399730" name="condition" index="1Dwp0S" />
        <child id="1144231408325" name="iteration" index="1Dwrff" />
      </concept>
      <concept id="6329021646629104957" name="jetbrains.mps.baseLanguage.structure.TextCommentPart" flags="nn" index="3SKdUq">
        <property id="6329021646629104958" name="text" index="3SKdUp" />
      </concept>
      <concept id="6329021646629104954" name="jetbrains.mps.baseLanguage.structure.SingleLineComment" flags="nn" index="3SKdUt">
        <child id="6329021646629175155" name="commentPart" index="3SKWNk" />
      </concept>
      <concept id="1080120340718" name="jetbrains.mps.baseLanguage.structure.AndExpression" flags="nn" index="1Wc70l" />
    </language>
    <language id="fd392034-7849-419d-9071-12563d152375" name="jetbrains.mps.baseLanguage.closures">
      <concept id="1199569711397" name="jetbrains.mps.baseLanguage.closures.structure.ClosureLiteral" flags="nn" index="1bVj0M">
        <child id="1199569906740" name="parameter" index="1bW2Oz" />
        <child id="1199569916463" name="body" index="1bW5cS" />
      </concept>
    </language>
    <language id="b83431fe-5c8f-40bc-8a36-65e25f4dd253" name="jetbrains.mps.lang.textGen">
      <concept id="1237305208784" name="jetbrains.mps.lang.textGen.structure.NewLineAppendPart" flags="ng" index="l8MVK" />
      <concept id="1237305334312" name="jetbrains.mps.lang.textGen.structure.NodeAppendPart" flags="ng" index="l9hG8">
        <child id="1237305790512" name="value" index="lb14g" />
      </concept>
      <concept id="1237305491868" name="jetbrains.mps.lang.textGen.structure.CollectionAppendPart" flags="ng" index="l9S2W">
        <child id="1237305945551" name="list" index="lbANJ" />
      </concept>
      <concept id="1237305557638" name="jetbrains.mps.lang.textGen.structure.ConstantStringAppendPart" flags="ng" index="la8eA">
        <property id="1237305576108" name="value" index="lacIc" />
      </concept>
      <concept id="1237306079178" name="jetbrains.mps.lang.textGen.structure.AppendOperation" flags="nn" index="lc7rE">
        <child id="1237306115446" name="part" index="lcghm" />
      </concept>
      <concept id="1233670071145" name="jetbrains.mps.lang.textGen.structure.ConceptTextGenDeclaration" flags="ig" index="WtQ9Q">
        <reference id="1233670257997" name="conceptDeclaration" index="WuzLi" />
        <child id="1233749296504" name="textGenBlock" index="11c4hB" />
      </concept>
      <concept id="1233748055915" name="jetbrains.mps.lang.textGen.structure.NodeParameter" flags="nn" index="117lpO" />
      <concept id="1233749247888" name="jetbrains.mps.lang.textGen.structure.GenerateTextDeclaration" flags="in" index="11bSqf" />
      <concept id="1233920501193" name="jetbrains.mps.lang.textGen.structure.IndentBufferOperation" flags="nn" index="1bpajm" />
      <concept id="1233921373471" name="jetbrains.mps.lang.textGen.structure.LanguageTextGenDeclaration" flags="ig" index="1bsvg0">
        <child id="1233922432965" name="operation" index="1bwxVq" />
      </concept>
      <concept id="1233922353619" name="jetbrains.mps.lang.textGen.structure.OperationDeclaration" flags="sg" stub="3147100357551177019" index="1bwezc" />
      <concept id="1233924848298" name="jetbrains.mps.lang.textGen.structure.OperationCall" flags="ng" index="1bDJIP">
        <reference id="1234190664409" name="function" index="1rvKf6" />
        <child id="1234191323697" name="parameter" index="1ryhcI" />
      </concept>
      <concept id="1236188139846" name="jetbrains.mps.lang.textGen.structure.WithIndentOperation" flags="nn" index="3izx1p">
        <child id="1236188238861" name="list" index="3izTki" />
      </concept>
      <concept id="8937790975493363649" name="jetbrains.mps.lang.textGen.structure.AttributedNodePart" flags="ng" index="3mW3T8" />
    </language>
    <language id="7866978e-a0f0-4cc7-81bc-4d213d9375e1" name="jetbrains.mps.lang.smodel">
      <concept id="1179168000618" name="jetbrains.mps.lang.smodel.structure.Node_GetIndexInParentOperation" flags="nn" index="2bSWHS" />
      <concept id="1177026924588" name="jetbrains.mps.lang.smodel.structure.RefConcept_Reference" flags="nn" index="chp4Y">
        <reference id="1177026940964" name="conceptDeclaration" index="cht4Q" />
      </concept>
      <concept id="1138411891628" name="jetbrains.mps.lang.smodel.structure.SNodeOperation" flags="nn" index="eCIE_">
        <child id="1144104376918" name="parameter" index="1xVPHs" />
      </concept>
      <concept id="1179409122411" name="jetbrains.mps.lang.smodel.structure.Node_ConceptMethodCall" flags="nn" index="2qgKlT" />
      <concept id="2396822768958367367" name="jetbrains.mps.lang.smodel.structure.AbstractTypeCastExpression" flags="nn" index="$5XWr">
        <reference id="6733348108486823428" name="concept" index="1m5ApE" />
        <child id="6733348108486823193" name="leftExpression" index="1m5AlR" />
      </concept>
      <concept id="1171407110247" name="jetbrains.mps.lang.smodel.structure.Node_GetAncestorOperation" flags="nn" index="2Xjw5R" />
      <concept id="1139613262185" name="jetbrains.mps.lang.smodel.structure.Node_GetParentOperation" flags="nn" index="1mfA1w" />
      <concept id="1139621453865" name="jetbrains.mps.lang.smodel.structure.Node_IsInstanceOfOperation" flags="nn" index="1mIQ4w">
        <child id="1177027386292" name="conceptArgument" index="cj9EA" />
      </concept>
      <concept id="1172008320231" name="jetbrains.mps.lang.smodel.structure.Node_IsNotNullOperation" flags="nn" index="3x8VRR" />
      <concept id="1144101972840" name="jetbrains.mps.lang.smodel.structure.OperationParm_Concept" flags="ng" index="1xMEDy">
        <child id="1207343664468" name="conceptArgument" index="ri$Ld" />
      </concept>
      <concept id="1140137987495" name="jetbrains.mps.lang.smodel.structure.SNodeTypeCastExpression" flags="nn" index="1PxgMI" />
      <concept id="1138055754698" name="jetbrains.mps.lang.smodel.structure.SNodeType" flags="in" index="3Tqbb2">
        <reference id="1138405853777" name="concept" index="ehGHo" />
      </concept>
      <concept id="1138056022639" name="jetbrains.mps.lang.smodel.structure.SPropertyAccess" flags="nn" index="3TrcHB">
        <reference id="1138056395725" name="property" index="3TsBF5" />
      </concept>
      <concept id="1138056143562" name="jetbrains.mps.lang.smodel.structure.SLinkAccess" flags="nn" index="3TrEf2">
        <reference id="1138056516764" name="link" index="3Tt5mk" />
      </concept>
      <concept id="1138056282393" name="jetbrains.mps.lang.smodel.structure.SLinkListAccess" flags="nn" index="3Tsc0h">
        <reference id="1138056546658" name="link" index="3TtcxE" />
      </concept>
    </language>
    <language id="ceab5195-25ea-4f22-9b92-103b95ca8c0c" name="jetbrains.mps.lang.core">
      <concept id="1133920641626" name="jetbrains.mps.lang.core.structure.BaseConcept" flags="ng" index="2VYdi">
        <property id="1193676396447" name="virtualPackage" index="3GE5qa" />
      </concept>
      <concept id="1169194658468" name="jetbrains.mps.lang.core.structure.INamedConcept" flags="ng" index="TrEIO">
        <property id="1169194664001" name="name" index="TrG5h" />
      </concept>
    </language>
    <language id="83888646-71ce-4f1c-9c53-c54016f6ad4f" name="jetbrains.mps.baseLanguage.collections">
      <concept id="1204796164442" name="jetbrains.mps.baseLanguage.collections.structure.InternalSequenceOperation" flags="nn" index="23sCx2">
        <child id="1204796294226" name="closure" index="23t8la" />
      </concept>
      <concept id="1235566554328" name="jetbrains.mps.baseLanguage.collections.structure.AnyOperation" flags="nn" index="2HwmR7" />
      <concept id="1203518072036" name="jetbrains.mps.baseLanguage.collections.structure.SmartClosureParameterDeclaration" flags="ig" index="Rh6nW" />
      <concept id="1162935959151" name="jetbrains.mps.baseLanguage.collections.structure.GetSizeOperation" flags="nn" index="34oBXx" />
      <concept id="1165525191778" name="jetbrains.mps.baseLanguage.collections.structure.GetFirstOperation" flags="nn" index="1uHKPH" />
      <concept id="1165530316231" name="jetbrains.mps.baseLanguage.collections.structure.IsEmptyOperation" flags="nn" index="1v1jN8" />
      <concept id="1225711141656" name="jetbrains.mps.baseLanguage.collections.structure.ListElementAccessExpression" flags="nn" index="1y4W85">
        <child id="1225711182005" name="list" index="1y566C" />
        <child id="1225711191269" name="index" index="1y58nS" />
      </concept>
      <concept id="1202120902084" name="jetbrains.mps.baseLanguage.collections.structure.WhereOperation" flags="nn" index="3zZkjj" />
      <concept id="1176501494711" name="jetbrains.mps.baseLanguage.collections.structure.IsNotEmptyOperation" flags="nn" index="3GX2aA" />
    </language>
  </registry>
  <node concept="WtQ9Q" id="3veQ_zQoT3t">
    <ref role="WuzLi" to="m373:4CW56HZFIGO" resolve="MethodDocComment" />
    <node concept="11bSqf" id="3veQ_zQoT3u" role="11c4hB">
      <node concept="3clFbS" id="3veQ_zQoT3v" role="2VODD2">
        <node concept="lc7rE" id="1Jj8OtqUca4" role="3cqZAp">
          <node concept="1bDJIP" id="1Jj8OtqUca6" role="lcghm">
            <ref role="1rvKf6" node="1Jj8OtqUc8V" resolve="docCommentStart" />
            <node concept="117lpO" id="1Jj8OtqUca7" role="1ryhcI" />
          </node>
        </node>
        <node concept="3clFbH" id="1Jj8OtqUca3" role="3cqZAp" />
        <node concept="lc7rE" id="63oBH1ILzea" role="3cqZAp">
          <node concept="l9S2W" id="63oBH1ILzeb" role="lcghm">
            <node concept="2OqwBi" id="63oBH1ILzec" role="lbANJ">
              <node concept="2OqwBi" id="63oBH1ILzed" role="2Oq$k0">
                <node concept="117lpO" id="63oBH1ILzs2" role="2Oq$k0" />
                <node concept="3Tsc0h" id="63oBH1ILzef" role="2OqNvi">
                  <ref role="3TtcxE" to="m373:4EPKw6tR9BN" />
                </node>
              </node>
              <node concept="3zZkjj" id="63oBH1ILzeg" role="2OqNvi">
                <node concept="1bVj0M" id="63oBH1ILzeh" role="23t8la">
                  <node concept="3clFbS" id="63oBH1ILzei" role="1bW5cS">
                    <node concept="3clFbF" id="63oBH1ILzej" role="3cqZAp">
                      <node concept="2OqwBi" id="63oBH1ILzek" role="3clFbG">
                        <node concept="37vLTw" id="63oBH1ILzel" role="2Oq$k0">
                          <ref role="3cqZAo" node="63oBH1ILzeo" resolve="it" />
                        </node>
                        <node concept="1mIQ4w" id="63oBH1ILzem" role="2OqNvi">
                          <node concept="chp4Y" id="63oBH1ILzoT" role="cj9EA">
                            <ref role="cht4Q" to="m373:7lVCwDc$5Ya" resolve="ParameterBlockDocTag" />
                          </node>
                        </node>
                      </node>
                    </node>
                  </node>
                  <node concept="Rh6nW" id="63oBH1ILzeo" role="1bW2Oz">
                    <property role="TrG5h" value="it" />
                    <node concept="2jxLKc" id="63oBH1ILzep" role="1tU5fm" />
                  </node>
                </node>
              </node>
            </node>
          </node>
        </node>
        <node concept="lc7rE" id="1Jj8OtqTS9h" role="3cqZAp">
          <node concept="l9S2W" id="1Jj8OtqTS9i" role="lcghm">
            <node concept="2OqwBi" id="1Jj8OtqTS9j" role="lbANJ">
              <node concept="117lpO" id="1Jj8OtqTS9k" role="2Oq$k0" />
              <node concept="3Tsc0h" id="1Jj8OtqTS9l" role="2OqNvi">
                <ref role="3TtcxE" to="m373:7lVCwDc$eFT" />
              </node>
            </node>
          </node>
        </node>
        <node concept="lc7rE" id="63oBH1ILzvK" role="3cqZAp">
          <node concept="l9S2W" id="63oBH1ILzvL" role="lcghm">
            <node concept="2OqwBi" id="63oBH1ILzvM" role="lbANJ">
              <node concept="2OqwBi" id="63oBH1ILzvN" role="2Oq$k0">
                <node concept="117lpO" id="63oBH1ILzvO" role="2Oq$k0" />
                <node concept="3Tsc0h" id="63oBH1ILzvP" role="2OqNvi">
                  <ref role="3TtcxE" to="m373:4EPKw6tR9BN" />
                </node>
              </node>
              <node concept="3zZkjj" id="63oBH1ILzvQ" role="2OqNvi">
                <node concept="1bVj0M" id="63oBH1ILzvR" role="23t8la">
                  <node concept="3clFbS" id="63oBH1ILzvS" role="1bW5cS">
                    <node concept="3clFbF" id="63oBH1ILzvT" role="3cqZAp">
                      <node concept="2OqwBi" id="63oBH1ILzvU" role="3clFbG">
                        <node concept="37vLTw" id="63oBH1ILzvV" role="2Oq$k0">
                          <ref role="3cqZAo" node="63oBH1ILzvY" resolve="it" />
                        </node>
                        <node concept="1mIQ4w" id="63oBH1ILzvW" role="2OqNvi">
                          <node concept="chp4Y" id="63oBH1ILzLb" role="cj9EA">
                            <ref role="cht4Q" to="m373:55c3QxKjG9K" resolve="ThrowsBlockDocTag" />
                          </node>
                        </node>
                      </node>
                    </node>
                  </node>
                  <node concept="Rh6nW" id="63oBH1ILzvY" role="1bW2Oz">
                    <property role="TrG5h" value="it" />
                    <node concept="2jxLKc" id="63oBH1ILzvZ" role="1tU5fm" />
                  </node>
                </node>
              </node>
            </node>
          </node>
        </node>
        <node concept="lc7rE" id="1Jj8OtqTS9m" role="3cqZAp">
          <node concept="l9S2W" id="1Jj8OtqTS9n" role="lcghm">
            <node concept="2OqwBi" id="1Jj8OtqTS9o" role="lbANJ">
              <node concept="117lpO" id="1Jj8OtqTS9p" role="2Oq$k0" />
              <node concept="3Tsc0h" id="1Jj8OtqTS9q" role="2OqNvi">
                <ref role="3TtcxE" to="m373:55c3QxKk96c" />
              </node>
            </node>
          </node>
        </node>
        <node concept="3clFbJ" id="63oBH1IL$mP" role="3cqZAp">
          <node concept="3clFbS" id="63oBH1IL$mR" role="3clFbx">
            <node concept="lc7rE" id="63oBH1ILzOt" role="3cqZAp">
              <node concept="l9hG8" id="63oBH1ILISF" role="lcghm">
                <node concept="2OqwBi" id="63oBH1ILJgg" role="lb14g">
                  <node concept="2OqwBi" id="63oBH1ILzOv" role="2Oq$k0">
                    <node concept="2OqwBi" id="63oBH1ILzOw" role="2Oq$k0">
                      <node concept="117lpO" id="63oBH1ILzOx" role="2Oq$k0" />
                      <node concept="3Tsc0h" id="63oBH1ILzOy" role="2OqNvi">
                        <ref role="3TtcxE" to="m373:4EPKw6tR9BN" />
                      </node>
                    </node>
                    <node concept="3zZkjj" id="63oBH1ILzOz" role="2OqNvi">
                      <node concept="1bVj0M" id="63oBH1ILzO$" role="23t8la">
                        <node concept="3clFbS" id="63oBH1ILzO_" role="1bW5cS">
                          <node concept="3clFbF" id="63oBH1ILzOA" role="3cqZAp">
                            <node concept="2OqwBi" id="63oBH1ILzOB" role="3clFbG">
                              <node concept="37vLTw" id="63oBH1ILzOC" role="2Oq$k0">
                                <ref role="3cqZAo" node="63oBH1ILzOF" resolve="it" />
                              </node>
                              <node concept="1mIQ4w" id="63oBH1ILzOD" role="2OqNvi">
                                <node concept="chp4Y" id="63oBH1ILIP8" role="cj9EA">
                                  <ref role="cht4Q" to="m373:55c3QxKk96e" resolve="ReturnBlockDocTag" />
                                </node>
                              </node>
                            </node>
                          </node>
                        </node>
                        <node concept="Rh6nW" id="63oBH1ILzOF" role="1bW2Oz">
                          <property role="TrG5h" value="it" />
                          <node concept="2jxLKc" id="63oBH1ILzOG" role="1tU5fm" />
                        </node>
                      </node>
                    </node>
                  </node>
                  <node concept="1uHKPH" id="63oBH1ILJDh" role="2OqNvi" />
                </node>
              </node>
            </node>
          </node>
          <node concept="2OqwBi" id="63oBH1ILFUE" role="3clFbw">
            <node concept="2OqwBi" id="63oBH1IL$zc" role="2Oq$k0">
              <node concept="117lpO" id="63oBH1IL$ws" role="2Oq$k0" />
              <node concept="3Tsc0h" id="63oBH1ILFaR" role="2OqNvi">
                <ref role="3TtcxE" to="m373:4EPKw6tR9BN" />
              </node>
            </node>
            <node concept="2HwmR7" id="63oBH1ILIny" role="2OqNvi">
              <node concept="1bVj0M" id="63oBH1ILIn$" role="23t8la">
                <node concept="3clFbS" id="63oBH1ILIn_" role="1bW5cS">
                  <node concept="3clFbF" id="63oBH1ILInA" role="3cqZAp">
                    <node concept="2OqwBi" id="63oBH1ILInB" role="3clFbG">
                      <node concept="37vLTw" id="63oBH1ILInC" role="2Oq$k0">
                        <ref role="3cqZAo" node="63oBH1ILInF" resolve="it" />
                      </node>
                      <node concept="1mIQ4w" id="63oBH1ILInD" role="2OqNvi">
                        <node concept="chp4Y" id="63oBH1ILInE" role="cj9EA">
                          <ref role="cht4Q" to="m373:55c3QxKk96e" resolve="ReturnBlockDocTag" />
                        </node>
                      </node>
                    </node>
                  </node>
                </node>
                <node concept="Rh6nW" id="63oBH1ILInF" role="1bW2Oz">
                  <property role="TrG5h" value="it" />
                  <node concept="2jxLKc" id="63oBH1ILInG" role="1tU5fm" />
                </node>
              </node>
            </node>
          </node>
          <node concept="9aQIb" id="63oBH1ILIwo" role="9aQIa">
            <node concept="3clFbS" id="63oBH1ILIwp" role="9aQI4">
              <node concept="3clFbJ" id="7QBPhoNJWBY" role="3cqZAp">
                <node concept="3clFbS" id="7QBPhoNJWBZ" role="3clFbx">
                  <node concept="lc7rE" id="3pXDj_D6dOz" role="3cqZAp">
                    <node concept="l9hG8" id="3pXDj_D6dOL" role="lcghm">
                      <node concept="2OqwBi" id="3pXDj_D6dOO" role="lb14g">
                        <node concept="117lpO" id="3pXDj_D6dON" role="2Oq$k0" />
                        <node concept="3TrEf2" id="3pXDj_D6dOS" role="2OqNvi">
                          <ref role="3Tt5mk" to="m373:55c3QxKk96o" />
                        </node>
                      </node>
                    </node>
                  </node>
                </node>
                <node concept="2OqwBi" id="7QBPhoNJWC8" role="3clFbw">
                  <node concept="2OqwBi" id="7QBPhoNJWC3" role="2Oq$k0">
                    <node concept="117lpO" id="7QBPhoNJWC2" role="2Oq$k0" />
                    <node concept="3TrEf2" id="7QBPhoNJWC7" role="2OqNvi">
                      <ref role="3Tt5mk" to="m373:55c3QxKk96o" />
                    </node>
                  </node>
                  <node concept="3x8VRR" id="7QBPhoNJWCc" role="2OqNvi" />
                </node>
              </node>
            </node>
          </node>
        </node>
        <node concept="3clFbH" id="1Jj8OtqTS8E" role="3cqZAp" />
        <node concept="lc7rE" id="1Jj8OtqUcax" role="3cqZAp">
          <node concept="1bDJIP" id="1Jj8OtqUcay" role="lcghm">
            <ref role="1rvKf6" node="1Jj8OtqUcad" resolve="docCommentEnd" />
            <node concept="117lpO" id="1Jj8OtqUcaz" role="1ryhcI" />
          </node>
        </node>
        <node concept="lc7rE" id="5NnxLi4NA1H" role="3cqZAp">
          <node concept="3mW3T8" id="5NnxLi4NA1I" role="lcghm" />
        </node>
      </node>
    </node>
  </node>
  <node concept="WtQ9Q" id="3veQ_zQr1Ya">
    <property role="3GE5qa" value="tag" />
    <ref role="WuzLi" to="m373:7lVCwDcxXQw" resolve="VersionBlockDocTag" />
    <node concept="11bSqf" id="3veQ_zQr1Yb" role="11c4hB">
      <node concept="3clFbS" id="3veQ_zQr1Yc" role="2VODD2">
        <node concept="lc7rE" id="3veQ_zQyV2O" role="3cqZAp">
          <node concept="l8MVK" id="3veQ_zQyV2Q" role="lcghm" />
          <node concept="1bDJIP" id="4Kyo7tsjZgJ" role="lcghm">
            <ref role="1rvKf6" node="4Kyo7tsjX13" resolve="javadocIndent" />
          </node>
        </node>
        <node concept="lc7rE" id="3veQ_zQr1Za" role="3cqZAp">
          <node concept="la8eA" id="3veQ_zQr1Zd" role="lcghm">
            <property role="lacIc" value="@version " />
          </node>
          <node concept="l9hG8" id="3veQ_zQrdV$" role="lcghm">
            <node concept="2OqwBi" id="3veQ_zQrdV_" role="lb14g">
              <node concept="117lpO" id="3veQ_zQrdVA" role="2Oq$k0" />
              <node concept="3TrcHB" id="3veQ_zQrdVB" role="2OqNvi">
                <ref role="3TsBF5" to="m373:7lVCwDcxXQx" resolve="text" />
              </node>
            </node>
          </node>
        </node>
      </node>
    </node>
  </node>
  <node concept="WtQ9Q" id="3veQ_zQrWS_">
    <property role="3GE5qa" value="tag" />
    <ref role="WuzLi" to="m373:4CW56HZFI4Y" resolve="AuthorBlockDocTag" />
    <node concept="11bSqf" id="3veQ_zQrWSA" role="11c4hB">
      <node concept="3clFbS" id="3veQ_zQrWSB" role="2VODD2">
        <node concept="lc7rE" id="3veQ_zQyV2K" role="3cqZAp">
          <node concept="l8MVK" id="3veQ_zQyV2M" role="lcghm" />
          <node concept="1bDJIP" id="4Kyo7tsjZgv" role="lcghm">
            <ref role="1rvKf6" node="4Kyo7tsjX13" resolve="javadocIndent" />
          </node>
        </node>
        <node concept="lc7rE" id="3veQ_zQrWSD" role="3cqZAp">
          <node concept="la8eA" id="3veQ_zQrWSE" role="lcghm">
            <property role="lacIc" value="@author " />
          </node>
          <node concept="l9hG8" id="3veQ_zQrWSF" role="lcghm">
            <node concept="2OqwBi" id="3veQ_zQrWSG" role="lb14g">
              <node concept="117lpO" id="3veQ_zQrWSH" role="2Oq$k0" />
              <node concept="3TrcHB" id="3veQ_zQrWSI" role="2OqNvi">
                <ref role="3TsBF5" to="m373:4CW56HZFIIq" resolve="text" />
              </node>
            </node>
          </node>
        </node>
      </node>
    </node>
  </node>
  <node concept="WtQ9Q" id="3veQ_zQrWSK">
    <property role="3GE5qa" value="tag" />
    <ref role="WuzLi" to="m373:7lVCwDcxXQH" resolve="SinceBlockDocTag" />
    <node concept="11bSqf" id="3veQ_zQrWSL" role="11c4hB">
      <node concept="3clFbS" id="3veQ_zQrWSM" role="2VODD2">
        <node concept="lc7rE" id="3veQ_zQyV2G" role="3cqZAp">
          <node concept="l8MVK" id="3veQ_zQyV2I" role="lcghm" />
          <node concept="1bDJIP" id="4Kyo7tsjZgF" role="lcghm">
            <ref role="1rvKf6" node="4Kyo7tsjX13" resolve="javadocIndent" />
          </node>
        </node>
        <node concept="lc7rE" id="3veQ_zQrWSO" role="3cqZAp">
          <node concept="la8eA" id="3veQ_zQrWSP" role="lcghm">
            <property role="lacIc" value="@since " />
          </node>
          <node concept="l9hG8" id="3veQ_zQrWSQ" role="lcghm">
            <node concept="2OqwBi" id="3veQ_zQrWSR" role="lb14g">
              <node concept="117lpO" id="3veQ_zQrWSS" role="2Oq$k0" />
              <node concept="3TrcHB" id="3veQ_zQrWST" role="2OqNvi">
                <ref role="3TsBF5" to="m373:7lVCwDcxXQJ" resolve="text" />
              </node>
            </node>
          </node>
        </node>
      </node>
    </node>
  </node>
  <node concept="WtQ9Q" id="3veQ_zQrWSV">
    <property role="3GE5qa" value="tag" />
    <ref role="WuzLi" to="m373:1V5cIK_baeF" resolve="SeeBlockDocTag" />
    <node concept="11bSqf" id="3veQ_zQrWSW" role="11c4hB">
      <node concept="3clFbS" id="3veQ_zQrWSX" role="2VODD2">
        <node concept="lc7rE" id="3veQ_zQyV2S" role="3cqZAp">
          <node concept="l8MVK" id="3veQ_zQyV2U" role="lcghm" />
          <node concept="1bDJIP" id="4Kyo7tsjZgD" role="lcghm">
            <ref role="1rvKf6" node="4Kyo7tsjX13" resolve="javadocIndent" />
          </node>
        </node>
        <node concept="lc7rE" id="3veQ_zQrWSZ" role="3cqZAp">
          <node concept="la8eA" id="3veQ_zQrWT0" role="lcghm">
            <property role="lacIc" value="@see " />
          </node>
          <node concept="l9hG8" id="3veQ_zQthm7" role="lcghm">
            <node concept="2OqwBi" id="3veQ_zQthma" role="lb14g">
              <node concept="117lpO" id="3veQ_zQthm9" role="2Oq$k0" />
              <node concept="3TrEf2" id="3veQ_zQthme" role="2OqNvi">
                <ref role="3Tt5mk" to="m373:1V5cIK_baeU" />
              </node>
            </node>
          </node>
          <node concept="la8eA" id="3veQ_zQywY1" role="lcghm">
            <property role="lacIc" value=" " />
          </node>
          <node concept="l9hG8" id="3veQ_zQrWT1" role="lcghm">
            <node concept="2OqwBi" id="3veQ_zQrWT2" role="lb14g">
              <node concept="117lpO" id="3veQ_zQrWT3" role="2Oq$k0" />
              <node concept="3TrcHB" id="3veQ_zQrWT4" role="2OqNvi">
                <ref role="3TsBF5" to="m373:1V5cIK_baeG" resolve="text" />
              </node>
            </node>
          </node>
        </node>
      </node>
    </node>
  </node>
  <node concept="WtQ9Q" id="3veQ_zQrWT8">
    <property role="3GE5qa" value="tag" />
    <ref role="WuzLi" to="m373:7lVCwDc$5Ya" resolve="ParameterBlockDocTag" />
    <node concept="11bSqf" id="3veQ_zQrWT9" role="11c4hB">
      <node concept="3clFbS" id="3veQ_zQrWTa" role="2VODD2">
        <node concept="lc7rE" id="3veQ_zQyV2Z" role="3cqZAp">
          <node concept="l8MVK" id="3veQ_zQyV31" role="lcghm" />
          <node concept="1bDJIP" id="4Kyo7tsjZg_" role="lcghm">
            <ref role="1rvKf6" node="4Kyo7tsjX13" resolve="javadocIndent" />
          </node>
        </node>
        <node concept="lc7rE" id="3veQ_zQrWTk" role="3cqZAp">
          <node concept="la8eA" id="3veQ_zQrWTl" role="lcghm">
            <property role="lacIc" value="@param " />
          </node>
          <node concept="l9hG8" id="3veQ_zQrWTs" role="lcghm">
            <node concept="2OqwBi" id="3veQ_zQrWTv" role="lb14g">
              <node concept="117lpO" id="3veQ_zQrWTu" role="2Oq$k0" />
              <node concept="3TrEf2" id="3veQ_zQrWTz" role="2OqNvi">
                <ref role="3Tt5mk" to="m373:5VgPTPXJCrF" />
              </node>
            </node>
          </node>
          <node concept="la8eA" id="3veQ_zQs3zh" role="lcghm">
            <property role="lacIc" value=" " />
          </node>
          <node concept="l9hG8" id="3veQ_zQrWTm" role="lcghm">
            <node concept="2OqwBi" id="3veQ_zQrWTn" role="lb14g">
              <node concept="117lpO" id="3veQ_zQrWTo" role="2Oq$k0" />
              <node concept="3TrcHB" id="3veQ_zQrWTp" role="2OqNvi">
                <ref role="3TsBF5" to="m373:7lVCwDc$5Ye" resolve="text" />
              </node>
            </node>
          </node>
        </node>
      </node>
    </node>
  </node>
  <node concept="WtQ9Q" id="3veQ_zQseBa">
    <property role="3GE5qa" value="tag" />
    <ref role="WuzLi" to="m373:55c3QxKjG9K" resolve="ThrowsBlockDocTag" />
    <node concept="11bSqf" id="3veQ_zQseBb" role="11c4hB">
      <node concept="3clFbS" id="3veQ_zQseBc" role="2VODD2">
        <node concept="lc7rE" id="3veQ_zQyV33" role="3cqZAp">
          <node concept="l8MVK" id="3veQ_zQyV35" role="lcghm" />
          <node concept="1bDJIP" id="4Kyo7tsjZgH" role="lcghm">
            <ref role="1rvKf6" node="4Kyo7tsjX13" resolve="javadocIndent" />
          </node>
        </node>
        <node concept="lc7rE" id="3veQ_zQseBe" role="3cqZAp">
          <node concept="la8eA" id="3veQ_zQseBf" role="lcghm">
            <property role="lacIc" value="@throws " />
          </node>
          <node concept="l9hG8" id="3veQ_zQseBg" role="lcghm">
            <node concept="2OqwBi" id="3veQ_zQseBj" role="lb14g">
              <node concept="117lpO" id="3veQ_zQseBk" role="2Oq$k0" />
              <node concept="3TrEf2" id="3veQ_zQseBu" role="2OqNvi">
                <ref role="3Tt5mk" to="m373:5VgPTPXJnrT" />
              </node>
            </node>
          </node>
          <node concept="la8eA" id="3veQ_zQseBo" role="lcghm">
            <property role="lacIc" value=" " />
          </node>
          <node concept="l9hG8" id="3veQ_zQseBp" role="lcghm">
            <node concept="2OqwBi" id="3veQ_zQseBq" role="lb14g">
              <node concept="117lpO" id="3veQ_zQseBr" role="2Oq$k0" />
              <node concept="3TrcHB" id="3veQ_zQseBs" role="2OqNvi">
                <ref role="3TsBF5" to="m373:55c3QxKjG9M" resolve="text" />
              </node>
            </node>
          </node>
        </node>
      </node>
    </node>
  </node>
  <node concept="WtQ9Q" id="3veQ_zQtNFt">
    <property role="3GE5qa" value="reference" />
    <ref role="WuzLi" to="m373:1V5cIK_ctbj" resolve="MethodDocReference" />
    <node concept="11bSqf" id="3veQ_zQtNFu" role="11c4hB">
      <node concept="3clFbS" id="3veQ_zQtNFv" role="2VODD2">
        <node concept="3cpWs8" id="3veQ_zQtNGv" role="3cqZAp">
          <node concept="3cpWsn" id="3veQ_zQtNGw" role="3cpWs9">
            <property role="TrG5h" value="method" />
            <node concept="3Tqbb2" id="3veQ_zQtNGx" role="1tU5fm">
              <ref role="ehGHo" to="tpee:fzclF7W" resolve="BaseMethodDeclaration" />
            </node>
            <node concept="2OqwBi" id="3veQ_zQtNG$" role="33vP2m">
              <node concept="117lpO" id="3veQ_zQtNG_" role="2Oq$k0" />
              <node concept="3TrEf2" id="3veQ_zQtNGA" role="2OqNvi">
                <ref role="3Tt5mk" to="m373:1V5cIK_ctbk" />
              </node>
            </node>
          </node>
        </node>
        <node concept="lc7rE" id="3veQ_zQtNZV" role="3cqZAp">
          <node concept="l9hG8" id="3veQ_zQv1I8" role="lcghm">
            <node concept="2OqwBi" id="3veQ_zQv1If" role="lb14g">
              <node concept="2OqwBi" id="3veQ_zQv1Ia" role="2Oq$k0">
                <node concept="37vLTw" id="3GM_nagTB85" role="2Oq$k0">
                  <ref role="3cqZAo" node="3veQ_zQtNGw" resolve="method" />
                </node>
                <node concept="2Xjw5R" id="3veQ_zQv1Ic" role="2OqNvi">
                  <node concept="1xMEDy" id="3veQ_zQv1Id" role="1xVPHs">
                    <node concept="chp4Y" id="3veQ_zQv1Ie" role="ri$Ld">
                      <ref role="cht4Q" to="tpee:g7pOWCK" resolve="Classifier" />
                    </node>
                  </node>
                </node>
              </node>
              <node concept="2qgKlT" id="3veQ_zQv1Ij" role="2OqNvi">
                <ref role="37wK5l" to="tpcu:hEwIO9y" resolve="getFqName" />
              </node>
            </node>
          </node>
          <node concept="la8eA" id="3veQ_zQtO03" role="lcghm">
            <property role="lacIc" value="#" />
          </node>
          <node concept="l9hG8" id="3veQ_zQtO05" role="lcghm">
            <node concept="2OqwBi" id="3veQ_zQu__2" role="lb14g">
              <node concept="37vLTw" id="3GM_nagTxuD" role="2Oq$k0">
                <ref role="3cqZAo" node="3veQ_zQtNGw" resolve="method" />
              </node>
              <node concept="3TrcHB" id="3veQ_zQuA7y" role="2OqNvi">
                <ref role="3TsBF5" to="tpck:h0TrG11" resolve="name" />
              </node>
            </node>
          </node>
          <node concept="la8eA" id="3veQ_zQuA7$" role="lcghm">
            <property role="lacIc" value="(" />
          </node>
        </node>
        <node concept="1Dw8fO" id="3veQ_zQuA8r" role="3cqZAp">
          <node concept="3clFbS" id="3veQ_zQuA8s" role="2LFqv$">
            <node concept="3clFbJ" id="3veQ_zQuA8S" role="3cqZAp">
              <node concept="3clFbS" id="3veQ_zQuA8T" role="3clFbx">
                <node concept="lc7rE" id="3veQ_zQuA91" role="3cqZAp">
                  <node concept="la8eA" id="3veQ_zQuA93" role="lcghm">
                    <property role="lacIc" value=", " />
                  </node>
                </node>
              </node>
              <node concept="3y3z36" id="3veQ_zQuA8X" role="3clFbw">
                <node concept="3cmrfG" id="3veQ_zQuA90" role="3uHU7w">
                  <property role="3cmrfH" value="0" />
                </node>
                <node concept="37vLTw" id="3GM_nagTxZv" role="3uHU7B">
                  <ref role="3cqZAo" node="3veQ_zQuA8x" resolve="i" />
                </node>
              </node>
            </node>
            <node concept="lc7rE" id="3veQ_zQuA95" role="3cqZAp">
              <node concept="l9hG8" id="3veQ_zQuA97" role="lcghm">
                <node concept="2OqwBi" id="3veQ_zQuPqq" role="lb14g">
                  <node concept="1y4W85" id="3veQ_zQuA9j" role="2Oq$k0">
                    <node concept="37vLTw" id="3GM_nagT_m_" role="1y58nS">
                      <ref role="3cqZAo" node="3veQ_zQuA8x" resolve="i" />
                    </node>
                    <node concept="2OqwBi" id="3veQ_zQuA9a" role="1y566C">
                      <node concept="37vLTw" id="3GM_nagTvRf" role="2Oq$k0">
                        <ref role="3cqZAo" node="3veQ_zQtNGw" resolve="method" />
                      </node>
                      <node concept="3Tsc0h" id="3veQ_zQuA9e" role="2OqNvi">
                        <ref role="3TtcxE" to="tpee:fzclF7Y" />
                      </node>
                    </node>
                  </node>
                  <node concept="3TrEf2" id="3veQ_zQuPqx" role="2OqNvi">
                    <ref role="3Tt5mk" to="tpee:4VkOLwjf83e" />
                  </node>
                </node>
              </node>
            </node>
          </node>
          <node concept="3cpWsn" id="3veQ_zQuA8x" role="1Duv9x">
            <property role="TrG5h" value="i" />
            <node concept="10Oyi0" id="3veQ_zQuA8y" role="1tU5fm" />
            <node concept="3cmrfG" id="3veQ_zQuA8$" role="33vP2m">
              <property role="3cmrfH" value="0" />
            </node>
          </node>
          <node concept="3eOVzh" id="3veQ_zQuA8A" role="1Dwp0S">
            <node concept="2OqwBi" id="3veQ_zQuA8J" role="3uHU7w">
              <node concept="2OqwBi" id="3veQ_zQuA8E" role="2Oq$k0">
                <node concept="37vLTw" id="3GM_nagT_nY" role="2Oq$k0">
                  <ref role="3cqZAo" node="3veQ_zQtNGw" resolve="method" />
                </node>
                <node concept="3Tsc0h" id="3veQ_zQuA8I" role="2OqNvi">
                  <ref role="3TtcxE" to="tpee:fzclF7Y" />
                </node>
              </node>
              <node concept="34oBXx" id="3veQ_zQuA8N" role="2OqNvi" />
            </node>
            <node concept="37vLTw" id="3GM_nagT$Do" role="3uHU7B">
              <ref role="3cqZAo" node="3veQ_zQuA8x" resolve="i" />
            </node>
          </node>
          <node concept="3uNrnE" id="3veQ_zQuA8Q" role="1Dwrff">
            <node concept="37vLTw" id="3GM_nagT$TO" role="2$L3a6">
              <ref role="3cqZAo" node="3veQ_zQuA8x" resolve="i" />
            </node>
          </node>
        </node>
        <node concept="lc7rE" id="3veQ_zQuA7D" role="3cqZAp">
          <node concept="la8eA" id="3veQ_zQuA7F" role="lcghm">
            <property role="lacIc" value=")" />
          </node>
        </node>
      </node>
    </node>
  </node>
  <node concept="WtQ9Q" id="3veQ_zQv1H0">
    <property role="3GE5qa" value="reference" />
    <ref role="WuzLi" to="m373:1V5cIK_ctb$" resolve="ClassifierDocReference" />
    <node concept="11bSqf" id="3veQ_zQv1H1" role="11c4hB">
      <node concept="3clFbS" id="3veQ_zQv1H2" role="2VODD2">
        <node concept="lc7rE" id="3veQ_zQv1Ik" role="3cqZAp">
          <node concept="l9hG8" id="3veQ_zQv1Im" role="lcghm">
            <node concept="2OqwBi" id="3veQ_zQv1Iv" role="lb14g">
              <node concept="2OqwBi" id="3veQ_zQv1Ip" role="2Oq$k0">
                <node concept="117lpO" id="3veQ_zQv1Io" role="2Oq$k0" />
                <node concept="3TrEf2" id="3veQ_zQv1Iu" role="2OqNvi">
                  <ref role="3Tt5mk" to="m373:1V5cIK_ctb_" />
                </node>
              </node>
              <node concept="2qgKlT" id="3veQ_zQv1Iz" role="2OqNvi">
                <ref role="37wK5l" to="tpcu:hEwIO9y" resolve="getFqName" />
              </node>
            </node>
          </node>
        </node>
      </node>
    </node>
  </node>
  <node concept="WtQ9Q" id="3veQ_zQv$6l">
    <property role="3GE5qa" value="reference" />
    <ref role="WuzLi" to="m373:1V5cIK_b9CC" resolve="FieldDocReference" />
    <node concept="11bSqf" id="3veQ_zQv$6m" role="11c4hB">
      <node concept="3clFbS" id="3veQ_zQv$6n" role="2VODD2">
        <node concept="lc7rE" id="3veQ_zQv$7e" role="3cqZAp">
          <node concept="l9hG8" id="3veQ_zQv$7g" role="lcghm">
            <node concept="2OqwBi" id="3veQ_zQv$7h" role="lb14g">
              <node concept="2OqwBi" id="3veQ_zQv$7i" role="2Oq$k0">
                <node concept="2OqwBi" id="3veQ_zQv$7p" role="2Oq$k0">
                  <node concept="117lpO" id="3veQ_zQv$7o" role="2Oq$k0" />
                  <node concept="3TrEf2" id="3veQ_zQv$7t" role="2OqNvi">
                    <ref role="3Tt5mk" to="m373:1V5cIK_b9CD" />
                  </node>
                </node>
                <node concept="2Xjw5R" id="3veQ_zQv$7k" role="2OqNvi">
                  <node concept="1xMEDy" id="3veQ_zQv$7l" role="1xVPHs">
                    <node concept="chp4Y" id="3veQ_zQv$7m" role="ri$Ld">
                      <ref role="cht4Q" to="tpee:g7pOWCK" resolve="Classifier" />
                    </node>
                  </node>
                </node>
              </node>
              <node concept="2qgKlT" id="3veQ_zQv$7n" role="2OqNvi">
                <ref role="37wK5l" to="tpcu:hEwIO9y" resolve="getFqName" />
              </node>
            </node>
          </node>
          <node concept="la8eA" id="3veQ_zQv$7w" role="lcghm">
            <property role="lacIc" value="#" />
          </node>
          <node concept="l9hG8" id="3veQ_zQv$7y" role="lcghm">
            <node concept="2OqwBi" id="3veQ_zQv$7E" role="lb14g">
              <node concept="2OqwBi" id="3veQ_zQv$7_" role="2Oq$k0">
                <node concept="117lpO" id="3veQ_zQv$7$" role="2Oq$k0" />
                <node concept="3TrEf2" id="3veQ_zQv$7D" role="2OqNvi">
                  <ref role="3Tt5mk" to="m373:1V5cIK_b9CD" />
                </node>
              </node>
              <node concept="3TrcHB" id="3veQ_zQv$7I" role="2OqNvi">
                <ref role="3TsBF5" to="tpck:h0TrG11" resolve="name" />
              </node>
            </node>
          </node>
        </node>
      </node>
    </node>
  </node>
  <node concept="WtQ9Q" id="3veQ_zQv$7J">
    <property role="3GE5qa" value="reference" />
    <ref role="WuzLi" to="m373:5CSG7KHrnLV" resolve="StaticFieldDocReference" />
    <node concept="11bSqf" id="3veQ_zQv$7K" role="11c4hB">
      <node concept="3clFbS" id="3veQ_zQv$7L" role="2VODD2">
        <node concept="lc7rE" id="3veQ_zQv$7M" role="3cqZAp">
          <node concept="l9hG8" id="3veQ_zQv$7N" role="lcghm">
            <node concept="2OqwBi" id="3veQ_zQv$7O" role="lb14g">
              <node concept="2OqwBi" id="3veQ_zQv$7P" role="2Oq$k0">
                <node concept="2OqwBi" id="3veQ_zQv$7Q" role="2Oq$k0">
                  <node concept="117lpO" id="3veQ_zQv$7R" role="2Oq$k0" />
                  <node concept="3TrEf2" id="3veQ_zQv$84" role="2OqNvi">
                    <ref role="3Tt5mk" to="m373:5CSG7KHrnM6" />
                  </node>
                </node>
                <node concept="2Xjw5R" id="3veQ_zQv$7T" role="2OqNvi">
                  <node concept="1xMEDy" id="3veQ_zQv$7U" role="1xVPHs">
                    <node concept="chp4Y" id="3veQ_zQv$7V" role="ri$Ld">
                      <ref role="cht4Q" to="tpee:g7pOWCK" resolve="Classifier" />
                    </node>
                  </node>
                </node>
              </node>
              <node concept="2qgKlT" id="3veQ_zQv$7W" role="2OqNvi">
                <ref role="37wK5l" to="tpcu:hEwIO9y" resolve="getFqName" />
              </node>
            </node>
          </node>
          <node concept="la8eA" id="3veQ_zQv$7X" role="lcghm">
            <property role="lacIc" value="#" />
          </node>
          <node concept="l9hG8" id="3veQ_zQv$7Y" role="lcghm">
            <node concept="2OqwBi" id="3veQ_zQv$7Z" role="lb14g">
              <node concept="2OqwBi" id="3veQ_zQv$80" role="2Oq$k0">
                <node concept="117lpO" id="3veQ_zQv$81" role="2Oq$k0" />
                <node concept="3TrEf2" id="3veQ_zQv$85" role="2OqNvi">
                  <ref role="3Tt5mk" to="m373:5CSG7KHrnM6" />
                </node>
              </node>
              <node concept="3TrcHB" id="3veQ_zQv$83" role="2OqNvi">
                <ref role="3TsBF5" to="tpck:h0TrG11" resolve="name" />
              </node>
            </node>
          </node>
        </node>
      </node>
    </node>
  </node>
  <node concept="WtQ9Q" id="3veQ_zQw2GW">
    <ref role="WuzLi" to="m373:5VgPTPXL4JM" resolve="FieldDocComment" />
    <node concept="11bSqf" id="3veQ_zQw2GX" role="11c4hB">
      <node concept="3clFbS" id="3veQ_zQw2GY" role="2VODD2">
        <node concept="lc7rE" id="1Jj8OtqUc9V" role="3cqZAp">
          <node concept="1bDJIP" id="1Jj8OtqUc9X" role="lcghm">
            <ref role="1rvKf6" node="1Jj8OtqUc8V" resolve="docCommentStart" />
            <node concept="117lpO" id="1Jj8OtqUca1" role="1ryhcI" />
          </node>
        </node>
        <node concept="lc7rE" id="1Jj8OtqUcat" role="3cqZAp">
          <node concept="1bDJIP" id="1Jj8OtqUcau" role="lcghm">
            <ref role="1rvKf6" node="1Jj8OtqUcad" resolve="docCommentEnd" />
            <node concept="117lpO" id="1Jj8OtqUcav" role="1ryhcI" />
          </node>
        </node>
        <node concept="lc7rE" id="5NnxLi4N_Dj" role="3cqZAp">
          <node concept="3mW3T8" id="5NnxLi4N_DZ" role="lcghm" />
        </node>
      </node>
    </node>
  </node>
  <node concept="WtQ9Q" id="3veQ_zQw2HQ">
    <ref role="WuzLi" to="m373:1MQnpZAqBpc" resolve="ClassifierDocComment" />
    <node concept="11bSqf" id="3veQ_zQw2HR" role="11c4hB">
      <node concept="3clFbS" id="3veQ_zQw2HS" role="2VODD2">
        <node concept="lc7rE" id="1Jj8OtqUcaa" role="3cqZAp">
          <node concept="1bDJIP" id="1Jj8OtqUcab" role="lcghm">
            <ref role="1rvKf6" node="1Jj8OtqUc8V" resolve="docCommentStart" />
            <node concept="117lpO" id="1Jj8OtqUcac" role="1ryhcI" />
          </node>
        </node>
        <node concept="3clFbH" id="63oBH1ILz0l" role="3cqZAp" />
        <node concept="lc7rE" id="63oBH1ILyP5" role="3cqZAp">
          <node concept="l9S2W" id="63oBH1ILyP6" role="lcghm">
            <node concept="2OqwBi" id="63oBH1ILyP7" role="lbANJ">
              <node concept="2OqwBi" id="63oBH1ILyP8" role="2Oq$k0">
                <node concept="117lpO" id="63oBH1ILyWB" role="2Oq$k0" />
                <node concept="3Tsc0h" id="63oBH1ILyPa" role="2OqNvi">
                  <ref role="3TtcxE" to="m373:4EPKw6tR9BN" />
                </node>
              </node>
              <node concept="3zZkjj" id="63oBH1ILyPb" role="2OqNvi">
                <node concept="1bVj0M" id="63oBH1ILyPc" role="23t8la">
                  <node concept="3clFbS" id="63oBH1ILyPd" role="1bW5cS">
                    <node concept="3clFbF" id="63oBH1ILyPe" role="3cqZAp">
                      <node concept="2OqwBi" id="63oBH1ILyPf" role="3clFbG">
                        <node concept="37vLTw" id="63oBH1ILyPg" role="2Oq$k0">
                          <ref role="3cqZAo" node="63oBH1ILyPj" resolve="it" />
                        </node>
                        <node concept="1mIQ4w" id="63oBH1ILyPh" role="2OqNvi">
                          <node concept="chp4Y" id="63oBH1ILz4V" role="cj9EA">
                            <ref role="cht4Q" to="m373:7lVCwDc$5Ya" resolve="ParameterBlockDocTag" />
                          </node>
                        </node>
                      </node>
                    </node>
                  </node>
                  <node concept="Rh6nW" id="63oBH1ILyPj" role="1bW2Oz">
                    <property role="TrG5h" value="it" />
                    <node concept="2jxLKc" id="63oBH1ILyPk" role="1tU5fm" />
                  </node>
                </node>
              </node>
            </node>
          </node>
        </node>
        <node concept="lc7rE" id="1Jj8OtqTS73" role="3cqZAp">
          <node concept="l9S2W" id="1Jj8OtqTS74" role="lcghm">
            <node concept="2OqwBi" id="1Jj8OtqTS75" role="lbANJ">
              <node concept="117lpO" id="1Jj8OtqTS76" role="2Oq$k0" />
              <node concept="3Tsc0h" id="1Jj8OtqTS77" role="2OqNvi">
                <ref role="3TtcxE" to="m373:1MQnpZAqBpe" />
              </node>
            </node>
          </node>
        </node>
        <node concept="3clFbH" id="1Jj8OtqTS7Y" role="3cqZAp" />
        <node concept="lc7rE" id="1Jj8OtqUcao" role="3cqZAp">
          <node concept="1bDJIP" id="1Jj8OtqUcaq" role="lcghm">
            <ref role="1rvKf6" node="1Jj8OtqUcad" resolve="docCommentEnd" />
            <node concept="117lpO" id="1Jj8OtqUcar" role="1ryhcI" />
          </node>
        </node>
        <node concept="lc7rE" id="5NnxLi4NAz$" role="3cqZAp">
          <node concept="3mW3T8" id="5NnxLi4NAz_" role="lcghm" />
        </node>
      </node>
    </node>
  </node>
  <node concept="WtQ9Q" id="3veQ_zQw385">
    <property role="3GE5qa" value="reference" />
    <ref role="WuzLi" to="m373:5VgPTPXJCrn" resolve="BaseParameterReference" />
    <node concept="11bSqf" id="3veQ_zQw386" role="11c4hB">
      <node concept="3clFbS" id="3veQ_zQw387" role="2VODD2">
        <node concept="lc7rE" id="3veQ_zQw388" role="3cqZAp">
          <node concept="l9hG8" id="3veQ_zQw389" role="lcghm">
            <node concept="2OqwBi" id="3veQ_zQw38a" role="lb14g">
              <node concept="2OqwBi" id="3veQ_zQw38b" role="2Oq$k0">
                <node concept="117lpO" id="3veQ_zQw38c" role="2Oq$k0" />
                <node concept="3TrEf2" id="3veQ_zQw38f" role="2OqNvi">
                  <ref role="3Tt5mk" to="m373:5VgPTPXJCrs" />
                </node>
              </node>
              <node concept="3TrcHB" id="3veQ_zQw38e" role="2OqNvi">
                <ref role="3TsBF5" to="tpck:h0TrG11" resolve="name" />
              </node>
            </node>
          </node>
        </node>
      </node>
    </node>
  </node>
  <node concept="WtQ9Q" id="3veQ_zQyFo4">
    <ref role="WuzLi" to="m373:7lVCwDcxZ_G" resolve="CommentLine" />
    <node concept="11bSqf" id="3veQ_zQyFo5" role="11c4hB">
      <node concept="3clFbS" id="3veQ_zQyFo6" role="2VODD2">
        <node concept="3SKdUt" id="6BkpuGOIxhM" role="3cqZAp">
          <node concept="3SKdUq" id="6BkpuGOIxiU" role="3SKWNk">
            <property role="3SKdUp" value="first line in tags needs to stay on the same line with the tag, DocComments prepend a new line explicitly" />
          </node>
        </node>
        <node concept="3clFbJ" id="1OzlC1cRljY" role="3cqZAp">
          <node concept="3clFbS" id="1OzlC1cRljZ" role="3clFbx">
            <node concept="lc7rE" id="1OzlC1cRlkm" role="3cqZAp">
              <node concept="l8MVK" id="1OzlC1cRlkn" role="lcghm" />
              <node concept="1bDJIP" id="4Kyo7tsjZgj" role="lcghm">
                <ref role="1rvKf6" node="4Kyo7tsjX13" resolve="javadocIndent" />
              </node>
            </node>
          </node>
          <node concept="3y3z36" id="1OzlC1cRlkh" role="3clFbw">
            <node concept="2OqwBi" id="1OzlC1cRlki" role="3uHU7B">
              <node concept="117lpO" id="1OzlC1cRlkj" role="2Oq$k0" />
              <node concept="2bSWHS" id="1OzlC1cRlkk" role="2OqNvi" />
            </node>
            <node concept="3cmrfG" id="1OzlC1cRlkl" role="3uHU7w">
              <property role="3cmrfH" value="0" />
            </node>
          </node>
        </node>
        <node concept="lc7rE" id="3veQ_zQyFoX" role="3cqZAp">
          <node concept="l9S2W" id="3veQ_zQzeIO" role="lcghm">
            <node concept="2OqwBi" id="3veQ_zQzeIR" role="lbANJ">
              <node concept="117lpO" id="3veQ_zQzeIQ" role="2Oq$k0" />
              <node concept="3Tsc0h" id="3veQ_zQzeIV" role="2OqNvi">
                <ref role="3TtcxE" to="m373:7LZmMWLAgad" />
              </node>
            </node>
          </node>
        </node>
      </node>
    </node>
  </node>
  <node concept="1bsvg0" id="3veQ_zQyTJ1">
    <property role="TrG5h" value="DocCommentTextGen" />
    <node concept="1bwezc" id="4Kyo7tsjX13" role="1bwxVq">
      <property role="TrG5h" value="javadocIndent" />
      <node concept="3cqZAl" id="4Kyo7tsjX14" role="3clF45" />
      <node concept="3clFbS" id="4Kyo7tsjX15" role="3clF47">
        <node concept="1bpajm" id="4Kyo7tsjXMT" role="3cqZAp" />
        <node concept="lc7rE" id="4Kyo7tsjXMV" role="3cqZAp">
          <node concept="la8eA" id="4Kyo7tsjXMX" role="lcghm">
            <property role="lacIc" value=" * " />
          </node>
        </node>
      </node>
    </node>
    <node concept="1bwezc" id="1Jj8OtqUc8V" role="1bwxVq">
      <property role="TrG5h" value="docCommentStart" />
      <node concept="3cqZAl" id="1Jj8OtqUc8W" role="3clF45" />
      <node concept="3clFbS" id="1Jj8OtqUc8X" role="3clF47">
        <node concept="1bpajm" id="1Jj8OtqUc96" role="3cqZAp" />
        <node concept="lc7rE" id="1Jj8OtqUc97" role="3cqZAp">
          <node concept="la8eA" id="1Jj8OtqUc98" role="lcghm">
            <property role="lacIc" value="/**" />
          </node>
        </node>
        <node concept="3clFbH" id="1Jj8OtqUc99" role="3cqZAp" />
        <node concept="3clFbJ" id="6BkpuGOGZZW" role="3cqZAp">
          <node concept="3clFbS" id="6BkpuGOGZZX" role="3clFbx">
            <node concept="lc7rE" id="1Jj8OtqUc9a" role="3cqZAp">
              <node concept="l8MVK" id="1Jj8OtqUc9b" role="lcghm" />
              <node concept="1bDJIP" id="1Jj8OtqUc9c" role="lcghm">
                <ref role="1rvKf6" node="4Kyo7tsjX13" resolve="javadocIndent" />
              </node>
            </node>
            <node concept="lc7rE" id="1Jj8OtqUc9d" role="3cqZAp">
              <node concept="l9S2W" id="1Jj8OtqUc9e" role="lcghm">
                <node concept="2OqwBi" id="1Jj8OtqUc9f" role="lbANJ">
                  <node concept="37vLTw" id="2BHiRxgm8pr" role="2Oq$k0">
                    <ref role="3cqZAo" node="1Jj8OtqUc92" resolve="node" />
                  </node>
                  <node concept="3Tsc0h" id="1Jj8OtqUc9h" role="2OqNvi">
                    <ref role="3TtcxE" to="m373:7lVCwDcxZ_I" />
                  </node>
                </node>
              </node>
            </node>
          </node>
          <node concept="2OqwBi" id="6BkpuGOHb4_" role="3clFbw">
            <node concept="2OqwBi" id="6BkpuGOH0pp" role="2Oq$k0">
              <node concept="37vLTw" id="6BkpuGOH02z" role="2Oq$k0">
                <ref role="3cqZAo" node="1Jj8OtqUc92" resolve="node" />
              </node>
              <node concept="3Tsc0h" id="6BkpuGOHakx" role="2OqNvi">
                <ref role="3TtcxE" to="m373:7lVCwDcxZ_I" />
              </node>
            </node>
            <node concept="3GX2aA" id="6BkpuGOHdte" role="2OqNvi" />
          </node>
        </node>
        <node concept="3clFbH" id="1Jj8OtqUc9i" role="3cqZAp" />
        <node concept="3SKdUt" id="6BkpuGOHdES" role="3cqZAp">
          <node concept="3SKdUq" id="6BkpuGOHdH_" role="3SKWNk">
            <property role="3SKdUp" value="A separator between text and tags" />
          </node>
        </node>
        <node concept="3clFbJ" id="1Jj8OtqUc9j" role="3cqZAp">
          <node concept="22lmx$" id="4iGwz$GSNHh" role="3clFbw">
            <node concept="3fqX7Q" id="1Jj8OtqUc9o" role="3uHU7B">
              <node concept="2OqwBi" id="1Jj8OtqUc9p" role="3fr31v">
                <node concept="37vLTw" id="2BHiRxghfB1" role="2Oq$k0">
                  <ref role="3cqZAo" node="1Jj8OtqUc92" resolve="node" />
                </node>
                <node concept="2qgKlT" id="1Jj8OtqUc9r" role="2OqNvi">
                  <ref role="37wK5l" to="bzl4:7lVCwDcz6WN" resolve="isTagSectionEmpty" />
                </node>
              </node>
            </node>
            <node concept="2OqwBi" id="4iGwz$GSNOw" role="3uHU7w">
              <node concept="37vLTw" id="4iGwz$GSNLW" role="2Oq$k0">
                <ref role="3cqZAo" node="1Jj8OtqUc92" resolve="node" />
              </node>
              <node concept="2qgKlT" id="4iGwz$GSO8z" role="2OqNvi">
                <ref role="37wK5l" to="bzl4:4iGwz$GSfd_" resolve="hasTags" />
              </node>
            </node>
          </node>
          <node concept="3clFbS" id="1Jj8OtqUc9k" role="3clFbx">
            <node concept="lc7rE" id="1Jj8OtqUc9l" role="3cqZAp">
              <node concept="l8MVK" id="1Jj8OtqUc9m" role="lcghm" />
              <node concept="1bDJIP" id="1Jj8OtqUc9n" role="lcghm">
                <ref role="1rvKf6" node="4Kyo7tsjX13" resolve="javadocIndent" />
              </node>
            </node>
          </node>
        </node>
        <node concept="3clFbH" id="1Jj8OtqUc9s" role="3cqZAp" />
        <node concept="lc7rE" id="4EPKw6tUdvw" role="3cqZAp">
          <node concept="l9S2W" id="4EPKw6tUdy7" role="lcghm">
            <node concept="2OqwBi" id="4EPKw6tVBqh" role="lbANJ">
              <node concept="2OqwBi" id="4EPKw6tUdy8" role="2Oq$k0">
                <node concept="37vLTw" id="4EPKw6tUdy9" role="2Oq$k0">
                  <ref role="3cqZAo" node="1Jj8OtqUc92" resolve="node" />
                </node>
                <node concept="3Tsc0h" id="4EPKw6tUdGQ" role="2OqNvi">
                  <ref role="3TtcxE" to="m373:4EPKw6tR9BN" />
                </node>
              </node>
              <node concept="3zZkjj" id="4EPKw6tVDC9" role="2OqNvi">
                <node concept="1bVj0M" id="4EPKw6tVDCb" role="23t8la">
                  <node concept="3clFbS" id="4EPKw6tVDCc" role="1bW5cS">
                    <node concept="3clFbF" id="4EPKw6tVDEi" role="3cqZAp">
                      <node concept="2OqwBi" id="4EPKw6tVE3r" role="3clFbG">
                        <node concept="37vLTw" id="4EPKw6tVE3s" role="2Oq$k0">
                          <ref role="3cqZAo" node="4EPKw6tVDCd" resolve="it" />
                        </node>
                        <node concept="1mIQ4w" id="4EPKw6tVE3t" role="2OqNvi">
                          <node concept="chp4Y" id="63oBH1IL52K" role="cj9EA">
                            <ref role="cht4Q" to="m373:4CW56HZFI4Y" resolve="AuthorBlockDocTag" />
                          </node>
                        </node>
                      </node>
                    </node>
                  </node>
                  <node concept="Rh6nW" id="4EPKw6tVDCd" role="1bW2Oz">
                    <property role="TrG5h" value="it" />
                    <node concept="2jxLKc" id="4EPKw6tVDCe" role="1tU5fm" />
                  </node>
                </node>
              </node>
            </node>
          </node>
        </node>
        <node concept="lc7rE" id="1Jj8OtqUc9t" role="3cqZAp">
          <node concept="l9S2W" id="1Jj8OtqUc9u" role="lcghm">
            <node concept="2OqwBi" id="1Jj8OtqUc9v" role="lbANJ">
              <node concept="37vLTw" id="2BHiRxgm9T1" role="2Oq$k0">
                <ref role="3cqZAo" node="1Jj8OtqUc92" resolve="node" />
              </node>
              <node concept="3Tsc0h" id="1Jj8OtqUc9x" role="2OqNvi">
                <ref role="3TtcxE" to="m373:4CW56HZFIGM" />
              </node>
            </node>
          </node>
        </node>
        <node concept="lc7rE" id="63oBH1ILcgU" role="3cqZAp">
          <node concept="l9S2W" id="63oBH1ILcgV" role="lcghm">
            <node concept="2OqwBi" id="63oBH1ILcgW" role="lbANJ">
              <node concept="2OqwBi" id="63oBH1ILcgX" role="2Oq$k0">
                <node concept="37vLTw" id="63oBH1ILcgY" role="2Oq$k0">
                  <ref role="3cqZAo" node="1Jj8OtqUc92" resolve="node" />
                </node>
                <node concept="3Tsc0h" id="63oBH1ILcgZ" role="2OqNvi">
                  <ref role="3TtcxE" to="m373:4EPKw6tR9BN" />
                </node>
              </node>
              <node concept="3zZkjj" id="63oBH1ILch0" role="2OqNvi">
                <node concept="1bVj0M" id="63oBH1ILch1" role="23t8la">
                  <node concept="3clFbS" id="63oBH1ILch2" role="1bW5cS">
                    <node concept="3clFbF" id="63oBH1ILch3" role="3cqZAp">
                      <node concept="2OqwBi" id="63oBH1ILch4" role="3clFbG">
                        <node concept="37vLTw" id="63oBH1ILch5" role="2Oq$k0">
                          <ref role="3cqZAo" node="63oBH1ILch8" resolve="it" />
                        </node>
                        <node concept="1mIQ4w" id="63oBH1ILch6" role="2OqNvi">
                          <node concept="chp4Y" id="63oBH1ILcpr" role="cj9EA">
                            <ref role="cht4Q" to="m373:7lVCwDcxXQH" resolve="SinceBlockDocTag" />
                          </node>
                        </node>
                      </node>
                    </node>
                  </node>
                  <node concept="Rh6nW" id="63oBH1ILch8" role="1bW2Oz">
                    <property role="TrG5h" value="it" />
                    <node concept="2jxLKc" id="63oBH1ILch9" role="1tU5fm" />
                  </node>
                </node>
              </node>
            </node>
          </node>
        </node>
        <node concept="lc7rE" id="1Jj8OtqUc9y" role="3cqZAp">
          <node concept="l9S2W" id="1Jj8OtqUc9z" role="lcghm">
            <node concept="2OqwBi" id="1Jj8OtqUc9$" role="lbANJ">
              <node concept="37vLTw" id="2BHiRxglawn" role="2Oq$k0">
                <ref role="3cqZAo" node="1Jj8OtqUc92" resolve="node" />
              </node>
              <node concept="3Tsc0h" id="1Jj8OtqUc9A" role="2OqNvi">
                <ref role="3TtcxE" to="m373:7lVCwDcxZ_y" />
              </node>
            </node>
          </node>
        </node>
        <node concept="lc7rE" id="63oBH1ILijb" role="3cqZAp">
          <node concept="l9S2W" id="63oBH1ILijc" role="lcghm">
            <node concept="2OqwBi" id="63oBH1ILijd" role="lbANJ">
              <node concept="2OqwBi" id="63oBH1ILije" role="2Oq$k0">
                <node concept="37vLTw" id="63oBH1ILijf" role="2Oq$k0">
                  <ref role="3cqZAo" node="1Jj8OtqUc92" resolve="node" />
                </node>
                <node concept="3Tsc0h" id="63oBH1ILijg" role="2OqNvi">
                  <ref role="3TtcxE" to="m373:4EPKw6tR9BN" />
                </node>
              </node>
              <node concept="3zZkjj" id="63oBH1ILijh" role="2OqNvi">
                <node concept="1bVj0M" id="63oBH1ILiji" role="23t8la">
                  <node concept="3clFbS" id="63oBH1ILijj" role="1bW5cS">
                    <node concept="3clFbF" id="63oBH1ILijk" role="3cqZAp">
                      <node concept="2OqwBi" id="63oBH1ILijl" role="3clFbG">
                        <node concept="37vLTw" id="63oBH1ILijm" role="2Oq$k0">
                          <ref role="3cqZAo" node="63oBH1ILijp" resolve="it" />
                        </node>
                        <node concept="1mIQ4w" id="63oBH1ILijn" role="2OqNvi">
                          <node concept="chp4Y" id="63oBH1ILpb5" role="cj9EA">
                            <ref role="cht4Q" to="m373:7lVCwDcxXQw" resolve="VersionBlockDocTag" />
                          </node>
                        </node>
                      </node>
                    </node>
                  </node>
                  <node concept="Rh6nW" id="63oBH1ILijp" role="1bW2Oz">
                    <property role="TrG5h" value="it" />
                    <node concept="2jxLKc" id="63oBH1ILijq" role="1tU5fm" />
                  </node>
                </node>
              </node>
            </node>
          </node>
        </node>
        <node concept="lc7rE" id="1Jj8OtqUc9B" role="3cqZAp">
          <node concept="l9S2W" id="1Jj8OtqUc9C" role="lcghm">
            <node concept="2OqwBi" id="1Jj8OtqUc9D" role="lbANJ">
              <node concept="37vLTw" id="2BHiRxgmNCY" role="2Oq$k0">
                <ref role="3cqZAo" node="1Jj8OtqUc92" resolve="node" />
              </node>
              <node concept="3Tsc0h" id="1Jj8OtqUc9F" role="2OqNvi">
                <ref role="3TtcxE" to="m373:7lVCwDcxZ_z" />
              </node>
            </node>
          </node>
        </node>
        <node concept="lc7rE" id="63oBH1ILish" role="3cqZAp">
          <node concept="l9S2W" id="63oBH1ILisi" role="lcghm">
            <node concept="2OqwBi" id="63oBH1ILisj" role="lbANJ">
              <node concept="2OqwBi" id="63oBH1ILisk" role="2Oq$k0">
                <node concept="37vLTw" id="63oBH1ILisl" role="2Oq$k0">
                  <ref role="3cqZAo" node="1Jj8OtqUc92" resolve="node" />
                </node>
                <node concept="3Tsc0h" id="63oBH1ILism" role="2OqNvi">
                  <ref role="3TtcxE" to="m373:4EPKw6tR9BN" />
                </node>
              </node>
              <node concept="3zZkjj" id="63oBH1ILisn" role="2OqNvi">
                <node concept="1bVj0M" id="63oBH1ILiso" role="23t8la">
                  <node concept="3clFbS" id="63oBH1ILisp" role="1bW5cS">
                    <node concept="3clFbF" id="63oBH1ILisq" role="3cqZAp">
                      <node concept="2OqwBi" id="63oBH1ILisr" role="3clFbG">
                        <node concept="37vLTw" id="63oBH1ILiss" role="2Oq$k0">
                          <ref role="3cqZAo" node="63oBH1ILisv" resolve="it" />
                        </node>
                        <node concept="1mIQ4w" id="63oBH1IList" role="2OqNvi">
                          <node concept="chp4Y" id="63oBH1ILpeg" role="cj9EA">
                            <ref role="cht4Q" to="m373:1V5cIK_baeF" resolve="SeeBlockDocTag" />
                          </node>
                        </node>
                      </node>
                    </node>
                  </node>
                  <node concept="Rh6nW" id="63oBH1ILisv" role="1bW2Oz">
                    <property role="TrG5h" value="it" />
                    <node concept="2jxLKc" id="63oBH1ILisw" role="1tU5fm" />
                  </node>
                </node>
              </node>
            </node>
          </node>
        </node>
        <node concept="lc7rE" id="1Jj8OtqUc9G" role="3cqZAp">
          <node concept="l9S2W" id="1Jj8OtqUc9H" role="lcghm">
            <node concept="2OqwBi" id="1Jj8OtqUc9I" role="lbANJ">
              <node concept="37vLTw" id="2BHiRxgmI9W" role="2Oq$k0">
                <ref role="3cqZAo" node="1Jj8OtqUc92" resolve="node" />
              </node>
              <node concept="3Tsc0h" id="1Jj8OtqUc9K" role="2OqNvi">
                <ref role="3TtcxE" to="m373:1V5cIK_bvvt" />
              </node>
            </node>
          </node>
        </node>
        <node concept="3cpWs8" id="4EPKw6tVIqd" role="3cqZAp">
          <node concept="3cpWsn" id="4EPKw6tVIqe" role="3cpWs9">
            <property role="TrG5h" value="deprecationTag" />
            <node concept="3Tqbb2" id="4EPKw6tVIqb" role="1tU5fm">
              <ref role="ehGHo" to="m373:4CW56HZFI4X" resolve="BaseBlockDocTag" />
            </node>
            <node concept="2OqwBi" id="4EPKw6tVIqf" role="33vP2m">
              <node concept="2OqwBi" id="4EPKw6tVIqg" role="2Oq$k0">
                <node concept="2OqwBi" id="4EPKw6tVIqh" role="2Oq$k0">
                  <node concept="37vLTw" id="4EPKw6tVWBJ" role="2Oq$k0">
                    <ref role="3cqZAo" node="1Jj8OtqUc92" resolve="node" />
                  </node>
                  <node concept="3Tsc0h" id="4EPKw6tVIqj" role="2OqNvi">
                    <ref role="3TtcxE" to="m373:4EPKw6tR9BN" />
                  </node>
                </node>
                <node concept="3zZkjj" id="4EPKw6tVIqk" role="2OqNvi">
                  <node concept="1bVj0M" id="4EPKw6tVIql" role="23t8la">
                    <node concept="3clFbS" id="4EPKw6tVIqm" role="1bW5cS">
                      <node concept="3clFbF" id="4EPKw6tVIqn" role="3cqZAp">
                        <node concept="2OqwBi" id="4EPKw6tVIqo" role="3clFbG">
                          <node concept="37vLTw" id="4EPKw6tVIqp" role="2Oq$k0">
                            <ref role="3cqZAo" node="4EPKw6tVIqs" resolve="it" />
                          </node>
                          <node concept="1mIQ4w" id="4EPKw6tVIqq" role="2OqNvi">
                            <node concept="chp4Y" id="4EPKw6tVIqr" role="cj9EA">
                              <ref role="cht4Q" to="m373:7lVCwDcxZ_$" resolve="DeprecatedBlockDocTag" />
                            </node>
                          </node>
                        </node>
                      </node>
                    </node>
                    <node concept="Rh6nW" id="4EPKw6tVIqs" role="1bW2Oz">
                      <property role="TrG5h" value="it" />
                      <node concept="2jxLKc" id="4EPKw6tVIqt" role="1tU5fm" />
                    </node>
                  </node>
                </node>
              </node>
              <node concept="1uHKPH" id="4EPKw6tVIqu" role="2OqNvi" />
            </node>
          </node>
        </node>
        <node concept="3clFbJ" id="6XG5GAtrbNb" role="3cqZAp">
          <node concept="9aQIb" id="4EPKw6tW4cf" role="9aQIa">
            <node concept="3clFbS" id="4EPKw6tW4cg" role="9aQI4">
              <node concept="3clFbJ" id="4EPKw6tVXa4" role="3cqZAp">
                <node concept="3clFbS" id="4EPKw6tVXa5" role="3clFbx">
                  <node concept="lc7rE" id="4EPKw6tVXa6" role="3cqZAp">
                    <node concept="l9hG8" id="4EPKw6tVXa7" role="lcghm">
                      <node concept="2OqwBi" id="4EPKw6tVXa8" role="lb14g">
                        <node concept="37vLTw" id="4EPKw6tVXa9" role="2Oq$k0">
                          <ref role="3cqZAo" node="1Jj8OtqUc92" resolve="node" />
                        </node>
                        <node concept="3TrEf2" id="4EPKw6tVXaa" role="2OqNvi">
                          <ref role="3Tt5mk" to="m373:7lVCwDcxZ_F" />
                        </node>
                      </node>
                    </node>
                  </node>
                </node>
                <node concept="1Wc70l" id="4EPKw6tVXab" role="3clFbw">
                  <node concept="2OqwBi" id="4EPKw6tVXac" role="3uHU7w">
                    <node concept="1PxgMI" id="4EPKw6tVXad" role="2Oq$k0">
                      <ref role="1m5ApE" to="tpee:hOIEacT" resolve="IBLDeprecatable" />
                      <node concept="2OqwBi" id="4EPKw6tVXae" role="1m5AlR">
                        <node concept="37vLTw" id="4EPKw6tVXaf" role="2Oq$k0">
                          <ref role="3cqZAo" node="1Jj8OtqUc92" resolve="node" />
                        </node>
                        <node concept="1mfA1w" id="4EPKw6tVXag" role="2OqNvi" />
                      </node>
                    </node>
                    <node concept="2qgKlT" id="3yvWaPHShaw" role="2OqNvi">
                      <ref role="37wK5l" to="tpcu:hOwoPtR" resolve="isDeprecated" />
                    </node>
                  </node>
                  <node concept="1Wc70l" id="4EPKw6tVXai" role="3uHU7B">
                    <node concept="2OqwBi" id="4EPKw6tVXaj" role="3uHU7B">
                      <node concept="2OqwBi" id="4EPKw6tVXak" role="2Oq$k0">
                        <node concept="37vLTw" id="4EPKw6tVXal" role="2Oq$k0">
                          <ref role="3cqZAo" node="1Jj8OtqUc92" resolve="node" />
                        </node>
                        <node concept="3TrEf2" id="4EPKw6tVXam" role="2OqNvi">
                          <ref role="3Tt5mk" to="m373:7lVCwDcxZ_F" />
                        </node>
                      </node>
                      <node concept="3x8VRR" id="4EPKw6tVXan" role="2OqNvi" />
                    </node>
                    <node concept="2OqwBi" id="4EPKw6tVXao" role="3uHU7w">
                      <node concept="2OqwBi" id="4EPKw6tVXap" role="2Oq$k0">
                        <node concept="37vLTw" id="4EPKw6tVXaq" role="2Oq$k0">
                          <ref role="3cqZAo" node="1Jj8OtqUc92" resolve="node" />
                        </node>
                        <node concept="1mfA1w" id="4EPKw6tVXar" role="2OqNvi" />
                      </node>
                      <node concept="1mIQ4w" id="4EPKw6tVXas" role="2OqNvi">
                        <node concept="chp4Y" id="4EPKw6tVXat" role="cj9EA">
                          <ref role="cht4Q" to="tpee:hOIEacT" resolve="IBLDeprecatable" />
                        </node>
                      </node>
                    </node>
                  </node>
                </node>
              </node>
            </node>
          </node>
          <node concept="3clFbS" id="6XG5GAtrbNe" role="3clFbx">
            <node concept="lc7rE" id="6Ie7LH5PX75" role="3cqZAp">
              <node concept="l9hG8" id="6Ie7LH5PX7Q" role="lcghm">
                <node concept="37vLTw" id="4EPKw6tW4oc" role="lb14g">
                  <ref role="3cqZAo" node="4EPKw6tVIqe" resolve="deprecationTag" />
                </node>
              </node>
            </node>
          </node>
          <node concept="1Wc70l" id="6XG5GAtsaGl" role="3clFbw">
            <node concept="2OqwBi" id="6XG5GAtsbaI" role="3uHU7w">
              <node concept="1PxgMI" id="6XG5GAtsb7A" role="2Oq$k0">
                <ref role="1m5ApE" to="tpee:hOIEacT" resolve="IBLDeprecatable" />
                <node concept="2OqwBi" id="6XG5GAtsaKU" role="1m5AlR">
                  <node concept="37vLTw" id="6XG5GAtsaGS" role="2Oq$k0">
                    <ref role="3cqZAo" node="1Jj8OtqUc92" resolve="node" />
                  </node>
                  <node concept="1mfA1w" id="6XG5GAtsaVR" role="2OqNvi" />
                </node>
              </node>
              <node concept="2qgKlT" id="3yvWaPHSh1P" role="2OqNvi">
                <ref role="37wK5l" to="tpcu:hOwoPtR" resolve="isDeprecated" />
              </node>
            </node>
            <node concept="1Wc70l" id="6XG5GAtsa1J" role="3uHU7B">
              <node concept="2OqwBi" id="6XG5GAtrmjE" role="3uHU7B">
                <node concept="37vLTw" id="4EPKw6tVXi0" role="2Oq$k0">
                  <ref role="3cqZAo" node="4EPKw6tVIqe" resolve="deprecationTag" />
                </node>
                <node concept="3x8VRR" id="6XG5GAtrmsO" role="2OqNvi" />
              </node>
              <node concept="2OqwBi" id="6XG5GAtsart" role="3uHU7w">
                <node concept="2OqwBi" id="6XG5GAtsa4Q" role="2Oq$k0">
                  <node concept="37vLTw" id="6XG5GAtsa1Y" role="2Oq$k0">
                    <ref role="3cqZAo" node="1Jj8OtqUc92" resolve="node" />
                  </node>
                  <node concept="1mfA1w" id="6XG5GAtsagr" role="2OqNvi" />
                </node>
                <node concept="1mIQ4w" id="6XG5GAtsax$" role="2OqNvi">
                  <node concept="chp4Y" id="6XG5GAtsaxD" role="cj9EA">
                    <ref role="cht4Q" to="tpee:hOIEacT" resolve="IBLDeprecatable" />
                  </node>
                </node>
              </node>
            </node>
          </node>
        </node>
      </node>
      <node concept="37vLTG" id="1Jj8OtqUc92" role="3clF46">
        <property role="TrG5h" value="node" />
        <node concept="3Tqbb2" id="1Jj8OtqUc93" role="1tU5fm">
          <ref role="ehGHo" to="m373:4CW56HZFB3j" resolve="BaseDocComment" />
        </node>
      </node>
    </node>
    <node concept="1bwezc" id="1Jj8OtqUcad" role="1bwxVq">
      <property role="TrG5h" value="docCommentEnd" />
      <node concept="3cqZAl" id="1Jj8OtqUcae" role="3clF45" />
      <node concept="3clFbS" id="1Jj8OtqUcaf" role="3clF47">
        <node concept="lc7rE" id="1Jj8OtqUcai" role="3cqZAp">
          <node concept="l8MVK" id="1Jj8OtqUcaj" role="lcghm" />
        </node>
        <node concept="1bpajm" id="1Jj8OtqUcak" role="3cqZAp" />
        <node concept="lc7rE" id="1Jj8OtqUcal" role="3cqZAp">
          <node concept="la8eA" id="1Jj8OtqUcam" role="lcghm">
            <property role="lacIc" value=" */" />
          </node>
          <node concept="l8MVK" id="43cbvH5LBx_" role="lcghm" />
        </node>
      </node>
      <node concept="37vLTG" id="1Jj8OtqUcag" role="3clF46">
        <property role="TrG5h" value="node" />
        <node concept="3Tqbb2" id="1Jj8OtqUcah" role="1tU5fm">
          <ref role="ehGHo" to="m373:4CW56HZFB3j" resolve="BaseDocComment" />
        </node>
      </node>
    </node>
  </node>
  <node concept="WtQ9Q" id="3veQ_zQyV36">
    <property role="3GE5qa" value="tag" />
    <ref role="WuzLi" to="m373:55c3QxKk96e" resolve="ReturnBlockDocTag" />
    <node concept="11bSqf" id="3veQ_zQyV37" role="11c4hB">
      <node concept="3clFbS" id="3veQ_zQyV38" role="2VODD2">
        <node concept="lc7rE" id="3veQ_zQyV39" role="3cqZAp">
          <node concept="l8MVK" id="3veQ_zQyV3a" role="lcghm" />
          <node concept="1bDJIP" id="4Kyo7tsjZgB" role="lcghm">
            <ref role="1rvKf6" node="4Kyo7tsjX13" resolve="javadocIndent" />
          </node>
        </node>
        <node concept="lc7rE" id="3veQ_zQyV3c" role="3cqZAp">
          <node concept="la8eA" id="3veQ_zQyV3d" role="lcghm">
            <property role="lacIc" value="@return " />
          </node>
          <node concept="l9hG8" id="3veQ_zQyV3j" role="lcghm">
            <node concept="2OqwBi" id="3veQ_zQyV3k" role="lb14g">
              <node concept="117lpO" id="3veQ_zQyV3l" role="2Oq$k0" />
              <node concept="3TrcHB" id="3veQ_zQyV3m" role="2OqNvi">
                <ref role="3TsBF5" to="m373:55c3QxKk96f" resolve="text" />
              </node>
            </node>
          </node>
        </node>
      </node>
    </node>
  </node>
  <node concept="WtQ9Q" id="3veQ_zQz4R6">
    <ref role="WuzLi" to="m373:7LZmMWLAga7" resolve="TextCommentLinePart" />
    <node concept="11bSqf" id="3veQ_zQz4R7" role="11c4hB">
      <node concept="3clFbS" id="3veQ_zQz4R8" role="2VODD2">
        <node concept="lc7rE" id="3veQ_zQz4RZ" role="3cqZAp">
          <node concept="l9hG8" id="3veQ_zQz4S1" role="lcghm">
            <node concept="2OqwBi" id="3veQ_zQz4S4" role="lb14g">
              <node concept="117lpO" id="3veQ_zQz4S3" role="2Oq$k0" />
              <node concept="3TrcHB" id="3veQ_zQz4S8" role="2OqNvi">
                <ref role="3TsBF5" to="m373:7LZmMWLAga8" resolve="text" />
              </node>
            </node>
          </node>
        </node>
      </node>
    </node>
  </node>
  <node concept="WtQ9Q" id="3veQ_zQz4Sc">
    <ref role="WuzLi" to="m373:7LZmMWLAga9" resolve="InlineTagCommentLinePart" />
    <node concept="11bSqf" id="3veQ_zQz4Sd" role="11c4hB">
      <node concept="3clFbS" id="3veQ_zQz4Se" role="2VODD2">
        <node concept="lc7rE" id="3veQ_zQz4Sf" role="3cqZAp">
          <node concept="la8eA" id="3veQ_zQz4Sh" role="lcghm">
            <property role="lacIc" value="{@" />
          </node>
          <node concept="l9hG8" id="3veQ_zQz4Sj" role="lcghm">
            <node concept="2OqwBi" id="3veQ_zQz4Sm" role="lb14g">
              <node concept="117lpO" id="3veQ_zQz4Sl" role="2Oq$k0" />
              <node concept="3TrEf2" id="3veQ_zQz4Sq" role="2OqNvi">
                <ref role="3Tt5mk" to="m373:62wYidULuB8" />
              </node>
            </node>
          </node>
          <node concept="la8eA" id="3veQ_zQz4St" role="lcghm">
            <property role="lacIc" value="}" />
          </node>
        </node>
      </node>
    </node>
  </node>
  <node concept="WtQ9Q" id="3veQ_zQz4Su">
    <property role="3GE5qa" value="tag" />
    <ref role="WuzLi" to="m373:1V5cIK_aBHN" resolve="CodeInlineDocTag" />
    <node concept="11bSqf" id="3veQ_zQz4Sv" role="11c4hB">
      <node concept="3clFbS" id="3veQ_zQz4Sw" role="2VODD2">
        <node concept="lc7rE" id="3veQ_zQz4Sx" role="3cqZAp">
          <node concept="la8eA" id="3veQ_zQz4SG" role="lcghm">
            <property role="lacIc" value="code " />
          </node>
          <node concept="l9S2W" id="5J4EwzxrHrW" role="lcghm">
            <node concept="2OqwBi" id="5J4EwzxrHrZ" role="lbANJ">
              <node concept="117lpO" id="5J4EwzxrHrY" role="2Oq$k0" />
              <node concept="3Tsc0h" id="5J4EwzxrHs3" role="2OqNvi">
                <ref role="3TtcxE" to="m373:2GsHTemka4x" />
              </node>
            </node>
          </node>
        </node>
      </node>
    </node>
  </node>
  <node concept="WtQ9Q" id="3veQ_zQzo$E">
    <property role="3GE5qa" value="tag" />
    <ref role="WuzLi" to="m373:46AFNipTj1v" resolve="InheritDocInlineDocTag" />
    <node concept="11bSqf" id="3veQ_zQzo$F" role="11c4hB">
      <node concept="3clFbS" id="3veQ_zQzo$G" role="2VODD2">
        <node concept="lc7rE" id="3veQ_zQzo_z" role="3cqZAp">
          <node concept="la8eA" id="3veQ_zQzo__" role="lcghm">
            <property role="lacIc" value="inheritDoc" />
          </node>
        </node>
      </node>
    </node>
  </node>
  <node concept="WtQ9Q" id="3veQ_zQzo_A">
    <property role="3GE5qa" value="tag" />
    <ref role="WuzLi" to="m373:2dnyg8EnjCJ" resolve="LinkInlineDocTag" />
    <node concept="11bSqf" id="3veQ_zQzo_B" role="11c4hB">
      <node concept="3clFbS" id="3veQ_zQzo_C" role="2VODD2">
        <node concept="lc7rE" id="3veQ_zQzo_D" role="3cqZAp">
          <node concept="la8eA" id="3veQ_zQzytm" role="lcghm">
            <property role="lacIc" value="link " />
          </node>
          <node concept="l9hG8" id="3veQ_zQzo_F" role="lcghm">
            <node concept="2OqwBi" id="3veQ_zQzo_I" role="lb14g">
              <node concept="117lpO" id="3veQ_zQzo_H" role="2Oq$k0" />
              <node concept="3TrEf2" id="3veQ_zQzo_M" role="2OqNvi">
                <ref role="3Tt5mk" to="m373:2dnyg8EnjCO" />
              </node>
            </node>
          </node>
        </node>
        <node concept="3clFbJ" id="3veQ_zQzGkN" role="3cqZAp">
          <node concept="3clFbS" id="3veQ_zQzGkO" role="3clFbx">
            <node concept="lc7rE" id="3veQ_zQzGl2" role="3cqZAp">
              <node concept="la8eA" id="3veQ_zQzGl6" role="lcghm">
                <property role="lacIc" value=" " />
              </node>
              <node concept="l9S2W" id="5J4EwzxrHsb" role="lcghm">
                <node concept="2OqwBi" id="5J4EwzxrHse" role="lbANJ">
                  <node concept="117lpO" id="5J4EwzxrHsd" role="2Oq$k0" />
                  <node concept="3Tsc0h" id="5J4EwzxrHsi" role="2OqNvi">
                    <ref role="3TtcxE" to="m373:2GsHTemkO4u" />
                  </node>
                </node>
              </node>
            </node>
          </node>
          <node concept="2OqwBi" id="5J4EwzxrHs5" role="3clFbw">
            <node concept="2OqwBi" id="3veQ_zQzGkS" role="2Oq$k0">
              <node concept="117lpO" id="3veQ_zQzGkR" role="2Oq$k0" />
              <node concept="3Tsc0h" id="5J4EwzxrHs4" role="2OqNvi">
                <ref role="3TtcxE" to="m373:2GsHTemkO4u" />
              </node>
            </node>
            <node concept="3GX2aA" id="5J4EwzxrHs9" role="2OqNvi" />
          </node>
        </node>
      </node>
    </node>
  </node>
  <node concept="WtQ9Q" id="3veQ_zQzGlg">
    <property role="3GE5qa" value="tag" />
    <ref role="WuzLi" to="m373:62wYidULuwV" resolve="ValueInlineDocTag" />
    <node concept="11bSqf" id="3veQ_zQzGlh" role="11c4hB">
      <node concept="3clFbS" id="3veQ_zQzGli" role="2VODD2">
        <node concept="lc7rE" id="3veQ_zQzGlk" role="3cqZAp">
          <node concept="la8eA" id="3veQ_zQzGlm" role="lcghm">
            <property role="lacIc" value="value" />
          </node>
        </node>
        <node concept="3clFbJ" id="3veQ_zQzGlo" role="3cqZAp">
          <node concept="3clFbS" id="3veQ_zQzGlp" role="3clFbx">
            <node concept="lc7rE" id="3veQ_zQzGlB" role="3cqZAp">
              <node concept="la8eA" id="3veQ_zQzGlD" role="lcghm">
                <property role="lacIc" value=" " />
              </node>
              <node concept="l9hG8" id="3veQ_zQzGlF" role="lcghm">
                <node concept="2OqwBi" id="3veQ_zQzGlI" role="lb14g">
                  <node concept="117lpO" id="3veQ_zQzGlH" role="2Oq$k0" />
                  <node concept="3TrEf2" id="3veQ_zQzGlM" role="2OqNvi">
                    <ref role="3Tt5mk" to="m373:2eoNJJ2nQP6" />
                  </node>
                </node>
              </node>
            </node>
          </node>
          <node concept="2OqwBi" id="3veQ_zQzGly" role="3clFbw">
            <node concept="2OqwBi" id="3veQ_zQzGlt" role="2Oq$k0">
              <node concept="117lpO" id="3veQ_zQzGls" role="2Oq$k0" />
              <node concept="3TrEf2" id="3veQ_zQzGlx" role="2OqNvi">
                <ref role="3Tt5mk" to="m373:2eoNJJ2nQP6" />
              </node>
            </node>
            <node concept="3x8VRR" id="3veQ_zQzGlA" role="2OqNvi" />
          </node>
        </node>
      </node>
    </node>
  </node>
  <node concept="WtQ9Q" id="3veQ_zQ$4Py">
    <property role="3GE5qa" value="tag" />
    <ref role="WuzLi" to="m373:2eoNJJ2oufZ" resolve="CodeSnippet" />
    <node concept="11bSqf" id="3veQ_zQ$4Pz" role="11c4hB">
      <node concept="3clFbS" id="3veQ_zQ$4P$" role="2VODD2">
        <node concept="lc7rE" id="3veQ_zQ$4PD" role="3cqZAp">
          <node concept="l8MVK" id="3veQ_zQ$4PF" role="lcghm" />
          <node concept="1bDJIP" id="4Kyo7tsjZgx" role="lcghm">
            <ref role="1rvKf6" node="4Kyo7tsjX13" resolve="javadocIndent" />
          </node>
        </node>
        <node concept="lc7rE" id="3veQ_zQ$4P_" role="3cqZAp">
          <node concept="la8eA" id="3veQ_zQ$4PB" role="lcghm">
            <property role="lacIc" value="{{" />
          </node>
        </node>
        <node concept="3izx1p" id="3veQ_zQ$eKf" role="3cqZAp">
          <node concept="3clFbS" id="3veQ_zQ$eKg" role="3izTki">
            <node concept="3izx1p" id="1Jj8OtqUc8O" role="3cqZAp">
              <node concept="3clFbS" id="1Jj8OtqUc8P" role="3izTki">
                <node concept="lc7rE" id="1Jj8OtqUc8Q" role="3cqZAp">
                  <node concept="l9S2W" id="1Jj8OtqUc8R" role="lcghm">
                    <node concept="2OqwBi" id="1Jj8OtqUc8S" role="lbANJ">
                      <node concept="117lpO" id="1Jj8OtqUc8T" role="2Oq$k0" />
                      <node concept="3Tsc0h" id="1Jj8OtqUc8U" role="2OqNvi">
                        <ref role="3TtcxE" to="m373:2eoNJJ2oQBx" />
                      </node>
                    </node>
                  </node>
                </node>
              </node>
            </node>
          </node>
        </node>
        <node concept="lc7rE" id="3veQ_zQ$pbF" role="3cqZAp">
          <node concept="l8MVK" id="3veQ_zQ$pbH" role="lcghm" />
          <node concept="1bDJIP" id="4Kyo7tsjZgz" role="lcghm">
            <ref role="1rvKf6" node="4Kyo7tsjX13" resolve="javadocIndent" />
          </node>
        </node>
        <node concept="lc7rE" id="3veQ_zQ$eKi" role="3cqZAp">
          <node concept="la8eA" id="3veQ_zQ$eKp" role="lcghm">
            <property role="lacIc" value="}}" />
          </node>
        </node>
      </node>
    </node>
  </node>
  <node concept="WtQ9Q" id="1OzlC1cR9q4">
    <property role="3GE5qa" value="tag" />
    <ref role="WuzLi" to="m373:5J4Ewzxlbep" resolve="HTMLElement" />
    <node concept="11bSqf" id="1OzlC1cR9q5" role="11c4hB">
      <node concept="3clFbS" id="1OzlC1cR9q6" role="2VODD2">
        <node concept="3clFbJ" id="1OzlC1cRaRe" role="3cqZAp">
          <node concept="2OqwBi" id="1OzlC1cRaRp" role="3clFbw">
            <node concept="2OqwBi" id="1OzlC1cRaRi" role="2Oq$k0">
              <node concept="117lpO" id="1OzlC1cRaRh" role="2Oq$k0" />
              <node concept="3Tsc0h" id="1OzlC1cRaRm" role="2OqNvi">
                <ref role="3TtcxE" to="m373:5J4Ewzxlber" />
              </node>
            </node>
            <node concept="1v1jN8" id="1OzlC1cRaRt" role="2OqNvi" />
          </node>
          <node concept="3clFbS" id="1OzlC1cRaRg" role="3clFbx">
            <node concept="lc7rE" id="1OzlC1cRaRu" role="3cqZAp">
              <node concept="la8eA" id="1OzlC1cRaRw" role="lcghm">
                <property role="lacIc" value="&lt;" />
              </node>
              <node concept="l9hG8" id="1OzlC1cRaR_" role="lcghm">
                <node concept="2OqwBi" id="1OzlC1cRaRC" role="lb14g">
                  <node concept="117lpO" id="1OzlC1cRaRB" role="2Oq$k0" />
                  <node concept="3TrcHB" id="1OzlC1cRaRG" role="2OqNvi">
                    <ref role="3TsBF5" to="m373:5J4Ewzxlbeq" resolve="name" />
                  </node>
                </node>
              </node>
              <node concept="la8eA" id="1OzlC1cRaRz" role="lcghm">
                <property role="lacIc" value=" /&gt;" />
              </node>
            </node>
          </node>
          <node concept="9aQIb" id="1OzlC1cRaRH" role="9aQIa">
            <node concept="3clFbS" id="1OzlC1cRaRI" role="9aQI4">
              <node concept="lc7rE" id="1OzlC1cRaRJ" role="3cqZAp">
                <node concept="la8eA" id="1OzlC1cRaRL" role="lcghm">
                  <property role="lacIc" value="&lt;" />
                </node>
                <node concept="l9hG8" id="1OzlC1cRaRN" role="lcghm">
                  <node concept="2OqwBi" id="1OzlC1cRaRQ" role="lb14g">
                    <node concept="117lpO" id="1OzlC1cRaRP" role="2Oq$k0" />
                    <node concept="3TrcHB" id="1OzlC1cRaRU" role="2OqNvi">
                      <ref role="3TsBF5" to="m373:5J4Ewzxlbeq" resolve="name" />
                    </node>
                  </node>
                </node>
                <node concept="la8eA" id="1OzlC1cRaRX" role="lcghm">
                  <property role="lacIc" value="&gt;" />
                </node>
                <node concept="l9S2W" id="1OzlC1cRaS0" role="lcghm">
                  <node concept="2OqwBi" id="1OzlC1cRaS3" role="lbANJ">
                    <node concept="117lpO" id="1OzlC1cRaS2" role="2Oq$k0" />
                    <node concept="3Tsc0h" id="1OzlC1cRaS7" role="2OqNvi">
                      <ref role="3TtcxE" to="m373:5J4Ewzxlber" />
                    </node>
                  </node>
                </node>
                <node concept="la8eA" id="1OzlC1cRaS9" role="lcghm">
                  <property role="lacIc" value="&lt;/" />
                </node>
                <node concept="l9hG8" id="1OzlC1cRaSc" role="lcghm">
                  <node concept="2OqwBi" id="1OzlC1cRaSd" role="lb14g">
                    <node concept="117lpO" id="1OzlC1cRaSe" role="2Oq$k0" />
                    <node concept="3TrcHB" id="1OzlC1cRaSf" role="2OqNvi">
                      <ref role="3TsBF5" to="m373:5J4Ewzxlbeq" resolve="name" />
                    </node>
                  </node>
                </node>
                <node concept="la8eA" id="1OzlC1cRaSh" role="lcghm">
                  <property role="lacIc" value="&gt;" />
                </node>
              </node>
            </node>
          </node>
        </node>
      </node>
    </node>
  </node>
  <node concept="WtQ9Q" id="6Va_BJew5w7">
    <property role="3GE5qa" value="tag" />
    <ref role="WuzLi" to="m373:7lVCwDcxZ_$" resolve="DeprecatedBlockDocTag" />
    <node concept="11bSqf" id="6Va_BJew5w8" role="11c4hB">
      <node concept="3clFbS" id="6Va_BJew5w9" role="2VODD2">
        <node concept="lc7rE" id="6Va_BJew5Cs" role="3cqZAp">
          <node concept="l8MVK" id="6Va_BJew5Ct" role="lcghm" />
          <node concept="1bDJIP" id="6Va_BJew5Cu" role="lcghm">
            <ref role="1rvKf6" node="4Kyo7tsjX13" resolve="javadocIndent" />
          </node>
        </node>
        <node concept="lc7rE" id="6Va_BJew5Cv" role="3cqZAp">
          <node concept="la8eA" id="6Va_BJew5Cw" role="lcghm">
            <property role="lacIc" value="@deprecated " />
          </node>
          <node concept="l9hG8" id="6Va_BJew5Cx" role="lcghm">
            <node concept="2OqwBi" id="6Va_BJew5Cy" role="lb14g">
              <node concept="117lpO" id="6Ie7LH5OeIk" role="2Oq$k0" />
              <node concept="3TrEf2" id="6Ie7LH5OeRu" role="2OqNvi">
                <ref role="3Tt5mk" to="m373:2k6csr8mu4j" />
              </node>
            </node>
          </node>
        </node>
      </node>
    </node>
  </node>
  <node concept="WtQ9Q" id="2OoyE6VXStP">
    <property role="3GE5qa" value="reference" />
    <ref role="WuzLi" to="m373:5VgPTPXJCrr" resolve="DocTypeParameterReference" />
    <node concept="11bSqf" id="2OoyE6VXStQ" role="11c4hB">
      <node concept="3clFbS" id="2OoyE6VXStR" role="2VODD2">
        <node concept="lc7rE" id="2OoyE6VXSue" role="3cqZAp">
          <node concept="la8eA" id="2OoyE6VXSWL" role="lcghm">
            <property role="lacIc" value="&lt;" />
          </node>
          <node concept="l9hG8" id="2OoyE6VXSuf" role="lcghm">
            <node concept="2OqwBi" id="2OoyE6VXSug" role="lb14g">
              <node concept="2OqwBi" id="2OoyE6VXSuh" role="2Oq$k0">
                <node concept="117lpO" id="2OoyE6VXSui" role="2Oq$k0" />
                <node concept="3TrEf2" id="2OoyE6VXSW6" role="2OqNvi">
                  <ref role="3Tt5mk" to="m373:5VgPTPXJCru" />
                </node>
              </node>
              <node concept="3TrcHB" id="2OoyE6VXSuk" role="2OqNvi">
                <ref role="3TsBF5" to="tpck:h0TrG11" resolve="name" />
              </node>
            </node>
          </node>
          <node concept="la8eA" id="2OoyE6VXSXz" role="lcghm">
            <property role="lacIc" value="&gt;" />
          </node>
        </node>
      </node>
    </node>
  </node>
</model>

