<?xml version="1.0" encoding="UTF-8"?>
<model ref="r:d95ea691-44e0-4d41-a569-d0c5256404c5(jetbrains.mps.make.script.actions)">
  <persistence version="9" />
  <languages>
    <use id="aee9cad2-acd4-4608-aef2-0004f6a1cdbd" name="jetbrains.mps.lang.actions" version="0" />
    <use id="3a13115c-633c-4c5c-bbcc-75c4219e9555" name="jetbrains.mps.lang.quotation" version="0" />
    <use id="13744753-c81f-424a-9c1b-cf8943bf4e86" name="jetbrains.mps.lang.sharedConcepts" version="0" />
    <use id="95f8a3e6-f994-4ca0-a65e-763c9bae2d3b" name="jetbrains.mps.make.script" version="0" />
    <use id="7866978e-a0f0-4cc7-81bc-4d213d9375e1" name="jetbrains.mps.lang.smodel" version="4" />
    <use id="f3061a53-9226-4cc5-a443-f952ceaf5816" name="jetbrains.mps.baseLanguage" version="4" />
    <devkit ref="fbc25dd2-5da4-483a-8b19-70928e1b62d7(jetbrains.mps.devkit.general-purpose)" />
  </languages>
  <imports>
    <import index="q9ra" ref="r:308041c6-80bc-4e26-b4b1-473fd45c9339(jetbrains.mps.make.script.structure)" />
    <import index="tpee" ref="r:00000000-0000-4000-0000-011c895902ca(jetbrains.mps.baseLanguage.structure)" />
    <import index="tpce" ref="r:00000000-0000-4000-0000-011c89590292(jetbrains.mps.lang.structure.structure)" implicit="true" />
  </imports>
  <registry>
    <language id="13744753-c81f-424a-9c1b-cf8943bf4e86" name="jetbrains.mps.lang.sharedConcepts">
      <concept id="1161622665029" name="jetbrains.mps.lang.sharedConcepts.structure.ConceptFunctionParameter_model" flags="nn" index="1Q6Npb" />
    </language>
    <language id="f3061a53-9226-4cc5-a443-f952ceaf5816" name="jetbrains.mps.baseLanguage">
      <concept id="1080223426719" name="jetbrains.mps.baseLanguage.structure.OrExpression" flags="nn" index="22lmx$" />
      <concept id="1215693861676" name="jetbrains.mps.baseLanguage.structure.BaseAssignmentExpression" flags="nn" index="d038R">
        <child id="1068498886297" name="rValue" index="37vLTx" />
        <child id="1068498886295" name="lValue" index="37vLTJ" />
      </concept>
      <concept id="1197027756228" name="jetbrains.mps.baseLanguage.structure.DotExpression" flags="nn" index="2OqwBi">
        <child id="1197027771414" name="operand" index="2Oq$k0" />
        <child id="1197027833540" name="operation" index="2OqNvi" />
      </concept>
      <concept id="1137021947720" name="jetbrains.mps.baseLanguage.structure.ConceptFunction" flags="in" index="2VMwT0">
        <child id="1137022507850" name="body" index="2VODD2" />
      </concept>
      <concept id="1070475926800" name="jetbrains.mps.baseLanguage.structure.StringLiteral" flags="nn" index="Xl_RD">
        <property id="1070475926801" name="value" index="Xl_RC" />
      </concept>
      <concept id="1068431474542" name="jetbrains.mps.baseLanguage.structure.VariableDeclaration" flags="ng" index="33uBYm">
        <child id="1068431790190" name="initializer" index="33vP2m" />
      </concept>
      <concept id="1068431790191" name="jetbrains.mps.baseLanguage.structure.Expression" flags="nn" index="33vP2n" />
      <concept id="1068498886296" name="jetbrains.mps.baseLanguage.structure.VariableReference" flags="nn" index="37vLTw">
        <reference id="1068581517664" name="variableDeclaration" index="3cqZAo" />
      </concept>
      <concept id="1068498886294" name="jetbrains.mps.baseLanguage.structure.AssignmentExpression" flags="nn" index="37vLTI" />
      <concept id="4972933694980447171" name="jetbrains.mps.baseLanguage.structure.BaseVariableDeclaration" flags="ng" index="19Szcq">
        <child id="5680397130376446158" name="type" index="1tU5fm" />
      </concept>
      <concept id="1068580123152" name="jetbrains.mps.baseLanguage.structure.EqualsExpression" flags="nn" index="3clFbC" />
      <concept id="1068580123155" name="jetbrains.mps.baseLanguage.structure.ExpressionStatement" flags="nn" index="3clFbF">
        <child id="1068580123156" name="expression" index="3clFbG" />
      </concept>
      <concept id="1068580123136" name="jetbrains.mps.baseLanguage.structure.StatementList" flags="sn" stub="5293379017992965193" index="3clFbS">
        <child id="1068581517665" name="statement" index="3cqZAp" />
      </concept>
      <concept id="1068581242875" name="jetbrains.mps.baseLanguage.structure.PlusExpression" flags="nn" index="3cpWs3" />
      <concept id="1068581242864" name="jetbrains.mps.baseLanguage.structure.LocalVariableDeclarationStatement" flags="nn" index="3cpWs8">
        <child id="1068581242865" name="localVariableDeclaration" index="3cpWs9" />
      </concept>
      <concept id="1068581242863" name="jetbrains.mps.baseLanguage.structure.LocalVariableDeclaration" flags="nr" index="3cpWsn" />
      <concept id="1081773326031" name="jetbrains.mps.baseLanguage.structure.BinaryOperation" flags="nn" index="3uHJSO">
        <child id="1081773367579" name="rightExpression" index="3uHU7w" />
        <child id="1081773367580" name="leftExpression" index="3uHU7B" />
      </concept>
      <concept id="1073239437375" name="jetbrains.mps.baseLanguage.structure.NotEqualsExpression" flags="nn" index="3y3z36" />
      <concept id="1080120340718" name="jetbrains.mps.baseLanguage.structure.AndExpression" flags="nn" index="1Wc70l" />
    </language>
    <language id="3a13115c-633c-4c5c-bbcc-75c4219e9555" name="jetbrains.mps.lang.quotation">
      <concept id="1196350785110" name="jetbrains.mps.lang.quotation.structure.AbstractAntiquotation" flags="ng" index="2c44t0">
        <child id="1196350785111" name="expression" index="2c44t1" />
      </concept>
      <concept id="1196350785117" name="jetbrains.mps.lang.quotation.structure.ReferenceAntiquotation" flags="ng" index="2c44tb" />
      <concept id="1196350785113" name="jetbrains.mps.lang.quotation.structure.Quotation" flags="nn" index="2c44tf">
        <child id="1196350785114" name="quotedNode" index="2c44tc" />
      </concept>
      <concept id="1196866233735" name="jetbrains.mps.lang.quotation.structure.PropertyAntiquotation" flags="ng" index="2EMmih" />
    </language>
    <language id="95f8a3e6-f994-4ca0-a65e-763c9bae2d3b" name="jetbrains.mps.make.script">
      <concept id="3668957831723333672" name="jetbrains.mps.make.script.structure.ReportFeedbackStatement" flags="nn" index="1daRAt">
        <child id="3668957831723336680" name="message" index="1daK9t" />
      </concept>
      <concept id="187226666892683650" name="jetbrains.mps.make.script.structure.BeginWorkStatement" flags="ng" index="1u1O0F">
        <child id="187226666892740071" name="ofTotal" index="1u1ALe" />
        <child id="187226666892740070" name="expected" index="1u1ALf" />
      </concept>
      <concept id="187226666892683652" name="jetbrains.mps.make.script.structure.AdvanceWorkStatement" flags="nn" index="1u1O0H">
        <child id="187226666892735700" name="amount" index="1u1xPX" />
      </concept>
      <concept id="187226666892683655" name="jetbrains.mps.make.script.structure.FinishWorkStatement" flags="nn" index="1u1O0I" />
      <concept id="3297237684108627658" name="jetbrains.mps.make.script.structure.AllWorkLeftExpression" flags="nn" index="1C$qFY" />
    </language>
    <language id="aee9cad2-acd4-4608-aef2-0004f6a1cdbd" name="jetbrains.mps.lang.actions">
      <concept id="1196433923911" name="jetbrains.mps.lang.actions.structure.SideTransform_SimpleString" flags="nn" index="2h1dTh">
        <property id="1196433942569" name="text" index="2h1i$Z" />
      </concept>
      <concept id="1177323996388" name="jetbrains.mps.lang.actions.structure.AddMenuPart" flags="ng" index="tYCnQ" />
      <concept id="1177327570013" name="jetbrains.mps.lang.actions.structure.QueryFunction_Substitute_Handler" flags="in" index="ucgPf" />
      <concept id="1177327666243" name="jetbrains.mps.lang.actions.structure.SimpleItemSubstitutePart" flags="ng" index="ucClh">
        <child id="1177327709106" name="handler" index="ucMEw" />
        <child id="1177336013307" name="matchingText" index="uGu3D" />
      </concept>
      <concept id="1177333529597" name="jetbrains.mps.lang.actions.structure.ConceptPart" flags="ng" index="uyZFJ">
        <reference id="1177333551023" name="concept" index="uz4UX" />
        <child id="1177333559040" name="part" index="uz6Si" />
      </concept>
      <concept id="1177335944525" name="jetbrains.mps.lang.actions.structure.QueryFunction_SubstituteString" flags="in" index="uGdhv" />
      <concept id="1177337641126" name="jetbrains.mps.lang.actions.structure.ParameterizedSubstituteMenuPart" flags="ng" index="uMFAO">
        <child id="1177337679534" name="type" index="uMOYW" />
        <child id="1177338017561" name="query" index="uO7ob" />
        <child id="1177339176647" name="matchingText" index="uSyvl" />
        <child id="1177339421668" name="handler" index="uTubQ" />
      </concept>
      <concept id="1177337833147" name="jetbrains.mps.lang.actions.structure.ConceptFunctionParameter_parameterObject" flags="nn" index="uNquD" />
      <concept id="1177337890340" name="jetbrains.mps.lang.actions.structure.QueryFunction_ParameterizedSubstitute_Query" flags="in" index="uNCsQ" />
      <concept id="1177339114370" name="jetbrains.mps.lang.actions.structure.QueryFunction_ParameterizedSubstitute_String" flags="in" index="uSjag" />
      <concept id="1177339225103" name="jetbrains.mps.lang.actions.structure.QueryFunction_ParameterizedSubstitute_Handler" flags="in" index="uSIkt" />
      <concept id="1177409831820" name="jetbrains.mps.lang.actions.structure.RemovePart" flags="ng" index="z64au">
        <reference id="1177409838946" name="conceptToRemove" index="z65TK" />
      </concept>
      <concept id="1177497140107" name="jetbrains.mps.lang.actions.structure.ConceptFunctionParameter_sourceNode" flags="nn" index="Cj7Ep" />
      <concept id="1177498013932" name="jetbrains.mps.lang.actions.structure.SimpleSideTransformMenuPart" flags="ng" index="Cmt7Y">
        <child id="1177498166690" name="matchingText" index="Cn2iK" />
        <child id="1177498182537" name="descriptionText" index="Cn6ar" />
        <child id="1177498207384" name="handler" index="Cncma" />
      </concept>
      <concept id="1177498227294" name="jetbrains.mps.lang.actions.structure.QueryFunction_SideTransform_Handler" flags="in" index="Cnhdc" />
      <concept id="1180134965967" name="jetbrains.mps.lang.actions.structure.ConceptSubstitutePart" flags="ng" index="35xCft">
        <reference id="1180135092669" name="concept" index="35y72J" />
      </concept>
      <concept id="5480835971642155304" name="jetbrains.mps.lang.actions.structure.NF_Model_CreateNewNodeOperation" flags="nn" index="15TzpJ" />
      <concept id="1154465102724" name="jetbrains.mps.lang.actions.structure.NodeSubstitutePreconditionFunction" flags="in" index="3buRE8" />
      <concept id="1154465273778" name="jetbrains.mps.lang.actions.structure.ConceptFunctionParameter_parentNode" flags="nn" index="3bvxqY" />
      <concept id="1154622616118" name="jetbrains.mps.lang.actions.structure.SideTransformHintSubstitutePreconditionFunction" flags="in" index="3kRJcU" />
      <concept id="1112056943463" name="jetbrains.mps.lang.actions.structure.NodeSubstituteActions" flags="ng" index="3FK_9_">
        <child id="1112058057696" name="actionsBuilder" index="3FOPby" />
      </concept>
      <concept id="1112058030570" name="jetbrains.mps.lang.actions.structure.NodeSubstituteActionsBuilder" flags="ig" index="3FOIzC">
        <reference id="1112058088712" name="applicableConcept" index="3FOWKa" />
        <child id="1177324142645" name="part" index="tZc4B" />
        <child id="1154465386371" name="precondition" index="3bvWUf" />
      </concept>
      <concept id="1221634900557" name="jetbrains.mps.lang.actions.structure.ConceptFunctionParameter_link" flags="nn" index="1J7kdh" />
      <concept id="1138079221458" name="jetbrains.mps.lang.actions.structure.SideTransformHintSubstituteActionsBuilder" flags="ig" index="3UNGvq">
        <property id="1215605257730" name="side" index="7I3sp" />
        <property id="1140829165817" name="transformTag" index="2uHTBK" />
        <reference id="1138079221462" name="applicableConcept" index="3UNGvu" />
        <child id="1177442283389" name="part" index="_1QTJ" />
        <child id="1154622757656" name="precondition" index="3kShCk" />
      </concept>
      <concept id="1138079416598" name="jetbrains.mps.lang.actions.structure.SideTransformHintSubstituteActions" flags="ng" index="3UOs0u">
        <child id="1138079416599" name="actionsBuilder" index="3UOs0v" />
      </concept>
    </language>
    <language id="7866978e-a0f0-4cc7-81bc-4d213d9375e1" name="jetbrains.mps.lang.smodel">
      <concept id="1226359078165" name="jetbrains.mps.lang.smodel.structure.LinkRefExpression" flags="nn" index="28GBK8">
        <reference id="1226359078166" name="conceptDeclaration" index="28GBKb" />
        <reference id="1226359192215" name="linkDeclaration" index="28H3Ia" />
      </concept>
      <concept id="1179168000618" name="jetbrains.mps.lang.smodel.structure.Node_GetIndexInParentOperation" flags="nn" index="2bSWHS" />
      <concept id="1177026924588" name="jetbrains.mps.lang.smodel.structure.RefConcept_Reference" flags="nn" index="chp4Y">
        <reference id="1177026940964" name="conceptDeclaration" index="cht4Q" />
      </concept>
      <concept id="1138411891628" name="jetbrains.mps.lang.smodel.structure.SNodeOperation" flags="nn" index="eCIE_">
        <child id="1144104376918" name="parameter" index="1xVPHs" />
      </concept>
      <concept id="2396822768958367367" name="jetbrains.mps.lang.smodel.structure.AbstractTypeCastExpression" flags="nn" index="$5XWr">
        <reference id="6733348108486823428" name="concept" index="1m5ApE" />
        <child id="6733348108486823193" name="leftExpression" index="1m5AlR" />
      </concept>
      <concept id="1143235216708" name="jetbrains.mps.lang.smodel.structure.Model_CreateNewNodeOperation" flags="nn" index="I8ghe">
        <reference id="1143235391024" name="concept" index="I8UWU" />
      </concept>
      <concept id="1171305280644" name="jetbrains.mps.lang.smodel.structure.Node_GetDescendantsOperation" flags="nn" index="2Rf3mk" />
      <concept id="1171407110247" name="jetbrains.mps.lang.smodel.structure.Node_GetAncestorOperation" flags="nn" index="2Xjw5R" />
      <concept id="1240170042401" name="jetbrains.mps.lang.smodel.structure.SEnumMemberType" flags="in" index="2ZThk1">
        <reference id="1240170836027" name="enum" index="2ZWj4r" />
      </concept>
      <concept id="1240171359678" name="jetbrains.mps.lang.smodel.structure.EnumMember_ValueOperation" flags="nn" index="2ZYiMu" />
      <concept id="1240173327827" name="jetbrains.mps.lang.smodel.structure.EnumMember_NameOperation" flags="nn" index="305NjN" />
      <concept id="1154546920561" name="jetbrains.mps.lang.smodel.structure.OperationParm_ConceptList" flags="ng" index="3gmYPX">
        <child id="1154546920563" name="concept" index="3gmYPZ" />
      </concept>
      <concept id="1154546950173" name="jetbrains.mps.lang.smodel.structure.ConceptReference" flags="ng" index="3gn64h">
        <reference id="1154546997487" name="concept" index="3gnhBz" />
      </concept>
      <concept id="1139613262185" name="jetbrains.mps.lang.smodel.structure.Node_GetParentOperation" flags="nn" index="1mfA1w" />
      <concept id="1139621453865" name="jetbrains.mps.lang.smodel.structure.Node_IsInstanceOfOperation" flags="nn" index="1mIQ4w">
        <child id="1177027386292" name="conceptArgument" index="cj9EA" />
      </concept>
      <concept id="1171999116870" name="jetbrains.mps.lang.smodel.structure.Node_IsNullOperation" flags="nn" index="3w_OXm" />
      <concept id="1172008320231" name="jetbrains.mps.lang.smodel.structure.Node_IsNotNullOperation" flags="nn" index="3x8VRR" />
      <concept id="1144101972840" name="jetbrains.mps.lang.smodel.structure.OperationParm_Concept" flags="ng" index="1xMEDy">
        <child id="1207343664468" name="conceptArgument" index="ri$Ld" />
      </concept>
      <concept id="1240930118027" name="jetbrains.mps.lang.smodel.structure.SEnumOperationInvocation" flags="nn" index="3HcIyF">
        <reference id="1240930118028" name="enumDeclaration" index="3HcIyG" />
        <child id="1240930317927" name="operation" index="3Hdvt7" />
      </concept>
      <concept id="1240930444980" name="jetbrains.mps.lang.smodel.structure.SEnum_MembersOperation" flags="ng" index="3HdYuk" />
      <concept id="1140137987495" name="jetbrains.mps.lang.smodel.structure.SNodeTypeCastExpression" flags="nn" index="1PxgMI">
        <property id="1238684351431" name="asCast" index="1BlNFB" />
      </concept>
      <concept id="1138055754698" name="jetbrains.mps.lang.smodel.structure.SNodeType" flags="in" index="3Tqbb2">
        <reference id="1138405853777" name="concept" index="ehGHo" />
      </concept>
      <concept id="1138056022639" name="jetbrains.mps.lang.smodel.structure.SPropertyAccess" flags="nn" index="3TrcHB">
        <reference id="1138056395725" name="property" index="3TsBF5" />
      </concept>
      <concept id="1138056143562" name="jetbrains.mps.lang.smodel.structure.SLinkAccess" flags="nn" index="3TrEf2">
        <reference id="1138056516764" name="link" index="3Tt5mk" />
      </concept>
      <concept id="1172424058054" name="jetbrains.mps.lang.smodel.structure.ConceptRefExpression" flags="nn" index="3TUQnm">
        <reference id="1172424100906" name="conceptDeclaration" index="3TV0OU" />
      </concept>
    </language>
    <language id="ceab5195-25ea-4f22-9b92-103b95ca8c0c" name="jetbrains.mps.lang.core">
      <concept id="1133920641626" name="jetbrains.mps.lang.core.structure.BaseConcept" flags="ng" index="2VYdi">
        <property id="1193676396447" name="virtualPackage" index="3GE5qa" />
        <child id="5169995583184591170" name="smodelAttribute" index="lGtFl" />
      </concept>
      <concept id="3364660638048049750" name="jetbrains.mps.lang.core.structure.PropertyAttribute" flags="ng" index="A9Btg">
        <property id="1757699476691236117" name="propertyName" index="2qtEX9" />
        <property id="1341860900487648621" name="propertyId" index="P4ACc" />
      </concept>
      <concept id="3364660638048049745" name="jetbrains.mps.lang.core.structure.LinkAttribute" flags="ng" index="A9Btn">
        <property id="1757699476691236116" name="linkRole" index="2qtEX8" />
        <property id="1341860900488019036" name="linkId" index="P3scX" />
      </concept>
      <concept id="1169194658468" name="jetbrains.mps.lang.core.structure.INamedConcept" flags="ng" index="TrEIO">
        <property id="1169194664001" name="name" index="TrG5h" />
      </concept>
    </language>
  </registry>
  <node concept="3FK_9_" id="68RPrIbaPQU">
    <property role="TrG5h" value="ResultStatement_subs" />
    <property role="3GE5qa" value="job" />
    <node concept="3FOIzC" id="68RPrIbaPQV" role="3FOPby">
      <ref role="3FOWKa" to="tpee:fzclF8l" resolve="Statement" />
      <node concept="z64au" id="230qvwa_Tj0" role="tZc4B">
        <ref role="z65TK" to="tpee:fzcpWvY" resolve="ReturnStatement" />
      </node>
      <node concept="tYCnQ" id="68RPrIbaPR1" role="tZc4B">
        <ref role="uz4UX" to="q9ra:68RPrIbaDgH" resolve="ResultStatement" />
        <node concept="uMFAO" id="68RPrIbaPR5" role="uz6Si">
          <node concept="uNCsQ" id="68RPrIbaPR7" role="uO7ob">
            <node concept="3clFbS" id="68RPrIbaPR8" role="2VODD2">
              <node concept="3clFbF" id="230qvwa_bzy" role="3cqZAp">
                <node concept="3HcIyF" id="230qvwa_bzz" role="3clFbG">
                  <ref role="3HcIyG" to="q9ra:230qvwa_7bq" resolve="Result" />
                  <node concept="3HdYuk" id="230qvwa_bz_" role="3Hdvt7" />
                </node>
              </node>
            </node>
          </node>
          <node concept="uSIkt" id="68RPrIbaPR9" role="uTubQ">
            <node concept="3clFbS" id="68RPrIbaPRa" role="2VODD2">
              <node concept="3cpWs8" id="68RPrIbaPUm" role="3cqZAp">
                <node concept="3cpWsn" id="68RPrIbaPUn" role="3cpWs9">
                  <property role="TrG5h" value="rs" />
                  <node concept="3Tqbb2" id="68RPrIbaPUo" role="1tU5fm">
                    <ref role="ehGHo" to="q9ra:68RPrIbaDgH" resolve="ResultStatement" />
                  </node>
                  <node concept="2OqwBi" id="68RPrIbaPUp" role="33vP2m">
                    <node concept="1Q6Npb" id="68RPrIbaPUq" role="2Oq$k0" />
                    <node concept="15TzpJ" id="ma$$LuAX3D" role="2OqNvi">
                      <ref role="I8UWU" to="q9ra:68RPrIbaDgH" resolve="ResultStatement" />
                    </node>
                  </node>
                </node>
              </node>
              <node concept="3clFbF" id="68RPrIbaPUt" role="3cqZAp">
                <node concept="37vLTI" id="68RPrIbaPU_" role="3clFbG">
                  <node concept="2OqwBi" id="230qvwa_bOL" role="37vLTx">
                    <node concept="uNquD" id="230qvwa_bOK" role="2Oq$k0" />
                    <node concept="2ZYiMu" id="230qvwa_bOP" role="2OqNvi" />
                  </node>
                  <node concept="2OqwBi" id="68RPrIbaPUv" role="37vLTJ">
                    <node concept="37vLTw" id="3GM_nagTt2Y" role="2Oq$k0">
                      <ref role="3cqZAo" node="68RPrIbaPUn" resolve="rs" />
                    </node>
                    <node concept="3TrcHB" id="68RPrIbaPU$" role="2OqNvi">
                      <ref role="3TsBF5" to="q9ra:68RPrIbaDgI" resolve="result" />
                    </node>
                  </node>
                </node>
              </node>
              <node concept="3clFbF" id="68RPrIbaPUE" role="3cqZAp">
                <node concept="37vLTw" id="3GM_nagTuUn" role="3clFbG">
                  <ref role="3cqZAo" node="68RPrIbaPUn" resolve="rs" />
                </node>
              </node>
            </node>
          </node>
          <node concept="uSjag" id="68RPrIbaPU5" role="uSyvl">
            <node concept="3clFbS" id="68RPrIbaPU6" role="2VODD2">
              <node concept="3clFbF" id="230qvwa_bOC" role="3cqZAp">
                <node concept="2OqwBi" id="230qvwa_bOE" role="3clFbG">
                  <node concept="uNquD" id="230qvwa_bOD" role="2Oq$k0" />
                  <node concept="305NjN" id="230qvwa_bOI" role="2OqNvi" />
                </node>
              </node>
            </node>
          </node>
          <node concept="2ZThk1" id="230qvwa_bzx" role="uMOYW">
            <ref role="2ZWj4r" to="q9ra:230qvwa_7bq" resolve="Result" />
          </node>
        </node>
      </node>
      <node concept="3buRE8" id="230qvwa_Tj5" role="3bvWUf">
        <node concept="3clFbS" id="230qvwa_Tj6" role="2VODD2">
          <node concept="3cpWs8" id="1HN6OkgRk43" role="3cqZAp">
            <node concept="3cpWsn" id="1HN6OkgRk44" role="3cpWs9">
              <property role="TrG5h" value="anc" />
              <node concept="3Tqbb2" id="1HN6OkgRk45" role="1tU5fm">
                <ref role="ehGHo" to="tpee:htgVS9_" resolve="IStatementListContainer" />
              </node>
              <node concept="2OqwBi" id="1HN6OkgRk46" role="33vP2m">
                <node concept="3bvxqY" id="1HN6OkgRk47" role="2Oq$k0" />
                <node concept="2Xjw5R" id="1HN6OkgRk48" role="2OqNvi">
                  <node concept="3gmYPX" id="1HN6OkgRk49" role="1xVPHs">
                    <node concept="3gn64h" id="1HN6OkgRk4a" role="3gmYPZ">
                      <ref role="3gnhBz" to="q9ra:230qvwa_MQF" resolve="JobDefinition" />
                    </node>
                    <node concept="3gn64h" id="1HN6OkgRk4b" role="3gmYPZ">
                      <ref role="3gnhBz" to="q9ra:1HN6OkgRbV$" resolve="ConfigDefinition" />
                    </node>
                    <node concept="3gn64h" id="1HN6OkgRk4c" role="3gmYPZ">
                      <ref role="3gnhBz" to="tpee:htgVS9_" resolve="IStatementListContainer" />
                    </node>
                  </node>
                </node>
              </node>
            </node>
          </node>
          <node concept="3clFbF" id="230qvwa_Tj7" role="3cqZAp">
            <node concept="22lmx$" id="1HN6OkgRk4e" role="3clFbG">
              <node concept="2OqwBi" id="1HN6OkgRk4i" role="3uHU7w">
                <node concept="37vLTw" id="3GM_nagT$px" role="2Oq$k0">
                  <ref role="3cqZAo" node="1HN6OkgRk44" resolve="anc" />
                </node>
                <node concept="1mIQ4w" id="1HN6OkgRk4m" role="2OqNvi">
                  <node concept="chp4Y" id="1HN6OkgRk4o" role="cj9EA">
                    <ref role="cht4Q" to="q9ra:1HN6OkgRbV$" resolve="ConfigDefinition" />
                  </node>
                </node>
              </node>
              <node concept="2OqwBi" id="230qvwa_TjA" role="3uHU7B">
                <node concept="37vLTw" id="3GM_nagT__c" role="2Oq$k0">
                  <ref role="3cqZAo" node="1HN6OkgRk44" resolve="anc" />
                </node>
                <node concept="1mIQ4w" id="230qvwa_TjE" role="2OqNvi">
                  <node concept="chp4Y" id="230qvwa_TjG" role="cj9EA">
                    <ref role="cht4Q" to="q9ra:230qvwa_MQF" resolve="JobDefinition" />
                  </node>
                </node>
              </node>
            </node>
          </node>
        </node>
      </node>
    </node>
  </node>
  <node concept="3FK_9_" id="230qvwa_TjV">
    <property role="TrG5h" value="OutputResources_subs" />
    <property role="3GE5qa" value="job" />
    <node concept="3FOIzC" id="230qvwa_TjW" role="3FOPby">
      <ref role="3FOWKa" to="q9ra:230qvwa_M1C" resolve="OutputResources" />
      <node concept="3buRE8" id="230qvwa_TjX" role="3bvWUf">
        <node concept="3clFbS" id="230qvwa_TjY" role="2VODD2">
          <node concept="3clFbF" id="230qvwa_Tk0" role="3cqZAp">
            <node concept="2OqwBi" id="230qvwa_Tk1" role="3clFbG">
              <node concept="2OqwBi" id="230qvwa_Tk2" role="2Oq$k0">
                <node concept="3bvxqY" id="230qvwa_Tk3" role="2Oq$k0" />
                <node concept="2Xjw5R" id="230qvwa_Tk4" role="2OqNvi">
                  <node concept="3gmYPX" id="230qvwa_Tk5" role="1xVPHs">
                    <node concept="3gn64h" id="230qvwa_Tk6" role="3gmYPZ">
                      <ref role="3gnhBz" to="q9ra:230qvwa_MQF" resolve="JobDefinition" />
                    </node>
                    <node concept="3gn64h" id="230qvwa_Tk7" role="3gmYPZ">
                      <ref role="3gnhBz" to="tpee:htgVS9_" resolve="IStatementListContainer" />
                    </node>
                  </node>
                </node>
              </node>
              <node concept="1mIQ4w" id="230qvwa_Tk8" role="2OqNvi">
                <node concept="chp4Y" id="230qvwa_Tk9" role="cj9EA">
                  <ref role="cht4Q" to="q9ra:230qvwa_MQF" resolve="JobDefinition" />
                </node>
              </node>
            </node>
          </node>
        </node>
      </node>
      <node concept="35xCft" id="230qvwa_TSQ" role="tZc4B">
        <ref role="35y72J" to="q9ra:230qvwa_M1C" resolve="OutputResources" />
      </node>
    </node>
  </node>
  <node concept="3FK_9_" id="1HN6OkgRbVC">
    <property role="TrG5h" value="RelayQueryExpression_subs" />
    <property role="3GE5qa" value="job" />
    <node concept="3FOIzC" id="1HN6OkgRbVD" role="3FOPby">
      <ref role="3FOWKa" to="tpee:fz3vP1J" resolve="Expression" />
      <node concept="3buRE8" id="1HN6OkgRbVE" role="3bvWUf">
        <node concept="3clFbS" id="1HN6OkgRbVF" role="2VODD2">
          <node concept="3clFbF" id="1HN6OkgRbXV" role="3cqZAp">
            <node concept="2OqwBi" id="1HN6OkgRbYl" role="3clFbG">
              <node concept="2OqwBi" id="1HN6OkgRbYb" role="2Oq$k0">
                <node concept="3bvxqY" id="1HN6OkgRbXW" role="2Oq$k0" />
                <node concept="2Xjw5R" id="1HN6OkgRbYf" role="2OqNvi">
                  <node concept="3gmYPX" id="1HN6OkgRk3I" role="1xVPHs">
                    <node concept="3gn64h" id="1HN6OkgRk3L" role="3gmYPZ">
                      <ref role="3gnhBz" to="tpee:htgVS9_" resolve="IStatementListContainer" />
                    </node>
                    <node concept="3gn64h" id="1HN6OkgRk3N" role="3gmYPZ">
                      <ref role="3gnhBz" to="q9ra:1HN6OkgRbV$" resolve="ConfigDefinition" />
                    </node>
                  </node>
                </node>
              </node>
              <node concept="3w_OXm" id="1HN6OkgRbYp" role="2OqNvi" />
            </node>
          </node>
        </node>
      </node>
      <node concept="35xCft" id="1HN6OkgRbYr" role="tZc4B">
        <ref role="35y72J" to="q9ra:1HN6OkgQWmv" resolve="RelayQueryExpression" />
      </node>
    </node>
  </node>
  <node concept="3FK_9_" id="3bEKrlZKBiR">
    <property role="TrG5h" value="ReportFeedbackStatement_subs" />
    <property role="3GE5qa" value="job" />
    <node concept="3FOIzC" id="3bEKrlZKBiS" role="3FOPby">
      <ref role="3FOWKa" to="tpee:fzclF8l" resolve="Statement" />
      <node concept="3buRE8" id="3bEKrlZKBiT" role="3bvWUf">
        <node concept="3clFbS" id="3bEKrlZKBiU" role="2VODD2">
          <node concept="3clFbF" id="3bEKrlZKBkg" role="3cqZAp">
            <node concept="2OqwBi" id="3bEKrlZKBks" role="3clFbG">
              <node concept="2OqwBi" id="3bEKrlZKBki" role="2Oq$k0">
                <node concept="3bvxqY" id="3bEKrlZKBkh" role="2Oq$k0" />
                <node concept="2Xjw5R" id="3bEKrlZKBkm" role="2OqNvi">
                  <node concept="1xMEDy" id="3bEKrlZKBkn" role="1xVPHs">
                    <node concept="chp4Y" id="3bEKrlZKBkr" role="ri$Ld">
                      <ref role="cht4Q" to="q9ra:230qvwa_MQF" resolve="JobDefinition" />
                    </node>
                  </node>
                </node>
              </node>
              <node concept="3x8VRR" id="3bEKrlZKBkw" role="2OqNvi" />
            </node>
          </node>
        </node>
      </node>
      <node concept="tYCnQ" id="3bEKrlZKBky" role="tZc4B">
        <ref role="uz4UX" to="q9ra:3bEKrlZKrwC" resolve="ReportFeedbackStatement" />
        <node concept="uMFAO" id="3bEKrlZKBkz" role="uz6Si">
          <node concept="2ZThk1" id="3bEKrlZKBkD" role="uMOYW">
            <ref role="2ZWj4r" to="q9ra:3bEKrlZKrwE" resolve="Feedback" />
          </node>
          <node concept="uNCsQ" id="3bEKrlZKBk_" role="uO7ob">
            <node concept="3clFbS" id="3bEKrlZKBkA" role="2VODD2">
              <node concept="3clFbF" id="3bEKrlZKBkE" role="3cqZAp">
                <node concept="3HcIyF" id="3bEKrlZKBkF" role="3clFbG">
                  <ref role="3HcIyG" to="q9ra:3bEKrlZKrwE" resolve="Feedback" />
                  <node concept="3HdYuk" id="3bEKrlZKBkH" role="3Hdvt7" />
                </node>
              </node>
            </node>
          </node>
          <node concept="uSIkt" id="3bEKrlZKBkB" role="uTubQ">
            <node concept="3clFbS" id="3bEKrlZKBkC" role="2VODD2">
              <node concept="3clFbF" id="3bEKrlZKBkY" role="3cqZAp">
                <node concept="2c44tf" id="3bEKrlZKBkZ" role="3clFbG">
                  <node concept="1daRAt" id="3bEKrlZKBl1" role="2c44tc">
                    <node concept="33vP2n" id="3bEKrlZKBl2" role="1daK9t" />
                    <node concept="2EMmih" id="3bEKrlZKBl3" role="lGtFl">
                      <property role="2qtEX9" value="feedback" />
                      <property role="P4ACc" value="95f8a3e6-f994-4ca0-a65e-763c9bae2d3b/3668957831723333672/3668957831723333678" />
                      <node concept="2OqwBi" id="3bEKrlZKBl6" role="2c44t1">
                        <node concept="uNquD" id="3bEKrlZKBl5" role="2Oq$k0" />
                        <node concept="2ZYiMu" id="3bEKrlZKBla" role="2OqNvi" />
                      </node>
                    </node>
                  </node>
                </node>
              </node>
            </node>
          </node>
          <node concept="uSjag" id="3bEKrlZKBkK" role="uSyvl">
            <node concept="3clFbS" id="3bEKrlZKBkL" role="2VODD2">
              <node concept="3clFbF" id="3bEKrlZKBkM" role="3cqZAp">
                <node concept="3cpWs3" id="3bEKrlZKBkO" role="3clFbG">
                  <node concept="uNquD" id="3bEKrlZKBkR" role="3uHU7w" />
                  <node concept="Xl_RD" id="3bEKrlZKBkN" role="3uHU7B">
                    <property role="Xl_RC" value="report " />
                  </node>
                </node>
              </node>
            </node>
          </node>
        </node>
      </node>
    </node>
  </node>
  <node concept="3FK_9_" id="apaq_sC7SJ">
    <property role="TrG5h" value="ProgressStatement_subs" />
    <property role="3GE5qa" value="job" />
    <node concept="3FOIzC" id="apaq_sC7Tm" role="3FOPby">
      <ref role="3FOWKa" to="tpee:fzclF8l" resolve="Statement" />
      <node concept="3buRE8" id="apaq_sC7Tn" role="3bvWUf">
        <node concept="3clFbS" id="apaq_sC7To" role="2VODD2">
          <node concept="3clFbF" id="apaq_sC7UI" role="3cqZAp">
            <node concept="2OqwBi" id="apaq_sC7UT" role="3clFbG">
              <node concept="2OqwBi" id="apaq_sC7UK" role="2Oq$k0">
                <node concept="3bvxqY" id="apaq_sC7UJ" role="2Oq$k0" />
                <node concept="2Xjw5R" id="apaq_sC7UO" role="2OqNvi">
                  <node concept="1xMEDy" id="apaq_sC7UP" role="1xVPHs">
                    <node concept="chp4Y" id="apaq_sC7US" role="ri$Ld">
                      <ref role="cht4Q" to="q9ra:230qvwa_MQF" resolve="JobDefinition" />
                    </node>
                  </node>
                </node>
              </node>
              <node concept="3x8VRR" id="apaq_sC7UX" role="2OqNvi" />
            </node>
          </node>
        </node>
      </node>
      <node concept="tYCnQ" id="57qZYx4kYTA" role="tZc4B">
        <ref role="uz4UX" to="q9ra:apaq_sBAA2" resolve="BeginWorkStatement" />
        <node concept="ucClh" id="57qZYx4kZKU" role="uz6Si">
          <node concept="ucgPf" id="57qZYx4kZKV" role="ucMEw">
            <node concept="3clFbS" id="57qZYx4kZKW" role="2VODD2">
              <node concept="3clFbF" id="57qZYx4lb6Z" role="3cqZAp">
                <node concept="2c44tf" id="57qZYx4lb70" role="3clFbG">
                  <node concept="1u1O0F" id="57qZYx4lb72" role="2c44tc">
                    <node concept="33vP2n" id="57qZYx4lb73" role="1u1ALf" />
                    <node concept="1C$qFY" id="57qZYx4liV7" role="1u1ALe" />
                  </node>
                </node>
              </node>
            </node>
          </node>
          <node concept="uGdhv" id="57qZYx4kZL5" role="uGu3D">
            <node concept="3clFbS" id="57qZYx4kZL6" role="2VODD2">
              <node concept="3clFbF" id="57qZYx4l3py" role="3cqZAp">
                <node concept="2OqwBi" id="2wdLO7KeCk5" role="3clFbG">
                  <node concept="3TrcHB" id="2wdLO7KeCk6" role="2OqNvi">
                    <ref role="3TsBF5" to="tpce:4qF2Hm2r7ja" resolve="conceptAlias" />
                  </node>
                  <node concept="3TUQnm" id="2wdLO7KeCk7" role="2Oq$k0">
                    <ref role="3TV0OU" to="q9ra:apaq_sBAA2" resolve="BeginWorkStatement" />
                  </node>
                </node>
              </node>
            </node>
          </node>
        </node>
      </node>
      <node concept="35xCft" id="2R293h5kKWl" role="tZc4B">
        <ref role="35y72J" to="q9ra:apaq_sBAA4" resolve="AdvanceWorkStatement" />
      </node>
      <node concept="35xCft" id="2R293h5kKWn" role="tZc4B">
        <ref role="35y72J" to="q9ra:apaq_sBAA7" resolve="FinishWorkStatement" />
      </node>
      <node concept="tYCnQ" id="apaq_sC8eL" role="tZc4B">
        <ref role="uz4UX" to="q9ra:apaq_sBAA4" resolve="AdvanceWorkStatement" />
        <node concept="uMFAO" id="apaq_sC8eM" role="uz6Si">
          <node concept="3Tqbb2" id="apaq_sC8eS" role="uMOYW">
            <ref role="ehGHo" to="q9ra:apaq_sBAA2" resolve="BeginWorkStatement" />
          </node>
          <node concept="uNCsQ" id="apaq_sC8eO" role="uO7ob">
            <node concept="3clFbS" id="apaq_sC8eP" role="2VODD2">
              <node concept="3clFbF" id="apaq_sC8eT" role="3cqZAp">
                <node concept="2OqwBi" id="apaq_sC8fb" role="3clFbG">
                  <node concept="2OqwBi" id="apaq_sC8f6" role="2Oq$k0">
                    <node concept="2OqwBi" id="apaq_sC8eV" role="2Oq$k0">
                      <node concept="3bvxqY" id="apaq_sC8eU" role="2Oq$k0" />
                      <node concept="2Xjw5R" id="apaq_sC8eZ" role="2OqNvi">
                        <node concept="1xMEDy" id="apaq_sC8f0" role="1xVPHs">
                          <node concept="chp4Y" id="apaq_sC8f5" role="ri$Ld">
                            <ref role="cht4Q" to="q9ra:230qvwa_MQF" resolve="JobDefinition" />
                          </node>
                        </node>
                      </node>
                    </node>
                    <node concept="3TrEf2" id="apaq_sC8fa" role="2OqNvi">
                      <ref role="3Tt5mk" to="tpee:gyVODHa" />
                    </node>
                  </node>
                  <node concept="2Rf3mk" id="apaq_sC8ff" role="2OqNvi">
                    <node concept="1xMEDy" id="apaq_sC8fg" role="1xVPHs">
                      <node concept="chp4Y" id="apaq_sC8fj" role="ri$Ld">
                        <ref role="cht4Q" to="q9ra:apaq_sBAA2" resolve="BeginWorkStatement" />
                      </node>
                    </node>
                  </node>
                </node>
              </node>
            </node>
          </node>
          <node concept="uSIkt" id="apaq_sC8eQ" role="uTubQ">
            <node concept="3clFbS" id="apaq_sC8eR" role="2VODD2">
              <node concept="3clFbF" id="2R293h5kj$G" role="3cqZAp">
                <node concept="2c44tf" id="2R293h5kj$H" role="3clFbG">
                  <node concept="1u1O0H" id="2R293h5kj$J" role="2c44tc">
                    <node concept="33vP2n" id="2R293h5kj$K" role="1u1xPX" />
                    <node concept="2c44tb" id="_U7e4opDqi" role="lGtFl">
                      <property role="2qtEX8" value="workStatement" />
                      <property role="P3scX" value="95f8a3e6-f994-4ca0-a65e-763c9bae2d3b/187226666892683652/682890046602395482" />
                      <node concept="uNquD" id="_U7e4opDrD" role="2c44t1" />
                    </node>
                  </node>
                </node>
              </node>
            </node>
          </node>
          <node concept="uSjag" id="apaq_sC8fk" role="uSyvl">
            <node concept="3clFbS" id="apaq_sC8fl" role="2VODD2">
              <node concept="3clFbF" id="apaq_sC8fm" role="3cqZAp">
                <node concept="3cpWs3" id="apaq_sC8fy" role="3clFbG">
                  <node concept="2OqwBi" id="apaq_sC8fA" role="3uHU7w">
                    <node concept="uNquD" id="apaq_sC8f_" role="2Oq$k0" />
                    <node concept="3TrcHB" id="_U7e4opDqh" role="2OqNvi">
                      <ref role="3TsBF5" to="q9ra:_U7e4opu$h" resolve="workName" />
                    </node>
                  </node>
                  <node concept="3cpWs3" id="apaq_sC8fu" role="3uHU7B">
                    <node concept="2OqwBi" id="2wdLO7Kh39l" role="3uHU7B">
                      <node concept="3TrcHB" id="2wdLO7Kh39m" role="2OqNvi">
                        <ref role="3TsBF5" to="tpce:4qF2Hm2r7ja" resolve="conceptAlias" />
                      </node>
                      <node concept="3TUQnm" id="2wdLO7Kh39n" role="2Oq$k0">
                        <ref role="3TV0OU" to="q9ra:apaq_sBAA4" resolve="AdvanceWorkStatement" />
                      </node>
                    </node>
                    <node concept="Xl_RD" id="apaq_sC8fx" role="3uHU7w">
                      <property role="Xl_RC" value=" &lt;amount&gt; of " />
                    </node>
                  </node>
                </node>
              </node>
            </node>
          </node>
        </node>
      </node>
      <node concept="tYCnQ" id="2R293h5krif" role="tZc4B">
        <ref role="uz4UX" to="q9ra:apaq_sBAA7" resolve="FinishWorkStatement" />
        <node concept="uMFAO" id="2R293h5krig" role="uz6Si">
          <node concept="3Tqbb2" id="2R293h5krih" role="uMOYW">
            <ref role="ehGHo" to="q9ra:apaq_sBAA2" resolve="BeginWorkStatement" />
          </node>
          <node concept="uNCsQ" id="2R293h5krii" role="uO7ob">
            <node concept="3clFbS" id="2R293h5krij" role="2VODD2">
              <node concept="3clFbF" id="2R293h5krik" role="3cqZAp">
                <node concept="2OqwBi" id="2R293h5kril" role="3clFbG">
                  <node concept="2OqwBi" id="2R293h5krim" role="2Oq$k0">
                    <node concept="2OqwBi" id="2R293h5krin" role="2Oq$k0">
                      <node concept="3bvxqY" id="2R293h5krio" role="2Oq$k0" />
                      <node concept="2Xjw5R" id="2R293h5krip" role="2OqNvi">
                        <node concept="1xMEDy" id="2R293h5kriq" role="1xVPHs">
                          <node concept="chp4Y" id="2R293h5krir" role="ri$Ld">
                            <ref role="cht4Q" to="q9ra:230qvwa_MQF" resolve="JobDefinition" />
                          </node>
                        </node>
                      </node>
                    </node>
                    <node concept="3TrEf2" id="2R293h5kris" role="2OqNvi">
                      <ref role="3Tt5mk" to="tpee:gyVODHa" />
                    </node>
                  </node>
                  <node concept="2Rf3mk" id="2R293h5krit" role="2OqNvi">
                    <node concept="1xMEDy" id="2R293h5kriu" role="1xVPHs">
                      <node concept="chp4Y" id="2R293h5kriv" role="ri$Ld">
                        <ref role="cht4Q" to="q9ra:apaq_sBAA2" resolve="BeginWorkStatement" />
                      </node>
                    </node>
                  </node>
                </node>
              </node>
            </node>
          </node>
          <node concept="uSIkt" id="2R293h5kriw" role="uTubQ">
            <node concept="3clFbS" id="2R293h5krix" role="2VODD2">
              <node concept="3clFbF" id="2R293h5kriQ" role="3cqZAp">
                <node concept="2c44tf" id="2R293h5kriR" role="3clFbG">
                  <node concept="1u1O0I" id="2R293h5kriT" role="2c44tc">
                    <node concept="2c44tb" id="_U7e4opDrF" role="lGtFl">
                      <property role="2qtEX8" value="workStatement" />
                      <property role="P3scX" value="95f8a3e6-f994-4ca0-a65e-763c9bae2d3b/187226666892683655/682890046602397405" />
                      <node concept="uNquD" id="_U7e4opDrH" role="2c44t1" />
                    </node>
                  </node>
                </node>
              </node>
            </node>
          </node>
          <node concept="uSjag" id="2R293h5kriE" role="uSyvl">
            <node concept="3clFbS" id="2R293h5kriF" role="2VODD2">
              <node concept="3clFbF" id="2R293h5kriG" role="3cqZAp">
                <node concept="3cpWs3" id="2R293h5ksfY" role="3clFbG">
                  <node concept="3cpWs3" id="2R293h5ksfU" role="3uHU7B">
                    <node concept="2OqwBi" id="2wdLO7KfU24" role="3uHU7B">
                      <node concept="3TrcHB" id="2wdLO7KfU25" role="2OqNvi">
                        <ref role="3TsBF5" to="tpce:4qF2Hm2r7ja" resolve="conceptAlias" />
                      </node>
                      <node concept="3TUQnm" id="2wdLO7KfU26" role="2Oq$k0">
                        <ref role="3TV0OU" to="q9ra:apaq_sBAA7" resolve="FinishWorkStatement" />
                      </node>
                    </node>
                    <node concept="Xl_RD" id="2R293h5ksfX" role="3uHU7w">
                      <property role="Xl_RC" value=" " />
                    </node>
                  </node>
                  <node concept="2OqwBi" id="2R293h5ksg1" role="3uHU7w">
                    <node concept="uNquD" id="2R293h5ksg2" role="2Oq$k0" />
                    <node concept="3TrcHB" id="_U7e4opDrE" role="2OqNvi">
                      <ref role="3TsBF5" to="q9ra:_U7e4opu$h" resolve="workName" />
                    </node>
                  </node>
                </node>
              </node>
            </node>
          </node>
        </node>
      </node>
    </node>
  </node>
  <node concept="3FK_9_" id="2R293h5kSW_">
    <property role="TrG5h" value="AllWorkLeftExpression_subs" />
    <property role="3GE5qa" value="job" />
    <node concept="3FOIzC" id="2R293h5kSWA" role="3FOPby">
      <ref role="3FOWKa" to="tpee:fz3vP1J" resolve="Expression" />
      <node concept="3buRE8" id="2R293h5kSWB" role="3bvWUf">
        <node concept="3clFbS" id="2R293h5kSWC" role="2VODD2">
          <node concept="3clFbF" id="2R293h5kSWD" role="3cqZAp">
            <node concept="1Wc70l" id="5Ev$og$6xmH" role="3clFbG">
              <node concept="2OqwBi" id="2R293h5kSWF" role="3uHU7B">
                <node concept="3bvxqY" id="2R293h5kSWE" role="2Oq$k0" />
                <node concept="1mIQ4w" id="2R293h5kSWJ" role="2OqNvi">
                  <node concept="chp4Y" id="2R293h5kSWL" role="cj9EA">
                    <ref role="cht4Q" to="q9ra:apaq_sBAA2" resolve="BeginWorkStatement" />
                  </node>
                </node>
              </node>
              <node concept="3clFbC" id="5Ev$og$6Po3" role="3uHU7w">
                <node concept="1J7kdh" id="5Ev$og$6Po6" role="3uHU7w" />
                <node concept="28GBK8" id="5Ev$og$6Po2" role="3uHU7B">
                  <ref role="28GBKb" to="q9ra:apaq_sBAA2" resolve="BeginWorkStatement" />
                  <ref role="28H3Ia" to="q9ra:apaq_sBOnB" />
                </node>
              </node>
            </node>
          </node>
        </node>
      </node>
      <node concept="35xCft" id="2R293h5kSWM" role="tZc4B">
        <ref role="35y72J" to="q9ra:2R293h5kSVa" resolve="AllWorkLeftExpression" />
      </node>
    </node>
  </node>
  <node concept="3UOs0u" id="3coSEyvWdM4">
    <property role="TrG5h" value="Option_makeDefault" />
    <property role="3GE5qa" value="query" />
    <node concept="3UNGvq" id="3coSEyvWdM5" role="3UOs0v">
      <property role="7I3sp" value="left" />
      <property role="2uHTBK" value="ext_1_RTransform" />
      <ref role="3UNGvu" to="q9ra:s2twedL9V9" resolve="Option" />
      <node concept="tYCnQ" id="3coSEyvWdNX" role="_1QTJ">
        <ref role="uz4UX" to="q9ra:s2twedL9V9" resolve="Option" />
        <node concept="Cmt7Y" id="3coSEyvWdNY" role="uz6Si">
          <node concept="2h1dTh" id="3coSEyvWdO2" role="Cn2iK">
            <property role="2h1i$Z" value="default" />
          </node>
          <node concept="2h1dTh" id="3coSEyvWdO3" role="Cn6ar">
            <property role="2h1i$Z" value="make default" />
          </node>
          <node concept="Cnhdc" id="3coSEyvWdO5" role="Cncma">
            <node concept="3clFbS" id="3coSEyvWdO6" role="2VODD2">
              <node concept="3clFbF" id="3coSEyvWdO7" role="3cqZAp">
                <node concept="37vLTI" id="3coSEyvWdOl" role="3clFbG">
                  <node concept="2OqwBi" id="3coSEyvWdOu" role="37vLTx">
                    <node concept="Cj7Ep" id="3coSEyvWdOo" role="2Oq$k0" />
                    <node concept="2bSWHS" id="3coSEyvWdOy" role="2OqNvi" />
                  </node>
                  <node concept="2OqwBi" id="3coSEyvWdOg" role="37vLTJ">
                    <node concept="1PxgMI" id="3coSEyvWdOe" role="2Oq$k0">
                      <property role="1BlNFB" value="true" />
                      <ref role="1m5ApE" to="q9ra:s2twedLduV" resolve="ExpectedOption" />
                      <node concept="2OqwBi" id="3coSEyvWdO9" role="1m5AlR">
                        <node concept="Cj7Ep" id="3coSEyvWdO8" role="2Oq$k0" />
                        <node concept="1mfA1w" id="3coSEyvWdOd" role="2OqNvi" />
                      </node>
                    </node>
                    <node concept="3TrcHB" id="3coSEyvWdOk" role="2OqNvi">
                      <ref role="3TsBF5" to="q9ra:3coSEyvW2_G" resolve="defaultOption" />
                    </node>
                  </node>
                </node>
              </node>
              <node concept="3clFbF" id="3coSEyvWdOE" role="3cqZAp">
                <node concept="Cj7Ep" id="3coSEyvWdOF" role="3clFbG" />
              </node>
            </node>
          </node>
        </node>
      </node>
      <node concept="3kRJcU" id="3coSEyvWdM7" role="3kShCk">
        <node concept="3clFbS" id="3coSEyvWdNu" role="2VODD2">
          <node concept="3clFbF" id="3coSEyvWdN$" role="3cqZAp">
            <node concept="3y3z36" id="3coSEyvWdNF" role="3clFbG">
              <node concept="2OqwBi" id="3coSEyvWdNQ" role="3uHU7w">
                <node concept="1PxgMI" id="3coSEyvWdNO" role="2Oq$k0">
                  <property role="1BlNFB" value="true" />
                  <ref role="1m5ApE" to="q9ra:s2twedLduV" resolve="ExpectedOption" />
                  <node concept="2OqwBi" id="3coSEyvWdNJ" role="1m5AlR">
                    <node concept="Cj7Ep" id="3coSEyvWdNI" role="2Oq$k0" />
                    <node concept="1mfA1w" id="3coSEyvWdNN" role="2OqNvi" />
                  </node>
                </node>
                <node concept="3TrcHB" id="3coSEyvWdNU" role="2OqNvi">
                  <ref role="3TsBF5" to="q9ra:3coSEyvW2_G" resolve="defaultOption" />
                </node>
              </node>
              <node concept="2OqwBi" id="3coSEyvWdNA" role="3uHU7B">
                <node concept="Cj7Ep" id="3coSEyvWdN_" role="2Oq$k0" />
                <node concept="2bSWHS" id="3coSEyvWdNE" role="2OqNvi" />
              </node>
            </node>
          </node>
        </node>
      </node>
    </node>
  </node>
</model>

