<?xml version="1.0" encoding="UTF-8"?>
<model ref="r:5259874c-3b5b-4953-a966-2e24f7979009(jetbrains.mps.make.script.behavior)">
  <persistence version="9" />
  <languages>
    <use id="af65afd8-f0dd-4942-87d9-63a55f2a9db1" name="jetbrains.mps.lang.behavior" version="0" />
    <use id="7866978e-a0f0-4cc7-81bc-4d213d9375e1" name="jetbrains.mps.lang.smodel" version="4" />
    <use id="f3061a53-9226-4cc5-a443-f952ceaf5816" name="jetbrains.mps.baseLanguage" version="4" />
    <devkit ref="fbc25dd2-5da4-483a-8b19-70928e1b62d7(jetbrains.mps.devkit.general-purpose)" />
  </languages>
  <imports>
    <import index="q9ra" ref="r:308041c6-80bc-4e26-b4b1-473fd45c9339(jetbrains.mps.make.script.structure)" />
    <import index="tpek" ref="r:00000000-0000-4000-0000-011c895902c0(jetbrains.mps.baseLanguage.behavior)" />
    <import index="18ew" ref="6ed54515-acc8-4d1e-a16c-9fd6cfe951ea/java:jetbrains.mps.util(MPS.Core/)" />
    <import index="tpcu" ref="r:00000000-0000-4000-0000-011c89590282(jetbrains.mps.lang.core.behavior)" />
    <import index="tpce" ref="r:00000000-0000-4000-0000-011c89590292(jetbrains.mps.lang.structure.structure)" implicit="true" />
    <import index="tpck" ref="r:00000000-0000-4000-0000-011c89590288(jetbrains.mps.lang.core.structure)" implicit="true" />
    <import index="tpee" ref="r:00000000-0000-4000-0000-011c895902ca(jetbrains.mps.baseLanguage.structure)" implicit="true" />
    <import index="yyf4" ref="8865b7a8-5271-43d3-884c-6fd1d9cfdd34/java:org.jetbrains.mps.openapi.util(MPS.OpenAPI/)" implicit="true" />
  </imports>
  <registry>
    <language id="af65afd8-f0dd-4942-87d9-63a55f2a9db1" name="jetbrains.mps.lang.behavior">
      <concept id="1225194240794" name="jetbrains.mps.lang.behavior.structure.ConceptBehavior" flags="ng" index="13h7C7">
        <reference id="1225194240799" name="concept" index="13h7C2" />
        <child id="1225194240805" name="method" index="13h7CS" />
        <child id="1225194240801" name="constructor" index="13h7CW" />
      </concept>
      <concept id="1225194413805" name="jetbrains.mps.lang.behavior.structure.ConceptConstructorDeclaration" flags="in" index="13hLZK" />
      <concept id="1225194472830" name="jetbrains.mps.lang.behavior.structure.ConceptMethodDeclaration" flags="ng" index="13i0hz">
        <property id="5864038008284099149" name="isStatic" index="2Ki8OM" />
        <property id="1225194472833" name="isPrivate" index="13i0is" />
        <property id="1225194472832" name="isVirtual" index="13i0it" />
        <property id="1225194472834" name="isAbstract" index="13i0iv" />
        <reference id="1225194472831" name="overriddenMethod" index="13i0hy" />
      </concept>
      <concept id="1225194628440" name="jetbrains.mps.lang.behavior.structure.SuperNodeExpression" flags="nn" index="13iAh5">
        <reference id="5299096511375896640" name="superConcept" index="3eA5LN" />
      </concept>
      <concept id="1225194691553" name="jetbrains.mps.lang.behavior.structure.ThisNodeExpression" flags="nn" index="13iPFW" />
    </language>
    <language id="f3061a53-9226-4cc5-a443-f952ceaf5816" name="jetbrains.mps.baseLanguage">
      <concept id="1215693861676" name="jetbrains.mps.baseLanguage.structure.BaseAssignmentExpression" flags="nn" index="d038R">
        <child id="1068498886297" name="rValue" index="37vLTx" />
        <child id="1068498886295" name="lValue" index="37vLTJ" />
      </concept>
      <concept id="1197027756228" name="jetbrains.mps.baseLanguage.structure.DotExpression" flags="nn" index="2OqwBi">
        <child id="1197027771414" name="operand" index="2Oq$k0" />
        <child id="1197027833540" name="operation" index="2OqNvi" />
      </concept>
      <concept id="1137021947720" name="jetbrains.mps.baseLanguage.structure.ConceptFunction" flags="in" index="2VMwT0">
        <child id="1137022507850" name="body" index="2VODD2" />
      </concept>
      <concept id="1070475926800" name="jetbrains.mps.baseLanguage.structure.StringLiteral" flags="nn" index="Xl_RD">
        <property id="1070475926801" name="value" index="Xl_RC" />
      </concept>
      <concept id="1081236700937" name="jetbrains.mps.baseLanguage.structure.StaticMethodCall" flags="nn" index="2YIFZM">
        <reference id="1144433194310" name="classConcept" index="1Pybhc" />
      </concept>
      <concept id="1070534644030" name="jetbrains.mps.baseLanguage.structure.BooleanType" flags="in" index="10P_77" />
      <concept id="1068431474542" name="jetbrains.mps.baseLanguage.structure.VariableDeclaration" flags="ng" index="33uBYm">
        <child id="1068431790190" name="initializer" index="33vP2m" />
      </concept>
      <concept id="1068498886296" name="jetbrains.mps.baseLanguage.structure.VariableReference" flags="nn" index="37vLTw">
        <reference id="1068581517664" name="variableDeclaration" index="3cqZAo" />
      </concept>
      <concept id="1068498886294" name="jetbrains.mps.baseLanguage.structure.AssignmentExpression" flags="nn" index="37vLTI" />
      <concept id="1225271177708" name="jetbrains.mps.baseLanguage.structure.StringType" flags="in" index="17QB3L" />
      <concept id="4972933694980447171" name="jetbrains.mps.baseLanguage.structure.BaseVariableDeclaration" flags="ng" index="19Szcq">
        <child id="5680397130376446158" name="type" index="1tU5fm" />
      </concept>
      <concept id="1068580123132" name="jetbrains.mps.baseLanguage.structure.BaseMethodDeclaration" flags="ng" index="3clF44">
        <child id="1068580123133" name="returnType" index="3clF45" />
        <child id="1068580123135" name="body" index="3clF47" />
      </concept>
      <concept id="1068580123155" name="jetbrains.mps.baseLanguage.structure.ExpressionStatement" flags="nn" index="3clFbF">
        <child id="1068580123156" name="expression" index="3clFbG" />
      </concept>
      <concept id="1068580123136" name="jetbrains.mps.baseLanguage.structure.StatementList" flags="sn" stub="5293379017992965193" index="3clFbS">
        <child id="1068581517665" name="statement" index="3cqZAp" />
      </concept>
      <concept id="1068580123137" name="jetbrains.mps.baseLanguage.structure.BooleanConstant" flags="nn" index="3clFbT">
        <property id="1068580123138" name="value" index="3clFbU" />
      </concept>
      <concept id="1068580320020" name="jetbrains.mps.baseLanguage.structure.IntegerConstant" flags="nn" index="3cmrfG">
        <property id="1068580320021" name="value" index="3cmrfH" />
      </concept>
      <concept id="1068581242875" name="jetbrains.mps.baseLanguage.structure.PlusExpression" flags="nn" index="3cpWs3" />
      <concept id="1068581242878" name="jetbrains.mps.baseLanguage.structure.ReturnStatement" flags="nn" index="3cpWs6">
        <child id="1068581517676" name="expression" index="3cqZAk" />
      </concept>
      <concept id="1068581242864" name="jetbrains.mps.baseLanguage.structure.LocalVariableDeclarationStatement" flags="nn" index="3cpWs8">
        <child id="1068581242865" name="localVariableDeclaration" index="3cpWs9" />
      </concept>
      <concept id="1068581242863" name="jetbrains.mps.baseLanguage.structure.LocalVariableDeclaration" flags="nr" index="3cpWsn" />
      <concept id="1204053956946" name="jetbrains.mps.baseLanguage.structure.IMethodCall" flags="ng" index="1ndlxa">
        <reference id="1068499141037" name="baseMethodDeclaration" index="37wK5l" />
        <child id="1068499141038" name="actualArgument" index="37wK5m" />
      </concept>
      <concept id="1107535904670" name="jetbrains.mps.baseLanguage.structure.ClassifierType" flags="in" index="3uibUv">
        <reference id="1107535924139" name="classifier" index="3uigEE" />
      </concept>
      <concept id="1081773326031" name="jetbrains.mps.baseLanguage.structure.BinaryOperation" flags="nn" index="3uHJSO">
        <child id="1081773367579" name="rightExpression" index="3uHU7w" />
        <child id="1081773367580" name="leftExpression" index="3uHU7B" />
      </concept>
      <concept id="1178549954367" name="jetbrains.mps.baseLanguage.structure.IVisible" flags="ng" index="1B3ioH">
        <child id="1178549979242" name="visibility" index="1B3o_S" />
      </concept>
      <concept id="1163668896201" name="jetbrains.mps.baseLanguage.structure.TernaryOperatorExpression" flags="nn" index="3K4zz7">
        <child id="1163668914799" name="condition" index="3K4Cdx" />
        <child id="1163668922816" name="ifTrue" index="3K4E3e" />
        <child id="1163668934364" name="ifFalse" index="3K4GZi" />
      </concept>
      <concept id="1146644602865" name="jetbrains.mps.baseLanguage.structure.PublicVisibility" flags="nn" index="3Tm1VV" />
    </language>
    <language id="3a13115c-633c-4c5c-bbcc-75c4219e9555" name="jetbrains.mps.lang.quotation">
      <concept id="1196350785113" name="jetbrains.mps.lang.quotation.structure.Quotation" flags="nn" index="2c44tf">
        <child id="1196350785114" name="quotedNode" index="2c44tc" />
      </concept>
    </language>
    <language id="95f8a3e6-f994-4ca0-a65e-763c9bae2d3b" name="jetbrains.mps.make.script">
      <concept id="2360002718792446594" name="jetbrains.mps.make.script.structure.ResourceType" flags="in" index="El1HU" />
    </language>
    <language id="7866978e-a0f0-4cc7-81bc-4d213d9375e1" name="jetbrains.mps.lang.smodel">
      <concept id="1179409122411" name="jetbrains.mps.lang.smodel.structure.Node_ConceptMethodCall" flags="nn" index="2qgKlT" />
      <concept id="1172008320231" name="jetbrains.mps.lang.smodel.structure.Node_IsNotNullOperation" flags="nn" index="3x8VRR" />
      <concept id="1219352745532" name="jetbrains.mps.lang.smodel.structure.NodeRefExpression" flags="nn" index="3B5_sB">
        <reference id="1219352800908" name="referentNode" index="3B5MYn" />
      </concept>
      <concept id="1172323065820" name="jetbrains.mps.lang.smodel.structure.Node_GetConceptOperation" flags="nn" index="3NT_Vc" />
      <concept id="1138055754698" name="jetbrains.mps.lang.smodel.structure.SNodeType" flags="in" index="3Tqbb2">
        <reference id="1138405853777" name="concept" index="ehGHo" />
      </concept>
      <concept id="1138056022639" name="jetbrains.mps.lang.smodel.structure.SPropertyAccess" flags="nn" index="3TrcHB">
        <reference id="1138056395725" name="property" index="3TsBF5" />
      </concept>
      <concept id="1138056143562" name="jetbrains.mps.lang.smodel.structure.SLinkAccess" flags="nn" index="3TrEf2">
        <reference id="1138056516764" name="link" index="3Tt5mk" />
      </concept>
    </language>
    <language id="ceab5195-25ea-4f22-9b92-103b95ca8c0c" name="jetbrains.mps.lang.core">
      <concept id="1133920641626" name="jetbrains.mps.lang.core.structure.BaseConcept" flags="ng" index="2VYdi">
        <property id="1193676396447" name="virtualPackage" index="3GE5qa" />
      </concept>
      <concept id="1169194658468" name="jetbrains.mps.lang.core.structure.INamedConcept" flags="ng" index="TrEIO">
        <property id="1169194664001" name="name" index="TrG5h" />
      </concept>
    </language>
    <language id="83888646-71ce-4f1c-9c53-c54016f6ad4f" name="jetbrains.mps.baseLanguage.collections">
      <concept id="540871147943773365" name="jetbrains.mps.baseLanguage.collections.structure.SingleArgumentSequenceOperation" flags="nn" index="25WWJ4">
        <child id="540871147943773366" name="argument" index="25WWJ7" />
      </concept>
      <concept id="1151688443754" name="jetbrains.mps.baseLanguage.collections.structure.ListType" flags="in" index="_YKpA">
        <child id="1151688676805" name="elementType" index="_ZDj9" />
      </concept>
      <concept id="1151689724996" name="jetbrains.mps.baseLanguage.collections.structure.SequenceType" flags="in" index="A3Dl8">
        <child id="1151689745422" name="elementType" index="A3Ik2" />
      </concept>
      <concept id="1160612413312" name="jetbrains.mps.baseLanguage.collections.structure.AddElementOperation" flags="nn" index="TSZUe" />
    </language>
  </registry>
  <node concept="13h7C7" id="7FuGcnvxA8T">
    <property role="3GE5qa" value="query" />
    <ref role="13h7C2" to="q9ra:s2twedLduV" resolve="ExpectedOption" />
    <node concept="13hLZK" id="7FuGcnvxA8U" role="13h7CW">
      <node concept="3clFbS" id="3coSEyvWbTE" role="2VODD2">
        <node concept="3clFbF" id="3coSEyvWbTF" role="3cqZAp">
          <node concept="37vLTI" id="3coSEyvWbTM" role="3clFbG">
            <node concept="2OqwBi" id="3coSEyvWbTH" role="37vLTJ">
              <node concept="13iPFW" id="3coSEyvWbTG" role="2Oq$k0" />
              <node concept="3TrcHB" id="3coSEyvWbTL" role="2OqNvi">
                <ref role="3TsBF5" to="q9ra:3coSEyvW2_G" resolve="defaultOption" />
              </node>
            </node>
            <node concept="3cmrfG" id="3coSEyvWbTQ" role="37vLTx">
              <property role="3cmrfH" value="-1" />
            </node>
          </node>
        </node>
      </node>
    </node>
    <node concept="13i0hz" id="7FuGcnvxA92" role="13h7CS">
      <property role="TrG5h" value="classifierName" />
      <property role="13i0it" value="true" />
      <ref role="13i0hy" to="tpek:3ZSHU3pg$b_" resolve="classifierName" />
      <node concept="3Tm1VV" id="7FuGcnvxA93" role="1B3o_S" />
      <node concept="3clFbS" id="7FuGcnvxA94" role="3clF47">
        <node concept="3clFbF" id="7FuGcnvxAt3" role="3cqZAp">
          <node concept="3cpWs3" id="7FuGcnvxAt4" role="3clFbG">
            <node concept="2OqwBi" id="2wdLO7KfE7G" role="3uHU7w">
              <node concept="3TrcHB" id="2wdLO7KfE7H" role="2OqNvi">
                <ref role="3TsBF5" to="tpce:4qF2Hm2r7ja" resolve="conceptAlias" />
              </node>
              <node concept="2OqwBi" id="2wdLO7KfE7I" role="2Oq$k0">
                <node concept="3NT_Vc" id="2wdLO7KfE7J" role="2OqNvi" />
                <node concept="13iPFW" id="2wdLO7KfE7K" role="2Oq$k0" />
              </node>
            </node>
            <node concept="3cpWs3" id="7FuGcnvxAt5" role="3uHU7B">
              <node concept="2YIFZM" id="2dB$GwFGVQJ" role="3uHU7B">
                <ref role="37wK5l" to="18ew:~NameUtil.toValidCamelIdentifier(java.lang.String):java.lang.String" resolve="toValidCamelIdentifier" />
                <ref role="1Pybhc" to="18ew:~NameUtil" resolve="NameUtil" />
                <node concept="2OqwBi" id="2dB$GwFGVQK" role="37wK5m">
                  <node concept="13iPFW" id="2dB$GwFGVQL" role="2Oq$k0" />
                  <node concept="3TrcHB" id="2dB$GwFGVQM" role="2OqNvi">
                    <ref role="3TsBF5" to="tpck:h0TrG11" resolve="name" />
                  </node>
                </node>
              </node>
              <node concept="Xl_RD" id="7FuGcnvxAta" role="3uHU7w">
                <property role="Xl_RC" value="_" />
              </node>
            </node>
          </node>
        </node>
      </node>
      <node concept="17QB3L" id="7FuGcnvxA95" role="3clF45" />
    </node>
  </node>
  <node concept="13h7C7" id="7n5UAVXW$iq">
    <property role="3GE5qa" value="query" />
    <ref role="13h7C2" to="q9ra:s2twedL9GF" resolve="QueryDefinition" />
    <node concept="13hLZK" id="7n5UAVXW$ir" role="13h7CW">
      <node concept="3clFbS" id="7n5UAVXW$is" role="2VODD2" />
    </node>
    <node concept="13i0hz" id="7n5UAVXW$iz" role="13h7CS">
      <property role="TrG5h" value="classifierName" />
      <property role="13i0it" value="true" />
      <ref role="13i0hy" to="tpek:3ZSHU3pg$b_" resolve="classifierName" />
      <node concept="3Tm1VV" id="7n5UAVXW$i$" role="1B3o_S" />
      <node concept="3clFbS" id="7n5UAVXW$i_" role="3clF47">
        <node concept="3clFbF" id="7n5UAVXW$iB" role="3cqZAp">
          <node concept="3cpWs3" id="7n5UAVXW$iD" role="3clFbG">
            <node concept="2OqwBi" id="2wdLO7Ke73h" role="3uHU7w">
              <node concept="3TrcHB" id="2wdLO7Ke73i" role="2OqNvi">
                <ref role="3TsBF5" to="tpce:4qF2Hm2r7ja" resolve="conceptAlias" />
              </node>
              <node concept="2OqwBi" id="2wdLO7Ke73j" role="2Oq$k0">
                <node concept="3NT_Vc" id="2wdLO7Ke73k" role="2OqNvi" />
                <node concept="13iPFW" id="2wdLO7Ke73l" role="2Oq$k0" />
              </node>
            </node>
            <node concept="3cpWs3" id="7n5UAVXW$iG" role="3uHU7B">
              <node concept="2YIFZM" id="2dB$GwFGVQN" role="3uHU7B">
                <ref role="37wK5l" to="18ew:~NameUtil.toValidCamelIdentifier(java.lang.String):java.lang.String" resolve="toValidCamelIdentifier" />
                <ref role="1Pybhc" to="18ew:~NameUtil" resolve="NameUtil" />
                <node concept="2OqwBi" id="2dB$GwFGVQO" role="37wK5m">
                  <node concept="13iPFW" id="2dB$GwFGVQP" role="2Oq$k0" />
                  <node concept="3TrcHB" id="2dB$GwFGVQQ" role="2OqNvi">
                    <ref role="3TsBF5" to="tpck:h0TrG11" resolve="name" />
                  </node>
                </node>
              </node>
              <node concept="Xl_RD" id="7n5UAVXW$iC" role="3uHU7w">
                <property role="Xl_RC" value="_" />
              </node>
            </node>
          </node>
        </node>
      </node>
      <node concept="17QB3L" id="7n5UAVXW$iA" role="3clF45" />
    </node>
  </node>
  <node concept="13h7C7" id="3_1Lj9FGS4l">
    <property role="3GE5qa" value="query" />
    <ref role="13h7C2" to="q9ra:s2twedLduP" resolve="OptionType" />
    <node concept="13hLZK" id="3_1Lj9FGS4m" role="13h7CW">
      <node concept="3clFbS" id="3_1Lj9FGS4n" role="2VODD2" />
    </node>
    <node concept="13i0hz" id="3_1Lj9FGS4o" role="13h7CS">
      <property role="TrG5h" value="classifierName" />
      <property role="13i0it" value="true" />
      <ref role="13i0hy" to="tpek:3ZSHU3pg$b_" resolve="classifierName" />
      <node concept="3Tm1VV" id="3_1Lj9FGS4p" role="1B3o_S" />
      <node concept="3clFbS" id="3_1Lj9FGS4q" role="3clF47">
        <node concept="3clFbF" id="3_1Lj9FGSo9" role="3cqZAp">
          <node concept="2OqwBi" id="3_1Lj9FGSog" role="3clFbG">
            <node concept="2OqwBi" id="3_1Lj9FGSob" role="2Oq$k0">
              <node concept="13iPFW" id="3_1Lj9FGSoa" role="2Oq$k0" />
              <node concept="3TrEf2" id="3_1Lj9FGSof" role="2OqNvi">
                <ref role="3Tt5mk" to="q9ra:s2twedLduW" />
              </node>
            </node>
            <node concept="2qgKlT" id="3_1Lj9FGSok" role="2OqNvi">
              <ref role="37wK5l" to="tpek:3ZSHU3pg$b_" resolve="classifierName" />
            </node>
          </node>
        </node>
      </node>
      <node concept="17QB3L" id="3_1Lj9FGS4r" role="3clF45" />
    </node>
  </node>
  <node concept="13h7C7" id="1HN6OkgRGOB">
    <property role="3GE5qa" value="query" />
    <ref role="13h7C2" to="q9ra:1HN6OkgQWmv" resolve="RelayQueryExpression" />
    <node concept="13hLZK" id="1HN6OkgRGOC" role="13h7CW">
      <node concept="3clFbS" id="1HN6OkgRGOD" role="2VODD2" />
    </node>
    <node concept="13i0hz" id="1HN6OkgRGOE" role="13h7CS">
      <property role="TrG5h" value="isLegalAsStatement" />
      <property role="13i0it" value="true" />
      <ref role="13i0hy" to="tpek:i26MfYG" resolve="isLegalAsStatement" />
      <node concept="3Tm1VV" id="1HN6OkgRGOF" role="1B3o_S" />
      <node concept="3clFbS" id="1HN6OkgRGOG" role="3clF47">
        <node concept="3clFbF" id="1HN6OkgRGOM" role="3cqZAp">
          <node concept="3clFbT" id="1HN6OkgRGON" role="3clFbG">
            <property role="3clFbU" value="true" />
          </node>
        </node>
      </node>
      <node concept="10P_77" id="1HN6OkgRGOH" role="3clF45" />
    </node>
  </node>
  <node concept="13h7C7" id="2_5NjuZKSxA">
    <property role="3GE5qa" value="job" />
    <ref role="13h7C2" to="q9ra:68RPrIbaDgH" resolve="ResultStatement" />
    <node concept="13hLZK" id="2_5NjuZKSxB" role="13h7CW">
      <node concept="3clFbS" id="2_5NjuZKSxC" role="2VODD2" />
    </node>
    <node concept="13i0hz" id="2_5NjuZKSxD" role="13h7CS">
      <property role="TrG5h" value="isGuardClauseStatement" />
      <property role="13i0it" value="true" />
      <ref role="13i0hy" to="tpek:i0z$q7V" resolve="isGuardClauseStatement" />
      <node concept="3Tm1VV" id="2_5NjuZKSxE" role="1B3o_S" />
      <node concept="3clFbS" id="2_5NjuZKSxF" role="3clF47">
        <node concept="3clFbF" id="2_5NjuZKSxL" role="3cqZAp">
          <node concept="3clFbT" id="2_5NjuZKSxM" role="3clFbG">
            <property role="3clFbU" value="true" />
          </node>
        </node>
      </node>
      <node concept="10P_77" id="2_5NjuZKSxG" role="3clF45" />
    </node>
  </node>
  <node concept="13h7C7" id="2D1PBM_byHb">
    <ref role="13h7C2" to="q9ra:230qvwa_MQF" resolve="JobDefinition" />
    <node concept="13hLZK" id="2D1PBM_byHc" role="13h7CW">
      <node concept="3clFbS" id="2D1PBM_byHd" role="2VODD2" />
    </node>
    <node concept="13i0hz" id="2D1PBM_byGI" role="13h7CS">
      <property role="2Ki8OM" value="true" />
      <property role="13i0is" value="false" />
      <property role="TrG5h" value="getApplicableConceptFunctionParameter" />
      <property role="13i0it" value="false" />
      <ref role="13i0hy" to="tpek:2D1PBM_bxJg" resolve="getApplicableConceptFunctionParameter" />
      <node concept="3Tm1VV" id="2D1PBM_byGJ" role="1B3o_S" />
      <node concept="_YKpA" id="2D1PBM_byGG" role="3clF45">
        <node concept="3Tqbb2" id="2D1PBM_byGH" role="_ZDj9">
          <ref role="ehGHo" to="tpce:f_TIwhg" resolve="ConceptDeclaration" />
        </node>
      </node>
      <node concept="3clFbS" id="2D1PBM_byGK" role="3clF47">
        <node concept="3cpWs8" id="2D1PBM_byGL" role="3cqZAp">
          <node concept="3cpWsn" id="2D1PBM_byGM" role="3cpWs9">
            <property role="TrG5h" value="result" />
            <node concept="_YKpA" id="2D1PBM_byGQ" role="1tU5fm">
              <node concept="3Tqbb2" id="2D1PBM_byGR" role="_ZDj9">
                <ref role="ehGHo" to="tpce:f_TIwhg" resolve="ConceptDeclaration" />
              </node>
            </node>
            <node concept="2OqwBi" id="2D1PBM_byGY" role="33vP2m">
              <node concept="13iAh5" id="2D1PBM_byGU" role="2Oq$k0">
                <ref role="3eA5LN" to="tpee:gyVMwX8" resolve="ConceptFunction" />
              </node>
              <node concept="2qgKlT" id="2D1PBM_byGT" role="2OqNvi">
                <ref role="37wK5l" to="tpek:2D1PBM_bxJg" resolve="getApplicableConceptFunctionParameter" />
              </node>
            </node>
          </node>
        </node>
        <node concept="3clFbF" id="2D1PBM_byH0" role="3cqZAp">
          <node concept="2OqwBi" id="2D1PBM_byH1" role="3clFbG">
            <node concept="37vLTw" id="2D1PBM_byH2" role="2Oq$k0">
              <ref role="3cqZAo" node="2D1PBM_byGM" resolve="result" />
            </node>
            <node concept="TSZUe" id="2D1PBM_byH3" role="2OqNvi">
              <node concept="3B5_sB" id="2D1PBM_byGZ" role="25WWJ7">
                <ref role="3B5MYn" to="q9ra:43l$qHE9eid" resolve="ConceptFunctionParameter_progressMonitor" />
              </node>
            </node>
          </node>
        </node>
        <node concept="3clFbF" id="2D1PBM_byH5" role="3cqZAp">
          <node concept="2OqwBi" id="2D1PBM_byH6" role="3clFbG">
            <node concept="37vLTw" id="2D1PBM_byH7" role="2Oq$k0">
              <ref role="3cqZAo" node="2D1PBM_byGM" resolve="result" />
            </node>
            <node concept="TSZUe" id="2D1PBM_byH8" role="2OqNvi">
              <node concept="3B5_sB" id="2D1PBM_byH4" role="25WWJ7">
                <ref role="3B5MYn" to="q9ra:230qvwa_MQG" resolve="InputResourcesParameter" />
              </node>
            </node>
          </node>
        </node>
        <node concept="3cpWs6" id="2D1PBM_byH9" role="3cqZAp">
          <node concept="37vLTw" id="2D1PBM_byHa" role="3cqZAk">
            <ref role="3cqZAo" node="2D1PBM_byGM" resolve="result" />
          </node>
        </node>
      </node>
    </node>
  </node>
  <node concept="13h7C7" id="4g8ToOMDxZC">
    <property role="3GE5qa" value="job" />
    <ref role="13h7C2" to="q9ra:230qvwa_7a2" resolve="ResourceType" />
    <node concept="13hLZK" id="4g8ToOMDy34" role="13h7CW">
      <node concept="3clFbS" id="4g8ToOMDy35" role="2VODD2" />
    </node>
    <node concept="13i0hz" id="4g8ToOMDy6b" role="13h7CS">
      <property role="13i0iv" value="false" />
      <property role="13i0is" value="false" />
      <property role="TrG5h" value="getPresentation" />
      <property role="13i0it" value="false" />
      <ref role="13i0hy" to="tpcu:hEwIMiw" resolve="getPresentation" />
      <node concept="17QB3L" id="4g8ToOMDy6c" role="3clF45" />
      <node concept="3Tm1VV" id="4g8ToOMDy7j" role="1B3o_S" />
      <node concept="3clFbS" id="4g8ToOMDy9_" role="3clF47">
        <node concept="3cpWs8" id="4g8ToONEUrc" role="3cqZAp">
          <node concept="3cpWsn" id="4g8ToONEUrd" role="3cpWs9">
            <property role="TrG5h" value="param" />
            <node concept="3K4zz7" id="4g8ToONF1Sv" role="33vP2m">
              <node concept="Xl_RD" id="4g8ToONF1WL" role="3K4GZi">
                <property role="Xl_RC" value="" />
              </node>
              <node concept="2OqwBi" id="4g8ToONEZcN" role="3K4Cdx">
                <node concept="3x8VRR" id="4g8ToONF0ph" role="2OqNvi" />
                <node concept="2OqwBi" id="4g8ToONEXp0" role="2Oq$k0">
                  <node concept="3TrEf2" id="4g8ToONEYe4" role="2OqNvi">
                    <ref role="3Tt5mk" to="q9ra:2REPKdXeYXi" />
                  </node>
                  <node concept="13iPFW" id="4g8ToONEXhM" role="2Oq$k0" />
                </node>
              </node>
              <node concept="2OqwBi" id="4g8ToONEUre" role="3K4E3e">
                <node concept="2qgKlT" id="4g8ToONEUrf" role="2OqNvi">
                  <ref role="37wK5l" to="tpcu:hEwIMiw" resolve="getPresentation" />
                </node>
                <node concept="2OqwBi" id="4g8ToONEUrg" role="2Oq$k0">
                  <node concept="3TrEf2" id="4g8ToONEUrh" role="2OqNvi">
                    <ref role="3Tt5mk" to="q9ra:2REPKdXeYXi" />
                  </node>
                  <node concept="13iPFW" id="4g8ToONEUri" role="2Oq$k0" />
                </node>
              </node>
            </node>
            <node concept="17QB3L" id="4g8ToONEUra" role="1tU5fm" />
          </node>
        </node>
        <node concept="3cpWs6" id="4g8ToOMDBKX" role="3cqZAp">
          <node concept="3cpWs3" id="4g8ToOMDJJy" role="3cqZAk">
            <node concept="Xl_RD" id="4g8ToOMDJJ_" role="3uHU7w">
              <property role="Xl_RC" value="&gt;" />
            </node>
            <node concept="3cpWs3" id="4g8ToOMDFb7" role="3uHU7B">
              <node concept="37vLTw" id="4g8ToONEUrj" role="3uHU7w">
                <ref role="3cqZAo" node="4g8ToONEUrd" resolve="param" />
              </node>
              <node concept="3cpWs3" id="4g8ToOMEgEW" role="3uHU7B">
                <node concept="2OqwBi" id="4g8ToOMEHrl" role="3uHU7B">
                  <node concept="3TrcHB" id="4g8ToOMEIBP" role="2OqNvi">
                    <ref role="3TsBF5" to="tpce:4qF2Hm2r7ja" resolve="conceptAlias" />
                  </node>
                  <node concept="2OqwBi" id="4g8ToOMEEMf" role="2Oq$k0">
                    <node concept="3NT_Vc" id="4g8ToOMEGrY" role="2OqNvi" />
                    <node concept="13iPFW" id="4g8ToOMEgFd" role="2Oq$k0" />
                  </node>
                </node>
                <node concept="Xl_RD" id="4g8ToOMDEIe" role="3uHU7w">
                  <property role="Xl_RC" value="&lt;" />
                </node>
              </node>
            </node>
          </node>
        </node>
      </node>
    </node>
  </node>
  <node concept="13h7C7" id="4IGpg_YjKG1">
    <ref role="13h7C2" to="q9ra:43l$qHE9eid" resolve="ConceptFunctionParameter_progressMonitor" />
    <node concept="13hLZK" id="4IGpg_YjKG2" role="13h7CW">
      <node concept="3clFbS" id="4IGpg_YjKG3" role="2VODD2" />
    </node>
    <node concept="13i0hz" id="4IGpg_YjKIf" role="13h7CS">
      <property role="TrG5h" value="getType" />
      <property role="13i0it" value="false" />
      <property role="13i0iv" value="false" />
      <ref role="13i0hy" to="tpek:27DJnJtIQ9C" resolve="getType" />
      <node concept="3Tm1VV" id="4IGpg_YjKIg" role="1B3o_S" />
      <node concept="3clFbS" id="4IGpg_YjKIh" role="3clF47">
        <node concept="3cpWs6" id="4IGpg_YjKIi" role="3cqZAp">
          <node concept="2c44tf" id="4IGpg_YjKIe" role="3cqZAk">
            <node concept="3uibUv" id="43l$qHE9eik" role="2c44tc">
              <ref role="3uigEE" to="yyf4:~ProgressMonitor" resolve="ProgressMonitor" />
            </node>
          </node>
        </node>
      </node>
      <node concept="3Tqbb2" id="4IGpg_YjKIj" role="3clF45">
        <ref role="ehGHo" to="tpee:fz3vP1H" resolve="Type" />
      </node>
    </node>
  </node>
  <node concept="13h7C7" id="4IGpg_YjLJZ">
    <ref role="13h7C2" to="q9ra:230qvwa_MQG" resolve="InputResourcesParameter" />
    <node concept="13hLZK" id="4IGpg_YjLK0" role="13h7CW">
      <node concept="3clFbS" id="4IGpg_YjLK1" role="2VODD2" />
    </node>
    <node concept="13i0hz" id="4IGpg_YjLK3" role="13h7CS">
      <property role="TrG5h" value="getType" />
      <property role="13i0it" value="false" />
      <property role="13i0iv" value="false" />
      <ref role="13i0hy" to="tpek:27DJnJtIQ9C" resolve="getType" />
      <node concept="3Tm1VV" id="4IGpg_YjLK4" role="1B3o_S" />
      <node concept="3clFbS" id="4IGpg_YjLK5" role="3clF47">
        <node concept="3cpWs6" id="4IGpg_YjLK6" role="3cqZAp">
          <node concept="2c44tf" id="4IGpg_YjLK2" role="3cqZAk">
            <node concept="A3Dl8" id="2Jb7SfxbPWx" role="2c44tc">
              <node concept="El1HU" id="2Jb7SfxbPW$" role="A3Ik2" />
            </node>
          </node>
        </node>
      </node>
      <node concept="3Tqbb2" id="4IGpg_YjLK7" role="3clF45">
        <ref role="ehGHo" to="tpee:fz3vP1H" resolve="Type" />
      </node>
    </node>
  </node>
</model>

