<?xml version="1.0" encoding="UTF-8"?>
<model ref="r:b7d9737f-8e9b-4112-92de-8cd1bf30ae09(testExtendingAnalyzer.dataFlow)">
  <persistence version="9" />
  <languages>
    <use id="97a52717-898f-4598-8150-573d9fd03868" name="jetbrains.mps.lang.dataFlow.analyzers" version="0" />
    <use id="d4615e3b-d671-4ba9-af01-2b78369b0ba7" name="jetbrains.mps.lang.pattern" version="1" />
    <devkit ref="fbc25dd2-5da4-483a-8b19-70928e1b62d7(jetbrains.mps.devkit.general-purpose)" />
  </languages>
  <imports>
    <import index="tpem" ref="r:00000000-0000-4000-0000-011c895902c2(jetbrains.mps.baseLanguage.dataFlow)" />
    <import index="nhi0" ref="r:ceb05fbc-f573-4746-aba6-e6f7676be055(testExtendingAnalyzer.structure)" implicit="true" />
    <import index="tpee" ref="r:00000000-0000-4000-0000-011c895902ca(jetbrains.mps.baseLanguage.structure)" implicit="true" />
  </imports>
  <registry>
    <language id="97a52717-898f-4598-8150-573d9fd03868" name="jetbrains.mps.lang.dataFlow.analyzers">
      <concept id="4217760266503579796" name="jetbrains.mps.lang.dataFlow.analyzers.structure.EmitInstruction" flags="nn" index="2qeTo9">
        <child id="323410281720600578" name="target" index="aPEfM" />
        <child id="4217760266503650651" name="instructionRef" index="2qf8f6" />
        <child id="24089196731087404" name="position" index="IgiVj" />
      </concept>
      <concept id="4217760266503638748" name="jetbrains.mps.lang.dataFlow.analyzers.structure.InstructionReference" flags="ng" index="2qfb11">
        <reference id="4217760266503638757" name="instruction" index="2qfb1S" />
        <child id="4217760266503638749" name="argument" index="2qfb10" />
      </concept>
      <concept id="430844094082168520" name="jetbrains.mps.lang.dataFlow.analyzers.structure.Rule" flags="ng" index="2SFhMz">
        <reference id="4130591939054429248" name="analyzer" index="3IfaGV" />
        <child id="3325264799421290838" name="condition" index="2ZI6Zx" />
        <child id="4943044633101742986" name="actions" index="3ctKHH" />
      </concept>
      <concept id="4943044633102057744" name="jetbrains.mps.lang.dataFlow.analyzers.structure.ApplicableNodeReference" flags="nn" index="3cqzBR">
        <reference id="4943044633102057745" name="applicableNode" index="3cqzBQ" />
      </concept>
      <concept id="4943044633101449694" name="jetbrains.mps.lang.dataFlow.analyzers.structure.ConceptCondition" flags="ng" index="3cs84T">
        <reference id="4943044633101738901" name="concept" index="3ctLHM" />
      </concept>
    </language>
    <language id="f3061a53-9226-4cc5-a443-f952ceaf5816" name="jetbrains.mps.baseLanguage">
      <concept id="1197027756228" name="jetbrains.mps.baseLanguage.structure.DotExpression" flags="nn" index="2OqwBi">
        <child id="1197027771414" name="operand" index="2Oq$k0" />
        <child id="1197027833540" name="operation" index="2OqNvi" />
      </concept>
      <concept id="1068580123136" name="jetbrains.mps.baseLanguage.structure.StatementList" flags="sn" stub="5293379017992965193" index="3clFbS">
        <child id="1068581517665" name="statement" index="3cqZAp" />
      </concept>
    </language>
    <language id="d4615e3b-d671-4ba9-af01-2b78369b0ba7" name="jetbrains.mps.lang.pattern">
      <concept id="1649655856141352250" name="jetbrains.mps.lang.pattern.structure.InsertBeforePosition" flags="ng" index="3s5BLS" />
    </language>
    <language id="7866978e-a0f0-4cc7-81bc-4d213d9375e1" name="jetbrains.mps.lang.smodel">
      <concept id="1138056143562" name="jetbrains.mps.lang.smodel.structure.SLinkAccess" flags="nn" index="3TrEf2">
        <reference id="1138056516764" name="link" index="3Tt5mk" />
      </concept>
    </language>
    <language id="ceab5195-25ea-4f22-9b92-103b95ca8c0c" name="jetbrains.mps.lang.core">
      <concept id="1169194658468" name="jetbrains.mps.lang.core.structure.INamedConcept" flags="ng" index="TrEIO">
        <property id="1169194664001" name="name" index="TrG5h" />
      </concept>
    </language>
  </registry>
  <node concept="2SFhMz" id="1eGlc3_lXKz">
    <property role="TrG5h" value="NullSafeRule" />
    <ref role="3IfaGV" to="tpem:5XiNbvoyw3$" resolve="Nullable" />
    <node concept="3cs84T" id="1eGlc3_lXXg" role="2ZI6Zx">
      <property role="TrG5h" value="dotExpression" />
      <ref role="3ctLHM" to="nhi0:1eGlc3_lXKD" resolve="NullSafeDotExpression" />
    </node>
    <node concept="3clFbS" id="1eGlc3_lXXA" role="3ctKHH">
      <node concept="2qeTo9" id="1eGlc3_lXXz" role="3cqZAp">
        <node concept="3s5BLS" id="1eGlc3_lXYj" role="IgiVj" />
        <node concept="2qfb11" id="1eGlc3_lXXK" role="2qf8f6">
          <ref role="2qfb1S" to="tpem:5XiNbvoyw3J" resolve="notNull" />
          <node concept="2OqwBi" id="1eGlc3_lY0O" role="2qfb10">
            <node concept="3cqzBR" id="1eGlc3_lXY4" role="2Oq$k0">
              <ref role="3cqzBQ" node="1eGlc3_lXXg" resolve="dotExpression" />
            </node>
            <node concept="3TrEf2" id="1eGlc3_lYgI" role="2OqNvi">
              <ref role="3Tt5mk" to="tpee:hqOq$gm" />
            </node>
          </node>
        </node>
        <node concept="3cqzBR" id="1eGlc3_lXYn" role="aPEfM">
          <ref role="3cqzBQ" node="1eGlc3_lXXg" resolve="dotExpression" />
        </node>
      </node>
    </node>
  </node>
</model>

