<?xml version="1.0" encoding="UTF-8"?>
<model ref="r:b6ceefe4-c7ce-4f0a-9daa-86a7382965da(jetbrains.mps.refactoring.participant.behavior)">
  <persistence version="9" />
  <languages>
    <use id="af65afd8-f0dd-4942-87d9-63a55f2a9db1" name="jetbrains.mps.lang.behavior" version="0" />
    <devkit ref="fbc25dd2-5da4-483a-8b19-70928e1b62d7(jetbrains.mps.devkit.general-purpose)" />
  </languages>
  <imports />
  <registry />
</model>

