<?xml version="1.0" encoding="UTF-8"?>
<model ref="r:34fd912a-e1ab-4cd8-b902-62b5e223065f(jetbrains.mps.ide.java.testMaterial.annotations)" doNotGenerate="true">
  <persistence version="9" />
  <languages>
    <use id="f3061a53-9226-4cc5-a443-f952ceaf5816" name="jetbrains.mps.baseLanguage" version="4" />
    <use id="f2801650-65d5-424e-bb1b-463a8781b786" name="jetbrains.mps.baseLanguage.javadoc" version="2" />
  </languages>
  <imports>
    <import index="ouhv" ref="6354ebe7-c22a-4a0f-ac54-50b52ab9b065/java:java.lang.annotation(JDK/)" />
  </imports>
  <registry>
    <language id="f3061a53-9226-4cc5-a443-f952ceaf5816" name="jetbrains.mps.baseLanguage">
      <concept id="1188206331916" name="jetbrains.mps.baseLanguage.structure.Annotation" flags="ig" index="2ABs$o" />
      <concept id="1188207840427" name="jetbrains.mps.baseLanguage.structure.AnnotationInstance" flags="nn" index="2AHcQZ">
        <reference id="1188208074048" name="annotation" index="2AI5Lk" />
        <child id="1188214630783" name="value" index="2B76xF" />
      </concept>
      <concept id="1188208481402" name="jetbrains.mps.baseLanguage.structure.HasAnnotation" flags="ng" index="2AJDlI">
        <child id="1188208488637" name="annotation" index="2AJF6D" />
      </concept>
      <concept id="1188214545140" name="jetbrains.mps.baseLanguage.structure.AnnotationInstanceValue" flags="ng" index="2B6LJw">
        <reference id="1188214555875" name="key" index="2B6OnR" />
        <child id="1188214607812" name="value" index="2B70Vg" />
      </concept>
      <concept id="1188220165133" name="jetbrains.mps.baseLanguage.structure.ArrayLiteral" flags="nn" index="2BsdOp">
        <child id="1188220173759" name="item" index="2BsfMF" />
      </concept>
      <concept id="1083260308424" name="jetbrains.mps.baseLanguage.structure.EnumConstantReference" flags="nn" index="Rm8GO">
        <reference id="1083260308426" name="enumConstantDeclaration" index="Rm8GQ" />
        <reference id="1144432896254" name="enumClass" index="1Px2BO" />
      </concept>
      <concept id="1178549954367" name="jetbrains.mps.baseLanguage.structure.IVisible" flags="ng" index="1B3ioH">
        <child id="1178549979242" name="visibility" index="1B3o_S" />
      </concept>
      <concept id="1146644602865" name="jetbrains.mps.baseLanguage.structure.PublicVisibility" flags="nn" index="3Tm1VV" />
    </language>
    <language id="ceab5195-25ea-4f22-9b92-103b95ca8c0c" name="jetbrains.mps.lang.core">
      <concept id="1169194658468" name="jetbrains.mps.lang.core.structure.INamedConcept" flags="ng" index="TrEIO">
        <property id="1169194664001" name="name" index="TrG5h" />
      </concept>
    </language>
  </registry>
  <node concept="2ABs$o" id="44G$aAkpSbX">
    <property role="TrG5h" value="MethodAnnotation" />
    <node concept="3Tm1VV" id="44G$aAkpSbZ" role="1B3o_S" />
    <node concept="2AHcQZ" id="44G$aAkpShH" role="2AJF6D">
      <ref role="2AI5Lk" to="ouhv:~Target" resolve="Target" />
      <node concept="2B6LJw" id="44G$aAksk4G" role="2B76xF">
        <ref role="2B6OnR" to="ouhv:~Target.value()" resolve="value" />
        <node concept="Rm8GO" id="44G$aAksk9b" role="2B70Vg">
          <ref role="Rm8GQ" to="ouhv:~ElementType.METHOD" resolve="METHOD" />
          <ref role="1Px2BO" to="ouhv:~ElementType" resolve="ElementType" />
        </node>
      </node>
    </node>
    <node concept="2AHcQZ" id="44G$aAkpSlj" role="2AJF6D">
      <ref role="2AI5Lk" to="ouhv:~Retention" resolve="Retention" />
      <node concept="2B6LJw" id="44G$aAkskb4" role="2B76xF">
        <ref role="2B6OnR" to="ouhv:~Retention.value()" resolve="value" />
        <node concept="Rm8GO" id="44G$aAkskhy" role="2B70Vg">
          <ref role="Rm8GQ" to="ouhv:~RetentionPolicy.RUNTIME" resolve="RUNTIME" />
          <ref role="1Px2BO" to="ouhv:~RetentionPolicy" resolve="RetentionPolicy" />
        </node>
      </node>
    </node>
  </node>
  <node concept="2ABs$o" id="44G$aAkpSh7">
    <property role="TrG5h" value="TypeAnnotation" />
    <node concept="3Tm1VV" id="44G$aAkpSh9" role="1B3o_S" />
    <node concept="2AHcQZ" id="44G$aAkpSoY" role="2AJF6D">
      <ref role="2AI5Lk" to="ouhv:~Target" resolve="Target" />
      <node concept="2B6LJw" id="44G$aAkskjZ" role="2B76xF">
        <ref role="2B6OnR" to="ouhv:~Target.value()" resolve="value" />
        <node concept="Rm8GO" id="44G$aAkskme" role="2B70Vg">
          <ref role="Rm8GQ" to="ouhv:~ElementType.TYPE" resolve="TYPE" />
          <ref role="1Px2BO" to="ouhv:~ElementType" resolve="ElementType" />
        </node>
      </node>
    </node>
    <node concept="2AHcQZ" id="44G$aAkpSrM" role="2AJF6D">
      <ref role="2AI5Lk" to="ouhv:~Retention" resolve="Retention" />
      <node concept="2B6LJw" id="44G$aAkskjp" role="2B76xF">
        <ref role="2B6OnR" to="ouhv:~Retention.value()" resolve="value" />
        <node concept="Rm8GO" id="44G$aAkskjq" role="2B70Vg">
          <ref role="Rm8GQ" to="ouhv:~RetentionPolicy.RUNTIME" resolve="RUNTIME" />
          <ref role="1Px2BO" to="ouhv:~RetentionPolicy" resolve="RetentionPolicy" />
        </node>
      </node>
    </node>
  </node>
  <node concept="2ABs$o" id="44G$aAkpShm">
    <property role="TrG5h" value="TypeOrMethodAnnotation" />
    <node concept="3Tm1VV" id="44G$aAkpSho" role="1B3o_S" />
    <node concept="2AHcQZ" id="44G$aAkpSuP" role="2AJF6D">
      <ref role="2AI5Lk" to="ouhv:~Target" resolve="Target" />
      <node concept="2B6LJw" id="44G$aAkpSvq" role="2B76xF">
        <ref role="2B6OnR" to="ouhv:~Target.value()" resolve="value" />
        <node concept="2BsdOp" id="44G$aAkpSwi" role="2B70Vg">
          <node concept="Rm8GO" id="44G$aAkpSAD" role="2BsfMF">
            <ref role="Rm8GQ" to="ouhv:~ElementType.TYPE" resolve="TYPE" />
            <ref role="1Px2BO" to="ouhv:~ElementType" resolve="ElementType" />
          </node>
          <node concept="Rm8GO" id="44G$aAkpSyZ" role="2BsfMF">
            <ref role="Rm8GQ" to="ouhv:~ElementType.METHOD" resolve="METHOD" />
            <ref role="1Px2BO" to="ouhv:~ElementType" resolve="ElementType" />
          </node>
        </node>
      </node>
    </node>
    <node concept="2AHcQZ" id="44G$aAkpSCL" role="2AJF6D">
      <ref role="2AI5Lk" to="ouhv:~Retention" resolve="Retention" />
      <node concept="2B6LJw" id="44G$aAkskiQ" role="2B76xF">
        <ref role="2B6OnR" to="ouhv:~Retention.value()" resolve="value" />
        <node concept="Rm8GO" id="44G$aAkskiR" role="2B70Vg">
          <ref role="Rm8GQ" to="ouhv:~RetentionPolicy.RUNTIME" resolve="RUNTIME" />
          <ref role="1Px2BO" to="ouhv:~RetentionPolicy" resolve="RetentionPolicy" />
        </node>
      </node>
    </node>
  </node>
</model>

