<?xml version="1.0" encoding="UTF-8"?>
<model ref="r:57b4df63-43a4-47af-aeca-e2ea21da25f1(jetbrains.mps.console.base.generator.util)">
  <persistence version="9" />
  <languages>
    <use id="7a5dda62-9140-4668-ab76-d5ed1746f2b2" name="jetbrains.mps.lang.typesystem" version="0" />
    <use id="d4615e3b-d671-4ba9-af01-2b78369b0ba7" name="jetbrains.mps.lang.pattern" version="1" />
    <devkit ref="fbc25dd2-5da4-483a-8b19-70928e1b62d7(jetbrains.mps.devkit.general-purpose)" />
  </languages>
  <imports>
    <import index="moux" ref="r:53684c5c-ca9d-4308-a9d7-6866aa7b486b(jetbrains.mps.lang.smodel.query.runtime)" />
    <import index="tp2q" ref="r:00000000-0000-4000-0000-011c8959032e(jetbrains.mps.baseLanguage.collections.structure)" implicit="true" />
    <import index="tpee" ref="r:00000000-0000-4000-0000-011c895902ca(jetbrains.mps.baseLanguage.structure)" implicit="true" />
    <import index="lui2" ref="8865b7a8-5271-43d3-884c-6fd1d9cfdd34/java:org.jetbrains.mps.openapi.module(MPS.OpenAPI/)" implicit="true" />
    <import index="mhbf" ref="8865b7a8-5271-43d3-884c-6fd1d9cfdd34/java:org.jetbrains.mps.openapi.model(MPS.OpenAPI/)" implicit="true" />
  </imports>
  <registry>
    <language id="f3061a53-9226-4cc5-a443-f952ceaf5816" name="jetbrains.mps.baseLanguage">
      <concept id="1197027756228" name="jetbrains.mps.baseLanguage.structure.DotExpression" flags="nn" index="2OqwBi">
        <child id="1197027771414" name="operand" index="2Oq$k0" />
        <child id="1197027833540" name="operation" index="2OqNvi" />
      </concept>
      <concept id="1070475926800" name="jetbrains.mps.baseLanguage.structure.StringLiteral" flags="nn" index="Xl_RD">
        <property id="1070475926801" name="value" index="Xl_RC" />
      </concept>
      <concept id="1081236700938" name="jetbrains.mps.baseLanguage.structure.StaticMethodDeclaration" flags="ig" index="2YIFZL" />
      <concept id="1070534058343" name="jetbrains.mps.baseLanguage.structure.NullLiteral" flags="nn" index="10Nm6u" />
      <concept id="1070534644030" name="jetbrains.mps.baseLanguage.structure.BooleanType" flags="in" index="10P_77" />
      <concept id="1068390468198" name="jetbrains.mps.baseLanguage.structure.ClassConcept" flags="ig" index="312cEu" />
      <concept id="1068431474542" name="jetbrains.mps.baseLanguage.structure.VariableDeclaration" flags="ng" index="33uBYm">
        <child id="1068431790190" name="initializer" index="33vP2m" />
      </concept>
      <concept id="1068431790189" name="jetbrains.mps.baseLanguage.structure.Type" flags="in" index="33vP2l" />
      <concept id="1068498886296" name="jetbrains.mps.baseLanguage.structure.VariableReference" flags="nn" index="37vLTw">
        <reference id="1068581517664" name="variableDeclaration" index="3cqZAo" />
      </concept>
      <concept id="1068498886292" name="jetbrains.mps.baseLanguage.structure.ParameterDeclaration" flags="ir" index="37vLTG" />
      <concept id="1225271177708" name="jetbrains.mps.baseLanguage.structure.StringType" flags="in" index="17QB3L" />
      <concept id="4972933694980447171" name="jetbrains.mps.baseLanguage.structure.BaseVariableDeclaration" flags="ng" index="19Szcq">
        <child id="5680397130376446158" name="type" index="1tU5fm" />
      </concept>
      <concept id="1068580123132" name="jetbrains.mps.baseLanguage.structure.BaseMethodDeclaration" flags="ng" index="3clF44">
        <property id="4276006055363816570" name="isSynchronized" index="od$2w" />
        <property id="1181808852946" name="isFinal" index="DiZV1" />
        <child id="1068580123133" name="returnType" index="3clF45" />
        <child id="1068580123134" name="parameter" index="3clF46" />
        <child id="1068580123135" name="body" index="3clF47" />
      </concept>
      <concept id="1068580123152" name="jetbrains.mps.baseLanguage.structure.EqualsExpression" flags="nn" index="3clFbC" />
      <concept id="1068580123159" name="jetbrains.mps.baseLanguage.structure.IfStatement" flags="nn" index="3clFbJ">
        <child id="1068580123160" name="condition" index="3clFbw" />
        <child id="1068580123161" name="ifTrue" index="3clFbx" />
      </concept>
      <concept id="1068580123136" name="jetbrains.mps.baseLanguage.structure.StatementList" flags="sn" stub="5293379017992965193" index="3clFbS">
        <child id="1068581517665" name="statement" index="3cqZAp" />
      </concept>
      <concept id="1068580123137" name="jetbrains.mps.baseLanguage.structure.BooleanConstant" flags="nn" index="3clFbT">
        <property id="1068580123138" name="value" index="3clFbU" />
      </concept>
      <concept id="1068581242878" name="jetbrains.mps.baseLanguage.structure.ReturnStatement" flags="nn" index="3cpWs6">
        <child id="1068581517676" name="expression" index="3cqZAk" />
      </concept>
      <concept id="1068581242864" name="jetbrains.mps.baseLanguage.structure.LocalVariableDeclarationStatement" flags="nn" index="3cpWs8">
        <child id="1068581242865" name="localVariableDeclaration" index="3cpWs9" />
      </concept>
      <concept id="1068581242863" name="jetbrains.mps.baseLanguage.structure.LocalVariableDeclaration" flags="nr" index="3cpWsn" />
      <concept id="1107461130800" name="jetbrains.mps.baseLanguage.structure.Classifier" flags="ng" index="3pOWGL">
        <child id="5375687026011219971" name="member" index="jymVt" unordered="true" />
      </concept>
      <concept id="1107535904670" name="jetbrains.mps.baseLanguage.structure.ClassifierType" flags="in" index="3uibUv">
        <reference id="1107535924139" name="classifier" index="3uigEE" />
      </concept>
      <concept id="1081773326031" name="jetbrains.mps.baseLanguage.structure.BinaryOperation" flags="nn" index="3uHJSO">
        <child id="1081773367579" name="rightExpression" index="3uHU7w" />
        <child id="1081773367580" name="leftExpression" index="3uHU7B" />
      </concept>
      <concept id="1178549954367" name="jetbrains.mps.baseLanguage.structure.IVisible" flags="ng" index="1B3ioH">
        <child id="1178549979242" name="visibility" index="1B3o_S" />
      </concept>
      <concept id="1146644602865" name="jetbrains.mps.baseLanguage.structure.PublicVisibility" flags="nn" index="3Tm1VV" />
    </language>
    <language id="d4615e3b-d671-4ba9-af01-2b78369b0ba7" name="jetbrains.mps.lang.pattern">
      <concept id="1136720037777" name="jetbrains.mps.lang.pattern.structure.PatternExpression" flags="in" index="2DMOqp">
        <child id="9046399079000773837" name="pattern" index="HM535" />
      </concept>
      <concept id="1136720037779" name="jetbrains.mps.lang.pattern.structure.PatternVariableDeclaration" flags="ng" index="2DMOqr">
        <property id="1136720037780" name="varName" index="2DMOqs" />
      </concept>
    </language>
    <language id="3a13115c-633c-4c5c-bbcc-75c4219e9555" name="jetbrains.mps.lang.quotation">
      <concept id="1196350785113" name="jetbrains.mps.lang.quotation.structure.Quotation" flags="nn" index="2c44tf">
        <child id="1196350785114" name="quotedNode" index="2c44tc" />
      </concept>
    </language>
    <language id="7a5dda62-9140-4668-ab76-d5ed1746f2b2" name="jetbrains.mps.lang.typesystem">
      <concept id="1176543928247" name="jetbrains.mps.lang.typesystem.structure.IsSubtypeExpression" flags="nn" index="3JuTUA">
        <child id="1176543945045" name="subtypeExpression" index="3JuY14" />
        <child id="1176543950311" name="supertypeExpression" index="3JuZjQ" />
      </concept>
      <concept id="1178870617262" name="jetbrains.mps.lang.typesystem.structure.CoerceExpression" flags="nn" index="1UaxmW">
        <child id="1178870894644" name="pattern" index="1Ub_4A" />
        <child id="1178870894645" name="nodeToCoerce" index="1Ub_4B" />
      </concept>
      <concept id="1174642900584" name="jetbrains.mps.lang.typesystem.structure.PatternCondition" flags="ig" index="1Yb3XT">
        <child id="1174642936809" name="pattern" index="1YbcFS" />
      </concept>
    </language>
    <language id="7866978e-a0f0-4cc7-81bc-4d213d9375e1" name="jetbrains.mps.lang.smodel">
      <concept id="8758390115029295477" name="jetbrains.mps.lang.smodel.structure.SReferenceType" flags="in" index="2z4iKi" />
      <concept id="1143226024141" name="jetbrains.mps.lang.smodel.structure.SModelType" flags="in" index="H_c77" />
      <concept id="597763930871270009" name="jetbrains.mps.lang.smodel.structure.ChildNodeRefExpression" flags="nn" index="3fl2lp">
        <reference id="597763930871272016" name="targetNode" index="3fl3PK" />
        <child id="597763930871272014" name="parent" index="3fl3PI" />
      </concept>
      <concept id="1219352745532" name="jetbrains.mps.lang.smodel.structure.NodeRefExpression" flags="nn" index="3B5_sB">
        <reference id="1219352800908" name="referentNode" index="3B5MYn" />
      </concept>
      <concept id="1138055754698" name="jetbrains.mps.lang.smodel.structure.SNodeType" flags="in" index="3Tqbb2">
        <reference id="1138405853777" name="concept" index="ehGHo" />
      </concept>
      <concept id="1138056143562" name="jetbrains.mps.lang.smodel.structure.SLinkAccess" flags="nn" index="3TrEf2">
        <reference id="1138056516764" name="link" index="3Tt5mk" />
      </concept>
    </language>
    <language id="ceab5195-25ea-4f22-9b92-103b95ca8c0c" name="jetbrains.mps.lang.core">
      <concept id="1133920641626" name="jetbrains.mps.lang.core.structure.BaseConcept" flags="ng" index="2VYdi">
        <child id="5169995583184591170" name="smodelAttribute" index="lGtFl" />
      </concept>
      <concept id="1169194658468" name="jetbrains.mps.lang.core.structure.INamedConcept" flags="ng" index="TrEIO">
        <property id="1169194664001" name="name" index="TrG5h" />
      </concept>
    </language>
    <language id="83888646-71ce-4f1c-9c53-c54016f6ad4f" name="jetbrains.mps.baseLanguage.collections">
      <concept id="1151689724996" name="jetbrains.mps.baseLanguage.collections.structure.SequenceType" flags="in" index="A3Dl8">
        <child id="1151689745422" name="elementType" index="A3Ik2" />
      </concept>
    </language>
  </registry>
  <node concept="312cEu" id="zYDcsy$ZVT">
    <property role="TrG5h" value="CommandUtilChooserHelper" />
    <node concept="2YIFZL" id="zYDcsy_5MZ" role="jymVt">
      <property role="TrG5h" value="chooseGetReferenceMethod" />
      <property role="DiZV1" value="false" />
      <property role="od$2w" value="false" />
      <node concept="3clFbS" id="zYDcsy_2L6" role="3clF47">
        <node concept="3cpWs8" id="zYDcsy_2L7" role="3cqZAp">
          <node concept="3cpWsn" id="zYDcsy_2L8" role="3cpWs9">
            <property role="TrG5h" value="seqType" />
            <node concept="3Tqbb2" id="zYDcsy_2L9" role="1tU5fm">
              <ref role="ehGHo" to="tp2q:gKA3Dh4" resolve="SequenceType" />
            </node>
            <node concept="1UaxmW" id="zYDcsy_2La" role="33vP2m">
              <node concept="1Yb3XT" id="zYDcsy_2Lb" role="1Ub_4A">
                <property role="TrG5h" value="seqType" />
                <node concept="2DMOqp" id="zYDcsy_2Lc" role="1YbcFS">
                  <node concept="2c44tf" id="IAUo05lA2A" role="HM535">
                    <node concept="A3Dl8" id="zYDcsy_2Ld" role="2c44tc">
                      <node concept="33vP2l" id="zYDcsy_2Le" role="A3Ik2">
                        <node concept="2DMOqr" id="zYDcsy_2Lf" role="lGtFl">
                          <property role="2DMOqs" value="elementType" />
                        </node>
                      </node>
                    </node>
                  </node>
                </node>
              </node>
              <node concept="37vLTw" id="zYDcsy_2Lg" role="1Ub_4B">
                <ref role="3cqZAo" node="zYDcsy_2L2" resolve="type" />
              </node>
            </node>
          </node>
        </node>
        <node concept="3clFbJ" id="zYDcsy_2Lh" role="3cqZAp">
          <node concept="3clFbS" id="zYDcsy_2Li" role="3clFbx">
            <node concept="3cpWs6" id="zYDcsy_2Lj" role="3cqZAp">
              <node concept="10Nm6u" id="zYDcsy_2Lk" role="3cqZAk" />
            </node>
          </node>
          <node concept="3clFbC" id="zYDcsy_2Ll" role="3clFbw">
            <node concept="10Nm6u" id="zYDcsy_2Lm" role="3uHU7w" />
            <node concept="37vLTw" id="zYDcsy_2Ln" role="3uHU7B">
              <ref role="3cqZAo" node="zYDcsy_2L8" resolve="seqType" />
            </node>
          </node>
        </node>
        <node concept="3cpWs8" id="zYDcsy_2Lo" role="3cqZAp">
          <node concept="3cpWsn" id="zYDcsy_2Lp" role="3cpWs9">
            <property role="TrG5h" value="elementType" />
            <node concept="3Tqbb2" id="zYDcsy_2Lq" role="1tU5fm">
              <ref role="ehGHo" to="tpee:fz3vP1H" resolve="Type" />
            </node>
            <node concept="2OqwBi" id="zYDcsy_2Lr" role="33vP2m">
              <node concept="37vLTw" id="zYDcsy_2Ls" role="2Oq$k0">
                <ref role="3cqZAo" node="zYDcsy_2L8" resolve="seqType" />
              </node>
              <node concept="3TrEf2" id="zYDcsy_2Lt" role="2OqNvi">
                <ref role="3Tt5mk" to="tp2q:gKA3Ige" />
              </node>
            </node>
          </node>
        </node>
        <node concept="3clFbJ" id="zYDcsy_2Lu" role="3cqZAp">
          <node concept="3clFbS" id="zYDcsy_2Lv" role="3clFbx">
            <node concept="3cpWs6" id="zYDcsy_2Lw" role="3cqZAp">
              <node concept="3fl2lp" id="zYDcsy_2Lx" role="3cqZAk">
                <ref role="3fl3PK" to="moux:32notsQsTE3" resolve="getNodeReference" />
                <node concept="3B5_sB" id="zYDcsy_2Ly" role="3fl3PI">
                  <ref role="3B5MYn" to="moux:hpHLh7Fj1$" resolve="CommandUtil" />
                </node>
              </node>
            </node>
          </node>
          <node concept="3JuTUA" id="zYDcsy_2Lz" role="3clFbw">
            <node concept="37vLTw" id="zYDcsy_2L$" role="3JuY14">
              <ref role="3cqZAo" node="zYDcsy_2Lp" resolve="elementType" />
            </node>
            <node concept="2c44tf" id="zYDcsy_2L_" role="3JuZjQ">
              <node concept="3Tqbb2" id="zYDcsy_2LA" role="2c44tc" />
            </node>
          </node>
        </node>
        <node concept="3clFbJ" id="zYDcsy_2LB" role="3cqZAp">
          <node concept="3clFbS" id="zYDcsy_2LC" role="3clFbx">
            <node concept="3cpWs6" id="zYDcsy_2LD" role="3cqZAp">
              <node concept="3fl2lp" id="zYDcsy_2LE" role="3cqZAk">
                <ref role="3fl3PK" to="moux:32notsQsUA1" resolve="getReferenceReference" />
                <node concept="3B5_sB" id="zYDcsy_2LF" role="3fl3PI">
                  <ref role="3B5MYn" to="moux:hpHLh7Fj1$" resolve="CommandUtil" />
                </node>
              </node>
            </node>
          </node>
          <node concept="3JuTUA" id="zYDcsy_2LG" role="3clFbw">
            <node concept="37vLTw" id="zYDcsy_2LH" role="3JuY14">
              <ref role="3cqZAo" node="zYDcsy_2Lp" resolve="elementType" />
            </node>
            <node concept="2c44tf" id="zYDcsy_2LI" role="3JuZjQ">
              <node concept="2z4iKi" id="zYDcsy_2LJ" role="2c44tc" />
            </node>
          </node>
        </node>
        <node concept="3clFbJ" id="zYDcsy_2LK" role="3cqZAp">
          <node concept="3clFbS" id="zYDcsy_2LL" role="3clFbx">
            <node concept="3cpWs6" id="zYDcsy_2LM" role="3cqZAp">
              <node concept="3fl2lp" id="zYDcsy_2LN" role="3cqZAk">
                <ref role="3fl3PK" to="moux:32notsQsVkE" resolve="getModelReference" />
                <node concept="3B5_sB" id="zYDcsy_2LO" role="3fl3PI">
                  <ref role="3B5MYn" to="moux:hpHLh7Fj1$" resolve="CommandUtil" />
                </node>
              </node>
            </node>
          </node>
          <node concept="3JuTUA" id="zYDcsy_2LP" role="3clFbw">
            <node concept="37vLTw" id="zYDcsy_2LQ" role="3JuY14">
              <ref role="3cqZAo" node="zYDcsy_2Lp" resolve="elementType" />
            </node>
            <node concept="2c44tf" id="zYDcsy_2LR" role="3JuZjQ">
              <node concept="H_c77" id="zYDcsy_2LS" role="2c44tc" />
            </node>
          </node>
        </node>
        <node concept="3clFbJ" id="zYDcsy_2LT" role="3cqZAp">
          <node concept="3clFbS" id="zYDcsy_2LU" role="3clFbx">
            <node concept="3cpWs6" id="zYDcsy_2LV" role="3cqZAp">
              <node concept="3fl2lp" id="zYDcsy_2LW" role="3cqZAk">
                <ref role="3fl3PK" to="moux:32notsQsW4c" resolve="getModuleReference" />
                <node concept="3B5_sB" id="zYDcsy_2LX" role="3fl3PI">
                  <ref role="3B5MYn" to="moux:hpHLh7Fj1$" resolve="CommandUtil" />
                </node>
              </node>
            </node>
          </node>
          <node concept="3JuTUA" id="zYDcsy_2LY" role="3clFbw">
            <node concept="37vLTw" id="zYDcsy_2LZ" role="3JuY14">
              <ref role="3cqZAo" node="zYDcsy_2Lp" resolve="elementType" />
            </node>
            <node concept="2c44tf" id="zYDcsy_2M0" role="3JuZjQ">
              <node concept="3uibUv" id="zYDcsy_2M1" role="2c44tc">
                <ref role="3uigEE" to="lui2:~SModule" resolve="SModule" />
              </node>
            </node>
          </node>
        </node>
        <node concept="3cpWs6" id="zYDcsy_2M2" role="3cqZAp">
          <node concept="10Nm6u" id="zYDcsy_2M3" role="3cqZAk" />
        </node>
      </node>
      <node concept="37vLTG" id="zYDcsy_2L2" role="3clF46">
        <property role="TrG5h" value="type" />
        <node concept="3Tqbb2" id="zYDcsy_2L3" role="1tU5fm" />
      </node>
      <node concept="3Tm1VV" id="zYDcsy_2L5" role="1B3o_S" />
      <node concept="3Tqbb2" id="zYDcsy_8V0" role="3clF45">
        <ref role="ehGHo" to="tpee:fIYIFWa" resolve="StaticMethodDeclaration" />
      </node>
    </node>
    <node concept="2YIFZL" id="zYDcsy_5Tt" role="jymVt">
      <property role="TrG5h" value="chooseToResultMethod" />
      <property role="DiZV1" value="false" />
      <property role="od$2w" value="false" />
      <node concept="3clFbS" id="zYDcsy$ZXz" role="3clF47">
        <node concept="3cpWs8" id="1rQJladTp9Q" role="3cqZAp">
          <node concept="3cpWsn" id="1rQJladTp9R" role="3cpWs9">
            <property role="TrG5h" value="seqType" />
            <node concept="3Tqbb2" id="1rQJladTp9O" role="1tU5fm">
              <ref role="ehGHo" to="tp2q:gKA3Dh4" resolve="SequenceType" />
            </node>
            <node concept="1UaxmW" id="1rQJladTp9S" role="33vP2m">
              <node concept="1Yb3XT" id="1rQJladTp9W" role="1Ub_4A">
                <property role="TrG5h" value="seqType" />
                <node concept="2DMOqp" id="1rQJladTp9X" role="1YbcFS">
                  <node concept="2c44tf" id="IAUo05lA5$" role="HM535">
                    <node concept="A3Dl8" id="1rQJladTp9Y" role="2c44tc">
                      <node concept="33vP2l" id="1rQJladTpZX" role="A3Ik2">
                        <node concept="2DMOqr" id="1rQJladTq4D" role="lGtFl">
                          <property role="2DMOqs" value="elementType" />
                        </node>
                      </node>
                    </node>
                  </node>
                </node>
              </node>
              <node concept="37vLTw" id="zYDcsy_7jg" role="1Ub_4B">
                <ref role="3cqZAo" node="zYDcsy_084" resolve="type" />
              </node>
            </node>
          </node>
        </node>
        <node concept="3clFbJ" id="1rQJladTt65" role="3cqZAp">
          <node concept="3clFbS" id="1rQJladTt67" role="3clFbx">
            <node concept="3cpWs6" id="1rQJladTttS" role="3cqZAp">
              <node concept="10Nm6u" id="1rQJladTtAT" role="3cqZAk" />
            </node>
          </node>
          <node concept="3clFbC" id="1rQJladTtkw" role="3clFbw">
            <node concept="10Nm6u" id="1rQJladTtoH" role="3uHU7w" />
            <node concept="37vLTw" id="1rQJladTtcd" role="3uHU7B">
              <ref role="3cqZAo" node="1rQJladTp9R" resolve="seqType" />
            </node>
          </node>
        </node>
        <node concept="3cpWs8" id="1rQJladTrE5" role="3cqZAp">
          <node concept="3cpWsn" id="1rQJladTrE6" role="3cpWs9">
            <property role="TrG5h" value="elementType" />
            <node concept="3Tqbb2" id="1rQJladTrE4" role="1tU5fm">
              <ref role="ehGHo" to="tpee:fz3vP1H" resolve="Type" />
            </node>
            <node concept="2OqwBi" id="1rQJladTrE7" role="33vP2m">
              <node concept="37vLTw" id="1rQJladTrE8" role="2Oq$k0">
                <ref role="3cqZAo" node="1rQJladTp9R" resolve="seqType" />
              </node>
              <node concept="3TrEf2" id="1rQJladTrE9" role="2OqNvi">
                <ref role="3Tt5mk" to="tp2q:gKA3Ige" />
              </node>
            </node>
          </node>
        </node>
        <node concept="3clFbJ" id="5mdbChITFDP" role="3cqZAp">
          <node concept="3clFbS" id="5mdbChITFDQ" role="3clFbx">
            <node concept="3cpWs6" id="5mdbChITFDR" role="3cqZAp">
              <node concept="3fl2lp" id="5mdbChITFDS" role="3cqZAk">
                <ref role="3fl3PK" to="moux:YwfKjlXcuc" resolve="nodesToResults" />
                <node concept="3B5_sB" id="5mdbChITFDT" role="3fl3PI">
                  <ref role="3B5MYn" to="moux:hpHLh7Fj1$" resolve="CommandUtil" />
                </node>
              </node>
            </node>
          </node>
          <node concept="3JuTUA" id="5mdbChITFDU" role="3clFbw">
            <node concept="37vLTw" id="1rQJladTrXK" role="3JuY14">
              <ref role="3cqZAo" node="1rQJladTrE6" resolve="elementType" />
            </node>
            <node concept="2c44tf" id="5mdbChITFDW" role="3JuZjQ">
              <node concept="3Tqbb2" id="5mdbChITFDY" role="2c44tc" />
            </node>
          </node>
        </node>
        <node concept="3clFbJ" id="5mdbChITFDZ" role="3cqZAp">
          <node concept="3clFbS" id="5mdbChITFE0" role="3clFbx">
            <node concept="3cpWs6" id="5mdbChITFE1" role="3cqZAp">
              <node concept="3fl2lp" id="5mdbChITFE2" role="3cqZAk">
                <ref role="3fl3PK" to="moux:YwfKjlXcuc" resolve="nodesToResults" />
                <node concept="3B5_sB" id="5mdbChITFE3" role="3fl3PI">
                  <ref role="3B5MYn" to="moux:hpHLh7Fj1$" resolve="CommandUtil" />
                </node>
              </node>
            </node>
          </node>
          <node concept="3JuTUA" id="5mdbChITFE4" role="3clFbw">
            <node concept="37vLTw" id="1rQJladTs2s" role="3JuY14">
              <ref role="3cqZAo" node="1rQJladTrE6" resolve="elementType" />
            </node>
            <node concept="2c44tf" id="5mdbChITFE6" role="3JuZjQ">
              <node concept="2z4iKi" id="5mdbChITFE8" role="2c44tc" />
            </node>
          </node>
        </node>
        <node concept="3clFbJ" id="5mdbChITFE9" role="3cqZAp">
          <node concept="3clFbS" id="5mdbChITFEa" role="3clFbx">
            <node concept="3cpWs6" id="5mdbChITFEb" role="3cqZAp">
              <node concept="3fl2lp" id="5mdbChITFEc" role="3cqZAk">
                <ref role="3fl3PK" to="moux:YwfKjlXcx9" resolve="modelsToResults" />
                <node concept="3B5_sB" id="5mdbChITFEd" role="3fl3PI">
                  <ref role="3B5MYn" to="moux:hpHLh7Fj1$" resolve="CommandUtil" />
                </node>
              </node>
            </node>
          </node>
          <node concept="3JuTUA" id="5mdbChITFEe" role="3clFbw">
            <node concept="37vLTw" id="1rQJladTs78" role="3JuY14">
              <ref role="3cqZAo" node="1rQJladTrE6" resolve="elementType" />
            </node>
            <node concept="2c44tf" id="5mdbChITFEg" role="3JuZjQ">
              <node concept="H_c77" id="5mdbChITFEi" role="2c44tc" />
            </node>
          </node>
        </node>
        <node concept="3clFbJ" id="5mdbChITFEj" role="3cqZAp">
          <node concept="3clFbS" id="5mdbChITFEk" role="3clFbx">
            <node concept="3cpWs6" id="5mdbChITFEl" role="3cqZAp">
              <node concept="3fl2lp" id="5mdbChITFEm" role="3cqZAk">
                <ref role="3fl3PK" to="moux:YwfKjlXcyY" resolve="modulesToResults" />
                <node concept="3B5_sB" id="5mdbChITFEn" role="3fl3PI">
                  <ref role="3B5MYn" to="moux:hpHLh7Fj1$" resolve="CommandUtil" />
                </node>
              </node>
            </node>
          </node>
          <node concept="3JuTUA" id="5mdbChITFEo" role="3clFbw">
            <node concept="37vLTw" id="1rQJladTsbO" role="3JuY14">
              <ref role="3cqZAo" node="1rQJladTrE6" resolve="elementType" />
            </node>
            <node concept="2c44tf" id="5mdbChITFEq" role="3JuZjQ">
              <node concept="3uibUv" id="5mdbChITFEs" role="2c44tc">
                <ref role="3uigEE" to="lui2:~SModule" resolve="SModule" />
              </node>
            </node>
          </node>
        </node>
        <node concept="3cpWs6" id="5mdbChITFEt" role="3cqZAp">
          <node concept="10Nm6u" id="5mdbChITFEu" role="3cqZAk" />
        </node>
      </node>
      <node concept="37vLTG" id="zYDcsy_084" role="3clF46">
        <property role="TrG5h" value="type" />
        <node concept="3Tqbb2" id="zYDcsy_08E" role="1tU5fm" />
      </node>
      <node concept="3Tqbb2" id="zYDcsy_0c9" role="3clF45">
        <ref role="ehGHo" to="tpee:fIYIFWa" resolve="StaticMethodDeclaration" />
      </node>
      <node concept="3Tm1VV" id="zYDcsy$ZXy" role="1B3o_S" />
    </node>
    <node concept="2YIFZL" id="zYDcsyB09W" role="jymVt">
      <property role="TrG5h" value="isSModelSequence" />
      <property role="DiZV1" value="false" />
      <property role="od$2w" value="false" />
      <node concept="3clFbS" id="zYDcsyB09X" role="3clF47">
        <node concept="3cpWs8" id="zYDcsyB09Y" role="3cqZAp">
          <node concept="3cpWsn" id="zYDcsyB09Z" role="3cpWs9">
            <property role="TrG5h" value="seqType" />
            <node concept="3Tqbb2" id="zYDcsyB0a0" role="1tU5fm">
              <ref role="ehGHo" to="tp2q:gKA3Dh4" resolve="SequenceType" />
            </node>
            <node concept="1UaxmW" id="zYDcsyB0a1" role="33vP2m">
              <node concept="1Yb3XT" id="zYDcsyB0a2" role="1Ub_4A">
                <property role="TrG5h" value="seqType" />
                <node concept="2DMOqp" id="zYDcsyB0a3" role="1YbcFS">
                  <node concept="2c44tf" id="IAUo05lA8y" role="HM535">
                    <node concept="A3Dl8" id="zYDcsyB0a4" role="2c44tc">
                      <node concept="33vP2l" id="zYDcsyB0a5" role="A3Ik2">
                        <node concept="2DMOqr" id="zYDcsyB0a6" role="lGtFl">
                          <property role="2DMOqs" value="elementType" />
                        </node>
                      </node>
                    </node>
                  </node>
                </node>
              </node>
              <node concept="37vLTw" id="zYDcsyB0a7" role="1Ub_4B">
                <ref role="3cqZAo" node="zYDcsyB0aV" resolve="type" />
              </node>
            </node>
          </node>
        </node>
        <node concept="3clFbJ" id="zYDcsyB0a8" role="3cqZAp">
          <node concept="3clFbS" id="zYDcsyB0a9" role="3clFbx">
            <node concept="3cpWs6" id="zYDcsyB0aa" role="3cqZAp">
              <node concept="3clFbT" id="zYDcsyB0Qd" role="3cqZAk">
                <property role="3clFbU" value="false" />
              </node>
            </node>
          </node>
          <node concept="3clFbC" id="zYDcsyB0ac" role="3clFbw">
            <node concept="10Nm6u" id="zYDcsyB0ad" role="3uHU7w" />
            <node concept="37vLTw" id="zYDcsyB0ae" role="3uHU7B">
              <ref role="3cqZAo" node="zYDcsyB09Z" resolve="seqType" />
            </node>
          </node>
        </node>
        <node concept="3cpWs8" id="zYDcsyB0af" role="3cqZAp">
          <node concept="3cpWsn" id="zYDcsyB0ag" role="3cpWs9">
            <property role="TrG5h" value="elementType" />
            <node concept="3Tqbb2" id="zYDcsyB0ah" role="1tU5fm">
              <ref role="ehGHo" to="tpee:fz3vP1H" resolve="Type" />
            </node>
            <node concept="2OqwBi" id="zYDcsyB0ai" role="33vP2m">
              <node concept="37vLTw" id="zYDcsyB0aj" role="2Oq$k0">
                <ref role="3cqZAo" node="zYDcsyB09Z" resolve="seqType" />
              </node>
              <node concept="3TrEf2" id="zYDcsyB0ak" role="2OqNvi">
                <ref role="3Tt5mk" to="tp2q:gKA3Ige" />
              </node>
            </node>
          </node>
        </node>
        <node concept="3clFbJ" id="zYDcsyB0al" role="3cqZAp">
          <node concept="3clFbS" id="zYDcsyB0am" role="3clFbx">
            <node concept="3cpWs6" id="zYDcsyB0an" role="3cqZAp">
              <node concept="3clFbT" id="zYDcsyB0DN" role="3cqZAk">
                <property role="3clFbU" value="true" />
              </node>
            </node>
          </node>
          <node concept="3JuTUA" id="zYDcsyB0aq" role="3clFbw">
            <node concept="37vLTw" id="zYDcsyB0ar" role="3JuY14">
              <ref role="3cqZAo" node="zYDcsyB0ag" resolve="elementType" />
            </node>
            <node concept="2c44tf" id="zYDcsyB0as" role="3JuZjQ">
              <node concept="3Tqbb2" id="zYDcsyB0at" role="2c44tc" />
            </node>
          </node>
        </node>
        <node concept="3clFbJ" id="zYDcsyB0au" role="3cqZAp">
          <node concept="3clFbS" id="zYDcsyB0av" role="3clFbx">
            <node concept="3cpWs6" id="zYDcsyB0II" role="3cqZAp">
              <node concept="3clFbT" id="zYDcsyB0IJ" role="3cqZAk">
                <property role="3clFbU" value="true" />
              </node>
            </node>
          </node>
          <node concept="3JuTUA" id="zYDcsyB0az" role="3clFbw">
            <node concept="37vLTw" id="zYDcsyB0a$" role="3JuY14">
              <ref role="3cqZAo" node="zYDcsyB0ag" resolve="elementType" />
            </node>
            <node concept="2c44tf" id="zYDcsyB0a_" role="3JuZjQ">
              <node concept="2z4iKi" id="zYDcsyB0aA" role="2c44tc" />
            </node>
          </node>
        </node>
        <node concept="3clFbJ" id="zYDcsyB0aB" role="3cqZAp">
          <node concept="3clFbS" id="zYDcsyB0aC" role="3clFbx">
            <node concept="3cpWs6" id="zYDcsyB0LR" role="3cqZAp">
              <node concept="3clFbT" id="zYDcsyB0LS" role="3cqZAk">
                <property role="3clFbU" value="true" />
              </node>
            </node>
          </node>
          <node concept="3JuTUA" id="zYDcsyB0aG" role="3clFbw">
            <node concept="37vLTw" id="zYDcsyB0aH" role="3JuY14">
              <ref role="3cqZAo" node="zYDcsyB0ag" resolve="elementType" />
            </node>
            <node concept="2c44tf" id="zYDcsyB0aI" role="3JuZjQ">
              <node concept="H_c77" id="zYDcsyB0aJ" role="2c44tc" />
            </node>
          </node>
        </node>
        <node concept="3clFbJ" id="zYDcsyB0aK" role="3cqZAp">
          <node concept="3clFbS" id="zYDcsyB0aL" role="3clFbx">
            <node concept="3cpWs6" id="zYDcsyB0P0" role="3cqZAp">
              <node concept="3clFbT" id="zYDcsyB0P1" role="3cqZAk">
                <property role="3clFbU" value="true" />
              </node>
            </node>
          </node>
          <node concept="3JuTUA" id="zYDcsyB0aP" role="3clFbw">
            <node concept="37vLTw" id="zYDcsyB0aQ" role="3JuY14">
              <ref role="3cqZAo" node="zYDcsyB0ag" resolve="elementType" />
            </node>
            <node concept="2c44tf" id="zYDcsyB0aR" role="3JuZjQ">
              <node concept="3uibUv" id="zYDcsyB0aS" role="2c44tc">
                <ref role="3uigEE" to="lui2:~SModule" resolve="SModule" />
              </node>
            </node>
          </node>
        </node>
        <node concept="3cpWs6" id="zYDcsyB0aT" role="3cqZAp">
          <node concept="3clFbT" id="zYDcsyB0Ro" role="3cqZAk">
            <property role="3clFbU" value="false" />
          </node>
        </node>
      </node>
      <node concept="37vLTG" id="zYDcsyB0aV" role="3clF46">
        <property role="TrG5h" value="type" />
        <node concept="3Tqbb2" id="zYDcsyB0aW" role="1tU5fm" />
      </node>
      <node concept="10P_77" id="zYDcsyB0FA" role="3clF45" />
      <node concept="3Tm1VV" id="zYDcsyB0aY" role="1B3o_S" />
    </node>
    <node concept="2YIFZL" id="3dtxsUtxXXn" role="jymVt">
      <property role="TrG5h" value="getReferenceType" />
      <property role="DiZV1" value="false" />
      <property role="od$2w" value="false" />
      <node concept="3clFbS" id="3dtxsUtxXXo" role="3clF47">
        <node concept="3cpWs8" id="3dtxsUtxXXp" role="3cqZAp">
          <node concept="3cpWsn" id="3dtxsUtxXXq" role="3cpWs9">
            <property role="TrG5h" value="seqType" />
            <node concept="3Tqbb2" id="3dtxsUtxXXr" role="1tU5fm">
              <ref role="ehGHo" to="tp2q:gKA3Dh4" resolve="SequenceType" />
            </node>
            <node concept="1UaxmW" id="3dtxsUtxXXs" role="33vP2m">
              <node concept="1Yb3XT" id="3dtxsUtxXXt" role="1Ub_4A">
                <property role="TrG5h" value="seqType" />
                <node concept="2DMOqp" id="3dtxsUtxXXu" role="1YbcFS">
                  <node concept="2c44tf" id="IAUo05lAbw" role="HM535">
                    <node concept="A3Dl8" id="3dtxsUtxXXv" role="2c44tc">
                      <node concept="33vP2l" id="3dtxsUtxXXw" role="A3Ik2">
                        <node concept="2DMOqr" id="3dtxsUtxXXx" role="lGtFl">
                          <property role="2DMOqs" value="elementType" />
                        </node>
                      </node>
                    </node>
                  </node>
                </node>
              </node>
              <node concept="37vLTw" id="3dtxsUtxXXy" role="1Ub_4B">
                <ref role="3cqZAo" node="3dtxsUtxXYm" resolve="type" />
              </node>
            </node>
          </node>
        </node>
        <node concept="3clFbJ" id="3dtxsUtxXXz" role="3cqZAp">
          <node concept="3clFbS" id="3dtxsUtxXX$" role="3clFbx">
            <node concept="3cpWs6" id="3dtxsUtxXX_" role="3cqZAp">
              <node concept="10Nm6u" id="3dtxsUtxXXA" role="3cqZAk" />
            </node>
          </node>
          <node concept="3clFbC" id="3dtxsUtxXXB" role="3clFbw">
            <node concept="10Nm6u" id="3dtxsUtxXXC" role="3uHU7w" />
            <node concept="37vLTw" id="3dtxsUtxXXD" role="3uHU7B">
              <ref role="3cqZAo" node="3dtxsUtxXXq" resolve="seqType" />
            </node>
          </node>
        </node>
        <node concept="3cpWs8" id="3dtxsUtxXXE" role="3cqZAp">
          <node concept="3cpWsn" id="3dtxsUtxXXF" role="3cpWs9">
            <property role="TrG5h" value="elementType" />
            <node concept="3Tqbb2" id="3dtxsUtxXXG" role="1tU5fm">
              <ref role="ehGHo" to="tpee:fz3vP1H" resolve="Type" />
            </node>
            <node concept="2OqwBi" id="3dtxsUtxXXH" role="33vP2m">
              <node concept="37vLTw" id="3dtxsUtxXXI" role="2Oq$k0">
                <ref role="3cqZAo" node="3dtxsUtxXXq" resolve="seqType" />
              </node>
              <node concept="3TrEf2" id="3dtxsUtxXXJ" role="2OqNvi">
                <ref role="3Tt5mk" to="tp2q:gKA3Ige" />
              </node>
            </node>
          </node>
        </node>
        <node concept="3clFbJ" id="3dtxsUtxXXK" role="3cqZAp">
          <node concept="3clFbS" id="3dtxsUtxXXL" role="3clFbx">
            <node concept="3cpWs6" id="3dtxsUtxXXM" role="3cqZAp">
              <node concept="2c44tf" id="32notsQjGgL" role="3cqZAk">
                <node concept="3uibUv" id="32notsQkY$J" role="2c44tc">
                  <ref role="3uigEE" to="mhbf:~SNodeReference" resolve="SNodeReference" />
                </node>
              </node>
            </node>
          </node>
          <node concept="3JuTUA" id="3dtxsUtxXXP" role="3clFbw">
            <node concept="37vLTw" id="3dtxsUtxXXQ" role="3JuY14">
              <ref role="3cqZAo" node="3dtxsUtxXXF" resolve="elementType" />
            </node>
            <node concept="2c44tf" id="3dtxsUtxXXR" role="3JuZjQ">
              <node concept="3Tqbb2" id="3dtxsUtxXXS" role="2c44tc" />
            </node>
          </node>
        </node>
        <node concept="3clFbJ" id="3dtxsUtxXXT" role="3cqZAp">
          <node concept="3clFbS" id="3dtxsUtxXXU" role="3clFbx">
            <node concept="3cpWs6" id="3dtxsUtxXXV" role="3cqZAp">
              <node concept="2c44tf" id="3dtxsUtycRP" role="3cqZAk">
                <node concept="3uibUv" id="3dtxsUtycRQ" role="2c44tc">
                  <ref role="3uigEE" to="mhbf:~SNodeReference" resolve="SNodeReference" />
                </node>
              </node>
            </node>
          </node>
          <node concept="3JuTUA" id="3dtxsUtxXXY" role="3clFbw">
            <node concept="37vLTw" id="3dtxsUtxXXZ" role="3JuY14">
              <ref role="3cqZAo" node="3dtxsUtxXXF" resolve="elementType" />
            </node>
            <node concept="2c44tf" id="3dtxsUtxXY0" role="3JuZjQ">
              <node concept="2z4iKi" id="3dtxsUtxXY1" role="2c44tc" />
            </node>
          </node>
        </node>
        <node concept="3clFbJ" id="3dtxsUtxXY2" role="3cqZAp">
          <node concept="3clFbS" id="3dtxsUtxXY3" role="3clFbx">
            <node concept="3cpWs6" id="3dtxsUtxXY4" role="3cqZAp">
              <node concept="2c44tf" id="32notsQkB4K" role="3cqZAk">
                <node concept="3uibUv" id="32notsQllBl" role="2c44tc">
                  <ref role="3uigEE" to="mhbf:~SModelReference" resolve="SModelReference" />
                </node>
              </node>
            </node>
          </node>
          <node concept="3JuTUA" id="3dtxsUtxXY7" role="3clFbw">
            <node concept="37vLTw" id="3dtxsUtxXY8" role="3JuY14">
              <ref role="3cqZAo" node="3dtxsUtxXXF" resolve="elementType" />
            </node>
            <node concept="2c44tf" id="3dtxsUtxXY9" role="3JuZjQ">
              <node concept="H_c77" id="3dtxsUtxXYa" role="2c44tc" />
            </node>
          </node>
        </node>
        <node concept="3clFbJ" id="3dtxsUtxXYb" role="3cqZAp">
          <node concept="3clFbS" id="3dtxsUtxXYc" role="3clFbx">
            <node concept="3cpWs6" id="3dtxsUtxXYd" role="3cqZAp">
              <node concept="2c44tf" id="32notsQkN3o" role="3cqZAk">
                <node concept="3uibUv" id="32notsQlx8C" role="2c44tc">
                  <ref role="3uigEE" to="lui2:~SModuleReference" resolve="SModuleReference" />
                </node>
              </node>
            </node>
          </node>
          <node concept="3JuTUA" id="3dtxsUtxXYg" role="3clFbw">
            <node concept="37vLTw" id="3dtxsUtxXYh" role="3JuY14">
              <ref role="3cqZAo" node="3dtxsUtxXXF" resolve="elementType" />
            </node>
            <node concept="2c44tf" id="3dtxsUtxXYi" role="3JuZjQ">
              <node concept="3uibUv" id="3dtxsUtxXYj" role="2c44tc">
                <ref role="3uigEE" to="lui2:~SModule" resolve="SModule" />
              </node>
            </node>
          </node>
        </node>
        <node concept="3cpWs6" id="3dtxsUtxXYk" role="3cqZAp">
          <node concept="10Nm6u" id="3dtxsUtxXYl" role="3cqZAk" />
        </node>
      </node>
      <node concept="37vLTG" id="3dtxsUtxXYm" role="3clF46">
        <property role="TrG5h" value="type" />
        <node concept="3Tqbb2" id="3dtxsUtxXYn" role="1tU5fm" />
      </node>
      <node concept="3Tqbb2" id="3dtxsUtxXYo" role="3clF45">
        <ref role="ehGHo" to="tpee:g7uibYu" resolve="ClassifierType" />
      </node>
      <node concept="3Tm1VV" id="3dtxsUtxXYp" role="1B3o_S" />
    </node>
    <node concept="2YIFZL" id="3dtxsUtyzwd" role="jymVt">
      <property role="TrG5h" value="getKindLabel" />
      <property role="DiZV1" value="false" />
      <property role="od$2w" value="false" />
      <node concept="3clFbS" id="3dtxsUtyzwe" role="3clF47">
        <node concept="3cpWs8" id="3dtxsUtyzwf" role="3cqZAp">
          <node concept="3cpWsn" id="3dtxsUtyzwg" role="3cpWs9">
            <property role="TrG5h" value="seqType" />
            <node concept="3Tqbb2" id="3dtxsUtyzwh" role="1tU5fm">
              <ref role="ehGHo" to="tp2q:gKA3Dh4" resolve="SequenceType" />
            </node>
            <node concept="1UaxmW" id="3dtxsUtyzwi" role="33vP2m">
              <node concept="1Yb3XT" id="3dtxsUtyzwj" role="1Ub_4A">
                <property role="TrG5h" value="seqType" />
                <node concept="2DMOqp" id="3dtxsUtyzwk" role="1YbcFS">
                  <node concept="2c44tf" id="IAUo05lAeu" role="HM535">
                    <node concept="A3Dl8" id="3dtxsUtyzwl" role="2c44tc">
                      <node concept="33vP2l" id="3dtxsUtyzwm" role="A3Ik2">
                        <node concept="2DMOqr" id="3dtxsUtyzwn" role="lGtFl">
                          <property role="2DMOqs" value="elementType" />
                        </node>
                      </node>
                    </node>
                  </node>
                </node>
              </node>
              <node concept="37vLTw" id="3dtxsUtyzwo" role="1Ub_4B">
                <ref role="3cqZAo" node="3dtxsUtyzxc" resolve="type" />
              </node>
            </node>
          </node>
        </node>
        <node concept="3clFbJ" id="3dtxsUtyzwp" role="3cqZAp">
          <node concept="3clFbS" id="3dtxsUtyzwq" role="3clFbx">
            <node concept="3cpWs6" id="3dtxsUtyzwr" role="3cqZAp">
              <node concept="10Nm6u" id="3dtxsUtyzws" role="3cqZAk" />
            </node>
          </node>
          <node concept="3clFbC" id="3dtxsUtyzwt" role="3clFbw">
            <node concept="10Nm6u" id="3dtxsUtyzwu" role="3uHU7w" />
            <node concept="37vLTw" id="3dtxsUtyzwv" role="3uHU7B">
              <ref role="3cqZAo" node="3dtxsUtyzwg" resolve="seqType" />
            </node>
          </node>
        </node>
        <node concept="3cpWs8" id="3dtxsUtyzww" role="3cqZAp">
          <node concept="3cpWsn" id="3dtxsUtyzwx" role="3cpWs9">
            <property role="TrG5h" value="elementType" />
            <node concept="3Tqbb2" id="3dtxsUtyzwy" role="1tU5fm">
              <ref role="ehGHo" to="tpee:fz3vP1H" resolve="Type" />
            </node>
            <node concept="2OqwBi" id="3dtxsUtyzwz" role="33vP2m">
              <node concept="37vLTw" id="3dtxsUtyzw$" role="2Oq$k0">
                <ref role="3cqZAo" node="3dtxsUtyzwg" resolve="seqType" />
              </node>
              <node concept="3TrEf2" id="3dtxsUtyzw_" role="2OqNvi">
                <ref role="3Tt5mk" to="tp2q:gKA3Ige" />
              </node>
            </node>
          </node>
        </node>
        <node concept="3clFbJ" id="3dtxsUtyzwA" role="3cqZAp">
          <node concept="3clFbS" id="3dtxsUtyzwB" role="3clFbx">
            <node concept="3cpWs6" id="3dtxsUtyzwC" role="3cqZAp">
              <node concept="Xl_RD" id="7OcVEq$tDn6" role="3cqZAk">
                <property role="Xl_RC" value="nodes" />
              </node>
            </node>
          </node>
          <node concept="3JuTUA" id="3dtxsUtyzwF" role="3clFbw">
            <node concept="37vLTw" id="3dtxsUtyzwG" role="3JuY14">
              <ref role="3cqZAo" node="3dtxsUtyzwx" resolve="elementType" />
            </node>
            <node concept="2c44tf" id="3dtxsUtyzwH" role="3JuZjQ">
              <node concept="3Tqbb2" id="3dtxsUtyzwI" role="2c44tc" />
            </node>
          </node>
        </node>
        <node concept="3clFbJ" id="3dtxsUtyzwJ" role="3cqZAp">
          <node concept="3clFbS" id="3dtxsUtyzwK" role="3clFbx">
            <node concept="3cpWs6" id="3dtxsUtyzwL" role="3cqZAp">
              <node concept="Xl_RD" id="7OcVEq$tDnf" role="3cqZAk">
                <property role="Xl_RC" value="references" />
              </node>
            </node>
          </node>
          <node concept="3JuTUA" id="3dtxsUtyzwO" role="3clFbw">
            <node concept="37vLTw" id="3dtxsUtyzwP" role="3JuY14">
              <ref role="3cqZAo" node="3dtxsUtyzwx" resolve="elementType" />
            </node>
            <node concept="2c44tf" id="3dtxsUtyzwQ" role="3JuZjQ">
              <node concept="2z4iKi" id="3dtxsUtyzwR" role="2c44tc" />
            </node>
          </node>
        </node>
        <node concept="3clFbJ" id="3dtxsUtyzwS" role="3cqZAp">
          <node concept="3clFbS" id="3dtxsUtyzwT" role="3clFbx">
            <node concept="3cpWs6" id="3dtxsUtyzwU" role="3cqZAp">
              <node concept="Xl_RD" id="7OcVEq$tDno" role="3cqZAk">
                <property role="Xl_RC" value="models" />
              </node>
            </node>
          </node>
          <node concept="3JuTUA" id="3dtxsUtyzwX" role="3clFbw">
            <node concept="37vLTw" id="3dtxsUtyzwY" role="3JuY14">
              <ref role="3cqZAo" node="3dtxsUtyzwx" resolve="elementType" />
            </node>
            <node concept="2c44tf" id="3dtxsUtyzwZ" role="3JuZjQ">
              <node concept="H_c77" id="3dtxsUtyzx0" role="2c44tc" />
            </node>
          </node>
        </node>
        <node concept="3clFbJ" id="3dtxsUtyzx1" role="3cqZAp">
          <node concept="3clFbS" id="3dtxsUtyzx2" role="3clFbx">
            <node concept="3cpWs6" id="3dtxsUtyzx3" role="3cqZAp">
              <node concept="Xl_RD" id="7OcVEq$tDnx" role="3cqZAk">
                <property role="Xl_RC" value="modules" />
              </node>
            </node>
          </node>
          <node concept="3JuTUA" id="3dtxsUtyzx6" role="3clFbw">
            <node concept="37vLTw" id="3dtxsUtyzx7" role="3JuY14">
              <ref role="3cqZAo" node="3dtxsUtyzwx" resolve="elementType" />
            </node>
            <node concept="2c44tf" id="3dtxsUtyzx8" role="3JuZjQ">
              <node concept="3uibUv" id="3dtxsUtyzx9" role="2c44tc">
                <ref role="3uigEE" to="lui2:~SModule" resolve="SModule" />
              </node>
            </node>
          </node>
        </node>
        <node concept="3cpWs6" id="3dtxsUtyzxa" role="3cqZAp">
          <node concept="10Nm6u" id="3dtxsUtyzxb" role="3cqZAk" />
        </node>
      </node>
      <node concept="37vLTG" id="3dtxsUtyzxc" role="3clF46">
        <property role="TrG5h" value="type" />
        <node concept="3Tqbb2" id="3dtxsUtyzxd" role="1tU5fm" />
      </node>
      <node concept="17QB3L" id="3dtxsUty_B1" role="3clF45" />
      <node concept="3Tm1VV" id="3dtxsUtyzxf" role="1B3o_S" />
    </node>
    <node concept="3Tm1VV" id="zYDcsy$ZVU" role="1B3o_S" />
  </node>
</model>

