<?xml version="1.0" encoding="UTF-8"?>
<model ref="r:cd29712f-cf1b-4f19-90a2-4ce86af0d5f6(org.jetbrains.mps.samples.Money.structure)">
  <persistence version="9" />
  <languages>
    <use id="662a9f2b-5802-4d16-9558-72c65c7a681e" name="org.jetbrains.mps.samples.Money" version="0" />
    <use id="c72da2b9-7cce-4447-8389-f407dc1158b7" name="jetbrains.mps.lang.structure" version="3" />
    <use id="982eb8df-2c96-4bd7-9963-11712ea622e5" name="jetbrains.mps.lang.resources" version="2" />
    <devkit ref="fbc25dd2-5da4-483a-8b19-70928e1b62d7(jetbrains.mps.devkit.general-purpose)" />
  </languages>
  <imports>
    <import index="xlxw" ref="6354ebe7-c22a-4a0f-ac54-50b52ab9b065/java:java.math(JDK/)" />
    <import index="tpee" ref="r:00000000-0000-4000-0000-011c895902ca(jetbrains.mps.baseLanguage.structure)" />
    <import index="tpck" ref="r:00000000-0000-4000-0000-011c89590288(jetbrains.mps.lang.core.structure)" implicit="true" />
  </imports>
  <registry>
    <language id="c72da2b9-7cce-4447-8389-f407dc1158b7" name="jetbrains.mps.lang.structure">
      <concept id="1169125787135" name="jetbrains.mps.lang.structure.structure.AbstractConceptDeclaration" flags="ig" index="PkWjJ">
        <property id="6714410169261853888" name="conceptId" index="EcuMT" />
        <property id="4628067390765956807" name="final" index="R5$K2" />
        <property id="4628067390765956802" name="abstract" index="R5$K7" />
        <property id="5092175715804935370" name="conceptAlias" index="34LRSv" />
        <child id="1071489727083" name="linkDeclaration" index="1TKVEi" />
        <child id="1071489727084" name="propertyDeclaration" index="1TKVEl" />
      </concept>
      <concept id="1169127622168" name="jetbrains.mps.lang.structure.structure.InterfaceConceptReference" flags="ig" index="PrWs8">
        <reference id="1169127628841" name="intfc" index="PrY4T" />
      </concept>
      <concept id="1071489090640" name="jetbrains.mps.lang.structure.structure.ConceptDeclaration" flags="ig" index="1TIwiD">
        <property id="5404671619616246344" name="staticScope" index="2_RsDV" />
        <property id="1096454100552" name="rootable" index="19KtqR" />
        <reference id="1071489389519" name="extends" index="1TJDcQ" />
        <child id="1169129564478" name="implements" index="PzmwI" />
      </concept>
      <concept id="1071489288299" name="jetbrains.mps.lang.structure.structure.PropertyDeclaration" flags="ig" index="1TJgyi">
        <property id="241647608299431129" name="propertyId" index="IQ2nx" />
        <reference id="1082985295845" name="dataType" index="AX2Wp" />
      </concept>
      <concept id="1071489288298" name="jetbrains.mps.lang.structure.structure.LinkDeclaration" flags="ig" index="1TJgyj">
        <property id="1071599776563" name="role" index="20kJfa" />
        <property id="1071599893252" name="sourceCardinality" index="20lbJX" />
        <property id="1071599937831" name="metaClass" index="20lmBu" />
        <property id="241647608299431140" name="linkId" index="IQ2ns" />
        <reference id="1071599976176" name="target" index="20lvS9" />
      </concept>
    </language>
    <language id="ceab5195-25ea-4f22-9b92-103b95ca8c0c" name="jetbrains.mps.lang.core">
      <concept id="1133920641626" name="jetbrains.mps.lang.core.structure.BaseConcept" flags="ng" index="2VYdi">
        <property id="1193676396447" name="virtualPackage" index="3GE5qa" />
      </concept>
      <concept id="1169194658468" name="jetbrains.mps.lang.core.structure.INamedConcept" flags="ng" index="TrEIO">
        <property id="1169194664001" name="name" index="TrG5h" />
      </concept>
    </language>
  </registry>
  <node concept="1TIwiD" id="4IqbYlp4P4M">
    <property role="R5$K7" value="false" />
    <property role="R5$K2" value="false" />
    <property role="TrG5h" value="MoneyLiteral" />
    <property role="2_RsDV" value="none" />
    <property role="34LRSv" value="money" />
    <property role="EcuMT" value="5447719361346490674" />
    <ref role="1TJDcQ" to="tpee:fz3vP1J" resolve="Expression" />
    <node concept="1TJgyi" id="4IqbYlp4P63" role="1TKVEl">
      <property role="TrG5h" value="amount" />
      <property role="IQ2nx" value="5447719361346490755" />
      <ref role="AX2Wp" to="tpck:fKAQMTA" resolve="integer" />
    </node>
    <node concept="1TJgyj" id="38gGBrhh3mC" role="1TKVEi">
      <property role="20lmBu" value="reference" />
      <property role="20kJfa" value="unit" />
      <property role="20lbJX" value="1" />
      <property role="IQ2ns" value="3607579524910560680" />
      <ref role="20lvS9" node="38gGBrhh3mn" resolve="CurrencyUnit" />
    </node>
  </node>
  <node concept="1TIwiD" id="4IqbYlp4P5E">
    <property role="R5$K7" value="false" />
    <property role="R5$K2" value="false" />
    <property role="TrG5h" value="MoneyType" />
    <property role="2_RsDV" value="none" />
    <property role="34LRSv" value="Money" />
    <property role="EcuMT" value="5447719361346490730" />
    <ref role="1TJDcQ" to="tpee:fz3vP1H" resolve="Type" />
  </node>
  <node concept="1TIwiD" id="4IqbYlp4WcT">
    <property role="R5$K7" value="false" />
    <property role="R5$K2" value="false" />
    <property role="TrG5h" value="GetAmount" />
    <property role="2_RsDV" value="none" />
    <property role="34LRSv" value="amount" />
    <property role="EcuMT" value="5447719361346519865" />
    <ref role="1TJDcQ" to="tpck:gw2VY9q" resolve="BaseConcept" />
    <node concept="PrWs8" id="4IqbYlp4WcU" role="PzmwI">
      <ref role="PrY4T" to="tpee:hqOqG0K" resolve="IOperation" />
    </node>
  </node>
  <node concept="1TIwiD" id="1zoS8cVcJ6L">
    <property role="R5$K7" value="false" />
    <property role="R5$K2" value="false" />
    <property role="TrG5h" value="GetCurrency" />
    <property role="2_RsDV" value="none" />
    <property role="34LRSv" value="currency" />
    <property role="EcuMT" value="1790427706118304177" />
    <ref role="1TJDcQ" to="tpck:gw2VY9q" resolve="BaseConcept" />
    <node concept="PrWs8" id="1zoS8cVcJ6M" role="PzmwI">
      <ref role="PrY4T" to="tpee:hqOqG0K" resolve="IOperation" />
    </node>
  </node>
  <node concept="1TIwiD" id="1zoS8cVd22q">
    <property role="R5$K7" value="false" />
    <property role="R5$K2" value="false" />
    <property role="TrG5h" value="ConvertTo" />
    <property role="2_RsDV" value="none" />
    <property role="34LRSv" value="convert to" />
    <property role="EcuMT" value="1790427706118381722" />
    <ref role="1TJDcQ" to="tpck:gw2VY9q" resolve="BaseConcept" />
    <node concept="1TJgyi" id="1zoS8cVd3hv" role="1TKVEl">
      <property role="TrG5h" value="targetCurrency" />
      <property role="IQ2nx" value="1790427706118386783" />
      <ref role="AX2Wp" to="tpck:fKAOsGN" resolve="string" />
    </node>
    <node concept="PrWs8" id="1zoS8cVd22r" role="PzmwI">
      <ref role="PrY4T" to="tpee:hqOqG0K" resolve="IOperation" />
    </node>
  </node>
  <node concept="1TIwiD" id="38gGBrhh3mm">
    <property role="19KtqR" value="true" />
    <property role="TrG5h" value="CurrencyDefTable" />
    <property role="EcuMT" value="3607579524910560662" />
    <ref role="1TJDcQ" to="tpck:gw2VY9q" resolve="BaseConcept" />
    <node concept="1TJgyj" id="38gGBrhh3ms" role="1TKVEi">
      <property role="20lmBu" value="aggregation" />
      <property role="20kJfa" value="units" />
      <property role="20lbJX" value="0..n" />
      <property role="IQ2ns" value="3607579524910560668" />
      <ref role="20lvS9" node="38gGBrhh3mn" resolve="CurrencyUnit" />
    </node>
  </node>
  <node concept="1TIwiD" id="38gGBrhh3mn">
    <property role="TrG5h" value="CurrencyUnit" />
    <property role="EcuMT" value="3607579524910560663" />
    <ref role="1TJDcQ" to="tpck:gw2VY9q" resolve="BaseConcept" />
    <node concept="PrWs8" id="38gGBrhh3mo" role="PzmwI">
      <ref role="PrY4T" to="tpck:h0TrEE$" resolve="INamedConcept" />
    </node>
  </node>
  <node concept="1TIwiD" id="3u6SZi0ypB3">
    <property role="TrG5h" value="CurrentStockPrice" />
    <property role="34LRSv" value="current stock price" />
    <property role="3GE5qa" value="stock" />
    <property role="EcuMT" value="4001135958233291203" />
    <ref role="1TJDcQ" to="tpee:fz3vP1J" resolve="Expression" />
    <node concept="1TJgyj" id="3u6SZi0G99E" role="1TKVEi">
      <property role="20lmBu" value="aggregation" />
      <property role="20kJfa" value="symbol" />
      <property role="20lbJX" value="1" />
      <property role="IQ2ns" value="4001135958235845226" />
      <ref role="20lvS9" node="3u6SZi0Er6a" resolve="StockSymbol" />
    </node>
  </node>
  <node concept="1TIwiD" id="3u6SZi0Er6a">
    <property role="3GE5qa" value="stock" />
    <property role="TrG5h" value="StockSymbol" />
    <property role="34LRSv" value="symbol" />
    <property role="EcuMT" value="4001135958235394442" />
    <ref role="1TJDcQ" to="tpck:gw2VY9q" resolve="BaseConcept" />
    <node concept="1TJgyi" id="3u6SZi0FULr" role="1TKVEl">
      <property role="TrG5h" value="symbol" />
      <property role="IQ2nx" value="4001135958235786331" />
      <ref role="AX2Wp" to="tpck:fKAOsGN" resolve="string" />
    </node>
  </node>
  <node concept="1TIwiD" id="3u6SZi0Gs6q">
    <property role="3GE5qa" value="stock" />
    <property role="TrG5h" value="MovingAverage" />
    <property role="34LRSv" value="moving average" />
    <property role="EcuMT" value="4001135958235922842" />
    <ref role="1TJDcQ" to="tpee:fz3vP1J" resolve="Expression" />
    <node concept="1TJgyj" id="3u6SZi0Gsrg" role="1TKVEi">
      <property role="20lmBu" value="aggregation" />
      <property role="20kJfa" value="symbol" />
      <property role="20lbJX" value="1" />
      <property role="IQ2ns" value="4001135958235924176" />
      <ref role="20lvS9" node="3u6SZi0Er6a" resolve="StockSymbol" />
    </node>
    <node concept="1TJgyi" id="3u6SZi0Gs6r" role="1TKVEl">
      <property role="TrG5h" value="period" />
      <property role="IQ2nx" value="4001135958235922843" />
      <ref role="AX2Wp" to="tpck:fKAQMTA" resolve="integer" />
    </node>
  </node>
</model>

