<?xml version="1.0" encoding="UTF-8"?>
<model ref="r:7757a4ec-c551-4194-a1b0-7ea4e576ea60(jetbrains.mps.execution.commands.behavior)">
  <persistence version="9" />
  <languages>
    <use id="af65afd8-f0dd-4942-87d9-63a55f2a9db1" name="jetbrains.mps.lang.behavior" version="0" />
    <devkit ref="fbc25dd2-5da4-483a-8b19-70928e1b62d7(jetbrains.mps.devkit.general-purpose)" />
  </languages>
  <imports>
    <import index="rzqf" ref="r:d78df0bb-be4f-4e0d-8142-c0b2df70a5a3(jetbrains.mps.execution.commands.structure)" />
    <import index="tp4h" ref="r:00000000-0000-4000-0000-011c8959036d(jetbrains.mps.baseLanguage.classifiers.behavior)" />
    <import index="tp4f" ref="r:00000000-0000-4000-0000-011c89590373(jetbrains.mps.baseLanguage.classifiers.structure)" />
    <import index="tpek" ref="r:00000000-0000-4000-0000-011c895902c0(jetbrains.mps.baseLanguage.behavior)" />
    <import index="tpee" ref="r:00000000-0000-4000-0000-011c895902ca(jetbrains.mps.baseLanguage.structure)" />
    <import index="i1mc" ref="r:59b8a6cf-a3a9-4109-98b7-d13bb426ef49(jetbrains.mps.execution.common.behavior)" />
    <import index="uu3z" ref="498d89d2-c2e9-11e2-ad49-6cf049e62fe5/java:com.intellij.execution.process(MPS.IDEA/)" />
    <import index="3v5a" ref="498d89d2-c2e9-11e2-ad49-6cf049e62fe5/java:com.intellij.execution(MPS.IDEA/)" />
    <import index="mhfm" ref="3f233e7f-b8a6-46d2-a57f-795d56775243/java:org.jetbrains.annotations(Annotations/)" />
    <import index="mhbf" ref="8865b7a8-5271-43d3-884c-6fd1d9cfdd34/java:org.jetbrains.mps.openapi.model(MPS.OpenAPI/)" />
    <import index="tpcu" ref="r:00000000-0000-4000-0000-011c89590282(jetbrains.mps.lang.core.behavior)" />
    <import index="id7i" ref="r:29a26f36-0627-4505-9c3e-faf17694979c(jetbrains.mps.execution.common.structure)" />
    <import index="tpd4" ref="r:00000000-0000-4000-0000-011c895902b4(jetbrains.mps.lang.typesystem.structure)" />
    <import index="tpce" ref="r:00000000-0000-4000-0000-011c89590292(jetbrains.mps.lang.structure.structure)" implicit="true" />
    <import index="tpck" ref="r:00000000-0000-4000-0000-011c89590288(jetbrains.mps.lang.core.structure)" implicit="true" />
    <import index="wyt6" ref="6354ebe7-c22a-4a0f-ac54-50b52ab9b065/java:java.lang(JDK/)" implicit="true" />
  </imports>
  <registry>
    <language id="af65afd8-f0dd-4942-87d9-63a55f2a9db1" name="jetbrains.mps.lang.behavior">
      <concept id="6496299201655527393" name="jetbrains.mps.lang.behavior.structure.LocalBehaviorMethodCall" flags="nn" index="BsUDl" />
      <concept id="1225194240794" name="jetbrains.mps.lang.behavior.structure.ConceptBehavior" flags="ng" index="13h7C7">
        <reference id="1225194240799" name="concept" index="13h7C2" />
        <child id="1225194240805" name="method" index="13h7CS" />
        <child id="1225194240801" name="constructor" index="13h7CW" />
      </concept>
      <concept id="1225194413805" name="jetbrains.mps.lang.behavior.structure.ConceptConstructorDeclaration" flags="in" index="13hLZK" />
      <concept id="1225194472830" name="jetbrains.mps.lang.behavior.structure.ConceptMethodDeclaration" flags="ng" index="13i0hz">
        <property id="5864038008284099149" name="isStatic" index="2Ki8OM" />
        <property id="1225194472833" name="isPrivate" index="13i0is" />
        <property id="1225194472832" name="isVirtual" index="13i0it" />
        <property id="1225194472834" name="isAbstract" index="13i0iv" />
        <reference id="1225194472831" name="overriddenMethod" index="13i0hy" />
      </concept>
      <concept id="1225194691553" name="jetbrains.mps.lang.behavior.structure.ThisNodeExpression" flags="nn" index="13iPFW" />
    </language>
    <language id="f3061a53-9226-4cc5-a443-f952ceaf5816" name="jetbrains.mps.baseLanguage">
      <concept id="4836112446988635817" name="jetbrains.mps.baseLanguage.structure.UndefinedType" flags="in" index="2jxLKc" />
      <concept id="1202948039474" name="jetbrains.mps.baseLanguage.structure.InstanceMethodCallOperation" flags="nn" index="liA8E" />
      <concept id="1188207840427" name="jetbrains.mps.baseLanguage.structure.AnnotationInstance" flags="nn" index="2AHcQZ">
        <reference id="1188208074048" name="annotation" index="2AI5Lk" />
      </concept>
      <concept id="1188208481402" name="jetbrains.mps.baseLanguage.structure.HasAnnotation" flags="ng" index="2AJDlI">
        <child id="1188208488637" name="annotation" index="2AJF6D" />
      </concept>
      <concept id="1197027756228" name="jetbrains.mps.baseLanguage.structure.DotExpression" flags="nn" index="2OqwBi">
        <child id="1197027771414" name="operand" index="2Oq$k0" />
        <child id="1197027833540" name="operation" index="2OqNvi" />
      </concept>
      <concept id="1145552977093" name="jetbrains.mps.baseLanguage.structure.GenericNewExpression" flags="nn" index="2ShNRf">
        <child id="1145553007750" name="creator" index="2ShVmc" />
      </concept>
      <concept id="1137021947720" name="jetbrains.mps.baseLanguage.structure.ConceptFunction" flags="in" index="2VMwT0">
        <child id="1137022507850" name="body" index="2VODD2" />
      </concept>
      <concept id="1070475926800" name="jetbrains.mps.baseLanguage.structure.StringLiteral" flags="nn" index="Xl_RD">
        <property id="1070475926801" name="value" index="Xl_RC" />
      </concept>
      <concept id="1070534058343" name="jetbrains.mps.baseLanguage.structure.NullLiteral" flags="nn" index="10Nm6u" />
      <concept id="1070534644030" name="jetbrains.mps.baseLanguage.structure.BooleanType" flags="in" index="10P_77" />
      <concept id="1068431474542" name="jetbrains.mps.baseLanguage.structure.VariableDeclaration" flags="ng" index="33uBYm">
        <child id="1068431790190" name="initializer" index="33vP2m" />
      </concept>
      <concept id="1068498886296" name="jetbrains.mps.baseLanguage.structure.VariableReference" flags="nn" index="37vLTw">
        <reference id="1068581517664" name="variableDeclaration" index="3cqZAo" />
      </concept>
      <concept id="1068498886292" name="jetbrains.mps.baseLanguage.structure.ParameterDeclaration" flags="ir" index="37vLTG" />
      <concept id="1225271177708" name="jetbrains.mps.baseLanguage.structure.StringType" flags="in" index="17QB3L" />
      <concept id="1225271283259" name="jetbrains.mps.baseLanguage.structure.NPEEqualsExpression" flags="nn" index="17R0WA" />
      <concept id="4972933694980447171" name="jetbrains.mps.baseLanguage.structure.BaseVariableDeclaration" flags="ng" index="19Szcq">
        <child id="5680397130376446158" name="type" index="1tU5fm" />
      </concept>
      <concept id="1068580123132" name="jetbrains.mps.baseLanguage.structure.BaseMethodDeclaration" flags="ng" index="3clF44">
        <child id="1068580123133" name="returnType" index="3clF45" />
        <child id="1068580123134" name="parameter" index="3clF46" />
        <child id="1068580123135" name="body" index="3clF47" />
      </concept>
      <concept id="1068580123152" name="jetbrains.mps.baseLanguage.structure.EqualsExpression" flags="nn" index="3clFbC" />
      <concept id="1068580123155" name="jetbrains.mps.baseLanguage.structure.ExpressionStatement" flags="nn" index="3clFbF">
        <child id="1068580123156" name="expression" index="3clFbG" />
      </concept>
      <concept id="1068580123159" name="jetbrains.mps.baseLanguage.structure.IfStatement" flags="nn" index="3clFbJ">
        <child id="1068580123160" name="condition" index="3clFbw" />
        <child id="1068580123161" name="ifTrue" index="3clFbx" />
      </concept>
      <concept id="1068580123136" name="jetbrains.mps.baseLanguage.structure.StatementList" flags="sn" stub="5293379017992965193" index="3clFbS">
        <child id="1068581517665" name="statement" index="3cqZAp" />
      </concept>
      <concept id="1068580123137" name="jetbrains.mps.baseLanguage.structure.BooleanConstant" flags="nn" index="3clFbT">
        <property id="1068580123138" name="value" index="3clFbU" />
      </concept>
      <concept id="1068580320020" name="jetbrains.mps.baseLanguage.structure.IntegerConstant" flags="nn" index="3cmrfG">
        <property id="1068580320021" name="value" index="3cmrfH" />
      </concept>
      <concept id="1068581242875" name="jetbrains.mps.baseLanguage.structure.PlusExpression" flags="nn" index="3cpWs3" />
      <concept id="1068581242878" name="jetbrains.mps.baseLanguage.structure.ReturnStatement" flags="nn" index="3cpWs6">
        <child id="1068581517676" name="expression" index="3cqZAk" />
      </concept>
      <concept id="1068581242864" name="jetbrains.mps.baseLanguage.structure.LocalVariableDeclarationStatement" flags="nn" index="3cpWs8">
        <child id="1068581242865" name="localVariableDeclaration" index="3cpWs9" />
      </concept>
      <concept id="1068581242863" name="jetbrains.mps.baseLanguage.structure.LocalVariableDeclaration" flags="nr" index="3cpWsn" />
      <concept id="1068581517677" name="jetbrains.mps.baseLanguage.structure.VoidType" flags="in" index="3cqZAl" />
      <concept id="1081516740877" name="jetbrains.mps.baseLanguage.structure.NotExpression" flags="nn" index="3fqX7Q">
        <child id="1081516765348" name="expression" index="3fr31v" />
      </concept>
      <concept id="1204053956946" name="jetbrains.mps.baseLanguage.structure.IMethodCall" flags="ng" index="1ndlxa">
        <reference id="1068499141037" name="baseMethodDeclaration" index="37wK5l" />
        <child id="1068499141038" name="actualArgument" index="37wK5m" />
      </concept>
      <concept id="1107535904670" name="jetbrains.mps.baseLanguage.structure.ClassifierType" flags="in" index="3uibUv">
        <reference id="1107535924139" name="classifier" index="3uigEE" />
      </concept>
      <concept id="1081773326031" name="jetbrains.mps.baseLanguage.structure.BinaryOperation" flags="nn" index="3uHJSO">
        <child id="1081773367579" name="rightExpression" index="3uHU7w" />
        <child id="1081773367580" name="leftExpression" index="3uHU7B" />
      </concept>
      <concept id="1178549954367" name="jetbrains.mps.baseLanguage.structure.IVisible" flags="ng" index="1B3ioH">
        <child id="1178549979242" name="visibility" index="1B3o_S" />
      </concept>
      <concept id="6329021646629104957" name="jetbrains.mps.baseLanguage.structure.TextCommentPart" flags="nn" index="3SKdUq">
        <property id="6329021646629104958" name="text" index="3SKdUp" />
      </concept>
      <concept id="6329021646629104954" name="jetbrains.mps.baseLanguage.structure.SingleLineComment" flags="nn" index="3SKdUt">
        <child id="6329021646629175155" name="commentPart" index="3SKWNk" />
      </concept>
      <concept id="1146644602865" name="jetbrains.mps.baseLanguage.structure.PublicVisibility" flags="nn" index="3Tm1VV" />
      <concept id="1146644623116" name="jetbrains.mps.baseLanguage.structure.PrivateVisibility" flags="nn" index="3Tm6S6" />
    </language>
    <language id="fd392034-7849-419d-9071-12563d152375" name="jetbrains.mps.baseLanguage.closures">
      <concept id="1199569711397" name="jetbrains.mps.baseLanguage.closures.structure.ClosureLiteral" flags="nn" index="1bVj0M">
        <child id="1199569906740" name="parameter" index="1bW2Oz" />
        <child id="1199569916463" name="body" index="1bW5cS" />
      </concept>
    </language>
    <language id="3a13115c-633c-4c5c-bbcc-75c4219e9555" name="jetbrains.mps.lang.quotation">
      <concept id="1196350785113" name="jetbrains.mps.lang.quotation.structure.Quotation" flags="nn" index="2c44tf">
        <child id="1196350785114" name="quotedNode" index="2c44tc" />
      </concept>
      <concept id="5455284157994012186" name="jetbrains.mps.lang.quotation.structure.NodeBuilderInitLink" flags="ng" index="2pIpSj">
        <reference id="5455284157994012188" name="link" index="2pIpSl" />
      </concept>
      <concept id="5455284157993911097" name="jetbrains.mps.lang.quotation.structure.NodeBuilderInitPart" flags="ng" index="2pJxcK">
        <child id="5455284157993911094" name="expression" index="2pJxcZ" />
      </concept>
      <concept id="5455284157993863837" name="jetbrains.mps.lang.quotation.structure.NodeBuilder" flags="nn" index="2pJPEk">
        <child id="5455284157993863838" name="quotedNode" index="2pJPEn" />
      </concept>
      <concept id="5455284157993863840" name="jetbrains.mps.lang.quotation.structure.NodeBuilderNode" flags="nn" index="2pJPED">
        <reference id="5455284157993910961" name="concept" index="2pJxaS" />
        <child id="5455284157993911099" name="values" index="2pJxcM" />
      </concept>
      <concept id="8182547171709738802" name="jetbrains.mps.lang.quotation.structure.NodeBuilderList" flags="nn" index="36be1Y">
        <child id="8182547171709738803" name="nodes" index="36be1Z" />
      </concept>
      <concept id="8182547171709752110" name="jetbrains.mps.lang.quotation.structure.NodeBuilderExpression" flags="nn" index="36biLy">
        <child id="8182547171709752112" name="expression" index="36biLW" />
      </concept>
      <concept id="8182547171709614739" name="jetbrains.mps.lang.quotation.structure.NodeBuilderRef" flags="nn" index="36bGnv">
        <reference id="8182547171709614741" name="target" index="36bGnp" />
      </concept>
    </language>
    <language id="7866978e-a0f0-4cc7-81bc-4d213d9375e1" name="jetbrains.mps.lang.smodel">
      <concept id="1177026924588" name="jetbrains.mps.lang.smodel.structure.RefConcept_Reference" flags="nn" index="chp4Y">
        <reference id="1177026940964" name="conceptDeclaration" index="cht4Q" />
      </concept>
      <concept id="1138411891628" name="jetbrains.mps.lang.smodel.structure.SNodeOperation" flags="nn" index="eCIE_">
        <child id="1144104376918" name="parameter" index="1xVPHs" />
      </concept>
      <concept id="1140725362528" name="jetbrains.mps.lang.smodel.structure.Link_SetTargetOperation" flags="nn" index="2oxUTD">
        <child id="1140725362529" name="linkTarget" index="2oxUTC" />
      </concept>
      <concept id="1179409122411" name="jetbrains.mps.lang.smodel.structure.Node_ConceptMethodCall" flags="nn" index="2qgKlT" />
      <concept id="1138661924179" name="jetbrains.mps.lang.smodel.structure.Property_SetOperation" flags="nn" index="tyxLq">
        <child id="1138662048170" name="value" index="tz02z" />
      </concept>
      <concept id="1138757581985" name="jetbrains.mps.lang.smodel.structure.Link_SetNewChildOperation" flags="nn" index="zfrQC">
        <reference id="1139880128956" name="concept" index="1A9B2P" />
      </concept>
      <concept id="2396822768958367367" name="jetbrains.mps.lang.smodel.structure.AbstractTypeCastExpression" flags="nn" index="$5XWr">
        <reference id="6733348108486823428" name="concept" index="1m5ApE" />
        <child id="6733348108486823193" name="leftExpression" index="1m5AlR" />
      </concept>
      <concept id="1145383075378" name="jetbrains.mps.lang.smodel.structure.SNodeListType" flags="in" index="2I9FWS">
        <reference id="1145383142433" name="elementConcept" index="2I9WkF" />
      </concept>
      <concept id="1145404486709" name="jetbrains.mps.lang.smodel.structure.SemanticDowncastExpression" flags="nn" index="2JrnkZ">
        <child id="1145404616321" name="leftExpression" index="2JrQYb" />
      </concept>
      <concept id="1145567426890" name="jetbrains.mps.lang.smodel.structure.SNodeListCreator" flags="nn" index="2T8Vx0">
        <child id="1145567471833" name="createdType" index="2T96Bj" />
      </concept>
      <concept id="1171407110247" name="jetbrains.mps.lang.smodel.structure.Node_GetAncestorOperation" flags="nn" index="2Xjw5R" />
      <concept id="1172008320231" name="jetbrains.mps.lang.smodel.structure.Node_IsNotNullOperation" flags="nn" index="3x8VRR" />
      <concept id="1144101972840" name="jetbrains.mps.lang.smodel.structure.OperationParm_Concept" flags="ng" index="1xMEDy">
        <child id="1207343664468" name="conceptArgument" index="ri$Ld" />
      </concept>
      <concept id="1180636770613" name="jetbrains.mps.lang.smodel.structure.SNodeCreator" flags="nn" index="3zrR0B">
        <child id="1180636770616" name="createdType" index="3zrR0E" />
      </concept>
      <concept id="1172323065820" name="jetbrains.mps.lang.smodel.structure.Node_GetConceptOperation" flags="nn" index="3NT_Vc" />
      <concept id="1140137987495" name="jetbrains.mps.lang.smodel.structure.SNodeTypeCastExpression" flags="nn" index="1PxgMI" />
      <concept id="1138055754698" name="jetbrains.mps.lang.smodel.structure.SNodeType" flags="in" index="3Tqbb2">
        <reference id="1138405853777" name="concept" index="ehGHo" />
      </concept>
      <concept id="1138056022639" name="jetbrains.mps.lang.smodel.structure.SPropertyAccess" flags="nn" index="3TrcHB">
        <reference id="1138056395725" name="property" index="3TsBF5" />
      </concept>
      <concept id="1138056143562" name="jetbrains.mps.lang.smodel.structure.SLinkAccess" flags="nn" index="3TrEf2">
        <reference id="1138056516764" name="link" index="3Tt5mk" />
      </concept>
      <concept id="1138056282393" name="jetbrains.mps.lang.smodel.structure.SLinkListAccess" flags="nn" index="3Tsc0h">
        <reference id="1138056546658" name="link" index="3TtcxE" />
      </concept>
      <concept id="1172424058054" name="jetbrains.mps.lang.smodel.structure.ConceptRefExpression" flags="nn" index="3TUQnm">
        <reference id="1172424100906" name="conceptDeclaration" index="3TV0OU" />
      </concept>
    </language>
    <language id="ceab5195-25ea-4f22-9b92-103b95ca8c0c" name="jetbrains.mps.lang.core">
      <concept id="1133920641626" name="jetbrains.mps.lang.core.structure.BaseConcept" flags="ng" index="2VYdi">
        <property id="1193676396447" name="virtualPackage" index="3GE5qa" />
      </concept>
      <concept id="1169194658468" name="jetbrains.mps.lang.core.structure.INamedConcept" flags="ng" index="TrEIO">
        <property id="1169194664001" name="name" index="TrG5h" />
      </concept>
    </language>
    <language id="83888646-71ce-4f1c-9c53-c54016f6ad4f" name="jetbrains.mps.baseLanguage.collections">
      <concept id="1204796164442" name="jetbrains.mps.baseLanguage.collections.structure.InternalSequenceOperation" flags="nn" index="23sCx2">
        <child id="1204796294226" name="closure" index="23t8la" />
      </concept>
      <concept id="1176903168877" name="jetbrains.mps.baseLanguage.collections.structure.UnionOperation" flags="nn" index="4Tj9Z" />
      <concept id="1176906603202" name="jetbrains.mps.baseLanguage.collections.structure.BinaryOperation" flags="nn" index="56pJg">
        <child id="1176906787974" name="rightExpression" index="576Qk" />
      </concept>
      <concept id="1226511727824" name="jetbrains.mps.baseLanguage.collections.structure.SetType" flags="in" index="2hMVRd">
        <child id="1226511765987" name="elementType" index="2hN53Y" />
      </concept>
      <concept id="1226566855640" name="jetbrains.mps.baseLanguage.collections.structure.AddSetElementOperation" flags="nn" index="2l5eF5">
        <child id="1226567214363" name="argument" index="2l6Ag6" />
      </concept>
      <concept id="1151689724996" name="jetbrains.mps.baseLanguage.collections.structure.SequenceType" flags="in" index="A3Dl8">
        <child id="1151689745422" name="elementType" index="A3Ik2" />
      </concept>
      <concept id="1151702311717" name="jetbrains.mps.baseLanguage.collections.structure.ToListOperation" flags="nn" index="ANE8D" />
      <concept id="1235573135402" name="jetbrains.mps.baseLanguage.collections.structure.SingletonSequenceCreator" flags="nn" index="2HTt$P">
        <child id="1235573175711" name="elementType" index="2HTBi0" />
        <child id="1235573187520" name="singletonValue" index="2HTEbv" />
      </concept>
      <concept id="1237721394592" name="jetbrains.mps.baseLanguage.collections.structure.AbstractContainerCreator" flags="nn" index="HWqM0">
        <child id="1237721435808" name="initValue" index="HW$Y0" />
        <child id="1237721435807" name="elementType" index="HW$YZ" />
      </concept>
      <concept id="1203518072036" name="jetbrains.mps.baseLanguage.collections.structure.SmartClosureParameterDeclaration" flags="ig" index="Rh6nW" />
      <concept id="1160600644654" name="jetbrains.mps.baseLanguage.collections.structure.ListCreatorWithInit" flags="nn" index="Tc6Ow" />
      <concept id="1201792049884" name="jetbrains.mps.baseLanguage.collections.structure.TranslateOperation" flags="nn" index="3goQfb" />
      <concept id="1225727723840" name="jetbrains.mps.baseLanguage.collections.structure.FindFirstOperation" flags="nn" index="1z4cxt" />
      <concept id="1202120902084" name="jetbrains.mps.baseLanguage.collections.structure.WhereOperation" flags="nn" index="3zZkjj" />
      <concept id="1202128969694" name="jetbrains.mps.baseLanguage.collections.structure.SelectOperation" flags="nn" index="3$u5V9" />
      <concept id="1178894719932" name="jetbrains.mps.baseLanguage.collections.structure.DistinctOperation" flags="nn" index="1VAtEI" />
    </language>
  </registry>
  <node concept="13h7C7" id="JzCdmU6yMZ">
    <property role="3GE5qa" value="command" />
    <ref role="13h7C2" to="rzqf:JzCdmU6yJm" resolve="CommandType" />
    <node concept="13i0hz" id="JzCdmU6yN0" role="13h7CS">
      <property role="13i0is" value="false" />
      <property role="TrG5h" value="getMembers" />
      <ref role="13i0hy" to="tp4h:hEwINC$" resolve="getMembers" />
      <node concept="3clFbS" id="JzCdmU6yN1" role="3clF47">
        <node concept="3cpWs6" id="JzCdmU6yN2" role="3cqZAp">
          <node concept="2OqwBi" id="JzCdmU6yN3" role="3cqZAk">
            <node concept="2OqwBi" id="JzCdmU6yN4" role="2Oq$k0">
              <node concept="13iPFW" id="JzCdmU6yN5" role="2Oq$k0" />
              <node concept="3TrEf2" id="JzCdmU6yN6" role="2OqNvi">
                <ref role="3Tt5mk" to="rzqf:JzCdmU6yJn" />
              </node>
            </node>
            <node concept="2qgKlT" id="JzCdmU6yN7" role="2OqNvi">
              <ref role="37wK5l" to="tp4h:hEwJink" resolve="getMembers" />
              <node concept="37vLTw" id="2BHiRxgmx3y" role="37wK5m">
                <ref role="3cqZAo" node="JzCdmU6yN9" resolve="contextNode" />
              </node>
            </node>
          </node>
        </node>
      </node>
      <node concept="37vLTG" id="JzCdmU6yN9" role="3clF46">
        <property role="TrG5h" value="contextNode" />
        <node concept="3Tqbb2" id="JzCdmU6yNa" role="1tU5fm" />
      </node>
      <node concept="2I9FWS" id="JzCdmU6yNb" role="3clF45">
        <ref role="2I9WkF" to="tp4f:hyWqYN0" resolve="IMember" />
      </node>
      <node concept="3Tm1VV" id="JzCdmU6yNc" role="1B3o_S" />
    </node>
    <node concept="13hLZK" id="JzCdmU6yNd" role="13h7CW">
      <node concept="3clFbS" id="JzCdmU6yNe" role="2VODD2" />
    </node>
  </node>
  <node concept="13h7C7" id="JzCdmU6yNf">
    <property role="3GE5qa" value="command" />
    <ref role="13h7C2" to="rzqf:JzCdmU6yJy" resolve="ExplicitCommandParameterDeclaration" />
    <node concept="13i0hz" id="7c4O8d8qgsC" role="13h7CS">
      <property role="TrG5h" value="isRequired" />
      <ref role="13i0hy" node="7c4O8d8q0tV" resolve="isRequired" />
      <node concept="3clFbS" id="7c4O8d8qgsF" role="3clF47">
        <node concept="3cpWs6" id="JzCdmU6yNM" role="3cqZAp">
          <node concept="2OqwBi" id="JzCdmU6yNN" role="3cqZAk">
            <node concept="13iPFW" id="JzCdmU6yNO" role="2Oq$k0" />
            <node concept="3TrcHB" id="JzCdmU6yNP" role="2OqNvi">
              <ref role="3TsBF5" to="rzqf:JzCdmU6yJz" resolve="isRequired" />
            </node>
          </node>
        </node>
      </node>
      <node concept="10P_77" id="7c4O8d8qjr_" role="3clF45" />
      <node concept="3Tm1VV" id="7c4O8d8qjrA" role="1B3o_S" />
    </node>
    <node concept="13i0hz" id="7mEQKPeolUr" role="13h7CS">
      <property role="13i0iv" value="false" />
      <property role="TrG5h" value="generateField" />
      <property role="13i0it" value="false" />
      <ref role="13i0hy" node="7mEQKPeolUk" resolve="generateField" />
      <node concept="3Tm1VV" id="7mEQKPeolUs" role="1B3o_S" />
      <node concept="3clFbS" id="7mEQKPeolUt" role="3clF47">
        <node concept="3clFbF" id="7mEQKPeolUz" role="3cqZAp">
          <node concept="3fqX7Q" id="7mEQKPeolUR" role="3clFbG">
            <node concept="BsUDl" id="7c4O8d8qm1W" role="3fr31v">
              <ref role="37wK5l" node="7c4O8d8q0tV" resolve="isRequired" />
            </node>
          </node>
        </node>
      </node>
      <node concept="10P_77" id="7mEQKPeolUu" role="3clF45" />
    </node>
    <node concept="13i0hz" id="JzCdmU6yNQ" role="13h7CS">
      <property role="13i0is" value="false" />
      <property role="TrG5h" value="isInitializable" />
      <property role="13i0it" value="true" />
      <ref role="13i0hy" to="tpek:hEwJfMK" resolve="isInitializable" />
      <node concept="3Tm1VV" id="JzCdmU6yNR" role="1B3o_S" />
      <node concept="3clFbS" id="JzCdmU6yNS" role="3clF47">
        <node concept="3clFbF" id="JzCdmU6yNT" role="3cqZAp">
          <node concept="3fqX7Q" id="JzCdmU6yNU" role="3clFbG">
            <node concept="BsUDl" id="7c4O8d8qm2p" role="3fr31v">
              <ref role="37wK5l" node="7c4O8d8q0tV" resolve="isRequired" />
            </node>
          </node>
        </node>
      </node>
      <node concept="10P_77" id="JzCdmU6yNW" role="3clF45" />
    </node>
    <node concept="13hLZK" id="JzCdmU6yOn" role="13h7CW">
      <node concept="3clFbS" id="JzCdmU6yOo" role="2VODD2" />
    </node>
  </node>
  <node concept="13h7C7" id="JzCdmU6yOp">
    <property role="3GE5qa" value="command" />
    <ref role="13h7C2" to="rzqf:JzCdmU6yJB" resolve="CommandMethod" />
    <node concept="13hLZK" id="JzCdmU6yOq" role="13h7CW">
      <node concept="3clFbS" id="JzCdmU6yOr" role="2VODD2">
        <node concept="3clFbF" id="JzCdmU6yOs" role="3cqZAp">
          <node concept="2OqwBi" id="JzCdmU6yOt" role="3clFbG">
            <node concept="2OqwBi" id="JzCdmU6yOu" role="2Oq$k0">
              <node concept="13iPFW" id="JzCdmU6yOv" role="2Oq$k0" />
              <node concept="3TrEf2" id="JzCdmU6yOw" role="2OqNvi">
                <ref role="3Tt5mk" to="tpee:h9B3oxE" />
              </node>
            </node>
            <node concept="zfrQC" id="JzCdmU6yOx" role="2OqNvi">
              <ref role="1A9B2P" to="tpee:gFTm6Wc" resolve="PrivateVisibility" />
            </node>
          </node>
        </node>
        <node concept="3clFbF" id="JzCdmU6yOy" role="3cqZAp">
          <node concept="2OqwBi" id="JzCdmU6yOz" role="3clFbG">
            <node concept="tyxLq" id="2wdLO7KgV0r" role="2OqNvi">
              <node concept="3clFbT" id="2wdLO7KgV0s" role="tz02z">
                <property role="3clFbU" value="false" />
              </node>
            </node>
            <node concept="2OqwBi" id="2wdLO7KgUZo" role="2Oq$k0">
              <node concept="3TrcHB" id="2wdLO7KgUZp" role="2OqNvi">
                <ref role="3TsBF5" to="tpce:40UcGlRb7V2" resolve="abstract" />
              </node>
              <node concept="2OqwBi" id="2wdLO7KgUZq" role="2Oq$k0">
                <node concept="3NT_Vc" id="2wdLO7KgUZr" role="2OqNvi" />
                <node concept="13iPFW" id="2wdLO7KgUZs" role="2Oq$k0" />
              </node>
            </node>
          </node>
        </node>
      </node>
    </node>
  </node>
  <node concept="13h7C7" id="JzCdmU6yOD">
    <property role="3GE5qa" value="command" />
    <ref role="13h7C2" to="rzqf:JzCdmU6yJC" resolve="CommandDeclaration" />
    <node concept="13i0hz" id="JzCdmU6yOQ" role="13h7CS">
      <property role="TrG5h" value="isDebuggable" />
      <node concept="3Tm1VV" id="JzCdmU6yOR" role="1B3o_S" />
      <node concept="10P_77" id="JzCdmU6yOS" role="3clF45" />
      <node concept="3clFbS" id="JzCdmU6yOT" role="3clF47">
        <node concept="3clFbF" id="JzCdmU6yOU" role="3cqZAp">
          <node concept="2OqwBi" id="JzCdmU6yOV" role="3clFbG">
            <node concept="2OqwBi" id="JzCdmU6yOW" role="2Oq$k0">
              <node concept="13iPFW" id="JzCdmU6yOX" role="2Oq$k0" />
              <node concept="3TrEf2" id="5HAZRDAaglT" role="2OqNvi">
                <ref role="3Tt5mk" to="rzqf:5HAZRDA9XoM" />
              </node>
            </node>
            <node concept="3x8VRR" id="JzCdmU6yOZ" role="2OqNvi" />
          </node>
        </node>
      </node>
    </node>
    <node concept="13i0hz" id="JzCdmU6yP0" role="13h7CS">
      <property role="13i0iv" value="false" />
      <property role="TrG5h" value="getSuffix" />
      <property role="13i0it" value="true" />
      <ref role="13i0hy" to="i1mc:O$iR4JBsSb" resolve="getSuffix" />
      <node concept="3Tm1VV" id="JzCdmU6yP1" role="1B3o_S" />
      <node concept="2AHcQZ" id="JzCdmU6yP2" role="2AJF6D">
        <ref role="2AI5Lk" to="mhfm:~NonNls" resolve="NonNls" />
      </node>
      <node concept="3clFbS" id="JzCdmU6yP3" role="3clF47">
        <node concept="3clFbF" id="JzCdmU6yP4" role="3cqZAp">
          <node concept="Xl_RD" id="JzCdmU6yP5" role="3clFbG">
            <property role="Xl_RC" value="Command" />
          </node>
        </node>
      </node>
      <node concept="17QB3L" id="JzCdmU6yP6" role="3clF45" />
    </node>
    <node concept="13hLZK" id="JzCdmU6yP7" role="13h7CW">
      <node concept="3clFbS" id="JzCdmU6yP8" role="2VODD2">
        <node concept="3clFbF" id="7mEQKPeoyf9" role="3cqZAp">
          <node concept="2OqwBi" id="7mEQKPeoyfn" role="3clFbG">
            <node concept="2OqwBi" id="7mEQKPeoyfi" role="2Oq$k0">
              <node concept="13iPFW" id="7mEQKPeoyfa" role="2Oq$k0" />
              <node concept="3TrEf2" id="7mEQKPeoyfm" role="2OqNvi">
                <ref role="3Tt5mk" to="rzqf:7mEQKPeoyeU" />
              </node>
            </node>
            <node concept="2oxUTD" id="7mEQKPeoyfr" role="2OqNvi">
              <node concept="2ShNRf" id="7mEQKPeoyfu" role="2oxUTC">
                <node concept="3zrR0B" id="7mEQKPeo$lr" role="2ShVmc">
                  <node concept="3Tqbb2" id="7mEQKPeo$ls" role="3zrR0E">
                    <ref role="ehGHo" to="rzqf:7mEQKPeoqlQ" resolve="DebuggerSettingsCommandParameterDeclaration" />
                  </node>
                </node>
              </node>
            </node>
          </node>
        </node>
      </node>
    </node>
    <node concept="13i0hz" id="JzCdmU6yP9" role="13h7CS">
      <property role="13i0is" value="false" />
      <property role="TrG5h" value="createType" />
      <property role="13i0it" value="true" />
      <ref role="13i0hy" to="tp4h:hEwJimy" resolve="createType" />
      <node concept="3Tm1VV" id="JzCdmU6yPa" role="1B3o_S" />
      <node concept="3clFbS" id="JzCdmU6yPb" role="3clF47">
        <node concept="3clFbF" id="JzCdmU6yPc" role="3cqZAp">
          <node concept="2pJPEk" id="2F8bNQrKCB" role="3clFbG">
            <node concept="2pJPED" id="2F8bNQrKC$" role="2pJPEn">
              <ref role="2pJxaS" to="rzqf:JzCdmU6yJm" resolve="CommandType" />
              <node concept="2pIpSj" id="2F8bNQrKC_" role="2pJxcM">
                <ref role="2pIpSl" to="rzqf:JzCdmU6yJn" />
                <node concept="36biLy" id="2F8bNQrKCA" role="2pJxcZ">
                  <node concept="13iPFW" id="JzCdmU6yPi" role="36biLW" />
                </node>
              </node>
            </node>
          </node>
        </node>
      </node>
      <node concept="3Tqbb2" id="JzCdmU6yPj" role="3clF45">
        <ref role="ehGHo" to="tp4f:hyWtXx5" resolve="BaseClassifierType" />
      </node>
    </node>
    <node concept="13i0hz" id="5keEkmeCrcX" role="13h7CS">
      <property role="TrG5h" value="getDistinctFieldParameters" />
      <node concept="3Tm1VV" id="5keEkmeCrcY" role="1B3o_S" />
      <node concept="2I9FWS" id="5keEkmeCrd1" role="3clF45">
        <ref role="2I9WkF" to="rzqf:6mJVBGGsi5o" resolve="CommandParameterDeclaration" />
      </node>
      <node concept="3clFbS" id="5keEkmeCrd0" role="3clF47">
        <node concept="3SKdUt" id="5keEkmeCreE" role="3cqZAp">
          <node concept="3SKdUq" id="5keEkmeCreF" role="3SKWNk">
            <property role="3SKdUp" value="we get all parameters generated into fields and select a list with uniquie names" />
          </node>
        </node>
        <node concept="3cpWs8" id="5keEkmeCrda" role="3cqZAp">
          <node concept="3cpWsn" id="5keEkmeCrdb" role="3cpWs9">
            <property role="TrG5h" value="parameterDeclarations" />
            <node concept="A3Dl8" id="5keEkmeCrdc" role="1tU5fm">
              <node concept="3Tqbb2" id="5keEkmeCrdd" role="A3Ik2">
                <ref role="ehGHo" to="rzqf:6mJVBGGsi5o" resolve="CommandParameterDeclaration" />
              </node>
            </node>
            <node concept="BsUDl" id="3gpm$NHlR6i" role="33vP2m">
              <ref role="37wK5l" node="3gpm$NHlR5N" resolve="getFieldParameters" />
            </node>
          </node>
        </node>
        <node concept="3cpWs8" id="5keEkmeCrd_" role="3cqZAp">
          <node concept="3cpWsn" id="5keEkmeCrdA" role="3cpWs9">
            <property role="TrG5h" value="fieldNames" />
            <node concept="A3Dl8" id="5keEkmeCrdB" role="1tU5fm">
              <node concept="17QB3L" id="5keEkmeCrdC" role="A3Ik2" />
            </node>
            <node concept="2OqwBi" id="5keEkmeCrdD" role="33vP2m">
              <node concept="2OqwBi" id="5keEkmeCrdE" role="2Oq$k0">
                <node concept="37vLTw" id="3GM_nagTA3s" role="2Oq$k0">
                  <ref role="3cqZAo" node="5keEkmeCrdb" resolve="parameterDeclarations" />
                </node>
                <node concept="3$u5V9" id="5keEkmeCrdG" role="2OqNvi">
                  <node concept="1bVj0M" id="5keEkmeCrdH" role="23t8la">
                    <node concept="3clFbS" id="5keEkmeCrdI" role="1bW5cS">
                      <node concept="3clFbF" id="5keEkmeCrdJ" role="3cqZAp">
                        <node concept="2OqwBi" id="5keEkmeCrdK" role="3clFbG">
                          <node concept="37vLTw" id="2BHiRxgmhDi" role="2Oq$k0">
                            <ref role="3cqZAo" node="5keEkmeCrdN" resolve="it" />
                          </node>
                          <node concept="2qgKlT" id="5keEkmeCrdM" role="2OqNvi">
                            <ref role="37wK5l" node="6mJVBGGspQq" resolve="getFieldName" />
                          </node>
                        </node>
                      </node>
                    </node>
                    <node concept="Rh6nW" id="5keEkmeCrdN" role="1bW2Oz">
                      <property role="TrG5h" value="it" />
                      <node concept="2jxLKc" id="5keEkmeCrdO" role="1tU5fm" />
                    </node>
                  </node>
                </node>
              </node>
              <node concept="1VAtEI" id="5keEkmeCrdP" role="2OqNvi" />
            </node>
          </node>
        </node>
        <node concept="3clFbF" id="5keEkmeCrdQ" role="3cqZAp">
          <node concept="2OqwBi" id="5keEkmeCrey" role="3clFbG">
            <node concept="2OqwBi" id="5keEkmeCrdR" role="2Oq$k0">
              <node concept="37vLTw" id="3GM_nagTvFU" role="2Oq$k0">
                <ref role="3cqZAo" node="5keEkmeCrdA" resolve="fieldNames" />
              </node>
              <node concept="3goQfb" id="5keEkmeCrdT" role="2OqNvi">
                <node concept="1bVj0M" id="5keEkmeCrdU" role="23t8la">
                  <node concept="3clFbS" id="5keEkmeCrdV" role="1bW5cS">
                    <node concept="3cpWs8" id="5keEkmeCrdW" role="3cqZAp">
                      <node concept="3cpWsn" id="5keEkmeCrdX" role="3cpWs9">
                        <property role="TrG5h" value="first" />
                        <node concept="3Tqbb2" id="5keEkmeCrdY" role="1tU5fm">
                          <ref role="ehGHo" to="rzqf:6mJVBGGsi5o" resolve="CommandParameterDeclaration" />
                        </node>
                        <node concept="2OqwBi" id="5keEkmeCrdZ" role="33vP2m">
                          <node concept="37vLTw" id="3GM_nagTueD" role="2Oq$k0">
                            <ref role="3cqZAo" node="5keEkmeCrdb" resolve="parameterDeclarations" />
                          </node>
                          <node concept="1z4cxt" id="5keEkmeCre1" role="2OqNvi">
                            <node concept="1bVj0M" id="5keEkmeCre2" role="23t8la">
                              <node concept="3clFbS" id="5keEkmeCre3" role="1bW5cS">
                                <node concept="3clFbF" id="5keEkmeCre4" role="3cqZAp">
                                  <node concept="17R0WA" id="5keEkmeCre5" role="3clFbG">
                                    <node concept="37vLTw" id="2BHiRxgmgmy" role="3uHU7w">
                                      <ref role="3cqZAo" node="5keEkmeCreq" resolve="it" />
                                    </node>
                                    <node concept="2OqwBi" id="5keEkmeCre7" role="3uHU7B">
                                      <node concept="37vLTw" id="2BHiRxgmzqf" role="2Oq$k0">
                                        <ref role="3cqZAo" node="5keEkmeCrea" resolve="decl" />
                                      </node>
                                      <node concept="2qgKlT" id="5keEkmeCre9" role="2OqNvi">
                                        <ref role="37wK5l" node="6mJVBGGspQq" resolve="getFieldName" />
                                      </node>
                                    </node>
                                  </node>
                                </node>
                              </node>
                              <node concept="Rh6nW" id="5keEkmeCrea" role="1bW2Oz">
                                <property role="TrG5h" value="decl" />
                                <node concept="2jxLKc" id="5keEkmeCreb" role="1tU5fm" />
                              </node>
                            </node>
                          </node>
                        </node>
                      </node>
                    </node>
                    <node concept="3clFbJ" id="5keEkmeCrec" role="3cqZAp">
                      <node concept="3clFbS" id="5keEkmeCred" role="3clFbx">
                        <node concept="3cpWs6" id="5keEkmeCree" role="3cqZAp">
                          <node concept="2ShNRf" id="5keEkmeCref" role="3cqZAk">
                            <node concept="2T8Vx0" id="5keEkmeCreg" role="2ShVmc">
                              <node concept="2I9FWS" id="5keEkmeCreh" role="2T96Bj">
                                <ref role="2I9WkF" to="rzqf:6mJVBGGsi5o" resolve="CommandParameterDeclaration" />
                              </node>
                            </node>
                          </node>
                        </node>
                      </node>
                      <node concept="3clFbC" id="5keEkmeCrei" role="3clFbw">
                        <node concept="10Nm6u" id="5keEkmeCrej" role="3uHU7w" />
                        <node concept="37vLTw" id="3GM_nagTuWG" role="3uHU7B">
                          <ref role="3cqZAo" node="5keEkmeCrdX" resolve="first" />
                        </node>
                      </node>
                    </node>
                    <node concept="3cpWs6" id="5keEkmeCrel" role="3cqZAp">
                      <node concept="2ShNRf" id="5keEkmeCrem" role="3cqZAk">
                        <node concept="2HTt$P" id="5keEkmeCren" role="2ShVmc">
                          <node concept="3Tqbb2" id="5keEkmeCreo" role="2HTBi0">
                            <ref role="ehGHo" to="rzqf:6mJVBGGsi5o" resolve="CommandParameterDeclaration" />
                          </node>
                          <node concept="37vLTw" id="3GM_nagTrEo" role="2HTEbv">
                            <ref role="3cqZAo" node="5keEkmeCrdX" resolve="first" />
                          </node>
                        </node>
                      </node>
                    </node>
                  </node>
                  <node concept="Rh6nW" id="5keEkmeCreq" role="1bW2Oz">
                    <property role="TrG5h" value="it" />
                    <node concept="2jxLKc" id="5keEkmeCrer" role="1tU5fm" />
                  </node>
                </node>
              </node>
            </node>
            <node concept="ANE8D" id="5keEkmeCreA" role="2OqNvi" />
          </node>
        </node>
      </node>
    </node>
    <node concept="13i0hz" id="3gpm$NHlR4n" role="13h7CS">
      <property role="TrG5h" value="getDistinctByNameAndTypeFieldParameters" />
      <node concept="3Tm1VV" id="3gpm$NHlR4o" role="1B3o_S" />
      <node concept="2I9FWS" id="3gpm$NHlR4p" role="3clF45">
        <ref role="2I9WkF" to="rzqf:6mJVBGGsi5o" resolve="CommandParameterDeclaration" />
      </node>
      <node concept="3clFbS" id="3gpm$NHlR4q" role="3clF47">
        <node concept="3cpWs8" id="3gpm$NHlR4t" role="3cqZAp">
          <node concept="3cpWsn" id="3gpm$NHlR4u" role="3cpWs9">
            <property role="TrG5h" value="parameterDeclarations" />
            <node concept="A3Dl8" id="3gpm$NHlR4v" role="1tU5fm">
              <node concept="3Tqbb2" id="3gpm$NHlR4w" role="A3Ik2">
                <ref role="ehGHo" to="rzqf:6mJVBGGsi5o" resolve="CommandParameterDeclaration" />
              </node>
            </node>
            <node concept="2OqwBi" id="3gpm$NHlR6e" role="33vP2m">
              <node concept="13iPFW" id="3gpm$NHlR6f" role="2Oq$k0" />
              <node concept="2qgKlT" id="3gpm$NHlR6g" role="2OqNvi">
                <ref role="37wK5l" node="3gpm$NHlR5N" resolve="getFieldParameters" />
              </node>
            </node>
          </node>
        </node>
        <node concept="3cpWs8" id="3gpm$NHlR4S" role="3cqZAp">
          <node concept="3cpWsn" id="3gpm$NHlR4T" role="3cpWs9">
            <property role="TrG5h" value="fieldNames" />
            <node concept="A3Dl8" id="3gpm$NHlR4U" role="1tU5fm">
              <node concept="17QB3L" id="3gpm$NHlXWR" role="A3Ik2" />
            </node>
            <node concept="2OqwBi" id="3gpm$NHlR4W" role="33vP2m">
              <node concept="2OqwBi" id="3gpm$NHlR4X" role="2Oq$k0">
                <node concept="37vLTw" id="3GM_nagTsGm" role="2Oq$k0">
                  <ref role="3cqZAo" node="3gpm$NHlR4u" resolve="parameterDeclarations" />
                </node>
                <node concept="3$u5V9" id="3gpm$NHlR4Z" role="2OqNvi">
                  <node concept="1bVj0M" id="3gpm$NHlR50" role="23t8la">
                    <node concept="3clFbS" id="3gpm$NHlR51" role="1bW5cS">
                      <node concept="3clFbF" id="3gpm$NHlXWS" role="3cqZAp">
                        <node concept="2OqwBi" id="3gpm$NHlXWU" role="3clFbG">
                          <node concept="37vLTw" id="2BHiRxgmaQE" role="2Oq$k0">
                            <ref role="3cqZAo" node="3gpm$NHlR56" resolve="it" />
                          </node>
                          <node concept="2qgKlT" id="3gpm$NHlXWY" role="2OqNvi">
                            <ref role="37wK5l" node="3gpm$NHlR8F" resolve="getSetterLongName" />
                          </node>
                        </node>
                      </node>
                    </node>
                    <node concept="Rh6nW" id="3gpm$NHlR56" role="1bW2Oz">
                      <property role="TrG5h" value="it" />
                      <node concept="2jxLKc" id="3gpm$NHlR57" role="1tU5fm" />
                    </node>
                  </node>
                </node>
              </node>
              <node concept="1VAtEI" id="3gpm$NHlR58" role="2OqNvi" />
            </node>
          </node>
        </node>
        <node concept="3clFbF" id="3gpm$NHlR59" role="3cqZAp">
          <node concept="2OqwBi" id="3gpm$NHlR5a" role="3clFbG">
            <node concept="2OqwBi" id="3gpm$NHlR5b" role="2Oq$k0">
              <node concept="37vLTw" id="3GM_nagTyMn" role="2Oq$k0">
                <ref role="3cqZAo" node="3gpm$NHlR4T" resolve="fieldNames" />
              </node>
              <node concept="3goQfb" id="3gpm$NHlR5d" role="2OqNvi">
                <node concept="1bVj0M" id="3gpm$NHlR5e" role="23t8la">
                  <node concept="3clFbS" id="3gpm$NHlR5f" role="1bW5cS">
                    <node concept="3cpWs8" id="3gpm$NHlR5g" role="3cqZAp">
                      <node concept="3cpWsn" id="3gpm$NHlR5h" role="3cpWs9">
                        <property role="TrG5h" value="first" />
                        <node concept="3Tqbb2" id="3gpm$NHlR5i" role="1tU5fm">
                          <ref role="ehGHo" to="rzqf:6mJVBGGsi5o" resolve="CommandParameterDeclaration" />
                        </node>
                        <node concept="2OqwBi" id="3gpm$NHlR5j" role="33vP2m">
                          <node concept="37vLTw" id="3GM_nagTydk" role="2Oq$k0">
                            <ref role="3cqZAo" node="3gpm$NHlR4u" resolve="parameterDeclarations" />
                          </node>
                          <node concept="1z4cxt" id="3gpm$NHlR5l" role="2OqNvi">
                            <node concept="1bVj0M" id="3gpm$NHlR5m" role="23t8la">
                              <node concept="3clFbS" id="3gpm$NHlR5n" role="1bW5cS">
                                <node concept="3clFbF" id="3gpm$NHlXWZ" role="3cqZAp">
                                  <node concept="17R0WA" id="3gpm$NHlXXe" role="3clFbG">
                                    <node concept="37vLTw" id="2BHiRxgheT4" role="3uHU7w">
                                      <ref role="3cqZAo" node="3gpm$NHlR5I" resolve="it" />
                                    </node>
                                    <node concept="2OqwBi" id="3gpm$NHlXX1" role="3uHU7B">
                                      <node concept="37vLTw" id="2BHiRxgmHZ0" role="2Oq$k0">
                                        <ref role="3cqZAo" node="3gpm$NHlR5u" resolve="decl" />
                                      </node>
                                      <node concept="2qgKlT" id="3gpm$NHlXX5" role="2OqNvi">
                                        <ref role="37wK5l" node="3gpm$NHlR8F" resolve="getSetterLongName" />
                                      </node>
                                    </node>
                                  </node>
                                </node>
                              </node>
                              <node concept="Rh6nW" id="3gpm$NHlR5u" role="1bW2Oz">
                                <property role="TrG5h" value="decl" />
                                <node concept="2jxLKc" id="3gpm$NHlR5v" role="1tU5fm" />
                              </node>
                            </node>
                          </node>
                        </node>
                      </node>
                    </node>
                    <node concept="3clFbJ" id="3gpm$NHlR5w" role="3cqZAp">
                      <node concept="3clFbS" id="3gpm$NHlR5x" role="3clFbx">
                        <node concept="3cpWs6" id="3gpm$NHlR5y" role="3cqZAp">
                          <node concept="2ShNRf" id="3gpm$NHlR5z" role="3cqZAk">
                            <node concept="2T8Vx0" id="3gpm$NHlR5$" role="2ShVmc">
                              <node concept="2I9FWS" id="3gpm$NHlR5_" role="2T96Bj">
                                <ref role="2I9WkF" to="rzqf:6mJVBGGsi5o" resolve="CommandParameterDeclaration" />
                              </node>
                            </node>
                          </node>
                        </node>
                      </node>
                      <node concept="3clFbC" id="3gpm$NHlR5A" role="3clFbw">
                        <node concept="10Nm6u" id="3gpm$NHlR5B" role="3uHU7w" />
                        <node concept="37vLTw" id="3GM_nagTzYd" role="3uHU7B">
                          <ref role="3cqZAo" node="3gpm$NHlR5h" resolve="first" />
                        </node>
                      </node>
                    </node>
                    <node concept="3cpWs6" id="3gpm$NHlR5D" role="3cqZAp">
                      <node concept="2ShNRf" id="3gpm$NHlR5E" role="3cqZAk">
                        <node concept="2HTt$P" id="3gpm$NHlR5F" role="2ShVmc">
                          <node concept="3Tqbb2" id="3gpm$NHlR5G" role="2HTBi0">
                            <ref role="ehGHo" to="rzqf:6mJVBGGsi5o" resolve="CommandParameterDeclaration" />
                          </node>
                          <node concept="37vLTw" id="3GM_nagTzn1" role="2HTEbv">
                            <ref role="3cqZAo" node="3gpm$NHlR5h" resolve="first" />
                          </node>
                        </node>
                      </node>
                    </node>
                  </node>
                  <node concept="Rh6nW" id="3gpm$NHlR5I" role="1bW2Oz">
                    <property role="TrG5h" value="it" />
                    <node concept="2jxLKc" id="3gpm$NHlR5J" role="1tU5fm" />
                  </node>
                </node>
              </node>
            </node>
            <node concept="ANE8D" id="3gpm$NHlR5K" role="2OqNvi" />
          </node>
        </node>
      </node>
    </node>
    <node concept="13i0hz" id="3gpm$NHlR5N" role="13h7CS">
      <property role="TrG5h" value="getFieldParameters" />
      <node concept="3Tm6S6" id="3gpm$NHlR5O" role="1B3o_S" />
      <node concept="A3Dl8" id="3gpm$NHlR5P" role="3clF45">
        <node concept="3Tqbb2" id="3gpm$NHlR5Q" role="A3Ik2">
          <ref role="ehGHo" to="rzqf:6mJVBGGsi5o" resolve="CommandParameterDeclaration" />
        </node>
      </node>
      <node concept="3clFbS" id="3gpm$NHlR5R" role="3clF47">
        <node concept="3cpWs6" id="3gpm$NHlR5S" role="3cqZAp">
          <node concept="2OqwBi" id="3gpm$NHlR5T" role="3cqZAk">
            <node concept="2OqwBi" id="3gpm$NHlR5U" role="2Oq$k0">
              <node concept="13iPFW" id="3gpm$NHlR5V" role="2Oq$k0" />
              <node concept="3Tsc0h" id="3gpm$NHlR5W" role="2OqNvi">
                <ref role="3TtcxE" to="rzqf:5keEkmeCguY" />
              </node>
            </node>
            <node concept="3goQfb" id="3gpm$NHlR5X" role="2OqNvi">
              <node concept="1bVj0M" id="3gpm$NHlR5Y" role="23t8la">
                <node concept="3clFbS" id="3gpm$NHlR5Z" role="1bW5cS">
                  <node concept="3clFbF" id="3gpm$NHlR60" role="3cqZAp">
                    <node concept="2OqwBi" id="3gpm$NHlR61" role="3clFbG">
                      <node concept="2OqwBi" id="3gpm$NHlR62" role="2Oq$k0">
                        <node concept="37vLTw" id="2BHiRxgmIak" role="2Oq$k0">
                          <ref role="3cqZAo" node="3gpm$NHlR5L" resolve="it" />
                        </node>
                        <node concept="2qgKlT" id="3gpm$NHlR64" role="2OqNvi">
                          <ref role="37wK5l" node="5keEkmeCqHW" resolve="getParameters" />
                        </node>
                      </node>
                      <node concept="3zZkjj" id="3gpm$NHlR65" role="2OqNvi">
                        <node concept="1bVj0M" id="3gpm$NHlR66" role="23t8la">
                          <node concept="3clFbS" id="3gpm$NHlR67" role="1bW5cS">
                            <node concept="3clFbF" id="3gpm$NHlR68" role="3cqZAp">
                              <node concept="2OqwBi" id="3gpm$NHlR69" role="3clFbG">
                                <node concept="37vLTw" id="2BHiRxgmaQM" role="2Oq$k0">
                                  <ref role="3cqZAo" node="3gpm$NHlR5M" resolve="it" />
                                </node>
                                <node concept="2qgKlT" id="3gpm$NHlR6b" role="2OqNvi">
                                  <ref role="37wK5l" node="7mEQKPeolUk" resolve="generateField" />
                                </node>
                              </node>
                            </node>
                          </node>
                          <node concept="Rh6nW" id="3gpm$NHlR5M" role="1bW2Oz">
                            <property role="TrG5h" value="it" />
                            <node concept="2jxLKc" id="3gpm$NHlR6c" role="1tU5fm" />
                          </node>
                        </node>
                      </node>
                    </node>
                  </node>
                </node>
                <node concept="Rh6nW" id="3gpm$NHlR5L" role="1bW2Oz">
                  <property role="TrG5h" value="it" />
                  <node concept="2jxLKc" id="3gpm$NHlR6d" role="1tU5fm" />
                </node>
              </node>
            </node>
          </node>
        </node>
      </node>
    </node>
    <node concept="13i0hz" id="JzCdmU6yOE" role="13h7CS">
      <property role="2Ki8OM" value="true" />
      <property role="13i0is" value="false" />
      <property role="13i0iv" value="false" />
      <property role="TrG5h" value="getCreateProcessMethodName" />
      <node concept="3clFbS" id="JzCdmU6yOH" role="3clF47">
        <node concept="3clFbF" id="JzCdmU6yOI" role="3cqZAp">
          <node concept="Xl_RD" id="JzCdmU6yOJ" role="3clFbG">
            <property role="Xl_RC" value="createProcess" />
          </node>
        </node>
      </node>
      <node concept="17QB3L" id="JzCdmU6yOG" role="3clF45" />
      <node concept="3Tm1VV" id="JzCdmU6yOF" role="1B3o_S" />
    </node>
    <node concept="13i0hz" id="JzCdmU6yOK" role="13h7CS">
      <property role="2Ki8OM" value="true" />
      <property role="13i0is" value="false" />
      <property role="13i0iv" value="false" />
      <property role="TrG5h" value="getGetDebuggerMethodName" />
      <node concept="3clFbS" id="JzCdmU6yON" role="3clF47">
        <node concept="3clFbF" id="JzCdmU6yOO" role="3cqZAp">
          <node concept="Xl_RD" id="JzCdmU6yOP" role="3clFbG">
            <property role="Xl_RC" value="getDebugger" />
          </node>
        </node>
      </node>
      <node concept="17QB3L" id="JzCdmU6yOM" role="3clF45" />
      <node concept="3Tm1VV" id="JzCdmU6yOL" role="1B3o_S" />
    </node>
    <node concept="13i0hz" id="5pE1_aqZc7s" role="13h7CS">
      <property role="2Ki8OM" value="true" />
      <property role="13i0is" value="false" />
      <property role="13i0iv" value="false" />
      <property role="TrG5h" value="getGetDebuggerConfidurationMethodName" />
      <node concept="3clFbS" id="5pE1_aqZc7v" role="3clF47">
        <node concept="3clFbF" id="5pE1_aqZc7x" role="3cqZAp">
          <node concept="Xl_RD" id="5pE1_aqZc7y" role="3clFbG">
            <property role="Xl_RC" value="getDebuggerConfiguration" />
          </node>
        </node>
      </node>
      <node concept="17QB3L" id="5pE1_aqZc7w" role="3clF45" />
      <node concept="3Tm1VV" id="5pE1_aqZc7t" role="1B3o_S" />
    </node>
  </node>
  <node concept="13h7C7" id="JzCdmU6yPL">
    <property role="3GE5qa" value="command" />
    <ref role="13h7C2" to="rzqf:JzCdmU6yJO" resolve="CommandBuilderExpression" />
    <node concept="13hLZK" id="JzCdmU6yPM" role="13h7CW">
      <node concept="3clFbS" id="JzCdmU6yPN" role="2VODD2" />
    </node>
    <node concept="13i0hz" id="JzCdmU6yPO" role="13h7CS">
      <property role="13i0iv" value="false" />
      <property role="TrG5h" value="isLegalAsStatement" />
      <property role="13i0it" value="true" />
      <ref role="13i0hy" to="tpek:i26MfYG" resolve="isLegalAsStatement" />
      <node concept="3Tm1VV" id="JzCdmU6yPP" role="1B3o_S" />
      <node concept="3clFbS" id="JzCdmU6yPQ" role="3clF47">
        <node concept="3clFbF" id="JzCdmU6yPR" role="3cqZAp">
          <node concept="3clFbT" id="JzCdmU6yPS" role="3clFbG">
            <property role="3clFbU" value="true" />
          </node>
        </node>
      </node>
      <node concept="10P_77" id="JzCdmU6yPT" role="3clF45" />
    </node>
    <node concept="13i0hz" id="4izwdH0wQG7" role="13h7CS">
      <property role="13i0iv" value="false" />
      <property role="13i0is" value="false" />
      <property role="TrG5h" value="getVariableExpectedName" />
      <property role="13i0it" value="false" />
      <ref role="13i0hy" to="tpek:hEwJgm_" resolve="getVariableExpectedName" />
      <node concept="3Tm1VV" id="4izwdH0wQG8" role="1B3o_S" />
      <node concept="3clFbS" id="4izwdH0wQG9" role="3clF47">
        <node concept="3clFbF" id="4izwdH0wRwU" role="3cqZAp">
          <node concept="Xl_RD" id="4izwdH0wRwV" role="3clFbG">
            <property role="Xl_RC" value="process" />
          </node>
        </node>
      </node>
      <node concept="17QB3L" id="4izwdH0wQGa" role="3clF45" />
    </node>
  </node>
  <node concept="13h7C7" id="JzCdmU6yPU">
    <property role="3GE5qa" value="error" />
    <ref role="13h7C2" to="rzqf:JzCdmU6yJY" resolve="ReportExecutionError" />
    <node concept="13hLZK" id="JzCdmU6yPV" role="13h7CW">
      <node concept="3clFbS" id="JzCdmU6yPW" role="2VODD2" />
    </node>
    <node concept="13i0hz" id="JzCdmU6yPX" role="13h7CS">
      <property role="13i0iv" value="false" />
      <property role="TrG5h" value="getException" />
      <property role="13i0it" value="true" />
      <ref role="13i0hy" node="JzCdmU6yQ5" resolve="getException" />
      <node concept="3Tm1VV" id="JzCdmU6yPY" role="1B3o_S" />
      <node concept="3clFbS" id="JzCdmU6yPZ" role="3clF47">
        <node concept="3clFbF" id="JzCdmU6yQ0" role="3cqZAp">
          <node concept="2c44tf" id="JzCdmU6yQ1" role="3clFbG">
            <node concept="3uibUv" id="JzCdmU6yQ2" role="2c44tc">
              <ref role="3uigEE" to="3v5a:~ExecutionException" resolve="ExecutionException" />
            </node>
          </node>
        </node>
      </node>
      <node concept="3Tqbb2" id="JzCdmU6yQ3" role="3clF45">
        <ref role="ehGHo" to="tpee:g7uibYu" resolve="ClassifierType" />
      </node>
    </node>
  </node>
  <node concept="13h7C7" id="JzCdmU6yQ4">
    <property role="3GE5qa" value="error" />
    <ref role="13h7C2" to="rzqf:JzCdmU6yK0" resolve="ReportErrorStatement" />
    <node concept="13i0hz" id="JzCdmU6yQ5" role="13h7CS">
      <property role="13i0iv" value="true" />
      <property role="TrG5h" value="getException" />
      <property role="13i0it" value="true" />
      <node concept="3Tm1VV" id="JzCdmU6yQ6" role="1B3o_S" />
      <node concept="3Tqbb2" id="JzCdmU6yQ7" role="3clF45">
        <ref role="ehGHo" to="tpee:g7uibYu" resolve="ClassifierType" />
      </node>
      <node concept="3clFbS" id="JzCdmU6yQ8" role="3clF47" />
    </node>
    <node concept="13i0hz" id="JzCdmU6yQ9" role="13h7CS">
      <property role="13i0iv" value="false" />
      <property role="TrG5h" value="collectUncaughtMethodThrowables" />
      <property role="13i0it" value="true" />
      <ref role="13i0hy" to="tpek:4Gt7ANIVH8f" resolve="collectUncaughtMethodThrowables" />
      <node concept="3Tm1VV" id="JzCdmU6yQa" role="1B3o_S" />
      <node concept="3clFbS" id="JzCdmU6yQb" role="3clF47">
        <node concept="3clFbJ" id="JzCdmU6yQc" role="3cqZAp">
          <node concept="3clFbS" id="JzCdmU6yQd" role="3clFbx">
            <node concept="3clFbF" id="JzCdmU6yQe" role="3cqZAp">
              <node concept="2OqwBi" id="L_Hr3kEsml" role="3clFbG">
                <node concept="2qgKlT" id="L_Hr3kEsmm" role="2OqNvi">
                  <ref role="37wK5l" to="tpek:4Gt7ANIVBW7" resolve="collectUncaughtMethodThrowables" />
                  <node concept="37vLTw" id="L_Hr3kEsmn" role="37wK5m">
                    <ref role="3cqZAo" node="JzCdmU6yQz" resolve="throwables" />
                  </node>
                  <node concept="2OqwBi" id="L_Hr3kEsmo" role="37wK5m">
                    <node concept="13iPFW" id="L_Hr3kEsmp" role="2Oq$k0" />
                    <node concept="3TrEf2" id="L_Hr3kEsmq" role="2OqNvi">
                      <ref role="3Tt5mk" to="rzqf:JzCdmU6yK3" />
                    </node>
                  </node>
                </node>
                <node concept="3TUQnm" id="L_Hr3kEsmr" role="2Oq$k0">
                  <ref role="3TV0OU" to="tpee:fzclF8l" resolve="Statement" />
                </node>
              </node>
            </node>
            <node concept="3clFbF" id="JzCdmU6yQk" role="3cqZAp">
              <node concept="2OqwBi" id="L_Hr3kEvJw" role="3clFbG">
                <node concept="2qgKlT" id="L_Hr3kEvJx" role="2OqNvi">
                  <ref role="37wK5l" to="tpek:4Gt7ANIVBW7" resolve="collectUncaughtMethodThrowables" />
                  <node concept="37vLTw" id="L_Hr3kEvJy" role="37wK5m">
                    <ref role="3cqZAo" node="JzCdmU6yQz" resolve="throwables" />
                  </node>
                  <node concept="2OqwBi" id="L_Hr3kEvJ$" role="37wK5m">
                    <node concept="13iPFW" id="L_Hr3kEvJ_" role="2Oq$k0" />
                    <node concept="3TrEf2" id="L_Hr3kEvJB" role="2OqNvi">
                      <ref role="3Tt5mk" to="rzqf:JzCdmU6yK4" />
                    </node>
                  </node>
                </node>
                <node concept="3TUQnm" id="L_Hr3kEvJD" role="2Oq$k0">
                  <ref role="3TV0OU" to="tpee:fzclF8l" resolve="Statement" />
                </node>
              </node>
            </node>
          </node>
          <node concept="3fqX7Q" id="JzCdmU6yQq" role="3clFbw">
            <node concept="37vLTw" id="2BHiRxgmeWV" role="3fr31v">
              <ref role="3cqZAo" node="JzCdmU6yQA" resolve="ignoreMayBeThrowables" />
            </node>
          </node>
        </node>
        <node concept="3clFbF" id="JzCdmU6yQs" role="3cqZAp">
          <node concept="2OqwBi" id="JzCdmU6yQt" role="3clFbG">
            <node concept="37vLTw" id="2BHiRxghgsV" role="2Oq$k0">
              <ref role="3cqZAo" node="JzCdmU6yQz" resolve="throwables" />
            </node>
            <node concept="2l5eF5" id="JzCdmU6yQv" role="2OqNvi">
              <node concept="2OqwBi" id="JzCdmU6yQw" role="2l6Ag6">
                <node concept="BsUDl" id="JzCdmU6yQx" role="2Oq$k0">
                  <ref role="37wK5l" node="JzCdmU6yQ5" resolve="getException" />
                </node>
                <node concept="3TrEf2" id="JzCdmU6yQy" role="2OqNvi">
                  <ref role="3Tt5mk" to="tpee:g7uigIF" />
                </node>
              </node>
            </node>
          </node>
        </node>
      </node>
      <node concept="37vLTG" id="JzCdmU6yQz" role="3clF46">
        <property role="TrG5h" value="throwables" />
        <node concept="2hMVRd" id="JzCdmU6yQ$" role="1tU5fm">
          <node concept="3Tqbb2" id="JzCdmU6yQ_" role="2hN53Y">
            <ref role="ehGHo" to="tpee:g7pOWCK" resolve="Classifier" />
          </node>
        </node>
      </node>
      <node concept="37vLTG" id="JzCdmU6yQA" role="3clF46">
        <property role="TrG5h" value="ignoreMayBeThrowables" />
        <node concept="10P_77" id="JzCdmU6yQB" role="1tU5fm" />
      </node>
      <node concept="3cqZAl" id="JzCdmU6yQC" role="3clF45" />
    </node>
    <node concept="13i0hz" id="JzCdmU6yQD" role="13h7CS">
      <property role="13i0iv" value="false" />
      <property role="TrG5h" value="isGuardClauseStatement" />
      <property role="13i0it" value="true" />
      <ref role="13i0hy" to="tpek:i0z$q7V" resolve="isGuardClauseStatement" />
      <node concept="3Tm1VV" id="JzCdmU6yQE" role="1B3o_S" />
      <node concept="3clFbS" id="JzCdmU6yQF" role="3clF47">
        <node concept="3clFbF" id="JzCdmU6yQG" role="3cqZAp">
          <node concept="3clFbT" id="JzCdmU6yQH" role="3clFbG">
            <property role="3clFbU" value="true" />
          </node>
        </node>
      </node>
      <node concept="10P_77" id="JzCdmU6yQI" role="3clF45" />
    </node>
    <node concept="13hLZK" id="JzCdmU6yQJ" role="13h7CW">
      <node concept="3clFbS" id="JzCdmU6yQK" role="2VODD2" />
    </node>
  </node>
  <node concept="13h7C7" id="6mJVBGGsi5p">
    <property role="3GE5qa" value="command" />
    <ref role="13h7C2" to="rzqf:6mJVBGGsi5o" resolve="CommandParameterDeclaration" />
    <node concept="13i0hz" id="7c4O8d8q0tV" role="13h7CS">
      <property role="TrG5h" value="isRequired" />
      <property role="13i0it" value="true" />
      <node concept="3Tm1VV" id="7c4O8d8q0C1" role="1B3o_S" />
      <node concept="10P_77" id="7c4O8d8q5yz" role="3clF45" />
      <node concept="3clFbS" id="7c4O8d8q0C3" role="3clF47">
        <node concept="3clFbF" id="7c4O8d8qgm2" role="3cqZAp">
          <node concept="3clFbT" id="7c4O8d8qgm1" role="3clFbG">
            <property role="3clFbU" value="false" />
          </node>
        </node>
      </node>
    </node>
    <node concept="13hLZK" id="6mJVBGGsi5q" role="13h7CW">
      <node concept="3clFbS" id="6mJVBGGsi5r" role="2VODD2" />
    </node>
    <node concept="13i0hz" id="7mEQKPeolUk" role="13h7CS">
      <property role="TrG5h" value="generateField" />
      <property role="13i0it" value="true" />
      <node concept="3Tm1VV" id="7mEQKPeolUl" role="1B3o_S" />
      <node concept="10P_77" id="7mEQKPeolUo" role="3clF45" />
      <node concept="3clFbS" id="7mEQKPeolUn" role="3clF47">
        <node concept="3clFbF" id="7mEQKPeolUp" role="3cqZAp">
          <node concept="3clFbT" id="7mEQKPeolUq" role="3clFbG">
            <property role="3clFbU" value="true" />
          </node>
        </node>
      </node>
    </node>
    <node concept="13i0hz" id="6mJVBGGsi5s" role="13h7CS">
      <property role="TrG5h" value="getSetterName" />
      <node concept="3Tm1VV" id="6mJVBGGsi5t" role="1B3o_S" />
      <node concept="3clFbS" id="6mJVBGGsi5u" role="3clF47">
        <node concept="3clFbF" id="6mJVBGGsi5v" role="3cqZAp">
          <node concept="3cpWs3" id="6mJVBGGsi5w" role="3clFbG">
            <node concept="Xl_RD" id="6mJVBGGsi5x" role="3uHU7B">
              <property role="Xl_RC" value="set" />
            </node>
            <node concept="BsUDl" id="6mJVBGGsi5y" role="3uHU7w">
              <ref role="37wK5l" node="6mJVBGGsi5H" resolve="getUpperCaseName" />
            </node>
          </node>
        </node>
      </node>
      <node concept="17QB3L" id="6mJVBGGsi5z" role="3clF45" />
    </node>
    <node concept="13i0hz" id="3gpm$NHlR8F" role="13h7CS">
      <property role="TrG5h" value="getSetterLongName" />
      <node concept="3Tm1VV" id="3gpm$NHlR8G" role="1B3o_S" />
      <node concept="3clFbS" id="3gpm$NHlR8H" role="3clF47">
        <node concept="3clFbF" id="3gpm$NHlR8N" role="3cqZAp">
          <node concept="3cpWs3" id="3gpm$NHm1ir" role="3clFbG">
            <node concept="3cpWs3" id="3gpm$NHlR8U" role="3uHU7B">
              <node concept="2OqwBi" id="3gpm$NHlR8P" role="3uHU7B">
                <node concept="13iPFW" id="3gpm$NHlR8O" role="2Oq$k0" />
                <node concept="2qgKlT" id="3gpm$NHlR8T" role="2OqNvi">
                  <ref role="37wK5l" node="6mJVBGGsi5s" resolve="getSetterName" />
                </node>
              </node>
              <node concept="Xl_RD" id="3gpm$NHlR8X" role="3uHU7w">
                <property role="Xl_RC" value="_" />
              </node>
            </node>
            <node concept="2OqwBi" id="L_Hr3kErZz" role="3uHU7w">
              <node concept="2qgKlT" id="L_Hr3kErZ$" role="2OqNvi">
                <ref role="37wK5l" node="3gpm$NHlXW7" resolve="getTypeSuffix" />
                <node concept="2OqwBi" id="L_Hr3kErZ_" role="37wK5m">
                  <node concept="13iPFW" id="L_Hr3kErZA" role="2Oq$k0" />
                  <node concept="3TrEf2" id="L_Hr3kErZB" role="2OqNvi">
                    <ref role="3Tt5mk" to="tpee:4VkOLwjf83e" />
                  </node>
                </node>
              </node>
              <node concept="3TUQnm" id="L_Hr3kErZC" role="2Oq$k0">
                <ref role="3TV0OU" to="rzqf:6mJVBGGsi5o" resolve="CommandParameterDeclaration" />
              </node>
            </node>
          </node>
        </node>
      </node>
      <node concept="17QB3L" id="3gpm$NHlR8M" role="3clF45" />
    </node>
    <node concept="13i0hz" id="6mJVBGGsi5H" role="13h7CS">
      <property role="TrG5h" value="getUpperCaseName" />
      <node concept="3Tm6S6" id="6mJVBGGsi5I" role="1B3o_S" />
      <node concept="17QB3L" id="6mJVBGGsi5J" role="3clF45" />
      <node concept="3clFbS" id="6mJVBGGsi5K" role="3clF47">
        <node concept="3clFbF" id="6mJVBGGsi5L" role="3cqZAp">
          <node concept="2OqwBi" id="L_Hr3kEshP" role="3clFbG">
            <node concept="2qgKlT" id="L_Hr3kEshQ" role="2OqNvi">
              <ref role="37wK5l" node="6mJVBGGsi5Q" resolve="getUpperCaseName" />
              <node concept="2OqwBi" id="L_Hr3kEshR" role="37wK5m">
                <node concept="13iPFW" id="L_Hr3kEshS" role="2Oq$k0" />
                <node concept="3TrcHB" id="L_Hr3kEshT" role="2OqNvi">
                  <ref role="3TsBF5" to="tpck:h0TrG11" resolve="name" />
                </node>
              </node>
            </node>
            <node concept="3TUQnm" id="L_Hr3kEshU" role="2Oq$k0">
              <ref role="3TV0OU" to="rzqf:6mJVBGGsi5o" resolve="CommandParameterDeclaration" />
            </node>
          </node>
        </node>
      </node>
    </node>
    <node concept="13i0hz" id="6mJVBGGspQq" role="13h7CS">
      <property role="TrG5h" value="getFieldName" />
      <node concept="3Tm1VV" id="6mJVBGGspQr" role="1B3o_S" />
      <node concept="17QB3L" id="6mJVBGGspQs" role="3clF45" />
      <node concept="3clFbS" id="6mJVBGGspQt" role="3clF47">
        <node concept="3clFbF" id="6mJVBGGspQu" role="3cqZAp">
          <node concept="3cpWs3" id="3gpm$NHm1iB" role="3clFbG">
            <node concept="3cpWs3" id="3gpm$NHlR9u" role="3uHU7B">
              <node concept="2OqwBi" id="L_Hr3kEsvw" role="3uHU7B">
                <node concept="2qgKlT" id="L_Hr3kEsvx" role="2OqNvi">
                  <ref role="37wK5l" node="6mJVBGGsi69" resolve="getFieldName" />
                  <node concept="2OqwBi" id="L_Hr3kEsvz" role="37wK5m">
                    <node concept="13iPFW" id="L_Hr3kEsv_" role="2Oq$k0" />
                    <node concept="3TrcHB" id="L_Hr3kEsvA" role="2OqNvi">
                      <ref role="3TsBF5" to="tpck:h0TrG11" resolve="name" />
                    </node>
                  </node>
                </node>
                <node concept="3TUQnm" id="L_Hr3kEsvC" role="2Oq$k0">
                  <ref role="3TV0OU" to="rzqf:6mJVBGGsi5o" resolve="CommandParameterDeclaration" />
                </node>
              </node>
              <node concept="Xl_RD" id="3gpm$NHlR9x" role="3uHU7w">
                <property role="Xl_RC" value="_" />
              </node>
            </node>
            <node concept="2OqwBi" id="L_Hr3kEshv" role="3uHU7w">
              <node concept="2qgKlT" id="L_Hr3kEshw" role="2OqNvi">
                <ref role="37wK5l" node="3gpm$NHlXW7" resolve="getTypeSuffix" />
                <node concept="2OqwBi" id="L_Hr3kEshx" role="37wK5m">
                  <node concept="13iPFW" id="L_Hr3kEshy" role="2Oq$k0" />
                  <node concept="3TrEf2" id="L_Hr3kEshz" role="2OqNvi">
                    <ref role="3Tt5mk" to="tpee:4VkOLwjf83e" />
                  </node>
                </node>
              </node>
              <node concept="3TUQnm" id="L_Hr3kEsh$" role="2Oq$k0">
                <ref role="3TV0OU" to="rzqf:6mJVBGGsi5o" resolve="CommandParameterDeclaration" />
              </node>
            </node>
          </node>
        </node>
      </node>
    </node>
    <node concept="13i0hz" id="6mJVBGGsi69" role="13h7CS">
      <property role="2Ki8OM" value="true" />
      <property role="13i0is" value="false" />
      <property role="13i0iv" value="false" />
      <property role="TrG5h" value="getFieldName" />
      <node concept="3clFbS" id="6mJVBGGsi6e" role="3clF47">
        <node concept="3clFbF" id="6mJVBGGsi6f" role="3cqZAp">
          <node concept="3cpWs3" id="6mJVBGGsi6g" role="3clFbG">
            <node concept="2OqwBi" id="L_Hr3kEsh3" role="3uHU7w">
              <node concept="2qgKlT" id="L_Hr3kEsh4" role="2OqNvi">
                <ref role="37wK5l" node="6mJVBGGsi5Q" resolve="getUpperCaseName" />
                <node concept="37vLTw" id="L_Hr3kEsh5" role="37wK5m">
                  <ref role="3cqZAo" node="6mJVBGGsi6a" resolve="name" />
                </node>
              </node>
              <node concept="3TUQnm" id="L_Hr3kEsh6" role="2Oq$k0">
                <ref role="3TV0OU" to="rzqf:6mJVBGGsi5o" resolve="CommandParameterDeclaration" />
              </node>
            </node>
            <node concept="Xl_RD" id="6mJVBGGsi6j" role="3uHU7B">
              <property role="Xl_RC" value="my" />
            </node>
          </node>
        </node>
      </node>
      <node concept="17QB3L" id="6mJVBGGsi6d" role="3clF45" />
      <node concept="37vLTG" id="6mJVBGGsi6a" role="3clF46">
        <property role="TrG5h" value="name" />
        <node concept="17QB3L" id="6mJVBGGsi6b" role="1tU5fm" />
      </node>
      <node concept="3Tm1VV" id="6mJVBGGsi6c" role="1B3o_S" />
    </node>
    <node concept="13i0hz" id="3gpm$NHlXW7" role="13h7CS">
      <property role="2Ki8OM" value="true" />
      <property role="13i0is" value="false" />
      <property role="13i0iv" value="false" />
      <property role="TrG5h" value="getTypeSuffix" />
      <node concept="3clFbS" id="3gpm$NHlXWa" role="3clF47">
        <node concept="3cpWs6" id="3gpm$NHlXWF" role="3cqZAp">
          <node concept="2OqwBi" id="L_Hr3kEuFl" role="3cqZAk">
            <node concept="2qgKlT" id="L_Hr3kEuFm" role="2OqNvi">
              <ref role="37wK5l" to="i1mc:3gpm$NHlLi1" resolve="getValidClassName" />
              <node concept="2OqwBi" id="L_Hr3kEuFo" role="37wK5m">
                <node concept="37vLTw" id="L_Hr3kEuFq" role="2Oq$k0">
                  <ref role="3cqZAo" node="3gpm$NHlXWc" resolve="type" />
                </node>
                <node concept="2qgKlT" id="L_Hr3kEuFr" role="2OqNvi">
                  <ref role="37wK5l" to="tpcu:hEwIMiw" resolve="getPresentation" />
                </node>
              </node>
            </node>
            <node concept="3TUQnm" id="L_Hr3kEuFu" role="2Oq$k0">
              <ref role="3TV0OU" to="id7i:O$iR4JBsQF" resolve="IGeneratedToClass" />
            </node>
          </node>
        </node>
      </node>
      <node concept="17QB3L" id="3gpm$NHlXWb" role="3clF45" />
      <node concept="37vLTG" id="3gpm$NHlXWc" role="3clF46">
        <property role="TrG5h" value="type" />
        <node concept="3Tqbb2" id="3gpm$NHlXWe" role="1tU5fm">
          <ref role="ehGHo" to="tpee:fz3vP1H" resolve="Type" />
        </node>
      </node>
      <node concept="3Tm1VV" id="3gpm$NHlXW8" role="1B3o_S" />
    </node>
    <node concept="13i0hz" id="6mJVBGGsi5Q" role="13h7CS">
      <property role="2Ki8OM" value="true" />
      <property role="13i0is" value="false" />
      <property role="13i0iv" value="false" />
      <property role="TrG5h" value="getUpperCaseName" />
      <node concept="3clFbS" id="6mJVBGGsi5V" role="3clF47">
        <node concept="3clFbF" id="6mJVBGGsi5W" role="3cqZAp">
          <node concept="3cpWs3" id="6mJVBGGsi5X" role="3clFbG">
            <node concept="2OqwBi" id="6mJVBGGsi5Y" role="3uHU7B">
              <node concept="2OqwBi" id="6mJVBGGsi5Z" role="2Oq$k0">
                <node concept="liA8E" id="6mJVBGGsi60" role="2OqNvi">
                  <ref role="37wK5l" to="wyt6:~String.substring(int,int):java.lang.String" resolve="substring" />
                  <node concept="3cmrfG" id="6mJVBGGsi61" role="37wK5m">
                    <property role="3cmrfH" value="0" />
                  </node>
                  <node concept="3cmrfG" id="6mJVBGGsi62" role="37wK5m">
                    <property role="3cmrfH" value="1" />
                  </node>
                </node>
                <node concept="37vLTw" id="2BHiRxghiT6" role="2Oq$k0">
                  <ref role="3cqZAo" node="6mJVBGGsi5R" resolve="name" />
                </node>
              </node>
              <node concept="liA8E" id="6mJVBGGsi64" role="2OqNvi">
                <ref role="37wK5l" to="wyt6:~String.toUpperCase():java.lang.String" resolve="toUpperCase" />
              </node>
            </node>
            <node concept="2OqwBi" id="6mJVBGGsi65" role="3uHU7w">
              <node concept="liA8E" id="6mJVBGGsi66" role="2OqNvi">
                <ref role="37wK5l" to="wyt6:~String.substring(int):java.lang.String" resolve="substring" />
                <node concept="3cmrfG" id="6mJVBGGsi67" role="37wK5m">
                  <property role="3cmrfH" value="1" />
                </node>
              </node>
              <node concept="37vLTw" id="2BHiRxgm91I" role="2Oq$k0">
                <ref role="3cqZAo" node="6mJVBGGsi5R" resolve="name" />
              </node>
            </node>
          </node>
        </node>
      </node>
      <node concept="17QB3L" id="6mJVBGGsi5U" role="3clF45" />
      <node concept="37vLTG" id="6mJVBGGsi5R" role="3clF46">
        <property role="TrG5h" value="name" />
        <node concept="17QB3L" id="6mJVBGGsi5S" role="1tU5fm" />
      </node>
      <node concept="3Tm1VV" id="6mJVBGGsi5T" role="1B3o_S" />
    </node>
  </node>
  <node concept="13h7C7" id="7mEQKPeoqm0">
    <property role="3GE5qa" value="command" />
    <ref role="13h7C2" to="rzqf:7mEQKPeoqlQ" resolve="DebuggerSettingsCommandParameterDeclaration" />
    <node concept="13hLZK" id="7mEQKPeoqm1" role="13h7CW">
      <node concept="3clFbS" id="7mEQKPeoqm2" role="2VODD2">
        <node concept="3clFbF" id="7mEQKPeoqm3" role="3cqZAp">
          <node concept="2OqwBi" id="7mEQKPeoqma" role="3clFbG">
            <node concept="2OqwBi" id="7mEQKPeoqm5" role="2Oq$k0">
              <node concept="13iPFW" id="7mEQKPeoqm4" role="2Oq$k0" />
              <node concept="3TrEf2" id="7mEQKPeoqm9" role="2OqNvi">
                <ref role="3Tt5mk" to="tpee:4VkOLwjf83e" />
              </node>
            </node>
            <node concept="2oxUTD" id="7mEQKPeoqme" role="2OqNvi">
              <node concept="2c44tf" id="7mEQKPeoqmh" role="2oxUTC">
                <node concept="17QB3L" id="7mEQKPeoqmk" role="2c44tc" />
              </node>
            </node>
          </node>
        </node>
      </node>
    </node>
  </node>
  <node concept="13h7C7" id="5keEkmeCqHk">
    <property role="3GE5qa" value="command" />
    <ref role="13h7C2" to="rzqf:5keEkmeCguG" resolve="ExecuteCommandPart" />
    <node concept="13i0hz" id="5keEkmeCqHW" role="13h7CS">
      <property role="TrG5h" value="getParameters" />
      <node concept="3Tm1VV" id="5keEkmeCqHX" role="1B3o_S" />
      <node concept="2I9FWS" id="5keEkmeCqI0" role="3clF45">
        <ref role="2I9WkF" to="rzqf:6mJVBGGsi5o" resolve="CommandParameterDeclaration" />
      </node>
      <node concept="3clFbS" id="5keEkmeCqHZ" role="3clF47">
        <node concept="3clFbJ" id="5keEkmeCqIv" role="3cqZAp">
          <node concept="2OqwBi" id="5keEkmeCqIC" role="3clFbw">
            <node concept="BsUDl" id="3xwsMyQkE_q" role="2Oq$k0">
              <ref role="37wK5l" node="5keEkmeCqIg" resolve="getCommandDeclaration" />
            </node>
            <node concept="2qgKlT" id="5keEkmeCqIG" role="2OqNvi">
              <ref role="37wK5l" node="JzCdmU6yOQ" resolve="isDebuggable" />
            </node>
          </node>
          <node concept="3clFbS" id="5keEkmeCqIx" role="3clFbx">
            <node concept="3cpWs6" id="5keEkmeCqJg" role="3cqZAp">
              <node concept="2OqwBi" id="5keEkmeCqJi" role="3cqZAk">
                <node concept="2OqwBi" id="5keEkmeCqJj" role="2Oq$k0">
                  <node concept="2OqwBi" id="1d5uNBHnu4a" role="2Oq$k0">
                    <node concept="2OqwBi" id="5keEkmeCqJk" role="2Oq$k0">
                      <node concept="13iPFW" id="5keEkmeCqJl" role="2Oq$k0" />
                      <node concept="3Tsc0h" id="5keEkmeCqJm" role="2OqNvi">
                        <ref role="3TtcxE" to="rzqf:5keEkmeCguH" />
                      </node>
                    </node>
                    <node concept="3$u5V9" id="1d5uNBHnu4e" role="2OqNvi">
                      <node concept="1bVj0M" id="1d5uNBHnu4f" role="23t8la">
                        <node concept="3clFbS" id="1d5uNBHnu4g" role="1bW5cS">
                          <node concept="3clFbF" id="1d5uNBHnu4j" role="3cqZAp">
                            <node concept="1PxgMI" id="1d5uNBHnu4l" role="3clFbG">
                              <ref role="1m5ApE" to="rzqf:6mJVBGGsi5o" resolve="CommandParameterDeclaration" />
                              <node concept="37vLTw" id="2BHiRxgm1J5" role="1m5AlR">
                                <ref role="3cqZAo" node="1d5uNBHnu4h" resolve="it" />
                              </node>
                            </node>
                          </node>
                        </node>
                        <node concept="Rh6nW" id="1d5uNBHnu4h" role="1bW2Oz">
                          <property role="TrG5h" value="it" />
                          <node concept="2jxLKc" id="1d5uNBHnu4i" role="1tU5fm" />
                        </node>
                      </node>
                    </node>
                  </node>
                  <node concept="4Tj9Z" id="5keEkmeCqJn" role="2OqNvi">
                    <node concept="2ShNRf" id="5keEkmeCqJo" role="576Qk">
                      <node concept="2HTt$P" id="5keEkmeCqJp" role="2ShVmc">
                        <node concept="3Tqbb2" id="5keEkmeCqJq" role="2HTBi0">
                          <ref role="ehGHo" to="rzqf:6mJVBGGsi5o" resolve="CommandParameterDeclaration" />
                        </node>
                        <node concept="2OqwBi" id="5keEkmeCqJr" role="2HTEbv">
                          <node concept="BsUDl" id="3xwsMyQkE_6" role="2Oq$k0">
                            <ref role="37wK5l" node="5keEkmeCqIg" resolve="getCommandDeclaration" />
                          </node>
                          <node concept="3TrEf2" id="5keEkmeCqJv" role="2OqNvi">
                            <ref role="3Tt5mk" to="rzqf:7mEQKPeoyeU" />
                          </node>
                        </node>
                      </node>
                    </node>
                  </node>
                </node>
                <node concept="ANE8D" id="5keEkmeCqJw" role="2OqNvi" />
              </node>
            </node>
          </node>
        </node>
        <node concept="3clFbF" id="5keEkmeCqJy" role="3cqZAp">
          <node concept="2OqwBi" id="5keEkmeCqJ$" role="3clFbG">
            <node concept="13iPFW" id="5keEkmeCqJz" role="2Oq$k0" />
            <node concept="3Tsc0h" id="5keEkmeCqJC" role="2OqNvi">
              <ref role="3TtcxE" to="rzqf:5keEkmeCguH" />
            </node>
          </node>
        </node>
      </node>
    </node>
    <node concept="13i0hz" id="5keEkmeCqJD" role="13h7CS">
      <property role="TrG5h" value="getRequiredParameters" />
      <node concept="3Tm1VV" id="5keEkmeCqJE" role="1B3o_S" />
      <node concept="2I9FWS" id="5keEkmeCqJH" role="3clF45">
        <ref role="2I9WkF" to="rzqf:6mJVBGGsi5o" resolve="CommandParameterDeclaration" />
      </node>
      <node concept="3clFbS" id="5keEkmeCqJG" role="3clF47">
        <node concept="3clFbF" id="5keEkmeCqJI" role="3cqZAp">
          <node concept="2OqwBi" id="5keEkmeCxQW" role="3clFbG">
            <node concept="2OqwBi" id="5keEkmeCqJK" role="2Oq$k0">
              <node concept="BsUDl" id="5keEkmeCqJJ" role="2Oq$k0">
                <ref role="37wK5l" node="5keEkmeCqHW" resolve="getParameters" />
              </node>
              <node concept="3zZkjj" id="5keEkmeCqJO" role="2OqNvi">
                <node concept="1bVj0M" id="5keEkmeCqJP" role="23t8la">
                  <node concept="3clFbS" id="5keEkmeCqJQ" role="1bW5cS">
                    <node concept="3clFbF" id="5keEkmeCqJT" role="3cqZAp">
                      <node concept="2OqwBi" id="5keEkmeCqKc" role="3clFbG">
                        <node concept="37vLTw" id="2BHiRxglLd2" role="2Oq$k0">
                          <ref role="3cqZAo" node="5keEkmeCqJR" resolve="it" />
                        </node>
                        <node concept="2qgKlT" id="7c4O8d8qnYN" role="2OqNvi">
                          <ref role="37wK5l" node="7c4O8d8q0tV" resolve="isRequired" />
                        </node>
                      </node>
                    </node>
                  </node>
                  <node concept="Rh6nW" id="5keEkmeCqJR" role="1bW2Oz">
                    <property role="TrG5h" value="it" />
                    <node concept="2jxLKc" id="5keEkmeCqJS" role="1tU5fm" />
                  </node>
                </node>
              </node>
            </node>
            <node concept="ANE8D" id="5keEkmeCxR0" role="2OqNvi" />
          </node>
        </node>
      </node>
    </node>
    <node concept="13hLZK" id="5keEkmeCqHl" role="13h7CW">
      <node concept="3clFbS" id="5keEkmeCqHm" role="2VODD2" />
    </node>
    <node concept="13i0hz" id="5keEkmeCqIg" role="13h7CS">
      <property role="TrG5h" value="getCommandDeclaration" />
      <node concept="3Tm1VV" id="5keEkmeCqKx" role="1B3o_S" />
      <node concept="3clFbS" id="5keEkmeCqIj" role="3clF47">
        <node concept="3clFbF" id="5keEkmeCqIk" role="3cqZAp">
          <node concept="2OqwBi" id="5keEkmeCqIl" role="3clFbG">
            <node concept="13iPFW" id="5keEkmeCqIm" role="2Oq$k0" />
            <node concept="2Xjw5R" id="5keEkmeCqIn" role="2OqNvi">
              <node concept="1xMEDy" id="5keEkmeCqIo" role="1xVPHs">
                <node concept="chp4Y" id="5keEkmeCqIp" role="ri$Ld">
                  <ref role="cht4Q" to="rzqf:JzCdmU6yJC" resolve="CommandDeclaration" />
                </node>
              </node>
            </node>
          </node>
        </node>
      </node>
      <node concept="3Tqbb2" id="5keEkmeCqIu" role="3clF45">
        <ref role="ehGHo" to="rzqf:JzCdmU6yJC" resolve="CommandDeclaration" />
      </node>
    </node>
    <node concept="13i0hz" id="v0PbZDhc4j" role="13h7CS">
      <property role="13i0iv" value="false" />
      <property role="TrG5h" value="getThrowableTypes" />
      <property role="13i0it" value="true" />
      <ref role="13i0hy" to="tpek:5op8ooRkkc7" resolve="getThrowableTypes" />
      <node concept="3Tm1VV" id="v0PbZDhc4k" role="1B3o_S" />
      <node concept="3clFbS" id="v0PbZDhc4l" role="3clF47">
        <node concept="3clFbF" id="v0PbZDhc4m" role="3cqZAp">
          <node concept="2ShNRf" id="v0PbZDhc4n" role="3clFbG">
            <node concept="Tc6Ow" id="v0PbZDhc4o" role="2ShVmc">
              <node concept="3Tqbb2" id="v0PbZDhc4p" role="HW$YZ">
                <ref role="ehGHo" to="tpee:fz3vP1H" resolve="Type" />
              </node>
              <node concept="2c44tf" id="v0PbZDhc4q" role="HW$Y0">
                <node concept="3uibUv" id="v0PbZDhc4r" role="2c44tc">
                  <ref role="3uigEE" to="3v5a:~ExecutionException" resolve="ExecutionException" />
                </node>
              </node>
            </node>
          </node>
        </node>
      </node>
      <node concept="2I9FWS" id="v0PbZDhc4s" role="3clF45">
        <ref role="2I9WkF" to="tpee:fz3vP1H" resolve="Type" />
      </node>
    </node>
    <node concept="13i0hz" id="v0PbZDhc4t" role="13h7CS">
      <property role="13i0iv" value="false" />
      <property role="TrG5h" value="getBody" />
      <property role="13i0it" value="true" />
      <ref role="13i0hy" to="tpek:i2fhZ_m" resolve="getBody" />
      <node concept="3Tm1VV" id="v0PbZDhc4u" role="1B3o_S" />
      <node concept="3clFbS" id="v0PbZDhc4v" role="3clF47">
        <node concept="3clFbF" id="v0PbZDhc4w" role="3cqZAp">
          <node concept="2OqwBi" id="v0PbZDhc4M" role="3clFbG">
            <node concept="2OqwBi" id="v0PbZDhc4x" role="2Oq$k0">
              <node concept="13iPFW" id="v0PbZDhc4z" role="2Oq$k0" />
              <node concept="3TrEf2" id="v0PbZDhc4L" role="2OqNvi">
                <ref role="3Tt5mk" to="rzqf:5keEkmeCguI" />
              </node>
            </node>
            <node concept="3TrEf2" id="v0PbZDhc4Q" role="2OqNvi">
              <ref role="3Tt5mk" to="tpee:fK9aQHS" />
            </node>
          </node>
        </node>
      </node>
      <node concept="3Tqbb2" id="v0PbZDhc4A" role="3clF45">
        <ref role="ehGHo" to="tpee:fzclF80" resolve="StatementList" />
      </node>
    </node>
    <node concept="13i0hz" id="v0PbZDhc4B" role="13h7CS">
      <property role="13i0iv" value="false" />
      <property role="TrG5h" value="getExpectedRetType" />
      <property role="13i0it" value="true" />
      <ref role="13i0hy" to="tpek:i2fhBNC" resolve="getExpectedRetType" />
      <node concept="3Tm1VV" id="v0PbZDhc4C" role="1B3o_S" />
      <node concept="3clFbS" id="v0PbZDhc4D" role="3clF47">
        <node concept="3clFbF" id="v0PbZDhc4E" role="3cqZAp">
          <node concept="2pJPEk" id="2F8bNQrNgm" role="3clFbG">
            <node concept="2pJPED" id="2F8bNQrNgf" role="2pJPEn">
              <ref role="2pJxaS" to="tpd4:hausRW2" resolve="JoinType" />
              <node concept="2pIpSj" id="2F8bNQrNgh" role="2pJxcM">
                <ref role="2pIpSl" to="tpd4:hausUtE" />
                <node concept="36be1Y" id="2F8bNQrNgi" role="2pJxcZ">
                  <node concept="2pJPED" id="2F8bNQrNgg" role="36be1Z">
                    <ref role="2pJxaS" to="rzqf:JzCdmU6yKi" resolve="ProcessType" />
                  </node>
                  <node concept="2pJPED" id="2F8bNQrNgj" role="36be1Z">
                    <ref role="2pJxaS" to="tpee:g7uibYu" resolve="ClassifierType" />
                    <node concept="2pIpSj" id="2F8bNQrNgk" role="2pJxcM">
                      <ref role="2pIpSl" to="tpee:g7uigIF" />
                      <node concept="36bGnv" id="2F8bNQrNgl" role="2pJxcZ">
                        <ref role="36bGnp" to="uu3z:~ProcessHandler" resolve="ProcessHandler" />
                      </node>
                    </node>
                  </node>
                </node>
              </node>
            </node>
          </node>
        </node>
      </node>
      <node concept="3Tqbb2" id="v0PbZDhc4J" role="3clF45" />
    </node>
    <node concept="13i0hz" id="3gpm$NHlLhJ" role="13h7CS">
      <property role="TrG5h" value="getSuffix" />
      <node concept="3Tm1VV" id="3gpm$NHlLhK" role="1B3o_S" />
      <node concept="17QB3L" id="3gpm$NHlLhN" role="3clF45" />
      <node concept="3clFbS" id="3gpm$NHlLhM" role="3clF47">
        <node concept="3clFbF" id="3gpm$NHlLiV" role="3cqZAp">
          <node concept="3cpWs3" id="3gpm$NHlNE6" role="3clFbG">
            <node concept="Xl_RD" id="3gpm$NHlNE9" role="3uHU7B">
              <property role="Xl_RC" value="_" />
            </node>
            <node concept="2OqwBi" id="L_Hr3kEvGF" role="3uHU7w">
              <node concept="2qgKlT" id="L_Hr3kEvGG" role="2OqNvi">
                <ref role="37wK5l" to="i1mc:3gpm$NHlLi1" resolve="getValidClassName" />
                <node concept="2OqwBi" id="L_Hr3kEvGH" role="37wK5m">
                  <node concept="2OqwBi" id="L_Hr3kEvGJ" role="2Oq$k0">
                    <node concept="liA8E" id="L_Hr3kEvGL" role="2OqNvi">
                      <ref role="37wK5l" to="mhbf:~SNode.getNodeId():org.jetbrains.mps.openapi.model.SNodeId" resolve="getNodeId" />
                    </node>
                    <node concept="2JrnkZ" id="L_Hr3kEvGM" role="2Oq$k0">
                      <node concept="13iPFW" id="L_Hr3kEvGN" role="2JrQYb" />
                    </node>
                  </node>
                  <node concept="liA8E" id="L_Hr3kEvGO" role="2OqNvi">
                    <ref role="37wK5l" to="wyt6:~Object.toString():java.lang.String" resolve="toString" />
                  </node>
                </node>
              </node>
              <node concept="3TUQnm" id="L_Hr3kEvGR" role="2Oq$k0">
                <ref role="3TV0OU" to="id7i:O$iR4JBsQF" resolve="IGeneratedToClass" />
              </node>
            </node>
          </node>
        </node>
      </node>
    </node>
  </node>
  <node concept="13h7C7" id="LoP3E1xKmZ">
    <property role="3GE5qa" value="newProcessBuilder" />
    <ref role="13h7C2" to="rzqf:225WGn8g0Ki" resolve="NewProcessBuilderExpression" />
    <node concept="13hLZK" id="LoP3E1xKn0" role="13h7CW">
      <node concept="3clFbS" id="LoP3E1xKn1" role="2VODD2" />
    </node>
    <node concept="13i0hz" id="LoP3E1xXbQ" role="13h7CS">
      <property role="13i0iv" value="false" />
      <property role="TrG5h" value="isLegalAsStatement" />
      <property role="13i0it" value="true" />
      <ref role="13i0hy" to="tpek:i26MfYG" resolve="isLegalAsStatement" />
      <node concept="3Tm1VV" id="LoP3E1xXbR" role="1B3o_S" />
      <node concept="3clFbS" id="LoP3E1xXbS" role="3clF47">
        <node concept="3clFbF" id="LoP3E1y0Zw" role="3cqZAp">
          <node concept="3clFbT" id="LoP3E1y0Zx" role="3clFbG">
            <property role="3clFbU" value="true" />
          </node>
        </node>
      </node>
      <node concept="10P_77" id="LoP3E1xXbT" role="3clF45" />
    </node>
  </node>
  <node concept="13h7C7" id="1pHZJ4B4OAq">
    <property role="3GE5qa" value="newProcessBuilder" />
    <ref role="13h7C2" to="rzqf:1pHZJ4B4OlD" resolve="CommandPartLengthOperation" />
    <node concept="13hLZK" id="1pHZJ4B4OAr" role="13h7CW">
      <node concept="3clFbS" id="1pHZJ4B4OAs" role="2VODD2" />
    </node>
    <node concept="13i0hz" id="1pHZJ4B4OAt" role="13h7CS">
      <property role="13i0iv" value="false" />
      <property role="TrG5h" value="isDotExpressionLegalAsStatement" />
      <property role="13i0it" value="false" />
      <ref role="13i0hy" to="tpek:i26OiY_" resolve="isDotExpressionLegalAsStatement" />
      <node concept="3Tm1VV" id="1pHZJ4B4OAu" role="1B3o_S" />
      <node concept="3clFbS" id="1pHZJ4B4OAv" role="3clF47">
        <node concept="3clFbF" id="1pHZJ4B4OA_" role="3cqZAp">
          <node concept="3clFbT" id="1pHZJ4B4OAA" role="3clFbG">
            <property role="3clFbU" value="true" />
          </node>
        </node>
      </node>
      <node concept="10P_77" id="1pHZJ4B4OAw" role="3clF45" />
    </node>
    <node concept="13i0hz" id="1653mnvAOMY" role="13h7CS">
      <property role="2Ki8OM" value="true" />
      <property role="13i0is" value="false" />
      <property role="TrG5h" value="lvalue" />
      <property role="13i0it" value="false" />
      <ref role="13i0hy" to="tpek:1653mnvAgvW" resolve="lvalue" />
      <node concept="3Tm1VV" id="1653mnvAOMZ" role="1B3o_S" />
      <node concept="10P_77" id="1653mnvAOMX" role="3clF45" />
      <node concept="3clFbS" id="1653mnvAON0" role="3clF47">
        <node concept="3cpWs6" id="1653mnvAON1" role="3cqZAp">
          <node concept="3clFbT" id="1653mnvAON2" role="3cqZAk">
            <property role="3clFbU" value="true" />
          </node>
        </node>
      </node>
    </node>
  </node>
  <node concept="13h7C7" id="7953dFby5Mo">
    <property role="3GE5qa" value="newProcessBuilder" />
    <ref role="13h7C2" to="rzqf:7953dFby5LS" resolve="CommandPartToListOperation" />
    <node concept="13hLZK" id="7953dFby5Mp" role="13h7CW">
      <node concept="3clFbS" id="7953dFby5Mq" role="2VODD2" />
    </node>
    <node concept="13i0hz" id="7953dFby5Mr" role="13h7CS">
      <property role="13i0iv" value="false" />
      <property role="TrG5h" value="isDotExpressionLegalAsStatement" />
      <property role="13i0it" value="false" />
      <ref role="13i0hy" to="tpek:i26OiY_" resolve="isDotExpressionLegalAsStatement" />
      <node concept="3Tm1VV" id="7953dFby5Ms" role="1B3o_S" />
      <node concept="3clFbS" id="7953dFby5Mt" role="3clF47">
        <node concept="3clFbF" id="7953dFby5Mz" role="3cqZAp">
          <node concept="3clFbT" id="7953dFby5M$" role="3clFbG">
            <property role="3clFbU" value="true" />
          </node>
        </node>
      </node>
      <node concept="10P_77" id="7953dFby5Mu" role="3clF45" />
    </node>
    <node concept="13i0hz" id="1653mnvAMEP" role="13h7CS">
      <property role="2Ki8OM" value="true" />
      <property role="13i0is" value="false" />
      <property role="TrG5h" value="lvalue" />
      <property role="13i0it" value="false" />
      <ref role="13i0hy" to="tpek:1653mnvAgvW" resolve="lvalue" />
      <node concept="3Tm1VV" id="1653mnvAMEQ" role="1B3o_S" />
      <node concept="10P_77" id="1653mnvAMEO" role="3clF45" />
      <node concept="3clFbS" id="1653mnvAMER" role="3clF47">
        <node concept="3cpWs6" id="1653mnvAMES" role="3cqZAp">
          <node concept="3clFbT" id="1653mnvAMET" role="3cqZAk">
            <property role="3clFbU" value="true" />
          </node>
        </node>
      </node>
    </node>
  </node>
  <node concept="13h7C7" id="1653mnvAORK">
    <ref role="13h7C2" to="rzqf:JzCdmU6yJS" resolve="BuilderBlockStatement" />
    <node concept="13hLZK" id="1653mnvAORL" role="13h7CW">
      <node concept="3clFbS" id="1653mnvAORM" role="2VODD2" />
    </node>
  </node>
  <node concept="13h7C7" id="1653mnvB2TA">
    <ref role="13h7C2" to="rzqf:JzCdmU6yJV" resolve="BuilderParameter" />
    <node concept="13hLZK" id="1653mnvB2TB" role="13h7CW">
      <node concept="3clFbS" id="1653mnvB2TC" role="2VODD2" />
    </node>
  </node>
  <node concept="13h7C7" id="30QAtkebzXY">
    <ref role="13h7C2" to="rzqf:JzCdmU6yKk" resolve="RedirectOutputExpression" />
    <node concept="13hLZK" id="30QAtkeb$1w" role="13h7CW">
      <node concept="3clFbS" id="30QAtkeb$1x" role="2VODD2" />
    </node>
    <node concept="13i0hz" id="30QAtkebIOQ" role="13h7CS">
      <property role="TrG5h" value="isLegalAsStatement" />
      <property role="13i0it" value="false" />
      <property role="13i0iv" value="false" />
      <ref role="13i0hy" to="tpek:i26MfYG" resolve="isLegalAsStatement" />
      <node concept="3Tm1VV" id="30QAtkebIOR" role="1B3o_S" />
      <node concept="10P_77" id="30QAtkebIOS" role="3clF45" />
      <node concept="3clFbS" id="30QAtkebIPa" role="3clF47">
        <node concept="3clFbF" id="30QAtkebKmq" role="3cqZAp">
          <node concept="3clFbT" id="30QAtkebKmp" role="3clFbG">
            <property role="3clFbU" value="true" />
          </node>
        </node>
      </node>
    </node>
  </node>
</model>

