<?xml version="1.0" encoding="UTF-8"?>
<model ref="r:4c8c6241-8bf4-4d04-84a1-f7fd7fcbdc2c(jetbrains.mps.refactoring.runtime.access)">
  <persistence version="9" />
  <languages>
    <use id="f3061a53-9226-4cc5-a443-f952ceaf5816" name="jetbrains.mps.baseLanguage" version="4" />
  </languages>
  <imports>
    <import index="ge2m" ref="r:bd8551c6-e2e3-4499-a261-45b0c886d1d1(jetbrains.mps.refactoring.framework)" />
  </imports>
  <registry>
    <language id="f3061a53-9226-4cc5-a443-f952ceaf5816" name="jetbrains.mps.baseLanguage">
      <concept id="1215693861676" name="jetbrains.mps.baseLanguage.structure.BaseAssignmentExpression" flags="nn" index="d038R">
        <child id="1068498886297" name="rValue" index="37vLTx" />
        <child id="1068498886295" name="lValue" index="37vLTJ" />
      </concept>
      <concept id="1465982738277781862" name="jetbrains.mps.baseLanguage.structure.PlaceholderMember" flags="ng" index="2tJIrI" />
      <concept id="1070462154015" name="jetbrains.mps.baseLanguage.structure.StaticFieldDeclaration" flags="ig" index="Wx3nA" />
      <concept id="1081236700938" name="jetbrains.mps.baseLanguage.structure.StaticMethodDeclaration" flags="ig" index="2YIFZL" />
      <concept id="1068390468198" name="jetbrains.mps.baseLanguage.structure.ClassConcept" flags="ig" index="312cEu">
        <property id="1075300953594" name="abstractClass" index="1sVAO0" />
      </concept>
      <concept id="1068431474542" name="jetbrains.mps.baseLanguage.structure.VariableDeclaration" flags="ng" index="33uBYm">
        <property id="1176718929932" name="isFinal" index="3TUv4t" />
      </concept>
      <concept id="1068498886296" name="jetbrains.mps.baseLanguage.structure.VariableReference" flags="nn" index="37vLTw">
        <reference id="1068581517664" name="variableDeclaration" index="3cqZAo" />
      </concept>
      <concept id="1068498886292" name="jetbrains.mps.baseLanguage.structure.ParameterDeclaration" flags="ir" index="37vLTG" />
      <concept id="1068498886294" name="jetbrains.mps.baseLanguage.structure.AssignmentExpression" flags="nn" index="37vLTI" />
      <concept id="4972933694980447171" name="jetbrains.mps.baseLanguage.structure.BaseVariableDeclaration" flags="ng" index="19Szcq">
        <child id="5680397130376446158" name="type" index="1tU5fm" />
      </concept>
      <concept id="1068580123132" name="jetbrains.mps.baseLanguage.structure.BaseMethodDeclaration" flags="ng" index="3clF44">
        <property id="1181808852946" name="isFinal" index="DiZV1" />
        <child id="1068580123133" name="returnType" index="3clF45" />
        <child id="1068580123134" name="parameter" index="3clF46" />
        <child id="1068580123135" name="body" index="3clF47" />
      </concept>
      <concept id="1068580123165" name="jetbrains.mps.baseLanguage.structure.InstanceMethodDeclaration" flags="ig" index="3clFb_">
        <property id="1178608670077" name="isAbstract" index="1EzhhJ" />
      </concept>
      <concept id="1068580123155" name="jetbrains.mps.baseLanguage.structure.ExpressionStatement" flags="nn" index="3clFbF">
        <child id="1068580123156" name="expression" index="3clFbG" />
      </concept>
      <concept id="1068580123136" name="jetbrains.mps.baseLanguage.structure.StatementList" flags="sn" stub="5293379017992965193" index="3clFbS">
        <child id="1068581517665" name="statement" index="3cqZAp" />
      </concept>
      <concept id="1068580123140" name="jetbrains.mps.baseLanguage.structure.ConstructorDeclaration" flags="ig" index="3clFbW" />
      <concept id="1068581242878" name="jetbrains.mps.baseLanguage.structure.ReturnStatement" flags="nn" index="3cpWs6">
        <child id="1068581517676" name="expression" index="3cqZAk" />
      </concept>
      <concept id="1068581517677" name="jetbrains.mps.baseLanguage.structure.VoidType" flags="in" index="3cqZAl" />
      <concept id="1107461130800" name="jetbrains.mps.baseLanguage.structure.Classifier" flags="ng" index="3pOWGL">
        <child id="5375687026011219971" name="member" index="jymVt" unordered="true" />
      </concept>
      <concept id="1107535904670" name="jetbrains.mps.baseLanguage.structure.ClassifierType" flags="in" index="3uibUv">
        <reference id="1107535924139" name="classifier" index="3uigEE" />
      </concept>
      <concept id="1178549954367" name="jetbrains.mps.baseLanguage.structure.IVisible" flags="ng" index="1B3ioH">
        <child id="1178549979242" name="visibility" index="1B3o_S" />
      </concept>
      <concept id="1107796713796" name="jetbrains.mps.baseLanguage.structure.Interface" flags="ig" index="3HP615" />
      <concept id="1146644602865" name="jetbrains.mps.baseLanguage.structure.PublicVisibility" flags="nn" index="3Tm1VV" />
      <concept id="1146644641414" name="jetbrains.mps.baseLanguage.structure.ProtectedVisibility" flags="nn" index="3Tmbuc" />
    </language>
    <language id="ceab5195-25ea-4f22-9b92-103b95ca8c0c" name="jetbrains.mps.lang.core">
      <concept id="1169194658468" name="jetbrains.mps.lang.core.structure.INamedConcept" flags="ng" index="TrEIO">
        <property id="1169194664001" name="name" index="TrG5h" />
      </concept>
    </language>
  </registry>
  <node concept="3HP615" id="3dEPKBAwjZe">
    <property role="TrG5h" value="RefactoringFacade" />
    <node concept="3clFb_" id="1TclyuNTOmV" role="jymVt">
      <property role="TrG5h" value="executeSimple" />
      <property role="1EzhhJ" value="true" />
      <node concept="37vLTG" id="1TclyuNTOmW" role="3clF46">
        <property role="TrG5h" value="context" />
        <property role="3TUv4t" value="true" />
        <node concept="3uibUv" id="1TclyuNTOmX" role="1tU5fm">
          <ref role="3uigEE" to="ge2m:4a0HOMfn8yn" resolve="RefactoringContext" />
        </node>
      </node>
      <node concept="3cqZAl" id="1TclyuNTOmY" role="3clF45" />
      <node concept="3Tm1VV" id="1TclyuNTOmZ" role="1B3o_S" />
      <node concept="3clFbS" id="1TclyuNTOn0" role="3clF47" />
    </node>
    <node concept="3clFb_" id="29N7xYwTG9W" role="jymVt">
      <property role="1EzhhJ" value="true" />
      <property role="TrG5h" value="execute" />
      <property role="DiZV1" value="false" />
      <node concept="3Tm1VV" id="2rJ9V01VxN_" role="1B3o_S" />
      <node concept="3cqZAl" id="29N7xYwTG9Y" role="3clF45" />
      <node concept="37vLTG" id="29N7xYwTGa1" role="3clF46">
        <property role="TrG5h" value="refactoringContext" />
        <property role="3TUv4t" value="true" />
        <node concept="3uibUv" id="29N7xYwTGa2" role="1tU5fm">
          <ref role="3uigEE" to="ge2m:4a0HOMfn8yn" resolve="RefactoringContext" />
        </node>
      </node>
      <node concept="3clFbS" id="29N7xYwTGa3" role="3clF47" />
    </node>
    <node concept="3Tm1VV" id="3dEPKBAwjZf" role="1B3o_S" />
  </node>
  <node concept="312cEu" id="3dEPKBAxz0O">
    <property role="TrG5h" value="RefactoringAccess" />
    <property role="1sVAO0" value="true" />
    <node concept="Wx3nA" id="1dH5fOG2bOM" role="jymVt">
      <property role="TrG5h" value="ourInstance" />
      <node concept="3Tmbuc" id="3dEPKBAxIBS" role="1B3o_S" />
      <node concept="3uibUv" id="3dEPKBAxBzH" role="1tU5fm">
        <ref role="3uigEE" node="3dEPKBAxz0O" resolve="RefactoringAccess" />
      </node>
    </node>
    <node concept="2tJIrI" id="3dEPKBAxIRo" role="jymVt" />
    <node concept="3clFbW" id="1dH5fOG2bOk" role="jymVt">
      <node concept="3cqZAl" id="1dH5fOG2bOl" role="3clF45" />
      <node concept="3Tmbuc" id="3dEPKBAwofH" role="1B3o_S" />
      <node concept="3clFbS" id="1dH5fOG2bOn" role="3clF47" />
    </node>
    <node concept="2tJIrI" id="3dEPKBAxIOz" role="jymVt" />
    <node concept="3clFb_" id="52KjdOfLP8s" role="jymVt">
      <property role="1EzhhJ" value="true" />
      <property role="TrG5h" value="getRefactoringFacade" />
      <node concept="3uibUv" id="3dEPKBAxBB9" role="3clF45">
        <ref role="3uigEE" node="3dEPKBAwjZe" resolve="RefactoringFacade" />
      </node>
      <node concept="3Tm1VV" id="52KjdOfLP8u" role="1B3o_S" />
      <node concept="3clFbS" id="52KjdOfLP8v" role="3clF47" />
    </node>
    <node concept="2tJIrI" id="3dEPKBAxINa" role="jymVt" />
    <node concept="2YIFZL" id="1dH5fOG2bPt" role="jymVt">
      <property role="TrG5h" value="getInstance" />
      <node concept="3uibUv" id="3dEPKBAxEVU" role="3clF45">
        <ref role="3uigEE" node="3dEPKBAxz0O" resolve="RefactoringAccess" />
      </node>
      <node concept="3Tm1VV" id="1dH5fOG2bPv" role="1B3o_S" />
      <node concept="3clFbS" id="1dH5fOG2bPw" role="3clF47">
        <node concept="3cpWs6" id="1dH5fOG2bPx" role="3cqZAp">
          <node concept="37vLTw" id="3dEPKBAxIMw" role="3cqZAk">
            <ref role="3cqZAo" node="1dH5fOG2bOM" resolve="ourInstance" />
          </node>
        </node>
      </node>
    </node>
    <node concept="2tJIrI" id="3dEPKBAxIPX" role="jymVt" />
    <node concept="2YIFZL" id="1dH5fOG2bPM" role="jymVt">
      <property role="TrG5h" value="setInstance" />
      <node concept="37vLTG" id="1dH5fOG2bPR" role="3clF46">
        <property role="TrG5h" value="instance" />
        <node concept="3uibUv" id="3dEPKBAxICA" role="1tU5fm">
          <ref role="3uigEE" node="3dEPKBAxz0O" resolve="RefactoringAccess" />
        </node>
      </node>
      <node concept="3cqZAl" id="1dH5fOG2bPN" role="3clF45" />
      <node concept="3Tmbuc" id="1dH5fOG2bPQ" role="1B3o_S" />
      <node concept="3clFbS" id="1dH5fOG2bPP" role="3clF47">
        <node concept="3clFbF" id="1dH5fOG2bPU" role="3cqZAp">
          <node concept="37vLTI" id="1dH5fOG2bPY" role="3clFbG">
            <node concept="37vLTw" id="2BHiRxgmv9a" role="37vLTx">
              <ref role="3cqZAo" node="1dH5fOG2bPR" resolve="instance" />
            </node>
            <node concept="37vLTw" id="3dEPKBAxIK5" role="37vLTJ">
              <ref role="3cqZAo" node="1dH5fOG2bOM" resolve="ourInstance" />
            </node>
          </node>
        </node>
      </node>
    </node>
    <node concept="3Tm1VV" id="3dEPKBAxz0P" role="1B3o_S" />
  </node>
</model>

