<?xml version="1.0" encoding="UTF-8"?>
<model ref="r:11cf689f-8de4-4284-81d2-162df94c454b(jetbrains.mps.baseLanguage.doubleDispatch.behavior)">
  <persistence version="9" />
  <languages>
    <use id="af65afd8-f0dd-4942-87d9-63a55f2a9db1" name="jetbrains.mps.lang.behavior" version="0" />
    <devkit ref="fbc25dd2-5da4-483a-8b19-70928e1b62d7(jetbrains.mps.devkit.general-purpose)" />
  </languages>
  <imports>
    <import index="spkm" ref="r:7e809ad3-04d3-4570-a077-2d8302adf756(jetbrains.mps.baseLanguage.doubleDispatch.structure)" />
  </imports>
  <registry />
</model>

