<?xml version="1.0" encoding="UTF-8"?>
<model ref="r:3d7b3732-9bef-45a8-98fa-22d696f27853(jetbrains.mps.baseLanguage.doubleDispatch.constraints)">
  <persistence version="9" />
  <languages>
    <use id="3f4bc5f5-c6c1-4a28-8b10-c83066ffa4a1" name="jetbrains.mps.lang.constraints" version="0" />
    <devkit ref="fbc25dd2-5da4-483a-8b19-70928e1b62d7(jetbrains.mps.devkit.general-purpose)" />
  </languages>
  <imports>
    <import index="spkm" ref="r:7e809ad3-04d3-4570-a077-2d8302adf756(jetbrains.mps.baseLanguage.doubleDispatch.structure)" />
    <import index="6xgk" ref="r:6e9ad488-5df2-49e4-8c01-8a7f3812adf7(jetbrains.mps.lang.scopes.runtime)" />
    <import index="33ny" ref="6354ebe7-c22a-4a0f-ac54-50b52ab9b065/java:java.util(JDK/)" />
    <import index="tpee" ref="r:00000000-0000-4000-0000-011c895902ca(jetbrains.mps.baseLanguage.structure)" implicit="true" />
  </imports>
  <registry>
    <language id="f3061a53-9226-4cc5-a443-f952ceaf5816" name="jetbrains.mps.baseLanguage">
      <concept id="1197027756228" name="jetbrains.mps.baseLanguage.structure.DotExpression" flags="nn" index="2OqwBi">
        <child id="1197027771414" name="operand" index="2Oq$k0" />
        <child id="1197027833540" name="operation" index="2OqNvi" />
      </concept>
      <concept id="1137021947720" name="jetbrains.mps.baseLanguage.structure.ConceptFunction" flags="in" index="2VMwT0">
        <child id="1137022507850" name="body" index="2VODD2" />
      </concept>
      <concept id="1068580123155" name="jetbrains.mps.baseLanguage.structure.ExpressionStatement" flags="nn" index="3clFbF">
        <child id="1068580123156" name="expression" index="3clFbG" />
      </concept>
      <concept id="1068580123136" name="jetbrains.mps.baseLanguage.structure.StatementList" flags="sn" stub="5293379017992965193" index="3clFbS">
        <child id="1068581517665" name="statement" index="3cqZAp" />
      </concept>
      <concept id="6329021646629104957" name="jetbrains.mps.baseLanguage.structure.TextCommentPart" flags="nn" index="3SKdUq">
        <property id="6329021646629104958" name="text" index="3SKdUp" />
      </concept>
      <concept id="6329021646629104954" name="jetbrains.mps.baseLanguage.structure.SingleLineComment" flags="nn" index="3SKdUt">
        <child id="6329021646629175155" name="commentPart" index="3SKWNk" />
      </concept>
    </language>
    <language id="3f4bc5f5-c6c1-4a28-8b10-c83066ffa4a1" name="jetbrains.mps.lang.constraints">
      <concept id="1202989531578" name="jetbrains.mps.lang.constraints.structure.ConstraintFunction_CanBeAChild" flags="in" index="nKS2y" />
      <concept id="1202989658459" name="jetbrains.mps.lang.constraints.structure.ConstraintFunctionParameter_parentNode" flags="nn" index="nLn13" />
      <concept id="1213093968558" name="jetbrains.mps.lang.constraints.structure.ConceptConstraints" flags="ng" index="1M2fIO">
        <reference id="1213093996982" name="concept" index="1M2myG" />
        <child id="1213106463729" name="canBeChild" index="1MLUbF" />
      </concept>
    </language>
    <language id="7866978e-a0f0-4cc7-81bc-4d213d9375e1" name="jetbrains.mps.lang.smodel">
      <concept id="1177026924588" name="jetbrains.mps.lang.smodel.structure.RefConcept_Reference" flags="nn" index="chp4Y">
        <reference id="1177026940964" name="conceptDeclaration" index="cht4Q" />
      </concept>
      <concept id="1139621453865" name="jetbrains.mps.lang.smodel.structure.Node_IsInstanceOfOperation" flags="nn" index="1mIQ4w">
        <child id="1177027386292" name="conceptArgument" index="cj9EA" />
      </concept>
    </language>
  </registry>
  <node concept="1M2fIO" id="25pbpTNvWz2">
    <ref role="1M2myG" to="spkm:25pbpTNvUrT" resolve="DispatchModifier" />
    <node concept="nKS2y" id="25pbpTNvWzQ" role="1MLUbF">
      <node concept="3clFbS" id="25pbpTNvWzR" role="2VODD2">
        <node concept="3SKdUt" id="20YUQaJ$W4y" role="3cqZAp">
          <node concept="3SKdUq" id="20YUQaJ$WcN" role="3SKWNk">
            <property role="3SKdUp" value="applicable only to java methods" />
          </node>
        </node>
        <node concept="3clFbF" id="25pbpTNvWAM" role="3cqZAp">
          <node concept="2OqwBi" id="25pbpTNvWKm" role="3clFbG">
            <node concept="1mIQ4w" id="25pbpTNvWRh" role="2OqNvi">
              <node concept="chp4Y" id="25pbpTNvWZQ" role="cj9EA">
                <ref role="cht4Q" to="tpee:6LFqxSRBTg8" resolve="MethodDeclaration" />
              </node>
            </node>
            <node concept="nLn13" id="25pbpTNvWAL" role="2Oq$k0" />
          </node>
        </node>
      </node>
    </node>
  </node>
</model>

