<?xml version="1.0" encoding="UTF-8"?>
<model ref="r:f75f396b-f66a-4c8f-9533-fd8bd4d19e49(jetbrains.mps.lang.dataFlow.analyzers.behavior)">
  <persistence version="9" />
  <languages>
    <use id="83888646-71ce-4f1c-9c53-c54016f6ad4f" name="jetbrains.mps.baseLanguage.collections" version="0" />
    <use id="af65afd8-f0dd-4942-87d9-63a55f2a9db1" name="jetbrains.mps.lang.behavior" version="0" />
    <use id="7866978e-a0f0-4cc7-81bc-4d213d9375e1" name="jetbrains.mps.lang.smodel" version="4" />
    <use id="f3061a53-9226-4cc5-a443-f952ceaf5816" name="jetbrains.mps.baseLanguage" version="4" />
  </languages>
  <imports>
    <import index="bj1v" ref="r:8b09f5e2-b403-4747-aaa3-eac5acb1f753(jetbrains.mps.lang.dataFlow.analyzers.structure)" />
    <import index="tpce" ref="r:00000000-0000-4000-0000-011c89590292(jetbrains.mps.lang.structure.structure)" />
    <import index="tpek" ref="r:00000000-0000-4000-0000-011c895902c0(jetbrains.mps.baseLanguage.behavior)" />
    <import index="wyt6" ref="6354ebe7-c22a-4a0f-ac54-50b52ab9b065/java:java.lang(JDK/)" />
    <import index="unno" ref="r:61e3d524-8c49-4491-b5e3-f6d6e9364527(jetbrains.mps.util)" />
    <import index="tpee" ref="r:00000000-0000-4000-0000-011c895902ca(jetbrains.mps.baseLanguage.structure)" implicit="true" />
    <import index="tp2b" ref="r:00000000-0000-4000-0000-011c8959033f(jetbrains.mps.lang.pattern.behavior)" implicit="true" />
    <import index="tpck" ref="r:00000000-0000-4000-0000-011c89590288(jetbrains.mps.lang.core.structure)" implicit="true" />
  </imports>
  <registry>
    <language id="af65afd8-f0dd-4942-87d9-63a55f2a9db1" name="jetbrains.mps.lang.behavior">
      <concept id="1225194240794" name="jetbrains.mps.lang.behavior.structure.ConceptBehavior" flags="ng" index="13h7C7">
        <reference id="1225194240799" name="concept" index="13h7C2" />
        <child id="1225194240805" name="method" index="13h7CS" />
        <child id="1225194240801" name="constructor" index="13h7CW" />
      </concept>
      <concept id="1225194413805" name="jetbrains.mps.lang.behavior.structure.ConceptConstructorDeclaration" flags="in" index="13hLZK" />
      <concept id="1225194472830" name="jetbrains.mps.lang.behavior.structure.ConceptMethodDeclaration" flags="ng" index="13i0hz">
        <property id="5864038008284099149" name="isStatic" index="2Ki8OM" />
        <property id="1225194472833" name="isPrivate" index="13i0is" />
        <property id="1225194472832" name="isVirtual" index="13i0it" />
        <property id="1225194472834" name="isAbstract" index="13i0iv" />
        <reference id="1225194472831" name="overriddenMethod" index="13i0hy" />
      </concept>
      <concept id="1225194628440" name="jetbrains.mps.lang.behavior.structure.SuperNodeExpression" flags="nn" index="13iAh5">
        <reference id="5299096511375896640" name="superConcept" index="3eA5LN" />
      </concept>
      <concept id="1225194691553" name="jetbrains.mps.lang.behavior.structure.ThisNodeExpression" flags="nn" index="13iPFW" />
    </language>
    <language id="f3061a53-9226-4cc5-a443-f952ceaf5816" name="jetbrains.mps.baseLanguage">
      <concept id="1202948039474" name="jetbrains.mps.baseLanguage.structure.InstanceMethodCallOperation" flags="nn" index="liA8E" />
      <concept id="1154032098014" name="jetbrains.mps.baseLanguage.structure.AbstractLoopStatement" flags="nn" index="2LF5Ji">
        <child id="1154032183016" name="body" index="2LFqv$" />
      </concept>
      <concept id="1197027756228" name="jetbrains.mps.baseLanguage.structure.DotExpression" flags="nn" index="2OqwBi">
        <child id="1197027771414" name="operand" index="2Oq$k0" />
        <child id="1197027833540" name="operation" index="2OqNvi" />
      </concept>
      <concept id="1145552977093" name="jetbrains.mps.baseLanguage.structure.GenericNewExpression" flags="nn" index="2ShNRf">
        <child id="1145553007750" name="creator" index="2ShVmc" />
      </concept>
      <concept id="1137021947720" name="jetbrains.mps.baseLanguage.structure.ConceptFunction" flags="in" index="2VMwT0">
        <child id="1137022507850" name="body" index="2VODD2" />
      </concept>
      <concept id="1070475926800" name="jetbrains.mps.baseLanguage.structure.StringLiteral" flags="nn" index="Xl_RD">
        <property id="1070475926801" name="value" index="Xl_RC" />
      </concept>
      <concept id="1081236700937" name="jetbrains.mps.baseLanguage.structure.StaticMethodCall" flags="nn" index="2YIFZM">
        <reference id="1144433194310" name="classConcept" index="1Pybhc" />
      </concept>
      <concept id="1070534644030" name="jetbrains.mps.baseLanguage.structure.BooleanType" flags="in" index="10P_77" />
      <concept id="1068431474542" name="jetbrains.mps.baseLanguage.structure.VariableDeclaration" flags="ng" index="33uBYm">
        <child id="1068431790190" name="initializer" index="33vP2m" />
      </concept>
      <concept id="1068498886296" name="jetbrains.mps.baseLanguage.structure.VariableReference" flags="nn" index="37vLTw">
        <reference id="1068581517664" name="variableDeclaration" index="3cqZAo" />
      </concept>
      <concept id="1225271177708" name="jetbrains.mps.baseLanguage.structure.StringType" flags="in" index="17QB3L" />
      <concept id="4972933694980447171" name="jetbrains.mps.baseLanguage.structure.BaseVariableDeclaration" flags="ng" index="19Szcq">
        <child id="5680397130376446158" name="type" index="1tU5fm" />
      </concept>
      <concept id="1068580123132" name="jetbrains.mps.baseLanguage.structure.BaseMethodDeclaration" flags="ng" index="3clF44">
        <child id="1068580123133" name="returnType" index="3clF45" />
        <child id="1068580123135" name="body" index="3clF47" />
      </concept>
      <concept id="1068580123152" name="jetbrains.mps.baseLanguage.structure.EqualsExpression" flags="nn" index="3clFbC" />
      <concept id="1068580123155" name="jetbrains.mps.baseLanguage.structure.ExpressionStatement" flags="nn" index="3clFbF">
        <child id="1068580123156" name="expression" index="3clFbG" />
      </concept>
      <concept id="1068580123159" name="jetbrains.mps.baseLanguage.structure.IfStatement" flags="nn" index="3clFbJ">
        <child id="1068580123160" name="condition" index="3clFbw" />
        <child id="1068580123161" name="ifTrue" index="3clFbx" />
      </concept>
      <concept id="1068580123136" name="jetbrains.mps.baseLanguage.structure.StatementList" flags="sn" stub="5293379017992965193" index="3clFbS">
        <child id="1068581517665" name="statement" index="3cqZAp" />
      </concept>
      <concept id="1068580123137" name="jetbrains.mps.baseLanguage.structure.BooleanConstant" flags="nn" index="3clFbT">
        <property id="1068580123138" name="value" index="3clFbU" />
      </concept>
      <concept id="1068581242875" name="jetbrains.mps.baseLanguage.structure.PlusExpression" flags="nn" index="3cpWs3" />
      <concept id="1068581242878" name="jetbrains.mps.baseLanguage.structure.ReturnStatement" flags="nn" index="3cpWs6">
        <child id="1068581517676" name="expression" index="3cqZAk" />
      </concept>
      <concept id="1068581242864" name="jetbrains.mps.baseLanguage.structure.LocalVariableDeclarationStatement" flags="nn" index="3cpWs8">
        <child id="1068581242865" name="localVariableDeclaration" index="3cpWs9" />
      </concept>
      <concept id="1068581242863" name="jetbrains.mps.baseLanguage.structure.LocalVariableDeclaration" flags="nr" index="3cpWsn" />
      <concept id="1204053956946" name="jetbrains.mps.baseLanguage.structure.IMethodCall" flags="ng" index="1ndlxa">
        <reference id="1068499141037" name="baseMethodDeclaration" index="37wK5l" />
        <child id="1068499141038" name="actualArgument" index="37wK5m" />
      </concept>
      <concept id="1081773326031" name="jetbrains.mps.baseLanguage.structure.BinaryOperation" flags="nn" index="3uHJSO">
        <child id="1081773367579" name="rightExpression" index="3uHU7w" />
        <child id="1081773367580" name="leftExpression" index="3uHU7B" />
      </concept>
      <concept id="1178549954367" name="jetbrains.mps.baseLanguage.structure.IVisible" flags="ng" index="1B3ioH">
        <child id="1178549979242" name="visibility" index="1B3o_S" />
      </concept>
      <concept id="1144226303539" name="jetbrains.mps.baseLanguage.structure.ForeachStatement" flags="nn" index="1DcWWT">
        <child id="1144226360166" name="iterable" index="1DdaDG" />
      </concept>
      <concept id="1144230876926" name="jetbrains.mps.baseLanguage.structure.AbstractForStatement" flags="nn" index="1DupvO">
        <child id="1144230900587" name="variable" index="1Duv9x" />
      </concept>
      <concept id="1146644602865" name="jetbrains.mps.baseLanguage.structure.PublicVisibility" flags="nn" index="3Tm1VV" />
    </language>
    <language id="7866978e-a0f0-4cc7-81bc-4d213d9375e1" name="jetbrains.mps.lang.smodel">
      <concept id="1177026924588" name="jetbrains.mps.lang.smodel.structure.RefConcept_Reference" flags="nn" index="chp4Y">
        <reference id="1177026940964" name="conceptDeclaration" index="cht4Q" />
      </concept>
      <concept id="1138411891628" name="jetbrains.mps.lang.smodel.structure.SNodeOperation" flags="nn" index="eCIE_">
        <child id="1144104376918" name="parameter" index="1xVPHs" />
      </concept>
      <concept id="1179409122411" name="jetbrains.mps.lang.smodel.structure.Node_ConceptMethodCall" flags="nn" index="2qgKlT" />
      <concept id="8866923313515890008" name="jetbrains.mps.lang.smodel.structure.AsNodeOperation" flags="nn" index="FGMqu" />
      <concept id="1143234257716" name="jetbrains.mps.lang.smodel.structure.Node_GetModelOperation" flags="nn" index="I4A8Y" />
      <concept id="1145383075378" name="jetbrains.mps.lang.smodel.structure.SNodeListType" flags="in" index="2I9FWS">
        <reference id="1145383142433" name="elementConcept" index="2I9WkF" />
      </concept>
      <concept id="1145404486709" name="jetbrains.mps.lang.smodel.structure.SemanticDowncastExpression" flags="nn" index="2JrnkZ">
        <child id="1145404616321" name="leftExpression" index="2JrQYb" />
      </concept>
      <concept id="1145567426890" name="jetbrains.mps.lang.smodel.structure.SNodeListCreator" flags="nn" index="2T8Vx0">
        <child id="1145567471833" name="createdType" index="2T96Bj" />
      </concept>
      <concept id="1171407110247" name="jetbrains.mps.lang.smodel.structure.Node_GetAncestorOperation" flags="nn" index="2Xjw5R" />
      <concept id="1176109685393" name="jetbrains.mps.lang.smodel.structure.Model_RootsIncludingImportedOperation" flags="nn" index="3lApI0">
        <reference id="1176109685394" name="concept" index="3lApI3" />
      </concept>
      <concept id="1144101972840" name="jetbrains.mps.lang.smodel.structure.OperationParm_Concept" flags="ng" index="1xMEDy">
        <child id="1207343664468" name="conceptArgument" index="ri$Ld" />
      </concept>
      <concept id="1219352745532" name="jetbrains.mps.lang.smodel.structure.NodeRefExpression" flags="nn" index="3B5_sB">
        <reference id="1219352800908" name="referentNode" index="3B5MYn" />
      </concept>
      <concept id="1138055754698" name="jetbrains.mps.lang.smodel.structure.SNodeType" flags="in" index="3Tqbb2">
        <reference id="1138405853777" name="concept" index="ehGHo" />
      </concept>
      <concept id="1138056022639" name="jetbrains.mps.lang.smodel.structure.SPropertyAccess" flags="nn" index="3TrcHB">
        <reference id="1138056395725" name="property" index="3TsBF5" />
      </concept>
      <concept id="1138056143562" name="jetbrains.mps.lang.smodel.structure.SLinkAccess" flags="nn" index="3TrEf2">
        <reference id="1138056516764" name="link" index="3Tt5mk" />
      </concept>
    </language>
    <language id="ceab5195-25ea-4f22-9b92-103b95ca8c0c" name="jetbrains.mps.lang.core">
      <concept id="1133920641626" name="jetbrains.mps.lang.core.structure.BaseConcept" flags="ng" index="2VYdi">
        <property id="1193676396447" name="virtualPackage" index="3GE5qa" />
      </concept>
      <concept id="1169194658468" name="jetbrains.mps.lang.core.structure.INamedConcept" flags="ng" index="TrEIO">
        <property id="1169194664001" name="name" index="TrG5h" />
      </concept>
    </language>
    <language id="83888646-71ce-4f1c-9c53-c54016f6ad4f" name="jetbrains.mps.baseLanguage.collections">
      <concept id="540871147943773365" name="jetbrains.mps.baseLanguage.collections.structure.SingleArgumentSequenceOperation" flags="nn" index="25WWJ4">
        <child id="540871147943773366" name="argument" index="25WWJ7" />
      </concept>
      <concept id="1151688443754" name="jetbrains.mps.baseLanguage.collections.structure.ListType" flags="in" index="_YKpA">
        <child id="1151688676805" name="elementType" index="_ZDj9" />
      </concept>
      <concept id="1160612413312" name="jetbrains.mps.baseLanguage.collections.structure.AddElementOperation" flags="nn" index="TSZUe" />
    </language>
  </registry>
  <node concept="13h7C7" id="nUEAIXlTF1">
    <property role="3GE5qa" value="Analyzer.AnalyzerFunctions" />
    <ref role="13h7C2" to="bj1v:47tk9ge7tj9" resolve="AnalyzerFunFunction" />
    <node concept="13i0hz" id="nUEAIXlTF4" role="13h7CS">
      <property role="TrG5h" value="getExpectedReturnType" />
      <ref role="13i0hy" to="tpek:hEwIGRD" resolve="getExpectedReturnType" />
      <node concept="3clFbS" id="nUEAIXlTF5" role="3clF47">
        <node concept="3cpWs6" id="nUEAIXlTF6" role="3cqZAp">
          <node concept="2OqwBi" id="nUEAIXlTFh" role="3cqZAk">
            <node concept="2OqwBi" id="nUEAIXlTF7" role="2Oq$k0">
              <node concept="13iPFW" id="nUEAIXlTF8" role="2Oq$k0" />
              <node concept="2Xjw5R" id="nUEAIXlTFc" role="2OqNvi">
                <node concept="1xMEDy" id="nUEAIXlTFd" role="1xVPHs">
                  <node concept="chp4Y" id="nUEAIXlTFg" role="ri$Ld">
                    <ref role="cht4Q" to="bj1v:5JpT3MjX6u9" resolve="Analyzer" />
                  </node>
                </node>
              </node>
            </node>
            <node concept="3TrEf2" id="nUEAIXlTFl" role="2OqNvi">
              <ref role="3Tt5mk" to="bj1v:7XrupC0LhIV" />
            </node>
          </node>
        </node>
      </node>
      <node concept="3Tqbb2" id="nUEAIXlTFa" role="3clF45" />
      <node concept="3Tm1VV" id="nUEAIXlTFb" role="1B3o_S" />
    </node>
    <node concept="13hLZK" id="nUEAIXlTF2" role="13h7CW">
      <node concept="3clFbS" id="nUEAIXlTF3" role="2VODD2" />
    </node>
    <node concept="13i0hz" id="2D1PBM_byac" role="13h7CS">
      <property role="2Ki8OM" value="true" />
      <property role="13i0is" value="false" />
      <property role="TrG5h" value="getApplicableConceptFunctionParameter" />
      <property role="13i0it" value="false" />
      <ref role="13i0hy" to="tpek:2D1PBM_bxJg" resolve="getApplicableConceptFunctionParameter" />
      <node concept="3Tm1VV" id="2D1PBM_byad" role="1B3o_S" />
      <node concept="_YKpA" id="2D1PBM_byaa" role="3clF45">
        <node concept="3Tqbb2" id="2D1PBM_byab" role="_ZDj9">
          <ref role="ehGHo" to="tpce:f_TIwhg" resolve="ConceptDeclaration" />
        </node>
      </node>
      <node concept="3clFbS" id="2D1PBM_byae" role="3clF47">
        <node concept="3cpWs8" id="2D1PBM_byaf" role="3cqZAp">
          <node concept="3cpWsn" id="2D1PBM_byag" role="3cpWs9">
            <property role="TrG5h" value="result" />
            <node concept="_YKpA" id="2D1PBM_byak" role="1tU5fm">
              <node concept="3Tqbb2" id="2D1PBM_byal" role="_ZDj9">
                <ref role="ehGHo" to="tpce:f_TIwhg" resolve="ConceptDeclaration" />
              </node>
            </node>
            <node concept="2OqwBi" id="2D1PBM_byas" role="33vP2m">
              <node concept="13iAh5" id="2D1PBM_byao" role="2Oq$k0">
                <ref role="3eA5LN" to="tpee:gyVMwX8" resolve="ConceptFunction" />
              </node>
              <node concept="2qgKlT" id="2D1PBM_byan" role="2OqNvi">
                <ref role="37wK5l" to="tpek:2D1PBM_bxJg" resolve="getApplicableConceptFunctionParameter" />
              </node>
            </node>
          </node>
        </node>
        <node concept="3clFbF" id="2D1PBM_byau" role="3cqZAp">
          <node concept="2OqwBi" id="2D1PBM_byav" role="3clFbG">
            <node concept="37vLTw" id="2D1PBM_byaw" role="2Oq$k0">
              <ref role="3cqZAo" node="2D1PBM_byag" resolve="result" />
            </node>
            <node concept="TSZUe" id="2D1PBM_byax" role="2OqNvi">
              <node concept="3B5_sB" id="2D1PBM_byat" role="25WWJ7">
                <ref role="3B5MYn" to="bj1v:47tk9ge7tji" resolve="AnalyzerFunParameterProgramState" />
              </node>
            </node>
          </node>
        </node>
        <node concept="3clFbF" id="2D1PBM_byaz" role="3cqZAp">
          <node concept="2OqwBi" id="2D1PBM_bya$" role="3clFbG">
            <node concept="37vLTw" id="2D1PBM_bya_" role="2Oq$k0">
              <ref role="3cqZAo" node="2D1PBM_byag" resolve="result" />
            </node>
            <node concept="TSZUe" id="2D1PBM_byaA" role="2OqNvi">
              <node concept="3B5_sB" id="2D1PBM_byay" role="25WWJ7">
                <ref role="3B5MYn" to="bj1v:47tk9ge7tjk" resolve="AnalyzerFunParameterInput" />
              </node>
            </node>
          </node>
        </node>
        <node concept="3clFbF" id="7UkgJtnqu1K" role="3cqZAp">
          <node concept="2OqwBi" id="7UkgJtnqu1L" role="3clFbG">
            <node concept="37vLTw" id="7UkgJtnqu1M" role="2Oq$k0">
              <ref role="3cqZAo" node="2D1PBM_byag" resolve="result" />
            </node>
            <node concept="TSZUe" id="7UkgJtnqu1N" role="2OqNvi">
              <node concept="3B5_sB" id="7UkgJtnqu1O" role="25WWJ7">
                <ref role="3B5MYn" to="bj1v:7UkgJtnqqHe" resolve="AnalyzerFunParameterStateValues" />
              </node>
            </node>
          </node>
        </node>
        <node concept="3cpWs6" id="2D1PBM_byaB" role="3cqZAp">
          <node concept="37vLTw" id="2D1PBM_byaC" role="3cqZAk">
            <ref role="3cqZAo" node="2D1PBM_byag" resolve="result" />
          </node>
        </node>
      </node>
    </node>
  </node>
  <node concept="13h7C7" id="nUEAIXlTFm">
    <property role="3GE5qa" value="Analyzer.AnalyzerFunctions" />
    <ref role="13h7C2" to="bj1v:5yU2Aq9Usc9" resolve="AnalyzerMergeFunction" />
    <node concept="13i0hz" id="nUEAIXlTFp" role="13h7CS">
      <property role="TrG5h" value="getExpectedReturnType" />
      <ref role="13i0hy" to="tpek:hEwIGRD" resolve="getExpectedReturnType" />
      <node concept="3clFbS" id="nUEAIXlTFq" role="3clF47">
        <node concept="3cpWs6" id="nUEAIXlTFr" role="3cqZAp">
          <node concept="2OqwBi" id="nUEAIXlTFs" role="3cqZAk">
            <node concept="2OqwBi" id="nUEAIXlTFt" role="2Oq$k0">
              <node concept="13iPFW" id="nUEAIXlTFu" role="2Oq$k0" />
              <node concept="2Xjw5R" id="nUEAIXlTFv" role="2OqNvi">
                <node concept="1xMEDy" id="nUEAIXlTFw" role="1xVPHs">
                  <node concept="chp4Y" id="nUEAIXlTFx" role="ri$Ld">
                    <ref role="cht4Q" to="bj1v:5JpT3MjX6u9" resolve="Analyzer" />
                  </node>
                </node>
              </node>
            </node>
            <node concept="3TrEf2" id="nUEAIXlTFy" role="2OqNvi">
              <ref role="3Tt5mk" to="bj1v:7XrupC0LhIV" />
            </node>
          </node>
        </node>
      </node>
      <node concept="3Tqbb2" id="nUEAIXlTFz" role="3clF45" />
      <node concept="3Tm1VV" id="nUEAIXlTF$" role="1B3o_S" />
    </node>
    <node concept="13hLZK" id="nUEAIXlTFn" role="13h7CW">
      <node concept="3clFbS" id="nUEAIXlTFo" role="2VODD2" />
    </node>
    <node concept="13i0hz" id="2D1PBM_by8G" role="13h7CS">
      <property role="2Ki8OM" value="true" />
      <property role="13i0is" value="false" />
      <property role="TrG5h" value="getApplicableConceptFunctionParameter" />
      <property role="13i0it" value="false" />
      <ref role="13i0hy" to="tpek:2D1PBM_bxJg" resolve="getApplicableConceptFunctionParameter" />
      <node concept="3Tm1VV" id="2D1PBM_by8H" role="1B3o_S" />
      <node concept="_YKpA" id="2D1PBM_by8E" role="3clF45">
        <node concept="3Tqbb2" id="2D1PBM_by8F" role="_ZDj9">
          <ref role="ehGHo" to="tpce:f_TIwhg" resolve="ConceptDeclaration" />
        </node>
      </node>
      <node concept="3clFbS" id="2D1PBM_by8I" role="3clF47">
        <node concept="3cpWs8" id="2D1PBM_by8J" role="3cqZAp">
          <node concept="3cpWsn" id="2D1PBM_by8K" role="3cpWs9">
            <property role="TrG5h" value="result" />
            <node concept="_YKpA" id="2D1PBM_by8O" role="1tU5fm">
              <node concept="3Tqbb2" id="2D1PBM_by8P" role="_ZDj9">
                <ref role="ehGHo" to="tpce:f_TIwhg" resolve="ConceptDeclaration" />
              </node>
            </node>
            <node concept="2OqwBi" id="2D1PBM_by8W" role="33vP2m">
              <node concept="13iAh5" id="2D1PBM_by8S" role="2Oq$k0">
                <ref role="3eA5LN" to="tpee:gyVMwX8" resolve="ConceptFunction" />
              </node>
              <node concept="2qgKlT" id="2D1PBM_by8R" role="2OqNvi">
                <ref role="37wK5l" to="tpek:2D1PBM_bxJg" resolve="getApplicableConceptFunctionParameter" />
              </node>
            </node>
          </node>
        </node>
        <node concept="3clFbF" id="2D1PBM_by8Y" role="3cqZAp">
          <node concept="2OqwBi" id="2D1PBM_by8Z" role="3clFbG">
            <node concept="37vLTw" id="2D1PBM_by90" role="2Oq$k0">
              <ref role="3cqZAo" node="2D1PBM_by8K" resolve="result" />
            </node>
            <node concept="TSZUe" id="2D1PBM_by91" role="2OqNvi">
              <node concept="3B5_sB" id="2D1PBM_by8X" role="25WWJ7">
                <ref role="3B5MYn" to="bj1v:47tk9ge7nUW" resolve="AnalyzerParameterProgram" />
              </node>
            </node>
          </node>
        </node>
        <node concept="3clFbF" id="2D1PBM_by93" role="3cqZAp">
          <node concept="2OqwBi" id="2D1PBM_by94" role="3clFbG">
            <node concept="37vLTw" id="2D1PBM_by95" role="2Oq$k0">
              <ref role="3cqZAo" node="2D1PBM_by8K" resolve="result" />
            </node>
            <node concept="TSZUe" id="2D1PBM_by96" role="2OqNvi">
              <node concept="3B5_sB" id="2D1PBM_by92" role="25WWJ7">
                <ref role="3B5MYn" to="bj1v:47tk9ge7nV5" resolve="AnalyzerMergeParameterInput" />
              </node>
            </node>
          </node>
        </node>
        <node concept="3cpWs6" id="2D1PBM_by97" role="3cqZAp">
          <node concept="37vLTw" id="2D1PBM_by98" role="3cqZAk">
            <ref role="3cqZAo" node="2D1PBM_by8K" resolve="result" />
          </node>
        </node>
      </node>
    </node>
  </node>
  <node concept="13h7C7" id="nUEAIXlTF_">
    <property role="3GE5qa" value="Analyzer.AnalyzerFunctions" />
    <ref role="13h7C2" to="bj1v:47tk9ge7tj8" resolve="AnalyzerInitialFunction" />
    <node concept="13i0hz" id="nUEAIXlTFC" role="13h7CS">
      <property role="TrG5h" value="getExpectedReturnType" />
      <ref role="13i0hy" to="tpek:hEwIGRD" resolve="getExpectedReturnType" />
      <node concept="3clFbS" id="nUEAIXlTFD" role="3clF47">
        <node concept="3cpWs6" id="nUEAIXlTFE" role="3cqZAp">
          <node concept="2OqwBi" id="nUEAIXlTFF" role="3cqZAk">
            <node concept="2OqwBi" id="nUEAIXlTFG" role="2Oq$k0">
              <node concept="13iPFW" id="nUEAIXlTFH" role="2Oq$k0" />
              <node concept="2Xjw5R" id="nUEAIXlTFI" role="2OqNvi">
                <node concept="1xMEDy" id="nUEAIXlTFJ" role="1xVPHs">
                  <node concept="chp4Y" id="nUEAIXlTFK" role="ri$Ld">
                    <ref role="cht4Q" to="bj1v:5JpT3MjX6u9" resolve="Analyzer" />
                  </node>
                </node>
              </node>
            </node>
            <node concept="3TrEf2" id="nUEAIXlTFL" role="2OqNvi">
              <ref role="3Tt5mk" to="bj1v:7XrupC0LhIV" />
            </node>
          </node>
        </node>
      </node>
      <node concept="3Tqbb2" id="nUEAIXlTFM" role="3clF45" />
      <node concept="3Tm1VV" id="nUEAIXlTFN" role="1B3o_S" />
    </node>
    <node concept="13hLZK" id="nUEAIXlTFA" role="13h7CW">
      <node concept="3clFbS" id="nUEAIXlTFB" role="2VODD2" />
    </node>
    <node concept="13i0hz" id="2D1PBM_byLF" role="13h7CS">
      <property role="2Ki8OM" value="true" />
      <property role="13i0is" value="false" />
      <property role="TrG5h" value="getApplicableConceptFunctionParameter" />
      <property role="13i0it" value="false" />
      <ref role="13i0hy" to="tpek:2D1PBM_bxJg" resolve="getApplicableConceptFunctionParameter" />
      <node concept="3Tm1VV" id="2D1PBM_byLG" role="1B3o_S" />
      <node concept="_YKpA" id="2D1PBM_byLD" role="3clF45">
        <node concept="3Tqbb2" id="2D1PBM_byLE" role="_ZDj9">
          <ref role="ehGHo" to="tpce:f_TIwhg" resolve="ConceptDeclaration" />
        </node>
      </node>
      <node concept="3clFbS" id="2D1PBM_byLH" role="3clF47">
        <node concept="3cpWs8" id="2D1PBM_byLI" role="3cqZAp">
          <node concept="3cpWsn" id="2D1PBM_byLJ" role="3cpWs9">
            <property role="TrG5h" value="result" />
            <node concept="_YKpA" id="2D1PBM_byLN" role="1tU5fm">
              <node concept="3Tqbb2" id="2D1PBM_byLO" role="_ZDj9">
                <ref role="ehGHo" to="tpce:f_TIwhg" resolve="ConceptDeclaration" />
              </node>
            </node>
            <node concept="2OqwBi" id="2D1PBM_byLV" role="33vP2m">
              <node concept="13iAh5" id="2D1PBM_byLR" role="2Oq$k0">
                <ref role="3eA5LN" to="tpee:gyVMwX8" resolve="ConceptFunction" />
              </node>
              <node concept="2qgKlT" id="2D1PBM_byLQ" role="2OqNvi">
                <ref role="37wK5l" to="tpek:2D1PBM_bxJg" resolve="getApplicableConceptFunctionParameter" />
              </node>
            </node>
          </node>
        </node>
        <node concept="3clFbF" id="2D1PBM_byLX" role="3cqZAp">
          <node concept="2OqwBi" id="2D1PBM_byLY" role="3clFbG">
            <node concept="37vLTw" id="2D1PBM_byLZ" role="2Oq$k0">
              <ref role="3cqZAo" node="2D1PBM_byLJ" resolve="result" />
            </node>
            <node concept="TSZUe" id="2D1PBM_byM0" role="2OqNvi">
              <node concept="3B5_sB" id="2D1PBM_byLW" role="25WWJ7">
                <ref role="3B5MYn" to="bj1v:47tk9ge7nUW" resolve="AnalyzerParameterProgram" />
              </node>
            </node>
          </node>
        </node>
        <node concept="3cpWs6" id="2D1PBM_byM1" role="3cqZAp">
          <node concept="37vLTw" id="2D1PBM_byM2" role="3cqZAk">
            <ref role="3cqZAo" node="2D1PBM_byLJ" resolve="result" />
          </node>
        </node>
      </node>
    </node>
  </node>
  <node concept="13h7C7" id="3OYWvKo505H">
    <property role="3GE5qa" value="Rules" />
    <ref role="13h7C2" to="bj1v:2S_HFuhBwHz" resolve="PatternCondition" />
    <node concept="13hLZK" id="3OYWvKo505I" role="13h7CW">
      <node concept="3clFbS" id="3OYWvKo505J" role="2VODD2" />
    </node>
    <node concept="13i0hz" id="3OYWvKo505W" role="13h7CS">
      <property role="13i0is" value="false" />
      <property role="TrG5h" value="getApplicableConcept" />
      <property role="13i0it" value="true" />
      <ref role="13i0hy" node="3OYWvKo505O" resolve="getApplicableConcept" />
      <node concept="3Tm1VV" id="3OYWvKo505X" role="1B3o_S" />
      <node concept="3clFbS" id="3OYWvKo505Y" role="3clF47">
        <node concept="3cpWs6" id="3OYWvKo5060" role="3cqZAp">
          <node concept="2OqwBi" id="3OYWvKo5061" role="3cqZAk">
            <node concept="FGMqu" id="4vXWNHn24bY" role="2OqNvi" />
            <node concept="2OqwBi" id="3OYWvKo5062" role="2Oq$k0">
              <node concept="2qgKlT" id="4vXWNHn2486" role="2OqNvi">
                <ref role="37wK5l" to="tp2b:4vXWNHn1_L$" resolve="getQuotedNodeConcept" />
              </node>
              <node concept="2OqwBi" id="3OYWvKo5063" role="2Oq$k0">
                <node concept="13iPFW" id="3OYWvKo5064" role="2Oq$k0" />
                <node concept="3TrEf2" id="3OYWvKo5069" role="2OqNvi">
                  <ref role="3Tt5mk" to="bj1v:2S_HFuhBx12" />
                </node>
              </node>
            </node>
          </node>
        </node>
      </node>
      <node concept="3Tqbb2" id="3OYWvKo505Z" role="3clF45">
        <ref role="ehGHo" to="tpce:h0PkWnZ" resolve="AbstractConceptDeclaration" />
      </node>
    </node>
  </node>
  <node concept="13h7C7" id="3OYWvKo505K">
    <property role="3GE5qa" value="Rules" />
    <ref role="13h7C2" to="bj1v:2S_HFuhBtro" resolve="ApplicableCondition" />
    <node concept="13i0hz" id="3OYWvKo505O" role="13h7CS">
      <property role="13i0iv" value="true" />
      <property role="13i0is" value="false" />
      <property role="TrG5h" value="getApplicableConcept" />
      <property role="13i0it" value="true" />
      <node concept="3Tqbb2" id="3OYWvKo505P" role="3clF45">
        <ref role="ehGHo" to="tpce:h0PkWnZ" resolve="AbstractConceptDeclaration" />
      </node>
      <node concept="3clFbS" id="3OYWvKo505Q" role="3clF47" />
      <node concept="3Tm1VV" id="3OYWvKo505R" role="1B3o_S" />
    </node>
    <node concept="13hLZK" id="3OYWvKo505L" role="13h7CW">
      <node concept="3clFbS" id="3OYWvKo505M" role="2VODD2" />
    </node>
  </node>
  <node concept="13h7C7" id="7wwiZxTDPuy">
    <property role="3GE5qa" value="Instructions" />
    <ref role="13h7C2" to="bj1v:5JpT3MjX6ua" resolve="Instruction" />
    <node concept="13hLZK" id="7wwiZxTDPuz" role="13h7CW">
      <node concept="3clFbS" id="7wwiZxTDPu$" role="2VODD2" />
    </node>
  </node>
  <node concept="13h7C7" id="7wwiZxTDPv7">
    <property role="3GE5qa" value="Instructions" />
    <ref role="13h7C2" to="bj1v:3E8vDQwHcVs" resolve="InstructionReference" />
    <node concept="13i0hz" id="7wwiZxTDPva" role="13h7CS">
      <property role="TrG5h" value="getPresentation" />
      <node concept="3Tm1VV" id="7wwiZxTDPvb" role="1B3o_S" />
      <node concept="17QB3L" id="7wwiZxTDPvc" role="3clF45" />
      <node concept="3clFbS" id="7wwiZxTDPvd" role="3clF47">
        <node concept="3cpWs8" id="7wwiZxTDPve" role="3cqZAp">
          <node concept="3cpWsn" id="7wwiZxTDPvf" role="3cpWs9">
            <property role="TrG5h" value="result" />
            <node concept="17QB3L" id="7wwiZxTDPvg" role="1tU5fm" />
            <node concept="2OqwBi" id="7wwiZxTDPvv" role="33vP2m">
              <node concept="2OqwBi" id="7wwiZxTDPvh" role="2Oq$k0">
                <node concept="13iPFW" id="7wwiZxTDPvi" role="2Oq$k0" />
                <node concept="3TrEf2" id="7wwiZxTDPvu" role="2OqNvi">
                  <ref role="3Tt5mk" to="bj1v:3E8vDQwHcV_" />
                </node>
              </node>
              <node concept="3TrcHB" id="7wwiZxTDPvz" role="2OqNvi">
                <ref role="3TsBF5" to="tpck:h0TrG11" resolve="name" />
              </node>
            </node>
          </node>
        </node>
        <node concept="3cpWs6" id="7wwiZxTDPvs" role="3cqZAp">
          <node concept="37vLTw" id="3GM_nagTz6v" role="3cqZAk">
            <ref role="3cqZAo" node="7wwiZxTDPvf" resolve="result" />
          </node>
        </node>
      </node>
    </node>
    <node concept="13hLZK" id="7wwiZxTDPv8" role="13h7CW">
      <node concept="3clFbS" id="7wwiZxTDPv9" role="2VODD2" />
    </node>
  </node>
  <node concept="13h7C7" id="9V7Nft_oXA">
    <property role="3GE5qa" value="Analyzer" />
    <ref role="13h7C2" to="bj1v:5JpT3MjX6u9" resolve="Analyzer" />
    <node concept="13i0hz" id="9V7Nft_oXD" role="13h7CS">
      <property role="TrG5h" value="getAnalyzerRunnerName" />
      <node concept="3Tm1VV" id="9V7Nft_oXE" role="1B3o_S" />
      <node concept="17QB3L" id="9V7Nft_oXH" role="3clF45" />
      <node concept="3clFbS" id="9V7Nft_oXG" role="3clF47">
        <node concept="3cpWs6" id="9V7Nft_oXI" role="3cqZAp">
          <node concept="3cpWs3" id="9V7Nft_oXQ" role="3cqZAk">
            <node concept="Xl_RD" id="9V7Nft_oXT" role="3uHU7w">
              <property role="Xl_RC" value="AnalyzerRunner" />
            </node>
            <node concept="2OqwBi" id="9V7Nft_oXL" role="3uHU7B">
              <node concept="13iPFW" id="9V7Nft_oXK" role="2Oq$k0" />
              <node concept="3TrcHB" id="9V7Nft_oXP" role="2OqNvi">
                <ref role="3TsBF5" to="tpck:h0TrG11" resolve="name" />
              </node>
            </node>
          </node>
        </node>
      </node>
    </node>
    <node concept="13i0hz" id="9V7Nft_vlj" role="13h7CS">
      <property role="TrG5h" value="getAnalyzerRunnerFqName" />
      <node concept="3Tm1VV" id="9V7Nft_vlk" role="1B3o_S" />
      <node concept="17QB3L" id="9V7Nft_vln" role="3clF45" />
      <node concept="3clFbS" id="9V7Nft_vlm" role="3clF47">
        <node concept="3cpWs8" id="9V7Nft_vlo" role="3cqZAp">
          <node concept="3cpWsn" id="9V7Nft_vlp" role="3cpWs9">
            <property role="TrG5h" value="longName" />
            <node concept="2YIFZM" id="2n9zn0CqMN4" role="33vP2m">
              <ref role="37wK5l" to="unno:7WvVJ3rORmu" resolve="getModelLongName" />
              <ref role="1Pybhc" to="unno:1NYD3hytmTa" resolve="SNodeOperations" />
              <node concept="2JrnkZ" id="2n9zn0CqMN5" role="37wK5m">
                <node concept="2OqwBi" id="2n9zn0CqMN6" role="2JrQYb">
                  <node concept="13iPFW" id="2n9zn0CqMN7" role="2Oq$k0" />
                  <node concept="I4A8Y" id="2n9zn0CqMN8" role="2OqNvi" />
                </node>
              </node>
            </node>
            <node concept="17QB3L" id="9V7Nft_vlq" role="1tU5fm" />
          </node>
        </node>
        <node concept="3clFbJ" id="9V7Nft_vlx" role="3cqZAp">
          <node concept="3clFbS" id="9V7Nft_vly" role="3clFbx">
            <node concept="3cpWs6" id="9V7Nft_vlz" role="3cqZAp">
              <node concept="2OqwBi" id="9V7Nft_vl$" role="3cqZAk">
                <node concept="13iPFW" id="9V7Nft_vl_" role="2Oq$k0" />
                <node concept="2qgKlT" id="9V7Nft_vlN" role="2OqNvi">
                  <ref role="37wK5l" node="9V7Nft_oXD" resolve="getAnalyzerRunnerName" />
                </node>
              </node>
            </node>
          </node>
          <node concept="2OqwBi" id="9V7Nft_vlB" role="3clFbw">
            <node concept="37vLTw" id="3GM_nagT_M8" role="2Oq$k0">
              <ref role="3cqZAo" node="9V7Nft_vlp" resolve="longName" />
            </node>
            <node concept="liA8E" id="9V7Nft_vlD" role="2OqNvi">
              <ref role="37wK5l" to="wyt6:~String.equals(java.lang.Object):boolean" resolve="equals" />
              <node concept="Xl_RD" id="9V7Nft_vlE" role="37wK5m">
                <property role="Xl_RC" value="" />
              </node>
            </node>
          </node>
        </node>
        <node concept="3cpWs6" id="9V7Nft_vlF" role="3cqZAp">
          <node concept="3cpWs3" id="9V7Nft_vlG" role="3cqZAk">
            <node concept="2OqwBi" id="9V7Nft_vlH" role="3uHU7w">
              <node concept="13iPFW" id="9V7Nft_vlI" role="2Oq$k0" />
              <node concept="2qgKlT" id="9V7Nft_vlO" role="2OqNvi">
                <ref role="37wK5l" node="9V7Nft_oXD" resolve="getAnalyzerRunnerName" />
              </node>
            </node>
            <node concept="3cpWs3" id="9V7Nft_vlK" role="3uHU7B">
              <node concept="37vLTw" id="3GM_nagTwoL" role="3uHU7B">
                <ref role="3cqZAo" node="9V7Nft_vlp" resolve="longName" />
              </node>
              <node concept="Xl_RD" id="9V7Nft_vlM" role="3uHU7w">
                <property role="Xl_RC" value="." />
              </node>
            </node>
          </node>
        </node>
      </node>
    </node>
    <node concept="13i0hz" id="9V7Nft_oXY" role="13h7CS">
      <property role="TrG5h" value="getAnalyzerName" />
      <node concept="3Tm1VV" id="9V7Nft_oXZ" role="1B3o_S" />
      <node concept="17QB3L" id="9V7Nft_oY0" role="3clF45" />
      <node concept="3clFbS" id="9V7Nft_oY1" role="3clF47">
        <node concept="3cpWs6" id="9V7Nft_oY2" role="3cqZAp">
          <node concept="3cpWs3" id="9V7Nft_oY3" role="3cqZAk">
            <node concept="Xl_RD" id="9V7Nft_oY4" role="3uHU7w">
              <property role="Xl_RC" value="Analyzer" />
            </node>
            <node concept="2OqwBi" id="9V7Nft_oY5" role="3uHU7B">
              <node concept="13iPFW" id="9V7Nft_oY6" role="2Oq$k0" />
              <node concept="3TrcHB" id="9V7Nft_oY7" role="2OqNvi">
                <ref role="3TsBF5" to="tpck:h0TrG11" resolve="name" />
              </node>
            </node>
          </node>
        </node>
      </node>
    </node>
    <node concept="13i0hz" id="3_iNRJnrAhj" role="13h7CS">
      <property role="TrG5h" value="getRules" />
      <node concept="3Tm1VV" id="3_iNRJnrAhk" role="1B3o_S" />
      <node concept="2I9FWS" id="3_iNRJnrA$X" role="3clF45">
        <ref role="2I9WkF" to="bj1v:nUEAIXlVr8" resolve="Rule" />
      </node>
      <node concept="3clFbS" id="3_iNRJnrAhm" role="3clF47">
        <node concept="3cpWs8" id="3_iNRJnrCv8" role="3cqZAp">
          <node concept="3cpWsn" id="3_iNRJnrCv9" role="3cpWs9">
            <property role="TrG5h" value="result" />
            <node concept="2I9FWS" id="3_iNRJnrCva" role="1tU5fm">
              <ref role="2I9WkF" to="bj1v:nUEAIXlVr8" resolve="Rule" />
            </node>
            <node concept="2ShNRf" id="3_iNRJnrCvx" role="33vP2m">
              <node concept="2T8Vx0" id="3_iNRJnrCvz" role="2ShVmc">
                <node concept="2I9FWS" id="3_iNRJnrCv$" role="2T96Bj">
                  <ref role="2I9WkF" to="bj1v:nUEAIXlVr8" resolve="Rule" />
                </node>
              </node>
            </node>
          </node>
        </node>
        <node concept="1DcWWT" id="3_iNRJnrCvk" role="3cqZAp">
          <node concept="3cpWsn" id="3_iNRJnrCvl" role="1Duv9x">
            <property role="TrG5h" value="rule" />
            <node concept="3Tqbb2" id="3_iNRJnrCvp" role="1tU5fm">
              <ref role="ehGHo" to="bj1v:nUEAIXlVr8" resolve="Rule" />
            </node>
          </node>
          <node concept="3clFbS" id="3_iNRJnrCvm" role="2LFqv$">
            <node concept="3clFbJ" id="3_iNRJnrCvJ" role="3cqZAp">
              <node concept="3clFbS" id="3_iNRJnrCvK" role="3clFbx">
                <node concept="3clFbF" id="3_iNRJnrCvX" role="3cqZAp">
                  <node concept="2OqwBi" id="3_iNRJnrCvY" role="3clFbG">
                    <node concept="37vLTw" id="3GM_nagT_JV" role="2Oq$k0">
                      <ref role="3cqZAo" node="3_iNRJnrCv9" resolve="result" />
                    </node>
                    <node concept="TSZUe" id="3_iNRJnrCw0" role="2OqNvi">
                      <node concept="37vLTw" id="3GM_nagTu3C" role="25WWJ7">
                        <ref role="3cqZAo" node="3_iNRJnrCvl" resolve="rule" />
                      </node>
                    </node>
                  </node>
                </node>
              </node>
              <node concept="3clFbC" id="3_iNRJnrCvT" role="3clFbw">
                <node concept="13iPFW" id="3_iNRJnrCvW" role="3uHU7w" />
                <node concept="2OqwBi" id="3_iNRJnrCvO" role="3uHU7B">
                  <node concept="37vLTw" id="3GM_nagTuEX" role="2Oq$k0">
                    <ref role="3cqZAo" node="3_iNRJnrCvl" resolve="rule" />
                  </node>
                  <node concept="3TrEf2" id="3_iNRJnrCvS" role="2OqNvi">
                    <ref role="3Tt5mk" to="bj1v:3_iNRJnrAh0" />
                  </node>
                </node>
              </node>
            </node>
          </node>
          <node concept="2OqwBi" id="3_iNRJnrCvq" role="1DdaDG">
            <node concept="2OqwBi" id="3_iNRJnrCvr" role="2Oq$k0">
              <node concept="13iPFW" id="3_iNRJnrCvs" role="2Oq$k0" />
              <node concept="I4A8Y" id="3_iNRJnrCvt" role="2OqNvi" />
            </node>
            <node concept="3lApI0" id="3_iNRJnrCvu" role="2OqNvi">
              <ref role="3lApI3" to="bj1v:nUEAIXlVr8" resolve="Rule" />
            </node>
          </node>
        </node>
        <node concept="3clFbF" id="3_iNRJnrCuO" role="3cqZAp">
          <node concept="37vLTw" id="3GM_nagTxH_" role="3clFbG">
            <ref role="3cqZAo" node="3_iNRJnrCv9" resolve="result" />
          </node>
        </node>
      </node>
    </node>
    <node concept="13hLZK" id="9V7Nft_oXB" role="13h7CW">
      <node concept="3clFbS" id="9V7Nft_oXC" role="2VODD2" />
    </node>
  </node>
  <node concept="13h7C7" id="7zQRkz$T2va">
    <property role="3GE5qa" value="Rules" />
    <ref role="13h7C2" to="bj1v:nUEAIXlVr8" resolve="Rule" />
    <node concept="13i0hz" id="7zQRkz$T2O$" role="13h7CS">
      <property role="TrG5h" value="getFqName" />
      <node concept="3Tm1VV" id="7zQRkz$T2O_" role="1B3o_S" />
      <node concept="17QB3L" id="7zQRkz$T2OA" role="3clF45" />
      <node concept="3clFbS" id="7zQRkz$T2OB" role="3clF47">
        <node concept="3cpWs8" id="7zQRkz$T2OC" role="3cqZAp">
          <node concept="3cpWsn" id="7zQRkz$T2OD" role="3cpWs9">
            <property role="TrG5h" value="longName" />
            <node concept="2YIFZM" id="2n9zn0CqMOz" role="33vP2m">
              <ref role="37wK5l" to="unno:7WvVJ3rORmu" resolve="getModelLongName" />
              <ref role="1Pybhc" to="unno:1NYD3hytmTa" resolve="SNodeOperations" />
              <node concept="2JrnkZ" id="2n9zn0CqMO$" role="37wK5m">
                <node concept="2OqwBi" id="2n9zn0CqMO_" role="2JrQYb">
                  <node concept="13iPFW" id="2n9zn0CqMOA" role="2Oq$k0" />
                  <node concept="I4A8Y" id="2n9zn0CqMOB" role="2OqNvi" />
                </node>
              </node>
            </node>
            <node concept="17QB3L" id="7zQRkz$T2OE" role="1tU5fm" />
          </node>
        </node>
        <node concept="3clFbJ" id="7zQRkz$T2OL" role="3cqZAp">
          <node concept="3clFbS" id="7zQRkz$T2OM" role="3clFbx">
            <node concept="3cpWs6" id="7zQRkz$T2ON" role="3cqZAp">
              <node concept="2OqwBi" id="7zQRkz$T2OO" role="3cqZAk">
                <node concept="13iPFW" id="7zQRkz$T2OP" role="2Oq$k0" />
                <node concept="3TrcHB" id="7zQRkz$T2P3" role="2OqNvi">
                  <ref role="3TsBF5" to="tpck:h0TrG11" resolve="name" />
                </node>
              </node>
            </node>
          </node>
          <node concept="2OqwBi" id="7zQRkz$T2OR" role="3clFbw">
            <node concept="37vLTw" id="3GM_nagTrKI" role="2Oq$k0">
              <ref role="3cqZAo" node="7zQRkz$T2OD" resolve="longName" />
            </node>
            <node concept="liA8E" id="7zQRkz$T2OT" role="2OqNvi">
              <ref role="37wK5l" to="wyt6:~String.equals(java.lang.Object):boolean" resolve="equals" />
              <node concept="Xl_RD" id="7zQRkz$T2OU" role="37wK5m">
                <property role="Xl_RC" value="" />
              </node>
            </node>
          </node>
        </node>
        <node concept="3cpWs6" id="7zQRkz$T2OV" role="3cqZAp">
          <node concept="3cpWs3" id="7zQRkz$T2OW" role="3cqZAk">
            <node concept="2OqwBi" id="7zQRkz$T2OX" role="3uHU7w">
              <node concept="13iPFW" id="7zQRkz$T2OY" role="2Oq$k0" />
              <node concept="3TrcHB" id="7zQRkz$T2P5" role="2OqNvi">
                <ref role="3TsBF5" to="tpck:h0TrG11" resolve="name" />
              </node>
            </node>
            <node concept="3cpWs3" id="7zQRkz$T2P0" role="3uHU7B">
              <node concept="37vLTw" id="3GM_nagT$ic" role="3uHU7B">
                <ref role="3cqZAo" node="7zQRkz$T2OD" resolve="longName" />
              </node>
              <node concept="Xl_RD" id="7zQRkz$T2P2" role="3uHU7w">
                <property role="Xl_RC" value="." />
              </node>
            </node>
          </node>
        </node>
      </node>
    </node>
    <node concept="13hLZK" id="7zQRkz$T2vb" role="13h7CW">
      <node concept="3clFbS" id="7zQRkz$T2vc" role="2VODD2" />
    </node>
  </node>
  <node concept="13h7C7" id="4ipeeu8Vyh0">
    <property role="3GE5qa" value="Rules" />
    <ref role="13h7C2" to="bj1v:4ipeeu8UrBu" resolve="ConceptCondition" />
    <node concept="13hLZK" id="4ipeeu8Vyh1" role="13h7CW">
      <node concept="3clFbS" id="4ipeeu8Vyh2" role="2VODD2" />
    </node>
    <node concept="13i0hz" id="4ipeeu8Vyh3" role="13h7CS">
      <property role="13i0is" value="false" />
      <property role="TrG5h" value="getApplicableConcept" />
      <property role="13i0it" value="true" />
      <ref role="13i0hy" node="3OYWvKo505O" resolve="getApplicableConcept" />
      <node concept="3Tm1VV" id="4ipeeu8Vyh4" role="1B3o_S" />
      <node concept="3clFbS" id="4ipeeu8Vyh5" role="3clF47">
        <node concept="3clFbF" id="4ipeeu8Vzaa" role="3cqZAp">
          <node concept="2OqwBi" id="4ipeeu8Vzac" role="3clFbG">
            <node concept="13iPFW" id="4ipeeu8Vzab" role="2Oq$k0" />
            <node concept="3TrEf2" id="4ipeeu8Vzag" role="2OqNvi">
              <ref role="3Tt5mk" to="bj1v:4ipeeu8Vyel" />
            </node>
          </node>
        </node>
      </node>
      <node concept="3Tqbb2" id="4ipeeu8Vyh6" role="3clF45">
        <ref role="ehGHo" to="tpce:h0PkWnZ" resolve="AbstractConceptDeclaration" />
      </node>
    </node>
  </node>
  <node concept="13h7C7" id="3tEjlbSMTnC">
    <property role="3GE5qa" value="Analyzer" />
    <ref role="13h7C2" to="bj1v:3tEjlbSL27S" resolve="AnalyzerConstructorParameterReference" />
    <node concept="13hLZK" id="3tEjlbSMTnD" role="13h7CW">
      <node concept="3clFbS" id="3tEjlbSMTnE" role="2VODD2" />
    </node>
    <node concept="13i0hz" id="3tEjlbSMTpp" role="13h7CS">
      <property role="2Ki8OM" value="true" />
      <property role="13i0is" value="false" />
      <property role="TrG5h" value="lvalue" />
      <property role="13i0it" value="false" />
      <property role="13i0iv" value="false" />
      <ref role="13i0hy" to="tpek:1653mnvAgpj" resolve="lvalue" />
      <node concept="3Tm1VV" id="3tEjlbSMTpq" role="1B3o_S" />
      <node concept="3clFbS" id="3tEjlbSMTpv" role="3clF47">
        <node concept="3clFbF" id="3tEjlbSMTrs" role="3cqZAp">
          <node concept="3clFbT" id="3tEjlbSMTrr" role="3clFbG">
            <property role="3clFbU" value="true" />
          </node>
        </node>
      </node>
      <node concept="10P_77" id="3tEjlbSMTpw" role="3clF45" />
    </node>
  </node>
</model>

