<?xml version="1.0" encoding="UTF-8"?>
<model ref="r:8b09f5e2-b403-4747-aaa3-eac5acb1f753(jetbrains.mps.lang.dataFlow.analyzers.structure)">
  <persistence version="9" />
  <languages>
    <use id="97a52717-898f-4598-8150-573d9fd03868" name="jetbrains.mps.lang.dataFlow.analyzers" version="0" />
    <use id="c72da2b9-7cce-4447-8389-f407dc1158b7" name="jetbrains.mps.lang.structure" version="1" />
    <use id="982eb8df-2c96-4bd7-9963-11712ea622e5" name="jetbrains.mps.lang.resources" version="-1" />
    <devkit ref="fbc25dd2-5da4-483a-8b19-70928e1b62d7(jetbrains.mps.devkit.general-purpose)" />
  </languages>
  <imports>
    <import index="tpee" ref="r:00000000-0000-4000-0000-011c895902ca(jetbrains.mps.baseLanguage.structure)" />
    <import index="tp3t" ref="r:00000000-0000-4000-0000-011c89590345(jetbrains.mps.lang.pattern.structure)" />
    <import index="tpce" ref="r:00000000-0000-4000-0000-011c89590292(jetbrains.mps.lang.structure.structure)" />
    <import index="tpck" ref="r:00000000-0000-4000-0000-011c89590288(jetbrains.mps.lang.core.structure)" implicit="true" />
    <import index="tp41" ref="r:00000000-0000-4000-0000-011c8959037d(jetbrains.mps.lang.dataFlow.structure)" implicit="true" />
  </imports>
  <registry>
    <language id="982eb8df-2c96-4bd7-9963-11712ea622e5" name="jetbrains.mps.lang.resources">
      <concept id="8974276187400029883" name="jetbrains.mps.lang.resources.structure.FileIcon" flags="ng" index="1QGGSu">
        <property id="2756621024541341363" name="file" index="1iqoE4" />
      </concept>
    </language>
    <language id="c72da2b9-7cce-4447-8389-f407dc1158b7" name="jetbrains.mps.lang.structure">
      <concept id="1169125787135" name="jetbrains.mps.lang.structure.structure.AbstractConceptDeclaration" flags="ig" index="PkWjJ">
        <property id="6714410169261853888" name="conceptId" index="EcuMT" />
        <property id="4628067390765956807" name="final" index="R5$K2" />
        <property id="4628067390765956802" name="abstract" index="R5$K7" />
        <property id="5092175715804935370" name="conceptAlias" index="34LRSv" />
        <property id="1587916991969465369" name="intConceptId" index="1pbfSe" />
        <child id="1071489727083" name="linkDeclaration" index="1TKVEi" />
      </concept>
      <concept id="1169127622168" name="jetbrains.mps.lang.structure.structure.InterfaceConceptReference" flags="ig" index="PrWs8">
        <reference id="1169127628841" name="intfc" index="PrY4T" />
      </concept>
      <concept id="1071489090640" name="jetbrains.mps.lang.structure.structure.ConceptDeclaration" flags="ig" index="1TIwiD">
        <property id="5404671619616246344" name="staticScope" index="2_RsDV" />
        <property id="1096454100552" name="rootable" index="19KtqR" />
        <reference id="1071489389519" name="extends" index="1TJDcQ" />
        <child id="6327362524875300597" name="icon" index="rwd14" />
        <child id="1169129564478" name="implements" index="PzmwI" />
      </concept>
      <concept id="1071489288298" name="jetbrains.mps.lang.structure.structure.LinkDeclaration" flags="ig" index="1TJgyj">
        <property id="1071599776563" name="role" index="20kJfa" />
        <property id="1071599893252" name="sourceCardinality" index="20lbJX" />
        <property id="1071599937831" name="metaClass" index="20lmBu" />
        <property id="241647608299431140" name="linkId" index="IQ2ns" />
        <reference id="1071599698500" name="specializedLink" index="20ksaX" />
        <reference id="1071599976176" name="target" index="20lvS9" />
      </concept>
    </language>
    <language id="ceab5195-25ea-4f22-9b92-103b95ca8c0c" name="jetbrains.mps.lang.core">
      <concept id="1133920641626" name="jetbrains.mps.lang.core.structure.BaseConcept" flags="ng" index="2VYdi">
        <property id="1193676396447" name="virtualPackage" index="3GE5qa" />
      </concept>
      <concept id="1169194658468" name="jetbrains.mps.lang.core.structure.INamedConcept" flags="ng" index="TrEIO">
        <property id="1169194664001" name="name" index="TrG5h" />
      </concept>
    </language>
  </registry>
  <node concept="1TIwiD" id="5JpT3MjX6u9">
    <property role="19KtqR" value="true" />
    <property role="TrG5h" value="Analyzer" />
    <property role="3GE5qa" value="Analyzer" />
    <property role="EcuMT" value="6618572076229093257" />
    <ref role="1TJDcQ" to="tpck:gw2VY9q" resolve="BaseConcept" />
    <node concept="1QGGSu" id="4Q8sAA5iJQA" role="rwd14">
      <property role="1iqoE4" value="${module}/icons/DataFlowAnalyser.png" />
    </node>
    <node concept="1TJgyj" id="47tk9ge7tjt" role="1TKVEi">
      <property role="20lmBu" value="aggregation" />
      <property role="20kJfa" value="initialFunction" />
      <property role="20lbJX" value="1" />
      <property role="IQ2ns" value="4746038179140588765" />
      <ref role="20lvS9" node="47tk9ge7tj8" resolve="AnalyzerInitialFunction" />
    </node>
    <node concept="1TJgyj" id="47tk9ge7sFc" role="1TKVEi">
      <property role="20lmBu" value="aggregation" />
      <property role="20kJfa" value="mergeFunction" />
      <property role="20lbJX" value="1" />
      <property role="IQ2ns" value="4746038179140586188" />
      <ref role="20lvS9" node="5yU2Aq9Usc9" resolve="AnalyzerMergeFunction" />
    </node>
    <node concept="1TJgyj" id="47tk9ge7tju" role="1TKVEi">
      <property role="20lmBu" value="aggregation" />
      <property role="20kJfa" value="funFunction" />
      <property role="20lbJX" value="1" />
      <property role="IQ2ns" value="4746038179140588766" />
      <ref role="20lvS9" node="47tk9ge7tj9" resolve="AnalyzerFunFunction" />
    </node>
    <node concept="PrWs8" id="47tk9ge7sQZ" role="PzmwI">
      <ref role="PrY4T" to="tpck:h0TrEE$" resolve="INamedConcept" />
    </node>
    <node concept="1TJgyj" id="7XrupC0KJIo" role="1TKVEi">
      <property role="20lmBu" value="aggregation" />
      <property role="20kJfa" value="direction" />
      <property role="20lbJX" value="1" />
      <property role="IQ2ns" value="9177062368042220440" />
      <ref role="20lvS9" node="7XrupC0KJI6" resolve="AnalysisDirection" />
    </node>
    <node concept="1TJgyj" id="7XrupC0LhIV" role="1TKVEi">
      <property role="20lmBu" value="aggregation" />
      <property role="20kJfa" value="latticeElementType" />
      <property role="20lbJX" value="1" />
      <property role="IQ2ns" value="9177062368042359739" />
      <ref role="20lvS9" to="tpee:fz3vP1H" resolve="Type" />
    </node>
    <node concept="1TJgyj" id="2S_HFuhAG4S" role="1TKVEi">
      <property role="20lmBu" value="aggregation" />
      <property role="20kJfa" value="instruction" />
      <property role="20lbJX" value="0..n" />
      <property role="IQ2ns" value="3325264799421088056" />
      <ref role="20lvS9" node="5JpT3MjX6ua" resolve="Instruction" />
    </node>
    <node concept="1TJgyj" id="3tEjlbSKIc3" role="1TKVEi">
      <property role="20lmBu" value="aggregation" />
      <property role="20kJfa" value="constructorParameters" />
      <property role="20lbJX" value="0..n" />
      <property role="IQ2ns" value="3993089038373544707" />
      <ref role="20lvS9" node="3tEjlbSL22K" resolve="AnalyzerConstructorParameter" />
    </node>
    <node concept="1TJgyj" id="7fxZEB1sZw4" role="1TKVEi">
      <property role="20lmBu" value="aggregation" />
      <property role="20kJfa" value="usedContainers" />
      <property role="20lbJX" value="0..n" />
      <property role="IQ2ns" value="8350235189170141188" />
      <ref role="20lvS9" node="7fxZEB1sSuo" resolve="CustomInstructionsContainerReference" />
    </node>
  </node>
  <node concept="1TIwiD" id="5JpT3MjX6ua">
    <property role="TrG5h" value="Instruction" />
    <property role="3GE5qa" value="Instructions" />
    <property role="EcuMT" value="6618572076229093258" />
    <ref role="1TJDcQ" to="tpck:gw2VY9q" resolve="BaseConcept" />
    <node concept="1TJgyj" id="2S_HFuhAG54" role="1TKVEi">
      <property role="20lmBu" value="aggregation" />
      <property role="20kJfa" value="parameter" />
      <property role="20lbJX" value="0..n" />
      <property role="IQ2ns" value="3325264799421088068" />
      <ref role="20lvS9" node="nUEAIXm3Ew" resolve="InstructionParameter" />
    </node>
    <node concept="PrWs8" id="5JpT3MjX6ud" role="PzmwI">
      <ref role="PrY4T" to="tpck:h0TrEE$" resolve="INamedConcept" />
    </node>
  </node>
  <node concept="1TIwiD" id="5yU2Aq9Usc9">
    <property role="R5$K7" value="false" />
    <property role="R5$K2" value="false" />
    <property role="TrG5h" value="AnalyzerMergeFunction" />
    <property role="2_RsDV" value="none" />
    <property role="3GE5qa" value="Analyzer.AnalyzerFunctions" />
    <property role="34LRSv" value="merge" />
    <property role="EcuMT" value="6393434056522580745" />
    <ref role="1TJDcQ" to="tpee:gyVMwX8" resolve="ConceptFunction" />
  </node>
  <node concept="1TIwiD" id="47tk9ge7nUW">
    <property role="R5$K7" value="false" />
    <property role="R5$K2" value="false" />
    <property role="TrG5h" value="AnalyzerParameterProgram" />
    <property role="2_RsDV" value="none" />
    <property role="3GE5qa" value="Analyzer.AnalyzerFunctions" />
    <property role="34LRSv" value="program" />
    <property role="EcuMT" value="4746038179140566716" />
    <ref role="1TJDcQ" to="tpee:g76ryKb" resolve="ConceptFunctionParameter" />
  </node>
  <node concept="1TIwiD" id="47tk9ge7nV5">
    <property role="R5$K7" value="false" />
    <property role="R5$K2" value="false" />
    <property role="TrG5h" value="AnalyzerMergeParameterInput" />
    <property role="2_RsDV" value="none" />
    <property role="3GE5qa" value="Analyzer.AnalyzerFunctions" />
    <property role="34LRSv" value="input" />
    <property role="EcuMT" value="4746038179140566725" />
    <ref role="1TJDcQ" to="tpee:g76ryKb" resolve="ConceptFunctionParameter" />
  </node>
  <node concept="1TIwiD" id="47tk9ge7tj8">
    <property role="R5$K7" value="false" />
    <property role="R5$K2" value="false" />
    <property role="TrG5h" value="AnalyzerInitialFunction" />
    <property role="2_RsDV" value="none" />
    <property role="3GE5qa" value="Analyzer.AnalyzerFunctions" />
    <property role="34LRSv" value="initial" />
    <property role="EcuMT" value="4746038179140588744" />
    <ref role="1TJDcQ" to="tpee:gyVMwX8" resolve="ConceptFunction" />
  </node>
  <node concept="1TIwiD" id="47tk9ge7tj9">
    <property role="R5$K7" value="false" />
    <property role="R5$K2" value="false" />
    <property role="TrG5h" value="AnalyzerFunFunction" />
    <property role="2_RsDV" value="none" />
    <property role="3GE5qa" value="Analyzer.AnalyzerFunctions" />
    <property role="34LRSv" value="fun" />
    <property role="EcuMT" value="4746038179140588745" />
    <ref role="1TJDcQ" to="tpee:gyVMwX8" resolve="ConceptFunction" />
  </node>
  <node concept="1TIwiD" id="47tk9ge7tji">
    <property role="R5$K7" value="false" />
    <property role="R5$K2" value="false" />
    <property role="TrG5h" value="AnalyzerFunParameterProgramState" />
    <property role="2_RsDV" value="none" />
    <property role="3GE5qa" value="Analyzer.AnalyzerFunctions" />
    <property role="34LRSv" value="state" />
    <property role="EcuMT" value="4746038179140588754" />
    <ref role="1TJDcQ" to="tpee:g76ryKb" resolve="ConceptFunctionParameter" />
  </node>
  <node concept="1TIwiD" id="47tk9ge7tjk">
    <property role="R5$K7" value="false" />
    <property role="R5$K2" value="false" />
    <property role="TrG5h" value="AnalyzerFunParameterInput" />
    <property role="2_RsDV" value="none" />
    <property role="3GE5qa" value="Analyzer.AnalyzerFunctions" />
    <property role="34LRSv" value="input" />
    <property role="EcuMT" value="4746038179140588756" />
    <ref role="1TJDcQ" to="tpee:g76ryKb" resolve="ConceptFunctionParameter" />
  </node>
  <node concept="1TIwiD" id="7XrupC0KJI6">
    <property role="R5$K7" value="true" />
    <property role="R5$K2" value="false" />
    <property role="TrG5h" value="AnalysisDirection" />
    <property role="3GE5qa" value="Analyzer.AnalysisDirection" />
    <property role="EcuMT" value="9177062368042220422" />
    <ref role="1TJDcQ" to="tpck:gw2VY9q" resolve="BaseConcept" />
  </node>
  <node concept="1TIwiD" id="7XrupC0KJI8">
    <property role="R5$K7" value="false" />
    <property role="R5$K2" value="false" />
    <property role="TrG5h" value="ForwardDirection" />
    <property role="3GE5qa" value="Analyzer.AnalysisDirection" />
    <property role="34LRSv" value="forward" />
    <property role="EcuMT" value="9177062368042220424" />
    <ref role="1TJDcQ" node="7XrupC0KJI6" resolve="AnalysisDirection" />
  </node>
  <node concept="1TIwiD" id="7XrupC0KJIm">
    <property role="R5$K7" value="false" />
    <property role="R5$K2" value="false" />
    <property role="TrG5h" value="BackwardDirection" />
    <property role="3GE5qa" value="Analyzer.AnalysisDirection" />
    <property role="34LRSv" value="backward" />
    <property role="EcuMT" value="9177062368042220438" />
    <ref role="1TJDcQ" node="7XrupC0KJI6" resolve="AnalysisDirection" />
  </node>
  <node concept="1TIwiD" id="7XrupC0LiYB">
    <property role="R5$K7" value="false" />
    <property role="R5$K2" value="false" />
    <property role="TrG5h" value="AnalyzerFunctionResultType" />
    <property role="2_RsDV" value="none" />
    <property role="3GE5qa" value="Analyzer.AnalyzerFunctions" />
    <property role="34LRSv" value="lattice element type" />
    <property role="EcuMT" value="9177062368042364839" />
    <ref role="1TJDcQ" to="tpee:fz3vP1H" resolve="Type" />
  </node>
  <node concept="1TIwiD" id="nUEAIXlVr8">
    <property role="19KtqR" value="true" />
    <property role="TrG5h" value="Rule" />
    <property role="3GE5qa" value="Rules" />
    <property role="EcuMT" value="430844094082168520" />
    <ref role="1TJDcQ" to="tpck:gw2VY9q" resolve="BaseConcept" />
    <node concept="1QGGSu" id="4Q8sAA5iJQ_" role="rwd14">
      <property role="1iqoE4" value="${module}/icons/DataFlowRule.png" />
    </node>
    <node concept="1TJgyj" id="3_iNRJnrAh0" role="1TKVEi">
      <property role="20lmBu" value="reference" />
      <property role="20kJfa" value="analyzer" />
      <property role="20lbJX" value="1" />
      <property role="IQ2ns" value="4130591939054429248" />
      <ref role="20lvS9" node="5JpT3MjX6u9" resolve="Analyzer" />
    </node>
    <node concept="1TJgyj" id="4ipeeu8Vzea" role="1TKVEi">
      <property role="20lmBu" value="aggregation" />
      <property role="20kJfa" value="actions" />
      <property role="20lbJX" value="0..1" />
      <property role="IQ2ns" value="4943044633101742986" />
      <ref role="20lvS9" to="tpee:fzclF80" resolve="StatementList" />
    </node>
    <node concept="1TJgyj" id="2S_HFuhBt_m" role="1TKVEi">
      <property role="20lmBu" value="aggregation" />
      <property role="20kJfa" value="condition" />
      <property role="20lbJX" value="1" />
      <property role="IQ2ns" value="3325264799421290838" />
      <ref role="20lvS9" node="2S_HFuhBtro" resolve="ApplicableCondition" />
    </node>
    <node concept="1TJgyj" id="6UdHCtZO4VV" role="1TKVEi">
      <property role="IQ2ns" value="7966224008969473787" />
      <property role="20lmBu" value="aggregation" />
      <property role="20kJfa" value="modes" />
      <property role="20lbJX" value="0..n" />
      <ref role="20lvS9" to="tp41:6UdHCtZMvVk" resolve="IBuilderMode" />
    </node>
    <node concept="PrWs8" id="2S_HFuhBowU" role="PzmwI">
      <ref role="PrY4T" to="tpck:h0TrEE$" resolve="INamedConcept" />
    </node>
  </node>
  <node concept="1TIwiD" id="nUEAIXm3Ew">
    <property role="TrG5h" value="InstructionParameter" />
    <property role="3GE5qa" value="Instructions" />
    <property role="EcuMT" value="430844094082202272" />
    <ref role="1TJDcQ" to="tpck:gw2VY9q" resolve="BaseConcept" />
    <node concept="1TJgyj" id="nUEAIXm3Ey" role="1TKVEi">
      <property role="20lmBu" value="aggregation" />
      <property role="20kJfa" value="type" />
      <property role="20lbJX" value="1" />
      <property role="IQ2ns" value="430844094082202274" />
      <ref role="20lvS9" to="tpee:fz3vP1H" resolve="Type" />
    </node>
    <node concept="PrWs8" id="nUEAIXm3Ex" role="PzmwI">
      <ref role="PrY4T" to="tpck:h0TrEE$" resolve="INamedConcept" />
    </node>
  </node>
  <node concept="1TIwiD" id="2S_HFuhBtro">
    <property role="R5$K7" value="true" />
    <property role="R5$K2" value="false" />
    <property role="TrG5h" value="ApplicableCondition" />
    <property role="3GE5qa" value="Rules" />
    <property role="EcuMT" value="3325264799421290200" />
    <ref role="1TJDcQ" to="tpck:gw2VY9q" resolve="BaseConcept" />
    <node concept="PrWs8" id="2S_HFuhBt_k" role="PzmwI">
      <ref role="PrY4T" to="tpck:h0TrEE$" resolve="INamedConcept" />
    </node>
  </node>
  <node concept="1TIwiD" id="2S_HFuhBwHz">
    <property role="TrG5h" value="PatternCondition" />
    <property role="3GE5qa" value="Rules" />
    <property role="EcuMT" value="3325264799421303651" />
    <ref role="1TJDcQ" node="2S_HFuhBtro" resolve="ApplicableCondition" />
    <node concept="1TJgyj" id="2S_HFuhBx12" role="1TKVEi">
      <property role="20lmBu" value="aggregation" />
      <property role="20kJfa" value="pattern" />
      <property role="20lbJX" value="1" />
      <property role="IQ2ns" value="3325264799421304898" />
      <ref role="20lvS9" to="tp3t:gyDMOuh" resolve="PatternExpression" />
    </node>
  </node>
  <node concept="1TIwiD" id="3E8vDQwGYyk">
    <property role="R5$K7" value="false" />
    <property role="R5$K2" value="false" />
    <property role="TrG5h" value="EmitInstruction" />
    <property role="2_RsDV" value="none" />
    <property role="34LRSv" value="insert" />
    <property role="EcuMT" value="4217760266503579796" />
    <ref role="1TJDcQ" to="tp3t:3OYWvKo5t_w" resolve="ActionStatement" />
    <node concept="1TJgyj" id="3E8vDQwHfPr" role="1TKVEi">
      <property role="20lmBu" value="aggregation" />
      <property role="20kJfa" value="instructionRef" />
      <property role="20lbJX" value="1" />
      <property role="IQ2ns" value="4217760266503650651" />
      <ref role="20lvS9" node="3E8vDQwHcVs" resolve="InstructionReference" />
    </node>
    <node concept="1TJgyj" id="hWYZ0eE_w2" role="1TKVEi">
      <property role="20lmBu" value="aggregation" />
      <property role="20kJfa" value="target" />
      <property role="IQ2ns" value="323410281720600578" />
      <ref role="20lvS9" to="tpee:fz3vP1J" resolve="Expression" />
    </node>
    <node concept="1TJgyj" id="1l_fWI5bCG" role="1TKVEi">
      <property role="20lmBu" value="aggregation" />
      <property role="20kJfa" value="position" />
      <property role="20lbJX" value="1" />
      <property role="IQ2ns" value="24089196731087404" />
      <ref role="20lvS9" to="tp3t:1r$KkbaWFOW" resolve="InsertPosition" />
    </node>
  </node>
  <node concept="1TIwiD" id="3E8vDQwHcVs">
    <property role="TrG5h" value="InstructionReference" />
    <property role="3GE5qa" value="Instructions" />
    <property role="EcuMT" value="4217760266503638748" />
    <ref role="1TJDcQ" to="tpck:gw2VY9q" resolve="BaseConcept" />
    <node concept="1TJgyj" id="3E8vDQwHcV_" role="1TKVEi">
      <property role="20lmBu" value="reference" />
      <property role="20kJfa" value="instruction" />
      <property role="20lbJX" value="1" />
      <property role="IQ2ns" value="4217760266503638757" />
      <ref role="20lvS9" node="5JpT3MjX6ua" resolve="Instruction" />
    </node>
    <node concept="1TJgyj" id="3E8vDQwHcVt" role="1TKVEi">
      <property role="20lmBu" value="aggregation" />
      <property role="20kJfa" value="argument" />
      <property role="20lbJX" value="0..n" />
      <property role="IQ2ns" value="4217760266503638749" />
      <ref role="20lvS9" to="tpee:fz3vP1J" resolve="Expression" />
    </node>
  </node>
  <node concept="1TIwiD" id="DMZNGGDWmK">
    <property role="TrG5h" value="RuleReference" />
    <property role="3GE5qa" value="Rules" />
    <property role="EcuMT" value="752944717341640112" />
    <ref role="1TJDcQ" to="tpck:gw2VY9q" resolve="BaseConcept" />
    <node concept="1TJgyj" id="DMZNGGDWmL" role="1TKVEi">
      <property role="20lmBu" value="reference" />
      <property role="20kJfa" value="rule" />
      <property role="20lbJX" value="1" />
      <property role="IQ2ns" value="752944717341640113" />
      <ref role="20lvS9" node="nUEAIXlVr8" resolve="Rule" />
    </node>
  </node>
  <node concept="1TIwiD" id="1LzFTOJeBWz">
    <property role="R5$K7" value="false" />
    <property role="R5$K2" value="false" />
    <property role="TrG5h" value="AnalyzerRunnerType" />
    <property role="2_RsDV" value="none" />
    <property role="3GE5qa" value="Analyzer" />
    <property role="34LRSv" value="analyzerRunner" />
    <property role="EcuMT" value="2045671745393426211" />
    <ref role="1TJDcQ" to="tpee:fz3vP1H" resolve="Type" />
  </node>
  <node concept="1TIwiD" id="5hLfAui9Ch">
    <property role="R5$K7" value="false" />
    <property role="R5$K2" value="false" />
    <property role="TrG5h" value="AnalyzerRunnerAnalyzeOperation" />
    <property role="2_RsDV" value="none" />
    <property role="3GE5qa" value="Analyzer" />
    <property role="34LRSv" value="analyze" />
    <property role="EcuMT" value="95073643532950033" />
    <ref role="1TJDcQ" to="tpck:gw2VY9q" resolve="BaseConcept" />
    <node concept="PrWs8" id="5hLfAuimD9" role="PzmwI">
      <ref role="PrY4T" to="tpee:hqOqG0K" resolve="IOperation" />
    </node>
  </node>
  <node concept="1TIwiD" id="5hLfAui9Cm">
    <property role="R5$K7" value="false" />
    <property role="R5$K2" value="false" />
    <property role="TrG5h" value="AnalyzerRunnerCreator" />
    <property role="2_RsDV" value="none" />
    <property role="3GE5qa" value="Analyzer" />
    <property role="34LRSv" value="runner" />
    <property role="EcuMT" value="95073643532950038" />
    <ref role="1TJDcQ" to="tpee:fz3vP1J" resolve="Expression" />
    <node concept="1TJgyj" id="9V7Nft_oMw" role="1TKVEi">
      <property role="20lmBu" value="aggregation" />
      <property role="20kJfa" value="nodeToCheck" />
      <property role="20lbJX" value="1" />
      <property role="IQ2ns" value="178770917832625312" />
      <ref role="20lvS9" to="tpee:fz3vP1J" resolve="Expression" />
    </node>
    <node concept="1TJgyj" id="3tEjlbSOgR6" role="1TKVEi">
      <property role="20lmBu" value="aggregation" />
      <property role="20kJfa" value="parameters" />
      <property role="20lbJX" value="0..n" />
      <property role="IQ2ns" value="3993089038374473158" />
      <ref role="20lvS9" to="tpee:fz3vP1J" resolve="Expression" />
    </node>
    <node concept="1TJgyj" id="2ULNtK19BPU" role="1TKVEi">
      <property role="IQ2ns" value="3364696741418270074" />
      <property role="20lmBu" value="aggregation" />
      <property role="20kJfa" value="mode" />
      <ref role="20lvS9" to="tp41:6UdHCtZMvVk" resolve="IBuilderMode" />
    </node>
    <node concept="1TJgyj" id="5hLfAui9Cn" role="1TKVEi">
      <property role="20lmBu" value="reference" />
      <property role="20kJfa" value="analyzer" />
      <property role="20lbJX" value="1" />
      <property role="IQ2ns" value="95073643532950039" />
      <ref role="20lvS9" node="5JpT3MjX6u9" resolve="Analyzer" />
    </node>
  </node>
  <node concept="1TIwiD" id="6ViLkrkrEhy">
    <property role="R5$K7" value="false" />
    <property role="R5$K2" value="false" />
    <property role="TrG5h" value="IsOperation" />
    <property role="2_RsDV" value="none" />
    <property role="3GE5qa" value="Instructions" />
    <property role="34LRSv" value="is" />
    <property role="EcuMT" value="7985661997283714146" />
    <ref role="1TJDcQ" to="tpee:fz3vP1J" resolve="Expression" />
    <node concept="1TJgyj" id="6ViLkrkrJVL" role="1TKVEi">
      <property role="20lmBu" value="aggregation" />
      <property role="20kJfa" value="left" />
      <property role="20lbJX" value="1" />
      <property role="IQ2ns" value="7985661997283737329" />
      <ref role="20lvS9" to="tpee:fz3vP1J" resolve="Expression" />
    </node>
    <node concept="1TJgyj" id="6ViLkrkrEhz" role="1TKVEi">
      <property role="20lmBu" value="reference" />
      <property role="20kJfa" value="instruction" />
      <property role="20lbJX" value="1" />
      <property role="IQ2ns" value="7985661997283714147" />
      <ref role="20lvS9" node="5JpT3MjX6ua" resolve="Instruction" />
    </node>
  </node>
  <node concept="1TIwiD" id="4ipeeu8UrBu">
    <property role="R5$K7" value="false" />
    <property role="R5$K2" value="false" />
    <property role="TrG5h" value="ConceptCondition" />
    <property role="3GE5qa" value="Rules" />
    <property role="34LRSv" value="concept =" />
    <property role="EcuMT" value="4943044633101449694" />
    <ref role="1TJDcQ" node="2S_HFuhBtro" resolve="ApplicableCondition" />
    <node concept="1TJgyj" id="4ipeeu8Vyel" role="1TKVEi">
      <property role="20kJfa" value="concept" />
      <property role="20lbJX" value="1" />
      <property role="IQ2ns" value="4943044633101738901" />
      <ref role="20lvS9" to="tpce:h0PkWnZ" resolve="AbstractConceptDeclaration" />
    </node>
    <node concept="PrWs8" id="4ipeeu8Vyh8" role="PzmwI">
      <ref role="PrY4T" to="tpck:h0TrEE$" resolve="INamedConcept" />
    </node>
  </node>
  <node concept="1TIwiD" id="4ipeeu8WK4g">
    <property role="TrG5h" value="ApplicableNodeReference" />
    <property role="2_RsDV" value="none" />
    <property role="3GE5qa" value="Rules" />
    <property role="EcuMT" value="4943044633102057744" />
    <ref role="1TJDcQ" to="tpee:fz3vP1J" resolve="Expression" />
    <node concept="1TJgyj" id="4ipeeu8WK4h" role="1TKVEi">
      <property role="20lmBu" value="reference" />
      <property role="20kJfa" value="applicableNode" />
      <property role="20lbJX" value="1" />
      <property role="IQ2ns" value="4943044633102057745" />
      <ref role="20lvS9" node="4ipeeu8UrBu" resolve="ConceptCondition" />
    </node>
  </node>
  <node concept="1TIwiD" id="7jE3VEJNDMv">
    <property role="TrG5h" value="InsertBeforePosition" />
    <property role="EcuMT" value="8424563347437821087" />
    <ref role="1TJDcQ" to="tpck:gw2VY9q" resolve="BaseConcept" />
  </node>
  <node concept="1TIwiD" id="7jE3VEJNFWz">
    <property role="TrG5h" value="InsertPosition" />
    <property role="EcuMT" value="8424563347437829923" />
    <ref role="1TJDcQ" to="tpck:gw2VY9q" resolve="BaseConcept" />
  </node>
  <node concept="1TIwiD" id="7jE3VEJNFW$">
    <property role="TrG5h" value="InsertAfterPosition" />
    <property role="EcuMT" value="8424563347437829924" />
    <ref role="1TJDcQ" to="tpck:gw2VY9q" resolve="BaseConcept" />
  </node>
  <node concept="1TIwiD" id="5vxy$fN7gVQ">
    <property role="TrG5h" value="InstructionClassKeeper" />
    <property role="EcuMT" value="6332494575505837814" />
    <ref role="1TJDcQ" to="tpck:gw2VY9q" resolve="BaseConcept" />
    <node concept="1TJgyj" id="3QJUKqjisVE" role="1TKVEi">
      <property role="20lmBu" value="aggregation" />
      <property role="20kJfa" value="member" />
      <property role="20lbJX" value="0..n" />
      <property role="IQ2ns" value="4445029770711387882" />
      <ref role="20lvS9" to="tpee:h9ngReX" resolve="ClassifierMember" />
    </node>
    <node concept="PrWs8" id="3QJUKqjisVH" role="PzmwI">
      <ref role="PrY4T" to="tpck:h0TrEE$" resolve="INamedConcept" />
    </node>
  </node>
  <node concept="1TIwiD" id="1eG8_N9UvmZ">
    <property role="TrG5h" value="AnalyzerRunnerClassKeeper" />
    <property role="EcuMT" value="1417545764634752447" />
    <ref role="1TJDcQ" to="tpck:gw2VY9q" resolve="BaseConcept" />
    <node concept="1TJgyj" id="3QJUKqj7A6F" role="1TKVEi">
      <property role="20lmBu" value="aggregation" />
      <property role="20kJfa" value="member" />
      <property role="20lbJX" value="0..n" />
      <property role="IQ2ns" value="4445029770708541867" />
      <ref role="20lvS9" to="tpee:h9ngReX" resolve="ClassifierMember" />
    </node>
    <node concept="PrWs8" id="3QJUKqj7A6_" role="PzmwI">
      <ref role="PrY4T" to="tpck:h0TrEE$" resolve="INamedConcept" />
    </node>
  </node>
  <node concept="1TIwiD" id="3tEjlbSL22K">
    <property role="3GE5qa" value="Analyzer" />
    <property role="TrG5h" value="AnalyzerConstructorParameter" />
    <property role="EcuMT" value="3993089038373626032" />
    <ref role="1TJDcQ" to="tpee:4k3qd$cSlJ3" resolve="BaseVariableDeclaration" />
  </node>
  <node concept="1TIwiD" id="3tEjlbSL27S">
    <property role="3GE5qa" value="Analyzer" />
    <property role="TrG5h" value="AnalyzerConstructorParameterReference" />
    <property role="EcuMT" value="3993089038373626360" />
    <ref role="1TJDcQ" to="tpee:4Lb$w0Yiqs4" resolve="BaseVariableReference" />
    <node concept="1TJgyj" id="3tEjlbSL27T" role="1TKVEi">
      <property role="20lmBu" value="reference" />
      <property role="20kJfa" value="declaration" />
      <property role="20lbJX" value="1" />
      <property role="IQ2ns" value="3993089038373626361" />
      <ref role="20lvS9" node="3tEjlbSL22K" resolve="AnalyzerConstructorParameter" />
      <ref role="20ksaX" to="tpee:4Lb$w0Yiqs5" />
    </node>
  </node>
  <node concept="1TIwiD" id="7UkgJtnqqHe">
    <property role="R5$K7" value="false" />
    <property role="R5$K2" value="false" />
    <property role="TrG5h" value="AnalyzerFunParameterStateValues" />
    <property role="2_RsDV" value="none" />
    <property role="3GE5qa" value="Analyzer.AnalyzerFunctions" />
    <property role="34LRSv" value="stateValues" />
    <property role="1pbfSe" value="704778683" />
    <property role="EcuMT" value="9120988775422995278" />
    <ref role="1TJDcQ" to="tpee:g76ryKb" resolve="ConceptFunctionParameter" />
  </node>
  <node concept="1TIwiD" id="3eVfSJeeWos">
    <property role="EcuMT" value="3727642986272245276" />
    <property role="3GE5qa" value="Rules" />
    <property role="TrG5h" value="ProgramParameter" />
    <property role="34LRSv" value="program" />
    <ref role="1TJDcQ" to="tpee:fz3vP1J" resolve="Expression" />
  </node>
  <node concept="1TIwiD" id="7fxZEB1sFyL">
    <property role="1pbfSe" value="894744410" />
    <property role="3GE5qa" value="Instructions" />
    <property role="TrG5h" value="CustomInstructionsContainer" />
    <property role="19KtqR" value="true" />
    <property role="EcuMT" value="8350235189170059441" />
    <ref role="1TJDcQ" to="tpck:gw2VY9q" resolve="BaseConcept" />
    <node concept="1TJgyj" id="7fxZEB1sH3D" role="1TKVEi">
      <property role="20lmBu" value="aggregation" />
      <property role="20kJfa" value="instruction" />
      <property role="20lbJX" value="0..n" />
      <property role="IQ2ns" value="8350235189170065641" />
      <ref role="20lvS9" node="5JpT3MjX6ua" resolve="Instruction" />
    </node>
    <node concept="PrWs8" id="7fxZEB1sH3F" role="PzmwI">
      <ref role="PrY4T" to="tpck:h0TrEE$" resolve="INamedConcept" />
    </node>
  </node>
  <node concept="1TIwiD" id="7fxZEB1sSuo">
    <property role="1pbfSe" value="894797377" />
    <property role="3GE5qa" value="Instructions" />
    <property role="TrG5h" value="CustomInstructionsContainerReference" />
    <property role="EcuMT" value="8350235189170112408" />
    <ref role="1TJDcQ" to="tpck:gw2VY9q" resolve="BaseConcept" />
    <node concept="1TJgyj" id="7fxZEB1sSup" role="1TKVEi">
      <property role="20lmBu" value="reference" />
      <property role="20kJfa" value="containter" />
      <property role="20lbJX" value="1" />
      <property role="IQ2ns" value="8350235189170112409" />
      <ref role="20lvS9" node="7fxZEB1sFyL" resolve="CustomInstructionsContainer" />
    </node>
  </node>
</model>

