<?xml version="1.0" encoding="UTF-8"?>
<model ref="r:9e8bdb89-2777-4a48-887c-0edd1d0b1863(jetbrains.mps.baseLanguage.collections.trove.containers)" doNotGenerate="true">
  <persistence version="9" />
  <languages>
    <use id="83888646-71ce-4f1c-9c53-c54016f6ad4f" name="jetbrains.mps.baseLanguage.collections" version="0" />
    <use id="f3061a53-9226-4cc5-a443-f952ceaf5816" name="jetbrains.mps.baseLanguage" version="4" />
  </languages>
  <imports>
    <import index="otil" ref="134ef213-c518-42b0-b12c-c109aa13d320/java:gnu.trove.decorator(collections_trove.runtime/)" />
    <import index="lktc" ref="134ef213-c518-42b0-b12c-c109aa13d320/java:gnu.trove(collections_trove.runtime/)" />
    <import index="eyjm" ref="134ef213-c518-42b0-b12c-c109aa13d320/java:jetbrains.mps.baseLanguage.collections.trove.runtime(collections_trove.runtime/)" />
  </imports>
  <registry>
    <language id="f3061a53-9226-4cc5-a443-f952ceaf5816" name="jetbrains.mps.baseLanguage">
      <concept id="1145552977093" name="jetbrains.mps.baseLanguage.structure.GenericNewExpression" flags="nn" index="2ShNRf">
        <child id="1145553007750" name="creator" index="2ShVmc" />
      </concept>
      <concept id="1070533982221" name="jetbrains.mps.baseLanguage.structure.ShortType" flags="in" index="10N3zO" />
      <concept id="1070534370425" name="jetbrains.mps.baseLanguage.structure.IntegerType" flags="in" index="10Oyi0" />
      <concept id="1070534436861" name="jetbrains.mps.baseLanguage.structure.FloatType" flags="in" index="10OMs4" />
      <concept id="1070534513062" name="jetbrains.mps.baseLanguage.structure.DoubleType" flags="in" index="10P55v" />
      <concept id="1070534604311" name="jetbrains.mps.baseLanguage.structure.ByteType" flags="in" index="10PrrI" />
      <concept id="1109279763828" name="jetbrains.mps.baseLanguage.structure.TypeVariableDeclaration" flags="ng" index="16euLQ" />
      <concept id="1109279851642" name="jetbrains.mps.baseLanguage.structure.GenericDeclaration" flags="ng" index="16eOlS">
        <child id="1109279881614" name="typeVariableDeclaration" index="16eVyc" />
      </concept>
      <concept id="1109283449304" name="jetbrains.mps.baseLanguage.structure.TypeVariableReference" flags="in" index="16syzq">
        <reference id="1109283546497" name="typeVariableDeclaration" index="16sUi3" />
      </concept>
      <concept id="1068581242867" name="jetbrains.mps.baseLanguage.structure.LongType" flags="in" index="3cpWsb" />
      <concept id="1204053956946" name="jetbrains.mps.baseLanguage.structure.IMethodCall" flags="ng" index="1ndlxa">
        <reference id="1068499141037" name="baseMethodDeclaration" index="37wK5l" />
        <child id="1068499141038" name="actualArgument" index="37wK5m" />
      </concept>
      <concept id="1212685548494" name="jetbrains.mps.baseLanguage.structure.ClassCreator" flags="nn" index="1pGfFk">
        <child id="1212687122400" name="typeParameter" index="1pMfVU" />
      </concept>
      <concept id="1107535904670" name="jetbrains.mps.baseLanguage.structure.ClassifierType" flags="in" index="3uibUv">
        <reference id="1107535924139" name="classifier" index="3uigEE" />
      </concept>
      <concept id="1178549954367" name="jetbrains.mps.baseLanguage.structure.IVisible" flags="ng" index="1B3ioH">
        <child id="1178549979242" name="visibility" index="1B3o_S" />
      </concept>
      <concept id="1146644602865" name="jetbrains.mps.baseLanguage.structure.PublicVisibility" flags="nn" index="3Tm1VV" />
    </language>
    <language id="ceab5195-25ea-4f22-9b92-103b95ca8c0c" name="jetbrains.mps.lang.core">
      <concept id="1169194658468" name="jetbrains.mps.lang.core.structure.INamedConcept" flags="ng" index="TrEIO">
        <property id="1169194664001" name="name" index="TrG5h" />
      </concept>
    </language>
    <language id="83888646-71ce-4f1c-9c53-c54016f6ad4f" name="jetbrains.mps.baseLanguage.collections">
      <concept id="1226511727824" name="jetbrains.mps.baseLanguage.collections.structure.SetType" flags="in" index="2hMVRd">
        <child id="1226511765987" name="elementType" index="2hN53Y" />
      </concept>
      <concept id="6099516049394485216" name="jetbrains.mps.baseLanguage.collections.structure.CustomContainerDeclaration" flags="ng" index="2llx9B">
        <child id="6099516049394485311" name="containerType" index="2llxQS" />
        <child id="6099516049394485312" name="runtimeType" index="2llxR7" />
        <child id="1279588871814993944" name="factory" index="2MOlHk" />
      </concept>
      <concept id="6099516049394485324" name="jetbrains.mps.baseLanguage.collections.structure.CustomContainers" flags="ng" index="2llxRb">
        <child id="6099516049394485326" name="containerDeclaration" index="2llxR9" />
      </concept>
      <concept id="1151688443754" name="jetbrains.mps.baseLanguage.collections.structure.ListType" flags="in" index="_YKpA">
        <child id="1151688676805" name="elementType" index="_ZDj9" />
      </concept>
      <concept id="1197683403723" name="jetbrains.mps.baseLanguage.collections.structure.MapType" flags="in" index="3rvAFt">
        <child id="1197683466920" name="keyType" index="3rvQeY" />
        <child id="1197683475734" name="valueType" index="3rvSg0" />
      </concept>
    </language>
  </registry>
  <node concept="2llxRb" id="7Py4e1LVsK$">
    <property role="TrG5h" value="TroveSets" />
    <node concept="2llx9B" id="7Py4e1LVsK_" role="2llxR9">
      <property role="TrG5h" value="byteHashSet" />
      <node concept="2hMVRd" id="7Py4e1LVsKD" role="2llxQS">
        <node concept="10PrrI" id="7Py4e1LVsKF" role="2hN53Y" />
      </node>
      <node concept="3uibUv" id="7Py4e1LVEri" role="2llxR7">
        <ref role="3uigEE" to="otil:~TByteHashSetDecorator" resolve="TByteHashSetDecorator" />
      </node>
      <node concept="3Tm1VV" id="7Py4e1LVsKC" role="1B3o_S" />
      <node concept="2ShNRf" id="1720OMz5g0E" role="2MOlHk">
        <node concept="1pGfFk" id="1720OMz5jDc" role="2ShVmc">
          <ref role="37wK5l" to="otil:~TByteHashSetDecorator.&lt;init&gt;(gnu.trove.TByteHashSet)" resolve="TByteHashSetDecorator" />
          <node concept="2ShNRf" id="1720OMz5jDd" role="37wK5m">
            <node concept="1pGfFk" id="1720OMz5jDf" role="2ShVmc">
              <ref role="37wK5l" to="lktc:~TByteHashSet.&lt;init&gt;()" resolve="TByteHashSet" />
            </node>
          </node>
        </node>
      </node>
    </node>
    <node concept="2llx9B" id="1720OMz5BST" role="2llxR9">
      <property role="TrG5h" value="doubleHashSet" />
      <node concept="2hMVRd" id="1720OMz5BSX" role="2llxQS">
        <node concept="10P55v" id="1720OMz5BSZ" role="2hN53Y" />
      </node>
      <node concept="3uibUv" id="1720OMz5BT0" role="2llxR7">
        <ref role="3uigEE" to="otil:~TDoubleHashSetDecorator" resolve="TDoubleHashSetDecorator" />
      </node>
      <node concept="3Tm1VV" id="1720OMz5BSW" role="1B3o_S" />
      <node concept="2ShNRf" id="1720OMz5BT1" role="2MOlHk">
        <node concept="1pGfFk" id="1720OMz5BT3" role="2ShVmc">
          <ref role="37wK5l" to="otil:~TDoubleHashSetDecorator.&lt;init&gt;(gnu.trove.TDoubleHashSet)" resolve="TDoubleHashSetDecorator" />
          <node concept="2ShNRf" id="1720OMz5BT4" role="37wK5m">
            <node concept="1pGfFk" id="1720OMz5BT6" role="2ShVmc">
              <ref role="37wK5l" to="lktc:~TDoubleHashSet.&lt;init&gt;()" resolve="TDoubleHashSet" />
            </node>
          </node>
        </node>
      </node>
    </node>
    <node concept="2llx9B" id="1720OMz5BT7" role="2llxR9">
      <property role="TrG5h" value="floatHashSet" />
      <node concept="2hMVRd" id="1720OMz5BTb" role="2llxQS">
        <node concept="10OMs4" id="1720OMz5BTd" role="2hN53Y" />
      </node>
      <node concept="3uibUv" id="1720OMz5BTe" role="2llxR7">
        <ref role="3uigEE" to="otil:~TFloatHashSetDecorator" resolve="TFloatHashSetDecorator" />
      </node>
      <node concept="3Tm1VV" id="1720OMz5BTa" role="1B3o_S" />
      <node concept="2ShNRf" id="1720OMz5BTf" role="2MOlHk">
        <node concept="1pGfFk" id="1720OMz5BTh" role="2ShVmc">
          <ref role="37wK5l" to="otil:~TFloatHashSetDecorator.&lt;init&gt;(gnu.trove.TFloatHashSet)" resolve="TFloatHashSetDecorator" />
          <node concept="2ShNRf" id="1720OMz5BTi" role="37wK5m">
            <node concept="1pGfFk" id="1720OMz5BTk" role="2ShVmc">
              <ref role="37wK5l" to="lktc:~TFloatHashSet.&lt;init&gt;()" resolve="TFloatHashSet" />
            </node>
          </node>
        </node>
      </node>
    </node>
    <node concept="2llx9B" id="1720OMz5BTl" role="2llxR9">
      <property role="TrG5h" value="intHashSet" />
      <node concept="2hMVRd" id="1720OMz5BTp" role="2llxQS">
        <node concept="10Oyi0" id="1720OMz5BTr" role="2hN53Y" />
      </node>
      <node concept="3uibUv" id="1720OMz5BTs" role="2llxR7">
        <ref role="3uigEE" to="otil:~TIntHashSetDecorator" resolve="TIntHashSetDecorator" />
      </node>
      <node concept="3Tm1VV" id="1720OMz5BTo" role="1B3o_S" />
      <node concept="2ShNRf" id="1720OMz5BTt" role="2MOlHk">
        <node concept="1pGfFk" id="1720OMz5BTv" role="2ShVmc">
          <ref role="37wK5l" to="otil:~TIntHashSetDecorator.&lt;init&gt;(gnu.trove.TIntHashSet)" resolve="TIntHashSetDecorator" />
          <node concept="2ShNRf" id="1720OMz5BTx" role="37wK5m">
            <node concept="1pGfFk" id="1720OMz5BTz" role="2ShVmc">
              <ref role="37wK5l" to="lktc:~TIntHashSet.&lt;init&gt;()" resolve="TIntHashSet" />
            </node>
          </node>
        </node>
      </node>
    </node>
    <node concept="2llx9B" id="1720OMz5BT$" role="2llxR9">
      <property role="TrG5h" value="longHashSet" />
      <node concept="2hMVRd" id="1720OMz5BTC" role="2llxQS">
        <node concept="3cpWsb" id="1720OMz5BTE" role="2hN53Y" />
      </node>
      <node concept="3uibUv" id="1720OMz5BTF" role="2llxR7">
        <ref role="3uigEE" to="otil:~TLongHashSetDecorator" resolve="TLongHashSetDecorator" />
      </node>
      <node concept="3Tm1VV" id="1720OMz5BTB" role="1B3o_S" />
      <node concept="2ShNRf" id="1720OMz5BTG" role="2MOlHk">
        <node concept="1pGfFk" id="1720OMz5BTI" role="2ShVmc">
          <ref role="37wK5l" to="otil:~TLongHashSetDecorator.&lt;init&gt;(gnu.trove.TLongHashSet)" resolve="TLongHashSetDecorator" />
          <node concept="2ShNRf" id="1720OMz5BTJ" role="37wK5m">
            <node concept="1pGfFk" id="1720OMz5BTL" role="2ShVmc">
              <ref role="37wK5l" to="lktc:~TLongHashSet.&lt;init&gt;()" resolve="TLongHashSet" />
            </node>
          </node>
        </node>
      </node>
    </node>
    <node concept="2llx9B" id="1720OMz5BTM" role="2llxR9">
      <property role="TrG5h" value="shortHashSet" />
      <node concept="2hMVRd" id="1720OMz5BTQ" role="2llxQS">
        <node concept="10N3zO" id="1720OMz5BTS" role="2hN53Y" />
      </node>
      <node concept="3uibUv" id="1720OMz5BTT" role="2llxR7">
        <ref role="3uigEE" to="otil:~TShortHashSetDecorator" resolve="TShortHashSetDecorator" />
      </node>
      <node concept="3Tm1VV" id="1720OMz5BTP" role="1B3o_S" />
      <node concept="2ShNRf" id="1720OMz5BTU" role="2MOlHk">
        <node concept="1pGfFk" id="1720OMz5BTW" role="2ShVmc">
          <ref role="37wK5l" to="otil:~TShortHashSetDecorator.&lt;init&gt;(gnu.trove.TShortHashSet)" resolve="TShortHashSetDecorator" />
          <node concept="2ShNRf" id="1720OMz5BTX" role="37wK5m">
            <node concept="1pGfFk" id="1720OMz5BTZ" role="2ShVmc">
              <ref role="37wK5l" to="lktc:~TShortHashSet.&lt;init&gt;()" resolve="TShortHashSet" />
            </node>
          </node>
        </node>
      </node>
    </node>
  </node>
  <node concept="2llxRb" id="1720OMz5BU0">
    <property role="TrG5h" value="TroveMaps_byte" />
    <node concept="2llx9B" id="1720OMz5BU1" role="2llxR9">
      <property role="TrG5h" value="byteByteHashMap" />
      <node concept="3rvAFt" id="1720OMz5BU5" role="2llxQS">
        <node concept="10PrrI" id="1720OMz5BU8" role="3rvQeY" />
        <node concept="10PrrI" id="1720OMz5BU9" role="3rvSg0" />
      </node>
      <node concept="3uibUv" id="1720OMz5BUa" role="2llxR7">
        <ref role="3uigEE" to="otil:~TByteByteHashMapDecorator" resolve="TByteByteHashMapDecorator" />
      </node>
      <node concept="3Tm1VV" id="1720OMz5BU4" role="1B3o_S" />
      <node concept="2ShNRf" id="1720OMz5BUb" role="2MOlHk">
        <node concept="1pGfFk" id="1720OMz5BUd" role="2ShVmc">
          <ref role="37wK5l" to="otil:~TByteByteHashMapDecorator.&lt;init&gt;(gnu.trove.TByteByteHashMap)" resolve="TByteByteHashMapDecorator" />
          <node concept="2ShNRf" id="1720OMz5BUi" role="37wK5m">
            <node concept="1pGfFk" id="1720OMz5BUj" role="2ShVmc">
              <ref role="37wK5l" to="lktc:~TByteByteHashMap.&lt;init&gt;()" resolve="TByteByteHashMap" />
            </node>
          </node>
        </node>
      </node>
    </node>
    <node concept="2llx9B" id="1720OMz63pm" role="2llxR9">
      <property role="TrG5h" value="byteDoubleHashMap" />
      <node concept="3uibUv" id="1720OMz6i0W" role="2llxR7">
        <ref role="3uigEE" to="otil:~TByteDoubleHashMapDecorator" resolve="TByteDoubleHashMapDecorator" />
      </node>
      <node concept="3Tm1VV" id="1720OMz63pp" role="1B3o_S" />
      <node concept="3rvAFt" id="1720OMz6i0R" role="2llxQS">
        <node concept="10P55v" id="1720OMz6i0V" role="3rvSg0" />
        <node concept="10PrrI" id="1720OMz6i0U" role="3rvQeY" />
      </node>
      <node concept="2ShNRf" id="1720OMz6jgg" role="2MOlHk">
        <node concept="1pGfFk" id="1720OMz6jgi" role="2ShVmc">
          <ref role="37wK5l" to="otil:~TByteDoubleHashMapDecorator.&lt;init&gt;(gnu.trove.TByteDoubleHashMap)" resolve="TByteDoubleHashMapDecorator" />
          <node concept="2ShNRf" id="1720OMz6jgn" role="37wK5m">
            <node concept="1pGfFk" id="1720OMz6jgp" role="2ShVmc">
              <ref role="37wK5l" to="lktc:~TByteDoubleHashMap.&lt;init&gt;()" resolve="TByteDoubleHashMap" />
            </node>
          </node>
        </node>
      </node>
    </node>
    <node concept="2llx9B" id="5LgcRGUDfdw" role="2llxR9">
      <property role="TrG5h" value="byteFloatHashMap" />
      <node concept="3uibUv" id="5LgcRGUDfdF" role="2llxR7">
        <ref role="3uigEE" to="otil:~TByteFloatHashMapDecorator" resolve="TByteFloatHashMapDecorator" />
      </node>
      <node concept="3Tm1VV" id="5LgcRGUDfdy" role="1B3o_S" />
      <node concept="3rvAFt" id="5LgcRGUDfdz" role="2llxQS">
        <node concept="10OMs4" id="5LgcRGUDfdE" role="3rvSg0" />
        <node concept="10PrrI" id="5LgcRGUDfd_" role="3rvQeY" />
      </node>
      <node concept="2ShNRf" id="5LgcRGUDfdA" role="2MOlHk">
        <node concept="1pGfFk" id="5LgcRGUDfdB" role="2ShVmc">
          <ref role="37wK5l" to="otil:~TByteFloatHashMapDecorator.&lt;init&gt;(gnu.trove.TByteFloatHashMap)" resolve="TByteFloatHashMapDecorator" />
          <node concept="2ShNRf" id="5LgcRGUDfdC" role="37wK5m">
            <node concept="1pGfFk" id="5LgcRGUDfdG" role="2ShVmc">
              <ref role="37wK5l" to="lktc:~TByteFloatHashMap.&lt;init&gt;()" resolve="TByteFloatHashMap" />
            </node>
          </node>
        </node>
      </node>
    </node>
    <node concept="2llx9B" id="5LgcRGUDfdH" role="2llxR9">
      <property role="TrG5h" value="byteIntHashMap" />
      <node concept="3Tm1VV" id="5LgcRGUDfdI" role="1B3o_S" />
      <node concept="3rvAFt" id="5LgcRGUDfdL" role="2llxQS">
        <node concept="10Oyi0" id="5LgcRGUDfdP" role="3rvSg0" />
        <node concept="10PrrI" id="5LgcRGUDfdO" role="3rvQeY" />
      </node>
      <node concept="3uibUv" id="5LgcRGUDfdQ" role="2llxR7">
        <ref role="3uigEE" to="otil:~TByteIntHashMapDecorator" resolve="TByteIntHashMapDecorator" />
      </node>
      <node concept="2ShNRf" id="5LgcRGUDfdR" role="2MOlHk">
        <node concept="1pGfFk" id="5LgcRGUDfdT" role="2ShVmc">
          <ref role="37wK5l" to="otil:~TByteIntHashMapDecorator.&lt;init&gt;(gnu.trove.TByteIntHashMap)" resolve="TByteIntHashMapDecorator" />
          <node concept="2ShNRf" id="5LgcRGUDfdV" role="37wK5m">
            <node concept="1pGfFk" id="5LgcRGUDfdW" role="2ShVmc">
              <ref role="37wK5l" to="lktc:~TByteIntHashMap.&lt;init&gt;()" resolve="TByteIntHashMap" />
            </node>
          </node>
        </node>
      </node>
    </node>
    <node concept="2llx9B" id="5LgcRGUDfdX" role="2llxR9">
      <property role="TrG5h" value="byteLongHashMap" />
      <node concept="3Tm1VV" id="5LgcRGUDfdY" role="1B3o_S" />
      <node concept="3rvAFt" id="5LgcRGUDfe1" role="2llxQS">
        <node concept="10PrrI" id="5LgcRGUDfe4" role="3rvQeY" />
        <node concept="3cpWsb" id="5LgcRGUDfe6" role="3rvSg0" />
      </node>
      <node concept="3uibUv" id="5LgcRGUDfe7" role="2llxR7">
        <ref role="3uigEE" to="otil:~TByteLongHashMapDecorator" resolve="TByteLongHashMapDecorator" />
      </node>
      <node concept="2ShNRf" id="5LgcRGUDfe8" role="2MOlHk">
        <node concept="1pGfFk" id="5LgcRGUDfea" role="2ShVmc">
          <ref role="37wK5l" to="otil:~TByteLongHashMapDecorator.&lt;init&gt;(gnu.trove.TByteLongHashMap)" resolve="TByteLongHashMapDecorator" />
          <node concept="2ShNRf" id="5LgcRGUDfec" role="37wK5m">
            <node concept="1pGfFk" id="5LgcRGUDfed" role="2ShVmc">
              <ref role="37wK5l" to="lktc:~TByteLongHashMap.&lt;init&gt;()" resolve="TByteLongHashMap" />
            </node>
          </node>
        </node>
      </node>
    </node>
    <node concept="2llx9B" id="5LgcRGUDfee" role="2llxR9">
      <property role="TrG5h" value="byteObjectHashMap" />
      <node concept="3Tm1VV" id="5LgcRGUDfef" role="1B3o_S" />
      <node concept="3rvAFt" id="5LgcRGUDfei" role="2llxQS">
        <node concept="10PrrI" id="5LgcRGUDfel" role="3rvQeY" />
        <node concept="16syzq" id="5LgcRGUDfen" role="3rvSg0">
          <ref role="16sUi3" node="5LgcRGUDfem" resolve="V" />
        </node>
      </node>
      <node concept="3uibUv" id="5LgcRGUDfeo" role="2llxR7">
        <ref role="3uigEE" to="otil:~TByteObjectHashMapDecorator" resolve="TByteObjectHashMapDecorator" />
      </node>
      <node concept="16euLQ" id="5LgcRGUDfem" role="16eVyc">
        <property role="TrG5h" value="V" />
      </node>
      <node concept="2ShNRf" id="5LgcRGUDfep" role="2MOlHk">
        <node concept="1pGfFk" id="5LgcRGUDfer" role="2ShVmc">
          <ref role="37wK5l" to="otil:~TByteObjectHashMapDecorator.&lt;init&gt;(gnu.trove.TByteObjectHashMap)" resolve="TByteObjectHashMapDecorator" />
          <node concept="2ShNRf" id="5LgcRGUDfev" role="37wK5m">
            <node concept="1pGfFk" id="5LgcRGUDfew" role="2ShVmc">
              <ref role="37wK5l" to="lktc:~TByteObjectHashMap.&lt;init&gt;()" resolve="TByteObjectHashMap" />
              <node concept="16syzq" id="5LgcRGUDfeC" role="1pMfVU">
                <ref role="16sUi3" node="5LgcRGUDfem" resolve="V" />
              </node>
            </node>
          </node>
        </node>
      </node>
    </node>
    <node concept="2llx9B" id="5LgcRGUDfeF" role="2llxR9">
      <property role="TrG5h" value="byteShortHashMap" />
      <node concept="3Tm1VV" id="5LgcRGUDfeG" role="1B3o_S" />
      <node concept="3rvAFt" id="5LgcRGUDfeJ" role="2llxQS">
        <node concept="10N3zO" id="5LgcRGUDfeN" role="3rvSg0" />
        <node concept="10PrrI" id="5LgcRGUDfeM" role="3rvQeY" />
      </node>
      <node concept="3uibUv" id="5LgcRGUDfeO" role="2llxR7">
        <ref role="3uigEE" to="otil:~TByteShortHashMapDecorator" resolve="TByteShortHashMapDecorator" />
      </node>
      <node concept="2ShNRf" id="5LgcRGUDfeP" role="2MOlHk">
        <node concept="1pGfFk" id="5LgcRGUDfeR" role="2ShVmc">
          <ref role="37wK5l" to="otil:~TByteShortHashMapDecorator.&lt;init&gt;(gnu.trove.TByteShortHashMap)" resolve="TByteShortHashMapDecorator" />
          <node concept="2ShNRf" id="5LgcRGUDfeT" role="37wK5m">
            <node concept="1pGfFk" id="5LgcRGUDfeU" role="2ShVmc">
              <ref role="37wK5l" to="lktc:~TByteShortHashMap.&lt;init&gt;()" resolve="TByteShortHashMap" />
            </node>
          </node>
        </node>
      </node>
    </node>
  </node>
  <node concept="2llxRb" id="6A07P3f6$X0">
    <property role="TrG5h" value="TroveMaps_double" />
    <node concept="2llx9B" id="6A07P3f6$X1" role="2llxR9">
      <property role="TrG5h" value="doubleByteHashMap" />
      <node concept="3rvAFt" id="6A07P3f6$X2" role="2llxQS">
        <node concept="10P55v" id="6A07P3f6$Yb" role="3rvQeY" />
        <node concept="10PrrI" id="6A07P3f6$X4" role="3rvSg0" />
      </node>
      <node concept="3uibUv" id="6A07P3f6$Yc" role="2llxR7">
        <ref role="3uigEE" to="otil:~TDoubleByteHashMapDecorator" resolve="TDoubleByteHashMapDecorator" />
      </node>
      <node concept="3Tm1VV" id="6A07P3f6$X6" role="1B3o_S" />
      <node concept="2ShNRf" id="6A07P3f6$X7" role="2MOlHk">
        <node concept="1pGfFk" id="6A07P3f6$X8" role="2ShVmc">
          <ref role="37wK5l" to="otil:~TDoubleByteHashMapDecorator.&lt;init&gt;(gnu.trove.TDoubleByteHashMap)" resolve="TDoubleByteHashMapDecorator" />
          <node concept="2ShNRf" id="6A07P3f6$Yh" role="37wK5m">
            <node concept="1pGfFk" id="6A07P3f6$Yj" role="2ShVmc">
              <ref role="37wK5l" to="lktc:~TDoubleByteHashMap.&lt;init&gt;()" resolve="TDoubleByteHashMap" />
            </node>
          </node>
        </node>
      </node>
    </node>
    <node concept="2llx9B" id="6A07P3f6$Xb" role="2llxR9">
      <property role="TrG5h" value="doubleDoubleHashMap" />
      <node concept="3uibUv" id="6A07P3f6$Yl" role="2llxR7">
        <ref role="3uigEE" to="otil:~TDoubleDoubleHashMapDecorator" resolve="TDoubleDoubleHashMapDecorator" />
      </node>
      <node concept="3Tm1VV" id="6A07P3f6$Xd" role="1B3o_S" />
      <node concept="3rvAFt" id="6A07P3f6$Xe" role="2llxQS">
        <node concept="10P55v" id="6A07P3f6$Xf" role="3rvSg0" />
        <node concept="10P55v" id="6A07P3f6$Yk" role="3rvQeY" />
      </node>
      <node concept="2ShNRf" id="6A07P3f6$Xh" role="2MOlHk">
        <node concept="1pGfFk" id="6A07P3f6$Xi" role="2ShVmc">
          <ref role="37wK5l" to="otil:~TDoubleDoubleHashMapDecorator.&lt;init&gt;(gnu.trove.TDoubleDoubleHashMap)" resolve="TDoubleDoubleHashMapDecorator" />
          <node concept="2ShNRf" id="6A07P3f6$Xj" role="37wK5m">
            <node concept="1pGfFk" id="6A07P3f6$Ym" role="2ShVmc">
              <ref role="37wK5l" to="lktc:~TDoubleDoubleHashMap.&lt;init&gt;()" resolve="TDoubleDoubleHashMap" />
            </node>
          </node>
        </node>
      </node>
    </node>
    <node concept="2llx9B" id="6A07P3f6$Xl" role="2llxR9">
      <property role="TrG5h" value="doubleFloatHashMap" />
      <node concept="3uibUv" id="6A07P3f6$Yo" role="2llxR7">
        <ref role="3uigEE" to="otil:~TDoubleFloatHashMapDecorator" resolve="TDoubleFloatHashMapDecorator" />
      </node>
      <node concept="3Tm1VV" id="6A07P3f6$Xn" role="1B3o_S" />
      <node concept="3rvAFt" id="6A07P3f6$Xo" role="2llxQS">
        <node concept="10OMs4" id="6A07P3f6$Xp" role="3rvSg0" />
        <node concept="10P55v" id="6A07P3f6$Yn" role="3rvQeY" />
      </node>
      <node concept="2ShNRf" id="6A07P3f6$Xr" role="2MOlHk">
        <node concept="1pGfFk" id="6A07P3f6$Xs" role="2ShVmc">
          <ref role="37wK5l" to="otil:~TDoubleFloatHashMapDecorator.&lt;init&gt;(gnu.trove.TDoubleFloatHashMap)" resolve="TDoubleFloatHashMapDecorator" />
          <node concept="2ShNRf" id="6A07P3f6$Xt" role="37wK5m">
            <node concept="1pGfFk" id="6A07P3f6$Yp" role="2ShVmc">
              <ref role="37wK5l" to="lktc:~TDoubleFloatHashMap.&lt;init&gt;()" resolve="TDoubleFloatHashMap" />
            </node>
          </node>
        </node>
      </node>
    </node>
    <node concept="2llx9B" id="6A07P3f6$Xv" role="2llxR9">
      <property role="TrG5h" value="doubleIntHashMap" />
      <node concept="3Tm1VV" id="6A07P3f6$Xw" role="1B3o_S" />
      <node concept="3rvAFt" id="6A07P3f6$Xx" role="2llxQS">
        <node concept="10Oyi0" id="6A07P3f6$Xy" role="3rvSg0" />
        <node concept="10P55v" id="6A07P3f6$Yq" role="3rvQeY" />
      </node>
      <node concept="3uibUv" id="6A07P3f6$Yr" role="2llxR7">
        <ref role="3uigEE" to="otil:~TDoubleIntHashMapDecorator" resolve="TDoubleIntHashMapDecorator" />
      </node>
      <node concept="2ShNRf" id="6A07P3f6$X_" role="2MOlHk">
        <node concept="1pGfFk" id="6A07P3f6$XA" role="2ShVmc">
          <ref role="37wK5l" to="otil:~TDoubleIntHashMapDecorator.&lt;init&gt;(gnu.trove.TDoubleIntHashMap)" resolve="TDoubleIntHashMapDecorator" />
          <node concept="2ShNRf" id="6A07P3f6$XB" role="37wK5m">
            <node concept="1pGfFk" id="6A07P3f6$Ys" role="2ShVmc">
              <ref role="37wK5l" to="lktc:~TDoubleIntHashMap.&lt;init&gt;()" resolve="TDoubleIntHashMap" />
            </node>
          </node>
        </node>
      </node>
    </node>
    <node concept="2llx9B" id="6A07P3f6$XD" role="2llxR9">
      <property role="TrG5h" value="doubleLongHashMap" />
      <node concept="3Tm1VV" id="6A07P3f6$XE" role="1B3o_S" />
      <node concept="3rvAFt" id="6A07P3f6$XF" role="2llxQS">
        <node concept="10P55v" id="6A07P3f6$Yt" role="3rvQeY" />
        <node concept="3cpWsb" id="6A07P3f6$XH" role="3rvSg0" />
      </node>
      <node concept="3uibUv" id="6A07P3f6$Yu" role="2llxR7">
        <ref role="3uigEE" to="otil:~TDoubleLongHashMapDecorator" resolve="TDoubleLongHashMapDecorator" />
      </node>
      <node concept="2ShNRf" id="6A07P3f6$XJ" role="2MOlHk">
        <node concept="1pGfFk" id="6A07P3f6$XK" role="2ShVmc">
          <ref role="37wK5l" to="otil:~TDoubleLongHashMapDecorator.&lt;init&gt;(gnu.trove.TDoubleLongHashMap)" resolve="TDoubleLongHashMapDecorator" />
          <node concept="2ShNRf" id="6A07P3f6$XL" role="37wK5m">
            <node concept="1pGfFk" id="6A07P3f6$Yv" role="2ShVmc">
              <ref role="37wK5l" to="lktc:~TDoubleLongHashMap.&lt;init&gt;()" resolve="TDoubleLongHashMap" />
            </node>
          </node>
        </node>
      </node>
    </node>
    <node concept="2llx9B" id="6A07P3f6$XN" role="2llxR9">
      <property role="TrG5h" value="doubleObjectHashMap" />
      <node concept="3Tm1VV" id="6A07P3f6$XO" role="1B3o_S" />
      <node concept="3rvAFt" id="6A07P3f6$XP" role="2llxQS">
        <node concept="10P55v" id="6A07P3f6$YB" role="3rvQeY" />
        <node concept="16syzq" id="6A07P3f6$XR" role="3rvSg0">
          <ref role="16sUi3" node="6A07P3f6$XT" resolve="V" />
        </node>
      </node>
      <node concept="3uibUv" id="6A07P3f6$Yw" role="2llxR7">
        <ref role="3uigEE" to="otil:~TDoubleObjectHashMapDecorator" resolve="TDoubleObjectHashMapDecorator" />
      </node>
      <node concept="16euLQ" id="6A07P3f6$XT" role="16eVyc">
        <property role="TrG5h" value="V" />
      </node>
      <node concept="2ShNRf" id="6A07P3f6$XU" role="2MOlHk">
        <node concept="1pGfFk" id="6A07P3f6$XV" role="2ShVmc">
          <ref role="37wK5l" to="otil:~TDoubleObjectHashMapDecorator.&lt;init&gt;(gnu.trove.TDoubleObjectHashMap)" resolve="TDoubleObjectHashMapDecorator" />
          <node concept="2ShNRf" id="6A07P3f6$XW" role="37wK5m">
            <node concept="1pGfFk" id="6A07P3f6$XX" role="2ShVmc">
              <ref role="37wK5l" to="lktc:~TDoubleObjectHashMap.&lt;init&gt;()" resolve="TDoubleObjectHashMap" />
              <node concept="16syzq" id="6A07P3f6$XY" role="1pMfVU">
                <ref role="16sUi3" node="6A07P3f6$XT" resolve="V" />
              </node>
            </node>
          </node>
        </node>
      </node>
    </node>
    <node concept="2llx9B" id="6A07P3f6$XZ" role="2llxR9">
      <property role="TrG5h" value="doubleShortHashMap" />
      <node concept="3Tm1VV" id="6A07P3f6$Y0" role="1B3o_S" />
      <node concept="3rvAFt" id="6A07P3f6$Y1" role="2llxQS">
        <node concept="10N3zO" id="6A07P3f6$Y2" role="3rvSg0" />
        <node concept="10P55v" id="6A07P3f6$YC" role="3rvQeY" />
      </node>
      <node concept="3uibUv" id="6A07P3f6$YD" role="2llxR7">
        <ref role="3uigEE" to="otil:~TDoubleShortHashMapDecorator" resolve="TDoubleShortHashMapDecorator" />
      </node>
      <node concept="2ShNRf" id="6A07P3f6$Y5" role="2MOlHk">
        <node concept="1pGfFk" id="6A07P3f6$Y6" role="2ShVmc">
          <ref role="37wK5l" to="otil:~TDoubleShortHashMapDecorator.&lt;init&gt;(gnu.trove.TDoubleShortHashMap)" resolve="TDoubleShortHashMapDecorator" />
          <node concept="2ShNRf" id="6A07P3f6$Y7" role="37wK5m">
            <node concept="1pGfFk" id="6A07P3f6$YE" role="2ShVmc">
              <ref role="37wK5l" to="lktc:~TDoubleShortHashMap.&lt;init&gt;()" resolve="TDoubleShortHashMap" />
            </node>
          </node>
        </node>
      </node>
    </node>
  </node>
  <node concept="2llxRb" id="6A07P3f6$YG">
    <property role="TrG5h" value="TroveMaps_float" />
    <node concept="2llx9B" id="6A07P3f6$YH" role="2llxR9">
      <property role="TrG5h" value="floatByteHashMap" />
      <node concept="3rvAFt" id="6A07P3f6$YI" role="2llxQS">
        <node concept="10OMs4" id="6A07P3f6$ZR" role="3rvQeY" />
        <node concept="10PrrI" id="6A07P3f6$YK" role="3rvSg0" />
      </node>
      <node concept="3uibUv" id="6A07P3f6$ZS" role="2llxR7">
        <ref role="3uigEE" to="otil:~TFloatByteHashMapDecorator" resolve="TFloatByteHashMapDecorator" />
      </node>
      <node concept="3Tm1VV" id="6A07P3f6$YM" role="1B3o_S" />
      <node concept="2ShNRf" id="6A07P3f6$YN" role="2MOlHk">
        <node concept="1pGfFk" id="6A07P3f6$YO" role="2ShVmc">
          <ref role="37wK5l" to="otil:~TFloatByteHashMapDecorator.&lt;init&gt;(gnu.trove.TFloatByteHashMap)" resolve="TFloatByteHashMapDecorator" />
          <node concept="2ShNRf" id="6A07P3f6$YP" role="37wK5m">
            <node concept="1pGfFk" id="6A07P3f6$ZT" role="2ShVmc">
              <ref role="37wK5l" to="lktc:~TFloatByteHashMap.&lt;init&gt;()" resolve="TFloatByteHashMap" />
            </node>
          </node>
        </node>
      </node>
    </node>
    <node concept="2llx9B" id="6A07P3f6$YR" role="2llxR9">
      <property role="TrG5h" value="floatDoubleHashMap" />
      <node concept="3uibUv" id="6A07P3f6$ZV" role="2llxR7">
        <ref role="3uigEE" to="otil:~TFloatDoubleHashMapDecorator" resolve="TFloatDoubleHashMapDecorator" />
      </node>
      <node concept="3Tm1VV" id="6A07P3f6$YT" role="1B3o_S" />
      <node concept="3rvAFt" id="6A07P3f6$YU" role="2llxQS">
        <node concept="10P55v" id="6A07P3f6$YV" role="3rvSg0" />
        <node concept="10OMs4" id="6A07P3f6$ZU" role="3rvQeY" />
      </node>
      <node concept="2ShNRf" id="6A07P3f6$YX" role="2MOlHk">
        <node concept="1pGfFk" id="6A07P3f6$YY" role="2ShVmc">
          <ref role="37wK5l" to="otil:~TFloatDoubleHashMapDecorator.&lt;init&gt;(gnu.trove.TFloatDoubleHashMap)" resolve="TFloatDoubleHashMapDecorator" />
          <node concept="2ShNRf" id="6A07P3f6$YZ" role="37wK5m">
            <node concept="1pGfFk" id="6A07P3f6$ZW" role="2ShVmc">
              <ref role="37wK5l" to="lktc:~TFloatDoubleHashMap.&lt;init&gt;()" resolve="TFloatDoubleHashMap" />
            </node>
          </node>
        </node>
      </node>
    </node>
    <node concept="2llx9B" id="6A07P3f6$Z1" role="2llxR9">
      <property role="TrG5h" value="floatFloatHashMap" />
      <node concept="3uibUv" id="6A07P3f6$ZY" role="2llxR7">
        <ref role="3uigEE" to="otil:~TFloatFloatHashMapDecorator" resolve="TFloatFloatHashMapDecorator" />
      </node>
      <node concept="3Tm1VV" id="6A07P3f6$Z3" role="1B3o_S" />
      <node concept="3rvAFt" id="6A07P3f6$Z4" role="2llxQS">
        <node concept="10OMs4" id="6A07P3f6$Z5" role="3rvSg0" />
        <node concept="10OMs4" id="6A07P3f6$ZX" role="3rvQeY" />
      </node>
      <node concept="2ShNRf" id="6A07P3f6$Z7" role="2MOlHk">
        <node concept="1pGfFk" id="6A07P3f6$Z8" role="2ShVmc">
          <ref role="37wK5l" to="otil:~TFloatFloatHashMapDecorator.&lt;init&gt;(gnu.trove.TFloatFloatHashMap)" resolve="TFloatFloatHashMapDecorator" />
          <node concept="2ShNRf" id="6A07P3f6$Z9" role="37wK5m">
            <node concept="1pGfFk" id="6A07P3f6$ZZ" role="2ShVmc">
              <ref role="37wK5l" to="lktc:~TFloatFloatHashMap.&lt;init&gt;()" resolve="TFloatFloatHashMap" />
            </node>
          </node>
        </node>
      </node>
    </node>
    <node concept="2llx9B" id="6A07P3f6$Zb" role="2llxR9">
      <property role="TrG5h" value="floatIntHashMap" />
      <node concept="3Tm1VV" id="6A07P3f6$Zc" role="1B3o_S" />
      <node concept="3rvAFt" id="6A07P3f6$Zd" role="2llxQS">
        <node concept="10Oyi0" id="6A07P3f6$Ze" role="3rvSg0" />
        <node concept="10OMs4" id="6A07P3f6_00" role="3rvQeY" />
      </node>
      <node concept="3uibUv" id="6A07P3f6_01" role="2llxR7">
        <ref role="3uigEE" to="otil:~TFloatIntHashMapDecorator" resolve="TFloatIntHashMapDecorator" />
      </node>
      <node concept="2ShNRf" id="6A07P3f6$Zh" role="2MOlHk">
        <node concept="1pGfFk" id="6A07P3f6$Zi" role="2ShVmc">
          <ref role="37wK5l" to="otil:~TFloatIntHashMapDecorator.&lt;init&gt;(gnu.trove.TFloatIntHashMap)" resolve="TFloatIntHashMapDecorator" />
          <node concept="2ShNRf" id="6A07P3f6$Zj" role="37wK5m">
            <node concept="1pGfFk" id="6A07P3f6_02" role="2ShVmc">
              <ref role="37wK5l" to="lktc:~TFloatIntHashMap.&lt;init&gt;()" resolve="TFloatIntHashMap" />
            </node>
          </node>
        </node>
      </node>
    </node>
    <node concept="2llx9B" id="6A07P3f6$Zl" role="2llxR9">
      <property role="TrG5h" value="floatLongHashMap" />
      <node concept="3Tm1VV" id="6A07P3f6$Zm" role="1B3o_S" />
      <node concept="3rvAFt" id="6A07P3f6$Zn" role="2llxQS">
        <node concept="10OMs4" id="6A07P3f6_03" role="3rvQeY" />
        <node concept="3cpWsb" id="6A07P3f6$Zp" role="3rvSg0" />
      </node>
      <node concept="3uibUv" id="6A07P3f6_04" role="2llxR7">
        <ref role="3uigEE" to="otil:~TFloatLongHashMapDecorator" resolve="TFloatLongHashMapDecorator" />
      </node>
      <node concept="2ShNRf" id="6A07P3f6$Zr" role="2MOlHk">
        <node concept="1pGfFk" id="6A07P3f6$Zs" role="2ShVmc">
          <ref role="37wK5l" to="otil:~TFloatLongHashMapDecorator.&lt;init&gt;(gnu.trove.TFloatLongHashMap)" resolve="TFloatLongHashMapDecorator" />
          <node concept="2ShNRf" id="6A07P3f6$Zt" role="37wK5m">
            <node concept="1pGfFk" id="6A07P3f6_05" role="2ShVmc">
              <ref role="37wK5l" to="lktc:~TFloatLongHashMap.&lt;init&gt;()" resolve="TFloatLongHashMap" />
            </node>
          </node>
        </node>
      </node>
    </node>
    <node concept="2llx9B" id="6A07P3f6$Zv" role="2llxR9">
      <property role="TrG5h" value="floatObjectHashMap" />
      <node concept="3Tm1VV" id="6A07P3f6$Zw" role="1B3o_S" />
      <node concept="3rvAFt" id="6A07P3f6$Zx" role="2llxQS">
        <node concept="10OMs4" id="6A07P3f6_06" role="3rvQeY" />
        <node concept="16syzq" id="6A07P3f6$Zz" role="3rvSg0">
          <ref role="16sUi3" node="6A07P3f6$Z_" resolve="V" />
        </node>
      </node>
      <node concept="3uibUv" id="6A07P3f6_07" role="2llxR7">
        <ref role="3uigEE" to="otil:~TFloatObjectHashMapDecorator" resolve="TFloatObjectHashMapDecorator" />
      </node>
      <node concept="16euLQ" id="6A07P3f6$Z_" role="16eVyc">
        <property role="TrG5h" value="V" />
      </node>
      <node concept="2ShNRf" id="6A07P3f6$ZA" role="2MOlHk">
        <node concept="1pGfFk" id="6A07P3f6$ZB" role="2ShVmc">
          <ref role="37wK5l" to="otil:~TFloatObjectHashMapDecorator.&lt;init&gt;(gnu.trove.TFloatObjectHashMap)" resolve="TFloatObjectHashMapDecorator" />
          <node concept="2ShNRf" id="6A07P3f6$ZC" role="37wK5m">
            <node concept="1pGfFk" id="6A07P3f6$ZD" role="2ShVmc">
              <ref role="37wK5l" to="lktc:~TFloatObjectHashMap.&lt;init&gt;()" resolve="TFloatObjectHashMap" />
              <node concept="16syzq" id="6A07P3f6$ZE" role="1pMfVU">
                <ref role="16sUi3" node="6A07P3f6$Z_" resolve="V" />
              </node>
            </node>
          </node>
        </node>
      </node>
    </node>
    <node concept="2llx9B" id="6A07P3f6$ZF" role="2llxR9">
      <property role="TrG5h" value="floatShortHashMap" />
      <node concept="3Tm1VV" id="6A07P3f6$ZG" role="1B3o_S" />
      <node concept="3rvAFt" id="6A07P3f6$ZH" role="2llxQS">
        <node concept="10N3zO" id="6A07P3f6$ZI" role="3rvSg0" />
        <node concept="10OMs4" id="6A07P3f6_0e" role="3rvQeY" />
      </node>
      <node concept="3uibUv" id="6A07P3f6_0f" role="2llxR7">
        <ref role="3uigEE" to="otil:~TFloatShortHashMapDecorator" resolve="TFloatShortHashMapDecorator" />
      </node>
      <node concept="2ShNRf" id="6A07P3f6$ZL" role="2MOlHk">
        <node concept="1pGfFk" id="6A07P3f6$ZM" role="2ShVmc">
          <ref role="37wK5l" to="otil:~TFloatShortHashMapDecorator.&lt;init&gt;(gnu.trove.TFloatShortHashMap)" resolve="TFloatShortHashMapDecorator" />
          <node concept="2ShNRf" id="6A07P3f6$ZN" role="37wK5m">
            <node concept="1pGfFk" id="6A07P3f6_0g" role="2ShVmc">
              <ref role="37wK5l" to="lktc:~TFloatShortHashMap.&lt;init&gt;()" resolve="TFloatShortHashMap" />
            </node>
          </node>
        </node>
      </node>
    </node>
  </node>
  <node concept="2llxRb" id="6A07P3f6_0i">
    <property role="TrG5h" value="TroveMaps_int" />
    <node concept="2llx9B" id="6A07P3f6_0j" role="2llxR9">
      <property role="TrG5h" value="intByteHashMap" />
      <node concept="3rvAFt" id="6A07P3f6_0k" role="2llxQS">
        <node concept="10Oyi0" id="6A07P3f6_1t" role="3rvQeY" />
        <node concept="10PrrI" id="6A07P3f6_0m" role="3rvSg0" />
      </node>
      <node concept="3uibUv" id="6A07P3f6_1u" role="2llxR7">
        <ref role="3uigEE" to="otil:~TIntByteHashMapDecorator" resolve="TIntByteHashMapDecorator" />
      </node>
      <node concept="3Tm1VV" id="6A07P3f6_0o" role="1B3o_S" />
      <node concept="2ShNRf" id="6A07P3f6_0p" role="2MOlHk">
        <node concept="1pGfFk" id="6A07P3f6_0q" role="2ShVmc">
          <ref role="37wK5l" to="otil:~TIntByteHashMapDecorator.&lt;init&gt;(gnu.trove.TIntByteHashMap)" resolve="TIntByteHashMapDecorator" />
          <node concept="2ShNRf" id="6A07P3f6_0r" role="37wK5m">
            <node concept="1pGfFk" id="6A07P3f6_1v" role="2ShVmc">
              <ref role="37wK5l" to="lktc:~TIntByteHashMap.&lt;init&gt;()" resolve="TIntByteHashMap" />
            </node>
          </node>
        </node>
      </node>
    </node>
    <node concept="2llx9B" id="6A07P3f6_0t" role="2llxR9">
      <property role="TrG5h" value="intDoubleHashMap" />
      <node concept="3uibUv" id="6A07P3f6_1x" role="2llxR7">
        <ref role="3uigEE" to="otil:~TIntDoubleHashMapDecorator" resolve="TIntDoubleHashMapDecorator" />
      </node>
      <node concept="3Tm1VV" id="6A07P3f6_0v" role="1B3o_S" />
      <node concept="3rvAFt" id="6A07P3f6_0w" role="2llxQS">
        <node concept="10P55v" id="6A07P3f6_0x" role="3rvSg0" />
        <node concept="10Oyi0" id="6A07P3f6_1w" role="3rvQeY" />
      </node>
      <node concept="2ShNRf" id="6A07P3f6_0z" role="2MOlHk">
        <node concept="1pGfFk" id="6A07P3f6_0$" role="2ShVmc">
          <ref role="37wK5l" to="otil:~TIntDoubleHashMapDecorator.&lt;init&gt;(gnu.trove.TIntDoubleHashMap)" resolve="TIntDoubleHashMapDecorator" />
          <node concept="2ShNRf" id="6A07P3f6_0_" role="37wK5m">
            <node concept="1pGfFk" id="6A07P3f6_1y" role="2ShVmc">
              <ref role="37wK5l" to="lktc:~TIntDoubleHashMap.&lt;init&gt;()" resolve="TIntDoubleHashMap" />
            </node>
          </node>
        </node>
      </node>
    </node>
    <node concept="2llx9B" id="6A07P3f6_0B" role="2llxR9">
      <property role="TrG5h" value="intFloatHashMap" />
      <node concept="3uibUv" id="6A07P3f6_1$" role="2llxR7">
        <ref role="3uigEE" to="otil:~TIntFloatHashMapDecorator" resolve="TIntFloatHashMapDecorator" />
      </node>
      <node concept="3Tm1VV" id="6A07P3f6_0D" role="1B3o_S" />
      <node concept="3rvAFt" id="6A07P3f6_0E" role="2llxQS">
        <node concept="10OMs4" id="6A07P3f6_0F" role="3rvSg0" />
        <node concept="10Oyi0" id="6A07P3f6_1z" role="3rvQeY" />
      </node>
      <node concept="2ShNRf" id="6A07P3f6_0H" role="2MOlHk">
        <node concept="1pGfFk" id="6A07P3f6_0I" role="2ShVmc">
          <ref role="37wK5l" to="otil:~TIntFloatHashMapDecorator.&lt;init&gt;(gnu.trove.TIntFloatHashMap)" resolve="TIntFloatHashMapDecorator" />
          <node concept="2ShNRf" id="6A07P3f6_0J" role="37wK5m">
            <node concept="1pGfFk" id="6A07P3f6_1_" role="2ShVmc">
              <ref role="37wK5l" to="lktc:~TIntFloatHashMap.&lt;init&gt;()" resolve="TIntFloatHashMap" />
            </node>
          </node>
        </node>
      </node>
    </node>
    <node concept="2llx9B" id="6A07P3f6_0L" role="2llxR9">
      <property role="TrG5h" value="intIntHashMap" />
      <node concept="3Tm1VV" id="6A07P3f6_0M" role="1B3o_S" />
      <node concept="3rvAFt" id="6A07P3f6_0N" role="2llxQS">
        <node concept="10Oyi0" id="6A07P3f6_0O" role="3rvSg0" />
        <node concept="10Oyi0" id="6A07P3f6_1A" role="3rvQeY" />
      </node>
      <node concept="3uibUv" id="6A07P3f6_1B" role="2llxR7">
        <ref role="3uigEE" to="otil:~TIntIntHashMapDecorator" resolve="TIntIntHashMapDecorator" />
      </node>
      <node concept="2ShNRf" id="6A07P3f6_0R" role="2MOlHk">
        <node concept="1pGfFk" id="6A07P3f6_0S" role="2ShVmc">
          <ref role="37wK5l" to="otil:~TIntIntHashMapDecorator.&lt;init&gt;(gnu.trove.TIntIntHashMap)" resolve="TIntIntHashMapDecorator" />
          <node concept="2ShNRf" id="6A07P3f6_0T" role="37wK5m">
            <node concept="1pGfFk" id="6A07P3f6_1C" role="2ShVmc">
              <ref role="37wK5l" to="lktc:~TIntIntHashMap.&lt;init&gt;()" resolve="TIntIntHashMap" />
            </node>
          </node>
        </node>
      </node>
    </node>
    <node concept="2llx9B" id="6A07P3f6_0V" role="2llxR9">
      <property role="TrG5h" value="intLongHashMap" />
      <node concept="3Tm1VV" id="6A07P3f6_0W" role="1B3o_S" />
      <node concept="3rvAFt" id="6A07P3f6_0X" role="2llxQS">
        <node concept="10Oyi0" id="6A07P3f6_1D" role="3rvQeY" />
        <node concept="3cpWsb" id="6A07P3f6_0Z" role="3rvSg0" />
      </node>
      <node concept="3uibUv" id="6A07P3f6_1E" role="2llxR7">
        <ref role="3uigEE" to="otil:~TIntLongHashMapDecorator" resolve="TIntLongHashMapDecorator" />
      </node>
      <node concept="2ShNRf" id="6A07P3f6_11" role="2MOlHk">
        <node concept="1pGfFk" id="6A07P3f6_12" role="2ShVmc">
          <ref role="37wK5l" to="otil:~TIntLongHashMapDecorator.&lt;init&gt;(gnu.trove.TIntLongHashMap)" resolve="TIntLongHashMapDecorator" />
          <node concept="2ShNRf" id="6A07P3f6_13" role="37wK5m">
            <node concept="1pGfFk" id="6A07P3f6_1F" role="2ShVmc">
              <ref role="37wK5l" to="lktc:~TIntLongHashMap.&lt;init&gt;()" resolve="TIntLongHashMap" />
            </node>
          </node>
        </node>
      </node>
    </node>
    <node concept="2llx9B" id="6A07P3f6_15" role="2llxR9">
      <property role="TrG5h" value="intObjectHashMap" />
      <node concept="3Tm1VV" id="6A07P3f6_16" role="1B3o_S" />
      <node concept="3rvAFt" id="6A07P3f6_17" role="2llxQS">
        <node concept="10Oyi0" id="6A07P3f6_1G" role="3rvQeY" />
        <node concept="16syzq" id="6A07P3f6_19" role="3rvSg0">
          <ref role="16sUi3" node="6A07P3f6_1b" resolve="V" />
        </node>
      </node>
      <node concept="3uibUv" id="6A07P3f6_1H" role="2llxR7">
        <ref role="3uigEE" to="otil:~TIntObjectHashMapDecorator" resolve="TIntObjectHashMapDecorator" />
      </node>
      <node concept="16euLQ" id="6A07P3f6_1b" role="16eVyc">
        <property role="TrG5h" value="V" />
      </node>
      <node concept="2ShNRf" id="6A07P3f6_1c" role="2MOlHk">
        <node concept="1pGfFk" id="6A07P3f6_1d" role="2ShVmc">
          <ref role="37wK5l" to="otil:~TIntObjectHashMapDecorator.&lt;init&gt;(gnu.trove.TIntObjectHashMap)" resolve="TIntObjectHashMapDecorator" />
          <node concept="2ShNRf" id="6A07P3f6_1e" role="37wK5m">
            <node concept="1pGfFk" id="6A07P3f6_1f" role="2ShVmc">
              <ref role="37wK5l" to="lktc:~TIntObjectHashMap.&lt;init&gt;()" resolve="TIntObjectHashMap" />
              <node concept="16syzq" id="6A07P3f6_1g" role="1pMfVU">
                <ref role="16sUi3" node="6A07P3f6_1b" resolve="V" />
              </node>
            </node>
          </node>
        </node>
      </node>
    </node>
    <node concept="2llx9B" id="6A07P3f6_1h" role="2llxR9">
      <property role="TrG5h" value="intShortHashMap" />
      <node concept="3Tm1VV" id="6A07P3f6_1i" role="1B3o_S" />
      <node concept="3rvAFt" id="6A07P3f6_1j" role="2llxQS">
        <node concept="10N3zO" id="6A07P3f6_1k" role="3rvSg0" />
        <node concept="10Oyi0" id="6A07P3f6_1O" role="3rvQeY" />
      </node>
      <node concept="3uibUv" id="6A07P3f6_1P" role="2llxR7">
        <ref role="3uigEE" to="otil:~TIntShortHashMapDecorator" resolve="TIntShortHashMapDecorator" />
      </node>
      <node concept="2ShNRf" id="6A07P3f6_1n" role="2MOlHk">
        <node concept="1pGfFk" id="6A07P3f6_1o" role="2ShVmc">
          <ref role="37wK5l" to="otil:~TIntShortHashMapDecorator.&lt;init&gt;(gnu.trove.TIntShortHashMap)" resolve="TIntShortHashMapDecorator" />
          <node concept="2ShNRf" id="6A07P3f6_1p" role="37wK5m">
            <node concept="1pGfFk" id="6A07P3f6_1Q" role="2ShVmc">
              <ref role="37wK5l" to="lktc:~TIntShortHashMap.&lt;init&gt;()" resolve="TIntShortHashMap" />
            </node>
          </node>
        </node>
      </node>
    </node>
  </node>
  <node concept="2llxRb" id="6A07P3f6_1S">
    <property role="TrG5h" value="TroveMaps_long" />
    <node concept="2llx9B" id="6A07P3f6_1T" role="2llxR9">
      <property role="TrG5h" value="longByteHashMap" />
      <node concept="3rvAFt" id="6A07P3f6_1U" role="2llxQS">
        <node concept="3cpWsb" id="6A07P3f6_33" role="3rvQeY" />
        <node concept="10PrrI" id="6A07P3f6_1W" role="3rvSg0" />
      </node>
      <node concept="3uibUv" id="6A07P3f6_34" role="2llxR7">
        <ref role="3uigEE" to="otil:~TLongByteHashMapDecorator" resolve="TLongByteHashMapDecorator" />
      </node>
      <node concept="3Tm1VV" id="6A07P3f6_1Y" role="1B3o_S" />
      <node concept="2ShNRf" id="6A07P3f6_1Z" role="2MOlHk">
        <node concept="1pGfFk" id="6A07P3f6_20" role="2ShVmc">
          <ref role="37wK5l" to="otil:~TLongByteHashMapDecorator.&lt;init&gt;(gnu.trove.TLongByteHashMap)" resolve="TLongByteHashMapDecorator" />
          <node concept="2ShNRf" id="6A07P3f6_21" role="37wK5m">
            <node concept="1pGfFk" id="6A07P3f6_35" role="2ShVmc">
              <ref role="37wK5l" to="lktc:~TLongByteHashMap.&lt;init&gt;()" resolve="TLongByteHashMap" />
            </node>
          </node>
        </node>
      </node>
    </node>
    <node concept="2llx9B" id="6A07P3f6_23" role="2llxR9">
      <property role="TrG5h" value="longDoubleHashMap" />
      <node concept="3uibUv" id="6A07P3f6_36" role="2llxR7">
        <ref role="3uigEE" to="otil:~TLongDoubleHashMapDecorator" resolve="TLongDoubleHashMapDecorator" />
      </node>
      <node concept="3Tm1VV" id="6A07P3f6_25" role="1B3o_S" />
      <node concept="3rvAFt" id="6A07P3f6_26" role="2llxQS">
        <node concept="10P55v" id="6A07P3f6_27" role="3rvSg0" />
        <node concept="3cpWsb" id="6A07P3f6_3j" role="3rvQeY" />
      </node>
      <node concept="2ShNRf" id="6A07P3f6_29" role="2MOlHk">
        <node concept="1pGfFk" id="6A07P3f6_2a" role="2ShVmc">
          <ref role="37wK5l" to="otil:~TLongDoubleHashMapDecorator.&lt;init&gt;(gnu.trove.TLongDoubleHashMap)" resolve="TLongDoubleHashMapDecorator" />
          <node concept="2ShNRf" id="6A07P3f6_2b" role="37wK5m">
            <node concept="1pGfFk" id="6A07P3f6_3k" role="2ShVmc">
              <ref role="37wK5l" to="lktc:~TLongDoubleHashMap.&lt;init&gt;()" resolve="TLongDoubleHashMap" />
            </node>
          </node>
        </node>
      </node>
    </node>
    <node concept="2llx9B" id="6A07P3f6_2d" role="2llxR9">
      <property role="TrG5h" value="longFloatHashMap" />
      <node concept="3uibUv" id="6A07P3f6_37" role="2llxR7">
        <ref role="3uigEE" to="otil:~TLongFloatHashMapDecorator" resolve="TLongFloatHashMapDecorator" />
      </node>
      <node concept="3Tm1VV" id="6A07P3f6_2f" role="1B3o_S" />
      <node concept="3rvAFt" id="6A07P3f6_2g" role="2llxQS">
        <node concept="10OMs4" id="6A07P3f6_2h" role="3rvSg0" />
        <node concept="3cpWsb" id="6A07P3f6_3i" role="3rvQeY" />
      </node>
      <node concept="2ShNRf" id="6A07P3f6_2j" role="2MOlHk">
        <node concept="1pGfFk" id="6A07P3f6_2k" role="2ShVmc">
          <ref role="37wK5l" to="otil:~TLongFloatHashMapDecorator.&lt;init&gt;(gnu.trove.TLongFloatHashMap)" resolve="TLongFloatHashMapDecorator" />
          <node concept="2ShNRf" id="6A07P3f6_2l" role="37wK5m">
            <node concept="1pGfFk" id="6A07P3f6_3l" role="2ShVmc">
              <ref role="37wK5l" to="lktc:~TLongFloatHashMap.&lt;init&gt;()" resolve="TLongFloatHashMap" />
            </node>
          </node>
        </node>
      </node>
    </node>
    <node concept="2llx9B" id="6A07P3f6_2n" role="2llxR9">
      <property role="TrG5h" value="longIntHashMap" />
      <node concept="3Tm1VV" id="6A07P3f6_2o" role="1B3o_S" />
      <node concept="3rvAFt" id="6A07P3f6_2p" role="2llxQS">
        <node concept="10Oyi0" id="6A07P3f6_2q" role="3rvSg0" />
        <node concept="3cpWsb" id="6A07P3f6_3h" role="3rvQeY" />
      </node>
      <node concept="3uibUv" id="6A07P3f6_38" role="2llxR7">
        <ref role="3uigEE" to="otil:~TLongIntHashMapDecorator" resolve="TLongIntHashMapDecorator" />
      </node>
      <node concept="2ShNRf" id="6A07P3f6_2t" role="2MOlHk">
        <node concept="1pGfFk" id="6A07P3f6_2u" role="2ShVmc">
          <ref role="37wK5l" to="otil:~TLongIntHashMapDecorator.&lt;init&gt;(gnu.trove.TLongIntHashMap)" resolve="TLongIntHashMapDecorator" />
          <node concept="2ShNRf" id="6A07P3f6_2v" role="37wK5m">
            <node concept="1pGfFk" id="6A07P3f6_3m" role="2ShVmc">
              <ref role="37wK5l" to="lktc:~TLongIntHashMap.&lt;init&gt;()" resolve="TLongIntHashMap" />
            </node>
          </node>
        </node>
      </node>
    </node>
    <node concept="2llx9B" id="6A07P3f6_2x" role="2llxR9">
      <property role="TrG5h" value="longLongHashMap" />
      <node concept="3Tm1VV" id="6A07P3f6_2y" role="1B3o_S" />
      <node concept="3rvAFt" id="6A07P3f6_2z" role="2llxQS">
        <node concept="3cpWsb" id="6A07P3f6_3g" role="3rvQeY" />
        <node concept="3cpWsb" id="6A07P3f6_2_" role="3rvSg0" />
      </node>
      <node concept="3uibUv" id="6A07P3f6_39" role="2llxR7">
        <ref role="3uigEE" to="otil:~TLongLongHashMapDecorator" resolve="TLongLongHashMapDecorator" />
      </node>
      <node concept="2ShNRf" id="6A07P3f6_2B" role="2MOlHk">
        <node concept="1pGfFk" id="6A07P3f6_2C" role="2ShVmc">
          <ref role="37wK5l" to="otil:~TLongLongHashMapDecorator.&lt;init&gt;(gnu.trove.TLongLongHashMap)" resolve="TLongLongHashMapDecorator" />
          <node concept="2ShNRf" id="6A07P3f6_2D" role="37wK5m">
            <node concept="1pGfFk" id="6A07P3f6_3n" role="2ShVmc">
              <ref role="37wK5l" to="lktc:~TLongLongHashMap.&lt;init&gt;()" resolve="TLongLongHashMap" />
            </node>
          </node>
        </node>
      </node>
    </node>
    <node concept="2llx9B" id="6A07P3f6_2F" role="2llxR9">
      <property role="TrG5h" value="longObjectHashMap" />
      <node concept="3Tm1VV" id="6A07P3f6_2G" role="1B3o_S" />
      <node concept="3rvAFt" id="6A07P3f6_2H" role="2llxQS">
        <node concept="3cpWsb" id="6A07P3f6_3f" role="3rvQeY" />
        <node concept="16syzq" id="6A07P3f6_2J" role="3rvSg0">
          <ref role="16sUi3" node="6A07P3f6_2L" resolve="V" />
        </node>
      </node>
      <node concept="3uibUv" id="6A07P3f6_3a" role="2llxR7">
        <ref role="3uigEE" to="otil:~TLongObjectHashMapDecorator" resolve="TLongObjectHashMapDecorator" />
      </node>
      <node concept="16euLQ" id="6A07P3f6_2L" role="16eVyc">
        <property role="TrG5h" value="V" />
      </node>
      <node concept="2ShNRf" id="6A07P3f6_2M" role="2MOlHk">
        <node concept="1pGfFk" id="6A07P3f6_2N" role="2ShVmc">
          <ref role="37wK5l" to="otil:~TLongObjectHashMapDecorator.&lt;init&gt;(gnu.trove.TLongObjectHashMap)" resolve="TLongObjectHashMapDecorator" />
          <node concept="2ShNRf" id="6A07P3f6_2O" role="37wK5m">
            <node concept="1pGfFk" id="6A07P3f6_2P" role="2ShVmc">
              <ref role="37wK5l" to="lktc:~TLongObjectHashMap.&lt;init&gt;()" resolve="TLongObjectHashMap" />
              <node concept="16syzq" id="6A07P3f6_2Q" role="1pMfVU">
                <ref role="16sUi3" node="6A07P3f6_2L" resolve="V" />
              </node>
            </node>
          </node>
        </node>
      </node>
    </node>
    <node concept="2llx9B" id="6A07P3f6_2R" role="2llxR9">
      <property role="TrG5h" value="longShortHashMap" />
      <node concept="3Tm1VV" id="6A07P3f6_2S" role="1B3o_S" />
      <node concept="3rvAFt" id="6A07P3f6_2T" role="2llxQS">
        <node concept="10N3zO" id="6A07P3f6_2U" role="3rvSg0" />
        <node concept="3cpWsb" id="6A07P3f6_3e" role="3rvQeY" />
      </node>
      <node concept="3uibUv" id="6A07P3f6_3d" role="2llxR7">
        <ref role="3uigEE" to="otil:~TLongShortHashMapDecorator" resolve="TLongShortHashMapDecorator" />
      </node>
      <node concept="2ShNRf" id="6A07P3f6_2X" role="2MOlHk">
        <node concept="1pGfFk" id="6A07P3f6_2Y" role="2ShVmc">
          <ref role="37wK5l" to="otil:~TLongShortHashMapDecorator.&lt;init&gt;(gnu.trove.TLongShortHashMap)" resolve="TLongShortHashMapDecorator" />
          <node concept="2ShNRf" id="6A07P3f6_2Z" role="37wK5m">
            <node concept="1pGfFk" id="6A07P3f6_3q" role="2ShVmc">
              <ref role="37wK5l" to="lktc:~TLongShortHashMap.&lt;init&gt;()" resolve="TLongShortHashMap" />
            </node>
          </node>
        </node>
      </node>
    </node>
  </node>
  <node concept="2llxRb" id="6A07P3f6_3u">
    <property role="TrG5h" value="TroveMaps_short" />
    <node concept="2llx9B" id="6A07P3f6_3v" role="2llxR9">
      <property role="TrG5h" value="shortByteHashMap" />
      <node concept="3rvAFt" id="6A07P3f6_3w" role="2llxQS">
        <node concept="10N3zO" id="6A07P3f6_54" role="3rvQeY" />
        <node concept="10PrrI" id="6A07P3f6_3y" role="3rvSg0" />
      </node>
      <node concept="3uibUv" id="6A07P3f6_4D" role="2llxR7">
        <ref role="3uigEE" to="otil:~TShortByteHashMapDecorator" resolve="TShortByteHashMapDecorator" />
      </node>
      <node concept="3Tm1VV" id="6A07P3f6_3$" role="1B3o_S" />
      <node concept="2ShNRf" id="6A07P3f6_3_" role="2MOlHk">
        <node concept="1pGfFk" id="6A07P3f6_3A" role="2ShVmc">
          <ref role="37wK5l" to="otil:~TShortByteHashMapDecorator.&lt;init&gt;(gnu.trove.TShortByteHashMap)" resolve="TShortByteHashMapDecorator" />
          <node concept="2ShNRf" id="6A07P3f6_3B" role="37wK5m">
            <node concept="1pGfFk" id="6A07P3f6_55" role="2ShVmc">
              <ref role="37wK5l" to="lktc:~TShortByteHashMap.&lt;init&gt;()" resolve="TShortByteHashMap" />
            </node>
          </node>
        </node>
      </node>
    </node>
    <node concept="2llx9B" id="6A07P3f6_3D" role="2llxR9">
      <property role="TrG5h" value="shortDoubleHashMap" />
      <node concept="3uibUv" id="6A07P3f6_4E" role="2llxR7">
        <ref role="3uigEE" to="otil:~TShortDoubleHashMapDecorator" resolve="TShortDoubleHashMapDecorator" />
      </node>
      <node concept="3Tm1VV" id="6A07P3f6_3F" role="1B3o_S" />
      <node concept="3rvAFt" id="6A07P3f6_3G" role="2llxQS">
        <node concept="10P55v" id="6A07P3f6_3H" role="3rvSg0" />
        <node concept="10N3zO" id="6A07P3f6_53" role="3rvQeY" />
      </node>
      <node concept="2ShNRf" id="6A07P3f6_3J" role="2MOlHk">
        <node concept="1pGfFk" id="6A07P3f6_3K" role="2ShVmc">
          <ref role="37wK5l" to="otil:~TShortDoubleHashMapDecorator.&lt;init&gt;(gnu.trove.TShortDoubleHashMap)" resolve="TShortDoubleHashMapDecorator" />
          <node concept="2ShNRf" id="6A07P3f6_3L" role="37wK5m">
            <node concept="1pGfFk" id="6A07P3f6_56" role="2ShVmc">
              <ref role="37wK5l" to="lktc:~TShortDoubleHashMap.&lt;init&gt;()" resolve="TShortDoubleHashMap" />
            </node>
          </node>
        </node>
      </node>
    </node>
    <node concept="2llx9B" id="6A07P3f6_3N" role="2llxR9">
      <property role="TrG5h" value="shortFloatHashMap" />
      <node concept="3uibUv" id="6A07P3f6_4F" role="2llxR7">
        <ref role="3uigEE" to="otil:~TShortFloatHashMapDecorator" resolve="TShortFloatHashMapDecorator" />
      </node>
      <node concept="3Tm1VV" id="6A07P3f6_3P" role="1B3o_S" />
      <node concept="3rvAFt" id="6A07P3f6_3Q" role="2llxQS">
        <node concept="10OMs4" id="6A07P3f6_3R" role="3rvSg0" />
        <node concept="10N3zO" id="6A07P3f6_52" role="3rvQeY" />
      </node>
      <node concept="2ShNRf" id="6A07P3f6_3T" role="2MOlHk">
        <node concept="1pGfFk" id="6A07P3f6_3U" role="2ShVmc">
          <ref role="37wK5l" to="otil:~TShortFloatHashMapDecorator.&lt;init&gt;(gnu.trove.TShortFloatHashMap)" resolve="TShortFloatHashMapDecorator" />
          <node concept="2ShNRf" id="6A07P3f6_3V" role="37wK5m">
            <node concept="1pGfFk" id="6A07P3f6_57" role="2ShVmc">
              <ref role="37wK5l" to="lktc:~TShortFloatHashMap.&lt;init&gt;()" resolve="TShortFloatHashMap" />
            </node>
          </node>
        </node>
      </node>
    </node>
    <node concept="2llx9B" id="6A07P3f6_3X" role="2llxR9">
      <property role="TrG5h" value="shortIntHashMap" />
      <node concept="3Tm1VV" id="6A07P3f6_3Y" role="1B3o_S" />
      <node concept="3rvAFt" id="6A07P3f6_3Z" role="2llxQS">
        <node concept="10Oyi0" id="6A07P3f6_40" role="3rvSg0" />
        <node concept="10N3zO" id="6A07P3f6_51" role="3rvQeY" />
      </node>
      <node concept="3uibUv" id="6A07P3f6_4G" role="2llxR7">
        <ref role="3uigEE" to="otil:~TShortIntHashMapDecorator" resolve="TShortIntHashMapDecorator" />
      </node>
      <node concept="2ShNRf" id="6A07P3f6_43" role="2MOlHk">
        <node concept="1pGfFk" id="6A07P3f6_44" role="2ShVmc">
          <ref role="37wK5l" to="otil:~TShortIntHashMapDecorator.&lt;init&gt;(gnu.trove.TShortIntHashMap)" resolve="TShortIntHashMapDecorator" />
          <node concept="2ShNRf" id="6A07P3f6_45" role="37wK5m">
            <node concept="1pGfFk" id="6A07P3f6_58" role="2ShVmc">
              <ref role="37wK5l" to="lktc:~TShortIntHashMap.&lt;init&gt;()" resolve="TShortIntHashMap" />
            </node>
          </node>
        </node>
      </node>
    </node>
    <node concept="2llx9B" id="6A07P3f6_47" role="2llxR9">
      <property role="TrG5h" value="shortLongHashMap" />
      <node concept="3Tm1VV" id="6A07P3f6_48" role="1B3o_S" />
      <node concept="3rvAFt" id="6A07P3f6_49" role="2llxQS">
        <node concept="10N3zO" id="6A07P3f6_50" role="3rvQeY" />
        <node concept="3cpWsb" id="6A07P3f6_4b" role="3rvSg0" />
      </node>
      <node concept="3uibUv" id="6A07P3f6_4T" role="2llxR7">
        <ref role="3uigEE" to="otil:~TShortLongHashMapDecorator" resolve="TShortLongHashMapDecorator" />
      </node>
      <node concept="2ShNRf" id="6A07P3f6_4d" role="2MOlHk">
        <node concept="1pGfFk" id="6A07P3f6_4e" role="2ShVmc">
          <ref role="37wK5l" to="otil:~TShortLongHashMapDecorator.&lt;init&gt;(gnu.trove.TShortLongHashMap)" resolve="TShortLongHashMapDecorator" />
          <node concept="2ShNRf" id="6A07P3f6_4f" role="37wK5m">
            <node concept="1pGfFk" id="6A07P3f6_59" role="2ShVmc">
              <ref role="37wK5l" to="lktc:~TShortLongHashMap.&lt;init&gt;()" resolve="TShortLongHashMap" />
            </node>
          </node>
        </node>
      </node>
    </node>
    <node concept="2llx9B" id="6A07P3f6_4h" role="2llxR9">
      <property role="TrG5h" value="shortObjectHashMap" />
      <node concept="3Tm1VV" id="6A07P3f6_4i" role="1B3o_S" />
      <node concept="3rvAFt" id="6A07P3f6_4j" role="2llxQS">
        <node concept="10N3zO" id="6A07P3f6_4Z" role="3rvQeY" />
        <node concept="16syzq" id="6A07P3f6_4l" role="3rvSg0">
          <ref role="16sUi3" node="6A07P3f6_4n" resolve="V" />
        </node>
      </node>
      <node concept="3uibUv" id="6A07P3f6_4U" role="2llxR7">
        <ref role="3uigEE" to="otil:~TShortObjectHashMapDecorator" resolve="TShortObjectHashMapDecorator" />
      </node>
      <node concept="16euLQ" id="6A07P3f6_4n" role="16eVyc">
        <property role="TrG5h" value="V" />
      </node>
      <node concept="2ShNRf" id="6A07P3f6_4o" role="2MOlHk">
        <node concept="1pGfFk" id="6A07P3f6_4p" role="2ShVmc">
          <ref role="37wK5l" to="otil:~TShortObjectHashMapDecorator.&lt;init&gt;(gnu.trove.TShortObjectHashMap)" resolve="TShortObjectHashMapDecorator" />
          <node concept="2ShNRf" id="6A07P3f6_4q" role="37wK5m">
            <node concept="1pGfFk" id="6A07P3f6_4r" role="2ShVmc">
              <ref role="37wK5l" to="lktc:~TShortObjectHashMap.&lt;init&gt;()" resolve="TShortObjectHashMap" />
              <node concept="16syzq" id="6A07P3f6_4s" role="1pMfVU">
                <ref role="16sUi3" node="6A07P3f6_4n" resolve="V" />
              </node>
            </node>
          </node>
        </node>
      </node>
    </node>
    <node concept="2llx9B" id="6A07P3f6_4t" role="2llxR9">
      <property role="TrG5h" value="shortShortHashMap" />
      <node concept="3Tm1VV" id="6A07P3f6_4u" role="1B3o_S" />
      <node concept="3rvAFt" id="6A07P3f6_4v" role="2llxQS">
        <node concept="10N3zO" id="6A07P3f6_4w" role="3rvSg0" />
        <node concept="10N3zO" id="6A07P3f6_4Y" role="3rvQeY" />
      </node>
      <node concept="3uibUv" id="6A07P3f6_4X" role="2llxR7">
        <ref role="3uigEE" to="otil:~TShortShortHashMapDecorator" resolve="TShortShortHashMapDecorator" />
      </node>
      <node concept="2ShNRf" id="6A07P3f6_4z" role="2MOlHk">
        <node concept="1pGfFk" id="6A07P3f6_4$" role="2ShVmc">
          <ref role="37wK5l" to="otil:~TShortShortHashMapDecorator.&lt;init&gt;(gnu.trove.TShortShortHashMap)" resolve="TShortShortHashMapDecorator" />
          <node concept="2ShNRf" id="6A07P3f6_4_" role="37wK5m">
            <node concept="1pGfFk" id="6A07P3f6_5c" role="2ShVmc">
              <ref role="37wK5l" to="lktc:~TShortShortHashMap.&lt;init&gt;()" resolve="TShortShortHashMap" />
            </node>
          </node>
        </node>
      </node>
    </node>
  </node>
  <node concept="2llxRb" id="6A07P3f6_5g">
    <property role="TrG5h" value="TroveMaps_Object" />
    <node concept="2llx9B" id="6A07P3f6_5h" role="2llxR9">
      <property role="TrG5h" value="ObjectByteHashMap" />
      <node concept="3rvAFt" id="6A07P3f6_5i" role="2llxQS">
        <node concept="16syzq" id="6A07P3f6_6s" role="3rvQeY">
          <ref role="16sUi3" node="6A07P3f6_6r" resolve="K" />
        </node>
        <node concept="10PrrI" id="6A07P3f6_5k" role="3rvSg0" />
      </node>
      <node concept="3uibUv" id="6A07P3f6_6t" role="2llxR7">
        <ref role="3uigEE" to="otil:~TObjectByteHashMapDecorator" resolve="TObjectByteHashMapDecorator" />
      </node>
      <node concept="3Tm1VV" id="6A07P3f6_5m" role="1B3o_S" />
      <node concept="2ShNRf" id="6A07P3f6_5n" role="2MOlHk">
        <node concept="1pGfFk" id="6A07P3f6_5o" role="2ShVmc">
          <ref role="37wK5l" to="otil:~TObjectByteHashMapDecorator.&lt;init&gt;(gnu.trove.TObjectByteHashMap)" resolve="TObjectByteHashMapDecorator" />
          <node concept="2ShNRf" id="6A07P3f6_5p" role="37wK5m">
            <node concept="1pGfFk" id="6A07P3f6_6u" role="2ShVmc">
              <ref role="37wK5l" to="lktc:~TObjectByteHashMap.&lt;init&gt;()" resolve="TObjectByteHashMap" />
              <node concept="16syzq" id="6A07P3f6_6w" role="1pMfVU">
                <ref role="16sUi3" node="6A07P3f6_6r" resolve="K" />
              </node>
            </node>
          </node>
        </node>
      </node>
      <node concept="16euLQ" id="6A07P3f6_6r" role="16eVyc">
        <property role="TrG5h" value="K" />
      </node>
    </node>
    <node concept="2llx9B" id="6A07P3f6_5r" role="2llxR9">
      <property role="TrG5h" value="ObjectDoubleHashMap" />
      <node concept="3uibUv" id="6A07P3f6_6_" role="2llxR7">
        <ref role="3uigEE" to="otil:~TObjectDoubleHashMapDecorator" resolve="TObjectDoubleHashMapDecorator" />
      </node>
      <node concept="3Tm1VV" id="6A07P3f6_5t" role="1B3o_S" />
      <node concept="3rvAFt" id="6A07P3f6_5u" role="2llxQS">
        <node concept="10P55v" id="6A07P3f6_5v" role="3rvSg0" />
        <node concept="16syzq" id="6A07P3f6_6$" role="3rvQeY">
          <ref role="16sUi3" node="6A07P3f6_6z" resolve="K" />
        </node>
      </node>
      <node concept="2ShNRf" id="6A07P3f6_5x" role="2MOlHk">
        <node concept="1pGfFk" id="6A07P3f6_5y" role="2ShVmc">
          <ref role="37wK5l" to="otil:~TObjectDoubleHashMapDecorator.&lt;init&gt;(gnu.trove.TObjectDoubleHashMap)" resolve="TObjectDoubleHashMapDecorator" />
          <node concept="2ShNRf" id="6A07P3f6_5z" role="37wK5m">
            <node concept="1pGfFk" id="6A07P3f6_6H" role="2ShVmc">
              <ref role="37wK5l" to="lktc:~TObjectDoubleHashMap.&lt;init&gt;()" resolve="TObjectDoubleHashMap" />
              <node concept="16syzq" id="6A07P3f6_6L" role="1pMfVU">
                <ref role="16sUi3" node="6A07P3f6_6z" resolve="K" />
              </node>
            </node>
          </node>
        </node>
      </node>
      <node concept="16euLQ" id="6A07P3f6_6z" role="16eVyc">
        <property role="TrG5h" value="K" />
      </node>
    </node>
    <node concept="2llx9B" id="6A07P3f6_5_" role="2llxR9">
      <property role="TrG5h" value="ObjectFloatHashMap" />
      <node concept="3uibUv" id="6A07P3f6_6O" role="2llxR7">
        <ref role="3uigEE" to="otil:~TObjectFloatHashMapDecorator" resolve="TObjectFloatHashMapDecorator" />
      </node>
      <node concept="3Tm1VV" id="6A07P3f6_5B" role="1B3o_S" />
      <node concept="3rvAFt" id="6A07P3f6_5C" role="2llxQS">
        <node concept="10OMs4" id="6A07P3f6_5D" role="3rvSg0" />
        <node concept="16syzq" id="6A07P3f6_6T" role="3rvQeY">
          <ref role="16sUi3" node="6A07P3f6_6S" resolve="K" />
        </node>
      </node>
      <node concept="2ShNRf" id="6A07P3f6_5F" role="2MOlHk">
        <node concept="1pGfFk" id="6A07P3f6_5G" role="2ShVmc">
          <ref role="37wK5l" to="otil:~TObjectFloatHashMapDecorator.&lt;init&gt;(gnu.trove.TObjectFloatHashMap)" resolve="TObjectFloatHashMapDecorator" />
          <node concept="2ShNRf" id="6A07P3f6_5H" role="37wK5m">
            <node concept="1pGfFk" id="6A07P3f6_6U" role="2ShVmc">
              <ref role="37wK5l" to="lktc:~TObjectFloatHashMap.&lt;init&gt;()" resolve="TObjectFloatHashMap" />
              <node concept="16syzq" id="6A07P3f6_6W" role="1pMfVU">
                <ref role="16sUi3" node="6A07P3f6_6S" resolve="K" />
              </node>
            </node>
          </node>
        </node>
      </node>
      <node concept="16euLQ" id="6A07P3f6_6S" role="16eVyc">
        <property role="TrG5h" value="K" />
      </node>
    </node>
    <node concept="2llx9B" id="6A07P3f6_5J" role="2llxR9">
      <property role="TrG5h" value="ObjectIntHashMap" />
      <node concept="3Tm1VV" id="6A07P3f6_5K" role="1B3o_S" />
      <node concept="3rvAFt" id="6A07P3f6_5L" role="2llxQS">
        <node concept="10Oyi0" id="6A07P3f6_5M" role="3rvSg0" />
        <node concept="16syzq" id="6A07P3f6_6Y" role="3rvQeY">
          <ref role="16sUi3" node="6A07P3f6_6X" resolve="K" />
        </node>
      </node>
      <node concept="3uibUv" id="6A07P3f6_6P" role="2llxR7">
        <ref role="3uigEE" to="otil:~TObjectIntHashMapDecorator" resolve="TObjectIntHashMapDecorator" />
      </node>
      <node concept="2ShNRf" id="6A07P3f6_5P" role="2MOlHk">
        <node concept="1pGfFk" id="6A07P3f6_5Q" role="2ShVmc">
          <ref role="37wK5l" to="otil:~TObjectIntHashMapDecorator.&lt;init&gt;(gnu.trove.TObjectIntHashMap)" resolve="TObjectIntHashMapDecorator" />
          <node concept="2ShNRf" id="6A07P3f6_5R" role="37wK5m">
            <node concept="1pGfFk" id="6A07P3f6_6Z" role="2ShVmc">
              <ref role="37wK5l" to="lktc:~TObjectIntHashMap.&lt;init&gt;()" resolve="TObjectIntHashMap" />
              <node concept="16syzq" id="6A07P3f6_71" role="1pMfVU">
                <ref role="16sUi3" node="6A07P3f6_6X" resolve="K" />
              </node>
            </node>
          </node>
        </node>
      </node>
      <node concept="16euLQ" id="6A07P3f6_6X" role="16eVyc">
        <property role="TrG5h" value="K" />
      </node>
    </node>
    <node concept="2llx9B" id="6A07P3f6_5T" role="2llxR9">
      <property role="TrG5h" value="ObjectLongHashMap" />
      <node concept="3Tm1VV" id="6A07P3f6_5U" role="1B3o_S" />
      <node concept="3rvAFt" id="6A07P3f6_5V" role="2llxQS">
        <node concept="16syzq" id="6A07P3f6_73" role="3rvQeY">
          <ref role="16sUi3" node="6A07P3f6_72" resolve="K" />
        </node>
        <node concept="3cpWsb" id="6A07P3f6_5X" role="3rvSg0" />
      </node>
      <node concept="3uibUv" id="6A07P3f6_6Q" role="2llxR7">
        <ref role="3uigEE" to="otil:~TObjectLongHashMapDecorator" resolve="TObjectLongHashMapDecorator" />
      </node>
      <node concept="2ShNRf" id="6A07P3f6_5Z" role="2MOlHk">
        <node concept="1pGfFk" id="6A07P3f6_60" role="2ShVmc">
          <ref role="37wK5l" to="otil:~TObjectLongHashMapDecorator.&lt;init&gt;(gnu.trove.TObjectLongHashMap)" resolve="TObjectLongHashMapDecorator" />
          <node concept="2ShNRf" id="6A07P3f6_61" role="37wK5m">
            <node concept="1pGfFk" id="6A07P3f6_74" role="2ShVmc">
              <ref role="37wK5l" to="lktc:~TObjectLongHashMap.&lt;init&gt;()" resolve="TObjectLongHashMap" />
              <node concept="16syzq" id="6A07P3f6_76" role="1pMfVU">
                <ref role="16sUi3" node="6A07P3f6_72" resolve="K" />
              </node>
            </node>
          </node>
        </node>
      </node>
      <node concept="16euLQ" id="6A07P3f6_72" role="16eVyc">
        <property role="TrG5h" value="K" />
      </node>
    </node>
    <node concept="2llx9B" id="6A07P3f6_6f" role="2llxR9">
      <property role="TrG5h" value="ObjectShortHashMap" />
      <node concept="3Tm1VV" id="6A07P3f6_6g" role="1B3o_S" />
      <node concept="3rvAFt" id="6A07P3f6_6h" role="2llxQS">
        <node concept="10N3zO" id="6A07P3f6_6i" role="3rvSg0" />
        <node concept="16syzq" id="6A07P3f6_79" role="3rvQeY">
          <ref role="16sUi3" node="6A07P3f6_78" resolve="K" />
        </node>
      </node>
      <node concept="3uibUv" id="6A07P3f6_6R" role="2llxR7">
        <ref role="3uigEE" to="otil:~TObjectShortHashMapDecorator" resolve="TObjectShortHashMapDecorator" />
      </node>
      <node concept="2ShNRf" id="6A07P3f6_6l" role="2MOlHk">
        <node concept="1pGfFk" id="6A07P3f6_6m" role="2ShVmc">
          <ref role="37wK5l" to="otil:~TObjectShortHashMapDecorator.&lt;init&gt;(gnu.trove.TObjectShortHashMap)" resolve="TObjectShortHashMapDecorator" />
          <node concept="2ShNRf" id="6A07P3f6_6n" role="37wK5m">
            <node concept="1pGfFk" id="6A07P3f6_7a" role="2ShVmc">
              <ref role="37wK5l" to="lktc:~TObjectShortHashMap.&lt;init&gt;()" resolve="TObjectShortHashMap" />
              <node concept="16syzq" id="6A07P3f6_7c" role="1pMfVU">
                <ref role="16sUi3" node="6A07P3f6_78" resolve="K" />
              </node>
            </node>
          </node>
        </node>
      </node>
      <node concept="16euLQ" id="6A07P3f6_78" role="16eVyc">
        <property role="TrG5h" value="K" />
      </node>
    </node>
  </node>
  <node concept="2llxRb" id="46Yg2xrcMO3">
    <property role="TrG5h" value="TroveLists" />
    <node concept="2llx9B" id="46Yg2xrcMO4" role="2llxR9">
      <property role="TrG5h" value="byteArrayList" />
      <node concept="3Tm1VV" id="46Yg2xrcMO5" role="1B3o_S" />
      <node concept="_YKpA" id="46Yg2xrcMO8" role="2llxQS">
        <node concept="10PrrI" id="46Yg2xrcMOa" role="_ZDj9" />
      </node>
      <node concept="3uibUv" id="46Yg2xrcX7w" role="2llxR7">
        <ref role="3uigEE" to="eyjm:~TByteArrayListDecorator" resolve="TByteArrayListDecorator" />
      </node>
      <node concept="2ShNRf" id="46Yg2xrcX7y" role="2MOlHk">
        <node concept="1pGfFk" id="46Yg2xrcX7$" role="2ShVmc">
          <ref role="37wK5l" to="eyjm:~TByteArrayListDecorator.&lt;init&gt;(gnu.trove.TByteArrayList)" resolve="TByteArrayListDecorator" />
          <node concept="2ShNRf" id="46Yg2xrcX7A" role="37wK5m">
            <node concept="1pGfFk" id="46Yg2xrcX7C" role="2ShVmc">
              <ref role="37wK5l" to="lktc:~TByteArrayList.&lt;init&gt;()" resolve="TByteArrayList" />
            </node>
          </node>
        </node>
      </node>
    </node>
    <node concept="2llx9B" id="46Yg2xrcX7L" role="2llxR9">
      <property role="TrG5h" value="doubleArrayList" />
      <node concept="3Tm1VV" id="46Yg2xrcX7M" role="1B3o_S" />
      <node concept="_YKpA" id="46Yg2xrcX7N" role="2llxQS">
        <node concept="10P55v" id="46Yg2xrcX7U" role="_ZDj9" />
      </node>
      <node concept="3uibUv" id="46Yg2xrcX7V" role="2llxR7">
        <ref role="3uigEE" to="eyjm:~TDoubleArrayListDecorator" resolve="TDoubleArrayListDecorator" />
      </node>
      <node concept="2ShNRf" id="46Yg2xrcX7Q" role="2MOlHk">
        <node concept="1pGfFk" id="46Yg2xrcX7R" role="2ShVmc">
          <ref role="37wK5l" to="eyjm:~TDoubleArrayListDecorator.&lt;init&gt;(gnu.trove.TDoubleArrayList)" resolve="TDoubleArrayListDecorator" />
          <node concept="2ShNRf" id="46Yg2xrcX7S" role="37wK5m">
            <node concept="1pGfFk" id="46Yg2xrcYn8" role="2ShVmc">
              <ref role="37wK5l" to="lktc:~TDoubleArrayList.&lt;init&gt;()" resolve="TDoubleArrayList" />
            </node>
          </node>
        </node>
      </node>
    </node>
    <node concept="2llx9B" id="46Yg2xrcYn9" role="2llxR9">
      <property role="TrG5h" value="floatArrayList" />
      <node concept="3Tm1VV" id="46Yg2xrcYna" role="1B3o_S" />
      <node concept="_YKpA" id="46Yg2xrcYnd" role="2llxQS">
        <node concept="10OMs4" id="46Yg2xrcYnf" role="_ZDj9" />
      </node>
      <node concept="3uibUv" id="46Yg2xrcYng" role="2llxR7">
        <ref role="3uigEE" to="eyjm:~TFloatArrayListDecorator" resolve="TFloatArrayListDecorator" />
      </node>
      <node concept="2ShNRf" id="46Yg2xrcYni" role="2MOlHk">
        <node concept="1pGfFk" id="46Yg2xrcYnk" role="2ShVmc">
          <ref role="37wK5l" to="eyjm:~TFloatArrayListDecorator.&lt;init&gt;(gnu.trove.TFloatArrayList)" resolve="TFloatArrayListDecorator" />
          <node concept="2ShNRf" id="46Yg2xrcYnm" role="37wK5m">
            <node concept="1pGfFk" id="46Yg2xrcYnn" role="2ShVmc">
              <ref role="37wK5l" to="lktc:~TFloatArrayList.&lt;init&gt;()" resolve="TFloatArrayList" />
            </node>
          </node>
        </node>
      </node>
    </node>
    <node concept="2llx9B" id="46Yg2xrcYno" role="2llxR9">
      <property role="TrG5h" value="intArrayList" />
      <node concept="3Tm1VV" id="46Yg2xrcYnp" role="1B3o_S" />
      <node concept="_YKpA" id="46Yg2xrcYns" role="2llxQS">
        <node concept="10Oyi0" id="46Yg2xrcYnu" role="_ZDj9" />
      </node>
      <node concept="3uibUv" id="46Yg2xrdX5f" role="2llxR7">
        <ref role="3uigEE" to="eyjm:~TIntArrayListDecorator" resolve="TIntArrayListDecorator" />
      </node>
      <node concept="2ShNRf" id="46Yg2xrcYny" role="2MOlHk">
        <node concept="1pGfFk" id="46Yg2xrcYn$" role="2ShVmc">
          <ref role="37wK5l" to="eyjm:~TIntArrayListDecorator.&lt;init&gt;(gnu.trove.TIntArrayList)" resolve="TIntArrayListDecorator" />
          <node concept="2ShNRf" id="46Yg2xrcYnA" role="37wK5m">
            <node concept="1pGfFk" id="46Yg2xrcYnB" role="2ShVmc">
              <ref role="37wK5l" to="lktc:~TIntArrayList.&lt;init&gt;()" resolve="TIntArrayList" />
            </node>
          </node>
        </node>
      </node>
    </node>
    <node concept="2llx9B" id="46Yg2xrcYnC" role="2llxR9">
      <property role="TrG5h" value="longArrayList" />
      <node concept="3Tm1VV" id="46Yg2xrcYnD" role="1B3o_S" />
      <node concept="_YKpA" id="46Yg2xrcYnG" role="2llxQS">
        <node concept="3cpWsb" id="46Yg2xrcYnI" role="_ZDj9" />
      </node>
      <node concept="3uibUv" id="46Yg2xrcYnJ" role="2llxR7">
        <ref role="3uigEE" to="eyjm:~TLongArrayListDecorator" resolve="TLongArrayListDecorator" />
      </node>
      <node concept="2ShNRf" id="46Yg2xrcYnL" role="2MOlHk">
        <node concept="1pGfFk" id="46Yg2xrcYnN" role="2ShVmc">
          <ref role="37wK5l" to="eyjm:~TLongArrayListDecorator.&lt;init&gt;(gnu.trove.TLongArrayList)" resolve="TLongArrayListDecorator" />
          <node concept="2ShNRf" id="46Yg2xrcYnP" role="37wK5m">
            <node concept="1pGfFk" id="46Yg2xrcYnQ" role="2ShVmc">
              <ref role="37wK5l" to="lktc:~TLongArrayList.&lt;init&gt;()" resolve="TLongArrayList" />
            </node>
          </node>
        </node>
      </node>
    </node>
    <node concept="2llx9B" id="46Yg2xrcYnR" role="2llxR9">
      <property role="TrG5h" value="shortArrayList" />
      <node concept="3Tm1VV" id="46Yg2xrcYnS" role="1B3o_S" />
      <node concept="_YKpA" id="46Yg2xrcYnV" role="2llxQS">
        <node concept="10N3zO" id="46Yg2xrcYnX" role="_ZDj9" />
      </node>
      <node concept="3uibUv" id="46Yg2xrcYnY" role="2llxR7">
        <ref role="3uigEE" to="eyjm:~TShortArrayListDecorator" resolve="TShortArrayListDecorator" />
      </node>
      <node concept="2ShNRf" id="46Yg2xrcYo0" role="2MOlHk">
        <node concept="1pGfFk" id="46Yg2xrcYo2" role="2ShVmc">
          <ref role="37wK5l" to="eyjm:~TShortArrayListDecorator.&lt;init&gt;(gnu.trove.TShortArrayList)" resolve="TShortArrayListDecorator" />
          <node concept="2ShNRf" id="46Yg2xrcYo5" role="37wK5m">
            <node concept="1pGfFk" id="46Yg2xrcYo6" role="2ShVmc">
              <ref role="37wK5l" to="lktc:~TShortArrayList.&lt;init&gt;()" resolve="TShortArrayList" />
            </node>
          </node>
        </node>
      </node>
    </node>
  </node>
</model>

