<?xml version="1.0" encoding="UTF-8"?>
<model ref="r:e4c3371f-743b-4590-b521-03a11e9bad7f(jetbrains.mps.samples.theSimplestLanguage.editor)">
  <persistence version="9" />
  <languages>
    <use id="18bc6592-03a6-4e29-a83a-7ff23bde13ba" name="jetbrains.mps.lang.editor" version="3" />
  </languages>
  <imports>
    <import index="jfvl" ref="r:7621c011-92d8-4afe-81d5-6da125ff596f(jetbrains.mps.samples.theSimplestLanguage.structure)" />
    <import index="tpck" ref="r:00000000-0000-4000-0000-011c89590288(jetbrains.mps.lang.core.structure)" implicit="true" />
  </imports>
  <registry>
    <language id="18bc6592-03a6-4e29-a83a-7ff23bde13ba" name="jetbrains.mps.lang.editor">
      <concept id="1071666914219" name="jetbrains.mps.lang.editor.structure.ConceptEditorDeclaration" flags="ig" index="24kQdi" />
      <concept id="1106270549637" name="jetbrains.mps.lang.editor.structure.CellLayout_Horizontal" flags="nn" index="2iRfu4" />
      <concept id="1106270571710" name="jetbrains.mps.lang.editor.structure.CellLayout_Vertical" flags="nn" index="2iRkQZ" />
      <concept id="1080736578640" name="jetbrains.mps.lang.editor.structure.BaseEditorComponent" flags="ig" index="2wURMF">
        <child id="1080736633877" name="cellModel" index="2wV5jI" />
      </concept>
      <concept id="1186414536763" name="jetbrains.mps.lang.editor.structure.BooleanStyleSheetItem" flags="ln" index="VOi$J">
        <property id="1186414551515" name="flag" index="VOm3f" />
      </concept>
      <concept id="1186414928363" name="jetbrains.mps.lang.editor.structure.SelectableStyleSheetItem" flags="ln" index="VPM3Z" />
      <concept id="1139848536355" name="jetbrains.mps.lang.editor.structure.CellModel_WithRole" flags="ng" index="1$h60E">
        <reference id="1140103550593" name="relationDeclaration" index="1NtTu8" />
      </concept>
      <concept id="1073389446423" name="jetbrains.mps.lang.editor.structure.CellModel_Collection" flags="sn" stub="3013115976261988961" index="3EZMnI">
        <property id="1073389446425" name="vertical" index="3EZMnw" />
        <child id="1106270802874" name="cellLayout" index="2iSdaV" />
        <child id="1073389446424" name="childCellModel" index="3EZMnx" />
      </concept>
      <concept id="1073389577006" name="jetbrains.mps.lang.editor.structure.CellModel_Constant" flags="sn" stub="3610246225209162225" index="3F0ifn">
        <property id="1073389577007" name="text" index="3F0ifm" />
      </concept>
      <concept id="1073389658414" name="jetbrains.mps.lang.editor.structure.CellModel_Property" flags="sg" stub="730538219796134133" index="3F0A7n" />
      <concept id="1219418625346" name="jetbrains.mps.lang.editor.structure.IStyleContainer" flags="ng" index="3F0Thp">
        <child id="1219418656006" name="styleItem" index="3F10Kt" />
      </concept>
      <concept id="1166049232041" name="jetbrains.mps.lang.editor.structure.AbstractComponent" flags="ng" index="1XWOmA">
        <reference id="1166049300910" name="conceptDeclaration" index="1XX52x" />
      </concept>
    </language>
  </registry>
  <node concept="24kQdi" id="hMXMUME">
    <ref role="1XX52x" to="jfvl:hMXMQOs" resolve="TheSimplestConcept" />
    <node concept="3EZMnI" id="hMXMVln" role="2wV5jI">
      <property role="3EZMnw" value="true" />
      <node concept="3EZMnI" id="hMXMX6t" role="3EZMnx">
        <property role="3EZMnw" value="false" />
        <node concept="VPM3Z" id="hMXMX6u" role="3F10Kt">
          <property role="VOm3f" value="false" />
        </node>
        <node concept="3F0ifn" id="hMXMX6v" role="3EZMnx">
          <property role="3F0ifm" value="the simplest concept instance" />
        </node>
        <node concept="3F0A7n" id="hMXMX$$" role="3EZMnx">
          <ref role="1NtTu8" to="tpck:h0TrG11" resolve="name" />
        </node>
        <node concept="VPM3Z" id="hMXMX6w" role="3F10Kt">
          <property role="VOm3f" value="false" />
        </node>
        <node concept="2iRfu4" id="i2IQNqG" role="2iSdaV" />
      </node>
      <node concept="3F0ifn" id="hMXMZiI" role="3EZMnx">
        <node concept="VPM3Z" id="hMXN08G" role="3F10Kt" />
      </node>
      <node concept="3EZMnI" id="hMXN2MK" role="3EZMnx">
        <property role="3EZMnw" value="false" />
        <node concept="VPM3Z" id="hMXN2ML" role="3F10Kt">
          <property role="VOm3f" value="false" />
        </node>
        <node concept="3F0ifn" id="hMXN2MM" role="3EZMnx">
          <property role="3F0ifm" value="text = " />
        </node>
        <node concept="3F0A7n" id="hMXN3h7" role="3EZMnx">
          <ref role="1NtTu8" to="jfvl:hMXMSCV" resolve="text" />
        </node>
        <node concept="VPM3Z" id="hMXN2MN" role="3F10Kt">
          <property role="VOm3f" value="false" />
        </node>
        <node concept="2iRfu4" id="i2IQNqH" role="2iSdaV" />
      </node>
      <node concept="2iRkQZ" id="i2IQNqE" role="2iSdaV" />
    </node>
  </node>
</model>

