<?xml version="1.0" encoding="UTF-8"?>
<model ref="r:8eeaa327-aebc-455a-9dff-c6d2e8c68659(jetbrains.mps.baseLanguage.methodDispatch.sandbox.box)">
  <persistence version="9" />
  <languages>
    <use id="7db4447f-913e-4b81-bd75-c9a473319ac6" name="jetbrains.mps.baseLanguage.doubleDispatch" version="0" />
    <use id="f3061a53-9226-4cc5-a443-f952ceaf5816" name="jetbrains.mps.baseLanguage" version="4" />
  </languages>
  <imports>
    <import index="wyt6" ref="6354ebe7-c22a-4a0f-ac54-50b52ab9b065/java:java.lang(JDK/)" />
    <import index="guwi" ref="6354ebe7-c22a-4a0f-ac54-50b52ab9b065/java:java.io(JDK/)" />
  </imports>
  <registry>
    <language id="f3061a53-9226-4cc5-a443-f952ceaf5816" name="jetbrains.mps.baseLanguage">
      <concept id="2323553266850475941" name="jetbrains.mps.baseLanguage.structure.IHasModifiers" flags="ng" index="2frcj7">
        <child id="2323553266850475953" name="modifiers" index="2frcjj" />
      </concept>
      <concept id="1202948039474" name="jetbrains.mps.baseLanguage.structure.InstanceMethodCallOperation" flags="nn" index="liA8E" />
      <concept id="1188207840427" name="jetbrains.mps.baseLanguage.structure.AnnotationInstance" flags="nn" index="2AHcQZ">
        <reference id="1188208074048" name="annotation" index="2AI5Lk" />
      </concept>
      <concept id="1188208481402" name="jetbrains.mps.baseLanguage.structure.HasAnnotation" flags="ng" index="2AJDlI">
        <child id="1188208488637" name="annotation" index="2AJF6D" />
      </concept>
      <concept id="1197027756228" name="jetbrains.mps.baseLanguage.structure.DotExpression" flags="nn" index="2OqwBi">
        <child id="1197027771414" name="operand" index="2Oq$k0" />
        <child id="1197027833540" name="operation" index="2OqNvi" />
      </concept>
      <concept id="1070475926800" name="jetbrains.mps.baseLanguage.structure.StringLiteral" flags="nn" index="Xl_RD">
        <property id="1070475926801" name="value" index="Xl_RC" />
      </concept>
      <concept id="1081236700938" name="jetbrains.mps.baseLanguage.structure.StaticMethodDeclaration" flags="ig" index="2YIFZL" />
      <concept id="1070533707846" name="jetbrains.mps.baseLanguage.structure.StaticFieldReference" flags="nn" index="10M0yZ">
        <reference id="1144433057691" name="classifier" index="1PxDUh" />
      </concept>
      <concept id="1070534370425" name="jetbrains.mps.baseLanguage.structure.IntegerType" flags="in" index="10Oyi0" />
      <concept id="1068390468198" name="jetbrains.mps.baseLanguage.structure.ClassConcept" flags="ig" index="312cEu">
        <child id="1165602531693" name="superclass" index="1zkMxy" />
      </concept>
      <concept id="1068431474542" name="jetbrains.mps.baseLanguage.structure.VariableDeclaration" flags="ng" index="33uBYm">
        <child id="1068431790190" name="initializer" index="33vP2m" />
      </concept>
      <concept id="1068498886296" name="jetbrains.mps.baseLanguage.structure.VariableReference" flags="nn" index="37vLTw">
        <reference id="1068581517664" name="variableDeclaration" index="3cqZAo" />
      </concept>
      <concept id="1068498886292" name="jetbrains.mps.baseLanguage.structure.ParameterDeclaration" flags="ir" index="37vLTG" />
      <concept id="1225271177708" name="jetbrains.mps.baseLanguage.structure.StringType" flags="in" index="17QB3L" />
      <concept id="4972933694980447171" name="jetbrains.mps.baseLanguage.structure.BaseVariableDeclaration" flags="ng" index="19Szcq">
        <child id="5680397130376446158" name="type" index="1tU5fm" />
      </concept>
      <concept id="1111509017652" name="jetbrains.mps.baseLanguage.structure.FloatingPointConstant" flags="nn" index="3b6qkQ">
        <property id="1113006610751" name="value" index="$nhwW" />
      </concept>
      <concept id="1068580123132" name="jetbrains.mps.baseLanguage.structure.BaseMethodDeclaration" flags="ng" index="3clF44">
        <child id="1068580123133" name="returnType" index="3clF45" />
        <child id="1068580123134" name="parameter" index="3clF46" />
        <child id="1068580123135" name="body" index="3clF47" />
      </concept>
      <concept id="1068580123165" name="jetbrains.mps.baseLanguage.structure.InstanceMethodDeclaration" flags="ig" index="3clFb_">
        <property id="1178608670077" name="isAbstract" index="1EzhhJ" />
      </concept>
      <concept id="1068580123155" name="jetbrains.mps.baseLanguage.structure.ExpressionStatement" flags="nn" index="3clFbF">
        <child id="1068580123156" name="expression" index="3clFbG" />
      </concept>
      <concept id="1068580123157" name="jetbrains.mps.baseLanguage.structure.Statement" flags="nn" index="3clFbH" />
      <concept id="1068580123136" name="jetbrains.mps.baseLanguage.structure.StatementList" flags="sn" stub="5293379017992965193" index="3clFbS">
        <child id="1068581517665" name="statement" index="3cqZAp" />
      </concept>
      <concept id="1068580123140" name="jetbrains.mps.baseLanguage.structure.ConstructorDeclaration" flags="ig" index="3clFbW" />
      <concept id="1068580320020" name="jetbrains.mps.baseLanguage.structure.IntegerConstant" flags="nn" index="3cmrfG">
        <property id="1068580320021" name="value" index="3cmrfH" />
      </concept>
      <concept id="1068581242878" name="jetbrains.mps.baseLanguage.structure.ReturnStatement" flags="nn" index="3cpWs6">
        <child id="1068581517676" name="expression" index="3cqZAk" />
      </concept>
      <concept id="1068581242864" name="jetbrains.mps.baseLanguage.structure.LocalVariableDeclarationStatement" flags="nn" index="3cpWs8">
        <child id="1068581242865" name="localVariableDeclaration" index="3cpWs9" />
      </concept>
      <concept id="1068581242863" name="jetbrains.mps.baseLanguage.structure.LocalVariableDeclaration" flags="nr" index="3cpWsn" />
      <concept id="1068581517677" name="jetbrains.mps.baseLanguage.structure.VoidType" flags="in" index="3cqZAl" />
      <concept id="1204053956946" name="jetbrains.mps.baseLanguage.structure.IMethodCall" flags="ng" index="1ndlxa">
        <reference id="1068499141037" name="baseMethodDeclaration" index="37wK5l" />
        <child id="1068499141038" name="actualArgument" index="37wK5m" />
      </concept>
      <concept id="1107461130800" name="jetbrains.mps.baseLanguage.structure.Classifier" flags="ng" index="3pOWGL">
        <child id="5375687026011219971" name="member" index="jymVt" unordered="true" />
      </concept>
      <concept id="1107535904670" name="jetbrains.mps.baseLanguage.structure.ClassifierType" flags="in" index="3uibUv">
        <reference id="1107535924139" name="classifier" index="3uigEE" />
      </concept>
      <concept id="1178549954367" name="jetbrains.mps.baseLanguage.structure.IVisible" flags="ng" index="1B3ioH">
        <child id="1178549979242" name="visibility" index="1B3o_S" />
      </concept>
      <concept id="1146644602865" name="jetbrains.mps.baseLanguage.structure.PublicVisibility" flags="nn" index="3Tm1VV" />
      <concept id="1146644623116" name="jetbrains.mps.baseLanguage.structure.PrivateVisibility" flags="nn" index="3Tm6S6" />
    </language>
    <language id="7db4447f-913e-4b81-bd75-c9a473319ac6" name="jetbrains.mps.baseLanguage.doubleDispatch">
      <concept id="2403002034744698617" name="jetbrains.mps.baseLanguage.doubleDispatch.structure.DispatchModifier" flags="ng" index="1i9CHB" />
    </language>
    <language id="ceab5195-25ea-4f22-9b92-103b95ca8c0c" name="jetbrains.mps.lang.core">
      <concept id="1169194658468" name="jetbrains.mps.lang.core.structure.INamedConcept" flags="ng" index="TrEIO">
        <property id="1169194664001" name="name" index="TrG5h" />
      </concept>
    </language>
  </registry>
  <node concept="312cEu" id="3TBteRZzx99">
    <property role="TrG5h" value="TestClass" />
    <node concept="3Tm1VV" id="3TBteRZzx9a" role="1B3o_S" />
    <node concept="3clFbW" id="3TBteRZzx9b" role="jymVt">
      <node concept="3cqZAl" id="3TBteRZzx9c" role="3clF45" />
      <node concept="3Tm1VV" id="3TBteRZzx9d" role="1B3o_S" />
      <node concept="3clFbS" id="3TBteRZzx9e" role="3clF47">
        <node concept="3clFbH" id="244oDY5d4tI" role="3cqZAp" />
      </node>
    </node>
    <node concept="3clFb_" id="3TBteRZ$H2f" role="jymVt">
      <property role="TrG5h" value="hello" />
      <node concept="10Oyi0" id="7YtogOt0R8" role="3clF45" />
      <node concept="3Tm6S6" id="244oDY4N2pD" role="1B3o_S" />
      <node concept="37vLTG" id="3TBteRZFL2e" role="3clF46">
        <property role="TrG5h" value="numParm" />
        <node concept="3uibUv" id="2GLQwZOfa0I" role="1tU5fm">
          <ref role="3uigEE" to="wyt6:~Number" resolve="Number" />
        </node>
      </node>
      <node concept="37vLTG" id="2GLQwZOfa5j" role="3clF46">
        <property role="TrG5h" value="zzz" />
        <node concept="17QB3L" id="2GLQwZOfa87" role="1tU5fm" />
      </node>
      <node concept="3clFbS" id="3TBteRZ$H2i" role="3clF47">
        <node concept="3cpWs8" id="244oDY4N5Fc" role="3cqZAp">
          <node concept="3cpWsn" id="244oDY4N5Fd" role="3cpWs9">
            <property role="TrG5h" value="d" />
            <node concept="3b6qkQ" id="244oDY4N5M$" role="33vP2m">
              <property role="$nhwW" value="1.555" />
            </node>
            <node concept="3uibUv" id="244oDY4N5Fe" role="1tU5fm">
              <ref role="3uigEE" to="wyt6:~Double" resolve="Double" />
            </node>
          </node>
        </node>
        <node concept="3cpWs8" id="244oDY53Nk3" role="3cqZAp">
          <node concept="3cpWsn" id="244oDY53Nk6" role="3cpWs9">
            <property role="TrG5h" value="x" />
            <node concept="3cmrfG" id="244oDY53Noa" role="33vP2m">
              <property role="3cmrfH" value="1" />
            </node>
            <node concept="10Oyi0" id="244oDY53Nk1" role="1tU5fm" />
          </node>
        </node>
        <node concept="3cpWs8" id="244oDY53Nsn" role="3cqZAp">
          <node concept="3cpWsn" id="244oDY53Nsq" role="3cpWs9">
            <property role="TrG5h" value="y" />
            <node concept="37vLTw" id="244oDY53NwL" role="33vP2m">
              <ref role="3cqZAo" node="244oDY53Nk6" resolve="x" />
            </node>
            <node concept="10Oyi0" id="244oDY53Nsl" role="1tU5fm" />
          </node>
        </node>
        <node concept="3cpWs6" id="244oDY5f8cE" role="3cqZAp">
          <node concept="3cmrfG" id="244oDY5f8g5" role="3cqZAk">
            <property role="3cmrfH" value="1" />
          </node>
        </node>
      </node>
      <node concept="1i9CHB" id="7mMqb2Z78ex" role="2frcjj" />
    </node>
    <node concept="3clFb_" id="3TBteRZ$H5f" role="jymVt">
      <property role="TrG5h" value="hello" />
      <node concept="10Oyi0" id="7YtogOt0Rz" role="3clF45" />
      <node concept="37vLTG" id="3TBteRZFK$C" role="3clF46">
        <property role="TrG5h" value="doubleParam" />
        <node concept="3uibUv" id="3TBteRZFKQa" role="1tU5fm">
          <ref role="3uigEE" to="wyt6:~Double" resolve="Double" />
        </node>
      </node>
      <node concept="3Tm1VV" id="3TBteRZ$H5h" role="1B3o_S" />
      <node concept="3clFbS" id="3TBteRZ$H5i" role="3clF47">
        <node concept="3clFbF" id="244oDY5f5DB" role="3cqZAp">
          <node concept="2OqwBi" id="244oDY5f5O3" role="3clFbG">
            <node concept="liA8E" id="244oDY5f5UK" role="2OqNvi">
              <ref role="37wK5l" to="guwi:~PrintStream.println(java.lang.String):void" resolve="println" />
              <node concept="Xl_RD" id="244oDY5f74N" role="37wK5m">
                <property role="Xl_RC" value="double" />
              </node>
            </node>
            <node concept="10M0yZ" id="244oDY5f5DA" role="2Oq$k0">
              <ref role="1PxDUh" to="wyt6:~System" resolve="System" />
              <ref role="3cqZAo" to="wyt6:~System.out" resolve="out" />
            </node>
          </node>
        </node>
        <node concept="3cpWs6" id="244oDY5f8qh" role="3cqZAp">
          <node concept="3cmrfG" id="244oDY5f8xz" role="3cqZAk">
            <property role="3cmrfH" value="2" />
          </node>
        </node>
      </node>
      <node concept="37vLTG" id="3TBteRZ$H7s" role="3clF46">
        <property role="TrG5h" value="info" />
        <node concept="17QB3L" id="3TBteRZ$H7r" role="1tU5fm" />
      </node>
      <node concept="1i9CHB" id="244oDY5d4vQ" role="2frcjj" />
    </node>
    <node concept="3clFb_" id="244oDY550he" role="jymVt">
      <property role="TrG5h" value="hello" />
      <node concept="10Oyi0" id="7YtogOt0XX" role="3clF45" />
      <node concept="3Tm1VV" id="244oDY550hg" role="1B3o_S" />
      <node concept="3clFbS" id="244oDY550hh" role="3clF47">
        <node concept="3clFbF" id="244oDY5f7kH" role="3cqZAp">
          <node concept="2OqwBi" id="244oDY5f7kJ" role="3clFbG">
            <node concept="liA8E" id="244oDY5f7kK" role="2OqNvi">
              <ref role="37wK5l" to="guwi:~PrintStream.println(java.lang.String):void" resolve="println" />
              <node concept="Xl_RD" id="244oDY5f7kL" role="37wK5m">
                <property role="Xl_RC" value="integer" />
              </node>
            </node>
            <node concept="10M0yZ" id="244oDY5f7kM" role="2Oq$k0">
              <ref role="3cqZAo" to="wyt6:~System.out" resolve="out" />
              <ref role="1PxDUh" to="wyt6:~System" resolve="System" />
            </node>
          </node>
        </node>
        <node concept="3cpWs6" id="244oDY5f8JQ" role="3cqZAp">
          <node concept="3cmrfG" id="244oDY5f8XH" role="3cqZAk">
            <property role="3cmrfH" value="3" />
          </node>
        </node>
      </node>
      <node concept="37vLTG" id="244oDY550m7" role="3clF46">
        <property role="TrG5h" value="intPara" />
        <node concept="3uibUv" id="244oDY550m6" role="1tU5fm">
          <ref role="3uigEE" to="wyt6:~Integer" resolve="Integer" />
        </node>
      </node>
      <node concept="37vLTG" id="244oDY550oA" role="3clF46">
        <property role="TrG5h" value="info" />
        <node concept="17QB3L" id="244oDY550vc" role="1tU5fm" />
      </node>
      <node concept="1i9CHB" id="244oDY5d4w9" role="2frcjj" />
    </node>
    <node concept="3clFb_" id="20YUQaJj1Bk" role="jymVt">
      <property role="TrG5h" value="arg" />
      <node concept="17QB3L" id="20YUQaJj1Bl" role="3clF45" />
      <node concept="3Tm1VV" id="20YUQaJj1Bm" role="1B3o_S" />
      <node concept="3clFbS" id="20YUQaJj1Bn" role="3clF47">
        <node concept="3clFbF" id="20YUQaJj1Bo" role="3cqZAp">
          <node concept="Xl_RD" id="20YUQaJj1Bp" role="3clFbG">
            <property role="Xl_RC" value="arg1" />
          </node>
        </node>
      </node>
      <node concept="37vLTG" id="20YUQaJj1Bq" role="3clF46">
        <property role="TrG5h" value="arg1" />
        <node concept="3uibUv" id="20YUQaJj1Fg" role="1tU5fm">
          <ref role="3uigEE" node="20YUQaJiZDX" resolve="Arg1" />
        </node>
      </node>
      <node concept="1i9CHB" id="2JMw7nr$zFH" role="2frcjj" />
    </node>
    <node concept="3clFb_" id="20YUQaJj07y" role="jymVt">
      <property role="TrG5h" value="arg" />
      <node concept="17QB3L" id="20YUQaJj0j0" role="3clF45" />
      <node concept="3Tm1VV" id="20YUQaJj07$" role="1B3o_S" />
      <node concept="3clFbS" id="20YUQaJj07_" role="3clF47">
        <node concept="3clFbF" id="20YUQaJj0k4" role="3cqZAp">
          <node concept="Xl_RD" id="20YUQaJj0k3" role="3clFbG">
            <property role="Xl_RC" value="arg2" />
          </node>
        </node>
      </node>
      <node concept="37vLTG" id="20YUQaJj0ey" role="3clF46">
        <property role="TrG5h" value="arg2" />
        <node concept="3uibUv" id="20YUQaJj0gD" role="1tU5fm">
          <ref role="3uigEE" node="20YUQaJiZEu" resolve="Arg2" />
        </node>
      </node>
      <node concept="1i9CHB" id="2JMw7nrrNoq" role="2frcjj" />
    </node>
    <node concept="3clFb_" id="20YUQaJj1hl" role="jymVt">
      <property role="TrG5h" value="arg" />
      <node concept="17QB3L" id="20YUQaJj1hm" role="3clF45" />
      <node concept="3Tm1VV" id="20YUQaJj1hn" role="1B3o_S" />
      <node concept="3clFbS" id="20YUQaJj1ho" role="3clF47">
        <node concept="3clFbF" id="20YUQaJj1hp" role="3cqZAp">
          <node concept="Xl_RD" id="20YUQaJj1hq" role="3clFbG">
            <property role="Xl_RC" value="arg3" />
          </node>
        </node>
      </node>
      <node concept="37vLTG" id="20YUQaJj1hr" role="3clF46">
        <property role="TrG5h" value="arg3" />
        <node concept="3uibUv" id="20YUQaJj1oC" role="1tU5fm">
          <ref role="3uigEE" node="20YUQaJiZX7" resolve="Arg3" />
        </node>
      </node>
      <node concept="1i9CHB" id="2JMw7nrrNiI" role="2frcjj" />
    </node>
    <node concept="3clFb_" id="20YUQaJj0yd" role="jymVt">
      <property role="TrG5h" value="arg" />
      <node concept="17QB3L" id="20YUQaJj16c" role="3clF45" />
      <node concept="3Tm1VV" id="20YUQaJj0yf" role="1B3o_S" />
      <node concept="3clFbS" id="20YUQaJj0yg" role="3clF47">
        <node concept="3clFbF" id="20YUQaJj0Rd" role="3cqZAp">
          <node concept="Xl_RD" id="20YUQaJj0Rc" role="3clFbG">
            <property role="Xl_RC" value="arg5" />
          </node>
        </node>
      </node>
      <node concept="37vLTG" id="20YUQaJj0Ol" role="3clF46">
        <property role="TrG5h" value="arg5" />
        <node concept="3uibUv" id="20YUQaJj0Ok" role="1tU5fm">
          <ref role="3uigEE" node="20YUQaJiZYi" resolve="Arg5" />
        </node>
      </node>
      <node concept="1i9CHB" id="2JMw7nrrNlw" role="2frcjj" />
    </node>
    <node concept="3clFb_" id="2GLQwZOlmQV" role="jymVt">
      <property role="TrG5h" value="newDisp" />
      <node concept="3cqZAl" id="2GLQwZOlmQW" role="3clF45" />
      <node concept="3Tm1VV" id="2GLQwZOlmQX" role="1B3o_S" />
      <node concept="3clFbS" id="2GLQwZOlmQY" role="3clF47" />
      <node concept="37vLTG" id="2GLQwZOln_1" role="3clF46">
        <property role="TrG5h" value="x" />
        <node concept="3uibUv" id="1ZhIZC10Ib" role="1tU5fm">
          <ref role="3uigEE" to="wyt6:~Number" resolve="Number" />
        </node>
      </node>
    </node>
    <node concept="2YIFZL" id="20YUQaJCQcx" role="jymVt">
      <property role="TrG5h" value="stat" />
      <node concept="17QB3L" id="20YUQaJISrC" role="3clF45" />
      <node concept="3Tm1VV" id="20YUQaJCQcz" role="1B3o_S" />
      <node concept="3clFbS" id="20YUQaJCQc$" role="3clF47">
        <node concept="3clFbF" id="20YUQaJISs4" role="3cqZAp">
          <node concept="Xl_RD" id="20YUQaJISs3" role="3clFbG">
            <property role="Xl_RC" value="arg2" />
          </node>
        </node>
      </node>
      <node concept="1i9CHB" id="20YUQaJISeu" role="2frcjj" />
      <node concept="37vLTG" id="20YUQaJISnP" role="3clF46">
        <property role="TrG5h" value="arg2" />
        <node concept="3uibUv" id="20YUQaJISpJ" role="1tU5fm">
          <ref role="3uigEE" node="20YUQaJiZEu" resolve="Arg2" />
        </node>
      </node>
    </node>
    <node concept="2YIFZL" id="20YUQaJISBV" role="jymVt">
      <property role="TrG5h" value="stat" />
      <node concept="3Tm1VV" id="20YUQaJISBX" role="1B3o_S" />
      <node concept="3clFbS" id="20YUQaJISBY" role="3clF47">
        <node concept="3clFbF" id="20YUQaJISIy" role="3cqZAp">
          <node concept="Xl_RD" id="20YUQaJISIx" role="3clFbG">
            <property role="Xl_RC" value="arg5" />
          </node>
        </node>
      </node>
      <node concept="1i9CHB" id="20YUQaJISDj" role="2frcjj" />
      <node concept="37vLTG" id="20YUQaJISFq" role="3clF46">
        <property role="TrG5h" value="arg5" />
        <node concept="3uibUv" id="20YUQaJISFp" role="1tU5fm">
          <ref role="3uigEE" node="20YUQaJiZYi" resolve="Arg5" />
        </node>
      </node>
      <node concept="17QB3L" id="20YUQaJISI7" role="3clF45" />
    </node>
  </node>
  <node concept="312cEu" id="7YtogOutSz">
    <property role="TrG5h" value="Descendant" />
    <node concept="3Tm1VV" id="7YtogOutS$" role="1B3o_S" />
    <node concept="3uibUv" id="7YtogOutSN" role="1zkMxy">
      <ref role="3uigEE" node="3TBteRZzx99" resolve="TestClass" />
    </node>
    <node concept="3clFbW" id="7YtogOutS_" role="jymVt">
      <node concept="3cqZAl" id="7YtogOutSA" role="3clF45" />
      <node concept="3Tm1VV" id="7YtogOutSB" role="1B3o_S" />
      <node concept="3clFbS" id="7YtogOutSC" role="3clF47" />
    </node>
    <node concept="3clFb_" id="7YtogOuuaU" role="jymVt">
      <property role="TrG5h" value="hello" />
      <node concept="3Tm1VV" id="7YtogOuuaW" role="1B3o_S" />
      <node concept="3clFbS" id="7YtogOuuaX" role="3clF47">
        <node concept="3cpWs6" id="7YtogOuujW" role="3cqZAp">
          <node concept="3cmrfG" id="7YtogOuuka" role="3cqZAk">
            <property role="3cmrfH" value="4" />
          </node>
        </node>
      </node>
      <node concept="10Oyi0" id="7YtogOuub4" role="3clF45" />
      <node concept="37vLTG" id="7YtogOuub9" role="3clF46">
        <property role="TrG5h" value="x" />
        <node concept="3uibUv" id="7YtogOuub8" role="1tU5fm">
          <ref role="3uigEE" to="wyt6:~Long" resolve="Long" />
        </node>
      </node>
      <node concept="37vLTG" id="7YtogOuubj" role="3clF46">
        <property role="TrG5h" value="xxzx" />
        <node concept="17QB3L" id="7YtogOuueu" role="1tU5fm" />
      </node>
      <node concept="1i9CHB" id="7YtogOuunK" role="2frcjj" />
    </node>
    <node concept="3clFb_" id="2GLQwZOfaFW" role="jymVt">
      <property role="TrG5h" value="hello" />
      <node concept="10Oyi0" id="2GLQwZOfbJU" role="3clF45" />
      <node concept="3Tm1VV" id="2GLQwZOfaFY" role="1B3o_S" />
      <node concept="3clFbS" id="2GLQwZOfaFZ" role="3clF47">
        <node concept="3cpWs6" id="2GLQwZOfbTt" role="3cqZAp">
          <node concept="3cmrfG" id="2GLQwZOfbTH" role="3cqZAk">
            <property role="3cmrfH" value="5" />
          </node>
        </node>
      </node>
      <node concept="37vLTG" id="2GLQwZOfaYn" role="3clF46">
        <property role="TrG5h" value="x" />
        <node concept="3uibUv" id="2GLQwZOfb7o" role="1tU5fm">
          <ref role="3uigEE" to="wyt6:~Float" resolve="Float" />
        </node>
      </node>
      <node concept="37vLTG" id="2GLQwZOfbiU" role="3clF46">
        <property role="TrG5h" value="asdsasd" />
        <node concept="17QB3L" id="2GLQwZOfbuU" role="1tU5fm" />
      </node>
      <node concept="1i9CHB" id="2GLQwZOfbTQ" role="2frcjj" />
    </node>
    <node concept="3clFb_" id="2GLQwZOhga2" role="jymVt">
      <property role="TrG5h" value="hello" />
      <node concept="10Oyi0" id="2GLQwZOhhMb" role="3clF45" />
      <node concept="3Tm1VV" id="2GLQwZOhga4" role="1B3o_S" />
      <node concept="3clFbS" id="2GLQwZOhga5" role="3clF47">
        <node concept="3clFbF" id="2GLQwZOhhXr" role="3cqZAp">
          <node concept="3cmrfG" id="2GLQwZOhhXq" role="3clFbG">
            <property role="3cmrfH" value="6" />
          </node>
        </node>
      </node>
      <node concept="1i9CHB" id="2GLQwZOhgmC" role="2frcjj" />
      <node concept="37vLTG" id="2GLQwZOhgvG" role="3clF46">
        <property role="TrG5h" value="x" />
        <node concept="3uibUv" id="2GLQwZOhgvF" role="1tU5fm">
          <ref role="3uigEE" to="wyt6:~Double" resolve="Double" />
        </node>
      </node>
      <node concept="37vLTG" id="2GLQwZOhhff" role="3clF46">
        <property role="TrG5h" value="aaa" />
        <node concept="17QB3L" id="2GLQwZOhhun" role="1tU5fm" />
      </node>
      <node concept="2AHcQZ" id="3tYsUK_SeyX" role="2AJF6D">
        <ref role="2AI5Lk" to="wyt6:~Override" resolve="Override" />
      </node>
    </node>
    <node concept="3clFb_" id="7YtogOuukj" role="jymVt">
      <property role="TrG5h" value="hello" />
      <node concept="10Oyi0" id="7YtogOuusM" role="3clF45" />
      <node concept="3Tm1VV" id="7YtogOuukl" role="1B3o_S" />
      <node concept="3clFbS" id="7YtogOuukm" role="3clF47">
        <node concept="3cpWs6" id="7YtogOuuQ3" role="3cqZAp">
          <node concept="3cmrfG" id="7YtogOuuQ$" role="3cqZAk">
            <property role="3cmrfH" value="5" />
          </node>
        </node>
      </node>
      <node concept="37vLTG" id="7YtogOuuyw" role="3clF46">
        <property role="TrG5h" value="x" />
        <node concept="3uibUv" id="1ZhIZC187H" role="1tU5fm">
          <ref role="3uigEE" to="wyt6:~Number" resolve="Number" />
        </node>
      </node>
      <node concept="37vLTG" id="7YtogOuuBk" role="3clF46">
        <property role="TrG5h" value="zzz" />
        <node concept="17QB3L" id="7YtogOuuHA" role="1tU5fm" />
      </node>
      <node concept="1i9CHB" id="1ZhIZC18mK" role="2frcjj" />
    </node>
    <node concept="3clFb_" id="3jHFIlRwOp$" role="jymVt">
      <property role="TrG5h" value="arg" />
      <node concept="1i9CHB" id="3jHFIlRxHFm" role="2frcjj" />
      <node concept="17QB3L" id="3jHFIlRwOpA" role="3clF45" />
      <node concept="3Tm1VV" id="3jHFIlRwOpB" role="1B3o_S" />
      <node concept="3clFbS" id="3jHFIlRwOpC" role="3clF47">
        <node concept="3clFbF" id="3jHFIlRwOpD" role="3cqZAp">
          <node concept="Xl_RD" id="3jHFIlRwOpE" role="3clFbG">
            <property role="Xl_RC" value="arg2 new" />
          </node>
        </node>
      </node>
      <node concept="37vLTG" id="3jHFIlRwOpF" role="3clF46">
        <property role="TrG5h" value="x" />
        <node concept="3uibUv" id="3jHFIlRwOH8" role="1tU5fm">
          <ref role="3uigEE" node="20YUQaJiZEu" resolve="Arg2" />
        </node>
      </node>
      <node concept="2AHcQZ" id="3tYsUK_SeyY" role="2AJF6D">
        <ref role="2AI5Lk" to="wyt6:~Override" resolve="Override" />
      </node>
    </node>
    <node concept="3clFb_" id="20YUQaJkx9F" role="jymVt">
      <property role="TrG5h" value="arg" />
      <node concept="1i9CHB" id="3jHFIlRwOcP" role="2frcjj" />
      <node concept="17QB3L" id="20YUQaJky2t" role="3clF45" />
      <node concept="3Tm1VV" id="20YUQaJkx9H" role="1B3o_S" />
      <node concept="3clFbS" id="20YUQaJkx9I" role="3clF47">
        <node concept="3clFbF" id="20YUQaJky9g" role="3cqZAp">
          <node concept="Xl_RD" id="20YUQaJky9f" role="3clFbG">
            <property role="Xl_RC" value="arg4" />
          </node>
        </node>
      </node>
      <node concept="37vLTG" id="20YUQaJkxvp" role="3clF46">
        <property role="TrG5h" value="x" />
        <node concept="3uibUv" id="20YUQaJkxvo" role="1tU5fm">
          <ref role="3uigEE" node="20YUQaJiZXG" resolve="Arg4" />
        </node>
      </node>
    </node>
    <node concept="3clFb_" id="1ZhIZBT91u" role="jymVt">
      <property role="TrG5h" value="newDisp" />
      <node concept="3cqZAl" id="1ZhIZBT91v" role="3clF45" />
      <node concept="3Tm1VV" id="1ZhIZBT91w" role="1B3o_S" />
      <node concept="3clFbS" id="1ZhIZBT91x" role="3clF47" />
      <node concept="37vLTG" id="1ZhIZBTb4g" role="3clF46">
        <property role="TrG5h" value="a" />
        <node concept="3uibUv" id="1ZhIZBTb4f" role="1tU5fm">
          <ref role="3uigEE" to="wyt6:~Number" resolve="Number" />
        </node>
      </node>
      <node concept="1i9CHB" id="1ZhIZC111M" role="2frcjj" />
      <node concept="2AHcQZ" id="3tYsUK_SeyZ" role="2AJF6D">
        <ref role="2AI5Lk" to="wyt6:~Override" resolve="Override" />
      </node>
    </node>
    <node concept="3clFb_" id="2GLQwZOhjaQ" role="jymVt">
      <property role="TrG5h" value="newDisp" />
      <node concept="1i9CHB" id="1ZhIZBJarT" role="2frcjj" />
      <node concept="3cqZAl" id="2GLQwZOhjaR" role="3clF45" />
      <node concept="3Tm1VV" id="2GLQwZOhjaS" role="1B3o_S" />
      <node concept="3clFbS" id="2GLQwZOhjaT" role="3clF47" />
      <node concept="37vLTG" id="2GLQwZOhk2I" role="3clF46">
        <property role="TrG5h" value="x" />
        <node concept="3uibUv" id="2GLQwZOhk2H" role="1tU5fm">
          <ref role="3uigEE" to="wyt6:~Integer" resolve="Integer" />
        </node>
      </node>
    </node>
    <node concept="2YIFZL" id="20YUQaJKlAY" role="jymVt">
      <property role="TrG5h" value="stat" />
      <node concept="17QB3L" id="20YUQaJKlIb" role="3clF45" />
      <node concept="3Tm1VV" id="20YUQaJKlB0" role="1B3o_S" />
      <node concept="3clFbS" id="20YUQaJKlB1" role="3clF47">
        <node concept="3clFbF" id="20YUQaJKlS1" role="3cqZAp">
          <node concept="Xl_RD" id="20YUQaJKlS0" role="3clFbG">
            <property role="Xl_RC" value="arg4" />
          </node>
        </node>
      </node>
      <node concept="37vLTG" id="20YUQaJKlKl" role="3clF46">
        <property role="TrG5h" value="arg4" />
        <node concept="3uibUv" id="20YUQaJKlKk" role="1tU5fm">
          <ref role="3uigEE" node="20YUQaJiZXG" resolve="Arg4" />
        </node>
      </node>
    </node>
  </node>
  <node concept="312cEu" id="20YUQaJiZDX">
    <property role="TrG5h" value="Arg1" />
    <node concept="3Tm1VV" id="20YUQaJiZDY" role="1B3o_S" />
    <node concept="3clFbW" id="20YUQaJiZDZ" role="jymVt">
      <node concept="3cqZAl" id="20YUQaJiZE0" role="3clF45" />
      <node concept="3Tm1VV" id="20YUQaJiZE1" role="1B3o_S" />
      <node concept="3clFbS" id="20YUQaJiZE2" role="3clF47" />
    </node>
  </node>
  <node concept="312cEu" id="20YUQaJiZEu">
    <property role="TrG5h" value="Arg2" />
    <node concept="3Tm1VV" id="20YUQaJiZEv" role="1B3o_S" />
    <node concept="3uibUv" id="20YUQaJiZEG" role="1zkMxy">
      <ref role="3uigEE" node="20YUQaJiZDX" resolve="Arg1" />
    </node>
    <node concept="3clFbW" id="20YUQaJiZEw" role="jymVt">
      <node concept="3cqZAl" id="20YUQaJiZEx" role="3clF45" />
      <node concept="3Tm1VV" id="20YUQaJiZEy" role="1B3o_S" />
      <node concept="3clFbS" id="20YUQaJiZEz" role="3clF47" />
    </node>
  </node>
  <node concept="312cEu" id="20YUQaJiZX7">
    <property role="TrG5h" value="Arg3" />
    <node concept="3Tm1VV" id="20YUQaJiZX8" role="1B3o_S" />
    <node concept="3uibUv" id="20YUQaJiZXk" role="1zkMxy">
      <ref role="3uigEE" node="20YUQaJiZDX" resolve="Arg1" />
    </node>
    <node concept="3clFbW" id="20YUQaJiZX9" role="jymVt">
      <node concept="3cqZAl" id="20YUQaJiZXa" role="3clF45" />
      <node concept="3Tm1VV" id="20YUQaJiZXb" role="1B3o_S" />
      <node concept="3clFbS" id="20YUQaJiZXc" role="3clF47" />
    </node>
  </node>
  <node concept="312cEu" id="20YUQaJiZXG">
    <property role="TrG5h" value="Arg4" />
    <node concept="3Tm1VV" id="20YUQaJiZXH" role="1B3o_S" />
    <node concept="3uibUv" id="20YUQaJiZXU" role="1zkMxy">
      <ref role="3uigEE" node="20YUQaJiZEu" resolve="Arg2" />
    </node>
    <node concept="3clFbW" id="20YUQaJiZXI" role="jymVt">
      <node concept="3cqZAl" id="20YUQaJiZXJ" role="3clF45" />
      <node concept="3Tm1VV" id="20YUQaJiZXK" role="1B3o_S" />
      <node concept="3clFbS" id="20YUQaJiZXL" role="3clF47" />
    </node>
  </node>
  <node concept="312cEu" id="20YUQaJiZYi">
    <property role="TrG5h" value="Arg5" />
    <node concept="3Tm1VV" id="20YUQaJiZYj" role="1B3o_S" />
    <node concept="3uibUv" id="20YUQaJiZYv" role="1zkMxy">
      <ref role="3uigEE" node="20YUQaJiZXG" resolve="Arg4" />
    </node>
    <node concept="3clFbW" id="20YUQaJiZYk" role="jymVt">
      <node concept="3cqZAl" id="20YUQaJiZYl" role="3clF45" />
      <node concept="3Tm1VV" id="20YUQaJiZYm" role="1B3o_S" />
      <node concept="3clFbS" id="20YUQaJiZYn" role="3clF47" />
    </node>
  </node>
  <node concept="312cEu" id="1ZhIZC0Ywx">
    <property role="TrG5h" value="Further" />
    <node concept="3Tm1VV" id="1ZhIZC0Ywy" role="1B3o_S" />
    <node concept="3uibUv" id="1ZhIZC0YwW" role="1zkMxy">
      <ref role="3uigEE" node="7YtogOutSz" resolve="Descendant" />
    </node>
    <node concept="3clFbW" id="1ZhIZC0Ywz" role="jymVt">
      <node concept="3cqZAl" id="1ZhIZC0Yw$" role="3clF45" />
      <node concept="3Tm1VV" id="1ZhIZC0Yw_" role="1B3o_S" />
      <node concept="3clFbS" id="1ZhIZC0YwA" role="3clF47" />
    </node>
    <node concept="3clFb_" id="1ZhIZC0YM0" role="jymVt">
      <property role="1EzhhJ" value="false" />
      <property role="TrG5h" value="newDisp" />
      <node concept="3cqZAl" id="1ZhIZC0YM1" role="3clF45" />
      <node concept="3Tm1VV" id="1ZhIZC0YM2" role="1B3o_S" />
      <node concept="3clFbS" id="1ZhIZC0YM3" role="3clF47" />
      <node concept="37vLTG" id="1ZhIZC0YOT" role="3clF46">
        <property role="TrG5h" value="o" />
        <node concept="3uibUv" id="2JMw7nr$$2$" role="1tU5fm">
          <ref role="3uigEE" to="wyt6:~Integer" resolve="Integer" />
        </node>
      </node>
      <node concept="1i9CHB" id="2JMw7nryqZ9" role="2frcjj" />
      <node concept="2AHcQZ" id="3tYsUK_RX_Z" role="2AJF6D">
        <ref role="2AI5Lk" to="wyt6:~Override" resolve="Override" />
      </node>
    </node>
    <node concept="3clFb_" id="1ZhIZC11iq" role="jymVt">
      <property role="TrG5h" value="newDisp" />
      <node concept="1i9CHB" id="2JMw7nssWc5" role="2frcjj" />
      <node concept="3cqZAl" id="1ZhIZC11ir" role="3clF45" />
      <node concept="3Tm1VV" id="1ZhIZC11is" role="1B3o_S" />
      <node concept="3clFbS" id="1ZhIZC11it" role="3clF47" />
      <node concept="37vLTG" id="1ZhIZC11uf" role="3clF46">
        <property role="TrG5h" value="x" />
        <node concept="3uibUv" id="1ZhIZC11ue" role="1tU5fm">
          <ref role="3uigEE" to="wyt6:~Long" resolve="Long" />
        </node>
      </node>
      <node concept="37vLTG" id="2JMw7nsvkRC" role="3clF46">
        <property role="TrG5h" value="s" />
        <node concept="17QB3L" id="2JMw7nsvkU5" role="1tU5fm" />
      </node>
    </node>
    <node concept="3clFb_" id="3jHFIlR$RG7" role="jymVt">
      <property role="TrG5h" value="method" />
      <node concept="1i9CHB" id="3jHFIlR$RGi" role="2frcjj" />
      <node concept="3cqZAl" id="3jHFIlR$RG8" role="3clF45" />
      <node concept="3Tm1VV" id="3jHFIlR$RG9" role="1B3o_S" />
      <node concept="3clFbS" id="3jHFIlR$RGa" role="3clF47" />
      <node concept="37vLTG" id="3jHFIlR$RGH" role="3clF46">
        <property role="TrG5h" value="x" />
        <node concept="3uibUv" id="3jHFIlR$RGG" role="1tU5fm">
          <ref role="3uigEE" to="wyt6:~Integer" resolve="Integer" />
        </node>
      </node>
    </node>
    <node concept="3clFb_" id="3jHFIlR$RGP" role="jymVt">
      <property role="TrG5h" value="method" />
      <node concept="1i9CHB" id="3jHFIlR$RHg" role="2frcjj" />
      <node concept="3cqZAl" id="3jHFIlR$RGQ" role="3clF45" />
      <node concept="3Tm1VV" id="3jHFIlR$RGR" role="1B3o_S" />
      <node concept="3clFbS" id="3jHFIlR$RGS" role="3clF47" />
      <node concept="37vLTG" id="3jHFIlR$RH5" role="3clF46">
        <property role="TrG5h" value="x" />
        <node concept="3uibUv" id="3jHFIlR$RH4" role="1tU5fm">
          <ref role="3uigEE" to="wyt6:~Long" resolve="Long" />
        </node>
      </node>
      <node concept="37vLTG" id="3jHFIlR_8Zz" role="3clF46">
        <property role="TrG5h" value="s" />
        <node concept="17QB3L" id="3jHFIlR_91K" role="1tU5fm" />
      </node>
    </node>
    <node concept="2YIFZL" id="2JMw7nsEjnC" role="jymVt">
      <property role="TrG5h" value="newDispStat" />
      <node concept="1i9CHB" id="2JMw7nsFqa6" role="2frcjj" />
      <node concept="3cqZAl" id="2JMw7nsEjnD" role="3clF45" />
      <node concept="3Tm1VV" id="2JMw7nsEjnE" role="1B3o_S" />
      <node concept="3clFbS" id="2JMw7nsEjnF" role="3clF47" />
      <node concept="37vLTG" id="2JMw7nsFqiE" role="3clF46">
        <property role="TrG5h" value="s" />
        <node concept="3uibUv" id="2JMw7nsFutZ" role="1tU5fm">
          <ref role="3uigEE" to="wyt6:~Long" resolve="Long" />
        </node>
      </node>
    </node>
    <node concept="2YIFZL" id="2JMw7nsFqkB" role="jymVt">
      <property role="TrG5h" value="newDispStat" />
      <node concept="1i9CHB" id="2JMw7nsFqrO" role="2frcjj" />
      <node concept="3cqZAl" id="2JMw7nsFqkC" role="3clF45" />
      <node concept="3Tm1VV" id="2JMw7nsFqkD" role="1B3o_S" />
      <node concept="3clFbS" id="2JMw7nsFqkE" role="3clF47" />
      <node concept="37vLTG" id="2JMw7nsFqpO" role="3clF46">
        <property role="TrG5h" value="i" />
        <node concept="3uibUv" id="3jHFIlRwMUq" role="1tU5fm">
          <ref role="3uigEE" to="wyt6:~Number" resolve="Number" />
        </node>
      </node>
    </node>
  </node>
</model>

