<?xml version="1.0" encoding="UTF-8"?>
<model ref="r:51ee90e3-321c-4b31-b533-034ac07e9fcf(jetbrains.mps.baseLanguage.varVariable.generator.template.main@generator)">
  <persistence version="9" />
  <languages>
    <use id="b401a680-8325-4110-8fd3-84331ff25bef" name="jetbrains.mps.lang.generator" version="0" />
    <use id="7a5dda62-9140-4668-ab76-d5ed1746f2b2" name="jetbrains.mps.lang.typesystem" version="0" />
    <devkit ref="fbc25dd2-5da4-483a-8b19-70928e1b62d7(jetbrains.mps.devkit.general-purpose)" />
  </languages>
  <imports>
    <import index="dvap" ref="r:931e38db-856b-4b95-8ae0-a7cd13da6d32(jetbrains.mps.baseLanguage.varVariable.structure)" />
    <import index="tpee" ref="r:00000000-0000-4000-0000-011c895902ca(jetbrains.mps.baseLanguage.structure)" implicit="true" />
    <import index="tpck" ref="r:00000000-0000-4000-0000-011c89590288(jetbrains.mps.lang.core.structure)" implicit="true" />
  </imports>
  <registry>
    <language id="f3061a53-9226-4cc5-a443-f952ceaf5816" name="jetbrains.mps.baseLanguage">
      <concept id="1197027756228" name="jetbrains.mps.baseLanguage.structure.DotExpression" flags="nn" index="2OqwBi">
        <child id="1197027771414" name="operand" index="2Oq$k0" />
        <child id="1197027833540" name="operation" index="2OqNvi" />
      </concept>
      <concept id="1137021947720" name="jetbrains.mps.baseLanguage.structure.ConceptFunction" flags="in" index="2VMwT0">
        <child id="1137022507850" name="body" index="2VODD2" />
      </concept>
      <concept id="1070534370425" name="jetbrains.mps.baseLanguage.structure.IntegerType" flags="in" index="10Oyi0" />
      <concept id="1068431474542" name="jetbrains.mps.baseLanguage.structure.VariableDeclaration" flags="ng" index="33uBYm">
        <child id="1068431790190" name="initializer" index="33vP2m" />
      </concept>
      <concept id="4972933694980447171" name="jetbrains.mps.baseLanguage.structure.BaseVariableDeclaration" flags="ng" index="19Szcq">
        <child id="5680397130376446158" name="type" index="1tU5fm" />
      </concept>
      <concept id="1068580123155" name="jetbrains.mps.baseLanguage.structure.ExpressionStatement" flags="nn" index="3clFbF">
        <child id="1068580123156" name="expression" index="3clFbG" />
      </concept>
      <concept id="1068580123136" name="jetbrains.mps.baseLanguage.structure.StatementList" flags="sn" stub="5293379017992965193" index="3clFbS">
        <child id="1068581517665" name="statement" index="3cqZAp" />
      </concept>
      <concept id="1068580320020" name="jetbrains.mps.baseLanguage.structure.IntegerConstant" flags="nn" index="3cmrfG">
        <property id="1068580320021" name="value" index="3cmrfH" />
      </concept>
      <concept id="1068581242864" name="jetbrains.mps.baseLanguage.structure.LocalVariableDeclarationStatement" flags="nn" index="3cpWs8">
        <child id="1068581242865" name="localVariableDeclaration" index="3cpWs9" />
      </concept>
      <concept id="1068581242863" name="jetbrains.mps.baseLanguage.structure.LocalVariableDeclaration" flags="nr" index="3cpWsn" />
    </language>
    <language id="b401a680-8325-4110-8fd3-84331ff25bef" name="jetbrains.mps.lang.generator">
      <concept id="1114706874351" name="jetbrains.mps.lang.generator.structure.CopySrcNodeMacro" flags="ln" index="29HgVG">
        <child id="1168024447342" name="sourceNodeQuery" index="3NFExx" />
      </concept>
      <concept id="1095416546421" name="jetbrains.mps.lang.generator.structure.MappingConfiguration" flags="ig" index="bUwia">
        <child id="1167328349397" name="reductionMappingRule" index="3acgRq" />
      </concept>
      <concept id="1095672379244" name="jetbrains.mps.lang.generator.structure.TemplateFragment" flags="ng" index="raruj" />
      <concept id="1167169188348" name="jetbrains.mps.lang.generator.structure.TemplateFunctionParameter_sourceNode" flags="nn" index="30H73N" />
      <concept id="1167169308231" name="jetbrains.mps.lang.generator.structure.BaseMappingRule" flags="ng" index="30H$t8">
        <reference id="1167169349424" name="applicableConcept" index="30HIoZ" />
      </concept>
      <concept id="1087833241328" name="jetbrains.mps.lang.generator.structure.PropertyMacro" flags="ln" index="17Uvod">
        <child id="1167756362303" name="propertyValueFunction" index="3zH0cK" />
      </concept>
      <concept id="1167327847730" name="jetbrains.mps.lang.generator.structure.Reduction_MappingRule" flags="lg" index="3aamgX">
        <child id="1169672767469" name="ruleConsequence" index="1lVwrX" />
      </concept>
      <concept id="1167756080639" name="jetbrains.mps.lang.generator.structure.PropertyMacro_GetPropertyValue" flags="in" index="3zFVjK" />
      <concept id="8900764248744213868" name="jetbrains.mps.lang.generator.structure.InlineTemplateWithContext_RuleConsequence" flags="lg" index="1Koe21">
        <child id="8900764248744213871" name="contentNode" index="1Koe22" />
      </concept>
      <concept id="1168024337012" name="jetbrains.mps.lang.generator.structure.SourceSubstituteMacro_SourceNodeQuery" flags="in" index="3NFfHV" />
    </language>
    <language id="7a5dda62-9140-4668-ab76-d5ed1746f2b2" name="jetbrains.mps.lang.typesystem">
      <concept id="1176544042499" name="jetbrains.mps.lang.typesystem.structure.Node_TypeOperation" flags="nn" index="3JvlWi" />
    </language>
    <language id="7866978e-a0f0-4cc7-81bc-4d213d9375e1" name="jetbrains.mps.lang.smodel">
      <concept id="1138056022639" name="jetbrains.mps.lang.smodel.structure.SPropertyAccess" flags="nn" index="3TrcHB">
        <reference id="1138056395725" name="property" index="3TsBF5" />
      </concept>
      <concept id="1138056143562" name="jetbrains.mps.lang.smodel.structure.SLinkAccess" flags="nn" index="3TrEf2">
        <reference id="1138056516764" name="link" index="3Tt5mk" />
      </concept>
    </language>
    <language id="ceab5195-25ea-4f22-9b92-103b95ca8c0c" name="jetbrains.mps.lang.core">
      <concept id="1133920641626" name="jetbrains.mps.lang.core.structure.BaseConcept" flags="ng" index="2VYdi">
        <child id="5169995583184591170" name="smodelAttribute" index="lGtFl" />
      </concept>
      <concept id="3364660638048049750" name="jetbrains.mps.lang.core.structure.PropertyAttribute" flags="ng" index="A9Btg">
        <property id="1757699476691236117" name="propertyName" index="2qtEX9" />
        <property id="1341860900487648621" name="propertyId" index="P4ACc" />
      </concept>
      <concept id="1169194658468" name="jetbrains.mps.lang.core.structure.INamedConcept" flags="ng" index="TrEIO">
        <property id="1169194664001" name="name" index="TrG5h" />
      </concept>
    </language>
  </registry>
  <node concept="bUwia" id="6ZQeJ8QF8To">
    <property role="TrG5h" value="main" />
    <node concept="3aamgX" id="7jH_x$qyE6C" role="3acgRq">
      <ref role="30HIoZ" to="dvap:hZKEzqp" resolve="VarVariableDeclaration" />
      <node concept="1Koe21" id="7jH_x$qzhdA" role="1lVwrX">
        <node concept="3cpWs8" id="7jH_x$qzhdE" role="1Koe22">
          <node concept="3cpWsn" id="7jH_x$qzhdF" role="3cpWs9">
            <property role="TrG5h" value="n" />
            <node concept="10Oyi0" id="7jH_x$qzhdI" role="1tU5fm">
              <node concept="29HgVG" id="7jH_x$qzhdM" role="lGtFl">
                <node concept="3NFfHV" id="7jH_x$qzhdP" role="3NFExx">
                  <node concept="3clFbS" id="7jH_x$qzhdQ" role="2VODD2">
                    <node concept="3clFbF" id="7jH_x$qzxFp" role="3cqZAp">
                      <node concept="2OqwBi" id="7jH_x$qzxFt" role="3clFbG">
                        <node concept="30H73N" id="7jH_x$qzxFq" role="2Oq$k0" />
                        <node concept="3JvlWi" id="7jH_x$qzxFz" role="2OqNvi" />
                      </node>
                    </node>
                  </node>
                </node>
              </node>
            </node>
            <node concept="3cmrfG" id="7jH_x$qzhdJ" role="33vP2m">
              <property role="3cmrfH" value="5" />
              <node concept="29HgVG" id="7jH_x$qzhei" role="lGtFl">
                <node concept="3NFfHV" id="7jH_x$qzhel" role="3NFExx">
                  <node concept="3clFbS" id="7jH_x$qzhem" role="2VODD2">
                    <node concept="3clFbF" id="7jH_x$qzhen" role="3cqZAp">
                      <node concept="2OqwBi" id="7jH_x$qzheo" role="3clFbG">
                        <node concept="3TrEf2" id="7jH_x$qzhep" role="2OqNvi">
                          <ref role="3Tt5mk" to="tpee:fz3vP1I" />
                        </node>
                        <node concept="30H73N" id="7jH_x$qzheq" role="2Oq$k0" />
                      </node>
                    </node>
                  </node>
                </node>
              </node>
            </node>
            <node concept="raruj" id="7jH_x$qzhdK" role="lGtFl" />
            <node concept="17Uvod" id="7jH_x$qzhe8" role="lGtFl">
              <property role="2qtEX9" value="name" />
              <property role="P4ACc" value="ceab5195-25ea-4f22-9b92-103b95ca8c0c/1169194658468/1169194664001" />
              <node concept="3zFVjK" id="7jH_x$qzheb" role="3zH0cK">
                <node concept="3clFbS" id="7jH_x$qzhec" role="2VODD2">
                  <node concept="3clFbF" id="7jH_x$qzhed" role="3cqZAp">
                    <node concept="2OqwBi" id="7jH_x$qzhee" role="3clFbG">
                      <node concept="3TrcHB" id="7jH_x$qzhef" role="2OqNvi">
                        <ref role="3TsBF5" to="tpck:h0TrG11" resolve="name" />
                      </node>
                      <node concept="30H73N" id="7jH_x$qzheg" role="2Oq$k0" />
                    </node>
                  </node>
                </node>
              </node>
            </node>
          </node>
        </node>
      </node>
    </node>
  </node>
</model>

