<?xml version="1.0" encoding="UTF-8"?>
<model ref="r:23f35b02-dac4-4306-a68c-5205dc045185(jetbrains.mps.lang.editor.menus.testMetaLanguage.generator.template.main@generator)">
  <persistence version="9" />
  <languages>
    <use id="69068b7c-ba1f-47fb-a486-4981f42606e9" name="jetbrains.mps.lang.editor.menus.testMetaLanguage" version="-1" />
    <use id="b401a680-8325-4110-8fd3-84331ff25bef" name="jetbrains.mps.lang.generator" version="0" />
    <use id="ceab5195-25ea-4f22-9b92-103b95ca8c0c" name="jetbrains.mps.lang.core" version="1" />
    <use id="d7706f63-9be2-479c-a3da-ae92af1e64d5" name="jetbrains.mps.lang.generator.generationContext" version="0" />
    <use id="f3061a53-9226-4cc5-a443-f952ceaf5816" name="jetbrains.mps.baseLanguage" version="4" />
    <use id="83888646-71ce-4f1c-9c53-c54016f6ad4f" name="jetbrains.mps.baseLanguage.collections" version="0" />
    <devkit ref="fbc25dd2-5da4-483a-8b19-70928e1b62d7(jetbrains.mps.devkit.general-purpose)" />
  </languages>
  <imports>
    <import index="tpc3" ref="r:00000000-0000-4000-0000-011c8959029f(jetbrains.mps.lang.editor.generator.baseLanguage.template.main@generator)" />
    <import index="ue84" ref="r:72a1f653-d94c-4c5e-9b1c-92f598e4fc7c(jetbrains.mps.lang.editor.menus.testMetaLanguage.structure)" />
  </imports>
  <registry>
    <language id="f3061a53-9226-4cc5-a443-f952ceaf5816" name="jetbrains.mps.baseLanguage">
      <concept id="1070475926800" name="jetbrains.mps.baseLanguage.structure.StringLiteral" flags="nn" index="Xl_RD">
        <property id="1070475926801" name="value" index="Xl_RC" />
      </concept>
    </language>
    <language id="b401a680-8325-4110-8fd3-84331ff25bef" name="jetbrains.mps.lang.generator">
      <concept id="1095416546421" name="jetbrains.mps.lang.generator.structure.MappingConfiguration" flags="ig" index="bUwia" />
      <concept id="1177093525992" name="jetbrains.mps.lang.generator.structure.InlineTemplate_RuleConsequence" flags="lg" index="gft3U">
        <child id="1177093586806" name="templateNode" index="gfFT$" />
      </concept>
      <concept id="1112730859144" name="jetbrains.mps.lang.generator.structure.TemplateSwitch" flags="ig" index="jVnub">
        <reference id="1112820671508" name="modifiedSwitch" index="phYkn" />
        <child id="1167340453568" name="reductionMappingRule" index="3aUrZf" />
      </concept>
      <concept id="1167169308231" name="jetbrains.mps.lang.generator.structure.BaseMappingRule" flags="ng" index="30H$t8">
        <property id="1167272244852" name="applyToConceptInheritors" index="36QftV" />
        <reference id="1167169349424" name="applicableConcept" index="30HIoZ" />
      </concept>
      <concept id="1167327847730" name="jetbrains.mps.lang.generator.structure.Reduction_MappingRule" flags="lg" index="3aamgX">
        <child id="1169672767469" name="ruleConsequence" index="1lVwrX" />
      </concept>
    </language>
    <language id="ceab5195-25ea-4f22-9b92-103b95ca8c0c" name="jetbrains.mps.lang.core">
      <concept id="1169194658468" name="jetbrains.mps.lang.core.structure.INamedConcept" flags="ng" index="TrEIO">
        <property id="1169194664001" name="name" index="TrG5h" />
      </concept>
    </language>
  </registry>
  <node concept="bUwia" id="2X_LC_COVVa">
    <property role="TrG5h" value="main" />
  </node>
  <node concept="jVnub" id="5_kqtpAy5$t">
    <property role="TrG5h" value="switch_TransformationLocation_asExpressions" />
    <ref role="phYkn" to="tpc3:3EZUZhmTWq7" resolve="switch_TransformationLocation_asExpressions" />
    <node concept="3aamgX" id="5_kqtpAy5E5" role="3aUrZf">
      <property role="36QftV" value="true" />
      <ref role="30HIoZ" to="ue84:5_kqtpAy1uy" resolve="TransformationLocation_Test" />
      <node concept="gft3U" id="5_kqtpAy5E9" role="1lVwrX">
        <node concept="Xl_RD" id="5_kqtpAy6xM" role="gfFT$">
          <property role="Xl_RC" value="test location" />
        </node>
      </node>
    </node>
  </node>
</model>

