<?xml version="1.0" encoding="UTF-8"?>
<model ref="r:0944faf1-7722-484f-9a37-701b1951c563(jetbrains.mps.baseLanguage.varVariable.constraints)">
  <persistence version="9" />
  <languages>
    <use id="515552c7-fcc0-4ab4-9789-2f3c49344e85" name="jetbrains.mps.baseLanguage.varVariable" version="0" />
    <use id="3f4bc5f5-c6c1-4a28-8b10-c83066ffa4a1" name="jetbrains.mps.lang.constraints" version="0" />
    <devkit ref="fbc25dd2-5da4-483a-8b19-70928e1b62d7(jetbrains.mps.devkit.general-purpose)" />
  </languages>
  <imports>
    <import index="dvap" ref="r:931e38db-856b-4b95-8ae0-a7cd13da6d32(jetbrains.mps.baseLanguage.varVariable.structure)" />
  </imports>
  <registry />
</model>

