<?xml version="1.0" encoding="UTF-8"?>
<model ref="r:04eb0d47-e25d-4def-b754-199026c42388(jetbrains.mps.baseLanguage.varVariable.dataFlow)">
  <persistence version="9" />
  <languages>
    <use id="515552c7-fcc0-4ab4-9789-2f3c49344e85" name="jetbrains.mps.baseLanguage.varVariable" version="0" />
    <use id="7fa12e9c-b949-4976-b4fa-19accbc320b4" name="jetbrains.mps.lang.dataFlow" version="0" />
    <devkit ref="fbc25dd2-5da4-483a-8b19-70928e1b62d7(jetbrains.mps.devkit.general-purpose)" />
  </languages>
  <imports>
    <import index="dvap" ref="r:931e38db-856b-4b95-8ae0-a7cd13da6d32(jetbrains.mps.baseLanguage.varVariable.structure)" />
    <import index="tpee" ref="r:00000000-0000-4000-0000-011c895902ca(jetbrains.mps.baseLanguage.structure)" implicit="true" />
  </imports>
  <registry>
    <language id="f3061a53-9226-4cc5-a443-f952ceaf5816" name="jetbrains.mps.baseLanguage">
      <concept id="1197027756228" name="jetbrains.mps.baseLanguage.structure.DotExpression" flags="nn" index="2OqwBi">
        <child id="1197027771414" name="operand" index="2Oq$k0" />
        <child id="1197027833540" name="operation" index="2OqNvi" />
      </concept>
      <concept id="1137021947720" name="jetbrains.mps.baseLanguage.structure.ConceptFunction" flags="in" index="2VMwT0">
        <child id="1137022507850" name="body" index="2VODD2" />
      </concept>
      <concept id="1068580123136" name="jetbrains.mps.baseLanguage.structure.StatementList" flags="sn" stub="5293379017992965193" index="3clFbS">
        <child id="1068581517665" name="statement" index="3cqZAp" />
      </concept>
    </language>
    <language id="7fa12e9c-b949-4976-b4fa-19accbc320b4" name="jetbrains.mps.lang.dataFlow">
      <concept id="1206442055221" name="jetbrains.mps.lang.dataFlow.structure.DataFlowBuilderDeclaration" flags="ig" index="3_zdsH">
        <reference id="1206442096288" name="conceptDeclaration" index="3_znuS" />
        <child id="1206442812839" name="builderBlock" index="3_A6iZ" />
      </concept>
      <concept id="1206442659665" name="jetbrains.mps.lang.dataFlow.structure.BuilderBlock" flags="in" index="3__wT9" />
      <concept id="1206442747519" name="jetbrains.mps.lang.dataFlow.structure.NodeParameter" flags="nn" index="3__QtB" />
      <concept id="1206443660532" name="jetbrains.mps.lang.dataFlow.structure.EmitNopStatement" flags="nn" index="3_DlnG" />
      <concept id="1206444349662" name="jetbrains.mps.lang.dataFlow.structure.EmitWriteStatement" flags="nn" index="3_FXB6">
        <child id="1230468250683" name="value" index="1XBRO_" />
      </concept>
      <concept id="1206444622344" name="jetbrains.mps.lang.dataFlow.structure.BaseEmitVariableStatement" flags="nn" index="3_H0cg">
        <child id="1206444629799" name="variable" index="3_H1SZ" />
      </concept>
      <concept id="1206454052847" name="jetbrains.mps.lang.dataFlow.structure.EmitCodeForStatement" flags="nn" index="3AgYrR">
        <child id="1206454079161" name="codeFor" index="3Ah4Yx" />
      </concept>
    </language>
    <language id="7866978e-a0f0-4cc7-81bc-4d213d9375e1" name="jetbrains.mps.lang.smodel">
      <concept id="1138056143562" name="jetbrains.mps.lang.smodel.structure.SLinkAccess" flags="nn" index="3TrEf2">
        <reference id="1138056516764" name="link" index="3Tt5mk" />
      </concept>
    </language>
  </registry>
  <node concept="3_zdsH" id="6ZQeJ8QF3h4">
    <ref role="3_znuS" to="dvap:hZKEzqp" resolve="VarVariableDeclaration" />
    <node concept="3__wT9" id="6ZQeJ8QF3h5" role="3_A6iZ">
      <node concept="3clFbS" id="6ZQeJ8QF3h6" role="2VODD2">
        <node concept="3_DlnG" id="h$6efSm" role="3cqZAp" />
        <node concept="3AgYrR" id="6ZQeJ8QF3hl" role="3cqZAp">
          <node concept="2OqwBi" id="6ZQeJ8QF3hq" role="3Ah4Yx">
            <node concept="3__QtB" id="6ZQeJ8QF3hn" role="2Oq$k0" />
            <node concept="3TrEf2" id="6ZQeJ8QF88U" role="2OqNvi">
              <ref role="3Tt5mk" to="tpee:fz3vP1I" />
            </node>
          </node>
        </node>
        <node concept="3_FXB6" id="6ZQeJ8QF3hy" role="3cqZAp">
          <node concept="3__QtB" id="6ZQeJ8QF3h$" role="3_H1SZ" />
          <node concept="2OqwBi" id="6ZQeJ8QF3hE" role="1XBRO_">
            <node concept="3__QtB" id="6ZQeJ8QF3hB" role="2Oq$k0" />
            <node concept="3TrEf2" id="6ZQeJ8QF88X" role="2OqNvi">
              <ref role="3Tt5mk" to="tpee:fz3vP1I" />
            </node>
          </node>
        </node>
      </node>
    </node>
  </node>
</model>

