<?xml version="1.0" encoding="UTF-8"?>
<model ref="r:00000000-0000-4000-0000-011c895902cc(jetbrains.mps.baseLanguage.generator.java.conceptFunctionDefaults@generator)">
  <persistence version="9" />
  <languages>
    <use id="df345b11-b8c7-4213-ac66-48d2a9b75d88" name="jetbrains.mps.baseLanguageInternal" version="0" />
    <use id="b401a680-8325-4110-8fd3-84331ff25bef" name="jetbrains.mps.lang.generator" version="0" />
    <use id="7866978e-a0f0-4cc7-81bc-4d213d9375e1" name="jetbrains.mps.lang.smodel" version="4" />
    <use id="f3061a53-9226-4cc5-a443-f952ceaf5816" name="jetbrains.mps.baseLanguage" version="4" />
    <devkit ref="fbc25dd2-5da4-483a-8b19-70928e1b62d7(jetbrains.mps.devkit.general-purpose)" />
  </languages>
  <imports>
    <import index="tpee" ref="r:00000000-0000-4000-0000-011c895902ca(jetbrains.mps.baseLanguage.structure)" />
    <import index="tpck" ref="r:00000000-0000-4000-0000-011c89590288(jetbrains.mps.lang.core.structure)" />
    <import index="tpek" ref="r:00000000-0000-4000-0000-011c895902c0(jetbrains.mps.baseLanguage.behavior)" />
    <import index="wyt6" ref="6354ebe7-c22a-4a0f-ac54-50b52ab9b065/java:java.lang(JDK/)" />
    <import index="18ew" ref="6ed54515-acc8-4d1e-a16c-9fd6cfe951ea/java:jetbrains.mps.util(MPS.Core/)" />
    <import index="guwi" ref="6354ebe7-c22a-4a0f-ac54-50b52ab9b065/java:java.io(JDK/)" />
  </imports>
  <registry>
    <language id="f3061a53-9226-4cc5-a443-f952ceaf5816" name="jetbrains.mps.baseLanguage">
      <concept id="1202948039474" name="jetbrains.mps.baseLanguage.structure.InstanceMethodCallOperation" flags="nn" index="liA8E" />
      <concept id="1197027756228" name="jetbrains.mps.baseLanguage.structure.DotExpression" flags="nn" index="2OqwBi">
        <child id="1197027771414" name="operand" index="2Oq$k0" />
        <child id="1197027833540" name="operation" index="2OqNvi" />
      </concept>
      <concept id="1137021947720" name="jetbrains.mps.baseLanguage.structure.ConceptFunction" flags="in" index="2VMwT0">
        <child id="1137022507850" name="body" index="2VODD2" />
      </concept>
      <concept id="1070475926800" name="jetbrains.mps.baseLanguage.structure.StringLiteral" flags="nn" index="Xl_RD">
        <property id="1070475926801" name="value" index="Xl_RC" />
      </concept>
      <concept id="1081236700937" name="jetbrains.mps.baseLanguage.structure.StaticMethodCall" flags="nn" index="2YIFZM">
        <reference id="1144433194310" name="classConcept" index="1Pybhc" />
      </concept>
      <concept id="1070533707846" name="jetbrains.mps.baseLanguage.structure.StaticFieldReference" flags="nn" index="10M0yZ">
        <reference id="1144433057691" name="classifier" index="1PxDUh" />
      </concept>
      <concept id="1068498886296" name="jetbrains.mps.baseLanguage.structure.VariableReference" flags="nn" index="37vLTw">
        <reference id="1068581517664" name="variableDeclaration" index="3cqZAo" />
      </concept>
      <concept id="1068498886292" name="jetbrains.mps.baseLanguage.structure.ParameterDeclaration" flags="ir" index="37vLTG" />
      <concept id="4972933694980447171" name="jetbrains.mps.baseLanguage.structure.BaseVariableDeclaration" flags="ng" index="19Szcq">
        <child id="5680397130376446158" name="type" index="1tU5fm" />
      </concept>
      <concept id="1068580123132" name="jetbrains.mps.baseLanguage.structure.BaseMethodDeclaration" flags="ng" index="3clF44">
        <child id="1068580123133" name="returnType" index="3clF45" />
        <child id="1068580123134" name="parameter" index="3clF46" />
        <child id="1068580123135" name="body" index="3clF47" />
      </concept>
      <concept id="1068580123165" name="jetbrains.mps.baseLanguage.structure.InstanceMethodDeclaration" flags="ig" index="3clFb_" />
      <concept id="1068580123155" name="jetbrains.mps.baseLanguage.structure.ExpressionStatement" flags="nn" index="3clFbF">
        <child id="1068580123156" name="expression" index="3clFbG" />
      </concept>
      <concept id="1068580123136" name="jetbrains.mps.baseLanguage.structure.StatementList" flags="sn" stub="5293379017992965193" index="3clFbS">
        <child id="1068581517665" name="statement" index="3cqZAp" />
      </concept>
      <concept id="1068581517677" name="jetbrains.mps.baseLanguage.structure.VoidType" flags="in" index="3cqZAl" />
      <concept id="1081516740877" name="jetbrains.mps.baseLanguage.structure.NotExpression" flags="nn" index="3fqX7Q">
        <child id="1081516765348" name="expression" index="3fr31v" />
      </concept>
      <concept id="1204053956946" name="jetbrains.mps.baseLanguage.structure.IMethodCall" flags="ng" index="1ndlxa">
        <reference id="1068499141037" name="baseMethodDeclaration" index="37wK5l" />
        <child id="1068499141038" name="actualArgument" index="37wK5m" />
      </concept>
      <concept id="1107535904670" name="jetbrains.mps.baseLanguage.structure.ClassifierType" flags="in" index="3uibUv">
        <reference id="1107535924139" name="classifier" index="3uigEE" />
      </concept>
      <concept id="1178549954367" name="jetbrains.mps.baseLanguage.structure.IVisible" flags="ng" index="1B3ioH">
        <child id="1178549979242" name="visibility" index="1B3o_S" />
      </concept>
      <concept id="1146644602865" name="jetbrains.mps.baseLanguage.structure.PublicVisibility" flags="nn" index="3Tm1VV" />
    </language>
    <language id="b401a680-8325-4110-8fd3-84331ff25bef" name="jetbrains.mps.lang.generator">
      <concept id="1177093525992" name="jetbrains.mps.lang.generator.structure.InlineTemplate_RuleConsequence" flags="lg" index="gft3U">
        <child id="1177093586806" name="templateNode" index="gfFT$" />
      </concept>
      <concept id="1095672379244" name="jetbrains.mps.lang.generator.structure.TemplateFragment" flags="ng" index="raruj" />
      <concept id="1167169188348" name="jetbrains.mps.lang.generator.structure.TemplateFunctionParameter_sourceNode" flags="nn" index="30H73N" />
      <concept id="1092059087312" name="jetbrains.mps.lang.generator.structure.TemplateDeclaration" flags="ig" index="13MO4I">
        <reference id="1168285871518" name="applicableConcept" index="3gUMe" />
        <child id="1092060348987" name="contentNode" index="13RCb5" />
      </concept>
      <concept id="1087833241328" name="jetbrains.mps.lang.generator.structure.PropertyMacro" flags="ln" index="17Uvod">
        <child id="1167756362303" name="propertyValueFunction" index="3zH0cK" />
      </concept>
      <concept id="1167756080639" name="jetbrains.mps.lang.generator.structure.PropertyMacro_GetPropertyValue" flags="in" index="3zFVjK" />
      <concept id="1167770111131" name="jetbrains.mps.lang.generator.structure.ReferenceMacro_GetReferent" flags="in" index="3$xsQk" />
      <concept id="1167945743726" name="jetbrains.mps.lang.generator.structure.IfMacro_Condition" flags="in" index="3IZrLx" />
      <concept id="1118773211870" name="jetbrains.mps.lang.generator.structure.IfMacro" flags="ln" index="1W57fq">
        <child id="1194989344771" name="alternativeConsequence" index="UU_$l" />
        <child id="1167945861827" name="conditionFunction" index="3IZSJc" />
      </concept>
      <concept id="1088761943574" name="jetbrains.mps.lang.generator.structure.ReferenceMacro" flags="ln" index="1ZhdrF">
        <child id="1167770376702" name="referentFunction" index="3$ytzL" />
      </concept>
    </language>
    <language id="df345b11-b8c7-4213-ac66-48d2a9b75d88" name="jetbrains.mps.baseLanguageInternal">
      <concept id="1174294166120" name="jetbrains.mps.baseLanguageInternal.structure.InternalPartialInstanceMethodCall" flags="nn" index="1DoJHT">
        <property id="1174294288199" name="methodName" index="1Dpdpm" />
        <child id="1174313653259" name="returnType" index="1Ez5kq" />
        <child id="1174317636233" name="instance" index="1EMhIo" />
      </concept>
    </language>
    <language id="7866978e-a0f0-4cc7-81bc-4d213d9375e1" name="jetbrains.mps.lang.smodel">
      <concept id="1179409122411" name="jetbrains.mps.lang.smodel.structure.Node_ConceptMethodCall" flags="nn" index="2qgKlT" />
      <concept id="7453996997717780434" name="jetbrains.mps.lang.smodel.structure.Node_GetSConceptOperation" flags="nn" index="2yIwOk" />
      <concept id="6870613620390542976" name="jetbrains.mps.lang.smodel.structure.ConceptAliasOperation" flags="ng" index="3n3YKJ" />
    </language>
    <language id="ceab5195-25ea-4f22-9b92-103b95ca8c0c" name="jetbrains.mps.lang.core">
      <concept id="1133920641626" name="jetbrains.mps.lang.core.structure.BaseConcept" flags="ng" index="2VYdi">
        <property id="1193676396447" name="virtualPackage" index="3GE5qa" />
        <child id="5169995583184591170" name="smodelAttribute" index="lGtFl" />
      </concept>
      <concept id="3364660638048049750" name="jetbrains.mps.lang.core.structure.PropertyAttribute" flags="ng" index="A9Btg">
        <property id="1757699476691236117" name="propertyName" index="2qtEX9" />
        <property id="1341860900487648621" name="propertyId" index="P4ACc" />
      </concept>
      <concept id="3364660638048049745" name="jetbrains.mps.lang.core.structure.LinkAttribute" flags="ng" index="A9Btn">
        <property id="1757699476691236116" name="linkRole" index="2qtEX8" />
        <property id="1341860900488019036" name="linkId" index="P3scX" />
      </concept>
      <concept id="1169194658468" name="jetbrains.mps.lang.core.structure.INamedConcept" flags="ng" index="TrEIO">
        <property id="1169194664001" name="name" index="TrG5h" />
      </concept>
    </language>
  </registry>
  <node concept="13MO4I" id="gCCYkhx">
    <property role="TrG5h" value="reduce_ConceptFunctionParameter_default" />
    <property role="3GE5qa" value="ext.conceptFunction" />
    <ref role="3gUMe" to="tpee:g76ryKb" resolve="ConceptFunctionParameter" />
    <node concept="3clFb_" id="gCCYkhy" role="13RCb5">
      <property role="TrG5h" value="_context_method_" />
      <node concept="3cqZAl" id="gCCYkhz" role="3clF45" />
      <node concept="3clFbS" id="gCCYkh$" role="3clF47">
        <node concept="3clFbF" id="4D3RMlPNfXK" role="3cqZAp">
          <node concept="2OqwBi" id="4D3RMlPNgd9" role="3clFbG">
            <node concept="10M0yZ" id="4D3RMlPNfXL" role="2Oq$k0">
              <ref role="1PxDUh" to="wyt6:~System" resolve="System" />
              <ref role="3cqZAo" to="wyt6:~System.out" resolve="out" />
            </node>
            <node concept="liA8E" id="4D3RMlPNgdd" role="2OqNvi">
              <ref role="37wK5l" to="guwi:~PrintStream.println(java.lang.Object):void" resolve="println" />
              <node concept="37vLTw" id="2BHiRxgm_vd" role="37wK5m">
                <ref role="3cqZAo" node="gCCYkhD" resolve="_parameter_" />
                <node concept="1ZhdrF" id="gCCYkhC" role="lGtFl">
                  <property role="2qtEX8" value="variableDeclaration" />
                  <property role="P3scX" value="f3061a53-9226-4cc5-a443-f952ceaf5816/1068498886296/1068581517664" />
                  <node concept="3$xsQk" id="h1YqihQ" role="3$ytzL">
                    <node concept="3clFbS" id="h1YqihR" role="2VODD2">
                      <node concept="3clFbF" id="hGRJV$o" role="3cqZAp">
                        <node concept="2OqwBi" id="2wdLO7Kg5zr" role="3clFbG">
                          <node concept="3n3YKJ" id="Z_z4A28ufP" role="2OqNvi" />
                          <node concept="2OqwBi" id="2wdLO7Kg5zt" role="2Oq$k0">
                            <node concept="2yIwOk" id="Z_z4A28u6u" role="2OqNvi" />
                            <node concept="30H73N" id="2wdLO7Kg5zv" role="2Oq$k0" />
                          </node>
                        </node>
                      </node>
                    </node>
                  </node>
                </node>
                <node concept="raruj" id="gCCYkhB" role="lGtFl" />
                <node concept="1W57fq" id="htunzEO" role="lGtFl">
                  <node concept="3IZrLx" id="htunzEP" role="3IZSJc">
                    <node concept="3clFbS" id="htunzEQ" role="2VODD2">
                      <node concept="3clFbF" id="htun_ee" role="3cqZAp">
                        <node concept="3fqX7Q" id="htuO1nW" role="3clFbG">
                          <node concept="2OqwBi" id="hxiHJ29" role="3fr31v">
                            <node concept="30H73N" id="htuO1nY" role="2Oq$k0" />
                            <node concept="2qgKlT" id="htuO1nZ" role="2OqNvi">
                              <ref role="37wK5l" to="tpek:hEwJh7s" resolve="getFromParameterObject" />
                            </node>
                          </node>
                        </node>
                      </node>
                    </node>
                  </node>
                  <node concept="gft3U" id="htunC_H" role="UU_$l">
                    <node concept="1DoJHT" id="htupesf" role="gfFT$">
                      <property role="1Dpdpm" value="getXYZ" />
                      <node concept="3uibUv" id="htuphsG" role="1Ez5kq">
                        <ref role="3uigEE" to="wyt6:~Object" resolve="Object" />
                      </node>
                      <node concept="37vLTw" id="2BHiRxgsAW0" role="1EMhIo">
                        <ref role="3cqZAo" node="gCCYkhD" resolve="_parameter_" />
                        <node concept="1ZhdrF" id="htzT244" role="lGtFl">
                          <property role="2qtEX8" value="variableDeclaration" />
                          <property role="P3scX" value="f3061a53-9226-4cc5-a443-f952ceaf5816/1068498886296/1068581517664" />
                          <node concept="3$xsQk" id="htzT245" role="3$ytzL">
                            <node concept="3clFbS" id="htzT246" role="2VODD2">
                              <node concept="3clFbF" id="htzT5lm" role="3cqZAp">
                                <node concept="Xl_RD" id="htzT5ln" role="3clFbG">
                                  <property role="Xl_RC" value="_context" />
                                </node>
                              </node>
                            </node>
                          </node>
                        </node>
                      </node>
                      <node concept="17Uvod" id="htuplMA" role="lGtFl">
                        <property role="2qtEX9" value="methodName" />
                        <property role="P4ACc" value="df345b11-b8c7-4213-ac66-48d2a9b75d88/1174294166120/1174294288199" />
                        <node concept="3zFVjK" id="htuplMB" role="3zH0cK">
                          <node concept="3clFbS" id="htuplMC" role="2VODD2">
                            <node concept="3clFbF" id="htupGX2" role="3cqZAp">
                              <node concept="2YIFZM" id="htupTS5" role="3clFbG">
                                <ref role="37wK5l" to="18ew:~NameUtil.getGetterName(java.lang.String):java.lang.String" resolve="getGetterName" />
                                <ref role="1Pybhc" to="18ew:~NameUtil" resolve="NameUtil" />
                                <node concept="2OqwBi" id="2wdLO7KeqQI" role="37wK5m">
                                  <node concept="3n3YKJ" id="Z_z4A28LJH" role="2OqNvi" />
                                  <node concept="2OqwBi" id="2wdLO7KeqQK" role="2Oq$k0">
                                    <node concept="2yIwOk" id="Z_z4A28L_o" role="2OqNvi" />
                                    <node concept="30H73N" id="2wdLO7KeqQM" role="2Oq$k0" />
                                  </node>
                                </node>
                              </node>
                            </node>
                          </node>
                        </node>
                      </node>
                    </node>
                  </node>
                </node>
              </node>
            </node>
          </node>
        </node>
      </node>
      <node concept="37vLTG" id="gCCYkhD" role="3clF46">
        <property role="TrG5h" value="_parameter_" />
        <node concept="3uibUv" id="gCCYkhE" role="1tU5fm">
          <ref role="3uigEE" to="wyt6:~Object" resolve="Object" />
        </node>
      </node>
      <node concept="3Tm1VV" id="h9AO$gD" role="1B3o_S" />
    </node>
  </node>
</model>

