<?xml version="1.0" encoding="UTF-8"?>
<model ref="r:9c0cad77-7f20-4fb1-84ed-cb5159082ca7(testSubtypingA.behavior)">
  <persistence version="9" />
  <languages>
    <use id="af65afd8-f0dd-4942-87d9-63a55f2a9db1" name="jetbrains.mps.lang.behavior" version="0" />
    <devkit ref="fbc25dd2-5da4-483a-8b19-70928e1b62d7(jetbrains.mps.devkit.general-purpose)" />
  </languages>
  <imports>
    <import index="tpcu" ref="r:00000000-0000-4000-0000-011c89590282(jetbrains.mps.lang.core.behavior)" />
    <import index="tb4y" ref="r:8811bffd-1bca-4bc6-88be-53c5eda0c75c(testSubtypingA.structure)" implicit="true" />
    <import index="tpce" ref="r:00000000-0000-4000-0000-011c89590292(jetbrains.mps.lang.structure.structure)" implicit="true" />
  </imports>
  <registry>
    <language id="af65afd8-f0dd-4942-87d9-63a55f2a9db1" name="jetbrains.mps.lang.behavior">
      <concept id="1225194240794" name="jetbrains.mps.lang.behavior.structure.ConceptBehavior" flags="ng" index="13h7C7">
        <reference id="1225194240799" name="concept" index="13h7C2" />
        <child id="1225194240805" name="method" index="13h7CS" />
        <child id="1225194240801" name="constructor" index="13h7CW" />
      </concept>
      <concept id="1225194413805" name="jetbrains.mps.lang.behavior.structure.ConceptConstructorDeclaration" flags="in" index="13hLZK" />
      <concept id="1225194472830" name="jetbrains.mps.lang.behavior.structure.ConceptMethodDeclaration" flags="ng" index="13i0hz">
        <property id="1225194472833" name="isPrivate" index="13i0is" />
        <property id="1225194472832" name="isVirtual" index="13i0it" />
        <property id="1225194472834" name="isAbstract" index="13i0iv" />
        <reference id="1225194472831" name="overriddenMethod" index="13i0hy" />
      </concept>
      <concept id="1225194691553" name="jetbrains.mps.lang.behavior.structure.ThisNodeExpression" flags="nn" index="13iPFW" />
    </language>
    <language id="f3061a53-9226-4cc5-a443-f952ceaf5816" name="jetbrains.mps.baseLanguage">
      <concept id="1197027756228" name="jetbrains.mps.baseLanguage.structure.DotExpression" flags="nn" index="2OqwBi">
        <child id="1197027771414" name="operand" index="2Oq$k0" />
        <child id="1197027833540" name="operation" index="2OqNvi" />
      </concept>
      <concept id="1137021947720" name="jetbrains.mps.baseLanguage.structure.ConceptFunction" flags="in" index="2VMwT0">
        <child id="1137022507850" name="body" index="2VODD2" />
      </concept>
      <concept id="1070475926800" name="jetbrains.mps.baseLanguage.structure.StringLiteral" flags="nn" index="Xl_RD">
        <property id="1070475926801" name="value" index="Xl_RC" />
      </concept>
      <concept id="1225271177708" name="jetbrains.mps.baseLanguage.structure.StringType" flags="in" index="17QB3L" />
      <concept id="1068580123132" name="jetbrains.mps.baseLanguage.structure.BaseMethodDeclaration" flags="ng" index="3clF44">
        <child id="1068580123133" name="returnType" index="3clF45" />
        <child id="1068580123135" name="body" index="3clF47" />
      </concept>
      <concept id="1068580123155" name="jetbrains.mps.baseLanguage.structure.ExpressionStatement" flags="nn" index="3clFbF">
        <child id="1068580123156" name="expression" index="3clFbG" />
      </concept>
      <concept id="1068580123136" name="jetbrains.mps.baseLanguage.structure.StatementList" flags="sn" stub="5293379017992965193" index="3clFbS">
        <child id="1068581517665" name="statement" index="3cqZAp" />
      </concept>
      <concept id="1068581242875" name="jetbrains.mps.baseLanguage.structure.PlusExpression" flags="nn" index="3cpWs3" />
      <concept id="1204053956946" name="jetbrains.mps.baseLanguage.structure.IMethodCall" flags="ng" index="1ndlxa">
        <reference id="1068499141037" name="baseMethodDeclaration" index="37wK5l" />
      </concept>
      <concept id="1081773326031" name="jetbrains.mps.baseLanguage.structure.BinaryOperation" flags="nn" index="3uHJSO">
        <child id="1081773367579" name="rightExpression" index="3uHU7w" />
        <child id="1081773367580" name="leftExpression" index="3uHU7B" />
      </concept>
      <concept id="1178549954367" name="jetbrains.mps.baseLanguage.structure.IVisible" flags="ng" index="1B3ioH">
        <child id="1178549979242" name="visibility" index="1B3o_S" />
      </concept>
      <concept id="1146644602865" name="jetbrains.mps.baseLanguage.structure.PublicVisibility" flags="nn" index="3Tm1VV" />
    </language>
    <language id="7866978e-a0f0-4cc7-81bc-4d213d9375e1" name="jetbrains.mps.lang.smodel">
      <concept id="1179409122411" name="jetbrains.mps.lang.smodel.structure.Node_ConceptMethodCall" flags="nn" index="2qgKlT" />
      <concept id="1172323065820" name="jetbrains.mps.lang.smodel.structure.Node_GetConceptOperation" flags="nn" index="3NT_Vc" />
      <concept id="1138056022639" name="jetbrains.mps.lang.smodel.structure.SPropertyAccess" flags="nn" index="3TrcHB">
        <reference id="1138056395725" name="property" index="3TsBF5" />
      </concept>
      <concept id="1138056143562" name="jetbrains.mps.lang.smodel.structure.SLinkAccess" flags="nn" index="3TrEf2">
        <reference id="1138056516764" name="link" index="3Tt5mk" />
      </concept>
    </language>
    <language id="ceab5195-25ea-4f22-9b92-103b95ca8c0c" name="jetbrains.mps.lang.core">
      <concept id="1169194658468" name="jetbrains.mps.lang.core.structure.INamedConcept" flags="ng" index="TrEIO">
        <property id="1169194664001" name="name" index="TrG5h" />
      </concept>
    </language>
  </registry>
  <node concept="13h7C7" id="1NmRLF_DMOu">
    <ref role="13h7C2" to="tb4y:1NmRLF_CnMs" resolve="WrapperType" />
    <node concept="13hLZK" id="1NmRLF_DMOv" role="13h7CW">
      <node concept="3clFbS" id="1NmRLF_DMOw" role="2VODD2" />
    </node>
    <node concept="13i0hz" id="1NmRLF_DWzx" role="13h7CS">
      <property role="13i0is" value="false" />
      <property role="TrG5h" value="getPresentation" />
      <property role="13i0it" value="false" />
      <property role="13i0iv" value="false" />
      <ref role="13i0hy" to="tpcu:hEwIMiw" resolve="getPresentation" />
      <node concept="3Tm1VV" id="1NmRLF_DW$D" role="1B3o_S" />
      <node concept="3clFbS" id="1NmRLF_DWAS" role="3clF47">
        <node concept="3clFbF" id="1NmRLF_DWVM" role="3cqZAp">
          <node concept="3cpWs3" id="1NmRLF_DY6c" role="3clFbG">
            <node concept="Xl_RD" id="1NmRLF_DYdA" role="3uHU7w">
              <property role="Xl_RC" value="&gt;" />
            </node>
            <node concept="3cpWs3" id="1NmRLF_DYB3" role="3uHU7B">
              <node concept="2OqwBi" id="1NmRLF_DZI9" role="3uHU7w">
                <node concept="2OqwBi" id="1NmRLF_DYSm" role="2Oq$k0">
                  <node concept="13iPFW" id="1NmRLF_DYIB" role="2Oq$k0" />
                  <node concept="3TrEf2" id="1NmRLF_DZon" role="2OqNvi">
                    <ref role="3Tt5mk" to="tb4y:1NmRLF_Cu8f" />
                  </node>
                </node>
                <node concept="2qgKlT" id="1NmRLF_E0aE" role="2OqNvi">
                  <ref role="37wK5l" to="tpcu:hEwIMiw" resolve="getPresentation" />
                </node>
              </node>
              <node concept="3cpWs3" id="1NmRLF_DXFO" role="3uHU7B">
                <node concept="2OqwBi" id="1NmRLF_E7VI" role="3uHU7B">
                  <node concept="2OqwBi" id="1NmRLF_DWYz" role="2Oq$k0">
                    <node concept="13iPFW" id="1NmRLF_DWVL" role="2Oq$k0" />
                    <node concept="3NT_Vc" id="1NmRLF_E7x9" role="2OqNvi" />
                  </node>
                  <node concept="3TrcHB" id="1NmRLF_E8uX" role="2OqNvi">
                    <ref role="3TsBF5" to="tpce:4qF2Hm2r7ja" resolve="conceptAlias" />
                  </node>
                </node>
                <node concept="Xl_RD" id="1NmRLF_DXFR" role="3uHU7w">
                  <property role="Xl_RC" value="&lt;" />
                </node>
              </node>
            </node>
          </node>
        </node>
      </node>
      <node concept="17QB3L" id="1NmRLF_DWAT" role="3clF45" />
    </node>
  </node>
</model>

