<?xml version="1.0" encoding="UTF-8"?>
<model ref="r:313b0e77-ca79-4386-be7b-42bffe9745bf(org.jetbrains.mps.samples.DecisionTable.behavior)">
  <persistence version="9" />
  <languages>
    <use id="af65afd8-f0dd-4942-87d9-63a55f2a9db1" name="jetbrains.mps.lang.behavior" version="0" />
    <devkit ref="fbc25dd2-5da4-483a-8b19-70928e1b62d7(jetbrains.mps.devkit.general-purpose)" />
  </languages>
  <imports>
    <import index="278c" ref="r:885978b0-baca-4eda-8c29-d1384945a64e(org.jetbrains.mps.samples.DecisionTable.structure)" />
    <import index="tpee" ref="r:00000000-0000-4000-0000-011c895902ca(jetbrains.mps.baseLanguage.structure)" implicit="true" />
  </imports>
  <registry>
    <language id="af65afd8-f0dd-4942-87d9-63a55f2a9db1" name="jetbrains.mps.lang.behavior">
      <concept id="1225194240794" name="jetbrains.mps.lang.behavior.structure.ConceptBehavior" flags="ng" index="13h7C7">
        <reference id="1225194240799" name="concept" index="13h7C2" />
        <child id="1225194240805" name="method" index="13h7CS" />
        <child id="1225194240801" name="constructor" index="13h7CW" />
      </concept>
      <concept id="1225194413805" name="jetbrains.mps.lang.behavior.structure.ConceptConstructorDeclaration" flags="in" index="13hLZK" />
      <concept id="1225194472830" name="jetbrains.mps.lang.behavior.structure.ConceptMethodDeclaration" flags="ng" index="13i0hz" />
      <concept id="1225194691553" name="jetbrains.mps.lang.behavior.structure.ThisNodeExpression" flags="nn" index="13iPFW" />
    </language>
    <language id="f3061a53-9226-4cc5-a443-f952ceaf5816" name="jetbrains.mps.baseLanguage">
      <concept id="4836112446988635817" name="jetbrains.mps.baseLanguage.structure.UndefinedType" flags="in" index="2jxLKc" />
      <concept id="1197027756228" name="jetbrains.mps.baseLanguage.structure.DotExpression" flags="nn" index="2OqwBi">
        <child id="1197027771414" name="operand" index="2Oq$k0" />
        <child id="1197027833540" name="operation" index="2OqNvi" />
      </concept>
      <concept id="1145552977093" name="jetbrains.mps.baseLanguage.structure.GenericNewExpression" flags="nn" index="2ShNRf">
        <child id="1145553007750" name="creator" index="2ShVmc" />
      </concept>
      <concept id="1137021947720" name="jetbrains.mps.baseLanguage.structure.ConceptFunction" flags="in" index="2VMwT0">
        <child id="1137022507850" name="body" index="2VODD2" />
      </concept>
      <concept id="1068431474542" name="jetbrains.mps.baseLanguage.structure.VariableDeclaration" flags="ng" index="33uBYm">
        <child id="1068431790190" name="initializer" index="33vP2m" />
      </concept>
      <concept id="1068498886296" name="jetbrains.mps.baseLanguage.structure.VariableReference" flags="nn" index="37vLTw">
        <reference id="1068581517664" name="variableDeclaration" index="3cqZAo" />
      </concept>
      <concept id="4972933694980447171" name="jetbrains.mps.baseLanguage.structure.BaseVariableDeclaration" flags="ng" index="19Szcq">
        <child id="5680397130376446158" name="type" index="1tU5fm" />
      </concept>
      <concept id="1068580123132" name="jetbrains.mps.baseLanguage.structure.BaseMethodDeclaration" flags="ng" index="3clF44">
        <child id="1068580123133" name="returnType" index="3clF45" />
        <child id="1068580123135" name="body" index="3clF47" />
      </concept>
      <concept id="1068580123155" name="jetbrains.mps.baseLanguage.structure.ExpressionStatement" flags="nn" index="3clFbF">
        <child id="1068580123156" name="expression" index="3clFbG" />
      </concept>
      <concept id="1068580123136" name="jetbrains.mps.baseLanguage.structure.StatementList" flags="sn" stub="5293379017992965193" index="3clFbS">
        <child id="1068581517665" name="statement" index="3cqZAp" />
      </concept>
      <concept id="1068581242864" name="jetbrains.mps.baseLanguage.structure.LocalVariableDeclarationStatement" flags="nn" index="3cpWs8">
        <child id="1068581242865" name="localVariableDeclaration" index="3cpWs9" />
      </concept>
      <concept id="1068581242863" name="jetbrains.mps.baseLanguage.structure.LocalVariableDeclaration" flags="nr" index="3cpWsn" />
      <concept id="1178549954367" name="jetbrains.mps.baseLanguage.structure.IVisible" flags="ng" index="1B3ioH">
        <child id="1178549979242" name="visibility" index="1B3o_S" />
      </concept>
      <concept id="1146644602865" name="jetbrains.mps.baseLanguage.structure.PublicVisibility" flags="nn" index="3Tm1VV" />
    </language>
    <language id="fd392034-7849-419d-9071-12563d152375" name="jetbrains.mps.baseLanguage.closures">
      <concept id="1199569711397" name="jetbrains.mps.baseLanguage.closures.structure.ClosureLiteral" flags="nn" index="1bVj0M">
        <child id="1199569906740" name="parameter" index="1bW2Oz" />
        <child id="1199569916463" name="body" index="1bW5cS" />
      </concept>
    </language>
    <language id="7866978e-a0f0-4cc7-81bc-4d213d9375e1" name="jetbrains.mps.lang.smodel">
      <concept id="1177026924588" name="jetbrains.mps.lang.smodel.structure.RefConcept_Reference" flags="nn" index="chp4Y">
        <reference id="1177026940964" name="conceptDeclaration" index="cht4Q" />
      </concept>
      <concept id="1138411891628" name="jetbrains.mps.lang.smodel.structure.SNodeOperation" flags="nn" index="eCIE_">
        <child id="1144104376918" name="parameter" index="1xVPHs" />
      </concept>
      <concept id="2396822768958367367" name="jetbrains.mps.lang.smodel.structure.AbstractTypeCastExpression" flags="nn" index="$5XWr">
        <reference id="6733348108486823428" name="concept" index="1m5ApE" />
        <child id="6733348108486823193" name="leftExpression" index="1m5AlR" />
      </concept>
      <concept id="1171305280644" name="jetbrains.mps.lang.smodel.structure.Node_GetDescendantsOperation" flags="nn" index="2Rf3mk" />
      <concept id="1139184414036" name="jetbrains.mps.lang.smodel.structure.LinkList_AddNewChildOperation" flags="nn" index="WFELt" />
      <concept id="1139621453865" name="jetbrains.mps.lang.smodel.structure.Node_IsInstanceOfOperation" flags="nn" index="1mIQ4w">
        <child id="1177027386292" name="conceptArgument" index="cj9EA" />
      </concept>
      <concept id="1144101972840" name="jetbrains.mps.lang.smodel.structure.OperationParm_Concept" flags="ng" index="1xMEDy">
        <child id="1207343664468" name="conceptArgument" index="ri$Ld" />
      </concept>
      <concept id="1140137987495" name="jetbrains.mps.lang.smodel.structure.SNodeTypeCastExpression" flags="nn" index="1PxgMI" />
      <concept id="1138055754698" name="jetbrains.mps.lang.smodel.structure.SNodeType" flags="in" index="3Tqbb2">
        <reference id="1138405853777" name="concept" index="ehGHo" />
      </concept>
      <concept id="1138056143562" name="jetbrains.mps.lang.smodel.structure.SLinkAccess" flags="nn" index="3TrEf2">
        <reference id="1138056516764" name="link" index="3Tt5mk" />
      </concept>
      <concept id="1138056282393" name="jetbrains.mps.lang.smodel.structure.SLinkListAccess" flags="nn" index="3Tsc0h">
        <reference id="1138056546658" name="link" index="3TtcxE" />
      </concept>
    </language>
    <language id="ceab5195-25ea-4f22-9b92-103b95ca8c0c" name="jetbrains.mps.lang.core">
      <concept id="1169194658468" name="jetbrains.mps.lang.core.structure.INamedConcept" flags="ng" index="TrEIO">
        <property id="1169194664001" name="name" index="TrG5h" />
      </concept>
    </language>
    <language id="83888646-71ce-4f1c-9c53-c54016f6ad4f" name="jetbrains.mps.baseLanguage.collections">
      <concept id="1204796164442" name="jetbrains.mps.baseLanguage.collections.structure.InternalSequenceOperation" flags="nn" index="23sCx2">
        <child id="1204796294226" name="closure" index="23t8la" />
      </concept>
      <concept id="540871147943773365" name="jetbrains.mps.baseLanguage.collections.structure.SingleArgumentSequenceOperation" flags="nn" index="25WWJ4">
        <child id="540871147943773366" name="argument" index="25WWJ7" />
      </concept>
      <concept id="1226511727824" name="jetbrains.mps.baseLanguage.collections.structure.SetType" flags="in" index="2hMVRd">
        <child id="1226511765987" name="elementType" index="2hN53Y" />
      </concept>
      <concept id="1226516258405" name="jetbrains.mps.baseLanguage.collections.structure.HashSetCreator" flags="nn" index="2i4dXS" />
      <concept id="1237721394592" name="jetbrains.mps.baseLanguage.collections.structure.AbstractContainerCreator" flags="nn" index="HWqM0">
        <child id="1237721435807" name="elementType" index="HW$YZ" />
      </concept>
      <concept id="1203518072036" name="jetbrains.mps.baseLanguage.collections.structure.SmartClosureParameterDeclaration" flags="ig" index="Rh6nW" />
      <concept id="1160666733551" name="jetbrains.mps.baseLanguage.collections.structure.AddAllElementsOperation" flags="nn" index="X8dFx" />
      <concept id="1202120902084" name="jetbrains.mps.baseLanguage.collections.structure.WhereOperation" flags="nn" index="3zZkjj" />
      <concept id="1202128969694" name="jetbrains.mps.baseLanguage.collections.structure.SelectOperation" flags="nn" index="3$u5V9" />
    </language>
  </registry>
  <node concept="13h7C7" id="1Ik8KAj6Ndi">
    <ref role="13h7C2" to="278c:1Ik8KAj6Lm1" resolve="DecisionTable" />
    <node concept="13hLZK" id="1Ik8KAj6Ndj" role="13h7CW">
      <node concept="3clFbS" id="1Ik8KAj6Ndk" role="2VODD2">
        <node concept="3clFbF" id="1Ik8KAj6Ndl" role="3cqZAp">
          <node concept="2OqwBi" id="1Ik8KAj6V$t" role="3clFbG">
            <node concept="2OqwBi" id="1Ik8KAj6Ndn" role="2Oq$k0">
              <node concept="13iPFW" id="1Ik8KAj6Ndm" role="2Oq$k0" />
              <node concept="3Tsc0h" id="1Ik8KAj6V$s" role="2OqNvi">
                <ref role="3TtcxE" to="278c:1Ik8KAj6Lm5" />
              </node>
            </node>
            <node concept="WFELt" id="1Ik8KAj6V$x" role="2OqNvi" />
          </node>
        </node>
        <node concept="3clFbF" id="1Ik8KAj6V$z" role="3cqZAp">
          <node concept="2OqwBi" id="1Ik8KAj6V$$" role="3clFbG">
            <node concept="2OqwBi" id="1Ik8KAj6V$_" role="2Oq$k0">
              <node concept="13iPFW" id="1Ik8KAj6V$A" role="2Oq$k0" />
              <node concept="3Tsc0h" id="1Ik8KAj6V$B" role="2OqNvi">
                <ref role="3TtcxE" to="278c:1Ik8KAj6Lm5" />
              </node>
            </node>
            <node concept="WFELt" id="1Ik8KAj6V$C" role="2OqNvi" />
          </node>
        </node>
        <node concept="3clFbF" id="1Ik8KAj6V$E" role="3cqZAp">
          <node concept="2OqwBi" id="1Ik8KAj6V$F" role="3clFbG">
            <node concept="2OqwBi" id="1Ik8KAj6V$G" role="2Oq$k0">
              <node concept="13iPFW" id="1Ik8KAj6V$H" role="2Oq$k0" />
              <node concept="3Tsc0h" id="1Ik8KAj6V$L" role="2OqNvi">
                <ref role="3TtcxE" to="278c:1Ik8KAj6Lm4" />
              </node>
            </node>
            <node concept="WFELt" id="1Ik8KAj6V$J" role="2OqNvi" />
          </node>
        </node>
        <node concept="3clFbF" id="1Ik8KAj6V$N" role="3cqZAp">
          <node concept="2OqwBi" id="1Ik8KAj6V$O" role="3clFbG">
            <node concept="2OqwBi" id="1Ik8KAj6V$P" role="2Oq$k0">
              <node concept="13iPFW" id="1Ik8KAj6V$Q" role="2Oq$k0" />
              <node concept="3Tsc0h" id="1Ik8KAj6V$R" role="2OqNvi">
                <ref role="3TtcxE" to="278c:1Ik8KAj6Lm4" />
              </node>
            </node>
            <node concept="WFELt" id="1Ik8KAj6V$S" role="2OqNvi" />
          </node>
        </node>
        <node concept="3clFbF" id="1Ik8KAj6V$U" role="3cqZAp">
          <node concept="2OqwBi" id="1Ik8KAj6V$V" role="3clFbG">
            <node concept="2OqwBi" id="1Ik8KAj6V$W" role="2Oq$k0">
              <node concept="13iPFW" id="1Ik8KAj6V$X" role="2Oq$k0" />
              <node concept="3Tsc0h" id="1Ik8KAj6V_1" role="2OqNvi">
                <ref role="3TtcxE" to="278c:1Ik8KAj6Lm6" />
              </node>
            </node>
            <node concept="WFELt" id="1Ik8KAj6V$Z" role="2OqNvi" />
          </node>
        </node>
        <node concept="3clFbF" id="1Ik8KAj6V_3" role="3cqZAp">
          <node concept="2OqwBi" id="1Ik8KAj6V_4" role="3clFbG">
            <node concept="2OqwBi" id="1Ik8KAj6V_5" role="2Oq$k0">
              <node concept="13iPFW" id="1Ik8KAj6V_6" role="2Oq$k0" />
              <node concept="3Tsc0h" id="1Ik8KAj6V_7" role="2OqNvi">
                <ref role="3TtcxE" to="278c:1Ik8KAj6Lm6" />
              </node>
            </node>
            <node concept="WFELt" id="1Ik8KAj6V_8" role="2OqNvi" />
          </node>
        </node>
        <node concept="3clFbF" id="1Ik8KAj6V_a" role="3cqZAp">
          <node concept="2OqwBi" id="1Ik8KAj6V_b" role="3clFbG">
            <node concept="2OqwBi" id="1Ik8KAj6V_c" role="2Oq$k0">
              <node concept="13iPFW" id="1Ik8KAj6V_d" role="2Oq$k0" />
              <node concept="3Tsc0h" id="1Ik8KAj6V_e" role="2OqNvi">
                <ref role="3TtcxE" to="278c:1Ik8KAj6Lm6" />
              </node>
            </node>
            <node concept="WFELt" id="1Ik8KAj6V_f" role="2OqNvi" />
          </node>
        </node>
        <node concept="3clFbF" id="1Ik8KAj6V_h" role="3cqZAp">
          <node concept="2OqwBi" id="1Ik8KAj6V_i" role="3clFbG">
            <node concept="2OqwBi" id="1Ik8KAj6V_j" role="2Oq$k0">
              <node concept="13iPFW" id="1Ik8KAj6V_k" role="2Oq$k0" />
              <node concept="3Tsc0h" id="1Ik8KAj6V_l" role="2OqNvi">
                <ref role="3TtcxE" to="278c:1Ik8KAj6Lm6" />
              </node>
            </node>
            <node concept="WFELt" id="1Ik8KAj6V_m" role="2OqNvi" />
          </node>
        </node>
      </node>
    </node>
    <node concept="13i0hz" id="3mtcPBWFCmw" role="13h7CS">
      <property role="TrG5h" value="referencedLVDs" />
      <node concept="3Tm1VV" id="3mtcPBWFCmx" role="1B3o_S" />
      <node concept="2hMVRd" id="3mtcPBWFCn2" role="3clF45">
        <node concept="3Tqbb2" id="3mtcPBWFCn3" role="2hN53Y">
          <ref role="ehGHo" to="tpee:fzcpWvJ" resolve="LocalVariableDeclaration" />
        </node>
      </node>
      <node concept="3clFbS" id="3mtcPBWFCmz" role="3clF47">
        <node concept="3cpWs8" id="3mtcPBWFCn5" role="3cqZAp">
          <node concept="3cpWsn" id="3mtcPBWFCn6" role="3cpWs9">
            <property role="TrG5h" value="res" />
            <node concept="2hMVRd" id="3mtcPBWFCn7" role="1tU5fm">
              <node concept="3Tqbb2" id="3mtcPBWFCn9" role="2hN53Y">
                <ref role="ehGHo" to="tpee:fzcpWvJ" resolve="LocalVariableDeclaration" />
              </node>
            </node>
            <node concept="2ShNRf" id="3mtcPBWFCnb" role="33vP2m">
              <node concept="2i4dXS" id="3mtcPBWFCnc" role="2ShVmc">
                <node concept="3Tqbb2" id="3mtcPBWFCnd" role="HW$YZ">
                  <ref role="ehGHo" to="tpee:fzcpWvJ" resolve="LocalVariableDeclaration" />
                </node>
              </node>
            </node>
          </node>
        </node>
        <node concept="3clFbF" id="3mtcPBWFCnf" role="3cqZAp">
          <node concept="2OqwBi" id="3mtcPBWFCnh" role="3clFbG">
            <node concept="37vLTw" id="3GM_nagTswI" role="2Oq$k0">
              <ref role="3cqZAo" node="3mtcPBWFCn6" resolve="res" />
            </node>
            <node concept="X8dFx" id="3mtcPBWFCnn" role="2OqNvi">
              <node concept="2OqwBi" id="3mtcPBWFCmM" role="25WWJ7">
                <node concept="2OqwBi" id="AVI$K8_YWN" role="2Oq$k0">
                  <node concept="2OqwBi" id="AVI$K8_YWO" role="2Oq$k0">
                    <node concept="13iPFW" id="AVI$K8_YWP" role="2Oq$k0" />
                    <node concept="2Rf3mk" id="AVI$K8_YWQ" role="2OqNvi">
                      <node concept="1xMEDy" id="AVI$K8_YWR" role="1xVPHs">
                        <node concept="chp4Y" id="AVI$K8_YWS" role="ri$Ld">
                          <ref role="cht4Q" to="tpee:fz7vLUo" resolve="VariableReference" />
                        </node>
                      </node>
                    </node>
                  </node>
                  <node concept="3zZkjj" id="AVI$K8_YWT" role="2OqNvi">
                    <node concept="1bVj0M" id="AVI$K8_YWU" role="23t8la">
                      <node concept="3clFbS" id="AVI$K8_YWV" role="1bW5cS">
                        <node concept="3clFbF" id="AVI$K8_YWW" role="3cqZAp">
                          <node concept="2OqwBi" id="AVI$K8_YWX" role="3clFbG">
                            <node concept="2OqwBi" id="AVI$K8_YWY" role="2Oq$k0">
                              <node concept="37vLTw" id="AVI$K8_YX0" role="2Oq$k0">
                                <ref role="3cqZAo" node="AVI$K8_YX4" resolve="it" />
                              </node>
                              <node concept="3TrEf2" id="AVI$K8_YX1" role="2OqNvi">
                                <ref role="3Tt5mk" to="tpee:fzcqZ_w" />
                              </node>
                            </node>
                            <node concept="1mIQ4w" id="AVI$K8_YX2" role="2OqNvi">
                              <node concept="chp4Y" id="AVI$K8_YX3" role="cj9EA">
                                <ref role="cht4Q" to="tpee:fzcpWvJ" resolve="LocalVariableDeclaration" />
                              </node>
                            </node>
                          </node>
                        </node>
                      </node>
                      <node concept="Rh6nW" id="AVI$K8_YX4" role="1bW2Oz">
                        <property role="TrG5h" value="it" />
                        <node concept="2jxLKc" id="AVI$K8_YX5" role="1tU5fm" />
                      </node>
                    </node>
                  </node>
                </node>
                <node concept="3$u5V9" id="3mtcPBWFCmQ" role="2OqNvi">
                  <node concept="1bVj0M" id="3mtcPBWFCmR" role="23t8la">
                    <node concept="3clFbS" id="3mtcPBWFCmS" role="1bW5cS">
                      <node concept="3clFbF" id="3mtcPBWFCmV" role="3cqZAp">
                        <node concept="1PxgMI" id="AVI$K8_YYy" role="3clFbG">
                          <ref role="1m5ApE" to="tpee:fzcpWvJ" resolve="LocalVariableDeclaration" />
                          <node concept="2OqwBi" id="3mtcPBWFCmX" role="1m5AlR">
                            <node concept="37vLTw" id="2BHiRxgmNJz" role="2Oq$k0">
                              <ref role="3cqZAo" node="3mtcPBWFCmT" resolve="it" />
                            </node>
                            <node concept="3TrEf2" id="3mtcPBWFCn1" role="2OqNvi">
                              <ref role="3Tt5mk" to="tpee:fzcqZ_w" />
                            </node>
                          </node>
                        </node>
                      </node>
                    </node>
                    <node concept="Rh6nW" id="3mtcPBWFCmT" role="1bW2Oz">
                      <property role="TrG5h" value="it" />
                      <node concept="2jxLKc" id="3mtcPBWFCmU" role="1tU5fm" />
                    </node>
                  </node>
                </node>
              </node>
            </node>
          </node>
        </node>
        <node concept="3clFbF" id="3mtcPBWFCmB" role="3cqZAp">
          <node concept="37vLTw" id="3GM_nagTApu" role="3clFbG">
            <ref role="3cqZAo" node="3mtcPBWFCn6" resolve="res" />
          </node>
        </node>
      </node>
    </node>
    <node concept="13i0hz" id="3mtcPBWFDo3" role="13h7CS">
      <property role="TrG5h" value="referencedParams" />
      <node concept="3Tm1VV" id="3mtcPBWFDo4" role="1B3o_S" />
      <node concept="2hMVRd" id="3mtcPBWFDo7" role="3clF45">
        <node concept="3Tqbb2" id="3mtcPBWFDo9" role="2hN53Y">
          <ref role="ehGHo" to="tpee:fz7vLUk" resolve="ParameterDeclaration" />
        </node>
      </node>
      <node concept="3clFbS" id="3mtcPBWFDo6" role="3clF47">
        <node concept="3cpWs8" id="3mtcPBWFDoa" role="3cqZAp">
          <node concept="3cpWsn" id="3mtcPBWFDob" role="3cpWs9">
            <property role="TrG5h" value="params" />
            <node concept="2hMVRd" id="3mtcPBWFDoc" role="1tU5fm">
              <node concept="3Tqbb2" id="3mtcPBWFDoe" role="2hN53Y">
                <ref role="ehGHo" to="tpee:fz7vLUk" resolve="ParameterDeclaration" />
              </node>
            </node>
            <node concept="2ShNRf" id="3mtcPBWFDog" role="33vP2m">
              <node concept="2i4dXS" id="3mtcPBWFDoh" role="2ShVmc">
                <node concept="3Tqbb2" id="3mtcPBWFDoi" role="HW$YZ">
                  <ref role="ehGHo" to="tpee:fz7vLUk" resolve="ParameterDeclaration" />
                </node>
              </node>
            </node>
          </node>
        </node>
        <node concept="3clFbF" id="3mtcPBWFDok" role="3cqZAp">
          <node concept="2OqwBi" id="3mtcPBWFDom" role="3clFbG">
            <node concept="37vLTw" id="3GM_nagTBIC" role="2Oq$k0">
              <ref role="3cqZAo" node="3mtcPBWFDob" resolve="params" />
            </node>
            <node concept="X8dFx" id="3mtcPBWFDoq" role="2OqNvi">
              <node concept="2OqwBi" id="3mtcPBWFDps" role="25WWJ7">
                <node concept="2OqwBi" id="1wo$KxfUbiV" role="2Oq$k0">
                  <node concept="2OqwBi" id="1wo$KxfUbiW" role="2Oq$k0">
                    <node concept="13iPFW" id="1wo$KxfUbiX" role="2Oq$k0" />
                    <node concept="2Rf3mk" id="1wo$KxfUbiY" role="2OqNvi">
                      <node concept="1xMEDy" id="1wo$KxfUbiZ" role="1xVPHs">
                        <node concept="chp4Y" id="1wo$KxfUbj0" role="ri$Ld">
                          <ref role="cht4Q" to="tpee:fz7vLUo" resolve="VariableReference" />
                        </node>
                      </node>
                    </node>
                  </node>
                  <node concept="3zZkjj" id="1wo$KxfUbj1" role="2OqNvi">
                    <node concept="1bVj0M" id="1wo$KxfUbj2" role="23t8la">
                      <node concept="3clFbS" id="1wo$KxfUbj3" role="1bW5cS">
                        <node concept="3clFbF" id="1wo$KxfUbj4" role="3cqZAp">
                          <node concept="2OqwBi" id="1wo$KxfUbj5" role="3clFbG">
                            <node concept="2OqwBi" id="1wo$KxfUbj6" role="2Oq$k0">
                              <node concept="37vLTw" id="1wo$KxfUbj8" role="2Oq$k0">
                                <ref role="3cqZAo" node="1wo$KxfUbjc" resolve="it" />
                              </node>
                              <node concept="3TrEf2" id="1wo$KxfUbj9" role="2OqNvi">
                                <ref role="3Tt5mk" to="tpee:fzcqZ_w" />
                              </node>
                            </node>
                            <node concept="1mIQ4w" id="1wo$KxfUbja" role="2OqNvi">
                              <node concept="chp4Y" id="1wo$KxfUbjb" role="cj9EA">
                                <ref role="cht4Q" to="tpee:fz7vLUk" resolve="ParameterDeclaration" />
                              </node>
                            </node>
                          </node>
                        </node>
                      </node>
                      <node concept="Rh6nW" id="1wo$KxfUbjc" role="1bW2Oz">
                        <property role="TrG5h" value="it" />
                        <node concept="2jxLKc" id="1wo$KxfUbjd" role="1tU5fm" />
                      </node>
                    </node>
                  </node>
                </node>
                <node concept="3$u5V9" id="3mtcPBWFDoE" role="2OqNvi">
                  <node concept="1bVj0M" id="3mtcPBWFDoF" role="23t8la">
                    <node concept="3clFbS" id="3mtcPBWFDoG" role="1bW5cS">
                      <node concept="3clFbF" id="3mtcPBWFDoJ" role="3cqZAp">
                        <node concept="1PxgMI" id="AVI$K8_YYT" role="3clFbG">
                          <ref role="1m5ApE" to="tpee:fz7vLUk" resolve="ParameterDeclaration" />
                          <node concept="2OqwBi" id="3mtcPBWFDoL" role="1m5AlR">
                            <node concept="37vLTw" id="2BHiRxgmaFq" role="2Oq$k0">
                              <ref role="3cqZAo" node="3mtcPBWFDoH" resolve="it" />
                            </node>
                            <node concept="3TrEf2" id="3mtcPBWFDpw" role="2OqNvi">
                              <ref role="3Tt5mk" to="tpee:fzcqZ_w" />
                            </node>
                          </node>
                        </node>
                      </node>
                    </node>
                    <node concept="Rh6nW" id="3mtcPBWFDoH" role="1bW2Oz">
                      <property role="TrG5h" value="it" />
                      <node concept="2jxLKc" id="3mtcPBWFDoI" role="1tU5fm" />
                    </node>
                  </node>
                </node>
              </node>
            </node>
          </node>
        </node>
        <node concept="3clFbF" id="3mtcPBWFDoT" role="3cqZAp">
          <node concept="37vLTw" id="3GM_nagTy4Q" role="3clFbG">
            <ref role="3cqZAo" node="3mtcPBWFDob" resolve="params" />
          </node>
        </node>
      </node>
    </node>
  </node>
</model>

