<?xml version="1.0" encoding="UTF-8"?>
<model ref="r:b1dbf313-2794-40ca-90ec-f498ea7f9c90(jetbrains.mps.lang.resources.intentions)">
  <persistence version="9" />
  <languages>
    <use id="d7a92d38-f7db-40d0-8431-763b0c3c9f20" name="jetbrains.mps.lang.intentions" version="0" />
    <use id="982eb8df-2c96-4bd7-9963-11712ea622e5" name="jetbrains.mps.lang.resources" version="2" />
    <devkit ref="fbc25dd2-5da4-483a-8b19-70928e1b62d7(jetbrains.mps.devkit.general-purpose)" />
  </languages>
  <imports>
    <import index="1oap" ref="r:03d44d4c-3d65-461c-9085-0f48e9569e59(jetbrains.mps.lang.resources.structure)" />
  </imports>
  <registry>
    <language id="f3061a53-9226-4cc5-a443-f952ceaf5816" name="jetbrains.mps.baseLanguage">
      <concept id="1215693861676" name="jetbrains.mps.baseLanguage.structure.BaseAssignmentExpression" flags="nn" index="d038R">
        <child id="1068498886297" name="rValue" index="37vLTx" />
        <child id="1068498886295" name="lValue" index="37vLTJ" />
      </concept>
      <concept id="1197027756228" name="jetbrains.mps.baseLanguage.structure.DotExpression" flags="nn" index="2OqwBi">
        <child id="1197027771414" name="operand" index="2Oq$k0" />
        <child id="1197027833540" name="operation" index="2OqNvi" />
      </concept>
      <concept id="1137021947720" name="jetbrains.mps.baseLanguage.structure.ConceptFunction" flags="in" index="2VMwT0">
        <child id="1137022507850" name="body" index="2VODD2" />
      </concept>
      <concept id="1070475926800" name="jetbrains.mps.baseLanguage.structure.StringLiteral" flags="nn" index="Xl_RD">
        <property id="1070475926801" name="value" index="Xl_RC" />
      </concept>
      <concept id="1068431474542" name="jetbrains.mps.baseLanguage.structure.VariableDeclaration" flags="ng" index="33uBYm">
        <child id="1068431790190" name="initializer" index="33vP2m" />
      </concept>
      <concept id="1068498886296" name="jetbrains.mps.baseLanguage.structure.VariableReference" flags="nn" index="37vLTw">
        <reference id="1068581517664" name="variableDeclaration" index="3cqZAo" />
      </concept>
      <concept id="1068498886294" name="jetbrains.mps.baseLanguage.structure.AssignmentExpression" flags="nn" index="37vLTI" />
      <concept id="4972933694980447171" name="jetbrains.mps.baseLanguage.structure.BaseVariableDeclaration" flags="ng" index="19Szcq">
        <child id="5680397130376446158" name="type" index="1tU5fm" />
      </concept>
      <concept id="1068580123155" name="jetbrains.mps.baseLanguage.structure.ExpressionStatement" flags="nn" index="3clFbF">
        <child id="1068580123156" name="expression" index="3clFbG" />
      </concept>
      <concept id="1068580123136" name="jetbrains.mps.baseLanguage.structure.StatementList" flags="sn" stub="5293379017992965193" index="3clFbS">
        <child id="1068581517665" name="statement" index="3cqZAp" />
      </concept>
      <concept id="1068581242864" name="jetbrains.mps.baseLanguage.structure.LocalVariableDeclarationStatement" flags="nn" index="3cpWs8">
        <child id="1068581242865" name="localVariableDeclaration" index="3cpWs9" />
      </concept>
      <concept id="1068581242863" name="jetbrains.mps.baseLanguage.structure.LocalVariableDeclaration" flags="nr" index="3cpWsn" />
    </language>
    <language id="d7a92d38-f7db-40d0-8431-763b0c3c9f20" name="jetbrains.mps.lang.intentions">
      <concept id="1192794744107" name="jetbrains.mps.lang.intentions.structure.IntentionDeclaration" flags="ig" index="2S6QgY" />
      <concept id="1192794782375" name="jetbrains.mps.lang.intentions.structure.DescriptionBlock" flags="in" index="2S6ZIM" />
      <concept id="1192795911897" name="jetbrains.mps.lang.intentions.structure.ExecuteBlock" flags="in" index="2Sbjvc" />
      <concept id="1192796902958" name="jetbrains.mps.lang.intentions.structure.ConceptFunctionParameter_node" flags="nn" index="2Sf5sV" />
      <concept id="2522969319638091381" name="jetbrains.mps.lang.intentions.structure.BaseIntentionDeclaration" flags="ig" index="2ZfUlf">
        <reference id="2522969319638198290" name="forConcept" index="2ZfgGC" />
        <child id="2522969319638198291" name="executeFunction" index="2ZfgGD" />
        <child id="2522969319638093993" name="descriptionFunction" index="2ZfVej" />
      </concept>
    </language>
    <language id="7866978e-a0f0-4cc7-81bc-4d213d9375e1" name="jetbrains.mps.lang.smodel">
      <concept id="1139867745658" name="jetbrains.mps.lang.smodel.structure.Node_ReplaceWithNewOperation" flags="nn" index="1_qnLN">
        <reference id="1139867957129" name="concept" index="1_rbq0" />
      </concept>
      <concept id="1138055754698" name="jetbrains.mps.lang.smodel.structure.SNodeType" flags="in" index="3Tqbb2">
        <reference id="1138405853777" name="concept" index="ehGHo" />
      </concept>
      <concept id="1138056143562" name="jetbrains.mps.lang.smodel.structure.SLinkAccess" flags="nn" index="3TrEf2">
        <reference id="1138056516764" name="link" index="3Tt5mk" />
      </concept>
    </language>
    <language id="ceab5195-25ea-4f22-9b92-103b95ca8c0c" name="jetbrains.mps.lang.core">
      <concept id="1133920641626" name="jetbrains.mps.lang.core.structure.BaseConcept" flags="ng" index="2VYdi">
        <property id="1193676396447" name="virtualPackage" index="3GE5qa" />
      </concept>
      <concept id="1169194658468" name="jetbrains.mps.lang.core.structure.INamedConcept" flags="ng" index="TrEIO">
        <property id="1169194664001" name="name" index="TrG5h" />
      </concept>
    </language>
  </registry>
  <node concept="2S6QgY" id="33BZsHocjx_">
    <property role="TrG5h" value="Icon2Resource" />
    <property role="3GE5qa" value="icons.instantiation" />
    <ref role="2ZfgGC" to="1oap:7Mb2akaesr3" resolve="IconExpression" />
    <node concept="2S6ZIM" id="33BZsHocjxA" role="2ZfVej">
      <node concept="3clFbS" id="33BZsHocjxB" role="2VODD2">
        <node concept="3clFbF" id="33BZsHocjEM" role="3cqZAp">
          <node concept="Xl_RD" id="33BZsHocjEL" role="3clFbG">
            <property role="Xl_RC" value="Convert to iconResource{}" />
          </node>
        </node>
      </node>
    </node>
    <node concept="2Sbjvc" id="33BZsHocjxC" role="2ZfgGD">
      <node concept="3clFbS" id="33BZsHocjxD" role="2VODD2">
        <node concept="3cpWs8" id="33BZsHocn3x" role="3cqZAp">
          <node concept="3cpWsn" id="33BZsHocn3y" role="3cpWs9">
            <property role="TrG5h" value="icon" />
            <node concept="3Tqbb2" id="33BZsHocn3w" role="1tU5fm">
              <ref role="ehGHo" to="1oap:2p1v3tOa9VI" resolve="Icon" />
            </node>
            <node concept="2OqwBi" id="33BZsHocn3z" role="33vP2m">
              <node concept="2Sf5sV" id="33BZsHocn3$" role="2Oq$k0" />
              <node concept="3TrEf2" id="33BZsHocn3_" role="2OqNvi">
                <ref role="3Tt5mk" to="1oap:7Mb2akaesr5" />
              </node>
            </node>
          </node>
        </node>
        <node concept="3clFbF" id="33BZsHoclxG" role="3cqZAp">
          <node concept="37vLTI" id="33BZsHocnXp" role="3clFbG">
            <node concept="37vLTw" id="33BZsHoco3T" role="37vLTx">
              <ref role="3cqZAo" node="33BZsHocn3y" resolve="icon" />
            </node>
            <node concept="2OqwBi" id="33BZsHocn$q" role="37vLTJ">
              <node concept="2OqwBi" id="33BZsHoclBC" role="2Oq$k0">
                <node concept="2Sf5sV" id="33BZsHoclxF" role="2Oq$k0" />
                <node concept="1_qnLN" id="33BZsHocnrT" role="2OqNvi">
                  <ref role="1_rbq0" to="1oap:5bVxHVEuklu" resolve="IconResourceExpression" />
                </node>
              </node>
              <node concept="3TrEf2" id="33BZsHocnGj" role="2OqNvi">
                <ref role="3Tt5mk" to="1oap:5bVxHVEur_0" />
              </node>
            </node>
          </node>
        </node>
      </node>
    </node>
  </node>
</model>

