<?xml version="1.0" encoding="UTF-8"?>
<model ref="r:0efaab76-46b5-4548-8068-24bfd24d0952(jetbrains.mps.lang.resources.migration)">
  <persistence version="9" />
  <languages>
    <use id="90746344-04fd-4286-97d5-b46ae6a81709" name="jetbrains.mps.lang.migration" version="0" />
    <use id="28f9e497-3b42-4291-aeba-0a1039153ab1" name="jetbrains.mps.lang.plugin" version="1" />
    <use id="d4615e3b-d671-4ba9-af01-2b78369b0ba7" name="jetbrains.mps.lang.pattern" version="1" />
    <use id="1a8554c4-eb84-43ba-8c34-6f0d90c6e75a" name="jetbrains.mps.lang.smodel.query" version="2" />
    <devkit ref="fbc25dd2-5da4-483a-8b19-70928e1b62d7(jetbrains.mps.devkit.general-purpose)" />
  </languages>
  <imports>
    <import index="c17a" ref="8865b7a8-5271-43d3-884c-6fd1d9cfdd34/java:org.jetbrains.mps.openapi.language(MPS.OpenAPI/)" />
    <import index="lui2" ref="8865b7a8-5271-43d3-884c-6fd1d9cfdd34/java:org.jetbrains.mps.openapi.module(MPS.OpenAPI/)" />
    <import index="3aup" ref="6ed54515-acc8-4d1e-a16c-9fd6cfe951ea/java:jetbrains.mps.lang.migration.runtime.base(MPS.Core/)" />
    <import index="6f4m" ref="528ff3b9-5fc4-40dd-931f-c6ce3650640e/r:f69c3fa1-0e30-4980-84e2-190ae44e4c3d(jetbrains.mps.lang.migration.runtime/jetbrains.mps.lang.migration.runtime.base)" />
    <import index="wyt6" ref="6354ebe7-c22a-4a0f-ac54-50b52ab9b065/java:java.lang(JDK/)" />
    <import index="slm6" ref="90746344-04fd-4286-97d5-b46ae6a81709/r:52a3d974-bd4f-4651-ba6e-a2de5e336d95(jetbrains.mps.lang.migration/jetbrains.mps.lang.migration.methods)" implicit="true" />
    <import index="1oap" ref="r:03d44d4c-3d65-461c-9085-0f48e9569e59(jetbrains.mps.lang.resources.structure)" implicit="true" />
    <import index="mhbf" ref="8865b7a8-5271-43d3-884c-6fd1d9cfdd34/java:org.jetbrains.mps.openapi.model(MPS.OpenAPI/)" implicit="true" />
  </imports>
  <registry>
    <language id="f3061a53-9226-4cc5-a443-f952ceaf5816" name="jetbrains.mps.baseLanguage">
      <concept id="1215693861676" name="jetbrains.mps.baseLanguage.structure.BaseAssignmentExpression" flags="nn" index="d038R">
        <child id="1068498886297" name="rValue" index="37vLTx" />
        <child id="1068498886295" name="lValue" index="37vLTJ" />
      </concept>
      <concept id="4836112446988635817" name="jetbrains.mps.baseLanguage.structure.UndefinedType" flags="in" index="2jxLKc" />
      <concept id="1202948039474" name="jetbrains.mps.baseLanguage.structure.InstanceMethodCallOperation" flags="nn" index="liA8E" />
      <concept id="1465982738277781862" name="jetbrains.mps.baseLanguage.structure.PlaceholderMember" flags="ng" index="2tJIrI" />
      <concept id="1197027756228" name="jetbrains.mps.baseLanguage.structure.DotExpression" flags="nn" index="2OqwBi">
        <child id="1197027771414" name="operand" index="2Oq$k0" />
        <child id="1197027833540" name="operation" index="2OqNvi" />
      </concept>
      <concept id="1145552977093" name="jetbrains.mps.baseLanguage.structure.GenericNewExpression" flags="nn" index="2ShNRf">
        <child id="1145553007750" name="creator" index="2ShVmc" />
      </concept>
      <concept id="1070475926800" name="jetbrains.mps.baseLanguage.structure.StringLiteral" flags="nn" index="Xl_RD">
        <property id="1070475926801" name="value" index="Xl_RC" />
      </concept>
      <concept id="1182160077978" name="jetbrains.mps.baseLanguage.structure.AnonymousClassCreator" flags="nn" index="YeOm9">
        <child id="1182160096073" name="cls" index="YeSDq" />
      </concept>
      <concept id="1070534058343" name="jetbrains.mps.baseLanguage.structure.NullLiteral" flags="nn" index="10Nm6u" />
      <concept id="1070534644030" name="jetbrains.mps.baseLanguage.structure.BooleanType" flags="in" index="10P_77" />
      <concept id="1068390468198" name="jetbrains.mps.baseLanguage.structure.ClassConcept" flags="ig" index="312cEu">
        <property id="1075300953594" name="abstractClass" index="1sVAO0" />
        <property id="1221565133444" name="isFinal" index="1EXbeo" />
      </concept>
      <concept id="1068498886296" name="jetbrains.mps.baseLanguage.structure.VariableReference" flags="nn" index="37vLTw">
        <reference id="1068581517664" name="variableDeclaration" index="3cqZAo" />
      </concept>
      <concept id="1068498886294" name="jetbrains.mps.baseLanguage.structure.AssignmentExpression" flags="nn" index="37vLTI" />
      <concept id="1225271177708" name="jetbrains.mps.baseLanguage.structure.StringType" flags="in" index="17QB3L" />
      <concept id="1225271408483" name="jetbrains.mps.baseLanguage.structure.IsNotEmptyOperation" flags="nn" index="17RvpY" />
      <concept id="4972933694980447171" name="jetbrains.mps.baseLanguage.structure.BaseVariableDeclaration" flags="ng" index="19Szcq">
        <child id="5680397130376446158" name="type" index="1tU5fm" />
      </concept>
      <concept id="1068580123132" name="jetbrains.mps.baseLanguage.structure.BaseMethodDeclaration" flags="ng" index="3clF44">
        <property id="4276006055363816570" name="isSynchronized" index="od$2w" />
        <property id="1181808852946" name="isFinal" index="DiZV1" />
        <child id="1068580123133" name="returnType" index="3clF45" />
        <child id="1068580123134" name="parameter" index="3clF46" />
        <child id="1068580123135" name="body" index="3clF47" />
      </concept>
      <concept id="1068580123165" name="jetbrains.mps.baseLanguage.structure.InstanceMethodDeclaration" flags="ig" index="3clFb_" />
      <concept id="1068580123155" name="jetbrains.mps.baseLanguage.structure.ExpressionStatement" flags="nn" index="3clFbF">
        <child id="1068580123156" name="expression" index="3clFbG" />
      </concept>
      <concept id="1068580123136" name="jetbrains.mps.baseLanguage.structure.StatementList" flags="sn" stub="5293379017992965193" index="3clFbS">
        <child id="1068581517665" name="statement" index="3cqZAp" />
      </concept>
      <concept id="1068581242878" name="jetbrains.mps.baseLanguage.structure.ReturnStatement" flags="nn" index="3cpWs6">
        <child id="1068581517676" name="expression" index="3cqZAk" />
      </concept>
      <concept id="1204053956946" name="jetbrains.mps.baseLanguage.structure.IMethodCall" flags="ng" index="1ndlxa">
        <reference id="1068499141037" name="baseMethodDeclaration" index="37wK5l" />
        <child id="1068499141038" name="actualArgument" index="37wK5m" />
      </concept>
      <concept id="1107461130800" name="jetbrains.mps.baseLanguage.structure.Classifier" flags="ng" index="3pOWGL">
        <child id="5375687026011219971" name="member" index="jymVt" unordered="true" />
      </concept>
      <concept id="1107535904670" name="jetbrains.mps.baseLanguage.structure.ClassifierType" flags="in" index="3uibUv">
        <reference id="1107535924139" name="classifier" index="3uigEE" />
      </concept>
      <concept id="1178549954367" name="jetbrains.mps.baseLanguage.structure.IVisible" flags="ng" index="1B3ioH">
        <child id="1178549979242" name="visibility" index="1B3o_S" />
      </concept>
      <concept id="1146644602865" name="jetbrains.mps.baseLanguage.structure.PublicVisibility" flags="nn" index="3Tm1VV" />
      <concept id="1170345865475" name="jetbrains.mps.baseLanguage.structure.AnonymousClass" flags="ig" index="1Y3b0j">
        <reference id="1170346070688" name="classifier" index="1Y3XeK" />
      </concept>
    </language>
    <language id="fd392034-7849-419d-9071-12563d152375" name="jetbrains.mps.baseLanguage.closures">
      <concept id="1199569711397" name="jetbrains.mps.baseLanguage.closures.structure.ClosureLiteral" flags="nn" index="1bVj0M">
        <child id="1199569906740" name="parameter" index="1bW2Oz" />
        <child id="1199569916463" name="body" index="1bW5cS" />
      </concept>
    </language>
    <language id="c7d5b9dd-a05f-4be2-bc73-f2e16994cc67" name="jetbrains.mps.baseLanguage.lightweightdsl">
      <concept id="8880393040217246788" name="jetbrains.mps.baseLanguage.lightweightdsl.structure.MethodParameterInstance" flags="ig" index="ffn8J">
        <reference id="8880393040217294897" name="decl" index="ffrpq" />
      </concept>
      <concept id="3751132065236767083" name="jetbrains.mps.baseLanguage.lightweightdsl.structure.DependentTypeInstance" flags="ig" index="q3mfm">
        <reference id="3751132065236767084" name="decl" index="q3mfh" />
        <reference id="9097849371505568270" name="point" index="1QQUv3" />
      </concept>
      <concept id="3751132065236767060" name="jetbrains.mps.baseLanguage.lightweightdsl.structure.MethodInstance" flags="ig" index="q3mfD">
        <reference id="19209059688387895" name="decl" index="2VtyIY" />
      </concept>
      <concept id="6478870542308708689" name="jetbrains.mps.baseLanguage.lightweightdsl.structure.PropertyInstance" flags="ig" index="3tT0cZ">
        <reference id="8585153554445465961" name="decl" index="25KYV2" />
      </concept>
      <concept id="6478870542308703666" name="jetbrains.mps.baseLanguage.lightweightdsl.structure.MemberPlaceholder" flags="ng" index="3tTeZs">
        <property id="6478870542308703667" name="caption" index="3tTeZt" />
        <reference id="6478870542308703669" name="decl" index="3tTeZr" />
      </concept>
      <concept id="6478870542308871875" name="jetbrains.mps.baseLanguage.lightweightdsl.structure.BooleanPropertyInstance" flags="ig" index="3tYpMH">
        <property id="6478870542308871876" name="value" index="3tYpME" />
      </concept>
      <concept id="6478870542308871428" name="jetbrains.mps.baseLanguage.lightweightdsl.structure.StringPropertyInstance" flags="ig" index="3tYpXE">
        <property id="6478870542308871429" name="value" index="3tYpXF" />
      </concept>
    </language>
    <language id="7866978e-a0f0-4cc7-81bc-4d213d9375e1" name="jetbrains.mps.lang.smodel">
      <concept id="1177026924588" name="jetbrains.mps.lang.smodel.structure.RefConcept_Reference" flags="nn" index="chp4Y">
        <reference id="1177026940964" name="conceptDeclaration" index="cht4Q" />
      </concept>
      <concept id="2396822768958367367" name="jetbrains.mps.lang.smodel.structure.AbstractTypeCastExpression" flags="nn" index="$5XWr">
        <reference id="6733348108486823428" name="concept" index="1m5ApE" />
        <child id="6733348108486823193" name="leftExpression" index="1m5AlR" />
      </concept>
      <concept id="1145404486709" name="jetbrains.mps.lang.smodel.structure.SemanticDowncastExpression" flags="nn" index="2JrnkZ">
        <child id="1145404616321" name="leftExpression" index="2JrQYb" />
      </concept>
      <concept id="2644386474302386080" name="jetbrains.mps.lang.smodel.structure.PropertyIdRefExpression" flags="nn" index="355D3s">
        <reference id="2644386474302386081" name="conceptDeclaration" index="355D3t" />
        <reference id="2644386474302386082" name="propertyDeclaration" index="355D3u" />
      </concept>
      <concept id="1172008320231" name="jetbrains.mps.lang.smodel.structure.Node_IsNotNullOperation" flags="nn" index="3x8VRR" />
      <concept id="1140131837776" name="jetbrains.mps.lang.smodel.structure.Node_ReplaceWithAnotherOperation" flags="nn" index="1P9Npp">
        <child id="1140131861877" name="replacementNode" index="1P9ThW" />
      </concept>
      <concept id="1140137987495" name="jetbrains.mps.lang.smodel.structure.SNodeTypeCastExpression" flags="nn" index="1PxgMI">
        <property id="1238684351431" name="asCast" index="1BlNFB" />
      </concept>
      <concept id="1138056022639" name="jetbrains.mps.lang.smodel.structure.SPropertyAccess" flags="nn" index="3TrcHB">
        <reference id="1138056395725" name="property" index="3TsBF5" />
      </concept>
      <concept id="1138056143562" name="jetbrains.mps.lang.smodel.structure.SLinkAccess" flags="nn" index="3TrEf2">
        <reference id="1138056516764" name="link" index="3Tt5mk" />
      </concept>
    </language>
    <language id="ceab5195-25ea-4f22-9b92-103b95ca8c0c" name="jetbrains.mps.lang.core">
      <concept id="1169194658468" name="jetbrains.mps.lang.core.structure.INamedConcept" flags="ng" index="TrEIO">
        <property id="1169194664001" name="name" index="TrG5h" />
      </concept>
    </language>
    <language id="90746344-04fd-4286-97d5-b46ae6a81709" name="jetbrains.mps.lang.migration">
      <concept id="8352104482584315555" name="jetbrains.mps.lang.migration.structure.MigrationScript" flags="ig" index="3SyAh_">
        <property id="5820409521797704727" name="fromVersion" index="qMTe8" />
      </concept>
    </language>
    <language id="1a8554c4-eb84-43ba-8c34-6f0d90c6e75a" name="jetbrains.mps.lang.smodel.query">
      <concept id="7738379549910147341" name="jetbrains.mps.lang.smodel.query.structure.InstancesExpression" flags="ng" index="qVDSY">
        <child id="7738379549910147342" name="conceptArg" index="qVDSX" />
      </concept>
      <concept id="4234138103881610891" name="jetbrains.mps.lang.smodel.query.structure.WithStatement" flags="ng" index="L3pyB">
        <child id="4234138103881610935" name="scope" index="L3pyr" />
        <child id="4234138103881610892" name="stmts" index="L3pyw" />
      </concept>
      <concept id="4307205004131544317" name="jetbrains.mps.lang.smodel.query.structure.QueryExpression" flags="ng" index="1dNuzs">
        <child id="4307205004132279624" name="parameter" index="1dOa5D" />
      </concept>
      <concept id="4307205004132277753" name="jetbrains.mps.lang.smodel.query.structure.QueryParameterList" flags="ng" index="1dO9Bo" />
    </language>
    <language id="83888646-71ce-4f1c-9c53-c54016f6ad4f" name="jetbrains.mps.baseLanguage.collections">
      <concept id="1204796164442" name="jetbrains.mps.baseLanguage.collections.structure.InternalSequenceOperation" flags="nn" index="23sCx2">
        <child id="1204796294226" name="closure" index="23t8la" />
      </concept>
      <concept id="1204980550705" name="jetbrains.mps.baseLanguage.collections.structure.VisitAllOperation" flags="nn" index="2es0OD" />
      <concept id="1151689724996" name="jetbrains.mps.baseLanguage.collections.structure.SequenceType" flags="in" index="A3Dl8">
        <child id="1151689745422" name="elementType" index="A3Ik2" />
      </concept>
      <concept id="1203518072036" name="jetbrains.mps.baseLanguage.collections.structure.SmartClosureParameterDeclaration" flags="ig" index="Rh6nW" />
      <concept id="1202120902084" name="jetbrains.mps.baseLanguage.collections.structure.WhereOperation" flags="nn" index="3zZkjj" />
      <concept id="1202128969694" name="jetbrains.mps.baseLanguage.collections.structure.SelectOperation" flags="nn" index="3$u5V9" />
    </language>
  </registry>
  <node concept="3SyAh_" id="2p1v3tOaDTA">
    <property role="qMTe8" value="0" />
    <property role="TrG5h" value="MoveResourcePathToIconFile" />
    <node concept="3Tm1VV" id="2p1v3tOaDTB" role="1B3o_S" />
    <node concept="3tTeZs" id="2p1v3tOaDTC" role="jymVt">
      <property role="3tTeZt" value="&lt;no execute after&gt;" />
      <ref role="3tTeZr" to="slm6:7ay_HjIMt1a" resolve="execute after" />
    </node>
    <node concept="3tTeZs" id="2p1v3tOaDTD" role="jymVt">
      <property role="3tTeZt" value="&lt;no required data&gt;" />
      <ref role="3tTeZr" to="slm6:3A3gNhf1WPI" resolve="requires data" />
    </node>
    <node concept="3tTeZs" id="2p1v3tOaDTE" role="jymVt">
      <property role="3tTeZt" value="&lt;no produced data&gt;" />
      <ref role="3tTeZr" to="slm6:536fTXa4WHO" resolve="produces data" />
    </node>
    <node concept="2tJIrI" id="2p1v3tOaDTF" role="jymVt" />
    <node concept="3tYpMH" id="2p1v3tOaDZr" role="jymVt">
      <property role="TrG5h" value="isRerunnable" />
      <property role="3tYpME" value="true" />
      <ref role="25KYV2" to="slm6:1JWcQ2VeWIs" resolve="isRerunnable" />
      <node concept="3Tm1VV" id="2p1v3tOaDZt" role="1B3o_S" />
      <node concept="10P_77" id="2p1v3tOaDZu" role="1tU5fm" />
    </node>
    <node concept="3tYpXE" id="2p1v3tOaE06" role="jymVt">
      <property role="TrG5h" value="description" />
      <property role="3tYpXF" value="Move Resource.path to IconFile.file property" />
      <ref role="25KYV2" to="slm6:1_lSsE3RFpE" resolve="description" />
      <node concept="3Tm1VV" id="2p1v3tOaE08" role="1B3o_S" />
      <node concept="17QB3L" id="2p1v3tOaE09" role="1tU5fm" />
    </node>
    <node concept="q3mfD" id="2p1v3tOaDTI" role="jymVt">
      <property role="TrG5h" value="execute" />
      <ref role="2VtyIY" to="slm6:4ubqdNOF9cA" resolve="execute" />
      <node concept="3Tm1VV" id="2p1v3tOaDTK" role="1B3o_S" />
      <node concept="3clFbS" id="2p1v3tOaDTM" role="3clF47">
        <node concept="L3pyB" id="2p1v3tOaEs6" role="3cqZAp">
          <node concept="3clFbS" id="2p1v3tOaEs7" role="L3pyw">
            <node concept="3clFbF" id="2p1v3tOaE$o" role="3cqZAp">
              <node concept="2OqwBi" id="2p1v3tOaEWK" role="3clFbG">
                <node concept="2OqwBi" id="2p1v3tOaH5w" role="2Oq$k0">
                  <node concept="qVDSY" id="2p1v3tOaE$l" role="2Oq$k0">
                    <node concept="chp4Y" id="2p1v3tOaEA1" role="qVDSX">
                      <ref role="cht4Q" to="1oap:7Mb2akaesqV" resolve="FileIcon" />
                    </node>
                    <node concept="1dO9Bo" id="2p1v3tOaE$n" role="1dOa5D" />
                  </node>
                  <node concept="3zZkjj" id="2p1v3tOaI71" role="2OqNvi">
                    <node concept="1bVj0M" id="2p1v3tOaI73" role="23t8la">
                      <node concept="3clFbS" id="2p1v3tOaI74" role="1bW5cS">
                        <node concept="3clFbF" id="2p1v3tOaIh3" role="3cqZAp">
                          <node concept="2OqwBi" id="2p1v3tOaJum" role="3clFbG">
                            <node concept="2OqwBi" id="2p1v3tOaIuf" role="2Oq$k0">
                              <node concept="37vLTw" id="2p1v3tOaIh2" role="2Oq$k0">
                                <ref role="3cqZAo" node="2p1v3tOaI75" resolve="it" />
                              </node>
                              <node concept="3TrcHB" id="2p1v3tOaIU3" role="2OqNvi">
                                <ref role="3TsBF5" to="1oap:7Mb2akaesrb" resolve="path" />
                              </node>
                            </node>
                            <node concept="17RvpY" id="2p1v3tOaKmD" role="2OqNvi" />
                          </node>
                        </node>
                      </node>
                      <node concept="Rh6nW" id="2p1v3tOaI75" role="1bW2Oz">
                        <property role="TrG5h" value="it" />
                        <node concept="2jxLKc" id="2p1v3tOaI76" role="1tU5fm" />
                      </node>
                    </node>
                  </node>
                </node>
                <node concept="2es0OD" id="2p1v3tOaFXp" role="2OqNvi">
                  <node concept="1bVj0M" id="2p1v3tOaFXr" role="23t8la">
                    <node concept="3clFbS" id="2p1v3tOaFXs" role="1bW5cS">
                      <node concept="3clFbF" id="2p1v3tOaG58" role="3cqZAp">
                        <node concept="37vLTI" id="2p1v3tOaLwV" role="3clFbG">
                          <node concept="2OqwBi" id="2p1v3tOaLS2" role="37vLTx">
                            <node concept="37vLTw" id="2p1v3tOaLCt" role="2Oq$k0">
                              <ref role="3cqZAo" node="2p1v3tOaFXt" resolve="it" />
                            </node>
                            <node concept="3TrcHB" id="2p1v3tOaMbm" role="2OqNvi">
                              <ref role="3TsBF5" to="1oap:7Mb2akaesrb" resolve="path" />
                            </node>
                          </node>
                          <node concept="2OqwBi" id="2p1v3tOaKE_" role="37vLTJ">
                            <node concept="37vLTw" id="2p1v3tOaKt5" role="2Oq$k0">
                              <ref role="3cqZAo" node="2p1v3tOaFXt" resolve="it" />
                            </node>
                            <node concept="3TrcHB" id="2p1v3tOaKX5" role="2OqNvi">
                              <ref role="3TsBF5" to="1oap:2p1v3tOafqN" resolve="file" />
                            </node>
                          </node>
                        </node>
                      </node>
                      <node concept="3clFbF" id="2p1v3tOaMuz" role="3cqZAp">
                        <node concept="2OqwBi" id="2p1v3tOaN1K" role="3clFbG">
                          <node concept="2JrnkZ" id="2p1v3tOaMOu" role="2Oq$k0">
                            <node concept="37vLTw" id="2p1v3tOaMux" role="2JrQYb">
                              <ref role="3cqZAo" node="2p1v3tOaFXt" resolve="it" />
                            </node>
                          </node>
                          <node concept="liA8E" id="2p1v3tOaNqZ" role="2OqNvi">
                            <ref role="37wK5l" to="mhbf:~SNode.setProperty(org.jetbrains.mps.openapi.language.SProperty,java.lang.String):void" resolve="setProperty" />
                            <node concept="355D3s" id="2p1v3tOaNzi" role="37wK5m">
                              <ref role="355D3t" to="1oap:7Mb2akaesra" resolve="Resource" />
                              <ref role="355D3u" to="1oap:7Mb2akaesrb" resolve="path" />
                            </node>
                            <node concept="10Nm6u" id="2p1v3tOaO7I" role="37wK5m" />
                          </node>
                        </node>
                      </node>
                    </node>
                    <node concept="Rh6nW" id="2p1v3tOaFXt" role="1bW2Oz">
                      <property role="TrG5h" value="it" />
                      <node concept="2jxLKc" id="2p1v3tOaFXu" role="1tU5fm" />
                    </node>
                  </node>
                </node>
              </node>
            </node>
          </node>
          <node concept="37vLTw" id="2p1v3tOaEt0" role="L3pyr">
            <ref role="3cqZAo" node="2p1v3tOaDTO" resolve="m" />
          </node>
        </node>
      </node>
      <node concept="ffn8J" id="2p1v3tOaDTO" role="3clF46">
        <property role="TrG5h" value="m" />
        <ref role="ffrpq" to="slm6:7fCCGqboj9J" resolve="m" />
        <node concept="3uibUv" id="2p1v3tOaDTN" role="1tU5fm">
          <ref role="3uigEE" to="lui2:~SModule" resolve="SModule" />
        </node>
      </node>
      <node concept="q3mfm" id="2p1v3tOaDTP" role="3clF45">
        <ref role="q3mfh" to="slm6:4F5w8gPXEEe" />
        <ref role="1QQUv3" node="2p1v3tOaDTI" resolve="execute" />
      </node>
    </node>
    <node concept="q3mfD" id="7cNFdCXIGCO" role="jymVt">
      <property role="TrG5h" value="check" />
      <ref role="2VtyIY" to="slm6:1JWcQ2VeXpD" resolve="check" />
      <node concept="3Tm1VV" id="7cNFdCXIGCQ" role="1B3o_S" />
      <node concept="3clFbS" id="7cNFdCXIGCS" role="3clF47">
        <node concept="L3pyB" id="7cNFdCXIHCz" role="3cqZAp">
          <node concept="3clFbS" id="7cNFdCXIHC$" role="L3pyw">
            <node concept="3cpWs6" id="4WvVqJw_Wqr" role="3cqZAp">
              <node concept="2OqwBi" id="7cNFdCXIHCA" role="3cqZAk">
                <node concept="2OqwBi" id="7cNFdCXIHCB" role="2Oq$k0">
                  <node concept="qVDSY" id="7cNFdCXIHCC" role="2Oq$k0">
                    <node concept="chp4Y" id="7cNFdCXIHCD" role="qVDSX">
                      <ref role="cht4Q" to="1oap:7Mb2akaesqV" resolve="FileIcon" />
                    </node>
                    <node concept="1dO9Bo" id="7cNFdCXIHCE" role="1dOa5D" />
                  </node>
                  <node concept="3zZkjj" id="7cNFdCXIHCF" role="2OqNvi">
                    <node concept="1bVj0M" id="7cNFdCXIHCG" role="23t8la">
                      <node concept="3clFbS" id="7cNFdCXIHCH" role="1bW5cS">
                        <node concept="3clFbF" id="7cNFdCXIHCI" role="3cqZAp">
                          <node concept="2OqwBi" id="7cNFdCXIHCJ" role="3clFbG">
                            <node concept="2OqwBi" id="7cNFdCXIHCK" role="2Oq$k0">
                              <node concept="37vLTw" id="7cNFdCXIHCL" role="2Oq$k0">
                                <ref role="3cqZAo" node="7cNFdCXIHCO" resolve="it" />
                              </node>
                              <node concept="3TrcHB" id="7cNFdCXIHCM" role="2OqNvi">
                                <ref role="3TsBF5" to="1oap:7Mb2akaesrb" resolve="path" />
                              </node>
                            </node>
                            <node concept="17RvpY" id="7cNFdCXIHCN" role="2OqNvi" />
                          </node>
                        </node>
                      </node>
                      <node concept="Rh6nW" id="7cNFdCXIHCO" role="1bW2Oz">
                        <property role="TrG5h" value="it" />
                        <node concept="2jxLKc" id="7cNFdCXIHCP" role="1tU5fm" />
                      </node>
                    </node>
                  </node>
                </node>
                <node concept="3$u5V9" id="4WvVqJwAHbP" role="2OqNvi">
                  <node concept="1bVj0M" id="4WvVqJwAHbR" role="23t8la">
                    <node concept="3clFbS" id="4WvVqJwAHbS" role="1bW5cS">
                      <node concept="3clFbF" id="4WvVqJw_UK0" role="3cqZAp">
                        <node concept="2ShNRf" id="4WvVqJw_UK1" role="3clFbG">
                          <node concept="YeOm9" id="4WvVqJw_UK2" role="2ShVmc">
                            <node concept="1Y3b0j" id="4WvVqJw_UK3" role="YeSDq">
                              <property role="1sVAO0" value="false" />
                              <property role="1EXbeo" value="false" />
                              <ref role="1Y3XeK" to="6f4m:4JdgAL_5vM9" resolve="NotMigratedNode" />
                              <ref role="37wK5l" to="6f4m:4JdgAL_5wEf" resolve="NotMigratedNode" />
                              <node concept="3clFb_" id="4WvVqJw_UK4" role="jymVt">
                                <property role="TrG5h" value="getMessage" />
                                <property role="DiZV1" value="false" />
                                <property role="od$2w" value="false" />
                                <node concept="3clFbS" id="4WvVqJw_UK5" role="3clF47">
                                  <node concept="3clFbF" id="4WvVqJw_UK6" role="3cqZAp">
                                    <node concept="Xl_RD" id="4WvVqJw_UK8" role="3clFbG">
                                      <property role="Xl_RC" value="Path property is not empty" />
                                    </node>
                                  </node>
                                </node>
                                <node concept="3Tm1VV" id="4WvVqJw_UKa" role="1B3o_S" />
                                <node concept="3uibUv" id="4WvVqJw_UKb" role="3clF45">
                                  <ref role="3uigEE" to="wyt6:~String" resolve="String" />
                                </node>
                              </node>
                              <node concept="37vLTw" id="4WvVqJwAHAE" role="37wK5m">
                                <ref role="3cqZAo" node="4WvVqJwAHbT" resolve="it" />
                              </node>
                            </node>
                          </node>
                        </node>
                      </node>
                    </node>
                    <node concept="Rh6nW" id="4WvVqJwAHbT" role="1bW2Oz">
                      <property role="TrG5h" value="it" />
                      <node concept="2jxLKc" id="4WvVqJwAHbU" role="1tU5fm" />
                    </node>
                  </node>
                </node>
              </node>
            </node>
          </node>
          <node concept="37vLTw" id="7cNFdCXIHDa" role="L3pyr">
            <ref role="3cqZAo" node="7cNFdCXIGCU" resolve="m" />
          </node>
        </node>
      </node>
      <node concept="ffn8J" id="7cNFdCXIGCU" role="3clF46">
        <property role="TrG5h" value="m" />
        <ref role="ffrpq" to="slm6:1JWcQ2VeXI5" resolve="m" />
        <node concept="3uibUv" id="7cNFdCXIGCT" role="1tU5fm">
          <ref role="3uigEE" to="lui2:~SModule" resolve="SModule" />
        </node>
      </node>
      <node concept="A3Dl8" id="7cNFdCXIHlK" role="3clF45">
        <node concept="3uibUv" id="7cNFdCXIHlL" role="A3Ik2">
          <ref role="3uigEE" to="6f4m:3n7MNzO_IjP" resolve="Problem" />
        </node>
      </node>
    </node>
  </node>
  <node concept="3SyAh_" id="4tNpY9mMMZM">
    <property role="qMTe8" value="1" />
    <property role="TrG5h" value="InlineIconExpressions" />
    <node concept="3Tm1VV" id="4tNpY9mMMZN" role="1B3o_S" />
    <node concept="3tTeZs" id="4tNpY9mMMZO" role="jymVt">
      <property role="3tTeZt" value="&lt;no execute after&gt;" />
      <ref role="3tTeZr" to="slm6:7ay_HjIMt1a" resolve="execute after" />
    </node>
    <node concept="3tTeZs" id="4tNpY9mMMZP" role="jymVt">
      <property role="3tTeZt" value="&lt;no required data&gt;" />
      <ref role="3tTeZr" to="slm6:3A3gNhf1WPI" resolve="requires data" />
    </node>
    <node concept="3tTeZs" id="4tNpY9mMMZQ" role="jymVt">
      <property role="3tTeZt" value="&lt;no produced data&gt;" />
      <ref role="3tTeZr" to="slm6:536fTXa4WHO" resolve="produces data" />
    </node>
    <node concept="2tJIrI" id="4tNpY9mMMZR" role="jymVt" />
    <node concept="3tYpMH" id="7cNFdCXIEQz" role="jymVt">
      <property role="TrG5h" value="isRerunnable" />
      <property role="3tYpME" value="true" />
      <ref role="25KYV2" to="slm6:1JWcQ2VeWIs" resolve="isRerunnable" />
      <node concept="3Tm1VV" id="7cNFdCXIEQ_" role="1B3o_S" />
      <node concept="10P_77" id="7cNFdCXIEQA" role="1tU5fm" />
    </node>
    <node concept="3tYpXE" id="7cNFdCXIERe" role="jymVt">
      <property role="TrG5h" value="description" />
      <property role="3tYpXF" value="Inline icon expressions" />
      <ref role="25KYV2" to="slm6:1_lSsE3RFpE" resolve="description" />
      <node concept="3Tm1VV" id="7cNFdCXIERg" role="1B3o_S" />
      <node concept="17QB3L" id="7cNFdCXIERh" role="1tU5fm" />
    </node>
    <node concept="q3mfD" id="4tNpY9mMMZU" role="jymVt">
      <property role="TrG5h" value="execute" />
      <ref role="2VtyIY" to="slm6:4ubqdNOF9cA" resolve="execute" />
      <node concept="3Tm1VV" id="4tNpY9mMMZW" role="1B3o_S" />
      <node concept="3clFbS" id="4tNpY9mMMZY" role="3clF47">
        <node concept="L3pyB" id="4WvVqJw_XOs" role="3cqZAp">
          <node concept="3clFbS" id="4WvVqJw_XOt" role="L3pyw">
            <node concept="3clFbF" id="4WvVqJw_XWv" role="3cqZAp">
              <node concept="2OqwBi" id="4WvVqJwAkl6" role="3clFbG">
                <node concept="2OqwBi" id="4WvVqJwAbU2" role="2Oq$k0">
                  <node concept="qVDSY" id="4WvVqJw_XWs" role="2Oq$k0">
                    <node concept="chp4Y" id="4WvVqJw_XY8" role="qVDSX">
                      <ref role="cht4Q" to="1oap:7Mb2akaesr3" resolve="IconExpression" />
                    </node>
                    <node concept="1dO9Bo" id="4WvVqJw_XWu" role="1dOa5D" />
                  </node>
                  <node concept="3zZkjj" id="4WvVqJwAcU3" role="2OqNvi">
                    <node concept="1bVj0M" id="4WvVqJwAcU5" role="23t8la">
                      <node concept="3clFbS" id="4WvVqJwAcU6" role="1bW5cS">
                        <node concept="3clFbF" id="4WvVqJwAd0C" role="3cqZAp">
                          <node concept="2OqwBi" id="4WvVqJwAjyS" role="3clFbG">
                            <node concept="2OqwBi" id="4WvVqJwAiPF" role="2Oq$k0">
                              <node concept="1PxgMI" id="4WvVqJwAi0m" role="2Oq$k0">
                                <property role="1BlNFB" value="true" />
                                <ref role="1m5ApE" to="1oap:7Mb2akaesqV" resolve="FileIcon" />
                                <node concept="2OqwBi" id="4WvVqJwAdbD" role="1m5AlR">
                                  <node concept="37vLTw" id="4WvVqJwAd0B" role="2Oq$k0">
                                    <ref role="3cqZAo" node="4WvVqJwAcU7" resolve="it" />
                                  </node>
                                  <node concept="3TrEf2" id="4WvVqJwAdG0" role="2OqNvi">
                                    <ref role="3Tt5mk" to="1oap:7Mb2akaesr5" />
                                  </node>
                                </node>
                              </node>
                              <node concept="3TrEf2" id="4WvVqJwAj6i" role="2OqNvi">
                                <ref role="3Tt5mk" to="1oap:63hNSM1YIC9" />
                              </node>
                            </node>
                            <node concept="3x8VRR" id="4WvVqJwAjYl" role="2OqNvi" />
                          </node>
                        </node>
                      </node>
                      <node concept="Rh6nW" id="4WvVqJwAcU7" role="1bW2Oz">
                        <property role="TrG5h" value="it" />
                        <node concept="2jxLKc" id="4WvVqJwAcU8" role="1tU5fm" />
                      </node>
                    </node>
                  </node>
                </node>
                <node concept="2es0OD" id="4WvVqJwAkS$" role="2OqNvi">
                  <node concept="1bVj0M" id="4WvVqJwAkSA" role="23t8la">
                    <node concept="3clFbS" id="4WvVqJwAkSB" role="1bW5cS">
                      <node concept="3clFbF" id="4WvVqJwAkYX" role="3cqZAp">
                        <node concept="2OqwBi" id="4WvVqJwAl8U" role="3clFbG">
                          <node concept="37vLTw" id="4WvVqJwAkYW" role="2Oq$k0">
                            <ref role="3cqZAo" node="4WvVqJwAkSC" resolve="it" />
                          </node>
                          <node concept="1P9Npp" id="4WvVqJwAlBv" role="2OqNvi">
                            <node concept="2OqwBi" id="4WvVqJwAlSr" role="1P9ThW">
                              <node concept="1PxgMI" id="4WvVqJwAlSs" role="2Oq$k0">
                                <property role="1BlNFB" value="true" />
                                <ref role="1m5ApE" to="1oap:7Mb2akaesqV" resolve="FileIcon" />
                                <node concept="2OqwBi" id="4WvVqJwAlSt" role="1m5AlR">
                                  <node concept="37vLTw" id="4WvVqJwAlSu" role="2Oq$k0">
                                    <ref role="3cqZAo" node="4WvVqJwAkSC" resolve="it" />
                                  </node>
                                  <node concept="3TrEf2" id="4WvVqJwAlSv" role="2OqNvi">
                                    <ref role="3Tt5mk" to="1oap:7Mb2akaesr5" />
                                  </node>
                                </node>
                              </node>
                              <node concept="3TrEf2" id="4WvVqJwAlSw" role="2OqNvi">
                                <ref role="3Tt5mk" to="1oap:63hNSM1YIC9" />
                              </node>
                            </node>
                          </node>
                        </node>
                      </node>
                    </node>
                    <node concept="Rh6nW" id="4WvVqJwAkSC" role="1bW2Oz">
                      <property role="TrG5h" value="it" />
                      <node concept="2jxLKc" id="4WvVqJwAkSD" role="1tU5fm" />
                    </node>
                  </node>
                </node>
              </node>
            </node>
          </node>
          <node concept="37vLTw" id="4WvVqJw_XP7" role="L3pyr">
            <ref role="3cqZAo" node="4tNpY9mMN00" resolve="m" />
          </node>
        </node>
      </node>
      <node concept="ffn8J" id="4tNpY9mMN00" role="3clF46">
        <property role="TrG5h" value="m" />
        <ref role="ffrpq" to="slm6:7fCCGqboj9J" resolve="m" />
        <node concept="3uibUv" id="4tNpY9mMMZZ" role="1tU5fm">
          <ref role="3uigEE" to="lui2:~SModule" resolve="SModule" />
        </node>
      </node>
      <node concept="q3mfm" id="4tNpY9mMN01" role="3clF45">
        <ref role="q3mfh" to="slm6:4F5w8gPXEEe" />
        <ref role="1QQUv3" node="4tNpY9mMMZU" resolve="execute" />
      </node>
    </node>
    <node concept="q3mfD" id="4WvVqJwAm4S" role="jymVt">
      <property role="TrG5h" value="check" />
      <ref role="2VtyIY" to="slm6:1JWcQ2VeXpD" resolve="check" />
      <node concept="3Tm1VV" id="4WvVqJwAm4U" role="1B3o_S" />
      <node concept="3clFbS" id="4WvVqJwAm4W" role="3clF47">
        <node concept="L3pyB" id="4WvVqJwAA2$" role="3cqZAp">
          <node concept="3clFbS" id="4WvVqJwAA2A" role="L3pyw">
            <node concept="3cpWs6" id="4WvVqJwAn52" role="3cqZAp">
              <node concept="2OqwBi" id="4WvVqJwAm9r" role="3cqZAk">
                <node concept="2OqwBi" id="4WvVqJwAm9s" role="2Oq$k0">
                  <node concept="qVDSY" id="4WvVqJwAm9t" role="2Oq$k0">
                    <node concept="chp4Y" id="4WvVqJwAm9u" role="qVDSX">
                      <ref role="cht4Q" to="1oap:7Mb2akaesr3" resolve="IconExpression" />
                    </node>
                    <node concept="1dO9Bo" id="4WvVqJwAm9v" role="1dOa5D" />
                  </node>
                  <node concept="3zZkjj" id="4WvVqJwAm9w" role="2OqNvi">
                    <node concept="1bVj0M" id="4WvVqJwAm9x" role="23t8la">
                      <node concept="3clFbS" id="4WvVqJwAm9y" role="1bW5cS">
                        <node concept="3clFbF" id="4WvVqJwAm9z" role="3cqZAp">
                          <node concept="2OqwBi" id="4WvVqJwAm9$" role="3clFbG">
                            <node concept="2OqwBi" id="4WvVqJwAm9_" role="2Oq$k0">
                              <node concept="1PxgMI" id="4WvVqJwAm9A" role="2Oq$k0">
                                <property role="1BlNFB" value="true" />
                                <ref role="1m5ApE" to="1oap:7Mb2akaesqV" resolve="FileIcon" />
                                <node concept="2OqwBi" id="4WvVqJwAm9B" role="1m5AlR">
                                  <node concept="37vLTw" id="4WvVqJwAm9C" role="2Oq$k0">
                                    <ref role="3cqZAo" node="4WvVqJwAm9G" resolve="it" />
                                  </node>
                                  <node concept="3TrEf2" id="4WvVqJwAm9D" role="2OqNvi">
                                    <ref role="3Tt5mk" to="1oap:7Mb2akaesr5" />
                                  </node>
                                </node>
                              </node>
                              <node concept="3TrEf2" id="4WvVqJwAm9E" role="2OqNvi">
                                <ref role="3Tt5mk" to="1oap:63hNSM1YIC9" />
                              </node>
                            </node>
                            <node concept="3x8VRR" id="4WvVqJwAm9F" role="2OqNvi" />
                          </node>
                        </node>
                      </node>
                      <node concept="Rh6nW" id="4WvVqJwAm9G" role="1bW2Oz">
                        <property role="TrG5h" value="it" />
                        <node concept="2jxLKc" id="4WvVqJwAm9H" role="1tU5fm" />
                      </node>
                    </node>
                  </node>
                </node>
                <node concept="3$u5V9" id="4WvVqJwAohV" role="2OqNvi">
                  <node concept="1bVj0M" id="4WvVqJwAohX" role="23t8la">
                    <node concept="3clFbS" id="4WvVqJwAohY" role="1bW5cS">
                      <node concept="3clFbF" id="4WvVqJwAm9L" role="3cqZAp">
                        <node concept="2ShNRf" id="4WvVqJwAmJT" role="3clFbG">
                          <node concept="YeOm9" id="4WvVqJwAmJU" role="2ShVmc">
                            <node concept="1Y3b0j" id="4WvVqJwAmJV" role="YeSDq">
                              <property role="1sVAO0" value="false" />
                              <property role="1EXbeo" value="false" />
                              <ref role="37wK5l" to="6f4m:4JdgAL_5wEf" resolve="NotMigratedNode" />
                              <ref role="1Y3XeK" to="6f4m:4JdgAL_5vM9" resolve="NotMigratedNode" />
                              <node concept="3clFb_" id="4WvVqJwAmJW" role="jymVt">
                                <property role="TrG5h" value="getMessage" />
                                <property role="DiZV1" value="false" />
                                <property role="od$2w" value="false" />
                                <node concept="3clFbS" id="4WvVqJwAmJX" role="3clF47">
                                  <node concept="3clFbF" id="4WvVqJwAmJY" role="3cqZAp">
                                    <node concept="Xl_RD" id="4WvVqJwAmJZ" role="3clFbG">
                                      <property role="Xl_RC" value="icon{...} can be replaced with its content" />
                                    </node>
                                  </node>
                                </node>
                                <node concept="3Tm1VV" id="4WvVqJwAmK0" role="1B3o_S" />
                                <node concept="3uibUv" id="4WvVqJwAmK1" role="3clF45">
                                  <ref role="3uigEE" to="wyt6:~String" resolve="String" />
                                </node>
                              </node>
                              <node concept="37vLTw" id="4WvVqJwAoOa" role="37wK5m">
                                <ref role="3cqZAo" node="4WvVqJwAohZ" resolve="it" />
                              </node>
                            </node>
                          </node>
                        </node>
                      </node>
                    </node>
                    <node concept="Rh6nW" id="4WvVqJwAohZ" role="1bW2Oz">
                      <property role="TrG5h" value="it" />
                      <node concept="2jxLKc" id="4WvVqJwAoi0" role="1tU5fm" />
                    </node>
                  </node>
                </node>
              </node>
            </node>
          </node>
          <node concept="37vLTw" id="4WvVqJwAAlD" role="L3pyr">
            <ref role="3cqZAo" node="4WvVqJwAm4Y" resolve="m" />
          </node>
        </node>
      </node>
      <node concept="ffn8J" id="4WvVqJwAm4Y" role="3clF46">
        <property role="TrG5h" value="m" />
        <ref role="ffrpq" to="slm6:1JWcQ2VeXI5" resolve="m" />
        <node concept="3uibUv" id="4WvVqJwAm4X" role="1tU5fm">
          <ref role="3uigEE" to="lui2:~SModule" resolve="SModule" />
        </node>
      </node>
      <node concept="A3Dl8" id="4WvVqJwAm4Z" role="3clF45">
        <node concept="3uibUv" id="4WvVqJwAm50" role="A3Ik2">
          <ref role="3uigEE" to="6f4m:3n7MNzO_IjP" resolve="Problem" />
        </node>
      </node>
    </node>
  </node>
</model>

