<?xml version="1.0" encoding="UTF-8"?>
<model ref="r:03d44d4c-3d65-461c-9085-0f48e9569e59(jetbrains.mps.lang.resources.structure)">
  <persistence version="9" />
  <languages>
    <use id="c72da2b9-7cce-4447-8389-f407dc1158b7" name="jetbrains.mps.lang.structure" version="3" />
    <use id="982eb8df-2c96-4bd7-9963-11712ea622e5" name="jetbrains.mps.lang.resources" version="2" />
  </languages>
  <imports>
    <import index="tpee" ref="r:00000000-0000-4000-0000-011c895902ca(jetbrains.mps.baseLanguage.structure)" />
    <import index="tpck" ref="r:00000000-0000-4000-0000-011c89590288(jetbrains.mps.lang.core.structure)" implicit="true" />
  </imports>
  <registry>
    <language id="982eb8df-2c96-4bd7-9963-11712ea622e5" name="jetbrains.mps.lang.resources">
      <concept id="8974276187400029883" name="jetbrains.mps.lang.resources.structure.FileIcon" flags="ng" index="1QGGSu">
        <property id="2756621024541341363" name="file" index="1iqoE4" />
      </concept>
    </language>
    <language id="c72da2b9-7cce-4447-8389-f407dc1158b7" name="jetbrains.mps.lang.structure">
      <concept id="1224240836180" name="jetbrains.mps.lang.structure.structure.DeprecatedNodeAnnotation" flags="ig" index="asaX9">
        <property id="1225118929411" name="build" index="YLPcu" />
        <property id="1225118933224" name="comment" index="YLQ7P" />
      </concept>
      <concept id="1082978164219" name="jetbrains.mps.lang.structure.structure.EnumerationDataTypeDeclaration" flags="ng" index="AxPO7">
        <reference id="1083171729157" name="memberDataType" index="M4eZT" />
        <child id="1083172003582" name="member" index="M5hS2" />
      </concept>
      <concept id="1082978499127" name="jetbrains.mps.lang.structure.structure.ConstrainedDataTypeDeclaration" flags="ng" index="Az7Fb">
        <property id="1083066089218" name="constraint" index="FLfZY" />
      </concept>
      <concept id="1083171877298" name="jetbrains.mps.lang.structure.structure.EnumerationMemberDeclaration" flags="ig" index="M4N5e">
        <property id="1083923523172" name="externalValue" index="1uS6qo" />
        <property id="1083923523171" name="internalValue" index="1uS6qv" />
      </concept>
      <concept id="1169125787135" name="jetbrains.mps.lang.structure.structure.AbstractConceptDeclaration" flags="ig" index="PkWjJ">
        <property id="6714410169261853888" name="conceptId" index="EcuMT" />
        <property id="4628067390765956807" name="final" index="R5$K2" />
        <property id="4628067390765956802" name="abstract" index="R5$K7" />
        <property id="5092175715804935370" name="conceptAlias" index="34LRSv" />
        <child id="1071489727083" name="linkDeclaration" index="1TKVEi" />
        <child id="1071489727084" name="propertyDeclaration" index="1TKVEl" />
      </concept>
      <concept id="1169125989551" name="jetbrains.mps.lang.structure.structure.InterfaceConceptDeclaration" flags="ig" index="PlHQZ">
        <child id="1169127546356" name="extends" index="PrDN$" />
      </concept>
      <concept id="1169127622168" name="jetbrains.mps.lang.structure.structure.InterfaceConceptReference" flags="ig" index="PrWs8">
        <reference id="1169127628841" name="intfc" index="PrY4T" />
      </concept>
      <concept id="1071489090640" name="jetbrains.mps.lang.structure.structure.ConceptDeclaration" flags="ig" index="1TIwiD">
        <property id="5404671619616246344" name="staticScope" index="2_RsDV" />
        <property id="1096454100552" name="rootable" index="19KtqR" />
        <reference id="1071489389519" name="extends" index="1TJDcQ" />
        <child id="6327362524875300597" name="icon" index="rwd14" />
        <child id="1169129564478" name="implements" index="PzmwI" />
      </concept>
      <concept id="1071489288299" name="jetbrains.mps.lang.structure.structure.PropertyDeclaration" flags="ig" index="1TJgyi">
        <property id="241647608299431129" name="propertyId" index="IQ2nx" />
        <reference id="1082985295845" name="dataType" index="AX2Wp" />
      </concept>
      <concept id="1071489288298" name="jetbrains.mps.lang.structure.structure.LinkDeclaration" flags="ig" index="1TJgyj">
        <property id="1071599776563" name="role" index="20kJfa" />
        <property id="1071599893252" name="sourceCardinality" index="20lbJX" />
        <property id="1071599937831" name="metaClass" index="20lmBu" />
        <property id="241647608299431140" name="linkId" index="IQ2ns" />
        <reference id="1071599976176" name="target" index="20lvS9" />
      </concept>
    </language>
    <language id="ceab5195-25ea-4f22-9b92-103b95ca8c0c" name="jetbrains.mps.lang.core">
      <concept id="1133920641626" name="jetbrains.mps.lang.core.structure.BaseConcept" flags="ng" index="2VYdi">
        <property id="1193676396447" name="virtualPackage" index="3GE5qa" />
        <child id="5169995583184591170" name="smodelAttribute" index="lGtFl" />
      </concept>
      <concept id="1169194658468" name="jetbrains.mps.lang.core.structure.INamedConcept" flags="ng" index="TrEIO">
        <property id="1169194664001" name="name" index="TrG5h" />
      </concept>
    </language>
  </registry>
  <node concept="1TIwiD" id="7Mb2akaesqV">
    <property role="TrG5h" value="FileIcon" />
    <property role="EcuMT" value="8974276187400029883" />
    <property role="3GE5qa" value="icons.descriptors" />
    <property role="34LRSv" value="file" />
    <ref role="1TJDcQ" to="tpck:gw2VY9q" resolve="BaseConcept" />
    <node concept="1TJgyi" id="2p1v3tOafqN" role="1TKVEl">
      <property role="IQ2nx" value="2756621024541341363" />
      <property role="TrG5h" value="file" />
      <ref role="AX2Wp" to="tpck:fKAOsGN" resolve="string" />
    </node>
    <node concept="1TJgyj" id="63hNSM1YIC9" role="1TKVEi">
      <property role="20lmBu" value="aggregation" />
      <property role="20kJfa" value="iconExpression" />
      <property role="IQ2ns" value="6976585500156684809" />
      <ref role="20lvS9" to="tpee:fz3vP1J" resolve="Expression" />
      <node concept="asaX9" id="2p1v3tOa9VJ" role="lGtFl">
        <property role="YLPcu" value="3.4" />
        <property role="YLQ7P" value="use LayeredFileIcon instead or implement another type of icon; remove after 3.4" />
      </node>
    </node>
    <node concept="PrWs8" id="2p1v3tOaefm" role="PzmwI">
      <ref role="PrY4T" node="2p1v3tOa9VI" resolve="Icon" />
    </node>
  </node>
  <node concept="1TIwiD" id="7Mb2akaesqX">
    <property role="19KtqR" value="true" />
    <property role="TrG5h" value="OldIconBundle" />
    <property role="EcuMT" value="8974276187400029885" />
    <property role="3GE5qa" value="deprecated" />
    <ref role="1TJDcQ" to="tpck:gw2VY9q" resolve="BaseConcept" />
    <node concept="1QGGSu" id="4Q8sAA5iKg_" role="rwd14">
      <property role="1iqoE4" value="${module}/icons/iconResourceBundle.png" />
    </node>
    <node concept="1TJgyj" id="7Mb2akaesqY" role="1TKVEi">
      <property role="20lmBu" value="aggregation" />
      <property role="20kJfa" value="icons" />
      <property role="20lbJX" value="0..n" />
      <property role="IQ2ns" value="8974276187400029886" />
      <ref role="20lvS9" node="7Mb2akaesr0" resolve="OldIconDeclaration" />
    </node>
    <node concept="PrWs8" id="7Mb2akaesqZ" role="PzmwI">
      <ref role="PrY4T" to="tpck:h0TrEE$" resolve="INamedConcept" />
    </node>
    <node concept="asaX9" id="2p1v3tOa9VE" role="lGtFl" />
  </node>
  <node concept="1TIwiD" id="7Mb2akaesr0">
    <property role="TrG5h" value="OldIconDeclaration" />
    <property role="EcuMT" value="8974276187400029888" />
    <property role="3GE5qa" value="deprecated" />
    <ref role="1TJDcQ" to="tpck:gw2VY9q" resolve="BaseConcept" />
    <node concept="1TJgyj" id="7Mb2akaesr1" role="1TKVEi">
      <property role="20lmBu" value="aggregation" />
      <property role="20kJfa" value="iconExpression" />
      <property role="20lbJX" value="1" />
      <property role="IQ2ns" value="8974276187400029889" />
      <ref role="20lvS9" to="tpee:fz3vP1J" resolve="Expression" />
    </node>
    <node concept="PrWs8" id="7Mb2akaesr2" role="PzmwI">
      <ref role="PrY4T" to="tpck:h0TrEE$" resolve="INamedConcept" />
    </node>
    <node concept="asaX9" id="2p1v3tOa9VC" role="lGtFl" />
  </node>
  <node concept="1TIwiD" id="7Mb2akaesr3">
    <property role="R5$K7" value="false" />
    <property role="R5$K2" value="false" />
    <property role="TrG5h" value="IconExpression" />
    <property role="2_RsDV" value="none" />
    <property role="34LRSv" value="icon" />
    <property role="EcuMT" value="8974276187400029891" />
    <property role="3GE5qa" value="icons.instantiation" />
    <ref role="1TJDcQ" to="tpee:fz3vP1J" resolve="Expression" />
    <node concept="1TJgyj" id="7Mb2akaesr5" role="1TKVEi">
      <property role="20lmBu" value="aggregation" />
      <property role="20kJfa" value="icon" />
      <property role="20lbJX" value="1" />
      <property role="IQ2ns" value="8974276187400029893" />
      <ref role="20lvS9" node="2p1v3tOa9VI" resolve="Icon" />
    </node>
  </node>
  <node concept="1TIwiD" id="7Mb2akaesr7">
    <property role="R5$K7" value="false" />
    <property role="R5$K2" value="false" />
    <property role="TrG5h" value="OldIconReference" />
    <property role="2_RsDV" value="none" />
    <property role="34LRSv" value="icon" />
    <property role="EcuMT" value="8974276187400029895" />
    <property role="3GE5qa" value="deprecated" />
    <ref role="1TJDcQ" to="tpee:fz3vP1J" resolve="Expression" />
    <node concept="1TJgyj" id="7Mb2akaesr8" role="1TKVEi">
      <property role="20lmBu" value="reference" />
      <property role="20kJfa" value="declaration" />
      <property role="20lbJX" value="1" />
      <property role="IQ2ns" value="8974276187400029896" />
      <ref role="20lvS9" node="7Mb2akaesr0" resolve="OldIconDeclaration" />
    </node>
    <node concept="asaX9" id="2p1v3tOa9VA" role="lGtFl" />
  </node>
  <node concept="PlHQZ" id="7Mb2akaesra">
    <property role="TrG5h" value="Resource" />
    <property role="EcuMT" value="8974276187400029898" />
    <node concept="1TJgyi" id="7Mb2akaesrb" role="1TKVEl">
      <property role="TrG5h" value="path" />
      <property role="IQ2nx" value="8974276187400029899" />
      <ref role="AX2Wp" to="tpck:fKAOsGN" resolve="string" />
      <node concept="asaX9" id="2p1v3tOadsY" role="lGtFl">
        <property role="YLPcu" value="3.4" />
        <property role="YLQ7P" value="use getResourceId() in case of icon resource or create your own field otherwise" />
      </node>
    </node>
  </node>
  <node concept="1TIwiD" id="5bVxHVEuklu">
    <property role="EcuMT" value="5979521222239143262" />
    <property role="TrG5h" value="IconResourceExpression" />
    <property role="34LRSv" value="iconResource" />
    <property role="3GE5qa" value="icons.instantiation" />
    <ref role="1TJDcQ" to="tpee:fz3vP1J" resolve="Expression" />
    <node concept="1TJgyj" id="5bVxHVEur_0" role="1TKVEi">
      <property role="20lmBu" value="aggregation" />
      <property role="20kJfa" value="icon" />
      <property role="20lbJX" value="1" />
      <property role="IQ2ns" value="5979521222239172928" />
      <ref role="20lvS9" node="2p1v3tOa9VI" resolve="Icon" />
    </node>
  </node>
  <node concept="PlHQZ" id="2p1v3tOa9VI">
    <property role="EcuMT" value="2756621024541318894" />
    <property role="TrG5h" value="Icon" />
    <property role="3GE5qa" value="icons" />
    <node concept="PrWs8" id="2p1v3tOabRZ" role="PrDN$">
      <ref role="PrY4T" node="7Mb2akaesra" resolve="Resource" />
    </node>
  </node>
  <node concept="1TIwiD" id="2p1v3tObwP5">
    <property role="EcuMT" value="2756621024541674821" />
    <property role="3GE5qa" value="icons.descriptors" />
    <property role="TrG5h" value="TextIcon" />
    <property role="34LRSv" value="describe" />
    <ref role="1TJDcQ" to="tpck:gw2VY9q" resolve="BaseConcept" />
    <node concept="1TJgyi" id="1brHjIQHw0T" role="1TKVEl">
      <property role="IQ2nx" value="1358878980655415353" />
      <property role="TrG5h" value="iconId" />
      <ref role="AX2Wp" to="tpck:fKAOsGN" resolve="string" />
    </node>
    <node concept="1TJgyj" id="2p1v3tObwTA" role="1TKVEi">
      <property role="IQ2ns" value="2756621024541675110" />
      <property role="20lmBu" value="aggregation" />
      <property role="20kJfa" value="layers" />
      <property role="20lbJX" value="1..n" />
      <ref role="20lvS9" node="2p1v3tObwT_" resolve="IconLayerDescription" />
    </node>
    <node concept="PrWs8" id="2p1v3tObwP6" role="PzmwI">
      <ref role="PrY4T" node="2p1v3tOa9VI" resolve="Icon" />
    </node>
  </node>
  <node concept="1TIwiD" id="2p1v3tObwTw">
    <property role="EcuMT" value="2756621024541675104" />
    <property role="3GE5qa" value="icons.descriptors.text" />
    <property role="TrG5h" value="Circle" />
    <ref role="1TJDcQ" node="2p1v3tObyyL" resolve="Primitive" />
    <node concept="1TJgyi" id="2p1v3tObyz1" role="1TKVEl">
      <property role="IQ2nx" value="2756621024541681857" />
      <property role="TrG5h" value="r" />
      <ref role="AX2Wp" node="1ng4Vf3UMua" resolve="Size" />
    </node>
  </node>
  <node concept="1TIwiD" id="2p1v3tObwTx">
    <property role="EcuMT" value="2756621024541675105" />
    <property role="3GE5qa" value="icons.descriptors.text" />
    <property role="TrG5h" value="Rect" />
    <ref role="1TJDcQ" node="2p1v3tObyyL" resolve="Primitive" />
    <node concept="1TJgyi" id="2p1v3tObwTy" role="1TKVEl">
      <property role="IQ2nx" value="2756621024541675106" />
      <property role="TrG5h" value="r" />
      <ref role="AX2Wp" node="1ng4Vf3UMua" resolve="Size" />
    </node>
  </node>
  <node concept="PlHQZ" id="2p1v3tObwT_">
    <property role="EcuMT" value="2756621024541675109" />
    <property role="3GE5qa" value="icons.descriptors.text" />
    <property role="TrG5h" value="IconLayerDescription" />
  </node>
  <node concept="1TIwiD" id="2p1v3tObyyL">
    <property role="EcuMT" value="2756621024541681841" />
    <property role="3GE5qa" value="icons.descriptors.text" />
    <property role="TrG5h" value="Primitive" />
    <property role="R5$K7" value="true" />
    <property role="R5$K2" value="false" />
    <ref role="1TJDcQ" to="tpck:gw2VY9q" resolve="BaseConcept" />
    <node concept="1TJgyj" id="1BguvjG4kKh" role="1TKVEi">
      <property role="IQ2ns" value="1860120738943552529" />
      <property role="20lmBu" value="aggregation" />
      <property role="20kJfa" value="fillColor" />
      <property role="20lbJX" value="1" />
      <ref role="20lvS9" node="1BguvjG4kJu" resolve="Color" />
    </node>
    <node concept="1TJgyj" id="1BguvjG4kKj" role="1TKVEi">
      <property role="IQ2ns" value="1860120738943552531" />
      <property role="20lmBu" value="aggregation" />
      <property role="20kJfa" value="borderColor" />
      <property role="20lbJX" value="0..1" />
      <ref role="20lvS9" node="1BguvjG4kJu" resolve="Color" />
    </node>
    <node concept="PrWs8" id="2p1v3tObyyR" role="PzmwI">
      <ref role="PrY4T" node="2p1v3tObwT_" resolve="IconLayerDescription" />
    </node>
  </node>
  <node concept="1TIwiD" id="2p1v3tObyyT">
    <property role="EcuMT" value="2756621024541681849" />
    <property role="3GE5qa" value="icons.descriptors.text" />
    <property role="TrG5h" value="Text" />
    <ref role="1TJDcQ" to="tpck:gw2VY9q" resolve="BaseConcept" />
    <node concept="1TJgyj" id="1BguvjG4kKm" role="1TKVEi">
      <property role="IQ2ns" value="1860120738943552534" />
      <property role="20lmBu" value="aggregation" />
      <property role="20kJfa" value="color" />
      <property role="20lbJX" value="1" />
      <ref role="20lvS9" node="1BguvjG4kJu" resolve="Color" />
    </node>
    <node concept="PrWs8" id="2p1v3tObyyU" role="PzmwI">
      <ref role="PrY4T" node="2p1v3tObwT_" resolve="IconLayerDescription" />
    </node>
    <node concept="1TJgyi" id="2p1v3tObyyY" role="1TKVEl">
      <property role="IQ2nx" value="2756621024541681854" />
      <property role="TrG5h" value="text" />
      <ref role="AX2Wp" to="tpck:fKAOsGN" resolve="string" />
    </node>
  </node>
  <node concept="1TIwiD" id="Ib_Fk7zNdB">
    <property role="EcuMT" value="831924260440060775" />
    <property role="3GE5qa" value="icons.descriptors.text" />
    <property role="TrG5h" value="Image" />
    <ref role="1TJDcQ" to="tpck:gw2VY9q" resolve="BaseConcept" />
    <node concept="1TJgyi" id="Ib_Fk7zNeV" role="1TKVEl">
      <property role="IQ2nx" value="831924260440060859" />
      <property role="TrG5h" value="file" />
      <ref role="AX2Wp" to="tpck:fKAOsGN" resolve="string" />
    </node>
    <node concept="PrWs8" id="Ib_Fk7zNdC" role="PzmwI">
      <ref role="PrY4T" node="2p1v3tObwT_" resolve="IconLayerDescription" />
    </node>
  </node>
  <node concept="1TIwiD" id="1BguvjG4kJt">
    <property role="EcuMT" value="1860120738943552477" />
    <property role="3GE5qa" value="icons.descriptors.text" />
    <property role="TrG5h" value="ColorLiteral" />
    <property role="34LRSv" value="#" />
    <ref role="1TJDcQ" to="tpck:gw2VY9q" resolve="BaseConcept" />
    <node concept="1TJgyi" id="1BguvjG4kJx" role="1TKVEl">
      <property role="IQ2nx" value="1860120738943552481" />
      <property role="TrG5h" value="val" />
      <ref role="AX2Wp" node="1BguvjG4kKg" resolve="ColorString" />
    </node>
    <node concept="PrWs8" id="1BguvjG4kJv" role="PzmwI">
      <ref role="PrY4T" node="1BguvjG4kJu" resolve="Color" />
    </node>
  </node>
  <node concept="PlHQZ" id="1BguvjG4kJu">
    <property role="EcuMT" value="1860120738943552478" />
    <property role="3GE5qa" value="icons.descriptors.text" />
    <property role="TrG5h" value="Color" />
  </node>
  <node concept="Az7Fb" id="1BguvjG4kKg">
    <property role="3GE5qa" value="icons.descriptors.text" />
    <property role="TrG5h" value="ColorString" />
    <property role="FLfZY" value="[0-9a-zA-Z]{6}" />
  </node>
  <node concept="AxPO7" id="1ng4Vf3UMua">
    <property role="3GE5qa" value="icons.descriptors.text" />
    <property role="TrG5h" value="Size" />
    <ref role="M4eZT" to="tpck:fKAQMTA" resolve="integer" />
    <node concept="M4N5e" id="1ng4Vf3UMub" role="M5hS2">
      <property role="1uS6qo" value="big" />
      <property role="1uS6qv" value="8" />
    </node>
    <node concept="M4N5e" id="1ng4Vf3UMuc" role="M5hS2">
      <property role="1uS6qv" value="6" />
      <property role="1uS6qo" value="med" />
    </node>
    <node concept="M4N5e" id="1ng4Vf3UMuf" role="M5hS2">
      <property role="1uS6qv" value="4" />
      <property role="1uS6qo" value="small" />
    </node>
  </node>
</model>

