<?xml version="1.0" encoding="UTF-8"?>
<model ref="r:ec46ec3f-76d3-4bf3-b52d-6703b340405c(jetbrains.mps.samples.languagePatterns.Basic.sandbox)">
  <persistence version="9" />
  <languages>
    <use id="7a6f7ef7-3988-464b-8cc5-1182671c136e" name="jetbrains.mps.samples.languagePatterns.Basic" version="0" />
    <use id="ceab5195-25ea-4f22-9b92-103b95ca8c0c" name="jetbrains.mps.lang.core" version="1" />
    <use id="f3061a53-9226-4cc5-a443-f952ceaf5816" name="jetbrains.mps.baseLanguage" version="4" />
  </languages>
  <imports>
    <import index="wyt6" ref="6354ebe7-c22a-4a0f-ac54-50b52ab9b065/java:java.lang(JDK/)" implicit="true" />
    <import index="guwi" ref="6354ebe7-c22a-4a0f-ac54-50b52ab9b065/java:java.io(JDK/)" implicit="true" />
  </imports>
  <registry>
    <language id="f3061a53-9226-4cc5-a443-f952ceaf5816" name="jetbrains.mps.baseLanguage">
      <concept id="1215693861676" name="jetbrains.mps.baseLanguage.structure.BaseAssignmentExpression" flags="nn" index="d038R">
        <child id="1068498886297" name="rValue" index="37vLTx" />
        <child id="1068498886295" name="lValue" index="37vLTJ" />
      </concept>
      <concept id="1202948039474" name="jetbrains.mps.baseLanguage.structure.InstanceMethodCallOperation" flags="nn" index="liA8E" />
      <concept id="1197027756228" name="jetbrains.mps.baseLanguage.structure.DotExpression" flags="nn" index="2OqwBi">
        <child id="1197027771414" name="operand" index="2Oq$k0" />
        <child id="1197027833540" name="operation" index="2OqNvi" />
      </concept>
      <concept id="1070475926800" name="jetbrains.mps.baseLanguage.structure.StringLiteral" flags="nn" index="Xl_RD">
        <property id="1070475926801" name="value" index="Xl_RC" />
      </concept>
      <concept id="1081236700938" name="jetbrains.mps.baseLanguage.structure.StaticMethodDeclaration" flags="ig" index="2YIFZL" />
      <concept id="1070533707846" name="jetbrains.mps.baseLanguage.structure.StaticFieldReference" flags="nn" index="10M0yZ">
        <reference id="1144433057691" name="classifier" index="1PxDUh" />
      </concept>
      <concept id="1070534760951" name="jetbrains.mps.baseLanguage.structure.ArrayType" flags="in" index="10Q1$e">
        <child id="1070534760952" name="componentType" index="10Q1$1" />
      </concept>
      <concept id="1068390468198" name="jetbrains.mps.baseLanguage.structure.ClassConcept" flags="ig" index="312cEu" />
      <concept id="1068431474542" name="jetbrains.mps.baseLanguage.structure.VariableDeclaration" flags="ng" index="33uBYm">
        <child id="1068431790190" name="initializer" index="33vP2m" />
      </concept>
      <concept id="1068498886296" name="jetbrains.mps.baseLanguage.structure.VariableReference" flags="nn" index="37vLTw">
        <reference id="1068581517664" name="variableDeclaration" index="3cqZAo" />
      </concept>
      <concept id="1068498886292" name="jetbrains.mps.baseLanguage.structure.ParameterDeclaration" flags="ir" index="37vLTG" />
      <concept id="1068498886294" name="jetbrains.mps.baseLanguage.structure.AssignmentExpression" flags="nn" index="37vLTI" />
      <concept id="1225271177708" name="jetbrains.mps.baseLanguage.structure.StringType" flags="in" index="17QB3L" />
      <concept id="4972933694980447171" name="jetbrains.mps.baseLanguage.structure.BaseVariableDeclaration" flags="ng" index="19Szcq">
        <child id="5680397130376446158" name="type" index="1tU5fm" />
      </concept>
      <concept id="1068580123132" name="jetbrains.mps.baseLanguage.structure.BaseMethodDeclaration" flags="ng" index="3clF44">
        <child id="1068580123133" name="returnType" index="3clF45" />
        <child id="1068580123134" name="parameter" index="3clF46" />
        <child id="1068580123135" name="body" index="3clF47" />
      </concept>
      <concept id="1068580123155" name="jetbrains.mps.baseLanguage.structure.ExpressionStatement" flags="nn" index="3clFbF">
        <child id="1068580123156" name="expression" index="3clFbG" />
      </concept>
      <concept id="1068580123136" name="jetbrains.mps.baseLanguage.structure.StatementList" flags="sn" stub="5293379017992965193" index="3clFbS">
        <child id="1068581517665" name="statement" index="3cqZAp" />
      </concept>
      <concept id="1068580320020" name="jetbrains.mps.baseLanguage.structure.IntegerConstant" flags="nn" index="3cmrfG">
        <property id="1068580320021" name="value" index="3cmrfH" />
      </concept>
      <concept id="1068581242875" name="jetbrains.mps.baseLanguage.structure.PlusExpression" flags="nn" index="3cpWs3" />
      <concept id="1068581242864" name="jetbrains.mps.baseLanguage.structure.LocalVariableDeclarationStatement" flags="nn" index="3cpWs8">
        <child id="1068581242865" name="localVariableDeclaration" index="3cpWs9" />
      </concept>
      <concept id="1068581242863" name="jetbrains.mps.baseLanguage.structure.LocalVariableDeclaration" flags="nr" index="3cpWsn" />
      <concept id="1068581517677" name="jetbrains.mps.baseLanguage.structure.VoidType" flags="in" index="3cqZAl" />
      <concept id="1081506762703" name="jetbrains.mps.baseLanguage.structure.GreaterThanExpression" flags="nn" index="3eOSWO" />
      <concept id="1204053956946" name="jetbrains.mps.baseLanguage.structure.IMethodCall" flags="ng" index="1ndlxa">
        <reference id="1068499141037" name="baseMethodDeclaration" index="37wK5l" />
        <child id="1068499141038" name="actualArgument" index="37wK5m" />
      </concept>
      <concept id="1107461130800" name="jetbrains.mps.baseLanguage.structure.Classifier" flags="ng" index="3pOWGL">
        <child id="5375687026011219971" name="member" index="jymVt" unordered="true" />
      </concept>
      <concept id="1081773326031" name="jetbrains.mps.baseLanguage.structure.BinaryOperation" flags="nn" index="3uHJSO">
        <child id="1081773367579" name="rightExpression" index="3uHU7w" />
        <child id="1081773367580" name="leftExpression" index="3uHU7B" />
      </concept>
      <concept id="1178549954367" name="jetbrains.mps.baseLanguage.structure.IVisible" flags="ng" index="1B3ioH">
        <child id="1178549979242" name="visibility" index="1B3o_S" />
      </concept>
      <concept id="6329021646629104957" name="jetbrains.mps.baseLanguage.structure.TextCommentPart" flags="nn" index="3SKdUq">
        <property id="6329021646629104958" name="text" index="3SKdUp" />
      </concept>
      <concept id="6329021646629104954" name="jetbrains.mps.baseLanguage.structure.SingleLineComment" flags="nn" index="3SKdUt">
        <child id="6329021646629175155" name="commentPart" index="3SKWNk" />
      </concept>
      <concept id="1146644602865" name="jetbrains.mps.baseLanguage.structure.PublicVisibility" flags="nn" index="3Tm1VV" />
      <concept id="1080120340718" name="jetbrains.mps.baseLanguage.structure.AndExpression" flags="nn" index="1Wc70l" />
    </language>
    <language id="7a6f7ef7-3988-464b-8cc5-1182671c136e" name="jetbrains.mps.samples.languagePatterns.Basic">
      <concept id="3548406301612382763" name="jetbrains.mps.samples.languagePatterns.Basic.structure.EmptyLine" flags="ng" index="noQag" />
      <concept id="3548406301612378086" name="jetbrains.mps.samples.languagePatterns.Basic.structure.ListOfDrawCommands" flags="ng" index="noRXt">
        <child id="3548406301612380195" name="commands" index="noQyo" />
      </concept>
      <concept id="9119725621034344481" name="jetbrains.mps.samples.languagePatterns.Basic.structure.Item" flags="ng" index="Oi2o3" />
      <concept id="9119725621034344531" name="jetbrains.mps.samples.languagePatterns.Basic.structure.ItemReference" flags="ng" index="Oi2pL">
        <reference id="9119725621034344532" name="item" index="Oi2pQ" />
      </concept>
      <concept id="3803436373353520197" name="jetbrains.mps.samples.languagePatterns.Basic.structure.Concert" flags="ng" index="3jgt_Z">
        <child id="3803436373353520393" name="performances" index="3jgtwN" />
        <child id="3803436373353520267" name="performers" index="3jgtAL" />
      </concept>
      <concept id="3803436373353520269" name="jetbrains.mps.samples.languagePatterns.Basic.structure.Singer" flags="ng" index="3jgtAR" />
      <concept id="3803436373353520353" name="jetbrains.mps.samples.languagePatterns.Basic.structure.Performance" flags="ng" index="3jgtBr">
        <reference id="3803436373353520354" name="singer" index="3jgtBo" />
      </concept>
      <concept id="3803436373353818448" name="jetbrains.mps.samples.languagePatterns.Basic.structure.CombinedPerformance" flags="ng" index="3jhmLE">
        <property id="3803436373353818509" name="performanceTitle" index="3jhmMR" />
        <child id="3803436373353818540" name="participants" index="3jhmMm" />
      </concept>
      <concept id="3803436373353847291" name="jetbrains.mps.samples.languagePatterns.Basic.structure.Participant" flags="ng" index="3jhHN1">
        <reference id="3803436373353847292" name="singer" index="3jhHN6" />
      </concept>
      <concept id="3803436373353345069" name="jetbrains.mps.samples.languagePatterns.Basic.structure.FruitPlate" flags="ng" index="3jjzkn">
        <child id="3803436373353345785" name="fruit" index="3jjzv3" />
      </concept>
      <concept id="3803436373353345787" name="jetbrains.mps.samples.languagePatterns.Basic.structure.Fruit" flags="ng" index="3jjzv1">
        <property id="3803436373353345790" name="weight" index="3jjzv4" />
        <property id="3803436373353347803" name="color" index="3jjzZx" />
      </concept>
      <concept id="3803436373353347898" name="jetbrains.mps.samples.languagePatterns.Basic.structure.Orange" flags="ng" index="3jjzS0" />
      <concept id="3803436373354958319" name="jetbrains.mps.samples.languagePatterns.Basic.structure.Car" flags="ng" index="3jlWzl">
        <property id="3803436373354958322" name="age" index="3jlWz8" />
        <property id="3803436373354958320" name="make" index="3jlWza" />
        <property id="3803436373354958325" name="power" index="3jlWzf" />
      </concept>
      <concept id="3803436373354958061" name="jetbrains.mps.samples.languagePatterns.Basic.structure.RaceParticipant" flags="ng" index="3jlWBn">
        <child id="3803436373354958460" name="car" index="3jlWH6" />
      </concept>
      <concept id="3803436373354958785" name="jetbrains.mps.samples.languagePatterns.Basic.structure.Truck" flags="ng" index="3jlWFV">
        <property id="3803436373354958786" name="weight" index="3jlWFS" />
      </concept>
      <concept id="3803436373354308747" name="jetbrains.mps.samples.languagePatterns.Basic.structure.PerformanceWithTitle" flags="ng" index="3jnu6L">
        <property id="3803436373354308750" name="title" index="3jnu6O" />
        <child id="3803436373354309716" name="singer" index="3jnuPI" />
      </concept>
      <concept id="1885452693916492625" name="jetbrains.mps.samples.languagePatterns.Basic.structure.Request" flags="ng" index="1nA5DH">
        <child id="1885452693916492683" name="description" index="1nA5ER" />
      </concept>
      <concept id="1885452693916492788" name="jetbrains.mps.samples.languagePatterns.Basic.structure.SimplifiedFormDescription" flags="ng" index="1nA5F8">
        <property id="1885452693916492794" name="detail" index="1nA5F6" />
        <property id="1885452693916492789" name="requestor" index="1nA5F9" />
      </concept>
      <concept id="1885452693916492757" name="jetbrains.mps.samples.languagePatterns.Basic.structure.StringDescription" flags="ng" index="1nA5FD">
        <property id="1885452693916492758" name="value" index="1nA5FE" />
      </concept>
      <concept id="1885452693916492894" name="jetbrains.mps.samples.languagePatterns.Basic.structure.FormDescription" flags="ng" index="1nA5Py">
        <property id="1885452693916492909" name="detail" index="1nA5Ph" />
        <property id="1885452693916492904" name="purpose" index="1nA5Pk" />
        <property id="1885452693916492900" name="firstTimeApplicant" index="1nA5Po" />
        <property id="1885452693916492897" name="age" index="1nA5Pt" />
        <property id="1885452693916492895" name="requestor" index="1nA5Pz" />
      </concept>
      <concept id="5235060235297961269" name="jetbrains.mps.samples.languagePatterns.Basic.structure.AddressReference" flags="ng" index="1I4TUT">
        <reference id="5235060235297961270" name="target" index="1I4TUU" />
      </concept>
      <concept id="5235060235297879051" name="jetbrains.mps.samples.languagePatterns.Basic.structure.Address" flags="ng" index="1I5lY7">
        <property id="5235060235297944692" name="kind" index="1I4_ZS" />
        <property id="5235060235297879052" name="street" index="1I5lY0" />
        <property id="5235060235297879054" name="zip" index="1I5lY2" />
      </concept>
      <concept id="5235060235297879046" name="jetbrains.mps.samples.languagePatterns.Basic.structure.SomeForm" flags="ng" index="1I5lYa">
        <child id="5235060235297879049" name="addresses" index="1I5lY5" />
        <child id="5235060235297879119" name="validation" index="1I5lZ3" />
      </concept>
      <concept id="5235060235298191389" name="jetbrains.mps.samples.languagePatterns.Basic.structure.ZipOperation" flags="ng" index="1I7xeh" />
      <concept id="5235060235298255591" name="jetbrains.mps.samples.languagePatterns.Basic.structure.StreetOperation" flags="ng" index="1I7L_F" />
      <concept id="5681697064999188987" name="jetbrains.mps.samples.languagePatterns.Basic.structure.Container" flags="ng" index="3YvCyr">
        <child id="5681697064999189115" name="components" index="3YvCGr" />
      </concept>
      <concept id="5681697064999189361" name="jetbrains.mps.samples.languagePatterns.Basic.structure.ComponentUsage" flags="ng" index="3YvCCh">
        <reference id="5681697064999189413" name="usedComponent" index="3YvCF5" />
      </concept>
      <concept id="5681697064999189034" name="jetbrains.mps.samples.languagePatterns.Basic.structure.Component" flags="ng" index="3YvCHa" />
    </language>
    <language id="ceab5195-25ea-4f22-9b92-103b95ca8c0c" name="jetbrains.mps.lang.core">
      <concept id="1133920641626" name="jetbrains.mps.lang.core.structure.BaseConcept" flags="ng" index="2VYdi">
        <property id="1193676396447" name="virtualPackage" index="3GE5qa" />
      </concept>
      <concept id="1169194658468" name="jetbrains.mps.lang.core.structure.INamedConcept" flags="ng" index="TrEIO">
        <property id="1169194664001" name="name" index="TrG5h" />
      </concept>
    </language>
  </registry>
  <node concept="3jjzkn" id="3j8xjFBxQ3L">
    <property role="TrG5h" value="Breakfast" />
    <property role="3GE5qa" value="container-components" />
    <node concept="3jjzS0" id="3j8xjFBxQ4e" role="3jjzv3">
      <property role="3jjzv4" value="10" />
      <property role="3jjzZx" value="orange" />
    </node>
  </node>
  <node concept="3jgt_Z" id="3j8xjFByoUs">
    <property role="TrG5h" value="MyFamilyEvent" />
    <property role="3GE5qa" value="declaration-references" />
    <node concept="3jgtAR" id="3j8xjFByoUw" role="3jgtAL">
      <property role="TrG5h" value="Mum" />
    </node>
    <node concept="3jgtAR" id="3j8xjFByoUy" role="3jgtAL">
      <property role="TrG5h" value="Daddy" />
    </node>
    <node concept="3jgtAR" id="3j8xjFByoU_" role="3jgtAL">
      <property role="TrG5h" value="Grandma" />
    </node>
    <node concept="3jgtAR" id="3j8xjFByoUD" role="3jgtAL">
      <property role="TrG5h" value="Alice" />
    </node>
    <node concept="3jgtAR" id="3j8xjFByoUI" role="3jgtAL">
      <property role="TrG5h" value="Dave" />
    </node>
    <node concept="3jgtAR" id="3j8xjFByoUO" role="3jgtAL">
      <property role="TrG5h" value="Susan" />
    </node>
    <node concept="3jgtBr" id="3j8xjFByr57" role="3jgtwN">
      <ref role="3jgtBo" node="3j8xjFByoUD" resolve="Alice" />
    </node>
    <node concept="3jgtBr" id="3j8xjFByr5c" role="3jgtwN">
      <ref role="3jgtBo" node="3j8xjFByoUy" resolve="Daddy" />
    </node>
    <node concept="3jgtBr" id="3j8xjFByr5k" role="3jgtwN">
      <ref role="3jgtBo" node="3j8xjFByoU_" resolve="Grandma" />
    </node>
    <node concept="3jgtBr" id="3j8xjFByr5u" role="3jgtwN">
      <ref role="3jgtBo" node="3j8xjFByoUI" resolve="Dave" />
    </node>
    <node concept="3jgtBr" id="3j8xjFByr5E" role="3jgtwN">
      <ref role="3jgtBo" node="3j8xjFByoUy" resolve="Daddy" />
    </node>
    <node concept="3jgtBr" id="3j8xjFByr5S" role="3jgtwN">
      <ref role="3jgtBo" node="3j8xjFByoUy" resolve="Daddy" />
    </node>
    <node concept="3jgtBr" id="3j8xjFByr68" role="3jgtwN">
      <ref role="3jgtBo" node="3j8xjFByoUO" resolve="Susan" />
    </node>
    <node concept="3jgtBr" id="3j8xjFByr6q" role="3jgtwN">
      <ref role="3jgtBo" node="3j8xjFByoUw" resolve="Mum" />
    </node>
  </node>
  <node concept="3jgt_Z" id="3j8xjFBytkx">
    <property role="3GE5qa" value="declaration-references" />
    <property role="TrG5h" value="SchoolEvent" />
    <node concept="3jgtAR" id="3j8xjFBytky" role="3jgtAL">
      <property role="TrG5h" value="Mr. Smith (teacher)" />
    </node>
    <node concept="3jgtAR" id="3j8xjFBytk$" role="3jgtAL">
      <property role="TrG5h" value="Maria" />
    </node>
    <node concept="3jgtAR" id="3j8xjFBytkB" role="3jgtAL">
      <property role="TrG5h" value="Jim" />
    </node>
    <node concept="3jgtAR" id="3j8xjFBytkF" role="3jgtAL">
      <property role="TrG5h" value="James" />
    </node>
    <node concept="3jgtAR" id="3j8xjFBytkK" role="3jgtAL">
      <property role="TrG5h" value="Ann" />
    </node>
    <node concept="3jgtBr" id="3j8xjFBytkQ" role="3jgtwN">
      <ref role="3jgtBo" node="3j8xjFBytky" resolve="Mr. Smith (teacher)" />
    </node>
    <node concept="3jgtBr" id="3j8xjFBytkV" role="3jgtwN">
      <ref role="3jgtBo" node="3j8xjFBytkB" resolve="Jim" />
    </node>
    <node concept="3jgtBr" id="3j8xjFBytl3" role="3jgtwN">
      <ref role="3jgtBo" node="3j8xjFBytk$" resolve="Maria" />
    </node>
    <node concept="3jnu6L" id="3j8xjFB_rnC" role="3jgtwN">
      <property role="3jnu6O" value="How do you do" />
      <node concept="3jgtBr" id="3j8xjFB_rot" role="3jnuPI">
        <ref role="3jgtBo" node="3j8xjFBytkF" resolve="James" />
      </node>
    </node>
    <node concept="3jgtBr" id="3j8xjFBytld" role="3jgtwN">
      <ref role="3jgtBo" node="3j8xjFBytkK" resolve="Ann" />
    </node>
    <node concept="3jgtBr" id="3j8xjFBytlp" role="3jgtwN">
      <ref role="3jgtBo" node="3j8xjFBytky" resolve="Mr. Smith (teacher)" />
    </node>
    <node concept="3jgtBr" id="3j8xjFBytlB" role="3jgtwN">
      <ref role="3jgtBo" node="3j8xjFBytkF" resolve="James" />
    </node>
    <node concept="3jgtBr" id="3j8xjFBytlR" role="3jgtwN">
      <ref role="3jgtBo" node="3j8xjFBytk$" resolve="Maria" />
    </node>
    <node concept="3jhmLE" id="3j8xjFB$Kg8" role="3jgtwN">
      <property role="3jhmMR" value="We are the champions" />
      <node concept="3jhHN1" id="3j8xjFB_hnB" role="3jhmMm">
        <ref role="3jhHN6" node="3j8xjFBytkK" resolve="Ann" />
      </node>
      <node concept="3jhHN1" id="3j8xjFBBBFw" role="3jhmMm">
        <ref role="3jhHN6" node="3j8xjFBytkF" resolve="James" />
      </node>
    </node>
    <node concept="3jgtBr" id="3j8xjFBytm9" role="3jgtwN">
      <ref role="3jgtBo" node="3j8xjFBytky" resolve="Mr. Smith (teacher)" />
    </node>
    <node concept="3jgtBr" id="3j8xjFBytmt" role="3jgtwN">
      <ref role="3jgtBo" node="3j8xjFBytky" resolve="Mr. Smith (teacher)" />
    </node>
  </node>
  <node concept="3jlWBn" id="4Vpsm2KDULH">
    <property role="TrG5h" value="Joe" />
    <property role="3GE5qa" value="override-editor-components" />
    <node concept="3jlWFV" id="4Vpsm2KDULI" role="3jlWH6">
      <property role="3jlWza" value="Tatra" />
      <property role="3jlWzf" value="650" />
      <property role="3jlWFS" value="3876" />
      <property role="3jlWz8" value="3" />
    </node>
  </node>
  <node concept="3jlWBn" id="4Vpsm2KDUOf">
    <property role="3GE5qa" value="override-editor-components" />
    <property role="TrG5h" value="John" />
    <node concept="3jlWzl" id="4Vpsm2KDUOg" role="3jlWH6">
      <property role="3jlWza" value="Ford" />
      <property role="3jlWz8" value="5" />
      <property role="3jlWzf" value="250" />
    </node>
  </node>
  <node concept="3YvCyr" id="4Vpsm2KE9Sf">
    <property role="TrG5h" value="Calculator" />
    <property role="3GE5qa" value="custom-presentation" />
    <node concept="3YvCHa" id="4Vpsm2KE9SU" role="3YvCGr">
      <property role="TrG5h" value="addition" />
    </node>
    <node concept="3YvCHa" id="4Vpsm2KE9SW" role="3YvCGr">
      <property role="TrG5h" value="subtraction" />
    </node>
    <node concept="3YvCHa" id="4Vpsm2KE9SZ" role="3YvCGr">
      <property role="TrG5h" value="multiplication" />
    </node>
    <node concept="3YvCHa" id="4Vpsm2KE9T3" role="3YvCGr">
      <property role="TrG5h" value="division" />
    </node>
  </node>
  <node concept="3YvCyr" id="4Vpsm2KE9T8">
    <property role="3GE5qa" value="custom-presentation" />
    <property role="TrG5h" value="Collector" />
    <node concept="3YvCHa" id="4Vpsm2KE9T9" role="3YvCGr">
      <property role="TrG5h" value="addition" />
    </node>
    <node concept="3YvCHa" id="4Vpsm2KE9Tb" role="3YvCGr">
      <property role="TrG5h" value="deletion" />
    </node>
    <node concept="3YvCHa" id="4Vpsm2KE9Te" role="3YvCGr">
      <property role="TrG5h" value="insertion" />
    </node>
    <node concept="3YvCHa" id="4Vpsm2KE9Ti" role="3YvCGr">
      <property role="TrG5h" value="indexed retrieval" />
    </node>
  </node>
  <node concept="3YvCCh" id="4Vpsm2KEeNa">
    <property role="3GE5qa" value="custom-presentation" />
    <property role="TrG5h" value="Calculation1" />
    <ref role="3YvCF5" node="4Vpsm2KE9Tb" resolve="deletion" />
  </node>
  <node concept="3YvCCh" id="4Vpsm2KFol5">
    <property role="3GE5qa" value="custom-presentation" />
    <property role="TrG5h" value="Calculation2" />
    <ref role="3YvCF5" node="4Vpsm2KE9SZ" resolve="multiplication" />
  </node>
  <node concept="3YvCCh" id="4Vpsm2KFol6">
    <property role="3GE5qa" value="custom-presentation" />
    <property role="TrG5h" value="Calculation3" />
    <ref role="3YvCF5" node="4Vpsm2KE9Te" resolve="insertion" />
  </node>
  <node concept="noRXt" id="34YubGAolS0">
    <property role="TrG5h" value="My Painting" />
    <property role="3GE5qa" value="fluent-editing" />
    <node concept="noQag" id="41utEALnmQw" role="noQyo" />
  </node>
  <node concept="1nA5DH" id="1CEujLdGPmJ">
    <property role="TrG5h" value="NewScreen" />
    <property role="3GE5qa" value="seamless-substitution" />
    <node concept="1nA5F8" id="1CEujLdHGWA" role="1nA5ER">
      <property role="1nA5F9" value="Joe" />
      <property role="1nA5F6" value="need it now" />
    </node>
  </node>
  <node concept="1nA5DH" id="603vF1qr27z">
    <property role="3GE5qa" value="seamless-substitution" />
    <property role="TrG5h" value="NewChair" />
    <node concept="1nA5FD" id="603vF1qr27_" role="1nA5ER">
      <property role="1nA5FE" value="I need a new chair." />
    </node>
  </node>
  <node concept="1nA5DH" id="603vF1qr27C">
    <property role="3GE5qa" value="seamless-substitution" />
    <property role="TrG5h" value="NewPen" />
    <node concept="1nA5Py" id="603vF1qr27E" role="1nA5ER">
      <property role="1nA5Pz" value="Dave" />
      <property role="1nA5Pt" value="26" />
      <property role="1nA5Po" value="true" />
      <property role="1nA5Pk" value="Draw a picture" />
      <property role="1nA5Ph" value="There are no pens around" />
    </node>
  </node>
  <node concept="1I5lYa" id="4yAESKAHbgn">
    <property role="TrG5h" value="NewForm" />
    <property role="3GE5qa" value="dotexpression" />
    <node concept="1I5lY7" id="4yAESKAHbgp" role="1I5lY5">
      <property role="1I5lY0" value="abc" />
      <property role="1I5lY2" value="1" />
      <property role="1I4_ZS" value="home" />
    </node>
    <node concept="1I5lY7" id="4yAESKAHbgr" role="1I5lY5">
      <property role="1I5lY0" value="def" />
      <property role="1I5lY2" value="2" />
      <property role="1I4_ZS" value="work" />
    </node>
    <node concept="1Wc70l" id="4yAESKAJvyq" role="1I5lZ3">
      <node concept="2OqwBi" id="4yAESKAKGsa" role="3uHU7B">
        <node concept="2OqwBi" id="4yAESKAJurp" role="2Oq$k0">
          <node concept="2OqwBi" id="4yAESKAJhws" role="2Oq$k0">
            <node concept="1I4TUT" id="4yAESKAJhw9" role="2Oq$k0">
              <ref role="1I4TUU" node="4yAESKAHbgp" />
            </node>
            <node concept="1I7xeh" id="4yAESKAJhwT" role="2OqNvi" />
          </node>
          <node concept="liA8E" id="4yAESKAKGnK" role="2OqNvi">
            <ref role="37wK5l" to="wyt6:~String.toUpperCase():java.lang.String" resolve="toUpperCase" />
          </node>
        </node>
        <node concept="liA8E" id="4yAESKAKGwr" role="2OqNvi">
          <ref role="37wK5l" to="wyt6:~String.equals(java.lang.Object):boolean" resolve="equals" />
          <node concept="2OqwBi" id="4yAESKAKGDQ" role="37wK5m">
            <node concept="2OqwBi" id="4yAESKAKG$z" role="2Oq$k0">
              <node concept="1I4TUT" id="4yAESKAKGyi" role="2Oq$k0">
                <ref role="1I4TUU" node="4yAESKAHbgr" />
              </node>
              <node concept="1I7xeh" id="4yAESKAKGAM" role="2OqNvi" />
            </node>
            <node concept="liA8E" id="4yAESKAKGHA" role="2OqNvi">
              <ref role="37wK5l" to="wyt6:~String.toUpperCase():java.lang.String" resolve="toUpperCase" />
            </node>
          </node>
        </node>
      </node>
      <node concept="3eOSWO" id="4yAESKAJv6J" role="3uHU7w">
        <node concept="2OqwBi" id="4yAESKAJuEB" role="3uHU7B">
          <node concept="2OqwBi" id="4yAESKAJhDy" role="2Oq$k0">
            <node concept="1I4TUT" id="4yAESKAJhAE" role="2Oq$k0">
              <ref role="1I4TUU" node="4yAESKAHbgr" />
            </node>
            <node concept="1I7L_F" id="4yAESKAJhE4" role="2OqNvi" />
          </node>
          <node concept="liA8E" id="4yAESKAJuGK" role="2OqNvi">
            <ref role="37wK5l" to="wyt6:~String.length():int" resolve="length" />
          </node>
        </node>
        <node concept="3cmrfG" id="4yAESKAJv6M" role="3uHU7w">
          <property role="3cmrfH" value="1" />
        </node>
      </node>
    </node>
  </node>
  <node concept="312cEu" id="7UfLy9aLYJs">
    <property role="TrG5h" value="UsageSample" />
    <property role="3GE5qa" value="declaration-references.java" />
    <node concept="2YIFZL" id="7UfLy9aLYJ$" role="jymVt">
      <property role="TrG5h" value="main" />
      <node concept="37vLTG" id="7UfLy9aLYJ_" role="3clF46">
        <property role="TrG5h" value="args" />
        <node concept="10Q1$e" id="7UfLy9aLYJA" role="1tU5fm">
          <node concept="17QB3L" id="7UfLy9aLYJB" role="10Q1$1" />
        </node>
      </node>
      <node concept="3cqZAl" id="7UfLy9aLYJC" role="3clF45" />
      <node concept="3Tm1VV" id="7UfLy9aLYJD" role="1B3o_S" />
      <node concept="3clFbS" id="7UfLy9aLYJE" role="3clF47">
        <node concept="3SKdUt" id="7UfLy9aMdWN" role="3cqZAp">
          <node concept="3SKdUq" id="7UfLy9aMdYm" role="3SKWNk">
            <property role="3SKdUp" value="Declarations" />
          </node>
        </node>
        <node concept="Oi2o3" id="7UfLy9aMcu7" role="3cqZAp">
          <property role="TrG5h" value="bar" />
        </node>
        <node concept="Oi2o3" id="7UfLy9aMcvX" role="3cqZAp">
          <property role="TrG5h" value="baz" />
        </node>
        <node concept="3SKdUt" id="7UfLy9aMe1H" role="3cqZAp">
          <node concept="3SKdUq" id="7UfLy9aMe3i" role="3SKWNk">
            <property role="3SKdUp" value="Reading using the reference" />
          </node>
        </node>
        <node concept="3cpWs8" id="7UfLy9aMcy9" role="3cqZAp">
          <node concept="3cpWsn" id="7UfLy9aMcyc" role="3cpWs9">
            <property role="TrG5h" value="s" />
            <node concept="17QB3L" id="7UfLy9aMcy7" role="1tU5fm" />
            <node concept="3cpWs3" id="7UfLy9aMcGy" role="33vP2m">
              <node concept="Oi2pL" id="7UfLy9aMcHV" role="3uHU7w">
                <ref role="Oi2pQ" node="7UfLy9aMcu7" resolve="bar" />
              </node>
              <node concept="Xl_RD" id="7UfLy9aMc$6" role="3uHU7B">
                <property role="Xl_RC" value="" />
              </node>
            </node>
          </node>
        </node>
        <node concept="3clFbF" id="7UfLy9aMcLU" role="3cqZAp">
          <node concept="2OqwBi" id="7UfLy9aMcLR" role="3clFbG">
            <node concept="10M0yZ" id="7UfLy9aMcLS" role="2Oq$k0">
              <ref role="1PxDUh" to="wyt6:~System" resolve="System" />
              <ref role="3cqZAo" to="wyt6:~System.out" resolve="out" />
            </node>
            <node concept="liA8E" id="7UfLy9aMcLT" role="2OqNvi">
              <ref role="37wK5l" to="guwi:~PrintStream.println(java.lang.String):void" resolve="println" />
              <node concept="37vLTw" id="7UfLy9aMcNg" role="37wK5m">
                <ref role="3cqZAo" node="7UfLy9aMcyc" resolve="s" />
              </node>
            </node>
          </node>
        </node>
        <node concept="3SKdUt" id="7UfLy9aMe6d" role="3cqZAp">
          <node concept="3SKdUq" id="7UfLy9aMe7O" role="3SKWNk">
            <property role="3SKdUp" value="Assignment into the declaration using the reference" />
          </node>
        </node>
        <node concept="3clFbF" id="7UfLy9aMcSb" role="3cqZAp">
          <node concept="37vLTI" id="7UfLy9aMcZ5" role="3clFbG">
            <node concept="Xl_RD" id="7UfLy9aMd2x" role="37vLTx">
              <property role="Xl_RC" value="1" />
            </node>
            <node concept="Oi2pL" id="7UfLy9aMcS9" role="37vLTJ">
              <ref role="Oi2pQ" node="7UfLy9aMcu7" resolve="bar" />
            </node>
          </node>
        </node>
        <node concept="3clFbF" id="7UfLy9aMdc$" role="3cqZAp">
          <node concept="2OqwBi" id="7UfLy9aMdc_" role="3clFbG">
            <node concept="10M0yZ" id="7UfLy9aMdcA" role="2Oq$k0">
              <ref role="1PxDUh" to="wyt6:~System" resolve="System" />
              <ref role="3cqZAo" to="wyt6:~System.out" resolve="out" />
            </node>
            <node concept="liA8E" id="7UfLy9aMdcB" role="2OqNvi">
              <ref role="37wK5l" to="guwi:~PrintStream.println(java.lang.String):void" resolve="println" />
              <node concept="37vLTw" id="7UfLy9aMdcC" role="37wK5m">
                <ref role="3cqZAo" node="7UfLy9aMcyc" resolve="s" />
              </node>
            </node>
          </node>
        </node>
      </node>
    </node>
    <node concept="3Tm1VV" id="7UfLy9aLYJt" role="1B3o_S" />
  </node>
</model>

