<?xml version="1.0" encoding="UTF-8"?>
<model ref="r:36b91d42-5119-45a8-b801-6a4d645ce20b(jetbrains.mps.execution.configurations.behavior)">
  <persistence version="9" />
  <languages>
    <use id="774bf8a0-62e5-41e1-af63-f4812e60e48b" name="jetbrains.mps.baseLanguage.checkedDots" version="0" />
    <use id="fd392034-7849-419d-9071-12563d152375" name="jetbrains.mps.baseLanguage.closures" version="0" />
    <use id="83888646-71ce-4f1c-9c53-c54016f6ad4f" name="jetbrains.mps.baseLanguage.collections" version="0" />
    <use id="f3347d8a-0e79-4f35-8ac9-1574f25c986f" name="jetbrains.mps.execution.commands" version="0" />
    <use id="af65afd8-f0dd-4942-87d9-63a55f2a9db1" name="jetbrains.mps.lang.behavior" version="0" />
    <use id="7a5dda62-9140-4668-ab76-d5ed1746f2b2" name="jetbrains.mps.lang.typesystem" version="0" />
    <use id="7866978e-a0f0-4cc7-81bc-4d213d9375e1" name="jetbrains.mps.lang.smodel" version="4" />
    <use id="f3061a53-9226-4cc5-a443-f952ceaf5816" name="jetbrains.mps.baseLanguage" version="4" />
    <devkit ref="fbc25dd2-5da4-483a-8b19-70928e1b62d7(jetbrains.mps.devkit.general-purpose)" />
  </languages>
  <imports>
    <import index="uhxm" ref="r:f3383ae6-205a-4e7c-8dd9-c29966e29e49(jetbrains.mps.execution.configurations.structure)" />
    <import index="tpck" ref="r:00000000-0000-4000-0000-011c89590288(jetbrains.mps.lang.core.structure)" />
    <import index="tpee" ref="r:00000000-0000-4000-0000-011c895902ca(jetbrains.mps.baseLanguage.structure)" />
    <import index="i1mc" ref="r:59b8a6cf-a3a9-4109-98b7-d13bb426ef49(jetbrains.mps.execution.common.behavior)" />
    <import index="rzqf" ref="r:d78df0bb-be4f-4e0d-8142-c0b2df70a5a3(jetbrains.mps.execution.commands.structure)" />
    <import index="cx9y" ref="r:309aeee7-bee8-445c-b31d-35928d1da75f(jetbrains.mps.baseLanguage.tuples.structure)" />
    <import index="wyt6" ref="6354ebe7-c22a-4a0f-ac54-50b52ab9b065/java:java.lang(JDK/)" />
    <import index="uu3z" ref="498d89d2-c2e9-11e2-ad49-6cf049e62fe5/java:com.intellij.execution.process(MPS.IDEA/)" />
    <import index="mhfm" ref="3f233e7f-b8a6-46d2-a57f-795d56775243/java:org.jetbrains.annotations(Annotations/)" />
    <import index="tpek" ref="r:00000000-0000-4000-0000-011c895902c0(jetbrains.mps.baseLanguage.behavior)" />
    <import index="tpcu" ref="r:00000000-0000-4000-0000-011c89590282(jetbrains.mps.lang.core.behavior)" />
    <import index="fb9u" ref="r:0194e190-08ef-44f6-ab95-d9cffdb7e27b(jetbrains.mps.execution.settings.structure)" />
    <import index="tpce" ref="r:00000000-0000-4000-0000-011c89590292(jetbrains.mps.lang.structure.structure)" implicit="true" />
  </imports>
  <registry>
    <language id="f3347d8a-0e79-4f35-8ac9-1574f25c986f" name="jetbrains.mps.execution.commands">
      <concept id="612376536074296995" name="jetbrains.mps.execution.commands.structure.CommandProcessType" flags="in" index="50ouk" />
      <concept id="856705193941281810" name="jetbrains.mps.execution.commands.structure.ProcessType" flags="in" index="2LYoN7" />
    </language>
    <language id="af65afd8-f0dd-4942-87d9-63a55f2a9db1" name="jetbrains.mps.lang.behavior">
      <concept id="6496299201655527393" name="jetbrains.mps.lang.behavior.structure.LocalBehaviorMethodCall" flags="nn" index="BsUDl" />
      <concept id="1225194240794" name="jetbrains.mps.lang.behavior.structure.ConceptBehavior" flags="ng" index="13h7C7">
        <reference id="1225194240799" name="concept" index="13h7C2" />
        <child id="1225194240805" name="method" index="13h7CS" />
        <child id="1225194240801" name="constructor" index="13h7CW" />
      </concept>
      <concept id="1225194413805" name="jetbrains.mps.lang.behavior.structure.ConceptConstructorDeclaration" flags="in" index="13hLZK" />
      <concept id="1225194472830" name="jetbrains.mps.lang.behavior.structure.ConceptMethodDeclaration" flags="ng" index="13i0hz">
        <property id="5864038008284099149" name="isStatic" index="2Ki8OM" />
        <property id="1225194472833" name="isPrivate" index="13i0is" />
        <property id="1225194472832" name="isVirtual" index="13i0it" />
        <property id="1225194472834" name="isAbstract" index="13i0iv" />
        <reference id="1225194472831" name="overriddenMethod" index="13i0hy" />
      </concept>
      <concept id="1225194628440" name="jetbrains.mps.lang.behavior.structure.SuperNodeExpression" flags="nn" index="13iAh5">
        <reference id="5299096511375896640" name="superConcept" index="3eA5LN" />
      </concept>
      <concept id="1225194691553" name="jetbrains.mps.lang.behavior.structure.ThisNodeExpression" flags="nn" index="13iPFW" />
    </language>
    <language id="f3061a53-9226-4cc5-a443-f952ceaf5816" name="jetbrains.mps.baseLanguage">
      <concept id="1080223426719" name="jetbrains.mps.baseLanguage.structure.OrExpression" flags="nn" index="22lmx$" />
      <concept id="1215693861676" name="jetbrains.mps.baseLanguage.structure.BaseAssignmentExpression" flags="nn" index="d038R">
        <child id="1068498886297" name="rValue" index="37vLTx" />
        <child id="1068498886295" name="lValue" index="37vLTJ" />
      </concept>
      <concept id="4836112446988635817" name="jetbrains.mps.baseLanguage.structure.UndefinedType" flags="in" index="2jxLKc" />
      <concept id="1202948039474" name="jetbrains.mps.baseLanguage.structure.InstanceMethodCallOperation" flags="nn" index="liA8E" />
      <concept id="1188207840427" name="jetbrains.mps.baseLanguage.structure.AnnotationInstance" flags="nn" index="2AHcQZ">
        <reference id="1188208074048" name="annotation" index="2AI5Lk" />
      </concept>
      <concept id="1188208481402" name="jetbrains.mps.baseLanguage.structure.HasAnnotation" flags="ng" index="2AJDlI">
        <child id="1188208488637" name="annotation" index="2AJF6D" />
      </concept>
      <concept id="1197027756228" name="jetbrains.mps.baseLanguage.structure.DotExpression" flags="nn" index="2OqwBi">
        <child id="1197027771414" name="operand" index="2Oq$k0" />
        <child id="1197027833540" name="operation" index="2OqNvi" />
      </concept>
      <concept id="1145552977093" name="jetbrains.mps.baseLanguage.structure.GenericNewExpression" flags="nn" index="2ShNRf">
        <child id="1145553007750" name="creator" index="2ShVmc" />
      </concept>
      <concept id="1137021947720" name="jetbrains.mps.baseLanguage.structure.ConceptFunction" flags="in" index="2VMwT0">
        <child id="1137022507850" name="body" index="2VODD2" />
      </concept>
      <concept id="1070475926800" name="jetbrains.mps.baseLanguage.structure.StringLiteral" flags="nn" index="Xl_RD">
        <property id="1070475926801" name="value" index="Xl_RC" />
      </concept>
      <concept id="1070534058343" name="jetbrains.mps.baseLanguage.structure.NullLiteral" flags="nn" index="10Nm6u" />
      <concept id="1070534644030" name="jetbrains.mps.baseLanguage.structure.BooleanType" flags="in" index="10P_77" />
      <concept id="1068431474542" name="jetbrains.mps.baseLanguage.structure.VariableDeclaration" flags="ng" index="33uBYm">
        <child id="1068431790190" name="initializer" index="33vP2m" />
      </concept>
      <concept id="1068498886296" name="jetbrains.mps.baseLanguage.structure.VariableReference" flags="nn" index="37vLTw">
        <reference id="1068581517664" name="variableDeclaration" index="3cqZAo" />
      </concept>
      <concept id="1068498886292" name="jetbrains.mps.baseLanguage.structure.ParameterDeclaration" flags="ir" index="37vLTG" />
      <concept id="1068498886294" name="jetbrains.mps.baseLanguage.structure.AssignmentExpression" flags="nn" index="37vLTI" />
      <concept id="1225271177708" name="jetbrains.mps.baseLanguage.structure.StringType" flags="in" index="17QB3L" />
      <concept id="1225271221393" name="jetbrains.mps.baseLanguage.structure.NPENotEqualsExpression" flags="nn" index="17QLQc" />
      <concept id="4972933694980447171" name="jetbrains.mps.baseLanguage.structure.BaseVariableDeclaration" flags="ng" index="19Szcq">
        <child id="5680397130376446158" name="type" index="1tU5fm" />
      </concept>
      <concept id="1068580123132" name="jetbrains.mps.baseLanguage.structure.BaseMethodDeclaration" flags="ng" index="3clF44">
        <child id="1068580123133" name="returnType" index="3clF45" />
        <child id="1068580123134" name="parameter" index="3clF46" />
        <child id="1068580123135" name="body" index="3clF47" />
      </concept>
      <concept id="1068580123152" name="jetbrains.mps.baseLanguage.structure.EqualsExpression" flags="nn" index="3clFbC" />
      <concept id="1068580123155" name="jetbrains.mps.baseLanguage.structure.ExpressionStatement" flags="nn" index="3clFbF">
        <child id="1068580123156" name="expression" index="3clFbG" />
      </concept>
      <concept id="1068580123159" name="jetbrains.mps.baseLanguage.structure.IfStatement" flags="nn" index="3clFbJ">
        <child id="1068580123160" name="condition" index="3clFbw" />
        <child id="1068580123161" name="ifTrue" index="3clFbx" />
      </concept>
      <concept id="1068580123136" name="jetbrains.mps.baseLanguage.structure.StatementList" flags="sn" stub="5293379017992965193" index="3clFbS">
        <child id="1068581517665" name="statement" index="3cqZAp" />
      </concept>
      <concept id="1068580123137" name="jetbrains.mps.baseLanguage.structure.BooleanConstant" flags="nn" index="3clFbT">
        <property id="1068580123138" name="value" index="3clFbU" />
      </concept>
      <concept id="1068581242875" name="jetbrains.mps.baseLanguage.structure.PlusExpression" flags="nn" index="3cpWs3" />
      <concept id="1068581242878" name="jetbrains.mps.baseLanguage.structure.ReturnStatement" flags="nn" index="3cpWs6">
        <child id="1068581517676" name="expression" index="3cqZAk" />
      </concept>
      <concept id="1068581242864" name="jetbrains.mps.baseLanguage.structure.LocalVariableDeclarationStatement" flags="nn" index="3cpWs8">
        <child id="1068581242865" name="localVariableDeclaration" index="3cpWs9" />
      </concept>
      <concept id="1068581242863" name="jetbrains.mps.baseLanguage.structure.LocalVariableDeclaration" flags="nr" index="3cpWsn" />
      <concept id="1079359253375" name="jetbrains.mps.baseLanguage.structure.ParenthesizedExpression" flags="nn" index="1eOMI4">
        <child id="1079359253376" name="expression" index="1eOMHV" />
      </concept>
      <concept id="1204053956946" name="jetbrains.mps.baseLanguage.structure.IMethodCall" flags="ng" index="1ndlxa">
        <reference id="1068499141037" name="baseMethodDeclaration" index="37wK5l" />
        <child id="1068499141038" name="actualArgument" index="37wK5m" />
      </concept>
      <concept id="1107535904670" name="jetbrains.mps.baseLanguage.structure.ClassifierType" flags="in" index="3uibUv">
        <reference id="1107535924139" name="classifier" index="3uigEE" />
      </concept>
      <concept id="1081773326031" name="jetbrains.mps.baseLanguage.structure.BinaryOperation" flags="nn" index="3uHJSO">
        <child id="1081773367579" name="rightExpression" index="3uHU7w" />
        <child id="1081773367580" name="leftExpression" index="3uHU7B" />
      </concept>
      <concept id="1178549954367" name="jetbrains.mps.baseLanguage.structure.IVisible" flags="ng" index="1B3ioH">
        <child id="1178549979242" name="visibility" index="1B3o_S" />
      </concept>
      <concept id="1146644602865" name="jetbrains.mps.baseLanguage.structure.PublicVisibility" flags="nn" index="3Tm1VV" />
      <concept id="1146644623116" name="jetbrains.mps.baseLanguage.structure.PrivateVisibility" flags="nn" index="3Tm6S6" />
      <concept id="1146644641414" name="jetbrains.mps.baseLanguage.structure.ProtectedVisibility" flags="nn" index="3Tmbuc" />
      <concept id="1080120340718" name="jetbrains.mps.baseLanguage.structure.AndExpression" flags="nn" index="1Wc70l" />
    </language>
    <language id="774bf8a0-62e5-41e1-af63-f4812e60e48b" name="jetbrains.mps.baseLanguage.checkedDots">
      <concept id="4079382982702596667" name="jetbrains.mps.baseLanguage.checkedDots.structure.CheckedDotExpression" flags="nn" index="2EnYce" />
    </language>
    <language id="fd392034-7849-419d-9071-12563d152375" name="jetbrains.mps.baseLanguage.closures">
      <concept id="1199569711397" name="jetbrains.mps.baseLanguage.closures.structure.ClosureLiteral" flags="nn" index="1bVj0M">
        <child id="1199569906740" name="parameter" index="1bW2Oz" />
        <child id="1199569916463" name="body" index="1bW5cS" />
      </concept>
    </language>
    <language id="3a13115c-633c-4c5c-bbcc-75c4219e9555" name="jetbrains.mps.lang.quotation">
      <concept id="1196350785113" name="jetbrains.mps.lang.quotation.structure.Quotation" flags="nn" index="2c44tf">
        <child id="1196350785114" name="quotedNode" index="2c44tc" />
      </concept>
    </language>
    <language id="7a5dda62-9140-4668-ab76-d5ed1746f2b2" name="jetbrains.mps.lang.typesystem">
      <concept id="1179479408386" name="jetbrains.mps.lang.typesystem.structure.JoinType" flags="ng" index="2usRSg">
        <child id="1179479418730" name="argument" index="2usUpS" />
      </concept>
      <concept id="1176543928247" name="jetbrains.mps.lang.typesystem.structure.IsSubtypeExpression" flags="nn" index="3JuTUA">
        <child id="1176543945045" name="subtypeExpression" index="3JuY14" />
        <child id="1176543950311" name="supertypeExpression" index="3JuZjQ" />
      </concept>
      <concept id="1176544042499" name="jetbrains.mps.lang.typesystem.structure.Node_TypeOperation" flags="nn" index="3JvlWi" />
      <concept id="1176558773329" name="jetbrains.mps.lang.typesystem.structure.CoerceStatement" flags="nn" index="3Knyl0">
        <child id="1176558868203" name="body" index="3KnTvU" />
        <child id="1176558876970" name="pattern" index="3KnVwV" />
        <child id="1176558919376" name="nodeToCoerce" index="3Ko5Z1" />
      </concept>
      <concept id="1174642788531" name="jetbrains.mps.lang.typesystem.structure.ConceptReference" flags="ig" index="1YaCAy">
        <reference id="1174642800329" name="concept" index="1YaFvo" />
      </concept>
      <concept id="1174650418652" name="jetbrains.mps.lang.typesystem.structure.ApplicableNodeReference" flags="nn" index="1YBJjd">
        <reference id="1174650432090" name="applicableNode" index="1YBMHb" />
      </concept>
    </language>
    <language id="7866978e-a0f0-4cc7-81bc-4d213d9375e1" name="jetbrains.mps.lang.smodel">
      <concept id="1177026924588" name="jetbrains.mps.lang.smodel.structure.RefConcept_Reference" flags="nn" index="chp4Y">
        <reference id="1177026940964" name="conceptDeclaration" index="cht4Q" />
      </concept>
      <concept id="1138411891628" name="jetbrains.mps.lang.smodel.structure.SNodeOperation" flags="nn" index="eCIE_">
        <child id="1144104376918" name="parameter" index="1xVPHs" />
      </concept>
      <concept id="1179409122411" name="jetbrains.mps.lang.smodel.structure.Node_ConceptMethodCall" flags="nn" index="2qgKlT" />
      <concept id="2396822768958367367" name="jetbrains.mps.lang.smodel.structure.AbstractTypeCastExpression" flags="nn" index="$5XWr">
        <reference id="6733348108486823428" name="concept" index="1m5ApE" />
        <child id="6733348108486823193" name="leftExpression" index="1m5AlR" />
      </concept>
      <concept id="1143234257716" name="jetbrains.mps.lang.smodel.structure.Node_GetModelOperation" flags="nn" index="I4A8Y" />
      <concept id="1145383075378" name="jetbrains.mps.lang.smodel.structure.SNodeListType" flags="in" index="2I9FWS">
        <reference id="1145383142433" name="elementConcept" index="2I9WkF" />
      </concept>
      <concept id="1171310072040" name="jetbrains.mps.lang.smodel.structure.Node_GetContainingRootOperation" flags="nn" index="2Rxl7S" />
      <concept id="1171315804604" name="jetbrains.mps.lang.smodel.structure.Model_RootsOperation" flags="nn" index="2RRcyG">
        <reference id="1171315804605" name="concept" index="2RRcyH" />
      </concept>
      <concept id="1171407110247" name="jetbrains.mps.lang.smodel.structure.Node_GetAncestorOperation" flags="nn" index="2Xjw5R" />
      <concept id="1139621453865" name="jetbrains.mps.lang.smodel.structure.Node_IsInstanceOfOperation" flags="nn" index="1mIQ4w">
        <child id="1177027386292" name="conceptArgument" index="cj9EA" />
      </concept>
      <concept id="1171999116870" name="jetbrains.mps.lang.smodel.structure.Node_IsNullOperation" flags="nn" index="3w_OXm" />
      <concept id="1172008320231" name="jetbrains.mps.lang.smodel.structure.Node_IsNotNullOperation" flags="nn" index="3x8VRR" />
      <concept id="1144101972840" name="jetbrains.mps.lang.smodel.structure.OperationParm_Concept" flags="ng" index="1xMEDy">
        <child id="1207343664468" name="conceptArgument" index="ri$Ld" />
      </concept>
      <concept id="1180636770613" name="jetbrains.mps.lang.smodel.structure.SNodeCreator" flags="nn" index="3zrR0B">
        <child id="1180636770616" name="createdType" index="3zrR0E" />
      </concept>
      <concept id="1219352745532" name="jetbrains.mps.lang.smodel.structure.NodeRefExpression" flags="nn" index="3B5_sB">
        <reference id="1219352800908" name="referentNode" index="3B5MYn" />
      </concept>
      <concept id="1140137987495" name="jetbrains.mps.lang.smodel.structure.SNodeTypeCastExpression" flags="nn" index="1PxgMI" />
      <concept id="1138055754698" name="jetbrains.mps.lang.smodel.structure.SNodeType" flags="in" index="3Tqbb2">
        <reference id="1138405853777" name="concept" index="ehGHo" />
      </concept>
      <concept id="1138056022639" name="jetbrains.mps.lang.smodel.structure.SPropertyAccess" flags="nn" index="3TrcHB">
        <reference id="1138056395725" name="property" index="3TsBF5" />
      </concept>
      <concept id="1138056143562" name="jetbrains.mps.lang.smodel.structure.SLinkAccess" flags="nn" index="3TrEf2">
        <reference id="1138056516764" name="link" index="3Tt5mk" />
      </concept>
      <concept id="1138056282393" name="jetbrains.mps.lang.smodel.structure.SLinkListAccess" flags="nn" index="3Tsc0h">
        <reference id="1138056546658" name="link" index="3TtcxE" />
      </concept>
      <concept id="1172420572800" name="jetbrains.mps.lang.smodel.structure.ConceptNodeType" flags="in" index="3THzug">
        <reference id="1180481110358" name="conceptDeclaraton" index="3qa414" />
      </concept>
      <concept id="1172424058054" name="jetbrains.mps.lang.smodel.structure.ConceptRefExpression" flags="nn" index="3TUQnm">
        <reference id="1172424100906" name="conceptDeclaration" index="3TV0OU" />
      </concept>
    </language>
    <language id="ceab5195-25ea-4f22-9b92-103b95ca8c0c" name="jetbrains.mps.lang.core">
      <concept id="1133920641626" name="jetbrains.mps.lang.core.structure.BaseConcept" flags="ng" index="2VYdi">
        <property id="1193676396447" name="virtualPackage" index="3GE5qa" />
      </concept>
      <concept id="1169194658468" name="jetbrains.mps.lang.core.structure.INamedConcept" flags="ng" index="TrEIO">
        <property id="1169194664001" name="name" index="TrG5h" />
      </concept>
    </language>
    <language id="83888646-71ce-4f1c-9c53-c54016f6ad4f" name="jetbrains.mps.baseLanguage.collections">
      <concept id="1204796164442" name="jetbrains.mps.baseLanguage.collections.structure.InternalSequenceOperation" flags="nn" index="23sCx2">
        <child id="1204796294226" name="closure" index="23t8la" />
      </concept>
      <concept id="540871147943773365" name="jetbrains.mps.baseLanguage.collections.structure.SingleArgumentSequenceOperation" flags="nn" index="25WWJ4">
        <child id="540871147943773366" name="argument" index="25WWJ7" />
      </concept>
      <concept id="1151688443754" name="jetbrains.mps.baseLanguage.collections.structure.ListType" flags="in" index="_YKpA">
        <child id="1151688676805" name="elementType" index="_ZDj9" />
      </concept>
      <concept id="1237721394592" name="jetbrains.mps.baseLanguage.collections.structure.AbstractContainerCreator" flags="nn" index="HWqM0">
        <child id="1237721435808" name="initValue" index="HW$Y0" />
        <child id="1237721435807" name="elementType" index="HW$YZ" />
      </concept>
      <concept id="1203518072036" name="jetbrains.mps.baseLanguage.collections.structure.SmartClosureParameterDeclaration" flags="ig" index="Rh6nW" />
      <concept id="1160600644654" name="jetbrains.mps.baseLanguage.collections.structure.ListCreatorWithInit" flags="nn" index="Tc6Ow" />
      <concept id="1160612413312" name="jetbrains.mps.baseLanguage.collections.structure.AddElementOperation" flags="nn" index="TSZUe" />
      <concept id="1225727723840" name="jetbrains.mps.baseLanguage.collections.structure.FindFirstOperation" flags="nn" index="1z4cxt" />
    </language>
  </registry>
  <node concept="13h7C7" id="3gs394eDnix">
    <ref role="13h7C2" to="uhxm:25jQf71X6T9" resolve="RunConfiguration" />
    <node concept="13i0hz" id="3gs394eDyIj" role="13h7CS">
      <property role="TrG5h" value="getExecutor" />
      <node concept="2AHcQZ" id="2cIjP38VD0Q" role="2AJF6D">
        <ref role="2AI5Lk" to="mhfm:~Nullable" resolve="Nullable" />
      </node>
      <node concept="3Tm1VV" id="3gs394eDyIk" role="1B3o_S" />
      <node concept="3clFbS" id="3gs394eDyIm" role="3clF47">
        <node concept="3clFbF" id="3gs394eDyIp" role="3cqZAp">
          <node concept="2OqwBi" id="3gs394eDyIq" role="3clFbG">
            <node concept="2OqwBi" id="3gs394eDyIr" role="2Oq$k0">
              <node concept="2OqwBi" id="3gs394eDyIs" role="2Oq$k0">
                <node concept="13iPFW" id="3gs394eDzJu" role="2Oq$k0" />
                <node concept="I4A8Y" id="3gs394eDyIu" role="2OqNvi" />
              </node>
              <node concept="2RRcyG" id="3gs394eDyIv" role="2OqNvi">
                <ref role="2RRcyH" to="uhxm:25jQf71XihT" resolve="AbstractRunConfigurationExecutor" />
              </node>
            </node>
            <node concept="1z4cxt" id="3gs394eDyIw" role="2OqNvi">
              <node concept="1bVj0M" id="3gs394eDyIx" role="23t8la">
                <node concept="3clFbS" id="3gs394eDyIy" role="1bW5cS">
                  <node concept="3clFbF" id="3gs394eDyIz" role="3cqZAp">
                    <node concept="3clFbC" id="3gs394eDyI$" role="3clFbG">
                      <node concept="13iPFW" id="3gs394eDzJv" role="3uHU7w" />
                      <node concept="2OqwBi" id="3gs394eDyIA" role="3uHU7B">
                        <node concept="37vLTw" id="2BHiRxgm7cn" role="2Oq$k0">
                          <ref role="3cqZAo" node="3gs394eDyID" resolve="it" />
                        </node>
                        <node concept="3TrEf2" id="3gs394eDyIC" role="2OqNvi">
                          <ref role="3Tt5mk" to="uhxm:Ue65ozt$TX" />
                        </node>
                      </node>
                    </node>
                  </node>
                </node>
                <node concept="Rh6nW" id="3gs394eDyID" role="1bW2Oz">
                  <property role="TrG5h" value="it" />
                  <node concept="2jxLKc" id="3gs394eDyIE" role="1tU5fm" />
                </node>
              </node>
            </node>
          </node>
        </node>
      </node>
      <node concept="3Tqbb2" id="3gs394eDyIn" role="3clF45">
        <ref role="ehGHo" to="uhxm:25jQf71XihT" resolve="AbstractRunConfigurationExecutor" />
      </node>
    </node>
    <node concept="13i0hz" id="3wpI_WC06mf" role="13h7CS">
      <property role="TrG5h" value="isForeign" />
      <node concept="3Tm1VV" id="3wpI_WC06mg" role="1B3o_S" />
      <node concept="10P_77" id="3wpI_WC06mk" role="3clF45" />
      <node concept="3clFbS" id="3wpI_WC06mi" role="3clF47">
        <node concept="3clFbJ" id="3wpI_WC06tz" role="3cqZAp">
          <node concept="2OqwBi" id="3wpI_WC06tG" role="3clFbw">
            <node concept="2OqwBi" id="3wpI_WC06tB" role="2Oq$k0">
              <node concept="13iPFW" id="3wpI_WC06tA" role="2Oq$k0" />
              <node concept="3TrEf2" id="3wpI_WC06tF" role="2OqNvi">
                <ref role="3Tt5mk" to="uhxm:25jQf71X8Fy" />
              </node>
            </node>
            <node concept="3w_OXm" id="3wpI_WC06tK" role="2OqNvi" />
          </node>
          <node concept="3clFbS" id="3wpI_WC06t_" role="3clFbx">
            <node concept="3cpWs6" id="3wpI_WC06tL" role="3cqZAp">
              <node concept="3clFbT" id="3wpI_WC06tN" role="3cqZAk">
                <property role="3clFbU" value="false" />
              </node>
            </node>
          </node>
        </node>
        <node concept="3cpWs6" id="3wpI_WC06tP" role="3cqZAp">
          <node concept="17QLQc" id="3wpI_WC06u2" role="3cqZAk">
            <node concept="2OqwBi" id="3wpI_WC06u6" role="3uHU7w">
              <node concept="13iPFW" id="3wpI_WC06u5" role="2Oq$k0" />
              <node concept="I4A8Y" id="3wpI_WC06ua" role="2OqNvi" />
            </node>
            <node concept="2OqwBi" id="3wpI_WC06tX" role="3uHU7B">
              <node concept="2OqwBi" id="3wpI_WC06tS" role="2Oq$k0">
                <node concept="13iPFW" id="3wpI_WC06tR" role="2Oq$k0" />
                <node concept="3TrEf2" id="3wpI_WC06tW" role="2OqNvi">
                  <ref role="3Tt5mk" to="uhxm:25jQf71X8Fy" />
                </node>
              </node>
              <node concept="I4A8Y" id="3wpI_WC06u1" role="2OqNvi" />
            </node>
          </node>
        </node>
      </node>
    </node>
    <node concept="13i0hz" id="1XgDflG1h5w" role="13h7CS">
      <property role="TrG5h" value="getGeneratedFactoryName" />
      <node concept="3Tm1VV" id="1XgDflG1h5x" role="1B3o_S" />
      <node concept="17QB3L" id="1XgDflG1h5$" role="3clF45" />
      <node concept="3clFbS" id="1XgDflG1h5z" role="3clF47">
        <node concept="3clFbF" id="1XgDflG1h5_" role="3cqZAp">
          <node concept="3cpWs3" id="1XgDflG1h5A" role="3clFbG">
            <node concept="Xl_RD" id="1XgDflG1h5B" role="3uHU7w">
              <property role="Xl_RC" value="_Factory" />
            </node>
            <node concept="BsUDl" id="3xwsMyQkEzv" role="3uHU7B">
              <ref role="37wK5l" to="i1mc:O$iR4JBsSg" resolve="getGeneratedClassName" />
            </node>
          </node>
        </node>
      </node>
    </node>
    <node concept="13hLZK" id="3gs394eDniy" role="13h7CW">
      <node concept="3clFbS" id="3gs394eDniz" role="2VODD2" />
    </node>
  </node>
  <node concept="13h7C7" id="3gs394eD$pl">
    <ref role="13h7C2" to="uhxm:25jQf71X6Ta" resolve="RunConfigurationKind" />
    <node concept="13i0hz" id="20evqZJNmVK" role="13h7CS">
      <property role="13i0iv" value="false" />
      <property role="TrG5h" value="getSuffix" />
      <ref role="13i0hy" to="i1mc:O$iR4JBsSb" resolve="getSuffix" />
      <node concept="3Tm1VV" id="20evqZJNmVL" role="1B3o_S" />
      <node concept="2AHcQZ" id="20evqZJNmVM" role="2AJF6D">
        <ref role="2AI5Lk" to="mhfm:~NonNls" resolve="NonNls" />
      </node>
      <node concept="3clFbS" id="20evqZJNmVN" role="3clF47">
        <node concept="3clFbF" id="20evqZJNmVP" role="3cqZAp">
          <node concept="Xl_RD" id="20evqZJNmVQ" role="3clFbG">
            <property role="Xl_RC" value="Kind" />
          </node>
        </node>
      </node>
      <node concept="17QB3L" id="O$iR4JBzSw" role="3clF45" />
    </node>
    <node concept="13hLZK" id="3gs394eD$pm" role="13h7CW">
      <node concept="3clFbS" id="3gs394eD$pn" role="2VODD2" />
    </node>
  </node>
  <node concept="13h7C7" id="7aNlmsljCUK">
    <property role="3GE5qa" value="execution" />
    <ref role="13h7C2" to="uhxm:25jQf71XihT" resolve="AbstractRunConfigurationExecutor" />
    <node concept="13i0hz" id="6LlKjXrMerG" role="13h7CS">
      <property role="TrG5h" value="getCanExecuteMethodName" />
      <node concept="3Tm1VV" id="6LlKjXrMerH" role="1B3o_S" />
      <node concept="17QB3L" id="6LlKjXrMeHS" role="3clF45" />
      <node concept="3clFbS" id="6LlKjXrMerJ" role="3clF47">
        <node concept="3clFbF" id="6LlKjXrMeHU" role="3cqZAp">
          <node concept="Xl_RD" id="6LlKjXrMeHV" role="3clFbG">
            <property role="Xl_RC" value="canExecute" />
          </node>
        </node>
      </node>
    </node>
    <node concept="13hLZK" id="7aNlmsljCUL" role="13h7CW">
      <node concept="3clFbS" id="7aNlmsljCUM" role="2VODD2">
        <node concept="3clFbF" id="58U6AMn1BQI" role="3cqZAp">
          <node concept="37vLTI" id="58U6AMn1BQP" role="3clFbG">
            <node concept="2OqwBi" id="58U6AMn1BQK" role="37vLTJ">
              <node concept="13iPFW" id="58U6AMn1BQJ" role="2Oq$k0" />
              <node concept="3TrcHB" id="58U6AMn1BQO" role="2OqNvi">
                <ref role="3TsBF5" to="uhxm:58U6AMn1$2b" resolve="canRun" />
              </node>
            </node>
            <node concept="3clFbT" id="58U6AMn1BQS" role="37vLTx">
              <property role="3clFbU" value="true" />
            </node>
          </node>
        </node>
        <node concept="3clFbF" id="1FdVGfa32ee" role="3cqZAp">
          <node concept="37vLTI" id="1FdVGfa32em" role="3clFbG">
            <node concept="Xl_RD" id="1FdVGfa32ep" role="37vLTx">
              <property role="Xl_RC" value="myRunConfiguration" />
            </node>
            <node concept="2OqwBi" id="1FdVGfa32eg" role="37vLTJ">
              <node concept="13iPFW" id="1FdVGfa32ef" role="2Oq$k0" />
              <node concept="3TrcHB" id="1FdVGfa32el" role="2OqNvi">
                <ref role="3TsBF5" to="uhxm:1FdVGfa2His" resolve="configurationName" />
              </node>
            </node>
          </node>
        </node>
      </node>
    </node>
    <node concept="13i0hz" id="20evqZJNfRm" role="13h7CS">
      <property role="13i0iv" value="false" />
      <property role="TrG5h" value="getSuffix" />
      <ref role="13i0hy" to="i1mc:O$iR4JBsSb" resolve="getSuffix" />
      <node concept="3Tm1VV" id="20evqZJNfRn" role="1B3o_S" />
      <node concept="2AHcQZ" id="20evqZJNfRo" role="2AJF6D">
        <ref role="2AI5Lk" to="mhfm:~NonNls" resolve="NonNls" />
      </node>
      <node concept="3clFbS" id="20evqZJNfRp" role="3clF47">
        <node concept="3clFbF" id="20evqZJNfRr" role="3cqZAp">
          <node concept="3cpWs3" id="20evqZJNfRt" role="3clFbG">
            <node concept="Xl_RD" id="20evqZJNfRs" role="3uHU7w">
              <property role="Xl_RC" value="_RunProfileState" />
            </node>
            <node concept="2OqwBi" id="20evqZJNfRA" role="3uHU7B">
              <node concept="2OqwBi" id="20evqZJNfRx" role="2Oq$k0">
                <node concept="13iPFW" id="20evqZJNfRw" role="2Oq$k0" />
                <node concept="3TrEf2" id="20evqZJNfR_" role="2OqNvi">
                  <ref role="3Tt5mk" to="uhxm:Ue65ozt$TX" />
                </node>
              </node>
              <node concept="2qgKlT" id="O$iR4JBsUq" role="2OqNvi">
                <ref role="37wK5l" to="i1mc:O$iR4JBsSb" resolve="getSuffix" />
              </node>
            </node>
          </node>
        </node>
      </node>
      <node concept="17QB3L" id="O$iR4JBsUp" role="3clF45" />
    </node>
    <node concept="13i0hz" id="6__Mj29y2dY" role="13h7CS">
      <property role="13i0iv" value="false" />
      <property role="TrG5h" value="getGeneratedClassName" />
      <ref role="13i0hy" to="i1mc:O$iR4JBsSg" resolve="getGeneratedClassName" />
      <node concept="3Tm1VV" id="6__Mj29y2dZ" role="1B3o_S" />
      <node concept="3clFbS" id="6__Mj29y2e0" role="3clF47">
        <node concept="3clFbF" id="6__Mj29y2e6" role="3cqZAp">
          <node concept="BsUDl" id="6__Mj29y2e7" role="3clFbG">
            <ref role="37wK5l" to="i1mc:O$iR4JBsSG" resolve="getGeneratedClassName" />
            <node concept="2OqwBi" id="6__Mj29y2ee" role="37wK5m">
              <node concept="2OqwBi" id="6__Mj29y2e9" role="2Oq$k0">
                <node concept="13iPFW" id="6__Mj29y2e8" role="2Oq$k0" />
                <node concept="3TrEf2" id="6__Mj29y2ed" role="2OqNvi">
                  <ref role="3Tt5mk" to="uhxm:Ue65ozt$TX" />
                </node>
              </node>
              <node concept="3TrcHB" id="6__Mj29y2ei" role="2OqNvi">
                <ref role="3TsBF5" to="tpck:h0TrG11" resolve="name" />
              </node>
            </node>
          </node>
        </node>
      </node>
      <node concept="17QB3L" id="O$iR4JBsUr" role="3clF45" />
    </node>
  </node>
  <node concept="13h7C7" id="5EYxykdeqOa">
    <property role="3GE5qa" value="execution" />
    <ref role="13h7C2" to="uhxm:5kMNzMX$g0G" resolve="ExecuteConfiguration_Function" />
    <node concept="13hLZK" id="5EYxykdeqOb" role="13h7CW">
      <node concept="3clFbS" id="5EYxykdeqOc" role="2VODD2" />
    </node>
    <node concept="13i0hz" id="5EYxykdeqOe" role="13h7CS">
      <property role="TrG5h" value="getLocalVariableElements" />
      <property role="13i0it" value="true" />
      <ref role="13i0hy" to="tpek:i1I$XiP" resolve="getLocalVariableElements" />
      <node concept="3Tm1VV" id="5EYxykdeqOf" role="1B3o_S" />
      <node concept="3clFbS" id="5EYxykdeqOg" role="3clF47">
        <node concept="3clFbF" id="5EYxykdesBV" role="3cqZAp">
          <node concept="2OqwBi" id="5EYxykdesP8" role="3clFbG">
            <node concept="2OqwBi" id="5EYxykdesBX" role="2Oq$k0">
              <node concept="13iPFW" id="5EYxykdesBW" role="2Oq$k0" />
              <node concept="3TrEf2" id="5EYxykdesP7" role="2OqNvi">
                <ref role="3Tt5mk" to="tpee:gyVODHa" />
              </node>
            </node>
            <node concept="2qgKlT" id="5EYxykdesPc" role="2OqNvi">
              <ref role="37wK5l" to="tpek:i1I$XiP" resolve="getLocalVariableElements" />
            </node>
          </node>
        </node>
      </node>
      <node concept="2I9FWS" id="5EYxykdeqOh" role="3clF45">
        <ref role="2I9WkF" to="tpee:i1Ircah" resolve="ILocalVariableElement" />
      </node>
    </node>
    <node concept="13i0hz" id="2F_uerOhJmg" role="13h7CS">
      <property role="13i0is" value="false" />
      <property role="TrG5h" value="getParameters" />
      <property role="13i0it" value="true" />
      <ref role="13i0hy" to="tpek:hEwIGRM" resolve="getParameters" />
      <node concept="3Tm1VV" id="2F_uerOhJmh" role="1B3o_S" />
      <node concept="3clFbS" id="2F_uerOhJmi" role="3clF47">
        <node concept="3clFbJ" id="2F_uerOhMZs" role="3cqZAp">
          <node concept="1Wc70l" id="5P5ty4$bcbB" role="3clFbw">
            <node concept="2OqwBi" id="5P5ty4$bcbK" role="3uHU7B">
              <node concept="2OqwBi" id="5P5ty4$bcbF" role="2Oq$k0">
                <node concept="13iPFW" id="5P5ty4$bcbE" role="2Oq$k0" />
                <node concept="2Rxl7S" id="5P5ty4$bcbJ" role="2OqNvi" />
              </node>
              <node concept="1mIQ4w" id="5P5ty4$bcbO" role="2OqNvi">
                <node concept="chp4Y" id="5P5ty4$bcbQ" role="cj9EA">
                  <ref role="cht4Q" to="uhxm:6LlKjXrMe7G" resolve="RunConfigurationExecutor" />
                </node>
              </node>
            </node>
            <node concept="2OqwBi" id="2F_uerOhNcc" role="3uHU7w">
              <node concept="2OqwBi" id="2F_uerOhNc7" role="2Oq$k0">
                <node concept="1PxgMI" id="2F_uerOhNc5" role="2Oq$k0">
                  <ref role="1m5ApE" to="uhxm:6LlKjXrMe7G" resolve="RunConfigurationExecutor" />
                  <node concept="2OqwBi" id="2F_uerOhMZx" role="1m5AlR">
                    <node concept="13iPFW" id="2F_uerOhMZw" role="2Oq$k0" />
                    <node concept="2Rxl7S" id="2F_uerOhNc4" role="2OqNvi" />
                  </node>
                </node>
                <node concept="3TrEf2" id="5HAZRDA9WtI" role="2OqNvi">
                  <ref role="3Tt5mk" to="uhxm:5P5ty4$bo88" />
                </node>
              </node>
              <node concept="3x8VRR" id="2F_uerOhNcg" role="2OqNvi" />
            </node>
          </node>
          <node concept="3clFbS" id="2F_uerOhMZu" role="3clFbx">
            <node concept="3cpWs6" id="2F_uerOhNch" role="3cqZAp">
              <node concept="2ShNRf" id="2F_uerOhNcp" role="3cqZAk">
                <node concept="Tc6Ow" id="2F_uerOhNcr" role="2ShVmc">
                  <node concept="3TUQnm" id="2F_uerOhNct" role="HW$Y0">
                    <ref role="3TV0OU" to="uhxm:6E_yzjF3JCH" resolve="Project_Parameter" />
                  </node>
                  <node concept="3TUQnm" id="2F_uerOhNcv" role="HW$Y0">
                    <ref role="3TV0OU" to="uhxm:4bnjkECMWg0" resolve="DebuggerSettings_Parameter" />
                  </node>
                  <node concept="3TUQnm" id="a4sarQUy5T" role="HW$Y0">
                    <ref role="3TV0OU" to="uhxm:a4sarQTYiu" resolve="Executor_Parameter" />
                  </node>
                  <node concept="3THzug" id="1d5uNBHnBuM" role="HW$YZ">
                    <ref role="3qa414" to="tpee:g76ryKb" resolve="ConceptFunctionParameter" />
                  </node>
                </node>
              </node>
            </node>
          </node>
        </node>
        <node concept="3cpWs6" id="2F_uerOhNcx" role="3cqZAp">
          <node concept="2ShNRf" id="2F_uerOhNcy" role="3cqZAk">
            <node concept="Tc6Ow" id="2F_uerOhNcz" role="2ShVmc">
              <node concept="3TUQnm" id="2F_uerOhNc$" role="HW$Y0">
                <ref role="3TV0OU" to="uhxm:6E_yzjF3JCH" resolve="Project_Parameter" />
              </node>
              <node concept="3THzug" id="1d5uNBHnBuO" role="HW$YZ">
                <ref role="3qa414" to="tpee:g76ryKb" resolve="ConceptFunctionParameter" />
              </node>
            </node>
          </node>
        </node>
      </node>
      <node concept="_YKpA" id="2F_uerOhJmj" role="3clF45">
        <node concept="3THzug" id="2F_uerOhJmk" role="_ZDj9">
          <ref role="3qa414" to="tpee:g76ryKb" resolve="ConceptFunctionParameter" />
        </node>
      </node>
    </node>
    <node concept="13i0hz" id="1$vg1Ecgui7" role="13h7CS">
      <property role="13i0iv" value="false" />
      <property role="13i0is" value="false" />
      <property role="TrG5h" value="getExpectedReturnType" />
      <property role="13i0it" value="false" />
      <ref role="13i0hy" to="tpek:hEwIGRD" resolve="getExpectedReturnType" />
      <node concept="3Tm1VV" id="1$vg1Ecgui8" role="1B3o_S" />
      <node concept="3clFbS" id="1$vg1Ecgui9" role="3clF47">
        <node concept="3clFbF" id="5RwTMTq3eLL" role="3cqZAp">
          <node concept="2c44tf" id="5RwTMTq3eLM" role="3clFbG">
            <node concept="2usRSg" id="6hGfvQPcgp9" role="2c44tc">
              <node concept="2LYoN7" id="6hGfvQPcgpa" role="2usUpS" />
              <node concept="3uibUv" id="6hGfvQPcgpd" role="2usUpS">
                <ref role="3uigEE" to="uu3z:~ProcessHandler" resolve="ProcessHandler" />
              </node>
            </node>
          </node>
        </node>
      </node>
      <node concept="3Tqbb2" id="1$vg1Ecguia" role="3clF45" />
    </node>
    <node concept="13i0hz" id="1653mnvB5YC" role="13h7CS">
      <property role="2Ki8OM" value="true" />
      <property role="13i0is" value="false" />
      <property role="TrG5h" value="showName" />
      <property role="13i0it" value="false" />
      <ref role="13i0hy" to="tpek:1653mnvAgry" resolve="showName" />
      <node concept="3Tm1VV" id="1653mnvB5YD" role="1B3o_S" />
      <node concept="10P_77" id="1653mnvB5YB" role="3clF45" />
      <node concept="3clFbS" id="1653mnvB5YE" role="3clF47">
        <node concept="3cpWs6" id="1653mnvB5YF" role="3cqZAp">
          <node concept="3clFbT" id="1653mnvB5YG" role="3cqZAk">
            <property role="3clFbU" value="true" />
          </node>
        </node>
      </node>
    </node>
  </node>
  <node concept="13h7C7" id="6LlKjXrM_hH">
    <property role="3GE5qa" value="execution" />
    <ref role="13h7C2" to="uhxm:6LlKjXrMe7G" resolve="RunConfigurationExecutor" />
    <node concept="13i0hz" id="oym_8btfV8" role="13h7CS">
      <property role="TrG5h" value="isDebuggable" />
      <node concept="3Tm1VV" id="oym_8btfV9" role="1B3o_S" />
      <node concept="10P_77" id="oym_8btfVc" role="3clF45" />
      <node concept="3clFbS" id="oym_8btfVb" role="3clF47">
        <node concept="3clFbF" id="oym_8btro$" role="3cqZAp">
          <node concept="22lmx$" id="5pE1_aqZ17t" role="3clFbG">
            <node concept="1eOMI4" id="5pE1_aqZ17x" role="3uHU7w">
              <node concept="1Wc70l" id="5pE1_aqZ17y" role="1eOMHV">
                <node concept="2OqwBi" id="5pE1_aqZ17A" role="3uHU7w">
                  <node concept="13iPFW" id="5pE1_aqZ17_" role="2Oq$k0" />
                  <node concept="3TrcHB" id="5pE1_aqZ17E" role="2OqNvi">
                    <ref role="3TsBF5" to="uhxm:5pE1_aqYtvt" resolve="canDebug" />
                  </node>
                </node>
                <node concept="BsUDl" id="5pE1_aqZ17w" role="3uHU7B">
                  <ref role="37wK5l" node="5pE1_aqYZtD" resolve="isSimple" />
                </node>
              </node>
            </node>
            <node concept="2OqwBi" id="oym_8btroF" role="3uHU7B">
              <node concept="2OqwBi" id="oym_8btroA" role="2Oq$k0">
                <node concept="3TrEf2" id="5HAZRDA7FPc" role="2OqNvi">
                  <ref role="3Tt5mk" to="uhxm:5P5ty4$bo88" />
                </node>
                <node concept="13iPFW" id="oym_8btro_" role="2Oq$k0" />
              </node>
              <node concept="3x8VRR" id="oym_8btroJ" role="2OqNvi" />
            </node>
          </node>
        </node>
      </node>
    </node>
    <node concept="13i0hz" id="5pE1_aqYssM" role="13h7CS">
      <property role="TrG5h" value="canBeSimple" />
      <node concept="3Tm1VV" id="5pE1_aqYssN" role="1B3o_S" />
      <node concept="10P_77" id="5pE1_aqYthx" role="3clF45" />
      <node concept="3clFbS" id="5pE1_aqYssP" role="3clF47">
        <node concept="3clFbF" id="5pE1_aqYthy" role="3cqZAp">
          <node concept="3JuTUA" id="5pE1_aqYtvf" role="3clFbG">
            <node concept="2c44tf" id="5pE1_aqYtvq" role="3JuZjQ">
              <node concept="50ouk" id="5pE1_aqYtvs" role="2c44tc" />
            </node>
            <node concept="2OqwBi" id="5pE1_aqYtvl" role="3JuY14">
              <node concept="2OqwBi" id="5pE1_aqYtvi" role="2Oq$k0">
                <node concept="13iPFW" id="5pE1_aqYtvj" role="2Oq$k0" />
                <node concept="3TrEf2" id="5pE1_aqYtvk" role="2OqNvi">
                  <ref role="3Tt5mk" to="uhxm:6T2kBqFeaUx" />
                </node>
              </node>
              <node concept="3JvlWi" id="5pE1_aqYtvp" role="2OqNvi" />
            </node>
          </node>
        </node>
      </node>
    </node>
    <node concept="13i0hz" id="5pE1_aqYZtD" role="13h7CS">
      <property role="TrG5h" value="isSimple" />
      <node concept="3Tm1VV" id="5pE1_aqYZtE" role="1B3o_S" />
      <node concept="10P_77" id="5pE1_aqYZtH" role="3clF45" />
      <node concept="3clFbS" id="5pE1_aqYZtG" role="3clF47">
        <node concept="3clFbF" id="5pE1_aqYZtI" role="3cqZAp">
          <node concept="1Wc70l" id="5pE1_aqYZtK" role="3clFbG">
            <node concept="BsUDl" id="5pE1_aqYZtJ" role="3uHU7B">
              <ref role="37wK5l" node="5pE1_aqYssM" resolve="canBeSimple" />
            </node>
            <node concept="2OqwBi" id="5pE1_aqYZtT" role="3uHU7w">
              <node concept="2OqwBi" id="5pE1_aqYZtO" role="2Oq$k0">
                <node concept="13iPFW" id="5pE1_aqYZtN" role="2Oq$k0" />
                <node concept="3TrEf2" id="5pE1_aqYZtS" role="2OqNvi">
                  <ref role="3Tt5mk" to="uhxm:5P5ty4$bo88" />
                </node>
              </node>
              <node concept="3w_OXm" id="5pE1_aqYZtX" role="2OqNvi" />
            </node>
          </node>
        </node>
      </node>
    </node>
    <node concept="13i0hz" id="5pE1_aqZ2LK" role="13h7CS">
      <property role="TrG5h" value="getCommand" />
      <node concept="3Tm1VV" id="5pE1_aqZ2LL" role="1B3o_S" />
      <node concept="3Tqbb2" id="5pE1_aqZ2LO" role="3clF45">
        <ref role="ehGHo" to="rzqf:JzCdmU6yJC" resolve="CommandDeclaration" />
      </node>
      <node concept="3clFbS" id="5pE1_aqZ2LN" role="3clF47">
        <node concept="3Knyl0" id="5pE1_aqZ2LU" role="3cqZAp">
          <node concept="1YaCAy" id="5pE1_aqZ2Md" role="3KnVwV">
            <property role="TrG5h" value="commandProcessType" />
            <ref role="1YaFvo" to="rzqf:xZAjsdvxUz" resolve="CommandProcessType" />
          </node>
          <node concept="2OqwBi" id="5pE1_aqZ2M8" role="3Ko5Z1">
            <node concept="2OqwBi" id="5pE1_aqZ2M3" role="2Oq$k0">
              <node concept="13iPFW" id="5pE1_aqZ2M2" role="2Oq$k0" />
              <node concept="3TrEf2" id="5pE1_aqZ2M7" role="2OqNvi">
                <ref role="3Tt5mk" to="uhxm:6T2kBqFeaUx" />
              </node>
            </node>
            <node concept="3JvlWi" id="5pE1_aqZ2Mc" role="2OqNvi" />
          </node>
          <node concept="3clFbS" id="5pE1_aqZ2LX" role="3KnTvU">
            <node concept="3clFbJ" id="5pE1_aqZ2Me" role="3cqZAp">
              <node concept="2OqwBi" id="5pE1_aqZ2Mn" role="3clFbw">
                <node concept="2OqwBi" id="5pE1_aqZ2Mi" role="2Oq$k0">
                  <node concept="1YBJjd" id="5pE1_aqZ2Mh" role="2Oq$k0">
                    <ref role="1YBMHb" node="5pE1_aqZ2Md" resolve="commandProcessType" />
                  </node>
                  <node concept="3TrEf2" id="5pE1_aqZ2Mm" role="2OqNvi">
                    <ref role="3Tt5mk" to="rzqf:xZAjsdvxU$" />
                  </node>
                </node>
                <node concept="3x8VRR" id="5pE1_aqZ2Mr" role="2OqNvi" />
              </node>
              <node concept="3clFbS" id="5pE1_aqZ2Mg" role="3clFbx">
                <node concept="3cpWs6" id="5pE1_aqZ2Ms" role="3cqZAp">
                  <node concept="2OqwBi" id="5pE1_aqZ2Mv" role="3cqZAk">
                    <node concept="1YBJjd" id="5pE1_aqZ2Mu" role="2Oq$k0">
                      <ref role="1YBMHb" node="5pE1_aqZ2Md" resolve="commandProcessType" />
                    </node>
                    <node concept="3TrEf2" id="5pE1_aqZ2Mz" role="2OqNvi">
                      <ref role="3Tt5mk" to="rzqf:xZAjsdvxU$" />
                    </node>
                  </node>
                </node>
              </node>
            </node>
          </node>
        </node>
        <node concept="3cpWs6" id="5pE1_aqZ2M_" role="3cqZAp">
          <node concept="10Nm6u" id="5pE1_aqZ2MA" role="3cqZAk" />
        </node>
      </node>
      <node concept="2AHcQZ" id="5pE1_aqZ2MB" role="2AJF6D">
        <ref role="2AI5Lk" to="mhfm:~Nullable" resolve="Nullable" />
      </node>
    </node>
    <node concept="13hLZK" id="6LlKjXrM_hI" role="13h7CW">
      <node concept="3clFbS" id="6LlKjXrM_hJ" role="2VODD2" />
    </node>
  </node>
  <node concept="13h7C7" id="6LlKjXrML0T">
    <property role="3GE5qa" value="execution" />
    <ref role="13h7C2" to="uhxm:6LlKjXrMGoJ" resolve="ConfigurationFromExecutorReference" />
    <node concept="13i0hz" id="6LlKjXrML19" role="13h7CS">
      <property role="TrG5h" value="getExecutor" />
      <node concept="3Tm1VV" id="6LlKjXrML1a" role="1B3o_S" />
      <node concept="3Tqbb2" id="6LlKjXrML1d" role="3clF45">
        <ref role="ehGHo" to="uhxm:25jQf71XihT" resolve="AbstractRunConfigurationExecutor" />
      </node>
      <node concept="3clFbS" id="6LlKjXrML1c" role="3clF47">
        <node concept="3clFbF" id="6LlKjXrML1e" role="3cqZAp">
          <node concept="1PxgMI" id="5P5ty4$bcbc" role="3clFbG">
            <ref role="1m5ApE" to="uhxm:25jQf71XihT" resolve="AbstractRunConfigurationExecutor" />
            <node concept="2OqwBi" id="6LlKjXrML1g" role="1m5AlR">
              <node concept="13iPFW" id="6LlKjXrML1f" role="2Oq$k0" />
              <node concept="2Rxl7S" id="6LlKjXrML1k" role="2OqNvi" />
            </node>
          </node>
        </node>
      </node>
    </node>
    <node concept="13hLZK" id="6LlKjXrML0U" role="13h7CW">
      <node concept="3clFbS" id="6LlKjXrML0V" role="2VODD2" />
    </node>
  </node>
  <node concept="13h7C7" id="3aewtBM2WG1">
    <property role="3GE5qa" value="producer" />
    <ref role="13h7C2" to="uhxm:3MnZbusxcR3" resolve="Create_ConceptFunction" />
    <node concept="13hLZK" id="3aewtBM2WG2" role="13h7CW">
      <node concept="3clFbS" id="3aewtBM2WG3" role="2VODD2" />
    </node>
    <node concept="13i0hz" id="3aewtBM2WG4" role="13h7CS">
      <property role="13i0iv" value="false" />
      <property role="13i0is" value="false" />
      <property role="TrG5h" value="getExpectedReturnType" />
      <property role="13i0it" value="false" />
      <ref role="13i0hy" to="tpek:hEwIGRD" resolve="getExpectedReturnType" />
      <node concept="3Tm1VV" id="3aewtBM2WG5" role="1B3o_S" />
      <node concept="3clFbS" id="3aewtBM2WG6" role="3clF47">
        <node concept="3clFbF" id="3aewtBM2ZI1" role="3cqZAp">
          <node concept="2OqwBi" id="3aewtBM2ZId" role="3clFbG">
            <node concept="2OqwBi" id="3aewtBM2ZI3" role="2Oq$k0">
              <node concept="13iPFW" id="3aewtBM2ZI2" role="2Oq$k0" />
              <node concept="2Xjw5R" id="3aewtBM2ZI7" role="2OqNvi">
                <node concept="1xMEDy" id="3aewtBM2ZI8" role="1xVPHs">
                  <node concept="chp4Y" id="3aewtBM2ZIc" role="ri$Ld">
                    <ref role="cht4Q" to="uhxm:3MnZbusx2c5" resolve="RunConfigurationProducer" />
                  </node>
                </node>
              </node>
            </node>
            <node concept="3TrEf2" id="3aewtBM2ZIh" role="2OqNvi">
              <ref role="3Tt5mk" to="uhxm:3MnZbusxazJ" />
            </node>
          </node>
        </node>
      </node>
      <node concept="3Tqbb2" id="3aewtBM2WG7" role="3clF45" />
    </node>
    <node concept="13i0hz" id="1653mnvANCC" role="13h7CS">
      <property role="2Ki8OM" value="true" />
      <property role="13i0is" value="false" />
      <property role="TrG5h" value="showName" />
      <property role="13i0it" value="false" />
      <ref role="13i0hy" to="tpek:1653mnvAgry" resolve="showName" />
      <node concept="3Tm1VV" id="1653mnvANCD" role="1B3o_S" />
      <node concept="10P_77" id="1653mnvANCB" role="3clF45" />
      <node concept="3clFbS" id="1653mnvANCE" role="3clF47">
        <node concept="3cpWs6" id="1653mnvANCF" role="3cqZAp">
          <node concept="3clFbT" id="1653mnvANCG" role="3cqZAk">
            <property role="3clFbU" value="true" />
          </node>
        </node>
      </node>
    </node>
    <node concept="13i0hz" id="2D1PBM_bzB6" role="13h7CS">
      <property role="2Ki8OM" value="true" />
      <property role="13i0is" value="false" />
      <property role="TrG5h" value="getApplicableConceptFunctionParameter" />
      <property role="13i0it" value="false" />
      <ref role="13i0hy" to="tpek:2D1PBM_bxJg" resolve="getApplicableConceptFunctionParameter" />
      <node concept="3Tm1VV" id="2D1PBM_bzB7" role="1B3o_S" />
      <node concept="_YKpA" id="2D1PBM_bzB4" role="3clF45">
        <node concept="3Tqbb2" id="2D1PBM_bzB5" role="_ZDj9">
          <ref role="ehGHo" to="tpce:f_TIwhg" resolve="ConceptDeclaration" />
        </node>
      </node>
      <node concept="3clFbS" id="2D1PBM_bzB8" role="3clF47">
        <node concept="3cpWs8" id="2D1PBM_bzB9" role="3cqZAp">
          <node concept="3cpWsn" id="2D1PBM_bzBa" role="3cpWs9">
            <property role="TrG5h" value="result" />
            <node concept="_YKpA" id="2D1PBM_bzBe" role="1tU5fm">
              <node concept="3Tqbb2" id="2D1PBM_bzBf" role="_ZDj9">
                <ref role="ehGHo" to="tpce:f_TIwhg" resolve="ConceptDeclaration" />
              </node>
            </node>
            <node concept="2OqwBi" id="2D1PBM_bzBm" role="33vP2m">
              <node concept="13iAh5" id="2D1PBM_bzBi" role="2Oq$k0">
                <ref role="3eA5LN" to="tpee:gyVMwX8" resolve="ConceptFunction" />
              </node>
              <node concept="2qgKlT" id="2D1PBM_bzBh" role="2OqNvi">
                <ref role="37wK5l" to="tpek:2D1PBM_bxJg" resolve="getApplicableConceptFunctionParameter" />
              </node>
            </node>
          </node>
        </node>
        <node concept="3clFbF" id="2D1PBM_bzBo" role="3cqZAp">
          <node concept="2OqwBi" id="2D1PBM_bzBp" role="3clFbG">
            <node concept="37vLTw" id="2D1PBM_bzBq" role="2Oq$k0">
              <ref role="3cqZAo" node="2D1PBM_bzBa" resolve="result" />
            </node>
            <node concept="TSZUe" id="2D1PBM_bzBr" role="2OqNvi">
              <node concept="3B5_sB" id="2D1PBM_bzBn" role="25WWJ7">
                <ref role="3B5MYn" to="uhxm:3aewtBM2nU7" resolve="Source_ConceptFunctionParameter" />
              </node>
            </node>
          </node>
        </node>
        <node concept="3cpWs6" id="2D1PBM_bzBs" role="3cqZAp">
          <node concept="37vLTw" id="2D1PBM_bzBt" role="3cqZAk">
            <ref role="3cqZAo" node="2D1PBM_bzBa" resolve="result" />
          </node>
        </node>
      </node>
    </node>
  </node>
  <node concept="13h7C7" id="5FAUXTS7S2X">
    <property role="3GE5qa" value="before" />
    <ref role="13h7C2" to="uhxm:5FAUXTS7S0k" resolve="BeforeTaskParameter" />
    <node concept="13hLZK" id="5FAUXTS7S2Y" role="13h7CW">
      <node concept="3clFbS" id="5FAUXTS7S2Z" role="2VODD2" />
    </node>
    <node concept="13i0hz" id="5FAUXTS7Tq5" role="13h7CS">
      <property role="13i0iv" value="false" />
      <property role="13i0is" value="false" />
      <property role="TrG5h" value="isInitializable" />
      <property role="13i0it" value="false" />
      <ref role="13i0hy" to="tpek:hEwJfMK" resolve="isInitializable" />
      <node concept="3Tm1VV" id="5FAUXTS7Tq6" role="1B3o_S" />
      <node concept="3clFbS" id="5FAUXTS7Tq7" role="3clF47">
        <node concept="3clFbF" id="5FAUXTS7Tqd" role="3cqZAp">
          <node concept="3clFbT" id="5FAUXTS7Tqe" role="3clFbG">
            <property role="3clFbU" value="true" />
          </node>
        </node>
      </node>
      <node concept="10P_77" id="5FAUXTS7Tq8" role="3clF45" />
    </node>
  </node>
  <node concept="13h7C7" id="toP3SpHxpC">
    <property role="3GE5qa" value="producer" />
    <ref role="13h7C2" to="uhxm:3MnZbusxcQA" resolve="RunConfigurationProducerPart" />
    <node concept="13hLZK" id="toP3SpHxpD" role="13h7CW">
      <node concept="3clFbS" id="toP3SpHxpE" role="2VODD2" />
    </node>
    <node concept="13i0hz" id="toP3SpHxpF" role="13h7CS">
      <property role="13i0iv" value="false" />
      <property role="TrG5h" value="getSuffix" />
      <property role="13i0it" value="false" />
      <ref role="13i0hy" to="i1mc:O$iR4JBsSb" resolve="getSuffix" />
      <node concept="3Tm1VV" id="toP3SpHxpG" role="1B3o_S" />
      <node concept="2AHcQZ" id="toP3SpHxpH" role="2AJF6D">
        <ref role="2AI5Lk" to="mhfm:~NonNls" resolve="NonNls" />
      </node>
      <node concept="3clFbS" id="toP3SpHxpI" role="3clF47">
        <node concept="3clFbJ" id="2eOtvO7hFaS" role="3cqZAp">
          <node concept="3clFbS" id="2eOtvO7hFaT" role="3clFbx">
            <node concept="3cpWs6" id="2eOtvO7hFb7" role="3cqZAp">
              <node concept="Xl_RD" id="2eOtvO7hFb9" role="3cqZAk">
                <property role="Xl_RC" value="" />
              </node>
            </node>
          </node>
          <node concept="2OqwBi" id="2eOtvO7hFb2" role="3clFbw">
            <node concept="2OqwBi" id="2eOtvO7hFaX" role="2Oq$k0">
              <node concept="13iPFW" id="2eOtvO7hFaW" role="2Oq$k0" />
              <node concept="3TrEf2" id="2eOtvO7hFb1" role="2OqNvi">
                <ref role="3Tt5mk" to="uhxm:6liWaRMAf9f" />
              </node>
            </node>
            <node concept="3w_OXm" id="2eOtvO7hFb6" role="2OqNvi" />
          </node>
        </node>
        <node concept="3clFbF" id="toP3SpHx_V" role="3cqZAp">
          <node concept="BsUDl" id="2eOtvO7hJl0" role="3clFbG">
            <ref role="37wK5l" to="i1mc:2eOtvO7hJjT" resolve="getValidClassName" />
            <node concept="2OqwBi" id="2eOtvO7hJl1" role="37wK5m">
              <node concept="1PxgMI" id="2eOtvO7hJl2" role="2Oq$k0">
                <ref role="1m5ApE" to="tpck:gw2VY9q" resolve="BaseConcept" />
                <node concept="2OqwBi" id="2eOtvO7hJl3" role="1m5AlR">
                  <node concept="2OqwBi" id="2eOtvO7hJl4" role="2Oq$k0">
                    <node concept="13iPFW" id="2eOtvO7hJl5" role="2Oq$k0" />
                    <node concept="3TrEf2" id="2eOtvO7hJl6" role="2OqNvi">
                      <ref role="3Tt5mk" to="uhxm:6liWaRMAf9f" />
                    </node>
                  </node>
                  <node concept="3JvlWi" id="2eOtvO7hJl7" role="2OqNvi" />
                </node>
              </node>
              <node concept="2qgKlT" id="2eOtvO7hJl8" role="2OqNvi">
                <ref role="37wK5l" to="tpcu:hEwIMiw" resolve="getPresentation" />
              </node>
            </node>
          </node>
        </node>
      </node>
      <node concept="17QB3L" id="toP3SpHxpJ" role="3clF45" />
    </node>
  </node>
  <node concept="13h7C7" id="66CJzfk0XGN">
    <property role="3GE5qa" value="before" />
    <ref role="13h7C2" to="uhxm:66CJzfk0VuZ" resolve="BeforeTask" />
    <node concept="13hLZK" id="66CJzfk0XGO" role="13h7CW">
      <node concept="3clFbS" id="66CJzfk0XGP" role="2VODD2" />
    </node>
    <node concept="13i0hz" id="66CJzfk0YN2" role="13h7CS">
      <property role="13i0iv" value="false" />
      <property role="TrG5h" value="getSuffix" />
      <property role="13i0it" value="false" />
      <ref role="13i0hy" to="i1mc:O$iR4JBsSb" resolve="getSuffix" />
      <node concept="3Tm1VV" id="66CJzfk0YN3" role="1B3o_S" />
      <node concept="2AHcQZ" id="66CJzfk0YN4" role="2AJF6D">
        <ref role="2AI5Lk" to="mhfm:~NonNls" resolve="NonNls" />
      </node>
      <node concept="3clFbS" id="66CJzfk0YN5" role="3clF47">
        <node concept="3clFbF" id="66CJzfk0YN7" role="3cqZAp">
          <node concept="Xl_RD" id="66CJzfk0YN8" role="3clFbG">
            <property role="Xl_RC" value="BeforeTask" />
          </node>
        </node>
      </node>
      <node concept="17QB3L" id="66CJzfk0YN6" role="3clF45" />
    </node>
  </node>
  <node concept="13h7C7" id="3MnZbusxbtw">
    <property role="3GE5qa" value="producer" />
    <ref role="13h7C2" to="uhxm:3MnZbusx2c5" resolve="RunConfigurationProducer" />
    <node concept="13i0hz" id="3MnZbusxbtz" role="13h7CS">
      <property role="TrG5h" value="getDisplayedName" />
      <node concept="3Tm1VV" id="3MnZbusxbt$" role="1B3o_S" />
      <node concept="17QB3L" id="3MnZbusxbtB" role="3clF45" />
      <node concept="3clFbS" id="3MnZbusxbtA" role="3clF47">
        <node concept="3clFbF" id="3MnZbusxcQs" role="3cqZAp">
          <node concept="3cpWs3" id="toP3SpHuP1" role="3clFbG">
            <node concept="BsUDl" id="toP3SpHuP4" role="3uHU7w">
              <ref role="37wK5l" to="i1mc:O$iR4JBsSb" resolve="getSuffix" />
            </node>
            <node concept="3cpWs3" id="toP3SpHuOX" role="3uHU7B">
              <node concept="BsUDl" id="3MnZbusxcQ_" role="3uHU7B">
                <ref role="37wK5l" to="i1mc:3MnZbusxcPI" resolve="getBaseName" />
              </node>
              <node concept="Xl_RD" id="toP3SpHuP0" role="3uHU7w">
                <property role="Xl_RC" value=" " />
              </node>
            </node>
          </node>
        </node>
      </node>
    </node>
    <node concept="13hLZK" id="3MnZbusxbtx" role="13h7CW">
      <node concept="3clFbS" id="3MnZbusxbty" role="2VODD2" />
    </node>
    <node concept="13i0hz" id="3MnZbusxcPB" role="13h7CS">
      <property role="13i0iv" value="false" />
      <property role="TrG5h" value="getSuffix" />
      <property role="13i0it" value="false" />
      <ref role="13i0hy" to="i1mc:O$iR4JBsSb" resolve="getSuffix" />
      <node concept="3Tm1VV" id="3MnZbusxcPC" role="1B3o_S" />
      <node concept="2AHcQZ" id="3MnZbusxcPD" role="2AJF6D">
        <ref role="2AI5Lk" to="mhfm:~NonNls" resolve="NonNls" />
      </node>
      <node concept="3clFbS" id="3MnZbusxcPE" role="3clF47">
        <node concept="3clFbF" id="3MnZbusxcPG" role="3cqZAp">
          <node concept="Xl_RD" id="3MnZbusxcPH" role="3clFbG">
            <property role="Xl_RC" value="Producer" />
          </node>
        </node>
      </node>
      <node concept="17QB3L" id="3MnZbusxcPF" role="3clF45" />
    </node>
    <node concept="13i0hz" id="3MnZbusxcPU" role="13h7CS">
      <property role="13i0iv" value="false" />
      <property role="TrG5h" value="getBaseName" />
      <property role="13i0it" value="false" />
      <ref role="13i0hy" to="i1mc:3MnZbusxcPI" resolve="getBaseName" />
      <node concept="3Tmbuc" id="3MnZbusxcPV" role="1B3o_S" />
      <node concept="3clFbS" id="3MnZbusxcPW" role="3clF47">
        <node concept="3clFbJ" id="3MnZbusxcQ2" role="3cqZAp">
          <node concept="2OqwBi" id="3MnZbusxcQ3" role="3clFbw">
            <node concept="2OqwBi" id="3MnZbusxcQ4" role="2Oq$k0">
              <node concept="13iPFW" id="3MnZbusxcQ5" role="2Oq$k0" />
              <node concept="3TrEf2" id="3MnZbusxcQ6" role="2OqNvi">
                <ref role="3Tt5mk" to="uhxm:3MnZbusxazJ" />
              </node>
            </node>
            <node concept="3w_OXm" id="3MnZbusxcQ7" role="2OqNvi" />
          </node>
          <node concept="3clFbS" id="3MnZbusxcQ8" role="3clFbx">
            <node concept="3cpWs6" id="3MnZbusxcQ9" role="3cqZAp">
              <node concept="Xl_RD" id="3MnZbusxcQa" role="3cqZAk">
                <property role="Xl_RC" value="Unknown" />
              </node>
            </node>
          </node>
        </node>
        <node concept="3clFbF" id="3MnZbusxcQb" role="3cqZAp">
          <node concept="2EnYce" id="3MnZbusxcQp" role="3clFbG">
            <node concept="2OqwBi" id="3MnZbusxcQf" role="2Oq$k0">
              <node concept="2OqwBi" id="3MnZbusxcQg" role="2Oq$k0">
                <node concept="13iPFW" id="3MnZbusxcQh" role="2Oq$k0" />
                <node concept="3TrEf2" id="3MnZbusxcQi" role="2OqNvi">
                  <ref role="3Tt5mk" to="uhxm:3MnZbusxazJ" />
                </node>
              </node>
              <node concept="3TrEf2" id="3MnZbusxcQj" role="2OqNvi">
                <ref role="3Tt5mk" to="fb9u:O$iR4J$g0t" />
              </node>
            </node>
            <node concept="2qgKlT" id="er7oEzsuRB" role="2OqNvi">
              <ref role="37wK5l" to="i1mc:3MnZbusxcPI" resolve="getBaseName" />
            </node>
          </node>
        </node>
      </node>
      <node concept="17QB3L" id="3MnZbusxcPX" role="3clF45" />
    </node>
  </node>
  <node concept="13h7C7" id="1ovLDatOk_W">
    <property role="3GE5qa" value="execution" />
    <ref role="13h7C2" to="uhxm:O$iR4JBkjh" resolve="StartProcessHandlerStatement" />
    <node concept="13i0hz" id="1ovLDatOk_Z" role="13h7CS">
      <property role="TrG5h" value="getComponent" />
      <node concept="3Tm1VV" id="1ovLDatOkA0" role="1B3o_S" />
      <node concept="3Tqbb2" id="1ovLDatOkA3" role="3clF45">
        <ref role="ehGHo" to="tpee:fz3vP1J" resolve="Expression" />
      </node>
      <node concept="3clFbS" id="1ovLDatOkA2" role="3clF47">
        <node concept="3cpWs6" id="1ovLDatOkFk" role="3cqZAp">
          <node concept="BsUDl" id="3xwsMyQkE$0" role="3cqZAk">
            <ref role="37wK5l" node="1ovLDatOkEK" resolve="getComponentByName" />
            <node concept="Xl_RD" id="1ovLDatOkFp" role="37wK5m">
              <property role="Xl_RC" value="component" />
            </node>
          </node>
        </node>
      </node>
    </node>
    <node concept="13i0hz" id="1ovLDatOkDx" role="13h7CS">
      <property role="TrG5h" value="getDispose" />
      <node concept="3Tm1VV" id="1ovLDatOkDy" role="1B3o_S" />
      <node concept="3Tqbb2" id="1ovLDatOkDz" role="3clF45">
        <ref role="ehGHo" to="tpee:fz3vP1J" resolve="Expression" />
      </node>
      <node concept="3clFbS" id="1ovLDatOkD$" role="3clF47">
        <node concept="3clFbF" id="1ovLDatOkFq" role="3cqZAp">
          <node concept="BsUDl" id="1ovLDatOkFr" role="3clFbG">
            <ref role="37wK5l" node="1ovLDatOkEK" resolve="getComponentByName" />
            <node concept="Xl_RD" id="1ovLDatOkFs" role="37wK5m">
              <property role="Xl_RC" value="dispose" />
            </node>
          </node>
        </node>
      </node>
    </node>
    <node concept="13i0hz" id="1ovLDatOkE5" role="13h7CS">
      <property role="TrG5h" value="getListener" />
      <node concept="3Tm1VV" id="1ovLDatOkE6" role="1B3o_S" />
      <node concept="3Tqbb2" id="1ovLDatOkE7" role="3clF45">
        <ref role="ehGHo" to="tpee:fz3vP1J" resolve="Expression" />
      </node>
      <node concept="3clFbS" id="1ovLDatOkE8" role="3clF47">
        <node concept="3clFbF" id="1ovLDatOkFt" role="3cqZAp">
          <node concept="BsUDl" id="1ovLDatOkFu" role="3clFbG">
            <ref role="37wK5l" node="1ovLDatOkEK" resolve="getComponentByName" />
            <node concept="Xl_RD" id="1ovLDatOkFv" role="37wK5m">
              <property role="Xl_RC" value="listener" />
            </node>
          </node>
        </node>
      </node>
    </node>
    <node concept="13hLZK" id="1ovLDatOk_X" role="13h7CW">
      <node concept="3clFbS" id="1ovLDatOk_Y" role="2VODD2" />
    </node>
    <node concept="13i0hz" id="1ovLDatOkEK" role="13h7CS">
      <property role="TrG5h" value="getComponentByName" />
      <node concept="3Tm6S6" id="1ovLDatOkEL" role="1B3o_S" />
      <node concept="3Tqbb2" id="1ovLDatOkEM" role="3clF45">
        <ref role="ehGHo" to="tpee:fz3vP1J" resolve="Expression" />
      </node>
      <node concept="37vLTG" id="1ovLDatOkEJ" role="3clF46">
        <property role="TrG5h" value="name" />
        <node concept="17QB3L" id="1ovLDatOkEN" role="1tU5fm" />
      </node>
      <node concept="3clFbS" id="1ovLDatOkEO" role="3clF47">
        <node concept="3clFbJ" id="1ovLDatOkEP" role="3cqZAp">
          <node concept="3clFbS" id="1ovLDatOkEQ" role="3clFbx">
            <node concept="3cpWs6" id="1ovLDatOkER" role="3cqZAp">
              <node concept="10Nm6u" id="1ovLDatOkES" role="3cqZAk" />
            </node>
          </node>
          <node concept="2OqwBi" id="1ovLDatOkET" role="3clFbw">
            <node concept="2OqwBi" id="1ovLDatOkEU" role="2Oq$k0">
              <node concept="13iPFW" id="1ovLDatOkEV" role="2Oq$k0" />
              <node concept="3TrEf2" id="1ovLDatOkEW" role="2OqNvi">
                <ref role="3Tt5mk" to="uhxm:1ovLDatNZew" />
              </node>
            </node>
            <node concept="3w_OXm" id="1ovLDatOkEX" role="2OqNvi" />
          </node>
        </node>
        <node concept="3clFbJ" id="6hGfvQPbJuq" role="3cqZAp">
          <node concept="3clFbS" id="6hGfvQPbJur" role="3clFbx">
            <node concept="3cpWs8" id="4z_irkM0CgZ" role="3cqZAp">
              <node concept="3cpWsn" id="4z_irkM0Ch0" role="3cpWs9">
                <property role="TrG5h" value="first" />
                <node concept="3Tqbb2" id="4z_irkM0Ch1" role="1tU5fm">
                  <ref role="ehGHo" to="cx9y:i2r$n51" resolve="NamedTupleComponentReference" />
                </node>
                <node concept="2OqwBi" id="4z_irkM0Ch2" role="33vP2m">
                  <node concept="2OqwBi" id="4z_irkM0Ch3" role="2Oq$k0">
                    <node concept="1PxgMI" id="4z_irkM0Ch4" role="2Oq$k0">
                      <ref role="1m5ApE" to="cx9y:i2ry7cs" resolve="NamedTupleLiteral" />
                      <node concept="2OqwBi" id="4z_irkM0Ch5" role="1m5AlR">
                        <node concept="3TrEf2" id="4z_irkM0Ch6" role="2OqNvi">
                          <ref role="3Tt5mk" to="uhxm:1ovLDatNZew" />
                        </node>
                        <node concept="13iPFW" id="4z_irkM0Ch7" role="2Oq$k0" />
                      </node>
                    </node>
                    <node concept="3Tsc0h" id="4z_irkM0Ch8" role="2OqNvi">
                      <ref role="3TtcxE" to="cx9y:i2r_BrL" />
                    </node>
                  </node>
                  <node concept="1z4cxt" id="4z_irkM0Ch9" role="2OqNvi">
                    <node concept="1bVj0M" id="4z_irkM0Cha" role="23t8la">
                      <node concept="3clFbS" id="4z_irkM0Chb" role="1bW5cS">
                        <node concept="3clFbF" id="4z_irkM0Chc" role="3cqZAp">
                          <node concept="2OqwBi" id="4z_irkM0Chd" role="3clFbG">
                            <node concept="2OqwBi" id="4z_irkM0Che" role="2Oq$k0">
                              <node concept="2OqwBi" id="4z_irkM0Chf" role="2Oq$k0">
                                <node concept="37vLTw" id="2BHiRxglbmH" role="2Oq$k0">
                                  <ref role="3cqZAo" node="4z_irkM0Chl" resolve="it" />
                                </node>
                                <node concept="3TrEf2" id="4z_irkM0Chh" role="2OqNvi">
                                  <ref role="3Tt5mk" to="cx9y:i2r$qtA" />
                                </node>
                              </node>
                              <node concept="3TrcHB" id="4z_irkM0Chi" role="2OqNvi">
                                <ref role="3TsBF5" to="tpck:h0TrG11" resolve="name" />
                              </node>
                            </node>
                            <node concept="liA8E" id="4z_irkM0Chj" role="2OqNvi">
                              <ref role="37wK5l" to="wyt6:~String.equals(java.lang.Object):boolean" resolve="equals" />
                              <node concept="37vLTw" id="2BHiRxgmw$v" role="37wK5m">
                                <ref role="3cqZAo" node="1ovLDatOkEJ" resolve="name" />
                              </node>
                            </node>
                          </node>
                        </node>
                      </node>
                      <node concept="Rh6nW" id="4z_irkM0Chl" role="1bW2Oz">
                        <property role="TrG5h" value="it" />
                        <node concept="2jxLKc" id="4z_irkM0Chm" role="1tU5fm" />
                      </node>
                    </node>
                  </node>
                </node>
              </node>
            </node>
            <node concept="3cpWs6" id="4z_irkM0ChG" role="3cqZAp">
              <node concept="2OqwBi" id="4z_irkM0ChI" role="3cqZAk">
                <node concept="37vLTw" id="3GM_nagTtuJ" role="2Oq$k0">
                  <ref role="3cqZAo" node="4z_irkM0Ch0" resolve="first" />
                </node>
                <node concept="3TrEf2" id="4z_irkM0ChK" role="2OqNvi">
                  <ref role="3Tt5mk" to="cx9y:i2r_lDx" />
                </node>
              </node>
            </node>
          </node>
          <node concept="2OqwBi" id="6hGfvQPbJuN" role="3clFbw">
            <node concept="2OqwBi" id="6hGfvQPbJuI" role="2Oq$k0">
              <node concept="13iPFW" id="6hGfvQPbJuH" role="2Oq$k0" />
              <node concept="3TrEf2" id="6hGfvQPbJuM" role="2OqNvi">
                <ref role="3Tt5mk" to="uhxm:1ovLDatNZew" />
              </node>
            </node>
            <node concept="1mIQ4w" id="6hGfvQPbJuR" role="2OqNvi">
              <node concept="chp4Y" id="6hGfvQPbJuU" role="cj9EA">
                <ref role="cht4Q" to="cx9y:i2ry7cs" resolve="NamedTupleLiteral" />
              </node>
            </node>
          </node>
        </node>
        <node concept="3cpWs6" id="6hGfvQPbJuY" role="3cqZAp">
          <node concept="10Nm6u" id="6hGfvQPbJv0" role="3cqZAk" />
        </node>
      </node>
    </node>
  </node>
  <node concept="13h7C7" id="1ovLDatOSns">
    <property role="3GE5qa" value="execution.console" />
    <ref role="13h7C2" to="uhxm:1ovLDatOqMj" resolve="ConsoleType" />
    <node concept="13hLZK" id="1ovLDatOSnt" role="13h7CW">
      <node concept="3clFbS" id="1ovLDatOSnu" role="2VODD2" />
    </node>
    <node concept="13i0hz" id="1ovLDatOSnv" role="13h7CS">
      <property role="13i0iv" value="false" />
      <property role="13i0is" value="false" />
      <property role="TrG5h" value="getAbstractCreator" />
      <property role="13i0it" value="false" />
      <ref role="13i0hy" to="tpek:hEwIzNW" resolve="getAbstractCreator" />
      <node concept="3Tm1VV" id="1ovLDatOSnw" role="1B3o_S" />
      <node concept="3clFbS" id="1ovLDatOSnx" role="3clF47">
        <node concept="3clFbF" id="1ovLDatOSnJ" role="3cqZAp">
          <node concept="2ShNRf" id="1ovLDatOSnK" role="3clFbG">
            <node concept="3zrR0B" id="1ovLDatOSnM" role="2ShVmc">
              <node concept="3Tqbb2" id="1ovLDatOSnN" role="3zrR0E">
                <ref role="ehGHo" to="uhxm:1ovLDatO$Ea" resolve="ConsoleCreator" />
              </node>
            </node>
          </node>
        </node>
      </node>
      <node concept="3Tqbb2" id="1ovLDatOSny" role="3clF45">
        <ref role="ehGHo" to="tpee:gEShaYr" resolve="AbstractCreator" />
      </node>
    </node>
  </node>
  <node concept="13h7C7" id="1653mnvANPd">
    <ref role="13h7C2" to="uhxm:28fiyLaZO98" resolve="ExecuteBeforeTask_ConceptFunction" />
    <node concept="13hLZK" id="1653mnvANPe" role="13h7CW">
      <node concept="3clFbS" id="1653mnvANPf" role="2VODD2" />
    </node>
    <node concept="13i0hz" id="1653mnvANP8" role="13h7CS">
      <property role="2Ki8OM" value="true" />
      <property role="13i0is" value="false" />
      <property role="TrG5h" value="showName" />
      <property role="13i0it" value="false" />
      <ref role="13i0hy" to="tpek:1653mnvAgry" resolve="showName" />
      <node concept="3Tm1VV" id="1653mnvANP9" role="1B3o_S" />
      <node concept="10P_77" id="1653mnvANP7" role="3clF45" />
      <node concept="3clFbS" id="1653mnvANPa" role="3clF47">
        <node concept="3cpWs6" id="1653mnvANPb" role="3cqZAp">
          <node concept="3clFbT" id="1653mnvANPc" role="3cqZAk">
            <property role="3clFbU" value="true" />
          </node>
        </node>
      </node>
    </node>
    <node concept="13i0hz" id="2D1PBM_byjg" role="13h7CS">
      <property role="2Ki8OM" value="true" />
      <property role="13i0is" value="false" />
      <property role="TrG5h" value="getApplicableConceptFunctionParameter" />
      <property role="13i0it" value="false" />
      <ref role="13i0hy" to="tpek:2D1PBM_bxJg" resolve="getApplicableConceptFunctionParameter" />
      <node concept="3Tm1VV" id="2D1PBM_byjh" role="1B3o_S" />
      <node concept="_YKpA" id="2D1PBM_byje" role="3clF45">
        <node concept="3Tqbb2" id="2D1PBM_byjf" role="_ZDj9">
          <ref role="ehGHo" to="tpce:f_TIwhg" resolve="ConceptDeclaration" />
        </node>
      </node>
      <node concept="3clFbS" id="2D1PBM_byji" role="3clF47">
        <node concept="3cpWs8" id="2D1PBM_byjj" role="3cqZAp">
          <node concept="3cpWsn" id="2D1PBM_byjk" role="3cpWs9">
            <property role="TrG5h" value="result" />
            <node concept="_YKpA" id="2D1PBM_byjo" role="1tU5fm">
              <node concept="3Tqbb2" id="2D1PBM_byjp" role="_ZDj9">
                <ref role="ehGHo" to="tpce:f_TIwhg" resolve="ConceptDeclaration" />
              </node>
            </node>
            <node concept="2OqwBi" id="2D1PBM_byjw" role="33vP2m">
              <node concept="13iAh5" id="2D1PBM_byjs" role="2Oq$k0">
                <ref role="3eA5LN" to="tpee:gyVMwX8" resolve="ConceptFunction" />
              </node>
              <node concept="2qgKlT" id="2D1PBM_byjr" role="2OqNvi">
                <ref role="37wK5l" to="tpek:2D1PBM_bxJg" resolve="getApplicableConceptFunctionParameter" />
              </node>
            </node>
          </node>
        </node>
        <node concept="3clFbF" id="2D1PBM_byjy" role="3cqZAp">
          <node concept="2OqwBi" id="2D1PBM_byjz" role="3clFbG">
            <node concept="37vLTw" id="2D1PBM_byj$" role="2Oq$k0">
              <ref role="3cqZAo" node="2D1PBM_byjk" resolve="result" />
            </node>
            <node concept="TSZUe" id="2D1PBM_byj_" role="2OqNvi">
              <node concept="3B5_sB" id="2D1PBM_byjx" role="25WWJ7">
                <ref role="3B5MYn" to="uhxm:6E_yzjF3JCH" resolve="Project_Parameter" />
              </node>
            </node>
          </node>
        </node>
        <node concept="3cpWs6" id="2D1PBM_byjA" role="3cqZAp">
          <node concept="37vLTw" id="2D1PBM_byjB" role="3cqZAk">
            <ref role="3cqZAo" node="2D1PBM_byjk" resolve="result" />
          </node>
        </node>
      </node>
    </node>
    <node concept="13i0hz" id="$yZ68hBhCQ" role="13h7CS">
      <property role="13i0is" value="false" />
      <property role="TrG5h" value="getExpectedReturnType" />
      <property role="13i0it" value="false" />
      <property role="13i0iv" value="false" />
      <ref role="13i0hy" to="tpek:hEwIGRD" resolve="getExpectedReturnType" />
      <node concept="3Tm1VV" id="$yZ68hBhCR" role="1B3o_S" />
      <node concept="3clFbS" id="$yZ68hBhCS" role="3clF47">
        <node concept="3cpWs6" id="$yZ68hBhCT" role="3cqZAp">
          <node concept="2c44tf" id="$yZ68hBhwT" role="3cqZAk">
            <node concept="10P_77" id="28fiyLb0FIV" role="2c44tc" />
          </node>
        </node>
      </node>
      <node concept="3Tqbb2" id="$yZ68hBhCU" role="3clF45" />
    </node>
  </node>
  <node concept="13h7C7" id="1653mnvB5Uc">
    <ref role="13h7C2" to="uhxm:5FAUXTS7Xf0" resolve="BeforeTaskParameterReference" />
    <node concept="13hLZK" id="1653mnvB5Ud" role="13h7CW">
      <node concept="3clFbS" id="1653mnvB5Ue" role="2VODD2" />
    </node>
    <node concept="13i0hz" id="1653mnvB5U7" role="13h7CS">
      <property role="2Ki8OM" value="true" />
      <property role="13i0is" value="false" />
      <property role="TrG5h" value="lvalue" />
      <property role="13i0it" value="false" />
      <ref role="13i0hy" to="tpek:1653mnvAgpj" resolve="lvalue" />
      <node concept="3Tm1VV" id="1653mnvB5U8" role="1B3o_S" />
      <node concept="10P_77" id="1653mnvB5U6" role="3clF45" />
      <node concept="3clFbS" id="1653mnvB5U9" role="3clF47">
        <node concept="3cpWs6" id="1653mnvB5Ua" role="3cqZAp">
          <node concept="3clFbT" id="1653mnvB5Ub" role="3cqZAk" />
        </node>
      </node>
    </node>
  </node>
</model>

