<?xml version="1.0" encoding="UTF-8"?>
<model ref="r:d6e5159c-3299-41f5-8a8a-81b5b79d5073(jetbrains.mps.execution.configurations.constraints)">
  <persistence version="9" />
  <languages>
    <use id="3f4bc5f5-c6c1-4a28-8b10-c83066ffa4a1" name="jetbrains.mps.lang.constraints" version="0" />
    <use id="13744753-c81f-424a-9c1b-cf8943bf4e86" name="jetbrains.mps.lang.sharedConcepts" version="0" />
    <use id="7a5dda62-9140-4668-ab76-d5ed1746f2b2" name="jetbrains.mps.lang.typesystem" version="0" />
    <use id="ceab5195-25ea-4f22-9b92-103b95ca8c0c" name="jetbrains.mps.lang.core" version="1" />
    <devkit ref="fbc25dd2-5da4-483a-8b19-70928e1b62d7(jetbrains.mps.devkit.general-purpose)" />
  </languages>
  <imports>
    <import index="uhxm" ref="r:f3383ae6-205a-4e7c-8dd9-c29966e29e49(jetbrains.mps.execution.configurations.structure)" />
    <import index="ojho" ref="r:36b91d42-5119-45a8-b801-6a4d645ce20b(jetbrains.mps.execution.configurations.behavior)" />
    <import index="fb9u" ref="r:0194e190-08ef-44f6-ab95-d9cffdb7e27b(jetbrains.mps.execution.settings.structure)" />
    <import index="tpee" ref="r:00000000-0000-4000-0000-011c895902ca(jetbrains.mps.baseLanguage.structure)" />
    <import index="o8zo" ref="r:314576fc-3aee-4386-a0a5-a38348ac317d(jetbrains.mps.scope)" />
    <import index="eibu" ref="r:49e72ff8-8ace-42fd-8f9f-5961eed9792e(jetbrains.mps.execution.api.configurations)" />
    <import index="feyl" ref="498d89d2-c2e9-11e2-ad49-6cf049e62fe5/java:com.intellij.execution.actions(MPS.IDEA/)" />
    <import index="fhz7" ref="498d89d2-c2e9-11e2-ad49-6cf049e62fe5/java:com.intellij.execution.runners(MPS.IDEA/)" />
    <import index="tpck" ref="r:00000000-0000-4000-0000-011c89590288(jetbrains.mps.lang.core.structure)" implicit="true" />
  </imports>
  <registry>
    <language id="13744753-c81f-424a-9c1b-cf8943bf4e86" name="jetbrains.mps.lang.sharedConcepts">
      <concept id="1161622665029" name="jetbrains.mps.lang.sharedConcepts.structure.ConceptFunctionParameter_model" flags="nn" index="1Q6Npb" />
    </language>
    <language id="f3061a53-9226-4cc5-a443-f952ceaf5816" name="jetbrains.mps.baseLanguage">
      <concept id="1080223426719" name="jetbrains.mps.baseLanguage.structure.OrExpression" flags="nn" index="22lmx$" />
      <concept id="1197027756228" name="jetbrains.mps.baseLanguage.structure.DotExpression" flags="nn" index="2OqwBi">
        <child id="1197027771414" name="operand" index="2Oq$k0" />
        <child id="1197027833540" name="operation" index="2OqNvi" />
      </concept>
      <concept id="1145552977093" name="jetbrains.mps.baseLanguage.structure.GenericNewExpression" flags="nn" index="2ShNRf">
        <child id="1145553007750" name="creator" index="2ShVmc" />
      </concept>
      <concept id="1137021947720" name="jetbrains.mps.baseLanguage.structure.ConceptFunction" flags="in" index="2VMwT0">
        <child id="1137022507850" name="body" index="2VODD2" />
      </concept>
      <concept id="1070475926800" name="jetbrains.mps.baseLanguage.structure.StringLiteral" flags="nn" index="Xl_RD">
        <property id="1070475926801" name="value" index="Xl_RC" />
      </concept>
      <concept id="1070534058343" name="jetbrains.mps.baseLanguage.structure.NullLiteral" flags="nn" index="10Nm6u" />
      <concept id="1068431474542" name="jetbrains.mps.baseLanguage.structure.VariableDeclaration" flags="ng" index="33uBYm">
        <child id="1068431790190" name="initializer" index="33vP2m" />
      </concept>
      <concept id="1068498886296" name="jetbrains.mps.baseLanguage.structure.VariableReference" flags="nn" index="37vLTw">
        <reference id="1068581517664" name="variableDeclaration" index="3cqZAo" />
      </concept>
      <concept id="4972933694980447171" name="jetbrains.mps.baseLanguage.structure.BaseVariableDeclaration" flags="ng" index="19Szcq">
        <child id="5680397130376446158" name="type" index="1tU5fm" />
      </concept>
      <concept id="1068580123155" name="jetbrains.mps.baseLanguage.structure.ExpressionStatement" flags="nn" index="3clFbF">
        <child id="1068580123156" name="expression" index="3clFbG" />
      </concept>
      <concept id="1068580123157" name="jetbrains.mps.baseLanguage.structure.Statement" flags="nn" index="3clFbH" />
      <concept id="1068580123159" name="jetbrains.mps.baseLanguage.structure.IfStatement" flags="nn" index="3clFbJ">
        <child id="1068580123160" name="condition" index="3clFbw" />
        <child id="1068580123161" name="ifTrue" index="3clFbx" />
      </concept>
      <concept id="1068580123136" name="jetbrains.mps.baseLanguage.structure.StatementList" flags="sn" stub="5293379017992965193" index="3clFbS">
        <child id="1068581517665" name="statement" index="3cqZAp" />
      </concept>
      <concept id="1068580123137" name="jetbrains.mps.baseLanguage.structure.BooleanConstant" flags="nn" index="3clFbT">
        <property id="1068580123138" name="value" index="3clFbU" />
      </concept>
      <concept id="1068581242875" name="jetbrains.mps.baseLanguage.structure.PlusExpression" flags="nn" index="3cpWs3" />
      <concept id="1068581242878" name="jetbrains.mps.baseLanguage.structure.ReturnStatement" flags="nn" index="3cpWs6">
        <child id="1068581517676" name="expression" index="3cqZAk" />
      </concept>
      <concept id="1068581242864" name="jetbrains.mps.baseLanguage.structure.LocalVariableDeclarationStatement" flags="nn" index="3cpWs8">
        <child id="1068581242865" name="localVariableDeclaration" index="3cpWs9" />
      </concept>
      <concept id="1068581242863" name="jetbrains.mps.baseLanguage.structure.LocalVariableDeclaration" flags="nr" index="3cpWsn" />
      <concept id="1204053956946" name="jetbrains.mps.baseLanguage.structure.IMethodCall" flags="ng" index="1ndlxa">
        <reference id="1068499141037" name="baseMethodDeclaration" index="37wK5l" />
        <child id="1068499141038" name="actualArgument" index="37wK5m" />
      </concept>
      <concept id="1212685548494" name="jetbrains.mps.baseLanguage.structure.ClassCreator" flags="nn" index="1pGfFk" />
      <concept id="1081773326031" name="jetbrains.mps.baseLanguage.structure.BinaryOperation" flags="nn" index="3uHJSO">
        <child id="1081773367579" name="rightExpression" index="3uHU7w" />
        <child id="1081773367580" name="leftExpression" index="3uHU7B" />
      </concept>
      <concept id="1073239437375" name="jetbrains.mps.baseLanguage.structure.NotEqualsExpression" flags="nn" index="3y3z36" />
    </language>
    <language id="3f4bc5f5-c6c1-4a28-8b10-c83066ffa4a1" name="jetbrains.mps.lang.constraints">
      <concept id="1202989531578" name="jetbrains.mps.lang.constraints.structure.ConstraintFunction_CanBeAChild" flags="in" index="nKS2y" />
      <concept id="1202989658459" name="jetbrains.mps.lang.constraints.structure.ConstraintFunctionParameter_parentNode" flags="nn" index="nLn13" />
      <concept id="1147467115080" name="jetbrains.mps.lang.constraints.structure.NodePropertyConstraint" flags="ng" index="EnEH3">
        <reference id="1147467295099" name="applicableProperty" index="EomxK" />
        <child id="1147468630220" name="propertyGetter" index="EtsB7" />
      </concept>
      <concept id="1147467790433" name="jetbrains.mps.lang.constraints.structure.ConstraintFunction_PropertyGetter" flags="in" index="Eqf_E" />
      <concept id="1147468365020" name="jetbrains.mps.lang.constraints.structure.ConstraintsFunctionParameter_node" flags="nn" index="EsrRn" />
      <concept id="5676632058862809931" name="jetbrains.mps.lang.constraints.structure.ConstraintFunction_ReferentSearchScope_Scope" flags="in" index="13QW63" />
      <concept id="1213093968558" name="jetbrains.mps.lang.constraints.structure.ConceptConstraints" flags="ng" index="1M2fIO">
        <reference id="1213093996982" name="concept" index="1M2myG" />
        <child id="1213098023997" name="property" index="1MhHOB" />
        <child id="1213100494875" name="referent" index="1Mr941" />
        <child id="1213106463729" name="canBeChild" index="1MLUbF" />
      </concept>
      <concept id="1148687176410" name="jetbrains.mps.lang.constraints.structure.NodeReferentConstraint" flags="ng" index="1N5Pfh">
        <reference id="1148687202698" name="applicableLink" index="1N5Vy1" />
        <child id="1148687345559" name="searchScopeFactory" index="1N6uqs" />
      </concept>
    </language>
    <language id="7a5dda62-9140-4668-ab76-d5ed1746f2b2" name="jetbrains.mps.lang.typesystem">
      <concept id="1176544042499" name="jetbrains.mps.lang.typesystem.structure.Node_TypeOperation" flags="nn" index="3JvlWi" />
      <concept id="1178870617262" name="jetbrains.mps.lang.typesystem.structure.CoerceExpression" flags="nn" index="1UaxmW">
        <child id="1178870894644" name="pattern" index="1Ub_4A" />
        <child id="1178870894645" name="nodeToCoerce" index="1Ub_4B" />
      </concept>
      <concept id="1174642788531" name="jetbrains.mps.lang.typesystem.structure.ConceptReference" flags="ig" index="1YaCAy">
        <reference id="1174642800329" name="concept" index="1YaFvo" />
      </concept>
    </language>
    <language id="7866978e-a0f0-4cc7-81bc-4d213d9375e1" name="jetbrains.mps.lang.smodel">
      <concept id="1177026924588" name="jetbrains.mps.lang.smodel.structure.RefConcept_Reference" flags="nn" index="chp4Y">
        <reference id="1177026940964" name="conceptDeclaration" index="cht4Q" />
      </concept>
      <concept id="1138411891628" name="jetbrains.mps.lang.smodel.structure.SNodeOperation" flags="nn" index="eCIE_">
        <child id="1144104376918" name="parameter" index="1xVPHs" />
      </concept>
      <concept id="1179409122411" name="jetbrains.mps.lang.smodel.structure.Node_ConceptMethodCall" flags="nn" index="2qgKlT" />
      <concept id="2396822768958367367" name="jetbrains.mps.lang.smodel.structure.AbstractTypeCastExpression" flags="nn" index="$5XWr">
        <reference id="6733348108486823428" name="concept" index="1m5ApE" />
        <child id="6733348108486823193" name="leftExpression" index="1m5AlR" />
      </concept>
      <concept id="1171310072040" name="jetbrains.mps.lang.smodel.structure.Node_GetContainingRootOperation" flags="nn" index="2Rxl7S" />
      <concept id="1171407110247" name="jetbrains.mps.lang.smodel.structure.Node_GetAncestorOperation" flags="nn" index="2Xjw5R" />
      <concept id="2644386474300074836" name="jetbrains.mps.lang.smodel.structure.ConceptIdRefExpression" flags="nn" index="35c_gC">
        <reference id="2644386474300074837" name="conceptDeclaration" index="35c_gD" />
      </concept>
      <concept id="1139621453865" name="jetbrains.mps.lang.smodel.structure.Node_IsInstanceOfOperation" flags="nn" index="1mIQ4w">
        <child id="1177027386292" name="conceptArgument" index="cj9EA" />
      </concept>
      <concept id="1171999116870" name="jetbrains.mps.lang.smodel.structure.Node_IsNullOperation" flags="nn" index="3w_OXm" />
      <concept id="1172008320231" name="jetbrains.mps.lang.smodel.structure.Node_IsNotNullOperation" flags="nn" index="3x8VRR" />
      <concept id="1144100932627" name="jetbrains.mps.lang.smodel.structure.OperationParm_Inclusion" flags="ng" index="1xIGOp" />
      <concept id="1144101972840" name="jetbrains.mps.lang.smodel.structure.OperationParm_Concept" flags="ng" index="1xMEDy">
        <child id="1207343664468" name="conceptArgument" index="ri$Ld" />
      </concept>
      <concept id="1140137987495" name="jetbrains.mps.lang.smodel.structure.SNodeTypeCastExpression" flags="nn" index="1PxgMI" />
      <concept id="1138055754698" name="jetbrains.mps.lang.smodel.structure.SNodeType" flags="in" index="3Tqbb2">
        <reference id="1138405853777" name="concept" index="ehGHo" />
      </concept>
      <concept id="1138056022639" name="jetbrains.mps.lang.smodel.structure.SPropertyAccess" flags="nn" index="3TrcHB">
        <reference id="1138056395725" name="property" index="3TsBF5" />
      </concept>
      <concept id="1138056143562" name="jetbrains.mps.lang.smodel.structure.SLinkAccess" flags="nn" index="3TrEf2">
        <reference id="1138056516764" name="link" index="3Tt5mk" />
      </concept>
    </language>
    <language id="ceab5195-25ea-4f22-9b92-103b95ca8c0c" name="jetbrains.mps.lang.core">
      <concept id="1133920641626" name="jetbrains.mps.lang.core.structure.BaseConcept" flags="ng" index="2VYdi">
        <property id="1193676396447" name="virtualPackage" index="3GE5qa" />
        <child id="5169995583184591170" name="smodelAttribute" index="lGtFl" />
      </concept>
      <concept id="1169194658468" name="jetbrains.mps.lang.core.structure.INamedConcept" flags="ng" index="TrEIO">
        <property id="1169194664001" name="name" index="TrG5h" />
      </concept>
      <concept id="709746936026466394" name="jetbrains.mps.lang.core.structure.ChildAttribute" flags="ng" index="3VBwX9">
        <property id="709746936026609031" name="linkId" index="3V$3ak" />
        <property id="709746936026609029" name="linkRole" index="3V$3am" />
      </concept>
      <concept id="4452961908202556907" name="jetbrains.mps.lang.core.structure.BaseCommentAttribute" flags="ng" index="1X3_iC">
        <child id="3078666699043039389" name="commentedNode" index="8Wnug" />
      </concept>
    </language>
  </registry>
  <node concept="1M2fIO" id="Ue65oztDWg">
    <property role="3GE5qa" value="execution" />
    <ref role="1M2myG" to="uhxm:25jQf71XihT" resolve="AbstractRunConfigurationExecutor" />
    <node concept="EnEH3" id="5HAZRDA9XgL" role="1MhHOB">
      <ref role="EomxK" to="tpck:h0TrG11" resolve="name" />
      <node concept="Eqf_E" id="5HAZRDA9XgM" role="EtsB7">
        <node concept="3clFbS" id="5HAZRDA9XgN" role="2VODD2">
          <node concept="3clFbJ" id="5HAZRDA9XgO" role="3cqZAp">
            <node concept="3clFbS" id="5HAZRDA9XgP" role="3clFbx">
              <node concept="3cpWs6" id="5HAZRDA9XgQ" role="3cqZAp">
                <node concept="3cpWs3" id="5HAZRDA9XgR" role="3cqZAk">
                  <node concept="Xl_RD" id="5HAZRDA9XgS" role="3uHU7w">
                    <property role="Xl_RC" value=" Executor" />
                  </node>
                  <node concept="2OqwBi" id="5HAZRDA9XgT" role="3uHU7B">
                    <node concept="2OqwBi" id="5HAZRDA9XgU" role="2Oq$k0">
                      <node concept="EsrRn" id="5HAZRDA9XgV" role="2Oq$k0" />
                      <node concept="3TrEf2" id="5HAZRDA9XgW" role="2OqNvi">
                        <ref role="3Tt5mk" to="uhxm:Ue65ozt$TX" />
                      </node>
                    </node>
                    <node concept="3TrcHB" id="5HAZRDA9XgX" role="2OqNvi">
                      <ref role="3TsBF5" to="tpck:h0TrG11" resolve="name" />
                    </node>
                  </node>
                </node>
              </node>
            </node>
            <node concept="3y3z36" id="5HAZRDA9XgY" role="3clFbw">
              <node concept="10Nm6u" id="5HAZRDA9XgZ" role="3uHU7w" />
              <node concept="2OqwBi" id="5HAZRDA9Xh0" role="3uHU7B">
                <node concept="EsrRn" id="5HAZRDA9Xh1" role="2Oq$k0" />
                <node concept="3TrEf2" id="5HAZRDA9Xh2" role="2OqNvi">
                  <ref role="3Tt5mk" to="uhxm:Ue65ozt$TX" />
                </node>
              </node>
            </node>
          </node>
          <node concept="3clFbF" id="5HAZRDA9Xh3" role="3cqZAp">
            <node concept="10Nm6u" id="5HAZRDA9Xh4" role="3clFbG" />
          </node>
        </node>
      </node>
    </node>
  </node>
  <node concept="1M2fIO" id="6LlKjXrMsri">
    <property role="3GE5qa" value="execution" />
    <ref role="1M2myG" to="uhxm:6LlKjXrMe7G" resolve="RunConfigurationExecutor" />
  </node>
  <node concept="1M2fIO" id="6LlKjXrMGoK">
    <property role="3GE5qa" value="execution" />
    <ref role="1M2myG" to="uhxm:6LlKjXrMGoJ" resolve="ConfigurationFromExecutorReference" />
    <node concept="EnEH3" id="6LlKjXrMGp5" role="1MhHOB">
      <ref role="EomxK" to="tpck:h0TrG11" resolve="name" />
      <node concept="Eqf_E" id="6LlKjXrMGp6" role="EtsB7">
        <node concept="3clFbS" id="6LlKjXrMGp7" role="2VODD2">
          <node concept="3clFbF" id="6LlKjXrMGp9" role="3cqZAp">
            <node concept="2OqwBi" id="6LlKjXrMGpi" role="3clFbG">
              <node concept="3TrcHB" id="5P5ty4$bcf0" role="2OqNvi">
                <ref role="3TsBF5" to="uhxm:1FdVGfa2His" resolve="configurationName" />
              </node>
              <node concept="2OqwBi" id="6LlKjXrML1p" role="2Oq$k0">
                <node concept="EsrRn" id="6LlKjXrML1o" role="2Oq$k0" />
                <node concept="2qgKlT" id="5P5ty4$bceZ" role="2OqNvi">
                  <ref role="37wK5l" to="ojho:6LlKjXrML19" resolve="getExecutor" />
                </node>
              </node>
            </node>
          </node>
        </node>
      </node>
    </node>
    <node concept="nKS2y" id="6LlKjXrMGoL" role="1MLUbF">
      <node concept="3clFbS" id="6LlKjXrMGoM" role="2VODD2">
        <node concept="3clFbF" id="6LlKjXrMGoN" role="3cqZAp">
          <node concept="2OqwBi" id="6LlKjXrMGoU" role="3clFbG">
            <node concept="2OqwBi" id="6LlKjXrMGoP" role="2Oq$k0">
              <node concept="nLn13" id="6LlKjXrMGoO" role="2Oq$k0" />
              <node concept="2Rxl7S" id="6LlKjXrMGoT" role="2OqNvi" />
            </node>
            <node concept="1mIQ4w" id="6LlKjXrMGoY" role="2OqNvi">
              <node concept="chp4Y" id="5P5ty4$bcf1" role="cj9EA">
                <ref role="cht4Q" to="uhxm:25jQf71XihT" resolve="AbstractRunConfigurationExecutor" />
              </node>
            </node>
          </node>
        </node>
      </node>
    </node>
  </node>
  <node concept="1M2fIO" id="3MnZbusxaYr">
    <property role="3GE5qa" value="producer" />
    <ref role="1M2myG" to="uhxm:3MnZbusx2c5" resolve="RunConfigurationProducer" />
    <node concept="EnEH3" id="3MnZbusxaYs" role="1MhHOB">
      <ref role="EomxK" to="tpck:h0TrG11" resolve="name" />
      <node concept="Eqf_E" id="3MnZbusxaYt" role="EtsB7">
        <node concept="3clFbS" id="3MnZbusxaYu" role="2VODD2">
          <node concept="3clFbF" id="3MnZbusxbtC" role="3cqZAp">
            <node concept="2OqwBi" id="3MnZbusxbtE" role="3clFbG">
              <node concept="EsrRn" id="3MnZbusxbtD" role="2Oq$k0" />
              <node concept="2qgKlT" id="3MnZbusxbtI" role="2OqNvi">
                <ref role="37wK5l" to="ojho:3MnZbusxbtz" resolve="getDisplayedName" />
              </node>
            </node>
          </node>
        </node>
      </node>
    </node>
  </node>
  <node concept="1M2fIO" id="3aewtBM2ZIj">
    <property role="3GE5qa" value="producer" />
    <ref role="1M2myG" to="uhxm:3MnZbusxcR3" resolve="Create_ConceptFunction" />
    <node concept="nKS2y" id="3aewtBM2ZIk" role="1MLUbF">
      <node concept="3clFbS" id="3aewtBM2ZIl" role="2VODD2">
        <node concept="3clFbF" id="3aewtBM2ZIm" role="3cqZAp">
          <node concept="2OqwBi" id="3aewtBM2ZIB" role="3clFbG">
            <node concept="2OqwBi" id="3aewtBM2ZIy" role="2Oq$k0">
              <node concept="nLn13" id="3aewtBM2ZIn" role="2Oq$k0" />
              <node concept="2Rxl7S" id="3aewtBM2ZIA" role="2OqNvi" />
            </node>
            <node concept="1mIQ4w" id="3aewtBM2ZIF" role="2OqNvi">
              <node concept="chp4Y" id="3aewtBM2ZIH" role="cj9EA">
                <ref role="cht4Q" to="uhxm:3MnZbusx2c5" resolve="RunConfigurationProducer" />
              </node>
            </node>
          </node>
        </node>
      </node>
    </node>
  </node>
  <node concept="1M2fIO" id="toP3SpHxKD">
    <property role="3GE5qa" value="producer" />
    <ref role="1M2myG" to="uhxm:3MnZbusxcQA" resolve="RunConfigurationProducerPart" />
    <node concept="EnEH3" id="toP3SpHxKE" role="1MhHOB">
      <ref role="EomxK" to="tpck:h0TrG11" resolve="name" />
      <node concept="Eqf_E" id="toP3SpHxKF" role="EtsB7">
        <node concept="3clFbS" id="toP3SpHxKG" role="2VODD2">
          <node concept="3clFbF" id="toP3SpHxKH" role="3cqZAp">
            <node concept="Xl_RD" id="toP3SpHxKI" role="3clFbG">
              <property role="Xl_RC" value="Producer Part" />
            </node>
          </node>
        </node>
      </node>
    </node>
  </node>
  <node concept="1M2fIO" id="6TtxjrBW7wC">
    <property role="3GE5qa" value="producer" />
    <ref role="1M2myG" to="uhxm:3aewtBM3d7u" resolve="RunConfigurationCreator" />
    <node concept="nKS2y" id="6TtxjrBW7wD" role="1MLUbF">
      <node concept="3clFbS" id="6TtxjrBW7wE" role="2VODD2">
        <node concept="3clFbF" id="6TtxjrBW7wF" role="3cqZAp">
          <node concept="2OqwBi" id="6TtxjrBW7wQ" role="3clFbG">
            <node concept="2OqwBi" id="6TtxjrBW7wH" role="2Oq$k0">
              <node concept="nLn13" id="6TtxjrBW7wG" role="2Oq$k0" />
              <node concept="2Xjw5R" id="6TtxjrBW7wL" role="2OqNvi">
                <node concept="1xMEDy" id="6TtxjrBW7wM" role="1xVPHs">
                  <node concept="chp4Y" id="6TtxjrBW7wP" role="ri$Ld">
                    <ref role="cht4Q" to="uhxm:3MnZbusxcQA" resolve="RunConfigurationProducerPart" />
                  </node>
                </node>
              </node>
            </node>
            <node concept="3x8VRR" id="6TtxjrBW7wU" role="2OqNvi" />
          </node>
        </node>
      </node>
    </node>
  </node>
  <node concept="1M2fIO" id="6TtxjrBW7wV">
    <property role="3GE5qa" value="producer.source" />
    <ref role="1M2myG" to="uhxm:3MnZbusxaYm" resolve="RunConfigurationSource" />
    <node concept="nKS2y" id="6TtxjrBW7wW" role="1MLUbF">
      <node concept="3clFbS" id="6TtxjrBW7wX" role="2VODD2">
        <node concept="3clFbF" id="6TtxjrBW7wY" role="3cqZAp">
          <node concept="2OqwBi" id="6TtxjrBW7x0" role="3clFbG">
            <node concept="nLn13" id="6TtxjrBW7wZ" role="2Oq$k0" />
            <node concept="1mIQ4w" id="6TtxjrBW7x4" role="2OqNvi">
              <node concept="chp4Y" id="6TtxjrBW7x6" role="cj9EA">
                <ref role="cht4Q" to="uhxm:3MnZbusxcQA" resolve="RunConfigurationProducerPart" />
              </node>
            </node>
          </node>
        </node>
      </node>
    </node>
  </node>
  <node concept="1M2fIO" id="7Fp1zx5BZ2m">
    <property role="3GE5qa" value="before" />
    <ref role="1M2myG" to="uhxm:5FAUXTS7Xf0" resolve="BeforeTaskParameterReference" />
    <node concept="1N5Pfh" id="2ggmC1WsS0p" role="1Mr941">
      <ref role="1N5Vy1" to="uhxm:5FAUXTS7Xf1" />
      <node concept="13QW63" id="2ggmC1WsS0s" role="1N6uqs">
        <node concept="3clFbS" id="2ggmC1WsS0t" role="2VODD2">
          <node concept="3cpWs6" id="2ggmC1WsS0u" role="3cqZAp">
            <node concept="2ShNRf" id="2ggmC1WsS0w" role="3cqZAk">
              <node concept="1pGfFk" id="2ggmC1WsS0_" role="2ShVmc">
                <ref role="37wK5l" to="o8zo:4k9eBec$QVW" resolve="ModelPlusImportedScope" />
                <node concept="1Q6Npb" id="2ggmC1WsS0A" role="37wK5m" />
                <node concept="3clFbT" id="3te4UHvNL2e" role="37wK5m">
                  <property role="3clFbU" value="false" />
                </node>
                <node concept="35c_gC" id="4k9eBec_vBc" role="37wK5m">
                  <ref role="35c_gD" to="uhxm:5FAUXTS7S0k" resolve="BeforeTaskParameter" />
                </node>
              </node>
            </node>
          </node>
          <node concept="3clFbH" id="2ggmC1WsS0y" role="3cqZAp" />
        </node>
      </node>
    </node>
    <node concept="nKS2y" id="7Fp1zx5BZ2n" role="1MLUbF">
      <node concept="3clFbS" id="7Fp1zx5BZ2o" role="2VODD2">
        <node concept="3clFbF" id="7Fp1zx5BZ2p" role="3cqZAp">
          <node concept="2OqwBi" id="7Fp1zx5BZ2w" role="3clFbG">
            <node concept="2OqwBi" id="7Fp1zx5BZ2r" role="2Oq$k0">
              <node concept="nLn13" id="7Fp1zx5BZ2q" role="2Oq$k0" />
              <node concept="2Rxl7S" id="7Fp1zx5BZ2v" role="2OqNvi" />
            </node>
            <node concept="1mIQ4w" id="7Fp1zx5BZ2$" role="2OqNvi">
              <node concept="chp4Y" id="7Fp1zx5BZ2A" role="cj9EA">
                <ref role="cht4Q" to="uhxm:66CJzfk0VuZ" resolve="BeforeTask" />
              </node>
            </node>
          </node>
        </node>
      </node>
    </node>
  </node>
  <node concept="1M2fIO" id="4IJMzQ1z1Y1">
    <ref role="1M2myG" to="uhxm:4IJMzQ1z1OE" resolve="GetProjectOperation" />
    <node concept="nKS2y" id="4IJMzQ1z1Y2" role="1MLUbF">
      <node concept="3clFbS" id="4IJMzQ1z1Y3" role="2VODD2">
        <node concept="3clFbJ" id="6XbUjjjDaqL" role="3cqZAp">
          <node concept="2OqwBi" id="6XbUjjjDaqP" role="3clFbw">
            <node concept="nLn13" id="6XbUjjjDaqO" role="2Oq$k0" />
            <node concept="1mIQ4w" id="6XbUjjjDaqT" role="2OqNvi">
              <node concept="chp4Y" id="6XbUjjjDaqV" role="cj9EA">
                <ref role="cht4Q" to="tpee:hqOqwz4" resolve="DotExpression" />
              </node>
            </node>
          </node>
          <node concept="3clFbS" id="6XbUjjjDaqN" role="3clFbx">
            <node concept="3cpWs8" id="4IJMzQ1z1Ys" role="3cqZAp">
              <node concept="3cpWsn" id="4IJMzQ1z1Yt" role="3cpWs9">
                <property role="TrG5h" value="configurationType" />
                <node concept="3Tqbb2" id="4IJMzQ1z1Yu" role="1tU5fm">
                  <ref role="ehGHo" to="fb9u:O$iR4J$g0s" resolve="PersistentConfigurationType" />
                </node>
                <node concept="1UaxmW" id="4IJMzQ1z1Yv" role="33vP2m">
                  <node concept="1YaCAy" id="4IJMzQ1z1Yw" role="1Ub_4A">
                    <property role="TrG5h" value="persistentConfigurationType" />
                    <ref role="1YaFvo" to="fb9u:O$iR4J$g0s" resolve="PersistentConfigurationType" />
                  </node>
                  <node concept="2OqwBi" id="6XbUjjjDaUt" role="1Ub_4B">
                    <node concept="2OqwBi" id="4IJMzQ1z1Yx" role="2Oq$k0">
                      <node concept="1PxgMI" id="4IJMzQ1z1Yy" role="2Oq$k0">
                        <ref role="1m5ApE" to="tpee:hqOqwz4" resolve="DotExpression" />
                        <node concept="nLn13" id="4IJMzQ1z1Yz" role="1m5AlR" />
                      </node>
                      <node concept="3TrEf2" id="4IJMzQ1z1Y$" role="2OqNvi">
                        <ref role="3Tt5mk" to="tpee:hqOq$gm" />
                      </node>
                    </node>
                    <node concept="3JvlWi" id="6XbUjjjDaUx" role="2OqNvi" />
                  </node>
                </node>
              </node>
            </node>
            <node concept="3clFbJ" id="4IJMzQ1z1YN" role="3cqZAp">
              <node concept="2OqwBi" id="4IJMzQ1z1YR" role="3clFbw">
                <node concept="37vLTw" id="3GM_nagTATC" role="2Oq$k0">
                  <ref role="3cqZAo" node="4IJMzQ1z1Yt" resolve="configurationType" />
                </node>
                <node concept="3w_OXm" id="4IJMzQ1z1YV" role="2OqNvi" />
              </node>
              <node concept="3clFbS" id="4IJMzQ1z1YP" role="3clFbx">
                <node concept="3cpWs6" id="4IJMzQ1z1YW" role="3cqZAp">
                  <node concept="3clFbT" id="4IJMzQ1z1YZ" role="3cqZAk">
                    <property role="3clFbU" value="false" />
                  </node>
                </node>
              </node>
            </node>
            <node concept="3cpWs6" id="6XbUjjjDaqX" role="3cqZAp">
              <node concept="2OqwBi" id="4IJMzQ1z1Z8" role="3cqZAk">
                <node concept="2OqwBi" id="4IJMzQ1z1Z3" role="2Oq$k0">
                  <node concept="37vLTw" id="3GM_nagTx5h" role="2Oq$k0">
                    <ref role="3cqZAo" node="4IJMzQ1z1Yt" resolve="configurationType" />
                  </node>
                  <node concept="3TrEf2" id="4IJMzQ1z1Z7" role="2OqNvi">
                    <ref role="3Tt5mk" to="fb9u:O$iR4J$g0t" />
                  </node>
                </node>
                <node concept="1mIQ4w" id="4IJMzQ1z1Zc" role="2OqNvi">
                  <node concept="chp4Y" id="4IJMzQ1z1Ze" role="cj9EA">
                    <ref role="cht4Q" to="uhxm:25jQf71X6T9" resolve="RunConfiguration" />
                  </node>
                </node>
              </node>
            </node>
          </node>
        </node>
        <node concept="3cpWs6" id="6XbUjjjDar0" role="3cqZAp">
          <node concept="3clFbT" id="6XbUjjjDar2" role="3cqZAk">
            <property role="3clFbU" value="false" />
          </node>
        </node>
      </node>
    </node>
  </node>
  <node concept="1M2fIO" id="emRLGQEjWk">
    <property role="3GE5qa" value="execution" />
    <ref role="1M2myG" to="uhxm:O$iR4JBkjh" resolve="StartProcessHandlerStatement" />
    <node concept="nKS2y" id="emRLGQEjWl" role="1MLUbF">
      <node concept="3clFbS" id="emRLGQEjWm" role="2VODD2">
        <node concept="1X3_iC" id="3$ZLRFpRkZV" role="lGtFl">
          <property role="3V$3am" value="statement" />
          <property role="3V$3ak" value="f3061a53-9226-4cc5-a443-f952ceaf5816/1068580123136/1068581517665" />
          <node concept="3clFbF" id="emRLGQEjWn" role="8Wnug">
            <node concept="2OqwBi" id="emRLGQEjWu" role="3clFbG">
              <node concept="2OqwBi" id="emRLGQEjWp" role="2Oq$k0">
                <node concept="nLn13" id="emRLGQEjWo" role="2Oq$k0" />
                <node concept="2Rxl7S" id="emRLGQEjWt" role="2OqNvi" />
              </node>
              <node concept="1mIQ4w" id="emRLGQEjWy" role="2OqNvi">
                <node concept="chp4Y" id="emRLGQEjW$" role="cj9EA">
                  <ref role="cht4Q" to="uhxm:6LlKjXrMe7G" resolve="RunConfigurationExecutor" />
                </node>
              </node>
            </node>
          </node>
        </node>
        <node concept="3clFbF" id="xK0$tondQz" role="3cqZAp">
          <node concept="3clFbT" id="xK0$tondQy" role="3clFbG">
            <property role="3clFbU" value="true" />
          </node>
        </node>
      </node>
    </node>
  </node>
  <node concept="1M2fIO" id="1QpbsTe917">
    <property role="3GE5qa" value="execution" />
    <ref role="1M2myG" to="uhxm:1QpbsTe7X$" resolve="EnvironmentExpression" />
    <node concept="nKS2y" id="1QpbsTe95O" role="1MLUbF">
      <node concept="3clFbS" id="1QpbsTe95P" role="2VODD2">
        <node concept="3clFbF" id="1QpbsTe9En" role="3cqZAp">
          <node concept="22lmx$" id="1QpbsTefLR" role="3clFbG">
            <node concept="2OqwBi" id="1QpbsTegUd" role="3uHU7w">
              <node concept="2OqwBi" id="1QpbsTefUc" role="2Oq$k0">
                <node concept="nLn13" id="1QpbsTefQ8" role="2Oq$k0" />
                <node concept="2Xjw5R" id="1QpbsTegIN" role="2OqNvi">
                  <node concept="1xMEDy" id="1QpbsTegIP" role="1xVPHs">
                    <node concept="chp4Y" id="1QpbsTegJk" role="ri$Ld">
                      <ref role="cht4Q" to="uhxm:5kMNzMX$g0G" resolve="ExecuteConfiguration_Function" />
                    </node>
                  </node>
                  <node concept="1xIGOp" id="1QpbsTekuf" role="1xVPHs" />
                </node>
              </node>
              <node concept="3x8VRR" id="1QpbsTeku4" role="2OqNvi" />
            </node>
            <node concept="2OqwBi" id="1QpbsTeaH4" role="3uHU7B">
              <node concept="2OqwBi" id="1QpbsTe9It" role="2Oq$k0">
                <node concept="nLn13" id="1QpbsTe9Em" role="2Oq$k0" />
                <node concept="2Xjw5R" id="1QpbsTeayR" role="2OqNvi">
                  <node concept="1xIGOp" id="1QpbsTegJc" role="1xVPHs" />
                  <node concept="1xMEDy" id="1QpbsTeayT" role="1xVPHs">
                    <node concept="chp4Y" id="1QpbsTeaz1" role="ri$Ld">
                      <ref role="cht4Q" to="uhxm:28fiyLaZO98" resolve="ExecuteBeforeTask_ConceptFunction" />
                    </node>
                  </node>
                </node>
              </node>
              <node concept="3x8VRR" id="1QpbsTedRQ" role="2OqNvi" />
            </node>
          </node>
        </node>
      </node>
    </node>
  </node>
  <node concept="1M2fIO" id="6DDApQBpSwP">
    <property role="3GE5qa" value="producer" />
    <ref role="1M2myG" to="uhxm:6DDApQBpy$f" resolve="ContextExpression" />
    <node concept="nKS2y" id="6DDApQBpSwQ" role="1MLUbF">
      <node concept="3clFbS" id="6DDApQBpSwR" role="2VODD2">
        <node concept="3clFbF" id="6DDApQBql0m" role="3cqZAp">
          <node concept="2OqwBi" id="6DDApQBql0o" role="3clFbG">
            <node concept="2OqwBi" id="6DDApQBql0p" role="2Oq$k0">
              <node concept="nLn13" id="6DDApQBql0q" role="2Oq$k0" />
              <node concept="2Xjw5R" id="6DDApQBql0r" role="2OqNvi">
                <node concept="1xIGOp" id="6DDApQBql0s" role="1xVPHs" />
                <node concept="1xMEDy" id="6DDApQBql0t" role="1xVPHs">
                  <node concept="chp4Y" id="6DDApQBqlou" role="ri$Ld">
                    <ref role="cht4Q" to="uhxm:3MnZbusxcR3" resolve="Create_ConceptFunction" />
                  </node>
                </node>
              </node>
            </node>
            <node concept="3x8VRR" id="6DDApQBql0v" role="2OqNvi" />
          </node>
        </node>
      </node>
    </node>
  </node>
</model>

