<?xml version="1.0" encoding="UTF-8"?>
<model ref="r:7d438dd6-fddd-4f98-b0ae-eed9d2bebdce(jetbrains.mps.execution.configurations.editor)">
  <persistence version="9" />
  <languages>
    <use id="aee9cad2-acd4-4608-aef2-0004f6a1cdbd" name="jetbrains.mps.lang.actions" version="0" />
    <use id="18bc6592-03a6-4e29-a83a-7ff23bde13ba" name="jetbrains.mps.lang.editor" version="3" />
    <devkit ref="fbc25dd2-5da4-483a-8b19-70928e1b62d7(jetbrains.mps.devkit.general-purpose)" />
  </languages>
  <imports>
    <import index="uhxm" ref="r:f3383ae6-205a-4e7c-8dd9-c29966e29e49(jetbrains.mps.execution.configurations.structure)" />
    <import index="tpek" ref="r:00000000-0000-4000-0000-011c895902c0(jetbrains.mps.baseLanguage.behavior)" />
    <import index="tpen" ref="r:00000000-0000-4000-0000-011c895902c3(jetbrains.mps.baseLanguage.editor)" />
    <import index="4l28" ref="r:328ff5ee-9330-4068-906e-6e3bb50e6e1d(jetbrains.mps.execution.settings.editor)" />
    <import index="fb9u" ref="r:0194e190-08ef-44f6-ab95-d9cffdb7e27b(jetbrains.mps.execution.settings.structure)" />
    <import index="tpco" ref="r:00000000-0000-4000-0000-011c89590284(jetbrains.mps.lang.core.editor)" />
    <import index="tpee" ref="r:00000000-0000-4000-0000-011c895902ca(jetbrains.mps.baseLanguage.structure)" />
    <import index="ojho" ref="r:36b91d42-5119-45a8-b801-6a4d645ce20b(jetbrains.mps.execution.configurations.behavior)" />
    <import index="86gq" ref="r:f516737e-c915-4042-896e-de34190042b2(jetbrains.mps.debugger.api.lang.structure)" />
    <import index="jfm4" ref="r:3b11b092-1d35-4fd8-b30e-ef91402b7717(jetbrains.mps.execution.common.editor)" />
    <import index="tpck" ref="r:00000000-0000-4000-0000-011c89590288(jetbrains.mps.lang.core.structure)" implicit="true" />
  </imports>
  <registry>
    <language id="18bc6592-03a6-4e29-a83a-7ff23bde13ba" name="jetbrains.mps.lang.editor">
      <concept id="1071666914219" name="jetbrains.mps.lang.editor.structure.ConceptEditorDeclaration" flags="ig" index="24kQdi">
        <child id="1078153129734" name="inspectedCellModel" index="6VMZX" />
      </concept>
      <concept id="1140524381322" name="jetbrains.mps.lang.editor.structure.CellModel_ListWithRole" flags="ng" index="2czfm3">
        <property id="1140524450557" name="separatorText" index="2czwfO" />
        <property id="1156252885376" name="separatorLayoutConstraint" index="Q2I2d" />
        <child id="1140524464360" name="cellLayout" index="2czzBx" />
        <child id="928328222691832421" name="separatorTextQuery" index="2gpyvW" />
      </concept>
      <concept id="1106270549637" name="jetbrains.mps.lang.editor.structure.CellLayout_Horizontal" flags="nn" index="2iRfu4" />
      <concept id="1106270571710" name="jetbrains.mps.lang.editor.structure.CellLayout_Vertical" flags="nn" index="2iRkQZ" />
      <concept id="1237303669825" name="jetbrains.mps.lang.editor.structure.CellLayout_Indent" flags="nn" index="l2Vlx" />
      <concept id="1237307900041" name="jetbrains.mps.lang.editor.structure.IndentLayoutIndentStyleClassItem" flags="ln" index="lj46D" />
      <concept id="1237308012275" name="jetbrains.mps.lang.editor.structure.IndentLayoutNewLineStyleClassItem" flags="ln" index="ljvvj" />
      <concept id="709996738298806197" name="jetbrains.mps.lang.editor.structure.QueryFunction_SeparatorText" flags="in" index="2o9xnK" />
      <concept id="1142886221719" name="jetbrains.mps.lang.editor.structure.QueryFunction_NodeCondition" flags="in" index="pkWqt" />
      <concept id="1142886811589" name="jetbrains.mps.lang.editor.structure.ConceptFunctionParameter_node" flags="nn" index="pncrf" />
      <concept id="1080736578640" name="jetbrains.mps.lang.editor.structure.BaseEditorComponent" flags="ig" index="2wURMF">
        <child id="1080736633877" name="cellModel" index="2wV5jI" />
      </concept>
      <concept id="1164824717996" name="jetbrains.mps.lang.editor.structure.CellMenuDescriptor" flags="ng" index="OXEIz">
        <child id="1164824815888" name="cellMenuPart" index="OY2wv" />
      </concept>
      <concept id="1078938745671" name="jetbrains.mps.lang.editor.structure.EditorComponentDeclaration" flags="ig" index="PKFIW" />
      <concept id="1078939183254" name="jetbrains.mps.lang.editor.structure.CellModel_Component" flags="sg" stub="3162947552742194261" index="PMmxH">
        <reference id="1078939183255" name="editorComponent" index="PMmxG" />
      </concept>
      <concept id="1186403694788" name="jetbrains.mps.lang.editor.structure.ColorStyleClassItem" flags="ln" index="VaVBg">
        <property id="1186403713874" name="color" index="Vb096" />
      </concept>
      <concept id="1186403751766" name="jetbrains.mps.lang.editor.structure.FontStyleStyleClassItem" flags="ln" index="Vb9p2">
        <property id="1186403771423" name="style" index="Vbekb" />
      </concept>
      <concept id="1186404549998" name="jetbrains.mps.lang.editor.structure.ForegroundColorStyleClassItem" flags="ln" index="VechU" />
      <concept id="1186414536763" name="jetbrains.mps.lang.editor.structure.BooleanStyleSheetItem" flags="ln" index="VOi$J">
        <property id="1186414551515" name="flag" index="VOm3f" />
      </concept>
      <concept id="1186414860679" name="jetbrains.mps.lang.editor.structure.EditableStyleClassItem" flags="ln" index="VPxyj" />
      <concept id="1186414928363" name="jetbrains.mps.lang.editor.structure.SelectableStyleSheetItem" flags="ln" index="VPM3Z" />
      <concept id="1233758997495" name="jetbrains.mps.lang.editor.structure.PunctuationLeftStyleClassItem" flags="ln" index="11L4FC" />
      <concept id="1233759184865" name="jetbrains.mps.lang.editor.structure.PunctuationRightStyleClassItem" flags="ln" index="11LMrY" />
      <concept id="1088013125922" name="jetbrains.mps.lang.editor.structure.CellModel_RefCell" flags="sg" stub="730538219795941030" index="1iCGBv">
        <child id="1088186146602" name="editorComponent" index="1sWHZn" />
      </concept>
      <concept id="1381004262292414836" name="jetbrains.mps.lang.editor.structure.ICellStyle" flags="ng" index="1k5N5V">
        <reference id="1381004262292426837" name="parentStyleClass" index="1k5W1q" />
      </concept>
      <concept id="1165424453110" name="jetbrains.mps.lang.editor.structure.CellMenuPart_Generic_Item" flags="ng" index="1oHujT">
        <property id="1165424453111" name="matchingText" index="1oHujS" />
        <child id="1165424453112" name="handlerFunction" index="1oHujR" />
      </concept>
      <concept id="1165424657443" name="jetbrains.mps.lang.editor.structure.CellMenuPart_Generic_Item_Handler" flags="in" index="1oIgkG" />
      <concept id="1088185857835" name="jetbrains.mps.lang.editor.structure.InlineEditorComponent" flags="ig" index="1sVBvm" />
      <concept id="1139848536355" name="jetbrains.mps.lang.editor.structure.CellModel_WithRole" flags="ng" index="1$h60E">
        <property id="1140017977771" name="readOnly" index="1Intyy" />
        <reference id="1140103550593" name="relationDeclaration" index="1NtTu8" />
      </concept>
      <concept id="1073389214265" name="jetbrains.mps.lang.editor.structure.EditorCellModel" flags="ng" index="3EYTF0">
        <property id="1130859485024" name="attractsFocus" index="1cu_pB" />
        <child id="1142887637401" name="renderingCondition" index="pqm2j" />
        <child id="1164826688380" name="menuDescriptor" index="P5bDN" />
      </concept>
      <concept id="1073389446423" name="jetbrains.mps.lang.editor.structure.CellModel_Collection" flags="sn" stub="3013115976261988961" index="3EZMnI">
        <property id="1073389446425" name="vertical" index="3EZMnw" />
        <child id="1106270802874" name="cellLayout" index="2iSdaV" />
        <child id="1073389446424" name="childCellModel" index="3EZMnx" />
      </concept>
      <concept id="1073389577006" name="jetbrains.mps.lang.editor.structure.CellModel_Constant" flags="sn" stub="3610246225209162225" index="3F0ifn">
        <property id="1073389577007" name="text" index="3F0ifm" />
      </concept>
      <concept id="1073389658414" name="jetbrains.mps.lang.editor.structure.CellModel_Property" flags="sg" stub="730538219796134133" index="3F0A7n" />
      <concept id="1219418625346" name="jetbrains.mps.lang.editor.structure.IStyleContainer" flags="ng" index="3F0Thp">
        <child id="1219418656006" name="styleItem" index="3F10Kt" />
      </concept>
      <concept id="1073389882823" name="jetbrains.mps.lang.editor.structure.CellModel_RefNode" flags="sg" stub="730538219795960754" index="3F1sOY" />
      <concept id="1073390211982" name="jetbrains.mps.lang.editor.structure.CellModel_RefNodeList" flags="sg" stub="2794558372793454595" index="3F2HdR" />
      <concept id="1163613822479" name="jetbrains.mps.lang.editor.structure.CellMenuPart_Abstract_editedNode" flags="nn" index="3GMtW1" />
      <concept id="1225898583838" name="jetbrains.mps.lang.editor.structure.ReadOnlyModelAccessor" flags="ng" index="1HfYo3">
        <child id="1225898971709" name="getter" index="1Hhtcw" />
      </concept>
      <concept id="1225900081164" name="jetbrains.mps.lang.editor.structure.CellModel_ReadOnlyModelAccessor" flags="sg" stub="3708815482283559694" index="1HlG4h">
        <child id="1225900141900" name="modelAccessor" index="1HlULh" />
      </concept>
      <concept id="1176717841777" name="jetbrains.mps.lang.editor.structure.QueryFunction_ModelAccess_Getter" flags="in" index="3TQlhw" />
      <concept id="1198256887712" name="jetbrains.mps.lang.editor.structure.CellModel_Indent" flags="ng" index="3XFhqQ" />
      <concept id="1166049232041" name="jetbrains.mps.lang.editor.structure.AbstractComponent" flags="ng" index="1XWOmA">
        <reference id="1166049300910" name="conceptDeclaration" index="1XX52x" />
      </concept>
    </language>
    <language id="f3061a53-9226-4cc5-a443-f952ceaf5816" name="jetbrains.mps.baseLanguage">
      <concept id="1080223426719" name="jetbrains.mps.baseLanguage.structure.OrExpression" flags="nn" index="22lmx$" />
      <concept id="1197027756228" name="jetbrains.mps.baseLanguage.structure.DotExpression" flags="nn" index="2OqwBi">
        <child id="1197027771414" name="operand" index="2Oq$k0" />
        <child id="1197027833540" name="operation" index="2OqNvi" />
      </concept>
      <concept id="1137021947720" name="jetbrains.mps.baseLanguage.structure.ConceptFunction" flags="in" index="2VMwT0">
        <child id="1137022507850" name="body" index="2VODD2" />
      </concept>
      <concept id="1070475926800" name="jetbrains.mps.baseLanguage.structure.StringLiteral" flags="nn" index="Xl_RD">
        <property id="1070475926801" name="value" index="Xl_RC" />
      </concept>
      <concept id="1225271408483" name="jetbrains.mps.baseLanguage.structure.IsNotEmptyOperation" flags="nn" index="17RvpY" />
      <concept id="1068580123155" name="jetbrains.mps.baseLanguage.structure.ExpressionStatement" flags="nn" index="3clFbF">
        <child id="1068580123156" name="expression" index="3clFbG" />
      </concept>
      <concept id="1068580123136" name="jetbrains.mps.baseLanguage.structure.StatementList" flags="sn" stub="5293379017992965193" index="3clFbS">
        <child id="1068581517665" name="statement" index="3cqZAp" />
      </concept>
      <concept id="1068580123137" name="jetbrains.mps.baseLanguage.structure.BooleanConstant" flags="nn" index="3clFbT">
        <property id="1068580123138" name="value" index="3clFbU" />
      </concept>
      <concept id="1081516740877" name="jetbrains.mps.baseLanguage.structure.NotExpression" flags="nn" index="3fqX7Q">
        <child id="1081516765348" name="expression" index="3fr31v" />
      </concept>
      <concept id="1204053956946" name="jetbrains.mps.baseLanguage.structure.IMethodCall" flags="ng" index="1ndlxa">
        <reference id="1068499141037" name="baseMethodDeclaration" index="37wK5l" />
      </concept>
      <concept id="1081773326031" name="jetbrains.mps.baseLanguage.structure.BinaryOperation" flags="nn" index="3uHJSO">
        <child id="1081773367579" name="rightExpression" index="3uHU7w" />
        <child id="1081773367580" name="leftExpression" index="3uHU7B" />
      </concept>
      <concept id="1080120340718" name="jetbrains.mps.baseLanguage.structure.AndExpression" flags="nn" index="1Wc70l" />
    </language>
    <language id="aee9cad2-acd4-4608-aef2-0004f6a1cdbd" name="jetbrains.mps.lang.actions">
      <concept id="767145758118872830" name="jetbrains.mps.lang.actions.structure.NF_Link_SetNewChildOperation" flags="nn" index="2DeJnY" />
    </language>
    <language id="7866978e-a0f0-4cc7-81bc-4d213d9375e1" name="jetbrains.mps.lang.smodel">
      <concept id="1204851882688" name="jetbrains.mps.lang.smodel.structure.LinkRefQualifier" flags="ng" index="26LbJo">
        <reference id="1204851882689" name="link" index="26LbJp" />
      </concept>
      <concept id="1138411891628" name="jetbrains.mps.lang.smodel.structure.SNodeOperation" flags="nn" index="eCIE_">
        <child id="1144104376918" name="parameter" index="1xVPHs" />
      </concept>
      <concept id="1179409122411" name="jetbrains.mps.lang.smodel.structure.Node_ConceptMethodCall" flags="nn" index="2qgKlT" />
      <concept id="1138661924179" name="jetbrains.mps.lang.smodel.structure.Property_SetOperation" flags="nn" index="tyxLq">
        <child id="1138662048170" name="value" index="tz02z" />
      </concept>
      <concept id="1138757581985" name="jetbrains.mps.lang.smodel.structure.Link_SetNewChildOperation" flags="nn" index="zfrQC">
        <reference id="1139880128956" name="concept" index="1A9B2P" />
      </concept>
      <concept id="7835263205327057228" name="jetbrains.mps.lang.smodel.structure.Node_GetChildrenAndChildAttributesOperation" flags="ng" index="Bykcj" />
      <concept id="5168775467716640652" name="jetbrains.mps.lang.smodel.structure.OperationParm_LinkQualifier" flags="ng" index="1aIX9F">
        <child id="5168775467716640653" name="linkQualifier" index="1aIX9E" />
      </concept>
      <concept id="1171999116870" name="jetbrains.mps.lang.smodel.structure.Node_IsNullOperation" flags="nn" index="3w_OXm" />
      <concept id="1172008320231" name="jetbrains.mps.lang.smodel.structure.Node_IsNotNullOperation" flags="nn" index="3x8VRR" />
      <concept id="6407023681583036853" name="jetbrains.mps.lang.smodel.structure.NodeAttributeQualifier" flags="ng" index="3CFYIy">
        <reference id="6407023681583036854" name="attributeConcept" index="3CFYIx" />
      </concept>
      <concept id="6407023681583031218" name="jetbrains.mps.lang.smodel.structure.AttributeAccess" flags="nn" index="3CFZ6_">
        <child id="6407023681583036852" name="qualifier" index="3CFYIz" />
      </concept>
      <concept id="1140133623887" name="jetbrains.mps.lang.smodel.structure.Node_DeleteOperation" flags="nn" index="1PgB_6" />
      <concept id="1138056022639" name="jetbrains.mps.lang.smodel.structure.SPropertyAccess" flags="nn" index="3TrcHB">
        <reference id="1138056395725" name="property" index="3TsBF5" />
      </concept>
      <concept id="1138056143562" name="jetbrains.mps.lang.smodel.structure.SLinkAccess" flags="nn" index="3TrEf2">
        <reference id="1138056516764" name="link" index="3Tt5mk" />
      </concept>
    </language>
    <language id="ceab5195-25ea-4f22-9b92-103b95ca8c0c" name="jetbrains.mps.lang.core">
      <concept id="1133920641626" name="jetbrains.mps.lang.core.structure.BaseConcept" flags="ng" index="2VYdi">
        <property id="1193676396447" name="virtualPackage" index="3GE5qa" />
      </concept>
      <concept id="1169194658468" name="jetbrains.mps.lang.core.structure.INamedConcept" flags="ng" index="TrEIO">
        <property id="1169194664001" name="name" index="TrG5h" />
      </concept>
    </language>
    <language id="83888646-71ce-4f1c-9c53-c54016f6ad4f" name="jetbrains.mps.baseLanguage.collections">
      <concept id="1176501494711" name="jetbrains.mps.baseLanguage.collections.structure.IsNotEmptyOperation" flags="nn" index="3GX2aA" />
    </language>
  </registry>
  <node concept="24kQdi" id="25jQf71X8Fz">
    <ref role="1XX52x" to="uhxm:25jQf71X6T9" resolve="RunConfiguration" />
    <node concept="3EZMnI" id="cqRc3G8w2o" role="2wV5jI">
      <node concept="2iRkQZ" id="cqRc3G8w2p" role="2iSdaV" />
      <node concept="3EZMnI" id="cqRc3G8w2A" role="3EZMnx">
        <node concept="PMmxH" id="2wdLO7KhY3K" role="3EZMnx">
          <property role="1cu_pB" value="0" />
          <ref role="PMmxG" to="tpco:2wZex4PafBj" resolve="alias" />
          <ref role="1k5W1q" to="tpen:hgVS8CF" resolve="KeyWord" />
        </node>
        <node concept="3F0A7n" id="cqRc3G8w2C" role="3EZMnx">
          <ref role="1k5W1q" to="tpen:hFIVf2f" resolve="ClassName" />
          <ref role="1NtTu8" to="tpck:h0TrG11" resolve="name" />
        </node>
        <node concept="3F0ifn" id="cqRc3G8w2D" role="3EZMnx">
          <property role="3F0ifm" value="of kind" />
          <ref role="1k5W1q" to="tpen:hgVS8CF" resolve="KeyWord" />
        </node>
        <node concept="1iCGBv" id="cqRc3G8w2E" role="3EZMnx">
          <ref role="1NtTu8" to="uhxm:25jQf71X8Fy" />
          <ref role="1k5W1q" to="tpen:hFIVf2f" resolve="ClassName" />
          <node concept="1sVBvm" id="cqRc3G8w2F" role="1sWHZn">
            <node concept="3F0A7n" id="cqRc3G8w2G" role="2wV5jI">
              <property role="1Intyy" value="true" />
              <ref role="1NtTu8" to="tpck:h0TrG11" resolve="name" />
            </node>
          </node>
        </node>
        <node concept="2iRfu4" id="cqRc3G8w2H" role="2iSdaV" />
        <node concept="VPM3Z" id="cqRc3G8w2I" role="3F10Kt">
          <property role="VOm3f" value="false" />
        </node>
      </node>
      <node concept="3F1sOY" id="48qzi2IBQ$L" role="3EZMnx">
        <ref role="1NtTu8" to="uhxm:48qzi2IBQyu" />
      </node>
      <node concept="3F0ifn" id="cqRc3G8w2v" role="3EZMnx">
        <node concept="VPM3Z" id="cqRc3G8w2w" role="3F10Kt">
          <property role="VOm3f" value="false" />
        </node>
      </node>
      <node concept="PMmxH" id="cqRc3G8w2x" role="3EZMnx">
        <ref role="PMmxG" to="4l28:O$iR4JBsTA" resolve="PersistentPropertiesComponent" />
      </node>
      <node concept="3F0ifn" id="cqRc3G8w2y" role="3EZMnx">
        <node concept="VPM3Z" id="cqRc3G8w2z" role="3F10Kt">
          <property role="VOm3f" value="false" />
        </node>
      </node>
      <node concept="PMmxH" id="cqRc3G8w2$" role="3EZMnx">
        <ref role="PMmxG" to="4l28:O$iR4JBsTX" resolve="EditorComponent" />
      </node>
      <node concept="3F0ifn" id="wATFi5wy$m" role="3EZMnx">
        <node concept="VPM3Z" id="wATFi5wy$n" role="3F10Kt">
          <property role="VOm3f" value="false" />
        </node>
      </node>
      <node concept="PMmxH" id="wATFi5wy$p" role="3EZMnx">
        <ref role="PMmxG" to="4l28:O$iR4JBsUb" resolve="PersistentMethodsComponent" />
      </node>
    </node>
  </node>
  <node concept="24kQdi" id="25jQf71XihL">
    <ref role="1XX52x" to="uhxm:25jQf71X6Ta" resolve="RunConfigurationKind" />
    <node concept="3EZMnI" id="25jQf71Xii6" role="2wV5jI">
      <node concept="2iRkQZ" id="25jQf71Xii7" role="2iSdaV" />
      <node concept="3EZMnI" id="25jQf71XihO" role="3EZMnx">
        <node concept="PMmxH" id="2wdLO7KhYbj" role="3EZMnx">
          <property role="1cu_pB" value="0" />
          <ref role="PMmxG" to="tpco:2wZex4PafBj" resolve="alias" />
          <ref role="1k5W1q" to="tpen:hgVS8CF" resolve="KeyWord" />
        </node>
        <node concept="3F0A7n" id="25jQf71XihS" role="3EZMnx">
          <ref role="1NtTu8" to="tpck:h0TrG11" resolve="name" />
        </node>
        <node concept="2iRfu4" id="25jQf71XihQ" role="2iSdaV" />
      </node>
      <node concept="3F1sOY" id="6UfNNo_Lx8m" role="3EZMnx">
        <ref role="1NtTu8" to="uhxm:6UfNNo_Lx8j" />
      </node>
    </node>
  </node>
  <node concept="24kQdi" id="2v69eKc6Gl$">
    <property role="3GE5qa" value="execution" />
    <ref role="1XX52x" to="uhxm:5kMNzMX$g0G" resolve="ExecuteConfiguration_Function" />
    <node concept="3EZMnI" id="2v69eKc7bbu" role="2wV5jI">
      <property role="3EZMnw" value="false" />
      <node concept="1HlG4h" id="2v69eKc7bbz" role="3EZMnx">
        <node concept="1HfYo3" id="2v69eKc7bb$" role="1HlULh">
          <node concept="3TQlhw" id="2v69eKc7bb_" role="1Hhtcw">
            <node concept="3clFbS" id="2v69eKc7bbA" role="2VODD2">
              <node concept="3clFbF" id="2v69eKc7bbB" role="3cqZAp">
                <node concept="2OqwBi" id="2v69eKc7bbC" role="3clFbG">
                  <node concept="pncrf" id="2v69eKc7bbD" role="2Oq$k0" />
                  <node concept="2qgKlT" id="62dKB4gQ$KH" role="2OqNvi">
                    <ref role="37wK5l" to="tpek:2v69eKc6GlE" resolve="getHeader" />
                  </node>
                </node>
              </node>
            </node>
          </node>
        </node>
        <node concept="VPM3Z" id="2v69eKc7bbF" role="3F10Kt">
          <property role="VOm3f" value="true" />
        </node>
        <node concept="VPxyj" id="2v69eKc7bbG" role="3F10Kt" />
        <node concept="VechU" id="2v69eKc7bbH" role="3F10Kt">
          <property role="Vb096" value="DARK_BLUE" />
        </node>
      </node>
      <node concept="3F0ifn" id="2v69eKc7bbI" role="3EZMnx">
        <property role="3F0ifm" value="{" />
        <ref role="1k5W1q" to="tpen:hFD5onb" resolve="LeftBrace" />
        <node concept="ljvvj" id="2v69eKc7bbJ" role="3F10Kt">
          <property role="VOm3f" value="true" />
        </node>
      </node>
      <node concept="3F1sOY" id="2v69eKc7bbK" role="3EZMnx">
        <ref role="1NtTu8" to="tpee:gyVODHa" />
        <node concept="lj46D" id="2v69eKc7bbL" role="3F10Kt">
          <property role="VOm3f" value="true" />
        </node>
        <node concept="ljvvj" id="2v69eKc7bbM" role="3F10Kt">
          <property role="VOm3f" value="true" />
        </node>
      </node>
      <node concept="3F0ifn" id="2v69eKc7bbN" role="3EZMnx">
        <property role="3F0ifm" value="}" />
        <ref role="1k5W1q" to="tpen:hFD5_7H" resolve="RightBrace" />
        <node concept="ljvvj" id="2v69eKc7bbO" role="3F10Kt">
          <property role="VOm3f" value="true" />
        </node>
      </node>
      <node concept="l2Vlx" id="2v69eKc7bbP" role="2iSdaV" />
    </node>
  </node>
  <node concept="24kQdi" id="6LlKjXrMspp">
    <property role="3GE5qa" value="execution" />
    <ref role="1XX52x" to="uhxm:6LlKjXrMe7G" resolve="RunConfigurationExecutor" />
    <node concept="3EZMnI" id="6LlKjXrMspr" role="2wV5jI">
      <node concept="3EZMnI" id="6LlKjXrMsps" role="3EZMnx">
        <node concept="PMmxH" id="2wdLO7KhY85" role="3EZMnx">
          <property role="1cu_pB" value="0" />
          <ref role="PMmxG" to="tpco:2wZex4PafBj" resolve="alias" />
          <ref role="1k5W1q" to="tpen:hgVS8CF" resolve="KeyWord" />
        </node>
        <node concept="2iRfu4" id="6LlKjXrMspt" role="2iSdaV" />
      </node>
      <node concept="3EZMnI" id="6LlKjXrM_hs" role="3EZMnx">
        <node concept="VPM3Z" id="6LlKjXrM_ht" role="3F10Kt">
          <property role="VOm3f" value="false" />
        </node>
        <node concept="3XFhqQ" id="6LlKjXrM_hw" role="3EZMnx" />
        <node concept="3F0ifn" id="6LlKjXrM_hy" role="3EZMnx">
          <property role="3F0ifm" value="for" />
          <ref role="1k5W1q" to="tpen:hgVS8CF" resolve="KeyWord" />
        </node>
        <node concept="1iCGBv" id="6LlKjXrM_h$" role="3EZMnx">
          <ref role="1NtTu8" to="uhxm:Ue65ozt$TX" />
          <node concept="1sVBvm" id="6LlKjXrM_h_" role="1sWHZn">
            <node concept="3F0A7n" id="6LlKjXrM_hA" role="2wV5jI">
              <property role="1Intyy" value="true" />
              <ref role="1NtTu8" to="tpck:h0TrG11" resolve="name" />
            </node>
          </node>
        </node>
        <node concept="3F0ifn" id="6LlKjXrM_hC" role="3EZMnx">
          <property role="3F0ifm" value="as" />
          <ref role="1k5W1q" to="tpen:hgVS8CF" resolve="KeyWord" />
        </node>
        <node concept="3F0A7n" id="6LlKjXrM_hG" role="3EZMnx">
          <ref role="1k5W1q" to="tpen:hshQ_OE" resolve="Field" />
          <ref role="1NtTu8" to="uhxm:1FdVGfa2His" resolve="configurationName" />
        </node>
        <node concept="2iRfu4" id="6LlKjXrM_hv" role="2iSdaV" />
      </node>
      <node concept="3EZMnI" id="6LlKjXrMspz" role="3EZMnx">
        <node concept="3XFhqQ" id="6LlKjXrMsp$" role="3EZMnx" />
        <node concept="2iRfu4" id="6LlKjXrMsp_" role="2iSdaV" />
        <node concept="PMmxH" id="5pE1_aqYtyr" role="3EZMnx">
          <ref role="PMmxG" node="5pE1_aqYtwX" resolve="ComplexCanRunAndDebug" />
          <node concept="pkWqt" id="5pE1_aqYtTc" role="pqm2j">
            <node concept="3clFbS" id="5pE1_aqYtTd" role="2VODD2">
              <node concept="3clFbF" id="5pE1_aqYtTe" role="3cqZAp">
                <node concept="3fqX7Q" id="5pE1_aqYtTE" role="3clFbG">
                  <node concept="2OqwBi" id="5pE1_aqYtTy" role="3fr31v">
                    <node concept="pncrf" id="5pE1_aqYtTz" role="2Oq$k0" />
                    <node concept="2qgKlT" id="5pE1_aqZ18S" role="2OqNvi">
                      <ref role="37wK5l" to="ojho:5pE1_aqYZtD" resolve="isSimple" />
                    </node>
                  </node>
                </node>
              </node>
            </node>
          </node>
        </node>
        <node concept="PMmxH" id="5pE1_aqYtSH" role="3EZMnx">
          <ref role="PMmxG" node="5pE1_aqYtvw" resolve="SimpleCanRunAndDebug" />
          <node concept="pkWqt" id="5pE1_aqYtSI" role="pqm2j">
            <node concept="3clFbS" id="5pE1_aqYtSJ" role="2VODD2">
              <node concept="3clFbF" id="5pE1_aqYtSK" role="3cqZAp">
                <node concept="2OqwBi" id="5pE1_aqYtSM" role="3clFbG">
                  <node concept="pncrf" id="5pE1_aqYtSL" role="2Oq$k0" />
                  <node concept="2qgKlT" id="5pE1_aqZ18R" role="2OqNvi">
                    <ref role="37wK5l" to="ojho:5pE1_aqYZtD" resolve="isSimple" />
                  </node>
                </node>
              </node>
            </node>
          </node>
        </node>
      </node>
      <node concept="3F0ifn" id="6LlKjXrMsr3" role="3EZMnx">
        <node concept="VPM3Z" id="6LlKjXrMsr4" role="3F10Kt">
          <property role="VOm3f" value="false" />
        </node>
      </node>
      <node concept="PMmxH" id="5FAUXTS8cTL" role="3EZMnx">
        <ref role="PMmxG" node="5FAUXTS8cTz" resolve="BeforeTasksComponent" />
      </node>
      <node concept="3F0ifn" id="5FAUXTS7LZE" role="3EZMnx">
        <node concept="VPM3Z" id="5FAUXTS8cTy" role="3F10Kt">
          <property role="VOm3f" value="false" />
        </node>
      </node>
      <node concept="3EZMnI" id="6LlKjXrMsr5" role="3EZMnx">
        <node concept="VPM3Z" id="6LlKjXrMsr6" role="3F10Kt">
          <property role="VOm3f" value="false" />
        </node>
        <node concept="3XFhqQ" id="6LlKjXrMsr7" role="3EZMnx" />
        <node concept="3F1sOY" id="6LlKjXrMsr8" role="3EZMnx">
          <ref role="1NtTu8" to="uhxm:6T2kBqFeaUx" />
        </node>
        <node concept="2iRfu4" id="6LlKjXrMsr9" role="2iSdaV" />
      </node>
      <node concept="3F0ifn" id="1b7CZFPKUYu" role="3EZMnx" />
      <node concept="3F0ifn" id="1b7CZFPKVkA" role="3EZMnx" />
      <node concept="2iRkQZ" id="6LlKjXrMsra" role="2iSdaV" />
    </node>
    <node concept="3EZMnI" id="6LlKjXrMsrc" role="6VMZX">
      <node concept="VPM3Z" id="6LlKjXrMsrd" role="3F10Kt">
        <property role="VOm3f" value="false" />
      </node>
      <node concept="3XFhqQ" id="6LlKjXrMsre" role="3EZMnx" />
      <node concept="3F0ifn" id="6LlKjXrMsrf" role="3EZMnx">
        <property role="3F0ifm" value="debugger:" />
        <ref role="1k5W1q" to="tpen:hgVS8CF" resolve="KeyWord" />
      </node>
      <node concept="3F1sOY" id="6LlKjXrMsrg" role="3EZMnx">
        <ref role="1NtTu8" to="uhxm:5P5ty4$bo88" />
      </node>
      <node concept="2iRfu4" id="6LlKjXrMsrh" role="2iSdaV" />
    </node>
  </node>
  <node concept="24kQdi" id="6LlKjXrMGp1">
    <property role="3GE5qa" value="execution" />
    <ref role="1XX52x" to="uhxm:6LlKjXrMGoJ" resolve="ConfigurationFromExecutorReference" />
    <node concept="3F0A7n" id="6LlKjXrMGp4" role="2wV5jI">
      <ref role="1NtTu8" to="tpck:h0TrG11" resolve="name" />
      <ref role="1k5W1q" to="tpen:hshQ_OE" resolve="Field" />
      <node concept="VPxyj" id="6LlKjXrMGp8" role="3F10Kt">
        <property role="VOm3f" value="false" />
      </node>
    </node>
  </node>
  <node concept="24kQdi" id="O$iR4JBkjk">
    <property role="3GE5qa" value="execution" />
    <ref role="1XX52x" to="uhxm:O$iR4JBkjh" resolve="StartProcessHandlerStatement" />
    <node concept="3EZMnI" id="O$iR4JBkjl" role="2wV5jI">
      <node concept="3F0ifn" id="O$iR4JBkjm" role="3EZMnx">
        <property role="3F0ifm" value="start" />
        <ref role="1k5W1q" to="tpen:hgVS8CF" resolve="KeyWord" />
      </node>
      <node concept="3F1sOY" id="O$iR4JBkjn" role="3EZMnx">
        <ref role="1NtTu8" to="uhxm:O$iR4JBkji" />
      </node>
      <node concept="PMmxH" id="1ovLDatNZeN" role="3EZMnx">
        <ref role="PMmxG" node="1ovLDatNZeH" resolve="StartProcessWithTool_Component" />
        <node concept="pkWqt" id="1ovLDatNZeP" role="pqm2j">
          <node concept="3clFbS" id="1ovLDatNZeQ" role="2VODD2">
            <node concept="3clFbF" id="1ovLDatNZ$S" role="3cqZAp">
              <node concept="2OqwBi" id="1ovLDatNZ$Z" role="3clFbG">
                <node concept="2OqwBi" id="1ovLDatNZ$U" role="2Oq$k0">
                  <node concept="pncrf" id="1ovLDatNZ$T" role="2Oq$k0" />
                  <node concept="3TrEf2" id="1ovLDatNZ$Y" role="2OqNvi">
                    <ref role="3Tt5mk" to="uhxm:1ovLDatNZew" />
                  </node>
                </node>
                <node concept="3x8VRR" id="1ovLDatNZ_3" role="2OqNvi" />
              </node>
            </node>
          </node>
        </node>
      </node>
      <node concept="3F0ifn" id="O$iR4JBkjo" role="3EZMnx">
        <property role="3F0ifm" value=";" />
        <ref role="1k5W1q" to="tpen:hFDgi_W" resolve="Semicolon" />
      </node>
      <node concept="l2Vlx" id="O$iR4JBkjp" role="2iSdaV" />
    </node>
    <node concept="PMmxH" id="1ovLDatNZeO" role="6VMZX">
      <ref role="PMmxG" node="1ovLDatNZeH" resolve="StartProcessWithTool_Component" />
    </node>
  </node>
  <node concept="24kQdi" id="3MnZbusx2c8">
    <property role="3GE5qa" value="producer" />
    <ref role="1XX52x" to="uhxm:3MnZbusx2c5" resolve="RunConfigurationProducer" />
    <node concept="3EZMnI" id="3MnZbusx2ca" role="2wV5jI">
      <node concept="3EZMnI" id="3MnZbusx2cd" role="3EZMnx">
        <node concept="PMmxH" id="2wdLO7KhY6y" role="3EZMnx">
          <property role="1cu_pB" value="0" />
          <ref role="PMmxG" to="tpco:2wZex4PafBj" resolve="alias" />
          <ref role="1k5W1q" to="tpen:hgVS8CF" resolve="KeyWord" />
        </node>
        <node concept="VPM3Z" id="3MnZbusx2ce" role="3F10Kt">
          <property role="VOm3f" value="false" />
        </node>
        <node concept="3F0ifn" id="3MnZbusxazL" role="3EZMnx">
          <property role="3F0ifm" value="for" />
          <ref role="1k5W1q" to="tpen:hgVS8CF" resolve="KeyWord" />
        </node>
        <node concept="3F1sOY" id="3MnZbusxazN" role="3EZMnx">
          <ref role="1NtTu8" to="uhxm:3MnZbusxazJ" />
        </node>
        <node concept="2iRfu4" id="3MnZbusx2cg" role="2iSdaV" />
      </node>
      <node concept="3F0ifn" id="3MnZbusxcQD" role="3EZMnx">
        <node concept="VPM3Z" id="3MnZbusxcQE" role="3F10Kt">
          <property role="VOm3f" value="false" />
        </node>
      </node>
      <node concept="3EZMnI" id="3aewtBM3cWF" role="3EZMnx">
        <node concept="2iRfu4" id="3aewtBM3cWG" role="2iSdaV" />
        <node concept="3XFhqQ" id="3aewtBM3cWI" role="3EZMnx" />
        <node concept="3F2HdR" id="3MnZbusxcQH" role="3EZMnx">
          <ref role="1NtTu8" to="uhxm:3MnZbusxcQG" />
          <node concept="2iRkQZ" id="3MnZbusxcQI" role="2czzBx" />
          <node concept="VPM3Z" id="3MnZbusxcQJ" role="3F10Kt">
            <property role="VOm3f" value="false" />
          </node>
          <node concept="2o9xnK" id="1I6I6y47f89" role="2gpyvW">
            <node concept="3clFbS" id="1I6I6y47f8a" role="2VODD2">
              <node concept="3clFbF" id="1I6I6y47f9Y" role="3cqZAp">
                <node concept="Xl_RD" id="1I6I6y47f9X" role="3clFbG">
                  <property role="Xl_RC" value="" />
                </node>
              </node>
            </node>
          </node>
        </node>
      </node>
      <node concept="2iRkQZ" id="3MnZbusx2cc" role="2iSdaV" />
    </node>
  </node>
  <node concept="24kQdi" id="3MnZbusxcQL">
    <property role="3GE5qa" value="producer" />
    <ref role="1XX52x" to="uhxm:3MnZbusxcQA" resolve="RunConfigurationProducerPart" />
    <node concept="3EZMnI" id="3MnZbusxcQN" role="2wV5jI">
      <node concept="3EZMnI" id="3MnZbusxcQQ" role="3EZMnx">
        <node concept="PMmxH" id="2wdLO7KhY5v" role="3EZMnx">
          <property role="1cu_pB" value="0" />
          <ref role="PMmxG" to="tpco:2wZex4PafBj" resolve="alias" />
          <ref role="1k5W1q" to="tpen:hgVS8CF" resolve="KeyWord" />
        </node>
        <node concept="VPM3Z" id="3MnZbusxcQR" role="3F10Kt">
          <property role="VOm3f" value="false" />
        </node>
        <node concept="3F0ifn" id="3MnZbusxcQU" role="3EZMnx">
          <property role="3F0ifm" value="from" />
          <ref role="1k5W1q" to="tpen:hgVS8CF" resolve="KeyWord" />
        </node>
        <node concept="3F1sOY" id="6liWaRMAihO" role="3EZMnx">
          <ref role="1NtTu8" to="uhxm:6liWaRMAf9f" />
        </node>
        <node concept="2iRfu4" id="3MnZbusxcQT" role="2iSdaV" />
      </node>
      <node concept="3EZMnI" id="3aewtBM3oXs" role="3EZMnx">
        <node concept="3XFhqQ" id="3aewtBM3oXv" role="3EZMnx" />
        <node concept="2iRfu4" id="3aewtBM3oXt" role="2iSdaV" />
        <node concept="3F1sOY" id="3aewtBM2ZIJ" role="3EZMnx">
          <ref role="1NtTu8" to="uhxm:3aewtBM2nU6" />
        </node>
      </node>
      <node concept="2iRkQZ" id="3MnZbusxcQP" role="2iSdaV" />
    </node>
  </node>
  <node concept="24kQdi" id="5FAUXTS7Tqf">
    <property role="3GE5qa" value="before" />
    <ref role="1XX52x" to="uhxm:5FAUXTS7S0k" resolve="BeforeTaskParameter" />
    <node concept="3EZMnI" id="5FAUXTS7Tqh" role="2wV5jI">
      <node concept="2iRfu4" id="5FAUXTS7Tqi" role="2iSdaV" />
      <node concept="3F1sOY" id="5FAUXTS7Tqj" role="3EZMnx">
        <ref role="1NtTu8" to="tpee:4VkOLwjf83e" />
      </node>
      <node concept="PMmxH" id="5FAUXTS7Tqk" role="3EZMnx">
        <ref role="1k5W1q" to="tpen:hshQ_OE" resolve="Field" />
        <ref role="PMmxG" to="tpen:hcE9nLY" resolve="VariableDeclaration_NameCellComponent" />
      </node>
      <node concept="3EZMnI" id="5FAUXTS7Tql" role="3EZMnx">
        <property role="3EZMnw" value="false" />
        <node concept="pkWqt" id="5FAUXTS7Tqm" role="pqm2j">
          <node concept="3clFbS" id="5FAUXTS7Tqn" role="2VODD2">
            <node concept="3clFbF" id="5FAUXTS7Tqo" role="3cqZAp">
              <node concept="2OqwBi" id="2_1mL0eofYo" role="3clFbG">
                <node concept="2OqwBi" id="5FAUXTS7Tqr" role="2Oq$k0">
                  <node concept="pncrf" id="5FAUXTS7Tqs" role="2Oq$k0" />
                  <node concept="Bykcj" id="2_1mL0eofYl" role="2OqNvi">
                    <node concept="1aIX9F" id="2_1mL0eofYm" role="1xVPHs">
                      <node concept="26LbJo" id="2_1mL0eofYn" role="1aIX9E">
                        <ref role="26LbJp" to="tpee:fz3vP1I" />
                      </node>
                    </node>
                  </node>
                </node>
                <node concept="3GX2aA" id="2_1mL0eofYp" role="2OqNvi" />
              </node>
            </node>
          </node>
        </node>
        <node concept="VPM3Z" id="5FAUXTS7Tqu" role="3F10Kt">
          <property role="VOm3f" value="false" />
        </node>
        <node concept="3F0ifn" id="5FAUXTS7Tqv" role="3EZMnx">
          <property role="3F0ifm" value="=" />
          <ref role="1k5W1q" to="tpen:hF$iUjy" resolve="Operator" />
        </node>
        <node concept="3F1sOY" id="5FAUXTS7Tqw" role="3EZMnx">
          <ref role="1NtTu8" to="tpee:fz3vP1I" />
        </node>
        <node concept="l2Vlx" id="5FAUXTS7Tqx" role="2iSdaV" />
      </node>
    </node>
  </node>
  <node concept="24kQdi" id="6liWaRMAiqj">
    <property role="3GE5qa" value="producer.source" />
    <ref role="1XX52x" to="uhxm:6liWaRMAihJ" resolve="NodeListSource" />
    <node concept="3EZMnI" id="6liWaRMAiql" role="2wV5jI">
      <node concept="PMmxH" id="2wdLO7KhYa7" role="3EZMnx">
        <property role="1cu_pB" value="0" />
        <ref role="PMmxG" to="tpco:2wZex4PafBj" resolve="alias" />
        <ref role="1k5W1q" to="tpen:hgVS8CF" resolve="KeyWord" />
      </node>
      <node concept="3F0ifn" id="6liWaRMAiqn" role="3EZMnx">
        <property role="3F0ifm" value="&lt;" />
        <ref role="1k5W1q" to="tpen:75A9veqzBn9" resolve="LeftAngleBracket" />
        <node concept="11LMrY" id="2eOtvO7hRzF" role="3F10Kt">
          <property role="VOm3f" value="true" />
        </node>
        <node concept="11L4FC" id="2eOtvO7hRzG" role="3F10Kt">
          <property role="VOm3f" value="true" />
        </node>
      </node>
      <node concept="1iCGBv" id="6liWaRMAiqo" role="3EZMnx">
        <ref role="1NtTu8" to="uhxm:6liWaRMAiqi" />
        <node concept="1sVBvm" id="6liWaRMAiqp" role="1sWHZn">
          <node concept="3F0A7n" id="6liWaRMAiqq" role="2wV5jI">
            <property role="1Intyy" value="true" />
            <ref role="1NtTu8" to="tpck:h0TrG11" resolve="name" />
          </node>
        </node>
      </node>
      <node concept="3F0ifn" id="6liWaRMAiqr" role="3EZMnx">
        <property role="3F0ifm" value="&gt;" />
        <ref role="1k5W1q" to="tpen:75A9veqzBna" resolve="RightAngleBracket" />
      </node>
      <node concept="2iRfu4" id="6liWaRMAiqs" role="2iSdaV" />
    </node>
  </node>
  <node concept="24kQdi" id="66CJzfk0Vv1">
    <property role="3GE5qa" value="before" />
    <ref role="1XX52x" to="uhxm:66CJzfk0VuZ" resolve="BeforeTask" />
    <node concept="3EZMnI" id="66CJzfk0Vv3" role="2wV5jI">
      <node concept="2iRkQZ" id="66CJzfk0Vv5" role="2iSdaV" />
      <node concept="3EZMnI" id="66CJzfk0Vv6" role="3EZMnx">
        <node concept="PMmxH" id="2wdLO7KhYaH" role="3EZMnx">
          <property role="1cu_pB" value="0" />
          <ref role="PMmxG" to="tpco:2wZex4PafBj" resolve="alias" />
          <ref role="1k5W1q" to="tpen:hgVS8CF" resolve="KeyWord" />
        </node>
        <node concept="2iRfu4" id="66CJzfk0Vv7" role="2iSdaV" />
        <node concept="VPM3Z" id="66CJzfk0Vv8" role="3F10Kt">
          <property role="VOm3f" value="false" />
        </node>
        <node concept="3F0A7n" id="66CJzfk0Vvc" role="3EZMnx">
          <ref role="1NtTu8" to="tpck:h0TrG11" resolve="name" />
        </node>
        <node concept="3EZMnI" id="er7oEzsvdW" role="3EZMnx">
          <node concept="VPM3Z" id="er7oEzsvdX" role="3F10Kt">
            <property role="VOm3f" value="false" />
          </node>
          <node concept="3F0ifn" id="er7oEzsvzS" role="3EZMnx">
            <property role="3F0ifm" value="as" />
            <ref role="1k5W1q" to="tpen:hgVS8CF" resolve="KeyWord" />
          </node>
          <node concept="3F0A7n" id="er7oEzsvzU" role="3EZMnx">
            <ref role="1NtTu8" to="tpck:gOOYy9I" resolve="alias" />
          </node>
          <node concept="2iRfu4" id="er7oEzsvdZ" role="2iSdaV" />
          <node concept="pkWqt" id="er7oEzsve0" role="pqm2j">
            <node concept="3clFbS" id="er7oEzsve1" role="2VODD2">
              <node concept="3clFbF" id="er7oEzsvzG" role="3cqZAp">
                <node concept="2OqwBi" id="er7oEzsvzN" role="3clFbG">
                  <node concept="2OqwBi" id="er7oEzsvzI" role="2Oq$k0">
                    <node concept="pncrf" id="er7oEzsvzH" role="2Oq$k0" />
                    <node concept="3TrcHB" id="er7oEzsvzM" role="2OqNvi">
                      <ref role="3TsBF5" to="tpck:gOOYy9I" resolve="alias" />
                    </node>
                  </node>
                  <node concept="17RvpY" id="er7oEzsvzR" role="2OqNvi" />
                </node>
              </node>
            </node>
          </node>
        </node>
      </node>
      <node concept="3F0ifn" id="66CJzfk0XGH" role="3EZMnx">
        <node concept="VPM3Z" id="66CJzfk0XGI" role="3F10Kt">
          <property role="VOm3f" value="false" />
        </node>
      </node>
      <node concept="3EZMnI" id="5FAUXTS7TqI" role="3EZMnx">
        <node concept="VPM3Z" id="5FAUXTS7TqJ" role="3F10Kt">
          <property role="VOm3f" value="false" />
        </node>
        <node concept="2iRfu4" id="5FAUXTS7TqL" role="2iSdaV" />
        <node concept="3XFhqQ" id="5FAUXTS7TqM" role="3EZMnx" />
        <node concept="3F2HdR" id="5FAUXTS7TqO" role="3EZMnx">
          <ref role="1NtTu8" to="uhxm:5FAUXTS7TqE" />
          <node concept="2iRkQZ" id="5FAUXTS7TqQ" role="2czzBx" />
        </node>
      </node>
      <node concept="3F0ifn" id="5FAUXTS7TqG" role="3EZMnx">
        <node concept="VPM3Z" id="5FAUXTS8cTw" role="3F10Kt">
          <property role="VOm3f" value="false" />
        </node>
      </node>
      <node concept="3F1sOY" id="28fiyLb0GIj" role="3EZMnx">
        <ref role="1NtTu8" to="uhxm:28fiyLb0GIh" />
      </node>
    </node>
    <node concept="3EZMnI" id="er7oEzsvdQ" role="6VMZX">
      <node concept="3F0ifn" id="er7oEzsvdU" role="3EZMnx">
        <property role="3F0ifm" value="alias" />
      </node>
      <node concept="2iRfu4" id="er7oEzsvdR" role="2iSdaV" />
      <node concept="3F0A7n" id="er7oEzsvdS" role="3EZMnx">
        <ref role="1NtTu8" to="tpck:gOOYy9I" resolve="alias" />
      </node>
    </node>
  </node>
  <node concept="24kQdi" id="6liWaRMAipK">
    <property role="3GE5qa" value="producer.source" />
    <ref role="1XX52x" to="uhxm:3MnZbusxaYm" resolve="RunConfigurationSource" />
    <node concept="PMmxH" id="2wdLO7KhY71" role="2wV5jI">
      <property role="1cu_pB" value="0" />
      <ref role="PMmxG" to="tpco:2wZex4PafBj" resolve="alias" />
      <ref role="1k5W1q" to="tpen:hgVS8CF" resolve="KeyWord" />
    </node>
  </node>
  <node concept="24kQdi" id="5FAUXTS7Xf2">
    <property role="3GE5qa" value="before" />
    <ref role="1XX52x" to="uhxm:5FAUXTS7Xf0" resolve="BeforeTaskParameterReference" />
    <node concept="1iCGBv" id="5FAUXTS7Xf4" role="2wV5jI">
      <ref role="1NtTu8" to="uhxm:5FAUXTS7Xf1" />
      <node concept="1sVBvm" id="5FAUXTS7Xf5" role="1sWHZn">
        <node concept="3F0A7n" id="5FAUXTS7Xf7" role="2wV5jI">
          <property role="1Intyy" value="true" />
          <ref role="1NtTu8" to="tpck:h0TrG11" resolve="name" />
          <ref role="1k5W1q" to="tpen:hshQ_OE" resolve="Field" />
        </node>
      </node>
    </node>
  </node>
  <node concept="24kQdi" id="6liWaRMAiq3">
    <property role="3GE5qa" value="producer.source" />
    <ref role="1XX52x" to="uhxm:6liWaRMAihL" resolve="NodeSource" />
    <node concept="3EZMnI" id="6liWaRMAiq5" role="2wV5jI">
      <node concept="PMmxH" id="2wdLO7KhY7h" role="3EZMnx">
        <property role="1cu_pB" value="0" />
        <ref role="PMmxG" to="tpco:2wZex4PafBj" resolve="alias" />
        <ref role="1k5W1q" to="tpen:hgVS8CF" resolve="KeyWord" />
      </node>
      <node concept="3F0ifn" id="6liWaRMAiqf" role="3EZMnx">
        <property role="3F0ifm" value="&lt;" />
        <ref role="1k5W1q" to="tpen:75A9veqzBn9" resolve="LeftAngleBracket" />
        <node concept="11LMrY" id="2eOtvO7hRix" role="3F10Kt">
          <property role="VOm3f" value="true" />
        </node>
        <node concept="11L4FC" id="2eOtvO7hRiy" role="3F10Kt">
          <property role="VOm3f" value="true" />
        </node>
      </node>
      <node concept="1iCGBv" id="6liWaRMAiqa" role="3EZMnx">
        <ref role="1NtTu8" to="uhxm:6liWaRMAiq2" />
        <node concept="1sVBvm" id="6liWaRMAiqb" role="1sWHZn">
          <node concept="3F0A7n" id="6liWaRMAiqd" role="2wV5jI">
            <property role="1Intyy" value="true" />
            <ref role="1NtTu8" to="tpck:h0TrG11" resolve="name" />
          </node>
        </node>
      </node>
      <node concept="3F0ifn" id="6liWaRMAiqh" role="3EZMnx">
        <property role="3F0ifm" value="&gt;" />
        <ref role="1k5W1q" to="tpen:75A9veqzBna" resolve="RightAngleBracket" />
      </node>
      <node concept="2iRfu4" id="6liWaRMAiq7" role="2iSdaV" />
    </node>
  </node>
  <node concept="PKFIW" id="5FAUXTS8cTz">
    <property role="TrG5h" value="BeforeTasksComponent" />
    <property role="3GE5qa" value="execution" />
    <ref role="1XX52x" to="uhxm:25jQf71XihT" resolve="AbstractRunConfigurationExecutor" />
    <node concept="3EZMnI" id="5FAUXTS8cT$" role="2wV5jI">
      <node concept="VPM3Z" id="5FAUXTS8cT_" role="3F10Kt">
        <property role="VOm3f" value="false" />
      </node>
      <node concept="3XFhqQ" id="5FAUXTS8cTA" role="3EZMnx" />
      <node concept="3EZMnI" id="5FAUXTS8cTB" role="3EZMnx">
        <node concept="VPM3Z" id="5FAUXTS8cTC" role="3F10Kt">
          <property role="VOm3f" value="false" />
        </node>
        <node concept="3F0ifn" id="5FAUXTS8cTD" role="3EZMnx">
          <property role="3F0ifm" value="before:" />
          <ref role="1k5W1q" to="tpen:hgVS8CF" resolve="KeyWord" />
        </node>
        <node concept="3EZMnI" id="5FAUXTS8cTE" role="3EZMnx">
          <node concept="2iRfu4" id="5FAUXTS8cTF" role="2iSdaV" />
          <node concept="3XFhqQ" id="5FAUXTS8cTG" role="3EZMnx" />
          <node concept="3F2HdR" id="5FAUXTS8cTH" role="3EZMnx">
            <ref role="1NtTu8" to="uhxm:5FAUXTS7LZB" />
            <node concept="2iRkQZ" id="5FAUXTS8cTI" role="2czzBx" />
          </node>
        </node>
        <node concept="2iRkQZ" id="5FAUXTS8cTJ" role="2iSdaV" />
      </node>
      <node concept="2iRfu4" id="5FAUXTS8cTK" role="2iSdaV" />
    </node>
  </node>
  <node concept="24kQdi" id="5FAUXTS7LZq">
    <property role="3GE5qa" value="before" />
    <ref role="1XX52x" to="uhxm:5FAUXTS7LZo" resolve="BeforeTaskCall" />
    <node concept="3EZMnI" id="5FAUXTS7LZs" role="2wV5jI">
      <node concept="l2Vlx" id="5FAUXTS7LZu" role="2iSdaV" />
      <node concept="1iCGBv" id="5FAUXTS7LZv" role="3EZMnx">
        <ref role="1NtTu8" to="uhxm:5FAUXTS7LZp" />
        <node concept="1sVBvm" id="5FAUXTS7LZw" role="1sWHZn">
          <node concept="3F0A7n" id="5FAUXTS7LZy" role="2wV5jI">
            <property role="1Intyy" value="true" />
            <ref role="1NtTu8" to="tpck:h0TrG11" resolve="name" />
          </node>
        </node>
      </node>
      <node concept="3F0ifn" id="5FAUXTS7LZ$" role="3EZMnx">
        <property role="3F0ifm" value="(" />
        <ref role="1k5W1q" to="tpen:hY9fg1G" resolve="LeftParenAfterName" />
      </node>
      <node concept="3F2HdR" id="4JYgQwOvPg2" role="3EZMnx">
        <property role="Q2I2d" value="punctuation" />
        <property role="2czwfO" value="," />
        <ref role="1NtTu8" to="uhxm:4JYgQwOvPg0" />
        <node concept="l2Vlx" id="4JYgQwOvPg3" role="2czzBx" />
      </node>
      <node concept="3F0ifn" id="5FAUXTS7LZA" role="3EZMnx">
        <property role="3F0ifm" value=")" />
        <ref role="1k5W1q" to="tpen:hFCSUmN" resolve="RightParen" />
      </node>
    </node>
  </node>
  <node concept="24kQdi" id="3aewtBM3d7x">
    <property role="3GE5qa" value="producer" />
    <ref role="1XX52x" to="uhxm:3aewtBM3d7u" resolve="RunConfigurationCreator" />
    <node concept="3EZMnI" id="3aewtBM3d7z" role="2wV5jI">
      <node concept="1iCGBv" id="3aewtBM3d7A" role="3EZMnx">
        <ref role="1NtTu8" to="uhxm:3aewtBM3d7v" />
        <node concept="pkWqt" id="Oo_j69cplU" role="pqm2j">
          <node concept="3clFbS" id="Oo_j69cplV" role="2VODD2">
            <node concept="3clFbF" id="Oo_j69cplW" role="3cqZAp">
              <node concept="22lmx$" id="Oo_j69cpna" role="3clFbG">
                <node concept="2OqwBi" id="Oo_j69cpoE" role="3uHU7w">
                  <node concept="2OqwBi" id="Oo_j69cpoa" role="2Oq$k0">
                    <node concept="2OqwBi" id="Oo_j69cpny" role="2Oq$k0">
                      <node concept="pncrf" id="Oo_j69cpnd" role="2Oq$k0" />
                      <node concept="3TrEf2" id="Oo_j69cpnC" role="2OqNvi">
                        <ref role="3Tt5mk" to="uhxm:3aewtBM3d7v" />
                      </node>
                    </node>
                    <node concept="3CFZ6_" id="Oo_j69cpog" role="2OqNvi">
                      <node concept="3CFYIy" id="Oo_j69cpok" role="3CFYIz">
                        <ref role="3CFYIx" to="fb9u:7YdSxSAfPwp" resolve="DeprecatedAnnotation" />
                      </node>
                    </node>
                  </node>
                  <node concept="3w_OXm" id="Oo_j69cpoK" role="2OqNvi" />
                </node>
                <node concept="2OqwBi" id="Oo_j69cpmI" role="3uHU7B">
                  <node concept="2OqwBi" id="Oo_j69cpmi" role="2Oq$k0">
                    <node concept="pncrf" id="Oo_j69cplX" role="2Oq$k0" />
                    <node concept="3TrEf2" id="Oo_j69cpmo" role="2OqNvi">
                      <ref role="3Tt5mk" to="uhxm:3aewtBM3d7v" />
                    </node>
                  </node>
                  <node concept="3w_OXm" id="Oo_j69cpmO" role="2OqNvi" />
                </node>
              </node>
            </node>
          </node>
        </node>
        <node concept="1sVBvm" id="3aewtBM3d7B" role="1sWHZn">
          <node concept="3F0A7n" id="3aewtBM3d7D" role="2wV5jI">
            <property role="1Intyy" value="true" />
            <ref role="1NtTu8" to="tpck:h0TrG11" resolve="name" />
            <ref role="1k5W1q" to="4l28:Oo_j69cpkK" resolve="persistentConfigurationRef" />
          </node>
        </node>
      </node>
      <node concept="1iCGBv" id="Oo_j69cplR" role="3EZMnx">
        <ref role="1NtTu8" to="uhxm:3aewtBM3d7v" />
        <node concept="1sVBvm" id="Oo_j69cplS" role="1sWHZn">
          <node concept="3F0A7n" id="Oo_j69cplT" role="2wV5jI">
            <property role="1Intyy" value="true" />
            <ref role="1NtTu8" to="tpck:h0TrG11" resolve="name" />
            <ref role="1k5W1q" to="4l28:Oo_j69cpkM" resolve="persistentConfigurationRefDeprecated" />
          </node>
        </node>
        <node concept="pkWqt" id="Oo_j69cpoL" role="pqm2j">
          <node concept="3clFbS" id="Oo_j69cpoM" role="2VODD2">
            <node concept="3clFbF" id="Oo_j69cpoN" role="3cqZAp">
              <node concept="1Wc70l" id="Oo_j69cpp5" role="3clFbG">
                <node concept="2OqwBi" id="Oo_j69cpp6" role="3uHU7B">
                  <node concept="2OqwBi" id="Oo_j69cpp7" role="2Oq$k0">
                    <node concept="pncrf" id="Oo_j69cpp8" role="2Oq$k0" />
                    <node concept="3TrEf2" id="Oo_j69cpp9" role="2OqNvi">
                      <ref role="3Tt5mk" to="uhxm:3aewtBM3d7v" />
                    </node>
                  </node>
                  <node concept="3x8VRR" id="Oo_j69cppa" role="2OqNvi" />
                </node>
                <node concept="2OqwBi" id="Oo_j69cppb" role="3uHU7w">
                  <node concept="2OqwBi" id="Oo_j69cppc" role="2Oq$k0">
                    <node concept="2OqwBi" id="Oo_j69cppd" role="2Oq$k0">
                      <node concept="pncrf" id="Oo_j69cppe" role="2Oq$k0" />
                      <node concept="3TrEf2" id="Oo_j69cppf" role="2OqNvi">
                        <ref role="3Tt5mk" to="uhxm:3aewtBM3d7v" />
                      </node>
                    </node>
                    <node concept="3CFZ6_" id="Oo_j69cppg" role="2OqNvi">
                      <node concept="3CFYIy" id="Oo_j69cpph" role="3CFYIz">
                        <ref role="3CFYIx" to="fb9u:7YdSxSAfPwp" resolve="DeprecatedAnnotation" />
                      </node>
                    </node>
                  </node>
                  <node concept="3x8VRR" id="Oo_j69cppk" role="2OqNvi" />
                </node>
              </node>
            </node>
          </node>
        </node>
      </node>
      <node concept="3F0ifn" id="3aewtBM3d7F" role="3EZMnx">
        <property role="3F0ifm" value="(" />
        <ref role="1k5W1q" to="tpen:hY9fg1G" resolve="LeftParenAfterName" />
      </node>
      <node concept="3F1sOY" id="toP3SpHfQS" role="3EZMnx">
        <ref role="1NtTu8" to="uhxm:toP3SpHfQQ" />
      </node>
      <node concept="3F0ifn" id="3aewtBM3d7H" role="3EZMnx">
        <property role="3F0ifm" value=")" />
        <ref role="1k5W1q" to="tpen:hFCSUmN" resolve="RightParen" />
      </node>
      <node concept="2iRfu4" id="3aewtBM3d7_" role="2iSdaV" />
    </node>
  </node>
  <node concept="PKFIW" id="5pE1_aqYtvw">
    <property role="TrG5h" value="SimpleCanRunAndDebug" />
    <ref role="1XX52x" to="uhxm:6LlKjXrMe7G" resolve="RunConfigurationExecutor" />
    <node concept="3EZMnI" id="5pE1_aqYtvx" role="2wV5jI">
      <node concept="2iRfu4" id="5pE1_aqYtvy" role="2iSdaV" />
      <node concept="3F0ifn" id="5pE1_aqYtvz" role="3EZMnx">
        <property role="3F0ifm" value="can:" />
        <ref role="1k5W1q" to="tpen:hgVS8CF" resolve="KeyWord" />
      </node>
      <node concept="3EZMnI" id="5pE1_aqYtv$" role="3EZMnx">
        <node concept="VPM3Z" id="5pE1_aqYtv_" role="3F10Kt">
          <property role="VOm3f" value="false" />
        </node>
        <node concept="3XFhqQ" id="5pE1_aqYtvA" role="3EZMnx" />
        <node concept="3F0ifn" id="5pE1_aqYtvB" role="3EZMnx">
          <property role="3F0ifm" value="run" />
          <ref role="1k5W1q" to="tpen:hgVS8CF" resolve="KeyWord" />
          <node concept="pkWqt" id="5pE1_aqYtvC" role="pqm2j">
            <node concept="3clFbS" id="5pE1_aqYtvD" role="2VODD2">
              <node concept="3clFbF" id="5pE1_aqYtvE" role="3cqZAp">
                <node concept="2OqwBi" id="5pE1_aqYtvF" role="3clFbG">
                  <node concept="pncrf" id="5pE1_aqYtvG" role="2Oq$k0" />
                  <node concept="3TrcHB" id="5pE1_aqYtvH" role="2OqNvi">
                    <ref role="3TsBF5" to="uhxm:58U6AMn1$2b" resolve="canRun" />
                  </node>
                </node>
              </node>
            </node>
          </node>
          <node concept="OXEIz" id="5pE1_aqYtvI" role="P5bDN">
            <node concept="1oHujT" id="5pE1_aqYtvJ" role="OY2wv">
              <property role="1oHujS" value="can't run" />
              <node concept="1oIgkG" id="5pE1_aqYtvK" role="1oHujR">
                <node concept="3clFbS" id="5pE1_aqYtvL" role="2VODD2">
                  <node concept="3clFbF" id="5pE1_aqYtvM" role="3cqZAp">
                    <node concept="2OqwBi" id="5pE1_aqYtvN" role="3clFbG">
                      <node concept="2OqwBi" id="5pE1_aqYtvO" role="2Oq$k0">
                        <node concept="3GMtW1" id="5pE1_aqYtvP" role="2Oq$k0" />
                        <node concept="3TrcHB" id="5pE1_aqYtvQ" role="2OqNvi">
                          <ref role="3TsBF5" to="uhxm:58U6AMn1$2b" resolve="canRun" />
                        </node>
                      </node>
                      <node concept="tyxLq" id="5pE1_aqYtvR" role="2OqNvi">
                        <node concept="3clFbT" id="5pE1_aqYtvS" role="tz02z">
                          <property role="3clFbU" value="false" />
                        </node>
                      </node>
                    </node>
                  </node>
                </node>
              </node>
            </node>
          </node>
        </node>
        <node concept="3F0ifn" id="5pE1_aqYtvT" role="3EZMnx">
          <property role="3F0ifm" value="can't run" />
          <node concept="VechU" id="5pE1_aqYtvU" role="3F10Kt">
            <property role="Vb096" value="lightGray" />
          </node>
          <node concept="pkWqt" id="5pE1_aqYtvV" role="pqm2j">
            <node concept="3clFbS" id="5pE1_aqYtvW" role="2VODD2">
              <node concept="3clFbF" id="5pE1_aqYtvX" role="3cqZAp">
                <node concept="3fqX7Q" id="5pE1_aqYtvY" role="3clFbG">
                  <node concept="2OqwBi" id="5pE1_aqYtvZ" role="3fr31v">
                    <node concept="pncrf" id="5pE1_aqYtw0" role="2Oq$k0" />
                    <node concept="3TrcHB" id="5pE1_aqYtw1" role="2OqNvi">
                      <ref role="3TsBF5" to="uhxm:58U6AMn1$2b" resolve="canRun" />
                    </node>
                  </node>
                </node>
              </node>
            </node>
          </node>
          <node concept="OXEIz" id="5pE1_aqYtw2" role="P5bDN">
            <node concept="1oHujT" id="5pE1_aqYtw3" role="OY2wv">
              <property role="1oHujS" value="run" />
              <node concept="1oIgkG" id="5pE1_aqYtw4" role="1oHujR">
                <node concept="3clFbS" id="5pE1_aqYtw5" role="2VODD2">
                  <node concept="3clFbF" id="5pE1_aqYtw6" role="3cqZAp">
                    <node concept="2OqwBi" id="5pE1_aqYtw7" role="3clFbG">
                      <node concept="2OqwBi" id="5pE1_aqYtw8" role="2Oq$k0">
                        <node concept="3GMtW1" id="5pE1_aqYtw9" role="2Oq$k0" />
                        <node concept="3TrcHB" id="5pE1_aqYtwa" role="2OqNvi">
                          <ref role="3TsBF5" to="uhxm:58U6AMn1$2b" resolve="canRun" />
                        </node>
                      </node>
                      <node concept="tyxLq" id="5pE1_aqYtwb" role="2OqNvi">
                        <node concept="3clFbT" id="5pE1_aqYtwc" role="tz02z">
                          <property role="3clFbU" value="true" />
                        </node>
                      </node>
                    </node>
                  </node>
                </node>
              </node>
            </node>
          </node>
        </node>
        <node concept="2iRfu4" id="5pE1_aqYtwd" role="2iSdaV" />
      </node>
      <node concept="3F0ifn" id="5pE1_aqYtwe" role="3EZMnx">
        <property role="3F0ifm" value="," />
      </node>
      <node concept="3EZMnI" id="5pE1_aqYtwf" role="3EZMnx">
        <node concept="VPM3Z" id="5pE1_aqYtwg" role="3F10Kt">
          <property role="VOm3f" value="false" />
        </node>
        <node concept="3F0ifn" id="5pE1_aqYtwh" role="3EZMnx">
          <property role="3F0ifm" value="debug" />
          <ref role="1k5W1q" to="tpen:hgVS8CF" resolve="KeyWord" />
          <node concept="pkWqt" id="5pE1_aqYtwi" role="pqm2j">
            <node concept="3clFbS" id="5pE1_aqYtwj" role="2VODD2">
              <node concept="3clFbF" id="5pE1_aqYtwk" role="3cqZAp">
                <node concept="2OqwBi" id="5pE1_aqYtwl" role="3clFbG">
                  <node concept="pncrf" id="5pE1_aqYtwm" role="2Oq$k0" />
                  <node concept="3TrcHB" id="5pE1_aqYtwU" role="2OqNvi">
                    <ref role="3TsBF5" to="uhxm:5pE1_aqYtvt" resolve="canDebug" />
                  </node>
                </node>
              </node>
            </node>
          </node>
          <node concept="OXEIz" id="5pE1_aqYtwo" role="P5bDN">
            <node concept="1oHujT" id="5pE1_aqYtwp" role="OY2wv">
              <property role="1oHujS" value="can't debug" />
              <node concept="1oIgkG" id="5pE1_aqYtwq" role="1oHujR">
                <node concept="3clFbS" id="5pE1_aqYtwr" role="2VODD2">
                  <node concept="3clFbF" id="5pE1_aqYtws" role="3cqZAp">
                    <node concept="2OqwBi" id="5pE1_aqYtwt" role="3clFbG">
                      <node concept="2OqwBi" id="5pE1_aqYtwu" role="2Oq$k0">
                        <node concept="3GMtW1" id="5pE1_aqYtwv" role="2Oq$k0" />
                        <node concept="3TrcHB" id="5pE1_aqYtwT" role="2OqNvi">
                          <ref role="3TsBF5" to="uhxm:5pE1_aqYtvt" resolve="canDebug" />
                        </node>
                      </node>
                      <node concept="tyxLq" id="5pE1_aqYtwx" role="2OqNvi">
                        <node concept="3clFbT" id="5pE1_aqYtwy" role="tz02z">
                          <property role="3clFbU" value="false" />
                        </node>
                      </node>
                    </node>
                  </node>
                </node>
              </node>
            </node>
          </node>
        </node>
        <node concept="3F0ifn" id="5pE1_aqYtwz" role="3EZMnx">
          <property role="3F0ifm" value="can't debug" />
          <node concept="VechU" id="5pE1_aqYtw$" role="3F10Kt">
            <property role="Vb096" value="lightGray" />
          </node>
          <node concept="pkWqt" id="5pE1_aqYtw_" role="pqm2j">
            <node concept="3clFbS" id="5pE1_aqYtwA" role="2VODD2">
              <node concept="3clFbF" id="5pE1_aqYtwB" role="3cqZAp">
                <node concept="3fqX7Q" id="5pE1_aqYtwC" role="3clFbG">
                  <node concept="2OqwBi" id="5pE1_aqYtwD" role="3fr31v">
                    <node concept="pncrf" id="5pE1_aqYtwE" role="2Oq$k0" />
                    <node concept="3TrcHB" id="5pE1_aqYtwW" role="2OqNvi">
                      <ref role="3TsBF5" to="uhxm:5pE1_aqYtvt" resolve="canDebug" />
                    </node>
                  </node>
                </node>
              </node>
            </node>
          </node>
          <node concept="OXEIz" id="5pE1_aqYtwG" role="P5bDN">
            <node concept="1oHujT" id="5pE1_aqYtwH" role="OY2wv">
              <property role="1oHujS" value="debug" />
              <node concept="1oIgkG" id="5pE1_aqYtwI" role="1oHujR">
                <node concept="3clFbS" id="5pE1_aqYtwJ" role="2VODD2">
                  <node concept="3clFbF" id="5pE1_aqYtwK" role="3cqZAp">
                    <node concept="2OqwBi" id="5pE1_aqYtwL" role="3clFbG">
                      <node concept="2OqwBi" id="5pE1_aqYtwM" role="2Oq$k0">
                        <node concept="3GMtW1" id="5pE1_aqYtwN" role="2Oq$k0" />
                        <node concept="3TrcHB" id="5pE1_aqYtwV" role="2OqNvi">
                          <ref role="3TsBF5" to="uhxm:5pE1_aqYtvt" resolve="canDebug" />
                        </node>
                      </node>
                      <node concept="tyxLq" id="5pE1_aqYtwP" role="2OqNvi">
                        <node concept="3clFbT" id="5pE1_aqYtwQ" role="tz02z">
                          <property role="3clFbU" value="true" />
                        </node>
                      </node>
                    </node>
                  </node>
                </node>
              </node>
            </node>
          </node>
        </node>
        <node concept="2iRfu4" id="5pE1_aqYtwR" role="2iSdaV" />
      </node>
    </node>
  </node>
  <node concept="PKFIW" id="5pE1_aqYtwX">
    <property role="TrG5h" value="ComplexCanRunAndDebug" />
    <ref role="1XX52x" to="uhxm:6LlKjXrMe7G" resolve="RunConfigurationExecutor" />
    <node concept="3EZMnI" id="5pE1_aqYtwY" role="2wV5jI">
      <node concept="VPM3Z" id="5pE1_aqYtwZ" role="3F10Kt">
        <property role="VOm3f" value="false" />
      </node>
      <node concept="2iRkQZ" id="5pE1_aqYtx0" role="2iSdaV" />
      <node concept="3F0ifn" id="5pE1_aqYtx1" role="3EZMnx">
        <property role="3F0ifm" value="can:" />
        <ref role="1k5W1q" to="tpen:hgVS8CF" resolve="KeyWord" />
      </node>
      <node concept="3EZMnI" id="5pE1_aqYtx2" role="3EZMnx">
        <node concept="VPM3Z" id="5pE1_aqYtx3" role="3F10Kt">
          <property role="VOm3f" value="false" />
        </node>
        <node concept="3XFhqQ" id="5pE1_aqYtx4" role="3EZMnx" />
        <node concept="3F0ifn" id="5pE1_aqYtx5" role="3EZMnx">
          <property role="3F0ifm" value="run" />
          <ref role="1k5W1q" to="tpen:hgVS8CF" resolve="KeyWord" />
          <node concept="pkWqt" id="5pE1_aqYtx6" role="pqm2j">
            <node concept="3clFbS" id="5pE1_aqYtx7" role="2VODD2">
              <node concept="3clFbF" id="5pE1_aqYtx8" role="3cqZAp">
                <node concept="2OqwBi" id="5pE1_aqYtx9" role="3clFbG">
                  <node concept="pncrf" id="5pE1_aqYtxa" role="2Oq$k0" />
                  <node concept="3TrcHB" id="5pE1_aqYtxb" role="2OqNvi">
                    <ref role="3TsBF5" to="uhxm:58U6AMn1$2b" resolve="canRun" />
                  </node>
                </node>
              </node>
            </node>
          </node>
          <node concept="OXEIz" id="5pE1_aqYtxc" role="P5bDN">
            <node concept="1oHujT" id="5pE1_aqYtxd" role="OY2wv">
              <property role="1oHujS" value="can't run" />
              <node concept="1oIgkG" id="5pE1_aqYtxe" role="1oHujR">
                <node concept="3clFbS" id="5pE1_aqYtxf" role="2VODD2">
                  <node concept="3clFbF" id="5pE1_aqYtxg" role="3cqZAp">
                    <node concept="2OqwBi" id="5pE1_aqYtxh" role="3clFbG">
                      <node concept="2OqwBi" id="5pE1_aqYtxi" role="2Oq$k0">
                        <node concept="3GMtW1" id="5pE1_aqYtxj" role="2Oq$k0" />
                        <node concept="3TrcHB" id="5pE1_aqYtxk" role="2OqNvi">
                          <ref role="3TsBF5" to="uhxm:58U6AMn1$2b" resolve="canRun" />
                        </node>
                      </node>
                      <node concept="tyxLq" id="5pE1_aqYtxl" role="2OqNvi">
                        <node concept="3clFbT" id="5pE1_aqYtxm" role="tz02z">
                          <property role="3clFbU" value="false" />
                        </node>
                      </node>
                    </node>
                  </node>
                </node>
              </node>
            </node>
          </node>
        </node>
        <node concept="3F0ifn" id="5pE1_aqYtxn" role="3EZMnx">
          <property role="3F0ifm" value="can't run" />
          <node concept="VechU" id="5pE1_aqYtxo" role="3F10Kt">
            <property role="Vb096" value="lightGray" />
          </node>
          <node concept="pkWqt" id="5pE1_aqYtxp" role="pqm2j">
            <node concept="3clFbS" id="5pE1_aqYtxq" role="2VODD2">
              <node concept="3clFbF" id="5pE1_aqYtxr" role="3cqZAp">
                <node concept="3fqX7Q" id="5pE1_aqYtxs" role="3clFbG">
                  <node concept="2OqwBi" id="5pE1_aqYtxt" role="3fr31v">
                    <node concept="pncrf" id="5pE1_aqYtxu" role="2Oq$k0" />
                    <node concept="3TrcHB" id="5pE1_aqYtxv" role="2OqNvi">
                      <ref role="3TsBF5" to="uhxm:58U6AMn1$2b" resolve="canRun" />
                    </node>
                  </node>
                </node>
              </node>
            </node>
          </node>
          <node concept="OXEIz" id="5pE1_aqYtxw" role="P5bDN">
            <node concept="1oHujT" id="5pE1_aqYtxx" role="OY2wv">
              <property role="1oHujS" value="run" />
              <node concept="1oIgkG" id="5pE1_aqYtxy" role="1oHujR">
                <node concept="3clFbS" id="5pE1_aqYtxz" role="2VODD2">
                  <node concept="3clFbF" id="5pE1_aqYtx$" role="3cqZAp">
                    <node concept="2OqwBi" id="5pE1_aqYtx_" role="3clFbG">
                      <node concept="2OqwBi" id="5pE1_aqYtxA" role="2Oq$k0">
                        <node concept="3GMtW1" id="5pE1_aqYtxB" role="2Oq$k0" />
                        <node concept="3TrcHB" id="5pE1_aqYtxC" role="2OqNvi">
                          <ref role="3TsBF5" to="uhxm:58U6AMn1$2b" resolve="canRun" />
                        </node>
                      </node>
                      <node concept="tyxLq" id="5pE1_aqYtxD" role="2OqNvi">
                        <node concept="3clFbT" id="5pE1_aqYtxE" role="tz02z">
                          <property role="3clFbU" value="true" />
                        </node>
                      </node>
                    </node>
                  </node>
                </node>
              </node>
            </node>
          </node>
        </node>
        <node concept="2iRfu4" id="5pE1_aqYtxF" role="2iSdaV" />
      </node>
      <node concept="3EZMnI" id="5pE1_aqYtxG" role="3EZMnx">
        <node concept="VPM3Z" id="5pE1_aqYtxH" role="3F10Kt">
          <property role="VOm3f" value="false" />
        </node>
        <node concept="3XFhqQ" id="5pE1_aqYtxI" role="3EZMnx" />
        <node concept="3EZMnI" id="5pE1_aqYtxJ" role="3EZMnx">
          <node concept="VPM3Z" id="5pE1_aqYtxK" role="3F10Kt">
            <property role="VOm3f" value="false" />
          </node>
          <node concept="3F0ifn" id="5pE1_aqYtxL" role="3EZMnx">
            <property role="3F0ifm" value="debug under" />
            <ref role="1k5W1q" to="tpen:hgVS8CF" resolve="KeyWord" />
            <node concept="OXEIz" id="5pE1_aqYtxM" role="P5bDN">
              <node concept="1oHujT" id="5pE1_aqYtxN" role="OY2wv">
                <property role="1oHujS" value="can't debug" />
                <node concept="1oIgkG" id="5pE1_aqYtxO" role="1oHujR">
                  <node concept="3clFbS" id="5pE1_aqYtxP" role="2VODD2">
                    <node concept="3clFbF" id="5pE1_aqYtxQ" role="3cqZAp">
                      <node concept="2OqwBi" id="5pE1_aqYtxR" role="3clFbG">
                        <node concept="2OqwBi" id="5pE1_aqYtxS" role="2Oq$k0">
                          <node concept="3TrEf2" id="5pE1_aqYtxT" role="2OqNvi">
                            <ref role="3Tt5mk" to="uhxm:5P5ty4$bo88" />
                          </node>
                          <node concept="3GMtW1" id="5pE1_aqYtxU" role="2Oq$k0" />
                        </node>
                        <node concept="1PgB_6" id="5pE1_aqYtxV" role="2OqNvi" />
                      </node>
                    </node>
                  </node>
                </node>
              </node>
            </node>
          </node>
          <node concept="3F1sOY" id="5pE1_aqYtxW" role="3EZMnx">
            <ref role="1NtTu8" to="uhxm:5P5ty4$bo88" />
          </node>
          <node concept="2iRfu4" id="5pE1_aqYtxX" role="2iSdaV" />
          <node concept="pkWqt" id="5pE1_aqYtxY" role="pqm2j">
            <node concept="3clFbS" id="5pE1_aqYtxZ" role="2VODD2">
              <node concept="3clFbF" id="5pE1_aqYty0" role="3cqZAp">
                <node concept="2OqwBi" id="2_1mL0eofYj" role="3clFbG">
                  <node concept="2OqwBi" id="5pE1_aqYty2" role="2Oq$k0">
                    <node concept="pncrf" id="5pE1_aqYty4" role="2Oq$k0" />
                    <node concept="Bykcj" id="2_1mL0eofYg" role="2OqNvi">
                      <node concept="1aIX9F" id="2_1mL0eofYh" role="1xVPHs">
                        <node concept="26LbJo" id="2_1mL0eofYi" role="1aIX9E">
                          <ref role="26LbJp" to="uhxm:5P5ty4$bo88" />
                        </node>
                      </node>
                    </node>
                  </node>
                  <node concept="3GX2aA" id="2_1mL0eofYk" role="2OqNvi" />
                </node>
              </node>
            </node>
          </node>
        </node>
        <node concept="3F0ifn" id="5pE1_aqYty6" role="3EZMnx">
          <property role="3F0ifm" value="can't debug" />
          <node concept="VechU" id="5pE1_aqYty7" role="3F10Kt">
            <property role="Vb096" value="lightGray" />
          </node>
          <node concept="pkWqt" id="5pE1_aqYty8" role="pqm2j">
            <node concept="3clFbS" id="5pE1_aqYty9" role="2VODD2">
              <node concept="3clFbF" id="5pE1_aqYtya" role="3cqZAp">
                <node concept="2OqwBi" id="5pE1_aqYtyb" role="3clFbG">
                  <node concept="2OqwBi" id="5pE1_aqYtyc" role="2Oq$k0">
                    <node concept="3TrEf2" id="5pE1_aqYtyd" role="2OqNvi">
                      <ref role="3Tt5mk" to="uhxm:5P5ty4$bo88" />
                    </node>
                    <node concept="pncrf" id="5pE1_aqYtye" role="2Oq$k0" />
                  </node>
                  <node concept="3w_OXm" id="5pE1_aqYtyf" role="2OqNvi" />
                </node>
              </node>
            </node>
          </node>
          <node concept="OXEIz" id="5pE1_aqYtyg" role="P5bDN">
            <node concept="1oHujT" id="5pE1_aqYtyh" role="OY2wv">
              <property role="1oHujS" value="debug" />
              <node concept="1oIgkG" id="5pE1_aqYtyi" role="1oHujR">
                <node concept="3clFbS" id="5pE1_aqYtyj" role="2VODD2">
                  <node concept="3clFbF" id="5pE1_aqYtyk" role="3cqZAp">
                    <node concept="2OqwBi" id="5pE1_aqYtyl" role="3clFbG">
                      <node concept="2OqwBi" id="5pE1_aqYtym" role="2Oq$k0">
                        <node concept="3TrEf2" id="5pE1_aqYtyn" role="2OqNvi">
                          <ref role="3Tt5mk" to="uhxm:5P5ty4$bo88" />
                        </node>
                        <node concept="3GMtW1" id="5pE1_aqYtyo" role="2Oq$k0" />
                      </node>
                      <node concept="2DeJnY" id="3xwsMyQkE_M" role="2OqNvi">
                        <ref role="1A9B2P" to="86gq:5P5ty4$bhrP" resolve="DebuggerConfiguration" />
                      </node>
                    </node>
                  </node>
                </node>
              </node>
            </node>
          </node>
        </node>
        <node concept="2iRfu4" id="5pE1_aqYtyq" role="2iSdaV" />
      </node>
    </node>
  </node>
  <node concept="PKFIW" id="1ovLDatNZeH">
    <property role="TrG5h" value="StartProcessWithTool_Component" />
    <ref role="1XX52x" to="uhxm:O$iR4JBkjh" resolve="StartProcessHandlerStatement" />
    <node concept="3EZMnI" id="1ovLDatNZeI" role="2wV5jI">
      <node concept="VPM3Z" id="1ovLDatNZeJ" role="3F10Kt">
        <property role="VOm3f" value="false" />
      </node>
      <node concept="3F0ifn" id="1ovLDatNZeK" role="3EZMnx">
        <property role="3F0ifm" value="with tool" />
        <ref role="1k5W1q" to="tpen:hgVS8CF" resolve="KeyWord" />
      </node>
      <node concept="3F1sOY" id="1ovLDatNZeL" role="3EZMnx">
        <ref role="1NtTu8" to="uhxm:1ovLDatNZew" />
      </node>
      <node concept="l2Vlx" id="1ovLDatNZeM" role="2iSdaV" />
    </node>
  </node>
  <node concept="24kQdi" id="1ovLDatOwvo">
    <property role="3GE5qa" value="execution.console" />
    <ref role="1XX52x" to="uhxm:1ovLDatOqMj" resolve="ConsoleType" />
    <node concept="PMmxH" id="2wdLO7KhYd_" role="2wV5jI">
      <property role="1cu_pB" value="0" />
      <ref role="PMmxG" to="tpco:2wZex4PafBj" resolve="alias" />
      <ref role="1k5W1q" to="tpen:hgVS8CF" resolve="KeyWord" />
    </node>
  </node>
  <node concept="24kQdi" id="1ovLDatO$Eb">
    <property role="3GE5qa" value="execution.console" />
    <ref role="1XX52x" to="uhxm:1ovLDatO$Ea" resolve="ConsoleCreator" />
    <node concept="3EZMnI" id="1ovLDatO$Nf" role="2wV5jI">
      <node concept="l2Vlx" id="1ovLDatO$Ng" role="2iSdaV" />
      <node concept="3F0ifn" id="1ovLDatO$Ed" role="3EZMnx">
        <property role="3F0ifm" value="console" />
        <ref role="1k5W1q" to="tpen:hgVS8CF" resolve="KeyWord" />
      </node>
      <node concept="3F0ifn" id="1ovLDatO$Ni" role="3EZMnx">
        <property role="3F0ifm" value="(" />
        <ref role="1k5W1q" to="tpen:hY9fg1G" resolve="LeftParenAfterName" />
      </node>
      <node concept="3F1sOY" id="1ovLDatO$Nk" role="3EZMnx">
        <ref role="1NtTu8" to="uhxm:1ovLDatO$Nd" />
      </node>
      <node concept="3F0ifn" id="1ovLDatO$Nm" role="3EZMnx">
        <property role="3F0ifm" value="," />
        <node concept="11L4FC" id="1ovLDatO$No" role="3F10Kt">
          <property role="VOm3f" value="true" />
        </node>
      </node>
      <node concept="3F1sOY" id="1ovLDatO$Nq" role="3EZMnx">
        <ref role="1NtTu8" to="uhxm:1ovLDatO$Ne" />
      </node>
      <node concept="3F0ifn" id="1ovLDatO$Ns" role="3EZMnx">
        <property role="3F0ifm" value=")" />
        <ref role="1k5W1q" to="tpen:hFCSUmN" resolve="RightParen" />
      </node>
    </node>
  </node>
  <node concept="24kQdi" id="4IJMzQ1z1X$">
    <ref role="1XX52x" to="uhxm:4IJMzQ1z1OE" resolve="GetProjectOperation" />
    <node concept="PMmxH" id="2wdLO7KhYap" role="2wV5jI">
      <property role="1cu_pB" value="0" />
      <ref role="PMmxG" to="tpco:2wZex4PafBj" resolve="alias" />
      <ref role="1k5W1q" to="jfm4:O$iR4JBsQo" resolve="operation" />
    </node>
  </node>
  <node concept="24kQdi" id="1QpbsTe85L">
    <property role="3GE5qa" value="execution" />
    <ref role="1XX52x" to="uhxm:1QpbsTe7X$" resolve="EnvironmentExpression" />
    <node concept="PMmxH" id="1QpbsTgTcf" role="2wV5jI">
      <ref role="PMmxG" to="tpco:2wZex4PafBj" resolve="alias" />
      <ref role="1k5W1q" to="tpen:hgVS8CF" resolve="KeyWord" />
      <node concept="Vb9p2" id="6bBAl1hSXuI" role="3F10Kt">
        <property role="Vbekb" value="ITALIC" />
      </node>
    </node>
  </node>
</model>

