<?xml version="1.0" encoding="UTF-8"?>
<model ref="r:8b43a830-217d-43d8-a0f8-6460c443f22d(jetbrains.mps.execution.configurations.typesystem)">
  <persistence version="9" />
  <languages>
    <use id="774bf8a0-62e5-41e1-af63-f4812e60e48b" name="jetbrains.mps.baseLanguage.checkedDots" version="0" />
    <use id="756e911c-3f1f-4a48-bdf5-a2ceb91b723c" name="jetbrains.mps.execution.settings" version="0" />
    <use id="7a5dda62-9140-4668-ab76-d5ed1746f2b2" name="jetbrains.mps.lang.typesystem" version="0" />
    <devkit ref="fbc25dd2-5da4-483a-8b19-70928e1b62d7(jetbrains.mps.devkit.general-purpose)" />
  </languages>
  <imports>
    <import index="uhxm" ref="r:f3383ae6-205a-4e7c-8dd9-c29966e29e49(jetbrains.mps.execution.configurations.structure)" />
    <import index="ojho" ref="r:36b91d42-5119-45a8-b801-6a4d645ce20b(jetbrains.mps.execution.configurations.behavior)" />
    <import index="awpe" ref="r:5a505993-793e-4b2d-84cf-271f9dde39b3(jetbrains.mps.execution.lib)" />
    <import index="cjdg" ref="498d89d2-c2e9-11e2-ad49-6cf049e62fe5/java:com.intellij.execution.ui(MPS.IDEA/)" />
    <import index="4nm9" ref="498d89d2-c2e9-11e2-ad49-6cf049e62fe5/java:com.intellij.openapi.project(MPS.IDEA/)" />
    <import index="tpd4" ref="r:00000000-0000-4000-0000-011c895902b4(jetbrains.mps.lang.typesystem.structure)" />
    <import index="z1c3" ref="742f6602-5a2f-4313-aa6e-ae1cd4ffdc61/java:jetbrains.mps.project(MPS.Platform/)" />
    <import index="z1c4" ref="6ed54515-acc8-4d1e-a16c-9fd6cfe951ea/java:jetbrains.mps.project(MPS.Core/)" />
    <import index="lui2" ref="8865b7a8-5271-43d3-884c-6fd1d9cfdd34/java:org.jetbrains.mps.openapi.module(MPS.OpenAPI/)" />
    <import index="cx9y" ref="r:309aeee7-bee8-445c-b31d-35928d1da75f(jetbrains.mps.baseLanguage.tuples.structure)" />
    <import index="mhbf" ref="8865b7a8-5271-43d3-884c-6fd1d9cfdd34/java:org.jetbrains.mps.openapi.model(MPS.OpenAPI/)" />
    <import index="fhz7" ref="498d89d2-c2e9-11e2-ad49-6cf049e62fe5/java:com.intellij.execution.runners(MPS.IDEA/)" />
    <import index="3v5a" ref="498d89d2-c2e9-11e2-ad49-6cf049e62fe5/java:com.intellij.execution(MPS.IDEA/)" />
    <import index="feyl" ref="498d89d2-c2e9-11e2-ad49-6cf049e62fe5/java:com.intellij.execution.actions(MPS.IDEA/)" />
    <import index="tpee" ref="r:00000000-0000-4000-0000-011c895902ca(jetbrains.mps.baseLanguage.structure)" />
    <import index="86gq" ref="r:f516737e-c915-4042-896e-de34190042b2(jetbrains.mps.debugger.api.lang.structure)" implicit="true" />
  </imports>
  <registry>
    <language id="f3061a53-9226-4cc5-a443-f952ceaf5816" name="jetbrains.mps.baseLanguage">
      <concept id="1239714755177" name="jetbrains.mps.baseLanguage.structure.AbstractUnaryNumberOperation" flags="nn" index="2$Kvd9">
        <child id="1239714902950" name="expression" index="2$L3a6" />
      </concept>
      <concept id="1154032098014" name="jetbrains.mps.baseLanguage.structure.AbstractLoopStatement" flags="nn" index="2LF5Ji">
        <child id="1154032183016" name="body" index="2LFqv$" />
      </concept>
      <concept id="1197027756228" name="jetbrains.mps.baseLanguage.structure.DotExpression" flags="nn" index="2OqwBi">
        <child id="1197027771414" name="operand" index="2Oq$k0" />
        <child id="1197027833540" name="operation" index="2OqNvi" />
      </concept>
      <concept id="1070475926800" name="jetbrains.mps.baseLanguage.structure.StringLiteral" flags="nn" index="Xl_RD">
        <property id="1070475926801" name="value" index="Xl_RC" />
      </concept>
      <concept id="1070534370425" name="jetbrains.mps.baseLanguage.structure.IntegerType" flags="in" index="10Oyi0" />
      <concept id="1070534644030" name="jetbrains.mps.baseLanguage.structure.BooleanType" flags="in" index="10P_77" />
      <concept id="1068431474542" name="jetbrains.mps.baseLanguage.structure.VariableDeclaration" flags="ng" index="33uBYm">
        <child id="1068431790190" name="initializer" index="33vP2m" />
      </concept>
      <concept id="1068498886296" name="jetbrains.mps.baseLanguage.structure.VariableReference" flags="nn" index="37vLTw">
        <reference id="1068581517664" name="variableDeclaration" index="3cqZAo" />
      </concept>
      <concept id="1225271177708" name="jetbrains.mps.baseLanguage.structure.StringType" flags="in" index="17QB3L" />
      <concept id="4972933694980447171" name="jetbrains.mps.baseLanguage.structure.BaseVariableDeclaration" flags="ng" index="19Szcq">
        <child id="5680397130376446158" name="type" index="1tU5fm" />
      </concept>
      <concept id="1068580123159" name="jetbrains.mps.baseLanguage.structure.IfStatement" flags="nn" index="3clFbJ">
        <child id="1068580123160" name="condition" index="3clFbw" />
        <child id="1068580123161" name="ifTrue" index="3clFbx" />
      </concept>
      <concept id="1068580123136" name="jetbrains.mps.baseLanguage.structure.StatementList" flags="sn" stub="5293379017992965193" index="3clFbS">
        <child id="1068581517665" name="statement" index="3cqZAp" />
      </concept>
      <concept id="1068580320020" name="jetbrains.mps.baseLanguage.structure.IntegerConstant" flags="nn" index="3cmrfG">
        <property id="1068580320021" name="value" index="3cmrfH" />
      </concept>
      <concept id="1068581242878" name="jetbrains.mps.baseLanguage.structure.ReturnStatement" flags="nn" index="3cpWs6">
        <child id="1068581517676" name="expression" index="3cqZAk" />
      </concept>
      <concept id="1068581242864" name="jetbrains.mps.baseLanguage.structure.LocalVariableDeclarationStatement" flags="nn" index="3cpWs8">
        <child id="1068581242865" name="localVariableDeclaration" index="3cpWs9" />
      </concept>
      <concept id="1068581242863" name="jetbrains.mps.baseLanguage.structure.LocalVariableDeclaration" flags="nr" index="3cpWsn" />
      <concept id="1081506773034" name="jetbrains.mps.baseLanguage.structure.LessThanExpression" flags="nn" index="3eOVzh" />
      <concept id="1204053956946" name="jetbrains.mps.baseLanguage.structure.IMethodCall" flags="ng" index="1ndlxa">
        <reference id="1068499141037" name="baseMethodDeclaration" index="37wK5l" />
      </concept>
      <concept id="1107535904670" name="jetbrains.mps.baseLanguage.structure.ClassifierType" flags="in" index="3uibUv">
        <reference id="1107535924139" name="classifier" index="3uigEE" />
      </concept>
      <concept id="1081773326031" name="jetbrains.mps.baseLanguage.structure.BinaryOperation" flags="nn" index="3uHJSO">
        <child id="1081773367579" name="rightExpression" index="3uHU7w" />
        <child id="1081773367580" name="leftExpression" index="3uHU7B" />
      </concept>
      <concept id="1214918800624" name="jetbrains.mps.baseLanguage.structure.PostfixIncrementExpression" flags="nn" index="3uNrnE" />
      <concept id="1073239437375" name="jetbrains.mps.baseLanguage.structure.NotEqualsExpression" flags="nn" index="3y3z36" />
      <concept id="1144230876926" name="jetbrains.mps.baseLanguage.structure.AbstractForStatement" flags="nn" index="1DupvO">
        <child id="1144230900587" name="variable" index="1Duv9x" />
      </concept>
      <concept id="1144231330558" name="jetbrains.mps.baseLanguage.structure.ForStatement" flags="nn" index="1Dw8fO">
        <child id="1144231399730" name="condition" index="1Dwp0S" />
        <child id="1144231408325" name="iteration" index="1Dwrff" />
      </concept>
    </language>
    <language id="774bf8a0-62e5-41e1-af63-f4812e60e48b" name="jetbrains.mps.baseLanguage.checkedDots">
      <concept id="4079382982702596667" name="jetbrains.mps.baseLanguage.checkedDots.structure.CheckedDotExpression" flags="nn" index="2EnYce" />
    </language>
    <language id="3a13115c-633c-4c5c-bbcc-75c4219e9555" name="jetbrains.mps.lang.quotation">
      <concept id="1196350785110" name="jetbrains.mps.lang.quotation.structure.AbstractAntiquotation" flags="ng" index="2c44t0">
        <child id="1196350785111" name="expression" index="2c44t1" />
      </concept>
      <concept id="1196350785117" name="jetbrains.mps.lang.quotation.structure.ReferenceAntiquotation" flags="ng" index="2c44tb" />
      <concept id="1196350785113" name="jetbrains.mps.lang.quotation.structure.Quotation" flags="nn" index="2c44tf">
        <child id="1196350785114" name="quotedNode" index="2c44tc" />
      </concept>
      <concept id="5455284157994012186" name="jetbrains.mps.lang.quotation.structure.NodeBuilderInitLink" flags="ng" index="2pIpSj">
        <reference id="5455284157994012188" name="link" index="2pIpSl" />
      </concept>
      <concept id="5455284157993911097" name="jetbrains.mps.lang.quotation.structure.NodeBuilderInitPart" flags="ng" index="2pJxcK">
        <child id="5455284157993911094" name="expression" index="2pJxcZ" />
      </concept>
      <concept id="5455284157993863837" name="jetbrains.mps.lang.quotation.structure.NodeBuilder" flags="nn" index="2pJPEk">
        <child id="5455284157993863838" name="quotedNode" index="2pJPEn" />
      </concept>
      <concept id="5455284157993863840" name="jetbrains.mps.lang.quotation.structure.NodeBuilderNode" flags="nn" index="2pJPED">
        <reference id="5455284157993910961" name="concept" index="2pJxaS" />
        <child id="5455284157993911099" name="values" index="2pJxcM" />
      </concept>
      <concept id="8182547171709614739" name="jetbrains.mps.lang.quotation.structure.NodeBuilderRef" flags="nn" index="36bGnv">
        <reference id="8182547171709614741" name="target" index="36bGnp" />
      </concept>
    </language>
    <language id="756e911c-3f1f-4a48-bdf5-a2ceb91b723c" name="jetbrains.mps.execution.settings">
      <concept id="946964771156066332" name="jetbrains.mps.execution.settings.structure.PersistentConfigurationType" flags="in" index="yHkHH" />
    </language>
    <language id="7a5dda62-9140-4668-ab76-d5ed1746f2b2" name="jetbrains.mps.lang.typesystem">
      <concept id="1185788614172" name="jetbrains.mps.lang.typesystem.structure.NormalTypeClause" flags="ng" index="mw_s8">
        <child id="1185788644032" name="normalType" index="mwGJk" />
      </concept>
      <concept id="1175147569072" name="jetbrains.mps.lang.typesystem.structure.AbstractSubtypingRule" flags="ig" index="2sgdUx">
        <child id="1175147624276" name="body" index="2sgrp5" />
      </concept>
      <concept id="1175147670730" name="jetbrains.mps.lang.typesystem.structure.SubtypingRule" flags="ig" index="2sgARr" />
      <concept id="1175517767210" name="jetbrains.mps.lang.typesystem.structure.ReportErrorStatement" flags="nn" index="2MkqsV">
        <child id="1175517851849" name="errorString" index="2MkJ7o" />
      </concept>
      <concept id="1179832490862" name="jetbrains.mps.lang.typesystem.structure.CreateStrongLessThanInequationStatement" flags="nn" index="2NvLDW" />
      <concept id="1212056081426" name="jetbrains.mps.lang.typesystem.structure.AbstractInequationStatement" flags="ng" index="Ob1k8">
        <property id="1212056105818" name="inequationPriority" index="Ob790" />
      </concept>
      <concept id="1227096774658" name="jetbrains.mps.lang.typesystem.structure.MessageStatement" flags="ng" index="2OEH$v">
        <child id="1227096802790" name="nodeToReport" index="2OEOjV" />
      </concept>
      <concept id="1195213580585" name="jetbrains.mps.lang.typesystem.structure.AbstractCheckingRule" flags="ig" index="18hYwZ">
        <property id="1195213689297" name="overrides" index="18ip37" />
        <child id="1195213635060" name="body" index="18ibNy" />
      </concept>
      <concept id="1195214364922" name="jetbrains.mps.lang.typesystem.structure.NonTypesystemRule" flags="ig" index="18kY7G" />
      <concept id="1174642788531" name="jetbrains.mps.lang.typesystem.structure.ConceptReference" flags="ig" index="1YaCAy">
        <reference id="1174642800329" name="concept" index="1YaFvo" />
      </concept>
      <concept id="1174643105530" name="jetbrains.mps.lang.typesystem.structure.InferenceRule" flags="ig" index="1YbPZF" />
      <concept id="1174648085619" name="jetbrains.mps.lang.typesystem.structure.AbstractRule" flags="ng" index="1YuPPy">
        <child id="1174648101952" name="applicableNode" index="1YuTPh" />
      </concept>
      <concept id="1174650418652" name="jetbrains.mps.lang.typesystem.structure.ApplicableNodeReference" flags="nn" index="1YBJjd">
        <reference id="1174650432090" name="applicableNode" index="1YBMHb" />
      </concept>
      <concept id="1174657487114" name="jetbrains.mps.lang.typesystem.structure.TypeOfExpression" flags="nn" index="1Z2H0r">
        <child id="1174657509053" name="term" index="1Z2MuG" />
      </concept>
      <concept id="1174658326157" name="jetbrains.mps.lang.typesystem.structure.CreateEquationStatement" flags="nn" index="1Z5TYs" />
      <concept id="1174660718586" name="jetbrains.mps.lang.typesystem.structure.AbstractEquationStatement" flags="nn" index="1Zf1VF">
        <child id="1174660783413" name="leftExpression" index="1ZfhK$" />
        <child id="1174660783414" name="rightExpression" index="1ZfhKB" />
      </concept>
    </language>
    <language id="7866978e-a0f0-4cc7-81bc-4d213d9375e1" name="jetbrains.mps.lang.smodel">
      <concept id="1177026924588" name="jetbrains.mps.lang.smodel.structure.RefConcept_Reference" flags="nn" index="chp4Y">
        <reference id="1177026940964" name="conceptDeclaration" index="cht4Q" />
      </concept>
      <concept id="1138411891628" name="jetbrains.mps.lang.smodel.structure.SNodeOperation" flags="nn" index="eCIE_">
        <child id="1144104376918" name="parameter" index="1xVPHs" />
      </concept>
      <concept id="1179409122411" name="jetbrains.mps.lang.smodel.structure.Node_ConceptMethodCall" flags="nn" index="2qgKlT" />
      <concept id="2396822768958367367" name="jetbrains.mps.lang.smodel.structure.AbstractTypeCastExpression" flags="nn" index="$5XWr">
        <reference id="6733348108486823428" name="concept" index="1m5ApE" />
        <child id="6733348108486823193" name="leftExpression" index="1m5AlR" />
      </concept>
      <concept id="1143226024141" name="jetbrains.mps.lang.smodel.structure.SModelType" flags="in" index="H_c77" />
      <concept id="1145383075378" name="jetbrains.mps.lang.smodel.structure.SNodeListType" flags="in" index="2I9FWS">
        <reference id="1145383142433" name="elementConcept" index="2I9WkF" />
      </concept>
      <concept id="1171310072040" name="jetbrains.mps.lang.smodel.structure.Node_GetContainingRootOperation" flags="nn" index="2Rxl7S" />
      <concept id="1171407110247" name="jetbrains.mps.lang.smodel.structure.Node_GetAncestorOperation" flags="nn" index="2Xjw5R" />
      <concept id="1139621453865" name="jetbrains.mps.lang.smodel.structure.Node_IsInstanceOfOperation" flags="nn" index="1mIQ4w">
        <child id="1177027386292" name="conceptArgument" index="cj9EA" />
      </concept>
      <concept id="1171999116870" name="jetbrains.mps.lang.smodel.structure.Node_IsNullOperation" flags="nn" index="3w_OXm" />
      <concept id="1144101972840" name="jetbrains.mps.lang.smodel.structure.OperationParm_Concept" flags="ng" index="1xMEDy">
        <child id="1207343664468" name="conceptArgument" index="ri$Ld" />
      </concept>
      <concept id="1140137987495" name="jetbrains.mps.lang.smodel.structure.SNodeTypeCastExpression" flags="nn" index="1PxgMI" />
      <concept id="1138055754698" name="jetbrains.mps.lang.smodel.structure.SNodeType" flags="in" index="3Tqbb2" />
      <concept id="1138056143562" name="jetbrains.mps.lang.smodel.structure.SLinkAccess" flags="nn" index="3TrEf2">
        <reference id="1138056516764" name="link" index="3Tt5mk" />
      </concept>
      <concept id="1138056282393" name="jetbrains.mps.lang.smodel.structure.SLinkListAccess" flags="nn" index="3Tsc0h">
        <reference id="1138056546658" name="link" index="3TtcxE" />
      </concept>
    </language>
    <language id="ceab5195-25ea-4f22-9b92-103b95ca8c0c" name="jetbrains.mps.lang.core">
      <concept id="1133920641626" name="jetbrains.mps.lang.core.structure.BaseConcept" flags="ng" index="2VYdi">
        <property id="1193676396447" name="virtualPackage" index="3GE5qa" />
        <child id="5169995583184591170" name="smodelAttribute" index="lGtFl" />
      </concept>
      <concept id="3364660638048049745" name="jetbrains.mps.lang.core.structure.LinkAttribute" flags="ng" index="A9Btn">
        <property id="1757699476691236116" name="linkRole" index="2qtEX8" />
        <property id="1341860900488019036" name="linkId" index="P3scX" />
      </concept>
      <concept id="1169194658468" name="jetbrains.mps.lang.core.structure.INamedConcept" flags="ng" index="TrEIO">
        <property id="1169194664001" name="name" index="TrG5h" />
      </concept>
    </language>
    <language id="83888646-71ce-4f1c-9c53-c54016f6ad4f" name="jetbrains.mps.baseLanguage.collections">
      <concept id="540871147943773365" name="jetbrains.mps.baseLanguage.collections.structure.SingleArgumentSequenceOperation" flags="nn" index="25WWJ4">
        <child id="540871147943773366" name="argument" index="25WWJ7" />
      </concept>
      <concept id="1162934736510" name="jetbrains.mps.baseLanguage.collections.structure.GetElementOperation" flags="nn" index="34jXtK" />
      <concept id="1162935959151" name="jetbrains.mps.baseLanguage.collections.structure.GetSizeOperation" flags="nn" index="34oBXx" />
    </language>
  </registry>
  <node concept="1YbPZF" id="6LlKjXrML1u">
    <property role="TrG5h" value="typeof_ConfigurationFromExecutorReference" />
    <property role="3GE5qa" value="execution" />
    <node concept="3clFbS" id="6LlKjXrML1v" role="18ibNy">
      <node concept="1Z5TYs" id="6LlKjXrML1_" role="3cqZAp">
        <node concept="mw_s8" id="6LlKjXrML1C" role="1ZfhK$">
          <node concept="1Z2H0r" id="6LlKjXrML1y" role="mwGJk">
            <node concept="1YBJjd" id="6LlKjXrML1$" role="1Z2MuG">
              <ref role="1YBMHb" node="6LlKjXrML1w" resolve="configurationReference" />
            </node>
          </node>
        </node>
        <node concept="mw_s8" id="6LlKjXrML1D" role="1ZfhKB">
          <node concept="2c44tf" id="6LlKjXrML1E" role="mwGJk">
            <node concept="yHkHH" id="6LlKjXrML1G" role="2c44tc">
              <node concept="2c44tb" id="6LlKjXrML1J" role="lGtFl">
                <property role="2qtEX8" value="persistentConfiguration" />
                <property role="P3scX" value="756e911c-3f1f-4a48-bdf5-a2ceb91b723c/946964771156066332/946964771156066333" />
                <node concept="2OqwBi" id="6LlKjXrML1R" role="2c44t1">
                  <node concept="2OqwBi" id="6LlKjXrML1M" role="2Oq$k0">
                    <node concept="1YBJjd" id="6LlKjXrML1L" role="2Oq$k0">
                      <ref role="1YBMHb" node="6LlKjXrML1w" resolve="configurationReference" />
                    </node>
                    <node concept="2qgKlT" id="6LlKjXrML1Q" role="2OqNvi">
                      <ref role="37wK5l" to="ojho:6LlKjXrML19" resolve="getExecutor" />
                    </node>
                  </node>
                  <node concept="3TrEf2" id="6LlKjXrML1V" role="2OqNvi">
                    <ref role="3Tt5mk" to="uhxm:Ue65ozt$TX" />
                  </node>
                </node>
              </node>
            </node>
          </node>
        </node>
      </node>
    </node>
    <node concept="1YaCAy" id="6LlKjXrML1w" role="1YuTPh">
      <property role="TrG5h" value="configurationReference" />
      <ref role="1YaFvo" to="uhxm:6LlKjXrMGoJ" resolve="ConfigurationFromExecutorReference" />
    </node>
  </node>
  <node concept="1YbPZF" id="2F_uerOhSm4">
    <property role="TrG5h" value="typeof_DebuggerSettings_Parameter" />
    <property role="3GE5qa" value="execution" />
    <node concept="3clFbS" id="2F_uerOhSm5" role="18ibNy">
      <node concept="3clFbJ" id="2vbxNJqhI6z" role="3cqZAp">
        <node concept="3clFbS" id="2vbxNJqhI6$" role="3clFbx">
          <node concept="1Z5TYs" id="2vbxNJqhI6L" role="3cqZAp">
            <node concept="mw_s8" id="2vbxNJqhI6M" role="1ZfhKB">
              <node concept="1Z2H0r" id="2vbxNJqhI6N" role="mwGJk">
                <node concept="2OqwBi" id="5HAZRDA9WtO" role="1Z2MuG">
                  <node concept="2OqwBi" id="2vbxNJqhI6O" role="2Oq$k0">
                    <node concept="1PxgMI" id="2vbxNJqhI6P" role="2Oq$k0">
                      <ref role="1m5ApE" to="uhxm:6LlKjXrMe7G" resolve="RunConfigurationExecutor" />
                      <node concept="2OqwBi" id="2vbxNJqhI6Q" role="1m5AlR">
                        <node concept="1YBJjd" id="2vbxNJqhI6R" role="2Oq$k0">
                          <ref role="1YBMHb" node="2F_uerOhSm6" resolve="debuggerConnectionSettings" />
                        </node>
                        <node concept="2Rxl7S" id="2vbxNJqhI6S" role="2OqNvi" />
                      </node>
                    </node>
                    <node concept="3TrEf2" id="5HAZRDA9WtN" role="2OqNvi">
                      <ref role="3Tt5mk" to="uhxm:5P5ty4$bo88" />
                    </node>
                  </node>
                  <node concept="3TrEf2" id="5HAZRDA9WtS" role="2OqNvi">
                    <ref role="3Tt5mk" to="86gq:5P5ty4$bhzx" />
                  </node>
                </node>
              </node>
            </node>
            <node concept="mw_s8" id="2vbxNJqhI6U" role="1ZfhK$">
              <node concept="1Z2H0r" id="2vbxNJqhI6V" role="mwGJk">
                <node concept="1YBJjd" id="2vbxNJqhI6W" role="1Z2MuG">
                  <ref role="1YBMHb" node="2F_uerOhSm6" resolve="debuggerConnectionSettings" />
                </node>
              </node>
            </node>
          </node>
        </node>
        <node concept="2OqwBi" id="2vbxNJqhI6E" role="3clFbw">
          <node concept="2OqwBi" id="2vbxNJqhI6B" role="2Oq$k0">
            <node concept="1YBJjd" id="2vbxNJqhI6C" role="2Oq$k0">
              <ref role="1YBMHb" node="2F_uerOhSm6" resolve="debuggerConnectionSettings" />
            </node>
            <node concept="2Rxl7S" id="2vbxNJqhI6D" role="2OqNvi" />
          </node>
          <node concept="1mIQ4w" id="2vbxNJqhI6I" role="2OqNvi">
            <node concept="chp4Y" id="2vbxNJqhI6K" role="cj9EA">
              <ref role="cht4Q" to="uhxm:6LlKjXrMe7G" resolve="RunConfigurationExecutor" />
            </node>
          </node>
        </node>
      </node>
    </node>
    <node concept="1YaCAy" id="2F_uerOhSm6" role="1YuTPh">
      <property role="TrG5h" value="debuggerConnectionSettings" />
      <ref role="1YaFvo" to="uhxm:4bnjkECMWg0" resolve="DebuggerSettings_Parameter" />
    </node>
  </node>
  <node concept="18kY7G" id="2cIjP38VD0R">
    <property role="TrG5h" value="check_RunConfiguration" />
    <node concept="3clFbS" id="2cIjP38VD0S" role="18ibNy">
      <node concept="3clFbJ" id="2cIjP38VD0U" role="3cqZAp">
        <node concept="2OqwBi" id="2cIjP38VD13" role="3clFbw">
          <node concept="2OqwBi" id="2cIjP38VD0Y" role="2Oq$k0">
            <node concept="1YBJjd" id="2cIjP38VD0X" role="2Oq$k0">
              <ref role="1YBMHb" node="2cIjP38VD0T" resolve="runConfiguration" />
            </node>
            <node concept="2qgKlT" id="2cIjP38VD12" role="2OqNvi">
              <ref role="37wK5l" to="ojho:3gs394eDyIj" resolve="getExecutor" />
            </node>
          </node>
          <node concept="3w_OXm" id="2cIjP38VD17" role="2OqNvi" />
        </node>
        <node concept="3clFbS" id="2cIjP38VD0W" role="3clFbx">
          <node concept="2MkqsV" id="2cIjP38VD18" role="3cqZAp">
            <node concept="Xl_RD" id="2cIjP38VD1b" role="2MkJ7o">
              <property role="Xl_RC" value="Run configuration should define an executor" />
            </node>
            <node concept="1YBJjd" id="2cIjP38VD1c" role="2OEOjV">
              <ref role="1YBMHb" node="2cIjP38VD0T" resolve="runConfiguration" />
            </node>
          </node>
        </node>
      </node>
    </node>
    <node concept="1YaCAy" id="2cIjP38VD0T" role="1YuTPh">
      <property role="TrG5h" value="runConfiguration" />
      <ref role="1YaFvo" to="uhxm:25jQf71X6T9" resolve="RunConfiguration" />
    </node>
  </node>
  <node concept="1YbPZF" id="3aewtBM3d7I">
    <property role="TrG5h" value="typeof_RunConfigurationCreator" />
    <property role="3GE5qa" value="producer" />
    <node concept="3clFbS" id="3aewtBM3d7J" role="18ibNy">
      <node concept="1Z5TYs" id="3aewtBM3d7P" role="3cqZAp">
        <node concept="mw_s8" id="3aewtBM3d7T" role="1ZfhKB">
          <node concept="2c44tf" id="3aewtBM3d7U" role="mwGJk">
            <node concept="yHkHH" id="3aewtBM3d7W" role="2c44tc">
              <node concept="2c44tb" id="3aewtBM3d7X" role="lGtFl">
                <property role="2qtEX8" value="persistentConfiguration" />
                <property role="P3scX" value="756e911c-3f1f-4a48-bdf5-a2ceb91b723c/946964771156066332/946964771156066333" />
                <node concept="2OqwBi" id="3aewtBM3d80" role="2c44t1">
                  <node concept="1YBJjd" id="3aewtBM3d7Z" role="2Oq$k0">
                    <ref role="1YBMHb" node="3aewtBM3d7K" resolve="creator" />
                  </node>
                  <node concept="3TrEf2" id="3aewtBM3d84" role="2OqNvi">
                    <ref role="3Tt5mk" to="uhxm:3aewtBM3d7v" />
                  </node>
                </node>
              </node>
            </node>
          </node>
        </node>
        <node concept="mw_s8" id="3aewtBM3d7S" role="1ZfhK$">
          <node concept="1Z2H0r" id="3aewtBM3d7M" role="mwGJk">
            <node concept="1YBJjd" id="3aewtBM3d7O" role="1Z2MuG">
              <ref role="1YBMHb" node="3aewtBM3d7K" resolve="creator" />
            </node>
          </node>
        </node>
      </node>
      <node concept="1Z5TYs" id="toP3SpHfR3" role="3cqZAp">
        <node concept="mw_s8" id="toP3SpHfR7" role="1ZfhKB">
          <node concept="2c44tf" id="toP3SpHfR8" role="mwGJk">
            <node concept="17QB3L" id="toP3SpHfRa" role="2c44tc" />
          </node>
        </node>
        <node concept="mw_s8" id="toP3SpHfR6" role="1ZfhK$">
          <node concept="1Z2H0r" id="toP3SpHfQV" role="mwGJk">
            <node concept="2OqwBi" id="toP3SpHfQY" role="1Z2MuG">
              <node concept="1YBJjd" id="toP3SpHfQX" role="2Oq$k0">
                <ref role="1YBMHb" node="3aewtBM3d7K" resolve="creator" />
              </node>
              <node concept="3TrEf2" id="toP3SpHfR2" role="2OqNvi">
                <ref role="3Tt5mk" to="uhxm:toP3SpHfQQ" />
              </node>
            </node>
          </node>
        </node>
      </node>
    </node>
    <node concept="1YaCAy" id="3aewtBM3d7K" role="1YuTPh">
      <property role="TrG5h" value="creator" />
      <ref role="1YaFvo" to="uhxm:3aewtBM3d7u" resolve="RunConfigurationCreator" />
    </node>
  </node>
  <node concept="1YbPZF" id="3aewtBM3k0D">
    <property role="18ip37" value="true" />
    <property role="TrG5h" value="typeof_Source_ConceptFunctionParameter" />
    <property role="3GE5qa" value="producer" />
    <node concept="3clFbS" id="3aewtBM3k0E" role="18ibNy">
      <node concept="1Z5TYs" id="3aewtBM3k19" role="3cqZAp">
        <node concept="mw_s8" id="3aewtBM3k1c" role="1ZfhK$">
          <node concept="1Z2H0r" id="3aewtBM3k16" role="mwGJk">
            <node concept="1YBJjd" id="3aewtBM3k18" role="1Z2MuG">
              <ref role="1YBMHb" node="3aewtBM3k0F" resolve="source" />
            </node>
          </node>
        </node>
        <node concept="mw_s8" id="3aewtBM3k1j" role="1ZfhKB">
          <node concept="1Z2H0r" id="3aewtBM3k1k" role="mwGJk">
            <node concept="2EnYce" id="3aewtBM3k1I" role="1Z2MuG">
              <node concept="2OqwBi" id="3aewtBM3k1n" role="2Oq$k0">
                <node concept="1YBJjd" id="3aewtBM3k1m" role="2Oq$k0">
                  <ref role="1YBMHb" node="3aewtBM3k0F" resolve="source" />
                </node>
                <node concept="2Xjw5R" id="3aewtBM3k1r" role="2OqNvi">
                  <node concept="1xMEDy" id="3aewtBM3k1s" role="1xVPHs">
                    <node concept="chp4Y" id="3aewtBM3k1v" role="ri$Ld">
                      <ref role="cht4Q" to="uhxm:3MnZbusxcQA" resolve="RunConfigurationProducerPart" />
                    </node>
                  </node>
                </node>
              </node>
              <node concept="3TrEf2" id="6liWaRMAf9g" role="2OqNvi">
                <ref role="3Tt5mk" to="uhxm:6liWaRMAf9f" />
              </node>
            </node>
          </node>
        </node>
      </node>
    </node>
    <node concept="1YaCAy" id="3aewtBM3k0F" role="1YuTPh">
      <property role="TrG5h" value="source" />
      <ref role="1YaFvo" to="uhxm:3aewtBM2nU7" resolve="Source_ConceptFunctionParameter" />
    </node>
  </node>
  <node concept="1YbPZF" id="toP3SpHuFF">
    <property role="18ip37" value="true" />
    <property role="TrG5h" value="typeof_NodeListSource" />
    <property role="3GE5qa" value="producer.source" />
    <node concept="3clFbS" id="toP3SpHuFG" role="18ibNy">
      <node concept="1Z5TYs" id="toP3SpHuFM" role="3cqZAp">
        <node concept="mw_s8" id="toP3SpHuFQ" role="1ZfhKB">
          <node concept="2c44tf" id="toP3SpHuFR" role="mwGJk">
            <node concept="2I9FWS" id="7WjXFsueHp7" role="2c44tc">
              <node concept="2c44tb" id="7WjXFsueHp8" role="lGtFl">
                <property role="2qtEX8" value="elementConcept" />
                <property role="P3scX" value="7866978e-a0f0-4cc7-81bc-4d213d9375e1/1145383075378/1145383142433" />
                <node concept="2OqwBi" id="7WjXFsueHpb" role="2c44t1">
                  <node concept="1YBJjd" id="7WjXFsueHpa" role="2Oq$k0">
                    <ref role="1YBMHb" node="toP3SpHuFH" resolve="nodeListSource" />
                  </node>
                  <node concept="3TrEf2" id="7WjXFsueHpf" role="2OqNvi">
                    <ref role="3Tt5mk" to="uhxm:6liWaRMAiqi" />
                  </node>
                </node>
              </node>
            </node>
          </node>
        </node>
        <node concept="mw_s8" id="toP3SpHuFP" role="1ZfhK$">
          <node concept="1Z2H0r" id="toP3SpHuFJ" role="mwGJk">
            <node concept="1YBJjd" id="toP3SpHuFL" role="1Z2MuG">
              <ref role="1YBMHb" node="toP3SpHuFH" resolve="nodeListSource" />
            </node>
          </node>
        </node>
      </node>
    </node>
    <node concept="1YaCAy" id="toP3SpHuFH" role="1YuTPh">
      <property role="TrG5h" value="nodeListSource" />
      <ref role="1YaFvo" to="uhxm:6liWaRMAihJ" resolve="NodeListSource" />
    </node>
  </node>
  <node concept="1YbPZF" id="toP3SpHuFk">
    <property role="18ip37" value="true" />
    <property role="TrG5h" value="typeof_NodeSource" />
    <property role="3GE5qa" value="producer.source" />
    <node concept="3clFbS" id="toP3SpHuFl" role="18ibNy">
      <node concept="1Z5TYs" id="toP3SpHuFr" role="3cqZAp">
        <node concept="mw_s8" id="toP3SpHuFv" role="1ZfhKB">
          <node concept="2c44tf" id="toP3SpHuFw" role="mwGJk">
            <node concept="3Tqbb2" id="toP3SpHuFy" role="2c44tc">
              <node concept="2c44tb" id="toP3SpHuFz" role="lGtFl">
                <property role="2qtEX8" value="concept" />
                <property role="P3scX" value="7866978e-a0f0-4cc7-81bc-4d213d9375e1/1138055754698/1138405853777" />
                <node concept="2OqwBi" id="toP3SpHuFA" role="2c44t1">
                  <node concept="1YBJjd" id="toP3SpHuF_" role="2Oq$k0">
                    <ref role="1YBMHb" node="toP3SpHuFm" resolve="nodeSource" />
                  </node>
                  <node concept="3TrEf2" id="toP3SpHuFE" role="2OqNvi">
                    <ref role="3Tt5mk" to="uhxm:6liWaRMAiq2" />
                  </node>
                </node>
              </node>
            </node>
          </node>
        </node>
        <node concept="mw_s8" id="toP3SpHuFu" role="1ZfhK$">
          <node concept="1Z2H0r" id="toP3SpHuFo" role="mwGJk">
            <node concept="1YBJjd" id="toP3SpHuFq" role="1Z2MuG">
              <ref role="1YBMHb" node="toP3SpHuFm" resolve="nodeSource" />
            </node>
          </node>
        </node>
      </node>
    </node>
    <node concept="1YaCAy" id="toP3SpHuFm" role="1YuTPh">
      <property role="TrG5h" value="nodeSource" />
      <ref role="1YaFvo" to="uhxm:6liWaRMAihL" resolve="NodeSource" />
    </node>
  </node>
  <node concept="1YbPZF" id="4JYgQwOw8NV">
    <property role="TrG5h" value="typeof_BeforeTaskCall" />
    <property role="3GE5qa" value="before" />
    <node concept="3clFbS" id="4JYgQwOw8NW" role="18ibNy">
      <node concept="3cpWs8" id="4JYgQwOwbMJ" role="3cqZAp">
        <node concept="3cpWsn" id="4JYgQwOwbMK" role="3cpWs9">
          <property role="TrG5h" value="declaredParameters" />
          <node concept="2I9FWS" id="4JYgQwOwbML" role="1tU5fm">
            <ref role="2I9WkF" to="uhxm:5FAUXTS7S0k" resolve="BeforeTaskParameter" />
          </node>
          <node concept="2OqwBi" id="4JYgQwOwbMM" role="33vP2m">
            <node concept="2OqwBi" id="4JYgQwOwbMN" role="2Oq$k0">
              <node concept="1YBJjd" id="4JYgQwOwbMO" role="2Oq$k0">
                <ref role="1YBMHb" node="4JYgQwOw8NX" resolve="beforeTaskCall" />
              </node>
              <node concept="3TrEf2" id="4JYgQwOwbMP" role="2OqNvi">
                <ref role="3Tt5mk" to="uhxm:5FAUXTS7LZp" />
              </node>
            </node>
            <node concept="3Tsc0h" id="4JYgQwOwbMQ" role="2OqNvi">
              <ref role="3TtcxE" to="uhxm:5FAUXTS7TqE" />
            </node>
          </node>
        </node>
      </node>
      <node concept="3clFbJ" id="4JYgQwOwbO5" role="3cqZAp">
        <node concept="3clFbS" id="4JYgQwOwbO6" role="3clFbx">
          <node concept="2MkqsV" id="4JYgQwOwbO7" role="3cqZAp">
            <node concept="Xl_RD" id="4JYgQwOwbO8" role="2MkJ7o">
              <property role="Xl_RC" value="Incompatible number of parameters" />
            </node>
            <node concept="1YBJjd" id="4JYgQwOwbO9" role="2OEOjV">
              <ref role="1YBMHb" node="4JYgQwOw8NX" resolve="beforeTaskCall" />
            </node>
          </node>
        </node>
        <node concept="3y3z36" id="4JYgQwOwbOi" role="3clFbw">
          <node concept="2OqwBi" id="4JYgQwOwbOr" role="3uHU7B">
            <node concept="2OqwBi" id="4JYgQwOwbOm" role="2Oq$k0">
              <node concept="1YBJjd" id="4JYgQwOwbOl" role="2Oq$k0">
                <ref role="1YBMHb" node="4JYgQwOw8NX" resolve="beforeTaskCall" />
              </node>
              <node concept="3Tsc0h" id="4JYgQwOwbOq" role="2OqNvi">
                <ref role="3TtcxE" to="uhxm:4JYgQwOvPg0" />
              </node>
            </node>
            <node concept="34oBXx" id="4JYgQwOwbOv" role="2OqNvi" />
          </node>
          <node concept="2OqwBi" id="4JYgQwOwbOc" role="3uHU7w">
            <node concept="37vLTw" id="3GM_nagTw86" role="2Oq$k0">
              <ref role="3cqZAo" node="4JYgQwOwbMK" resolve="declaredParameters" />
            </node>
            <node concept="34oBXx" id="4JYgQwOwbOe" role="2OqNvi" />
          </node>
        </node>
      </node>
      <node concept="1Dw8fO" id="4JYgQwOwbMS" role="3cqZAp">
        <node concept="3clFbS" id="4JYgQwOwbMT" role="2LFqv$">
          <node concept="2NvLDW" id="4JYgQwOwbNQ" role="3cqZAp">
            <property role="Ob790" value="0" />
            <node concept="mw_s8" id="4JYgQwOwbNU" role="1ZfhK$">
              <node concept="1Z2H0r" id="4JYgQwOwbNA" role="mwGJk">
                <node concept="2OqwBi" id="4JYgQwOwbNJ" role="1Z2MuG">
                  <node concept="2OqwBi" id="4JYgQwOwbNE" role="2Oq$k0">
                    <node concept="1YBJjd" id="4JYgQwOwbND" role="2Oq$k0">
                      <ref role="1YBMHb" node="4JYgQwOw8NX" resolve="beforeTaskCall" />
                    </node>
                    <node concept="3Tsc0h" id="4JYgQwOwbNI" role="2OqNvi">
                      <ref role="3TtcxE" to="uhxm:4JYgQwOvPg0" />
                    </node>
                  </node>
                  <node concept="34jXtK" id="4JYgQwOwbNN" role="2OqNvi">
                    <node concept="37vLTw" id="3GM_nagTAVQ" role="25WWJ7">
                      <ref role="3cqZAo" node="4JYgQwOwbMV" resolve="i" />
                    </node>
                  </node>
                </node>
              </node>
            </node>
            <node concept="mw_s8" id="4JYgQwOwmip" role="1ZfhKB">
              <node concept="1Z2H0r" id="4JYgQwOwmiq" role="mwGJk">
                <node concept="2OqwBi" id="4JYgQwOwmit" role="1Z2MuG">
                  <node concept="37vLTw" id="3GM_nagT$5q" role="2Oq$k0">
                    <ref role="3cqZAo" node="4JYgQwOwbMK" resolve="declaredParameters" />
                  </node>
                  <node concept="34jXtK" id="4JYgQwOwmix" role="2OqNvi">
                    <node concept="37vLTw" id="3GM_nagTzKP" role="25WWJ7">
                      <ref role="3cqZAo" node="4JYgQwOwbMV" resolve="i" />
                    </node>
                  </node>
                </node>
              </node>
            </node>
          </node>
        </node>
        <node concept="3cpWsn" id="4JYgQwOwbMV" role="1Duv9x">
          <property role="TrG5h" value="i" />
          <node concept="10Oyi0" id="4JYgQwOwbMW" role="1tU5fm" />
          <node concept="3cmrfG" id="4JYgQwOwbMY" role="33vP2m">
            <property role="3cmrfH" value="0" />
          </node>
        </node>
        <node concept="3eOVzh" id="4JYgQwOwbN0" role="1Dwp0S">
          <node concept="2OqwBi" id="4JYgQwOwcrV" role="3uHU7w">
            <node concept="2OqwBi" id="4JYgQwOwbN4" role="2Oq$k0">
              <node concept="1YBJjd" id="4JYgQwOwbN3" role="2Oq$k0">
                <ref role="1YBMHb" node="4JYgQwOw8NX" resolve="beforeTaskCall" />
              </node>
              <node concept="3Tsc0h" id="4JYgQwOwbN8" role="2OqNvi">
                <ref role="3TtcxE" to="uhxm:4JYgQwOvPg0" />
              </node>
            </node>
            <node concept="34oBXx" id="4JYgQwOwcrZ" role="2OqNvi" />
          </node>
          <node concept="37vLTw" id="3GM_nagTuic" role="3uHU7B">
            <ref role="3cqZAo" node="4JYgQwOwbMV" resolve="i" />
          </node>
        </node>
        <node concept="3uNrnE" id="4JYgQwOwbNa" role="1Dwrff">
          <node concept="37vLTw" id="3GM_nagTA46" role="2$L3a6">
            <ref role="3cqZAo" node="4JYgQwOwbMV" resolve="i" />
          </node>
        </node>
      </node>
    </node>
    <node concept="1YaCAy" id="4JYgQwOw8NX" role="1YuTPh">
      <property role="TrG5h" value="beforeTaskCall" />
      <ref role="1YaFvo" to="uhxm:5FAUXTS7LZo" resolve="BeforeTaskCall" />
    </node>
  </node>
  <node concept="18kY7G" id="5RwTMTq3tya">
    <property role="TrG5h" value="check_StartProcessHandlerStatement" />
    <property role="3GE5qa" value="execution" />
    <node concept="3clFbS" id="5RwTMTq3tyb" role="18ibNy">
      <node concept="3clFbJ" id="5RwTMTq3tyd" role="3cqZAp">
        <node concept="2OqwBi" id="5RwTMTq3tym" role="3clFbw">
          <node concept="2OqwBi" id="5RwTMTq3tyh" role="2Oq$k0">
            <node concept="1YBJjd" id="5RwTMTq3tyg" role="2Oq$k0">
              <ref role="1YBMHb" node="5RwTMTq3tyc" resolve="startProcessHandler" />
            </node>
            <node concept="3TrEf2" id="5RwTMTq3tyl" role="2OqNvi">
              <ref role="3Tt5mk" to="uhxm:O$iR4JBkji" />
            </node>
          </node>
          <node concept="3w_OXm" id="5RwTMTq3tyq" role="2OqNvi" />
        </node>
        <node concept="3clFbS" id="5RwTMTq3tyf" role="3clFbx">
          <node concept="2MkqsV" id="5RwTMTq3tyr" role="3cqZAp">
            <node concept="Xl_RD" id="5RwTMTq3tyu" role="2MkJ7o">
              <property role="Xl_RC" value="Process is required." />
            </node>
            <node concept="1YBJjd" id="5RwTMTq3tyv" role="2OEOjV">
              <ref role="1YBMHb" node="5RwTMTq3tyc" resolve="startProcessHandler" />
            </node>
          </node>
        </node>
      </node>
    </node>
    <node concept="1YaCAy" id="5RwTMTq3tyc" role="1YuTPh">
      <property role="TrG5h" value="startProcessHandler" />
      <ref role="1YaFvo" to="uhxm:O$iR4JBkjh" resolve="StartProcessHandlerStatement" />
    </node>
  </node>
  <node concept="1YbPZF" id="4cp1pTc86Rl">
    <property role="TrG5h" value="typeof_Project_Parameter" />
    <property role="3GE5qa" value="execution" />
    <node concept="3clFbS" id="4cp1pTc86Rm" role="18ibNy">
      <node concept="1Z5TYs" id="4cp1pTc86Rs" role="3cqZAp">
        <node concept="mw_s8" id="4cp1pTc86Rw" role="1ZfhKB">
          <node concept="2c44tf" id="4cp1pTc86Rx" role="mwGJk">
            <node concept="3uibUv" id="4cp1pTc86R$" role="2c44tc">
              <ref role="3uigEE" to="4nm9:~Project" resolve="Project" />
            </node>
          </node>
        </node>
        <node concept="mw_s8" id="4cp1pTc86Rv" role="1ZfhK$">
          <node concept="1Z2H0r" id="4cp1pTc86Rp" role="mwGJk">
            <node concept="1YBJjd" id="4cp1pTc86Rr" role="1Z2MuG">
              <ref role="1YBMHb" node="4cp1pTc86Rn" resolve="projectParameter" />
            </node>
          </node>
        </node>
      </node>
    </node>
    <node concept="1YaCAy" id="4cp1pTc86Rn" role="1YuTPh">
      <property role="TrG5h" value="projectParameter" />
      <ref role="1YaFvo" to="uhxm:6E_yzjF3JCH" resolve="Project_Parameter" />
    </node>
  </node>
  <node concept="1YbPZF" id="1ovLDatObEr">
    <property role="TrG5h" value="typeof_StartProcessHandlerStatement" />
    <property role="3GE5qa" value="execution" />
    <node concept="3clFbS" id="1ovLDatObEs" role="18ibNy">
      <node concept="2NvLDW" id="1ovLDatObEV" role="3cqZAp">
        <property role="Ob790" value="0" />
        <node concept="mw_s8" id="1ovLDatObF0" role="1ZfhKB">
          <node concept="2pJPEk" id="67V23qSRO6m" role="mwGJk">
            <node concept="2pJPED" id="67V23qSRO6n" role="2pJPEn">
              <ref role="2pJxaS" to="tpd4:hausRW2" resolve="JoinType" />
              <node concept="2pIpSj" id="7a3n6lJjEXL" role="2pJxcM">
                <ref role="2pIpSl" to="tpd4:hausUtE" />
                <node concept="2pJPED" id="67V23qSRO6q" role="2pJxcZ">
                  <ref role="2pJxaS" to="cx9y:i2pR1d_" resolve="NamedTupleType" />
                  <node concept="2pIpSj" id="67V23qSRO6r" role="2pJxcM">
                    <ref role="2pIpSl" to="cx9y:i2pR8DE" />
                    <node concept="36bGnv" id="67V23qSRO6s" role="2pJxcZ">
                      <ref role="36bGnp" to="awpe:1HMPpNJqv3x" resolve="ExecutionTool" />
                    </node>
                  </node>
                </node>
              </node>
              <node concept="2pIpSj" id="7a3n6lJjEZj" role="2pJxcM">
                <ref role="2pIpSl" to="tpd4:hausUtE" />
                <node concept="2pJPED" id="67V23qSRO6t" role="2pJxcZ">
                  <ref role="2pJxaS" to="uhxm:1ovLDatOqMj" resolve="ConsoleType" />
                </node>
              </node>
            </node>
          </node>
        </node>
        <node concept="mw_s8" id="1ovLDatObEZ" role="1ZfhK$">
          <node concept="1Z2H0r" id="1ovLDatObEN" role="mwGJk">
            <node concept="2OqwBi" id="1ovLDatObEQ" role="1Z2MuG">
              <node concept="1YBJjd" id="1ovLDatObEP" role="2Oq$k0">
                <ref role="1YBMHb" node="1ovLDatObEt" resolve="startProcessHandlerStatement" />
              </node>
              <node concept="3TrEf2" id="1ovLDatObEU" role="2OqNvi">
                <ref role="3Tt5mk" to="uhxm:1ovLDatNZew" />
              </node>
            </node>
          </node>
        </node>
      </node>
    </node>
    <node concept="1YaCAy" id="1ovLDatObEt" role="1YuTPh">
      <property role="TrG5h" value="startProcessHandlerStatement" />
      <ref role="1YaFvo" to="uhxm:O$iR4JBkjh" resolve="StartProcessHandlerStatement" />
    </node>
  </node>
  <node concept="2sgARr" id="1ovLDatOwvr">
    <property role="TrG5h" value="ConsoleIsSubtypeOfConsoleView" />
    <property role="3GE5qa" value="execution.console" />
    <node concept="3clFbS" id="1ovLDatOwvs" role="2sgrp5">
      <node concept="3cpWs6" id="1ovLDatOwvB" role="3cqZAp">
        <node concept="2c44tf" id="1ovLDatOwvD" role="3cqZAk">
          <node concept="3uibUv" id="1ovLDatOwvE" role="2c44tc">
            <ref role="3uigEE" to="cjdg:~ConsoleView" resolve="ConsoleView" />
          </node>
        </node>
      </node>
    </node>
    <node concept="1YaCAy" id="1ovLDatOwvt" role="1YuTPh">
      <property role="TrG5h" value="console" />
      <ref role="1YaFvo" to="uhxm:1ovLDatOqMj" resolve="ConsoleType" />
    </node>
  </node>
  <node concept="1YbPZF" id="1ovLDatO$Ee">
    <property role="TrG5h" value="typeof_ConsoleCreator" />
    <property role="3GE5qa" value="execution.console" />
    <node concept="3clFbS" id="1ovLDatO$Ef" role="18ibNy">
      <node concept="1Z5TYs" id="1ovLDatO$El" role="3cqZAp">
        <node concept="mw_s8" id="1ovLDatO$Ep" role="1ZfhKB">
          <node concept="2pJPEk" id="67V23qSR8gv" role="mwGJk">
            <node concept="2pJPED" id="67V23qSR8gw" role="2pJPEn">
              <ref role="2pJxaS" to="uhxm:1ovLDatOqMj" resolve="ConsoleType" />
            </node>
          </node>
        </node>
        <node concept="mw_s8" id="1ovLDatO$Eo" role="1ZfhK$">
          <node concept="1Z2H0r" id="1ovLDatO$Ei" role="mwGJk">
            <node concept="1YBJjd" id="1ovLDatO$Ek" role="1Z2MuG">
              <ref role="1YBMHb" node="1ovLDatO$Eg" resolve="consoleCreator" />
            </node>
          </node>
        </node>
      </node>
      <node concept="1Z5TYs" id="1ovLDatO$NB" role="3cqZAp">
        <node concept="mw_s8" id="1ovLDatO$NF" role="1ZfhKB">
          <node concept="2c44tf" id="1ovLDatO$NG" role="mwGJk">
            <node concept="3uibUv" id="1ovLDatO$NJ" role="2c44tc">
              <ref role="3uigEE" to="4nm9:~Project" resolve="Project" />
            </node>
          </node>
        </node>
        <node concept="mw_s8" id="1ovLDatO$NE" role="1ZfhK$">
          <node concept="1Z2H0r" id="1ovLDatO$Nv" role="mwGJk">
            <node concept="2OqwBi" id="1ovLDatO$Ny" role="1Z2MuG">
              <node concept="1YBJjd" id="1ovLDatO$Nx" role="2Oq$k0">
                <ref role="1YBMHb" node="1ovLDatO$Eg" resolve="consoleCreator" />
              </node>
              <node concept="3TrEf2" id="1ovLDatO$NA" role="2OqNvi">
                <ref role="3Tt5mk" to="uhxm:1ovLDatO$Nd" />
              </node>
            </node>
          </node>
        </node>
      </node>
      <node concept="1Z5TYs" id="1ovLDatO$NU" role="3cqZAp">
        <node concept="mw_s8" id="1ovLDatO$NX" role="1ZfhK$">
          <node concept="1Z2H0r" id="1ovLDatO$NM" role="mwGJk">
            <node concept="2OqwBi" id="1ovLDatO$NP" role="1Z2MuG">
              <node concept="1YBJjd" id="1ovLDatO$NO" role="2Oq$k0">
                <ref role="1YBMHb" node="1ovLDatO$Eg" resolve="consoleCreator" />
              </node>
              <node concept="3TrEf2" id="1ovLDatO$NT" role="2OqNvi">
                <ref role="3Tt5mk" to="uhxm:1ovLDatO$Ne" />
              </node>
            </node>
          </node>
        </node>
        <node concept="mw_s8" id="1ovLDatO$O1" role="1ZfhKB">
          <node concept="2c44tf" id="1ovLDatO$O2" role="mwGJk">
            <node concept="10P_77" id="1ovLDatO$O4" role="2c44tc" />
          </node>
        </node>
      </node>
    </node>
    <node concept="1YaCAy" id="1ovLDatO$Eg" role="1YuTPh">
      <property role="TrG5h" value="consoleCreator" />
      <ref role="1YaFvo" to="uhxm:1ovLDatO$Ea" resolve="ConsoleCreator" />
    </node>
  </node>
  <node concept="1YbPZF" id="4IJMzQ1z1XB">
    <property role="TrG5h" value="typeof_ProjectOperation" />
    <node concept="3clFbS" id="4IJMzQ1z1XC" role="18ibNy">
      <node concept="1Z5TYs" id="4IJMzQ1z1XI" role="3cqZAp">
        <node concept="mw_s8" id="4IJMzQ1z1XL" role="1ZfhK$">
          <node concept="1Z2H0r" id="4IJMzQ1z1XF" role="mwGJk">
            <node concept="1YBJjd" id="4IJMzQ1z1XH" role="1Z2MuG">
              <ref role="1YBMHb" node="4IJMzQ1z1XD" resolve="project" />
            </node>
          </node>
        </node>
        <node concept="mw_s8" id="4IJMzQ1z1XQ" role="1ZfhKB">
          <node concept="2c44tf" id="4IJMzQ1z1XR" role="mwGJk">
            <node concept="3uibUv" id="4IJMzQ1z1Y0" role="2c44tc">
              <ref role="3uigEE" to="4nm9:~Project" resolve="Project" />
            </node>
          </node>
        </node>
      </node>
    </node>
    <node concept="1YaCAy" id="4IJMzQ1z1XD" role="1YuTPh">
      <property role="TrG5h" value="project" />
      <ref role="1YaFvo" to="uhxm:4IJMzQ1z1OE" resolve="GetProjectOperation" />
    </node>
  </node>
  <node concept="1YbPZF" id="5GZRL5t5I$Q">
    <property role="18ip37" value="true" />
    <property role="TrG5h" value="typeof_SModelSource" />
    <property role="3GE5qa" value="producer.source" />
    <node concept="3clFbS" id="5GZRL5t5I$R" role="18ibNy">
      <node concept="1Z5TYs" id="5GZRL5t5I_R" role="3cqZAp">
        <node concept="mw_s8" id="5GZRL5t5I_S" role="1ZfhKB">
          <node concept="2c44tf" id="5GZRL5t5I_T" role="mwGJk">
            <node concept="3uibUv" id="5GZRL5t5IFX" role="2c44tc">
              <ref role="3uigEE" to="mhbf:~SModel" resolve="SModel" />
            </node>
          </node>
        </node>
        <node concept="mw_s8" id="5GZRL5t5I_Z" role="1ZfhK$">
          <node concept="1Z2H0r" id="5GZRL5t5IA0" role="mwGJk">
            <node concept="1YBJjd" id="5GZRL5t5ICc" role="1Z2MuG">
              <ref role="1YBMHb" node="5GZRL5t5I$T" resolve="sModelSource" />
            </node>
          </node>
        </node>
      </node>
    </node>
    <node concept="1YaCAy" id="5GZRL5t5I$T" role="1YuTPh">
      <property role="TrG5h" value="sModelSource" />
      <ref role="1YaFvo" to="uhxm:3SOy866648z" resolve="SModelSource" />
    </node>
  </node>
  <node concept="1YbPZF" id="5GZRL5t5Ihv">
    <property role="18ip37" value="true" />
    <property role="TrG5h" value="typeof_ModuleSource" />
    <property role="3GE5qa" value="producer.source" />
    <node concept="3clFbS" id="5GZRL5t5Ihw" role="18ibNy">
      <node concept="1Z5TYs" id="5GZRL5t5Iiw" role="3cqZAp">
        <node concept="mw_s8" id="5GZRL5t5Iix" role="1ZfhKB">
          <node concept="2c44tf" id="5GZRL5t5Iiy" role="mwGJk">
            <node concept="3uibUv" id="5GZRL5t5Ioj" role="2c44tc">
              <ref role="3uigEE" to="lui2:~SModule" resolve="SModule" />
            </node>
          </node>
        </node>
        <node concept="mw_s8" id="5GZRL5t5IiC" role="1ZfhK$">
          <node concept="1Z2H0r" id="5GZRL5t5IiD" role="mwGJk">
            <node concept="1YBJjd" id="5GZRL5t5Ilb" role="1Z2MuG">
              <ref role="1YBMHb" node="5GZRL5t5Ihy" resolve="moduleSource" />
            </node>
          </node>
        </node>
      </node>
    </node>
    <node concept="1YaCAy" id="5GZRL5t5Ihy" role="1YuTPh">
      <property role="TrG5h" value="moduleSource" />
      <ref role="1YaFvo" to="uhxm:6liWaRMAihK" resolve="ModuleSource" />
    </node>
  </node>
  <node concept="1YbPZF" id="5GZRL5t5Itm">
    <property role="18ip37" value="true" />
    <property role="TrG5h" value="typeof_ProjectSource" />
    <property role="3GE5qa" value="producer.source" />
    <node concept="3clFbS" id="5GZRL5t5Itn" role="18ibNy">
      <node concept="1Z5TYs" id="5GZRL5t5Iun" role="3cqZAp">
        <node concept="mw_s8" id="5GZRL5t5Iuo" role="1ZfhKB">
          <node concept="2c44tf" id="5GZRL5t5Iup" role="mwGJk">
            <node concept="3uibUv" id="5GZRL5t5I$9" role="2c44tc">
              <ref role="3uigEE" to="z1c3:~MPSProject" resolve="MPSProject" />
            </node>
          </node>
        </node>
        <node concept="mw_s8" id="5GZRL5t5Iuv" role="1ZfhK$">
          <node concept="1Z2H0r" id="5GZRL5t5Iuw" role="mwGJk">
            <node concept="1YBJjd" id="5GZRL5t5Ix2" role="1Z2MuG">
              <ref role="1YBMHb" node="5GZRL5t5Itp" resolve="projectSource" />
            </node>
          </node>
        </node>
      </node>
    </node>
    <node concept="1YaCAy" id="5GZRL5t5Itp" role="1YuTPh">
      <property role="TrG5h" value="projectSource" />
      <ref role="1YaFvo" to="uhxm:6liWaRMAihI" resolve="ProjectSource" />
    </node>
  </node>
  <node concept="1YbPZF" id="5GZRL5t5H73">
    <property role="18ip37" value="true" />
    <property role="TrG5h" value="typeof_ModelSource" />
    <property role="3GE5qa" value="producer.source" />
    <node concept="3clFbS" id="5GZRL5t5H74" role="18ibNy">
      <node concept="1Z5TYs" id="5GZRL5t5H9d" role="3cqZAp">
        <node concept="mw_s8" id="5GZRL5t5H9e" role="1ZfhKB">
          <node concept="2c44tf" id="5GZRL5t5H9f" role="mwGJk">
            <node concept="H_c77" id="5GZRL5t5IgK" role="2c44tc" />
          </node>
        </node>
        <node concept="mw_s8" id="5GZRL5t5H9l" role="1ZfhK$">
          <node concept="1Z2H0r" id="5GZRL5t5H9m" role="mwGJk">
            <node concept="1YBJjd" id="5GZRL5t5Ifb" role="1Z2MuG">
              <ref role="1YBMHb" node="5GZRL5t5H76" resolve="modelSource" />
            </node>
          </node>
        </node>
      </node>
    </node>
    <node concept="1YaCAy" id="5GZRL5t5H76" role="1YuTPh">
      <property role="TrG5h" value="modelSource" />
      <ref role="1YaFvo" to="uhxm:6liWaRMAihH" resolve="ModelSource" />
    </node>
  </node>
  <node concept="1YbPZF" id="5GZRL5t5IGE">
    <property role="18ip37" value="true" />
    <property role="TrG5h" value="typeof_SModuleSource" />
    <property role="3GE5qa" value="producer.source" />
    <node concept="3clFbS" id="5GZRL5t5IGF" role="18ibNy">
      <node concept="1Z5TYs" id="5GZRL5t5IHF" role="3cqZAp">
        <node concept="mw_s8" id="5GZRL5t5IHG" role="1ZfhKB">
          <node concept="2c44tf" id="5GZRL5t5IHH" role="mwGJk">
            <node concept="3uibUv" id="5GZRL5t5IOZ" role="2c44tc">
              <ref role="3uigEE" to="lui2:~SModule" resolve="SModule" />
            </node>
          </node>
        </node>
        <node concept="mw_s8" id="5GZRL5t5IHN" role="1ZfhK$">
          <node concept="1Z2H0r" id="5GZRL5t5IHO" role="mwGJk">
            <node concept="1YBJjd" id="5GZRL5t5IKm" role="1Z2MuG">
              <ref role="1YBMHb" node="5GZRL5t5IGH" resolve="sModuleSource" />
            </node>
          </node>
        </node>
      </node>
    </node>
    <node concept="1YaCAy" id="5GZRL5t5IGH" role="1YuTPh">
      <property role="TrG5h" value="sModuleSource" />
      <ref role="1YaFvo" to="uhxm:3SOy86667hT" resolve="SModuleSource" />
    </node>
  </node>
  <node concept="1YbPZF" id="1QpbsTi4TE">
    <property role="TrG5h" value="typeof_EnvironmentExpression" />
    <property role="3GE5qa" value="execution" />
    <node concept="3clFbS" id="1QpbsTi4TF" role="18ibNy">
      <node concept="1Z5TYs" id="1QpbsTi54v" role="3cqZAp">
        <node concept="mw_s8" id="1QpbsTi54S" role="1ZfhKB">
          <node concept="2c44tf" id="1QpbsTi54O" role="mwGJk">
            <node concept="3uibUv" id="1QpbsTi554" role="2c44tc">
              <ref role="3uigEE" to="fhz7:~ExecutionEnvironment" resolve="ExecutionEnvironment" />
            </node>
          </node>
        </node>
        <node concept="mw_s8" id="1QpbsTi54y" role="1ZfhK$">
          <node concept="1Z2H0r" id="1QpbsTi4Y$" role="mwGJk">
            <node concept="1YBJjd" id="1QpbsTi4Zc" role="1Z2MuG">
              <ref role="1YBMHb" node="1QpbsTi4TH" resolve="environment" />
            </node>
          </node>
        </node>
      </node>
    </node>
    <node concept="1YaCAy" id="1QpbsTi4TH" role="1YuTPh">
      <property role="TrG5h" value="environment" />
      <ref role="1YaFvo" to="uhxm:1QpbsTe7X$" resolve="EnvironmentExpression" />
    </node>
  </node>
  <node concept="1YbPZF" id="a4sarQU2wN">
    <property role="TrG5h" value="typeof_Executor_Parameter" />
    <property role="3GE5qa" value="execution" />
    <node concept="3clFbS" id="a4sarQU2An" role="18ibNy">
      <node concept="1Z5TYs" id="a4sarQU8oz" role="3cqZAp">
        <node concept="mw_s8" id="a4sarQU8o$" role="1ZfhKB">
          <node concept="2c44tf" id="a4sarQU8o_" role="mwGJk">
            <node concept="3uibUv" id="a4sarQUp__" role="2c44tc">
              <ref role="3uigEE" to="3v5a:~Executor" resolve="Executor" />
            </node>
          </node>
        </node>
        <node concept="mw_s8" id="a4sarQU8oB" role="1ZfhK$">
          <node concept="1Z2H0r" id="a4sarQU8oC" role="mwGJk">
            <node concept="1YBJjd" id="a4sarQUqzK" role="1Z2MuG">
              <ref role="1YBMHb" node="a4sarQU2Ap" resolve="executor_Parameter" />
            </node>
          </node>
        </node>
      </node>
    </node>
    <node concept="1YaCAy" id="a4sarQU2Ap" role="1YuTPh">
      <property role="TrG5h" value="executor_Parameter" />
      <ref role="1YaFvo" to="uhxm:a4sarQTYiu" resolve="Executor_Parameter" />
    </node>
  </node>
  <node concept="1YbPZF" id="6DDApQBrc1n">
    <property role="TrG5h" value="typeof_ContextExpression" />
    <property role="3GE5qa" value="producer" />
    <node concept="3clFbS" id="6DDApQBrc1o" role="18ibNy">
      <node concept="1Z5TYs" id="5qZfoDoCcSL" role="3cqZAp">
        <node concept="mw_s8" id="5qZfoDoCcSO" role="1ZfhK$">
          <node concept="1Z2H0r" id="5qZfoDoCcQa" role="mwGJk">
            <node concept="1YBJjd" id="5qZfoDoCcQT" role="1Z2MuG">
              <ref role="1YBMHb" node="6DDApQBrc1q" resolve="contextExpression" />
            </node>
          </node>
        </node>
        <node concept="mw_s8" id="5qZfoDoCcMH" role="1ZfhKB">
          <node concept="2pJPEk" id="5qZfoDoCcMD" role="mwGJk">
            <node concept="2pJPED" id="5qZfoDoCcMY" role="2pJPEn">
              <ref role="2pJxaS" to="tpee:g7uibYu" resolve="ClassifierType" />
              <node concept="2pIpSj" id="5qZfoDoCcP9" role="2pJxcM">
                <ref role="2pIpSl" to="tpee:g7uigIF" />
                <node concept="36bGnv" id="5qZfoDoCcPH" role="2pJxcZ">
                  <ref role="36bGnp" to="feyl:~ConfigurationContext" resolve="ConfigurationContext" />
                </node>
              </node>
            </node>
          </node>
        </node>
      </node>
    </node>
    <node concept="1YaCAy" id="6DDApQBrc1q" role="1YuTPh">
      <property role="TrG5h" value="contextExpression" />
      <ref role="1YaFvo" to="uhxm:6DDApQBpy$f" resolve="ContextExpression" />
    </node>
  </node>
</model>

