<?xml version="1.0" encoding="UTF-8"?>
<model ref="r:dbe0b701-addc-4f0f-9c68-6c511dfcc57c(jetbrains.mps.samples.KajaAndOr.typesystem)">
  <persistence version="9" />
  <languages>
    <use id="7a5dda62-9140-4668-ab76-d5ed1746f2b2" name="jetbrains.mps.lang.typesystem" version="0" />
    <use id="44306fd2-ef94-4b56-9806-d9ab509536db" name="jetbrains.mps.samples.KajaAndOr" version="0" />
    <devkit ref="fbc25dd2-5da4-483a-8b19-70928e1b62d7(jetbrains.mps.devkit.general-purpose)" />
  </languages>
  <imports>
    <import index="6ms5" ref="r:d3eab93d-0231-40c7-b095-39bdf7a89e92(jetbrains.mps.samples.KajaAndOr.structure)" />
  </imports>
  <registry />
</model>

