<?xml version="1.0" encoding="UTF-8"?>
<model ref="r:97129371-9ac5-4a71-bfd5-5b11db119de9(jetbrains.mps.calculator.behavior)">
  <persistence version="9" />
  <languages>
    <use id="af65afd8-f0dd-4942-87d9-63a55f2a9db1" name="jetbrains.mps.lang.behavior" version="0" />
    <use id="d8f591ec-4d86-4af2-9f92-a9e93c803ffa" name="jetbrains.mps.lang.scopes" version="0" />
    <use id="7866978e-a0f0-4cc7-81bc-4d213d9375e1" name="jetbrains.mps.lang.smodel" version="4" />
    <use id="f3061a53-9226-4cc5-a443-f952ceaf5816" name="jetbrains.mps.baseLanguage" version="4" />
    <devkit ref="fbc25dd2-5da4-483a-8b19-70928e1b62d7(jetbrains.mps.devkit.general-purpose)" />
  </languages>
  <imports>
    <import index="o8zo" ref="r:314576fc-3aee-4386-a0a5-a38348ac317d(jetbrains.mps.scope)" />
    <import index="64en" ref="r:87765d2d-a756-4883-9acc-6a42e5bf6c23(jetbrains.mps.calculator.structure)" implicit="true" />
    <import index="tpcu" ref="r:00000000-0000-4000-0000-011c89590282(jetbrains.mps.lang.core.behavior)" implicit="true" />
  </imports>
  <registry>
    <language id="af65afd8-f0dd-4942-87d9-63a55f2a9db1" name="jetbrains.mps.lang.behavior">
      <concept id="1225194240794" name="jetbrains.mps.lang.behavior.structure.ConceptBehavior" flags="ng" index="13h7C7">
        <reference id="1225194240799" name="concept" index="13h7C2" />
        <child id="1225194240805" name="method" index="13h7CS" />
        <child id="1225194240801" name="constructor" index="13h7CW" />
      </concept>
      <concept id="1225194413805" name="jetbrains.mps.lang.behavior.structure.ConceptConstructorDeclaration" flags="in" index="13hLZK" />
      <concept id="1225194472830" name="jetbrains.mps.lang.behavior.structure.ConceptMethodDeclaration" flags="ng" index="13i0hz">
        <property id="1225194472832" name="isVirtual" index="13i0it" />
        <property id="1225194472834" name="isAbstract" index="13i0iv" />
        <reference id="1225194472831" name="overriddenMethod" index="13i0hy" />
      </concept>
      <concept id="1225194691553" name="jetbrains.mps.lang.behavior.structure.ThisNodeExpression" flags="nn" index="13iPFW" />
    </language>
    <language id="f3061a53-9226-4cc5-a443-f952ceaf5816" name="jetbrains.mps.baseLanguage">
      <concept id="1197027756228" name="jetbrains.mps.baseLanguage.structure.DotExpression" flags="nn" index="2OqwBi">
        <child id="1197027771414" name="operand" index="2Oq$k0" />
        <child id="1197027833540" name="operation" index="2OqNvi" />
      </concept>
      <concept id="1137021947720" name="jetbrains.mps.baseLanguage.structure.ConceptFunction" flags="in" index="2VMwT0">
        <child id="1137022507850" name="body" index="2VODD2" />
      </concept>
      <concept id="1081236700937" name="jetbrains.mps.baseLanguage.structure.StaticMethodCall" flags="nn" index="2YIFZM">
        <reference id="1144433194310" name="classConcept" index="1Pybhc" />
      </concept>
      <concept id="1068498886296" name="jetbrains.mps.baseLanguage.structure.VariableReference" flags="nn" index="37vLTw">
        <reference id="1068581517664" name="variableDeclaration" index="3cqZAo" />
      </concept>
      <concept id="1068498886292" name="jetbrains.mps.baseLanguage.structure.ParameterDeclaration" flags="ir" index="37vLTG" />
      <concept id="4972933694980447171" name="jetbrains.mps.baseLanguage.structure.BaseVariableDeclaration" flags="ng" index="19Szcq">
        <child id="5680397130376446158" name="type" index="1tU5fm" />
      </concept>
      <concept id="1068580123132" name="jetbrains.mps.baseLanguage.structure.BaseMethodDeclaration" flags="ng" index="3clF44">
        <child id="1068580123133" name="returnType" index="3clF45" />
        <child id="1068580123134" name="parameter" index="3clF46" />
        <child id="1068580123135" name="body" index="3clF47" />
      </concept>
      <concept id="1068580123159" name="jetbrains.mps.baseLanguage.structure.IfStatement" flags="nn" index="3clFbJ">
        <child id="1068580123160" name="condition" index="3clFbw" />
        <child id="1068580123161" name="ifTrue" index="3clFbx" />
      </concept>
      <concept id="1068580123136" name="jetbrains.mps.baseLanguage.structure.StatementList" flags="sn" stub="5293379017992965193" index="3clFbS">
        <child id="1068581517665" name="statement" index="3cqZAp" />
      </concept>
      <concept id="1068581242878" name="jetbrains.mps.baseLanguage.structure.ReturnStatement" flags="nn" index="3cpWs6">
        <child id="1068581517676" name="expression" index="3cqZAk" />
      </concept>
      <concept id="1204053956946" name="jetbrains.mps.baseLanguage.structure.IMethodCall" flags="ng" index="1ndlxa">
        <reference id="1068499141037" name="baseMethodDeclaration" index="37wK5l" />
        <child id="1068499141038" name="actualArgument" index="37wK5m" />
      </concept>
      <concept id="1107535904670" name="jetbrains.mps.baseLanguage.structure.ClassifierType" flags="in" index="3uibUv">
        <reference id="1107535924139" name="classifier" index="3uigEE" />
      </concept>
      <concept id="1081773326031" name="jetbrains.mps.baseLanguage.structure.BinaryOperation" flags="nn" index="3uHJSO">
        <child id="1081773367579" name="rightExpression" index="3uHU7w" />
        <child id="1081773367580" name="leftExpression" index="3uHU7B" />
      </concept>
      <concept id="1178549954367" name="jetbrains.mps.baseLanguage.structure.IVisible" flags="ng" index="1B3ioH">
        <child id="1178549979242" name="visibility" index="1B3o_S" />
      </concept>
      <concept id="1146644602865" name="jetbrains.mps.baseLanguage.structure.PublicVisibility" flags="nn" index="3Tm1VV" />
      <concept id="1080120340718" name="jetbrains.mps.baseLanguage.structure.AndExpression" flags="nn" index="1Wc70l" />
    </language>
    <language id="d8f591ec-4d86-4af2-9f92-a9e93c803ffa" name="jetbrains.mps.lang.scopes">
      <concept id="8077936094962944991" name="jetbrains.mps.lang.scopes.structure.ComeFromExpression" flags="nn" index="iy1fb">
        <reference id="8077936094962945822" name="link" index="iy1sa" />
      </concept>
      <concept id="8077936094962911282" name="jetbrains.mps.lang.scopes.structure.ParentScope" flags="nn" index="iy90A" />
    </language>
    <language id="7866978e-a0f0-4cc7-81bc-4d213d9375e1" name="jetbrains.mps.lang.smodel">
      <concept id="1177026924588" name="jetbrains.mps.lang.smodel.structure.RefConcept_Reference" flags="nn" index="chp4Y">
        <reference id="1177026940964" name="conceptDeclaration" index="cht4Q" />
      </concept>
      <concept id="1180031783296" name="jetbrains.mps.lang.smodel.structure.Concept_IsSubConceptOfOperation" flags="nn" index="2Zo12i">
        <child id="1180031783297" name="conceptArgument" index="2Zo12j" />
      </concept>
      <concept id="2644386474301421077" name="jetbrains.mps.lang.smodel.structure.LinkIdRefExpression" flags="nn" index="359W_D">
        <reference id="2644386474301421078" name="conceptDeclaration" index="359W_E" />
        <reference id="2644386474301421079" name="linkDeclaration" index="359W_F" />
      </concept>
      <concept id="1138055754698" name="jetbrains.mps.lang.smodel.structure.SNodeType" flags="in" index="3Tqbb2" />
      <concept id="1172420572800" name="jetbrains.mps.lang.smodel.structure.ConceptNodeType" flags="in" index="3THzug" />
    </language>
    <language id="ceab5195-25ea-4f22-9b92-103b95ca8c0c" name="jetbrains.mps.lang.core">
      <concept id="1169194658468" name="jetbrains.mps.lang.core.structure.INamedConcept" flags="ng" index="TrEIO">
        <property id="1169194664001" name="name" index="TrG5h" />
      </concept>
    </language>
  </registry>
  <node concept="13h7C7" id="3ASi0WxiFmr">
    <ref role="13h7C2" to="64en:i46Ymgg" resolve="Calculator" />
    <node concept="13hLZK" id="3ASi0WxiFms" role="13h7CW">
      <node concept="3clFbS" id="3ASi0WxiFmt" role="2VODD2" />
    </node>
    <node concept="13i0hz" id="3ASi0WxiFmI" role="13h7CS">
      <property role="13i0iv" value="false" />
      <property role="13i0it" value="false" />
      <property role="TrG5h" value="getScope" />
      <ref role="13i0hy" to="tpcu:3fifI_xCJOQ" resolve="getScope" />
      <node concept="3Tm1VV" id="3ASi0WxiFmJ" role="1B3o_S" />
      <node concept="3clFbS" id="3ASi0WxiFmK" role="3clF47">
        <node concept="3clFbJ" id="3ASi0WxiFn6" role="3cqZAp">
          <node concept="3clFbS" id="3ASi0WxiFn7" role="3clFbx">
            <node concept="3cpWs6" id="3ASi0WxiFn_" role="3cqZAp">
              <node concept="2YIFZM" id="3ASi0WxiFnH" role="3cqZAk">
                <ref role="1Pybhc" to="o8zo:7ipADkTevLm" resolve="SimpleRoleScope" />
                <ref role="37wK5l" to="o8zo:6t3ylNOzI9Y" resolve="forNamedElements" />
                <node concept="13iPFW" id="3ASi0WxiFnI" role="37wK5m" />
                <node concept="359W_D" id="6t3ylNOzPXh" role="37wK5m">
                  <ref role="359W_E" to="64en:i46Ymgg" resolve="Calculator" />
                  <ref role="359W_F" to="64en:i46YMrC" />
                </node>
              </node>
            </node>
          </node>
          <node concept="1Wc70l" id="3apFoV2wNly" role="3clFbw">
            <node concept="iy1fb" id="3apFoV2xd1P" role="3uHU7w">
              <ref role="iy1sa" to="64en:i46ZtXh" />
            </node>
            <node concept="2OqwBi" id="3ASi0WxiFnt" role="3uHU7B">
              <node concept="37vLTw" id="2BHiRxgha4Y" role="2Oq$k0">
                <ref role="3cqZAo" node="3ASi0WxiFmL" resolve="kind" />
              </node>
              <node concept="2Zo12i" id="3ASi0WxiFny" role="2OqNvi">
                <node concept="chp4Y" id="3ASi0WxiFn$" role="2Zo12j">
                  <ref role="cht4Q" to="64en:i46Yz6h" resolve="InputField" />
                </node>
              </node>
            </node>
          </node>
        </node>
        <node concept="3cpWs6" id="3ASi0WxiFnM" role="3cqZAp">
          <node concept="iy90A" id="3apFoV2xd5L" role="3cqZAk" />
        </node>
      </node>
      <node concept="37vLTG" id="3ASi0WxiFmL" role="3clF46">
        <property role="TrG5h" value="kind" />
        <node concept="3THzug" id="3ASi0WxiFmM" role="1tU5fm" />
      </node>
      <node concept="37vLTG" id="3ASi0WxiFmN" role="3clF46">
        <property role="TrG5h" value="child" />
        <node concept="3Tqbb2" id="3ASi0WxiFmO" role="1tU5fm" />
      </node>
      <node concept="3uibUv" id="3ASi0WxiFmW" role="3clF45">
        <ref role="3uigEE" to="o8zo:3fifI_xCtN$" resolve="Scope" />
      </node>
    </node>
  </node>
</model>

