<?xml version="1.0" encoding="UTF-8"?>
<model ref="r:87765d2d-a756-4883-9acc-6a42e5bf6c23(jetbrains.mps.calculator.structure)">
  <persistence version="9" />
  <languages>
    <use id="c72da2b9-7cce-4447-8389-f407dc1158b7" name="jetbrains.mps.lang.structure" version="3" />
    <use id="982eb8df-2c96-4bd7-9963-11712ea622e5" name="jetbrains.mps.lang.resources" version="2" />
    <devkit ref="fbc25dd2-5da4-483a-8b19-70928e1b62d7(jetbrains.mps.devkit.general-purpose)" />
  </languages>
  <imports>
    <import index="tpck" ref="r:00000000-0000-4000-0000-011c89590288(jetbrains.mps.lang.core.structure)" implicit="true" />
    <import index="4fqr" ref="r:fa713d69-08ea-4732-b1f2-cb07f9e103ef(jetbrains.mps.execution.util.structure)" implicit="true" />
    <import index="tpee" ref="r:00000000-0000-4000-0000-011c895902ca(jetbrains.mps.baseLanguage.structure)" implicit="true" />
  </imports>
  <registry>
    <language id="c72da2b9-7cce-4447-8389-f407dc1158b7" name="jetbrains.mps.lang.structure">
      <concept id="1169125787135" name="jetbrains.mps.lang.structure.structure.AbstractConceptDeclaration" flags="ig" index="PkWjJ">
        <property id="6714410169261853888" name="conceptId" index="EcuMT" />
        <child id="1071489727083" name="linkDeclaration" index="1TKVEi" />
      </concept>
      <concept id="1169127622168" name="jetbrains.mps.lang.structure.structure.InterfaceConceptReference" flags="ig" index="PrWs8">
        <reference id="1169127628841" name="intfc" index="PrY4T" />
      </concept>
      <concept id="1071489090640" name="jetbrains.mps.lang.structure.structure.ConceptDeclaration" flags="ig" index="1TIwiD">
        <property id="5404671619616246344" name="staticScope" index="2_RsDV" />
        <property id="1096454100552" name="rootable" index="19KtqR" />
        <reference id="1071489389519" name="extends" index="1TJDcQ" />
        <child id="1169129564478" name="implements" index="PzmwI" />
      </concept>
      <concept id="1071489288298" name="jetbrains.mps.lang.structure.structure.LinkDeclaration" flags="ig" index="1TJgyj">
        <property id="1071599776563" name="role" index="20kJfa" />
        <property id="1071599893252" name="sourceCardinality" index="20lbJX" />
        <property id="1071599937831" name="metaClass" index="20lmBu" />
        <property id="241647608299431140" name="linkId" index="IQ2ns" />
        <reference id="1071599976176" name="target" index="20lvS9" />
      </concept>
    </language>
    <language id="ceab5195-25ea-4f22-9b92-103b95ca8c0c" name="jetbrains.mps.lang.core">
      <concept id="1169194658468" name="jetbrains.mps.lang.core.structure.INamedConcept" flags="ng" index="TrEIO">
        <property id="1169194664001" name="name" index="TrG5h" />
      </concept>
    </language>
  </registry>
  <node concept="1TIwiD" id="i46Ymgg">
    <property role="19KtqR" value="true" />
    <property role="TrG5h" value="Calculator" />
    <property role="EcuMT" value="1241362555920" />
    <ref role="1TJDcQ" to="tpck:gw2VY9q" resolve="BaseConcept" />
    <node concept="1TJgyj" id="i46YMrC" role="1TKVEi">
      <property role="20lmBu" value="aggregation" />
      <property role="20kJfa" value="inputField" />
      <property role="20lbJX" value="0..n" />
      <property role="IQ2ns" value="1241362671336" />
      <ref role="20lvS9" node="i46Yz6h" resolve="InputField" />
    </node>
    <node concept="1TJgyj" id="i46ZtXh" role="1TKVEi">
      <property role="20lmBu" value="aggregation" />
      <property role="20kJfa" value="outputField" />
      <property role="20lbJX" value="0..n" />
      <property role="IQ2ns" value="1241362849617" />
      <ref role="20lvS9" node="i46ZlEo" resolve="OutputField" />
    </node>
    <node concept="PrWs8" id="i46YoDm" role="PzmwI">
      <ref role="PrY4T" to="tpck:h0TrEE$" resolve="INamedConcept" />
    </node>
    <node concept="PrWs8" id="1Uo8p4UaOxy" role="PzmwI">
      <ref role="PrY4T" to="4fqr:431DWIovi3l" resolve="IMainClass" />
    </node>
    <node concept="PrWs8" id="3ASi0WxiFmq" role="PzmwI">
      <ref role="PrY4T" to="tpck:3fifI_xCcJN" resolve="ScopeProvider" />
    </node>
  </node>
  <node concept="1TIwiD" id="i46Yz6h">
    <property role="TrG5h" value="InputField" />
    <property role="EcuMT" value="1241362608529" />
    <ref role="1TJDcQ" to="tpck:gw2VY9q" resolve="BaseConcept" />
    <node concept="PrWs8" id="i46YChP" role="PzmwI">
      <ref role="PrY4T" to="tpck:h0TrEE$" resolve="INamedConcept" />
    </node>
  </node>
  <node concept="1TIwiD" id="i46ZlEo">
    <property role="TrG5h" value="OutputField" />
    <property role="EcuMT" value="1241362815640" />
    <ref role="1TJDcQ" to="tpck:gw2VY9q" resolve="BaseConcept" />
    <node concept="1TJgyj" id="i470dVI" role="1TKVEi">
      <property role="20lmBu" value="aggregation" />
      <property role="20kJfa" value="expression" />
      <property role="20lbJX" value="1" />
      <property role="IQ2ns" value="1241363046126" />
      <ref role="20lvS9" to="tpee:fz3vP1J" resolve="Expression" />
    </node>
  </node>
  <node concept="1TIwiD" id="i470n16">
    <property role="TrG5h" value="InputFieldReference" />
    <property role="2_RsDV" value="none" />
    <property role="EcuMT" value="1241363083334" />
    <ref role="1TJDcQ" to="tpee:fz3vP1J" resolve="Expression" />
    <node concept="1TJgyj" id="i470soo" role="1TKVEi">
      <property role="20lmBu" value="reference" />
      <property role="20kJfa" value="field" />
      <property role="20lbJX" value="1" />
      <property role="IQ2ns" value="1241363105304" />
      <ref role="20lvS9" node="i46Yz6h" resolve="InputField" />
    </node>
  </node>
</model>

