<?xml version="1.0" encoding="UTF-8"?>
<model ref="9882f4ad-1955-46fe-8269-94189e5dbbf2/r:d1c6b1a8-aadb-4e40-a629-4e28469261a9(jetbrains.mps.lang.migration.util/jetbrains.mps.lang.migration.util.behavior)">
  <persistence version="9" />
  <languages>
    <use id="af65afd8-f0dd-4942-87d9-63a55f2a9db1" name="jetbrains.mps.lang.behavior" version="0" />
    <devkit ref="fbc25dd2-5da4-483a-8b19-70928e1b62d7(jetbrains.mps.devkit.general-purpose)" />
  </languages>
  <imports />
  <registry />
</model>

