<?xml version="1.0" encoding="UTF-8"?>
<model ref="9882f4ad-1955-46fe-8269-94189e5dbbf2/r:e492bdcd-6643-43a7-9109-e38bb05f5ec9(jetbrains.mps.lang.migration.util/jetbrains.mps.lang.migration.util.constraints)">
  <persistence version="9" />
  <languages>
    <use id="3f4bc5f5-c6c1-4a28-8b10-c83066ffa4a1" name="jetbrains.mps.lang.constraints" version="0" />
    <devkit ref="fbc25dd2-5da4-483a-8b19-70928e1b62d7(jetbrains.mps.devkit.general-purpose)" />
  </languages>
  <imports />
  <registry />
</model>

