<?xml version="1.0" encoding="UTF-8"?>
<model ref="9882f4ad-1955-46fe-8269-94189e5dbbf2/r:2b78cecc-7ac8-462a-9f0e-bf207b8ad57d(jetbrains.mps.lang.migration.util/jetbrains.mps.lang.migration.util.editor)">
  <persistence version="9" />
  <languages>
    <use id="18bc6592-03a6-4e29-a83a-7ff23bde13ba" name="jetbrains.mps.lang.editor" version="3" />
    <devkit ref="fbc25dd2-5da4-483a-8b19-70928e1b62d7(jetbrains.mps.devkit.general-purpose)" />
  </languages>
  <imports />
  <registry />
</model>

