<?xml version="1.0" encoding="UTF-8"?>
<model ref="9882f4ad-1955-46fe-8269-94189e5dbbf2/r:f3afda2a-1e73-443b-8e74-2e4c43867b70(jetbrains.mps.lang.migration.util/jetbrains.mps.lang.migration.util.structure)">
  <persistence version="9" />
  <languages>
    <use id="c72da2b9-7cce-4447-8389-f407dc1158b7" name="jetbrains.mps.lang.structure" version="3" />
    <use id="982eb8df-2c96-4bd7-9963-11712ea622e5" name="jetbrains.mps.lang.resources" version="2" />
  </languages>
  <imports>
    <import index="tpck" ref="r:00000000-0000-4000-0000-011c89590288(jetbrains.mps.lang.core.structure)" implicit="true" />
  </imports>
  <registry>
    <language id="c72da2b9-7cce-4447-8389-f407dc1158b7" name="jetbrains.mps.lang.structure">
      <concept id="1169125787135" name="jetbrains.mps.lang.structure.structure.AbstractConceptDeclaration" flags="ig" index="PkWjJ">
        <property id="6714410169261853888" name="conceptId" index="EcuMT" />
        <child id="1071489727083" name="linkDeclaration" index="1TKVEi" />
        <child id="1071489727084" name="propertyDeclaration" index="1TKVEl" />
      </concept>
      <concept id="1071489090640" name="jetbrains.mps.lang.structure.structure.ConceptDeclaration" flags="ig" index="1TIwiD">
        <property id="1096454100552" name="rootable" index="19KtqR" />
        <reference id="1071489389519" name="extends" index="1TJDcQ" />
      </concept>
      <concept id="1071489288299" name="jetbrains.mps.lang.structure.structure.PropertyDeclaration" flags="ig" index="1TJgyi">
        <property id="241647608299431129" name="propertyId" index="IQ2nx" />
        <reference id="1082985295845" name="dataType" index="AX2Wp" />
      </concept>
      <concept id="1071489288298" name="jetbrains.mps.lang.structure.structure.LinkDeclaration" flags="ig" index="1TJgyj">
        <property id="1071599776563" name="role" index="20kJfa" />
        <property id="1071599893252" name="sourceCardinality" index="20lbJX" />
        <property id="1071599937831" name="metaClass" index="20lmBu" />
        <property id="241647608299431140" name="linkId" index="IQ2ns" />
        <reference id="1071599976176" name="target" index="20lvS9" />
      </concept>
    </language>
    <language id="ceab5195-25ea-4f22-9b92-103b95ca8c0c" name="jetbrains.mps.lang.core">
      <concept id="1133920641626" name="jetbrains.mps.lang.core.structure.BaseConcept" flags="ng" index="2VYdi">
        <property id="1193676396447" name="virtualPackage" index="3GE5qa" />
      </concept>
      <concept id="1169194658468" name="jetbrains.mps.lang.core.structure.INamedConcept" flags="ng" index="TrEIO">
        <property id="1169194664001" name="name" index="TrG5h" />
      </concept>
    </language>
  </registry>
  <node concept="1TIwiD" id="2MgTSGzf3VY">
    <property role="TrG5h" value="StringData" />
    <property role="3GE5qa" value="persistence" />
    <property role="EcuMT" value="3211321119092784894" />
    <ref role="1TJDcQ" to="tpck:gw2VY9q" resolve="BaseConcept" />
    <node concept="1TJgyi" id="2MgTSGzf3Wa" role="1TKVEl">
      <property role="TrG5h" value="data" />
      <property role="IQ2nx" value="3211321119092784906" />
      <ref role="AX2Wp" to="tpck:fKAOsGN" resolve="string" />
    </node>
  </node>
  <node concept="1TIwiD" id="6rIOn75Y2s9">
    <property role="3GE5qa" value="persistence" />
    <property role="TrG5h" value="StepData" />
    <property role="19KtqR" value="true" />
    <property role="EcuMT" value="7417095922908669705" />
    <ref role="1TJDcQ" to="tpck:gw2VY9q" resolve="BaseConcept" />
    <node concept="1TJgyi" id="1HyHl712WnO" role="1TKVEl">
      <property role="TrG5h" value="script" />
      <property role="IQ2nx" value="1973338949477451252" />
      <ref role="AX2Wp" to="tpck:fKAOsGN" resolve="string" />
    </node>
    <node concept="1TJgyj" id="6rIOn75Yg8A" role="1TKVEi">
      <property role="20lmBu" value="aggregation" />
      <property role="20kJfa" value="data" />
      <property role="20lbJX" value="1" />
      <property role="IQ2ns" value="7417095922908725798" />
      <ref role="20lvS9" to="tpck:gw2VY9q" resolve="BaseConcept" />
    </node>
  </node>
</model>

