<?xml version="1.0" encoding="UTF-8"?>
<model ref="r:00000000-0000-4000-0000-011c8959057d(jetbrains.mps.baseLanguage.logging.editor)">
  <persistence version="9" />
  <languages>
    <use id="7866978e-a0f0-4cc7-81bc-4d213d9375e1" name="jetbrains.mps.lang.smodel" version="4" />
    <use id="18bc6592-03a6-4e29-a83a-7ff23bde13ba" name="jetbrains.mps.lang.editor" version="2" />
    <use id="f3061a53-9226-4cc5-a443-f952ceaf5816" name="jetbrains.mps.baseLanguage" version="4" />
    <devkit ref="fbc25dd2-5da4-483a-8b19-70928e1b62d7(jetbrains.mps.devkit.general-purpose)" />
  </languages>
  <imports>
    <import index="tpib" ref="r:00000000-0000-4000-0000-011c8959057f(jetbrains.mps.baseLanguage.logging.structure)" />
    <import index="tpen" ref="r:00000000-0000-4000-0000-011c895902c3(jetbrains.mps.baseLanguage.editor)" />
  </imports>
  <registry>
    <language id="18bc6592-03a6-4e29-a83a-7ff23bde13ba" name="jetbrains.mps.lang.editor">
      <concept id="1071666914219" name="jetbrains.mps.lang.editor.structure.ConceptEditorDeclaration" flags="ig" index="24kQdi">
        <child id="1078153129734" name="inspectedCellModel" index="6VMZX" />
      </concept>
      <concept id="1140524381322" name="jetbrains.mps.lang.editor.structure.CellModel_ListWithRole" flags="ng" index="2czfm3">
        <property id="1140524450557" name="separatorText" index="2czwfO" />
        <child id="1140524464360" name="cellLayout" index="2czzBx" />
        <child id="1140524464359" name="emptyCellModel" index="2czzBI" />
      </concept>
      <concept id="1237303669825" name="jetbrains.mps.lang.editor.structure.CellLayout_Indent" flags="nn" index="l2Vlx" />
      <concept id="1142886221719" name="jetbrains.mps.lang.editor.structure.QueryFunction_NodeCondition" flags="in" index="pkWqt" />
      <concept id="1142886811589" name="jetbrains.mps.lang.editor.structure.ConceptFunctionParameter_node" flags="nn" index="pncrf" />
      <concept id="1080736578640" name="jetbrains.mps.lang.editor.structure.BaseEditorComponent" flags="ig" index="2wURMF">
        <child id="1080736633877" name="cellModel" index="2wV5jI" />
      </concept>
      <concept id="1186403694788" name="jetbrains.mps.lang.editor.structure.ColorStyleClassItem" flags="ln" index="VaVBg">
        <property id="1186403713874" name="color" index="Vb096" />
      </concept>
      <concept id="1186403751766" name="jetbrains.mps.lang.editor.structure.FontStyleStyleClassItem" flags="ln" index="Vb9p2">
        <property id="1186403771423" name="style" index="Vbekb" />
      </concept>
      <concept id="1186404549998" name="jetbrains.mps.lang.editor.structure.ForegroundColorStyleClassItem" flags="ln" index="VechU" />
      <concept id="1186414536763" name="jetbrains.mps.lang.editor.structure.BooleanStyleSheetItem" flags="ln" index="VOi$J">
        <property id="1186414551515" name="flag" index="VOm3f" />
      </concept>
      <concept id="1186414860679" name="jetbrains.mps.lang.editor.structure.EditableStyleClassItem" flags="ln" index="VPxyj" />
      <concept id="1186414928363" name="jetbrains.mps.lang.editor.structure.SelectableStyleSheetItem" flags="ln" index="VPM3Z" />
      <concept id="1233758997495" name="jetbrains.mps.lang.editor.structure.PunctuationLeftStyleClassItem" flags="ln" index="11L4FC" />
      <concept id="1381004262292414836" name="jetbrains.mps.lang.editor.structure.ICellStyle" flags="ng" index="1k5N5V">
        <reference id="1381004262292426837" name="parentStyleClass" index="1k5W1q" />
      </concept>
      <concept id="1139848536355" name="jetbrains.mps.lang.editor.structure.CellModel_WithRole" flags="ng" index="1$h60E">
        <reference id="1140103550593" name="relationDeclaration" index="1NtTu8" />
      </concept>
      <concept id="1073389214265" name="jetbrains.mps.lang.editor.structure.EditorCellModel" flags="ng" index="3EYTF0">
        <child id="1142887637401" name="renderingCondition" index="pqm2j" />
      </concept>
      <concept id="1073389446423" name="jetbrains.mps.lang.editor.structure.CellModel_Collection" flags="sn" stub="3013115976261988961" index="3EZMnI">
        <child id="1106270802874" name="cellLayout" index="2iSdaV" />
        <child id="1073389446424" name="childCellModel" index="3EZMnx" />
      </concept>
      <concept id="1073389577006" name="jetbrains.mps.lang.editor.structure.CellModel_Constant" flags="sn" stub="3610246225209162225" index="3F0ifn">
        <property id="1073389577007" name="text" index="3F0ifm" />
      </concept>
      <concept id="1073389658414" name="jetbrains.mps.lang.editor.structure.CellModel_Property" flags="sg" stub="730538219796134133" index="3F0A7n" />
      <concept id="1219418625346" name="jetbrains.mps.lang.editor.structure.IStyleContainer" flags="ng" index="3F0Thp">
        <child id="1219418656006" name="styleItem" index="3F10Kt" />
      </concept>
      <concept id="1073389882823" name="jetbrains.mps.lang.editor.structure.CellModel_RefNode" flags="sg" stub="730538219795960754" index="3F1sOY" />
      <concept id="1073390211982" name="jetbrains.mps.lang.editor.structure.CellModel_RefNodeList" flags="sg" stub="2794558372793454595" index="3F2HdR" />
      <concept id="1166049232041" name="jetbrains.mps.lang.editor.structure.AbstractComponent" flags="ng" index="1XWOmA">
        <reference id="1166049300910" name="conceptDeclaration" index="1XX52x" />
      </concept>
    </language>
    <language id="f3061a53-9226-4cc5-a443-f952ceaf5816" name="jetbrains.mps.baseLanguage">
      <concept id="1197027756228" name="jetbrains.mps.baseLanguage.structure.DotExpression" flags="nn" index="2OqwBi">
        <child id="1197027771414" name="operand" index="2Oq$k0" />
        <child id="1197027833540" name="operation" index="2OqNvi" />
      </concept>
      <concept id="1137021947720" name="jetbrains.mps.baseLanguage.structure.ConceptFunction" flags="in" index="2VMwT0">
        <child id="1137022507850" name="body" index="2VODD2" />
      </concept>
      <concept id="1068580123136" name="jetbrains.mps.baseLanguage.structure.StatementList" flags="sn" stub="5293379017992965193" index="3clFbS">
        <child id="1068581517665" name="statement" index="3cqZAp" />
      </concept>
      <concept id="1068581242878" name="jetbrains.mps.baseLanguage.structure.ReturnStatement" flags="nn" index="3cpWs6">
        <child id="1068581517676" name="expression" index="3cqZAk" />
      </concept>
    </language>
    <language id="7866978e-a0f0-4cc7-81bc-4d213d9375e1" name="jetbrains.mps.lang.smodel">
      <concept id="1138056022639" name="jetbrains.mps.lang.smodel.structure.SPropertyAccess" flags="nn" index="3TrcHB">
        <reference id="1138056395725" name="property" index="3TsBF5" />
      </concept>
    </language>
  </registry>
  <node concept="24kQdi" id="gZ5gxZ4">
    <ref role="1XX52x" to="tpib:gZ4ab7v" resolve="LogStatement" />
    <node concept="3EZMnI" id="gZ5gyjY" role="2wV5jI">
      <node concept="3F0A7n" id="gZ5gyjZ" role="3EZMnx">
        <ref role="1NtTu8" to="tpib:gZ5gtXz" resolve="severity" />
        <node concept="Vb9p2" id="hEUNR0F" role="3F10Kt">
          <property role="Vbekb" value="BOLD" />
        </node>
        <node concept="VechU" id="hEZR8vS" role="3F10Kt">
          <property role="Vb096" value="DARK_BLUE" />
        </node>
      </node>
      <node concept="3F1sOY" id="gZ5gyk0" role="3EZMnx">
        <ref role="1NtTu8" to="tpib:gZ4bqmg" />
      </node>
      <node concept="3EZMnI" id="gZ5gyk1" role="3EZMnx">
        <node concept="pkWqt" id="gZ5gyk4" role="pqm2j">
          <node concept="3clFbS" id="gZ5gyk5" role="2VODD2">
            <node concept="3cpWs6" id="gZ5gyk6" role="3cqZAp">
              <node concept="2OqwBi" id="hxx$ZEH" role="3cqZAk">
                <node concept="pncrf" id="gZ5gyk8" role="2Oq$k0" />
                <node concept="3TrcHB" id="gZ5gyk9" role="2OqNvi">
                  <ref role="3TsBF5" to="tpib:gZ4fQWf" resolve="hasException" />
                </node>
              </node>
            </node>
          </node>
        </node>
        <node concept="VPM3Z" id="hEU$Q0V" role="3F10Kt">
          <property role="VOm3f" value="false" />
        </node>
        <node concept="3F0ifn" id="gZ5gyk2" role="3EZMnx">
          <property role="3F0ifm" value="," />
          <node concept="VPM3Z" id="hEU$Pkb" role="3F10Kt">
            <property role="VOm3f" value="false" />
          </node>
          <node concept="11L4FC" id="1yoijmglw6U" role="3F10Kt">
            <property role="VOm3f" value="true" />
          </node>
        </node>
        <node concept="3F1sOY" id="gZ5gyk3" role="3EZMnx">
          <ref role="1NtTu8" to="tpib:gZ4bMnD" />
        </node>
        <node concept="l2Vlx" id="i0MByN5" role="2iSdaV" />
      </node>
      <node concept="3F0ifn" id="gZ5gyka" role="3EZMnx">
        <property role="3F0ifm" value=";" />
        <ref role="1k5W1q" to="tpen:hFDgi_W" resolve="Semicolon" />
      </node>
      <node concept="l2Vlx" id="i0MByN7" role="2iSdaV" />
    </node>
    <node concept="3EZMnI" id="h0JTGco" role="6VMZX">
      <node concept="3F0ifn" id="h0JTIXT" role="3EZMnx">
        <property role="3F0ifm" value="Has exception" />
      </node>
      <node concept="3F0A7n" id="h0JTLBQ" role="3EZMnx">
        <ref role="1NtTu8" to="tpib:gZ4fQWf" resolve="hasException" />
      </node>
      <node concept="3F0ifn" id="h0JTNa1" role="3EZMnx">
        <property role="3F0ifm" value="Alt+Enter" />
        <node concept="VPM3Z" id="hEU$P1n" role="3F10Kt">
          <property role="VOm3f" value="false" />
        </node>
        <node concept="VechU" id="hEZR8lZ" role="3F10Kt">
          <property role="Vb096" value="lightGray" />
        </node>
      </node>
      <node concept="l2Vlx" id="i0MByNc" role="2iSdaV" />
    </node>
  </node>
  <node concept="24kQdi" id="h0abuSP">
    <ref role="1XX52x" to="tpib:h0abccw" resolve="PrintStatement" />
    <node concept="3EZMnI" id="h0abvBh" role="2wV5jI">
      <node concept="3F0ifn" id="h0abwqN" role="3EZMnx">
        <property role="3F0ifm" value="print" />
      </node>
      <node concept="3F0ifn" id="h0abxad" role="3EZMnx">
        <property role="3F0ifm" value="(" />
        <ref role="1k5W1q" to="tpen:i177PM9" resolve="Matching" />
      </node>
      <node concept="3F2HdR" id="h0ab_xm" role="3EZMnx">
        <property role="2czwfO" value="+" />
        <ref role="1NtTu8" to="tpib:h0abpxz" />
        <node concept="3F0ifn" id="h0abBwk" role="2czzBI">
          <node concept="VPxyj" id="hEZKQxC" role="3F10Kt">
            <property role="VOm3f" value="true" />
          </node>
        </node>
        <node concept="VPM3Z" id="hEU$OXY" role="3F10Kt">
          <property role="VOm3f" value="true" />
        </node>
        <node concept="l2Vlx" id="i0NSvQq" role="2czzBx" />
      </node>
      <node concept="3F0ifn" id="h0abxU$" role="3EZMnx">
        <property role="3F0ifm" value=")" />
        <ref role="1k5W1q" to="tpen:i177PM9" resolve="Matching" />
      </node>
      <node concept="3F0ifn" id="h0abyDI" role="3EZMnx">
        <property role="3F0ifm" value=";" />
      </node>
      <node concept="l2Vlx" id="i0MByNa" role="2iSdaV" />
    </node>
  </node>
</model>

