<?xml version="1.0" encoding="UTF-8"?>
<model ref="r:eb069144-c376-4eb0-a277-cda9e3262e77(jetbrains.mps.lang.aspect.migration)">
  <persistence version="9" />
  <languages>
    <use id="90746344-04fd-4286-97d5-b46ae6a81709" name="jetbrains.mps.lang.migration" version="0" />
    <use id="28f9e497-3b42-4291-aeba-0a1039153ab1" name="jetbrains.mps.lang.plugin" version="1" />
    <use id="d4615e3b-d671-4ba9-af01-2b78369b0ba7" name="jetbrains.mps.lang.pattern" version="1" />
    <use id="1a8554c4-eb84-43ba-8c34-6f0d90c6e75a" name="jetbrains.mps.lang.smodel.query" version="2" />
    <devkit ref="fbc25dd2-5da4-483a-8b19-70928e1b62d7(jetbrains.mps.devkit.general-purpose)" />
  </languages>
  <imports>
    <import index="c17a" ref="8865b7a8-5271-43d3-884c-6fd1d9cfdd34/java:org.jetbrains.mps.openapi.language(MPS.OpenAPI/)" />
    <import index="lui2" ref="8865b7a8-5271-43d3-884c-6fd1d9cfdd34/java:org.jetbrains.mps.openapi.module(MPS.OpenAPI/)" />
    <import index="3aup" ref="6ed54515-acc8-4d1e-a16c-9fd6cfe951ea/java:jetbrains.mps.lang.migration.runtime.base(MPS.Core/)" />
    <import index="6f4m" ref="528ff3b9-5fc4-40dd-931f-c6ce3650640e/r:f69c3fa1-0e30-4980-84e2-190ae44e4c3d(jetbrains.mps.lang.migration.runtime/jetbrains.mps.lang.migration.runtime.base)" />
    <import index="slm6" ref="90746344-04fd-4286-97d5-b46ae6a81709/r:52a3d974-bd4f-4651-ba6e-a2de5e336d95(jetbrains.mps.lang.migration/jetbrains.mps.lang.migration.methods)" implicit="true" />
    <import index="hfbu" ref="r:2ea71bfd-fe13-4525-9346-023b05757b39(jetbrains.mps.lang.aspect.structure)" implicit="true" />
    <import index="tp25" ref="r:00000000-0000-4000-0000-011c89590301(jetbrains.mps.lang.smodel.structure)" implicit="true" />
    <import index="wyt6" ref="6354ebe7-c22a-4a0f-ac54-50b52ab9b065/java:java.lang(JDK/)" implicit="true" />
  </imports>
  <registry>
    <language id="f3061a53-9226-4cc5-a443-f952ceaf5816" name="jetbrains.mps.baseLanguage">
      <concept id="1080223426719" name="jetbrains.mps.baseLanguage.structure.OrExpression" flags="nn" index="22lmx$" />
      <concept id="4836112446988635817" name="jetbrains.mps.baseLanguage.structure.UndefinedType" flags="in" index="2jxLKc" />
      <concept id="1465982738277781862" name="jetbrains.mps.baseLanguage.structure.PlaceholderMember" flags="ng" index="2tJIrI" />
      <concept id="1197027756228" name="jetbrains.mps.baseLanguage.structure.DotExpression" flags="nn" index="2OqwBi">
        <child id="1197027771414" name="operand" index="2Oq$k0" />
        <child id="1197027833540" name="operation" index="2OqNvi" />
      </concept>
      <concept id="1145552977093" name="jetbrains.mps.baseLanguage.structure.GenericNewExpression" flags="nn" index="2ShNRf">
        <child id="1145553007750" name="creator" index="2ShVmc" />
      </concept>
      <concept id="1070475926800" name="jetbrains.mps.baseLanguage.structure.StringLiteral" flags="nn" index="Xl_RD">
        <property id="1070475926801" name="value" index="Xl_RC" />
      </concept>
      <concept id="1182160077978" name="jetbrains.mps.baseLanguage.structure.AnonymousClassCreator" flags="nn" index="YeOm9">
        <child id="1182160096073" name="cls" index="YeSDq" />
      </concept>
      <concept id="1070534644030" name="jetbrains.mps.baseLanguage.structure.BooleanType" flags="in" index="10P_77" />
      <concept id="1070534934090" name="jetbrains.mps.baseLanguage.structure.CastExpression" flags="nn" index="10QFUN">
        <child id="1070534934091" name="type" index="10QFUM" />
        <child id="1070534934092" name="expression" index="10QFUP" />
      </concept>
      <concept id="1068498886296" name="jetbrains.mps.baseLanguage.structure.VariableReference" flags="nn" index="37vLTw">
        <reference id="1068581517664" name="variableDeclaration" index="3cqZAo" />
      </concept>
      <concept id="1225271177708" name="jetbrains.mps.baseLanguage.structure.StringType" flags="in" index="17QB3L" />
      <concept id="4972933694980447171" name="jetbrains.mps.baseLanguage.structure.BaseVariableDeclaration" flags="ng" index="19Szcq">
        <child id="5680397130376446158" name="type" index="1tU5fm" />
      </concept>
      <concept id="1068580123132" name="jetbrains.mps.baseLanguage.structure.BaseMethodDeclaration" flags="ng" index="3clF44">
        <child id="1068580123133" name="returnType" index="3clF45" />
        <child id="1068580123134" name="parameter" index="3clF46" />
        <child id="1068580123135" name="body" index="3clF47" />
      </concept>
      <concept id="1068580123165" name="jetbrains.mps.baseLanguage.structure.InstanceMethodDeclaration" flags="ig" index="3clFb_">
        <property id="1178608670077" name="isAbstract" index="1EzhhJ" />
      </concept>
      <concept id="1068580123155" name="jetbrains.mps.baseLanguage.structure.ExpressionStatement" flags="nn" index="3clFbF">
        <child id="1068580123156" name="expression" index="3clFbG" />
      </concept>
      <concept id="1068580123157" name="jetbrains.mps.baseLanguage.structure.Statement" flags="nn" index="3clFbH" />
      <concept id="1068580123136" name="jetbrains.mps.baseLanguage.structure.StatementList" flags="sn" stub="5293379017992965193" index="3clFbS">
        <child id="1068581517665" name="statement" index="3cqZAp" />
      </concept>
      <concept id="1068581242878" name="jetbrains.mps.baseLanguage.structure.ReturnStatement" flags="nn" index="3cpWs6">
        <child id="1068581517676" name="expression" index="3cqZAk" />
      </concept>
      <concept id="1079359253375" name="jetbrains.mps.baseLanguage.structure.ParenthesizedExpression" flags="nn" index="1eOMI4">
        <child id="1079359253376" name="expression" index="1eOMHV" />
      </concept>
      <concept id="1204053956946" name="jetbrains.mps.baseLanguage.structure.IMethodCall" flags="ng" index="1ndlxa">
        <reference id="1068499141037" name="baseMethodDeclaration" index="37wK5l" />
        <child id="1068499141038" name="actualArgument" index="37wK5m" />
      </concept>
      <concept id="1107461130800" name="jetbrains.mps.baseLanguage.structure.Classifier" flags="ng" index="3pOWGL">
        <property id="521412098689998745" name="nonStatic" index="2bfB8j" />
        <child id="5375687026011219971" name="member" index="jymVt" unordered="true" />
      </concept>
      <concept id="1107535904670" name="jetbrains.mps.baseLanguage.structure.ClassifierType" flags="in" index="3uibUv">
        <reference id="1107535924139" name="classifier" index="3uigEE" />
      </concept>
      <concept id="1081773326031" name="jetbrains.mps.baseLanguage.structure.BinaryOperation" flags="nn" index="3uHJSO">
        <child id="1081773367579" name="rightExpression" index="3uHU7w" />
        <child id="1081773367580" name="leftExpression" index="3uHU7B" />
      </concept>
      <concept id="1178549954367" name="jetbrains.mps.baseLanguage.structure.IVisible" flags="ng" index="1B3ioH">
        <child id="1178549979242" name="visibility" index="1B3o_S" />
      </concept>
      <concept id="1146644602865" name="jetbrains.mps.baseLanguage.structure.PublicVisibility" flags="nn" index="3Tm1VV" />
      <concept id="1170345865475" name="jetbrains.mps.baseLanguage.structure.AnonymousClass" flags="ig" index="1Y3b0j">
        <reference id="1170346070688" name="classifier" index="1Y3XeK" />
      </concept>
    </language>
    <language id="fd392034-7849-419d-9071-12563d152375" name="jetbrains.mps.baseLanguage.closures">
      <concept id="1199569711397" name="jetbrains.mps.baseLanguage.closures.structure.ClosureLiteral" flags="nn" index="1bVj0M">
        <child id="1199569906740" name="parameter" index="1bW2Oz" />
        <child id="1199569916463" name="body" index="1bW5cS" />
      </concept>
    </language>
    <language id="c7d5b9dd-a05f-4be2-bc73-f2e16994cc67" name="jetbrains.mps.baseLanguage.lightweightdsl">
      <concept id="8880393040217246788" name="jetbrains.mps.baseLanguage.lightweightdsl.structure.MethodParameterInstance" flags="ig" index="ffn8J">
        <reference id="8880393040217294897" name="decl" index="ffrpq" />
      </concept>
      <concept id="3751132065236767083" name="jetbrains.mps.baseLanguage.lightweightdsl.structure.DependentTypeInstance" flags="ig" index="q3mfm">
        <reference id="3751132065236767084" name="decl" index="q3mfh" />
        <reference id="9097849371505568270" name="point" index="1QQUv3" />
      </concept>
      <concept id="3751132065236767060" name="jetbrains.mps.baseLanguage.lightweightdsl.structure.MethodInstance" flags="ig" index="q3mfD">
        <reference id="19209059688387895" name="decl" index="2VtyIY" />
      </concept>
      <concept id="6478870542308708689" name="jetbrains.mps.baseLanguage.lightweightdsl.structure.PropertyInstance" flags="ig" index="3tT0cZ">
        <reference id="8585153554445465961" name="decl" index="25KYV2" />
      </concept>
      <concept id="6478870542308703666" name="jetbrains.mps.baseLanguage.lightweightdsl.structure.MemberPlaceholder" flags="ng" index="3tTeZs">
        <property id="6478870542308703667" name="caption" index="3tTeZt" />
        <reference id="6478870542308703669" name="decl" index="3tTeZr" />
      </concept>
      <concept id="6478870542308871875" name="jetbrains.mps.baseLanguage.lightweightdsl.structure.BooleanPropertyInstance" flags="ig" index="3tYpMH">
        <property id="6478870542308871876" name="value" index="3tYpME" />
      </concept>
      <concept id="6478870542308871428" name="jetbrains.mps.baseLanguage.lightweightdsl.structure.StringPropertyInstance" flags="ig" index="3tYpXE">
        <property id="6478870542308871429" name="value" index="3tYpXF" />
      </concept>
    </language>
    <language id="7866978e-a0f0-4cc7-81bc-4d213d9375e1" name="jetbrains.mps.lang.smodel">
      <concept id="1177026924588" name="jetbrains.mps.lang.smodel.structure.RefConcept_Reference" flags="nn" index="chp4Y">
        <reference id="1177026940964" name="conceptDeclaration" index="cht4Q" />
      </concept>
      <concept id="1138056143562" name="jetbrains.mps.lang.smodel.structure.SLinkAccess" flags="nn" index="3TrEf2">
        <reference id="1138056516764" name="link" index="3Tt5mk" />
      </concept>
      <concept id="1138056282393" name="jetbrains.mps.lang.smodel.structure.SLinkListAccess" flags="nn" index="3Tsc0h">
        <reference id="1138056546658" name="link" index="3TtcxE" />
      </concept>
    </language>
    <language id="ceab5195-25ea-4f22-9b92-103b95ca8c0c" name="jetbrains.mps.lang.core">
      <concept id="1169194658468" name="jetbrains.mps.lang.core.structure.INamedConcept" flags="ng" index="TrEIO">
        <property id="1169194664001" name="name" index="TrG5h" />
      </concept>
    </language>
    <language id="90746344-04fd-4286-97d5-b46ae6a81709" name="jetbrains.mps.lang.migration">
      <concept id="8352104482584315555" name="jetbrains.mps.lang.migration.structure.MigrationScript" flags="ig" index="3SyAh_">
        <property id="5820409521797704727" name="fromVersion" index="qMTe8" />
      </concept>
    </language>
    <language id="1a8554c4-eb84-43ba-8c34-6f0d90c6e75a" name="jetbrains.mps.lang.smodel.query">
      <concept id="7738379549910147341" name="jetbrains.mps.lang.smodel.query.structure.InstancesExpression" flags="ng" index="qVDSY">
        <child id="7738379549910147342" name="conceptArg" index="qVDSX" />
      </concept>
      <concept id="4234138103881610891" name="jetbrains.mps.lang.smodel.query.structure.WithStatement" flags="ng" index="L3pyB">
        <child id="4234138103881610935" name="scope" index="L3pyr" />
        <child id="4234138103881610892" name="stmts" index="L3pyw" />
      </concept>
      <concept id="4307205004131544317" name="jetbrains.mps.lang.smodel.query.structure.QueryExpression" flags="ng" index="1dNuzs">
        <child id="4307205004132279624" name="parameter" index="1dOa5D" />
      </concept>
      <concept id="4307205004132277753" name="jetbrains.mps.lang.smodel.query.structure.QueryParameterList" flags="ng" index="1dO9Bo" />
    </language>
    <language id="83888646-71ce-4f1c-9c53-c54016f6ad4f" name="jetbrains.mps.baseLanguage.collections">
      <concept id="1204796164442" name="jetbrains.mps.baseLanguage.collections.structure.InternalSequenceOperation" flags="nn" index="23sCx2">
        <child id="1204796294226" name="closure" index="23t8la" />
      </concept>
      <concept id="540871147943773365" name="jetbrains.mps.baseLanguage.collections.structure.SingleArgumentSequenceOperation" flags="nn" index="25WWJ4">
        <child id="540871147943773366" name="argument" index="25WWJ7" />
      </concept>
      <concept id="1204980550705" name="jetbrains.mps.baseLanguage.collections.structure.VisitAllOperation" flags="nn" index="2es0OD" />
      <concept id="1151689724996" name="jetbrains.mps.baseLanguage.collections.structure.SequenceType" flags="in" index="A3Dl8">
        <child id="1151689745422" name="elementType" index="A3Ik2" />
      </concept>
      <concept id="1227022210526" name="jetbrains.mps.baseLanguage.collections.structure.ClearAllElementsOperation" flags="nn" index="2Kehj3" />
      <concept id="1203518072036" name="jetbrains.mps.baseLanguage.collections.structure.SmartClosureParameterDeclaration" flags="ig" index="Rh6nW" />
      <concept id="1160666733551" name="jetbrains.mps.baseLanguage.collections.structure.AddAllElementsOperation" flags="nn" index="X8dFx" />
      <concept id="1202120902084" name="jetbrains.mps.baseLanguage.collections.structure.WhereOperation" flags="nn" index="3zZkjj" />
      <concept id="1202128969694" name="jetbrains.mps.baseLanguage.collections.structure.SelectOperation" flags="nn" index="3$u5V9" />
      <concept id="1176501494711" name="jetbrains.mps.baseLanguage.collections.structure.IsNotEmptyOperation" flags="nn" index="3GX2aA" />
    </language>
  </registry>
  <node concept="3SyAh_" id="5iYmYly3IaY">
    <property role="qMTe8" value="0" />
    <property role="TrG5h" value="MigrateLanguageReference" />
    <node concept="3Tm1VV" id="5iYmYly3IaZ" role="1B3o_S" />
    <node concept="3tTeZs" id="5iYmYly3Ib0" role="jymVt">
      <property role="3tTeZt" value="&lt;no execute after&gt;" />
      <ref role="3tTeZr" to="slm6:7ay_HjIMt1a" resolve="execute after" />
    </node>
    <node concept="3tTeZs" id="5iYmYly3Ib1" role="jymVt">
      <property role="3tTeZt" value="&lt;no required data&gt;" />
      <ref role="3tTeZr" to="slm6:3A3gNhf1WPI" resolve="requires data" />
    </node>
    <node concept="3tTeZs" id="5iYmYly3Ib2" role="jymVt">
      <property role="3tTeZt" value="&lt;no produced data&gt;" />
      <ref role="3tTeZr" to="slm6:536fTXa4WHO" resolve="produces data" />
    </node>
    <node concept="2tJIrI" id="5iYmYly3Ib3" role="jymVt" />
    <node concept="3tYpMH" id="5HOQcpHJWwK" role="jymVt">
      <property role="TrG5h" value="isRerunnable" />
      <property role="3tYpME" value="true" />
      <ref role="25KYV2" to="slm6:1JWcQ2VeWIs" resolve="isRerunnable" />
      <node concept="3Tm1VV" id="5HOQcpHJWwM" role="1B3o_S" />
      <node concept="10P_77" id="5HOQcpHJWwN" role="1tU5fm" />
    </node>
    <node concept="3tYpXE" id="5HOQcpHJWxr" role="jymVt">
      <property role="TrG5h" value="description" />
      <property role="3tYpXF" value="Migrate LanguaeReference Concept" />
      <ref role="25KYV2" to="slm6:1_lSsE3RFpE" resolve="description" />
      <node concept="3Tm1VV" id="5HOQcpHJWxt" role="1B3o_S" />
      <node concept="17QB3L" id="5HOQcpHJWxu" role="1tU5fm" />
    </node>
    <node concept="q3mfD" id="5iYmYly3Ib6" role="jymVt">
      <property role="TrG5h" value="execute" />
      <ref role="2VtyIY" to="slm6:4ubqdNOF9cA" resolve="execute" />
      <node concept="3Tm1VV" id="5iYmYly3Ib8" role="1B3o_S" />
      <node concept="3clFbS" id="5iYmYly3Iba" role="3clF47">
        <node concept="L3pyB" id="5HOQcpHJXv7" role="3cqZAp">
          <node concept="3clFbS" id="5HOQcpHJXv8" role="L3pyw">
            <node concept="3clFbF" id="5HOQcpHJXB9" role="3cqZAp">
              <node concept="2OqwBi" id="5HOQcpHJXZy" role="3clFbG">
                <node concept="qVDSY" id="5HOQcpHJXB6" role="2Oq$k0">
                  <node concept="chp4Y" id="5HOQcpHJXCN" role="qVDSX">
                    <ref role="cht4Q" to="hfbu:2Y$EcRKMr1Q" resolve="SimpleLanguageAspectDescriptor" />
                  </node>
                  <node concept="1dO9Bo" id="5HOQcpHJXB8" role="1dOa5D" />
                </node>
                <node concept="2es0OD" id="5HOQcpHJZ0e" role="2OqNvi">
                  <node concept="1bVj0M" id="5HOQcpHJZ0g" role="23t8la">
                    <node concept="3clFbS" id="5HOQcpHJZ0h" role="1bW5cS">
                      <node concept="3clFbF" id="5HOQcpHJZ8l" role="3cqZAp">
                        <node concept="2OqwBi" id="5HOQcpHK0NG" role="3clFbG">
                          <node concept="2OqwBi" id="5HOQcpHJZj7" role="2Oq$k0">
                            <node concept="37vLTw" id="5HOQcpHJZ8k" role="2Oq$k0">
                              <ref role="3cqZAo" node="5HOQcpHJZ0i" resolve="it" />
                            </node>
                            <node concept="3Tsc0h" id="5HOQcpHJZz_" role="2OqNvi">
                              <ref role="3TtcxE" to="hfbu:5iYmYly31HR" />
                            </node>
                          </node>
                          <node concept="X8dFx" id="5HOQcpHK3Bf" role="2OqNvi">
                            <node concept="2OqwBi" id="5HOQcpHKa2D" role="25WWJ7">
                              <node concept="2OqwBi" id="5HOQcpHK5DD" role="2Oq$k0">
                                <node concept="37vLTw" id="5HOQcpHK5fr" role="2Oq$k0">
                                  <ref role="3cqZAo" node="5HOQcpHJZ0i" resolve="it" />
                                </node>
                                <node concept="3Tsc0h" id="5HOQcpHK6Mr" role="2OqNvi">
                                  <ref role="3TtcxE" to="hfbu:2Y$EcRKMr2k" />
                                </node>
                              </node>
                              <node concept="3$u5V9" id="5HOQcpHKf6Q" role="2OqNvi">
                                <node concept="1bVj0M" id="5HOQcpHKf6S" role="23t8la">
                                  <node concept="3clFbS" id="5HOQcpHKf6T" role="1bW5cS">
                                    <node concept="3clFbF" id="5HOQcpHKhg$" role="3cqZAp">
                                      <node concept="2OqwBi" id="5HOQcpHKhBt" role="3clFbG">
                                        <node concept="37vLTw" id="5HOQcpHKhgz" role="2Oq$k0">
                                          <ref role="3cqZAo" node="5HOQcpHKf6U" resolve="it" />
                                        </node>
                                        <node concept="3TrEf2" id="5HOQcpHKkfd" role="2OqNvi">
                                          <ref role="3Tt5mk" to="tp25:34EJa6aIpny" />
                                        </node>
                                      </node>
                                    </node>
                                  </node>
                                  <node concept="Rh6nW" id="5HOQcpHKf6U" role="1bW2Oz">
                                    <property role="TrG5h" value="it" />
                                    <node concept="2jxLKc" id="5HOQcpHKf6V" role="1tU5fm" />
                                  </node>
                                </node>
                              </node>
                            </node>
                          </node>
                        </node>
                      </node>
                      <node concept="3clFbF" id="5HOQcpHKzPy" role="3cqZAp">
                        <node concept="2OqwBi" id="5HOQcpHKBIr" role="3clFbG">
                          <node concept="2OqwBi" id="5HOQcpHKzP$" role="2Oq$k0">
                            <node concept="37vLTw" id="5HOQcpHKzP_" role="2Oq$k0">
                              <ref role="3cqZAo" node="5HOQcpHJZ0i" resolve="it" />
                            </node>
                            <node concept="3Tsc0h" id="5HOQcpHKzPA" role="2OqNvi">
                              <ref role="3TtcxE" to="hfbu:2Y$EcRKMr2k" />
                            </node>
                          </node>
                          <node concept="2Kehj3" id="5HOQcpHKJ4w" role="2OqNvi" />
                        </node>
                      </node>
                      <node concept="3clFbH" id="5HOQcpHKwK3" role="3cqZAp" />
                      <node concept="3clFbF" id="5HOQcpHKphU" role="3cqZAp">
                        <node concept="2OqwBi" id="5HOQcpHKphV" role="3clFbG">
                          <node concept="2OqwBi" id="5HOQcpHKphW" role="2Oq$k0">
                            <node concept="37vLTw" id="5HOQcpHKphX" role="2Oq$k0">
                              <ref role="3cqZAo" node="5HOQcpHJZ0i" resolve="it" />
                            </node>
                            <node concept="3Tsc0h" id="5HOQcpHKrR_" role="2OqNvi">
                              <ref role="3TtcxE" to="hfbu:5iYmYly31HX" />
                            </node>
                          </node>
                          <node concept="X8dFx" id="5HOQcpHKphZ" role="2OqNvi">
                            <node concept="2OqwBi" id="5HOQcpHKpi0" role="25WWJ7">
                              <node concept="2OqwBi" id="5HOQcpHKpi1" role="2Oq$k0">
                                <node concept="37vLTw" id="5HOQcpHKpi2" role="2Oq$k0">
                                  <ref role="3cqZAo" node="5HOQcpHJZ0i" resolve="it" />
                                </node>
                                <node concept="3Tsc0h" id="5HOQcpHKuKt" role="2OqNvi">
                                  <ref role="3TtcxE" to="hfbu:2Y$EcRKMr2m" />
                                </node>
                              </node>
                              <node concept="3$u5V9" id="5HOQcpHKpi4" role="2OqNvi">
                                <node concept="1bVj0M" id="5HOQcpHKpi5" role="23t8la">
                                  <node concept="3clFbS" id="5HOQcpHKpi6" role="1bW5cS">
                                    <node concept="3clFbF" id="5HOQcpHKpi7" role="3cqZAp">
                                      <node concept="2OqwBi" id="5HOQcpHKpi8" role="3clFbG">
                                        <node concept="37vLTw" id="5HOQcpHKpi9" role="2Oq$k0">
                                          <ref role="3cqZAo" node="5HOQcpHKpib" resolve="it" />
                                        </node>
                                        <node concept="3TrEf2" id="5HOQcpHKpia" role="2OqNvi">
                                          <ref role="3Tt5mk" to="tp25:34EJa6aIpny" />
                                        </node>
                                      </node>
                                    </node>
                                  </node>
                                  <node concept="Rh6nW" id="5HOQcpHKpib" role="1bW2Oz">
                                    <property role="TrG5h" value="it" />
                                    <node concept="2jxLKc" id="5HOQcpHKpic" role="1tU5fm" />
                                  </node>
                                </node>
                              </node>
                            </node>
                          </node>
                        </node>
                      </node>
                      <node concept="3clFbF" id="5HOQcpHKRPP" role="3cqZAp">
                        <node concept="2OqwBi" id="5HOQcpHL5i2" role="3clFbG">
                          <node concept="2OqwBi" id="5HOQcpHKRPR" role="2Oq$k0">
                            <node concept="37vLTw" id="5HOQcpHKRPS" role="2Oq$k0">
                              <ref role="3cqZAo" node="5HOQcpHJZ0i" resolve="it" />
                            </node>
                            <node concept="3Tsc0h" id="5HOQcpHKYCF" role="2OqNvi">
                              <ref role="3TtcxE" to="hfbu:2Y$EcRKMr2m" />
                            </node>
                          </node>
                          <node concept="2Kehj3" id="5HOQcpHLeVH" role="2OqNvi" />
                        </node>
                      </node>
                    </node>
                    <node concept="Rh6nW" id="5HOQcpHJZ0i" role="1bW2Oz">
                      <property role="TrG5h" value="it" />
                      <node concept="2jxLKc" id="5HOQcpHJZ0j" role="1tU5fm" />
                    </node>
                  </node>
                </node>
              </node>
            </node>
          </node>
          <node concept="37vLTw" id="5HOQcpHJXvL" role="L3pyr">
            <ref role="3cqZAo" node="5iYmYly3Ibc" resolve="m" />
          </node>
        </node>
      </node>
      <node concept="ffn8J" id="5iYmYly3Ibc" role="3clF46">
        <property role="TrG5h" value="m" />
        <ref role="ffrpq" to="slm6:7fCCGqboj9J" resolve="m" />
        <node concept="3uibUv" id="5iYmYly3Ibb" role="1tU5fm">
          <ref role="3uigEE" to="lui2:~SModule" resolve="SModule" />
        </node>
      </node>
      <node concept="q3mfm" id="5iYmYly3Ibd" role="3clF45">
        <ref role="q3mfh" to="slm6:4F5w8gPXEEe" />
        <ref role="1QQUv3" node="5iYmYly3Ib6" resolve="execute" />
      </node>
    </node>
    <node concept="q3mfD" id="5HOQcpHJWRa" role="jymVt">
      <property role="TrG5h" value="check" />
      <ref role="2VtyIY" to="slm6:1JWcQ2VeXpD" resolve="check" />
      <node concept="3Tm1VV" id="5HOQcpHJWRc" role="1B3o_S" />
      <node concept="3clFbS" id="5HOQcpHJWRe" role="3clF47">
        <node concept="L3pyB" id="6En3ZbjqiTO" role="3cqZAp">
          <node concept="3clFbS" id="6En3ZbjqiTQ" role="L3pyw">
            <node concept="3cpWs6" id="6En3ZbjrxKG" role="3cqZAp">
              <node concept="2OqwBi" id="6En3Zbjqj4L" role="3cqZAk">
                <node concept="2OqwBi" id="6En3ZbjqiKp" role="2Oq$k0">
                  <node concept="qVDSY" id="6En3ZbjqiKr" role="2Oq$k0">
                    <node concept="chp4Y" id="5HOQcpHLwwG" role="qVDSX">
                      <ref role="cht4Q" to="hfbu:2Y$EcRKMr1Q" resolve="SimpleLanguageAspectDescriptor" />
                    </node>
                    <node concept="1dO9Bo" id="6En3ZbjqiKt" role="1dOa5D" />
                  </node>
                  <node concept="3zZkjj" id="6En3ZbjqiKB" role="2OqNvi">
                    <node concept="1bVj0M" id="6En3ZbjqiKC" role="23t8la">
                      <node concept="3clFbS" id="6En3ZbjqiKD" role="1bW5cS">
                        <node concept="3clFbF" id="13xmEyWxWTz" role="3cqZAp">
                          <node concept="22lmx$" id="5HOQcpHLEBx" role="3clFbG">
                            <node concept="2OqwBi" id="5HOQcpHLzev" role="3uHU7B">
                              <node concept="2OqwBi" id="5HOQcpHLwWX" role="2Oq$k0">
                                <node concept="37vLTw" id="5HOQcpHLwWY" role="2Oq$k0">
                                  <ref role="3cqZAo" node="6En3ZbjqiKL" resolve="it" />
                                </node>
                                <node concept="3Tsc0h" id="5HOQcpHLwWZ" role="2OqNvi">
                                  <ref role="3TtcxE" to="hfbu:2Y$EcRKMr2k" />
                                </node>
                              </node>
                              <node concept="3GX2aA" id="5HOQcpHLBIO" role="2OqNvi" />
                            </node>
                            <node concept="2OqwBi" id="5HOQcpHLHPh" role="3uHU7w">
                              <node concept="2OqwBi" id="5HOQcpHLEQW" role="2Oq$k0">
                                <node concept="37vLTw" id="5HOQcpHLEQX" role="2Oq$k0">
                                  <ref role="3cqZAo" node="6En3ZbjqiKL" resolve="it" />
                                </node>
                                <node concept="3Tsc0h" id="5HOQcpHLFFi" role="2OqNvi">
                                  <ref role="3TtcxE" to="hfbu:2Y$EcRKMr2m" />
                                </node>
                              </node>
                              <node concept="3GX2aA" id="5HOQcpHLMtP" role="2OqNvi" />
                            </node>
                          </node>
                        </node>
                      </node>
                      <node concept="Rh6nW" id="6En3ZbjqiKL" role="1bW2Oz">
                        <property role="TrG5h" value="it" />
                        <node concept="2jxLKc" id="6En3ZbjqiKM" role="1tU5fm" />
                      </node>
                    </node>
                  </node>
                </node>
                <node concept="3$u5V9" id="6En3ZbjqjPc" role="2OqNvi">
                  <node concept="1bVj0M" id="6En3ZbjqjPe" role="23t8la">
                    <node concept="3clFbS" id="6En3ZbjqjPf" role="1bW5cS">
                      <node concept="3clFbF" id="6En3ZbjqjRs" role="3cqZAp">
                        <node concept="1eOMI4" id="6En3ZbjrxUp" role="3clFbG">
                          <node concept="10QFUN" id="6En3ZbjrxUq" role="1eOMHV">
                            <node concept="2ShNRf" id="6En3ZbjrxUe" role="10QFUP">
                              <node concept="YeOm9" id="6En3ZbjrxUf" role="2ShVmc">
                                <node concept="1Y3b0j" id="6En3ZbjrxUg" role="YeSDq">
                                  <property role="2bfB8j" value="true" />
                                  <ref role="37wK5l" to="6f4m:4JdgAL_5wEf" resolve="NotMigratedNode" />
                                  <ref role="1Y3XeK" to="6f4m:4JdgAL_5vM9" resolve="NotMigratedNode" />
                                  <node concept="3Tm1VV" id="6En3ZbjrxUh" role="1B3o_S" />
                                  <node concept="3clFb_" id="6En3ZbjrxUi" role="jymVt">
                                    <property role="TrG5h" value="getMessage" />
                                    <property role="1EzhhJ" value="false" />
                                    <node concept="3uibUv" id="6En3ZbjrxUj" role="3clF45">
                                      <ref role="3uigEE" to="wyt6:~String" resolve="String" />
                                    </node>
                                    <node concept="3Tm1VV" id="6En3ZbjrxUk" role="1B3o_S" />
                                    <node concept="3clFbS" id="6En3ZbjrxUl" role="3clF47">
                                      <node concept="3clFbF" id="6En3ZbjrxUm" role="3cqZAp">
                                        <node concept="Xl_RD" id="6En3ZbjrxUn" role="3clFbG">
                                          <property role="Xl_RC" value="LanguageReference instance was not migrated" />
                                        </node>
                                      </node>
                                    </node>
                                  </node>
                                  <node concept="37vLTw" id="6En3ZbjrxUo" role="37wK5m">
                                    <ref role="3cqZAo" node="6En3ZbjqjPg" resolve="it" />
                                  </node>
                                </node>
                              </node>
                            </node>
                            <node concept="3uibUv" id="6En3Zbjry08" role="10QFUM">
                              <ref role="3uigEE" to="6f4m:3n7MNzO_IjP" resolve="Problem" />
                            </node>
                          </node>
                        </node>
                      </node>
                    </node>
                    <node concept="Rh6nW" id="6En3ZbjqjPg" role="1bW2Oz">
                      <property role="TrG5h" value="it" />
                      <node concept="2jxLKc" id="6En3ZbjqjPh" role="1tU5fm" />
                    </node>
                  </node>
                </node>
              </node>
            </node>
          </node>
          <node concept="37vLTw" id="6En3ZbjqiVd" role="L3pyr">
            <ref role="3cqZAo" node="5HOQcpHJWRg" resolve="m" />
          </node>
        </node>
      </node>
      <node concept="ffn8J" id="5HOQcpHJWRg" role="3clF46">
        <property role="TrG5h" value="m" />
        <ref role="ffrpq" to="slm6:1JWcQ2VeXI5" resolve="m" />
        <node concept="3uibUv" id="5HOQcpHJWRf" role="1tU5fm">
          <ref role="3uigEE" to="lui2:~SModule" resolve="SModule" />
        </node>
      </node>
      <node concept="A3Dl8" id="5HOQcpHJXhg" role="3clF45">
        <node concept="3uibUv" id="5HOQcpHJXhh" role="A3Ik2">
          <ref role="3uigEE" to="6f4m:3n7MNzO_IjP" resolve="Problem" />
        </node>
      </node>
    </node>
  </node>
</model>

