<?xml version="1.0" encoding="UTF-8"?>
<model ref="r:33eabb60-7192-4d12-ba46-11dacf966b3e(jetbrains.mps.lang.structure.migration)">
  <persistence version="9" />
  <languages>
    <use id="90746344-04fd-4286-97d5-b46ae6a81709" name="jetbrains.mps.lang.migration" version="0" />
    <use id="1a8554c4-eb84-43ba-8c34-6f0d90c6e75a" name="jetbrains.mps.lang.smodel.query" version="2" />
    <use id="d4615e3b-d671-4ba9-af01-2b78369b0ba7" name="jetbrains.mps.lang.pattern" version="1" />
    <devkit ref="fbc25dd2-5da4-483a-8b19-70928e1b62d7(jetbrains.mps.devkit.general-purpose)" />
  </languages>
  <imports>
    <import index="lui2" ref="8865b7a8-5271-43d3-884c-6fd1d9cfdd34/java:org.jetbrains.mps.openapi.module(MPS.OpenAPI/)" />
    <import index="twe9" ref="r:28e6d713-c3c3-493e-8d97-e9a2c49f28ce(jetbrains.mps.lang.structure.util)" />
    <import index="6f4m" ref="528ff3b9-5fc4-40dd-931f-c6ce3650640e/r:f69c3fa1-0e30-4980-84e2-190ae44e4c3d(jetbrains.mps.lang.migration.runtime/jetbrains.mps.lang.migration.runtime.base)" />
    <import index="c17a" ref="8865b7a8-5271-43d3-884c-6fd1d9cfdd34/java:org.jetbrains.mps.openapi.language(MPS.OpenAPI/)" />
    <import index="tpce" ref="r:00000000-0000-4000-0000-011c89590292(jetbrains.mps.lang.structure.structure)" />
    <import index="wyt6" ref="6354ebe7-c22a-4a0f-ac54-50b52ab9b065/java:java.lang(JDK/)" />
    <import index="w1kc" ref="6ed54515-acc8-4d1e-a16c-9fd6cfe951ea/java:jetbrains.mps.smodel(MPS.Core/)" />
    <import index="mhbf" ref="8865b7a8-5271-43d3-884c-6fd1d9cfdd34/java:org.jetbrains.mps.openapi.model(MPS.OpenAPI/)" />
    <import index="z1c3" ref="6ed54515-acc8-4d1e-a16c-9fd6cfe951ea/java:jetbrains.mps.project(MPS.Core/)" />
    <import index="18ew" ref="6ed54515-acc8-4d1e-a16c-9fd6cfe951ea/java:jetbrains.mps.util(MPS.Core/)" />
    <import index="slm6" ref="90746344-04fd-4286-97d5-b46ae6a81709/r:52a3d974-bd4f-4651-ba6e-a2de5e336d95(jetbrains.mps.lang.migration/jetbrains.mps.lang.migration.methods)" implicit="true" />
    <import index="1oap" ref="r:03d44d4c-3d65-461c-9085-0f48e9569e59(jetbrains.mps.lang.resources.structure)" implicit="true" />
  </imports>
  <registry>
    <language id="f3061a53-9226-4cc5-a443-f952ceaf5816" name="jetbrains.mps.baseLanguage">
      <concept id="1215693861676" name="jetbrains.mps.baseLanguage.structure.BaseAssignmentExpression" flags="nn" index="d038R">
        <child id="1068498886297" name="rValue" index="37vLTx" />
        <child id="1068498886295" name="lValue" index="37vLTJ" />
      </concept>
      <concept id="4836112446988635817" name="jetbrains.mps.baseLanguage.structure.UndefinedType" flags="in" index="2jxLKc" />
      <concept id="1202948039474" name="jetbrains.mps.baseLanguage.structure.InstanceMethodCallOperation" flags="nn" index="liA8E" />
      <concept id="1465982738277781862" name="jetbrains.mps.baseLanguage.structure.PlaceholderMember" flags="ng" index="2tJIrI" />
      <concept id="1154032098014" name="jetbrains.mps.baseLanguage.structure.AbstractLoopStatement" flags="nn" index="2LF5Ji">
        <child id="1154032183016" name="body" index="2LFqv$" />
      </concept>
      <concept id="1197027756228" name="jetbrains.mps.baseLanguage.structure.DotExpression" flags="nn" index="2OqwBi">
        <child id="1197027771414" name="operand" index="2Oq$k0" />
        <child id="1197027833540" name="operation" index="2OqNvi" />
      </concept>
      <concept id="1083260308424" name="jetbrains.mps.baseLanguage.structure.EnumConstantReference" flags="nn" index="Rm8GO">
        <reference id="1083260308426" name="enumConstantDeclaration" index="Rm8GQ" />
        <reference id="1144432896254" name="enumClass" index="1Px2BO" />
      </concept>
      <concept id="1145552977093" name="jetbrains.mps.baseLanguage.structure.GenericNewExpression" flags="nn" index="2ShNRf">
        <child id="1145553007750" name="creator" index="2ShVmc" />
      </concept>
      <concept id="1070475926800" name="jetbrains.mps.baseLanguage.structure.StringLiteral" flags="nn" index="Xl_RD">
        <property id="1070475926801" name="value" index="Xl_RC" />
      </concept>
      <concept id="1182160077978" name="jetbrains.mps.baseLanguage.structure.AnonymousClassCreator" flags="nn" index="YeOm9">
        <child id="1182160096073" name="cls" index="YeSDq" />
      </concept>
      <concept id="1081236700937" name="jetbrains.mps.baseLanguage.structure.StaticMethodCall" flags="nn" index="2YIFZM">
        <reference id="1144433194310" name="classConcept" index="1Pybhc" />
      </concept>
      <concept id="1070534058343" name="jetbrains.mps.baseLanguage.structure.NullLiteral" flags="nn" index="10Nm6u" />
      <concept id="1070534644030" name="jetbrains.mps.baseLanguage.structure.BooleanType" flags="in" index="10P_77" />
      <concept id="1070534934090" name="jetbrains.mps.baseLanguage.structure.CastExpression" flags="nn" index="10QFUN">
        <child id="1070534934091" name="type" index="10QFUM" />
        <child id="1070534934092" name="expression" index="10QFUP" />
      </concept>
      <concept id="1068431474542" name="jetbrains.mps.baseLanguage.structure.VariableDeclaration" flags="ng" index="33uBYm">
        <child id="1068431790190" name="initializer" index="33vP2m" />
      </concept>
      <concept id="1068498886296" name="jetbrains.mps.baseLanguage.structure.VariableReference" flags="nn" index="37vLTw">
        <reference id="1068581517664" name="variableDeclaration" index="3cqZAo" />
      </concept>
      <concept id="1068498886294" name="jetbrains.mps.baseLanguage.structure.AssignmentExpression" flags="nn" index="37vLTI" />
      <concept id="1225271177708" name="jetbrains.mps.baseLanguage.structure.StringType" flags="in" index="17QB3L" />
      <concept id="1225271369338" name="jetbrains.mps.baseLanguage.structure.IsEmptyOperation" flags="nn" index="17RlXB" />
      <concept id="1225271408483" name="jetbrains.mps.baseLanguage.structure.IsNotEmptyOperation" flags="nn" index="17RvpY" />
      <concept id="4972933694980447171" name="jetbrains.mps.baseLanguage.structure.BaseVariableDeclaration" flags="ng" index="19Szcq">
        <child id="5680397130376446158" name="type" index="1tU5fm" />
      </concept>
      <concept id="1068580123132" name="jetbrains.mps.baseLanguage.structure.BaseMethodDeclaration" flags="ng" index="3clF44">
        <child id="1068580123133" name="returnType" index="3clF45" />
        <child id="1068580123134" name="parameter" index="3clF46" />
        <child id="1068580123135" name="body" index="3clF47" />
      </concept>
      <concept id="1068580123165" name="jetbrains.mps.baseLanguage.structure.InstanceMethodDeclaration" flags="ig" index="3clFb_">
        <property id="1178608670077" name="isAbstract" index="1EzhhJ" />
      </concept>
      <concept id="1068580123155" name="jetbrains.mps.baseLanguage.structure.ExpressionStatement" flags="nn" index="3clFbF">
        <child id="1068580123156" name="expression" index="3clFbG" />
      </concept>
      <concept id="1068580123157" name="jetbrains.mps.baseLanguage.structure.Statement" flags="nn" index="3clFbH" />
      <concept id="1068580123159" name="jetbrains.mps.baseLanguage.structure.IfStatement" flags="nn" index="3clFbJ">
        <child id="1068580123160" name="condition" index="3clFbw" />
        <child id="1068580123161" name="ifTrue" index="3clFbx" />
      </concept>
      <concept id="1068580123136" name="jetbrains.mps.baseLanguage.structure.StatementList" flags="sn" stub="5293379017992965193" index="3clFbS">
        <child id="1068581517665" name="statement" index="3cqZAp" />
      </concept>
      <concept id="1068580320020" name="jetbrains.mps.baseLanguage.structure.IntegerConstant" flags="nn" index="3cmrfG">
        <property id="1068580320021" name="value" index="3cmrfH" />
      </concept>
      <concept id="1068581242875" name="jetbrains.mps.baseLanguage.structure.PlusExpression" flags="nn" index="3cpWs3" />
      <concept id="1068581242878" name="jetbrains.mps.baseLanguage.structure.ReturnStatement" flags="nn" index="3cpWs6">
        <child id="1068581517676" name="expression" index="3cqZAk" />
      </concept>
      <concept id="1068581242864" name="jetbrains.mps.baseLanguage.structure.LocalVariableDeclarationStatement" flags="nn" index="3cpWs8">
        <child id="1068581242865" name="localVariableDeclaration" index="3cpWs9" />
      </concept>
      <concept id="1068581242863" name="jetbrains.mps.baseLanguage.structure.LocalVariableDeclaration" flags="nr" index="3cpWsn" />
      <concept id="1079359253375" name="jetbrains.mps.baseLanguage.structure.ParenthesizedExpression" flags="nn" index="1eOMI4">
        <child id="1079359253376" name="expression" index="1eOMHV" />
      </concept>
      <concept id="1204053956946" name="jetbrains.mps.baseLanguage.structure.IMethodCall" flags="ng" index="1ndlxa">
        <reference id="1068499141037" name="baseMethodDeclaration" index="37wK5l" />
        <child id="1068499141038" name="actualArgument" index="37wK5m" />
      </concept>
      <concept id="1107461130800" name="jetbrains.mps.baseLanguage.structure.Classifier" flags="ng" index="3pOWGL">
        <property id="521412098689998745" name="nonStatic" index="2bfB8j" />
        <child id="5375687026011219971" name="member" index="jymVt" unordered="true" />
      </concept>
      <concept id="1107535904670" name="jetbrains.mps.baseLanguage.structure.ClassifierType" flags="in" index="3uibUv">
        <reference id="1107535924139" name="classifier" index="3uigEE" />
      </concept>
      <concept id="1081773326031" name="jetbrains.mps.baseLanguage.structure.BinaryOperation" flags="nn" index="3uHJSO">
        <child id="1081773367579" name="rightExpression" index="3uHU7w" />
        <child id="1081773367580" name="leftExpression" index="3uHU7B" />
      </concept>
      <concept id="1073239437375" name="jetbrains.mps.baseLanguage.structure.NotEqualsExpression" flags="nn" index="3y3z36" />
      <concept id="1178549954367" name="jetbrains.mps.baseLanguage.structure.IVisible" flags="ng" index="1B3ioH">
        <child id="1178549979242" name="visibility" index="1B3o_S" />
      </concept>
      <concept id="6329021646629104957" name="jetbrains.mps.baseLanguage.structure.TextCommentPart" flags="nn" index="3SKdUq">
        <property id="6329021646629104958" name="text" index="3SKdUp" />
      </concept>
      <concept id="6329021646629104954" name="jetbrains.mps.baseLanguage.structure.SingleLineComment" flags="nn" index="3SKdUt">
        <child id="6329021646629175155" name="commentPart" index="3SKWNk" />
      </concept>
      <concept id="1146644602865" name="jetbrains.mps.baseLanguage.structure.PublicVisibility" flags="nn" index="3Tm1VV" />
      <concept id="1170345865475" name="jetbrains.mps.baseLanguage.structure.AnonymousClass" flags="ig" index="1Y3b0j">
        <reference id="1170346070688" name="classifier" index="1Y3XeK" />
      </concept>
    </language>
    <language id="fd392034-7849-419d-9071-12563d152375" name="jetbrains.mps.baseLanguage.closures">
      <concept id="1199569711397" name="jetbrains.mps.baseLanguage.closures.structure.ClosureLiteral" flags="nn" index="1bVj0M">
        <child id="1199569906740" name="parameter" index="1bW2Oz" />
        <child id="1199569916463" name="body" index="1bW5cS" />
      </concept>
    </language>
    <language id="c7d5b9dd-a05f-4be2-bc73-f2e16994cc67" name="jetbrains.mps.baseLanguage.lightweightdsl">
      <concept id="8880393040217246788" name="jetbrains.mps.baseLanguage.lightweightdsl.structure.MethodParameterInstance" flags="ig" index="ffn8J">
        <reference id="8880393040217294897" name="decl" index="ffrpq" />
      </concept>
      <concept id="3751132065236767083" name="jetbrains.mps.baseLanguage.lightweightdsl.structure.DependentTypeInstance" flags="ig" index="q3mfm">
        <reference id="3751132065236767084" name="decl" index="q3mfh" />
        <reference id="9097849371505568270" name="point" index="1QQUv3" />
      </concept>
      <concept id="3751132065236767060" name="jetbrains.mps.baseLanguage.lightweightdsl.structure.MethodInstance" flags="ig" index="q3mfD">
        <reference id="19209059688387895" name="decl" index="2VtyIY" />
      </concept>
      <concept id="6478870542308708689" name="jetbrains.mps.baseLanguage.lightweightdsl.structure.PropertyInstance" flags="ig" index="3tT0cZ">
        <reference id="8585153554445465961" name="decl" index="25KYV2" />
      </concept>
      <concept id="6478870542308703666" name="jetbrains.mps.baseLanguage.lightweightdsl.structure.MemberPlaceholder" flags="ng" index="3tTeZs">
        <property id="6478870542308703667" name="caption" index="3tTeZt" />
        <reference id="6478870542308703669" name="decl" index="3tTeZr" />
      </concept>
      <concept id="6478870542308871875" name="jetbrains.mps.baseLanguage.lightweightdsl.structure.BooleanPropertyInstance" flags="ig" index="3tYpMH">
        <property id="6478870542308871876" name="value" index="3tYpME" />
      </concept>
      <concept id="6478870542308871428" name="jetbrains.mps.baseLanguage.lightweightdsl.structure.StringPropertyInstance" flags="ig" index="3tYpXE">
        <property id="6478870542308871429" name="value" index="3tYpXF" />
      </concept>
    </language>
    <language id="7866978e-a0f0-4cc7-81bc-4d213d9375e1" name="jetbrains.mps.lang.smodel">
      <concept id="1177026924588" name="jetbrains.mps.lang.smodel.structure.RefConcept_Reference" flags="nn" index="chp4Y">
        <reference id="1177026940964" name="conceptDeclaration" index="cht4Q" />
      </concept>
      <concept id="4497478346159780083" name="jetbrains.mps.lang.smodel.structure.LanguageRefExpression" flags="ng" index="pHN19">
        <child id="3542851458883491298" name="languageId" index="2V$M_3" />
      </concept>
      <concept id="1138757581985" name="jetbrains.mps.lang.smodel.structure.Link_SetNewChildOperation" flags="nn" index="zfrQC">
        <reference id="1139880128956" name="concept" index="1A9B2P" />
      </concept>
      <concept id="1145404486709" name="jetbrains.mps.lang.smodel.structure.SemanticDowncastExpression" flags="nn" index="2JrnkZ">
        <child id="1145404616321" name="leftExpression" index="2JrQYb" />
      </concept>
      <concept id="3542851458883438784" name="jetbrains.mps.lang.smodel.structure.LanguageId" flags="ng" index="2V$Bhx">
        <property id="3542851458883439831" name="namespace" index="2V$B1Q" />
        <property id="3542851458883439832" name="languageId" index="2V$B1T" />
      </concept>
      <concept id="2644386474302386080" name="jetbrains.mps.lang.smodel.structure.PropertyIdRefExpression" flags="nn" index="355D3s">
        <reference id="2644386474302386081" name="conceptDeclaration" index="355D3t" />
        <reference id="2644386474302386082" name="propertyDeclaration" index="355D3u" />
      </concept>
      <concept id="1138056022639" name="jetbrains.mps.lang.smodel.structure.SPropertyAccess" flags="nn" index="3TrcHB">
        <reference id="1138056395725" name="property" index="3TsBF5" />
      </concept>
      <concept id="1138056143562" name="jetbrains.mps.lang.smodel.structure.SLinkAccess" flags="nn" index="3TrEf2">
        <reference id="1138056516764" name="link" index="3Tt5mk" />
      </concept>
      <concept id="1138056282393" name="jetbrains.mps.lang.smodel.structure.SLinkListAccess" flags="nn" index="3Tsc0h">
        <reference id="1138056546658" name="link" index="3TtcxE" />
      </concept>
    </language>
    <language id="ceab5195-25ea-4f22-9b92-103b95ca8c0c" name="jetbrains.mps.lang.core">
      <concept id="1169194658468" name="jetbrains.mps.lang.core.structure.INamedConcept" flags="ng" index="TrEIO">
        <property id="1169194664001" name="name" index="TrG5h" />
      </concept>
    </language>
    <language id="90746344-04fd-4286-97d5-b46ae6a81709" name="jetbrains.mps.lang.migration">
      <concept id="8352104482584315555" name="jetbrains.mps.lang.migration.structure.MigrationScript" flags="ig" index="3SyAh_">
        <property id="5820409521797704727" name="fromVersion" index="qMTe8" />
      </concept>
    </language>
    <language id="1a8554c4-eb84-43ba-8c34-6f0d90c6e75a" name="jetbrains.mps.lang.smodel.query">
      <concept id="7738379549910147341" name="jetbrains.mps.lang.smodel.query.structure.InstancesExpression" flags="ng" index="qVDSY">
        <child id="7738379549910147342" name="conceptArg" index="qVDSX" />
      </concept>
      <concept id="6864030874027862829" name="jetbrains.mps.lang.smodel.query.structure.ModelsExpression" flags="ng" index="EZOir" />
      <concept id="4234138103881610891" name="jetbrains.mps.lang.smodel.query.structure.WithStatement" flags="ng" index="L3pyB">
        <child id="4234138103881610935" name="scope" index="L3pyr" />
        <child id="4234138103881610892" name="stmts" index="L3pyw" />
      </concept>
      <concept id="4307205004131544317" name="jetbrains.mps.lang.smodel.query.structure.QueryExpression" flags="ng" index="1dNuzs">
        <child id="4307205004132279624" name="parameter" index="1dOa5D" />
      </concept>
      <concept id="4307205004132277753" name="jetbrains.mps.lang.smodel.query.structure.QueryParameterList" flags="ng" index="1dO9Bo" />
    </language>
    <language id="83888646-71ce-4f1c-9c53-c54016f6ad4f" name="jetbrains.mps.baseLanguage.collections">
      <concept id="1204796164442" name="jetbrains.mps.baseLanguage.collections.structure.InternalSequenceOperation" flags="nn" index="23sCx2">
        <child id="1204796294226" name="closure" index="23t8la" />
      </concept>
      <concept id="1176903168877" name="jetbrains.mps.baseLanguage.collections.structure.UnionOperation" flags="nn" index="4Tj9Z" />
      <concept id="1176906603202" name="jetbrains.mps.baseLanguage.collections.structure.BinaryOperation" flags="nn" index="56pJg">
        <child id="1176906787974" name="rightExpression" index="576Qk" />
      </concept>
      <concept id="1204980550705" name="jetbrains.mps.baseLanguage.collections.structure.VisitAllOperation" flags="nn" index="2es0OD" />
      <concept id="1151689724996" name="jetbrains.mps.baseLanguage.collections.structure.SequenceType" flags="in" index="A3Dl8">
        <child id="1151689745422" name="elementType" index="A3Ik2" />
      </concept>
      <concept id="1153943597977" name="jetbrains.mps.baseLanguage.collections.structure.ForEachStatement" flags="nn" index="2Gpval">
        <child id="1153944400369" name="variable" index="2Gsz3X" />
        <child id="1153944424730" name="inputSequence" index="2GsD0m" />
      </concept>
      <concept id="1153944193378" name="jetbrains.mps.baseLanguage.collections.structure.ForEachVariable" flags="nr" index="2GrKxI" />
      <concept id="1153944233411" name="jetbrains.mps.baseLanguage.collections.structure.ForEachVariableReference" flags="nn" index="2GrUjf">
        <reference id="1153944258490" name="variable" index="2Gs0qQ" />
      </concept>
      <concept id="1203518072036" name="jetbrains.mps.baseLanguage.collections.structure.SmartClosureParameterDeclaration" flags="ig" index="Rh6nW" />
      <concept id="1202120902084" name="jetbrains.mps.baseLanguage.collections.structure.WhereOperation" flags="nn" index="3zZkjj" />
      <concept id="1202128969694" name="jetbrains.mps.baseLanguage.collections.structure.SelectOperation" flags="nn" index="3$u5V9" />
    </language>
  </registry>
  <node concept="3SyAh_" id="1o9qxtfc8wI">
    <property role="qMTe8" value="0" />
    <property role="TrG5h" value="SetOldConceptIds_Empty" />
    <node concept="3Tm1VV" id="1o9qxtfc8wJ" role="1B3o_S" />
    <node concept="3tTeZs" id="5OIo7_R8UL9" role="jymVt">
      <property role="3tTeZt" value="&lt;no execute after&gt;" />
      <ref role="3tTeZr" to="slm6:7ay_HjIMt1a" resolve="execute after" />
    </node>
    <node concept="3tTeZs" id="5OIo7_R8ULa" role="jymVt">
      <property role="3tTeZt" value="&lt;no required data&gt;" />
      <ref role="3tTeZr" to="slm6:3A3gNhf1WPI" resolve="requires data" />
    </node>
    <node concept="3tTeZs" id="5OIo7_R8ULb" role="jymVt">
      <property role="3tTeZt" value="&lt;no produced data&gt;" />
      <ref role="3tTeZr" to="slm6:536fTXa4WHO" resolve="produces data" />
    </node>
    <node concept="3tTeZs" id="5OIo7_R8ULc" role="jymVt">
      <property role="3tTeZt" value="&lt;no result checking&gt;" />
      <ref role="3tTeZr" to="slm6:1JWcQ2VeXpD" resolve="check" />
    </node>
    <node concept="2tJIrI" id="1o9qxtfc8wN" role="jymVt" />
    <node concept="3tYpXE" id="1o9qxtfc8_3" role="jymVt">
      <property role="TrG5h" value="description" />
      <property role="3tYpXF" value="Set Old Concept Ids (empty)" />
      <ref role="25KYV2" to="slm6:1_lSsE3RFpE" resolve="description" />
      <node concept="3Tm1VV" id="1o9qxtfc8_5" role="1B3o_S" />
      <node concept="17QB3L" id="1o9qxtfc8_6" role="1tU5fm" />
    </node>
    <node concept="q3mfD" id="1o9qxtfc8wP" role="jymVt">
      <property role="TrG5h" value="execute" />
      <ref role="2VtyIY" to="slm6:4ubqdNOF9cA" resolve="execute" />
      <node concept="3Tm1VV" id="1o9qxtfc8wR" role="1B3o_S" />
      <node concept="3clFbS" id="1o9qxtfc8wT" role="3clF47">
        <node concept="3SKdUt" id="5OIo7_R8Vx6" role="3cqZAp">
          <node concept="3SKdUq" id="5OIo7_R8Vx7" role="3SKWNk">
            <property role="3SKdUp" value="body was removed as it's not needed. We use another ids already and never used those set by this migration" />
          </node>
        </node>
      </node>
      <node concept="ffn8J" id="1o9qxtfc8wV" role="3clF46">
        <property role="TrG5h" value="m" />
        <ref role="ffrpq" to="slm6:7fCCGqboj9J" resolve="m" />
        <node concept="3uibUv" id="1o9qxtfc8wU" role="1tU5fm">
          <ref role="3uigEE" to="lui2:~SModule" resolve="SModule" />
        </node>
      </node>
      <node concept="q3mfm" id="1o9qxtfc8wW" role="3clF45">
        <ref role="q3mfh" to="slm6:4F5w8gPXEEe" />
        <ref role="1QQUv3" node="1o9qxtfc8wP" resolve="execute" />
      </node>
    </node>
    <node concept="3tYpMH" id="4JdgAL_6sAq" role="jymVt">
      <property role="TrG5h" value="isRerunnable" />
      <property role="3tYpME" value="true" />
      <ref role="25KYV2" to="slm6:1JWcQ2VeWIs" resolve="isRerunnable" />
      <node concept="3Tm1VV" id="4JdgAL_6sAs" role="1B3o_S" />
      <node concept="10P_77" id="4JdgAL_6sAt" role="1tU5fm" />
    </node>
  </node>
  <node concept="3SyAh_" id="5OIo7_R8Tun">
    <property role="qMTe8" value="1" />
    <property role="TrG5h" value="SetSIds" />
    <node concept="3Tm1VV" id="5OIo7_R8Tuo" role="1B3o_S" />
    <node concept="3tTeZs" id="5OIo7_R8Tup" role="jymVt">
      <property role="3tTeZt" value="&lt;no execute after&gt;" />
      <ref role="3tTeZr" to="slm6:7ay_HjIMt1a" resolve="execute after" />
    </node>
    <node concept="3tTeZs" id="5OIo7_R8Tuq" role="jymVt">
      <property role="3tTeZt" value="&lt;no required data&gt;" />
      <ref role="3tTeZr" to="slm6:3A3gNhf1WPI" resolve="requires data" />
    </node>
    <node concept="3tTeZs" id="5OIo7_R8Tur" role="jymVt">
      <property role="3tTeZt" value="&lt;no produced data&gt;" />
      <ref role="3tTeZr" to="slm6:536fTXa4WHO" resolve="produces data" />
    </node>
    <node concept="2tJIrI" id="5OIo7_R8Tus" role="jymVt" />
    <node concept="3tYpXE" id="5OIo7_R8TQQ" role="jymVt">
      <property role="TrG5h" value="description" />
      <property role="3tYpXF" value="Set Ids" />
      <ref role="25KYV2" to="slm6:1_lSsE3RFpE" resolve="description" />
      <node concept="3Tm1VV" id="5OIo7_R8TQR" role="1B3o_S" />
      <node concept="17QB3L" id="5OIo7_R8TQS" role="1tU5fm" />
    </node>
    <node concept="q3mfD" id="5OIo7_R8TQT" role="jymVt">
      <property role="TrG5h" value="execute" />
      <ref role="2VtyIY" to="slm6:4ubqdNOF9cA" resolve="execute" />
      <node concept="3Tm1VV" id="5OIo7_R8TQU" role="1B3o_S" />
      <node concept="3clFbS" id="5OIo7_R8TQV" role="3clF47">
        <node concept="L3pyB" id="5OIo7_R8TQW" role="3cqZAp">
          <node concept="37vLTw" id="5OIo7_R8TQX" role="L3pyr">
            <ref role="3cqZAo" node="5OIo7_R8TRv" resolve="m" />
          </node>
          <node concept="3clFbS" id="5OIo7_R8TQY" role="L3pyw">
            <node concept="3clFbF" id="5OIo7_R8TQZ" role="3cqZAp">
              <node concept="2OqwBi" id="5OIo7_R8TR0" role="3clFbG">
                <node concept="qVDSY" id="5OIo7_R8TR2" role="2Oq$k0">
                  <node concept="chp4Y" id="5OIo7_R8TR3" role="qVDSX">
                    <ref role="cht4Q" to="tpce:h0PkWnZ" resolve="AbstractConceptDeclaration" />
                  </node>
                  <node concept="1dO9Bo" id="5OIo7_R8TR4" role="1dOa5D" />
                </node>
                <node concept="2es0OD" id="5OIo7_R8TRg" role="2OqNvi">
                  <node concept="1bVj0M" id="5OIo7_R8TRh" role="23t8la">
                    <node concept="3clFbS" id="5OIo7_R8TRi" role="1bW5cS">
                      <node concept="3clFbJ" id="dqwjwH$aAe" role="3cqZAp">
                        <node concept="3clFbS" id="dqwjwH$aAg" role="3clFbx">
                          <node concept="3clFbF" id="5OIo7_R8TRj" role="3cqZAp">
                            <node concept="37vLTI" id="5OIo7_R8TRk" role="3clFbG">
                              <node concept="3cpWs3" id="5OIo7_R92kQ" role="37vLTx">
                                <node concept="Xl_RD" id="5OIo7_R92l6" role="3uHU7w" />
                                <node concept="2OqwBi" id="2yMxTUHyk0x" role="3uHU7B">
                                  <node concept="1eOMI4" id="2yMxTUHykyb" role="2Oq$k0">
                                    <node concept="10QFUN" id="2yMxTUHykyc" role="1eOMHV">
                                      <node concept="2OqwBi" id="2yMxTUHz1vJ" role="10QFUP">
                                        <node concept="2JrnkZ" id="2yMxTUHz1vK" role="2Oq$k0">
                                          <node concept="37vLTw" id="2yMxTUHz1vL" role="2JrQYb">
                                            <ref role="3cqZAo" node="5OIo7_R8TRt" resolve="it" />
                                          </node>
                                        </node>
                                        <node concept="liA8E" id="2yMxTUHz1vM" role="2OqNvi">
                                          <ref role="37wK5l" to="mhbf:~SNode.getNodeId():org.jetbrains.mps.openapi.model.SNodeId" resolve="getNodeId" />
                                        </node>
                                      </node>
                                      <node concept="3uibUv" id="2yMxTUHyDIV" role="10QFUM">
                                        <ref role="3uigEE" to="w1kc:~SNodeId$Regular" resolve="SNodeId.Regular" />
                                      </node>
                                    </node>
                                  </node>
                                  <node concept="liA8E" id="2yMxTUHyEio" role="2OqNvi">
                                    <ref role="37wK5l" to="w1kc:~SNodeId$Regular.getId():long" resolve="getId" />
                                  </node>
                                </node>
                              </node>
                              <node concept="2OqwBi" id="5OIo7_R8TRq" role="37vLTJ">
                                <node concept="37vLTw" id="5OIo7_R8TRr" role="2Oq$k0">
                                  <ref role="3cqZAo" node="5OIo7_R8TRt" resolve="it" />
                                </node>
                                <node concept="3TrcHB" id="5OIo7_R90FC" role="2OqNvi">
                                  <ref role="3TsBF5" to="tpce:5OIo7_R7SN0" resolve="conceptId" />
                                </node>
                              </node>
                            </node>
                          </node>
                        </node>
                        <node concept="2OqwBi" id="dqwjwH$dfk" role="3clFbw">
                          <node concept="2OqwBi" id="dqwjwH$bwJ" role="2Oq$k0">
                            <node concept="37vLTw" id="dqwjwH$aYQ" role="2Oq$k0">
                              <ref role="3cqZAo" node="5OIo7_R8TRt" resolve="it" />
                            </node>
                            <node concept="3TrcHB" id="dqwjwH$cnm" role="2OqNvi">
                              <ref role="3TsBF5" to="tpce:5OIo7_R7SN0" resolve="conceptId" />
                            </node>
                          </node>
                          <node concept="17RlXB" id="dqwjwH$epQ" role="2OqNvi" />
                        </node>
                      </node>
                      <node concept="3clFbF" id="2zhk4bLvKoD" role="3cqZAp">
                        <node concept="2OqwBi" id="2zhk4bLvLB8" role="3clFbG">
                          <node concept="2JrnkZ" id="2zhk4bLvL6q" role="2Oq$k0">
                            <node concept="37vLTw" id="2zhk4bLvKoB" role="2JrQYb">
                              <ref role="3cqZAo" node="5OIo7_R8TRt" resolve="it" />
                            </node>
                          </node>
                          <node concept="liA8E" id="2zhk4bLvMHk" role="2OqNvi">
                            <ref role="37wK5l" to="mhbf:~SNode.setProperty(org.jetbrains.mps.openapi.language.SProperty,java.lang.String):void" resolve="setProperty" />
                            <node concept="355D3s" id="2zhk4bLvNaa" role="37wK5m">
                              <ref role="355D3t" to="tpce:h0PkWnZ" resolve="AbstractConceptDeclaration" />
                              <ref role="355D3u" to="tpce:1o9qxtf9pgp" resolve="intConceptId" />
                            </node>
                            <node concept="10Nm6u" id="2zhk4bLvPbm" role="37wK5m" />
                          </node>
                        </node>
                      </node>
                      <node concept="3clFbH" id="dqwjwH$fGS" role="3cqZAp" />
                      <node concept="2Gpval" id="dqwjwH$gB7" role="3cqZAp">
                        <node concept="2GrKxI" id="dqwjwH$gB9" role="2Gsz3X">
                          <property role="TrG5h" value="p" />
                        </node>
                        <node concept="2OqwBi" id="dqwjwH$hUl" role="2GsD0m">
                          <node concept="37vLTw" id="dqwjwH$ho5" role="2Oq$k0">
                            <ref role="3cqZAo" node="5OIo7_R8TRt" resolve="it" />
                          </node>
                          <node concept="3Tsc0h" id="dqwjwH$iL7" role="2OqNvi">
                            <ref role="3TtcxE" to="tpce:f_TKVDG" />
                          </node>
                        </node>
                        <node concept="3clFbS" id="dqwjwH$gBd" role="2LFqv$">
                          <node concept="3clFbJ" id="dqwjwH$jaN" role="3cqZAp">
                            <node concept="3clFbS" id="dqwjwH$jaO" role="3clFbx">
                              <node concept="3clFbF" id="dqwjwH$jaP" role="3cqZAp">
                                <node concept="37vLTI" id="dqwjwH$jaQ" role="3clFbG">
                                  <node concept="3cpWs3" id="dqwjwH$jaR" role="37vLTx">
                                    <node concept="Xl_RD" id="dqwjwH$jaS" role="3uHU7w" />
                                    <node concept="2OqwBi" id="dqwjwH$jaT" role="3uHU7B">
                                      <node concept="1eOMI4" id="dqwjwH$jaU" role="2Oq$k0">
                                        <node concept="10QFUN" id="dqwjwH$jaV" role="1eOMHV">
                                          <node concept="2OqwBi" id="dqwjwH$jaW" role="10QFUP">
                                            <node concept="2JrnkZ" id="dqwjwH$jaX" role="2Oq$k0">
                                              <node concept="2GrUjf" id="dqwjwH$moy" role="2JrQYb">
                                                <ref role="2Gs0qQ" node="dqwjwH$gB9" resolve="p" />
                                              </node>
                                            </node>
                                            <node concept="liA8E" id="dqwjwH$jaZ" role="2OqNvi">
                                              <ref role="37wK5l" to="mhbf:~SNode.getNodeId():org.jetbrains.mps.openapi.model.SNodeId" resolve="getNodeId" />
                                            </node>
                                          </node>
                                          <node concept="3uibUv" id="dqwjwH$jb0" role="10QFUM">
                                            <ref role="3uigEE" to="w1kc:~SNodeId$Regular" resolve="SNodeId.Regular" />
                                          </node>
                                        </node>
                                      </node>
                                      <node concept="liA8E" id="dqwjwH$jb1" role="2OqNvi">
                                        <ref role="37wK5l" to="w1kc:~SNodeId$Regular.getId():long" resolve="getId" />
                                      </node>
                                    </node>
                                  </node>
                                  <node concept="2OqwBi" id="dqwjwH$jb2" role="37vLTJ">
                                    <node concept="2GrUjf" id="dqwjwH$ld3" role="2Oq$k0">
                                      <ref role="2Gs0qQ" node="dqwjwH$gB9" resolve="p" />
                                    </node>
                                    <node concept="3TrcHB" id="dqwjwH$lS6" role="2OqNvi">
                                      <ref role="3TsBF5" to="tpce:dqwjwHwEjp" resolve="propertyId" />
                                    </node>
                                  </node>
                                </node>
                              </node>
                            </node>
                            <node concept="2OqwBi" id="dqwjwH$jb5" role="3clFbw">
                              <node concept="2OqwBi" id="dqwjwH$jb6" role="2Oq$k0">
                                <node concept="3TrcHB" id="dqwjwH$kK7" role="2OqNvi">
                                  <ref role="3TsBF5" to="tpce:dqwjwHwEjp" resolve="propertyId" />
                                </node>
                                <node concept="2GrUjf" id="dqwjwH$k54" role="2Oq$k0">
                                  <ref role="2Gs0qQ" node="dqwjwH$gB9" resolve="p" />
                                </node>
                              </node>
                              <node concept="17RlXB" id="dqwjwH$jb9" role="2OqNvi" />
                            </node>
                          </node>
                        </node>
                      </node>
                      <node concept="3clFbH" id="dqwjwH$nks" role="3cqZAp" />
                      <node concept="2Gpval" id="dqwjwH$mOC" role="3cqZAp">
                        <node concept="2GrKxI" id="dqwjwH$mOD" role="2Gsz3X">
                          <property role="TrG5h" value="l" />
                        </node>
                        <node concept="2OqwBi" id="dqwjwH$mOE" role="2GsD0m">
                          <node concept="37vLTw" id="dqwjwH$mOF" role="2Oq$k0">
                            <ref role="3cqZAo" node="5OIo7_R8TRt" resolve="it" />
                          </node>
                          <node concept="3Tsc0h" id="dqwjwH$oyF" role="2OqNvi">
                            <ref role="3TtcxE" to="tpce:f_TKVDF" />
                          </node>
                        </node>
                        <node concept="3clFbS" id="dqwjwH$mOH" role="2LFqv$">
                          <node concept="3clFbJ" id="dqwjwH$mOI" role="3cqZAp">
                            <node concept="3clFbS" id="dqwjwH$mOJ" role="3clFbx">
                              <node concept="3clFbF" id="dqwjwH$mOK" role="3cqZAp">
                                <node concept="37vLTI" id="dqwjwH$mOL" role="3clFbG">
                                  <node concept="3cpWs3" id="dqwjwH$mOM" role="37vLTx">
                                    <node concept="Xl_RD" id="dqwjwH$mON" role="3uHU7w" />
                                    <node concept="2OqwBi" id="dqwjwH$mOO" role="3uHU7B">
                                      <node concept="1eOMI4" id="dqwjwH$mOP" role="2Oq$k0">
                                        <node concept="10QFUN" id="dqwjwH$mOQ" role="1eOMHV">
                                          <node concept="2OqwBi" id="dqwjwH$mOR" role="10QFUP">
                                            <node concept="2JrnkZ" id="dqwjwH$mOS" role="2Oq$k0">
                                              <node concept="2GrUjf" id="dqwjwH$mOT" role="2JrQYb">
                                                <ref role="2Gs0qQ" node="dqwjwH$mOD" resolve="l" />
                                              </node>
                                            </node>
                                            <node concept="liA8E" id="dqwjwH$mOU" role="2OqNvi">
                                              <ref role="37wK5l" to="mhbf:~SNode.getNodeId():org.jetbrains.mps.openapi.model.SNodeId" resolve="getNodeId" />
                                            </node>
                                          </node>
                                          <node concept="3uibUv" id="dqwjwH$mOV" role="10QFUM">
                                            <ref role="3uigEE" to="w1kc:~SNodeId$Regular" resolve="SNodeId.Regular" />
                                          </node>
                                        </node>
                                      </node>
                                      <node concept="liA8E" id="dqwjwH$mOW" role="2OqNvi">
                                        <ref role="37wK5l" to="w1kc:~SNodeId$Regular.getId():long" resolve="getId" />
                                      </node>
                                    </node>
                                  </node>
                                  <node concept="2OqwBi" id="dqwjwH$mOX" role="37vLTJ">
                                    <node concept="2GrUjf" id="dqwjwH$mOY" role="2Oq$k0">
                                      <ref role="2Gs0qQ" node="dqwjwH$mOD" resolve="l" />
                                    </node>
                                    <node concept="3TrcHB" id="dqwjwH$Iw$" role="2OqNvi">
                                      <ref role="3TsBF5" to="tpce:dqwjwHwEj$" resolve="linkId" />
                                    </node>
                                  </node>
                                </node>
                              </node>
                            </node>
                            <node concept="2OqwBi" id="dqwjwH$mP0" role="3clFbw">
                              <node concept="2OqwBi" id="dqwjwH$mP1" role="2Oq$k0">
                                <node concept="3TrcHB" id="dqwjwH$HKE" role="2OqNvi">
                                  <ref role="3TsBF5" to="tpce:dqwjwHwEj$" resolve="linkId" />
                                </node>
                                <node concept="2GrUjf" id="dqwjwH$mP3" role="2Oq$k0">
                                  <ref role="2Gs0qQ" node="dqwjwH$mOD" resolve="l" />
                                </node>
                              </node>
                              <node concept="17RlXB" id="dqwjwH$mP4" role="2OqNvi" />
                            </node>
                          </node>
                        </node>
                      </node>
                    </node>
                    <node concept="Rh6nW" id="5OIo7_R8TRt" role="1bW2Oz">
                      <property role="TrG5h" value="it" />
                      <node concept="2jxLKc" id="5OIo7_R8TRu" role="1tU5fm" />
                    </node>
                  </node>
                </node>
              </node>
            </node>
          </node>
        </node>
      </node>
      <node concept="ffn8J" id="5OIo7_R8TRv" role="3clF46">
        <property role="TrG5h" value="m" />
        <ref role="ffrpq" to="slm6:7fCCGqboj9J" resolve="m" />
        <node concept="3uibUv" id="5OIo7_R8TRw" role="1tU5fm">
          <ref role="3uigEE" to="lui2:~SModule" resolve="SModule" />
        </node>
      </node>
      <node concept="q3mfm" id="5OIo7_R8TRx" role="3clF45">
        <ref role="1QQUv3" node="5OIo7_R8TQT" resolve="execute" />
        <ref role="q3mfh" to="slm6:4F5w8gPXEEe" />
      </node>
    </node>
    <node concept="3tYpMH" id="5OIo7_R8TRy" role="jymVt">
      <property role="TrG5h" value="isRerunnable" />
      <property role="3tYpME" value="true" />
      <ref role="25KYV2" to="slm6:1JWcQ2VeWIs" resolve="isRerunnable" />
      <node concept="3Tm1VV" id="5OIo7_R8TRz" role="1B3o_S" />
      <node concept="10P_77" id="5OIo7_R8TR$" role="1tU5fm" />
    </node>
    <node concept="q3mfD" id="5OIo7_R8TR_" role="jymVt">
      <property role="TrG5h" value="check" />
      <ref role="2VtyIY" to="slm6:1JWcQ2VeXpD" resolve="check" />
      <node concept="3Tm1VV" id="5OIo7_R8TRA" role="1B3o_S" />
      <node concept="3clFbS" id="5OIo7_R8TRB" role="3clF47">
        <node concept="L3pyB" id="5OIo7_R8TRC" role="3cqZAp">
          <node concept="37vLTw" id="5OIo7_R8TRD" role="L3pyr">
            <ref role="3cqZAo" node="5OIo7_R8TSg" resolve="m" />
          </node>
          <node concept="3clFbS" id="5OIo7_R8TRE" role="L3pyw">
            <node concept="3cpWs8" id="5OIo7_RbAzj" role="3cqZAp">
              <node concept="3cpWsn" id="5OIo7_RbAzk" role="3cpWs9">
                <property role="TrG5h" value="notSet" />
                <node concept="A3Dl8" id="5OIo7_RbAyp" role="1tU5fm">
                  <node concept="3uibUv" id="5OIo7_RbAys" role="A3Ik2">
                    <ref role="3uigEE" to="6f4m:3n7MNzO_IjP" resolve="Problem" />
                  </node>
                </node>
                <node concept="2OqwBi" id="5OIo7_RbAzl" role="33vP2m">
                  <node concept="2OqwBi" id="5OIo7_RbAzm" role="2Oq$k0">
                    <node concept="qVDSY" id="5OIo7_RbAzn" role="2Oq$k0">
                      <node concept="chp4Y" id="5OIo7_RbAzo" role="qVDSX">
                        <ref role="cht4Q" to="tpce:h0PkWnZ" resolve="AbstractConceptDeclaration" />
                      </node>
                      <node concept="1dO9Bo" id="5OIo7_RbAzp" role="1dOa5D" />
                    </node>
                    <node concept="3zZkjj" id="5OIo7_RbAzq" role="2OqNvi">
                      <node concept="1bVj0M" id="5OIo7_RbAzr" role="23t8la">
                        <node concept="3clFbS" id="5OIo7_RbAzs" role="1bW5cS">
                          <node concept="3clFbF" id="5OIo7_RbAzt" role="3cqZAp">
                            <node concept="2OqwBi" id="5OIo7_RbAz$" role="3clFbG">
                              <node concept="2OqwBi" id="5OIo7_RbAz_" role="2Oq$k0">
                                <node concept="37vLTw" id="5OIo7_RbAzA" role="2Oq$k0">
                                  <ref role="3cqZAo" node="5OIo7_RbAzD" resolve="it" />
                                </node>
                                <node concept="3TrcHB" id="5OIo7_RbAzB" role="2OqNvi">
                                  <ref role="3TsBF5" to="tpce:5OIo7_R7SN0" resolve="conceptId" />
                                </node>
                              </node>
                              <node concept="17RlXB" id="5OIo7_RbAzC" role="2OqNvi" />
                            </node>
                          </node>
                        </node>
                        <node concept="Rh6nW" id="5OIo7_RbAzD" role="1bW2Oz">
                          <property role="TrG5h" value="it" />
                          <node concept="2jxLKc" id="5OIo7_RbAzE" role="1tU5fm" />
                        </node>
                      </node>
                    </node>
                  </node>
                  <node concept="3$u5V9" id="5OIo7_RbAzF" role="2OqNvi">
                    <node concept="1bVj0M" id="5OIo7_RbAzG" role="23t8la">
                      <node concept="3clFbS" id="5OIo7_RbAzH" role="1bW5cS">
                        <node concept="3clFbF" id="5OIo7_RbAzI" role="3cqZAp">
                          <node concept="1eOMI4" id="5OIo7_RbAzJ" role="3clFbG">
                            <node concept="10QFUN" id="5OIo7_RbAzK" role="1eOMHV">
                              <node concept="2ShNRf" id="5OIo7_RbAzL" role="10QFUP">
                                <node concept="YeOm9" id="5OIo7_RbAzM" role="2ShVmc">
                                  <node concept="1Y3b0j" id="5OIo7_RbAzN" role="YeSDq">
                                    <property role="2bfB8j" value="true" />
                                    <ref role="37wK5l" to="6f4m:4JdgAL_5wEf" resolve="NotMigratedNode" />
                                    <ref role="1Y3XeK" to="6f4m:4JdgAL_5vM9" resolve="NotMigratedNode" />
                                    <node concept="3Tm1VV" id="5OIo7_RbAzO" role="1B3o_S" />
                                    <node concept="3clFb_" id="5OIo7_RbAzP" role="jymVt">
                                      <property role="TrG5h" value="getMessage" />
                                      <property role="1EzhhJ" value="false" />
                                      <node concept="3uibUv" id="5OIo7_RbAzQ" role="3clF45">
                                        <ref role="3uigEE" to="wyt6:~String" resolve="String" />
                                      </node>
                                      <node concept="3Tm1VV" id="5OIo7_RbAzR" role="1B3o_S" />
                                      <node concept="3clFbS" id="5OIo7_RbAzS" role="3clF47">
                                        <node concept="3clFbF" id="5OIo7_RbEa9" role="3cqZAp">
                                          <node concept="Xl_RD" id="5OIo7_RbA$1" role="3clFbG">
                                            <property role="Xl_RC" value="Concept id is not set" />
                                          </node>
                                        </node>
                                      </node>
                                    </node>
                                    <node concept="37vLTw" id="5OIo7_RbA$3" role="37wK5m">
                                      <ref role="3cqZAo" node="5OIo7_RbA$5" resolve="it" />
                                    </node>
                                  </node>
                                </node>
                              </node>
                              <node concept="3uibUv" id="5OIo7_RbA$4" role="10QFUM">
                                <ref role="3uigEE" to="6f4m:3n7MNzO_IjP" resolve="Problem" />
                              </node>
                            </node>
                          </node>
                        </node>
                      </node>
                      <node concept="Rh6nW" id="5OIo7_RbA$5" role="1bW2Oz">
                        <property role="TrG5h" value="it" />
                        <node concept="2jxLKc" id="5OIo7_RbA$6" role="1tU5fm" />
                      </node>
                    </node>
                  </node>
                </node>
              </node>
            </node>
            <node concept="3cpWs8" id="dqwjwH$p4h" role="3cqZAp">
              <node concept="3cpWsn" id="dqwjwH$p4i" role="3cpWs9">
                <property role="TrG5h" value="notSetProp" />
                <node concept="A3Dl8" id="dqwjwH$p4j" role="1tU5fm">
                  <node concept="3uibUv" id="dqwjwH$p4k" role="A3Ik2">
                    <ref role="3uigEE" to="6f4m:3n7MNzO_IjP" resolve="Problem" />
                  </node>
                </node>
                <node concept="2OqwBi" id="dqwjwH$p4l" role="33vP2m">
                  <node concept="2OqwBi" id="dqwjwH$p4m" role="2Oq$k0">
                    <node concept="qVDSY" id="dqwjwH$p4n" role="2Oq$k0">
                      <node concept="chp4Y" id="dqwjwH$pW2" role="qVDSX">
                        <ref role="cht4Q" to="tpce:f_TJgxF" resolve="PropertyDeclaration" />
                      </node>
                      <node concept="1dO9Bo" id="dqwjwH$p4p" role="1dOa5D" />
                    </node>
                    <node concept="3zZkjj" id="dqwjwH$p4q" role="2OqNvi">
                      <node concept="1bVj0M" id="dqwjwH$p4r" role="23t8la">
                        <node concept="3clFbS" id="dqwjwH$p4s" role="1bW5cS">
                          <node concept="3clFbF" id="dqwjwH$p4t" role="3cqZAp">
                            <node concept="2OqwBi" id="dqwjwH$p4u" role="3clFbG">
                              <node concept="2OqwBi" id="dqwjwH$p4v" role="2Oq$k0">
                                <node concept="37vLTw" id="dqwjwH$p4w" role="2Oq$k0">
                                  <ref role="3cqZAo" node="dqwjwH$p4z" resolve="it" />
                                </node>
                                <node concept="3TrcHB" id="dqwjwH$qAq" role="2OqNvi">
                                  <ref role="3TsBF5" to="tpce:dqwjwHwEjp" resolve="propertyId" />
                                </node>
                              </node>
                              <node concept="17RlXB" id="dqwjwH$p4y" role="2OqNvi" />
                            </node>
                          </node>
                        </node>
                        <node concept="Rh6nW" id="dqwjwH$p4z" role="1bW2Oz">
                          <property role="TrG5h" value="it" />
                          <node concept="2jxLKc" id="dqwjwH$p4$" role="1tU5fm" />
                        </node>
                      </node>
                    </node>
                  </node>
                  <node concept="3$u5V9" id="dqwjwH$p4_" role="2OqNvi">
                    <node concept="1bVj0M" id="dqwjwH$p4A" role="23t8la">
                      <node concept="3clFbS" id="dqwjwH$p4B" role="1bW5cS">
                        <node concept="3clFbF" id="dqwjwH$p4C" role="3cqZAp">
                          <node concept="1eOMI4" id="dqwjwH$p4D" role="3clFbG">
                            <node concept="10QFUN" id="dqwjwH$p4E" role="1eOMHV">
                              <node concept="2ShNRf" id="dqwjwH$p4F" role="10QFUP">
                                <node concept="YeOm9" id="dqwjwH$p4G" role="2ShVmc">
                                  <node concept="1Y3b0j" id="dqwjwH$p4H" role="YeSDq">
                                    <property role="2bfB8j" value="true" />
                                    <ref role="37wK5l" to="6f4m:4JdgAL_5wEf" resolve="NotMigratedNode" />
                                    <ref role="1Y3XeK" to="6f4m:4JdgAL_5vM9" resolve="NotMigratedNode" />
                                    <node concept="3Tm1VV" id="dqwjwH$p4I" role="1B3o_S" />
                                    <node concept="3clFb_" id="dqwjwH$p4J" role="jymVt">
                                      <property role="TrG5h" value="getMessage" />
                                      <property role="1EzhhJ" value="false" />
                                      <node concept="3uibUv" id="dqwjwH$p4K" role="3clF45">
                                        <ref role="3uigEE" to="wyt6:~String" resolve="String" />
                                      </node>
                                      <node concept="3Tm1VV" id="dqwjwH$p4L" role="1B3o_S" />
                                      <node concept="3clFbS" id="dqwjwH$p4M" role="3clF47">
                                        <node concept="3clFbF" id="dqwjwH$p4N" role="3cqZAp">
                                          <node concept="Xl_RD" id="dqwjwH$p4O" role="3clFbG">
                                            <property role="Xl_RC" value="Property id is not set" />
                                          </node>
                                        </node>
                                      </node>
                                    </node>
                                    <node concept="37vLTw" id="dqwjwH$p4P" role="37wK5m">
                                      <ref role="3cqZAo" node="dqwjwH$p4R" resolve="it" />
                                    </node>
                                  </node>
                                </node>
                              </node>
                              <node concept="3uibUv" id="dqwjwH$p4Q" role="10QFUM">
                                <ref role="3uigEE" to="6f4m:3n7MNzO_IjP" resolve="Problem" />
                              </node>
                            </node>
                          </node>
                        </node>
                      </node>
                      <node concept="Rh6nW" id="dqwjwH$p4R" role="1bW2Oz">
                        <property role="TrG5h" value="it" />
                        <node concept="2jxLKc" id="dqwjwH$p4S" role="1tU5fm" />
                      </node>
                    </node>
                  </node>
                </node>
              </node>
            </node>
            <node concept="3cpWs8" id="dqwjwH$qPy" role="3cqZAp">
              <node concept="3cpWsn" id="dqwjwH$qPz" role="3cpWs9">
                <property role="TrG5h" value="notSetLinks" />
                <node concept="A3Dl8" id="dqwjwH$qP$" role="1tU5fm">
                  <node concept="3uibUv" id="dqwjwH$qP_" role="A3Ik2">
                    <ref role="3uigEE" to="6f4m:3n7MNzO_IjP" resolve="Problem" />
                  </node>
                </node>
                <node concept="2OqwBi" id="dqwjwH$qPA" role="33vP2m">
                  <node concept="2OqwBi" id="dqwjwH$qPB" role="2Oq$k0">
                    <node concept="qVDSY" id="dqwjwH$qPC" role="2Oq$k0">
                      <node concept="chp4Y" id="dqwjwH$s8o" role="qVDSX">
                        <ref role="cht4Q" to="tpce:f_TJgxE" resolve="LinkDeclaration" />
                      </node>
                      <node concept="1dO9Bo" id="dqwjwH$qPE" role="1dOa5D" />
                    </node>
                    <node concept="3zZkjj" id="dqwjwH$qPF" role="2OqNvi">
                      <node concept="1bVj0M" id="dqwjwH$qPG" role="23t8la">
                        <node concept="3clFbS" id="dqwjwH$qPH" role="1bW5cS">
                          <node concept="3clFbF" id="dqwjwH$qPI" role="3cqZAp">
                            <node concept="2OqwBi" id="dqwjwH$qPJ" role="3clFbG">
                              <node concept="2OqwBi" id="dqwjwH$qPK" role="2Oq$k0">
                                <node concept="37vLTw" id="dqwjwH$qPL" role="2Oq$k0">
                                  <ref role="3cqZAo" node="dqwjwH$qPO" resolve="it" />
                                </node>
                                <node concept="3TrcHB" id="dqwjwH$szN" role="2OqNvi">
                                  <ref role="3TsBF5" to="tpce:dqwjwHwEj$" resolve="linkId" />
                                </node>
                              </node>
                              <node concept="17RlXB" id="dqwjwH$qPN" role="2OqNvi" />
                            </node>
                          </node>
                        </node>
                        <node concept="Rh6nW" id="dqwjwH$qPO" role="1bW2Oz">
                          <property role="TrG5h" value="it" />
                          <node concept="2jxLKc" id="dqwjwH$qPP" role="1tU5fm" />
                        </node>
                      </node>
                    </node>
                  </node>
                  <node concept="3$u5V9" id="dqwjwH$qPQ" role="2OqNvi">
                    <node concept="1bVj0M" id="dqwjwH$qPR" role="23t8la">
                      <node concept="3clFbS" id="dqwjwH$qPS" role="1bW5cS">
                        <node concept="3clFbF" id="dqwjwH$qPT" role="3cqZAp">
                          <node concept="1eOMI4" id="dqwjwH$qPU" role="3clFbG">
                            <node concept="10QFUN" id="dqwjwH$qPV" role="1eOMHV">
                              <node concept="2ShNRf" id="dqwjwH$qPW" role="10QFUP">
                                <node concept="YeOm9" id="dqwjwH$qPX" role="2ShVmc">
                                  <node concept="1Y3b0j" id="dqwjwH$qPY" role="YeSDq">
                                    <property role="2bfB8j" value="true" />
                                    <ref role="37wK5l" to="6f4m:4JdgAL_5wEf" resolve="NotMigratedNode" />
                                    <ref role="1Y3XeK" to="6f4m:4JdgAL_5vM9" resolve="NotMigratedNode" />
                                    <node concept="3Tm1VV" id="dqwjwH$qPZ" role="1B3o_S" />
                                    <node concept="3clFb_" id="dqwjwH$qQ0" role="jymVt">
                                      <property role="TrG5h" value="getMessage" />
                                      <property role="1EzhhJ" value="false" />
                                      <node concept="3uibUv" id="dqwjwH$qQ1" role="3clF45">
                                        <ref role="3uigEE" to="wyt6:~String" resolve="String" />
                                      </node>
                                      <node concept="3Tm1VV" id="dqwjwH$qQ2" role="1B3o_S" />
                                      <node concept="3clFbS" id="dqwjwH$qQ3" role="3clF47">
                                        <node concept="3clFbF" id="dqwjwH$qQ4" role="3cqZAp">
                                          <node concept="Xl_RD" id="dqwjwH$qQ5" role="3clFbG">
                                            <property role="Xl_RC" value="Link id is not set" />
                                          </node>
                                        </node>
                                      </node>
                                    </node>
                                    <node concept="37vLTw" id="dqwjwH$qQ6" role="37wK5m">
                                      <ref role="3cqZAo" node="dqwjwH$qQ8" resolve="it" />
                                    </node>
                                  </node>
                                </node>
                              </node>
                              <node concept="3uibUv" id="dqwjwH$qQ7" role="10QFUM">
                                <ref role="3uigEE" to="6f4m:3n7MNzO_IjP" resolve="Problem" />
                              </node>
                            </node>
                          </node>
                        </node>
                      </node>
                      <node concept="Rh6nW" id="dqwjwH$qQ8" role="1bW2Oz">
                        <property role="TrG5h" value="it" />
                        <node concept="2jxLKc" id="dqwjwH$qQ9" role="1tU5fm" />
                      </node>
                    </node>
                  </node>
                </node>
              </node>
            </node>
            <node concept="3cpWs8" id="5OIo7_RbBHv" role="3cqZAp">
              <node concept="3cpWsn" id="5OIo7_RbBHw" role="3cpWs9">
                <property role="TrG5h" value="notEmpty" />
                <node concept="A3Dl8" id="5OIo7_RbBHx" role="1tU5fm">
                  <node concept="3uibUv" id="5OIo7_RbBHy" role="A3Ik2">
                    <ref role="3uigEE" to="6f4m:3n7MNzO_IjP" resolve="Problem" />
                  </node>
                </node>
                <node concept="2OqwBi" id="5OIo7_RbBHz" role="33vP2m">
                  <node concept="2OqwBi" id="5OIo7_RbBH$" role="2Oq$k0">
                    <node concept="qVDSY" id="5OIo7_RbBH_" role="2Oq$k0">
                      <node concept="chp4Y" id="5OIo7_RbBHA" role="qVDSX">
                        <ref role="cht4Q" to="tpce:h0PkWnZ" resolve="AbstractConceptDeclaration" />
                      </node>
                      <node concept="1dO9Bo" id="5OIo7_RbBHB" role="1dOa5D" />
                    </node>
                    <node concept="3zZkjj" id="5OIo7_RbBHC" role="2OqNvi">
                      <node concept="1bVj0M" id="5OIo7_RbBHD" role="23t8la">
                        <node concept="3clFbS" id="5OIo7_RbBHE" role="1bW5cS">
                          <node concept="3clFbF" id="5OIo7_RbBHF" role="3cqZAp">
                            <node concept="3y3z36" id="5OIo7_RbBHH" role="3clFbG">
                              <node concept="3cmrfG" id="5OIo7_RbBHI" role="3uHU7w">
                                <property role="3cmrfH" value="0" />
                              </node>
                              <node concept="2OqwBi" id="5OIo7_RbBHJ" role="3uHU7B">
                                <node concept="37vLTw" id="5OIo7_RbBHK" role="2Oq$k0">
                                  <ref role="3cqZAo" node="5OIo7_RbBHR" resolve="it" />
                                </node>
                                <node concept="3TrcHB" id="5OIo7_RbBHL" role="2OqNvi">
                                  <ref role="3TsBF5" to="tpce:1o9qxtf9pgp" resolve="intConceptId" />
                                </node>
                              </node>
                            </node>
                          </node>
                        </node>
                        <node concept="Rh6nW" id="5OIo7_RbBHR" role="1bW2Oz">
                          <property role="TrG5h" value="it" />
                          <node concept="2jxLKc" id="5OIo7_RbBHS" role="1tU5fm" />
                        </node>
                      </node>
                    </node>
                  </node>
                  <node concept="3$u5V9" id="5OIo7_RbBHT" role="2OqNvi">
                    <node concept="1bVj0M" id="5OIo7_RbBHU" role="23t8la">
                      <node concept="3clFbS" id="5OIo7_RbBHV" role="1bW5cS">
                        <node concept="3clFbF" id="5OIo7_RbBHW" role="3cqZAp">
                          <node concept="1eOMI4" id="5OIo7_RbBHX" role="3clFbG">
                            <node concept="10QFUN" id="5OIo7_RbBHY" role="1eOMHV">
                              <node concept="2ShNRf" id="5OIo7_RbBHZ" role="10QFUP">
                                <node concept="YeOm9" id="5OIo7_RbBI0" role="2ShVmc">
                                  <node concept="1Y3b0j" id="5OIo7_RbBI1" role="YeSDq">
                                    <property role="2bfB8j" value="true" />
                                    <ref role="37wK5l" to="6f4m:4JdgAL_5wEf" resolve="NotMigratedNode" />
                                    <ref role="1Y3XeK" to="6f4m:4JdgAL_5vM9" resolve="NotMigratedNode" />
                                    <node concept="3Tm1VV" id="5OIo7_RbBI2" role="1B3o_S" />
                                    <node concept="3clFb_" id="5OIo7_RbBI3" role="jymVt">
                                      <property role="TrG5h" value="getMessage" />
                                      <property role="1EzhhJ" value="false" />
                                      <node concept="3uibUv" id="5OIo7_RbBI4" role="3clF45">
                                        <ref role="3uigEE" to="wyt6:~String" resolve="String" />
                                      </node>
                                      <node concept="3Tm1VV" id="5OIo7_RbBI5" role="1B3o_S" />
                                      <node concept="3clFbS" id="5OIo7_RbBI6" role="3clF47">
                                        <node concept="3clFbF" id="5OIo7_RbEe$" role="3cqZAp">
                                          <node concept="Xl_RD" id="5OIo7_RbBI9" role="3clFbG">
                                            <property role="Xl_RC" value="Old concept id != null" />
                                          </node>
                                        </node>
                                      </node>
                                    </node>
                                    <node concept="37vLTw" id="5OIo7_RbBIh" role="37wK5m">
                                      <ref role="3cqZAo" node="5OIo7_RbBIj" resolve="it" />
                                    </node>
                                  </node>
                                </node>
                              </node>
                              <node concept="3uibUv" id="5OIo7_RbBIi" role="10QFUM">
                                <ref role="3uigEE" to="6f4m:3n7MNzO_IjP" resolve="Problem" />
                              </node>
                            </node>
                          </node>
                        </node>
                      </node>
                      <node concept="Rh6nW" id="5OIo7_RbBIj" role="1bW2Oz">
                        <property role="TrG5h" value="it" />
                        <node concept="2jxLKc" id="5OIo7_RbBIk" role="1tU5fm" />
                      </node>
                    </node>
                  </node>
                </node>
              </node>
            </node>
            <node concept="3cpWs6" id="5OIo7_R8TRF" role="3cqZAp">
              <node concept="2OqwBi" id="5OIo7_RbEPB" role="3cqZAk">
                <node concept="2OqwBi" id="dqwjwH$vyT" role="2Oq$k0">
                  <node concept="2OqwBi" id="dqwjwH$sTE" role="2Oq$k0">
                    <node concept="37vLTw" id="5OIo7_RbA$7" role="2Oq$k0">
                      <ref role="3cqZAo" node="5OIo7_RbAzk" resolve="notSet" />
                    </node>
                    <node concept="4Tj9Z" id="dqwjwH$u2K" role="2OqNvi">
                      <node concept="37vLTw" id="dqwjwH$uIQ" role="576Qk">
                        <ref role="3cqZAo" node="dqwjwH$p4i" resolve="notSetProp" />
                      </node>
                    </node>
                  </node>
                  <node concept="4Tj9Z" id="dqwjwH$wGN" role="2OqNvi">
                    <node concept="37vLTw" id="dqwjwH$xpf" role="576Qk">
                      <ref role="3cqZAo" node="dqwjwH$qPz" resolve="notSetLinks" />
                    </node>
                  </node>
                </node>
                <node concept="4Tj9Z" id="5OIo7_RbFET" role="2OqNvi">
                  <node concept="37vLTw" id="5OIo7_RbG3h" role="576Qk">
                    <ref role="3cqZAo" node="5OIo7_RbBHw" resolve="notEmpty" />
                  </node>
                </node>
              </node>
            </node>
          </node>
        </node>
      </node>
      <node concept="ffn8J" id="5OIo7_R8TSg" role="3clF46">
        <property role="TrG5h" value="m" />
        <ref role="ffrpq" to="slm6:1JWcQ2VeXI5" resolve="m" />
        <node concept="3uibUv" id="5OIo7_R8TSh" role="1tU5fm">
          <ref role="3uigEE" to="lui2:~SModule" resolve="SModule" />
        </node>
      </node>
      <node concept="A3Dl8" id="5OIo7_R8TSi" role="3clF45">
        <node concept="3uibUv" id="5OIo7_R8TSj" role="A3Ik2">
          <ref role="3uigEE" to="6f4m:3n7MNzO_IjP" resolve="Problem" />
        </node>
      </node>
    </node>
  </node>
  <node concept="3SyAh_" id="4qBHWh_rspf">
    <property role="qMTe8" value="2" />
    <property role="TrG5h" value="CopyIconsToResources" />
    <node concept="3Tm1VV" id="4qBHWh_rspg" role="1B3o_S" />
    <node concept="3tTeZs" id="4qBHWh_rsph" role="jymVt">
      <property role="3tTeZt" value="&lt;no execute after&gt;" />
      <ref role="3tTeZr" to="slm6:7ay_HjIMt1a" resolve="execute after" />
    </node>
    <node concept="3tTeZs" id="4qBHWh_rspi" role="jymVt">
      <property role="3tTeZt" value="&lt;no required data&gt;" />
      <ref role="3tTeZr" to="slm6:3A3gNhf1WPI" resolve="requires data" />
    </node>
    <node concept="3tTeZs" id="4qBHWh_rspj" role="jymVt">
      <property role="3tTeZt" value="&lt;no produced data&gt;" />
      <ref role="3tTeZr" to="slm6:536fTXa4WHO" resolve="produces data" />
    </node>
    <node concept="2tJIrI" id="4qBHWh_rspk" role="jymVt" />
    <node concept="3tYpMH" id="4qBHWh_rsLo" role="jymVt">
      <property role="TrG5h" value="isRerunnable" />
      <property role="3tYpME" value="true" />
      <ref role="25KYV2" to="slm6:1JWcQ2VeWIs" resolve="isRerunnable" />
      <node concept="3Tm1VV" id="4qBHWh_rsLq" role="1B3o_S" />
      <node concept="10P_77" id="4qBHWh_rsLr" role="1tU5fm" />
    </node>
    <node concept="3tYpXE" id="4qBHWh_rsHW" role="jymVt">
      <property role="TrG5h" value="description" />
      <property role="3tYpXF" value="Copy Concept Icons to Resources" />
      <ref role="25KYV2" to="slm6:1_lSsE3RFpE" resolve="description" />
      <node concept="3Tm1VV" id="4qBHWh_rsHY" role="1B3o_S" />
      <node concept="17QB3L" id="4qBHWh_rsHZ" role="1tU5fm" />
    </node>
    <node concept="q3mfD" id="4qBHWh_rspn" role="jymVt">
      <property role="TrG5h" value="execute" />
      <ref role="2VtyIY" to="slm6:4ubqdNOF9cA" resolve="execute" />
      <node concept="3Tm1VV" id="4qBHWh_rspp" role="1B3o_S" />
      <node concept="3clFbS" id="4qBHWh_rspr" role="3clF47">
        <node concept="L3pyB" id="4qBHWh_rCae" role="3cqZAp">
          <node concept="3clFbS" id="4qBHWh_rCaf" role="L3pyw">
            <node concept="3clFbF" id="4qBHWh_rCag" role="3cqZAp">
              <node concept="2OqwBi" id="4qBHWh_rCah" role="3clFbG">
                <node concept="2OqwBi" id="4qBHWh_rCai" role="2Oq$k0">
                  <node concept="qVDSY" id="4qBHWh_rCaj" role="2Oq$k0">
                    <node concept="chp4Y" id="4qBHWh_rCak" role="qVDSX">
                      <ref role="cht4Q" to="tpce:f_TIwhg" resolve="ConceptDeclaration" />
                    </node>
                    <node concept="1dO9Bo" id="4qBHWh_rCal" role="1dOa5D" />
                  </node>
                  <node concept="3zZkjj" id="4qBHWh_rCam" role="2OqNvi">
                    <node concept="1bVj0M" id="4qBHWh_rCan" role="23t8la">
                      <node concept="3clFbS" id="4qBHWh_rCao" role="1bW5cS">
                        <node concept="3clFbF" id="4qBHWh_rCap" role="3cqZAp">
                          <node concept="2OqwBi" id="4qBHWh_rCaq" role="3clFbG">
                            <node concept="2OqwBi" id="4qBHWh_rCar" role="2Oq$k0">
                              <node concept="37vLTw" id="4qBHWh_rCas" role="2Oq$k0">
                                <ref role="3cqZAo" node="4qBHWh_rCav" resolve="it" />
                              </node>
                              <node concept="3TrcHB" id="4qBHWh_rCat" role="2OqNvi">
                                <ref role="3TsBF5" to="tpce:gSMwhzt" resolve="iconPath" />
                              </node>
                            </node>
                            <node concept="17RvpY" id="4qBHWh_rCau" role="2OqNvi" />
                          </node>
                        </node>
                      </node>
                      <node concept="Rh6nW" id="4qBHWh_rCav" role="1bW2Oz">
                        <property role="TrG5h" value="it" />
                        <node concept="2jxLKc" id="4qBHWh_rCaw" role="1tU5fm" />
                      </node>
                    </node>
                  </node>
                </node>
                <node concept="2es0OD" id="4qBHWh_rCKx" role="2OqNvi">
                  <node concept="1bVj0M" id="4qBHWh_rCKz" role="23t8la">
                    <node concept="3clFbS" id="4qBHWh_rCK$" role="1bW5cS">
                      <node concept="3SKdUt" id="4qBHWh_swCV" role="3cqZAp">
                        <node concept="3SKdUq" id="4qBHWh_swCX" role="3SKWNk">
                          <property role="3SKdUp" value="we re-shrink paths to convert ${language_descriptoe} to ${module} at the same time" />
                        </node>
                      </node>
                      <node concept="3cpWs8" id="4qBHWh_ssB9" role="3cqZAp">
                        <node concept="3cpWsn" id="4qBHWh_ssBa" role="3cpWs9">
                          <property role="TrG5h" value="newPath" />
                          <node concept="3uibUv" id="4qBHWh_ssB8" role="1tU5fm">
                            <ref role="3uigEE" to="wyt6:~String" resolve="String" />
                          </node>
                          <node concept="2OqwBi" id="4qBHWh_suit" role="33vP2m">
                            <node concept="2YIFZM" id="4qBHWh_ssBc" role="2Oq$k0">
                              <ref role="1Pybhc" to="18ew:~MacrosFactory" resolve="MacrosFactory" />
                              <ref role="37wK5l" to="18ew:~MacrosFactory.forModule(jetbrains.mps.project.AbstractModule):jetbrains.mps.util.MacroHelper" resolve="forModule" />
                              <node concept="10QFUN" id="4qBHWh_ssBe" role="37wK5m">
                                <node concept="37vLTw" id="4qBHWh_ssBf" role="10QFUP">
                                  <ref role="3cqZAo" node="4qBHWh_rspt" resolve="m" />
                                </node>
                                <node concept="3uibUv" id="4qBHWh_ssBg" role="10QFUM">
                                  <ref role="3uigEE" to="z1c3:~AbstractModule" resolve="AbstractModule" />
                                </node>
                              </node>
                            </node>
                            <node concept="liA8E" id="4qBHWh_ssBh" role="2OqNvi">
                              <ref role="37wK5l" to="18ew:~MacroHelper.shrinkPath(java.lang.String):java.lang.String" resolve="shrinkPath" />
                              <node concept="2OqwBi" id="4qBHWh_suTY" role="37wK5m">
                                <node concept="2YIFZM" id="4qBHWh_stFf" role="2Oq$k0">
                                  <ref role="37wK5l" to="18ew:~MacrosFactory.forModule(jetbrains.mps.project.AbstractModule):jetbrains.mps.util.MacroHelper" resolve="forModule" />
                                  <ref role="1Pybhc" to="18ew:~MacrosFactory" resolve="MacrosFactory" />
                                  <node concept="10QFUN" id="4qBHWh_su8w" role="37wK5m">
                                    <node concept="37vLTw" id="4qBHWh_su8x" role="10QFUP">
                                      <ref role="3cqZAo" node="4qBHWh_rspt" resolve="m" />
                                    </node>
                                    <node concept="3uibUv" id="4qBHWh_su8y" role="10QFUM">
                                      <ref role="3uigEE" to="z1c3:~AbstractModule" resolve="AbstractModule" />
                                    </node>
                                  </node>
                                </node>
                                <node concept="liA8E" id="4qBHWh_svg_" role="2OqNvi">
                                  <ref role="37wK5l" to="18ew:~MacroHelper.expandPath(java.lang.String):java.lang.String" resolve="expandPath" />
                                  <node concept="2OqwBi" id="4qBHWh_svJN" role="37wK5m">
                                    <node concept="37vLTw" id="4qBHWh_svqW" role="2Oq$k0">
                                      <ref role="3cqZAo" node="4qBHWh_rCK_" resolve="it" />
                                    </node>
                                    <node concept="3TrcHB" id="4qBHWh_swir" role="2OqNvi">
                                      <ref role="3TsBF5" to="tpce:gSMwhzt" resolve="iconPath" />
                                    </node>
                                  </node>
                                </node>
                              </node>
                            </node>
                          </node>
                        </node>
                      </node>
                      <node concept="3clFbF" id="4qBHWh_rCUU" role="3cqZAp">
                        <node concept="37vLTI" id="4qBHWh_rOAK" role="3clFbG">
                          <node concept="2OqwBi" id="4qBHWh_rNA$" role="37vLTJ">
                            <node concept="2OqwBi" id="4qBHWh_rEVG" role="2Oq$k0">
                              <node concept="2OqwBi" id="4qBHWh_rD6T" role="2Oq$k0">
                                <node concept="37vLTw" id="4qBHWh_rCUT" role="2Oq$k0">
                                  <ref role="3cqZAo" node="4qBHWh_rCK_" resolve="it" />
                                </node>
                                <node concept="3TrEf2" id="4qBHWh_rDHV" role="2OqNvi">
                                  <ref role="3Tt5mk" to="tpce:5vfjF5cjTVP" />
                                </node>
                              </node>
                              <node concept="zfrQC" id="4qBHWh_rFp3" role="2OqNvi">
                                <ref role="1A9B2P" to="1oap:7Mb2akaesqV" resolve="FileIcon" />
                              </node>
                            </node>
                            <node concept="3TrcHB" id="XPkXgFhaJi" role="2OqNvi">
                              <ref role="3TsBF5" to="1oap:2p1v3tOafqN" resolve="file" />
                            </node>
                          </node>
                          <node concept="37vLTw" id="4qBHWh_ssBi" role="37vLTx">
                            <ref role="3cqZAo" node="4qBHWh_ssBa" resolve="newPath" />
                          </node>
                        </node>
                      </node>
                      <node concept="3clFbF" id="4qBHWh_sCpD" role="3cqZAp">
                        <node concept="2OqwBi" id="4qBHWh_sCC3" role="3clFbG">
                          <node concept="2JrnkZ" id="4qBHWh_sDC4" role="2Oq$k0">
                            <node concept="37vLTw" id="4qBHWh_sCpB" role="2JrQYb">
                              <ref role="3cqZAo" node="4qBHWh_rCK_" resolve="it" />
                            </node>
                          </node>
                          <node concept="liA8E" id="4qBHWh_sDTm" role="2OqNvi">
                            <ref role="37wK5l" to="mhbf:~SNode.setProperty(org.jetbrains.mps.openapi.language.SProperty,java.lang.String):void" resolve="setProperty" />
                            <node concept="355D3s" id="4qBHWh_sE4s" role="37wK5m">
                              <ref role="355D3t" to="tpce:f_TIwhg" resolve="ConceptDeclaration" />
                              <ref role="355D3u" to="tpce:gSMwhzt" resolve="iconPath" />
                            </node>
                            <node concept="10Nm6u" id="4qBHWh_sELS" role="37wK5m" />
                          </node>
                        </node>
                      </node>
                    </node>
                    <node concept="Rh6nW" id="4qBHWh_rCK_" role="1bW2Oz">
                      <property role="TrG5h" value="it" />
                      <node concept="2jxLKc" id="4qBHWh_rCKA" role="1tU5fm" />
                    </node>
                  </node>
                </node>
              </node>
            </node>
            <node concept="3clFbF" id="2pQTkXmRsNe" role="3cqZAp">
              <node concept="2OqwBi" id="2pQTkXmRunQ" role="3clFbG">
                <node concept="2OqwBi" id="2pQTkXmRsXG" role="2Oq$k0">
                  <node concept="EZOir" id="2pQTkXmRsNa" role="2Oq$k0">
                    <node concept="1dO9Bo" id="2pQTkXmRsNc" role="1dOa5D" />
                  </node>
                  <node concept="3zZkjj" id="2pQTkXmRt8Y" role="2OqNvi">
                    <node concept="1bVj0M" id="2pQTkXmRt90" role="23t8la">
                      <node concept="3clFbS" id="2pQTkXmRt91" role="1bW5cS">
                        <node concept="3clFbF" id="2pQTkXmRtcY" role="3cqZAp">
                          <node concept="2OqwBi" id="2pQTkXmRtBi" role="3clFbG">
                            <node concept="Rm8GO" id="2pQTkXmRtf5" role="2Oq$k0">
                              <ref role="Rm8GQ" to="w1kc:~LanguageAspect.STRUCTURE" resolve="STRUCTURE" />
                              <ref role="1Px2BO" to="w1kc:~LanguageAspect" resolve="LanguageAspect" />
                            </node>
                            <node concept="liA8E" id="2pQTkXmRu3x" role="2OqNvi">
                              <ref role="37wK5l" to="w1kc:~LanguageAspect.is(org.jetbrains.mps.openapi.model.SModel):boolean" resolve="is" />
                              <node concept="37vLTw" id="2pQTkXmRucM" role="37wK5m">
                                <ref role="3cqZAo" node="2pQTkXmRt92" resolve="it" />
                              </node>
                            </node>
                          </node>
                        </node>
                      </node>
                      <node concept="Rh6nW" id="2pQTkXmRt92" role="1bW2Oz">
                        <property role="TrG5h" value="it" />
                        <node concept="2jxLKc" id="2pQTkXmRt93" role="1tU5fm" />
                      </node>
                    </node>
                  </node>
                </node>
                <node concept="2es0OD" id="2pQTkXmRuKC" role="2OqNvi">
                  <node concept="1bVj0M" id="2pQTkXmRuKE" role="23t8la">
                    <node concept="3clFbS" id="2pQTkXmRuKF" role="1bW5cS">
                      <node concept="3clFbF" id="2pQTkXmRuOf" role="3cqZAp">
                        <node concept="2OqwBi" id="2pQTkXmRuWW" role="3clFbG">
                          <node concept="1eOMI4" id="2pQTkXmRvCv" role="2Oq$k0">
                            <node concept="10QFUN" id="2pQTkXmRvCw" role="1eOMHV">
                              <node concept="2JrnkZ" id="2pQTkXmRvCt" role="10QFUP">
                                <node concept="37vLTw" id="2pQTkXmRvCu" role="2JrQYb">
                                  <ref role="3cqZAo" node="2pQTkXmRuKG" resolve="it" />
                                </node>
                              </node>
                              <node concept="3uibUv" id="2pQTkXmRvGd" role="10QFUM">
                                <ref role="3uigEE" to="w1kc:~SModelInternal" resolve="SModelInternal" />
                              </node>
                            </node>
                          </node>
                          <node concept="liA8E" id="2pQTkXmRwiX" role="2OqNvi">
                            <ref role="37wK5l" to="w1kc:~SModelInternal.addLanguage(org.jetbrains.mps.openapi.language.SLanguage):void" resolve="addLanguage" />
                            <node concept="pHN19" id="2pQTkXmRwnO" role="37wK5m">
                              <node concept="2V$Bhx" id="2pQTkXmRwtH" role="2V$M_3">
                                <property role="2V$B1T" value="982eb8df-2c96-4bd7-9963-11712ea622e5" />
                                <property role="2V$B1Q" value="jetbrains.mps.lang.resources" />
                              </node>
                            </node>
                          </node>
                        </node>
                      </node>
                    </node>
                    <node concept="Rh6nW" id="2pQTkXmRuKG" role="1bW2Oz">
                      <property role="TrG5h" value="it" />
                      <node concept="2jxLKc" id="2pQTkXmRuKH" role="1tU5fm" />
                    </node>
                  </node>
                </node>
              </node>
            </node>
          </node>
          <node concept="37vLTw" id="4qBHWh_rCaA" role="L3pyr">
            <ref role="3cqZAo" node="4qBHWh_rspt" resolve="m" />
          </node>
        </node>
      </node>
      <node concept="ffn8J" id="4qBHWh_rspt" role="3clF46">
        <property role="TrG5h" value="m" />
        <ref role="ffrpq" to="slm6:7fCCGqboj9J" resolve="m" />
        <node concept="3uibUv" id="4qBHWh_rsps" role="1tU5fm">
          <ref role="3uigEE" to="lui2:~SModule" resolve="SModule" />
        </node>
      </node>
      <node concept="q3mfm" id="4qBHWh_rspu" role="3clF45">
        <ref role="q3mfh" to="slm6:4F5w8gPXEEe" />
        <ref role="1QQUv3" node="4qBHWh_rspn" resolve="execute" />
      </node>
    </node>
    <node concept="q3mfD" id="4qBHWh_rsMY" role="jymVt">
      <property role="TrG5h" value="check" />
      <ref role="2VtyIY" to="slm6:1JWcQ2VeXpD" resolve="check" />
      <node concept="3Tm1VV" id="4qBHWh_rsN0" role="1B3o_S" />
      <node concept="3clFbS" id="4qBHWh_rsN2" role="3clF47">
        <node concept="3cpWs8" id="4qBHWh_sQEw" role="3cqZAp">
          <node concept="3cpWsn" id="4qBHWh_sQEx" role="3cpWs9">
            <property role="TrG5h" value="result" />
            <node concept="A3Dl8" id="4qBHWh_sQDZ" role="1tU5fm">
              <node concept="3uibUv" id="4qBHWh_sQE2" role="A3Ik2">
                <ref role="3uigEE" to="6f4m:3n7MNzO_IjP" resolve="Problem" />
              </node>
            </node>
          </node>
        </node>
        <node concept="L3pyB" id="4qBHWh_rvzZ" role="3cqZAp">
          <node concept="3clFbS" id="4qBHWh_rv$0" role="L3pyw">
            <node concept="3clFbF" id="4qBHWh_sRh2" role="3cqZAp">
              <node concept="37vLTI" id="4qBHWh_sRh4" role="3clFbG">
                <node concept="2OqwBi" id="4qBHWh_sQEy" role="37vLTx">
                  <node concept="2OqwBi" id="4qBHWh_sQEz" role="2Oq$k0">
                    <node concept="qVDSY" id="4qBHWh_sQE$" role="2Oq$k0">
                      <node concept="chp4Y" id="4qBHWh_sQE_" role="qVDSX">
                        <ref role="cht4Q" to="tpce:f_TIwhg" resolve="ConceptDeclaration" />
                      </node>
                      <node concept="1dO9Bo" id="4qBHWh_sQEA" role="1dOa5D" />
                    </node>
                    <node concept="3zZkjj" id="4qBHWh_sQEB" role="2OqNvi">
                      <node concept="1bVj0M" id="4qBHWh_sQEC" role="23t8la">
                        <node concept="3clFbS" id="4qBHWh_sQED" role="1bW5cS">
                          <node concept="3clFbF" id="4qBHWh_sQEE" role="3cqZAp">
                            <node concept="2OqwBi" id="4qBHWh_sQEF" role="3clFbG">
                              <node concept="2OqwBi" id="4qBHWh_sQEG" role="2Oq$k0">
                                <node concept="37vLTw" id="4qBHWh_sQEH" role="2Oq$k0">
                                  <ref role="3cqZAo" node="4qBHWh_sQEK" resolve="it" />
                                </node>
                                <node concept="3TrcHB" id="4qBHWh_sQEI" role="2OqNvi">
                                  <ref role="3TsBF5" to="tpce:gSMwhzt" resolve="iconPath" />
                                </node>
                              </node>
                              <node concept="17RvpY" id="4qBHWh_sQEJ" role="2OqNvi" />
                            </node>
                          </node>
                        </node>
                        <node concept="Rh6nW" id="4qBHWh_sQEK" role="1bW2Oz">
                          <property role="TrG5h" value="it" />
                          <node concept="2jxLKc" id="4qBHWh_sQEL" role="1tU5fm" />
                        </node>
                      </node>
                    </node>
                  </node>
                  <node concept="3$u5V9" id="4qBHWh_sQEM" role="2OqNvi">
                    <node concept="1bVj0M" id="4qBHWh_sQEN" role="23t8la">
                      <node concept="3clFbS" id="4qBHWh_sQEO" role="1bW5cS">
                        <node concept="3clFbF" id="4qBHWh_sQEP" role="3cqZAp">
                          <node concept="1eOMI4" id="4qBHWh_sQEQ" role="3clFbG">
                            <node concept="10QFUN" id="4qBHWh_sQER" role="1eOMHV">
                              <node concept="2ShNRf" id="4qBHWh_sQES" role="10QFUP">
                                <node concept="YeOm9" id="4qBHWh_sQET" role="2ShVmc">
                                  <node concept="1Y3b0j" id="4qBHWh_sQEU" role="YeSDq">
                                    <property role="2bfB8j" value="true" />
                                    <ref role="1Y3XeK" to="6f4m:4JdgAL_5vM9" resolve="NotMigratedNode" />
                                    <ref role="37wK5l" to="6f4m:4JdgAL_5wEf" resolve="NotMigratedNode" />
                                    <node concept="3Tm1VV" id="4qBHWh_sQEV" role="1B3o_S" />
                                    <node concept="3clFb_" id="4qBHWh_sQEW" role="jymVt">
                                      <property role="TrG5h" value="getMessage" />
                                      <property role="1EzhhJ" value="false" />
                                      <node concept="3uibUv" id="4qBHWh_sQEX" role="3clF45">
                                        <ref role="3uigEE" to="wyt6:~String" resolve="String" />
                                      </node>
                                      <node concept="3Tm1VV" id="4qBHWh_sQEY" role="1B3o_S" />
                                      <node concept="3clFbS" id="4qBHWh_sQEZ" role="3clF47">
                                        <node concept="3clFbF" id="4qBHWh_sQF0" role="3cqZAp">
                                          <node concept="Xl_RD" id="4qBHWh_sQF1" role="3clFbG">
                                            <property role="Xl_RC" value="Icon path was not migrated" />
                                          </node>
                                        </node>
                                      </node>
                                    </node>
                                    <node concept="37vLTw" id="4qBHWh_sQF2" role="37wK5m">
                                      <ref role="3cqZAo" node="4qBHWh_sQF4" resolve="it" />
                                    </node>
                                  </node>
                                </node>
                              </node>
                              <node concept="3uibUv" id="4qBHWh_sQF3" role="10QFUM">
                                <ref role="3uigEE" to="6f4m:3n7MNzO_IjP" resolve="Problem" />
                              </node>
                            </node>
                          </node>
                        </node>
                      </node>
                      <node concept="Rh6nW" id="4qBHWh_sQF4" role="1bW2Oz">
                        <property role="TrG5h" value="it" />
                        <node concept="2jxLKc" id="4qBHWh_sQF5" role="1tU5fm" />
                      </node>
                    </node>
                  </node>
                </node>
                <node concept="37vLTw" id="4qBHWh_sRh8" role="37vLTJ">
                  <ref role="3cqZAo" node="4qBHWh_sQEx" resolve="result" />
                </node>
              </node>
            </node>
          </node>
          <node concept="37vLTw" id="4qBHWh_ryaL" role="L3pyr">
            <ref role="3cqZAo" node="4qBHWh_rsN4" resolve="m" />
          </node>
        </node>
        <node concept="3clFbF" id="4qBHWh_ryiq" role="3cqZAp">
          <node concept="37vLTw" id="4qBHWh_sQF6" role="3clFbG">
            <ref role="3cqZAo" node="4qBHWh_sQEx" resolve="result" />
          </node>
        </node>
      </node>
      <node concept="ffn8J" id="4qBHWh_rsN4" role="3clF46">
        <property role="TrG5h" value="m" />
        <ref role="ffrpq" to="slm6:1JWcQ2VeXI5" resolve="m" />
        <node concept="3uibUv" id="4qBHWh_rsN3" role="1tU5fm">
          <ref role="3uigEE" to="lui2:~SModule" resolve="SModule" />
        </node>
      </node>
      <node concept="A3Dl8" id="4qBHWh_rsN5" role="3clF45">
        <node concept="3uibUv" id="4qBHWh_rsN6" role="A3Ik2">
          <ref role="3uigEE" to="6f4m:3n7MNzO_IjP" resolve="Problem" />
        </node>
      </node>
    </node>
  </node>
</model>

