<?xml version="1.0" encoding="UTF-8"?>
<model ref="r:6fb15c2f-9574-466e-a707-85b65c35cb5c(jetbrains.mps.samples.highlevel.sampleLanguage.behavior)">
  <persistence version="9" />
  <languages>
    <use id="af65afd8-f0dd-4942-87d9-63a55f2a9db1" name="jetbrains.mps.lang.behavior" version="0" />
    <devkit ref="fbc25dd2-5da4-483a-8b19-70928e1b62d7(jetbrains.mps.devkit.general-purpose)" />
  </languages>
  <imports />
  <registry />
</model>

