<?xml version="1.0" encoding="UTF-8"?>
<model ref="r:5dce8669-6930-4001-83e0-b519a3685688(jetbrains.mps.samples.highlevel.sampleLanguage.typesystem)">
  <persistence version="9" />
  <languages>
    <use id="7a5dda62-9140-4668-ab76-d5ed1746f2b2" name="jetbrains.mps.lang.typesystem" version="0" />
    <devkit ref="fbc25dd2-5da4-483a-8b19-70928e1b62d7(jetbrains.mps.devkit.general-purpose)" />
  </languages>
  <imports />
  <registry />
</model>

