<?xml version="1.0" encoding="UTF-8"?>
<model ref="r:1e092ddd-f221-460c-81e8-c2c8578d9fa9(jetbrains.mps.samples.generator_demo.demoLang1.generator.template.main@generator)">
  <persistence version="9" />
  <languages>
    <use id="b401a680-8325-4110-8fd3-84331ff25bef" name="jetbrains.mps.lang.generator" version="0" />
    <use id="d7706f63-9be2-479c-a3da-ae92af1e64d5" name="jetbrains.mps.lang.generator.generationContext" version="0" />
    <use id="7866978e-a0f0-4cc7-81bc-4d213d9375e1" name="jetbrains.mps.lang.smodel" version="4" />
    <use id="f3061a53-9226-4cc5-a443-f952ceaf5816" name="jetbrains.mps.baseLanguage" version="4" />
    <devkit ref="2677cb18-f558-4e33-bc38-a5139cee06dc(jetbrains.mps.devkit.language-design)" />
    <devkit ref="fbc25dd2-5da4-483a-8b19-70928e1b62d7(jetbrains.mps.devkit.general-purpose)" />
  </languages>
  <imports>
    <import index="dghb" ref="r:ec0ffc91-3a14-4002-ac57-dd36c5dcf10a(jetbrains.mps.sampleXML.structure)" />
    <import index="dxuu" ref="6354ebe7-c22a-4a0f-ac54-50b52ab9b065/java:javax.swing(JDK/)" />
    <import index="z60i" ref="6354ebe7-c22a-4a0f-ac54-50b52ab9b065/java:java.awt(JDK/)" />
    <import index="wyt6" ref="6354ebe7-c22a-4a0f-ac54-50b52ab9b065/java:java.lang(JDK/)" />
    <import index="tpck" ref="r:00000000-0000-4000-0000-011c89590288(jetbrains.mps.lang.core.structure)" implicit="true" />
  </imports>
  <registry>
    <language id="f3061a53-9226-4cc5-a443-f952ceaf5816" name="jetbrains.mps.baseLanguage">
      <concept id="1202948039474" name="jetbrains.mps.baseLanguage.structure.InstanceMethodCallOperation" flags="nn" index="liA8E" />
      <concept id="1197027756228" name="jetbrains.mps.baseLanguage.structure.DotExpression" flags="nn" index="2OqwBi">
        <child id="1197027771414" name="operand" index="2Oq$k0" />
        <child id="1197027833540" name="operation" index="2OqNvi" />
      </concept>
      <concept id="1145552977093" name="jetbrains.mps.baseLanguage.structure.GenericNewExpression" flags="nn" index="2ShNRf">
        <child id="1145553007750" name="creator" index="2ShVmc" />
      </concept>
      <concept id="1137021947720" name="jetbrains.mps.baseLanguage.structure.ConceptFunction" flags="in" index="2VMwT0">
        <child id="1137022507850" name="body" index="2VODD2" />
      </concept>
      <concept id="1070475926800" name="jetbrains.mps.baseLanguage.structure.StringLiteral" flags="nn" index="Xl_RD">
        <property id="1070475926801" name="value" index="Xl_RC" />
      </concept>
      <concept id="1081236700938" name="jetbrains.mps.baseLanguage.structure.StaticMethodDeclaration" flags="ig" index="2YIFZL" />
      <concept id="1070533707846" name="jetbrains.mps.baseLanguage.structure.StaticFieldReference" flags="nn" index="10M0yZ">
        <reference id="1144433057691" name="classifier" index="1PxDUh" />
      </concept>
      <concept id="1070534058343" name="jetbrains.mps.baseLanguage.structure.NullLiteral" flags="nn" index="10Nm6u" />
      <concept id="1070534760951" name="jetbrains.mps.baseLanguage.structure.ArrayType" flags="in" index="10Q1$e">
        <child id="1070534760952" name="componentType" index="10Q1$1" />
      </concept>
      <concept id="1068390468198" name="jetbrains.mps.baseLanguage.structure.ClassConcept" flags="ig" index="312cEu" />
      <concept id="1068431474542" name="jetbrains.mps.baseLanguage.structure.VariableDeclaration" flags="ng" index="33uBYm">
        <child id="1068431790190" name="initializer" index="33vP2m" />
      </concept>
      <concept id="1068498886296" name="jetbrains.mps.baseLanguage.structure.VariableReference" flags="nn" index="37vLTw">
        <reference id="1068581517664" name="variableDeclaration" index="3cqZAo" />
      </concept>
      <concept id="1068498886292" name="jetbrains.mps.baseLanguage.structure.ParameterDeclaration" flags="ir" index="37vLTG" />
      <concept id="1225271177708" name="jetbrains.mps.baseLanguage.structure.StringType" flags="in" index="17QB3L" />
      <concept id="4972933694980447171" name="jetbrains.mps.baseLanguage.structure.BaseVariableDeclaration" flags="ng" index="19Szcq">
        <child id="5680397130376446158" name="type" index="1tU5fm" />
      </concept>
      <concept id="1068580123132" name="jetbrains.mps.baseLanguage.structure.BaseMethodDeclaration" flags="ng" index="3clF44">
        <child id="1068580123133" name="returnType" index="3clF45" />
        <child id="1068580123134" name="parameter" index="3clF46" />
        <child id="1068580123135" name="body" index="3clF47" />
      </concept>
      <concept id="1068580123155" name="jetbrains.mps.baseLanguage.structure.ExpressionStatement" flags="nn" index="3clFbF">
        <child id="1068580123156" name="expression" index="3clFbG" />
      </concept>
      <concept id="1068580123136" name="jetbrains.mps.baseLanguage.structure.StatementList" flags="sn" stub="5293379017992965193" index="3clFbS">
        <child id="1068581517665" name="statement" index="3cqZAp" />
      </concept>
      <concept id="1068580123137" name="jetbrains.mps.baseLanguage.structure.BooleanConstant" flags="nn" index="3clFbT">
        <property id="1068580123138" name="value" index="3clFbU" />
      </concept>
      <concept id="1068581242864" name="jetbrains.mps.baseLanguage.structure.LocalVariableDeclarationStatement" flags="nn" index="3cpWs8">
        <child id="1068581242865" name="localVariableDeclaration" index="3cpWs9" />
      </concept>
      <concept id="1068581242863" name="jetbrains.mps.baseLanguage.structure.LocalVariableDeclaration" flags="nr" index="3cpWsn" />
      <concept id="1068581517677" name="jetbrains.mps.baseLanguage.structure.VoidType" flags="in" index="3cqZAl" />
      <concept id="1204053956946" name="jetbrains.mps.baseLanguage.structure.IMethodCall" flags="ng" index="1ndlxa">
        <reference id="1068499141037" name="baseMethodDeclaration" index="37wK5l" />
        <child id="1068499141038" name="actualArgument" index="37wK5m" />
      </concept>
      <concept id="1212685548494" name="jetbrains.mps.baseLanguage.structure.ClassCreator" flags="nn" index="1pGfFk" />
      <concept id="1107461130800" name="jetbrains.mps.baseLanguage.structure.Classifier" flags="ng" index="3pOWGL">
        <child id="5375687026011219971" name="member" index="jymVt" unordered="true" />
      </concept>
      <concept id="1107535904670" name="jetbrains.mps.baseLanguage.structure.ClassifierType" flags="in" index="3uibUv">
        <reference id="1107535924139" name="classifier" index="3uigEE" />
      </concept>
      <concept id="1178549954367" name="jetbrains.mps.baseLanguage.structure.IVisible" flags="ng" index="1B3ioH">
        <child id="1178549979242" name="visibility" index="1B3o_S" />
      </concept>
      <concept id="1146644602865" name="jetbrains.mps.baseLanguage.structure.PublicVisibility" flags="nn" index="3Tm1VV" />
    </language>
    <language id="b401a680-8325-4110-8fd3-84331ff25bef" name="jetbrains.mps.lang.generator">
      <concept id="1095416546421" name="jetbrains.mps.lang.generator.structure.MappingConfiguration" flags="ig" index="bUwia">
        <child id="1167514678247" name="rootMappingRule" index="3lj3bC" />
      </concept>
      <concept id="1177093525992" name="jetbrains.mps.lang.generator.structure.InlineTemplate_RuleConsequence" flags="lg" index="gft3U">
        <child id="1177093586806" name="templateNode" index="gfFT$" />
      </concept>
      <concept id="1168559512253" name="jetbrains.mps.lang.generator.structure.DismissTopMappingRule" flags="lg" index="j$LIH">
        <child id="1169669152123" name="generatorMessage" index="1lHHLF" />
      </concept>
      <concept id="1112730859144" name="jetbrains.mps.lang.generator.structure.TemplateSwitch" flags="ig" index="jVnub">
        <child id="1168558750579" name="defaultConsequence" index="jxRDz" />
        <child id="1167340453568" name="reductionMappingRule" index="3aUrZf" />
      </concept>
      <concept id="1168619357332" name="jetbrains.mps.lang.generator.structure.RootTemplateAnnotation" flags="lg" index="n94m4">
        <reference id="1168619429071" name="applicableConcept" index="n9lRv" />
      </concept>
      <concept id="1722980698497626400" name="jetbrains.mps.lang.generator.structure.ITemplateCall" flags="ng" index="v9R3L">
        <reference id="1722980698497626483" name="template" index="v9R2y" />
      </concept>
      <concept id="1167168920554" name="jetbrains.mps.lang.generator.structure.BaseMappingRule_Condition" flags="in" index="30G5F_" />
      <concept id="1167169188348" name="jetbrains.mps.lang.generator.structure.TemplateFunctionParameter_sourceNode" flags="nn" index="30H73N" />
      <concept id="1167169308231" name="jetbrains.mps.lang.generator.structure.BaseMappingRule" flags="ng" index="30H$t8">
        <reference id="1167169349424" name="applicableConcept" index="30HIoZ" />
        <child id="1167169362365" name="conditionFunction" index="30HLyM" />
      </concept>
      <concept id="1087833241328" name="jetbrains.mps.lang.generator.structure.PropertyMacro" flags="ln" index="17Uvod">
        <child id="1167756362303" name="propertyValueFunction" index="3zH0cK" />
      </concept>
      <concept id="1167327847730" name="jetbrains.mps.lang.generator.structure.Reduction_MappingRule" flags="lg" index="3aamgX">
        <child id="1169672767469" name="ruleConsequence" index="1lVwrX" />
      </concept>
      <concept id="1167514355419" name="jetbrains.mps.lang.generator.structure.Root_MappingRule" flags="lg" index="3lhOvk">
        <reference id="1167514355421" name="template" index="3lhOvi" />
      </concept>
      <concept id="1169670156577" name="jetbrains.mps.lang.generator.structure.GeneratorMessage" flags="lg" index="1lLz0L">
        <property id="1169670173015" name="messageText" index="1lLB17" />
        <property id="1169670356567" name="messageType" index="1lMjX7" />
      </concept>
      <concept id="982871510068000147" name="jetbrains.mps.lang.generator.structure.TemplateSwitchMacro" flags="lg" index="1sPUBX">
        <child id="982871510068000158" name="sourceNodeQuery" index="1sPUBK" />
      </concept>
      <concept id="1167756080639" name="jetbrains.mps.lang.generator.structure.PropertyMacro_GetPropertyValue" flags="in" index="3zFVjK" />
      <concept id="1168024337012" name="jetbrains.mps.lang.generator.structure.SourceSubstituteMacro_SourceNodeQuery" flags="in" index="3NFfHV" />
    </language>
    <language id="7866978e-a0f0-4cc7-81bc-4d213d9375e1" name="jetbrains.mps.lang.smodel">
      <concept id="1138056022639" name="jetbrains.mps.lang.smodel.structure.SPropertyAccess" flags="nn" index="3TrcHB">
        <reference id="1138056395725" name="property" index="3TsBF5" />
      </concept>
      <concept id="1138056143562" name="jetbrains.mps.lang.smodel.structure.SLinkAccess" flags="nn" index="3TrEf2">
        <reference id="1138056516764" name="link" index="3Tt5mk" />
      </concept>
    </language>
    <language id="ceab5195-25ea-4f22-9b92-103b95ca8c0c" name="jetbrains.mps.lang.core">
      <concept id="1133920641626" name="jetbrains.mps.lang.core.structure.BaseConcept" flags="ng" index="2VYdi">
        <child id="5169995583184591170" name="smodelAttribute" index="lGtFl" />
      </concept>
      <concept id="3364660638048049750" name="jetbrains.mps.lang.core.structure.PropertyAttribute" flags="ng" index="A9Btg">
        <property id="1757699476691236117" name="propertyName" index="2qtEX9" />
        <property id="1341860900487648621" name="propertyId" index="P4ACc" />
      </concept>
      <concept id="1169194658468" name="jetbrains.mps.lang.core.structure.INamedConcept" flags="ng" index="TrEIO">
        <property id="1169194664001" name="name" index="TrG5h" />
      </concept>
    </language>
  </registry>
  <node concept="bUwia" id="hS49FuK">
    <property role="TrG5h" value="main" />
    <node concept="3lhOvk" id="hS4bbZM" role="3lj3bC">
      <ref role="30HIoZ" to="dghb:hP5YayQ" resolve="Document" />
      <ref role="3lhOvi" node="hS4bou9" resolve="map_Document" />
    </node>
  </node>
  <node concept="312cEu" id="hS4bou9">
    <property role="TrG5h" value="map_Document" />
    <node concept="3Tm1VV" id="hS4boua" role="1B3o_S" />
    <node concept="n94m4" id="hS4bouf" role="lGtFl">
      <ref role="n9lRv" to="dghb:hP5YayQ" resolve="Document" />
    </node>
    <node concept="17Uvod" id="hS4bDmP" role="lGtFl">
      <property role="2qtEX9" value="name" />
      <property role="P4ACc" value="ceab5195-25ea-4f22-9b92-103b95ca8c0c/1169194658468/1169194664001" />
      <node concept="3zFVjK" id="hS4bDmQ" role="3zH0cK">
        <node concept="3clFbS" id="hS4bDmR" role="2VODD2">
          <node concept="3clFbF" id="hS4bKjl" role="3cqZAp">
            <node concept="2OqwBi" id="hS4bKoZ" role="3clFbG">
              <node concept="30H73N" id="hS4bKjm" role="2Oq$k0" />
              <node concept="3TrcHB" id="hS4bKHy" role="2OqNvi">
                <ref role="3TsBF5" to="tpck:h0TrG11" resolve="name" />
              </node>
            </node>
          </node>
        </node>
      </node>
    </node>
    <node concept="2YIFZL" id="hS4cpM5" role="jymVt">
      <property role="TrG5h" value="main" />
      <node concept="3cqZAl" id="hS4cpM6" role="3clF45" />
      <node concept="3Tm1VV" id="hS4cpM7" role="1B3o_S" />
      <node concept="3clFbS" id="hS4cpM8" role="3clF47">
        <node concept="3cpWs8" id="hS4cLG$" role="3cqZAp">
          <node concept="3cpWsn" id="hS4cLG_" role="3cpWs9">
            <property role="TrG5h" value="frame" />
            <node concept="3uibUv" id="hS4cLGA" role="1tU5fm">
              <ref role="3uigEE" to="dxuu:~JFrame" resolve="JFrame" />
            </node>
            <node concept="2ShNRf" id="hS4cMYE" role="33vP2m">
              <node concept="1pGfFk" id="hS4cNRO" role="2ShVmc">
                <ref role="37wK5l" to="dxuu:~JFrame.&lt;init&gt;(java.lang.String)" resolve="JFrame" />
                <node concept="Xl_RD" id="hS4cOGl" role="37wK5m">
                  <property role="Xl_RC" value="Demo" />
                </node>
              </node>
            </node>
          </node>
        </node>
        <node concept="3clFbF" id="hS4cTlu" role="3cqZAp">
          <node concept="2OqwBi" id="hS4cV6k" role="3clFbG">
            <node concept="37vLTw" id="3GM_nagTvZR" role="2Oq$k0">
              <ref role="3cqZAo" node="hS4cLG_" resolve="frame" />
            </node>
            <node concept="liA8E" id="hS4cXSJ" role="2OqNvi">
              <ref role="37wK5l" to="dxuu:~JFrame.setDefaultCloseOperation(int):void" resolve="setDefaultCloseOperation" />
              <node concept="10M0yZ" id="hS4cZoH" role="37wK5m">
                <ref role="1PxDUh" to="dxuu:~JFrame" resolve="JFrame" />
                <ref role="3cqZAo" to="dxuu:~JFrame.EXIT_ON_CLOSE" resolve="EXIT_ON_CLOSE" />
              </node>
            </node>
          </node>
        </node>
        <node concept="3cpWs8" id="hS4d2Gq" role="3cqZAp">
          <node concept="3cpWsn" id="hS4d2Gr" role="3cpWs9">
            <property role="TrG5h" value="container" />
            <node concept="3uibUv" id="hS4d2Gs" role="1tU5fm">
              <ref role="3uigEE" to="z60i:~Container" resolve="Container" />
            </node>
            <node concept="2OqwBi" id="hS4d6rg" role="33vP2m">
              <node concept="37vLTw" id="3GM_nagTsWS" role="2Oq$k0">
                <ref role="3cqZAo" node="hS4cLG_" resolve="frame" />
              </node>
              <node concept="liA8E" id="hS4d6YW" role="2OqNvi">
                <ref role="37wK5l" to="dxuu:~JFrame.getContentPane():java.awt.Container" resolve="getContentPane" />
              </node>
            </node>
          </node>
        </node>
        <node concept="3clFbF" id="hS4d925" role="3cqZAp">
          <node concept="2OqwBi" id="hS4d9m8" role="3clFbG">
            <node concept="37vLTw" id="3GM_nagTAxz" role="2Oq$k0">
              <ref role="3cqZAo" node="hS4d2Gr" resolve="container" />
            </node>
            <node concept="liA8E" id="hS4dapk" role="2OqNvi">
              <ref role="37wK5l" to="z60i:~Container.setLayout(java.awt.LayoutManager):void" resolve="setLayout" />
              <node concept="2ShNRf" id="hS4daJN" role="37wK5m">
                <node concept="1pGfFk" id="hS4dbyn" role="2ShVmc">
                  <ref role="37wK5l" to="z60i:~FlowLayout.&lt;init&gt;()" resolve="FlowLayout" />
                </node>
              </node>
            </node>
          </node>
        </node>
        <node concept="3clFbF" id="hS4de8a" role="3cqZAp">
          <node concept="2OqwBi" id="hS4desH" role="3clFbG">
            <node concept="37vLTw" id="3GM_nagTzKf" role="2Oq$k0">
              <ref role="3cqZAo" node="hS4d2Gr" resolve="container" />
            </node>
            <node concept="liA8E" id="hS4dfGm" role="2OqNvi">
              <ref role="37wK5l" to="z60i:~Container.add(java.awt.Component):java.awt.Component" resolve="add" />
              <node concept="10Nm6u" id="hS4dg8V" role="37wK5m">
                <node concept="1sPUBX" id="1WfddY$XHNf" role="lGtFl">
                  <ref role="v9R2y" node="hS4dAXZ" resolve="switch_JComponentByElementName" />
                  <node concept="3NFfHV" id="hS4eqWJ" role="1sPUBK">
                    <node concept="3clFbS" id="hS4eqWK" role="2VODD2">
                      <node concept="3clFbF" id="hS4erqN" role="3cqZAp">
                        <node concept="2OqwBi" id="hS4ersi" role="3clFbG">
                          <node concept="30H73N" id="hS4erqO" role="2Oq$k0" />
                          <node concept="3TrEf2" id="hS4erUB" role="2OqNvi">
                            <ref role="3Tt5mk" to="dghb:hP5YayS" />
                          </node>
                        </node>
                      </node>
                    </node>
                  </node>
                </node>
              </node>
            </node>
          </node>
        </node>
        <node concept="3clFbF" id="hS4di4Y" role="3cqZAp">
          <node concept="2OqwBi" id="hS4dirX" role="3clFbG">
            <node concept="37vLTw" id="3GM_nagTwd2" role="2Oq$k0">
              <ref role="3cqZAo" node="hS4cLG_" resolve="frame" />
            </node>
            <node concept="liA8E" id="hS4diHl" role="2OqNvi">
              <ref role="37wK5l" to="z60i:~Window.pack():void" resolve="pack" />
            </node>
          </node>
        </node>
        <node concept="3clFbF" id="hS4dkXE" role="3cqZAp">
          <node concept="2OqwBi" id="hS4dlgf" role="3clFbG">
            <node concept="37vLTw" id="3GM_nagTzHV" role="2Oq$k0">
              <ref role="3cqZAo" node="hS4cLG_" resolve="frame" />
            </node>
            <node concept="liA8E" id="hS4dlXd" role="2OqNvi">
              <ref role="37wK5l" to="z60i:~Window.setLocationRelativeTo(java.awt.Component):void" resolve="setLocationRelativeTo" />
              <node concept="10Nm6u" id="hS4dmrZ" role="37wK5m" />
            </node>
          </node>
        </node>
        <node concept="3clFbF" id="hS4dnZC" role="3cqZAp">
          <node concept="2OqwBi" id="hS4do9r" role="3clFbG">
            <node concept="37vLTw" id="3GM_nagT$WZ" role="2Oq$k0">
              <ref role="3cqZAo" node="hS4cLG_" resolve="frame" />
            </node>
            <node concept="liA8E" id="hS4doOG" role="2OqNvi">
              <ref role="37wK5l" to="z60i:~Window.setVisible(boolean):void" resolve="setVisible" />
              <node concept="3clFbT" id="hS4dpkc" role="37wK5m">
                <property role="3clFbU" value="true" />
              </node>
            </node>
          </node>
        </node>
      </node>
      <node concept="37vLTG" id="hS4c_TR" role="3clF46">
        <property role="TrG5h" value="args" />
        <node concept="10Q1$e" id="hS4cC$k" role="1tU5fm">
          <node concept="17QB3L" id="4druX3W2k_l" role="10Q1$1" />
        </node>
      </node>
    </node>
  </node>
  <node concept="jVnub" id="hS4dAXZ">
    <property role="TrG5h" value="switch_JComponentByElementName" />
    <node concept="3aamgX" id="hS4dFD5" role="3aUrZf">
      <ref role="30HIoZ" to="dghb:hP5YayT" resolve="Element" />
      <node concept="gft3U" id="hS4dOXu" role="1lVwrX">
        <node concept="2ShNRf" id="hS4dQcm" role="gfFT$">
          <node concept="1pGfFk" id="hS4dRd$" role="2ShVmc">
            <ref role="37wK5l" to="dxuu:~JButton.&lt;init&gt;()" resolve="JButton" />
          </node>
        </node>
      </node>
      <node concept="30G5F_" id="hS4dI7k" role="30HLyM">
        <node concept="3clFbS" id="hS4dI7l" role="2VODD2">
          <node concept="3clFbF" id="hS4dIW$" role="3cqZAp">
            <node concept="2OqwBi" id="hS4dJG1" role="3clFbG">
              <node concept="2OqwBi" id="hS4dIYj" role="2Oq$k0">
                <node concept="30H73N" id="hS4dIW_" role="2Oq$k0" />
                <node concept="3TrcHB" id="hS4dJbM" role="2OqNvi">
                  <ref role="3TsBF5" to="tpck:h0TrG11" resolve="name" />
                </node>
              </node>
              <node concept="liA8E" id="hS4dKhC" role="2OqNvi">
                <ref role="37wK5l" to="wyt6:~String.equals(java.lang.Object):boolean" resolve="equals" />
                <node concept="Xl_RD" id="hS4dK$V" role="37wK5m">
                  <property role="Xl_RC" value="button" />
                </node>
              </node>
            </node>
          </node>
        </node>
      </node>
    </node>
    <node concept="3aamgX" id="hS4dSUu" role="3aUrZf">
      <ref role="30HIoZ" to="dghb:hP5YayT" resolve="Element" />
      <node concept="gft3U" id="hS4dSUv" role="1lVwrX">
        <node concept="2ShNRf" id="hS4dSUw" role="gfFT$">
          <node concept="1pGfFk" id="hS4dWbb" role="2ShVmc">
            <ref role="37wK5l" to="dxuu:~JLabel.&lt;init&gt;()" resolve="JLabel" />
          </node>
        </node>
      </node>
      <node concept="30G5F_" id="hS4dSUy" role="30HLyM">
        <node concept="3clFbS" id="hS4dSUz" role="2VODD2">
          <node concept="3clFbF" id="hS4dSU$" role="3cqZAp">
            <node concept="2OqwBi" id="hS4dSU_" role="3clFbG">
              <node concept="2OqwBi" id="hS4dSUA" role="2Oq$k0">
                <node concept="30H73N" id="hS4dSUB" role="2Oq$k0" />
                <node concept="3TrcHB" id="hS4dSUC" role="2OqNvi">
                  <ref role="3TsBF5" to="tpck:h0TrG11" resolve="name" />
                </node>
              </node>
              <node concept="liA8E" id="hS4dSUD" role="2OqNvi">
                <ref role="37wK5l" to="wyt6:~String.equals(java.lang.Object):boolean" resolve="equals" />
                <node concept="Xl_RD" id="hS4dSUE" role="37wK5m">
                  <property role="Xl_RC" value="label" />
                </node>
              </node>
            </node>
          </node>
        </node>
      </node>
    </node>
    <node concept="j$LIH" id="hS4dZ1k" role="jxRDz">
      <node concept="1lLz0L" id="hS4dZEP" role="1lHHLF">
        <property role="1lLB17" value="'button' or 'label' element name is expected" />
        <property role="1lMjX7" value="error" />
      </node>
    </node>
  </node>
</model>

