<?xml version="1.0" encoding="UTF-8"?>
<model ref="r:6786d6ee-e5cc-4a77-9efd-65a8dca8b187(jetbrains.mps.lang.behavior.constraints)">
  <persistence version="9" />
  <languages>
    <use id="fd392034-7849-419d-9071-12563d152375" name="jetbrains.mps.baseLanguage.closures" version="-1" />
    <use id="83888646-71ce-4f1c-9c53-c54016f6ad4f" name="jetbrains.mps.baseLanguage.collections" version="-1" />
    <use id="3f4bc5f5-c6c1-4a28-8b10-c83066ffa4a1" name="jetbrains.mps.lang.constraints" version="-1" />
    <use id="13744753-c81f-424a-9c1b-cf8943bf4e86" name="jetbrains.mps.lang.sharedConcepts" version="-1" />
    <use id="7866978e-a0f0-4cc7-81bc-4d213d9375e1" name="jetbrains.mps.lang.smodel" version="4" />
    <use id="f3061a53-9226-4cc5-a443-f952ceaf5816" name="jetbrains.mps.baseLanguage" version="-1" />
    <devkit ref="fbc25dd2-5da4-483a-8b19-70928e1b62d7(jetbrains.mps.devkit.general-purpose)" />
  </languages>
  <imports>
    <import index="1i04" ref="r:3270011d-8b2d-4938-8dff-d256a759e017(jetbrains.mps.lang.behavior.structure)" />
    <import index="tpcn" ref="r:00000000-0000-4000-0000-011c8959028b(jetbrains.mps.lang.structure.behavior)" />
    <import index="tpee" ref="r:00000000-0000-4000-0000-011c895902ca(jetbrains.mps.baseLanguage.structure)" />
    <import index="tpce" ref="r:00000000-0000-4000-0000-011c89590292(jetbrains.mps.lang.structure.structure)" />
    <import index="w1kc" ref="6ed54515-acc8-4d1e-a16c-9fd6cfe951ea/java:jetbrains.mps.smodel(MPS.Core/)" />
    <import index="mg3u" ref="r:0799ed23-f21a-4dba-ac61-5b80d66bec13(jetbrains.mps.lang.behavior.plugin)" />
    <import index="tpck" ref="r:00000000-0000-4000-0000-011c89590288(jetbrains.mps.lang.core.structure)" implicit="true" />
  </imports>
  <registry>
    <language id="13744753-c81f-424a-9c1b-cf8943bf4e86" name="jetbrains.mps.lang.sharedConcepts">
      <concept id="1161622665029" name="jetbrains.mps.lang.sharedConcepts.structure.ConceptFunctionParameter_model" flags="nn" index="1Q6Npb" />
    </language>
    <language id="f3061a53-9226-4cc5-a443-f952ceaf5816" name="jetbrains.mps.baseLanguage">
      <concept id="1080223426719" name="jetbrains.mps.baseLanguage.structure.OrExpression" flags="nn" index="22lmx$" />
      <concept id="1082485599095" name="jetbrains.mps.baseLanguage.structure.BlockStatement" flags="nn" index="9aQIb">
        <child id="1082485599096" name="statements" index="9aQI4" />
      </concept>
      <concept id="1215693861676" name="jetbrains.mps.baseLanguage.structure.BaseAssignmentExpression" flags="nn" index="d038R">
        <child id="1068498886297" name="rValue" index="37vLTx" />
        <child id="1068498886295" name="lValue" index="37vLTJ" />
      </concept>
      <concept id="4836112446988635817" name="jetbrains.mps.baseLanguage.structure.UndefinedType" flags="in" index="2jxLKc" />
      <concept id="1154032098014" name="jetbrains.mps.baseLanguage.structure.AbstractLoopStatement" flags="nn" index="2LF5Ji">
        <child id="1154032183016" name="body" index="2LFqv$" />
      </concept>
      <concept id="1197027756228" name="jetbrains.mps.baseLanguage.structure.DotExpression" flags="nn" index="2OqwBi">
        <child id="1197027771414" name="operand" index="2Oq$k0" />
        <child id="1197027833540" name="operation" index="2OqNvi" />
      </concept>
      <concept id="1145552977093" name="jetbrains.mps.baseLanguage.structure.GenericNewExpression" flags="nn" index="2ShNRf">
        <child id="1145553007750" name="creator" index="2ShVmc" />
      </concept>
      <concept id="1137021947720" name="jetbrains.mps.baseLanguage.structure.ConceptFunction" flags="in" index="2VMwT0">
        <child id="1137022507850" name="body" index="2VODD2" />
      </concept>
      <concept id="1070475926800" name="jetbrains.mps.baseLanguage.structure.StringLiteral" flags="nn" index="Xl_RD">
        <property id="1070475926801" name="value" index="Xl_RC" />
      </concept>
      <concept id="1081236700938" name="jetbrains.mps.baseLanguage.structure.StaticMethodDeclaration" flags="ig" index="2YIFZL" />
      <concept id="1081236700937" name="jetbrains.mps.baseLanguage.structure.StaticMethodCall" flags="nn" index="2YIFZM">
        <reference id="1144433194310" name="classConcept" index="1Pybhc" />
      </concept>
      <concept id="1070534058343" name="jetbrains.mps.baseLanguage.structure.NullLiteral" flags="nn" index="10Nm6u" />
      <concept id="1070534644030" name="jetbrains.mps.baseLanguage.structure.BooleanType" flags="in" index="10P_77" />
      <concept id="1070534934090" name="jetbrains.mps.baseLanguage.structure.CastExpression" flags="nn" index="10QFUN">
        <child id="1070534934091" name="type" index="10QFUM" />
        <child id="1070534934092" name="expression" index="10QFUP" />
      </concept>
      <concept id="1068390468198" name="jetbrains.mps.baseLanguage.structure.ClassConcept" flags="ig" index="312cEu" />
      <concept id="1068431474542" name="jetbrains.mps.baseLanguage.structure.VariableDeclaration" flags="ng" index="33uBYm">
        <child id="1068431790190" name="initializer" index="33vP2m" />
      </concept>
      <concept id="1068498886296" name="jetbrains.mps.baseLanguage.structure.VariableReference" flags="nn" index="37vLTw">
        <reference id="1068581517664" name="variableDeclaration" index="3cqZAo" />
      </concept>
      <concept id="1068498886292" name="jetbrains.mps.baseLanguage.structure.ParameterDeclaration" flags="ir" index="37vLTG" />
      <concept id="1068498886294" name="jetbrains.mps.baseLanguage.structure.AssignmentExpression" flags="nn" index="37vLTI" />
      <concept id="1225271177708" name="jetbrains.mps.baseLanguage.structure.StringType" flags="in" index="17QB3L" />
      <concept id="4972933694980447171" name="jetbrains.mps.baseLanguage.structure.BaseVariableDeclaration" flags="ng" index="19Szcq">
        <child id="5680397130376446158" name="type" index="1tU5fm" />
      </concept>
      <concept id="1068580123132" name="jetbrains.mps.baseLanguage.structure.BaseMethodDeclaration" flags="ng" index="3clF44">
        <child id="1068580123133" name="returnType" index="3clF45" />
        <child id="1068580123134" name="parameter" index="3clF46" />
        <child id="1068580123135" name="body" index="3clF47" />
      </concept>
      <concept id="1068580123152" name="jetbrains.mps.baseLanguage.structure.EqualsExpression" flags="nn" index="3clFbC" />
      <concept id="1068580123155" name="jetbrains.mps.baseLanguage.structure.ExpressionStatement" flags="nn" index="3clFbF">
        <child id="1068580123156" name="expression" index="3clFbG" />
      </concept>
      <concept id="1068580123157" name="jetbrains.mps.baseLanguage.structure.Statement" flags="nn" index="3clFbH" />
      <concept id="1068580123159" name="jetbrains.mps.baseLanguage.structure.IfStatement" flags="nn" index="3clFbJ">
        <child id="1082485599094" name="ifFalseStatement" index="9aQIa" />
        <child id="1068580123160" name="condition" index="3clFbw" />
        <child id="1068580123161" name="ifTrue" index="3clFbx" />
      </concept>
      <concept id="1068580123136" name="jetbrains.mps.baseLanguage.structure.StatementList" flags="sn" stub="5293379017992965193" index="3clFbS">
        <child id="1068581517665" name="statement" index="3cqZAp" />
      </concept>
      <concept id="1068580123137" name="jetbrains.mps.baseLanguage.structure.BooleanConstant" flags="nn" index="3clFbT">
        <property id="1068580123138" name="value" index="3clFbU" />
      </concept>
      <concept id="1068580123140" name="jetbrains.mps.baseLanguage.structure.ConstructorDeclaration" flags="ig" index="3clFbW" />
      <concept id="1068581242875" name="jetbrains.mps.baseLanguage.structure.PlusExpression" flags="nn" index="3cpWs3" />
      <concept id="1068581242878" name="jetbrains.mps.baseLanguage.structure.ReturnStatement" flags="nn" index="3cpWs6">
        <child id="1068581517676" name="expression" index="3cqZAk" />
      </concept>
      <concept id="1068581242864" name="jetbrains.mps.baseLanguage.structure.LocalVariableDeclarationStatement" flags="nn" index="3cpWs8">
        <child id="1068581242865" name="localVariableDeclaration" index="3cpWs9" />
      </concept>
      <concept id="1068581242863" name="jetbrains.mps.baseLanguage.structure.LocalVariableDeclaration" flags="nr" index="3cpWsn" />
      <concept id="1068581517677" name="jetbrains.mps.baseLanguage.structure.VoidType" flags="in" index="3cqZAl" />
      <concept id="1081516740877" name="jetbrains.mps.baseLanguage.structure.NotExpression" flags="nn" index="3fqX7Q">
        <child id="1081516765348" name="expression" index="3fr31v" />
      </concept>
      <concept id="1204053956946" name="jetbrains.mps.baseLanguage.structure.IMethodCall" flags="ng" index="1ndlxa">
        <reference id="1068499141037" name="baseMethodDeclaration" index="37wK5l" />
        <child id="1068499141038" name="actualArgument" index="37wK5m" />
      </concept>
      <concept id="1107461130800" name="jetbrains.mps.baseLanguage.structure.Classifier" flags="ng" index="3pOWGL">
        <child id="5375687026011219971" name="member" index="jymVt" unordered="true" />
      </concept>
      <concept id="7812454656619025412" name="jetbrains.mps.baseLanguage.structure.LocalMethodCall" flags="nn" index="1rXfSq" />
      <concept id="1081773326031" name="jetbrains.mps.baseLanguage.structure.BinaryOperation" flags="nn" index="3uHJSO">
        <child id="1081773367579" name="rightExpression" index="3uHU7w" />
        <child id="1081773367580" name="leftExpression" index="3uHU7B" />
      </concept>
      <concept id="1073239437375" name="jetbrains.mps.baseLanguage.structure.NotEqualsExpression" flags="nn" index="3y3z36" />
      <concept id="1178549954367" name="jetbrains.mps.baseLanguage.structure.IVisible" flags="ng" index="1B3ioH">
        <child id="1178549979242" name="visibility" index="1B3o_S" />
      </concept>
      <concept id="1144226303539" name="jetbrains.mps.baseLanguage.structure.ForeachStatement" flags="nn" index="1DcWWT">
        <child id="1144226360166" name="iterable" index="1DdaDG" />
      </concept>
      <concept id="1144230876926" name="jetbrains.mps.baseLanguage.structure.AbstractForStatement" flags="nn" index="1DupvO">
        <child id="1144230900587" name="variable" index="1Duv9x" />
      </concept>
      <concept id="1146644602865" name="jetbrains.mps.baseLanguage.structure.PublicVisibility" flags="nn" index="3Tm1VV" />
      <concept id="1146644623116" name="jetbrains.mps.baseLanguage.structure.PrivateVisibility" flags="nn" index="3Tm6S6" />
      <concept id="1080120340718" name="jetbrains.mps.baseLanguage.structure.AndExpression" flags="nn" index="1Wc70l" />
    </language>
    <language id="3f4bc5f5-c6c1-4a28-8b10-c83066ffa4a1" name="jetbrains.mps.lang.constraints">
      <concept id="1148934636683" name="jetbrains.mps.lang.constraints.structure.ConceptParameter_ReferentSearchScope_enclosingNode" flags="nn" index="21POm0" />
      <concept id="1202989531578" name="jetbrains.mps.lang.constraints.structure.ConstraintFunction_CanBeAChild" flags="in" index="nKS2y" />
      <concept id="1202989658459" name="jetbrains.mps.lang.constraints.structure.ConstraintFunctionParameter_parentNode" flags="nn" index="nLn13" />
      <concept id="1147467115080" name="jetbrains.mps.lang.constraints.structure.NodePropertyConstraint" flags="ng" index="EnEH3">
        <reference id="1147467295099" name="applicableProperty" index="EomxK" />
        <child id="1147468630220" name="propertyGetter" index="EtsB7" />
      </concept>
      <concept id="1147467790433" name="jetbrains.mps.lang.constraints.structure.ConstraintFunction_PropertyGetter" flags="in" index="Eqf_E" />
      <concept id="1147468365020" name="jetbrains.mps.lang.constraints.structure.ConstraintsFunctionParameter_node" flags="nn" index="EsrRn" />
      <concept id="1227084988347" name="jetbrains.mps.lang.constraints.structure.ConstraintFunction_CanBeARoot" flags="in" index="2NXJUA" />
      <concept id="1163200368514" name="jetbrains.mps.lang.constraints.structure.ConstraintFunction_ReferentSetHandler" flags="in" index="3k9gUc" />
      <concept id="1163200647017" name="jetbrains.mps.lang.constraints.structure.ConstraintFunctionParameter_referenceNode" flags="nn" index="3kakTB" />
      <concept id="1163202640154" name="jetbrains.mps.lang.constraints.structure.ConstraintFunctionParameter_newReferentNode" flags="nn" index="3khVwk" />
      <concept id="1213093968558" name="jetbrains.mps.lang.constraints.structure.ConceptConstraints" flags="ng" index="1M2fIO">
        <reference id="1213093996982" name="concept" index="1M2myG" />
        <child id="1227085062429" name="canBeRoot" index="2NY200" />
        <child id="1213098023997" name="property" index="1MhHOB" />
        <child id="1213100494875" name="referent" index="1Mr941" />
        <child id="1213106463729" name="canBeChild" index="1MLUbF" />
      </concept>
      <concept id="1148684180339" name="jetbrains.mps.lang.constraints.structure.ConstraintFunction_ReferentSearchScope_Factory" flags="in" index="1MUpDS" />
      <concept id="1148687176410" name="jetbrains.mps.lang.constraints.structure.NodeReferentConstraint" flags="ng" index="1N5Pfh">
        <reference id="1148687202698" name="applicableLink" index="1N5Vy1" />
        <child id="1163203787401" name="referentSetHandler" index="3kmjI7" />
        <child id="1148687345559" name="searchScopeFactory" index="1N6uqs" />
      </concept>
    </language>
    <language id="fd392034-7849-419d-9071-12563d152375" name="jetbrains.mps.baseLanguage.closures">
      <concept id="1199569711397" name="jetbrains.mps.baseLanguage.closures.structure.ClosureLiteral" flags="nn" index="1bVj0M">
        <child id="1199569906740" name="parameter" index="1bW2Oz" />
        <child id="1199569916463" name="body" index="1bW5cS" />
      </concept>
    </language>
    <language id="69b8a993-9b87-4d96-bf0c-3559f4bb0c63" name="jetbrains.mps.lang.slanguage">
      <concept id="2030416617761226491" name="jetbrains.mps.lang.slanguage.structure.Model_IsAspectOperation" flags="nn" index="3zA4fs">
        <reference id="2030416617761226680" name="aspect" index="3zA4av" />
      </concept>
    </language>
    <language id="7866978e-a0f0-4cc7-81bc-4d213d9375e1" name="jetbrains.mps.lang.smodel">
      <concept id="1177026924588" name="jetbrains.mps.lang.smodel.structure.RefConcept_Reference" flags="nn" index="chp4Y">
        <reference id="1177026940964" name="conceptDeclaration" index="cht4Q" />
      </concept>
      <concept id="1138411891628" name="jetbrains.mps.lang.smodel.structure.SNodeOperation" flags="nn" index="eCIE_">
        <child id="1144104376918" name="parameter" index="1xVPHs" />
      </concept>
      <concept id="1140725362528" name="jetbrains.mps.lang.smodel.structure.Link_SetTargetOperation" flags="nn" index="2oxUTD">
        <child id="1140725362529" name="linkTarget" index="2oxUTC" />
      </concept>
      <concept id="1179409122411" name="jetbrains.mps.lang.smodel.structure.Node_ConceptMethodCall" flags="nn" index="2qgKlT" />
      <concept id="1138661924179" name="jetbrains.mps.lang.smodel.structure.Property_SetOperation" flags="nn" index="tyxLq">
        <child id="1138662048170" name="value" index="tz02z" />
      </concept>
      <concept id="1173122760281" name="jetbrains.mps.lang.smodel.structure.Node_GetAncestorsOperation" flags="nn" index="z$bX8" />
      <concept id="1145383075378" name="jetbrains.mps.lang.smodel.structure.SNodeListType" flags="in" index="2I9FWS">
        <reference id="1145383142433" name="elementConcept" index="2I9WkF" />
      </concept>
      <concept id="1145567426890" name="jetbrains.mps.lang.smodel.structure.SNodeListCreator" flags="nn" index="2T8Vx0">
        <child id="1145567471833" name="createdType" index="2T96Bj" />
      </concept>
      <concept id="1171407110247" name="jetbrains.mps.lang.smodel.structure.Node_GetAncestorOperation" flags="nn" index="2Xjw5R" />
      <concept id="1154546920561" name="jetbrains.mps.lang.smodel.structure.OperationParm_ConceptList" flags="ng" index="3gmYPX">
        <child id="1154546920563" name="concept" index="3gmYPZ" />
      </concept>
      <concept id="1154546950173" name="jetbrains.mps.lang.smodel.structure.ConceptReference" flags="ng" index="3gn64h">
        <reference id="1154546997487" name="concept" index="3gnhBz" />
      </concept>
      <concept id="1139621453865" name="jetbrains.mps.lang.smodel.structure.Node_IsInstanceOfOperation" flags="nn" index="1mIQ4w">
        <child id="1177027386292" name="conceptArgument" index="cj9EA" />
      </concept>
      <concept id="1172008320231" name="jetbrains.mps.lang.smodel.structure.Node_IsNotNullOperation" flags="nn" index="3x8VRR" />
      <concept id="1144100932627" name="jetbrains.mps.lang.smodel.structure.OperationParm_Inclusion" flags="ng" index="1xIGOp" />
      <concept id="1144101972840" name="jetbrains.mps.lang.smodel.structure.OperationParm_Concept" flags="ng" index="1xMEDy">
        <child id="1207343664468" name="conceptArgument" index="ri$Ld" />
      </concept>
      <concept id="1144146199828" name="jetbrains.mps.lang.smodel.structure.Node_CopyOperation" flags="nn" index="1$rogu" />
      <concept id="1140133623887" name="jetbrains.mps.lang.smodel.structure.Node_DeleteOperation" flags="nn" index="1PgB_6" />
      <concept id="1138055754698" name="jetbrains.mps.lang.smodel.structure.SNodeType" flags="in" index="3Tqbb2">
        <reference id="1138405853777" name="concept" index="ehGHo" />
      </concept>
      <concept id="1138056022639" name="jetbrains.mps.lang.smodel.structure.SPropertyAccess" flags="nn" index="3TrcHB">
        <reference id="1138056395725" name="property" index="3TsBF5" />
      </concept>
      <concept id="1138056143562" name="jetbrains.mps.lang.smodel.structure.SLinkAccess" flags="nn" index="3TrEf2">
        <reference id="1138056516764" name="link" index="3Tt5mk" />
      </concept>
      <concept id="1138056282393" name="jetbrains.mps.lang.smodel.structure.SLinkListAccess" flags="nn" index="3Tsc0h">
        <reference id="1138056546658" name="link" index="3TtcxE" />
      </concept>
    </language>
    <language id="ceab5195-25ea-4f22-9b92-103b95ca8c0c" name="jetbrains.mps.lang.core">
      <concept id="1133920641626" name="jetbrains.mps.lang.core.structure.BaseConcept" flags="ng" index="2VYdi">
        <property id="1193676396447" name="virtualPackage" index="3GE5qa" />
      </concept>
      <concept id="1169194658468" name="jetbrains.mps.lang.core.structure.INamedConcept" flags="ng" index="TrEIO">
        <property id="1169194664001" name="name" index="TrG5h" />
      </concept>
    </language>
    <language id="83888646-71ce-4f1c-9c53-c54016f6ad4f" name="jetbrains.mps.baseLanguage.collections">
      <concept id="1204796164442" name="jetbrains.mps.baseLanguage.collections.structure.InternalSequenceOperation" flags="nn" index="23sCx2">
        <child id="1204796294226" name="closure" index="23t8la" />
      </concept>
      <concept id="540871147943773365" name="jetbrains.mps.baseLanguage.collections.structure.SingleArgumentSequenceOperation" flags="nn" index="25WWJ4">
        <child id="540871147943773366" name="argument" index="25WWJ7" />
      </concept>
      <concept id="1203518072036" name="jetbrains.mps.baseLanguage.collections.structure.SmartClosureParameterDeclaration" flags="ig" index="Rh6nW" />
      <concept id="1160612413312" name="jetbrains.mps.baseLanguage.collections.structure.AddElementOperation" flags="nn" index="TSZUe" />
      <concept id="1202120902084" name="jetbrains.mps.baseLanguage.collections.structure.WhereOperation" flags="nn" index="3zZkjj" />
      <concept id="1176501494711" name="jetbrains.mps.baseLanguage.collections.structure.IsNotEmptyOperation" flags="nn" index="3GX2aA" />
    </language>
  </registry>
  <node concept="1M2fIO" id="hP3h8Ng">
    <property role="3GE5qa" value="" />
    <ref role="1M2myG" to="1i04:hP3h7Gq" resolve="ConceptBehavior" />
    <node concept="EnEH3" id="hP3h8Nh" role="1MhHOB">
      <ref role="EomxK" to="tpck:h0TrG11" resolve="name" />
      <node concept="Eqf_E" id="hP3h8Ni" role="EtsB7">
        <node concept="3clFbS" id="hP3h8Nj" role="2VODD2">
          <node concept="3cpWs8" id="hP3h8Nk" role="3cqZAp">
            <node concept="3cpWsn" id="hP3h8Nl" role="3cpWs9">
              <property role="TrG5h" value="conceptName" />
              <node concept="17QB3L" id="4druX3VZBY4" role="1tU5fm" />
            </node>
          </node>
          <node concept="3clFbJ" id="hP3h8Nn" role="3cqZAp">
            <node concept="3y3z36" id="hP3h8No" role="3clFbw">
              <node concept="10Nm6u" id="hP3h8Np" role="3uHU7w" />
              <node concept="2OqwBi" id="hP3h8Nq" role="3uHU7B">
                <node concept="EsrRn" id="hP3h8Nr" role="2Oq$k0" />
                <node concept="3TrEf2" id="hP3h8Ns" role="2OqNvi">
                  <ref role="3Tt5mk" to="1i04:hP3h7Gv" />
                </node>
              </node>
            </node>
            <node concept="3clFbS" id="hP3h8Nt" role="3clFbx">
              <node concept="3clFbF" id="hP3h8Nu" role="3cqZAp">
                <node concept="37vLTI" id="hP3h8Nv" role="3clFbG">
                  <node concept="2OqwBi" id="hP3h8Nw" role="37vLTx">
                    <node concept="2OqwBi" id="hP3h8Nx" role="2Oq$k0">
                      <node concept="EsrRn" id="hP3h8Ny" role="2Oq$k0" />
                      <node concept="3TrEf2" id="hP3h8Nz" role="2OqNvi">
                        <ref role="3Tt5mk" to="1i04:hP3h7Gv" />
                      </node>
                    </node>
                    <node concept="3TrcHB" id="hP3h8N$" role="2OqNvi">
                      <ref role="3TsBF5" to="tpck:h0TrG11" resolve="name" />
                    </node>
                  </node>
                  <node concept="37vLTw" id="3GM_nagT_jr" role="37vLTJ">
                    <ref role="3cqZAo" node="hP3h8Nl" resolve="conceptName" />
                  </node>
                </node>
              </node>
            </node>
            <node concept="9aQIb" id="hP3h8NA" role="9aQIa">
              <node concept="3clFbS" id="hP3h8NB" role="9aQI4">
                <node concept="3clFbF" id="hP3h8NC" role="3cqZAp">
                  <node concept="37vLTI" id="hP3h8ND" role="3clFbG">
                    <node concept="Xl_RD" id="hP3h8NE" role="37vLTx">
                      <property role="Xl_RC" value="???" />
                    </node>
                    <node concept="37vLTw" id="3GM_nagTBP9" role="37vLTJ">
                      <ref role="3cqZAo" node="hP3h8Nl" resolve="conceptName" />
                    </node>
                  </node>
                </node>
              </node>
            </node>
          </node>
          <node concept="3cpWs6" id="hP3h8NG" role="3cqZAp">
            <node concept="3cpWs3" id="hP3h8NH" role="3cqZAk">
              <node concept="Xl_RD" id="hP3h8NI" role="3uHU7w">
                <property role="Xl_RC" value="_Behavior" />
              </node>
              <node concept="37vLTw" id="3GM_nagTyzb" role="3uHU7B">
                <ref role="3cqZAo" node="hP3h8Nl" resolve="conceptName" />
              </node>
            </node>
          </node>
        </node>
      </node>
    </node>
    <node concept="2NXJUA" id="hQOcC6Y" role="2NY200">
      <node concept="3clFbS" id="hQOcC6Z" role="2VODD2">
        <node concept="3clFbF" id="hQOcC70" role="3cqZAp">
          <node concept="22lmx$" id="1KFbmnBQt1f" role="3clFbG">
            <node concept="2OqwBi" id="qmfyRQNOif" role="3uHU7B">
              <node concept="1Q6Npb" id="qmfyRQNYi$" role="2Oq$k0" />
              <node concept="3zA4fs" id="qmfyRQNOkk" role="2OqNvi">
                <ref role="3zA4av" to="mg3u:2LiUEk8oQ$g" resolve="behavior" />
              </node>
            </node>
            <node concept="2YIFZM" id="1KFbmnBQr8p" role="3uHU7w">
              <ref role="1Pybhc" to="w1kc:~SModelStereotype" resolve="SModelStereotype" />
              <ref role="37wK5l" to="w1kc:~SModelStereotype.isGeneratorModel(org.jetbrains.mps.openapi.model.SModel):boolean" resolve="isGeneratorModel" />
              <node concept="1Q6Npb" id="1KFbmnBQr8r" role="37wK5m" />
            </node>
          </node>
        </node>
      </node>
    </node>
  </node>
  <node concept="1M2fIO" id="hP3i12u">
    <property role="3GE5qa" value="" />
    <ref role="1M2myG" to="1i04:hP3i0lY" resolve="ConceptMethodDeclaration" />
    <node concept="1N5Pfh" id="hP3i12v" role="1Mr941">
      <ref role="1N5Vy1" to="1i04:hP3i0lZ" />
      <node concept="1MUpDS" id="hP3i12w" role="1N6uqs">
        <node concept="3clFbS" id="hP3i12x" role="2VODD2">
          <node concept="3cpWs8" id="hP3i12y" role="3cqZAp">
            <node concept="3cpWsn" id="hP3i12z" role="3cpWs9">
              <property role="TrG5h" value="concept" />
              <node concept="2OqwBi" id="hP3i12_" role="33vP2m">
                <node concept="2OqwBi" id="hP3i12B" role="2Oq$k0">
                  <node concept="21POm0" id="hP3i12C" role="2Oq$k0" />
                  <node concept="2Xjw5R" id="hVTYsob" role="2OqNvi">
                    <node concept="1xMEDy" id="hVTYsoc" role="1xVPHs">
                      <node concept="chp4Y" id="hVU2$1e" role="ri$Ld">
                        <ref role="cht4Q" to="1i04:hP3h7Gq" resolve="ConceptBehavior" />
                      </node>
                    </node>
                    <node concept="1xIGOp" id="hVU2$vi" role="1xVPHs" />
                  </node>
                </node>
                <node concept="3TrEf2" id="hP3i12E" role="2OqNvi">
                  <ref role="3Tt5mk" to="1i04:hP3h7Gv" />
                </node>
              </node>
              <node concept="3Tqbb2" id="7GdCWph6OqW" role="1tU5fm">
                <ref role="ehGHo" to="tpce:h0PkWnZ" resolve="AbstractConceptDeclaration" />
              </node>
            </node>
          </node>
          <node concept="3cpWs8" id="hP3i12F" role="3cqZAp">
            <node concept="3cpWsn" id="hP3i12G" role="3cpWs9">
              <property role="TrG5h" value="methods" />
              <node concept="2I9FWS" id="hP3i12H" role="1tU5fm">
                <ref role="2I9WkF" to="1i04:hP3i0lY" resolve="ConceptMethodDeclaration" />
              </node>
              <node concept="2OqwBi" id="hP3i12I" role="33vP2m">
                <node concept="37vLTw" id="3GM_nagTsJd" role="2Oq$k0">
                  <ref role="3cqZAo" node="hP3i12z" resolve="concept" />
                </node>
                <node concept="2qgKlT" id="hP3i12K" role="2OqNvi">
                  <ref role="37wK5l" to="tpcn:hEwILHM" resolve="getVirtualConceptMethods" />
                </node>
              </node>
            </node>
          </node>
          <node concept="3cpWs6" id="hP3i12M" role="3cqZAp">
            <node concept="2OqwBi" id="6tuSsvY04yQ" role="3cqZAk">
              <node concept="37vLTw" id="3GM_nagTu_Y" role="2Oq$k0">
                <ref role="3cqZAo" node="hP3i12G" resolve="methods" />
              </node>
              <node concept="3zZkjj" id="6tuSsvY04yU" role="2OqNvi">
                <node concept="1bVj0M" id="6tuSsvY04yV" role="23t8la">
                  <node concept="3clFbS" id="6tuSsvY04yW" role="1bW5cS">
                    <node concept="3clFbF" id="6tuSsvY04yZ" role="3cqZAp">
                      <node concept="3clFbC" id="6tuSsvY04Ug" role="3clFbG">
                        <node concept="10Nm6u" id="6tuSsvY04Uj" role="3uHU7w" />
                        <node concept="2OqwBi" id="6tuSsvY04z1" role="3uHU7B">
                          <node concept="37vLTw" id="2BHiRxgm8Qm" role="2Oq$k0">
                            <ref role="3cqZAo" node="6tuSsvY04yX" resolve="it" />
                          </node>
                          <node concept="3TrEf2" id="6tuSsvY04Uf" role="2OqNvi">
                            <ref role="3Tt5mk" to="1i04:hP3i0lZ" />
                          </node>
                        </node>
                      </node>
                    </node>
                  </node>
                  <node concept="Rh6nW" id="6tuSsvY04yX" role="1bW2Oz">
                    <property role="TrG5h" value="it" />
                    <node concept="2jxLKc" id="6tuSsvY04yY" role="1tU5fm" />
                  </node>
                </node>
              </node>
            </node>
          </node>
        </node>
      </node>
      <node concept="3k9gUc" id="hP3i12O" role="3kmjI7">
        <node concept="3clFbS" id="hP3i12P" role="2VODD2">
          <node concept="3clFbJ" id="hP3i12Q" role="3cqZAp">
            <node concept="1Wc70l" id="hP3i12R" role="3clFbw">
              <node concept="3y3z36" id="hP3i12S" role="3uHU7w">
                <node concept="10Nm6u" id="hP3i12T" role="3uHU7w" />
                <node concept="3kakTB" id="hP3i12U" role="3uHU7B" />
              </node>
              <node concept="3y3z36" id="hP3i12V" role="3uHU7B">
                <node concept="3khVwk" id="hP3i12W" role="3uHU7B" />
                <node concept="10Nm6u" id="hP3i12X" role="3uHU7w" />
              </node>
            </node>
            <node concept="3clFbS" id="hP3i12Y" role="3clFbx">
              <node concept="1DcWWT" id="hP3i12Z" role="3cqZAp">
                <node concept="2OqwBi" id="hP3i130" role="1DdaDG">
                  <node concept="3kakTB" id="hP3i131" role="2Oq$k0" />
                  <node concept="3Tsc0h" id="hP3i132" role="2OqNvi">
                    <ref role="3TtcxE" to="tpee:fzclF7Y" />
                  </node>
                </node>
                <node concept="3cpWsn" id="hP3i133" role="1Duv9x">
                  <property role="TrG5h" value="p" />
                  <node concept="3Tqbb2" id="hP3i134" role="1tU5fm">
                    <ref role="ehGHo" to="tpee:fz7vLUk" resolve="ParameterDeclaration" />
                  </node>
                </node>
                <node concept="3clFbS" id="hP3i135" role="2LFqv$">
                  <node concept="3clFbF" id="hP3i136" role="3cqZAp">
                    <node concept="2OqwBi" id="hP3i137" role="3clFbG">
                      <node concept="37vLTw" id="3GM_nagTus_" role="2Oq$k0">
                        <ref role="3cqZAo" node="hP3i133" resolve="p" />
                      </node>
                      <node concept="1PgB_6" id="hP3i139" role="2OqNvi" />
                    </node>
                  </node>
                </node>
              </node>
              <node concept="1DcWWT" id="hP3i13a" role="3cqZAp">
                <node concept="2OqwBi" id="hP3i13b" role="1DdaDG">
                  <node concept="3khVwk" id="hP3i13c" role="2Oq$k0" />
                  <node concept="3Tsc0h" id="hP3i13d" role="2OqNvi">
                    <ref role="3TtcxE" to="tpee:fzclF7Y" />
                  </node>
                </node>
                <node concept="3cpWsn" id="hP3i13e" role="1Duv9x">
                  <property role="TrG5h" value="p" />
                  <node concept="3Tqbb2" id="hP3i13f" role="1tU5fm">
                    <ref role="ehGHo" to="tpee:fz7vLUk" resolve="ParameterDeclaration" />
                  </node>
                </node>
                <node concept="3clFbS" id="hP3i13g" role="2LFqv$">
                  <node concept="3clFbF" id="hP3i13h" role="3cqZAp">
                    <node concept="2OqwBi" id="hP3i13i" role="3clFbG">
                      <node concept="2OqwBi" id="hP3i13j" role="2Oq$k0">
                        <node concept="3kakTB" id="hP3i13k" role="2Oq$k0" />
                        <node concept="3Tsc0h" id="hP3i13l" role="2OqNvi">
                          <ref role="3TtcxE" to="tpee:fzclF7Y" />
                        </node>
                      </node>
                      <node concept="TSZUe" id="1$wX9nnL0KH" role="2OqNvi">
                        <node concept="2OqwBi" id="hP3i13n" role="25WWJ7">
                          <node concept="37vLTw" id="3GM_nagTsFF" role="2Oq$k0">
                            <ref role="3cqZAo" node="hP3i13e" resolve="p" />
                          </node>
                          <node concept="1$rogu" id="hP3i13p" role="2OqNvi" />
                        </node>
                      </node>
                    </node>
                  </node>
                </node>
              </node>
              <node concept="3clFbF" id="hP3i13q" role="3cqZAp">
                <node concept="2OqwBi" id="hP3i13r" role="3clFbG">
                  <node concept="2OqwBi" id="hP3i13s" role="2Oq$k0">
                    <node concept="3kakTB" id="hP3i13t" role="2Oq$k0" />
                    <node concept="3TrcHB" id="hP3i13u" role="2OqNvi">
                      <ref role="3TsBF5" to="tpck:h0TrG11" resolve="name" />
                    </node>
                  </node>
                  <node concept="tyxLq" id="hP3i13v" role="2OqNvi">
                    <node concept="2OqwBi" id="hP3i13w" role="tz02z">
                      <node concept="3khVwk" id="hP3i13x" role="2Oq$k0" />
                      <node concept="3TrcHB" id="hP3i13y" role="2OqNvi">
                        <ref role="3TsBF5" to="tpck:h0TrG11" resolve="name" />
                      </node>
                    </node>
                  </node>
                </node>
              </node>
              <node concept="3clFbF" id="hP3i13z" role="3cqZAp">
                <node concept="2OqwBi" id="hP3i13$" role="3clFbG">
                  <node concept="2OqwBi" id="hP3i13_" role="2Oq$k0">
                    <node concept="3kakTB" id="hP3i13A" role="2Oq$k0" />
                    <node concept="3TrEf2" id="hP3i13B" role="2OqNvi">
                      <ref role="3Tt5mk" to="tpee:fzclF7X" />
                    </node>
                  </node>
                  <node concept="2oxUTD" id="hP3i13C" role="2OqNvi">
                    <node concept="2OqwBi" id="hP3i13D" role="2oxUTC">
                      <node concept="2OqwBi" id="hP3i13E" role="2Oq$k0">
                        <node concept="3khVwk" id="hP3i13F" role="2Oq$k0" />
                        <node concept="3TrEf2" id="hP3i13G" role="2OqNvi">
                          <ref role="3Tt5mk" to="tpee:fzclF7X" />
                        </node>
                      </node>
                      <node concept="1$rogu" id="hP3i13H" role="2OqNvi" />
                    </node>
                  </node>
                </node>
              </node>
            </node>
          </node>
        </node>
      </node>
    </node>
  </node>
  <node concept="1M2fIO" id="1LqCkvsbvlP">
    <property role="3GE5qa" value="" />
    <ref role="1M2myG" to="1i04:hP3iPJx" resolve="ThisNodeExpression" />
    <node concept="nKS2y" id="1LqCkvsbvmZ" role="1MLUbF">
      <node concept="3clFbS" id="1LqCkvsbvn0" role="2VODD2">
        <node concept="3clFbF" id="1LqCkvsbvn1" role="3cqZAp">
          <node concept="2YIFZM" id="1LqCkvsbvn3" role="3clFbG">
            <ref role="37wK5l" node="1LqCkvsbvmp" resolve="isInsideOfNonStaticBehaviorContext" />
            <ref role="1Pybhc" node="1LqCkvsbvlQ" resolve="ConstraintsUtil" />
            <node concept="nLn13" id="1LqCkvsbvn4" role="37wK5m" />
          </node>
        </node>
      </node>
    </node>
  </node>
  <node concept="312cEu" id="1LqCkvsbvlQ">
    <property role="TrG5h" value="ConstraintsUtil" />
    <node concept="3Tm1VV" id="1LqCkvsbvlR" role="1B3o_S" />
    <node concept="3clFbW" id="1LqCkvsbvlS" role="jymVt">
      <node concept="3cqZAl" id="1LqCkvsbvlT" role="3clF45" />
      <node concept="3Tm6S6" id="1LqCkvsbvlW" role="1B3o_S" />
      <node concept="3clFbS" id="1LqCkvsbvlV" role="3clF47" />
    </node>
    <node concept="2YIFZL" id="1LqCkvsbvlX" role="jymVt">
      <property role="TrG5h" value="isInsideOfBehavior" />
      <node concept="10P_77" id="1LqCkvsbvm1" role="3clF45" />
      <node concept="3Tm1VV" id="1LqCkvsbvlZ" role="1B3o_S" />
      <node concept="3clFbS" id="1LqCkvsbvm0" role="3clF47">
        <node concept="3clFbF" id="1LqCkvsbvm4" role="3cqZAp">
          <node concept="2OqwBi" id="1LqCkvsbvmk" role="3clFbG">
            <node concept="2OqwBi" id="1LqCkvsbvm6" role="2Oq$k0">
              <node concept="37vLTw" id="2BHiRxgmkFu" role="2Oq$k0">
                <ref role="3cqZAo" node="1LqCkvsbvm2" resolve="node" />
              </node>
              <node concept="2Xjw5R" id="1LqCkvsbvma" role="2OqNvi">
                <node concept="1xMEDy" id="1LqCkvsbvmb" role="1xVPHs">
                  <node concept="chp4Y" id="1LqCkvsbvme" role="ri$Ld">
                    <ref role="cht4Q" to="1i04:hP3h7Gq" resolve="ConceptBehavior" />
                  </node>
                </node>
                <node concept="1xIGOp" id="1LqCkvsbvmg" role="1xVPHs" />
              </node>
            </node>
            <node concept="3x8VRR" id="1LqCkvsbvmo" role="2OqNvi" />
          </node>
        </node>
      </node>
      <node concept="37vLTG" id="1LqCkvsbvm2" role="3clF46">
        <property role="TrG5h" value="node" />
        <node concept="3Tqbb2" id="1LqCkvsbvm3" role="1tU5fm" />
      </node>
    </node>
    <node concept="2YIFZL" id="1LqCkvsbvmp" role="jymVt">
      <property role="TrG5h" value="isInsideOfNonStaticBehaviorContext" />
      <node concept="10P_77" id="1LqCkvsbvmt" role="3clF45" />
      <node concept="3Tm1VV" id="1LqCkvsbvmr" role="1B3o_S" />
      <node concept="3clFbS" id="1LqCkvsbvms" role="3clF47">
        <node concept="3clFbJ" id="1LqCkvsbvmw" role="3cqZAp">
          <node concept="3fqX7Q" id="1LqCkvsbvmz" role="3clFbw">
            <node concept="1rXfSq" id="4hiugqysq_F" role="3fr31v">
              <ref role="37wK5l" node="1LqCkvsbvlX" resolve="isInsideOfBehavior" />
              <node concept="37vLTw" id="2BHiRxgll1O" role="37wK5m">
                <ref role="3cqZAo" node="1LqCkvsbvmu" resolve="node" />
              </node>
            </node>
          </node>
          <node concept="3clFbS" id="1LqCkvsbvmy" role="3clFbx">
            <node concept="3cpWs6" id="1LqCkvsbvmB" role="3cqZAp">
              <node concept="3clFbT" id="1LqCkvsbvmD" role="3cqZAk">
                <property role="3clFbU" value="false" />
              </node>
            </node>
          </node>
        </node>
        <node concept="3clFbH" id="1LqCkvsbvmE" role="3cqZAp" />
        <node concept="3clFbF" id="1LqCkvsbvmG" role="3cqZAp">
          <node concept="2OqwBi" id="1LqCkvsbvmU" role="3clFbG">
            <node concept="2OqwBi" id="1LqCkvsbvmI" role="2Oq$k0">
              <node concept="37vLTw" id="2BHiRxgm6RJ" role="2Oq$k0">
                <ref role="3cqZAo" node="1LqCkvsbvmu" resolve="node" />
              </node>
              <node concept="z$bX8" id="1LqCkvsbvmM" role="2OqNvi">
                <node concept="3gmYPX" id="1LqCkvsbvmO" role="1xVPHs">
                  <node concept="3gn64h" id="1LqCkvsbvmR" role="3gmYPZ">
                    <ref role="3gnhBz" to="1i04:hP3i0lY" resolve="ConceptMethodDeclaration" />
                  </node>
                  <node concept="3gn64h" id="1LqCkvsbvmT" role="3gmYPZ">
                    <ref role="3gnhBz" to="1i04:hP3hLVH" resolve="ConceptConstructorDeclaration" />
                  </node>
                </node>
              </node>
            </node>
            <node concept="3GX2aA" id="1LqCkvsbvmY" role="2OqNvi" />
          </node>
        </node>
      </node>
      <node concept="37vLTG" id="1LqCkvsbvmu" role="3clF46">
        <property role="TrG5h" value="node" />
        <node concept="3Tqbb2" id="1LqCkvsbvmv" role="1tU5fm" />
      </node>
    </node>
  </node>
  <node concept="1M2fIO" id="1LqCkvsbvrD">
    <property role="3GE5qa" value="" />
    <ref role="1M2myG" to="1i04:hP3iAlo" resolve="SuperNodeExpression" />
    <node concept="1N5Pfh" id="4Aab3e74E59" role="1Mr941">
      <ref role="1N5Vy1" to="1i04:4Aab3e74B10" />
      <node concept="1MUpDS" id="4Aab3e74E5a" role="1N6uqs">
        <node concept="3clFbS" id="4Aab3e74E5b" role="2VODD2">
          <node concept="3cpWs8" id="4Aab3e74EEe" role="3cqZAp">
            <node concept="3cpWsn" id="4Aab3e74EEf" role="3cpWs9">
              <property role="TrG5h" value="result" />
              <node concept="2I9FWS" id="4Aab3e74EEg" role="1tU5fm">
                <ref role="2I9WkF" to="tpce:h0PkWnZ" resolve="AbstractConceptDeclaration" />
              </node>
              <node concept="2ShNRf" id="4Aab3e74EEi" role="33vP2m">
                <node concept="2T8Vx0" id="4Aab3e74EEj" role="2ShVmc">
                  <node concept="2I9FWS" id="4Aab3e74EEk" role="2T96Bj">
                    <ref role="2I9WkF" to="tpce:h0PkWnZ" resolve="AbstractConceptDeclaration" />
                  </node>
                </node>
              </node>
            </node>
          </node>
          <node concept="3cpWs8" id="4Aab3e74EDX" role="3cqZAp">
            <node concept="3cpWsn" id="4Aab3e74EDY" role="3cpWs9">
              <property role="TrG5h" value="abstractConceptDeclaration" />
              <node concept="3Tqbb2" id="4Aab3e74EDZ" role="1tU5fm">
                <ref role="ehGHo" to="tpce:h0PkWnZ" resolve="AbstractConceptDeclaration" />
              </node>
              <node concept="2OqwBi" id="4Aab3e74EE0" role="33vP2m">
                <node concept="2OqwBi" id="4Aab3e74EE1" role="2Oq$k0">
                  <node concept="3kakTB" id="4Aab3e74EE2" role="2Oq$k0" />
                  <node concept="2Xjw5R" id="4Aab3e74EE3" role="2OqNvi">
                    <node concept="1xMEDy" id="4Aab3e74EE4" role="1xVPHs">
                      <node concept="chp4Y" id="4Aab3e74EE5" role="ri$Ld">
                        <ref role="cht4Q" to="1i04:hP3h7Gq" resolve="ConceptBehavior" />
                      </node>
                    </node>
                  </node>
                </node>
                <node concept="3TrEf2" id="4Aab3e74EE6" role="2OqNvi">
                  <ref role="3Tt5mk" to="1i04:hP3h7Gv" />
                </node>
              </node>
            </node>
          </node>
          <node concept="3clFbJ" id="4Aab3e74EE8" role="3cqZAp">
            <node concept="3clFbS" id="4Aab3e74EE9" role="3clFbx">
              <node concept="3cpWs8" id="4Aab3e74EEE" role="3cqZAp">
                <node concept="3cpWsn" id="4Aab3e74EEF" role="3cpWs9">
                  <property role="TrG5h" value="cd" />
                  <node concept="3Tqbb2" id="4Aab3e74EEG" role="1tU5fm">
                    <ref role="ehGHo" to="tpce:f_TIwhg" resolve="ConceptDeclaration" />
                  </node>
                  <node concept="10QFUN" id="4Aab3e74EGS" role="33vP2m">
                    <node concept="3Tqbb2" id="4Aab3e74EGT" role="10QFUM">
                      <ref role="ehGHo" to="tpce:f_TIwhg" resolve="ConceptDeclaration" />
                    </node>
                    <node concept="37vLTw" id="3GM_nagTuw8" role="10QFUP">
                      <ref role="3cqZAo" node="4Aab3e74EDY" resolve="abstractConceptDeclaration" />
                    </node>
                  </node>
                </node>
              </node>
              <node concept="3cpWs8" id="4Aab3e74EF6" role="3cqZAp">
                <node concept="3cpWsn" id="4Aab3e74EF7" role="3cpWs9">
                  <property role="TrG5h" value="extendsNode" />
                  <node concept="3Tqbb2" id="4Aab3e74EF8" role="1tU5fm">
                    <ref role="ehGHo" to="tpce:f_TIwhg" resolve="ConceptDeclaration" />
                  </node>
                  <node concept="2OqwBi" id="4Aab3e74EF9" role="33vP2m">
                    <node concept="37vLTw" id="3GM_nagTvzB" role="2Oq$k0">
                      <ref role="3cqZAo" node="4Aab3e74EEF" resolve="cd" />
                    </node>
                    <node concept="3TrEf2" id="4Aab3e74EFb" role="2OqNvi">
                      <ref role="3Tt5mk" to="tpce:f_TJDff" />
                    </node>
                  </node>
                </node>
              </node>
              <node concept="3clFbJ" id="4Aab3e74EFg" role="3cqZAp">
                <node concept="3clFbS" id="4Aab3e74EFh" role="3clFbx">
                  <node concept="3clFbF" id="4Aab3e74EEM" role="3cqZAp">
                    <node concept="2OqwBi" id="4Aab3e74EEO" role="3clFbG">
                      <node concept="37vLTw" id="3GM_nagTv6A" role="2Oq$k0">
                        <ref role="3cqZAo" node="4Aab3e74EEf" resolve="result" />
                      </node>
                      <node concept="TSZUe" id="4Aab3e74EES" role="2OqNvi">
                        <node concept="37vLTw" id="3GM_nagTBuf" role="25WWJ7">
                          <ref role="3cqZAo" node="4Aab3e74EF7" resolve="extendsNode" />
                        </node>
                      </node>
                    </node>
                  </node>
                </node>
                <node concept="3y3z36" id="4Aab3e74EFl" role="3clFbw">
                  <node concept="10Nm6u" id="4Aab3e74EFo" role="3uHU7w" />
                  <node concept="37vLTw" id="3GM_nagTupH" role="3uHU7B">
                    <ref role="3cqZAo" node="4Aab3e74EF7" resolve="extendsNode" />
                  </node>
                </node>
              </node>
              <node concept="1DcWWT" id="4Aab3e74EFq" role="3cqZAp">
                <node concept="3clFbS" id="4Aab3e74EFr" role="2LFqv$">
                  <node concept="3clFbF" id="4Aab3e74EFS" role="3cqZAp">
                    <node concept="2OqwBi" id="4Aab3e74EFU" role="3clFbG">
                      <node concept="37vLTw" id="3GM_nagT$B_" role="2Oq$k0">
                        <ref role="3cqZAo" node="4Aab3e74EEf" resolve="result" />
                      </node>
                      <node concept="TSZUe" id="4Aab3e74EFY" role="2OqNvi">
                        <node concept="2OqwBi" id="4Aab3e74EG5" role="25WWJ7">
                          <node concept="37vLTw" id="3GM_nagTBQD" role="2Oq$k0">
                            <ref role="3cqZAo" node="4Aab3e74EFu" resolve="itfcRef" />
                          </node>
                          <node concept="3TrEf2" id="4Aab3e74EGb" role="2OqNvi">
                            <ref role="3Tt5mk" to="tpce:h0PrY0D" />
                          </node>
                        </node>
                      </node>
                    </node>
                  </node>
                </node>
                <node concept="3cpWsn" id="4Aab3e74EFu" role="1Duv9x">
                  <property role="TrG5h" value="itfcRef" />
                  <node concept="3Tqbb2" id="4Aab3e74EFy" role="1tU5fm">
                    <ref role="ehGHo" to="tpce:h0PrWoo" resolve="InterfaceConceptReference" />
                  </node>
                </node>
                <node concept="2OqwBi" id="4Aab3e74EFE" role="1DdaDG">
                  <node concept="37vLTw" id="3GM_nagTsMW" role="2Oq$k0">
                    <ref role="3cqZAo" node="4Aab3e74EEF" resolve="cd" />
                  </node>
                  <node concept="3Tsc0h" id="4Aab3e74EFK" role="2OqNvi">
                    <ref role="3TtcxE" to="tpce:h0Pzm$Y" />
                  </node>
                </node>
              </node>
            </node>
            <node concept="2OqwBi" id="4Aab3e74EEl" role="3clFbw">
              <node concept="37vLTw" id="3GM_nagTwQL" role="2Oq$k0">
                <ref role="3cqZAo" node="4Aab3e74EDY" resolve="abstractConceptDeclaration" />
              </node>
              <node concept="1mIQ4w" id="4Aab3e74EEp" role="2OqNvi">
                <node concept="chp4Y" id="4Aab3e74EGe" role="cj9EA">
                  <ref role="cht4Q" to="tpce:f_TIwhg" resolve="ConceptDeclaration" />
                </node>
              </node>
            </node>
          </node>
          <node concept="3clFbJ" id="4Aab3e74EEt" role="3cqZAp">
            <node concept="3clFbS" id="4Aab3e74EEu" role="3clFbx">
              <node concept="3cpWs8" id="4Aab3e74EGg" role="3cqZAp">
                <node concept="3cpWsn" id="4Aab3e74EGh" role="3cpWs9">
                  <property role="TrG5h" value="itfc" />
                  <node concept="3Tqbb2" id="4Aab3e74EGi" role="1tU5fm">
                    <ref role="ehGHo" to="tpce:h0PlHMJ" resolve="InterfaceConceptDeclaration" />
                  </node>
                  <node concept="10QFUN" id="4Aab3e74EGO" role="33vP2m">
                    <node concept="3Tqbb2" id="4Aab3e74EGR" role="10QFUM">
                      <ref role="ehGHo" to="tpce:h0PlHMJ" resolve="InterfaceConceptDeclaration" />
                    </node>
                    <node concept="37vLTw" id="3GM_nagTt4u" role="10QFUP">
                      <ref role="3cqZAo" node="4Aab3e74EDY" resolve="abstractConceptDeclaration" />
                    </node>
                  </node>
                </node>
              </node>
              <node concept="1DcWWT" id="4Aab3e74EGp" role="3cqZAp">
                <node concept="3clFbS" id="4Aab3e74EGq" role="2LFqv$">
                  <node concept="3clFbF" id="4Aab3e74EGr" role="3cqZAp">
                    <node concept="2OqwBi" id="4Aab3e74EGs" role="3clFbG">
                      <node concept="37vLTw" id="3GM_nagTzcB" role="2Oq$k0">
                        <ref role="3cqZAo" node="4Aab3e74EEf" resolve="result" />
                      </node>
                      <node concept="TSZUe" id="4Aab3e74EGu" role="2OqNvi">
                        <node concept="2OqwBi" id="4Aab3e74EGv" role="25WWJ7">
                          <node concept="37vLTw" id="3GM_nagTrM3" role="2Oq$k0">
                            <ref role="3cqZAo" node="4Aab3e74EGy" resolve="itfcRef" />
                          </node>
                          <node concept="3TrEf2" id="4Aab3e74EGx" role="2OqNvi">
                            <ref role="3Tt5mk" to="tpce:h0PrY0D" />
                          </node>
                        </node>
                      </node>
                    </node>
                  </node>
                </node>
                <node concept="3cpWsn" id="4Aab3e74EGy" role="1Duv9x">
                  <property role="TrG5h" value="itfcRef" />
                  <node concept="3Tqbb2" id="4Aab3e74EGz" role="1tU5fm">
                    <ref role="ehGHo" to="tpce:h0PrWoo" resolve="InterfaceConceptReference" />
                  </node>
                </node>
                <node concept="2OqwBi" id="4Aab3e74EG$" role="1DdaDG">
                  <node concept="37vLTw" id="3GM_nagTz0g" role="2Oq$k0">
                    <ref role="3cqZAo" node="4Aab3e74EGh" resolve="itfc" />
                  </node>
                  <node concept="3Tsc0h" id="4Aab3e74EGK" role="2OqNvi">
                    <ref role="3TtcxE" to="tpce:h0PrDRO" />
                  </node>
                </node>
              </node>
            </node>
            <node concept="2OqwBi" id="4Aab3e74EEz" role="3clFbw">
              <node concept="37vLTw" id="3GM_nagTrEZ" role="2Oq$k0">
                <ref role="3cqZAo" node="4Aab3e74EDY" resolve="abstractConceptDeclaration" />
              </node>
              <node concept="1mIQ4w" id="4Aab3e74EEB" role="2OqNvi">
                <node concept="chp4Y" id="4Aab3e74EGf" role="cj9EA">
                  <ref role="cht4Q" to="tpce:h0PlHMJ" resolve="InterfaceConceptDeclaration" />
                </node>
              </node>
            </node>
          </node>
          <node concept="3cpWs6" id="4Aab3e74EGX" role="3cqZAp">
            <node concept="37vLTw" id="3GM_nagT$OZ" role="3cqZAk">
              <ref role="3cqZAo" node="4Aab3e74EEf" resolve="result" />
            </node>
          </node>
        </node>
      </node>
    </node>
    <node concept="nKS2y" id="1LqCkvsbvrE" role="1MLUbF">
      <node concept="3clFbS" id="1LqCkvsbvrF" role="2VODD2">
        <node concept="3clFbF" id="1LqCkvsbvrG" role="3cqZAp">
          <node concept="2YIFZM" id="1LqCkvsbvrH" role="3clFbG">
            <ref role="1Pybhc" node="1LqCkvsbvlQ" resolve="ConstraintsUtil" />
            <ref role="37wK5l" node="1LqCkvsbvmp" resolve="isInsideOfNonStaticBehaviorContext" />
            <node concept="nLn13" id="1LqCkvsbvrI" role="37wK5m" />
          </node>
        </node>
      </node>
    </node>
  </node>
  <node concept="1M2fIO" id="5CBvrhXldTg">
    <property role="3GE5qa" value="" />
    <ref role="1M2myG" to="1i04:5CBvrhXldvx" resolve="LocalBehaviorMethodCall" />
    <node concept="1N5Pfh" id="5CBvrhXldTh" role="1Mr941">
      <ref role="1N5Vy1" to="1i04:5CBvrhXldvy" />
      <node concept="1MUpDS" id="5CBvrhXldTi" role="1N6uqs">
        <node concept="3clFbS" id="5CBvrhXldTj" role="2VODD2">
          <node concept="3cpWs8" id="3QXp0Dlfd1O" role="3cqZAp">
            <node concept="3cpWsn" id="3QXp0Dlfd1P" role="3cpWs9">
              <property role="TrG5h" value="methodDeclaration" />
              <node concept="3Tqbb2" id="3QXp0Dlfd1Q" role="1tU5fm">
                <ref role="ehGHo" to="tpee:fzclF7W" resolve="BaseMethodDeclaration" />
              </node>
              <node concept="2OqwBi" id="3QXp0Dlfd1T" role="33vP2m">
                <node concept="21POm0" id="3QXp0Dlfd1S" role="2Oq$k0" />
                <node concept="2Xjw5R" id="3QXp0Dlfd1X" role="2OqNvi">
                  <node concept="1xMEDy" id="3QXp0Dlfd1Y" role="1xVPHs">
                    <node concept="chp4Y" id="3QXp0Dlfd21" role="ri$Ld">
                      <ref role="cht4Q" to="tpee:fzclF7W" resolve="BaseMethodDeclaration" />
                    </node>
                  </node>
                  <node concept="1xIGOp" id="3QXp0Dlfd24" role="1xVPHs" />
                </node>
              </node>
            </node>
          </node>
          <node concept="3clFbH" id="3QXp0DlfcHU" role="3cqZAp" />
          <node concept="3clFbJ" id="3QXp0Dlfd26" role="3cqZAp">
            <node concept="3clFbS" id="3QXp0Dlfd27" role="3clFbx">
              <node concept="3cpWs8" id="3QXp0Dlfl$L" role="3cqZAp">
                <node concept="3cpWsn" id="3QXp0Dlfl$M" role="3cpWs9">
                  <property role="TrG5h" value="concept" />
                  <node concept="3Tqbb2" id="3QXp0Dlfl$N" role="1tU5fm">
                    <ref role="ehGHo" to="tpce:h0PkWnZ" resolve="AbstractConceptDeclaration" />
                  </node>
                  <node concept="2OqwBi" id="3QXp0Dlfl$O" role="33vP2m">
                    <node concept="2OqwBi" id="3QXp0Dlfl$P" role="2Oq$k0">
                      <node concept="2Xjw5R" id="3QXp0Dlfl$Q" role="2OqNvi">
                        <node concept="1xMEDy" id="3QXp0Dlfl$R" role="1xVPHs">
                          <node concept="chp4Y" id="3QXp0Dlfl$S" role="ri$Ld">
                            <ref role="cht4Q" to="1i04:hP3h7Gq" resolve="ConceptBehavior" />
                          </node>
                        </node>
                        <node concept="1xIGOp" id="3QXp0Dlfl$T" role="1xVPHs" />
                      </node>
                      <node concept="21POm0" id="3QXp0Dlfl$U" role="2Oq$k0" />
                    </node>
                    <node concept="3TrEf2" id="3QXp0Dlfl$V" role="2OqNvi">
                      <ref role="3Tt5mk" to="1i04:hP3h7Gv" />
                    </node>
                  </node>
                </node>
              </node>
              <node concept="3cpWs6" id="3QXp0Dlfl_8" role="3cqZAp">
                <node concept="2OqwBi" id="3QXp0Dlfl_a" role="3cqZAk">
                  <node concept="2qgKlT" id="3QXp0Dlfl_b" role="2OqNvi">
                    <ref role="37wK5l" to="tpcn:hEwILGo" resolve="getAvailableConceptMethods" />
                    <node concept="21POm0" id="3QXp0Dlfl_c" role="37wK5m" />
                  </node>
                  <node concept="37vLTw" id="3GM_nagTyfd" role="2Oq$k0">
                    <ref role="3cqZAo" node="3QXp0Dlfl$M" resolve="concept" />
                  </node>
                </node>
              </node>
            </node>
            <node concept="9aQIb" id="3QXp0Dlfl_1" role="9aQIa">
              <node concept="3clFbS" id="3QXp0Dlfl_2" role="9aQI4">
                <node concept="3cpWs6" id="3QXp0Dlfl_5" role="3cqZAp">
                  <node concept="10Nm6u" id="3QXp0Dlfl_4" role="3cqZAk" />
                </node>
              </node>
            </node>
            <node concept="2OqwBi" id="3QXp0Dlfu5D" role="3clFbw">
              <node concept="37vLTw" id="3GM_nagTt1h" role="2Oq$k0">
                <ref role="3cqZAo" node="3QXp0Dlfd1P" resolve="methodDeclaration" />
              </node>
              <node concept="1mIQ4w" id="3QXp0Dlfu5H" role="2OqNvi">
                <node concept="chp4Y" id="3QXp0Dlfu5J" role="cj9EA">
                  <ref role="cht4Q" to="1i04:hP3i0lY" resolve="ConceptMethodDeclaration" />
                </node>
              </node>
            </node>
          </node>
        </node>
      </node>
    </node>
    <node concept="nKS2y" id="5CBvrhXlt0j" role="1MLUbF">
      <node concept="3clFbS" id="5CBvrhXlt0k" role="2VODD2">
        <node concept="3clFbF" id="5CBvrhXlt0l" role="3cqZAp">
          <node concept="3y3z36" id="5CBvrhXlt0t" role="3clFbG">
            <node concept="10Nm6u" id="5CBvrhXlt0w" role="3uHU7w" />
            <node concept="2OqwBi" id="5CBvrhXlt0m" role="3uHU7B">
              <node concept="2Xjw5R" id="5CBvrhXlt0n" role="2OqNvi">
                <node concept="1xMEDy" id="5CBvrhXlt0o" role="1xVPHs">
                  <node concept="chp4Y" id="5CBvrhXlt0p" role="ri$Ld">
                    <ref role="cht4Q" to="1i04:hP3h7Gq" resolve="ConceptBehavior" />
                  </node>
                </node>
                <node concept="1xIGOp" id="5CBvrhXlt0q" role="1xVPHs" />
              </node>
              <node concept="nLn13" id="5CBvrhXlt0s" role="2Oq$k0" />
            </node>
          </node>
        </node>
      </node>
    </node>
  </node>
</model>

