<?xml version="1.0" encoding="UTF-8"?>
<model ref="r:dc79d042-ba38-4e91-9392-42f38106ae44(jetbrains.mps.lang.behavior.editor)">
  <persistence version="9" />
  <languages>
    <use id="7866978e-a0f0-4cc7-81bc-4d213d9375e1" name="jetbrains.mps.lang.smodel" version="4" />
    <use id="18bc6592-03a6-4e29-a83a-7ff23bde13ba" name="jetbrains.mps.lang.editor" version="3" />
    <use id="f3061a53-9226-4cc5-a443-f952ceaf5816" name="jetbrains.mps.baseLanguage" version="4" />
    <devkit ref="fbc25dd2-5da4-483a-8b19-70928e1b62d7(jetbrains.mps.devkit.general-purpose)" />
  </languages>
  <imports>
    <import index="1i04" ref="r:3270011d-8b2d-4938-8dff-d256a759e017(jetbrains.mps.lang.behavior.structure)" />
    <import index="tpen" ref="r:00000000-0000-4000-0000-011c895902c3(jetbrains.mps.baseLanguage.editor)" />
    <import index="tpd3" ref="r:00000000-0000-4000-0000-011c895902bb(jetbrains.mps.lang.sharedConcepts.editor)" />
    <import index="tpee" ref="r:00000000-0000-4000-0000-011c895902ca(jetbrains.mps.baseLanguage.structure)" />
    <import index="tpcn" ref="r:00000000-0000-4000-0000-011c8959028b(jetbrains.mps.lang.structure.behavior)" />
    <import index="csvn" ref="r:a91e42c5-728b-4866-86c4-d97454f4aee4(jetbrains.mps.lang.behavior.behavior)" />
    <import index="tpck" ref="r:00000000-0000-4000-0000-011c89590288(jetbrains.mps.lang.core.structure)" implicit="true" />
  </imports>
  <registry>
    <language id="18bc6592-03a6-4e29-a83a-7ff23bde13ba" name="jetbrains.mps.lang.editor">
      <concept id="1071666914219" name="jetbrains.mps.lang.editor.structure.ConceptEditorDeclaration" flags="ig" index="24kQdi">
        <child id="1078153129734" name="inspectedCellModel" index="6VMZX" />
      </concept>
      <concept id="1140524381322" name="jetbrains.mps.lang.editor.structure.CellModel_ListWithRole" flags="ng" index="2czfm3">
        <property id="1140524450554" name="vertical" index="2czwfN" />
        <property id="1140524450557" name="separatorText" index="2czwfO" />
        <child id="1140524464360" name="cellLayout" index="2czzBx" />
        <child id="1140524464359" name="emptyCellModel" index="2czzBI" />
      </concept>
      <concept id="1106270549637" name="jetbrains.mps.lang.editor.structure.CellLayout_Horizontal" flags="nn" index="2iRfu4" />
      <concept id="1106270571710" name="jetbrains.mps.lang.editor.structure.CellLayout_Vertical" flags="nn" index="2iRkQZ" />
      <concept id="1237303669825" name="jetbrains.mps.lang.editor.structure.CellLayout_Indent" flags="nn" index="l2Vlx" />
      <concept id="1237307900041" name="jetbrains.mps.lang.editor.structure.IndentLayoutIndentStyleClassItem" flags="ln" index="lj46D" />
      <concept id="1237308012275" name="jetbrains.mps.lang.editor.structure.IndentLayoutNewLineStyleClassItem" flags="ln" index="ljvvj" />
      <concept id="1237375020029" name="jetbrains.mps.lang.editor.structure.IndentLayoutNewLineChildrenStyleClassItem" flags="ln" index="pj6Ft" />
      <concept id="1142886221719" name="jetbrains.mps.lang.editor.structure.QueryFunction_NodeCondition" flags="in" index="pkWqt" />
      <concept id="1142886811589" name="jetbrains.mps.lang.editor.structure.ConceptFunctionParameter_node" flags="nn" index="pncrf" />
      <concept id="1237385578942" name="jetbrains.mps.lang.editor.structure.IndentLayoutOnNewLineStyleClassItem" flags="ln" index="pVoyu" />
      <concept id="1080736578640" name="jetbrains.mps.lang.editor.structure.BaseEditorComponent" flags="ig" index="2wURMF">
        <child id="1080736633877" name="cellModel" index="2wV5jI" />
      </concept>
      <concept id="7667276221847570194" name="jetbrains.mps.lang.editor.structure.ParametersInformationStyleClassItem" flags="ln" index="2$oqgb">
        <reference id="8863456892852949148" name="parametersInformation" index="Bvoe9" />
      </concept>
      <concept id="1164824717996" name="jetbrains.mps.lang.editor.structure.CellMenuDescriptor" flags="ng" index="OXEIz">
        <child id="1164824815888" name="cellMenuPart" index="OY2wv" />
      </concept>
      <concept id="1078939183254" name="jetbrains.mps.lang.editor.structure.CellModel_Component" flags="sg" stub="3162947552742194261" index="PMmxH">
        <reference id="1078939183255" name="editorComponent" index="PMmxG" />
      </concept>
      <concept id="1186403694788" name="jetbrains.mps.lang.editor.structure.ColorStyleClassItem" flags="ln" index="VaVBg">
        <property id="1186403713874" name="color" index="Vb096" />
      </concept>
      <concept id="1186404549998" name="jetbrains.mps.lang.editor.structure.ForegroundColorStyleClassItem" flags="ln" index="VechU" />
      <concept id="1186414536763" name="jetbrains.mps.lang.editor.structure.BooleanStyleSheetItem" flags="ln" index="VOi$J">
        <property id="1186414551515" name="flag" index="VOm3f" />
      </concept>
      <concept id="1186414860679" name="jetbrains.mps.lang.editor.structure.EditableStyleClassItem" flags="ln" index="VPxyj" />
      <concept id="1186414928363" name="jetbrains.mps.lang.editor.structure.SelectableStyleSheetItem" flags="ln" index="VPM3Z" />
      <concept id="1233758997495" name="jetbrains.mps.lang.editor.structure.PunctuationLeftStyleClassItem" flags="ln" index="11L4FC" />
      <concept id="1165253627126" name="jetbrains.mps.lang.editor.structure.CellMenuPart_AbstractGroup" flags="ng" index="1exORT">
        <child id="1165253890469" name="parameterObjectType" index="1eyP2E" />
      </concept>
      <concept id="1088013125922" name="jetbrains.mps.lang.editor.structure.CellModel_RefCell" flags="sg" stub="730538219795941030" index="1iCGBv">
        <child id="1088186146602" name="editorComponent" index="1sWHZn" />
      </concept>
      <concept id="1381004262292414836" name="jetbrains.mps.lang.editor.structure.ICellStyle" flags="ng" index="1k5N5V">
        <reference id="1381004262292426837" name="parentStyleClass" index="1k5W1q" />
      </concept>
      <concept id="1165420413719" name="jetbrains.mps.lang.editor.structure.CellMenuPart_Generic_Group" flags="ng" index="1ou48o">
        <child id="1165420413721" name="handlerFunction" index="1ou48m" />
        <child id="1165420413720" name="parametersFunction" index="1ou48n" />
      </concept>
      <concept id="1165420626554" name="jetbrains.mps.lang.editor.structure.CellMenuPart_Generic_Group_Handler" flags="in" index="1ouSdP" />
      <concept id="1088185857835" name="jetbrains.mps.lang.editor.structure.InlineEditorComponent" flags="ig" index="1sVBvm" />
      <concept id="1215007762405" name="jetbrains.mps.lang.editor.structure.FloatStyleClassItem" flags="ln" index="3$6MrZ">
        <property id="1215007802031" name="value" index="3$6WeP" />
      </concept>
      <concept id="1215007897487" name="jetbrains.mps.lang.editor.structure.PaddingRightStyleClassItem" flags="ln" index="3$7jql" />
      <concept id="1139848536355" name="jetbrains.mps.lang.editor.structure.CellModel_WithRole" flags="ng" index="1$h60E">
        <property id="1139852716018" name="noTargetText" index="1$x2rV" />
        <property id="1140017977771" name="readOnly" index="1Intyy" />
        <reference id="1140103550593" name="relationDeclaration" index="1NtTu8" />
      </concept>
      <concept id="1073389214265" name="jetbrains.mps.lang.editor.structure.EditorCellModel" flags="ng" index="3EYTF0">
        <child id="1142887637401" name="renderingCondition" index="pqm2j" />
        <child id="1164826688380" name="menuDescriptor" index="P5bDN" />
      </concept>
      <concept id="1073389446423" name="jetbrains.mps.lang.editor.structure.CellModel_Collection" flags="sn" stub="3013115976261988961" index="3EZMnI">
        <property id="1160590353935" name="usesFolding" index="S$Qs1" />
        <property id="1073389446425" name="vertical" index="3EZMnw" />
        <property id="1073389446426" name="gridLayout" index="3EZMnz" />
        <child id="1106270802874" name="cellLayout" index="2iSdaV" />
        <child id="7723470090030138869" name="foldedCellModel" index="AHCbl" />
        <child id="1073389446424" name="childCellModel" index="3EZMnx" />
      </concept>
      <concept id="1073389577006" name="jetbrains.mps.lang.editor.structure.CellModel_Constant" flags="sn" stub="3610246225209162225" index="3F0ifn">
        <property id="1073389577007" name="text" index="3F0ifm" />
      </concept>
      <concept id="1073389658414" name="jetbrains.mps.lang.editor.structure.CellModel_Property" flags="sg" stub="730538219796134133" index="3F0A7n" />
      <concept id="1219418625346" name="jetbrains.mps.lang.editor.structure.IStyleContainer" flags="ng" index="3F0Thp">
        <child id="1219418656006" name="styleItem" index="3F10Kt" />
      </concept>
      <concept id="1073389882823" name="jetbrains.mps.lang.editor.structure.CellModel_RefNode" flags="sg" stub="730538219795960754" index="3F1sOY" />
      <concept id="1073390211982" name="jetbrains.mps.lang.editor.structure.CellModel_RefNodeList" flags="sg" stub="2794558372793454595" index="3F2HdR" />
      <concept id="1163613035599" name="jetbrains.mps.lang.editor.structure.CellMenuPart_AbstractGroup_Query" flags="in" index="3GJtP1" />
      <concept id="1163613549566" name="jetbrains.mps.lang.editor.structure.CellMenuPart_AbstractGroup_parameterObject" flags="nn" index="3GLrbK" />
      <concept id="1163613822479" name="jetbrains.mps.lang.editor.structure.CellMenuPart_Abstract_editedNode" flags="nn" index="3GMtW1" />
      <concept id="1225898583838" name="jetbrains.mps.lang.editor.structure.ReadOnlyModelAccessor" flags="ng" index="1HfYo3">
        <child id="1225898971709" name="getter" index="1Hhtcw" />
      </concept>
      <concept id="1225900081164" name="jetbrains.mps.lang.editor.structure.CellModel_ReadOnlyModelAccessor" flags="sg" stub="3708815482283559694" index="1HlG4h">
        <child id="1225900141900" name="modelAccessor" index="1HlULh" />
      </concept>
      <concept id="1088612959204" name="jetbrains.mps.lang.editor.structure.CellModel_Alternation" flags="sg" stub="8104358048506729361" index="1QoScp">
        <property id="1088613081987" name="vertical" index="1QpmdY" />
        <child id="1145918517974" name="alternationCondition" index="3e4ffs" />
        <child id="1088612958265" name="ifTrueCellModel" index="1QoS34" />
        <child id="1088612973955" name="ifFalseCellModel" index="1QoVPY" />
      </concept>
      <concept id="1176717841777" name="jetbrains.mps.lang.editor.structure.QueryFunction_ModelAccess_Getter" flags="in" index="3TQlhw" />
      <concept id="1166040637528" name="jetbrains.mps.lang.editor.structure.CellMenuComponent" flags="ng" index="1Xs25n">
        <child id="1166041505377" name="menuDescriptor" index="1XvlXI" />
      </concept>
      <concept id="1198256887712" name="jetbrains.mps.lang.editor.structure.CellModel_Indent" flags="ng" index="3XFhqQ" />
      <concept id="1166049232041" name="jetbrains.mps.lang.editor.structure.AbstractComponent" flags="ng" index="1XWOmA">
        <reference id="1166049300910" name="conceptDeclaration" index="1XX52x" />
      </concept>
      <concept id="1166059625718" name="jetbrains.mps.lang.editor.structure.CellMenuPart_CellMenuComponent" flags="ng" index="1Y$tRT">
        <reference id="1166059677893" name="cellMenuComponent" index="1Y$EBa" />
      </concept>
    </language>
    <language id="f3061a53-9226-4cc5-a443-f952ceaf5816" name="jetbrains.mps.baseLanguage">
      <concept id="1197027756228" name="jetbrains.mps.baseLanguage.structure.DotExpression" flags="nn" index="2OqwBi">
        <child id="1197027771414" name="operand" index="2Oq$k0" />
        <child id="1197027833540" name="operation" index="2OqNvi" />
      </concept>
      <concept id="1137021947720" name="jetbrains.mps.baseLanguage.structure.ConceptFunction" flags="in" index="2VMwT0">
        <child id="1137022507850" name="body" index="2VODD2" />
      </concept>
      <concept id="1070534058343" name="jetbrains.mps.baseLanguage.structure.NullLiteral" flags="nn" index="10Nm6u" />
      <concept id="1068580123152" name="jetbrains.mps.baseLanguage.structure.EqualsExpression" flags="nn" index="3clFbC" />
      <concept id="1068580123155" name="jetbrains.mps.baseLanguage.structure.ExpressionStatement" flags="nn" index="3clFbF">
        <child id="1068580123156" name="expression" index="3clFbG" />
      </concept>
      <concept id="1068580123159" name="jetbrains.mps.baseLanguage.structure.IfStatement" flags="nn" index="3clFbJ">
        <child id="1068580123160" name="condition" index="3clFbw" />
        <child id="1068580123161" name="ifTrue" index="3clFbx" />
      </concept>
      <concept id="1068580123136" name="jetbrains.mps.baseLanguage.structure.StatementList" flags="sn" stub="5293379017992965193" index="3clFbS">
        <child id="1068581517665" name="statement" index="3cqZAp" />
      </concept>
      <concept id="1068580123137" name="jetbrains.mps.baseLanguage.structure.BooleanConstant" flags="nn" index="3clFbT">
        <property id="1068580123138" name="value" index="3clFbU" />
      </concept>
      <concept id="1068581242878" name="jetbrains.mps.baseLanguage.structure.ReturnStatement" flags="nn" index="3cpWs6">
        <child id="1068581517676" name="expression" index="3cqZAk" />
      </concept>
      <concept id="1081516740877" name="jetbrains.mps.baseLanguage.structure.NotExpression" flags="nn" index="3fqX7Q">
        <child id="1081516765348" name="expression" index="3fr31v" />
      </concept>
      <concept id="1204053956946" name="jetbrains.mps.baseLanguage.structure.IMethodCall" flags="ng" index="1ndlxa">
        <reference id="1068499141037" name="baseMethodDeclaration" index="37wK5l" />
      </concept>
      <concept id="1081773326031" name="jetbrains.mps.baseLanguage.structure.BinaryOperation" flags="nn" index="3uHJSO">
        <child id="1081773367579" name="rightExpression" index="3uHU7w" />
        <child id="1081773367580" name="leftExpression" index="3uHU7B" />
      </concept>
      <concept id="1073239437375" name="jetbrains.mps.baseLanguage.structure.NotEqualsExpression" flags="nn" index="3y3z36" />
      <concept id="1080120340718" name="jetbrains.mps.baseLanguage.structure.AndExpression" flags="nn" index="1Wc70l" />
    </language>
    <language id="7866978e-a0f0-4cc7-81bc-4d213d9375e1" name="jetbrains.mps.lang.smodel">
      <concept id="1177026924588" name="jetbrains.mps.lang.smodel.structure.RefConcept_Reference" flags="nn" index="chp4Y">
        <reference id="1177026940964" name="conceptDeclaration" index="cht4Q" />
      </concept>
      <concept id="1138411891628" name="jetbrains.mps.lang.smodel.structure.SNodeOperation" flags="nn" index="eCIE_">
        <child id="1144104376918" name="parameter" index="1xVPHs" />
      </concept>
      <concept id="1140725362528" name="jetbrains.mps.lang.smodel.structure.Link_SetTargetOperation" flags="nn" index="2oxUTD">
        <child id="1140725362529" name="linkTarget" index="2oxUTC" />
      </concept>
      <concept id="1179409122411" name="jetbrains.mps.lang.smodel.structure.Node_ConceptMethodCall" flags="nn" index="2qgKlT" />
      <concept id="1138661924179" name="jetbrains.mps.lang.smodel.structure.Property_SetOperation" flags="nn" index="tyxLq">
        <child id="1138662048170" name="value" index="tz02z" />
      </concept>
      <concept id="1171407110247" name="jetbrains.mps.lang.smodel.structure.Node_GetAncestorOperation" flags="nn" index="2Xjw5R" />
      <concept id="1139621453865" name="jetbrains.mps.lang.smodel.structure.Node_IsInstanceOfOperation" flags="nn" index="1mIQ4w">
        <child id="1177027386292" name="conceptArgument" index="cj9EA" />
      </concept>
      <concept id="1172008320231" name="jetbrains.mps.lang.smodel.structure.Node_IsNotNullOperation" flags="nn" index="3x8VRR" />
      <concept id="1144101972840" name="jetbrains.mps.lang.smodel.structure.OperationParm_Concept" flags="ng" index="1xMEDy">
        <child id="1207343664468" name="conceptArgument" index="ri$Ld" />
      </concept>
      <concept id="1144146199828" name="jetbrains.mps.lang.smodel.structure.Node_CopyOperation" flags="nn" index="1$rogu" />
      <concept id="1138055754698" name="jetbrains.mps.lang.smodel.structure.SNodeType" flags="in" index="3Tqbb2">
        <reference id="1138405853777" name="concept" index="ehGHo" />
      </concept>
      <concept id="1138056022639" name="jetbrains.mps.lang.smodel.structure.SPropertyAccess" flags="nn" index="3TrcHB">
        <reference id="1138056395725" name="property" index="3TsBF5" />
      </concept>
      <concept id="1138056143562" name="jetbrains.mps.lang.smodel.structure.SLinkAccess" flags="nn" index="3TrEf2">
        <reference id="1138056516764" name="link" index="3Tt5mk" />
      </concept>
    </language>
    <language id="ceab5195-25ea-4f22-9b92-103b95ca8c0c" name="jetbrains.mps.lang.core">
      <concept id="1133920641626" name="jetbrains.mps.lang.core.structure.BaseConcept" flags="ng" index="2VYdi">
        <property id="1193676396447" name="virtualPackage" index="3GE5qa" />
      </concept>
      <concept id="1169194658468" name="jetbrains.mps.lang.core.structure.INamedConcept" flags="ng" index="TrEIO">
        <property id="1169194664001" name="name" index="TrG5h" />
      </concept>
    </language>
  </registry>
  <node concept="24kQdi" id="hP3h7U4">
    <property role="3GE5qa" value="" />
    <ref role="1XX52x" to="1i04:hP3h7Gq" resolve="ConceptBehavior" />
    <node concept="3EZMnI" id="hP3h7U5" role="2wV5jI">
      <property role="3EZMnw" value="true" />
      <node concept="3EZMnI" id="hP3h7U6" role="3EZMnx">
        <property role="3EZMnw" value="false" />
        <node concept="3F0ifn" id="hP3h7U7" role="3EZMnx">
          <property role="3F0ifm" value="concept behavior" />
        </node>
        <node concept="1iCGBv" id="hP3h7U8" role="3EZMnx">
          <ref role="1NtTu8" to="1i04:hP3h7Gv" />
          <node concept="1sVBvm" id="hP3h7U9" role="1sWHZn">
            <node concept="3F0A7n" id="hP3h7Ua" role="2wV5jI">
              <property role="1Intyy" value="true" />
              <ref role="1NtTu8" to="tpck:h0TrG11" resolve="name" />
              <ref role="1k5W1q" to="tpd3:hwSE21y" resolve="ReferenceOnConcept" />
            </node>
          </node>
        </node>
        <node concept="3F0ifn" id="hP3h7Ub" role="3EZMnx">
          <property role="3F0ifm" value="{" />
          <ref role="1k5W1q" to="tpen:hFD5onb" resolve="LeftBrace" />
        </node>
        <node concept="2iRfu4" id="i2IBQIt" role="2iSdaV" />
      </node>
      <node concept="3EZMnI" id="hP3h7Ud" role="3EZMnx">
        <property role="3EZMnw" value="false" />
        <node concept="3XFhqQ" id="hP3h7Ue" role="3EZMnx" />
        <node concept="3EZMnI" id="hP3h7Uf" role="3EZMnx">
          <property role="3EZMnw" value="true" />
          <node concept="3F0ifn" id="hP3h7Ug" role="3EZMnx">
            <node concept="VPM3Z" id="hP3h7Uh" role="3F10Kt">
              <property role="VOm3f" value="false" />
            </node>
          </node>
          <node concept="3F1sOY" id="hP3h7VA" role="3EZMnx">
            <ref role="1NtTu8" to="1i04:hP3h7Gx" />
          </node>
          <node concept="3F0ifn" id="hP3h7VB" role="3EZMnx">
            <node concept="VPM3Z" id="hP3h7VC" role="3F10Kt">
              <property role="VOm3f" value="false" />
            </node>
          </node>
          <node concept="3F2HdR" id="hP3h7Wl" role="3EZMnx">
            <property role="2czwfN" value="true" />
            <ref role="1NtTu8" to="1i04:hP3h7G_" />
            <node concept="3F0ifn" id="hP3h7Wm" role="2czzBI">
              <property role="3F0ifm" value="&lt;&lt;concept methods&gt;&gt;" />
              <node concept="VechU" id="hP3h7Wn" role="3F10Kt">
                <property role="Vb096" value="lightGray" />
              </node>
            </node>
            <node concept="2iRkQZ" id="i2IBQIw" role="2czzBx" />
          </node>
          <node concept="2iRkQZ" id="i2IBQIj" role="2iSdaV" />
        </node>
        <node concept="2iRfu4" id="i2IBQHW" role="2iSdaV" />
      </node>
      <node concept="3F0ifn" id="hP3h7Wr" role="3EZMnx">
        <property role="3F0ifm" value="}" />
        <ref role="1k5W1q" to="tpen:hFD5_7H" resolve="RightBrace" />
      </node>
      <node concept="2iRkQZ" id="i2IBQI8" role="2iSdaV" />
    </node>
  </node>
  <node concept="24kQdi" id="hP3hLXV">
    <property role="3GE5qa" value="" />
    <ref role="1XX52x" to="1i04:hP3hLVH" resolve="ConceptConstructorDeclaration" />
    <node concept="3EZMnI" id="hP3hLXW" role="2wV5jI">
      <property role="3EZMnw" value="true" />
      <node concept="3F0ifn" id="hP3hLXY" role="3EZMnx">
        <property role="3F0ifm" value="constructor" />
        <ref role="1k5W1q" to="tpen:hgVS8CF" resolve="KeyWord" />
        <node concept="3$7jql" id="hP3hLXZ" role="3F10Kt">
          <property role="3$6WeP" value="0.0" />
        </node>
      </node>
      <node concept="3EZMnI" id="MTvSFwydNy" role="3EZMnx">
        <property role="S$Qs1" value="true" />
        <node concept="ljvvj" id="MTvSFwydN$" role="3F10Kt">
          <property role="VOm3f" value="true" />
        </node>
        <node concept="l2Vlx" id="MTvSFwydNz" role="2iSdaV" />
        <node concept="3F0ifn" id="hP3hLY0" role="3EZMnx">
          <property role="3F0ifm" value="{" />
          <ref role="1k5W1q" to="tpen:hFD5onb" resolve="LeftBrace" />
          <node concept="ljvvj" id="i0NchBu" role="3F10Kt">
            <property role="VOm3f" value="true" />
          </node>
        </node>
        <node concept="3F1sOY" id="hP3hLY3" role="3EZMnx">
          <ref role="1NtTu8" to="tpee:gyVODHa" />
          <node concept="lj46D" id="i0NchC0" role="3F10Kt">
            <property role="VOm3f" value="true" />
          </node>
          <node concept="ljvvj" id="i0NchC2" role="3F10Kt">
            <property role="VOm3f" value="true" />
          </node>
        </node>
        <node concept="3F0ifn" id="hP3hLY4" role="3EZMnx">
          <property role="3F0ifm" value="}" />
          <ref role="1k5W1q" to="tpen:hFD5_7H" resolve="RightBrace" />
        </node>
        <node concept="PMmxH" id="MTvSFwydND" role="AHCbl">
          <ref role="PMmxG" to="tpen:MTvSFwydN_" resolve="ConceptFunction_Folded_Component" />
        </node>
      </node>
      <node concept="l2Vlx" id="i0NchCE" role="2iSdaV" />
    </node>
  </node>
  <node concept="24kQdi" id="hP3i0w$">
    <property role="3GE5qa" value="" />
    <ref role="1XX52x" to="1i04:hP3i0lY" resolve="ConceptMethodDeclaration" />
    <node concept="3EZMnI" id="hP3i0w_" role="2wV5jI">
      <property role="3EZMnw" value="true" />
      <node concept="PMmxH" id="hWoAAyK" role="3EZMnx">
        <ref role="PMmxG" to="tpen:hNAtxlY" resolve="_DeprecatedPart" />
      </node>
      <node concept="PMmxH" id="7FDT6FiGGQd" role="3EZMnx">
        <ref role="PMmxG" to="tpen:6aS1KHf_xVK" resolve="HasAnnotation_AnnotationComponent" />
      </node>
      <node concept="3EZMnI" id="hrceH_FJUA" role="3EZMnx">
        <node concept="3F1sOY" id="hrceH_I7_X" role="3EZMnx">
          <property role="1$x2rV" value="/*package*/" />
          <ref role="1NtTu8" to="tpee:h9B3oxE" />
        </node>
        <node concept="3F0ifn" id="47BD7OhK4PH" role="3EZMnx">
          <property role="3F0ifm" value="static" />
          <ref role="1k5W1q" to="tpen:hgVS8CF" resolve="KeyWord" />
          <node concept="pkWqt" id="47BD7OhK4PI" role="pqm2j">
            <node concept="3clFbS" id="47BD7OhK4PJ" role="2VODD2">
              <node concept="3cpWs6" id="47BD7OhK4PK" role="3cqZAp">
                <node concept="2OqwBi" id="47BD7OhK4PL" role="3cqZAk">
                  <node concept="3TrcHB" id="47BD7OhK6N1" role="2OqNvi">
                    <ref role="3TsBF5" to="1i04:55xfRZxar9d" resolve="isStatic" />
                  </node>
                  <node concept="pncrf" id="47BD7OhK4PM" role="2Oq$k0" />
                </node>
              </node>
            </node>
          </node>
        </node>
        <node concept="3F0ifn" id="hrceH_I7_Y" role="3EZMnx">
          <property role="3F0ifm" value="virtual" />
          <ref role="1k5W1q" to="tpen:hgVS8CF" resolve="KeyWord" />
          <node concept="pkWqt" id="hrceH_I7_Z" role="pqm2j">
            <node concept="3clFbS" id="hrceH_I7A0" role="2VODD2">
              <node concept="3cpWs6" id="hrceH_I7A1" role="3cqZAp">
                <node concept="2OqwBi" id="hrceH_I7A2" role="3cqZAk">
                  <node concept="pncrf" id="hrceH_I7A3" role="2Oq$k0" />
                  <node concept="3TrcHB" id="hrceH_I7A4" role="2OqNvi">
                    <ref role="3TsBF5" to="1i04:hP3i0m0" resolve="isVirtual" />
                  </node>
                </node>
              </node>
            </node>
          </node>
        </node>
        <node concept="3F0ifn" id="hrceH_I7A5" role="3EZMnx">
          <property role="3F0ifm" value="abstract" />
          <ref role="1k5W1q" to="tpen:hgVS8CF" resolve="KeyWord" />
          <node concept="pkWqt" id="hrceH_I7A6" role="pqm2j">
            <node concept="3clFbS" id="hrceH_I7A7" role="2VODD2">
              <node concept="3cpWs6" id="hrceH_I7A8" role="3cqZAp">
                <node concept="2OqwBi" id="hrceH_I7A9" role="3cqZAk">
                  <node concept="pncrf" id="hrceH_I7Aa" role="2Oq$k0" />
                  <node concept="3TrcHB" id="hrceH_I7Ab" role="2OqNvi">
                    <ref role="3TsBF5" to="1i04:hP3i0m2" resolve="isAbstract" />
                  </node>
                </node>
              </node>
            </node>
          </node>
        </node>
        <node concept="3F1sOY" id="hrceH_I7Ac" role="3EZMnx">
          <ref role="1NtTu8" to="tpee:fzclF7X" />
        </node>
        <node concept="3F0A7n" id="hrceH_I7Ad" role="3EZMnx">
          <ref role="1k5W1q" to="tpen:hFD2Y0y" resolve="MethodName" />
          <ref role="1NtTu8" to="tpck:h0TrG11" resolve="name" />
          <node concept="OXEIz" id="hrceH_I7Ae" role="P5bDN">
            <node concept="1Y$tRT" id="hrceH_I7Af" role="OY2wv">
              <ref role="1Y$EBa" node="hP3JgLq" resolve="ConceptMethodDeclaration_Menu" />
            </node>
          </node>
        </node>
        <node concept="3F0ifn" id="hrceH_I7Ag" role="3EZMnx">
          <property role="3F0ifm" value="(" />
          <ref role="1k5W1q" to="tpen:hY9fg1G" resolve="LeftParenAfterName" />
        </node>
        <node concept="3F2HdR" id="hrceH_I7Ah" role="3EZMnx">
          <property role="2czwfN" value="false" />
          <property role="2czwfO" value="," />
          <ref role="1NtTu8" to="tpee:fzclF7Y" />
          <node concept="3F0ifn" id="hrceH_I7Ai" role="2czzBI">
            <node concept="VPxyj" id="hrceH_I7Aj" role="3F10Kt">
              <property role="VOm3f" value="true" />
            </node>
          </node>
          <node concept="l2Vlx" id="hrceH_I7Ak" role="2czzBx" />
        </node>
        <node concept="3F0ifn" id="hrceH_I7Al" role="3EZMnx">
          <property role="3F0ifm" value=")" />
          <ref role="1k5W1q" to="tpen:hFCSUmN" resolve="RightParen" />
        </node>
        <node concept="VPM3Z" id="hrceH_FJUB" role="3F10Kt">
          <property role="VOm3f" value="false" />
        </node>
        <node concept="l2Vlx" id="hrceH_FJUD" role="2iSdaV" />
        <node concept="3EZMnI" id="hrceH_FJV7" role="3EZMnx">
          <property role="3EZMnw" value="false" />
          <node concept="3XFhqQ" id="hrceH_FJV8" role="3EZMnx" />
          <node concept="3F0ifn" id="hrceH_FJV9" role="3EZMnx">
            <property role="3F0ifm" value="overrides" />
            <ref role="1k5W1q" to="tpen:hgVS8CF" resolve="KeyWord" />
          </node>
          <node concept="1HlG4h" id="hrceH_FJVa" role="3EZMnx">
            <node concept="1HfYo3" id="hrceH_FJVb" role="1HlULh">
              <node concept="3TQlhw" id="hrceH_FJVc" role="1Hhtcw">
                <node concept="3clFbS" id="hrceH_FJVd" role="2VODD2">
                  <node concept="3clFbF" id="hrceH_FJVe" role="3cqZAp">
                    <node concept="2OqwBi" id="hrceH_FJVf" role="3clFbG">
                      <node concept="pncrf" id="hrceH_FJVg" role="2Oq$k0" />
                      <node concept="2qgKlT" id="hrceH_FJVh" role="2OqNvi">
                        <ref role="37wK5l" to="csvn:hP3pnOc" resolve="getOverridenMethodConceptName" />
                      </node>
                    </node>
                  </node>
                </node>
              </node>
            </node>
          </node>
          <node concept="3F0ifn" id="hrceH_FJVp" role="3EZMnx">
            <property role="3F0ifm" value="." />
            <ref role="1k5W1q" to="tpen:hFDnyG9" resolve="Dot" />
          </node>
          <node concept="1iCGBv" id="hrceH_FJVq" role="3EZMnx">
            <ref role="1NtTu8" to="1i04:hP3i0lZ" />
            <node concept="1sVBvm" id="hrceH_FJVr" role="1sWHZn">
              <node concept="3F0A7n" id="hrceH_FJVs" role="2wV5jI">
                <property role="1Intyy" value="true" />
                <ref role="1NtTu8" to="tpck:h0TrG11" resolve="name" />
              </node>
            </node>
          </node>
          <node concept="pkWqt" id="hrceH_FJVt" role="pqm2j">
            <node concept="3clFbS" id="hrceH_FJVu" role="2VODD2">
              <node concept="3cpWs6" id="hrceH_FJVv" role="3cqZAp">
                <node concept="3y3z36" id="hrceH_FJVw" role="3cqZAk">
                  <node concept="10Nm6u" id="hrceH_FJVx" role="3uHU7w" />
                  <node concept="2OqwBi" id="hrceH_FJVy" role="3uHU7B">
                    <node concept="pncrf" id="hrceH_FJVz" role="2Oq$k0" />
                    <node concept="3TrEf2" id="hrceH_FJV$" role="2OqNvi">
                      <ref role="3Tt5mk" to="1i04:hP3i0lZ" />
                    </node>
                  </node>
                </node>
              </node>
            </node>
          </node>
          <node concept="VPM3Z" id="hrceH_FJV_" role="3F10Kt">
            <property role="VOm3f" value="false" />
          </node>
          <node concept="pVoyu" id="hrceH_FK0V" role="3F10Kt">
            <property role="VOm3f" value="true" />
          </node>
          <node concept="l2Vlx" id="hrceH_FJVA" role="2iSdaV" />
        </node>
        <node concept="1QoScp" id="2DQYZoTsa2j" role="3EZMnx">
          <property role="1QpmdY" value="true" />
          <node concept="pkWqt" id="2DQYZoTsa2l" role="3e4ffs">
            <node concept="3clFbS" id="2DQYZoTsa2m" role="2VODD2">
              <node concept="3clFbF" id="2DQYZoTsa2o" role="3cqZAp">
                <node concept="2OqwBi" id="2DQYZoTsa2q" role="3clFbG">
                  <node concept="pncrf" id="2DQYZoTsa2p" role="2Oq$k0" />
                  <node concept="3TrcHB" id="2DQYZoTsa2u" role="2OqNvi">
                    <ref role="3TsBF5" to="1i04:hP3i0m2" resolve="isAbstract" />
                  </node>
                </node>
              </node>
            </node>
          </node>
          <node concept="PMmxH" id="2DQYZoTsa2A" role="1QoVPY">
            <ref role="PMmxG" to="tpen:5UYpxeVafB6" resolve="BaseMethodDeclaration_BodyComponent" />
          </node>
          <node concept="3F0ifn" id="2DQYZoTsa2v" role="1QoS34">
            <property role="3F0ifm" value=";" />
            <ref role="1k5W1q" to="tpen:hFDgi_W" resolve="Semicolon" />
          </node>
        </node>
      </node>
      <node concept="3F0ifn" id="hP3i0yc" role="3EZMnx">
        <node concept="VPM3Z" id="hP3i0yd" role="3F10Kt">
          <property role="VOm3f" value="false" />
        </node>
      </node>
      <node concept="2iRkQZ" id="i2IBQIg" role="2iSdaV" />
    </node>
    <node concept="3EZMnI" id="hP3i0ye" role="6VMZX">
      <property role="3EZMnw" value="true" />
      <property role="3EZMnz" value="true" />
      <node concept="3EZMnI" id="55xfRZxbG4T" role="3EZMnx">
        <property role="3EZMnw" value="false" />
        <node concept="VPM3Z" id="55xfRZxbG5c" role="3F10Kt">
          <property role="VOm3f" value="false" />
        </node>
        <node concept="3F0ifn" id="55xfRZxbG5d" role="3EZMnx">
          <property role="3F0ifm" value="static" />
        </node>
        <node concept="3F0A7n" id="55xfRZxbG5e" role="3EZMnx">
          <ref role="1NtTu8" to="1i04:55xfRZxar9d" resolve="isStatic" />
        </node>
        <node concept="l2Vlx" id="55xfRZxbG5f" role="2iSdaV" />
        <node concept="ljvvj" id="55xfRZxbG5g" role="3F10Kt">
          <property role="VOm3f" value="true" />
        </node>
      </node>
      <node concept="3EZMnI" id="hP3i0yf" role="3EZMnx">
        <property role="3EZMnw" value="false" />
        <node concept="pkWqt" id="hP3i0yi" role="pqm2j">
          <node concept="3clFbS" id="hP3i0yj" role="2VODD2">
            <node concept="3cpWs6" id="hP3i0yk" role="3cqZAp">
              <node concept="1Wc70l" id="35Yw9K_Dssv" role="3cqZAk">
                <node concept="3fqX7Q" id="35Yw9K_Dssy" role="3uHU7w">
                  <node concept="2OqwBi" id="35Yw9K_Dss_" role="3fr31v">
                    <node concept="pncrf" id="35Yw9K_Dss$" role="2Oq$k0" />
                    <node concept="3TrcHB" id="35Yw9K_DssD" role="2OqNvi">
                      <ref role="3TsBF5" to="1i04:hP3i0m2" resolve="isAbstract" />
                    </node>
                  </node>
                </node>
                <node concept="1Wc70l" id="hP3i0yl" role="3uHU7B">
                  <node concept="3fqX7Q" id="792lxQEh6T5" role="3uHU7B">
                    <node concept="2OqwBi" id="792lxQEh6T7" role="3fr31v">
                      <node concept="2OqwBi" id="792lxQEh6T8" role="2Oq$k0">
                        <node concept="pncrf" id="792lxQEh6T9" role="2Oq$k0" />
                        <node concept="3TrEf2" id="792lxQEh6Ta" role="2OqNvi">
                          <ref role="3Tt5mk" to="tpee:h9B3oxE" />
                        </node>
                      </node>
                      <node concept="1mIQ4w" id="792lxQEh6Tb" role="2OqNvi">
                        <node concept="chp4Y" id="792lxQEh6Tc" role="cj9EA">
                          <ref role="cht4Q" to="tpee:gFTm6Wc" resolve="PrivateVisibility" />
                        </node>
                      </node>
                    </node>
                  </node>
                  <node concept="3clFbC" id="hP3i0ym" role="3uHU7w">
                    <node concept="2OqwBi" id="hP3i0yo" role="3uHU7B">
                      <node concept="pncrf" id="hP3i0yp" role="2Oq$k0" />
                      <node concept="3TrEf2" id="hP3i0yq" role="2OqNvi">
                        <ref role="3Tt5mk" to="1i04:hP3i0lZ" />
                      </node>
                    </node>
                    <node concept="10Nm6u" id="hP3i0yn" role="3uHU7w" />
                  </node>
                </node>
              </node>
            </node>
          </node>
        </node>
        <node concept="VPM3Z" id="hP3i0yv" role="3F10Kt">
          <property role="VOm3f" value="false" />
        </node>
        <node concept="3F0ifn" id="hP3i0yg" role="3EZMnx">
          <property role="3F0ifm" value="virtual" />
        </node>
        <node concept="3F0A7n" id="hP3i0yh" role="3EZMnx">
          <ref role="1NtTu8" to="1i04:hP3i0m0" resolve="isVirtual" />
        </node>
        <node concept="l2Vlx" id="i0NcxkY" role="2iSdaV" />
        <node concept="ljvvj" id="i0NcxkZ" role="3F10Kt">
          <property role="VOm3f" value="true" />
        </node>
      </node>
      <node concept="3EZMnI" id="hP3i0yM" role="3EZMnx">
        <property role="3EZMnw" value="false" />
        <node concept="pkWqt" id="hP3i0yP" role="pqm2j">
          <node concept="3clFbS" id="hP3i0yQ" role="2VODD2">
            <node concept="3cpWs6" id="hP3i0yR" role="3cqZAp">
              <node concept="2OqwBi" id="hP3i0yS" role="3cqZAk">
                <node concept="pncrf" id="hP3i0yT" role="2Oq$k0" />
                <node concept="3TrcHB" id="hP3i0yU" role="2OqNvi">
                  <ref role="3TsBF5" to="1i04:hP3i0m0" resolve="isVirtual" />
                </node>
              </node>
            </node>
          </node>
        </node>
        <node concept="VPM3Z" id="hP3i0yV" role="3F10Kt">
          <property role="VOm3f" value="false" />
        </node>
        <node concept="3F0ifn" id="hP3i0yN" role="3EZMnx">
          <property role="3F0ifm" value="abstract" />
        </node>
        <node concept="3F0A7n" id="hP3i0yO" role="3EZMnx">
          <ref role="1NtTu8" to="1i04:hP3i0m2" resolve="isAbstract" />
        </node>
        <node concept="l2Vlx" id="i0Ncxl3" role="2iSdaV" />
        <node concept="ljvvj" id="i0Ncxl4" role="3F10Kt">
          <property role="VOm3f" value="true" />
        </node>
      </node>
      <node concept="3EZMnI" id="hP3i0yW" role="3EZMnx">
        <property role="3EZMnw" value="false" />
        <node concept="pkWqt" id="hP3i0z1" role="pqm2j">
          <node concept="3clFbS" id="hP3i0z2" role="2VODD2">
            <node concept="3clFbJ" id="7ENSpmw_Vvq" role="3cqZAp">
              <node concept="3clFbS" id="7ENSpmw_Vvt" role="3clFbx">
                <node concept="3cpWs6" id="7ENSpmw_Yfs" role="3cqZAp">
                  <node concept="3clFbT" id="7ENSpmw_YvW" role="3cqZAk">
                    <property role="3clFbU" value="false" />
                  </node>
                </node>
              </node>
              <node concept="3clFbC" id="7ENSpmw_XRG" role="3clFbw">
                <node concept="10Nm6u" id="7ENSpmw_XYP" role="3uHU7w" />
                <node concept="2OqwBi" id="7ENSpmw_VWm" role="3uHU7B">
                  <node concept="pncrf" id="7ENSpmw_VJS" role="2Oq$k0" />
                  <node concept="3TrEf2" id="7ENSpmw_WPd" role="2OqNvi">
                    <ref role="3Tt5mk" to="1i04:hP3i0lZ" />
                  </node>
                </node>
              </node>
            </node>
            <node concept="3cpWs6" id="hP3i0z3" role="3cqZAp">
              <node concept="1Wc70l" id="hP3i0z4" role="3cqZAk">
                <node concept="3fqX7Q" id="792lxQEhauN" role="3uHU7w">
                  <node concept="2OqwBi" id="792lxQEhauP" role="3fr31v">
                    <node concept="2OqwBi" id="792lxQEhauQ" role="2Oq$k0">
                      <node concept="pncrf" id="792lxQEhauR" role="2Oq$k0" />
                      <node concept="3TrEf2" id="792lxQEhauS" role="2OqNvi">
                        <ref role="3Tt5mk" to="tpee:h9B3oxE" />
                      </node>
                    </node>
                    <node concept="1mIQ4w" id="792lxQEhauT" role="2OqNvi">
                      <node concept="chp4Y" id="792lxQEhauU" role="cj9EA">
                        <ref role="cht4Q" to="tpee:gFTm6Wc" resolve="PrivateVisibility" />
                      </node>
                    </node>
                  </node>
                </node>
                <node concept="3fqX7Q" id="hP3i0z9" role="3uHU7B">
                  <node concept="2OqwBi" id="hP3i0za" role="3fr31v">
                    <node concept="pncrf" id="hP3i0zb" role="2Oq$k0" />
                    <node concept="3TrcHB" id="hP3i0zc" role="2OqNvi">
                      <ref role="3TsBF5" to="1i04:hP3i0m0" resolve="isVirtual" />
                    </node>
                  </node>
                </node>
              </node>
            </node>
          </node>
        </node>
        <node concept="VPM3Z" id="hP3i0zd" role="3F10Kt">
          <property role="VOm3f" value="false" />
        </node>
        <node concept="3F0ifn" id="hP3i0yX" role="3EZMnx">
          <property role="3F0ifm" value="overrides" />
        </node>
        <node concept="1iCGBv" id="hP3i0yY" role="3EZMnx">
          <property role="1$x2rV" value="&lt;no overriden method&gt;" />
          <ref role="1NtTu8" to="1i04:hP3i0lZ" />
          <node concept="1sVBvm" id="hP3i0yZ" role="1sWHZn">
            <node concept="3F0A7n" id="hP3i0z0" role="2wV5jI">
              <property role="1Intyy" value="true" />
              <ref role="1NtTu8" to="tpck:h0TrG11" resolve="name" />
            </node>
          </node>
        </node>
        <node concept="l2Vlx" id="i0Ncxl6" role="2iSdaV" />
        <node concept="ljvvj" id="i0Ncxl7" role="3F10Kt">
          <property role="VOm3f" value="true" />
        </node>
      </node>
      <node concept="3F0ifn" id="hWp8Wf2" role="3EZMnx">
        <property role="3F0ifm" value="annotations:" />
        <node concept="ljvvj" id="i0Ncxl8" role="3F10Kt">
          <property role="VOm3f" value="true" />
        </node>
      </node>
      <node concept="3F2HdR" id="hWp8Wf4" role="3EZMnx">
        <property role="2czwfN" value="false" />
        <ref role="1NtTu8" to="tpee:hiAJF2X" />
        <node concept="ljvvj" id="i0Ncxl9" role="3F10Kt">
          <property role="VOm3f" value="true" />
        </node>
        <node concept="l2Vlx" id="i1BHJLG" role="2czzBx" />
        <node concept="pj6Ft" id="i1BHJLH" role="3F10Kt">
          <property role="VOm3f" value="true" />
        </node>
      </node>
      <node concept="l2Vlx" id="i0Ncxlc" role="2iSdaV" />
    </node>
  </node>
  <node concept="24kQdi" id="hP3iAmb">
    <property role="3GE5qa" value="" />
    <ref role="1XX52x" to="1i04:hP3iAlo" resolve="SuperNodeExpression" />
    <node concept="3EZMnI" id="hP3iAmc" role="2wV5jI">
      <property role="3EZMnw" value="false" />
      <node concept="3F0ifn" id="hP3iAmd" role="3EZMnx">
        <property role="3F0ifm" value="super" />
        <node concept="VechU" id="hP3iAme" role="3F10Kt">
          <property role="Vb096" value="DARK_BLUE" />
        </node>
        <node concept="3$7jql" id="hP3iAmf" role="3F10Kt">
          <property role="3$6WeP" value="0.0" />
        </node>
      </node>
      <node concept="3EZMnI" id="4Aab3e74BYD" role="3EZMnx">
        <node concept="3F0ifn" id="4Aab3e74BYK" role="3EZMnx">
          <property role="3F0ifm" value="&lt;" />
          <ref role="1k5W1q" to="tpen:hY9fg1G" resolve="LeftParenAfterName" />
        </node>
        <node concept="1iCGBv" id="4Aab3e74BYM" role="3EZMnx">
          <ref role="1NtTu8" to="1i04:4Aab3e74B10" />
          <node concept="1sVBvm" id="4Aab3e74BYN" role="1sWHZn">
            <node concept="3F0A7n" id="4Aab3e74BYP" role="2wV5jI">
              <property role="1Intyy" value="true" />
              <ref role="1NtTu8" to="tpck:h0TrG11" resolve="name" />
            </node>
          </node>
        </node>
        <node concept="3F0ifn" id="4Aab3e74BYS" role="3EZMnx">
          <property role="3F0ifm" value="&gt;" />
          <ref role="1k5W1q" to="tpen:hFCSUmN" resolve="RightParen" />
        </node>
        <node concept="VPM3Z" id="4Aab3e74BYE" role="3F10Kt">
          <property role="VOm3f" value="false" />
        </node>
        <node concept="l2Vlx" id="4Aab3e74BYG" role="2iSdaV" />
        <node concept="pkWqt" id="4Aab3e74BYT" role="pqm2j">
          <node concept="3clFbS" id="4Aab3e74BYU" role="2VODD2">
            <node concept="3clFbF" id="4Aab3e74E4N" role="3cqZAp">
              <node concept="2OqwBi" id="4Aab3e74E4U" role="3clFbG">
                <node concept="2OqwBi" id="4Aab3e74E4P" role="2Oq$k0">
                  <node concept="pncrf" id="4Aab3e74E4O" role="2Oq$k0" />
                  <node concept="3TrEf2" id="4Aab3e74E4T" role="2OqNvi">
                    <ref role="3Tt5mk" to="1i04:4Aab3e74B10" />
                  </node>
                </node>
                <node concept="3x8VRR" id="4Aab3e74E4Y" role="2OqNvi" />
              </node>
            </node>
          </node>
        </node>
      </node>
      <node concept="l2Vlx" id="i0NcFrK" role="2iSdaV" />
    </node>
    <node concept="3EZMnI" id="4Aab3e74E50" role="6VMZX">
      <node concept="3F0ifn" id="4Aab3e74E53" role="3EZMnx">
        <property role="3F0ifm" value="super concept:" />
      </node>
      <node concept="1iCGBv" id="4Aab3e74E55" role="3EZMnx">
        <ref role="1NtTu8" to="1i04:4Aab3e74B10" />
        <node concept="1sVBvm" id="4Aab3e74E56" role="1sWHZn">
          <node concept="3F0A7n" id="4Aab3e74E58" role="2wV5jI">
            <property role="1Intyy" value="true" />
            <ref role="1NtTu8" to="tpck:h0TrG11" resolve="name" />
          </node>
        </node>
      </node>
      <node concept="l2Vlx" id="4Aab3e74E52" role="2iSdaV" />
    </node>
  </node>
  <node concept="24kQdi" id="hP3iPQV">
    <property role="3GE5qa" value="" />
    <ref role="1XX52x" to="1i04:hP3iPJx" resolve="ThisNodeExpression" />
    <node concept="3EZMnI" id="hP3iPQW" role="2wV5jI">
      <property role="3EZMnw" value="false" />
      <node concept="3F0ifn" id="hP3iPQX" role="3EZMnx">
        <property role="3F0ifm" value="this" />
        <ref role="1k5W1q" to="tpen:hgVS8CF" resolve="KeyWord" />
        <node concept="VPxyj" id="hRLTOf4" role="3F10Kt">
          <property role="VOm3f" value="true" />
        </node>
      </node>
      <node concept="l2Vlx" id="i0NcGy9" role="2iSdaV" />
    </node>
  </node>
  <node concept="1Xs25n" id="hP3JgLq">
    <property role="TrG5h" value="ConceptMethodDeclaration_Menu" />
    <property role="3GE5qa" value="" />
    <ref role="1XX52x" to="1i04:hP3i0lY" resolve="ConceptMethodDeclaration" />
    <node concept="OXEIz" id="hP3JgLr" role="1XvlXI">
      <node concept="1ou48o" id="hP3JgLs" role="OY2wv">
        <node concept="3GJtP1" id="hP3JgLt" role="1ou48n">
          <node concept="3clFbS" id="hP3JgLu" role="2VODD2">
            <node concept="3clFbF" id="hP3JgLv" role="3cqZAp">
              <node concept="2OqwBi" id="hP3JgLw" role="3clFbG">
                <node concept="2OqwBi" id="hP3JgLx" role="2Oq$k0">
                  <node concept="2OqwBi" id="hP3JgLy" role="2Oq$k0">
                    <node concept="3GMtW1" id="hP3JgLz" role="2Oq$k0" />
                    <node concept="2Xjw5R" id="hP3JgL$" role="2OqNvi">
                      <node concept="1xMEDy" id="hP3JgL_" role="1xVPHs">
                        <node concept="chp4Y" id="hP3JgLA" role="ri$Ld">
                          <ref role="cht4Q" to="1i04:hP3h7Gq" resolve="ConceptBehavior" />
                        </node>
                      </node>
                    </node>
                  </node>
                  <node concept="3TrEf2" id="hP3JgLB" role="2OqNvi">
                    <ref role="3Tt5mk" to="1i04:hP3h7Gv" />
                  </node>
                </node>
                <node concept="2qgKlT" id="hP3JgLC" role="2OqNvi">
                  <ref role="37wK5l" to="tpcn:hEwILHM" resolve="getVirtualConceptMethods" />
                </node>
              </node>
            </node>
          </node>
        </node>
        <node concept="1ouSdP" id="hP3JgLE" role="1ou48m">
          <node concept="3clFbS" id="hP3JgLF" role="2VODD2">
            <node concept="3clFbF" id="hP3JgLG" role="3cqZAp">
              <node concept="2OqwBi" id="hP3JgLH" role="3clFbG">
                <node concept="2OqwBi" id="hP3JgLI" role="2Oq$k0">
                  <node concept="3GMtW1" id="hP3JgLJ" role="2Oq$k0" />
                  <node concept="3TrEf2" id="hP3JgLK" role="2OqNvi">
                    <ref role="3Tt5mk" to="1i04:hP3i0lZ" />
                  </node>
                </node>
                <node concept="2oxUTD" id="hP3JgLL" role="2OqNvi">
                  <node concept="3GLrbK" id="hP3JgLM" role="2oxUTC" />
                </node>
              </node>
            </node>
            <node concept="3clFbF" id="hP3JgLN" role="3cqZAp">
              <node concept="2OqwBi" id="hP3JgLO" role="3clFbG">
                <node concept="2OqwBi" id="hP3JgLP" role="2Oq$k0">
                  <node concept="3GMtW1" id="hP3JgLQ" role="2Oq$k0" />
                  <node concept="3TrEf2" id="hP3JgLR" role="2OqNvi">
                    <ref role="3Tt5mk" to="tpee:h9B3oxE" />
                  </node>
                </node>
                <node concept="2oxUTD" id="hP3JgLS" role="2OqNvi">
                  <node concept="2OqwBi" id="hP3JgLT" role="2oxUTC">
                    <node concept="2OqwBi" id="hP3JgLU" role="2Oq$k0">
                      <node concept="3GLrbK" id="hP3JgLV" role="2Oq$k0" />
                      <node concept="3TrEf2" id="hP3JgLW" role="2OqNvi">
                        <ref role="3Tt5mk" to="tpee:h9B3oxE" />
                      </node>
                    </node>
                    <node concept="1$rogu" id="hP3JgLX" role="2OqNvi" />
                  </node>
                </node>
              </node>
            </node>
            <node concept="3clFbF" id="i$PM5v9XHY" role="3cqZAp">
              <node concept="2OqwBi" id="i$PM5va05q" role="3clFbG">
                <node concept="2OqwBi" id="i$PM5v9XQj" role="2Oq$k0">
                  <node concept="3GMtW1" id="i$PM5v9XHW" role="2Oq$k0" />
                  <node concept="3TrcHB" id="i$PM5v9ZfM" role="2OqNvi">
                    <ref role="3TsBF5" to="1i04:55xfRZxar9d" resolve="isStatic" />
                  </node>
                </node>
                <node concept="tyxLq" id="i$PM5va0tz" role="2OqNvi">
                  <node concept="2OqwBi" id="i$PM5va0HQ" role="tz02z">
                    <node concept="3GLrbK" id="i$PM5va0y2" role="2Oq$k0" />
                    <node concept="3TrcHB" id="i$PM5va26x" role="2OqNvi">
                      <ref role="3TsBF5" to="1i04:55xfRZxar9d" resolve="isStatic" />
                    </node>
                  </node>
                </node>
              </node>
            </node>
          </node>
        </node>
        <node concept="3Tqbb2" id="hP3JgLY" role="1eyP2E">
          <ref role="ehGHo" to="1i04:hP3i0lY" resolve="ConceptMethodDeclaration" />
        </node>
      </node>
    </node>
  </node>
  <node concept="24kQdi" id="5CBvrhXldT0">
    <property role="3GE5qa" value="" />
    <ref role="1XX52x" to="1i04:5CBvrhXldvx" resolve="LocalBehaviorMethodCall" />
    <node concept="3EZMnI" id="5CBvrhXldT2" role="2wV5jI">
      <property role="3EZMnw" value="false" />
      <node concept="1iCGBv" id="5CBvrhXldT3" role="3EZMnx">
        <ref role="1NtTu8" to="1i04:5CBvrhXldvy" />
        <node concept="1sVBvm" id="5CBvrhXldT4" role="1sWHZn">
          <node concept="3F0A7n" id="5CBvrhXldT5" role="2wV5jI">
            <property role="1Intyy" value="true" />
            <ref role="1NtTu8" to="tpck:h0TrG11" resolve="name" />
            <ref role="1k5W1q" to="tpen:6H7j4iMM5Cm" resolve="MPSMethodCall" />
            <node concept="3$7jql" id="5CBvrhXldT6" role="3F10Kt">
              <property role="3$6WeP" value="0.0" />
            </node>
          </node>
        </node>
      </node>
      <node concept="PMmxH" id="5CBvrhXldT7" role="3EZMnx">
        <ref role="PMmxG" to="tpen:h5njIub" resolve="IMethodCall_actualArguments" />
        <node concept="11L4FC" id="5CBvrhXldT8" role="3F10Kt">
          <property role="VOm3f" value="true" />
        </node>
      </node>
      <node concept="l2Vlx" id="5CBvrhXldT9" role="2iSdaV" />
      <node concept="2$oqgb" id="5CBvrhXldTa" role="3F10Kt">
        <ref role="Bvoe9" to="tpen:47XGxT8xUGh" resolve="BaseMethodParameterInformationQuery" />
      </node>
    </node>
  </node>
  <node concept="24kQdi" id="zUeTq_2wot">
    <ref role="1XX52x" to="1i04:zUeTq_2vSb" resolve="InternalConceptDeclarationsHolder" />
    <node concept="3EZMnI" id="zUeTq_2zC1" role="2wV5jI">
      <node concept="3EZMnI" id="zUeTq_2zC5" role="3EZMnx">
        <node concept="VPM3Z" id="zUeTq_2zC6" role="3F10Kt">
          <property role="VOm3f" value="false" />
        </node>
        <node concept="3F0ifn" id="zUeTq_2zCa" role="3EZMnx">
          <property role="3F0ifm" value="name" />
        </node>
        <node concept="3F0A7n" id="zUeTq_2zCb" role="3EZMnx">
          <ref role="1NtTu8" to="tpck:h0TrG11" resolve="name" />
        </node>
        <node concept="2iRfu4" id="zUeTq_2zC8" role="2iSdaV" />
      </node>
      <node concept="3F2HdR" id="zUeTq_2zCd" role="3EZMnx">
        <ref role="1NtTu8" to="1i04:zUeTq_2vSc" />
        <node concept="2iRkQZ" id="zUeTq_2zCe" role="2czzBx" />
        <node concept="VPM3Z" id="zUeTq_2zCf" role="3F10Kt">
          <property role="VOm3f" value="false" />
        </node>
      </node>
      <node concept="2iRkQZ" id="zUeTq_2zC2" role="2iSdaV" />
    </node>
  </node>
  <node concept="24kQdi" id="zUeTq_2zBz">
    <ref role="1XX52x" to="1i04:zUeTq_2vS9" resolve="InternalConceptDeclarationReference" />
    <node concept="3EZMnI" id="zUeTq_2zBP" role="2wV5jI">
      <node concept="3F0ifn" id="zUeTq_2zBT" role="3EZMnx">
        <property role="3F0ifm" value="Concept" />
      </node>
      <node concept="1iCGBv" id="zUeTq_2zBU" role="3EZMnx">
        <ref role="1NtTu8" to="1i04:zUeTq_2vSa" />
        <node concept="1sVBvm" id="zUeTq_2zBV" role="1sWHZn">
          <node concept="3F0A7n" id="zUeTq_2zBX" role="2wV5jI">
            <property role="1Intyy" value="true" />
            <ref role="1NtTu8" to="tpck:h0TrG11" resolve="name" />
          </node>
        </node>
      </node>
      <node concept="2iRfu4" id="zUeTq_2zBR" role="2iSdaV" />
    </node>
  </node>
</model>

