<?xml version="1.0" encoding="UTF-8"?>
<model ref="r:b2afece2-23e8-4a6f-a918-9d117d839057(jetbrains.mps.lang.behavior.findUsages)">
  <persistence version="9" />
  <languages>
    <use id="83888646-71ce-4f1c-9c53-c54016f6ad4f" name="jetbrains.mps.baseLanguage.collections" version="0" />
    <use id="64d34fcd-ad02-4e73-aff8-a581124c2e30" name="jetbrains.mps.lang.findUsages" version="0" />
    <use id="13744753-c81f-424a-9c1b-cf8943bf4e86" name="jetbrains.mps.lang.sharedConcepts" version="0" />
    <use id="7866978e-a0f0-4cc7-81bc-4d213d9375e1" name="jetbrains.mps.lang.smodel" version="4" />
    <use id="f3061a53-9226-4cc5-a443-f952ceaf5816" name="jetbrains.mps.baseLanguage" version="4" />
    <devkit ref="fbc25dd2-5da4-483a-8b19-70928e1b62d7(jetbrains.mps.devkit.general-purpose)" />
  </languages>
  <imports>
    <import index="1i04" ref="r:3270011d-8b2d-4938-8dff-d256a759e017(jetbrains.mps.lang.behavior.structure)" />
    <import index="tpci" ref="r:00000000-0000-4000-0000-011c8959028e(jetbrains.mps.lang.structure.findUsages)" />
    <import index="yyf4" ref="8865b7a8-5271-43d3-884c-6fd1d9cfdd34/java:org.jetbrains.mps.openapi.util(MPS.OpenAPI/)" />
  </imports>
  <registry>
    <language id="13744753-c81f-424a-9c1b-cf8943bf4e86" name="jetbrains.mps.lang.sharedConcepts">
      <concept id="558005353046640020" name="jetbrains.mps.lang.sharedConcepts.structure.ConceptFunctionParameter_progressMonitor" flags="ng" index="24CIHX" />
    </language>
    <language id="f3061a53-9226-4cc5-a443-f952ceaf5816" name="jetbrains.mps.baseLanguage">
      <concept id="4836112446988635817" name="jetbrains.mps.baseLanguage.structure.UndefinedType" flags="in" index="2jxLKc" />
      <concept id="1202948039474" name="jetbrains.mps.baseLanguage.structure.InstanceMethodCallOperation" flags="nn" index="liA8E" />
      <concept id="1154032098014" name="jetbrains.mps.baseLanguage.structure.AbstractLoopStatement" flags="nn" index="2LF5Ji">
        <child id="1154032183016" name="body" index="2LFqv$" />
      </concept>
      <concept id="1197027756228" name="jetbrains.mps.baseLanguage.structure.DotExpression" flags="nn" index="2OqwBi">
        <child id="1197027771414" name="operand" index="2Oq$k0" />
        <child id="1197027833540" name="operation" index="2OqNvi" />
      </concept>
      <concept id="1137021947720" name="jetbrains.mps.baseLanguage.structure.ConceptFunction" flags="in" index="2VMwT0">
        <child id="1137022507850" name="body" index="2VODD2" />
      </concept>
      <concept id="1070475926800" name="jetbrains.mps.baseLanguage.structure.StringLiteral" flags="nn" index="Xl_RD">
        <property id="1070475926801" name="value" index="Xl_RC" />
      </concept>
      <concept id="1068431474542" name="jetbrains.mps.baseLanguage.structure.VariableDeclaration" flags="ng" index="33uBYm">
        <child id="1068431790190" name="initializer" index="33vP2m" />
      </concept>
      <concept id="1068498886296" name="jetbrains.mps.baseLanguage.structure.VariableReference" flags="nn" index="37vLTw">
        <reference id="1068581517664" name="variableDeclaration" index="3cqZAo" />
      </concept>
      <concept id="4972933694980447171" name="jetbrains.mps.baseLanguage.structure.BaseVariableDeclaration" flags="ng" index="19Szcq">
        <child id="5680397130376446158" name="type" index="1tU5fm" />
      </concept>
      <concept id="1068580123152" name="jetbrains.mps.baseLanguage.structure.EqualsExpression" flags="nn" index="3clFbC" />
      <concept id="1068580123155" name="jetbrains.mps.baseLanguage.structure.ExpressionStatement" flags="nn" index="3clFbF">
        <child id="1068580123156" name="expression" index="3clFbG" />
      </concept>
      <concept id="1068580123157" name="jetbrains.mps.baseLanguage.structure.Statement" flags="nn" index="3clFbH" />
      <concept id="1068580123159" name="jetbrains.mps.baseLanguage.structure.IfStatement" flags="nn" index="3clFbJ">
        <child id="1068580123160" name="condition" index="3clFbw" />
        <child id="1068580123161" name="ifTrue" index="3clFbx" />
      </concept>
      <concept id="1068580123136" name="jetbrains.mps.baseLanguage.structure.StatementList" flags="sn" stub="5293379017992965193" index="3clFbS">
        <child id="1068581517665" name="statement" index="3cqZAp" />
      </concept>
      <concept id="1068580320020" name="jetbrains.mps.baseLanguage.structure.IntegerConstant" flags="nn" index="3cmrfG">
        <property id="1068580320021" name="value" index="3cmrfH" />
      </concept>
      <concept id="1068581242878" name="jetbrains.mps.baseLanguage.structure.ReturnStatement" flags="nn" index="3cpWs6">
        <child id="1068581517676" name="expression" index="3cqZAk" />
      </concept>
      <concept id="1068581242864" name="jetbrains.mps.baseLanguage.structure.LocalVariableDeclarationStatement" flags="nn" index="3cpWs8">
        <child id="1068581242865" name="localVariableDeclaration" index="3cpWs9" />
      </concept>
      <concept id="1068581242863" name="jetbrains.mps.baseLanguage.structure.LocalVariableDeclaration" flags="nr" index="3cpWsn" />
      <concept id="1204053956946" name="jetbrains.mps.baseLanguage.structure.IMethodCall" flags="ng" index="1ndlxa">
        <reference id="1068499141037" name="baseMethodDeclaration" index="37wK5l" />
        <child id="1068499141038" name="actualArgument" index="37wK5m" />
      </concept>
      <concept id="1107535904670" name="jetbrains.mps.baseLanguage.structure.ClassifierType" flags="in" index="3uibUv">
        <reference id="1107535924139" name="classifier" index="3uigEE" />
      </concept>
      <concept id="1081773326031" name="jetbrains.mps.baseLanguage.structure.BinaryOperation" flags="nn" index="3uHJSO">
        <child id="1081773367579" name="rightExpression" index="3uHU7w" />
        <child id="1081773367580" name="leftExpression" index="3uHU7B" />
      </concept>
      <concept id="1080120340718" name="jetbrains.mps.baseLanguage.structure.AndExpression" flags="nn" index="1Wc70l" />
    </language>
    <language id="fd392034-7849-419d-9071-12563d152375" name="jetbrains.mps.baseLanguage.closures">
      <concept id="1199569711397" name="jetbrains.mps.baseLanguage.closures.structure.ClosureLiteral" flags="nn" index="1bVj0M">
        <child id="1199569906740" name="parameter" index="1bW2Oz" />
        <child id="1199569916463" name="body" index="1bW5cS" />
      </concept>
    </language>
    <language id="7866978e-a0f0-4cc7-81bc-4d213d9375e1" name="jetbrains.mps.lang.smodel">
      <concept id="1177026924588" name="jetbrains.mps.lang.smodel.structure.RefConcept_Reference" flags="nn" index="chp4Y">
        <reference id="1177026940964" name="conceptDeclaration" index="cht4Q" />
      </concept>
      <concept id="2396822768958367367" name="jetbrains.mps.lang.smodel.structure.AbstractTypeCastExpression" flags="nn" index="$5XWr">
        <reference id="6733348108486823428" name="concept" index="1m5ApE" />
        <child id="6733348108486823193" name="leftExpression" index="1m5AlR" />
      </concept>
      <concept id="1145383075378" name="jetbrains.mps.lang.smodel.structure.SNodeListType" flags="in" index="2I9FWS" />
      <concept id="1139613262185" name="jetbrains.mps.lang.smodel.structure.Node_GetParentOperation" flags="nn" index="1mfA1w" />
      <concept id="1139621453865" name="jetbrains.mps.lang.smodel.structure.Node_IsInstanceOfOperation" flags="nn" index="1mIQ4w">
        <child id="1177027386292" name="conceptArgument" index="cj9EA" />
      </concept>
      <concept id="1140137987495" name="jetbrains.mps.lang.smodel.structure.SNodeTypeCastExpression" flags="nn" index="1PxgMI" />
      <concept id="1138055754698" name="jetbrains.mps.lang.smodel.structure.SNodeType" flags="in" index="3Tqbb2">
        <reference id="1138405853777" name="concept" index="ehGHo" />
      </concept>
      <concept id="1138056143562" name="jetbrains.mps.lang.smodel.structure.SLinkAccess" flags="nn" index="3TrEf2">
        <reference id="1138056516764" name="link" index="3Tt5mk" />
      </concept>
    </language>
    <language id="ceab5195-25ea-4f22-9b92-103b95ca8c0c" name="jetbrains.mps.lang.core">
      <concept id="1133920641626" name="jetbrains.mps.lang.core.structure.BaseConcept" flags="ng" index="2VYdi">
        <property id="1193676396447" name="virtualPackage" index="3GE5qa" />
      </concept>
      <concept id="1169194658468" name="jetbrains.mps.lang.core.structure.INamedConcept" flags="ng" index="TrEIO">
        <property id="1169194664001" name="name" index="TrG5h" />
      </concept>
    </language>
    <language id="64d34fcd-ad02-4e73-aff8-a581124c2e30" name="jetbrains.mps.lang.findUsages">
      <concept id="1197044488852" name="jetbrains.mps.lang.findUsages.structure.IsApplicableBlock" flags="in" index="2PqlI2" />
      <concept id="1197044488845" name="jetbrains.mps.lang.findUsages.structure.FinderDeclaration" flags="ig" index="2PqlIr">
        <property id="1197385993272" name="description" index="39L4OI" />
      </concept>
      <concept id="1197044488840" name="jetbrains.mps.lang.findUsages.structure.FindBlock" flags="in" index="2PqlIu" />
      <concept id="1197386047362" name="jetbrains.mps.lang.findUsages.structure.ConceptFunctionParameter_node" flags="nn" index="39LhUk" />
      <concept id="1218978086674" name="jetbrains.mps.lang.findUsages.structure.AbstractFinderDeclaration" flags="ng" index="3gKnS9">
        <reference id="1218978181697" name="forConcept" index="3gKJdq" />
        <child id="1218978125365" name="findFunction" index="3gKxsI" />
        <child id="1218978125364" name="isApplicableFunction" index="3gKxsJ" />
      </concept>
      <concept id="1206197741569" name="jetbrains.mps.lang.findUsages.structure.ExecuteFinderExpression" flags="nn" index="3mZe$p">
        <reference id="1206197741576" name="finder" index="3mZe$g" />
        <child id="1206197741572" name="queryNode" index="3mZe$s" />
        <child id="8441762775553277663" name="monitor" index="3JOdhr" />
      </concept>
      <concept id="1200242336756" name="jetbrains.mps.lang.findUsages.structure.ResultStatement" flags="nn" index="1O1abz">
        <child id="1200242376867" name="foundNode" index="1O1k6O" />
      </concept>
    </language>
    <language id="83888646-71ce-4f1c-9c53-c54016f6ad4f" name="jetbrains.mps.baseLanguage.collections">
      <concept id="1204796164442" name="jetbrains.mps.baseLanguage.collections.structure.InternalSequenceOperation" flags="nn" index="23sCx2">
        <child id="1204796294226" name="closure" index="23t8la" />
      </concept>
      <concept id="1153943597977" name="jetbrains.mps.baseLanguage.collections.structure.ForEachStatement" flags="nn" index="2Gpval">
        <child id="1153944400369" name="variable" index="2Gsz3X" />
        <child id="1153944424730" name="inputSequence" index="2GsD0m" />
      </concept>
      <concept id="1153944193378" name="jetbrains.mps.baseLanguage.collections.structure.ForEachVariable" flags="nr" index="2GrKxI" />
      <concept id="1153944233411" name="jetbrains.mps.baseLanguage.collections.structure.ForEachVariableReference" flags="nn" index="2GrUjf">
        <reference id="1153944258490" name="variable" index="2Gs0qQ" />
      </concept>
      <concept id="1203518072036" name="jetbrains.mps.baseLanguage.collections.structure.SmartClosureParameterDeclaration" flags="ig" index="Rh6nW" />
      <concept id="1162935959151" name="jetbrains.mps.baseLanguage.collections.structure.GetSizeOperation" flags="nn" index="34oBXx" />
      <concept id="1202120902084" name="jetbrains.mps.baseLanguage.collections.structure.WhereOperation" flags="nn" index="3zZkjj" />
    </language>
  </registry>
  <node concept="2PqlIr" id="hReyrfg">
    <property role="39L4OI" value="Overriding Methods" />
    <property role="TrG5h" value="OverridingMethods" />
    <property role="3GE5qa" value="" />
    <ref role="3gKJdq" to="1i04:hP3i0lY" resolve="ConceptMethodDeclaration" />
    <node concept="2PqlIu" id="hReyrfh" role="3gKxsI">
      <node concept="3clFbS" id="hReyrfi" role="2VODD2">
        <node concept="3clFbF" id="7kBaCir6$64" role="3cqZAp">
          <node concept="2OqwBi" id="7kBaCir6$i3" role="3clFbG">
            <node concept="liA8E" id="7kBaCir6$XQ" role="2OqNvi">
              <ref role="37wK5l" to="yyf4:~ProgressMonitor.start(java.lang.String,int):void" resolve="start" />
              <node concept="Xl_RD" id="7kBaCir6AqR" role="37wK5m">
                <property role="Xl_RC" value="Overriding methods" />
              </node>
              <node concept="3cmrfG" id="7kBaCir6$YJ" role="37wK5m">
                <property role="3cmrfH" value="10" />
              </node>
            </node>
            <node concept="24CIHX" id="7kBaCir6$61" role="2Oq$k0" />
          </node>
        </node>
        <node concept="3cpWs8" id="7kBaCir6z8q" role="3cqZAp">
          <node concept="3cpWsn" id="7kBaCir6z8r" role="3cpWs9">
            <property role="TrG5h" value="nodes" />
            <node concept="2I9FWS" id="7kBaCir6z8p" role="1tU5fm" />
            <node concept="3mZe$p" id="7kBaCir6z8s" role="33vP2m">
              <ref role="3mZe$g" to="tpci:hroFk9u" resolve="NodeUsages" />
              <node concept="2OqwBi" id="7kBaCir6B8R" role="3JOdhr">
                <node concept="liA8E" id="7kBaCir6BWr" role="2OqNvi">
                  <ref role="37wK5l" to="yyf4:~ProgressMonitor.subTask(int):org.jetbrains.mps.openapi.util.ProgressMonitor" resolve="subTask" />
                  <node concept="3cmrfG" id="7kBaCir6C4I" role="37wK5m">
                    <property role="3cmrfH" value="2" />
                  </node>
                </node>
                <node concept="24CIHX" id="7kBaCir6zw0" role="2Oq$k0" />
              </node>
              <node concept="39LhUk" id="7kBaCir6z8t" role="3mZe$s" />
            </node>
          </node>
        </node>
        <node concept="3clFbH" id="7kBaCir6EN0" role="3cqZAp" />
        <node concept="3cpWs8" id="7kBaCir6Fmk" role="3cqZAp">
          <node concept="3cpWsn" id="7kBaCir6Fml" role="3cpWs9">
            <property role="TrG5h" value="sm" />
            <node concept="2OqwBi" id="7kBaCir6F$m" role="33vP2m">
              <node concept="liA8E" id="7kBaCir6Ggo" role="2OqNvi">
                <ref role="37wK5l" to="yyf4:~ProgressMonitor.subTask(int):org.jetbrains.mps.openapi.util.ProgressMonitor" resolve="subTask" />
                <node concept="3cmrfG" id="7kBaCir6GhG" role="37wK5m">
                  <property role="3cmrfH" value="8" />
                </node>
              </node>
              <node concept="24CIHX" id="7kBaCir6Fw8" role="2Oq$k0" />
            </node>
            <node concept="3uibUv" id="7kBaCir6Fmm" role="1tU5fm">
              <ref role="3uigEE" to="yyf4:~ProgressMonitor" resolve="ProgressMonitor" />
            </node>
          </node>
        </node>
        <node concept="3cpWs8" id="7_o7O5UGusJ" role="3cqZAp">
          <node concept="3cpWsn" id="7_o7O5UGusK" role="3cpWs9">
            <property role="TrG5h" value="n" />
            <node concept="3Tqbb2" id="7_o7O5UGusg" role="1tU5fm">
              <ref role="ehGHo" to="1i04:hP3i0lY" resolve="ConceptMethodDeclaration" />
            </node>
            <node concept="39LhUk" id="7_o7O5UGusL" role="33vP2m" />
          </node>
        </node>
        <node concept="3clFbF" id="7kBaCir6GLr" role="3cqZAp">
          <node concept="2OqwBi" id="7kBaCir6GZ9" role="3clFbG">
            <node concept="liA8E" id="7kBaCir6Htb" role="2OqNvi">
              <ref role="37wK5l" to="yyf4:~ProgressMonitor.start(java.lang.String,int):void" resolve="start" />
              <node concept="Xl_RD" id="7kBaCir6Hx8" role="37wK5m">
                <property role="Xl_RC" value="" />
              </node>
              <node concept="2OqwBi" id="7kBaCir6QYX" role="37wK5m">
                <node concept="34oBXx" id="7kBaCir6Sdx" role="2OqNvi" />
                <node concept="2OqwBi" id="7kBaCir6Ilm" role="2Oq$k0">
                  <node concept="3zZkjj" id="7kBaCir6Mbc" role="2OqNvi">
                    <node concept="1bVj0M" id="7kBaCir6Mbe" role="23t8la">
                      <node concept="3clFbS" id="7kBaCir6Mbf" role="1bW5cS">
                        <node concept="3clFbF" id="7kBaCir6MUL" role="3cqZAp">
                          <node concept="1Wc70l" id="7kBaCir6MUN" role="3clFbG">
                            <node concept="3clFbC" id="7kBaCir6MUO" role="3uHU7w">
                              <node concept="37vLTw" id="7_o7O5UGusM" role="3uHU7w">
                                <ref role="3cqZAo" node="7_o7O5UGusK" resolve="n" />
                              </node>
                              <node concept="2OqwBi" id="7kBaCir6MUQ" role="3uHU7B">
                                <node concept="1PxgMI" id="7kBaCir6MUR" role="2Oq$k0">
                                  <ref role="1m5ApE" to="1i04:hP3i0lY" resolve="ConceptMethodDeclaration" />
                                  <node concept="37vLTw" id="7kBaCir6Px0" role="1m5AlR">
                                    <ref role="3cqZAo" node="7kBaCir6Mbg" resolve="it" />
                                  </node>
                                </node>
                                <node concept="3TrEf2" id="7kBaCir6MUT" role="2OqNvi">
                                  <ref role="3Tt5mk" to="1i04:hP3i0lZ" />
                                </node>
                              </node>
                            </node>
                            <node concept="2OqwBi" id="7kBaCir6MUU" role="3uHU7B">
                              <node concept="37vLTw" id="7kBaCir6OvO" role="2Oq$k0">
                                <ref role="3cqZAo" node="7kBaCir6Mbg" resolve="it" />
                              </node>
                              <node concept="1mIQ4w" id="7kBaCir6MUW" role="2OqNvi">
                                <node concept="chp4Y" id="7kBaCir6MUX" role="cj9EA">
                                  <ref role="cht4Q" to="1i04:hP3i0lY" resolve="ConceptMethodDeclaration" />
                                </node>
                              </node>
                            </node>
                          </node>
                        </node>
                      </node>
                      <node concept="Rh6nW" id="7kBaCir6Mbg" role="1bW2Oz">
                        <property role="TrG5h" value="it" />
                        <node concept="2jxLKc" id="7kBaCir6Mbh" role="1tU5fm" />
                      </node>
                    </node>
                  </node>
                  <node concept="37vLTw" id="7kBaCir6HyT" role="2Oq$k0">
                    <ref role="3cqZAo" node="7kBaCir6z8r" resolve="nodes" />
                  </node>
                </node>
              </node>
            </node>
            <node concept="37vLTw" id="7kBaCir6GLq" role="2Oq$k0">
              <ref role="3cqZAo" node="7kBaCir6Fml" resolve="sm" />
            </node>
          </node>
        </node>
        <node concept="2Gpval" id="hReyJt4" role="3cqZAp">
          <node concept="37vLTw" id="7kBaCir6z8u" role="2GsD0m">
            <ref role="3cqZAo" node="7kBaCir6z8r" resolve="nodes" />
          </node>
          <node concept="2GrKxI" id="hReyJt5" role="2Gsz3X">
            <property role="TrG5h" value="nodeUsage" />
          </node>
          <node concept="3clFbS" id="hReyJt8" role="2LFqv$">
            <node concept="3clFbJ" id="hReyJt9" role="3cqZAp">
              <node concept="3clFbS" id="hReyJta" role="3clFbx">
                <node concept="1O1abz" id="hReyJtb" role="3cqZAp">
                  <node concept="2GrUjf" id="hReyJtc" role="1O1k6O">
                    <ref role="2Gs0qQ" node="hReyJt5" resolve="nodeUsage" />
                  </node>
                </node>
                <node concept="2Gpval" id="hRe$3so" role="3cqZAp">
                  <node concept="2GrKxI" id="hRe$3sp" role="2Gsz3X">
                    <property role="TrG5h" value="overriding" />
                  </node>
                  <node concept="3clFbS" id="hRe$3sr" role="2LFqv$">
                    <node concept="1O1abz" id="hRe$eSZ" role="3cqZAp">
                      <node concept="2GrUjf" id="hRe$fl_" role="1O1k6O">
                        <ref role="2Gs0qQ" node="hRe$3sp" resolve="overriding" />
                      </node>
                    </node>
                  </node>
                  <node concept="3mZe$p" id="hRe$8Cv" role="2GsD0m">
                    <ref role="3mZe$g" node="hReyrfg" resolve="OverridingMethods" />
                    <node concept="2OqwBi" id="7kBaCir6UfF" role="3JOdhr">
                      <node concept="liA8E" id="7kBaCir6VaG" role="2OqNvi">
                        <ref role="37wK5l" to="yyf4:~ProgressMonitor.subTask(int):org.jetbrains.mps.openapi.util.ProgressMonitor" resolve="subTask" />
                        <node concept="3cmrfG" id="7kBaCir6VqJ" role="37wK5m">
                          <property role="3cmrfH" value="1" />
                        </node>
                      </node>
                      <node concept="37vLTw" id="7kBaCir6Ubv" role="2Oq$k0">
                        <ref role="3cqZAo" node="7kBaCir6Fml" resolve="sm" />
                      </node>
                    </node>
                    <node concept="2GrUjf" id="hRe$aRR" role="3mZe$s">
                      <ref role="2Gs0qQ" node="hReyJt5" resolve="nodeUsage" />
                    </node>
                  </node>
                </node>
              </node>
              <node concept="1Wc70l" id="hRezQ1g" role="3clFbw">
                <node concept="3clFbC" id="hRezVSz" role="3uHU7w">
                  <node concept="39LhUk" id="hRezWwT" role="3uHU7w" />
                  <node concept="2OqwBi" id="hRezTEF" role="3uHU7B">
                    <node concept="1PxgMI" id="hRezSTM" role="2Oq$k0">
                      <ref role="1m5ApE" to="1i04:hP3i0lY" resolve="ConceptMethodDeclaration" />
                      <node concept="2GrUjf" id="hRezS3$" role="1m5AlR">
                        <ref role="2Gs0qQ" node="hReyJt5" resolve="nodeUsage" />
                      </node>
                    </node>
                    <node concept="3TrEf2" id="hRezVx$" role="2OqNvi">
                      <ref role="3Tt5mk" to="1i04:hP3i0lZ" />
                    </node>
                  </node>
                </node>
                <node concept="2OqwBi" id="hRezGvt" role="3uHU7B">
                  <node concept="2GrUjf" id="hRezGaF" role="2Oq$k0">
                    <ref role="2Gs0qQ" node="hReyJt5" resolve="nodeUsage" />
                  </node>
                  <node concept="1mIQ4w" id="hRezH2s" role="2OqNvi">
                    <node concept="chp4Y" id="hRezPiA" role="cj9EA">
                      <ref role="cht4Q" to="1i04:hP3i0lY" resolve="ConceptMethodDeclaration" />
                    </node>
                  </node>
                </node>
              </node>
            </node>
          </node>
        </node>
        <node concept="3clFbF" id="7kBaCir6WNT" role="3cqZAp">
          <node concept="2OqwBi" id="7kBaCir6X98" role="3clFbG">
            <node concept="liA8E" id="7kBaCir6XIF" role="2OqNvi">
              <ref role="37wK5l" to="yyf4:~ProgressMonitor.done():void" resolve="done" />
            </node>
            <node concept="37vLTw" id="7kBaCir6WNS" role="2Oq$k0">
              <ref role="3cqZAo" node="7kBaCir6Fml" resolve="sm" />
            </node>
          </node>
        </node>
      </node>
    </node>
    <node concept="2PqlI2" id="2JJFdSR0VJg" role="3gKxsJ">
      <node concept="3clFbS" id="2JJFdSR0VJh" role="2VODD2">
        <node concept="3cpWs6" id="5x2F67Y4ugt" role="3cqZAp">
          <node concept="2OqwBi" id="5x2F67Y4ugv" role="3cqZAk">
            <node concept="2OqwBi" id="5x2F67Y4ugw" role="2Oq$k0">
              <node concept="39LhUk" id="5x2F67Y4ugx" role="2Oq$k0" />
              <node concept="1mfA1w" id="5x2F67Y4ugy" role="2OqNvi" />
            </node>
            <node concept="1mIQ4w" id="5x2F67Y4ugz" role="2OqNvi">
              <node concept="chp4Y" id="5x2F67Y4ug$" role="cj9EA">
                <ref role="cht4Q" to="1i04:hP3h7Gq" resolve="ConceptBehavior" />
              </node>
            </node>
          </node>
        </node>
      </node>
    </node>
  </node>
</model>

