<?xml version="1.0" encoding="UTF-8"?>
<model ref="r:d37b3f1e-89c7-4936-a6de-207bf5ae7643(jetbrains.mps.baseLanguage.math.constraints)">
  <persistence version="9" />
  <languages>
    <use id="83888646-71ce-4f1c-9c53-c54016f6ad4f" name="jetbrains.mps.baseLanguage.collections" version="0" />
    <use id="3f4bc5f5-c6c1-4a28-8b10-c83066ffa4a1" name="jetbrains.mps.lang.constraints" version="0" />
    <use id="7a5dda62-9140-4668-ab76-d5ed1746f2b2" name="jetbrains.mps.lang.typesystem" version="0" />
    <use id="7866978e-a0f0-4cc7-81bc-4d213d9375e1" name="jetbrains.mps.lang.smodel" version="4" />
    <use id="f3061a53-9226-4cc5-a443-f952ceaf5816" name="jetbrains.mps.baseLanguage" version="4" />
    <devkit ref="fbc25dd2-5da4-483a-8b19-70928e1b62d7(jetbrains.mps.devkit.general-purpose)" />
  </languages>
  <imports>
    <import index="39kg" ref="r:cb1a36c8-1ffb-415a-aba8-afb9dc042d1b(jetbrains.mps.baseLanguage.math.structure)" />
    <import index="r3rn" ref="r:feb4a112-d0b1-417f-b9b7-9058aab93ce6(jetbrains.mps.baseLanguage.math.behavior)" />
  </imports>
  <registry>
    <language id="f3061a53-9226-4cc5-a443-f952ceaf5816" name="jetbrains.mps.baseLanguage">
      <concept id="1082485599095" name="jetbrains.mps.baseLanguage.structure.BlockStatement" flags="nn" index="9aQIb">
        <child id="1082485599096" name="statements" index="9aQI4" />
      </concept>
      <concept id="1215693861676" name="jetbrains.mps.baseLanguage.structure.BaseAssignmentExpression" flags="nn" index="d038R">
        <child id="1068498886297" name="rValue" index="37vLTx" />
        <child id="1068498886295" name="lValue" index="37vLTJ" />
      </concept>
      <concept id="1076505808687" name="jetbrains.mps.baseLanguage.structure.WhileStatement" flags="nn" index="2$JKZl">
        <child id="1076505808688" name="condition" index="2$JKZa" />
      </concept>
      <concept id="1154032098014" name="jetbrains.mps.baseLanguage.structure.AbstractLoopStatement" flags="nn" index="2LF5Ji">
        <child id="1154032183016" name="body" index="2LFqv$" />
      </concept>
      <concept id="1197027756228" name="jetbrains.mps.baseLanguage.structure.DotExpression" flags="nn" index="2OqwBi">
        <child id="1197027771414" name="operand" index="2Oq$k0" />
        <child id="1197027833540" name="operation" index="2OqNvi" />
      </concept>
      <concept id="1145552977093" name="jetbrains.mps.baseLanguage.structure.GenericNewExpression" flags="nn" index="2ShNRf">
        <child id="1145553007750" name="creator" index="2ShVmc" />
      </concept>
      <concept id="1137021947720" name="jetbrains.mps.baseLanguage.structure.ConceptFunction" flags="in" index="2VMwT0">
        <child id="1137022507850" name="body" index="2VODD2" />
      </concept>
      <concept id="1070534058343" name="jetbrains.mps.baseLanguage.structure.NullLiteral" flags="nn" index="10Nm6u" />
      <concept id="1068431474542" name="jetbrains.mps.baseLanguage.structure.VariableDeclaration" flags="ng" index="33uBYm">
        <child id="1068431790190" name="initializer" index="33vP2m" />
      </concept>
      <concept id="1068498886296" name="jetbrains.mps.baseLanguage.structure.VariableReference" flags="nn" index="37vLTw">
        <reference id="1068581517664" name="variableDeclaration" index="3cqZAo" />
      </concept>
      <concept id="1068498886294" name="jetbrains.mps.baseLanguage.structure.AssignmentExpression" flags="nn" index="37vLTI" />
      <concept id="4972933694980447171" name="jetbrains.mps.baseLanguage.structure.BaseVariableDeclaration" flags="ng" index="19Szcq">
        <child id="5680397130376446158" name="type" index="1tU5fm" />
      </concept>
      <concept id="1068580123155" name="jetbrains.mps.baseLanguage.structure.ExpressionStatement" flags="nn" index="3clFbF">
        <child id="1068580123156" name="expression" index="3clFbG" />
      </concept>
      <concept id="1068580123159" name="jetbrains.mps.baseLanguage.structure.IfStatement" flags="nn" index="3clFbJ">
        <child id="1082485599094" name="ifFalseStatement" index="9aQIa" />
        <child id="1068580123160" name="condition" index="3clFbw" />
        <child id="1068580123161" name="ifTrue" index="3clFbx" />
      </concept>
      <concept id="1068580123136" name="jetbrains.mps.baseLanguage.structure.StatementList" flags="sn" stub="5293379017992965193" index="3clFbS">
        <child id="1068581517665" name="statement" index="3cqZAp" />
      </concept>
      <concept id="1068580123137" name="jetbrains.mps.baseLanguage.structure.BooleanConstant" flags="nn" index="3clFbT">
        <property id="1068580123138" name="value" index="3clFbU" />
      </concept>
      <concept id="1068581242878" name="jetbrains.mps.baseLanguage.structure.ReturnStatement" flags="nn" index="3cpWs6">
        <child id="1068581517676" name="expression" index="3cqZAk" />
      </concept>
      <concept id="1068581242864" name="jetbrains.mps.baseLanguage.structure.LocalVariableDeclarationStatement" flags="nn" index="3cpWs8">
        <child id="1068581242865" name="localVariableDeclaration" index="3cpWs9" />
      </concept>
      <concept id="1068581242863" name="jetbrains.mps.baseLanguage.structure.LocalVariableDeclaration" flags="nr" index="3cpWsn" />
      <concept id="1081516740877" name="jetbrains.mps.baseLanguage.structure.NotExpression" flags="nn" index="3fqX7Q">
        <child id="1081516765348" name="expression" index="3fr31v" />
      </concept>
      <concept id="1204053956946" name="jetbrains.mps.baseLanguage.structure.IMethodCall" flags="ng" index="1ndlxa">
        <reference id="1068499141037" name="baseMethodDeclaration" index="37wK5l" />
        <child id="1068499141038" name="actualArgument" index="37wK5m" />
      </concept>
      <concept id="1081773326031" name="jetbrains.mps.baseLanguage.structure.BinaryOperation" flags="nn" index="3uHJSO">
        <child id="1081773367579" name="rightExpression" index="3uHU7w" />
        <child id="1081773367580" name="leftExpression" index="3uHU7B" />
      </concept>
      <concept id="1073239437375" name="jetbrains.mps.baseLanguage.structure.NotEqualsExpression" flags="nn" index="3y3z36" />
    </language>
    <language id="3f4bc5f5-c6c1-4a28-8b10-c83066ffa4a1" name="jetbrains.mps.lang.constraints">
      <concept id="1148934636683" name="jetbrains.mps.lang.constraints.structure.ConceptParameter_ReferentSearchScope_enclosingNode" flags="nn" index="21POm0" />
      <concept id="1202989531578" name="jetbrains.mps.lang.constraints.structure.ConstraintFunction_CanBeAChild" flags="in" index="nKS2y" />
      <concept id="1202989658459" name="jetbrains.mps.lang.constraints.structure.ConstraintFunctionParameter_parentNode" flags="nn" index="nLn13" />
      <concept id="1213093968558" name="jetbrains.mps.lang.constraints.structure.ConceptConstraints" flags="ng" index="1M2fIO">
        <reference id="1213093996982" name="concept" index="1M2myG" />
        <child id="1213100494875" name="referent" index="1Mr941" />
        <child id="1213106463729" name="canBeChild" index="1MLUbF" />
      </concept>
      <concept id="1148684180339" name="jetbrains.mps.lang.constraints.structure.ConstraintFunction_ReferentSearchScope_Factory" flags="in" index="1MUpDS" />
      <concept id="1148687176410" name="jetbrains.mps.lang.constraints.structure.NodeReferentConstraint" flags="ng" index="1N5Pfh">
        <reference id="1148687202698" name="applicableLink" index="1N5Vy1" />
        <child id="1148687345559" name="searchScopeFactory" index="1N6uqs" />
      </concept>
    </language>
    <language id="7a5dda62-9140-4668-ab76-d5ed1746f2b2" name="jetbrains.mps.lang.typesystem">
      <concept id="1177514343197" name="jetbrains.mps.lang.typesystem.structure.MatchStatement" flags="nn" index="DkJCf">
        <child id="1177514347409" name="item" index="DkKE3" />
        <child id="1177514369598" name="expression" index="DkQcG" />
      </concept>
      <concept id="1177514840044" name="jetbrains.mps.lang.typesystem.structure.MatchStatementItem" flags="ng" index="DmCVY">
        <child id="1177514849858" name="condition" index="DmFtg" />
        <child id="1177514864202" name="ifTrue" index="DmIXo" />
      </concept>
      <concept id="1176544042499" name="jetbrains.mps.lang.typesystem.structure.Node_TypeOperation" flags="nn" index="3JvlWi" />
      <concept id="1174642788531" name="jetbrains.mps.lang.typesystem.structure.ConceptReference" flags="ig" index="1YaCAy">
        <reference id="1174642800329" name="concept" index="1YaFvo" />
      </concept>
      <concept id="1174650418652" name="jetbrains.mps.lang.typesystem.structure.ApplicableNodeReference" flags="nn" index="1YBJjd">
        <reference id="1174650432090" name="applicableNode" index="1YBMHb" />
      </concept>
    </language>
    <language id="7866978e-a0f0-4cc7-81bc-4d213d9375e1" name="jetbrains.mps.lang.smodel">
      <concept id="1177026924588" name="jetbrains.mps.lang.smodel.structure.RefConcept_Reference" flags="nn" index="chp4Y">
        <reference id="1177026940964" name="conceptDeclaration" index="cht4Q" />
      </concept>
      <concept id="1138411891628" name="jetbrains.mps.lang.smodel.structure.SNodeOperation" flags="nn" index="eCIE_">
        <child id="1144104376918" name="parameter" index="1xVPHs" />
      </concept>
      <concept id="1179409122411" name="jetbrains.mps.lang.smodel.structure.Node_ConceptMethodCall" flags="nn" index="2qgKlT" />
      <concept id="2396822768958367367" name="jetbrains.mps.lang.smodel.structure.AbstractTypeCastExpression" flags="nn" index="$5XWr">
        <reference id="6733348108486823428" name="concept" index="1m5ApE" />
        <child id="6733348108486823193" name="leftExpression" index="1m5AlR" />
      </concept>
      <concept id="1145383075378" name="jetbrains.mps.lang.smodel.structure.SNodeListType" flags="in" index="2I9FWS">
        <reference id="1145383142433" name="elementConcept" index="2I9WkF" />
      </concept>
      <concept id="1145567426890" name="jetbrains.mps.lang.smodel.structure.SNodeListCreator" flags="nn" index="2T8Vx0">
        <child id="1145567471833" name="createdType" index="2T96Bj" />
      </concept>
      <concept id="1171407110247" name="jetbrains.mps.lang.smodel.structure.Node_GetAncestorOperation" flags="nn" index="2Xjw5R" />
      <concept id="1139621453865" name="jetbrains.mps.lang.smodel.structure.Node_IsInstanceOfOperation" flags="nn" index="1mIQ4w">
        <child id="1177027386292" name="conceptArgument" index="cj9EA" />
      </concept>
      <concept id="1144100932627" name="jetbrains.mps.lang.smodel.structure.OperationParm_Inclusion" flags="ng" index="1xIGOp" />
      <concept id="1144101972840" name="jetbrains.mps.lang.smodel.structure.OperationParm_Concept" flags="ng" index="1xMEDy">
        <child id="1207343664468" name="conceptArgument" index="ri$Ld" />
      </concept>
      <concept id="1140137987495" name="jetbrains.mps.lang.smodel.structure.SNodeTypeCastExpression" flags="nn" index="1PxgMI" />
      <concept id="1138055754698" name="jetbrains.mps.lang.smodel.structure.SNodeType" flags="in" index="3Tqbb2">
        <reference id="1138405853777" name="concept" index="ehGHo" />
      </concept>
      <concept id="1138056143562" name="jetbrains.mps.lang.smodel.structure.SLinkAccess" flags="nn" index="3TrEf2">
        <reference id="1138056516764" name="link" index="3Tt5mk" />
      </concept>
    </language>
    <language id="ceab5195-25ea-4f22-9b92-103b95ca8c0c" name="jetbrains.mps.lang.core">
      <concept id="1133920641626" name="jetbrains.mps.lang.core.structure.BaseConcept" flags="ng" index="2VYdi">
        <property id="1193676396447" name="virtualPackage" index="3GE5qa" />
      </concept>
      <concept id="1169194658468" name="jetbrains.mps.lang.core.structure.INamedConcept" flags="ng" index="TrEIO">
        <property id="1169194664001" name="name" index="TrG5h" />
      </concept>
    </language>
    <language id="83888646-71ce-4f1c-9c53-c54016f6ad4f" name="jetbrains.mps.baseLanguage.collections">
      <concept id="540871147943773365" name="jetbrains.mps.baseLanguage.collections.structure.SingleArgumentSequenceOperation" flags="nn" index="25WWJ4">
        <child id="540871147943773366" name="argument" index="25WWJ7" />
      </concept>
      <concept id="1160612413312" name="jetbrains.mps.baseLanguage.collections.structure.AddElementOperation" flags="nn" index="TSZUe" />
    </language>
  </registry>
  <node concept="1M2fIO" id="5pgF0P2gf9J">
    <property role="3GE5qa" value="matrix" />
    <ref role="1M2myG" to="39kg:5pgF0P2gf9i" resolve="MatrixInitializerIndexReference" />
    <node concept="1N5Pfh" id="5pgF0P2gf9M" role="1Mr941">
      <ref role="1N5Vy1" to="39kg:5pgF0P2gf9P" />
      <node concept="1MUpDS" id="5pgF0P2gf9N" role="1N6uqs">
        <node concept="3clFbS" id="5pgF0P2gf9O" role="2VODD2">
          <node concept="3cpWs8" id="5pgF0P2gi_h" role="3cqZAp">
            <node concept="3cpWsn" id="5pgF0P2gi_i" role="3cpWs9">
              <property role="TrG5h" value="n" />
              <node concept="3Tqbb2" id="5pgF0P2gi_j" role="1tU5fm">
                <ref role="ehGHo" to="39kg:5pgF0P2jl51" resolve="MatrixOrVectorInitializer" />
              </node>
              <node concept="2OqwBi" id="5pgF0P2gi_y" role="33vP2m">
                <node concept="21POm0" id="5pgF0P2h0Mz" role="2Oq$k0" />
                <node concept="2Xjw5R" id="5pgF0P2gi_A" role="2OqNvi">
                  <node concept="1xMEDy" id="5pgF0P2gi_B" role="1xVPHs">
                    <node concept="chp4Y" id="5pgF0P2jld9" role="ri$Ld">
                      <ref role="cht4Q" to="39kg:5pgF0P2jl51" resolve="MatrixOrVectorInitializer" />
                    </node>
                  </node>
                  <node concept="1xIGOp" id="5pgF0P2h0MA" role="1xVPHs" />
                </node>
              </node>
            </node>
          </node>
          <node concept="3cpWs8" id="5pgF0P2gi_r" role="3cqZAp">
            <node concept="3cpWsn" id="5pgF0P2gi_s" role="3cpWs9">
              <property role="TrG5h" value="indices" />
              <node concept="2I9FWS" id="5pgF0P2gi_t" role="1tU5fm">
                <ref role="2I9WkF" to="39kg:5pgF0P2gf9l" resolve="MatrixInitializerIndex" />
              </node>
              <node concept="2ShNRf" id="5pgF0P2gi_v" role="33vP2m">
                <node concept="2T8Vx0" id="5pgF0P2gi_w" role="2ShVmc">
                  <node concept="2I9FWS" id="5pgF0P2gi_x" role="2T96Bj">
                    <ref role="2I9WkF" to="39kg:5pgF0P2gf9l" resolve="MatrixInitializerIndex" />
                  </node>
                </node>
              </node>
            </node>
          </node>
          <node concept="2$JKZl" id="5pgF0P2giAA" role="3cqZAp">
            <node concept="3y3z36" id="5pgF0P2giAE" role="2$JKZa">
              <node concept="10Nm6u" id="5pgF0P2giAH" role="3uHU7w" />
              <node concept="37vLTw" id="3GM_nagTAjS" role="3uHU7B">
                <ref role="3cqZAo" node="5pgF0P2gi_i" resolve="n" />
              </node>
            </node>
            <node concept="3clFbS" id="5pgF0P2giAC" role="2LFqv$">
              <node concept="DkJCf" id="5pgF0P2jldf" role="3cqZAp">
                <node concept="37vLTw" id="3GM_nagTAd3" role="DkQcG">
                  <ref role="3cqZAo" node="5pgF0P2gi_i" resolve="n" />
                </node>
                <node concept="DmCVY" id="5pgF0P2jldh" role="DkKE3">
                  <node concept="1YaCAy" id="5pgF0P2jldl" role="DmFtg">
                    <property role="TrG5h" value="mi" />
                    <ref role="1YaFvo" to="39kg:5pgF0P2ga18" resolve="MatrixInitializer" />
                  </node>
                  <node concept="3clFbS" id="5pgF0P2jldj" role="DmIXo">
                    <node concept="3clFbF" id="5pgF0P2jldq" role="3cqZAp">
                      <node concept="2OqwBi" id="5pgF0P2jldr" role="3clFbG">
                        <node concept="37vLTw" id="3GM_nagTAkM" role="2Oq$k0">
                          <ref role="3cqZAo" node="5pgF0P2gi_s" resolve="indices" />
                        </node>
                        <node concept="TSZUe" id="5pgF0P2jldt" role="2OqNvi">
                          <node concept="2OqwBi" id="5pgF0P2jldu" role="25WWJ7">
                            <node concept="1YBJjd" id="5pgF0P2jldE" role="2Oq$k0">
                              <ref role="1YBMHb" node="5pgF0P2jldl" resolve="mi" />
                            </node>
                            <node concept="3TrEf2" id="5pgF0P2jldw" role="2OqNvi">
                              <ref role="3Tt5mk" to="39kg:5pgF0P2gf9s" />
                            </node>
                          </node>
                        </node>
                      </node>
                    </node>
                    <node concept="3clFbF" id="5pgF0P2jldx" role="3cqZAp">
                      <node concept="2OqwBi" id="5pgF0P2jldy" role="3clFbG">
                        <node concept="37vLTw" id="3GM_nagTti_" role="2Oq$k0">
                          <ref role="3cqZAo" node="5pgF0P2gi_s" resolve="indices" />
                        </node>
                        <node concept="TSZUe" id="5pgF0P2jld$" role="2OqNvi">
                          <node concept="2OqwBi" id="5pgF0P2jld_" role="25WWJ7">
                            <node concept="1YBJjd" id="5pgF0P2jldG" role="2Oq$k0">
                              <ref role="1YBMHb" node="5pgF0P2jldl" resolve="mi" />
                            </node>
                            <node concept="3TrEf2" id="5pgF0P2jldB" role="2OqNvi">
                              <ref role="3Tt5mk" to="39kg:5pgF0P2gf9r" />
                            </node>
                          </node>
                        </node>
                      </node>
                    </node>
                  </node>
                </node>
                <node concept="DmCVY" id="5pgF0P2jldm" role="DkKE3">
                  <node concept="1YaCAy" id="5pgF0P2jldp" role="DmFtg">
                    <property role="TrG5h" value="vi" />
                    <ref role="1YaFvo" to="39kg:5pgF0P2jgYP" resolve="VectorInitializer" />
                  </node>
                  <node concept="3clFbS" id="5pgF0P2jldo" role="DmIXo">
                    <node concept="3clFbF" id="5pgF0P2jldI" role="3cqZAp">
                      <node concept="2OqwBi" id="5pgF0P2jldK" role="3clFbG">
                        <node concept="37vLTw" id="3GM_nagT$1n" role="2Oq$k0">
                          <ref role="3cqZAo" node="5pgF0P2gi_s" resolve="indices" />
                        </node>
                        <node concept="TSZUe" id="5pgF0P2jldO" role="2OqNvi">
                          <node concept="2OqwBi" id="5pgF0P2jldT" role="25WWJ7">
                            <node concept="1YBJjd" id="5pgF0P2jldR" role="2Oq$k0">
                              <ref role="1YBMHb" node="5pgF0P2jldp" resolve="vi" />
                            </node>
                            <node concept="3TrEf2" id="5pgF0P2jldY" role="2OqNvi">
                              <ref role="3Tt5mk" to="39kg:5pgF0P2jgYR" />
                            </node>
                          </node>
                        </node>
                      </node>
                    </node>
                  </node>
                </node>
              </node>
              <node concept="3clFbF" id="5pgF0P2giAW" role="3cqZAp">
                <node concept="37vLTI" id="5pgF0P2giAX" role="3clFbG">
                  <node concept="2OqwBi" id="5pgF0P2giAY" role="37vLTx">
                    <node concept="37vLTw" id="3GM_nagTubP" role="2Oq$k0">
                      <ref role="3cqZAo" node="5pgF0P2gi_i" resolve="n" />
                    </node>
                    <node concept="2Xjw5R" id="5pgF0P2giB0" role="2OqNvi">
                      <node concept="1xMEDy" id="5pgF0P2giB1" role="1xVPHs">
                        <node concept="chp4Y" id="5pgF0P2jle0" role="ri$Ld">
                          <ref role="cht4Q" to="39kg:5pgF0P2jl51" resolve="MatrixOrVectorInitializer" />
                        </node>
                      </node>
                    </node>
                  </node>
                  <node concept="37vLTw" id="3GM_nagTwni" role="37vLTJ">
                    <ref role="3cqZAo" node="5pgF0P2gi_i" resolve="n" />
                  </node>
                </node>
              </node>
            </node>
          </node>
          <node concept="3cpWs6" id="5pgF0P2giAy" role="3cqZAp">
            <node concept="37vLTw" id="3GM_nagTyhY" role="3cqZAk">
              <ref role="3cqZAo" node="5pgF0P2gi_s" resolve="indices" />
            </node>
          </node>
        </node>
      </node>
    </node>
  </node>
  <node concept="1M2fIO" id="hZx0D9e">
    <ref role="1M2myG" to="39kg:hZwQhih" resolve="MathSymbolIndexReference" />
    <node concept="1N5Pfh" id="i0O8r$E" role="1Mr941">
      <ref role="1N5Vy1" to="39kg:hZwQlJv" />
      <node concept="1MUpDS" id="i0OawKz" role="1N6uqs">
        <node concept="3clFbS" id="i0OawK$" role="2VODD2">
          <node concept="3cpWs8" id="i0OkNri" role="3cqZAp">
            <node concept="3cpWsn" id="i0OkNrj" role="3cpWs9">
              <property role="TrG5h" value="ms" />
              <node concept="3Tqbb2" id="i0OkNrk" role="1tU5fm">
                <ref role="ehGHo" to="39kg:hZwMxyp" resolve="MathSymbol" />
              </node>
              <node concept="2OqwBi" id="i0OkSxj" role="33vP2m">
                <node concept="21POm0" id="i0OkSxk" role="2Oq$k0" />
                <node concept="2Xjw5R" id="i0OkSxl" role="2OqNvi">
                  <node concept="1xMEDy" id="i0OkSxm" role="1xVPHs">
                    <node concept="chp4Y" id="i0OkSxn" role="ri$Ld">
                      <ref role="cht4Q" to="39kg:hZwMxyp" resolve="MathSymbol" />
                    </node>
                  </node>
                  <node concept="1xIGOp" id="i0OkSxo" role="1xVPHs" />
                </node>
              </node>
            </node>
          </node>
          <node concept="3cpWs8" id="i0OawWe" role="3cqZAp">
            <node concept="3cpWsn" id="i0OawWf" role="3cpWs9">
              <property role="TrG5h" value="msi" />
              <node concept="2I9FWS" id="i0OawWg" role="1tU5fm">
                <ref role="2I9WkF" to="39kg:hZEtGvw" resolve="AbstractIndex" />
              </node>
              <node concept="2OqwBi" id="i0OkTpz" role="33vP2m">
                <node concept="37vLTw" id="3GM_nagTwoW" role="2Oq$k0">
                  <ref role="3cqZAo" node="i0OkNrj" resolve="ms" />
                </node>
                <node concept="2qgKlT" id="i0OkU29" role="2OqNvi">
                  <ref role="37wK5l" to="r3rn:i0Okz4g" resolve="getEmptyIndexList" />
                </node>
              </node>
            </node>
          </node>
          <node concept="3clFbF" id="i0OawWk" role="3cqZAp">
            <node concept="2OqwBi" id="i0OawWl" role="3clFbG">
              <node concept="2qgKlT" id="i0OawWs" role="2OqNvi">
                <ref role="37wK5l" to="r3rn:hZx_LLY" resolve="getVisibleIndices" />
                <node concept="21POm0" id="i0OawWt" role="37wK5m" />
                <node concept="37vLTw" id="3GM_nagTyrI" role="37wK5m">
                  <ref role="3cqZAo" node="i0OawWf" resolve="msi" />
                </node>
              </node>
              <node concept="37vLTw" id="3GM_nagTzW3" role="2Oq$k0">
                <ref role="3cqZAo" node="i0OkNrj" resolve="ms" />
              </node>
            </node>
          </node>
          <node concept="3cpWs6" id="i0OawWv" role="3cqZAp">
            <node concept="37vLTw" id="3GM_nagTtF_" role="3cqZAk">
              <ref role="3cqZAo" node="i0OawWf" resolve="msi" />
            </node>
          </node>
        </node>
      </node>
    </node>
  </node>
  <node concept="1M2fIO" id="PzG_d7KJ$Q">
    <property role="3GE5qa" value="matrix" />
    <ref role="1M2myG" to="39kg:5yEI9AszOcT" resolve="MatrixIndexWildcard" />
    <node concept="nKS2y" id="PzG_d7KJ$R" role="1MLUbF">
      <node concept="3clFbS" id="PzG_d7KJ$S" role="2VODD2">
        <node concept="3clFbJ" id="PzG_d7KJMJ" role="3cqZAp">
          <node concept="3clFbS" id="PzG_d7KJMK" role="3clFbx">
            <node concept="3cpWs6" id="PzG_d7KJMT" role="3cqZAp">
              <node concept="3clFbT" id="PzG_d7KJMV" role="3cqZAk">
                <property role="3clFbU" value="false" />
              </node>
            </node>
          </node>
          <node concept="3fqX7Q" id="PzG_d7KJMN" role="3clFbw">
            <node concept="2OqwBi" id="PzG_d7KJMP" role="3fr31v">
              <node concept="nLn13" id="PzG_d7KJMQ" role="2Oq$k0" />
              <node concept="1mIQ4w" id="PzG_d7KJMR" role="2OqNvi">
                <node concept="chp4Y" id="PzG_d7KJMS" role="cj9EA">
                  <ref role="cht4Q" to="39kg:5yEI9AszOcE" resolve="MatrixElementAccessExpression" />
                </node>
              </node>
            </node>
          </node>
          <node concept="9aQIb" id="PzG_d7KJMW" role="9aQIa">
            <node concept="3clFbS" id="PzG_d7KJMX" role="9aQI4">
              <node concept="3cpWs8" id="PzG_d7KJMY" role="3cqZAp">
                <node concept="3cpWsn" id="PzG_d7KJMZ" role="3cpWs9">
                  <property role="TrG5h" value="expr" />
                  <node concept="3Tqbb2" id="PzG_d7KJN0" role="1tU5fm">
                    <ref role="ehGHo" to="39kg:5yEI9AszOcE" resolve="MatrixElementAccessExpression" />
                  </node>
                  <node concept="1PxgMI" id="PzG_d7KJN8" role="33vP2m">
                    <ref role="1m5ApE" to="39kg:5yEI9AszOcE" resolve="MatrixElementAccessExpression" />
                    <node concept="nLn13" id="PzG_d7KJN3" role="1m5AlR" />
                  </node>
                </node>
              </node>
              <node concept="3cpWs6" id="PzG_d7KJNb" role="3cqZAp">
                <node concept="3fqX7Q" id="PzG_d7KK5e" role="3cqZAk">
                  <node concept="2OqwBi" id="PzG_d7KK5m" role="3fr31v">
                    <node concept="2OqwBi" id="PzG_d7KK5h" role="2Oq$k0">
                      <node concept="2OqwBi" id="5P9njw0DaXY" role="2Oq$k0">
                        <node concept="37vLTw" id="3GM_nagTsSE" role="2Oq$k0">
                          <ref role="3cqZAo" node="PzG_d7KJMZ" resolve="expr" />
                        </node>
                        <node concept="3TrEf2" id="5P9njw0DaY2" role="2OqNvi">
                          <ref role="3Tt5mk" to="39kg:5yEI9AszOcW" />
                        </node>
                      </node>
                      <node concept="3JvlWi" id="PzG_d7KK5l" role="2OqNvi" />
                    </node>
                    <node concept="1mIQ4w" id="PzG_d7KK5q" role="2OqNvi">
                      <node concept="chp4Y" id="PzG_d7KK5s" role="cj9EA">
                        <ref role="cht4Q" to="39kg:4blu3DypZtP" resolve="VectorType" />
                      </node>
                    </node>
                  </node>
                </node>
              </node>
            </node>
          </node>
        </node>
      </node>
    </node>
  </node>
  <node concept="1M2fIO" id="PzG_d7LkFC">
    <property role="3GE5qa" value="matrix" />
    <ref role="1M2myG" to="39kg:5yEI9AszOcE" resolve="MatrixElementAccessExpression" />
  </node>
</model>

