<?xml version="1.0" encoding="UTF-8"?>
<model ref="r:a81e4062-7c67-43c9-951a-8099292aabf8(jetbrains.mps.make.reduced.structure)">
  <persistence version="9" />
  <languages>
    <use id="982eb8df-2c96-4bd7-9963-11712ea622e5" name="jetbrains.mps.lang.resources" version="2" />
  </languages>
  <imports />
  <registry />
</model>

