<?xml version="1.0" encoding="UTF-8"?>
<model ref="r:723d40a4-f803-4d86-95e7-ec10ffbaf771(jetbrains.mps.samples.generator_demo.demoLang3.structure)">
  <persistence version="9" />
  <languages>
    <use id="982eb8df-2c96-4bd7-9963-11712ea622e5" name="jetbrains.mps.lang.resources" version="2" />
  </languages>
  <imports />
  <registry />
</model>

