<?xml version="1.0" encoding="UTF-8"?>
<model ref="r:ef3bdd93-260b-4a16-89d1-13a87cfa78c9(sampleFacet.structure)">
  <persistence version="9" />
  <languages>
    <use id="982eb8df-2c96-4bd7-9963-11712ea622e5" name="jetbrains.mps.lang.resources" version="2" />
  </languages>
  <imports />
  <registry />
</model>

