<?xml version="1.0" encoding="UTF-8"?>
<model ref="r:1dca72a1-44ae-4339-a783-4859610b0285(jetbrains.mps.baseLanguage.migration)">
  <persistence version="9" />
  <languages>
    <use id="d4615e3b-d671-4ba9-af01-2b78369b0ba7" name="jetbrains.mps.lang.pattern" version="1" />
    <use id="90746344-04fd-4286-97d5-b46ae6a81709" name="jetbrains.mps.lang.migration" version="-1" />
    <use id="c7d5b9dd-a05f-4be2-bc73-f2e16994cc67" name="jetbrains.mps.baseLanguage.lightweightdsl" version="-1" />
    <use id="7866978e-a0f0-4cc7-81bc-4d213d9375e1" name="jetbrains.mps.lang.smodel" version="4" />
    <use id="1a8554c4-eb84-43ba-8c34-6f0d90c6e75a" name="jetbrains.mps.lang.smodel.query" version="2" />
    <devkit ref="fbc25dd2-5da4-483a-8b19-70928e1b62d7(jetbrains.mps.devkit.general-purpose)" />
  </languages>
  <imports>
    <import index="lui2" ref="8865b7a8-5271-43d3-884c-6fd1d9cfdd34/java:org.jetbrains.mps.openapi.module(MPS.OpenAPI/)" />
    <import index="tpcz" ref="r:00000000-0000-4000-0000-011c895902bf(jetbrains.mps.baseLanguage.actions)" />
    <import index="wcxw" ref="r:b9f36c08-4a75-4513-9277-a390d3426e0f(jetbrains.mps.editor.runtime.impl.cellActions)" />
    <import index="tpee" ref="r:00000000-0000-4000-0000-011c895902ca(jetbrains.mps.baseLanguage.structure)" />
    <import index="uubw" ref="r:57494669-3aca-4a91-9957-81c283ecd636(jetbrains.mps.lang.core.util)" />
    <import index="6f4m" ref="528ff3b9-5fc4-40dd-931f-c6ce3650640e/r:f69c3fa1-0e30-4980-84e2-190ae44e4c3d(jetbrains.mps.lang.migration.runtime/jetbrains.mps.lang.migration.runtime.base)" />
    <import index="slm6" ref="90746344-04fd-4286-97d5-b46ae6a81709/r:52a3d974-bd4f-4651-ba6e-a2de5e336d95(jetbrains.mps.lang.migration/jetbrains.mps.lang.migration.methods)" implicit="true" />
    <import index="wyt6" ref="6354ebe7-c22a-4a0f-ac54-50b52ab9b065/java:java.lang(JDK/)" implicit="true" />
    <import index="tpck" ref="r:00000000-0000-4000-0000-011c89590288(jetbrains.mps.lang.core.structure)" implicit="true" />
    <import index="tpek" ref="r:00000000-0000-4000-0000-011c895902c0(jetbrains.mps.baseLanguage.behavior)" implicit="true" />
    <import index="m373" ref="r:4095af4f-a097-4799-aaa9-03df087ddfa6(jetbrains.mps.baseLanguage.javadoc.structure)" implicit="true" />
  </imports>
  <registry>
    <language id="f3061a53-9226-4cc5-a443-f952ceaf5816" name="jetbrains.mps.baseLanguage">
      <concept id="1080223426719" name="jetbrains.mps.baseLanguage.structure.OrExpression" flags="nn" index="22lmx$" />
      <concept id="1215693861676" name="jetbrains.mps.baseLanguage.structure.BaseAssignmentExpression" flags="nn" index="d038R">
        <child id="1068498886297" name="rValue" index="37vLTx" />
        <child id="1068498886295" name="lValue" index="37vLTJ" />
      </concept>
      <concept id="4836112446988635817" name="jetbrains.mps.baseLanguage.structure.UndefinedType" flags="in" index="2jxLKc" />
      <concept id="1202948039474" name="jetbrains.mps.baseLanguage.structure.InstanceMethodCallOperation" flags="nn" index="liA8E" />
      <concept id="1465982738277781862" name="jetbrains.mps.baseLanguage.structure.PlaceholderMember" flags="ng" index="2tJIrI" />
      <concept id="1197027756228" name="jetbrains.mps.baseLanguage.structure.DotExpression" flags="nn" index="2OqwBi">
        <child id="1197027771414" name="operand" index="2Oq$k0" />
        <child id="1197027833540" name="operation" index="2OqNvi" />
      </concept>
      <concept id="1145552977093" name="jetbrains.mps.baseLanguage.structure.GenericNewExpression" flags="nn" index="2ShNRf">
        <child id="1145553007750" name="creator" index="2ShVmc" />
      </concept>
      <concept id="1070475926800" name="jetbrains.mps.baseLanguage.structure.StringLiteral" flags="nn" index="Xl_RD">
        <property id="1070475926801" name="value" index="Xl_RC" />
      </concept>
      <concept id="1182160077978" name="jetbrains.mps.baseLanguage.structure.AnonymousClassCreator" flags="nn" index="YeOm9">
        <child id="1182160096073" name="cls" index="YeSDq" />
      </concept>
      <concept id="1081236700937" name="jetbrains.mps.baseLanguage.structure.StaticMethodCall" flags="nn" index="2YIFZM">
        <reference id="1144433194310" name="classConcept" index="1Pybhc" />
      </concept>
      <concept id="1070534058343" name="jetbrains.mps.baseLanguage.structure.NullLiteral" flags="nn" index="10Nm6u" />
      <concept id="1070534644030" name="jetbrains.mps.baseLanguage.structure.BooleanType" flags="in" index="10P_77" />
      <concept id="1070534934090" name="jetbrains.mps.baseLanguage.structure.CastExpression" flags="nn" index="10QFUN">
        <child id="1070534934091" name="type" index="10QFUM" />
        <child id="1070534934092" name="expression" index="10QFUP" />
      </concept>
      <concept id="1068431474542" name="jetbrains.mps.baseLanguage.structure.VariableDeclaration" flags="ng" index="33uBYm">
        <child id="1068431790190" name="initializer" index="33vP2m" />
      </concept>
      <concept id="1068498886296" name="jetbrains.mps.baseLanguage.structure.VariableReference" flags="nn" index="37vLTw">
        <reference id="1068581517664" name="variableDeclaration" index="3cqZAo" />
      </concept>
      <concept id="1068498886292" name="jetbrains.mps.baseLanguage.structure.ParameterDeclaration" flags="ir" index="37vLTG" />
      <concept id="1068498886294" name="jetbrains.mps.baseLanguage.structure.AssignmentExpression" flags="nn" index="37vLTI" />
      <concept id="1225271177708" name="jetbrains.mps.baseLanguage.structure.StringType" flags="in" index="17QB3L" />
      <concept id="1225271369338" name="jetbrains.mps.baseLanguage.structure.IsEmptyOperation" flags="nn" index="17RlXB" />
      <concept id="1225271546410" name="jetbrains.mps.baseLanguage.structure.TrimOperation" flags="nn" index="17S1cR" />
      <concept id="4972933694980447171" name="jetbrains.mps.baseLanguage.structure.BaseVariableDeclaration" flags="ng" index="19Szcq">
        <child id="5680397130376446158" name="type" index="1tU5fm" />
      </concept>
      <concept id="1068580123132" name="jetbrains.mps.baseLanguage.structure.BaseMethodDeclaration" flags="ng" index="3clF44">
        <child id="1068580123133" name="returnType" index="3clF45" />
        <child id="1068580123134" name="parameter" index="3clF46" />
        <child id="1068580123135" name="body" index="3clF47" />
      </concept>
      <concept id="1068580123165" name="jetbrains.mps.baseLanguage.structure.InstanceMethodDeclaration" flags="ig" index="3clFb_">
        <property id="1178608670077" name="isAbstract" index="1EzhhJ" />
      </concept>
      <concept id="1068580123152" name="jetbrains.mps.baseLanguage.structure.EqualsExpression" flags="nn" index="3clFbC" />
      <concept id="1068580123155" name="jetbrains.mps.baseLanguage.structure.ExpressionStatement" flags="nn" index="3clFbF">
        <child id="1068580123156" name="expression" index="3clFbG" />
      </concept>
      <concept id="1068580123157" name="jetbrains.mps.baseLanguage.structure.Statement" flags="nn" index="3clFbH" />
      <concept id="1068580123159" name="jetbrains.mps.baseLanguage.structure.IfStatement" flags="nn" index="3clFbJ">
        <child id="1068580123160" name="condition" index="3clFbw" />
        <child id="1068580123161" name="ifTrue" index="3clFbx" />
      </concept>
      <concept id="1068580123136" name="jetbrains.mps.baseLanguage.structure.StatementList" flags="sn" stub="5293379017992965193" index="3clFbS">
        <child id="1068581517665" name="statement" index="3cqZAp" />
      </concept>
      <concept id="1068580123137" name="jetbrains.mps.baseLanguage.structure.BooleanConstant" flags="nn" index="3clFbT">
        <property id="1068580123138" name="value" index="3clFbU" />
      </concept>
      <concept id="1068580320020" name="jetbrains.mps.baseLanguage.structure.IntegerConstant" flags="nn" index="3cmrfG">
        <property id="1068580320021" name="value" index="3cmrfH" />
      </concept>
      <concept id="1068581242878" name="jetbrains.mps.baseLanguage.structure.ReturnStatement" flags="nn" index="3cpWs6">
        <child id="1068581517676" name="expression" index="3cqZAk" />
      </concept>
      <concept id="1068581242864" name="jetbrains.mps.baseLanguage.structure.LocalVariableDeclarationStatement" flags="nn" index="3cpWs8">
        <child id="1068581242865" name="localVariableDeclaration" index="3cpWs9" />
      </concept>
      <concept id="1068581242863" name="jetbrains.mps.baseLanguage.structure.LocalVariableDeclaration" flags="nr" index="3cpWsn" />
      <concept id="1079359253375" name="jetbrains.mps.baseLanguage.structure.ParenthesizedExpression" flags="nn" index="1eOMI4">
        <child id="1079359253376" name="expression" index="1eOMHV" />
      </concept>
      <concept id="1081516740877" name="jetbrains.mps.baseLanguage.structure.NotExpression" flags="nn" index="3fqX7Q">
        <child id="1081516765348" name="expression" index="3fr31v" />
      </concept>
      <concept id="1204053956946" name="jetbrains.mps.baseLanguage.structure.IMethodCall" flags="ng" index="1ndlxa">
        <reference id="1068499141037" name="baseMethodDeclaration" index="37wK5l" />
        <child id="1068499141038" name="actualArgument" index="37wK5m" />
      </concept>
      <concept id="1212685548494" name="jetbrains.mps.baseLanguage.structure.ClassCreator" flags="nn" index="1pGfFk" />
      <concept id="1107461130800" name="jetbrains.mps.baseLanguage.structure.Classifier" flags="ng" index="3pOWGL">
        <property id="521412098689998745" name="nonStatic" index="2bfB8j" />
        <child id="5375687026011219971" name="member" index="jymVt" unordered="true" />
      </concept>
      <concept id="1107535904670" name="jetbrains.mps.baseLanguage.structure.ClassifierType" flags="in" index="3uibUv">
        <reference id="1107535924139" name="classifier" index="3uigEE" />
      </concept>
      <concept id="1081773326031" name="jetbrains.mps.baseLanguage.structure.BinaryOperation" flags="nn" index="3uHJSO">
        <child id="1081773367579" name="rightExpression" index="3uHU7w" />
        <child id="1081773367580" name="leftExpression" index="3uHU7B" />
      </concept>
      <concept id="1073239437375" name="jetbrains.mps.baseLanguage.structure.NotEqualsExpression" flags="nn" index="3y3z36" />
      <concept id="1178549954367" name="jetbrains.mps.baseLanguage.structure.IVisible" flags="ng" index="1B3ioH">
        <child id="1178549979242" name="visibility" index="1B3o_S" />
      </concept>
      <concept id="6329021646629104957" name="jetbrains.mps.baseLanguage.structure.TextCommentPart" flags="nn" index="3SKdUq">
        <property id="6329021646629104958" name="text" index="3SKdUp" />
      </concept>
      <concept id="6329021646629104954" name="jetbrains.mps.baseLanguage.structure.SingleLineComment" flags="nn" index="3SKdUt">
        <child id="6329021646629175155" name="commentPart" index="3SKWNk" />
      </concept>
      <concept id="1146644602865" name="jetbrains.mps.baseLanguage.structure.PublicVisibility" flags="nn" index="3Tm1VV" />
      <concept id="1146644623116" name="jetbrains.mps.baseLanguage.structure.PrivateVisibility" flags="nn" index="3Tm6S6" />
      <concept id="1080120340718" name="jetbrains.mps.baseLanguage.structure.AndExpression" flags="nn" index="1Wc70l" />
      <concept id="1170345865475" name="jetbrains.mps.baseLanguage.structure.AnonymousClass" flags="ig" index="1Y3b0j">
        <reference id="1170346070688" name="classifier" index="1Y3XeK" />
      </concept>
    </language>
    <language id="d4615e3b-d671-4ba9-af01-2b78369b0ba7" name="jetbrains.mps.lang.pattern">
      <concept id="1136720037777" name="jetbrains.mps.lang.pattern.structure.PatternExpression" flags="in" index="2DMOqp">
        <child id="9046399079000773837" name="pattern" index="HM535" />
      </concept>
      <concept id="1136720037779" name="jetbrains.mps.lang.pattern.structure.PatternVariableDeclaration" flags="ng" index="2DMOqr">
        <property id="1136720037780" name="varName" index="2DMOqs" />
      </concept>
    </language>
    <language id="fd392034-7849-419d-9071-12563d152375" name="jetbrains.mps.baseLanguage.closures">
      <concept id="1199569711397" name="jetbrains.mps.baseLanguage.closures.structure.ClosureLiteral" flags="nn" index="1bVj0M">
        <child id="1199569906740" name="parameter" index="1bW2Oz" />
        <child id="1199569916463" name="body" index="1bW5cS" />
      </concept>
    </language>
    <language id="c7d5b9dd-a05f-4be2-bc73-f2e16994cc67" name="jetbrains.mps.baseLanguage.lightweightdsl">
      <concept id="8880393040217246788" name="jetbrains.mps.baseLanguage.lightweightdsl.structure.MethodParameterInstance" flags="ig" index="ffn8J">
        <reference id="8880393040217294897" name="decl" index="ffrpq" />
      </concept>
      <concept id="3751132065236767083" name="jetbrains.mps.baseLanguage.lightweightdsl.structure.DependentTypeInstance" flags="ig" index="q3mfm">
        <reference id="3751132065236767084" name="decl" index="q3mfh" />
        <reference id="9097849371505568270" name="point" index="1QQUv3" />
      </concept>
      <concept id="3751132065236767060" name="jetbrains.mps.baseLanguage.lightweightdsl.structure.MethodInstance" flags="ig" index="q3mfD">
        <reference id="19209059688387895" name="decl" index="2VtyIY" />
      </concept>
      <concept id="6478870542308708689" name="jetbrains.mps.baseLanguage.lightweightdsl.structure.PropertyInstance" flags="ig" index="3tT0cZ">
        <reference id="8585153554445465961" name="decl" index="25KYV2" />
      </concept>
      <concept id="6478870542308703666" name="jetbrains.mps.baseLanguage.lightweightdsl.structure.MemberPlaceholder" flags="ng" index="3tTeZs">
        <property id="6478870542308703667" name="caption" index="3tTeZt" />
        <reference id="6478870542308703669" name="decl" index="3tTeZr" />
      </concept>
      <concept id="6478870542308871875" name="jetbrains.mps.baseLanguage.lightweightdsl.structure.BooleanPropertyInstance" flags="ig" index="3tYpMH">
        <property id="6478870542308871876" name="value" index="3tYpME" />
      </concept>
      <concept id="6478870542308871428" name="jetbrains.mps.baseLanguage.lightweightdsl.structure.StringPropertyInstance" flags="ig" index="3tYpXE">
        <property id="6478870542308871429" name="value" index="3tYpXF" />
      </concept>
    </language>
    <language id="3a13115c-633c-4c5c-bbcc-75c4219e9555" name="jetbrains.mps.lang.quotation">
      <concept id="1196350785110" name="jetbrains.mps.lang.quotation.structure.AbstractAntiquotation" flags="ng" index="2c44t0">
        <child id="1196350785111" name="expression" index="2c44t1" />
      </concept>
      <concept id="1196350785112" name="jetbrains.mps.lang.quotation.structure.Antiquotation" flags="ng" index="2c44te" />
      <concept id="1196350785113" name="jetbrains.mps.lang.quotation.structure.Quotation" flags="nn" index="2c44tf">
        <child id="1196350785114" name="quotedNode" index="2c44tc" />
      </concept>
    </language>
    <language id="7866978e-a0f0-4cc7-81bc-4d213d9375e1" name="jetbrains.mps.lang.smodel">
      <concept id="1177026924588" name="jetbrains.mps.lang.smodel.structure.RefConcept_Reference" flags="nn" index="chp4Y">
        <reference id="1177026940964" name="conceptDeclaration" index="cht4Q" />
      </concept>
      <concept id="1138411891628" name="jetbrains.mps.lang.smodel.structure.SNodeOperation" flags="nn" index="eCIE_">
        <child id="1144104376918" name="parameter" index="1xVPHs" />
      </concept>
      <concept id="1179409122411" name="jetbrains.mps.lang.smodel.structure.Node_ConceptMethodCall" flags="nn" index="2qgKlT" />
      <concept id="1138661924179" name="jetbrains.mps.lang.smodel.structure.Property_SetOperation" flags="nn" index="tyxLq">
        <child id="1138662048170" name="value" index="tz02z" />
      </concept>
      <concept id="2396822768958367367" name="jetbrains.mps.lang.smodel.structure.AbstractTypeCastExpression" flags="nn" index="$5XWr">
        <reference id="6733348108486823428" name="concept" index="1m5ApE" />
        <child id="6733348108486823193" name="leftExpression" index="1m5AlR" />
      </concept>
      <concept id="1143226024141" name="jetbrains.mps.lang.smodel.structure.SModelType" flags="in" index="H_c77" />
      <concept id="1171305280644" name="jetbrains.mps.lang.smodel.structure.Node_GetDescendantsOperation" flags="nn" index="2Rf3mk" />
      <concept id="1171310072040" name="jetbrains.mps.lang.smodel.structure.Node_GetContainingRootOperation" flags="nn" index="2Rxl7S" />
      <concept id="1171323947159" name="jetbrains.mps.lang.smodel.structure.Model_NodesOperation" flags="nn" index="2SmgA7">
        <child id="1758937410080001570" name="conceptArgument" index="1dBWTz" />
      </concept>
      <concept id="1145573345940" name="jetbrains.mps.lang.smodel.structure.Node_GetAllSiblingsOperation" flags="nn" index="2TvwIu" />
      <concept id="1171407110247" name="jetbrains.mps.lang.smodel.structure.Node_GetAncestorOperation" flags="nn" index="2Xjw5R" />
      <concept id="1171500988903" name="jetbrains.mps.lang.smodel.structure.Node_GetChildrenOperation" flags="nn" index="32TBzR" />
      <concept id="2644386474302386080" name="jetbrains.mps.lang.smodel.structure.PropertyIdRefExpression" flags="nn" index="355D3s">
        <reference id="2644386474302386081" name="conceptDeclaration" index="355D3t" />
        <reference id="2644386474302386082" name="propertyDeclaration" index="355D3u" />
      </concept>
      <concept id="2644386474300074836" name="jetbrains.mps.lang.smodel.structure.ConceptIdRefExpression" flags="nn" index="35c_gC">
        <reference id="2644386474300074837" name="conceptDeclaration" index="35c_gD" />
      </concept>
      <concept id="1139613262185" name="jetbrains.mps.lang.smodel.structure.Node_GetParentOperation" flags="nn" index="1mfA1w" />
      <concept id="1139621453865" name="jetbrains.mps.lang.smodel.structure.Node_IsInstanceOfOperation" flags="nn" index="1mIQ4w">
        <child id="1177027386292" name="conceptArgument" index="cj9EA" />
      </concept>
      <concept id="1171999116870" name="jetbrains.mps.lang.smodel.structure.Node_IsNullOperation" flags="nn" index="3w_OXm" />
      <concept id="1144100932627" name="jetbrains.mps.lang.smodel.structure.OperationParm_Inclusion" flags="ng" index="1xIGOp" />
      <concept id="1144101972840" name="jetbrains.mps.lang.smodel.structure.OperationParm_Concept" flags="ng" index="1xMEDy">
        <child id="1207343664468" name="conceptArgument" index="ri$Ld" />
      </concept>
      <concept id="1219352745532" name="jetbrains.mps.lang.smodel.structure.NodeRefExpression" flags="nn" index="3B5_sB">
        <reference id="1219352800908" name="referentNode" index="3B5MYn" />
      </concept>
      <concept id="1140131837776" name="jetbrains.mps.lang.smodel.structure.Node_ReplaceWithAnotherOperation" flags="nn" index="1P9Npp">
        <child id="1140131861877" name="replacementNode" index="1P9ThW" />
      </concept>
      <concept id="1140133623887" name="jetbrains.mps.lang.smodel.structure.Node_DeleteOperation" flags="nn" index="1PgB_6" />
      <concept id="1140137987495" name="jetbrains.mps.lang.smodel.structure.SNodeTypeCastExpression" flags="nn" index="1PxgMI" />
      <concept id="1138055754698" name="jetbrains.mps.lang.smodel.structure.SNodeType" flags="in" index="3Tqbb2">
        <reference id="1138405853777" name="concept" index="ehGHo" />
      </concept>
      <concept id="1138056022639" name="jetbrains.mps.lang.smodel.structure.SPropertyAccess" flags="nn" index="3TrcHB">
        <reference id="1138056395725" name="property" index="3TsBF5" />
      </concept>
      <concept id="1138056143562" name="jetbrains.mps.lang.smodel.structure.SLinkAccess" flags="nn" index="3TrEf2">
        <reference id="1138056516764" name="link" index="3Tt5mk" />
      </concept>
      <concept id="1138056282393" name="jetbrains.mps.lang.smodel.structure.SLinkListAccess" flags="nn" index="3Tsc0h">
        <reference id="1138056546658" name="link" index="3TtcxE" />
      </concept>
    </language>
    <language id="ceab5195-25ea-4f22-9b92-103b95ca8c0c" name="jetbrains.mps.lang.core">
      <concept id="1133920641626" name="jetbrains.mps.lang.core.structure.BaseConcept" flags="ng" index="2VYdi">
        <child id="5169995583184591170" name="smodelAttribute" index="lGtFl" />
      </concept>
      <concept id="1169194658468" name="jetbrains.mps.lang.core.structure.INamedConcept" flags="ng" index="TrEIO">
        <property id="1169194664001" name="name" index="TrG5h" />
      </concept>
    </language>
    <language id="90746344-04fd-4286-97d5-b46ae6a81709" name="jetbrains.mps.lang.migration">
      <concept id="7527743013695058339" name="jetbrains.mps.lang.migration.structure.NodePatternVariableReference" flags="ng" index="1bNLJ0">
        <reference id="7527743013695058340" name="declaration" index="1bNLJ7" />
      </concept>
      <concept id="5636302460526173897" name="jetbrains.mps.lang.migration.structure.TransformStatement" flags="ng" index="3SqFnK">
        <child id="5636302460526173936" name="consequence" index="3SqFn9" />
        <child id="5636302460526173940" name="precondition" index="3SqFnd" />
        <child id="5636302460526173934" name="pattern" index="3SqFnn" />
      </concept>
      <concept id="5636302460526210369" name="jetbrains.mps.lang.migration.structure.QuotationConsequence" flags="ng" index="3SqKpS">
        <child id="6129256022887780734" name="quotation" index="2SEiMu" />
      </concept>
      <concept id="8352104482584315555" name="jetbrains.mps.lang.migration.structure.MigrationScript" flags="ig" index="3SyAh_">
        <property id="5820409521797704727" name="fromVersion" index="qMTe8" />
      </concept>
    </language>
    <language id="1a8554c4-eb84-43ba-8c34-6f0d90c6e75a" name="jetbrains.mps.lang.smodel.query">
      <concept id="7738379549910147341" name="jetbrains.mps.lang.smodel.query.structure.InstancesExpression" flags="ng" index="qVDSY">
        <child id="7738379549910147342" name="conceptArg" index="qVDSX" />
      </concept>
      <concept id="4234138103881610891" name="jetbrains.mps.lang.smodel.query.structure.WithStatement" flags="ng" index="L3pyB">
        <child id="4234138103881610935" name="scope" index="L3pyr" />
        <child id="4234138103881610892" name="stmts" index="L3pyw" />
      </concept>
      <concept id="4307205004131544317" name="jetbrains.mps.lang.smodel.query.structure.QueryExpression" flags="ng" index="1dNuzs">
        <child id="4307205004132279624" name="parameter" index="1dOa5D" />
      </concept>
      <concept id="4307205004132277753" name="jetbrains.mps.lang.smodel.query.structure.QueryParameterList" flags="ng" index="1dO9Bo" />
    </language>
    <language id="83888646-71ce-4f1c-9c53-c54016f6ad4f" name="jetbrains.mps.baseLanguage.collections">
      <concept id="1204796164442" name="jetbrains.mps.baseLanguage.collections.structure.InternalSequenceOperation" flags="nn" index="23sCx2">
        <child id="1204796294226" name="closure" index="23t8la" />
      </concept>
      <concept id="1204980550705" name="jetbrains.mps.baseLanguage.collections.structure.VisitAllOperation" flags="nn" index="2es0OD" />
      <concept id="1151689724996" name="jetbrains.mps.baseLanguage.collections.structure.SequenceType" flags="in" index="A3Dl8">
        <child id="1151689745422" name="elementType" index="A3Ik2" />
      </concept>
      <concept id="1235566831861" name="jetbrains.mps.baseLanguage.collections.structure.AllOperation" flags="nn" index="2HxqBE" />
      <concept id="1203518072036" name="jetbrains.mps.baseLanguage.collections.structure.SmartClosureParameterDeclaration" flags="ig" index="Rh6nW" />
      <concept id="1162935959151" name="jetbrains.mps.baseLanguage.collections.structure.GetSizeOperation" flags="nn" index="34oBXx" />
      <concept id="1201792049884" name="jetbrains.mps.baseLanguage.collections.structure.TranslateOperation" flags="nn" index="3goQfb" />
      <concept id="1165525191778" name="jetbrains.mps.baseLanguage.collections.structure.GetFirstOperation" flags="nn" index="1uHKPH" />
      <concept id="1165530316231" name="jetbrains.mps.baseLanguage.collections.structure.IsEmptyOperation" flags="nn" index="1v1jN8" />
      <concept id="1202120902084" name="jetbrains.mps.baseLanguage.collections.structure.WhereOperation" flags="nn" index="3zZkjj" />
      <concept id="1202128969694" name="jetbrains.mps.baseLanguage.collections.structure.SelectOperation" flags="nn" index="3$u5V9" />
      <concept id="1176501494711" name="jetbrains.mps.baseLanguage.collections.structure.IsNotEmptyOperation" flags="nn" index="3GX2aA" />
    </language>
  </registry>
  <node concept="3SyAh_" id="49IRVjgsW2p">
    <property role="qMTe8" value="0" />
    <property role="TrG5h" value="AddNecessaryParenthsToNotExpressions" />
    <node concept="3Tm1VV" id="49IRVjgsW2q" role="1B3o_S" />
    <node concept="3tTeZs" id="49IRVjgsW6W" role="jymVt">
      <property role="3tTeZt" value="&lt;no execute after&gt;" />
      <ref role="3tTeZr" to="slm6:7ay_HjIMt1a" resolve="execute after" />
    </node>
    <node concept="3tTeZs" id="49IRVjgsW6X" role="jymVt">
      <property role="3tTeZt" value="&lt;no required data&gt;" />
      <ref role="3tTeZr" to="slm6:3A3gNhf1WPI" resolve="requires data" />
    </node>
    <node concept="3tTeZs" id="49IRVjgsW6Y" role="jymVt">
      <property role="3tTeZt" value="&lt;no produced data&gt;" />
      <ref role="3tTeZr" to="slm6:536fTXa4WHO" resolve="produces data" />
    </node>
    <node concept="2tJIrI" id="49IRVjgsW6Z" role="jymVt" />
    <node concept="3tYpXE" id="49IRVjgsWsl" role="jymVt">
      <property role="TrG5h" value="description" />
      <property role="3tYpXF" value="Add necessary parentheses to NotExpressions" />
      <ref role="25KYV2" to="slm6:1_lSsE3RFpE" resolve="description" />
      <node concept="3Tm6S6" id="49IRVjgsWsm" role="1B3o_S" />
      <node concept="17QB3L" id="49IRVjgsWsn" role="1tU5fm" />
    </node>
    <node concept="q3mfD" id="49IRVjgsW72" role="jymVt">
      <property role="TrG5h" value="execute" />
      <ref role="2VtyIY" to="slm6:4ubqdNOF9cA" resolve="execute" />
      <node concept="3Tm1VV" id="49IRVjgsW74" role="1B3o_S" />
      <node concept="3clFbS" id="49IRVjgsW76" role="3clF47">
        <node concept="3SqFnK" id="49IRVjgsW$4" role="3cqZAp">
          <node concept="2DMOqp" id="49IRVjgsW$5" role="3SqFnn">
            <node concept="2c44tf" id="7oTZmjkCqYV" role="HM535">
              <node concept="3fqX7Q" id="49IRVjgsWH5" role="2c44tc">
                <node concept="3clFbT" id="49IRVjgsWHT" role="3fr31v">
                  <property role="3clFbU" value="true" />
                  <node concept="2DMOqr" id="49IRVjgsWIz" role="lGtFl">
                    <property role="2DMOqs" value="expr" />
                  </node>
                </node>
              </node>
            </node>
          </node>
          <node concept="3SqKpS" id="49IRVjgsWJz" role="3SqFn9">
            <node concept="2c44tf" id="49IRVjgsWJ_" role="2SEiMu">
              <node concept="3fqX7Q" id="49IRVjgsXaG" role="2c44tc">
                <node concept="1eOMI4" id="49IRVjgsXr6" role="3fr31v">
                  <node concept="3clFbT" id="49IRVjgsXCH" role="1eOMHV">
                    <property role="3clFbU" value="true" />
                    <node concept="2c44te" id="49IRVjgsXD_" role="lGtFl">
                      <node concept="1bNLJ0" id="5EAm97nqwTV" role="2c44t1">
                        <ref role="1bNLJ7" node="49IRVjgsWIz" resolve="#expr" />
                      </node>
                    </node>
                  </node>
                </node>
              </node>
            </node>
          </node>
          <node concept="1bVj0M" id="49IRVjgsWT2" role="3SqFnd">
            <node concept="3clFbS" id="49IRVjgsWT3" role="1bW5cS">
              <node concept="3clFbF" id="3VO0F5JcJgZ" role="3cqZAp">
                <node concept="2YIFZM" id="3VO0F5JcLET" role="3clFbG">
                  <ref role="1Pybhc" to="tpcz:18ik2d67g12" resolve="PrecedenceUtil" />
                  <ref role="37wK5l" to="tpcz:3VO0F5J53_2" resolve="needsParensAroundNotExpression" />
                  <node concept="37vLTw" id="49IRVjgsX8P" role="37wK5m">
                    <ref role="3cqZAo" node="49IRVjgsWZN" resolve="node" />
                  </node>
                </node>
              </node>
            </node>
            <node concept="37vLTG" id="49IRVjgsWZN" role="1bW2Oz">
              <property role="TrG5h" value="node" />
              <node concept="3Tqbb2" id="49IRVjgsWZM" role="1tU5fm">
                <ref role="ehGHo" to="tpee:fJfqX4d" resolve="NotExpression" />
              </node>
            </node>
          </node>
        </node>
      </node>
      <node concept="37vLTG" id="49IRVjgsW78" role="3clF46">
        <property role="TrG5h" value="m" />
        <node concept="3uibUv" id="49IRVjgsW77" role="1tU5fm">
          <ref role="3uigEE" to="lui2:~SModule" resolve="SModule" />
        </node>
      </node>
      <node concept="q3mfm" id="49IRVjgsW79" role="3clF45">
        <ref role="q3mfh" to="slm6:4F5w8gPXEEe" />
        <ref role="1QQUv3" node="49IRVjgsW72" resolve="execute" />
      </node>
    </node>
    <node concept="3tYpMH" id="4JdgAL_4nMz" role="jymVt">
      <property role="TrG5h" value="isRerunnable" />
      <property role="3tYpME" value="true" />
      <ref role="25KYV2" to="slm6:1JWcQ2VeWIs" resolve="isRerunnable" />
      <node concept="3Tm1VV" id="4JdgAL_4nM_" role="1B3o_S" />
      <node concept="10P_77" id="4JdgAL_4nMA" role="1tU5fm" />
    </node>
    <node concept="q3mfD" id="13xmEyWwu0U" role="jymVt">
      <property role="TrG5h" value="check" />
      <ref role="2VtyIY" to="slm6:1JWcQ2VeXpD" resolve="check" />
      <node concept="3Tm1VV" id="13xmEyWwu0W" role="1B3o_S" />
      <node concept="3clFbS" id="13xmEyWwu0Y" role="3clF47">
        <node concept="L3pyB" id="13xmEyWwu5A" role="3cqZAp">
          <node concept="3clFbS" id="13xmEyWwu5B" role="L3pyw">
            <node concept="3cpWs6" id="13xmEyWwAOC" role="3cqZAp">
              <node concept="2OqwBi" id="13xmEyWww1q" role="3cqZAk">
                <node concept="2OqwBi" id="13xmEyWwujG" role="2Oq$k0">
                  <node concept="2OqwBi" id="61H$Q7rO4M3" role="2Oq$k0">
                    <node concept="qVDSY" id="13xmEyWwudu" role="2Oq$k0">
                      <node concept="1dO9Bo" id="13xmEyWwudv" role="1dOa5D" />
                      <node concept="chp4Y" id="13xmEyWwueo" role="qVDSX">
                        <ref role="cht4Q" to="tpee:fJfqX4d" resolve="NotExpression" />
                      </node>
                    </node>
                    <node concept="3zZkjj" id="61H$Q7rO5f0" role="2OqNvi">
                      <node concept="1bVj0M" id="61H$Q7rO5f2" role="23t8la">
                        <node concept="3clFbS" id="61H$Q7rO5f3" role="1bW5cS">
                          <node concept="3clFbF" id="61H$Q7rO5q3" role="3cqZAp">
                            <node concept="3y3z36" id="61H$Q7rO6tg" role="3clFbG">
                              <node concept="3B5_sB" id="61H$Q7rO6A5" role="3uHU7w">
                                <ref role="3B5MYn" node="49IRVjgsW2p" resolve="AddNecessaryParenthsToNotExpressions" />
                              </node>
                              <node concept="2OqwBi" id="61H$Q7rO5zk" role="3uHU7B">
                                <node concept="37vLTw" id="61H$Q7rO5q2" role="2Oq$k0">
                                  <ref role="3cqZAo" node="61H$Q7rO5f4" resolve="it" />
                                </node>
                                <node concept="2Rxl7S" id="61H$Q7rO5Ro" role="2OqNvi" />
                              </node>
                            </node>
                          </node>
                        </node>
                        <node concept="Rh6nW" id="61H$Q7rO5f4" role="1bW2Oz">
                          <property role="TrG5h" value="it" />
                          <node concept="2jxLKc" id="61H$Q7rO5f5" role="1tU5fm" />
                        </node>
                      </node>
                    </node>
                  </node>
                  <node concept="3zZkjj" id="13xmEyWwuwh" role="2OqNvi">
                    <node concept="1bVj0M" id="13xmEyWwuwj" role="23t8la">
                      <node concept="3clFbS" id="13xmEyWwuwk" role="1bW5cS">
                        <node concept="3clFbF" id="13xmEyWwvWk" role="3cqZAp">
                          <node concept="2YIFZM" id="13xmEyWwvWm" role="3clFbG">
                            <ref role="37wK5l" to="tpcz:3VO0F5J53_2" resolve="needsParensAroundNotExpression" />
                            <ref role="1Pybhc" to="tpcz:18ik2d67g12" resolve="PrecedenceUtil" />
                            <node concept="37vLTw" id="13xmEyWwB4L" role="37wK5m">
                              <ref role="3cqZAo" node="13xmEyWwuwl" resolve="it" />
                            </node>
                          </node>
                        </node>
                      </node>
                      <node concept="Rh6nW" id="13xmEyWwuwl" role="1bW2Oz">
                        <property role="TrG5h" value="it" />
                        <node concept="2jxLKc" id="13xmEyWwuwm" role="1tU5fm" />
                      </node>
                    </node>
                  </node>
                </node>
                <node concept="3$u5V9" id="13xmEyWww9Q" role="2OqNvi">
                  <node concept="1bVj0M" id="13xmEyWww9S" role="23t8la">
                    <node concept="3clFbS" id="13xmEyWww9T" role="1bW5cS">
                      <node concept="3clFbF" id="13xmEyWwwfl" role="3cqZAp">
                        <node concept="1eOMI4" id="13xmEyWwAxy" role="3clFbG">
                          <node concept="10QFUN" id="13xmEyWwAxz" role="1eOMHV">
                            <node concept="2ShNRf" id="13xmEyWwAxn" role="10QFUP">
                              <node concept="YeOm9" id="13xmEyWwAxo" role="2ShVmc">
                                <node concept="1Y3b0j" id="13xmEyWwAxp" role="YeSDq">
                                  <property role="2bfB8j" value="true" />
                                  <ref role="37wK5l" to="6f4m:4JdgAL_5wEf" resolve="NotMigratedNode" />
                                  <ref role="1Y3XeK" to="6f4m:4JdgAL_5vM9" resolve="NotMigratedNode" />
                                  <node concept="3Tm1VV" id="13xmEyWwAxq" role="1B3o_S" />
                                  <node concept="3clFb_" id="13xmEyWwAxr" role="jymVt">
                                    <property role="TrG5h" value="getMessage" />
                                    <property role="1EzhhJ" value="false" />
                                    <node concept="3uibUv" id="13xmEyWwAxs" role="3clF45">
                                      <ref role="3uigEE" to="wyt6:~String" resolve="String" />
                                    </node>
                                    <node concept="3Tm1VV" id="13xmEyWwAxt" role="1B3o_S" />
                                    <node concept="3clFbS" id="13xmEyWwAxu" role="3clF47">
                                      <node concept="3clFbF" id="13xmEyWwAxv" role="3cqZAp">
                                        <node concept="Xl_RD" id="13xmEyWwAxw" role="3clFbG">
                                          <property role="Xl_RC" value="Missing parenths around NotExpression" />
                                        </node>
                                      </node>
                                    </node>
                                  </node>
                                  <node concept="37vLTw" id="13xmEyWwAxx" role="37wK5m">
                                    <ref role="3cqZAo" node="13xmEyWww9U" resolve="it" />
                                  </node>
                                </node>
                              </node>
                            </node>
                            <node concept="3uibUv" id="13xmEyWwAEM" role="10QFUM">
                              <ref role="3uigEE" to="6f4m:3n7MNzO_IjP" resolve="Problem" />
                            </node>
                          </node>
                        </node>
                      </node>
                    </node>
                    <node concept="Rh6nW" id="13xmEyWww9U" role="1bW2Oz">
                      <property role="TrG5h" value="it" />
                      <node concept="2jxLKc" id="13xmEyWww9V" role="1tU5fm" />
                    </node>
                  </node>
                </node>
              </node>
            </node>
          </node>
          <node concept="37vLTw" id="13xmEyWwu6k" role="L3pyr">
            <ref role="3cqZAo" node="13xmEyWwu10" resolve="m" />
          </node>
        </node>
      </node>
      <node concept="ffn8J" id="13xmEyWwu10" role="3clF46">
        <property role="TrG5h" value="m" />
        <ref role="ffrpq" to="slm6:1JWcQ2VeXI5" resolve="m" />
        <node concept="3uibUv" id="13xmEyWwu0Z" role="1tU5fm">
          <ref role="3uigEE" to="lui2:~SModule" resolve="SModule" />
        </node>
      </node>
      <node concept="A3Dl8" id="13xmEyWwu11" role="3clF45">
        <node concept="3uibUv" id="13xmEyWwu12" role="A3Ik2">
          <ref role="3uigEE" to="6f4m:3n7MNzO_IjP" resolve="Problem" />
        </node>
      </node>
    </node>
  </node>
  <node concept="3SyAh_" id="7YwKlJL2hdt">
    <property role="qMTe8" value="1" />
    <property role="TrG5h" value="ReplaceSingleLineCommentsWithGenericComments" />
    <node concept="3Tm1VV" id="7YwKlJL2hdu" role="1B3o_S" />
    <node concept="3tTeZs" id="7YwKlJL2hdv" role="jymVt">
      <property role="3tTeZt" value="&lt;no execute after&gt;" />
      <ref role="3tTeZr" to="slm6:7ay_HjIMt1a" resolve="execute after" />
    </node>
    <node concept="3tTeZs" id="7YwKlJL2hdw" role="jymVt">
      <property role="3tTeZt" value="&lt;no required data&gt;" />
      <ref role="3tTeZr" to="slm6:3A3gNhf1WPI" resolve="requires data" />
    </node>
    <node concept="3tTeZs" id="7YwKlJL2hdx" role="jymVt">
      <property role="3tTeZt" value="&lt;no produced data&gt;" />
      <ref role="3tTeZr" to="slm6:536fTXa4WHO" resolve="produces data" />
    </node>
    <node concept="2tJIrI" id="7YwKlJL2hdy" role="jymVt" />
    <node concept="3tYpXE" id="7YwKlJL2hji" role="jymVt">
      <property role="TrG5h" value="description" />
      <property role="3tYpXF" value="Replace all non-textual nodes of SingleLineComment with the new generic way of commenting out code" />
      <ref role="25KYV2" to="slm6:1_lSsE3RFpE" resolve="description" />
      <node concept="3Tm1VV" id="7YwKlJL2hjk" role="1B3o_S" />
      <node concept="17QB3L" id="7YwKlJL2hjl" role="1tU5fm" />
    </node>
    <node concept="q3mfD" id="7YwKlJL2hd$" role="jymVt">
      <property role="TrG5h" value="execute" />
      <ref role="2VtyIY" to="slm6:4ubqdNOF9cA" resolve="execute" />
      <node concept="3Tm1VV" id="7YwKlJL2hdA" role="1B3o_S" />
      <node concept="3clFbS" id="7YwKlJL2hdC" role="3clF47">
        <node concept="3cpWs8" id="1Ij79tqteYv" role="3cqZAp">
          <node concept="3cpWsn" id="1Ij79tqteYw" role="3cpWs9">
            <property role="TrG5h" value="models" />
            <node concept="A3Dl8" id="1Ij79tqtjMk" role="1tU5fm">
              <node concept="H_c77" id="1Ij79tqtjSd" role="A3Ik2" />
            </node>
            <node concept="1eOMI4" id="4Bpw$w4mOBW" role="33vP2m">
              <node concept="10QFUN" id="1Ij79tqtkmU" role="1eOMHV">
                <node concept="2OqwBi" id="1Ij79tqteYx" role="10QFUP">
                  <node concept="37vLTw" id="1Ij79tqteYy" role="2Oq$k0">
                    <ref role="3cqZAo" node="7YwKlJL2hdE" resolve="m" />
                  </node>
                  <node concept="liA8E" id="1Ij79tqteYz" role="2OqNvi">
                    <ref role="37wK5l" to="lui2:~SModule.getModels():java.lang.Iterable" resolve="getModels" />
                  </node>
                </node>
                <node concept="A3Dl8" id="1Ij79tqtkmV" role="10QFUM">
                  <node concept="H_c77" id="1Ij79tqtkmW" role="A3Ik2" />
                </node>
              </node>
            </node>
          </node>
        </node>
        <node concept="3clFbF" id="7YwKlJL2j4Z" role="3cqZAp">
          <node concept="2OqwBi" id="7YwKlJL2jfs" role="3clFbG">
            <node concept="37vLTw" id="7YwKlJL2j4X" role="2Oq$k0">
              <ref role="3cqZAo" node="1Ij79tqteYw" resolve="models" />
            </node>
            <node concept="2es0OD" id="7YwKlJL2jMv" role="2OqNvi">
              <node concept="1bVj0M" id="7YwKlJL2jMx" role="23t8la">
                <node concept="3clFbS" id="7YwKlJL2jMy" role="1bW5cS">
                  <node concept="3clFbH" id="3$ZLRFpFIok" role="3cqZAp" />
                  <node concept="3SKdUt" id="3$ZLRFpIiws" role="3cqZAp">
                    <node concept="3SKdUq" id="3$ZLRFpIiIJ" role="3SKWNk">
                      <property role="3SKdUp" value="Remove meaningless empty text comment parts" />
                    </node>
                  </node>
                  <node concept="3clFbF" id="3$ZLRFpEExG" role="3cqZAp">
                    <node concept="2OqwBi" id="3$ZLRFpEWWP" role="3clFbG">
                      <node concept="2OqwBi" id="3$ZLRFpEFS9" role="2Oq$k0">
                        <node concept="2OqwBi" id="3$ZLRFpEEHe" role="2Oq$k0">
                          <node concept="37vLTw" id="3$ZLRFpEExE" role="2Oq$k0">
                            <ref role="3cqZAo" node="7YwKlJL2jMz" resolve="model" />
                          </node>
                          <node concept="2SmgA7" id="3$ZLRFpEEVd" role="2OqNvi">
                            <node concept="chp4Y" id="3$ZLRFpEF6O" role="1dBWTz">
                              <ref role="cht4Q" to="tpee:5vlcUuJ5uOX" resolve="TextCommentPart" />
                            </node>
                          </node>
                        </node>
                        <node concept="3zZkjj" id="3$ZLRFpEHRZ" role="2OqNvi">
                          <node concept="1bVj0M" id="3$ZLRFpEHS1" role="23t8la">
                            <node concept="3clFbS" id="3$ZLRFpEHS2" role="1bW5cS">
                              <node concept="3clFbF" id="3$ZLRFpEI5P" role="3cqZAp">
                                <node concept="1Wc70l" id="3$ZLRFpHRac" role="3clFbG">
                                  <node concept="2OqwBi" id="3$ZLRFpI3KO" role="3uHU7w">
                                    <node concept="2OqwBi" id="3$ZLRFpHREV" role="2Oq$k0">
                                      <node concept="37vLTw" id="3$ZLRFpHRqU" role="2Oq$k0">
                                        <ref role="3cqZAo" node="3$ZLRFpEHS3" resolve="it" />
                                      </node>
                                      <node concept="2TvwIu" id="3$ZLRFpI2YA" role="2OqNvi" />
                                    </node>
                                    <node concept="3GX2aA" id="3$ZLRFpI601" role="2OqNvi" />
                                  </node>
                                  <node concept="1Wc70l" id="3$ZLRFpEU$l" role="3uHU7B">
                                    <node concept="2OqwBi" id="3$ZLRFpEJ2m" role="3uHU7B">
                                      <node concept="2OqwBi" id="3$ZLRFpEIgB" role="2Oq$k0">
                                        <node concept="37vLTw" id="3$ZLRFpEI5O" role="2Oq$k0">
                                          <ref role="3cqZAo" node="3$ZLRFpEHS3" resolve="it" />
                                        </node>
                                        <node concept="1mfA1w" id="3$ZLRFpEIH$" role="2OqNvi" />
                                      </node>
                                      <node concept="1mIQ4w" id="3$ZLRFpEU3$" role="2OqNvi">
                                        <node concept="chp4Y" id="3$ZLRFpEUgd" role="cj9EA">
                                          <ref role="cht4Q" to="tpee:5vlcUuJ5uOU" resolve="SingleLineComment" />
                                        </node>
                                      </node>
                                    </node>
                                    <node concept="2OqwBi" id="3$ZLRFpHOQI" role="3uHU7w">
                                      <node concept="2OqwBi" id="3$ZLRFpEVLS" role="2Oq$k0">
                                        <node concept="2OqwBi" id="3$ZLRFpEUVn" role="2Oq$k0">
                                          <node concept="37vLTw" id="3$ZLRFpEUJM" role="2Oq$k0">
                                            <ref role="3cqZAo" node="3$ZLRFpEHS3" resolve="it" />
                                          </node>
                                          <node concept="3TrcHB" id="3$ZLRFpEViy" role="2OqNvi">
                                            <ref role="3TsBF5" to="tpee:5vlcUuJ5uOY" resolve="text" />
                                          </node>
                                        </node>
                                        <node concept="17S1cR" id="3$ZLRFpHOt0" role="2OqNvi" />
                                      </node>
                                      <node concept="17RlXB" id="3$ZLRFpHPHZ" role="2OqNvi" />
                                    </node>
                                  </node>
                                </node>
                              </node>
                            </node>
                            <node concept="Rh6nW" id="3$ZLRFpEHS3" role="1bW2Oz">
                              <property role="TrG5h" value="it" />
                              <node concept="2jxLKc" id="3$ZLRFpEHS4" role="1tU5fm" />
                            </node>
                          </node>
                        </node>
                      </node>
                      <node concept="2es0OD" id="3$ZLRFpEXCl" role="2OqNvi">
                        <node concept="1bVj0M" id="3$ZLRFpEXCn" role="23t8la">
                          <node concept="3clFbS" id="3$ZLRFpEXCo" role="1bW5cS">
                            <node concept="3clFbF" id="3$ZLRFpEXSJ" role="3cqZAp">
                              <node concept="2OqwBi" id="3$ZLRFpEY5l" role="3clFbG">
                                <node concept="37vLTw" id="3$ZLRFpEXSI" role="2Oq$k0">
                                  <ref role="3cqZAo" node="3$ZLRFpEXCp" resolve="it" />
                                </node>
                                <node concept="1PgB_6" id="3$ZLRFpFgil" role="2OqNvi" />
                              </node>
                            </node>
                          </node>
                          <node concept="Rh6nW" id="3$ZLRFpEXCp" role="1bW2Oz">
                            <property role="TrG5h" value="it" />
                            <node concept="2jxLKc" id="3$ZLRFpEXCq" role="1tU5fm" />
                          </node>
                        </node>
                      </node>
                    </node>
                  </node>
                  <node concept="3clFbH" id="3$ZLRFpFI4P" role="3cqZAp" />
                  <node concept="3cpWs8" id="54GdGFn5HSe" role="3cqZAp">
                    <node concept="3cpWsn" id="54GdGFn5HSh" role="3cpWs9">
                      <property role="TrG5h" value="moduleModified" />
                      <node concept="10P_77" id="54GdGFn5HSc" role="1tU5fm" />
                      <node concept="3clFbT" id="54GdGFn5I6w" role="33vP2m">
                        <property role="3clFbU" value="false" />
                      </node>
                    </node>
                  </node>
                  <node concept="3clFbF" id="7YwKlJL2jV$" role="3cqZAp">
                    <node concept="2OqwBi" id="7YwKlJL2l3i" role="3clFbG">
                      <node concept="2OqwBi" id="7YwKlJL2_Yi" role="2Oq$k0">
                        <node concept="2OqwBi" id="7YwKlJL2jXM" role="2Oq$k0">
                          <node concept="37vLTw" id="7YwKlJL2jVz" role="2Oq$k0">
                            <ref role="3cqZAo" node="7YwKlJL2jMz" resolve="model" />
                          </node>
                          <node concept="2SmgA7" id="7YwKlJL2k4k" role="2OqNvi">
                            <node concept="chp4Y" id="7YwKlJL2k65" role="1dBWTz">
                              <ref role="cht4Q" to="tpee:5vlcUuJ5uOU" resolve="SingleLineComment" />
                            </node>
                          </node>
                        </node>
                        <node concept="3zZkjj" id="7YwKlJL2N70" role="2OqNvi">
                          <node concept="1bVj0M" id="7YwKlJL2N72" role="23t8la">
                            <node concept="3clFbS" id="7YwKlJL2N73" role="1bW5cS">
                              <node concept="3clFbF" id="7YwKlJL2Nid" role="3cqZAp">
                                <node concept="1Wc70l" id="7YwKlJL3mLe" role="3clFbG">
                                  <node concept="3clFbC" id="7YwKlJL3NWy" role="3uHU7B">
                                    <node concept="3cmrfG" id="7YwKlJL3NWY" role="3uHU7w">
                                      <property role="3cmrfH" value="1" />
                                    </node>
                                    <node concept="2OqwBi" id="7YwKlJL3$eX" role="3uHU7B">
                                      <node concept="2OqwBi" id="7YwKlJL3nak" role="2Oq$k0">
                                        <node concept="37vLTw" id="7YwKlJL3mX9" role="2Oq$k0">
                                          <ref role="3cqZAo" node="7YwKlJL2N74" resolve="it" />
                                        </node>
                                        <node concept="3Tsc0h" id="7YwKlJL3z8b" role="2OqNvi">
                                          <ref role="3TtcxE" to="tpee:5vlcUuJ5JXN" />
                                        </node>
                                      </node>
                                      <node concept="34oBXx" id="7YwKlJL3LIA" role="2OqNvi" />
                                    </node>
                                  </node>
                                  <node concept="2OqwBi" id="7YwKlJL3Q_i" role="3uHU7w">
                                    <node concept="2OqwBi" id="7YwKlJL36Xq" role="2Oq$k0">
                                      <node concept="2OqwBi" id="7YwKlJL2NpF" role="2Oq$k0">
                                        <node concept="37vLTw" id="7YwKlJL2Nic" role="2Oq$k0">
                                          <ref role="3cqZAo" node="7YwKlJL2N74" resolve="it" />
                                        </node>
                                        <node concept="3Tsc0h" id="7YwKlJL2NJg" role="2OqNvi">
                                          <ref role="3TtcxE" to="tpee:5vlcUuJ5JXN" />
                                        </node>
                                      </node>
                                      <node concept="1uHKPH" id="7YwKlJL3OKX" role="2OqNvi" />
                                    </node>
                                    <node concept="1mIQ4w" id="7YwKlJL42Ks" role="2OqNvi">
                                      <node concept="chp4Y" id="7YwKlJL42Wr" role="cj9EA">
                                        <ref role="cht4Q" to="tpee:5vlcUuJ5JXB" resolve="StatementCommentPart" />
                                      </node>
                                    </node>
                                  </node>
                                </node>
                              </node>
                            </node>
                            <node concept="Rh6nW" id="7YwKlJL2N74" role="1bW2Oz">
                              <property role="TrG5h" value="it" />
                              <node concept="2jxLKc" id="7YwKlJL2N75" role="1tU5fm" />
                            </node>
                          </node>
                        </node>
                      </node>
                      <node concept="2es0OD" id="7YwKlJL2$zU" role="2OqNvi">
                        <node concept="1bVj0M" id="7YwKlJL2$zW" role="23t8la">
                          <node concept="3clFbS" id="7YwKlJL2$zX" role="1bW5cS">
                            <node concept="3cpWs8" id="7YwKlJL4L5_" role="3cqZAp">
                              <node concept="3cpWsn" id="7YwKlJL4L5A" role="3cpWs9">
                                <property role="TrG5h" value="stmt" />
                                <node concept="3Tqbb2" id="7YwKlJL4L4Q" role="1tU5fm">
                                  <ref role="ehGHo" to="tpee:fzclF8l" resolve="Statement" />
                                </node>
                                <node concept="2OqwBi" id="7YwKlJL4L5B" role="33vP2m">
                                  <node concept="37vLTw" id="7YwKlJL4L5C" role="2Oq$k0">
                                    <ref role="3cqZAo" node="7YwKlJL2$zY" resolve="oldComment" />
                                  </node>
                                  <node concept="1P9Npp" id="7YwKlJL4L5D" role="2OqNvi">
                                    <node concept="2OqwBi" id="7YwKlJL4Omp" role="1P9ThW">
                                      <node concept="1PxgMI" id="7YwKlJL4O42" role="2Oq$k0">
                                        <ref role="1m5ApE" to="tpee:5vlcUuJ5JXB" resolve="StatementCommentPart" />
                                        <node concept="2OqwBi" id="7YwKlJL4L5E" role="1m5AlR">
                                          <node concept="2OqwBi" id="7YwKlJL4L5F" role="2Oq$k0">
                                            <node concept="37vLTw" id="7YwKlJL4L5G" role="2Oq$k0">
                                              <ref role="3cqZAo" node="7YwKlJL2$zY" resolve="oldComment" />
                                            </node>
                                            <node concept="3Tsc0h" id="7YwKlJL4L5H" role="2OqNvi">
                                              <ref role="3TtcxE" to="tpee:5vlcUuJ5JXN" />
                                            </node>
                                          </node>
                                          <node concept="1uHKPH" id="7YwKlJL4L5I" role="2OqNvi" />
                                        </node>
                                      </node>
                                      <node concept="3TrEf2" id="7YwKlJL4ODK" role="2OqNvi">
                                        <ref role="3Tt5mk" to="tpee:5vlcUuJ5JXC" />
                                      </node>
                                    </node>
                                  </node>
                                </node>
                              </node>
                            </node>
                            <node concept="3clFbF" id="7YwKlJL4Kyl" role="3cqZAp">
                              <node concept="2YIFZM" id="7YwKlJL4KP8" role="3clFbG">
                                <ref role="37wK5l" to="wcxw:2ETBKOyiRJO" resolve="commentOut" />
                                <ref role="1Pybhc" to="wcxw:5FzO4t9gN3W" resolve="CommentUtil" />
                                <node concept="37vLTw" id="7YwKlJL4PnB" role="37wK5m">
                                  <ref role="3cqZAo" node="7YwKlJL4L5A" resolve="stmt" />
                                </node>
                              </node>
                            </node>
                            <node concept="3clFbF" id="54GdGFn5ISD" role="3cqZAp">
                              <node concept="37vLTI" id="54GdGFn5Jha" role="3clFbG">
                                <node concept="3clFbT" id="54GdGFn5Jou" role="37vLTx">
                                  <property role="3clFbU" value="true" />
                                </node>
                                <node concept="37vLTw" id="54GdGFn5ISB" role="37vLTJ">
                                  <ref role="3cqZAo" node="54GdGFn5HSh" resolve="moduleModified" />
                                </node>
                              </node>
                            </node>
                          </node>
                          <node concept="Rh6nW" id="7YwKlJL2$zY" role="1bW2Oz">
                            <property role="TrG5h" value="oldComment" />
                            <node concept="2jxLKc" id="7YwKlJL2$zZ" role="1tU5fm" />
                          </node>
                        </node>
                      </node>
                    </node>
                  </node>
                  <node concept="3clFbJ" id="1OSFyd0xQfG" role="3cqZAp">
                    <node concept="3clFbS" id="1OSFyd0xQfH" role="3clFbx">
                      <node concept="3clFbF" id="54GdGFn5Fkp" role="3cqZAp">
                        <node concept="2YIFZM" id="54GdGFn5Hdo" role="3clFbG">
                          <ref role="37wK5l" to="tpcz:54GdGFn5FyU" resolve="addDependencyOnCoreIfMissing" />
                          <ref role="1Pybhc" to="tpcz:v01Wj46Dq4" resolve="ModuleDependencyUtils" />
                          <node concept="37vLTw" id="1OSFyd0xOwp" role="37wK5m">
                            <ref role="3cqZAo" node="7YwKlJL2jMz" resolve="model" />
                          </node>
                        </node>
                      </node>
                    </node>
                    <node concept="37vLTw" id="1OSFyd0xQtD" role="3clFbw">
                      <ref role="3cqZAo" node="54GdGFn5HSh" resolve="moduleModified" />
                    </node>
                  </node>
                </node>
                <node concept="Rh6nW" id="7YwKlJL2jMz" role="1bW2Oz">
                  <property role="TrG5h" value="model" />
                  <node concept="2jxLKc" id="7YwKlJL2jM$" role="1tU5fm" />
                </node>
              </node>
            </node>
          </node>
        </node>
      </node>
      <node concept="ffn8J" id="7YwKlJL2hdE" role="3clF46">
        <property role="TrG5h" value="m" />
        <ref role="ffrpq" to="slm6:7fCCGqboj9J" resolve="m" />
        <node concept="3uibUv" id="7YwKlJL2hdD" role="1tU5fm">
          <ref role="3uigEE" to="lui2:~SModule" resolve="SModule" />
        </node>
      </node>
      <node concept="q3mfm" id="7YwKlJL2hdF" role="3clF45">
        <ref role="q3mfh" to="slm6:4F5w8gPXEEe" />
        <ref role="1QQUv3" node="7YwKlJL2hd$" resolve="execute" />
      </node>
    </node>
    <node concept="3tYpMH" id="4JdgAL_4sYw" role="jymVt">
      <property role="TrG5h" value="isRerunnable" />
      <property role="3tYpME" value="true" />
      <ref role="25KYV2" to="slm6:1JWcQ2VeWIs" resolve="isRerunnable" />
      <node concept="3Tm1VV" id="4JdgAL_4sYy" role="1B3o_S" />
      <node concept="10P_77" id="4JdgAL_4sYz" role="1tU5fm" />
    </node>
    <node concept="q3mfD" id="4JdgAL_4tcc" role="jymVt">
      <property role="TrG5h" value="check" />
      <ref role="2VtyIY" to="slm6:1JWcQ2VeXpD" resolve="check" />
      <node concept="3Tm1VV" id="4JdgAL_4tce" role="1B3o_S" />
      <node concept="3clFbS" id="4JdgAL_4tcg" role="3clF47">
        <node concept="L3pyB" id="4JdgAL_4Z6U" role="3cqZAp">
          <node concept="3clFbS" id="4JdgAL_4Z6V" role="L3pyw">
            <node concept="3cpWs6" id="4JdgAL_52Ij" role="3cqZAp">
              <node concept="2OqwBi" id="4JdgAL_50tp" role="3cqZAk">
                <node concept="qVDSY" id="4JdgAL_4Zf0" role="2Oq$k0">
                  <node concept="1dO9Bo" id="4JdgAL_4Zf1" role="1dOa5D" />
                  <node concept="chp4Y" id="4JdgAL_4ZfU" role="qVDSX">
                    <ref role="cht4Q" to="tpee:5vlcUuJ5JXB" resolve="StatementCommentPart" />
                  </node>
                </node>
                <node concept="3$u5V9" id="4JdgAL_50Px" role="2OqNvi">
                  <node concept="1bVj0M" id="4JdgAL_50Pz" role="23t8la">
                    <node concept="3clFbS" id="4JdgAL_50P$" role="1bW5cS">
                      <node concept="3clFbF" id="4JdgAL_50Va" role="3cqZAp">
                        <node concept="1eOMI4" id="6En3ZbjlDpk" role="3clFbG">
                          <node concept="10QFUN" id="6En3ZbjlDpl" role="1eOMHV">
                            <node concept="2ShNRf" id="6En3ZbjlDph" role="10QFUP">
                              <node concept="1pGfFk" id="6En3ZbjlDpi" role="2ShVmc">
                                <ref role="37wK5l" to="6f4m:6oJSkzEcOjg" resolve="DeprecatedConceptNotMigratedProblem" />
                                <node concept="37vLTw" id="6En3ZbjlDpj" role="37wK5m">
                                  <ref role="3cqZAo" node="4JdgAL_50P_" resolve="it" />
                                </node>
                              </node>
                            </node>
                            <node concept="3uibUv" id="6En3ZbjlDvM" role="10QFUM">
                              <ref role="3uigEE" to="6f4m:3n7MNzO_IjP" resolve="Problem" />
                            </node>
                          </node>
                        </node>
                      </node>
                    </node>
                    <node concept="Rh6nW" id="4JdgAL_50P_" role="1bW2Oz">
                      <property role="TrG5h" value="it" />
                      <node concept="2jxLKc" id="4JdgAL_50PA" role="1tU5fm" />
                    </node>
                  </node>
                </node>
              </node>
            </node>
          </node>
          <node concept="37vLTw" id="4JdgAL_4Z7Q" role="L3pyr">
            <ref role="3cqZAo" node="4JdgAL_4tci" resolve="m" />
          </node>
        </node>
      </node>
      <node concept="ffn8J" id="4JdgAL_4tci" role="3clF46">
        <property role="TrG5h" value="m" />
        <ref role="ffrpq" to="slm6:1JWcQ2VeXI5" resolve="m" />
        <node concept="3uibUv" id="4JdgAL_4tch" role="1tU5fm">
          <ref role="3uigEE" to="lui2:~SModule" resolve="SModule" />
        </node>
      </node>
      <node concept="A3Dl8" id="4JdgAL_52zj" role="3clF45">
        <node concept="3uibUv" id="4JdgAL_52zk" role="A3Ik2">
          <ref role="3uigEE" to="6f4m:3n7MNzO_IjP" resolve="Problem" />
        </node>
      </node>
    </node>
  </node>
  <node concept="3SyAh_" id="161JGLBM_kS">
    <property role="qMTe8" value="2" />
    <property role="TrG5h" value="RemoveUsagesOfDeprecatedProperty" />
    <node concept="3Tm1VV" id="161JGLBM_kT" role="1B3o_S" />
    <node concept="3tTeZs" id="161JGLBM_kU" role="jymVt">
      <property role="3tTeZt" value="&lt;no execute after&gt;" />
      <ref role="3tTeZr" to="slm6:7ay_HjIMt1a" resolve="execute after" />
    </node>
    <node concept="3tTeZs" id="161JGLBM_kV" role="jymVt">
      <property role="3tTeZt" value="&lt;no required data&gt;" />
      <ref role="3tTeZr" to="slm6:3A3gNhf1WPI" resolve="requires data" />
    </node>
    <node concept="3tTeZs" id="161JGLBM_kW" role="jymVt">
      <property role="3tTeZt" value="&lt;no produced data&gt;" />
      <ref role="3tTeZr" to="slm6:536fTXa4WHO" resolve="produces data" />
    </node>
    <node concept="2tJIrI" id="161JGLBM_kX" role="jymVt" />
    <node concept="3tTeZs" id="161JGLBM_kY" role="jymVt">
      <property role="3tTeZt" value="&lt;description&gt;" />
      <ref role="3tTeZr" to="slm6:1_lSsE3RFpE" resolve="description" />
    </node>
    <node concept="q3mfD" id="161JGLBM_kZ" role="jymVt">
      <property role="TrG5h" value="execute" />
      <ref role="2VtyIY" to="slm6:4ubqdNOF9cA" resolve="execute" />
      <node concept="3Tm1VV" id="161JGLBM_l1" role="1B3o_S" />
      <node concept="3clFbS" id="161JGLBM_l3" role="3clF47">
        <node concept="L3pyB" id="161JGLBMA7y" role="3cqZAp">
          <node concept="37vLTw" id="161JGLBMAsu" role="L3pyr">
            <ref role="3cqZAo" node="161JGLBM_l5" resolve="m" />
          </node>
          <node concept="3clFbS" id="161JGLBMA7A" role="L3pyw">
            <node concept="3clFbF" id="161JGLBMBIJ" role="3cqZAp">
              <node concept="2OqwBi" id="161JGLBMC5V" role="3clFbG">
                <node concept="2OqwBi" id="161JGLBMBHO" role="2Oq$k0">
                  <node concept="qVDSY" id="161JGLBMBHP" role="2Oq$k0">
                    <node concept="chp4Y" id="161JGLBMBHQ" role="qVDSX">
                      <ref role="cht4Q" to="tpee:hOIEacT" resolve="IBLDeprecatable" />
                    </node>
                    <node concept="1dO9Bo" id="161JGLBMBHR" role="1dOa5D" />
                  </node>
                  <node concept="3zZkjj" id="161JGLBMBHS" role="2OqNvi">
                    <node concept="1bVj0M" id="161JGLBMBHT" role="23t8la">
                      <node concept="3clFbS" id="161JGLBMBHU" role="1bW5cS">
                        <node concept="3clFbF" id="161JGLBMBHV" role="3cqZAp">
                          <node concept="1Wc70l" id="161JGLBMBHW" role="3clFbG">
                            <node concept="2OqwBi" id="161JGLBMBHX" role="3uHU7B">
                              <node concept="37vLTw" id="161JGLBMBHY" role="2Oq$k0">
                                <ref role="3cqZAo" node="161JGLBMBIH" resolve="it" />
                              </node>
                              <node concept="3TrcHB" id="161JGLBMBHZ" role="2OqNvi">
                                <ref role="3TsBF5" to="tpee:hOIEky$" resolve="isDeprecated" />
                              </node>
                            </node>
                            <node concept="2OqwBi" id="161JGLBMBI0" role="3uHU7w">
                              <node concept="2OqwBi" id="161JGLBMBI1" role="2Oq$k0">
                                <node concept="2OqwBi" id="161JGLBMBI2" role="2Oq$k0">
                                  <node concept="37vLTw" id="161JGLBMBI3" role="2Oq$k0">
                                    <ref role="3cqZAo" node="161JGLBMBIH" resolve="it" />
                                  </node>
                                  <node concept="2Xjw5R" id="161JGLBMBI4" role="2OqNvi">
                                    <node concept="1xMEDy" id="161JGLBMBI5" role="1xVPHs">
                                      <node concept="chp4Y" id="161JGLBMBI6" role="ri$Ld">
                                        <ref role="cht4Q" to="tpee:hiAJDhU" resolve="HasAnnotation" />
                                      </node>
                                    </node>
                                    <node concept="1xIGOp" id="161JGLBMBI7" role="1xVPHs" />
                                  </node>
                                </node>
                                <node concept="3Tsc0h" id="161JGLBMBI8" role="2OqNvi">
                                  <ref role="3TtcxE" to="tpee:hiAJF2X" />
                                </node>
                              </node>
                              <node concept="2HxqBE" id="161JGLBMBI9" role="2OqNvi">
                                <node concept="1bVj0M" id="161JGLBMBIa" role="23t8la">
                                  <node concept="3clFbS" id="161JGLBMBIb" role="1bW5cS">
                                    <node concept="3cpWs8" id="161JGLBMBIc" role="3cqZAp">
                                      <node concept="3cpWsn" id="161JGLBMBId" role="3cpWs9">
                                        <property role="TrG5h" value="annotationLink" />
                                        <node concept="3Tqbb2" id="161JGLBMBIe" role="1tU5fm">
                                          <ref role="ehGHo" to="tpee:hiABswc" resolve="Annotation" />
                                        </node>
                                        <node concept="2OqwBi" id="161JGLBMBIf" role="33vP2m">
                                          <node concept="37vLTw" id="161JGLBMBIg" role="2Oq$k0">
                                            <ref role="3cqZAo" node="161JGLBMBIF" resolve="annotation" />
                                          </node>
                                          <node concept="3TrEf2" id="161JGLBMBIh" role="2OqNvi">
                                            <ref role="3Tt5mk" to="tpee:hiAI5P0" />
                                          </node>
                                        </node>
                                      </node>
                                    </node>
                                    <node concept="3clFbJ" id="161JGLBMBIi" role="3cqZAp">
                                      <node concept="3clFbS" id="161JGLBMBIj" role="3clFbx">
                                        <node concept="3cpWs6" id="161JGLBMBIk" role="3cqZAp">
                                          <node concept="3clFbT" id="161JGLBMBIl" role="3cqZAk">
                                            <property role="3clFbU" value="true" />
                                          </node>
                                        </node>
                                      </node>
                                      <node concept="22lmx$" id="161JGLBMBIm" role="3clFbw">
                                        <node concept="3clFbC" id="161JGLBMBIn" role="3uHU7w">
                                          <node concept="10Nm6u" id="161JGLBMBIo" role="3uHU7w" />
                                          <node concept="2OqwBi" id="161JGLBMBIp" role="3uHU7B">
                                            <node concept="37vLTw" id="161JGLBMBIq" role="2Oq$k0">
                                              <ref role="3cqZAo" node="161JGLBMBId" resolve="annotationLink" />
                                            </node>
                                            <node concept="3TrcHB" id="161JGLBMBIr" role="2OqNvi">
                                              <ref role="3TsBF5" to="tpck:h0TrG11" resolve="name" />
                                            </node>
                                          </node>
                                        </node>
                                        <node concept="22lmx$" id="161JGLBMBIs" role="3uHU7B">
                                          <node concept="2OqwBi" id="161JGLBMBIt" role="3uHU7B">
                                            <node concept="37vLTw" id="161JGLBMBIu" role="2Oq$k0">
                                              <ref role="3cqZAo" node="161JGLBMBIF" resolve="annotation" />
                                            </node>
                                            <node concept="3w_OXm" id="161JGLBMBIv" role="2OqNvi" />
                                          </node>
                                          <node concept="2OqwBi" id="161JGLBMBIw" role="3uHU7w">
                                            <node concept="37vLTw" id="161JGLBMBIx" role="2Oq$k0">
                                              <ref role="3cqZAo" node="161JGLBMBId" resolve="annotationLink" />
                                            </node>
                                            <node concept="3w_OXm" id="161JGLBMBIy" role="2OqNvi" />
                                          </node>
                                        </node>
                                      </node>
                                    </node>
                                    <node concept="3cpWs6" id="161JGLBMBIz" role="3cqZAp">
                                      <node concept="3fqX7Q" id="161JGLBMBI$" role="3cqZAk">
                                        <node concept="2OqwBi" id="161JGLBMBI_" role="3fr31v">
                                          <node concept="2OqwBi" id="161JGLBMBIA" role="2Oq$k0">
                                            <node concept="37vLTw" id="161JGLBMBIB" role="2Oq$k0">
                                              <ref role="3cqZAo" node="161JGLBMBId" resolve="annotationLink" />
                                            </node>
                                            <node concept="3TrcHB" id="161JGLBMBIC" role="2OqNvi">
                                              <ref role="3TsBF5" to="tpck:h0TrG11" resolve="name" />
                                            </node>
                                          </node>
                                          <node concept="liA8E" id="161JGLBMBID" role="2OqNvi">
                                            <ref role="37wK5l" to="wyt6:~String.equals(java.lang.Object):boolean" resolve="equals" />
                                            <node concept="Xl_RD" id="161JGLBMBIE" role="37wK5m">
                                              <property role="Xl_RC" value="Deprecated" />
                                            </node>
                                          </node>
                                        </node>
                                      </node>
                                    </node>
                                  </node>
                                  <node concept="Rh6nW" id="161JGLBMBIF" role="1bW2Oz">
                                    <property role="TrG5h" value="annotation" />
                                    <node concept="2jxLKc" id="161JGLBMBIG" role="1tU5fm" />
                                  </node>
                                </node>
                              </node>
                            </node>
                          </node>
                        </node>
                      </node>
                      <node concept="Rh6nW" id="161JGLBMBIH" role="1bW2Oz">
                        <property role="TrG5h" value="it" />
                        <node concept="2jxLKc" id="161JGLBMBII" role="1tU5fm" />
                      </node>
                    </node>
                  </node>
                </node>
                <node concept="2es0OD" id="161JGLBMCLS" role="2OqNvi">
                  <node concept="1bVj0M" id="161JGLBMCLU" role="23t8la">
                    <node concept="3clFbS" id="161JGLBMCLV" role="1bW5cS">
                      <node concept="3clFbF" id="161JGLBMCQ$" role="3cqZAp">
                        <node concept="2OqwBi" id="161JGLBMCYr" role="3clFbG">
                          <node concept="37vLTw" id="161JGLBMCQz" role="2Oq$k0">
                            <ref role="3cqZAo" node="161JGLBMCLW" resolve="it" />
                          </node>
                          <node concept="2qgKlT" id="161JGLBMDfZ" role="2OqNvi">
                            <ref role="37wK5l" to="tpek:6Va_BJexupi" resolve="markDeprecated" />
                          </node>
                        </node>
                      </node>
                      <node concept="3clFbF" id="161JGLBMDCz" role="3cqZAp">
                        <node concept="2OqwBi" id="161JGLBMEsZ" role="3clFbG">
                          <node concept="2OqwBi" id="161JGLBMDKz" role="2Oq$k0">
                            <node concept="37vLTw" id="161JGLBMDCx" role="2Oq$k0">
                              <ref role="3cqZAo" node="161JGLBMCLW" resolve="it" />
                            </node>
                            <node concept="3TrcHB" id="161JGLBME2G" role="2OqNvi">
                              <ref role="3TsBF5" to="tpee:hOIEky$" resolve="isDeprecated" />
                            </node>
                          </node>
                          <node concept="tyxLq" id="161JGLBMJo0" role="2OqNvi">
                            <node concept="3clFbT" id="161JGLBMJzb" role="tz02z">
                              <property role="3clFbU" value="false" />
                            </node>
                          </node>
                        </node>
                      </node>
                    </node>
                    <node concept="Rh6nW" id="161JGLBMCLW" role="1bW2Oz">
                      <property role="TrG5h" value="it" />
                      <node concept="2jxLKc" id="161JGLBMCLX" role="1tU5fm" />
                    </node>
                  </node>
                </node>
              </node>
            </node>
            <node concept="3clFbH" id="161JGLBMBGB" role="3cqZAp" />
            <node concept="3clFbF" id="161JGLBM_Bp" role="3cqZAp">
              <node concept="2OqwBi" id="161JGLBMAI5" role="3clFbG">
                <node concept="2OqwBi" id="161JGLBM_B4" role="2Oq$k0">
                  <node concept="qVDSY" id="161JGLBM_B5" role="2Oq$k0">
                    <node concept="chp4Y" id="161JGLBM_B6" role="qVDSX">
                      <ref role="cht4Q" to="tpee:hOIEacT" resolve="IBLDeprecatable" />
                    </node>
                    <node concept="1dO9Bo" id="161JGLBM_B7" role="1dOa5D" />
                  </node>
                  <node concept="3zZkjj" id="161JGLBM_B8" role="2OqNvi">
                    <node concept="1bVj0M" id="161JGLBM_B9" role="23t8la">
                      <node concept="3clFbS" id="161JGLBM_Ba" role="1bW5cS">
                        <node concept="3clFbF" id="161JGLBM_Bb" role="3cqZAp">
                          <node concept="1Wc70l" id="44rUiz3OF$e" role="3clFbG">
                            <node concept="2OqwBi" id="161JGLBM_Bd" role="3uHU7B">
                              <node concept="37vLTw" id="161JGLBM_Be" role="2Oq$k0">
                                <ref role="3cqZAo" node="161JGLBM_Bn" resolve="it" />
                              </node>
                              <node concept="3TrcHB" id="161JGLBM_Bf" role="2OqNvi">
                                <ref role="3TsBF5" to="tpee:hOIEky$" resolve="isDeprecated" />
                              </node>
                            </node>
                            <node concept="2OqwBi" id="44rUiz3O_Tk" role="3uHU7w">
                              <node concept="2OqwBi" id="44rUiz3O_Tl" role="2Oq$k0">
                                <node concept="2OqwBi" id="44rUiz3O_Tm" role="2Oq$k0">
                                  <node concept="2OqwBi" id="44rUiz3O_Tn" role="2Oq$k0">
                                    <node concept="37vLTw" id="44rUiz3O_To" role="2Oq$k0">
                                      <ref role="3cqZAo" node="161JGLBM_Bn" resolve="it" />
                                    </node>
                                    <node concept="32TBzR" id="44rUiz3O_Tp" role="2OqNvi" />
                                  </node>
                                  <node concept="3zZkjj" id="44rUiz3O_Tq" role="2OqNvi">
                                    <node concept="1bVj0M" id="44rUiz3O_Tr" role="23t8la">
                                      <node concept="3clFbS" id="44rUiz3O_Ts" role="1bW5cS">
                                        <node concept="3clFbF" id="44rUiz3O_Tt" role="3cqZAp">
                                          <node concept="2OqwBi" id="44rUiz3O_Tu" role="3clFbG">
                                            <node concept="37vLTw" id="44rUiz3O_Tv" role="2Oq$k0">
                                              <ref role="3cqZAo" node="44rUiz3O_Ty" resolve="it" />
                                            </node>
                                            <node concept="1mIQ4w" id="44rUiz3O_Tw" role="2OqNvi">
                                              <node concept="chp4Y" id="44rUiz3O_Tx" role="cj9EA">
                                                <ref role="cht4Q" to="m373:4CW56HZFB3j" resolve="BaseDocComment" />
                                              </node>
                                            </node>
                                          </node>
                                        </node>
                                      </node>
                                      <node concept="Rh6nW" id="44rUiz3O_Ty" role="1bW2Oz">
                                        <property role="TrG5h" value="it" />
                                        <node concept="2jxLKc" id="44rUiz3O_Tz" role="1tU5fm" />
                                      </node>
                                    </node>
                                  </node>
                                </node>
                                <node concept="3goQfb" id="44rUiz3O_T$" role="2OqNvi">
                                  <node concept="1bVj0M" id="44rUiz3O_T_" role="23t8la">
                                    <node concept="3clFbS" id="44rUiz3O_TA" role="1bW5cS">
                                      <node concept="3clFbF" id="44rUiz3O_TB" role="3cqZAp">
                                        <node concept="2OqwBi" id="44rUiz3O_TC" role="3clFbG">
                                          <node concept="37vLTw" id="44rUiz3O_TD" role="2Oq$k0">
                                            <ref role="3cqZAo" node="44rUiz3O_TH" resolve="it" />
                                          </node>
                                          <node concept="2Rf3mk" id="44rUiz3O_TE" role="2OqNvi">
                                            <node concept="1xMEDy" id="44rUiz3O_TF" role="1xVPHs">
                                              <node concept="chp4Y" id="44rUiz3O_TG" role="ri$Ld">
                                                <ref role="cht4Q" to="m373:7lVCwDcxZ_$" resolve="DeprecatedBlockDocTag" />
                                              </node>
                                            </node>
                                          </node>
                                        </node>
                                      </node>
                                    </node>
                                    <node concept="Rh6nW" id="44rUiz3O_TH" role="1bW2Oz">
                                      <property role="TrG5h" value="it" />
                                      <node concept="2jxLKc" id="44rUiz3O_TI" role="1tU5fm" />
                                    </node>
                                  </node>
                                </node>
                              </node>
                              <node concept="1v1jN8" id="44rUiz3OGsY" role="2OqNvi" />
                            </node>
                          </node>
                        </node>
                      </node>
                      <node concept="Rh6nW" id="161JGLBM_Bn" role="1bW2Oz">
                        <property role="TrG5h" value="it" />
                        <node concept="2jxLKc" id="161JGLBM_Bo" role="1tU5fm" />
                      </node>
                    </node>
                  </node>
                </node>
                <node concept="2es0OD" id="161JGLBMBgx" role="2OqNvi">
                  <node concept="1bVj0M" id="161JGLBMBgz" role="23t8la">
                    <node concept="3clFbS" id="161JGLBMBg$" role="1bW5cS">
                      <node concept="3clFbF" id="161JGLBMBl4" role="3cqZAp">
                        <node concept="2OqwBi" id="161JGLBMBqh" role="3clFbG">
                          <node concept="37vLTw" id="161JGLBMBl3" role="2Oq$k0">
                            <ref role="3cqZAo" node="161JGLBMBg_" resolve="it" />
                          </node>
                          <node concept="2qgKlT" id="161JGLBMBAl" role="2OqNvi">
                            <ref role="37wK5l" to="tpek:6Va_BJexupi" resolve="markDeprecated" />
                          </node>
                        </node>
                      </node>
                      <node concept="3clFbF" id="161JGLBMJNi" role="3cqZAp">
                        <node concept="2OqwBi" id="161JGLBMJNj" role="3clFbG">
                          <node concept="2OqwBi" id="161JGLBMJNk" role="2Oq$k0">
                            <node concept="37vLTw" id="161JGLBMJNl" role="2Oq$k0">
                              <ref role="3cqZAo" node="161JGLBMBg_" resolve="it" />
                            </node>
                            <node concept="3TrcHB" id="161JGLBMJNm" role="2OqNvi">
                              <ref role="3TsBF5" to="tpee:hOIEky$" resolve="isDeprecated" />
                            </node>
                          </node>
                          <node concept="tyxLq" id="161JGLBMJNn" role="2OqNvi">
                            <node concept="3clFbT" id="161JGLBMJNo" role="tz02z">
                              <property role="3clFbU" value="false" />
                            </node>
                          </node>
                        </node>
                      </node>
                    </node>
                    <node concept="Rh6nW" id="161JGLBMBg_" role="1bW2Oz">
                      <property role="TrG5h" value="it" />
                      <node concept="2jxLKc" id="161JGLBMBgA" role="1tU5fm" />
                    </node>
                  </node>
                </node>
              </node>
            </node>
            <node concept="3clFbH" id="18rHNI7HL1q" role="3cqZAp" />
            <node concept="3clFbF" id="18rHNI7HL9N" role="3cqZAp">
              <node concept="2OqwBi" id="18rHNI7I3V2" role="3clFbG">
                <node concept="2OqwBi" id="18rHNI7I38S" role="2Oq$k0">
                  <node concept="qVDSY" id="18rHNI7HL9I" role="2Oq$k0">
                    <node concept="chp4Y" id="18rHNI7HLcE" role="qVDSX">
                      <ref role="cht4Q" to="tpee:hOIEacT" resolve="IBLDeprecatable" />
                    </node>
                    <node concept="1dO9Bo" id="18rHNI7HL9L" role="1dOa5D" />
                  </node>
                  <node concept="3zZkjj" id="18rHNI7I3pe" role="2OqNvi">
                    <node concept="1bVj0M" id="18rHNI7I3pg" role="23t8la">
                      <node concept="3clFbS" id="18rHNI7I3ph" role="1bW5cS">
                        <node concept="3clFbF" id="18rHNI7I3ub" role="3cqZAp">
                          <node concept="2OqwBi" id="18rHNI7I3yp" role="3clFbG">
                            <node concept="37vLTw" id="18rHNI7I3ua" role="2Oq$k0">
                              <ref role="3cqZAo" node="18rHNI7I3pi" resolve="it" />
                            </node>
                            <node concept="3TrcHB" id="18rHNI7I3G5" role="2OqNvi">
                              <ref role="3TsBF5" to="tpee:hOIEky$" resolve="isDeprecated" />
                            </node>
                          </node>
                        </node>
                      </node>
                      <node concept="Rh6nW" id="18rHNI7I3pi" role="1bW2Oz">
                        <property role="TrG5h" value="it" />
                        <node concept="2jxLKc" id="18rHNI7I3pj" role="1tU5fm" />
                      </node>
                    </node>
                  </node>
                </node>
                <node concept="2es0OD" id="18rHNI7I4t3" role="2OqNvi">
                  <node concept="1bVj0M" id="18rHNI7I4t5" role="23t8la">
                    <node concept="3clFbS" id="18rHNI7I4t6" role="1bW5cS">
                      <node concept="3clFbF" id="18rHNI7I4xB" role="3cqZAp">
                        <node concept="2OqwBi" id="18rHNI7I55L" role="3clFbG">
                          <node concept="2OqwBi" id="18rHNI7I4AD" role="2Oq$k0">
                            <node concept="37vLTw" id="18rHNI7I4xA" role="2Oq$k0">
                              <ref role="3cqZAo" node="18rHNI7I4t7" resolve="it" />
                            </node>
                            <node concept="3TrcHB" id="18rHNI7I4M6" role="2OqNvi">
                              <ref role="3TsBF5" to="tpee:hOIEky$" resolve="isDeprecated" />
                            </node>
                          </node>
                          <node concept="tyxLq" id="18rHNI7I7rV" role="2OqNvi">
                            <node concept="3clFbT" id="18rHNI7I7wu" role="tz02z">
                              <property role="3clFbU" value="false" />
                            </node>
                          </node>
                        </node>
                      </node>
                    </node>
                    <node concept="Rh6nW" id="18rHNI7I4t7" role="1bW2Oz">
                      <property role="TrG5h" value="it" />
                      <node concept="2jxLKc" id="18rHNI7I4t8" role="1tU5fm" />
                    </node>
                  </node>
                </node>
              </node>
            </node>
          </node>
        </node>
      </node>
      <node concept="ffn8J" id="161JGLBM_l5" role="3clF46">
        <property role="TrG5h" value="m" />
        <ref role="ffrpq" to="slm6:7fCCGqboj9J" resolve="m" />
        <node concept="3uibUv" id="161JGLBM_l4" role="1tU5fm">
          <ref role="3uigEE" to="lui2:~SModule" resolve="SModule" />
        </node>
      </node>
      <node concept="q3mfm" id="161JGLBM_l6" role="3clF45">
        <ref role="q3mfh" to="slm6:4F5w8gPXEEe" />
        <ref role="1QQUv3" node="161JGLBM_kZ" resolve="execute" />
      </node>
    </node>
    <node concept="3tYpMH" id="4JdgAL_53mZ" role="jymVt">
      <property role="TrG5h" value="isRerunnable" />
      <property role="3tYpME" value="true" />
      <ref role="25KYV2" to="slm6:1JWcQ2VeWIs" resolve="isRerunnable" />
      <node concept="3Tm1VV" id="4JdgAL_53n1" role="1B3o_S" />
      <node concept="10P_77" id="4JdgAL_53n2" role="1tU5fm" />
    </node>
    <node concept="q3mfD" id="4JdgAL_53ww" role="jymVt">
      <property role="TrG5h" value="check" />
      <ref role="2VtyIY" to="slm6:1JWcQ2VeXpD" resolve="check" />
      <node concept="3Tm1VV" id="4JdgAL_53wy" role="1B3o_S" />
      <node concept="3clFbS" id="4JdgAL_53w$" role="3clF47">
        <node concept="L3pyB" id="4JdgAL_56P8" role="3cqZAp">
          <node concept="3clFbS" id="4JdgAL_56P9" role="L3pyw">
            <node concept="3cpWs6" id="4JdgAL_56ZS" role="3cqZAp">
              <node concept="2OqwBi" id="4JdgAL_55Q9" role="3cqZAk">
                <node concept="2OqwBi" id="4JdgAL_53O$" role="2Oq$k0">
                  <node concept="qVDSY" id="4JdgAL_53Ej" role="2Oq$k0">
                    <node concept="1dO9Bo" id="4JdgAL_53Ek" role="1dOa5D" />
                    <node concept="chp4Y" id="4JdgAL_53Gt" role="qVDSX">
                      <ref role="cht4Q" to="tpee:hOIEacT" resolve="IBLDeprecatable" />
                    </node>
                  </node>
                  <node concept="3zZkjj" id="4JdgAL_553Z" role="2OqNvi">
                    <node concept="1bVj0M" id="4JdgAL_5541" role="23t8la">
                      <node concept="3clFbS" id="4JdgAL_5542" role="1bW5cS">
                        <node concept="3clFbF" id="4JdgAL_55aw" role="3cqZAp">
                          <node concept="2OqwBi" id="61H$Q7rK8GV" role="3clFbG">
                            <node concept="37vLTw" id="4JdgAL_55av" role="2Oq$k0">
                              <ref role="3cqZAo" node="4JdgAL_5543" resolve="it" />
                            </node>
                            <node concept="3TrcHB" id="61H$Q7rK8Pd" role="2OqNvi">
                              <ref role="3TsBF5" to="tpee:hOIEky$" resolve="isDeprecated" />
                            </node>
                          </node>
                        </node>
                      </node>
                      <node concept="Rh6nW" id="4JdgAL_5543" role="1bW2Oz">
                        <property role="TrG5h" value="it" />
                        <node concept="2jxLKc" id="4JdgAL_5544" role="1tU5fm" />
                      </node>
                    </node>
                  </node>
                </node>
                <node concept="3$u5V9" id="4JdgAL_55YJ" role="2OqNvi">
                  <node concept="1bVj0M" id="4JdgAL_55YL" role="23t8la">
                    <node concept="3clFbS" id="4JdgAL_55YM" role="1bW5cS">
                      <node concept="3clFbF" id="6En3ZbjkX3q" role="3cqZAp">
                        <node concept="2YIFZM" id="6En3ZbjkXam" role="3clFbG">
                          <ref role="37wK5l" to="6f4m:6En3ZbjkP3k" resolve="deprecatedProperty" />
                          <ref role="1Pybhc" to="6f4m:4JdgAL_4yNB" resolve="DeprecatedConceptMemberNotMigratedProblem" />
                          <node concept="37vLTw" id="6En3Zbjjy7L" role="37wK5m">
                            <ref role="3cqZAo" node="4JdgAL_55YN" resolve="it" />
                          </node>
                          <node concept="355D3s" id="6En3Zbjjy7M" role="37wK5m">
                            <ref role="355D3t" to="tpee:hOIEacT" resolve="IBLDeprecatable" />
                            <ref role="355D3u" to="tpee:hOIEky$" resolve="isDeprecated" />
                          </node>
                        </node>
                      </node>
                    </node>
                    <node concept="Rh6nW" id="4JdgAL_55YN" role="1bW2Oz">
                      <property role="TrG5h" value="it" />
                      <node concept="2jxLKc" id="4JdgAL_55YO" role="1tU5fm" />
                    </node>
                  </node>
                </node>
              </node>
            </node>
          </node>
          <node concept="37vLTw" id="4JdgAL_56PC" role="L3pyr">
            <ref role="3cqZAo" node="4JdgAL_53wA" resolve="m" />
          </node>
        </node>
      </node>
      <node concept="ffn8J" id="4JdgAL_53wA" role="3clF46">
        <property role="TrG5h" value="m" />
        <ref role="ffrpq" to="slm6:1JWcQ2VeXI5" resolve="m" />
        <node concept="3uibUv" id="4JdgAL_53w_" role="1tU5fm">
          <ref role="3uigEE" to="lui2:~SModule" resolve="SModule" />
        </node>
      </node>
      <node concept="A3Dl8" id="4JdgAL_53wB" role="3clF45">
        <node concept="3uibUv" id="4JdgAL_53wC" role="A3Ik2">
          <ref role="3uigEE" to="6f4m:3n7MNzO_IjP" resolve="Problem" />
        </node>
      </node>
    </node>
  </node>
  <node concept="3SyAh_" id="2LYh6L3fbx9">
    <property role="2bfB8j" value="true" />
    <property role="qMTe8" value="3" />
    <property role="TrG5h" value="ReplaceOldCommentWithGenericComment_CommentedStatementsBlock" />
    <node concept="3Tm1VV" id="2LYh6L3fbxa" role="1B3o_S" />
    <node concept="3tTeZs" id="2LYh6L3fbxb" role="jymVt">
      <property role="3tTeZt" value="&lt;no execute after&gt;" />
      <ref role="3tTeZr" to="slm6:7ay_HjIMt1a" resolve="execute after" />
    </node>
    <node concept="3tTeZs" id="2LYh6L3fbxc" role="jymVt">
      <property role="3tTeZt" value="&lt;no required data&gt;" />
      <ref role="3tTeZr" to="slm6:3A3gNhf1WPI" resolve="requires data" />
    </node>
    <node concept="3tTeZs" id="2LYh6L3fbxd" role="jymVt">
      <property role="3tTeZt" value="&lt;no produced data&gt;" />
      <ref role="3tTeZr" to="slm6:536fTXa4WHO" resolve="produces data" />
    </node>
    <node concept="q3mfD" id="2LYh6L3fbxe" role="jymVt">
      <property role="TrG5h" value="execute" />
      <ref role="2VtyIY" to="slm6:4ubqdNOF9cA" resolve="execute" />
      <node concept="3Tm1VV" id="2LYh6L3fbxf" role="1B3o_S" />
      <node concept="3clFbS" id="2LYh6L3fbxg" role="3clF47">
        <node concept="3clFbF" id="2LYh6L3fbxh" role="3cqZAp">
          <node concept="2OqwBi" id="2LYh6L3fbxi" role="3clFbG">
            <node concept="2ShNRf" id="2LYh6L3fbxj" role="2Oq$k0">
              <node concept="1pGfFk" id="2LYh6L3fbxk" role="2ShVmc">
                <ref role="37wK5l" to="uubw:ANVkWUi_$c" resolve="OldCommentContainerMigration" />
                <node concept="35c_gC" id="2LYh6L3fbx8" role="37wK5m">
                  <ref role="35c_gD" to="tpee:h8u8gbX" resolve="CommentedStatementsBlock" />
                </node>
                <node concept="37vLTw" id="2LYh6L3fbxl" role="37wK5m">
                  <ref role="3cqZAo" node="2LYh6L3fbxn" resolve="m" />
                </node>
              </node>
            </node>
            <node concept="liA8E" id="2LYh6L3fbxm" role="2OqNvi">
              <ref role="37wK5l" to="uubw:ANVkWUiA8L" resolve="migrate" />
            </node>
          </node>
        </node>
      </node>
      <node concept="ffn8J" id="2LYh6L3fbxn" role="3clF46">
        <property role="TrG5h" value="m" />
        <ref role="ffrpq" to="slm6:7fCCGqboj9J" resolve="m" />
        <node concept="3uibUv" id="2LYh6L3fbxo" role="1tU5fm">
          <ref role="3uigEE" to="lui2:~SModule" resolve="SModule" />
        </node>
      </node>
      <node concept="q3mfm" id="2LYh6L3fbxp" role="3clF45">
        <ref role="q3mfh" to="slm6:4F5w8gPXEEe" />
        <ref role="1QQUv3" node="2LYh6L3fbxe" resolve="execute" />
      </node>
    </node>
    <node concept="3tYpMH" id="4JdgAL_5b2I" role="jymVt">
      <property role="TrG5h" value="isRerunnable" />
      <property role="3tYpME" value="true" />
      <ref role="25KYV2" to="slm6:1JWcQ2VeWIs" resolve="isRerunnable" />
      <node concept="3Tm1VV" id="4JdgAL_5b2K" role="1B3o_S" />
      <node concept="10P_77" id="4JdgAL_5b2L" role="1tU5fm" />
    </node>
    <node concept="2tJIrI" id="4JdgAL_5qYd" role="jymVt" />
    <node concept="3tTeZs" id="2LYh6L3fbxr" role="jymVt">
      <property role="3tTeZt" value="&lt;description&gt;" />
      <ref role="3tTeZr" to="slm6:1_lSsE3RFpE" resolve="description" />
    </node>
    <node concept="q3mfD" id="4JdgAL_5b4B" role="jymVt">
      <property role="TrG5h" value="check" />
      <ref role="2VtyIY" to="slm6:1JWcQ2VeXpD" resolve="check" />
      <node concept="3Tm1VV" id="4JdgAL_5b4D" role="1B3o_S" />
      <node concept="3clFbS" id="4JdgAL_5b4F" role="3clF47">
        <node concept="3clFbF" id="4JdgAL_5b5x" role="3cqZAp">
          <node concept="2OqwBi" id="4JdgAL_5b5y" role="3clFbG">
            <node concept="2ShNRf" id="4JdgAL_5b5z" role="2Oq$k0">
              <node concept="1pGfFk" id="4JdgAL_5b5$" role="2ShVmc">
                <ref role="37wK5l" to="uubw:ANVkWUi_$c" resolve="OldCommentContainerMigration" />
                <node concept="35c_gC" id="4JdgAL_5b5_" role="37wK5m">
                  <ref role="35c_gD" to="tpee:h8u8gbX" resolve="CommentedStatementsBlock" />
                </node>
                <node concept="37vLTw" id="4JdgAL_5b5A" role="37wK5m">
                  <ref role="3cqZAo" node="4JdgAL_5b4H" resolve="m" />
                </node>
              </node>
            </node>
            <node concept="liA8E" id="4JdgAL_5b5B" role="2OqNvi">
              <ref role="37wK5l" to="uubw:4JdgAL_59l8" resolve="check" />
            </node>
          </node>
        </node>
      </node>
      <node concept="ffn8J" id="4JdgAL_5b4H" role="3clF46">
        <property role="TrG5h" value="m" />
        <ref role="ffrpq" to="slm6:1JWcQ2VeXI5" resolve="m" />
        <node concept="3uibUv" id="4JdgAL_5b4G" role="1tU5fm">
          <ref role="3uigEE" to="lui2:~SModule" resolve="SModule" />
        </node>
      </node>
      <node concept="A3Dl8" id="4JdgAL_5b4I" role="3clF45">
        <node concept="3uibUv" id="4JdgAL_5b4J" role="A3Ik2">
          <ref role="3uigEE" to="6f4m:3n7MNzO_IjP" resolve="Problem" />
        </node>
      </node>
    </node>
  </node>
</model>

