<?xml version="1.0" encoding="UTF-8"?>
<model ref="r:64dee47d-8ebf-4e34-bb0f-d4fef04647b0(jetbrains.mps.lang.sharedConcepts.typesystem)">
  <persistence version="9" />
  <languages>
    <use id="7a5dda62-9140-4668-ab76-d5ed1746f2b2" name="jetbrains.mps.lang.typesystem" version="0" />
    <devkit ref="fbc25dd2-5da4-483a-8b19-70928e1b62d7(jetbrains.mps.devkit.general-purpose)" />
  </languages>
  <imports>
    <import index="tpcw" ref="r:00000000-0000-4000-0000-011c895902bc(jetbrains.mps.lang.sharedConcepts.structure)" />
    <import index="yyf4" ref="8865b7a8-5271-43d3-884c-6fd1d9cfdd34/java:org.jetbrains.mps.openapi.util(MPS.OpenAPI/)" />
    <import index="lui2" ref="8865b7a8-5271-43d3-884c-6fd1d9cfdd34/java:org.jetbrains.mps.openapi.module(MPS.OpenAPI/)" />
  </imports>
  <registry>
    <language id="f3061a53-9226-4cc5-a443-f952ceaf5816" name="jetbrains.mps.baseLanguage">
      <concept id="1068580123136" name="jetbrains.mps.baseLanguage.structure.StatementList" flags="sn" stub="5293379017992965193" index="3clFbS">
        <child id="1068581517665" name="statement" index="3cqZAp" />
      </concept>
      <concept id="1107535904670" name="jetbrains.mps.baseLanguage.structure.ClassifierType" flags="in" index="3uibUv">
        <reference id="1107535924139" name="classifier" index="3uigEE" />
      </concept>
    </language>
    <language id="3a13115c-633c-4c5c-bbcc-75c4219e9555" name="jetbrains.mps.lang.quotation">
      <concept id="1196350785113" name="jetbrains.mps.lang.quotation.structure.Quotation" flags="nn" index="2c44tf">
        <child id="1196350785114" name="quotedNode" index="2c44tc" />
      </concept>
    </language>
    <language id="7a5dda62-9140-4668-ab76-d5ed1746f2b2" name="jetbrains.mps.lang.typesystem">
      <concept id="1185788614172" name="jetbrains.mps.lang.typesystem.structure.NormalTypeClause" flags="ng" index="mw_s8">
        <child id="1185788644032" name="normalType" index="mwGJk" />
      </concept>
      <concept id="1195213580585" name="jetbrains.mps.lang.typesystem.structure.AbstractCheckingRule" flags="ig" index="18hYwZ">
        <child id="1195213635060" name="body" index="18ibNy" />
      </concept>
      <concept id="1174642788531" name="jetbrains.mps.lang.typesystem.structure.ConceptReference" flags="ig" index="1YaCAy">
        <reference id="1174642800329" name="concept" index="1YaFvo" />
      </concept>
      <concept id="1174643105530" name="jetbrains.mps.lang.typesystem.structure.InferenceRule" flags="ig" index="1YbPZF" />
      <concept id="1174648085619" name="jetbrains.mps.lang.typesystem.structure.AbstractRule" flags="ng" index="1YuPPy">
        <child id="1174648101952" name="applicableNode" index="1YuTPh" />
      </concept>
      <concept id="1174650418652" name="jetbrains.mps.lang.typesystem.structure.ApplicableNodeReference" flags="nn" index="1YBJjd">
        <reference id="1174650432090" name="applicableNode" index="1YBMHb" />
      </concept>
      <concept id="1174657487114" name="jetbrains.mps.lang.typesystem.structure.TypeOfExpression" flags="nn" index="1Z2H0r">
        <child id="1174657509053" name="term" index="1Z2MuG" />
      </concept>
      <concept id="1174658326157" name="jetbrains.mps.lang.typesystem.structure.CreateEquationStatement" flags="nn" index="1Z5TYs" />
      <concept id="1174660718586" name="jetbrains.mps.lang.typesystem.structure.AbstractEquationStatement" flags="nn" index="1Zf1VF">
        <child id="1174660783413" name="leftExpression" index="1ZfhK$" />
        <child id="1174660783414" name="rightExpression" index="1ZfhKB" />
      </concept>
    </language>
    <language id="ceab5195-25ea-4f22-9b92-103b95ca8c0c" name="jetbrains.mps.lang.core">
      <concept id="1169194658468" name="jetbrains.mps.lang.core.structure.INamedConcept" flags="ng" index="TrEIO">
        <property id="1169194664001" name="name" index="TrG5h" />
      </concept>
    </language>
  </registry>
  <node concept="1YbPZF" id="2wC_gGKX3H7">
    <property role="TrG5h" value="typeof_ConceptFunctionParameter_scope" />
    <node concept="3clFbS" id="2wC_gGKX3H8" role="18ibNy">
      <node concept="1Z5TYs" id="2wC_gGKX3QX" role="3cqZAp">
        <node concept="mw_s8" id="2wC_gGKX3RU" role="1ZfhKB">
          <node concept="2c44tf" id="2wC_gGKX3RQ" role="mwGJk">
            <node concept="3uibUv" id="6LpCX$U1tCL" role="2c44tc">
              <ref role="3uigEE" to="lui2:~SearchScope" resolve="SearchScope" />
            </node>
          </node>
        </node>
        <node concept="mw_s8" id="2wC_gGKX3R0" role="1ZfhK$">
          <node concept="1Z2H0r" id="2wC_gGKX3J0" role="mwGJk">
            <node concept="1YBJjd" id="2wC_gGKX3JN" role="1Z2MuG">
              <ref role="1YBMHb" node="2wC_gGKX3Ha" resolve="node" />
            </node>
          </node>
        </node>
      </node>
    </node>
    <node concept="1YaCAy" id="2wC_gGKX3Ha" role="1YuTPh">
      <property role="TrG5h" value="node" />
      <ref role="1YaFvo" to="tpcw:gTQ7B__" resolve="ConceptFunctionParameter_scope" />
    </node>
  </node>
  <node concept="1YbPZF" id="uYrIA37ev3">
    <property role="TrG5h" value="typeof_ConceptFunctionParameter_progressMonitor" />
    <node concept="3clFbS" id="uYrIA37ev4" role="18ibNy">
      <node concept="1Z5TYs" id="uYrIA37evP" role="3cqZAp">
        <node concept="mw_s8" id="uYrIA37evQ" role="1ZfhKB">
          <node concept="2c44tf" id="uYrIA37evR" role="mwGJk">
            <node concept="3uibUv" id="uYrIA37eTR" role="2c44tc">
              <ref role="3uigEE" to="yyf4:~ProgressMonitor" resolve="ProgressMonitor" />
            </node>
          </node>
        </node>
        <node concept="mw_s8" id="uYrIA37evT" role="1ZfhK$">
          <node concept="1Z2H0r" id="uYrIA37evU" role="mwGJk">
            <node concept="1YBJjd" id="uYrIA37eW_" role="1Z2MuG">
              <ref role="1YBMHb" node="uYrIA37ev6" resolve="node" />
            </node>
          </node>
        </node>
      </node>
    </node>
    <node concept="1YaCAy" id="uYrIA37ev6" role="1YuTPh">
      <property role="TrG5h" value="node" />
      <ref role="1YaFvo" to="tpcw:uYrIA378mk" resolve="ConceptFunctionParameter_progressMonitor" />
    </node>
  </node>
</model>

