<?xml version="1.0" encoding="UTF-8"?>
<model ref="r:f7ddbc6b-2d9d-4a75-bb9b-b90ee3072c08(jetbrains.mps.samples.generator_demo.demoLang1.structure)">
  <persistence version="9" />
  <languages>
    <use id="982eb8df-2c96-4bd7-9963-11712ea622e5" name="jetbrains.mps.lang.resources" version="2" />
  </languages>
  <imports />
  <registry />
</model>

