<?xml version="1.0" encoding="UTF-8"?>
<model ref="r:e1f907d4-9f20-482f-9ee2-2b580163f28a(jetbrains.mps.baseLanguage.tuples.scripts)">
  <persistence version="9" />
  <languages>
    <use id="0eddeefa-c2d6-4437-bc2c-de50fd4ce470" name="jetbrains.mps.lang.script" version="0" />
    <devkit ref="fbc25dd2-5da4-483a-8b19-70928e1b62d7(jetbrains.mps.devkit.general-purpose)" />
  </languages>
  <imports>
    <import index="tpee" ref="r:00000000-0000-4000-0000-011c895902ca(jetbrains.mps.baseLanguage.structure)" />
    <import index="wyt6" ref="6354ebe7-c22a-4a0f-ac54-50b52ab9b065/java:java.lang(JDK/)" />
    <import index="tpcu" ref="r:00000000-0000-4000-0000-011c89590282(jetbrains.mps.lang.core.behavior)" />
    <import index="upz5" ref="r:33366a6f-09e8-45e7-ae7f-cb8cf0c7ed05(jetbrains.mps.baseLanguage.tuples.runtime)" />
    <import index="tpek" ref="r:00000000-0000-4000-0000-011c895902c0(jetbrains.mps.baseLanguage.behavior)" />
    <import index="tpck" ref="r:00000000-0000-4000-0000-011c89590288(jetbrains.mps.lang.core.structure)" implicit="true" />
  </imports>
  <registry>
    <language id="f3061a53-9226-4cc5-a443-f952ceaf5816" name="jetbrains.mps.baseLanguage">
      <concept id="1215693861676" name="jetbrains.mps.baseLanguage.structure.BaseAssignmentExpression" flags="nn" index="d038R">
        <child id="1068498886297" name="rValue" index="37vLTx" />
        <child id="1068498886295" name="lValue" index="37vLTJ" />
      </concept>
      <concept id="4836112446988635817" name="jetbrains.mps.baseLanguage.structure.UndefinedType" flags="in" index="2jxLKc" />
      <concept id="1202948039474" name="jetbrains.mps.baseLanguage.structure.InstanceMethodCallOperation" flags="nn" index="liA8E" />
      <concept id="1239714755177" name="jetbrains.mps.baseLanguage.structure.AbstractUnaryNumberOperation" flags="nn" index="2$Kvd9">
        <child id="1239714902950" name="expression" index="2$L3a6" />
      </concept>
      <concept id="1154032098014" name="jetbrains.mps.baseLanguage.structure.AbstractLoopStatement" flags="nn" index="2LF5Ji">
        <child id="1154032183016" name="body" index="2LFqv$" />
      </concept>
      <concept id="1197027756228" name="jetbrains.mps.baseLanguage.structure.DotExpression" flags="nn" index="2OqwBi">
        <child id="1197027771414" name="operand" index="2Oq$k0" />
        <child id="1197027833540" name="operation" index="2OqNvi" />
      </concept>
      <concept id="1145552977093" name="jetbrains.mps.baseLanguage.structure.GenericNewExpression" flags="nn" index="2ShNRf">
        <child id="1145553007750" name="creator" index="2ShVmc" />
      </concept>
      <concept id="1137021947720" name="jetbrains.mps.baseLanguage.structure.ConceptFunction" flags="in" index="2VMwT0">
        <child id="1137022507850" name="body" index="2VODD2" />
      </concept>
      <concept id="1070475926800" name="jetbrains.mps.baseLanguage.structure.StringLiteral" flags="nn" index="Xl_RD">
        <property id="1070475926801" name="value" index="Xl_RC" />
      </concept>
      <concept id="1070534058343" name="jetbrains.mps.baseLanguage.structure.NullLiteral" flags="nn" index="10Nm6u" />
      <concept id="1070534370425" name="jetbrains.mps.baseLanguage.structure.IntegerType" flags="in" index="10Oyi0" />
      <concept id="1068431474542" name="jetbrains.mps.baseLanguage.structure.VariableDeclaration" flags="ng" index="33uBYm">
        <child id="1068431790190" name="initializer" index="33vP2m" />
      </concept>
      <concept id="1068431790189" name="jetbrains.mps.baseLanguage.structure.Type" flags="in" index="33vP2l" />
      <concept id="1109279763828" name="jetbrains.mps.baseLanguage.structure.TypeVariableDeclaration" flags="ng" index="16euLQ" />
      <concept id="1109279851642" name="jetbrains.mps.baseLanguage.structure.GenericDeclaration" flags="ng" index="16eOlS">
        <child id="1109279881614" name="typeVariableDeclaration" index="16eVyc" />
      </concept>
      <concept id="1109283449304" name="jetbrains.mps.baseLanguage.structure.TypeVariableReference" flags="in" index="16syzq" />
      <concept id="1068498886296" name="jetbrains.mps.baseLanguage.structure.VariableReference" flags="nn" index="37vLTw">
        <reference id="1068581517664" name="variableDeclaration" index="3cqZAo" />
      </concept>
      <concept id="1068498886292" name="jetbrains.mps.baseLanguage.structure.ParameterDeclaration" flags="ir" index="37vLTG" />
      <concept id="1068498886294" name="jetbrains.mps.baseLanguage.structure.AssignmentExpression" flags="nn" index="37vLTI" />
      <concept id="4972933694980447171" name="jetbrains.mps.baseLanguage.structure.BaseVariableDeclaration" flags="ng" index="19Szcq">
        <child id="5680397130376446158" name="type" index="1tU5fm" />
      </concept>
      <concept id="1068580123132" name="jetbrains.mps.baseLanguage.structure.BaseMethodDeclaration" flags="ng" index="3clF44">
        <child id="1068580123133" name="returnType" index="3clF45" />
        <child id="1068580123134" name="parameter" index="3clF46" />
        <child id="1068580123135" name="body" index="3clF47" />
      </concept>
      <concept id="1068580123165" name="jetbrains.mps.baseLanguage.structure.InstanceMethodDeclaration" flags="ig" index="3clFb_">
        <property id="1178608670077" name="isAbstract" index="1EzhhJ" />
      </concept>
      <concept id="1068580123155" name="jetbrains.mps.baseLanguage.structure.ExpressionStatement" flags="nn" index="3clFbF">
        <child id="1068580123156" name="expression" index="3clFbG" />
      </concept>
      <concept id="1068580123157" name="jetbrains.mps.baseLanguage.structure.Statement" flags="nn" index="3clFbH" />
      <concept id="1068580123159" name="jetbrains.mps.baseLanguage.structure.IfStatement" flags="nn" index="3clFbJ">
        <child id="1068580123160" name="condition" index="3clFbw" />
        <child id="1068580123161" name="ifTrue" index="3clFbx" />
      </concept>
      <concept id="1068580123136" name="jetbrains.mps.baseLanguage.structure.StatementList" flags="sn" stub="5293379017992965193" index="3clFbS">
        <child id="1068581517665" name="statement" index="3cqZAp" />
      </concept>
      <concept id="1068580320020" name="jetbrains.mps.baseLanguage.structure.IntegerConstant" flags="nn" index="3cmrfG">
        <property id="1068580320021" name="value" index="3cmrfH" />
      </concept>
      <concept id="1068581242875" name="jetbrains.mps.baseLanguage.structure.PlusExpression" flags="nn" index="3cpWs3" />
      <concept id="1068581242864" name="jetbrains.mps.baseLanguage.structure.LocalVariableDeclarationStatement" flags="nn" index="3cpWs8">
        <child id="1068581242865" name="localVariableDeclaration" index="3cpWs9" />
      </concept>
      <concept id="1068581242863" name="jetbrains.mps.baseLanguage.structure.LocalVariableDeclaration" flags="nr" index="3cpWsn" />
      <concept id="1068581517677" name="jetbrains.mps.baseLanguage.structure.VoidType" flags="in" index="3cqZAl" />
      <concept id="1081506773034" name="jetbrains.mps.baseLanguage.structure.LessThanExpression" flags="nn" index="3eOVzh" />
      <concept id="1081516740877" name="jetbrains.mps.baseLanguage.structure.NotExpression" flags="nn" index="3fqX7Q">
        <child id="1081516765348" name="expression" index="3fr31v" />
      </concept>
      <concept id="1204053956946" name="jetbrains.mps.baseLanguage.structure.IMethodCall" flags="ng" index="1ndlxa">
        <reference id="1068499141037" name="baseMethodDeclaration" index="37wK5l" />
        <child id="1068499141038" name="actualArgument" index="37wK5m" />
      </concept>
      <concept id="1107461130800" name="jetbrains.mps.baseLanguage.structure.Classifier" flags="ng" index="3pOWGL">
        <property id="521412098689998745" name="nonStatic" index="2bfB8j" />
        <child id="5375687026011219971" name="member" index="jymVt" unordered="true" />
      </concept>
      <concept id="1171903916106" name="jetbrains.mps.baseLanguage.structure.UpperBoundType" flags="in" index="3qUE_q">
        <child id="1171903916107" name="bound" index="3qUE_r" />
      </concept>
      <concept id="1107535904670" name="jetbrains.mps.baseLanguage.structure.ClassifierType" flags="in" index="3uibUv">
        <reference id="1107535924139" name="classifier" index="3uigEE" />
        <child id="1109201940907" name="parameter" index="11_B2D" />
      </concept>
      <concept id="1081773326031" name="jetbrains.mps.baseLanguage.structure.BinaryOperation" flags="nn" index="3uHJSO">
        <child id="1081773367579" name="rightExpression" index="3uHU7w" />
        <child id="1081773367580" name="leftExpression" index="3uHU7B" />
      </concept>
      <concept id="1214918800624" name="jetbrains.mps.baseLanguage.structure.PostfixIncrementExpression" flags="nn" index="3uNrnE" />
      <concept id="1073239437375" name="jetbrains.mps.baseLanguage.structure.NotEqualsExpression" flags="nn" index="3y3z36" />
      <concept id="1178549954367" name="jetbrains.mps.baseLanguage.structure.IVisible" flags="ng" index="1B3ioH">
        <child id="1178549979242" name="visibility" index="1B3o_S" />
      </concept>
      <concept id="1144230876926" name="jetbrains.mps.baseLanguage.structure.AbstractForStatement" flags="nn" index="1DupvO">
        <child id="1144230900587" name="variable" index="1Duv9x" />
      </concept>
      <concept id="1144231330558" name="jetbrains.mps.baseLanguage.structure.ForStatement" flags="nn" index="1Dw8fO">
        <child id="1144231399730" name="condition" index="1Dwp0S" />
        <child id="1144231408325" name="iteration" index="1Dwrff" />
      </concept>
      <concept id="1107796713796" name="jetbrains.mps.baseLanguage.structure.Interface" flags="ig" index="3HP615">
        <child id="1107797138135" name="extendedInterface" index="3HQHJm" />
      </concept>
      <concept id="1146644602865" name="jetbrains.mps.baseLanguage.structure.PublicVisibility" flags="nn" index="3Tm1VV" />
      <concept id="1080120340718" name="jetbrains.mps.baseLanguage.structure.AndExpression" flags="nn" index="1Wc70l" />
    </language>
    <language id="0eddeefa-c2d6-4437-bc2c-de50fd4ce470" name="jetbrains.mps.lang.script">
      <concept id="1177457067821" name="jetbrains.mps.lang.script.structure.MigrationScript" flags="ig" index="_UgoZ">
        <property id="1177457669450" name="title" index="_Wzho" />
        <child id="1177458178889" name="part" index="_YvDr" />
      </concept>
      <concept id="1177457850499" name="jetbrains.mps.lang.script.structure.MigrationScriptPart_Instance" flags="lg" index="_XfAh">
        <property id="1177457972041" name="description" index="_XH9r" />
        <reference id="1177457957477" name="affectedInstanceConcept" index="_XDHR" />
        <child id="1177457957478" name="affectedInstancePredicate" index="_XDHO" />
        <child id="1177458005323" name="affectedInstanceUpdater" index="_XPhp" />
      </concept>
      <concept id="1177458061340" name="jetbrains.mps.lang.script.structure.MigrationScriptPart_Instance_Predicate" flags="in" index="_Y34e" />
      <concept id="1177458237937" name="jetbrains.mps.lang.script.structure.MigrationScriptPart_node" flags="nn" index="_YI3z" />
      <concept id="1177458491964" name="jetbrains.mps.lang.script.structure.MigrationScriptPart_Instance_Updater" flags="in" index="_ZGcI" />
      <concept id="2598676492883244606" name="jetbrains.mps.lang.script.structure.WhitespaceMigrationScriptPart" flags="lg" index="1opIMY" />
    </language>
    <language id="fd392034-7849-419d-9071-12563d152375" name="jetbrains.mps.baseLanguage.closures">
      <concept id="1199569711397" name="jetbrains.mps.baseLanguage.closures.structure.ClosureLiteral" flags="nn" index="1bVj0M">
        <child id="1199569906740" name="parameter" index="1bW2Oz" />
        <child id="1199569916463" name="body" index="1bW5cS" />
      </concept>
    </language>
    <language id="3a13115c-633c-4c5c-bbcc-75c4219e9555" name="jetbrains.mps.lang.quotation">
      <concept id="1196350785110" name="jetbrains.mps.lang.quotation.structure.AbstractAntiquotation" flags="ng" index="2c44t0">
        <property id="6489343236075007666" name="label" index="3hQQBS" />
        <child id="1196350785111" name="expression" index="2c44t1" />
      </concept>
      <concept id="1196350785118" name="jetbrains.mps.lang.quotation.structure.ListAntiquotation" flags="ng" index="2c44t8" />
      <concept id="1196350785117" name="jetbrains.mps.lang.quotation.structure.ReferenceAntiquotation" flags="ng" index="2c44tb" />
      <concept id="1196350785112" name="jetbrains.mps.lang.quotation.structure.Antiquotation" flags="ng" index="2c44te" />
      <concept id="1196350785113" name="jetbrains.mps.lang.quotation.structure.Quotation" flags="nn" index="2c44tf">
        <child id="1196350785114" name="quotedNode" index="2c44tc" />
      </concept>
      <concept id="1196866233735" name="jetbrains.mps.lang.quotation.structure.PropertyAntiquotation" flags="ng" index="2EMmih" />
    </language>
    <language id="7866978e-a0f0-4cc7-81bc-4d213d9375e1" name="jetbrains.mps.lang.smodel">
      <concept id="1179409122411" name="jetbrains.mps.lang.smodel.structure.Node_ConceptMethodCall" flags="nn" index="2qgKlT" />
      <concept id="1145383075378" name="jetbrains.mps.lang.smodel.structure.SNodeListType" flags="in" index="2I9FWS" />
      <concept id="1145567426890" name="jetbrains.mps.lang.smodel.structure.SNodeListCreator" flags="nn" index="2T8Vx0">
        <child id="1145567471833" name="createdType" index="2T96Bj" />
      </concept>
      <concept id="1144146199828" name="jetbrains.mps.lang.smodel.structure.Node_CopyOperation" flags="nn" index="1$rogu" />
      <concept id="1138055754698" name="jetbrains.mps.lang.smodel.structure.SNodeType" flags="in" index="3Tqbb2">
        <reference id="1138405853777" name="concept" index="ehGHo" />
      </concept>
      <concept id="1138056022639" name="jetbrains.mps.lang.smodel.structure.SPropertyAccess" flags="nn" index="3TrcHB">
        <reference id="1138056395725" name="property" index="3TsBF5" />
      </concept>
      <concept id="1138056282393" name="jetbrains.mps.lang.smodel.structure.SLinkListAccess" flags="nn" index="3Tsc0h">
        <reference id="1138056546658" name="link" index="3TtcxE" />
      </concept>
    </language>
    <language id="ceab5195-25ea-4f22-9b92-103b95ca8c0c" name="jetbrains.mps.lang.core">
      <concept id="1133920641626" name="jetbrains.mps.lang.core.structure.BaseConcept" flags="ng" index="2VYdi">
        <child id="5169995583184591170" name="smodelAttribute" index="lGtFl" />
      </concept>
      <concept id="3364660638048049750" name="jetbrains.mps.lang.core.structure.PropertyAttribute" flags="ng" index="A9Btg">
        <property id="1757699476691236117" name="propertyName" index="2qtEX9" />
        <property id="1341860900487648621" name="propertyId" index="P4ACc" />
      </concept>
      <concept id="3364660638048049745" name="jetbrains.mps.lang.core.structure.LinkAttribute" flags="ng" index="A9Btn">
        <property id="1757699476691236116" name="linkRole" index="2qtEX8" />
        <property id="1341860900488019036" name="linkId" index="P3scX" />
      </concept>
      <concept id="1169194658468" name="jetbrains.mps.lang.core.structure.INamedConcept" flags="ng" index="TrEIO">
        <property id="1169194664001" name="name" index="TrG5h" />
      </concept>
    </language>
    <language id="83888646-71ce-4f1c-9c53-c54016f6ad4f" name="jetbrains.mps.baseLanguage.collections">
      <concept id="1204796164442" name="jetbrains.mps.baseLanguage.collections.structure.InternalSequenceOperation" flags="nn" index="23sCx2">
        <child id="1204796294226" name="closure" index="23t8la" />
      </concept>
      <concept id="540871147943773365" name="jetbrains.mps.baseLanguage.collections.structure.SingleArgumentSequenceOperation" flags="nn" index="25WWJ4">
        <child id="540871147943773366" name="argument" index="25WWJ7" />
      </concept>
      <concept id="1151702311717" name="jetbrains.mps.baseLanguage.collections.structure.ToListOperation" flags="nn" index="ANE8D" />
      <concept id="1235566554328" name="jetbrains.mps.baseLanguage.collections.structure.AnyOperation" flags="nn" index="2HwmR7" />
      <concept id="1203518072036" name="jetbrains.mps.baseLanguage.collections.structure.SmartClosureParameterDeclaration" flags="ig" index="Rh6nW" />
      <concept id="1160612413312" name="jetbrains.mps.baseLanguage.collections.structure.AddElementOperation" flags="nn" index="TSZUe" />
      <concept id="1205753243362" name="jetbrains.mps.baseLanguage.collections.structure.ChunkOperation" flags="nn" index="2WvAvU">
        <child id="1205753261887" name="length" index="2WvESB" />
      </concept>
      <concept id="1205753590798" name="jetbrains.mps.baseLanguage.collections.structure.CutOperation" flags="nn" index="2WwVkm" />
      <concept id="1225711141656" name="jetbrains.mps.baseLanguage.collections.structure.ListElementAccessExpression" flags="nn" index="1y4W85">
        <child id="1225711182005" name="list" index="1y566C" />
        <child id="1225711191269" name="index" index="1y58nS" />
      </concept>
      <concept id="1202128969694" name="jetbrains.mps.baseLanguage.collections.structure.SelectOperation" flags="nn" index="3$u5V9" />
    </language>
  </registry>
  <node concept="_UgoZ" id="4V$BJAdSJdf">
    <property role="_Wzho" value="Create runtime classes in the tuples runtime" />
    <property role="TrG5h" value="UpdateTuplesRuntime" />
    <node concept="_XfAh" id="4V$BJAdSJdi" role="_YvDr">
      <property role="_XH9r" value="TupleInterface" />
      <ref role="_XDHR" to="tpee:fz12cDA" resolve="ClassConcept" />
      <node concept="_ZGcI" id="4V$BJAdSJdk" role="_XPhp">
        <node concept="3clFbS" id="4V$BJAdSJdm" role="2VODD2">
          <node concept="3cpWs8" id="4V$BJAdTfal" role="3cqZAp">
            <node concept="3cpWsn" id="4V$BJAdTfam" role="3cpWs9">
              <property role="TrG5h" value="ifc" />
              <node concept="10Nm6u" id="4V$BJAdTfbu" role="33vP2m" />
              <node concept="3Tqbb2" id="4V$BJAdTfan" role="1tU5fm">
                <ref role="ehGHo" to="tpee:g7HP654" resolve="Interface" />
              </node>
            </node>
          </node>
          <node concept="1Dw8fO" id="i1PoU6j" role="3cqZAp">
            <node concept="3clFbS" id="i1PoU6k" role="2LFqv$">
              <node concept="3cpWs8" id="4V$BJAdTfUH" role="3cqZAp">
                <node concept="3cpWsn" id="4V$BJAdTfUK" role="3cpWs9">
                  <property role="TrG5h" value="typedecls" />
                  <node concept="2ShNRf" id="4V$BJAdTfVi" role="33vP2m">
                    <node concept="2T8Vx0" id="4V$BJAdTfV6" role="2ShVmc">
                      <node concept="2I9FWS" id="4V$BJAdTfV7" role="2T96Bj" />
                    </node>
                  </node>
                  <node concept="2I9FWS" id="4V$BJAdTfUF" role="1tU5fm" />
                </node>
              </node>
              <node concept="1Dw8fO" id="4V$BJAdTfVE" role="3cqZAp">
                <node concept="3uNrnE" id="4V$BJAdThPL" role="1Dwrff">
                  <node concept="37vLTw" id="4V$BJAdThPN" role="2$L3a6">
                    <ref role="3cqZAo" node="4V$BJAdTfVH" resolve="j" />
                  </node>
                </node>
                <node concept="3eOVzh" id="4V$BJAdTgT6" role="1Dwp0S">
                  <node concept="37vLTw" id="4V$BJAdTgT9" role="3uHU7w">
                    <ref role="3cqZAo" node="i1PoU6m" resolve="i" />
                  </node>
                  <node concept="37vLTw" id="4V$BJAdTfW$" role="3uHU7B">
                    <ref role="3cqZAo" node="4V$BJAdTfVH" resolve="j" />
                  </node>
                </node>
                <node concept="3clFbS" id="4V$BJAdTfVG" role="2LFqv$">
                  <node concept="3clFbF" id="4V$BJAdThPR" role="3cqZAp">
                    <node concept="2OqwBi" id="4V$BJAdTiAN" role="3clFbG">
                      <node concept="TSZUe" id="4V$BJAdTkfQ" role="2OqNvi">
                        <node concept="2c44tf" id="4V$BJAdTkho" role="25WWJ7">
                          <node concept="16euLQ" id="4V$BJAdTmO9" role="2c44tc">
                            <node concept="2EMmih" id="4V$BJAdTmQQ" role="lGtFl">
                              <property role="2qtEX9" value="name" />
                              <property role="3hQQBS" value="TypeVariableDeclaration" />
                              <property role="P4ACc" value="ceab5195-25ea-4f22-9b92-103b95ca8c0c/1169194658468/1169194664001" />
                              <node concept="3cpWs3" id="4V$BJAdTl8$" role="2c44t1">
                                <node concept="37vLTw" id="4V$BJAdTl8F" role="3uHU7w">
                                  <ref role="3cqZAo" node="4V$BJAdTfVH" resolve="j" />
                                </node>
                                <node concept="Xl_RD" id="4V$BJAdTkp_" role="3uHU7B">
                                  <property role="Xl_RC" value="T" />
                                </node>
                              </node>
                            </node>
                          </node>
                        </node>
                      </node>
                      <node concept="37vLTw" id="4V$BJAdThPQ" role="2Oq$k0">
                        <ref role="3cqZAo" node="4V$BJAdTfUK" resolve="typedecls" />
                      </node>
                    </node>
                  </node>
                </node>
                <node concept="3cpWsn" id="4V$BJAdTfVH" role="1Duv9x">
                  <property role="TrG5h" value="j" />
                  <node concept="3cmrfG" id="4V$BJAdTfWy" role="33vP2m">
                    <property role="3cmrfH" value="0" />
                  </node>
                  <node concept="10Oyi0" id="4V$BJAdTfW3" role="1tU5fm" />
                </node>
              </node>
              <node concept="3clFbH" id="4V$BJAdTAZ7" role="3cqZAp" />
              <node concept="3cpWs8" id="4V$BJAdTqCp" role="3cqZAp">
                <node concept="3cpWsn" id="4V$BJAdTqCs" role="3cpWs9">
                  <property role="TrG5h" value="typerefs" />
                  <node concept="2ShNRf" id="4V$BJAdTqDw" role="33vP2m">
                    <node concept="2T8Vx0" id="4V$BJAdTqDu" role="2ShVmc">
                      <node concept="2I9FWS" id="4V$BJAdTqDv" role="2T96Bj" />
                    </node>
                  </node>
                  <node concept="2I9FWS" id="4V$BJAdTqCn" role="1tU5fm" />
                </node>
              </node>
              <node concept="1Dw8fO" id="4V$BJAdTJh8" role="3cqZAp">
                <node concept="3uNrnE" id="4V$BJAdTJh9" role="1Dwrff">
                  <node concept="37vLTw" id="4V$BJAdTJha" role="2$L3a6">
                    <ref role="3cqZAo" node="4V$BJAdTJhs" resolve="j" />
                  </node>
                </node>
                <node concept="3eOVzh" id="4V$BJAdTJhb" role="1Dwp0S">
                  <node concept="37vLTw" id="4V$BJAdTJhc" role="3uHU7w">
                    <ref role="3cqZAo" node="i1PoU6m" resolve="i" />
                  </node>
                  <node concept="37vLTw" id="4V$BJAdTJhd" role="3uHU7B">
                    <ref role="3cqZAo" node="4V$BJAdTJhs" resolve="j" />
                  </node>
                </node>
                <node concept="3clFbS" id="4V$BJAdTJhe" role="2LFqv$">
                  <node concept="3clFbF" id="4V$BJAdTzJF" role="3cqZAp">
                    <node concept="2OqwBi" id="4V$BJAdT$wB" role="3clFbG">
                      <node concept="TSZUe" id="4V$BJAdTA9f" role="2OqNvi">
                        <node concept="2c44tf" id="4V$BJAdTAe7" role="25WWJ7">
                          <node concept="16syzq" id="4V$BJAdTAj7" role="2c44tc">
                            <node concept="2c44tb" id="4V$BJAdTAoL" role="lGtFl">
                              <property role="2qtEX8" value="typeVariableDeclaration" />
                              <property role="3hQQBS" value="TypeVariableReference" />
                              <property role="P3scX" value="f3061a53-9226-4cc5-a443-f952ceaf5816/1109283449304/1109283546497" />
                              <node concept="1y4W85" id="4V$BJAdTLOS" role="2c44t1">
                                <node concept="37vLTw" id="4V$BJAdTLP2" role="1y58nS">
                                  <ref role="3cqZAo" node="4V$BJAdTJhs" resolve="j" />
                                </node>
                                <node concept="37vLTw" id="4V$BJAdTL3Y" role="1y566C">
                                  <ref role="3cqZAo" node="4V$BJAdTfUK" resolve="typedecls" />
                                </node>
                              </node>
                            </node>
                          </node>
                        </node>
                      </node>
                      <node concept="37vLTw" id="4V$BJAdTzJE" role="2Oq$k0">
                        <ref role="3cqZAo" node="4V$BJAdTqCs" resolve="typerefs" />
                      </node>
                    </node>
                  </node>
                </node>
                <node concept="3cpWsn" id="4V$BJAdTJhs" role="1Duv9x">
                  <property role="TrG5h" value="j" />
                  <node concept="3cmrfG" id="4V$BJAdTJht" role="33vP2m">
                    <property role="3cmrfH" value="0" />
                  </node>
                  <node concept="10Oyi0" id="4V$BJAdTJhu" role="1tU5fm" />
                </node>
              </node>
              <node concept="3clFbH" id="4V$BJAdTB0o" role="3cqZAp" />
              <node concept="3cpWs8" id="4V$BJAdTAWg" role="3cqZAp">
                <node concept="3cpWsn" id="4V$BJAdTAWj" role="3cpWs9">
                  <property role="TrG5h" value="methods" />
                  <node concept="2ShNRf" id="4V$BJAdTAXM" role="33vP2m">
                    <node concept="2T8Vx0" id="4V$BJAdTAXA" role="2ShVmc">
                      <node concept="2I9FWS" id="4V$BJAdTAXB" role="2T96Bj" />
                    </node>
                  </node>
                  <node concept="2I9FWS" id="4V$BJAdTAWe" role="1tU5fm" />
                </node>
              </node>
              <node concept="1Dw8fO" id="4V$BJAdTB4P" role="3cqZAp">
                <node concept="3uNrnE" id="4V$BJAdTB4Q" role="1Dwrff">
                  <node concept="37vLTw" id="4V$BJAdTB4R" role="2$L3a6">
                    <ref role="3cqZAo" node="4V$BJAdTB56" resolve="j" />
                  </node>
                </node>
                <node concept="3eOVzh" id="4V$BJAdTB4S" role="1Dwp0S">
                  <node concept="37vLTw" id="4V$BJAdTB4T" role="3uHU7w">
                    <ref role="3cqZAo" node="i1PoU6m" resolve="i" />
                  </node>
                  <node concept="37vLTw" id="4V$BJAdTB4U" role="3uHU7B">
                    <ref role="3cqZAo" node="4V$BJAdTB56" resolve="j" />
                  </node>
                </node>
                <node concept="3clFbS" id="4V$BJAdTB4V" role="2LFqv$">
                  <node concept="3clFbF" id="4V$BJAdTB6K" role="3cqZAp">
                    <node concept="2OqwBi" id="4V$BJAdTBRG" role="3clFbG">
                      <node concept="TSZUe" id="4V$BJAdTDwO" role="2OqNvi">
                        <node concept="2c44tf" id="4V$BJAdTDFx" role="25WWJ7">
                          <node concept="3clFb_" id="4V$BJAdTDHx" role="2c44tc">
                            <property role="1EzhhJ" value="true" />
                            <property role="TrG5h" value="_" />
                            <node concept="37vLTG" id="4V$BJAdTMLB" role="3clF46">
                              <property role="TrG5h" value="value" />
                              <node concept="33vP2l" id="4V$BJAdUukJ" role="1tU5fm">
                                <node concept="2c44te" id="4V$BJAdUulM" role="lGtFl">
                                  <node concept="2OqwBi" id="4V$BJAdUvhl" role="2c44t1">
                                    <node concept="1$rogu" id="4V$BJAdUvmD" role="2OqNvi" />
                                    <node concept="1y4W85" id="4V$BJAdUv8D" role="2Oq$k0">
                                      <node concept="37vLTw" id="4V$BJAdUv8N" role="1y58nS">
                                        <ref role="3cqZAo" node="4V$BJAdTB56" resolve="j" />
                                      </node>
                                      <node concept="37vLTw" id="4V$BJAdUunJ" role="1y566C">
                                        <ref role="3cqZAo" node="4V$BJAdTqCs" resolve="typerefs" />
                                      </node>
                                    </node>
                                  </node>
                                </node>
                              </node>
                            </node>
                            <node concept="3Tm1VV" id="4V$BJAdTDH$" role="1B3o_S" />
                            <node concept="3clFbS" id="4V$BJAdTDH_" role="3clF47" />
                            <node concept="2EMmih" id="4V$BJAdTM7n" role="lGtFl">
                              <property role="2qtEX9" value="name" />
                              <property role="P4ACc" value="ceab5195-25ea-4f22-9b92-103b95ca8c0c/1169194658468/1169194664001" />
                              <node concept="3cpWs3" id="4V$BJAdTM$q" role="2c44t1">
                                <node concept="37vLTw" id="4V$BJAdTM$t" role="3uHU7w">
                                  <ref role="3cqZAo" node="4V$BJAdTB56" resolve="j" />
                                </node>
                                <node concept="Xl_RD" id="4V$BJAdTMjc" role="3uHU7B">
                                  <property role="Xl_RC" value="_" />
                                </node>
                              </node>
                            </node>
                            <node concept="33vP2l" id="4V$BJAdUsZA" role="3clF45">
                              <node concept="2c44te" id="4V$BJAdUt4Q" role="lGtFl">
                                <node concept="2OqwBi" id="4V$BJAdUue3" role="2c44t1">
                                  <node concept="1$rogu" id="4V$BJAdUuiH" role="2OqNvi" />
                                  <node concept="1y4W85" id="4V$BJAdUu2i" role="2Oq$k0">
                                    <node concept="37vLTw" id="4V$BJAdUu3x" role="1y58nS">
                                      <ref role="3cqZAo" node="4V$BJAdTB56" resolve="j" />
                                    </node>
                                    <node concept="37vLTw" id="4V$BJAdUt6D" role="1y566C">
                                      <ref role="3cqZAo" node="4V$BJAdTqCs" resolve="typerefs" />
                                    </node>
                                  </node>
                                </node>
                              </node>
                            </node>
                          </node>
                        </node>
                      </node>
                      <node concept="37vLTw" id="4V$BJAdTB6J" role="2Oq$k0">
                        <ref role="3cqZAo" node="4V$BJAdTAWj" resolve="methods" />
                      </node>
                    </node>
                  </node>
                </node>
                <node concept="3cpWsn" id="4V$BJAdTB56" role="1Duv9x">
                  <property role="TrG5h" value="j" />
                  <node concept="3cmrfG" id="4V$BJAdTB57" role="33vP2m">
                    <property role="3cmrfH" value="0" />
                  </node>
                  <node concept="10Oyi0" id="4V$BJAdTB58" role="1tU5fm" />
                </node>
              </node>
              <node concept="1Dw8fO" id="4V$BJAdUwHT" role="3cqZAp">
                <node concept="3uNrnE" id="4V$BJAdUwHU" role="1Dwrff">
                  <node concept="37vLTw" id="4V$BJAdUwHV" role="2$L3a6">
                    <ref role="3cqZAo" node="4V$BJAdUwIr" resolve="j" />
                  </node>
                </node>
                <node concept="3eOVzh" id="4V$BJAdUwHW" role="1Dwp0S">
                  <node concept="37vLTw" id="4V$BJAdUwHX" role="3uHU7w">
                    <ref role="3cqZAo" node="i1PoU6m" resolve="i" />
                  </node>
                  <node concept="37vLTw" id="4V$BJAdUwHY" role="3uHU7B">
                    <ref role="3cqZAo" node="4V$BJAdUwIr" resolve="j" />
                  </node>
                </node>
                <node concept="3clFbS" id="4V$BJAdUwHZ" role="2LFqv$">
                  <node concept="3clFbF" id="4V$BJAdUwI0" role="3cqZAp">
                    <node concept="2OqwBi" id="4V$BJAdUwI1" role="3clFbG">
                      <node concept="TSZUe" id="4V$BJAdUwI2" role="2OqNvi">
                        <node concept="2c44tf" id="4V$BJAdUwI3" role="25WWJ7">
                          <node concept="3clFb_" id="4V$BJAdUwI4" role="2c44tc">
                            <property role="1EzhhJ" value="true" />
                            <property role="TrG5h" value="_" />
                            <node concept="3Tm1VV" id="4V$BJAdUwId" role="1B3o_S" />
                            <node concept="3clFbS" id="4V$BJAdUwIe" role="3clF47" />
                            <node concept="2EMmih" id="4V$BJAdUwIf" role="lGtFl">
                              <property role="2qtEX9" value="name" />
                              <property role="P4ACc" value="ceab5195-25ea-4f22-9b92-103b95ca8c0c/1169194658468/1169194664001" />
                              <node concept="3cpWs3" id="4V$BJAdUwIg" role="2c44t1">
                                <node concept="37vLTw" id="4V$BJAdUwIh" role="3uHU7w">
                                  <ref role="3cqZAo" node="4V$BJAdUwIr" resolve="j" />
                                </node>
                                <node concept="Xl_RD" id="4V$BJAdUwIi" role="3uHU7B">
                                  <property role="Xl_RC" value="_" />
                                </node>
                              </node>
                            </node>
                            <node concept="33vP2l" id="4V$BJAdUwIj" role="3clF45">
                              <node concept="2c44te" id="4V$BJAdUwIk" role="lGtFl">
                                <node concept="2OqwBi" id="4V$BJAdUwIl" role="2c44t1">
                                  <node concept="1$rogu" id="4V$BJAdUwIm" role="2OqNvi" />
                                  <node concept="1y4W85" id="4V$BJAdUwIn" role="2Oq$k0">
                                    <node concept="37vLTw" id="4V$BJAdUwIo" role="1y58nS">
                                      <ref role="3cqZAo" node="4V$BJAdUwIr" resolve="j" />
                                    </node>
                                    <node concept="37vLTw" id="4V$BJAdUwIp" role="1y566C">
                                      <ref role="3cqZAo" node="4V$BJAdTqCs" resolve="typerefs" />
                                    </node>
                                  </node>
                                </node>
                              </node>
                            </node>
                          </node>
                        </node>
                      </node>
                      <node concept="37vLTw" id="4V$BJAdUwIq" role="2Oq$k0">
                        <ref role="3cqZAo" node="4V$BJAdTAWj" resolve="methods" />
                      </node>
                    </node>
                  </node>
                </node>
                <node concept="3cpWsn" id="4V$BJAdUwIr" role="1Duv9x">
                  <property role="TrG5h" value="j" />
                  <node concept="3cmrfG" id="4V$BJAdUwIs" role="33vP2m">
                    <property role="3cmrfH" value="0" />
                  </node>
                  <node concept="10Oyi0" id="4V$BJAdUwIt" role="1tU5fm" />
                </node>
              </node>
              <node concept="3clFbH" id="3$QIMHkj3Cf" role="3cqZAp" />
              <node concept="3cpWs8" id="3$QIMHkj2iw" role="3cqZAp">
                <node concept="3cpWsn" id="3$QIMHkj2ix" role="3cpWs9">
                  <property role="TrG5h" value="extendIfc" />
                  <node concept="10Nm6u" id="3$QIMHkj2uG" role="33vP2m" />
                  <node concept="3Tqbb2" id="3$QIMHkj2iy" role="1tU5fm">
                    <ref role="ehGHo" to="tpee:g7uibYu" resolve="ClassifierType" />
                  </node>
                </node>
              </node>
              <node concept="3clFbJ" id="3$QIMHkj2ys" role="3cqZAp">
                <node concept="3y3z36" id="3$QIMHkj31y" role="3clFbw">
                  <node concept="10Nm6u" id="3$QIMHkj31D" role="3uHU7w" />
                  <node concept="37vLTw" id="3$QIMHkj2HW" role="3uHU7B">
                    <ref role="3cqZAo" node="4V$BJAdTfam" resolve="ifc" />
                  </node>
                </node>
                <node concept="3clFbS" id="3$QIMHkj2yu" role="3clFbx">
                  <node concept="3clFbF" id="3$QIMHkj2qR" role="3cqZAp">
                    <node concept="37vLTI" id="3$QIMHkj2qT" role="3clFbG">
                      <node concept="2c44tf" id="3$QIMHkj2iz" role="37vLTx">
                        <node concept="3uibUv" id="3$QIMHkj2i$" role="2c44tc">
                          <ref role="3uigEE" node="4V$BJAdTfap" resolve="_" />
                          <node concept="33vP2l" id="3$QIMHkj2i_" role="11_B2D">
                            <node concept="2c44t8" id="3$QIMHkj2iA" role="lGtFl">
                              <node concept="2OqwBi" id="3$QIMHkj2iB" role="2c44t1">
                                <node concept="ANE8D" id="3$QIMHkj2iC" role="2OqNvi" />
                                <node concept="2OqwBi" id="3$QIMHkj2iD" role="2Oq$k0">
                                  <node concept="2WwVkm" id="3$QIMHkj2iE" role="2OqNvi">
                                    <node concept="3cmrfG" id="3$QIMHkj2iF" role="2WvESB">
                                      <property role="3cmrfH" value="1" />
                                    </node>
                                  </node>
                                  <node concept="37vLTw" id="3$QIMHkj2iG" role="2Oq$k0">
                                    <ref role="3cqZAo" node="4V$BJAdTqCs" resolve="typerefs" />
                                  </node>
                                </node>
                              </node>
                            </node>
                          </node>
                          <node concept="2c44tb" id="3$QIMHkj2iH" role="lGtFl">
                            <property role="2qtEX8" value="classifier" />
                            <property role="P3scX" value="f3061a53-9226-4cc5-a443-f952ceaf5816/1107535904670/1107535924139" />
                            <node concept="37vLTw" id="3$QIMHkj2iI" role="2c44t1">
                              <ref role="3cqZAo" node="4V$BJAdTfam" resolve="ifc" />
                            </node>
                          </node>
                        </node>
                      </node>
                      <node concept="37vLTw" id="3$QIMHkj2qX" role="37vLTJ">
                        <ref role="3cqZAo" node="3$QIMHkj2ix" resolve="extendIfc" />
                      </node>
                    </node>
                  </node>
                </node>
              </node>
              <node concept="3clFbH" id="3$QIMHkj3$D" role="3cqZAp" />
              <node concept="3clFbF" id="4V$BJAdTfaB" role="3cqZAp">
                <node concept="37vLTI" id="4V$BJAdTfaD" role="3clFbG">
                  <node concept="2c44tf" id="4V$BJAdTfao" role="37vLTx">
                    <node concept="3HP615" id="4V$BJAdTfap" role="2c44tc">
                      <property role="TrG5h" value="_" />
                      <property role="2bfB8j" value="true" />
                      <node concept="3uibUv" id="3$QIMHkj3dk" role="3HQHJm">
                        <node concept="2c44te" id="3$QIMHkj3oG" role="lGtFl">
                          <node concept="37vLTw" id="3$QIMHkj3tL" role="2c44t1">
                            <ref role="3cqZAo" node="3$QIMHkj2ix" resolve="extendIfc" />
                          </node>
                        </node>
                      </node>
                      <node concept="3Tm1VV" id="4V$BJAdTfar" role="1B3o_S" />
                      <node concept="16euLQ" id="4V$BJAdTnqh" role="16eVyc">
                        <node concept="2c44t8" id="4V$BJAdTojI" role="lGtFl">
                          <node concept="37vLTw" id="4V$BJAdTorx" role="2c44t1">
                            <ref role="3cqZAo" node="4V$BJAdTfUK" resolve="typedecls" />
                          </node>
                        </node>
                      </node>
                      <node concept="2EMmih" id="4V$BJAdTn$m" role="lGtFl">
                        <property role="2qtEX9" value="name" />
                        <property role="P4ACc" value="ceab5195-25ea-4f22-9b92-103b95ca8c0c/1169194658468/1169194664001" />
                        <node concept="3cpWs3" id="4V$BJAdToaD" role="2c44t1">
                          <node concept="37vLTw" id="4V$BJAdToaG" role="3uHU7w">
                            <ref role="3cqZAo" node="i1PoU6m" resolve="i" />
                          </node>
                          <node concept="Xl_RD" id="4V$BJAdTnTr" role="3uHU7B">
                            <property role="Xl_RC" value="_" />
                          </node>
                        </node>
                      </node>
                      <node concept="3clFb_" id="3$QIMHkj03o" role="jymVt">
                        <property role="1EzhhJ" value="true" />
                        <property role="TrG5h" value="_" />
                        <node concept="3cqZAl" id="3$QIMHkj03p" role="3clF45" />
                        <node concept="3Tm1VV" id="3$QIMHkj03q" role="1B3o_S" />
                        <node concept="3clFbS" id="3$QIMHkj03r" role="3clF47" />
                        <node concept="2c44t8" id="3$QIMHkj0gI" role="lGtFl">
                          <node concept="37vLTw" id="3$QIMHkj1nV" role="2c44t1">
                            <ref role="3cqZAo" node="4V$BJAdTAWj" resolve="methods" />
                          </node>
                        </node>
                      </node>
                    </node>
                  </node>
                  <node concept="37vLTw" id="4V$BJAdTfaH" role="37vLTJ">
                    <ref role="3cqZAo" node="4V$BJAdTfam" resolve="ifc" />
                  </node>
                </node>
              </node>
              <node concept="3clFbH" id="4V$BJAdU$xS" role="3cqZAp" />
              <node concept="3cpWs8" id="3$QIMHkmP4_" role="3cqZAp">
                <node concept="3cpWsn" id="3$QIMHkmP4A" role="3cpWs9">
                  <property role="TrG5h" value="extParams" />
                  <node concept="2I9FWS" id="3$QIMHkmP8_" role="1tU5fm" />
                  <node concept="2OqwBi" id="3$QIMHkmP4D" role="33vP2m">
                    <node concept="ANE8D" id="3$QIMHkmP4E" role="2OqNvi" />
                    <node concept="2OqwBi" id="3$QIMHkmP4F" role="2Oq$k0">
                      <node concept="3$u5V9" id="3$QIMHkmP4G" role="2OqNvi">
                        <node concept="1bVj0M" id="3$QIMHkmP4H" role="23t8la">
                          <node concept="3clFbS" id="3$QIMHkmP4I" role="1bW5cS">
                            <node concept="3clFbF" id="3$QIMHkmPiw" role="3cqZAp">
                              <node concept="2c44tf" id="3$QIMHkmPiu" role="3clFbG">
                                <node concept="3qUE_q" id="3$QIMHkmPmQ" role="2c44tc">
                                  <node concept="33vP2l" id="3$QIMHkmPLS" role="3qUE_r">
                                    <node concept="2c44te" id="3$QIMHkmPRF" role="lGtFl">
                                      <node concept="2OqwBi" id="3$QIMHkmQjO" role="2c44t1">
                                        <node concept="1$rogu" id="3$QIMHkmQsi" role="2OqNvi" />
                                        <node concept="37vLTw" id="3$QIMHkmPXR" role="2Oq$k0">
                                          <ref role="3cqZAo" node="3$QIMHkmP4N" resolve="tr" />
                                        </node>
                                      </node>
                                    </node>
                                  </node>
                                </node>
                              </node>
                            </node>
                          </node>
                          <node concept="Rh6nW" id="3$QIMHkmP4N" role="1bW2Oz">
                            <property role="TrG5h" value="tr" />
                            <node concept="2jxLKc" id="3$QIMHkmP4O" role="1tU5fm" />
                          </node>
                        </node>
                      </node>
                      <node concept="37vLTw" id="3$QIMHkmP4P" role="2Oq$k0">
                        <ref role="3cqZAo" node="4V$BJAdTqCs" resolve="typerefs" />
                      </node>
                    </node>
                  </node>
                </node>
              </node>
              <node concept="3clFbF" id="4V$BJAdUx5m" role="3cqZAp">
                <node concept="2OqwBi" id="4V$BJAdUxSC" role="3clFbG">
                  <node concept="2OqwBi" id="4V$BJAdU_eG" role="2Oq$k0">
                    <node concept="3Tsc0h" id="4V$BJAdU_Po" role="2OqNvi">
                      <ref role="3TtcxE" to="tpee:4EqhHTp4Mw3" />
                    </node>
                    <node concept="37vLTw" id="4V$BJAdU$V6" role="2Oq$k0">
                      <ref role="3cqZAo" node="4V$BJAdTfam" resolve="ifc" />
                    </node>
                  </node>
                  <node concept="TSZUe" id="4V$BJAdUzwZ" role="2OqNvi">
                    <node concept="2c44tf" id="4V$BJAdUzVh" role="25WWJ7">
                      <node concept="3clFb_" id="4V$BJAdUzXj" role="2c44tc">
                        <property role="1EzhhJ" value="true" />
                        <property role="TrG5h" value="assign" />
                        <node concept="37vLTG" id="4V$BJAdUBL_" role="3clF46">
                          <property role="TrG5h" value="from" />
                          <node concept="3uibUv" id="4V$BJAdUBUO" role="1tU5fm">
                            <ref role="3uigEE" node="4V$BJAdTfap" resolve="_" />
                            <node concept="33vP2l" id="4V$BJAdUBUQ" role="11_B2D">
                              <node concept="2c44t8" id="4V$BJAdUCo2" role="lGtFl">
                                <node concept="37vLTw" id="3$QIMHkmP4Q" role="2c44t1">
                                  <ref role="3cqZAo" node="3$QIMHkmP4A" resolve="extParams" />
                                </node>
                              </node>
                            </node>
                            <node concept="2c44tb" id="4V$BJAdUC2h" role="lGtFl">
                              <property role="2qtEX8" value="classifier" />
                              <property role="P3scX" value="f3061a53-9226-4cc5-a443-f952ceaf5816/1107535904670/1107535924139" />
                              <node concept="37vLTw" id="4V$BJAdUC7w" role="2c44t1">
                                <ref role="3cqZAo" node="4V$BJAdTfam" resolve="ifc" />
                              </node>
                            </node>
                          </node>
                        </node>
                        <node concept="3Tm1VV" id="4V$BJAdUzXm" role="1B3o_S" />
                        <node concept="3clFbS" id="4V$BJAdUzXn" role="3clF47" />
                        <node concept="3uibUv" id="4V$BJAdU$4l" role="3clF45">
                          <ref role="3uigEE" node="4V$BJAdTfap" resolve="_" />
                          <node concept="33vP2l" id="4V$BJAdU$$r" role="11_B2D">
                            <node concept="2c44t8" id="4V$BJAdU$Dx" role="lGtFl">
                              <node concept="2OqwBi" id="3$QIMHkiPx2" role="2c44t1">
                                <node concept="ANE8D" id="3$QIMHkiPS7" role="2OqNvi" />
                                <node concept="2OqwBi" id="4V$BJAdUGj8" role="2Oq$k0">
                                  <node concept="3$u5V9" id="4V$BJAdUJE4" role="2OqNvi">
                                    <node concept="1bVj0M" id="4V$BJAdUJE6" role="23t8la">
                                      <node concept="3clFbS" id="4V$BJAdUJE7" role="1bW5cS">
                                        <node concept="3clFbF" id="4V$BJAdUJO0" role="3cqZAp">
                                          <node concept="2OqwBi" id="4V$BJAdUK9Y" role="3clFbG">
                                            <node concept="1$rogu" id="4V$BJAdUKj_" role="2OqNvi" />
                                            <node concept="37vLTw" id="4V$BJAdUJNZ" role="2Oq$k0">
                                              <ref role="3cqZAo" node="4V$BJAdUJE8" resolve="it" />
                                            </node>
                                          </node>
                                        </node>
                                      </node>
                                      <node concept="Rh6nW" id="4V$BJAdUJE8" role="1bW2Oz">
                                        <property role="TrG5h" value="it" />
                                        <node concept="2jxLKc" id="4V$BJAdUJE9" role="1tU5fm" />
                                      </node>
                                    </node>
                                  </node>
                                  <node concept="37vLTw" id="4V$BJAdUFp_" role="2Oq$k0">
                                    <ref role="3cqZAo" node="4V$BJAdTqCs" resolve="typerefs" />
                                  </node>
                                </node>
                              </node>
                            </node>
                          </node>
                          <node concept="2c44tb" id="4V$BJAdU$_s" role="lGtFl">
                            <property role="2qtEX8" value="classifier" />
                            <property role="P3scX" value="f3061a53-9226-4cc5-a443-f952ceaf5816/1107535904670/1107535924139" />
                            <node concept="37vLTw" id="4V$BJAdU$Bf" role="2c44t1">
                              <ref role="3cqZAo" node="4V$BJAdTfam" resolve="ifc" />
                            </node>
                          </node>
                        </node>
                      </node>
                    </node>
                  </node>
                </node>
              </node>
              <node concept="3clFbH" id="4V$BJAdV2A_" role="3cqZAp" />
              <node concept="3clFbF" id="4V$BJAdUNEs" role="3cqZAp">
                <node concept="2OqwBi" id="4V$BJAdUTJJ" role="3clFbG">
                  <node concept="TSZUe" id="4V$BJAdV2At" role="2OqNvi">
                    <node concept="37vLTw" id="4V$BJAdV2Az" role="25WWJ7">
                      <ref role="3cqZAo" node="4V$BJAdTfam" resolve="ifc" />
                    </node>
                  </node>
                  <node concept="2OqwBi" id="4V$BJAdUNYc" role="2Oq$k0">
                    <node concept="3Tsc0h" id="4V$BJAdUPli" role="2OqNvi">
                      <ref role="3TtcxE" to="tpee:4EqhHTp4Mw3" />
                    </node>
                    <node concept="_YI3z" id="4V$BJAdUNEq" role="2Oq$k0" />
                  </node>
                </node>
              </node>
            </node>
            <node concept="3cpWsn" id="i1PoU6m" role="1Duv9x">
              <property role="TrG5h" value="i" />
              <node concept="10Oyi0" id="i1PoUnB" role="1tU5fm" />
              <node concept="3cmrfG" id="i1PoXGS" role="33vP2m">
                <property role="3cmrfH" value="0" />
              </node>
            </node>
            <node concept="3eOVzh" id="i1PoVsr" role="1Dwp0S">
              <node concept="3cmrfG" id="i1PoVsS" role="3uHU7w">
                <property role="3cmrfH" value="10" />
              </node>
              <node concept="37vLTw" id="3GM_nagT$kF" role="3uHU7B">
                <ref role="3cqZAo" node="i1PoU6m" resolve="i" />
              </node>
            </node>
            <node concept="3uNrnE" id="i1PoWbe" role="1Dwrff">
              <node concept="37vLTw" id="3GM_nagTuHw" role="2$L3a6">
                <ref role="3cqZAo" node="i1PoU6m" resolve="i" />
              </node>
            </node>
          </node>
        </node>
      </node>
      <node concept="_Y34e" id="4V$BJAdSK0T" role="_XDHO">
        <node concept="3clFbS" id="4V$BJAdSK0U" role="2VODD2">
          <node concept="3clFbF" id="4V$BJAdSKca" role="3cqZAp">
            <node concept="1Wc70l" id="4V$BJAdT5N2" role="3clFbG">
              <node concept="3fqX7Q" id="4V$BJAdTcRr" role="3uHU7w">
                <node concept="2OqwBi" id="4V$BJAdTcRs" role="3fr31v">
                  <node concept="2OqwBi" id="4V$BJAdTcRt" role="2Oq$k0">
                    <node concept="2qgKlT" id="2oLu0Jc27zc" role="2OqNvi">
                      <ref role="37wK5l" to="tpek:4_LVZ3pBjGQ" resolve="nestedClassifiers" />
                    </node>
                    <node concept="_YI3z" id="4V$BJAdTcRv" role="2Oq$k0" />
                  </node>
                  <node concept="2HwmR7" id="4V$BJAdTcRw" role="2OqNvi">
                    <node concept="1bVj0M" id="4V$BJAdTcRx" role="23t8la">
                      <node concept="3clFbS" id="4V$BJAdTcRy" role="1bW5cS">
                        <node concept="3clFbF" id="4V$BJAdTcRz" role="3cqZAp">
                          <node concept="2OqwBi" id="4V$BJAdTcR$" role="3clFbG">
                            <node concept="liA8E" id="4V$BJAdTcR_" role="2OqNvi">
                              <ref role="37wK5l" to="wyt6:~String.matches(java.lang.String):boolean" resolve="matches" />
                              <node concept="Xl_RD" id="4V$BJAdTcRA" role="37wK5m">
                                <property role="Xl_RC" value="_[0-9]+" />
                              </node>
                            </node>
                            <node concept="2OqwBi" id="4V$BJAdTcRB" role="2Oq$k0">
                              <node concept="37vLTw" id="2BHiRxgm5Xa" role="2Oq$k0">
                                <ref role="3cqZAo" node="4V$BJAdTcRE" resolve="it" />
                              </node>
                              <node concept="3TrcHB" id="4V$BJAdTcRD" role="2OqNvi">
                                <ref role="3TsBF5" to="tpck:h0TrG11" resolve="name" />
                              </node>
                            </node>
                          </node>
                        </node>
                      </node>
                      <node concept="Rh6nW" id="4V$BJAdTcRE" role="1bW2Oz">
                        <property role="TrG5h" value="it" />
                        <node concept="2jxLKc" id="4V$BJAdTcRF" role="1tU5fm" />
                      </node>
                    </node>
                  </node>
                </node>
              </node>
              <node concept="2OqwBi" id="i1Po5mK" role="3uHU7B">
                <node concept="Xl_RD" id="i1Po1ii" role="2Oq$k0">
                  <property role="Xl_RC" value="jetbrains.mps.baseLanguage.tuples.runtime.Tuples" />
                </node>
                <node concept="liA8E" id="i1Po5J1" role="2OqNvi">
                  <ref role="37wK5l" to="wyt6:~String.equals(java.lang.Object):boolean" resolve="equals" />
                  <node concept="2OqwBi" id="4V$BJAdT1SW" role="37wK5m">
                    <node concept="2qgKlT" id="4V$BJAdT2vj" role="2OqNvi">
                      <ref role="37wK5l" to="tpcu:hEwIO9y" resolve="getFqName" />
                    </node>
                    <node concept="_YI3z" id="4PjiKAemTOb" role="2Oq$k0" />
                  </node>
                </node>
              </node>
            </node>
          </node>
        </node>
      </node>
    </node>
    <node concept="1opIMY" id="44mPrYlT29s" role="_YvDr" />
  </node>
</model>

