<?xml version="1.0" encoding="UTF-8"?>
<model ref="r:6272afbe-d407-4921-b9d6-fcdba8c77d3c(jetbrains.mps.debugger.java.customViewers.behavior)">
  <persistence version="9" />
  <languages>
    <use id="af65afd8-f0dd-4942-87d9-63a55f2a9db1" name="jetbrains.mps.lang.behavior" version="0" />
    <use id="7866978e-a0f0-4cc7-81bc-4d213d9375e1" name="jetbrains.mps.lang.smodel" version="4" />
    <use id="f3061a53-9226-4cc5-a443-f952ceaf5816" name="jetbrains.mps.baseLanguage" version="4" />
    <devkit ref="fbc25dd2-5da4-483a-8b19-70928e1b62d7(jetbrains.mps.devkit.general-purpose)" />
  </languages>
  <imports>
    <import index="kisg" ref="r:c8cdf89f-8d25-442c-ae58-6e44844b68d7(jetbrains.mps.debugger.java.customViewers.structure)" />
    <import index="tpee" ref="r:00000000-0000-4000-0000-011c895902ca(jetbrains.mps.baseLanguage.structure)" />
    <import index="w1kc" ref="6ed54515-acc8-4d1e-a16c-9fd6cfe951ea/java:jetbrains.mps.smodel(MPS.Core/)" />
    <import index="33ny" ref="6354ebe7-c22a-4a0f-ac54-50b52ab9b065/java:java.util(JDK/)" />
    <import index="tpck" ref="r:00000000-0000-4000-0000-011c89590288(jetbrains.mps.lang.core.structure)" />
    <import index="unno" ref="r:61e3d524-8c49-4491-b5e3-f6d6e9364527(jetbrains.mps.util)" />
    <import index="tpek" ref="r:00000000-0000-4000-0000-011c895902c0(jetbrains.mps.baseLanguage.behavior)" implicit="true" />
    <import index="tpce" ref="r:00000000-0000-4000-0000-011c89590292(jetbrains.mps.lang.structure.structure)" implicit="true" />
  </imports>
  <registry>
    <language id="af65afd8-f0dd-4942-87d9-63a55f2a9db1" name="jetbrains.mps.lang.behavior">
      <concept id="6496299201655527393" name="jetbrains.mps.lang.behavior.structure.LocalBehaviorMethodCall" flags="nn" index="BsUDl" />
      <concept id="1225194240794" name="jetbrains.mps.lang.behavior.structure.ConceptBehavior" flags="ng" index="13h7C7">
        <reference id="1225194240799" name="concept" index="13h7C2" />
        <child id="1225194240805" name="method" index="13h7CS" />
        <child id="1225194240801" name="constructor" index="13h7CW" />
      </concept>
      <concept id="1225194413805" name="jetbrains.mps.lang.behavior.structure.ConceptConstructorDeclaration" flags="in" index="13hLZK" />
      <concept id="1225194472830" name="jetbrains.mps.lang.behavior.structure.ConceptMethodDeclaration" flags="ng" index="13i0hz">
        <property id="5864038008284099149" name="isStatic" index="2Ki8OM" />
        <property id="1225194472833" name="isPrivate" index="13i0is" />
        <property id="1225194472832" name="isVirtual" index="13i0it" />
        <property id="1225194472834" name="isAbstract" index="13i0iv" />
        <reference id="1225194472831" name="overriddenMethod" index="13i0hy" />
      </concept>
      <concept id="1225194628440" name="jetbrains.mps.lang.behavior.structure.SuperNodeExpression" flags="nn" index="13iAh5">
        <reference id="5299096511375896640" name="superConcept" index="3eA5LN" />
      </concept>
      <concept id="1225194691553" name="jetbrains.mps.lang.behavior.structure.ThisNodeExpression" flags="nn" index="13iPFW" />
    </language>
    <language id="f3061a53-9226-4cc5-a443-f952ceaf5816" name="jetbrains.mps.baseLanguage">
      <concept id="1197027756228" name="jetbrains.mps.baseLanguage.structure.DotExpression" flags="nn" index="2OqwBi">
        <child id="1197027771414" name="operand" index="2Oq$k0" />
        <child id="1197027833540" name="operation" index="2OqNvi" />
      </concept>
      <concept id="1137021947720" name="jetbrains.mps.baseLanguage.structure.ConceptFunction" flags="in" index="2VMwT0">
        <child id="1137022507850" name="body" index="2VODD2" />
      </concept>
      <concept id="1070475926800" name="jetbrains.mps.baseLanguage.structure.StringLiteral" flags="nn" index="Xl_RD">
        <property id="1070475926801" name="value" index="Xl_RC" />
      </concept>
      <concept id="1081236700937" name="jetbrains.mps.baseLanguage.structure.StaticMethodCall" flags="nn" index="2YIFZM">
        <reference id="1144433194310" name="classConcept" index="1Pybhc" />
      </concept>
      <concept id="1070534644030" name="jetbrains.mps.baseLanguage.structure.BooleanType" flags="in" index="10P_77" />
      <concept id="1068431474542" name="jetbrains.mps.baseLanguage.structure.VariableDeclaration" flags="ng" index="33uBYm">
        <child id="1068431790190" name="initializer" index="33vP2m" />
      </concept>
      <concept id="1068498886296" name="jetbrains.mps.baseLanguage.structure.VariableReference" flags="nn" index="37vLTw">
        <reference id="1068581517664" name="variableDeclaration" index="3cqZAo" />
      </concept>
      <concept id="1068498886292" name="jetbrains.mps.baseLanguage.structure.ParameterDeclaration" flags="ir" index="37vLTG" />
      <concept id="1225271177708" name="jetbrains.mps.baseLanguage.structure.StringType" flags="in" index="17QB3L" />
      <concept id="4972933694980447171" name="jetbrains.mps.baseLanguage.structure.BaseVariableDeclaration" flags="ng" index="19Szcq">
        <child id="5680397130376446158" name="type" index="1tU5fm" />
      </concept>
      <concept id="1068580123132" name="jetbrains.mps.baseLanguage.structure.BaseMethodDeclaration" flags="ng" index="3clF44">
        <child id="1068580123133" name="returnType" index="3clF45" />
        <child id="1068580123134" name="parameter" index="3clF46" />
        <child id="1068580123135" name="body" index="3clF47" />
      </concept>
      <concept id="1068580123155" name="jetbrains.mps.baseLanguage.structure.ExpressionStatement" flags="nn" index="3clFbF">
        <child id="1068580123156" name="expression" index="3clFbG" />
      </concept>
      <concept id="1068580123136" name="jetbrains.mps.baseLanguage.structure.StatementList" flags="sn" stub="5293379017992965193" index="3clFbS">
        <child id="1068581517665" name="statement" index="3cqZAp" />
      </concept>
      <concept id="1068581242875" name="jetbrains.mps.baseLanguage.structure.PlusExpression" flags="nn" index="3cpWs3" />
      <concept id="1068581242878" name="jetbrains.mps.baseLanguage.structure.ReturnStatement" flags="nn" index="3cpWs6">
        <child id="1068581517676" name="expression" index="3cqZAk" />
      </concept>
      <concept id="1068581242864" name="jetbrains.mps.baseLanguage.structure.LocalVariableDeclarationStatement" flags="nn" index="3cpWs8">
        <child id="1068581242865" name="localVariableDeclaration" index="3cpWs9" />
      </concept>
      <concept id="1068581242863" name="jetbrains.mps.baseLanguage.structure.LocalVariableDeclaration" flags="nr" index="3cpWsn" />
      <concept id="1068581517677" name="jetbrains.mps.baseLanguage.structure.VoidType" flags="in" index="3cqZAl" />
      <concept id="1204053956946" name="jetbrains.mps.baseLanguage.structure.IMethodCall" flags="ng" index="1ndlxa">
        <reference id="1068499141037" name="baseMethodDeclaration" index="37wK5l" />
        <child id="1068499141038" name="actualArgument" index="37wK5m" />
      </concept>
      <concept id="1081773326031" name="jetbrains.mps.baseLanguage.structure.BinaryOperation" flags="nn" index="3uHJSO">
        <child id="1081773367579" name="rightExpression" index="3uHU7w" />
        <child id="1081773367580" name="leftExpression" index="3uHU7B" />
      </concept>
      <concept id="1178549954367" name="jetbrains.mps.baseLanguage.structure.IVisible" flags="ng" index="1B3ioH">
        <child id="1178549979242" name="visibility" index="1B3o_S" />
      </concept>
      <concept id="1146644602865" name="jetbrains.mps.baseLanguage.structure.PublicVisibility" flags="nn" index="3Tm1VV" />
    </language>
    <language id="3a13115c-633c-4c5c-bbcc-75c4219e9555" name="jetbrains.mps.lang.quotation">
      <concept id="1196350785113" name="jetbrains.mps.lang.quotation.structure.Quotation" flags="nn" index="2c44tf">
        <child id="1196350785114" name="quotedNode" index="2c44tc" />
      </concept>
      <concept id="5455284157994012186" name="jetbrains.mps.lang.quotation.structure.NodeBuilderInitLink" flags="ng" index="2pIpSj">
        <reference id="5455284157994012188" name="link" index="2pIpSl" />
      </concept>
      <concept id="5455284157993911097" name="jetbrains.mps.lang.quotation.structure.NodeBuilderInitPart" flags="ng" index="2pJxcK">
        <child id="5455284157993911094" name="expression" index="2pJxcZ" />
      </concept>
      <concept id="5455284157993863837" name="jetbrains.mps.lang.quotation.structure.NodeBuilder" flags="nn" index="2pJPEk">
        <child id="5455284157993863838" name="quotedNode" index="2pJPEn" />
      </concept>
      <concept id="5455284157993863840" name="jetbrains.mps.lang.quotation.structure.NodeBuilderNode" flags="nn" index="2pJPED">
        <reference id="5455284157993910961" name="concept" index="2pJxaS" />
        <child id="5455284157993911099" name="values" index="2pJxcM" />
      </concept>
      <concept id="8182547171709614739" name="jetbrains.mps.lang.quotation.structure.NodeBuilderRef" flags="nn" index="36bGnv">
        <reference id="8182547171709614741" name="target" index="36bGnp" />
      </concept>
    </language>
    <language id="7866978e-a0f0-4cc7-81bc-4d213d9375e1" name="jetbrains.mps.lang.smodel">
      <concept id="1179409122411" name="jetbrains.mps.lang.smodel.structure.Node_ConceptMethodCall" flags="nn" index="2qgKlT" />
      <concept id="1143234257716" name="jetbrains.mps.lang.smodel.structure.Node_GetModelOperation" flags="nn" index="I4A8Y" />
      <concept id="1145404486709" name="jetbrains.mps.lang.smodel.structure.SemanticDowncastExpression" flags="nn" index="2JrnkZ">
        <child id="1145404616321" name="leftExpression" index="2JrQYb" />
      </concept>
      <concept id="1144146199828" name="jetbrains.mps.lang.smodel.structure.Node_CopyOperation" flags="nn" index="1$rogu" />
      <concept id="1219352745532" name="jetbrains.mps.lang.smodel.structure.NodeRefExpression" flags="nn" index="3B5_sB">
        <reference id="1219352800908" name="referentNode" index="3B5MYn" />
      </concept>
      <concept id="1138055754698" name="jetbrains.mps.lang.smodel.structure.SNodeType" flags="in" index="3Tqbb2">
        <reference id="1138405853777" name="concept" index="ehGHo" />
      </concept>
      <concept id="1138056022639" name="jetbrains.mps.lang.smodel.structure.SPropertyAccess" flags="nn" index="3TrcHB">
        <reference id="1138056395725" name="property" index="3TsBF5" />
      </concept>
      <concept id="1138056143562" name="jetbrains.mps.lang.smodel.structure.SLinkAccess" flags="nn" index="3TrEf2">
        <reference id="1138056516764" name="link" index="3Tt5mk" />
      </concept>
    </language>
    <language id="ceab5195-25ea-4f22-9b92-103b95ca8c0c" name="jetbrains.mps.lang.core">
      <concept id="1133920641626" name="jetbrains.mps.lang.core.structure.BaseConcept" flags="ng" index="2VYdi">
        <property id="1193676396447" name="virtualPackage" index="3GE5qa" />
      </concept>
      <concept id="1169194658468" name="jetbrains.mps.lang.core.structure.INamedConcept" flags="ng" index="TrEIO">
        <property id="1169194664001" name="name" index="TrG5h" />
      </concept>
    </language>
    <language id="83888646-71ce-4f1c-9c53-c54016f6ad4f" name="jetbrains.mps.baseLanguage.collections">
      <concept id="540871147943773365" name="jetbrains.mps.baseLanguage.collections.structure.SingleArgumentSequenceOperation" flags="nn" index="25WWJ4">
        <child id="540871147943773366" name="argument" index="25WWJ7" />
      </concept>
      <concept id="1151688443754" name="jetbrains.mps.baseLanguage.collections.structure.ListType" flags="in" index="_YKpA">
        <child id="1151688676805" name="elementType" index="_ZDj9" />
      </concept>
      <concept id="1160612413312" name="jetbrains.mps.baseLanguage.collections.structure.AddElementOperation" flags="nn" index="TSZUe" />
      <concept id="1197683403723" name="jetbrains.mps.baseLanguage.collections.structure.MapType" flags="in" index="3rvAFt">
        <child id="1197683466920" name="keyType" index="3rvQeY" />
        <child id="1197683475734" name="valueType" index="3rvSg0" />
      </concept>
    </language>
  </registry>
  <node concept="13h7C7" id="2q5hg4fWIN">
    <property role="3GE5qa" value="highLevel" />
    <ref role="13h7C2" to="kisg:_Ke0sqeZD0" resolve="HighLevelCustomViewer" />
    <node concept="13i0hz" id="2q5hg4fWIQ" role="13h7CS">
      <property role="TrG5h" value="getValueTypeCopy" />
      <node concept="3Tm1VV" id="2q5hg4fWIR" role="1B3o_S" />
      <node concept="3Tqbb2" id="2q5hg4fZih" role="3clF45">
        <ref role="ehGHo" to="tpee:fz3vP1H" resolve="Type" />
      </node>
      <node concept="3clFbS" id="2q5hg4fWIT" role="3clF47">
        <node concept="3clFbF" id="2q5hg4fZii" role="3cqZAp">
          <node concept="2OqwBi" id="2q5hg4fZ$N" role="3clFbG">
            <node concept="2OqwBi" id="2q5hg4fZik" role="2Oq$k0">
              <node concept="13iPFW" id="2q5hg4fZij" role="2Oq$k0" />
              <node concept="3TrEf2" id="2q5hg4fZr1" role="2OqNvi">
                <ref role="3Tt5mk" to="kisg:2q5hg4fVKq" />
              </node>
            </node>
            <node concept="1$rogu" id="2q5hg4fZ$R" role="2OqNvi" />
          </node>
        </node>
      </node>
    </node>
    <node concept="13i0hz" id="6$g4PBN66FS" role="13h7CS">
      <property role="TrG5h" value="getClassName" />
      <node concept="3Tm1VV" id="6$g4PBN66FT" role="1B3o_S" />
      <node concept="17QB3L" id="6$g4PBN66FX" role="3clF45" />
      <node concept="3clFbS" id="6$g4PBN66FV" role="3clF47">
        <node concept="3clFbF" id="6$g4PBN66FY" role="3cqZAp">
          <node concept="3cpWs3" id="6$g4PBN66G5" role="3clFbG">
            <node concept="2OqwBi" id="6$g4PBN66G0" role="3uHU7B">
              <node concept="13iPFW" id="6$g4PBN66FZ" role="2Oq$k0" />
              <node concept="3TrcHB" id="6$g4PBN66G4" role="2OqNvi">
                <ref role="3TsBF5" to="tpck:h0TrG11" resolve="name" />
              </node>
            </node>
            <node concept="Xl_RD" id="6$g4PBN67n1" role="3uHU7w">
              <property role="Xl_RC" value="_WrapperFactory" />
            </node>
          </node>
        </node>
      </node>
    </node>
    <node concept="13i0hz" id="6$g4PBN67n2" role="13h7CS">
      <property role="TrG5h" value="getClassFqName" />
      <node concept="3Tm1VV" id="6$g4PBN67n3" role="1B3o_S" />
      <node concept="17QB3L" id="6$g4PBN67n7" role="3clF45" />
      <node concept="3clFbS" id="6$g4PBN67n5" role="3clF47">
        <node concept="3clFbF" id="6$g4PBN67n8" role="3cqZAp">
          <node concept="3cpWs3" id="6$g4PBN67EU" role="3clFbG">
            <node concept="BsUDl" id="6$g4PBN67EX" role="3uHU7w">
              <ref role="37wK5l" node="6$g4PBN66FS" resolve="getClassName" />
            </node>
            <node concept="3cpWs3" id="6$g4PBN67EQ" role="3uHU7B">
              <node concept="2YIFZM" id="2n9zn0CqMOC" role="3uHU7B">
                <ref role="37wK5l" to="unno:7WvVJ3rORmu" resolve="getModelLongName" />
                <ref role="1Pybhc" to="unno:1NYD3hytmTa" resolve="SNodeOperations" />
                <node concept="2JrnkZ" id="2n9zn0CqMOD" role="37wK5m">
                  <node concept="2OqwBi" id="2n9zn0CqMOE" role="2JrQYb">
                    <node concept="13iPFW" id="2n9zn0CqMOF" role="2Oq$k0" />
                    <node concept="I4A8Y" id="2n9zn0CqMOG" role="2OqNvi" />
                  </node>
                </node>
              </node>
              <node concept="Xl_RD" id="6$g4PBN67ET" role="3uHU7w">
                <property role="Xl_RC" value="." />
              </node>
            </node>
          </node>
        </node>
      </node>
    </node>
    <node concept="13hLZK" id="2q5hg4fWIO" role="13h7CW">
      <node concept="3clFbS" id="2q5hg4fWIP" role="2VODD2" />
    </node>
  </node>
  <node concept="13h7C7" id="3FJ0r$qN_m7">
    <property role="3GE5qa" value="types" />
    <ref role="13h7C2" to="kisg:1AiqN6mKNIN" resolve="WatchableListType" />
    <node concept="13hLZK" id="3FJ0r$qN_m8" role="13h7CW">
      <node concept="3clFbS" id="3FJ0r$qN_m9" role="2VODD2" />
    </node>
    <node concept="13i0hz" id="3FJ0r$qN_zz" role="13h7CS">
      <property role="13i0iv" value="false" />
      <property role="TrG5h" value="collectGenericSubstitutions" />
      <property role="13i0it" value="false" />
      <ref role="13i0hy" to="tpek:3zZky3wF74h" resolve="collectGenericSubstitutions" />
      <node concept="3Tm1VV" id="3FJ0r$qN_z$" role="1B3o_S" />
      <node concept="3clFbS" id="3FJ0r$qN_z_" role="3clF47">
        <node concept="3clFbF" id="3FJ0r$qN_zF" role="3cqZAp">
          <node concept="2OqwBi" id="3FJ0r$qN_zG" role="3clFbG">
            <node concept="13iAh5" id="3FJ0r$qN_zH" role="2Oq$k0">
              <ref role="3eA5LN" to="tpee:3zZky3wF74d" resolve="IGenericType" />
            </node>
            <node concept="2qgKlT" id="3FJ0r$qN_zI" role="2OqNvi">
              <ref role="37wK5l" to="tpek:3zZky3wF74h" resolve="collectGenericSubstitutions" />
              <node concept="37vLTw" id="2BHiRxglbnA" role="37wK5m">
                <ref role="3cqZAo" node="3FJ0r$qN_zA" resolve="substitutions" />
              </node>
            </node>
          </node>
        </node>
        <node concept="3clFbF" id="3FJ0r$qN_zN" role="3cqZAp">
          <node concept="2OqwBi" id="3FJ0r$qN_$f" role="3clFbG">
            <node concept="2pJPEk" id="7U4XhjnRMt9" role="2Oq$k0">
              <node concept="2pJPED" id="7U4XhjnRMt3" role="2pJPEn">
                <ref role="2pJxaS" to="tpee:g7uibYu" resolve="ClassifierType" />
                <node concept="2pIpSj" id="7U4XhjnRMt4" role="2pJxcM">
                  <ref role="2pIpSl" to="tpee:g7uigIF" />
                  <node concept="36bGnv" id="7U4XhjnRMt5" role="2pJxcZ">
                    <ref role="36bGnp" to="33ny:~List" resolve="List" />
                  </node>
                </node>
                <node concept="2pIpSj" id="7U4XhjnRMt7" role="2pJxcM">
                  <ref role="2pIpSl" to="tpee:g91_B6F" />
                  <node concept="2pJPED" id="7U4XhjnRMt6" role="2pJxcZ">
                    <ref role="2pJxaS" to="kisg:4s4uRp_lDhd" resolve="WatchableType" />
                  </node>
                </node>
              </node>
            </node>
            <node concept="2qgKlT" id="3FJ0r$qN_$k" role="2OqNvi">
              <ref role="37wK5l" to="tpek:3zZky3wF74h" resolve="collectGenericSubstitutions" />
              <node concept="37vLTw" id="3FJ0r$qN_$l" role="37wK5m">
                <ref role="3cqZAo" node="3FJ0r$qN_zA" resolve="substitutions" />
              </node>
            </node>
          </node>
        </node>
      </node>
      <node concept="37vLTG" id="3FJ0r$qN_zA" role="3clF46">
        <property role="TrG5h" value="substitutions" />
        <node concept="3rvAFt" id="3FJ0r$qN_zB" role="1tU5fm">
          <node concept="3Tqbb2" id="3FJ0r$qN_zC" role="3rvQeY" />
          <node concept="3Tqbb2" id="3FJ0r$qN_zD" role="3rvSg0" />
        </node>
      </node>
      <node concept="3cqZAl" id="3FJ0r$qN_zE" role="3clF45" />
    </node>
  </node>
  <node concept="13h7C7" id="1653mnvB6hk">
    <ref role="13h7C2" to="kisg:C1IMQvqnKg" resolve="ToProcessMethod" />
    <node concept="13hLZK" id="1653mnvB6hl" role="13h7CW">
      <node concept="3clFbS" id="1653mnvB6hm" role="2VODD2" />
    </node>
  </node>
  <node concept="13h7C7" id="2D1PBM_bz5I">
    <ref role="13h7C2" to="kisg:2q5hg4fGJm" resolve="GetHighLevelWatchablesBlock_ConceptFunction" />
    <node concept="13hLZK" id="2D1PBM_bz5J" role="13h7CW">
      <node concept="3clFbS" id="2D1PBM_bz5K" role="2VODD2" />
    </node>
    <node concept="13i0hz" id="2D1PBM_bz5m" role="13h7CS">
      <property role="2Ki8OM" value="true" />
      <property role="13i0is" value="false" />
      <property role="TrG5h" value="getApplicableConceptFunctionParameter" />
      <property role="13i0it" value="false" />
      <ref role="13i0hy" to="tpek:2D1PBM_bxJg" resolve="getApplicableConceptFunctionParameter" />
      <node concept="3Tm1VV" id="2D1PBM_bz5n" role="1B3o_S" />
      <node concept="_YKpA" id="2D1PBM_bz5k" role="3clF45">
        <node concept="3Tqbb2" id="2D1PBM_bz5l" role="_ZDj9">
          <ref role="ehGHo" to="tpce:f_TIwhg" resolve="ConceptDeclaration" />
        </node>
      </node>
      <node concept="3clFbS" id="2D1PBM_bz5o" role="3clF47">
        <node concept="3cpWs8" id="2D1PBM_bz5p" role="3cqZAp">
          <node concept="3cpWsn" id="2D1PBM_bz5q" role="3cpWs9">
            <property role="TrG5h" value="result" />
            <node concept="_YKpA" id="2D1PBM_bz5u" role="1tU5fm">
              <node concept="3Tqbb2" id="2D1PBM_bz5v" role="_ZDj9">
                <ref role="ehGHo" to="tpce:f_TIwhg" resolve="ConceptDeclaration" />
              </node>
            </node>
            <node concept="2OqwBi" id="2D1PBM_bz5A" role="33vP2m">
              <node concept="13iAh5" id="2D1PBM_bz5y" role="2Oq$k0">
                <ref role="3eA5LN" to="tpee:gyVMwX8" resolve="ConceptFunction" />
              </node>
              <node concept="2qgKlT" id="2D1PBM_bz5x" role="2OqNvi">
                <ref role="37wK5l" to="tpek:2D1PBM_bxJg" resolve="getApplicableConceptFunctionParameter" />
              </node>
            </node>
          </node>
        </node>
        <node concept="3clFbF" id="2D1PBM_bz5C" role="3cqZAp">
          <node concept="2OqwBi" id="2D1PBM_bz5D" role="3clFbG">
            <node concept="37vLTw" id="2D1PBM_bz5E" role="2Oq$k0">
              <ref role="3cqZAo" node="2D1PBM_bz5q" resolve="result" />
            </node>
            <node concept="TSZUe" id="2D1PBM_bz5F" role="2OqNvi">
              <node concept="3B5_sB" id="2D1PBM_bz5B" role="25WWJ7">
                <ref role="3B5MYn" to="kisg:2q5hg4fZIH" resolve="HighLevelValue_ConceptFunctionParameter" />
              </node>
            </node>
          </node>
        </node>
        <node concept="3cpWs6" id="2D1PBM_bz5G" role="3cqZAp">
          <node concept="37vLTw" id="2D1PBM_bz5H" role="3cqZAk">
            <ref role="3cqZAo" node="2D1PBM_bz5q" resolve="result" />
          </node>
        </node>
      </node>
    </node>
    <node concept="13i0hz" id="$yZ68hBird" role="13h7CS">
      <property role="13i0is" value="false" />
      <property role="TrG5h" value="getExpectedReturnType" />
      <property role="13i0it" value="false" />
      <property role="13i0iv" value="false" />
      <ref role="13i0hy" to="tpek:hEwIGRD" resolve="getExpectedReturnType" />
      <node concept="3Tm1VV" id="$yZ68hBire" role="1B3o_S" />
      <node concept="3clFbS" id="$yZ68hBirf" role="3clF47">
        <node concept="3cpWs6" id="$yZ68hBirg" role="3cqZAp">
          <node concept="2pJPEk" id="7U4XhjnRMQe" role="3cqZAk">
            <node concept="2pJPED" id="7U4XhjnRMQd" role="2pJPEn">
              <ref role="2pJxaS" to="kisg:1AiqN6mKNIN" resolve="WatchableListType" />
            </node>
          </node>
        </node>
      </node>
      <node concept="3Tqbb2" id="$yZ68hBirh" role="3clF45" />
    </node>
  </node>
  <node concept="13h7C7" id="2D1PBM_bzCJ">
    <ref role="13h7C2" to="kisg:2q5hg4fGJr" resolve="CanWrapHighLevelValue_ConceptFunction" />
    <node concept="13hLZK" id="2D1PBM_bzCK" role="13h7CW">
      <node concept="3clFbS" id="2D1PBM_bzCL" role="2VODD2" />
    </node>
    <node concept="13i0hz" id="2D1PBM_bzCn" role="13h7CS">
      <property role="2Ki8OM" value="true" />
      <property role="13i0is" value="false" />
      <property role="TrG5h" value="getApplicableConceptFunctionParameter" />
      <property role="13i0it" value="false" />
      <ref role="13i0hy" to="tpek:2D1PBM_bxJg" resolve="getApplicableConceptFunctionParameter" />
      <node concept="3Tm1VV" id="2D1PBM_bzCo" role="1B3o_S" />
      <node concept="_YKpA" id="2D1PBM_bzCl" role="3clF45">
        <node concept="3Tqbb2" id="2D1PBM_bzCm" role="_ZDj9">
          <ref role="ehGHo" to="tpce:f_TIwhg" resolve="ConceptDeclaration" />
        </node>
      </node>
      <node concept="3clFbS" id="2D1PBM_bzCp" role="3clF47">
        <node concept="3cpWs8" id="2D1PBM_bzCq" role="3cqZAp">
          <node concept="3cpWsn" id="2D1PBM_bzCr" role="3cpWs9">
            <property role="TrG5h" value="result" />
            <node concept="_YKpA" id="2D1PBM_bzCv" role="1tU5fm">
              <node concept="3Tqbb2" id="2D1PBM_bzCw" role="_ZDj9">
                <ref role="ehGHo" to="tpce:f_TIwhg" resolve="ConceptDeclaration" />
              </node>
            </node>
            <node concept="2OqwBi" id="2D1PBM_bzCB" role="33vP2m">
              <node concept="13iAh5" id="2D1PBM_bzCz" role="2Oq$k0">
                <ref role="3eA5LN" to="tpee:gyVMwX8" resolve="ConceptFunction" />
              </node>
              <node concept="2qgKlT" id="2D1PBM_bzCy" role="2OqNvi">
                <ref role="37wK5l" to="tpek:2D1PBM_bxJg" resolve="getApplicableConceptFunctionParameter" />
              </node>
            </node>
          </node>
        </node>
        <node concept="3clFbF" id="2D1PBM_bzCD" role="3cqZAp">
          <node concept="2OqwBi" id="2D1PBM_bzCE" role="3clFbG">
            <node concept="37vLTw" id="2D1PBM_bzCF" role="2Oq$k0">
              <ref role="3cqZAo" node="2D1PBM_bzCr" resolve="result" />
            </node>
            <node concept="TSZUe" id="2D1PBM_bzCG" role="2OqNvi">
              <node concept="3B5_sB" id="2D1PBM_bzCC" role="25WWJ7">
                <ref role="3B5MYn" to="kisg:2q5hg4fZIH" resolve="HighLevelValue_ConceptFunctionParameter" />
              </node>
            </node>
          </node>
        </node>
        <node concept="3cpWs6" id="2D1PBM_bzCH" role="3cqZAp">
          <node concept="37vLTw" id="2D1PBM_bzCI" role="3cqZAk">
            <ref role="3cqZAo" node="2D1PBM_bzCr" resolve="result" />
          </node>
        </node>
      </node>
    </node>
    <node concept="13i0hz" id="$yZ68hB6ww" role="13h7CS">
      <property role="13i0is" value="false" />
      <property role="TrG5h" value="getExpectedReturnType" />
      <property role="13i0it" value="false" />
      <property role="13i0iv" value="false" />
      <ref role="13i0hy" to="tpek:hEwIGRD" resolve="getExpectedReturnType" />
      <node concept="3Tm1VV" id="$yZ68hB6wx" role="1B3o_S" />
      <node concept="3clFbS" id="$yZ68hB6wy" role="3clF47">
        <node concept="3cpWs6" id="$yZ68hB6wz" role="3cqZAp">
          <node concept="2c44tf" id="$yZ68hB6uu" role="3cqZAk">
            <node concept="10P_77" id="2q5hg4fGJt" role="2c44tc" />
          </node>
        </node>
      </node>
      <node concept="3Tqbb2" id="$yZ68hB6w$" role="3clF45" />
    </node>
  </node>
  <node concept="13h7C7" id="2D1PBM_b$1T">
    <ref role="13h7C2" to="kisg:2q5hg4fGJi" resolve="GetHighLevelValuePresentation_ConceptFunction" />
    <node concept="13hLZK" id="2D1PBM_b$1U" role="13h7CW">
      <node concept="3clFbS" id="2D1PBM_b$1V" role="2VODD2" />
    </node>
    <node concept="13i0hz" id="2D1PBM_b$1x" role="13h7CS">
      <property role="2Ki8OM" value="true" />
      <property role="13i0is" value="false" />
      <property role="TrG5h" value="getApplicableConceptFunctionParameter" />
      <property role="13i0it" value="false" />
      <ref role="13i0hy" to="tpek:2D1PBM_bxJg" resolve="getApplicableConceptFunctionParameter" />
      <node concept="3Tm1VV" id="2D1PBM_b$1y" role="1B3o_S" />
      <node concept="_YKpA" id="2D1PBM_b$1v" role="3clF45">
        <node concept="3Tqbb2" id="2D1PBM_b$1w" role="_ZDj9">
          <ref role="ehGHo" to="tpce:f_TIwhg" resolve="ConceptDeclaration" />
        </node>
      </node>
      <node concept="3clFbS" id="2D1PBM_b$1z" role="3clF47">
        <node concept="3cpWs8" id="2D1PBM_b$1$" role="3cqZAp">
          <node concept="3cpWsn" id="2D1PBM_b$1_" role="3cpWs9">
            <property role="TrG5h" value="result" />
            <node concept="_YKpA" id="2D1PBM_b$1D" role="1tU5fm">
              <node concept="3Tqbb2" id="2D1PBM_b$1E" role="_ZDj9">
                <ref role="ehGHo" to="tpce:f_TIwhg" resolve="ConceptDeclaration" />
              </node>
            </node>
            <node concept="2OqwBi" id="2D1PBM_b$1L" role="33vP2m">
              <node concept="13iAh5" id="2D1PBM_b$1H" role="2Oq$k0">
                <ref role="3eA5LN" to="tpee:gyVMwX8" resolve="ConceptFunction" />
              </node>
              <node concept="2qgKlT" id="2D1PBM_b$1G" role="2OqNvi">
                <ref role="37wK5l" to="tpek:2D1PBM_bxJg" resolve="getApplicableConceptFunctionParameter" />
              </node>
            </node>
          </node>
        </node>
        <node concept="3clFbF" id="2D1PBM_b$1N" role="3cqZAp">
          <node concept="2OqwBi" id="2D1PBM_b$1O" role="3clFbG">
            <node concept="37vLTw" id="2D1PBM_b$1P" role="2Oq$k0">
              <ref role="3cqZAo" node="2D1PBM_b$1_" resolve="result" />
            </node>
            <node concept="TSZUe" id="2D1PBM_b$1Q" role="2OqNvi">
              <node concept="3B5_sB" id="2D1PBM_b$1M" role="25WWJ7">
                <ref role="3B5MYn" to="kisg:2q5hg4fZIH" resolve="HighLevelValue_ConceptFunctionParameter" />
              </node>
            </node>
          </node>
        </node>
        <node concept="3cpWs6" id="2D1PBM_b$1R" role="3cqZAp">
          <node concept="37vLTw" id="2D1PBM_b$1S" role="3cqZAk">
            <ref role="3cqZAo" node="2D1PBM_b$1_" resolve="result" />
          </node>
        </node>
      </node>
    </node>
    <node concept="13i0hz" id="$yZ68hBhPE" role="13h7CS">
      <property role="13i0is" value="false" />
      <property role="TrG5h" value="getExpectedReturnType" />
      <property role="13i0it" value="false" />
      <property role="13i0iv" value="false" />
      <ref role="13i0hy" to="tpek:hEwIGRD" resolve="getExpectedReturnType" />
      <node concept="3Tm1VV" id="$yZ68hBhPF" role="1B3o_S" />
      <node concept="3clFbS" id="$yZ68hBhPG" role="3clF47">
        <node concept="3cpWs6" id="$yZ68hBhPH" role="3cqZAp">
          <node concept="2c44tf" id="$yZ68hBhPD" role="3cqZAk">
            <node concept="17QB3L" id="2q5hg4fGJl" role="2c44tc" />
          </node>
        </node>
      </node>
      <node concept="3Tqbb2" id="$yZ68hBhPI" role="3clF45" />
    </node>
  </node>
</model>

