<?xml version="1.0" encoding="UTF-8"?>
<model ref="r:0569381c-9c19-431d-a804-4df8bcdb4152(jetbrains.mps.debugger.api.lang.migration)">
  <persistence version="9" />
  <languages>
    <use id="90746344-04fd-4286-97d5-b46ae6a81709" name="jetbrains.mps.lang.migration" version="0" />
    <use id="28f9e497-3b42-4291-aeba-0a1039153ab1" name="jetbrains.mps.lang.plugin" version="1" />
    <use id="d4615e3b-d671-4ba9-af01-2b78369b0ba7" name="jetbrains.mps.lang.pattern" version="1" />
    <use id="1a8554c4-eb84-43ba-8c34-6f0d90c6e75a" name="jetbrains.mps.lang.smodel.query" version="2" />
    <devkit ref="fbc25dd2-5da4-483a-8b19-70928e1b62d7(jetbrains.mps.devkit.general-purpose)" />
  </languages>
  <imports>
    <import index="c17a" ref="8865b7a8-5271-43d3-884c-6fd1d9cfdd34/java:org.jetbrains.mps.openapi.language(MPS.OpenAPI/)" />
    <import index="lui2" ref="8865b7a8-5271-43d3-884c-6fd1d9cfdd34/java:org.jetbrains.mps.openapi.module(MPS.OpenAPI/)" />
    <import index="6f4m" ref="528ff3b9-5fc4-40dd-931f-c6ce3650640e/r:f69c3fa1-0e30-4980-84e2-190ae44e4c3d(jetbrains.mps.lang.migration.runtime/jetbrains.mps.lang.migration.runtime.base)" />
    <import index="86gq" ref="r:f516737e-c915-4042-896e-de34190042b2(jetbrains.mps.debugger.api.lang.structure)" />
    <import index="tpee" ref="r:00000000-0000-4000-0000-011c895902ca(jetbrains.mps.baseLanguage.structure)" />
    <import index="tp25" ref="r:00000000-0000-4000-0000-011c89590301(jetbrains.mps.lang.smodel.structure)" />
    <import index="slm6" ref="90746344-04fd-4286-97d5-b46ae6a81709/r:52a3d974-bd4f-4651-ba6e-a2de5e336d95(jetbrains.mps.lang.migration/jetbrains.mps.lang.migration.methods)" implicit="true" />
  </imports>
  <registry>
    <language id="f3061a53-9226-4cc5-a443-f952ceaf5816" name="jetbrains.mps.baseLanguage">
      <concept id="1215693861676" name="jetbrains.mps.baseLanguage.structure.BaseAssignmentExpression" flags="nn" index="d038R">
        <child id="1068498886297" name="rValue" index="37vLTx" />
        <child id="1068498886295" name="lValue" index="37vLTJ" />
      </concept>
      <concept id="4836112446988635817" name="jetbrains.mps.baseLanguage.structure.UndefinedType" flags="in" index="2jxLKc" />
      <concept id="1465982738277781862" name="jetbrains.mps.baseLanguage.structure.PlaceholderMember" flags="ng" index="2tJIrI" />
      <concept id="1197027756228" name="jetbrains.mps.baseLanguage.structure.DotExpression" flags="nn" index="2OqwBi">
        <child id="1197027771414" name="operand" index="2Oq$k0" />
        <child id="1197027833540" name="operation" index="2OqNvi" />
      </concept>
      <concept id="1081236700937" name="jetbrains.mps.baseLanguage.structure.StaticMethodCall" flags="nn" index="2YIFZM">
        <reference id="1144433194310" name="classConcept" index="1Pybhc" />
      </concept>
      <concept id="1070534058343" name="jetbrains.mps.baseLanguage.structure.NullLiteral" flags="nn" index="10Nm6u" />
      <concept id="1070534644030" name="jetbrains.mps.baseLanguage.structure.BooleanType" flags="in" index="10P_77" />
      <concept id="1070534934090" name="jetbrains.mps.baseLanguage.structure.CastExpression" flags="nn" index="10QFUN">
        <child id="1070534934091" name="type" index="10QFUM" />
        <child id="1070534934092" name="expression" index="10QFUP" />
      </concept>
      <concept id="1068498886296" name="jetbrains.mps.baseLanguage.structure.VariableReference" flags="nn" index="37vLTw">
        <reference id="1068581517664" name="variableDeclaration" index="3cqZAo" />
      </concept>
      <concept id="1068498886292" name="jetbrains.mps.baseLanguage.structure.ParameterDeclaration" flags="ir" index="37vLTG" />
      <concept id="1068498886294" name="jetbrains.mps.baseLanguage.structure.AssignmentExpression" flags="nn" index="37vLTI" />
      <concept id="4972933694980447171" name="jetbrains.mps.baseLanguage.structure.BaseVariableDeclaration" flags="ng" index="19Szcq">
        <child id="5680397130376446158" name="type" index="1tU5fm" />
      </concept>
      <concept id="1068580123132" name="jetbrains.mps.baseLanguage.structure.BaseMethodDeclaration" flags="ng" index="3clF44">
        <child id="1068580123133" name="returnType" index="3clF45" />
        <child id="1068580123134" name="parameter" index="3clF46" />
        <child id="1068580123135" name="body" index="3clF47" />
      </concept>
      <concept id="1068580123165" name="jetbrains.mps.baseLanguage.structure.InstanceMethodDeclaration" flags="ig" index="3clFb_" />
      <concept id="1068580123155" name="jetbrains.mps.baseLanguage.structure.ExpressionStatement" flags="nn" index="3clFbF">
        <child id="1068580123156" name="expression" index="3clFbG" />
      </concept>
      <concept id="1068580123136" name="jetbrains.mps.baseLanguage.structure.StatementList" flags="sn" stub="5293379017992965193" index="3clFbS">
        <child id="1068581517665" name="statement" index="3cqZAp" />
      </concept>
      <concept id="1068581242878" name="jetbrains.mps.baseLanguage.structure.ReturnStatement" flags="nn" index="3cpWs6">
        <child id="1068581517676" name="expression" index="3cqZAk" />
      </concept>
      <concept id="1068581242864" name="jetbrains.mps.baseLanguage.structure.LocalVariableDeclarationStatement" flags="nn" index="3cpWs8">
        <child id="1068581242865" name="localVariableDeclaration" index="3cpWs9" />
      </concept>
      <concept id="1068581242863" name="jetbrains.mps.baseLanguage.structure.LocalVariableDeclaration" flags="nr" index="3cpWsn" />
      <concept id="1079359253375" name="jetbrains.mps.baseLanguage.structure.ParenthesizedExpression" flags="nn" index="1eOMI4">
        <child id="1079359253376" name="expression" index="1eOMHV" />
      </concept>
      <concept id="1081516740877" name="jetbrains.mps.baseLanguage.structure.NotExpression" flags="nn" index="3fqX7Q">
        <child id="1081516765348" name="expression" index="3fr31v" />
      </concept>
      <concept id="1204053956946" name="jetbrains.mps.baseLanguage.structure.IMethodCall" flags="ng" index="1ndlxa">
        <reference id="1068499141037" name="baseMethodDeclaration" index="37wK5l" />
        <child id="1068499141038" name="actualArgument" index="37wK5m" />
      </concept>
      <concept id="1107461130800" name="jetbrains.mps.baseLanguage.structure.Classifier" flags="ng" index="3pOWGL">
        <child id="5375687026011219971" name="member" index="jymVt" unordered="true" />
      </concept>
      <concept id="7812454656619025412" name="jetbrains.mps.baseLanguage.structure.LocalMethodCall" flags="nn" index="1rXfSq" />
      <concept id="1107535904670" name="jetbrains.mps.baseLanguage.structure.ClassifierType" flags="in" index="3uibUv">
        <reference id="1107535924139" name="classifier" index="3uigEE" />
      </concept>
      <concept id="1081773326031" name="jetbrains.mps.baseLanguage.structure.BinaryOperation" flags="nn" index="3uHJSO">
        <child id="1081773367579" name="rightExpression" index="3uHU7w" />
        <child id="1081773367580" name="leftExpression" index="3uHU7B" />
      </concept>
      <concept id="1178549954367" name="jetbrains.mps.baseLanguage.structure.IVisible" flags="ng" index="1B3ioH">
        <child id="1178549979242" name="visibility" index="1B3o_S" />
      </concept>
      <concept id="1146644602865" name="jetbrains.mps.baseLanguage.structure.PublicVisibility" flags="nn" index="3Tm1VV" />
      <concept id="1146644623116" name="jetbrains.mps.baseLanguage.structure.PrivateVisibility" flags="nn" index="3Tm6S6" />
      <concept id="1080120340718" name="jetbrains.mps.baseLanguage.structure.AndExpression" flags="nn" index="1Wc70l" />
    </language>
    <language id="fd392034-7849-419d-9071-12563d152375" name="jetbrains.mps.baseLanguage.closures">
      <concept id="1199569711397" name="jetbrains.mps.baseLanguage.closures.structure.ClosureLiteral" flags="nn" index="1bVj0M">
        <child id="1199569906740" name="parameter" index="1bW2Oz" />
        <child id="1199569916463" name="body" index="1bW5cS" />
      </concept>
    </language>
    <language id="c7d5b9dd-a05f-4be2-bc73-f2e16994cc67" name="jetbrains.mps.baseLanguage.lightweightdsl">
      <concept id="8880393040217246788" name="jetbrains.mps.baseLanguage.lightweightdsl.structure.MethodParameterInstance" flags="ig" index="ffn8J">
        <reference id="8880393040217294897" name="decl" index="ffrpq" />
      </concept>
      <concept id="3751132065236767083" name="jetbrains.mps.baseLanguage.lightweightdsl.structure.DependentTypeInstance" flags="ig" index="q3mfm">
        <reference id="3751132065236767084" name="decl" index="q3mfh" />
        <reference id="9097849371505568270" name="point" index="1QQUv3" />
      </concept>
      <concept id="3751132065236767060" name="jetbrains.mps.baseLanguage.lightweightdsl.structure.MethodInstance" flags="ig" index="q3mfD">
        <reference id="19209059688387895" name="decl" index="2VtyIY" />
      </concept>
      <concept id="6478870542308708689" name="jetbrains.mps.baseLanguage.lightweightdsl.structure.PropertyInstance" flags="ig" index="3tT0cZ">
        <reference id="8585153554445465961" name="decl" index="25KYV2" />
      </concept>
      <concept id="6478870542308703666" name="jetbrains.mps.baseLanguage.lightweightdsl.structure.MemberPlaceholder" flags="ng" index="3tTeZs">
        <property id="6478870542308703667" name="caption" index="3tTeZt" />
        <reference id="6478870542308703669" name="decl" index="3tTeZr" />
      </concept>
      <concept id="6478870542308871875" name="jetbrains.mps.baseLanguage.lightweightdsl.structure.BooleanPropertyInstance" flags="ig" index="3tYpMH">
        <property id="6478870542308871876" name="value" index="3tYpME" />
      </concept>
    </language>
    <language id="3a13115c-633c-4c5c-bbcc-75c4219e9555" name="jetbrains.mps.lang.quotation">
      <concept id="1196350785110" name="jetbrains.mps.lang.quotation.structure.AbstractAntiquotation" flags="ng" index="2c44t0">
        <child id="1196350785111" name="expression" index="2c44t1" />
      </concept>
      <concept id="1196350785112" name="jetbrains.mps.lang.quotation.structure.Antiquotation" flags="ng" index="2c44te" />
      <concept id="1196350785113" name="jetbrains.mps.lang.quotation.structure.Quotation" flags="nn" index="2c44tf">
        <child id="1196350785114" name="quotedNode" index="2c44tc" />
      </concept>
    </language>
    <language id="7866978e-a0f0-4cc7-81bc-4d213d9375e1" name="jetbrains.mps.lang.smodel">
      <concept id="1177026924588" name="jetbrains.mps.lang.smodel.structure.RefConcept_Reference" flags="nn" index="chp4Y">
        <reference id="1177026940964" name="conceptDeclaration" index="cht4Q" />
      </concept>
      <concept id="2396822768958367367" name="jetbrains.mps.lang.smodel.structure.AbstractTypeCastExpression" flags="nn" index="$5XWr">
        <reference id="6733348108486823428" name="concept" index="1m5ApE" />
        <child id="6733348108486823193" name="leftExpression" index="1m5AlR" />
      </concept>
      <concept id="8866923313515890008" name="jetbrains.mps.lang.smodel.structure.AsNodeOperation" flags="nn" index="FGMqu" />
      <concept id="2644386474302386080" name="jetbrains.mps.lang.smodel.structure.PropertyIdRefExpression" flags="nn" index="355D3s">
        <reference id="2644386474302386081" name="conceptDeclaration" index="355D3t" />
        <reference id="2644386474302386082" name="propertyDeclaration" index="355D3u" />
      </concept>
      <concept id="6677504323281689838" name="jetbrains.mps.lang.smodel.structure.SConceptType" flags="in" index="3bZ5Sz" />
      <concept id="1139613262185" name="jetbrains.mps.lang.smodel.structure.Node_GetParentOperation" flags="nn" index="1mfA1w" />
      <concept id="1139621453865" name="jetbrains.mps.lang.smodel.structure.Node_IsInstanceOfOperation" flags="nn" index="1mIQ4w">
        <child id="1177027386292" name="conceptArgument" index="cj9EA" />
      </concept>
      <concept id="1140131837776" name="jetbrains.mps.lang.smodel.structure.Node_ReplaceWithAnotherOperation" flags="nn" index="1P9Npp">
        <child id="1140131861877" name="replacementNode" index="1P9ThW" />
      </concept>
      <concept id="1140137987495" name="jetbrains.mps.lang.smodel.structure.SNodeTypeCastExpression" flags="nn" index="1PxgMI" />
      <concept id="1138055754698" name="jetbrains.mps.lang.smodel.structure.SNodeType" flags="in" index="3Tqbb2">
        <reference id="1138405853777" name="concept" index="ehGHo" />
      </concept>
      <concept id="1138056143562" name="jetbrains.mps.lang.smodel.structure.SLinkAccess" flags="nn" index="3TrEf2">
        <reference id="1138056516764" name="link" index="3Tt5mk" />
      </concept>
    </language>
    <language id="ceab5195-25ea-4f22-9b92-103b95ca8c0c" name="jetbrains.mps.lang.core">
      <concept id="1133920641626" name="jetbrains.mps.lang.core.structure.BaseConcept" flags="ng" index="2VYdi">
        <child id="5169995583184591170" name="smodelAttribute" index="lGtFl" />
      </concept>
      <concept id="1169194658468" name="jetbrains.mps.lang.core.structure.INamedConcept" flags="ng" index="TrEIO">
        <property id="1169194664001" name="name" index="TrG5h" />
      </concept>
    </language>
    <language id="90746344-04fd-4286-97d5-b46ae6a81709" name="jetbrains.mps.lang.migration">
      <concept id="8352104482584315555" name="jetbrains.mps.lang.migration.structure.MigrationScript" flags="ig" index="3SyAh_">
        <property id="5820409521797704727" name="fromVersion" index="qMTe8" />
      </concept>
    </language>
    <language id="1a8554c4-eb84-43ba-8c34-6f0d90c6e75a" name="jetbrains.mps.lang.smodel.query">
      <concept id="7738379549910147341" name="jetbrains.mps.lang.smodel.query.structure.InstancesExpression" flags="ng" index="qVDSY">
        <child id="7738379549910147342" name="conceptArg" index="qVDSX" />
      </concept>
      <concept id="4234138103881610891" name="jetbrains.mps.lang.smodel.query.structure.WithStatement" flags="ng" index="L3pyB">
        <child id="4234138103881610935" name="scope" index="L3pyr" />
        <child id="4234138103881610892" name="stmts" index="L3pyw" />
      </concept>
      <concept id="4307205004131544317" name="jetbrains.mps.lang.smodel.query.structure.QueryExpression" flags="ng" index="1dNuzs">
        <child id="4307205004132279624" name="parameter" index="1dOa5D" />
      </concept>
      <concept id="4307205004132277753" name="jetbrains.mps.lang.smodel.query.structure.QueryParameterList" flags="ng" index="1dO9Bo" />
    </language>
    <language id="83888646-71ce-4f1c-9c53-c54016f6ad4f" name="jetbrains.mps.baseLanguage.collections">
      <concept id="1204796164442" name="jetbrains.mps.baseLanguage.collections.structure.InternalSequenceOperation" flags="nn" index="23sCx2">
        <child id="1204796294226" name="closure" index="23t8la" />
      </concept>
      <concept id="1204980550705" name="jetbrains.mps.baseLanguage.collections.structure.VisitAllOperation" flags="nn" index="2es0OD" />
      <concept id="1151689724996" name="jetbrains.mps.baseLanguage.collections.structure.SequenceType" flags="in" index="A3Dl8">
        <child id="1151689745422" name="elementType" index="A3Ik2" />
      </concept>
      <concept id="1203518072036" name="jetbrains.mps.baseLanguage.collections.structure.SmartClosureParameterDeclaration" flags="ig" index="Rh6nW" />
      <concept id="1202120902084" name="jetbrains.mps.baseLanguage.collections.structure.WhereOperation" flags="nn" index="3zZkjj" />
      <concept id="1202128969694" name="jetbrains.mps.baseLanguage.collections.structure.SelectOperation" flags="nn" index="3$u5V9" />
    </language>
  </registry>
  <node concept="3SyAh_" id="5zFeAub6Qa$">
    <property role="qMTe8" value="0" />
    <property role="TrG5h" value="MigrateConceptNodeParameter" />
    <node concept="3Tm1VV" id="5zFeAub6Qa_" role="1B3o_S" />
    <node concept="3tTeZs" id="5zFeAub6QaA" role="jymVt">
      <property role="3tTeZt" value="&lt;no execute after&gt;" />
      <ref role="3tTeZr" to="slm6:7ay_HjIMt1a" resolve="execute after" />
    </node>
    <node concept="3tTeZs" id="5zFeAub6QaB" role="jymVt">
      <property role="3tTeZt" value="&lt;no required data&gt;" />
      <ref role="3tTeZr" to="slm6:3A3gNhf1WPI" resolve="requires data" />
    </node>
    <node concept="3tTeZs" id="5zFeAub6QaC" role="jymVt">
      <property role="3tTeZt" value="&lt;no produced data&gt;" />
      <ref role="3tTeZr" to="slm6:536fTXa4WHO" resolve="produces data" />
    </node>
    <node concept="2tJIrI" id="5zFeAub6QaD" role="jymVt" />
    <node concept="3tYpMH" id="5zFeAub7cdd" role="jymVt">
      <property role="TrG5h" value="isRerunnable" />
      <property role="3tYpME" value="true" />
      <ref role="25KYV2" to="slm6:1JWcQ2VeWIs" resolve="isRerunnable" />
      <node concept="3Tm1VV" id="5zFeAub7cdf" role="1B3o_S" />
      <node concept="10P_77" id="5zFeAub7cdg" role="1tU5fm" />
    </node>
    <node concept="3tTeZs" id="5zFeAub6QaF" role="jymVt">
      <property role="3tTeZt" value="&lt;description&gt;" />
      <ref role="3tTeZr" to="slm6:1_lSsE3RFpE" resolve="description" />
    </node>
    <node concept="q3mfD" id="5zFeAub6QaG" role="jymVt">
      <property role="TrG5h" value="execute" />
      <ref role="2VtyIY" to="slm6:4ubqdNOF9cA" resolve="execute" />
      <node concept="3Tm1VV" id="5zFeAub6QaI" role="1B3o_S" />
      <node concept="3clFbS" id="5zFeAub6QaK" role="3clF47">
        <node concept="3clFbF" id="5zFeAub6R5g" role="3cqZAp">
          <node concept="2OqwBi" id="5zFeAub6Uc5" role="3clFbG">
            <node concept="2es0OD" id="5zFeAub6Vc5" role="2OqNvi">
              <node concept="1bVj0M" id="5zFeAub6Vc7" role="23t8la">
                <node concept="3clFbS" id="5zFeAub6Vc8" role="1bW5cS">
                  <node concept="3clFbF" id="5zFeAub6Vk0" role="3cqZAp">
                    <node concept="2OqwBi" id="5zFeAub6VuZ" role="3clFbG">
                      <node concept="37vLTw" id="5zFeAub6VjZ" role="2Oq$k0">
                        <ref role="3cqZAo" node="5zFeAub6Vc9" resolve="it" />
                      </node>
                      <node concept="1P9Npp" id="5zFeAub6W0B" role="2OqNvi">
                        <node concept="2c44tf" id="5zFeAub6WqS" role="1P9ThW">
                          <node concept="2OqwBi" id="5zFeAub6Wvr" role="2c44tc">
                            <node concept="1eOMI4" id="5zFeAub6Yos" role="2Oq$k0">
                              <node concept="10QFUN" id="5zFeAub6Yot" role="1eOMHV">
                                <node concept="10Nm6u" id="5zFeAub6Yor" role="10QFUP" />
                                <node concept="3bZ5Sz" id="5zFeAub6Yz9" role="10QFUM" />
                              </node>
                              <node concept="2c44te" id="5zFeAub6YZh" role="lGtFl">
                                <node concept="37vLTw" id="5zFeAub6Z6u" role="2c44t1">
                                  <ref role="3cqZAo" node="5zFeAub6Vc9" resolve="it" />
                                </node>
                              </node>
                            </node>
                            <node concept="FGMqu" id="5zFeAub6YPd" role="2OqNvi" />
                          </node>
                        </node>
                      </node>
                    </node>
                  </node>
                </node>
                <node concept="Rh6nW" id="5zFeAub6Vc9" role="1bW2Oz">
                  <property role="TrG5h" value="it" />
                  <node concept="2jxLKc" id="5zFeAub6Vca" role="1tU5fm" />
                </node>
              </node>
            </node>
            <node concept="1rXfSq" id="5zFeAub7jEU" role="2Oq$k0">
              <ref role="37wK5l" node="5zFeAub7jEJ" resolve="getNodesToMigrate" />
              <node concept="37vLTw" id="5zFeAub7jET" role="37wK5m">
                <ref role="3cqZAo" node="5zFeAub6QaM" resolve="m" />
              </node>
            </node>
          </node>
        </node>
      </node>
      <node concept="ffn8J" id="5zFeAub6QaM" role="3clF46">
        <property role="TrG5h" value="m" />
        <ref role="ffrpq" to="slm6:7fCCGqboj9J" resolve="m" />
        <node concept="3uibUv" id="5zFeAub6QaL" role="1tU5fm">
          <ref role="3uigEE" to="lui2:~SModule" resolve="SModule" />
        </node>
      </node>
      <node concept="q3mfm" id="5zFeAub6QaN" role="3clF45">
        <ref role="q3mfh" to="slm6:4F5w8gPXEEe" />
        <ref role="1QQUv3" node="5zFeAub6QaG" resolve="execute" />
      </node>
    </node>
    <node concept="q3mfD" id="5zFeAub7f5u" role="jymVt">
      <property role="TrG5h" value="check" />
      <ref role="2VtyIY" to="slm6:1JWcQ2VeXpD" resolve="check" />
      <node concept="3Tm1VV" id="5zFeAub7f5w" role="1B3o_S" />
      <node concept="3clFbS" id="5zFeAub7f5y" role="3clF47">
        <node concept="3clFbF" id="5zFeAub7lgt" role="3cqZAp">
          <node concept="2OqwBi" id="5zFeAub7lJs" role="3clFbG">
            <node concept="1rXfSq" id="5zFeAub7lgr" role="2Oq$k0">
              <ref role="37wK5l" node="5zFeAub7jEJ" resolve="getNodesToMigrate" />
              <node concept="37vLTw" id="5zFeAub7lA9" role="37wK5m">
                <ref role="3cqZAo" node="5zFeAub7f5$" resolve="m" />
              </node>
            </node>
            <node concept="3$u5V9" id="5zFeAub7lXS" role="2OqNvi">
              <node concept="1bVj0M" id="5zFeAub7lXT" role="23t8la">
                <node concept="3clFbS" id="5zFeAub7lXU" role="1bW5cS">
                  <node concept="3clFbF" id="5zFeAub7lXV" role="3cqZAp">
                    <node concept="2YIFZM" id="5zFeAub7lXW" role="3clFbG">
                      <ref role="1Pybhc" to="6f4m:4JdgAL_4yNB" resolve="DeprecatedConceptMemberNotMigratedProblem" />
                      <ref role="37wK5l" to="6f4m:6En3ZbjkP3k" resolve="deprecatedProperty" />
                      <node concept="37vLTw" id="5zFeAub7lXX" role="37wK5m">
                        <ref role="3cqZAo" node="5zFeAub7lXZ" resolve="it" />
                      </node>
                      <node concept="355D3s" id="5zFeAub7lXY" role="37wK5m">
                        <ref role="355D3t" to="tpee:hOIEacT" resolve="IBLDeprecatable" />
                        <ref role="355D3u" to="tpee:hOIEky$" resolve="isDeprecated" />
                      </node>
                    </node>
                  </node>
                </node>
                <node concept="Rh6nW" id="5zFeAub7lXZ" role="1bW2Oz">
                  <property role="TrG5h" value="it" />
                  <node concept="2jxLKc" id="5zFeAub7lY0" role="1tU5fm" />
                </node>
              </node>
            </node>
          </node>
        </node>
      </node>
      <node concept="ffn8J" id="5zFeAub7f5$" role="3clF46">
        <property role="TrG5h" value="m" />
        <ref role="ffrpq" to="slm6:1JWcQ2VeXI5" resolve="m" />
        <node concept="3uibUv" id="5zFeAub7f5z" role="1tU5fm">
          <ref role="3uigEE" to="lui2:~SModule" resolve="SModule" />
        </node>
      </node>
      <node concept="A3Dl8" id="5zFeAub7f5_" role="3clF45">
        <node concept="3uibUv" id="5zFeAub7fau" role="A3Ik2">
          <ref role="3uigEE" to="6f4m:3n7MNzO_IjP" resolve="Problem" />
        </node>
      </node>
    </node>
    <node concept="2tJIrI" id="5zFeAub7k$h" role="jymVt" />
    <node concept="3clFb_" id="5zFeAub7jEJ" role="jymVt">
      <property role="TrG5h" value="getNodesToMigrate" />
      <node concept="3Tm6S6" id="5zFeAub7jEK" role="1B3o_S" />
      <node concept="A3Dl8" id="5zFeAub7jEL" role="3clF45">
        <node concept="3Tqbb2" id="5zFeAub7jEM" role="A3Ik2">
          <ref role="ehGHo" to="86gq:7_Oswe9bkNd" resolve="ConceptFunctionParameter_Concept" />
        </node>
      </node>
      <node concept="37vLTG" id="5zFeAub7jEC" role="3clF46">
        <property role="TrG5h" value="m" />
        <node concept="3uibUv" id="5zFeAub7jED" role="1tU5fm">
          <ref role="3uigEE" to="lui2:~SModule" resolve="SModule" />
        </node>
      </node>
      <node concept="3clFbS" id="5zFeAub7jE1" role="3clF47">
        <node concept="3cpWs8" id="5zFeAub7jEQ" role="3cqZAp">
          <node concept="3cpWsn" id="5zFeAub7jEP" role="3cpWs9">
            <property role="TrG5h" value="nodes" />
            <node concept="A3Dl8" id="5zFeAub7jEN" role="1tU5fm">
              <node concept="3Tqbb2" id="5zFeAub7jEO" role="A3Ik2">
                <ref role="ehGHo" to="86gq:7_Oswe9bkNd" resolve="ConceptFunctionParameter_Concept" />
              </node>
            </node>
          </node>
        </node>
        <node concept="L3pyB" id="5zFeAub7jE4" role="3cqZAp">
          <node concept="3clFbS" id="5zFeAub7jE5" role="L3pyw">
            <node concept="3clFbF" id="5zFeAub7jE6" role="3cqZAp">
              <node concept="37vLTI" id="5zFeAub7jE7" role="3clFbG">
                <node concept="2OqwBi" id="5zFeAub7jE8" role="37vLTx">
                  <node concept="qVDSY" id="5zFeAub7jE9" role="2Oq$k0">
                    <node concept="chp4Y" id="5zFeAub7jEa" role="qVDSX">
                      <ref role="cht4Q" to="86gq:7_Oswe9bkNd" resolve="ConceptFunctionParameter_Concept" />
                    </node>
                    <node concept="1dO9Bo" id="5zFeAub7jEb" role="1dOa5D" />
                  </node>
                  <node concept="3zZkjj" id="5zFeAub7jEc" role="2OqNvi">
                    <node concept="1bVj0M" id="5zFeAub7jEd" role="23t8la">
                      <node concept="3clFbS" id="5zFeAub7jEe" role="1bW5cS">
                        <node concept="3clFbF" id="5zFeAub7jEf" role="3cqZAp">
                          <node concept="3fqX7Q" id="5zFeAub7jEg" role="3clFbG">
                            <node concept="1eOMI4" id="5zFeAub7jEh" role="3fr31v">
                              <node concept="1Wc70l" id="5zFeAub7jEi" role="1eOMHV">
                                <node concept="2OqwBi" id="5zFeAub7jEj" role="3uHU7w">
                                  <node concept="2OqwBi" id="5zFeAub7jEk" role="2Oq$k0">
                                    <node concept="1PxgMI" id="5zFeAub7jEl" role="2Oq$k0">
                                      <ref role="1m5ApE" to="tpee:hqOqwz4" resolve="DotExpression" />
                                      <node concept="2OqwBi" id="5zFeAub7jEm" role="1m5AlR">
                                        <node concept="37vLTw" id="5zFeAub7jEn" role="2Oq$k0">
                                          <ref role="3cqZAo" node="5zFeAub7jEy" resolve="it" />
                                        </node>
                                        <node concept="1mfA1w" id="5zFeAub7jEo" role="2OqNvi" />
                                      </node>
                                    </node>
                                    <node concept="3TrEf2" id="5zFeAub7jEp" role="2OqNvi">
                                      <ref role="3Tt5mk" to="tpee:hqOqNr4" />
                                    </node>
                                  </node>
                                  <node concept="1mIQ4w" id="5zFeAub7jEq" role="2OqNvi">
                                    <node concept="chp4Y" id="5zFeAub7jEr" role="cj9EA">
                                      <ref role="cht4Q" to="tp25:7GdCWpgJClo" resolve="AsNodeOperation" />
                                    </node>
                                  </node>
                                </node>
                                <node concept="2OqwBi" id="5zFeAub7jEs" role="3uHU7B">
                                  <node concept="2OqwBi" id="5zFeAub7jEt" role="2Oq$k0">
                                    <node concept="37vLTw" id="5zFeAub7jEu" role="2Oq$k0">
                                      <ref role="3cqZAo" node="5zFeAub7jEy" resolve="it" />
                                    </node>
                                    <node concept="1mfA1w" id="5zFeAub7jEv" role="2OqNvi" />
                                  </node>
                                  <node concept="1mIQ4w" id="5zFeAub7jEw" role="2OqNvi">
                                    <node concept="chp4Y" id="5zFeAub7jEx" role="cj9EA">
                                      <ref role="cht4Q" to="tpee:hqOqwz4" resolve="DotExpression" />
                                    </node>
                                  </node>
                                </node>
                              </node>
                            </node>
                          </node>
                        </node>
                      </node>
                      <node concept="Rh6nW" id="5zFeAub7jEy" role="1bW2Oz">
                        <property role="TrG5h" value="it" />
                        <node concept="2jxLKc" id="5zFeAub7jEz" role="1tU5fm" />
                      </node>
                    </node>
                  </node>
                </node>
                <node concept="37vLTw" id="5zFeAub7jER" role="37vLTJ">
                  <ref role="3cqZAo" node="5zFeAub7jEP" resolve="nodes" />
                </node>
              </node>
            </node>
          </node>
          <node concept="37vLTw" id="5zFeAub7jEE" role="L3pyr">
            <ref role="3cqZAo" node="5zFeAub7jEC" resolve="m" />
          </node>
        </node>
        <node concept="3cpWs6" id="5zFeAub7jEA" role="3cqZAp">
          <node concept="37vLTw" id="5zFeAub7jES" role="3cqZAk">
            <ref role="3cqZAo" node="5zFeAub7jEP" resolve="nodes" />
          </node>
        </node>
      </node>
    </node>
  </node>
</model>

