<?xml version="1.0" encoding="UTF-8"?>
<model ref="r:00000000-0000-4000-0000-011c895903f5(jetbrains.mps.baseLanguage.money.editor)">
  <persistence version="9" />
  <languages>
    <use id="18bc6592-03a6-4e29-a83a-7ff23bde13ba" name="jetbrains.mps.lang.editor" version="3" />
  </languages>
  <imports>
    <import index="tp7v" ref="r:00000000-0000-4000-0000-011c895903f7(jetbrains.mps.baseLanguage.money.structure)" />
    <import index="tpck" ref="r:00000000-0000-4000-0000-011c89590288(jetbrains.mps.lang.core.structure)" />
    <import index="tpen" ref="r:00000000-0000-4000-0000-011c895902c3(jetbrains.mps.baseLanguage.editor)" />
    <import index="tpco" ref="r:00000000-0000-4000-0000-011c89590284(jetbrains.mps.lang.core.editor)" />
  </imports>
  <registry>
    <language id="18bc6592-03a6-4e29-a83a-7ff23bde13ba" name="jetbrains.mps.lang.editor">
      <concept id="1071666914219" name="jetbrains.mps.lang.editor.structure.ConceptEditorDeclaration" flags="ig" index="24kQdi" />
      <concept id="1237303669825" name="jetbrains.mps.lang.editor.structure.CellLayout_Indent" flags="nn" index="l2Vlx" />
      <concept id="1080736578640" name="jetbrains.mps.lang.editor.structure.BaseEditorComponent" flags="ig" index="2wURMF">
        <child id="1080736633877" name="cellModel" index="2wV5jI" />
      </concept>
      <concept id="1078939183254" name="jetbrains.mps.lang.editor.structure.CellModel_Component" flags="sg" stub="3162947552742194261" index="PMmxH">
        <reference id="1078939183255" name="editorComponent" index="PMmxG" />
      </concept>
      <concept id="1186414536763" name="jetbrains.mps.lang.editor.structure.BooleanStyleSheetItem" flags="ln" index="VOi$J">
        <property id="1186414551515" name="flag" index="VOm3f" />
      </concept>
      <concept id="1186414860679" name="jetbrains.mps.lang.editor.structure.EditableStyleClassItem" flags="ln" index="VPxyj" />
      <concept id="1381004262292414836" name="jetbrains.mps.lang.editor.structure.ICellStyle" flags="ng" index="1k5N5V">
        <reference id="1381004262292426837" name="parentStyleClass" index="1k5W1q" />
      </concept>
      <concept id="1139848536355" name="jetbrains.mps.lang.editor.structure.CellModel_WithRole" flags="ng" index="1$h60E">
        <reference id="1140103550593" name="relationDeclaration" index="1NtTu8" />
      </concept>
      <concept id="1073389214265" name="jetbrains.mps.lang.editor.structure.EditorCellModel" flags="ng" index="3EYTF0">
        <property id="1130859485024" name="attractsFocus" index="1cu_pB" />
      </concept>
      <concept id="1073389446423" name="jetbrains.mps.lang.editor.structure.CellModel_Collection" flags="sn" stub="3013115976261988961" index="3EZMnI">
        <property id="1073389446425" name="vertical" index="3EZMnw" />
        <child id="1106270802874" name="cellLayout" index="2iSdaV" />
        <child id="1073389446424" name="childCellModel" index="3EZMnx" />
      </concept>
      <concept id="1073389577006" name="jetbrains.mps.lang.editor.structure.CellModel_Constant" flags="sn" stub="3610246225209162225" index="3F0ifn">
        <property id="1073389577007" name="text" index="3F0ifm" />
      </concept>
      <concept id="1073389658414" name="jetbrains.mps.lang.editor.structure.CellModel_Property" flags="sg" stub="730538219796134133" index="3F0A7n" />
      <concept id="1219418625346" name="jetbrains.mps.lang.editor.structure.IStyleContainer" flags="ng" index="3F0Thp">
        <child id="1219418656006" name="styleItem" index="3F10Kt" />
      </concept>
      <concept id="1073389882823" name="jetbrains.mps.lang.editor.structure.CellModel_RefNode" flags="sg" stub="730538219795960754" index="3F1sOY" />
      <concept id="1166049232041" name="jetbrains.mps.lang.editor.structure.AbstractComponent" flags="ng" index="1XWOmA">
        <reference id="1166049300910" name="conceptDeclaration" index="1XX52x" />
      </concept>
    </language>
  </registry>
  <node concept="24kQdi" id="hhaUGJ8">
    <ref role="1XX52x" to="tp7v:hhaTQ1E" resolve="MoneyLiteral" />
    <node concept="3EZMnI" id="hhaVfs3" role="2wV5jI">
      <property role="3EZMnw" value="false" />
      <node concept="3F0A7n" id="hhaVgYZ" role="3EZMnx">
        <ref role="1NtTu8" to="tp7v:hhaV27X" resolve="amount" />
      </node>
      <node concept="3F0A7n" id="hhaVj39" role="3EZMnx">
        <ref role="1NtTu8" to="tp7v:hhaUXX0" resolve="currency" />
      </node>
      <node concept="l2Vlx" id="i0NkezM" role="2iSdaV" />
    </node>
  </node>
  <node concept="24kQdi" id="hhNckiX">
    <ref role="1XX52x" to="tp7v:hhMZP_C" resolve="MoneyCreator" />
    <node concept="3EZMnI" id="hhNcnmj" role="2wV5jI">
      <property role="3EZMnw" value="false" />
      <node concept="3F0ifn" id="hhNcqW5" role="3EZMnx">
        <property role="3F0ifm" value="Money" />
      </node>
      <node concept="3F0ifn" id="hhNcu1C" role="3EZMnx">
        <property role="3F0ifm" value="(" />
        <ref role="1k5W1q" to="tpen:i177PM9" resolve="Matching" />
      </node>
      <node concept="3F1sOY" id="hhNemEV" role="3EZMnx">
        <ref role="1NtTu8" to="tp7v:hhNe3QL" />
      </node>
      <node concept="3F0ifn" id="hhNeR9R" role="3EZMnx">
        <property role="3F0ifm" value="," />
      </node>
      <node concept="3F1sOY" id="hhNencD" role="3EZMnx">
        <ref role="1NtTu8" to="tp7v:hhNegXa" />
      </node>
      <node concept="3F0ifn" id="hhNcxEA" role="3EZMnx">
        <property role="3F0ifm" value=")" />
        <ref role="1k5W1q" to="tpen:i177PM9" resolve="Matching" />
      </node>
      <node concept="l2Vlx" id="i0NkezK" role="2iSdaV" />
    </node>
  </node>
  <node concept="24kQdi" id="hi8CzxH">
    <ref role="1XX52x" to="tp7v:hhO2LpN" resolve="MoneyMethodCall" />
    <node concept="3EZMnI" id="hi8CAOc" role="2wV5jI">
      <property role="3EZMnw" value="false" />
      <node concept="3F1sOY" id="hi8CBH7" role="3EZMnx">
        <ref role="1NtTu8" to="tp7v:hhO3Wnz" />
      </node>
      <node concept="PMmxH" id="2wdLO7KhY8X" role="3EZMnx">
        <property role="1cu_pB" value="0" />
        <ref role="PMmxG" to="tpco:2wZex4PafBj" resolve="alias" />
        <node concept="VPxyj" id="2wdLO7KhY8Y" role="3F10Kt">
          <property role="VOm3f" value="false" />
        </node>
      </node>
      <node concept="l2Vlx" id="i0NkezO" role="2iSdaV" />
    </node>
  </node>
</model>

