<?xml version="1.0" encoding="UTF-8"?>
<model ref="r:00000000-0000-4000-0000-011c895903f7(jetbrains.mps.baseLanguage.money.structure)">
  <persistence version="9" />
  <languages>
    <use id="c72da2b9-7cce-4447-8389-f407dc1158b7" name="jetbrains.mps.lang.structure" version="3" />
    <use id="982eb8df-2c96-4bd7-9963-11712ea622e5" name="jetbrains.mps.lang.resources" version="2" />
  </languages>
  <imports>
    <import index="tpck" ref="r:00000000-0000-4000-0000-011c89590288(jetbrains.mps.lang.core.structure)" />
    <import index="tpee" ref="r:00000000-0000-4000-0000-011c895902ca(jetbrains.mps.baseLanguage.structure)" />
  </imports>
  <registry>
    <language id="c72da2b9-7cce-4447-8389-f407dc1158b7" name="jetbrains.mps.lang.structure">
      <concept id="1082978499127" name="jetbrains.mps.lang.structure.structure.ConstrainedDataTypeDeclaration" flags="ng" index="Az7Fb">
        <property id="1083066089218" name="constraint" index="FLfZY" />
      </concept>
      <concept id="1169125787135" name="jetbrains.mps.lang.structure.structure.AbstractConceptDeclaration" flags="ig" index="PkWjJ">
        <property id="6714410169261853888" name="conceptId" index="EcuMT" />
        <property id="4628067390765907488" name="conceptShortDescription" index="R4oN_" />
        <property id="4628067390765956807" name="final" index="R5$K2" />
        <property id="4628067390765956802" name="abstract" index="R5$K7" />
        <property id="5092175715804935370" name="conceptAlias" index="34LRSv" />
        <child id="1071489727083" name="linkDeclaration" index="1TKVEi" />
        <child id="1071489727084" name="propertyDeclaration" index="1TKVEl" />
      </concept>
      <concept id="1071489090640" name="jetbrains.mps.lang.structure.structure.ConceptDeclaration" flags="ig" index="1TIwiD">
        <property id="5404671619616246344" name="staticScope" index="2_RsDV" />
        <reference id="1071489389519" name="extends" index="1TJDcQ" />
      </concept>
      <concept id="1071489288299" name="jetbrains.mps.lang.structure.structure.PropertyDeclaration" flags="ig" index="1TJgyi">
        <property id="241647608299431129" name="propertyId" index="IQ2nx" />
        <reference id="1082985295845" name="dataType" index="AX2Wp" />
      </concept>
      <concept id="1071489288298" name="jetbrains.mps.lang.structure.structure.LinkDeclaration" flags="ig" index="1TJgyj">
        <property id="1071599776563" name="role" index="20kJfa" />
        <property id="1071599893252" name="sourceCardinality" index="20lbJX" />
        <property id="1071599937831" name="metaClass" index="20lmBu" />
        <property id="241647608299431140" name="linkId" index="IQ2ns" />
        <reference id="1071599976176" name="target" index="20lvS9" />
      </concept>
    </language>
    <language id="ceab5195-25ea-4f22-9b92-103b95ca8c0c" name="jetbrains.mps.lang.core">
      <concept id="1169194658468" name="jetbrains.mps.lang.core.structure.INamedConcept" flags="ng" index="TrEIO">
        <property id="1169194664001" name="name" index="TrG5h" />
      </concept>
    </language>
  </registry>
  <node concept="1TIwiD" id="hhaTQ1E">
    <property role="TrG5h" value="MoneyLiteral" />
    <property role="2_RsDV" value="none" />
    <property role="EcuMT" value="1186667651178" />
    <ref role="1TJDcQ" to="tpee:fz3vP1J" resolve="Expression" />
    <node concept="1TJgyi" id="hhaUXX0" role="1TKVEl">
      <property role="TrG5h" value="currency" />
      <property role="IQ2nx" value="1186667945792" />
      <ref role="AX2Wp" to="tpck:fKAOsGN" resolve="string" />
    </node>
    <node concept="1TJgyi" id="hhaV27X" role="1TKVEl">
      <property role="TrG5h" value="amount" />
      <property role="IQ2nx" value="1186667962877" />
      <ref role="AX2Wp" node="hhaVGVf" resolve="BigDecimal" />
    </node>
  </node>
  <node concept="Az7Fb" id="hhaVGVf">
    <property role="TrG5h" value="BigDecimal" />
    <property role="FLfZY" value="[0-9]+(.[0-9]+)?" />
  </node>
  <node concept="1TIwiD" id="hhb1h_d">
    <property role="R5$K7" value="false" />
    <property role="R5$K2" value="false" />
    <property role="TrG5h" value="MoneyType" />
    <property role="2_RsDV" value="none" />
    <property role="34LRSv" value="Money" />
    <property role="EcuMT" value="1186669599053" />
    <ref role="1TJDcQ" to="tpee:fz3vP1H" resolve="Type" />
  </node>
  <node concept="1TIwiD" id="hhMZP_C">
    <property role="R5$K7" value="false" />
    <property role="R5$K2" value="false" />
    <property role="R4oN_" value="money type constructor" />
    <property role="TrG5h" value="MoneyCreator" />
    <property role="2_RsDV" value="none" />
    <property role="34LRSv" value="Money" />
    <property role="EcuMT" value="1187340310888" />
    <ref role="1TJDcQ" to="tpee:gEShaYr" resolve="AbstractCreator" />
    <node concept="1TJgyj" id="hhNe3QL" role="1TKVEi">
      <property role="20lmBu" value="aggregation" />
      <property role="20kJfa" value="amount" />
      <property role="20lbJX" value="1" />
      <property role="IQ2ns" value="1187344039345" />
      <ref role="20lvS9" to="tpee:fz3vP1J" resolve="Expression" />
    </node>
    <node concept="1TJgyj" id="hhNegXa" role="1TKVEi">
      <property role="20lmBu" value="aggregation" />
      <property role="20kJfa" value="currency" />
      <property role="20lbJX" value="1" />
      <property role="IQ2ns" value="1187344093002" />
      <ref role="20lvS9" to="tpee:fz3vP1J" resolve="Expression" />
    </node>
  </node>
  <node concept="1TIwiD" id="hhO2LpN">
    <property role="R5$K7" value="true" />
    <property role="R5$K2" value="false" />
    <property role="TrG5h" value="MoneyMethodCall" />
    <property role="2_RsDV" value="none" />
    <property role="EcuMT" value="1187357857395" />
    <ref role="1TJDcQ" to="tpee:fz3vP1J" resolve="Expression" />
    <node concept="1TJgyj" id="hhO3Wnz" role="1TKVEi">
      <property role="20lmBu" value="aggregation" />
      <property role="20kJfa" value="instance" />
      <property role="20lbJX" value="1" />
      <property role="IQ2ns" value="1187358164451" />
      <ref role="20lvS9" to="tpee:fz3vP1J" resolve="Expression" />
    </node>
  </node>
  <node concept="1TIwiD" id="hhO2PPw">
    <property role="R5$K7" value="false" />
    <property role="R5$K2" value="false" />
    <property role="TrG5h" value="MoneyGetAmountMethodCall" />
    <property role="2_RsDV" value="none" />
    <property role="34LRSv" value=". amount" />
    <property role="EcuMT" value="1187357875552" />
    <ref role="1TJDcQ" node="hhO2LpN" resolve="MoneyMethodCall" />
  </node>
  <node concept="1TIwiD" id="hhO36Yr">
    <property role="R5$K7" value="false" />
    <property role="R5$K2" value="false" />
    <property role="TrG5h" value="MoneyGetCurrencyMethodCall" />
    <property role="2_RsDV" value="none" />
    <property role="34LRSv" value=". currency" />
    <property role="EcuMT" value="1187357945755" />
    <ref role="1TJDcQ" node="hhO2LpN" resolve="MoneyMethodCall" />
  </node>
  <node concept="1TIwiD" id="hi3xzhg">
    <property role="R5$K7" value="false" />
    <property role="R5$K2" value="false" />
    <property role="TrG5h" value="MoneyIsZeroMethodCall" />
    <property role="2_RsDV" value="none" />
    <property role="34LRSv" value=". isZero" />
    <property role="EcuMT" value="1187617584208" />
    <ref role="1TJDcQ" node="hhO2LpN" resolve="MoneyMethodCall" />
  </node>
</model>

