<?xml version="1.0" encoding="UTF-8"?>
<model ref="r:503e670b-4b3c-40d2-84e3-fcdece65438f(jetbrains.mps.lang.intentions.actions)">
  <persistence version="9" />
  <languages>
    <use id="83888646-71ce-4f1c-9c53-c54016f6ad4f" name="jetbrains.mps.baseLanguage.collections" version="0" />
    <use id="aee9cad2-acd4-4608-aef2-0004f6a1cdbd" name="jetbrains.mps.lang.actions" version="0" />
    <use id="7866978e-a0f0-4cc7-81bc-4d213d9375e1" name="jetbrains.mps.lang.smodel" version="4" />
    <use id="ed6d7656-532c-4bc2-81d1-af945aeb8280" name="jetbrains.mps.baseLanguage.blTypes" version="0" />
    <use id="443f4c36-fcf5-4eb6-9500-8d06ed259e3e" name="jetbrains.mps.baseLanguage.classifiers" version="0" />
    <use id="13744753-c81f-424a-9c1b-cf8943bf4e86" name="jetbrains.mps.lang.sharedConcepts" version="0" />
    <use id="9ded098b-ad6a-4657-bfd9-48636cfe8bc3" name="jetbrains.mps.lang.traceable" version="0" />
    <use id="c72da2b9-7cce-4447-8389-f407dc1158b7" name="jetbrains.mps.lang.structure" version="3" />
    <use id="18bc6592-03a6-4e29-a83a-7ff23bde13ba" name="jetbrains.mps.lang.editor" version="3" />
    <use id="f3061a53-9226-4cc5-a443-f952ceaf5816" name="jetbrains.mps.baseLanguage" version="4" />
    <devkit ref="fbc25dd2-5da4-483a-8b19-70928e1b62d7(jetbrains.mps.devkit.general-purpose)" />
  </languages>
  <imports>
    <import index="tp3j" ref="r:00000000-0000-4000-0000-011c89590353(jetbrains.mps.lang.intentions.structure)" />
    <import index="tpee" ref="r:00000000-0000-4000-0000-011c895902ca(jetbrains.mps.baseLanguage.structure)" />
    <import index="9nqt" ref="c7d5b9dd-a05f-4be2-bc73-f2e16994cc67/r:3d68296b-7ada-4491-8aa4-88e8ea6e4f67(jetbrains.mps.lang.classLike/jetbrains.mps.baseLanguage.lightweightdsl.behavior)" />
    <import index="rduf" ref="c7d5b9dd-a05f-4be2-bc73-f2e16994cc67/r:c730ea65-7d27-4707-a3cf-753587482880(jetbrains.mps.lang.classLike/jetbrains.mps.baseLanguage.lightweightdsl.actions)" />
    <import index="oubp" ref="c7d5b9dd-a05f-4be2-bc73-f2e16994cc67/r:7cc2086d-c7d0-49c7-811c-ebbaf40d9195(jetbrains.mps.lang.classLike/jetbrains.mps.baseLanguage.lightweightdsl.structure)" />
    <import index="tp25" ref="r:00000000-0000-4000-0000-011c89590301(jetbrains.mps.lang.smodel.structure)" />
    <import index="tpck" ref="r:00000000-0000-4000-0000-011c89590288(jetbrains.mps.lang.core.structure)" implicit="true" />
    <import index="cj4x" ref="1ed103c3-3aa6-49b7-9c21-6765ee11f224/java:jetbrains.mps.openapi.editor(MPS.Editor/)" implicit="true" />
    <import index="wyt6" ref="6354ebe7-c22a-4a0f-ac54-50b52ab9b065/java:java.lang(JDK/)" implicit="true" />
  </imports>
  <registry>
    <language id="f3061a53-9226-4cc5-a443-f952ceaf5816" name="jetbrains.mps.baseLanguage">
      <concept id="1215693861676" name="jetbrains.mps.baseLanguage.structure.BaseAssignmentExpression" flags="nn" index="d038R">
        <child id="1068498886297" name="rValue" index="37vLTx" />
        <child id="1068498886295" name="lValue" index="37vLTJ" />
      </concept>
      <concept id="1197027756228" name="jetbrains.mps.baseLanguage.structure.DotExpression" flags="nn" index="2OqwBi">
        <child id="1197027771414" name="operand" index="2Oq$k0" />
        <child id="1197027833540" name="operation" index="2OqNvi" />
      </concept>
      <concept id="1145552977093" name="jetbrains.mps.baseLanguage.structure.GenericNewExpression" flags="nn" index="2ShNRf">
        <child id="1145553007750" name="creator" index="2ShVmc" />
      </concept>
      <concept id="1137021947720" name="jetbrains.mps.baseLanguage.structure.ConceptFunction" flags="in" index="2VMwT0">
        <child id="1137022507850" name="body" index="2VODD2" />
      </concept>
      <concept id="1070475926800" name="jetbrains.mps.baseLanguage.structure.StringLiteral" flags="nn" index="Xl_RD">
        <property id="1070475926801" name="value" index="Xl_RC" />
      </concept>
      <concept id="1070534058343" name="jetbrains.mps.baseLanguage.structure.NullLiteral" flags="nn" index="10Nm6u" />
      <concept id="1070534644030" name="jetbrains.mps.baseLanguage.structure.BooleanType" flags="in" index="10P_77" />
      <concept id="1068431474542" name="jetbrains.mps.baseLanguage.structure.VariableDeclaration" flags="ng" index="33uBYm">
        <child id="1068431790190" name="initializer" index="33vP2m" />
      </concept>
      <concept id="1068498886296" name="jetbrains.mps.baseLanguage.structure.VariableReference" flags="nn" index="37vLTw">
        <reference id="1068581517664" name="variableDeclaration" index="3cqZAo" />
      </concept>
      <concept id="1068498886292" name="jetbrains.mps.baseLanguage.structure.ParameterDeclaration" flags="ir" index="37vLTG" />
      <concept id="1068498886294" name="jetbrains.mps.baseLanguage.structure.AssignmentExpression" flags="nn" index="37vLTI" />
      <concept id="4972933694980447171" name="jetbrains.mps.baseLanguage.structure.BaseVariableDeclaration" flags="ng" index="19Szcq">
        <child id="5680397130376446158" name="type" index="1tU5fm" />
      </concept>
      <concept id="1068580123152" name="jetbrains.mps.baseLanguage.structure.EqualsExpression" flags="nn" index="3clFbC" />
      <concept id="1068580123155" name="jetbrains.mps.baseLanguage.structure.ExpressionStatement" flags="nn" index="3clFbF">
        <child id="1068580123156" name="expression" index="3clFbG" />
      </concept>
      <concept id="1068580123159" name="jetbrains.mps.baseLanguage.structure.IfStatement" flags="nn" index="3clFbJ">
        <child id="1068580123160" name="condition" index="3clFbw" />
        <child id="1068580123161" name="ifTrue" index="3clFbx" />
      </concept>
      <concept id="1068580123136" name="jetbrains.mps.baseLanguage.structure.StatementList" flags="sn" stub="5293379017992965193" index="3clFbS">
        <child id="1068581517665" name="statement" index="3cqZAp" />
      </concept>
      <concept id="1068581242878" name="jetbrains.mps.baseLanguage.structure.ReturnStatement" flags="nn" index="3cpWs6">
        <child id="1068581517676" name="expression" index="3cqZAk" />
      </concept>
      <concept id="1068581242864" name="jetbrains.mps.baseLanguage.structure.LocalVariableDeclarationStatement" flags="nn" index="3cpWs8">
        <child id="1068581242865" name="localVariableDeclaration" index="3cpWs9" />
      </concept>
      <concept id="1068581242863" name="jetbrains.mps.baseLanguage.structure.LocalVariableDeclaration" flags="nr" index="3cpWsn" />
      <concept id="1107535904670" name="jetbrains.mps.baseLanguage.structure.ClassifierType" flags="in" index="3uibUv">
        <reference id="1107535924139" name="classifier" index="3uigEE" />
      </concept>
      <concept id="1081773326031" name="jetbrains.mps.baseLanguage.structure.BinaryOperation" flags="nn" index="3uHJSO">
        <child id="1081773367579" name="rightExpression" index="3uHU7w" />
        <child id="1081773367580" name="leftExpression" index="3uHU7B" />
      </concept>
      <concept id="1073239437375" name="jetbrains.mps.baseLanguage.structure.NotEqualsExpression" flags="nn" index="3y3z36" />
      <concept id="1080120340718" name="jetbrains.mps.baseLanguage.structure.AndExpression" flags="nn" index="1Wc70l" />
    </language>
    <language id="3a13115c-633c-4c5c-bbcc-75c4219e9555" name="jetbrains.mps.lang.quotation">
      <concept id="1196350785113" name="jetbrains.mps.lang.quotation.structure.Quotation" flags="nn" index="2c44tf">
        <child id="1196350785114" name="quotedNode" index="2c44tc" />
      </concept>
      <concept id="5455284157994012186" name="jetbrains.mps.lang.quotation.structure.NodeBuilderInitLink" flags="ng" index="2pIpSj">
        <reference id="5455284157994012188" name="link" index="2pIpSl" />
      </concept>
      <concept id="5455284157993911077" name="jetbrains.mps.lang.quotation.structure.NodeBuilderInitProperty" flags="ng" index="2pJxcG">
        <reference id="5455284157993911078" name="property" index="2pJxcJ" />
      </concept>
      <concept id="5455284157993911097" name="jetbrains.mps.lang.quotation.structure.NodeBuilderInitPart" flags="ng" index="2pJxcK">
        <child id="5455284157993911094" name="expression" index="2pJxcZ" />
      </concept>
      <concept id="5455284157993863837" name="jetbrains.mps.lang.quotation.structure.NodeBuilder" flags="nn" index="2pJPEk">
        <child id="5455284157993863838" name="quotedNode" index="2pJPEn" />
      </concept>
      <concept id="5455284157993863840" name="jetbrains.mps.lang.quotation.structure.NodeBuilderNode" flags="nn" index="2pJPED">
        <reference id="5455284157993910961" name="concept" index="2pJxaS" />
        <child id="5455284157993911099" name="values" index="2pJxcM" />
      </concept>
    </language>
    <language id="aee9cad2-acd4-4608-aef2-0004f6a1cdbd" name="jetbrains.mps.lang.actions">
      <concept id="1177323996388" name="jetbrains.mps.lang.actions.structure.AddMenuPart" flags="ng" index="tYCnQ" />
      <concept id="1177333529597" name="jetbrains.mps.lang.actions.structure.ConceptPart" flags="ng" index="uyZFJ">
        <reference id="1177333551023" name="concept" index="uz4UX" />
        <child id="1177333559040" name="part" index="uz6Si" />
      </concept>
      <concept id="1177337890340" name="jetbrains.mps.lang.actions.structure.QueryFunction_ParameterizedSubstitute_Query" flags="in" index="uNCsQ" />
      <concept id="1177398027324" name="jetbrains.mps.lang.actions.structure.ConceptsSubstituteMenuPart" flags="ng" index="yp2kI">
        <child id="1177398809232" name="query" index="ys1e2" />
      </concept>
      <concept id="1158700664498" name="jetbrains.mps.lang.actions.structure.NodeFactories" flags="ng" index="37WguZ">
        <child id="1158700779049" name="nodeFactory" index="37WGs$" />
      </concept>
      <concept id="1158700725281" name="jetbrains.mps.lang.actions.structure.NodeFactory" flags="ig" index="37WvkG">
        <reference id="1158700943156" name="applicableConcept" index="37XkoT" />
        <child id="1158701448518" name="setupFunction" index="37ZfLb" />
      </concept>
      <concept id="1158701162220" name="jetbrains.mps.lang.actions.structure.NodeSetupFunction" flags="in" index="37Y9Zx" />
      <concept id="1154465273778" name="jetbrains.mps.lang.actions.structure.ConceptFunctionParameter_parentNode" flags="nn" index="3bvxqY" />
      <concept id="5584396657084912703" name="jetbrains.mps.lang.actions.structure.NodeSetupFunction_NewNode" flags="nn" index="1r4Lsj" />
      <concept id="1112056943463" name="jetbrains.mps.lang.actions.structure.NodeSubstituteActions" flags="ng" index="3FK_9_">
        <child id="1112058057696" name="actionsBuilder" index="3FOPby" />
      </concept>
      <concept id="1112058030570" name="jetbrains.mps.lang.actions.structure.NodeSubstituteActionsBuilder" flags="ig" index="3FOIzC">
        <reference id="1112058088712" name="applicableConcept" index="3FOWKa" />
        <child id="1177324142645" name="part" index="tZc4B" />
      </concept>
    </language>
    <language id="7866978e-a0f0-4cc7-81bc-4d213d9375e1" name="jetbrains.mps.lang.smodel">
      <concept id="1177026924588" name="jetbrains.mps.lang.smodel.structure.RefConcept_Reference" flags="nn" index="chp4Y">
        <reference id="1177026940964" name="conceptDeclaration" index="cht4Q" />
      </concept>
      <concept id="1138411891628" name="jetbrains.mps.lang.smodel.structure.SNodeOperation" flags="nn" index="eCIE_">
        <child id="1144104376918" name="parameter" index="1xVPHs" />
      </concept>
      <concept id="1171407110247" name="jetbrains.mps.lang.smodel.structure.Node_GetAncestorOperation" flags="nn" index="2Xjw5R" />
      <concept id="1144101972840" name="jetbrains.mps.lang.smodel.structure.OperationParm_Concept" flags="ng" index="1xMEDy">
        <child id="1207343664468" name="conceptArgument" index="ri$Ld" />
      </concept>
      <concept id="1138056022639" name="jetbrains.mps.lang.smodel.structure.SPropertyAccess" flags="nn" index="3TrcHB">
        <reference id="1138056395725" name="property" index="3TsBF5" />
      </concept>
      <concept id="1138056143562" name="jetbrains.mps.lang.smodel.structure.SLinkAccess" flags="nn" index="3TrEf2">
        <reference id="1138056516764" name="link" index="3Tt5mk" />
      </concept>
      <concept id="1138056282393" name="jetbrains.mps.lang.smodel.structure.SLinkListAccess" flags="nn" index="3Tsc0h">
        <reference id="1138056546658" name="link" index="3TtcxE" />
      </concept>
      <concept id="1172420572800" name="jetbrains.mps.lang.smodel.structure.ConceptNodeType" flags="in" index="3THzug">
        <reference id="1180481110358" name="conceptDeclaraton" index="3qa414" />
      </concept>
      <concept id="1172424058054" name="jetbrains.mps.lang.smodel.structure.ConceptRefExpression" flags="nn" index="3TUQnm">
        <reference id="1172424100906" name="conceptDeclaration" index="3TV0OU" />
      </concept>
    </language>
    <language id="ceab5195-25ea-4f22-9b92-103b95ca8c0c" name="jetbrains.mps.lang.core">
      <concept id="1169194658468" name="jetbrains.mps.lang.core.structure.INamedConcept" flags="ng" index="TrEIO">
        <property id="1169194664001" name="name" index="TrG5h" />
      </concept>
    </language>
    <language id="83888646-71ce-4f1c-9c53-c54016f6ad4f" name="jetbrains.mps.baseLanguage.collections">
      <concept id="540871147943773365" name="jetbrains.mps.baseLanguage.collections.structure.SingleArgumentSequenceOperation" flags="nn" index="25WWJ4">
        <child id="540871147943773366" name="argument" index="25WWJ7" />
      </concept>
      <concept id="1151688443754" name="jetbrains.mps.baseLanguage.collections.structure.ListType" flags="in" index="_YKpA">
        <child id="1151688676805" name="elementType" index="_ZDj9" />
      </concept>
      <concept id="1237721394592" name="jetbrains.mps.baseLanguage.collections.structure.AbstractContainerCreator" flags="nn" index="HWqM0">
        <child id="1237721435807" name="elementType" index="HW$YZ" />
      </concept>
      <concept id="1160600644654" name="jetbrains.mps.baseLanguage.collections.structure.ListCreatorWithInit" flags="nn" index="Tc6Ow" />
      <concept id="1160612413312" name="jetbrains.mps.baseLanguage.collections.structure.AddElementOperation" flags="nn" index="TSZUe" />
    </language>
  </registry>
  <node concept="3FK_9_" id="i3dQsEw">
    <property role="TrG5h" value="parameter" />
    <node concept="3FOIzC" id="i3dQtfS" role="3FOPby">
      <ref role="3FOWKa" to="tpee:fz3vP1J" resolve="Expression" />
      <node concept="tYCnQ" id="i3dQyS3" role="tZc4B">
        <ref role="uz4UX" to="tp3j:i38ZlvV" resolve="IntentionParameter" />
        <node concept="yp2kI" id="i3dSbMs" role="uz6Si">
          <node concept="uNCsQ" id="i3dSbMt" role="ys1e2">
            <node concept="3clFbS" id="i3dSbMu" role="2VODD2">
              <node concept="3cpWs8" id="i3dSdTS" role="3cqZAp">
                <node concept="3cpWsn" id="i3dSdTT" role="3cpWs9">
                  <property role="TrG5h" value="parameters" />
                  <node concept="_YKpA" id="i3dSdTU" role="1tU5fm">
                    <node concept="3THzug" id="i3dSem1" role="_ZDj9">
                      <ref role="3qa414" to="tp3j:i38ZlvV" resolve="IntentionParameter" />
                    </node>
                  </node>
                  <node concept="2ShNRf" id="i3dSj_t" role="33vP2m">
                    <node concept="Tc6Ow" id="i3dSj_u" role="2ShVmc">
                      <node concept="3THzug" id="i3dSj_v" role="HW$YZ">
                        <ref role="3qa414" to="tp3j:i38ZlvV" resolve="IntentionParameter" />
                      </node>
                    </node>
                  </node>
                </node>
              </node>
              <node concept="3cpWs8" id="1L9fD3lPrIH" role="3cqZAp">
                <node concept="3cpWsn" id="1L9fD3lPrII" role="3cpWs9">
                  <property role="TrG5h" value="inParInt" />
                  <node concept="10P_77" id="1L9fD3lPrIJ" role="1tU5fm" />
                  <node concept="3y3z36" id="1L9fD3lPrIK" role="33vP2m">
                    <node concept="2OqwBi" id="1L9fD3lPrIL" role="3uHU7B">
                      <node concept="3bvxqY" id="1L9fD3lPrIM" role="2Oq$k0" />
                      <node concept="2Xjw5R" id="1L9fD3lPrIN" role="2OqNvi">
                        <node concept="1xMEDy" id="1L9fD3lPrIO" role="1xVPHs">
                          <node concept="chp4Y" id="1L9fD3lPrIP" role="ri$Ld">
                            <ref role="cht4Q" to="tp3j:i3dkpKH" resolve="ParameterizedIntentionDeclaration" />
                          </node>
                        </node>
                      </node>
                    </node>
                    <node concept="10Nm6u" id="1L9fD3lPrIQ" role="3uHU7w" />
                  </node>
                </node>
              </node>
              <node concept="3cpWs8" id="1L9fD3lPrIS" role="3cqZAp">
                <node concept="3cpWsn" id="1L9fD3lPrIT" role="3cpWs9">
                  <property role="TrG5h" value="notInApplicable" />
                  <node concept="10P_77" id="1L9fD3lPrIU" role="1tU5fm" />
                  <node concept="3clFbC" id="1L9fD3lPrJ3" role="33vP2m">
                    <node concept="2OqwBi" id="1L9fD3lPrJ4" role="3uHU7B">
                      <node concept="3bvxqY" id="1L9fD3lPrJ5" role="2Oq$k0" />
                      <node concept="2Xjw5R" id="1L9fD3lPrJ6" role="2OqNvi">
                        <node concept="1xMEDy" id="1L9fD3lPrJ7" role="1xVPHs">
                          <node concept="chp4Y" id="1L9fD3lPrJ8" role="ri$Ld">
                            <ref role="cht4Q" to="tp3j:hmSaL3P" resolve="IsApplicableBlock" />
                          </node>
                        </node>
                      </node>
                    </node>
                    <node concept="10Nm6u" id="1L9fD3lPrJ9" role="3uHU7w" />
                  </node>
                </node>
              </node>
              <node concept="3cpWs8" id="5HElrNGRxEP" role="3cqZAp">
                <node concept="3cpWsn" id="5HElrNGRxES" role="3cpWs9">
                  <property role="TrG5h" value="notInChildFilterBlock" />
                  <node concept="10P_77" id="5HElrNGRxEN" role="1tU5fm" />
                  <node concept="3clFbC" id="5HElrNGRyBN" role="33vP2m">
                    <node concept="2OqwBi" id="5HElrNGRyBO" role="3uHU7B">
                      <node concept="3bvxqY" id="5HElrNGRyBP" role="2Oq$k0" />
                      <node concept="2Xjw5R" id="5HElrNGRyBQ" role="2OqNvi">
                        <node concept="1xMEDy" id="5HElrNGRyBR" role="1xVPHs">
                          <node concept="chp4Y" id="5HElrNGRyHA" role="ri$Ld">
                            <ref role="cht4Q" to="tp3j:38RcvkhOs6o" resolve="ChildFilterBlock" />
                          </node>
                        </node>
                      </node>
                    </node>
                    <node concept="10Nm6u" id="5HElrNGRyBT" role="3uHU7w" />
                  </node>
                </node>
              </node>
              <node concept="3clFbJ" id="i3dSbZ1" role="3cqZAp">
                <node concept="1Wc70l" id="5HElrNGRz91" role="3clFbw">
                  <node concept="37vLTw" id="5HElrNGRze5" role="3uHU7w">
                    <ref role="3cqZAo" node="5HElrNGRxES" resolve="notInChildFilterBlock" />
                  </node>
                  <node concept="1Wc70l" id="1L9fD3lPrIE" role="3uHU7B">
                    <node concept="37vLTw" id="3GM_nagT$Qs" role="3uHU7B">
                      <ref role="3cqZAo" node="1L9fD3lPrII" resolve="inParInt" />
                    </node>
                    <node concept="37vLTw" id="3GM_nagTrva" role="3uHU7w">
                      <ref role="3cqZAo" node="1L9fD3lPrIT" resolve="notInApplicable" />
                    </node>
                  </node>
                </node>
                <node concept="3clFbS" id="i3dSbZ2" role="3clFbx">
                  <node concept="3clFbF" id="i3dSbZ3" role="3cqZAp">
                    <node concept="2OqwBi" id="i3dSbZ4" role="3clFbG">
                      <node concept="37vLTw" id="3GM_nagTrPD" role="2Oq$k0">
                        <ref role="3cqZAo" node="i3dSdTT" resolve="parameters" />
                      </node>
                      <node concept="TSZUe" id="i3dSbZ6" role="2OqNvi">
                        <node concept="3TUQnm" id="1L9fD3lPrJc" role="25WWJ7">
                          <ref role="3TV0OU" to="tp3j:i38ZlvV" resolve="IntentionParameter" />
                        </node>
                      </node>
                    </node>
                  </node>
                </node>
              </node>
              <node concept="3cpWs6" id="i3dSbZh" role="3cqZAp">
                <node concept="37vLTw" id="3GM_nagTrhF" role="3cqZAk">
                  <ref role="3cqZAo" node="i3dSdTT" resolve="parameters" />
                </node>
              </node>
            </node>
          </node>
        </node>
      </node>
    </node>
  </node>
  <node concept="37WguZ" id="4jgyS0Z9PrM">
    <property role="TrG5h" value="ParameterFactory" />
    <node concept="37WvkG" id="4jgyS0Z9PrN" role="37WGs$">
      <ref role="37XkoT" to="tp3j:6q8H2OTpOHU" resolve="Parameter" />
      <node concept="37Y9Zx" id="4jgyS0Z9PrO" role="37ZfLb">
        <node concept="3clFbS" id="4jgyS0Z9PrP" role="2VODD2">
          <node concept="3clFbF" id="6q8H2OTpTQv" role="3cqZAp">
            <node concept="37vLTI" id="6q8H2OTpUPl" role="3clFbG">
              <node concept="Xl_RD" id="6q8H2OTpUSa" role="37vLTx">
                <property role="Xl_RC" value="parameter" />
              </node>
              <node concept="2OqwBi" id="6q8H2OTpU0L" role="37vLTJ">
                <node concept="1r4Lsj" id="4jgyS0Z9PQL" role="2Oq$k0" />
                <node concept="3TrcHB" id="6q8H2OTpUJG" role="2OqNvi">
                  <ref role="3TsBF5" to="tpck:h0TrG11" resolve="name" />
                </node>
              </node>
            </node>
          </node>
          <node concept="3clFbF" id="4jgyS0Z9d4R" role="3cqZAp">
            <node concept="2OqwBi" id="4jgyS0Z9ioq" role="3clFbG">
              <node concept="2OqwBi" id="4jgyS0Z9dqj" role="2Oq$k0">
                <node concept="1r4Lsj" id="4jgyS0Z9PVQ" role="2Oq$k0" />
                <node concept="3Tsc0h" id="4jgyS0Z9gnE" role="2OqNvi">
                  <ref role="3TtcxE" to="tpee:fzclF7Y" />
                </node>
              </node>
              <node concept="TSZUe" id="4jgyS0Z9lhD" role="2OqNvi">
                <node concept="2pJPEk" id="4jgyS0Z9m$w" role="25WWJ7">
                  <node concept="2pJPED" id="4jgyS0Z9mPF" role="2pJPEn">
                    <ref role="2pJxaS" to="tp3j:4jgyS0Z9lVZ" resolve="ForConceptMethodParameter" />
                    <node concept="2pJxcG" id="4jgyS0Z9n6Z" role="2pJxcM">
                      <ref role="2pJxcJ" to="tpck:h0TrG11" resolve="name" />
                      <node concept="Xl_RD" id="4jgyS0Z9nkZ" role="2pJxcZ">
                        <property role="Xl_RC" value="node" />
                      </node>
                    </node>
                    <node concept="2pIpSj" id="4jgyS0Z9QEl" role="2pJxcM">
                      <ref role="2pIpSl" to="tpee:4VkOLwjf83e" />
                      <node concept="2pJPED" id="4y11RyiWd_D" role="2pJxcZ">
                        <ref role="2pJxaS" to="tp25:gzTqbfa" resolve="SNodeType" />
                      </node>
                    </node>
                  </node>
                </node>
              </node>
            </node>
          </node>
          <node concept="3clFbF" id="6q8H2OTq9Z8" role="3cqZAp">
            <node concept="2OqwBi" id="6q8H2OTqdLG" role="3clFbG">
              <node concept="2OqwBi" id="6q8H2OTqajp" role="2Oq$k0">
                <node concept="1r4Lsj" id="4jgyS0Z9Q9J" role="2Oq$k0" />
                <node concept="3Tsc0h" id="6q8H2OTqbKW" role="2OqNvi">
                  <ref role="3TtcxE" to="tpee:fzclF7Y" />
                </node>
              </node>
              <node concept="TSZUe" id="6q8H2OTqjxk" role="2OqNvi">
                <node concept="2c44tf" id="6q8H2OTqjIq" role="25WWJ7">
                  <node concept="37vLTG" id="6q8H2OTqjUF" role="2c44tc">
                    <property role="TrG5h" value="editorContext" />
                    <node concept="3uibUv" id="6q8H2OTqldl" role="1tU5fm">
                      <ref role="3uigEE" to="cj4x:~EditorContext" resolve="EditorContext" />
                    </node>
                  </node>
                </node>
              </node>
            </node>
          </node>
          <node concept="3clFbF" id="6q8H2OTqmDe" role="3cqZAp">
            <node concept="37vLTI" id="5ChbRjKH$op" role="3clFbG">
              <node concept="2OqwBi" id="6q8H2OTqnsZ" role="37vLTJ">
                <node concept="1r4Lsj" id="4jgyS0Z9Qm_" role="2Oq$k0" />
                <node concept="3TrEf2" id="6q8H2OTqxH1" role="2OqNvi">
                  <ref role="3Tt5mk" to="tpee:fzclF7X" />
                </node>
              </node>
              <node concept="2c44tf" id="5ChbRjKH$to" role="37vLTx">
                <node concept="_YKpA" id="5ChbRjKH$tp" role="2c44tc">
                  <node concept="3uibUv" id="5ChbRjKH$tq" role="_ZDj9">
                    <ref role="3uigEE" to="wyt6:~Integer" resolve="Integer" />
                  </node>
                </node>
              </node>
            </node>
          </node>
        </node>
      </node>
    </node>
  </node>
</model>

