<?xml version="1.0" encoding="UTF-8"?>
<model ref="r:00000000-0000-4000-0000-011c8959034f(jetbrains.mps.lang.intentions.constraints)">
  <persistence version="9" />
  <languages>
    <use id="3f4bc5f5-c6c1-4a28-8b10-c83066ffa4a1" name="jetbrains.mps.lang.constraints" version="-1" />
    <use id="13744753-c81f-424a-9c1b-cf8943bf4e86" name="jetbrains.mps.lang.sharedConcepts" version="-1" />
    <use id="7866978e-a0f0-4cc7-81bc-4d213d9375e1" name="jetbrains.mps.lang.smodel" version="4" />
    <use id="f3061a53-9226-4cc5-a443-f952ceaf5816" name="jetbrains.mps.baseLanguage" version="-1" />
    <devkit ref="fbc25dd2-5da4-483a-8b19-70928e1b62d7(jetbrains.mps.devkit.general-purpose)" />
  </languages>
  <imports>
    <import index="tp3j" ref="r:00000000-0000-4000-0000-011c89590353(jetbrains.mps.lang.intentions.structure)" />
    <import index="w1kc" ref="6ed54515-acc8-4d1e-a16c-9fd6cfe951ea/java:jetbrains.mps.smodel(MPS.Core/)" />
    <import index="8okf" ref="r:dbde341a-c09d-4dfc-8b0a-5ed08f460369(jetbrains.mps.lang.intentions.plugin)" />
  </imports>
  <registry>
    <language id="13744753-c81f-424a-9c1b-cf8943bf4e86" name="jetbrains.mps.lang.sharedConcepts">
      <concept id="1161622665029" name="jetbrains.mps.lang.sharedConcepts.structure.ConceptFunctionParameter_model" flags="nn" index="1Q6Npb" />
    </language>
    <language id="f3061a53-9226-4cc5-a443-f952ceaf5816" name="jetbrains.mps.baseLanguage">
      <concept id="1080223426719" name="jetbrains.mps.baseLanguage.structure.OrExpression" flags="nn" index="22lmx$" />
      <concept id="1197027756228" name="jetbrains.mps.baseLanguage.structure.DotExpression" flags="nn" index="2OqwBi">
        <child id="1197027771414" name="operand" index="2Oq$k0" />
        <child id="1197027833540" name="operation" index="2OqNvi" />
      </concept>
      <concept id="1137021947720" name="jetbrains.mps.baseLanguage.structure.ConceptFunction" flags="in" index="2VMwT0">
        <child id="1137022507850" name="body" index="2VODD2" />
      </concept>
      <concept id="1081236700937" name="jetbrains.mps.baseLanguage.structure.StaticMethodCall" flags="nn" index="2YIFZM">
        <reference id="1144433194310" name="classConcept" index="1Pybhc" />
      </concept>
      <concept id="1068580123155" name="jetbrains.mps.baseLanguage.structure.ExpressionStatement" flags="nn" index="3clFbF">
        <child id="1068580123156" name="expression" index="3clFbG" />
      </concept>
      <concept id="1068580123136" name="jetbrains.mps.baseLanguage.structure.StatementList" flags="sn" stub="5293379017992965193" index="3clFbS">
        <child id="1068581517665" name="statement" index="3cqZAp" />
      </concept>
      <concept id="1204053956946" name="jetbrains.mps.baseLanguage.structure.IMethodCall" flags="ng" index="1ndlxa">
        <reference id="1068499141037" name="baseMethodDeclaration" index="37wK5l" />
        <child id="1068499141038" name="actualArgument" index="37wK5m" />
      </concept>
      <concept id="1081773326031" name="jetbrains.mps.baseLanguage.structure.BinaryOperation" flags="nn" index="3uHJSO">
        <child id="1081773367579" name="rightExpression" index="3uHU7w" />
        <child id="1081773367580" name="leftExpression" index="3uHU7B" />
      </concept>
    </language>
    <language id="3f4bc5f5-c6c1-4a28-8b10-c83066ffa4a1" name="jetbrains.mps.lang.constraints">
      <concept id="1227084988347" name="jetbrains.mps.lang.constraints.structure.ConstraintFunction_CanBeARoot" flags="in" index="2NXJUA" />
      <concept id="1213093968558" name="jetbrains.mps.lang.constraints.structure.ConceptConstraints" flags="ng" index="1M2fIO">
        <reference id="1213093996982" name="concept" index="1M2myG" />
        <child id="1227085062429" name="canBeRoot" index="2NY200" />
      </concept>
    </language>
    <language id="69b8a993-9b87-4d96-bf0c-3559f4bb0c63" name="jetbrains.mps.lang.slanguage">
      <concept id="2030416617761226491" name="jetbrains.mps.lang.slanguage.structure.Model_IsAspectOperation" flags="nn" index="3zA4fs">
        <reference id="2030416617761226680" name="aspect" index="3zA4av" />
      </concept>
    </language>
    <language id="ceab5195-25ea-4f22-9b92-103b95ca8c0c" name="jetbrains.mps.lang.core">
      <concept id="1133920641626" name="jetbrains.mps.lang.core.structure.BaseConcept" flags="ng" index="2VYdi">
        <property id="1193676396447" name="virtualPackage" index="3GE5qa" />
      </concept>
    </language>
  </registry>
  <node concept="1M2fIO" id="hQOgExi">
    <property role="3GE5qa" value="old" />
    <ref role="1M2myG" to="tp3j:hmS6QkF" resolve="IntentionDeclaration" />
    <node concept="2NXJUA" id="hQOgHAO" role="2NY200">
      <node concept="3clFbS" id="hQOgHAP" role="2VODD2">
        <node concept="3clFbF" id="hQOgIM2" role="3cqZAp">
          <node concept="22lmx$" id="2EFylI5n7qQ" role="3clFbG">
            <node concept="2OqwBi" id="7XWR6$5ig8_" role="3uHU7B">
              <node concept="1Q6Npb" id="7XWR6$5ihHN" role="2Oq$k0" />
              <node concept="3zA4fs" id="7XWR6$5igaO" role="2OqNvi">
                <ref role="3zA4av" to="8okf:2LiUEk8oQ$g" resolve="intentions" />
              </node>
            </node>
            <node concept="2YIFZM" id="2EFylI5n7IY" role="3uHU7w">
              <ref role="1Pybhc" to="w1kc:~SModelStereotype" resolve="SModelStereotype" />
              <ref role="37wK5l" to="w1kc:~SModelStereotype.isGeneratorModel(org.jetbrains.mps.openapi.model.SModel):boolean" resolve="isGeneratorModel" />
              <node concept="1Q6Npb" id="2EFylI5n7IZ" role="37wK5m" />
            </node>
          </node>
        </node>
      </node>
    </node>
  </node>
  <node concept="1M2fIO" id="5rGvd38DcHu">
    <property role="3GE5qa" value="new" />
    <ref role="1M2myG" to="tp3j:2c3oNEsfAwl" resolve="SurroundWithIntentionDeclaration" />
    <node concept="2NXJUA" id="5rGvd38DcHw" role="2NY200">
      <node concept="3clFbS" id="5rGvd38DcHx" role="2VODD2">
        <node concept="3clFbF" id="5rGvd38DcHy" role="3cqZAp">
          <node concept="22lmx$" id="1KFbmnBQDYj" role="3clFbG">
            <node concept="2OqwBi" id="7XWR6$5ihJy" role="3uHU7B">
              <node concept="1Q6Npb" id="7XWR6$5ihKU" role="2Oq$k0" />
              <node concept="3zA4fs" id="7XWR6$5ihJz" role="2OqNvi">
                <ref role="3zA4av" to="8okf:2LiUEk8oQ$g" resolve="intentions" />
              </node>
            </node>
            <node concept="2YIFZM" id="1KFbmnBQDYp" role="3uHU7w">
              <ref role="1Pybhc" to="w1kc:~SModelStereotype" resolve="SModelStereotype" />
              <ref role="37wK5l" to="w1kc:~SModelStereotype.isGeneratorModel(org.jetbrains.mps.openapi.model.SModel):boolean" resolve="isGeneratorModel" />
              <node concept="1Q6Npb" id="1KFbmnBQDYq" role="37wK5m" />
            </node>
          </node>
        </node>
      </node>
    </node>
  </node>
</model>

