<?xml version="1.0" encoding="UTF-8"?>
<model ref="r:5a8e1e6d-7386-4281-8e53-bda28bd8edf3(jetbrains.mps.lang.intentions.intentions)">
  <persistence version="9" />
  <languages>
    <use id="d7a92d38-f7db-40d0-8431-763b0c3c9f20" name="jetbrains.mps.lang.intentions" version="0" />
    <use id="7866978e-a0f0-4cc7-81bc-4d213d9375e1" name="jetbrains.mps.lang.smodel" version="4" />
    <use id="aee9cad2-acd4-4608-aef2-0004f6a1cdbd" name="jetbrains.mps.lang.actions" version="0" />
    <use id="c7d5b9dd-a05f-4be2-bc73-f2e16994cc67" name="jetbrains.mps.baseLanguage.lightweightdsl" version="1" />
    <use id="f3061a53-9226-4cc5-a443-f952ceaf5816" name="jetbrains.mps.baseLanguage" version="4" />
    <devkit ref="fbc25dd2-5da4-483a-8b19-70928e1b62d7(jetbrains.mps.devkit.general-purpose)" />
  </languages>
  <imports>
    <import index="tp3j" ref="r:00000000-0000-4000-0000-011c89590353(jetbrains.mps.lang.intentions.structure)" />
    <import index="cj4x" ref="1ed103c3-3aa6-49b7-9c21-6765ee11f224/java:jetbrains.mps.openapi.editor(MPS.Editor/)" />
    <import index="tpee" ref="r:00000000-0000-4000-0000-011c895902ca(jetbrains.mps.baseLanguage.structure)" />
    <import index="oubp" ref="c7d5b9dd-a05f-4be2-bc73-f2e16994cc67/r:7cc2086d-c7d0-49c7-811c-ebbaf40d9195(jetbrains.mps.lang.classLike/jetbrains.mps.baseLanguage.lightweightdsl.structure)" />
    <import index="9nqt" ref="c7d5b9dd-a05f-4be2-bc73-f2e16994cc67/r:3d68296b-7ada-4491-8aa4-88e8ea6e4f67(jetbrains.mps.lang.classLike/jetbrains.mps.baseLanguage.lightweightdsl.behavior)" />
    <import index="tpcw" ref="r:00000000-0000-4000-0000-011c895902bc(jetbrains.mps.lang.sharedConcepts.structure)" />
    <import index="6bz1" ref="r:d3905048-7598-4a84-931a-cbbcbcda146d(jetbrains.mps.lang.intentions.methods)" />
    <import index="tpck" ref="r:00000000-0000-4000-0000-011c89590288(jetbrains.mps.lang.core.structure)" implicit="true" />
  </imports>
  <registry>
    <language id="f3061a53-9226-4cc5-a443-f952ceaf5816" name="jetbrains.mps.baseLanguage">
      <concept id="1082485599095" name="jetbrains.mps.baseLanguage.structure.BlockStatement" flags="nn" index="9aQIb">
        <child id="1082485599096" name="statements" index="9aQI4" />
      </concept>
      <concept id="1215693861676" name="jetbrains.mps.baseLanguage.structure.BaseAssignmentExpression" flags="nn" index="d038R">
        <child id="1068498886297" name="rValue" index="37vLTx" />
        <child id="1068498886295" name="lValue" index="37vLTJ" />
      </concept>
      <concept id="4836112446988635817" name="jetbrains.mps.baseLanguage.structure.UndefinedType" flags="in" index="2jxLKc" />
      <concept id="1465982738277781862" name="jetbrains.mps.baseLanguage.structure.PlaceholderMember" flags="ng" index="2tJIrI" />
      <concept id="1154032098014" name="jetbrains.mps.baseLanguage.structure.AbstractLoopStatement" flags="nn" index="2LF5Ji">
        <child id="1154032183016" name="body" index="2LFqv$" />
      </concept>
      <concept id="1197027756228" name="jetbrains.mps.baseLanguage.structure.DotExpression" flags="nn" index="2OqwBi">
        <child id="1197027771414" name="operand" index="2Oq$k0" />
        <child id="1197027833540" name="operation" index="2OqNvi" />
      </concept>
      <concept id="1145552977093" name="jetbrains.mps.baseLanguage.structure.GenericNewExpression" flags="nn" index="2ShNRf">
        <child id="1145553007750" name="creator" index="2ShVmc" />
      </concept>
      <concept id="1070475926800" name="jetbrains.mps.baseLanguage.structure.StringLiteral" flags="nn" index="Xl_RD">
        <property id="1070475926801" name="value" index="Xl_RC" />
      </concept>
      <concept id="1070534370425" name="jetbrains.mps.baseLanguage.structure.IntegerType" flags="in" index="10Oyi0" />
      <concept id="1070534644030" name="jetbrains.mps.baseLanguage.structure.BooleanType" flags="in" index="10P_77" />
      <concept id="1068431474542" name="jetbrains.mps.baseLanguage.structure.VariableDeclaration" flags="ng" index="33uBYm">
        <child id="1068431790190" name="initializer" index="33vP2m" />
      </concept>
      <concept id="1068498886296" name="jetbrains.mps.baseLanguage.structure.VariableReference" flags="nn" index="37vLTw">
        <reference id="1068581517664" name="variableDeclaration" index="3cqZAo" />
      </concept>
      <concept id="1068498886292" name="jetbrains.mps.baseLanguage.structure.ParameterDeclaration" flags="ir" index="37vLTG" />
      <concept id="1068498886294" name="jetbrains.mps.baseLanguage.structure.AssignmentExpression" flags="nn" index="37vLTI" />
      <concept id="1225271177708" name="jetbrains.mps.baseLanguage.structure.StringType" flags="in" index="17QB3L" />
      <concept id="4972933694980447171" name="jetbrains.mps.baseLanguage.structure.BaseVariableDeclaration" flags="ng" index="19Szcq">
        <child id="5680397130376446158" name="type" index="1tU5fm" />
      </concept>
      <concept id="1068580123132" name="jetbrains.mps.baseLanguage.structure.BaseMethodDeclaration" flags="ng" index="3clF44">
        <property id="4276006055363816570" name="isSynchronized" index="od$2w" />
        <property id="1181808852946" name="isFinal" index="DiZV1" />
        <child id="1068580123133" name="returnType" index="3clF45" />
        <child id="1068580123134" name="parameter" index="3clF46" />
        <child id="1068580123135" name="body" index="3clF47" />
      </concept>
      <concept id="1068580123165" name="jetbrains.mps.baseLanguage.structure.InstanceMethodDeclaration" flags="ig" index="3clFb_">
        <property id="1178608670077" name="isAbstract" index="1EzhhJ" />
      </concept>
      <concept id="1068580123155" name="jetbrains.mps.baseLanguage.structure.ExpressionStatement" flags="nn" index="3clFbF">
        <child id="1068580123156" name="expression" index="3clFbG" />
      </concept>
      <concept id="1068580123157" name="jetbrains.mps.baseLanguage.structure.Statement" flags="nn" index="3clFbH" />
      <concept id="1068580123159" name="jetbrains.mps.baseLanguage.structure.IfStatement" flags="nn" index="3clFbJ">
        <child id="1082485599094" name="ifFalseStatement" index="9aQIa" />
        <child id="1068580123160" name="condition" index="3clFbw" />
        <child id="1068580123161" name="ifTrue" index="3clFbx" />
        <child id="1206060520071" name="elsifClauses" index="3eNLev" />
      </concept>
      <concept id="1068580123136" name="jetbrains.mps.baseLanguage.structure.StatementList" flags="sn" stub="5293379017992965193" index="3clFbS">
        <child id="1068581517665" name="statement" index="3cqZAp" />
      </concept>
      <concept id="1068580123137" name="jetbrains.mps.baseLanguage.structure.BooleanConstant" flags="nn" index="3clFbT">
        <property id="1068580123138" name="value" index="3clFbU" />
      </concept>
      <concept id="1068580320020" name="jetbrains.mps.baseLanguage.structure.IntegerConstant" flags="nn" index="3cmrfG">
        <property id="1068580320021" name="value" index="3cmrfH" />
      </concept>
      <concept id="1068581242878" name="jetbrains.mps.baseLanguage.structure.ReturnStatement" flags="nn" index="3cpWs6">
        <child id="1068581517676" name="expression" index="3cqZAk" />
      </concept>
      <concept id="1068581242864" name="jetbrains.mps.baseLanguage.structure.LocalVariableDeclarationStatement" flags="nn" index="3cpWs8">
        <child id="1068581242865" name="localVariableDeclaration" index="3cpWs9" />
      </concept>
      <concept id="1068581242863" name="jetbrains.mps.baseLanguage.structure.LocalVariableDeclaration" flags="nr" index="3cpWsn" />
      <concept id="1068581517677" name="jetbrains.mps.baseLanguage.structure.VoidType" flags="in" index="3cqZAl" />
      <concept id="1206060495898" name="jetbrains.mps.baseLanguage.structure.ElsifClause" flags="ng" index="3eNFk2">
        <child id="1206060619838" name="condition" index="3eO9$A" />
        <child id="1206060644605" name="statementList" index="3eOfB_" />
      </concept>
      <concept id="1204053956946" name="jetbrains.mps.baseLanguage.structure.IMethodCall" flags="ng" index="1ndlxa">
        <reference id="1068499141037" name="baseMethodDeclaration" index="37wK5l" />
        <child id="1068499141038" name="actualArgument" index="37wK5m" />
      </concept>
      <concept id="1107461130800" name="jetbrains.mps.baseLanguage.structure.Classifier" flags="ng" index="3pOWGL">
        <child id="5375687026011219971" name="member" index="jymVt" unordered="true" />
      </concept>
      <concept id="7812454656619025416" name="jetbrains.mps.baseLanguage.structure.MethodDeclaration" flags="ng" index="1rXfSm">
        <property id="8355037393041754995" name="isNative" index="2aFKle" />
      </concept>
      <concept id="7812454656619025412" name="jetbrains.mps.baseLanguage.structure.LocalMethodCall" flags="nn" index="1rXfSq" />
      <concept id="1107535904670" name="jetbrains.mps.baseLanguage.structure.ClassifierType" flags="in" index="3uibUv">
        <reference id="1107535924139" name="classifier" index="3uigEE" />
      </concept>
      <concept id="1178549954367" name="jetbrains.mps.baseLanguage.structure.IVisible" flags="ng" index="1B3ioH">
        <child id="1178549979242" name="visibility" index="1B3o_S" />
      </concept>
      <concept id="1144226303539" name="jetbrains.mps.baseLanguage.structure.ForeachStatement" flags="nn" index="1DcWWT">
        <child id="1144226360166" name="iterable" index="1DdaDG" />
      </concept>
      <concept id="1144230876926" name="jetbrains.mps.baseLanguage.structure.AbstractForStatement" flags="nn" index="1DupvO">
        <child id="1144230900587" name="variable" index="1Duv9x" />
      </concept>
      <concept id="6329021646629104957" name="jetbrains.mps.baseLanguage.structure.TextCommentPart" flags="nn" index="3SKdUq">
        <property id="6329021646629104958" name="text" index="3SKdUp" />
      </concept>
      <concept id="6329021646629104954" name="jetbrains.mps.baseLanguage.structure.SingleLineComment" flags="nn" index="3SKdUt">
        <child id="6329021646629175155" name="commentPart" index="3SKWNk" />
      </concept>
      <concept id="1146644602865" name="jetbrains.mps.baseLanguage.structure.PublicVisibility" flags="nn" index="3Tm1VV" />
      <concept id="1146644623116" name="jetbrains.mps.baseLanguage.structure.PrivateVisibility" flags="nn" index="3Tm6S6" />
    </language>
    <language id="fd392034-7849-419d-9071-12563d152375" name="jetbrains.mps.baseLanguage.closures">
      <concept id="1199569711397" name="jetbrains.mps.baseLanguage.closures.structure.ClosureLiteral" flags="nn" index="1bVj0M">
        <child id="1199569906740" name="parameter" index="1bW2Oz" />
        <child id="1199569916463" name="body" index="1bW5cS" />
      </concept>
    </language>
    <language id="d7a92d38-f7db-40d0-8431-763b0c3c9f20" name="jetbrains.mps.lang.intentions">
      <concept id="8214474548715792907" name="jetbrains.mps.lang.intentions.structure.Intention" flags="ig" index="5jCsv">
        <reference id="75717156636551009" name="forConcept" index="1hH6sV" />
      </concept>
    </language>
    <language id="c7d5b9dd-a05f-4be2-bc73-f2e16994cc67" name="jetbrains.mps.baseLanguage.lightweightdsl">
      <concept id="8880393040217246788" name="jetbrains.mps.baseLanguage.lightweightdsl.structure.MethodParameterInstance" flags="ig" index="ffn8J">
        <reference id="8880393040217294897" name="decl" index="ffrpq" />
      </concept>
      <concept id="3751132065236767083" name="jetbrains.mps.baseLanguage.lightweightdsl.structure.DependentTypeInstance" flags="ig" index="q3mfm">
        <reference id="3751132065236767084" name="decl" index="q3mfh" />
        <reference id="9097849371505568270" name="point" index="1QQUv3" />
      </concept>
      <concept id="3751132065236767060" name="jetbrains.mps.baseLanguage.lightweightdsl.structure.MethodInstance" flags="ig" index="q3mfD">
        <reference id="19209059688387895" name="decl" index="2VtyIY" />
      </concept>
      <concept id="6478870542308703666" name="jetbrains.mps.baseLanguage.lightweightdsl.structure.MemberPlaceholder" flags="ng" index="3tTeZs">
        <property id="6478870542308703667" name="caption" index="3tTeZt" />
        <reference id="6478870542308703669" name="decl" index="3tTeZr" />
      </concept>
    </language>
    <language id="3a13115c-633c-4c5c-bbcc-75c4219e9555" name="jetbrains.mps.lang.quotation">
      <concept id="1196350785113" name="jetbrains.mps.lang.quotation.structure.Quotation" flags="nn" index="2c44tf">
        <child id="1196350785114" name="quotedNode" index="2c44tc" />
      </concept>
    </language>
    <language id="aee9cad2-acd4-4608-aef2-0004f6a1cdbd" name="jetbrains.mps.lang.actions">
      <concept id="5979988948250981289" name="jetbrains.mps.lang.actions.structure.SNodeCreatorAndInitializer" flags="nn" index="2fJWfE" />
    </language>
    <language id="7866978e-a0f0-4cc7-81bc-4d213d9375e1" name="jetbrains.mps.lang.smodel">
      <concept id="1177026924588" name="jetbrains.mps.lang.smodel.structure.RefConcept_Reference" flags="nn" index="chp4Y">
        <reference id="1177026940964" name="conceptDeclaration" index="cht4Q" />
      </concept>
      <concept id="1140725362528" name="jetbrains.mps.lang.smodel.structure.Link_SetTargetOperation" flags="nn" index="2oxUTD">
        <child id="1140725362529" name="linkTarget" index="2oxUTC" />
      </concept>
      <concept id="1179409122411" name="jetbrains.mps.lang.smodel.structure.Node_ConceptMethodCall" flags="nn" index="2qgKlT" />
      <concept id="1138661924179" name="jetbrains.mps.lang.smodel.structure.Property_SetOperation" flags="nn" index="tyxLq">
        <child id="1138662048170" name="value" index="tz02z" />
      </concept>
      <concept id="7453996997717780434" name="jetbrains.mps.lang.smodel.structure.Node_GetSConceptOperation" flags="nn" index="2yIwOk" />
      <concept id="2396822768958367367" name="jetbrains.mps.lang.smodel.structure.AbstractTypeCastExpression" flags="nn" index="$5XWr">
        <reference id="6733348108486823428" name="concept" index="1m5ApE" />
        <child id="6733348108486823193" name="leftExpression" index="1m5AlR" />
      </concept>
      <concept id="1143234257716" name="jetbrains.mps.lang.smodel.structure.Node_GetModelOperation" flags="nn" index="I4A8Y" />
      <concept id="1145383075378" name="jetbrains.mps.lang.smodel.structure.SNodeListType" flags="in" index="2I9FWS">
        <reference id="1145383142433" name="elementConcept" index="2I9WkF" />
      </concept>
      <concept id="1171500988903" name="jetbrains.mps.lang.smodel.structure.Node_GetChildrenOperation" flags="nn" index="32TBzR" />
      <concept id="597763930871270009" name="jetbrains.mps.lang.smodel.structure.ChildNodeRefExpression" flags="nn" index="3fl2lp">
        <reference id="597763930871272016" name="targetNode" index="3fl3PK" />
        <child id="597763930871272014" name="parent" index="3fl3PI" />
      </concept>
      <concept id="1154546950173" name="jetbrains.mps.lang.smodel.structure.ConceptReference" flags="ng" index="3gn64h">
        <reference id="1154546997487" name="concept" index="3gnhBz" />
      </concept>
      <concept id="1171999116870" name="jetbrains.mps.lang.smodel.structure.Node_IsNullOperation" flags="nn" index="3w_OXm" />
      <concept id="1172008320231" name="jetbrains.mps.lang.smodel.structure.Node_IsNotNullOperation" flags="nn" index="3x8VRR" />
      <concept id="1180636770613" name="jetbrains.mps.lang.smodel.structure.SNodeCreator" flags="nn" index="3zrR0B">
        <child id="1180636770616" name="createdType" index="3zrR0E" />
      </concept>
      <concept id="1144146199828" name="jetbrains.mps.lang.smodel.structure.Node_CopyOperation" flags="nn" index="1$rogu" />
      <concept id="5944356402132808749" name="jetbrains.mps.lang.smodel.structure.ConceptSwitchStatement" flags="nn" index="1_3QMa">
        <child id="5944356402132808753" name="case" index="1_3QMm" />
        <child id="5944356402132808752" name="expression" index="1_3QMn" />
      </concept>
      <concept id="5944356402132808754" name="jetbrains.mps.lang.smodel.structure.SubconceptCase" flags="ng" index="1_3QMl">
        <child id="1163670677455" name="concept" index="3Kbmr1" />
        <child id="1163670683720" name="body" index="3Kbo56" />
      </concept>
      <concept id="1219352745532" name="jetbrains.mps.lang.smodel.structure.NodeRefExpression" flags="nn" index="3B5_sB">
        <reference id="1219352800908" name="referentNode" index="3B5MYn" />
      </concept>
      <concept id="1206482823744" name="jetbrains.mps.lang.smodel.structure.Model_AddRootOperation" flags="nn" index="3BYIHo">
        <child id="1206482823746" name="nodeArgument" index="3BYIHq" />
      </concept>
      <concept id="1172326502327" name="jetbrains.mps.lang.smodel.structure.Concept_IsExactlyOperation" flags="nn" index="3O6GUB">
        <child id="1206733650006" name="conceptArgument" index="3QVz_e" />
      </concept>
      <concept id="1140131837776" name="jetbrains.mps.lang.smodel.structure.Node_ReplaceWithAnotherOperation" flags="nn" index="1P9Npp">
        <child id="1140131861877" name="replacementNode" index="1P9ThW" />
      </concept>
      <concept id="1140137987495" name="jetbrains.mps.lang.smodel.structure.SNodeTypeCastExpression" flags="nn" index="1PxgMI" />
      <concept id="1138055754698" name="jetbrains.mps.lang.smodel.structure.SNodeType" flags="in" index="3Tqbb2">
        <reference id="1138405853777" name="concept" index="ehGHo" />
      </concept>
      <concept id="1138056022639" name="jetbrains.mps.lang.smodel.structure.SPropertyAccess" flags="nn" index="3TrcHB">
        <reference id="1138056395725" name="property" index="3TsBF5" />
      </concept>
      <concept id="1138056143562" name="jetbrains.mps.lang.smodel.structure.SLinkAccess" flags="nn" index="3TrEf2">
        <reference id="1138056516764" name="link" index="3Tt5mk" />
      </concept>
      <concept id="1138056282393" name="jetbrains.mps.lang.smodel.structure.SLinkListAccess" flags="nn" index="3Tsc0h">
        <reference id="1138056546658" name="link" index="3TtcxE" />
      </concept>
    </language>
    <language id="ceab5195-25ea-4f22-9b92-103b95ca8c0c" name="jetbrains.mps.lang.core">
      <concept id="1169194658468" name="jetbrains.mps.lang.core.structure.INamedConcept" flags="ng" index="TrEIO">
        <property id="1169194664001" name="name" index="TrG5h" />
      </concept>
    </language>
    <language id="83888646-71ce-4f1c-9c53-c54016f6ad4f" name="jetbrains.mps.baseLanguage.collections">
      <concept id="1204796164442" name="jetbrains.mps.baseLanguage.collections.structure.InternalSequenceOperation" flags="nn" index="23sCx2">
        <child id="1204796294226" name="closure" index="23t8la" />
      </concept>
      <concept id="540871147943773365" name="jetbrains.mps.baseLanguage.collections.structure.SingleArgumentSequenceOperation" flags="nn" index="25WWJ4">
        <child id="540871147943773366" name="argument" index="25WWJ7" />
      </concept>
      <concept id="1203518072036" name="jetbrains.mps.baseLanguage.collections.structure.SmartClosureParameterDeclaration" flags="ig" index="Rh6nW" />
      <concept id="1160612413312" name="jetbrains.mps.baseLanguage.collections.structure.AddElementOperation" flags="nn" index="TSZUe" />
      <concept id="1160666733551" name="jetbrains.mps.baseLanguage.collections.structure.AddAllElementsOperation" flags="nn" index="X8dFx" />
      <concept id="1162934736510" name="jetbrains.mps.baseLanguage.collections.structure.GetElementOperation" flags="nn" index="34jXtK" />
      <concept id="1165525191778" name="jetbrains.mps.baseLanguage.collections.structure.GetFirstOperation" flags="nn" index="1uHKPH" />
      <concept id="1202128969694" name="jetbrains.mps.baseLanguage.collections.structure.SelectOperation" flags="nn" index="3$u5V9" />
    </language>
  </registry>
  <node concept="5jCsv" id="6jDmPiUVU32">
    <property role="TrG5h" value="ConvertIntention" />
    <ref role="1hH6sV" to="tp3j:hmS6QkF" resolve="IntentionDeclaration" />
    <node concept="3Tm1VV" id="6jDmPiUVU33" role="1B3o_S" />
    <node concept="3tTeZs" id="6jDmPiUVU34" role="jymVt">
      <property role="3tTeZt" value="&lt;isApplicable = true&gt;" />
      <ref role="3tTeZr" to="6bz1:6yt8uwrpTKe" resolve="isApplicable" />
    </node>
    <node concept="2tJIrI" id="6jDmPiUVU35" role="jymVt" />
    <node concept="3tTeZs" id="6jDmPiUVU36" role="jymVt">
      <property role="3tTeZt" value="&lt;not applicable in children&gt;" />
      <ref role="3tTeZr" to="6bz1:6jDmPiUSJ$K" resolve="isApplicableInChild" />
    </node>
    <node concept="2tJIrI" id="2GsicqjYEwh" role="jymVt" />
    <node concept="3tTeZs" id="6jDmPiUVU3y" role="jymVt">
      <property role="3tTeZt" value="&lt;no parameter&gt;" />
      <ref role="3tTeZr" to="6bz1:2lJOBsqvJqh" resolve="Parameter" />
    </node>
    <node concept="2tJIrI" id="6jDmPiUVU37" role="jymVt" />
    <node concept="q3mfD" id="6jDmPiUVU38" role="jymVt">
      <property role="TrG5h" value="description" />
      <ref role="2VtyIY" to="6bz1:6yt8uwrpTIM" resolve="description" />
      <node concept="3Tm1VV" id="6jDmPiUVU3a" role="1B3o_S" />
      <node concept="3clFbS" id="6jDmPiUVU3c" role="3clF47">
        <node concept="3clFbF" id="6jDmPiUWfos" role="3cqZAp">
          <node concept="Xl_RD" id="6jDmPiUWfor" role="3clFbG">
            <property role="Xl_RC" value="convert intention" />
          </node>
        </node>
      </node>
      <node concept="ffn8J" id="6jDmPiUVU3e" role="3clF46">
        <property role="TrG5h" value="node" />
        <ref role="ffrpq" to="6bz1:6yt8uwrpTKC" resolve="node" />
        <node concept="q3mfm" id="6jDmPiUVU3d" role="1tU5fm">
          <ref role="q3mfh" to="6bz1:4d05DgIyMi" />
          <ref role="1QQUv3" node="6jDmPiUVU38" resolve="description" />
        </node>
      </node>
      <node concept="ffn8J" id="6jDmPiUVU3g" role="3clF46">
        <property role="TrG5h" value="editorContext" />
        <ref role="ffrpq" to="6bz1:6yt8uwrpTKG" resolve="editorContext" />
        <node concept="3uibUv" id="6jDmPiUVU3f" role="1tU5fm">
          <ref role="3uigEE" to="cj4x:~EditorContext" resolve="EditorContext" />
        </node>
      </node>
      <node concept="17QB3L" id="6jDmPiUVU3j" role="3clF45" />
    </node>
    <node concept="2tJIrI" id="6jDmPiUVU3k" role="jymVt" />
    <node concept="q3mfD" id="6jDmPiUVU3l" role="jymVt">
      <property role="TrG5h" value="execute" />
      <ref role="2VtyIY" to="6bz1:6yt8uwrpTsz" resolve="execute" />
      <node concept="3Tm1VV" id="6jDmPiUVU3n" role="1B3o_S" />
      <node concept="3clFbS" id="6jDmPiUVU3p" role="3clF47">
        <node concept="3cpWs8" id="6jDmPiUWf_h" role="3cqZAp">
          <node concept="3cpWsn" id="6jDmPiUWf_i" role="3cpWs9">
            <property role="TrG5h" value="oldIsErrorIntention" />
            <node concept="10P_77" id="6jDmPiUWf_j" role="1tU5fm" />
            <node concept="2OqwBi" id="6jDmPiUWf_k" role="33vP2m">
              <node concept="37vLTw" id="6jDmPiUWf_l" role="2Oq$k0">
                <ref role="3cqZAo" node="6jDmPiUVU3r" resolve="node" />
              </node>
              <node concept="3TrcHB" id="6jDmPiUWf_m" role="2OqNvi">
                <ref role="3TsBF5" to="tp3j:2c3oNEsfcpT" resolve="isErrorIntention" />
              </node>
            </node>
          </node>
        </node>
        <node concept="3cpWs8" id="6jDmPiUWf_n" role="3cqZAp">
          <node concept="3cpWsn" id="6jDmPiUWf_o" role="3cpWs9">
            <property role="TrG5h" value="oldIsAvailableInChildNodes" />
            <node concept="10P_77" id="6jDmPiUWf_p" role="1tU5fm" />
            <node concept="2OqwBi" id="6jDmPiUWf_q" role="33vP2m">
              <node concept="37vLTw" id="6jDmPiUWf_r" role="2Oq$k0">
                <ref role="3cqZAo" node="6jDmPiUVU3r" resolve="node" />
              </node>
              <node concept="3TrcHB" id="6jDmPiUWf_s" role="2OqNvi">
                <ref role="3TsBF5" to="tp3j:2c3oNEsfcpU" resolve="isAvailableInChildNodes" />
              </node>
            </node>
          </node>
        </node>
        <node concept="3cpWs8" id="6jDmPiUWf_t" role="3cqZAp">
          <node concept="3cpWsn" id="6jDmPiUWf_u" role="3cpWs9">
            <property role="TrG5h" value="oldExecute" />
            <node concept="3Tqbb2" id="6jDmPiUWf_v" role="1tU5fm">
              <ref role="ehGHo" to="tpee:fzclF80" resolve="StatementList" />
            </node>
            <node concept="2OqwBi" id="6jDmPiUWf_w" role="33vP2m">
              <node concept="2OqwBi" id="6jDmPiUWf_x" role="2Oq$k0">
                <node concept="37vLTw" id="6jDmPiUWf_y" role="2Oq$k0">
                  <ref role="3cqZAo" node="6jDmPiUVU3r" resolve="node" />
                </node>
                <node concept="3TrEf2" id="6jDmPiUWnk5" role="2OqNvi">
                  <ref role="3Tt5mk" to="tp3j:2c3oNEsfAwj" />
                </node>
              </node>
              <node concept="3TrEf2" id="6jDmPiUWf_$" role="2OqNvi">
                <ref role="3Tt5mk" to="tpee:gyVODHa" />
              </node>
            </node>
          </node>
        </node>
        <node concept="3cpWs8" id="6jDmPiUWf__" role="3cqZAp">
          <node concept="3cpWsn" id="6jDmPiUWf_A" role="3cpWs9">
            <property role="TrG5h" value="oldDescription" />
            <node concept="3Tqbb2" id="6jDmPiUWf_B" role="1tU5fm">
              <ref role="ehGHo" to="tpee:fzclF80" resolve="StatementList" />
            </node>
            <node concept="2OqwBi" id="6jDmPiUWf_C" role="33vP2m">
              <node concept="2OqwBi" id="6jDmPiUWf_D" role="2Oq$k0">
                <node concept="37vLTw" id="6jDmPiUWf_E" role="2Oq$k0">
                  <ref role="3cqZAo" node="6jDmPiUVU3r" resolve="node" />
                </node>
                <node concept="3TrEf2" id="6jDmPiUWmTR" role="2OqNvi">
                  <ref role="3Tt5mk" to="tp3j:2c3oNEsfd2D" />
                </node>
              </node>
              <node concept="3TrEf2" id="6jDmPiUWf_G" role="2OqNvi">
                <ref role="3Tt5mk" to="tpee:gyVODHa" />
              </node>
            </node>
          </node>
        </node>
        <node concept="3cpWs8" id="6jDmPiUWf_H" role="3cqZAp">
          <node concept="3cpWsn" id="6jDmPiUWf_I" role="3cpWs9">
            <property role="TrG5h" value="oldIsApplicable" />
            <node concept="3Tqbb2" id="6jDmPiUWf_J" role="1tU5fm">
              <ref role="ehGHo" to="tpee:fzclF80" resolve="StatementList" />
            </node>
            <node concept="2OqwBi" id="6jDmPiUWf_K" role="33vP2m">
              <node concept="2OqwBi" id="6jDmPiUWf_L" role="2Oq$k0">
                <node concept="37vLTw" id="6jDmPiUWf_M" role="2Oq$k0">
                  <ref role="3cqZAo" node="6jDmPiUVU3r" resolve="node" />
                </node>
                <node concept="3TrEf2" id="6jDmPiUWn6W" role="2OqNvi">
                  <ref role="3Tt5mk" to="tp3j:2c3oNEsfd2F" />
                </node>
              </node>
              <node concept="3TrEf2" id="6jDmPiUWf_O" role="2OqNvi">
                <ref role="3Tt5mk" to="tpee:gyVODHa" />
              </node>
            </node>
          </node>
        </node>
        <node concept="3cpWs8" id="6jDmPiUWf_P" role="3cqZAp">
          <node concept="3cpWsn" id="6jDmPiUWf_Q" role="3cpWs9">
            <property role="TrG5h" value="oldChildFilter" />
            <node concept="3Tqbb2" id="6jDmPiUWf_R" role="1tU5fm">
              <ref role="ehGHo" to="tpee:fzclF80" resolve="StatementList" />
            </node>
            <node concept="2OqwBi" id="6jDmPiUWf_S" role="33vP2m">
              <node concept="1PxgMI" id="6jDmPiUWf_T" role="2Oq$k0">
                <ref role="1m5ApE" to="tp3j:38RcvkhOs6V" resolve="ChildFilterFunction" />
                <node concept="2OqwBi" id="6jDmPiUWf_U" role="1m5AlR">
                  <node concept="37vLTw" id="6jDmPiUWf_V" role="2Oq$k0">
                    <ref role="3cqZAo" node="6jDmPiUVU3r" resolve="node" />
                  </node>
                  <node concept="3TrEf2" id="6jDmPiUWmn5" role="2OqNvi">
                    <ref role="3Tt5mk" to="tp3j:2c3oNEsfd2E" />
                  </node>
                </node>
              </node>
              <node concept="3TrEf2" id="6jDmPiUWf_X" role="2OqNvi">
                <ref role="3Tt5mk" to="tpee:gyVODHa" />
              </node>
            </node>
          </node>
        </node>
        <node concept="3clFbH" id="6jDmPiUWf_Y" role="3cqZAp" />
        <node concept="3SKdUt" id="6jDmPiUWf_Z" role="3cqZAp">
          <node concept="3SKdUq" id="6jDmPiUWfA0" role="3SKWNk">
            <property role="3SKdUp" value="create new intention" />
          </node>
        </node>
        <node concept="3cpWs8" id="6jDmPiUWfA1" role="3cqZAp">
          <node concept="3cpWsn" id="6jDmPiUWfA2" role="3cpWs9">
            <property role="TrG5h" value="newIntention" />
            <node concept="3Tqbb2" id="6jDmPiUWfA3" role="1tU5fm">
              <ref role="ehGHo" to="tp3j:77ZFhhOGiCb" resolve="Intention" />
            </node>
            <node concept="2ShNRf" id="6jDmPiUWfA4" role="33vP2m">
              <node concept="2fJWfE" id="6jDmPiUWfA5" role="2ShVmc">
                <node concept="3Tqbb2" id="6jDmPiUWfA6" role="3zrR0E">
                  <ref role="ehGHo" to="tp3j:77ZFhhOGiCb" resolve="Intention" />
                </node>
              </node>
            </node>
          </node>
        </node>
        <node concept="3clFbH" id="6jDmPiUWfA7" role="3cqZAp" />
        <node concept="3SKdUt" id="6jDmPiUWfA8" role="3cqZAp">
          <node concept="3SKdUq" id="6jDmPiUWfA9" role="3SKWNk">
            <property role="3SKdUp" value="obtain references to members" />
          </node>
        </node>
        <node concept="3clFbH" id="6jDmPiUWfAa" role="3cqZAp" />
        <node concept="3cpWs8" id="6jDmPiUWfAb" role="3cqZAp">
          <node concept="3cpWsn" id="6jDmPiUWfAc" role="3cpWs9">
            <property role="TrG5h" value="newExecute" />
            <node concept="3Tqbb2" id="6jDmPiUWfAd" role="1tU5fm">
              <ref role="ehGHo" to="oubp:3geGFOI0X5k" resolve="MethodInstance" />
            </node>
            <node concept="1PxgMI" id="6jDmPiUWfAe" role="33vP2m">
              <ref role="1m5ApE" to="oubp:3geGFOI0X5k" resolve="MethodInstance" />
              <node concept="2OqwBi" id="6jDmPiUWfAf" role="1m5AlR">
                <node concept="2OqwBi" id="6jDmPiUWfAg" role="2Oq$k0">
                  <node concept="3fl2lp" id="6jDmPiUWfAh" role="2Oq$k0">
                    <ref role="3fl3PK" to="6bz1:6yt8uwrpTsz" resolve="execute" />
                    <node concept="3B5_sB" id="6jDmPiUWfAi" role="3fl3PI">
                      <ref role="3B5MYn" to="6bz1:6yt8uwrpQZP" resolve="UniversalIntention" />
                    </node>
                  </node>
                  <node concept="2qgKlT" id="6jDmPiUWfAj" role="2OqNvi">
                    <ref role="37wK5l" to="9nqt:2gzehMfi1$l" resolve="find" />
                    <node concept="37vLTw" id="6jDmPiUWfAk" role="37wK5m">
                      <ref role="3cqZAo" node="6jDmPiUWfA2" resolve="newIntention" />
                    </node>
                  </node>
                </node>
                <node concept="1uHKPH" id="6jDmPiUWfAl" role="2OqNvi" />
              </node>
            </node>
          </node>
        </node>
        <node concept="3cpWs8" id="6jDmPiUWfAm" role="3cqZAp">
          <node concept="3cpWsn" id="6jDmPiUWfAn" role="3cpWs9">
            <property role="TrG5h" value="newDescription" />
            <node concept="3Tqbb2" id="6jDmPiUWfAo" role="1tU5fm">
              <ref role="ehGHo" to="oubp:3geGFOI0X5k" resolve="MethodInstance" />
            </node>
            <node concept="1PxgMI" id="6jDmPiUWfAp" role="33vP2m">
              <ref role="1m5ApE" to="oubp:3geGFOI0X5k" resolve="MethodInstance" />
              <node concept="2OqwBi" id="6jDmPiUWfAq" role="1m5AlR">
                <node concept="2OqwBi" id="6jDmPiUWfAr" role="2Oq$k0">
                  <node concept="3fl2lp" id="6jDmPiUWfAs" role="2Oq$k0">
                    <ref role="3fl3PK" to="6bz1:6yt8uwrpTIM" resolve="description" />
                    <node concept="3B5_sB" id="6jDmPiUWfAt" role="3fl3PI">
                      <ref role="3B5MYn" to="6bz1:6yt8uwrpQZP" resolve="UniversalIntention" />
                    </node>
                  </node>
                  <node concept="2qgKlT" id="6jDmPiUWfAu" role="2OqNvi">
                    <ref role="37wK5l" to="9nqt:2gzehMfi1$l" resolve="find" />
                    <node concept="37vLTw" id="6jDmPiUWfAv" role="37wK5m">
                      <ref role="3cqZAo" node="6jDmPiUWfA2" resolve="newIntention" />
                    </node>
                  </node>
                </node>
                <node concept="1uHKPH" id="6jDmPiUWfAw" role="2OqNvi" />
              </node>
            </node>
          </node>
        </node>
        <node concept="3clFbH" id="6jDmPiUWfAG" role="3cqZAp" />
        <node concept="3clFbJ" id="6jDmPiUWfAH" role="3cqZAp">
          <node concept="3clFbS" id="6jDmPiUWfAI" role="3clFbx">
            <node concept="3clFbF" id="6jDmPiUY599" role="3cqZAp">
              <node concept="2OqwBi" id="6jDmPiUY59b" role="3clFbG">
                <node concept="2OqwBi" id="6jDmPiUY59c" role="2Oq$k0">
                  <node concept="2OqwBi" id="6jDmPiUY59d" role="2Oq$k0">
                    <node concept="2qgKlT" id="6jDmPiUY59e" role="2OqNvi">
                      <ref role="37wK5l" to="9nqt:5ZzANK5B6wZ" resolve="findPlaceholders" />
                      <node concept="37vLTw" id="6jDmPiUY59f" role="37wK5m">
                        <ref role="3cqZAo" node="6jDmPiUWfA2" resolve="newIntention" />
                      </node>
                    </node>
                    <node concept="3fl2lp" id="6jDmPiUY59g" role="2Oq$k0">
                      <ref role="3fl3PK" to="6bz1:6jDmPiUSJ$K" resolve="isApplicableInChild" />
                      <node concept="3B5_sB" id="6jDmPiUY59h" role="3fl3PI">
                        <ref role="3B5MYn" to="6bz1:6yt8uwrpQZP" resolve="UniversalIntention" />
                      </node>
                    </node>
                  </node>
                  <node concept="1uHKPH" id="6jDmPiUY59i" role="2OqNvi" />
                </node>
                <node concept="1P9Npp" id="6jDmPiV0iya" role="2OqNvi">
                  <node concept="2OqwBi" id="6jDmPiV08NY" role="1P9ThW">
                    <node concept="3fl2lp" id="6jDmPiV08NZ" role="2Oq$k0">
                      <ref role="3fl3PK" to="6bz1:6jDmPiUSJ$K" resolve="isApplicableInChild" />
                      <node concept="3B5_sB" id="6jDmPiV08O0" role="3fl3PI">
                        <ref role="3B5MYn" to="6bz1:6yt8uwrpQZP" resolve="UniversalIntention" />
                      </node>
                    </node>
                    <node concept="2qgKlT" id="6jDmPiV08O1" role="2OqNvi">
                      <ref role="37wK5l" to="9nqt:7ay_HjIOVVe" resolve="create" />
                    </node>
                  </node>
                </node>
              </node>
            </node>
            <node concept="3cpWs8" id="6jDmPiUWfAx" role="3cqZAp">
              <node concept="3cpWsn" id="6jDmPiUWfAy" role="3cpWs9">
                <property role="TrG5h" value="newIsApplicableInChild" />
                <node concept="3Tqbb2" id="6jDmPiUWfAz" role="1tU5fm">
                  <ref role="ehGHo" to="oubp:3geGFOI0X5k" resolve="MethodInstance" />
                </node>
                <node concept="1PxgMI" id="6jDmPiUWfA$" role="33vP2m">
                  <ref role="1m5ApE" to="oubp:3geGFOI0X5k" resolve="MethodInstance" />
                  <node concept="2OqwBi" id="6jDmPiUWfA_" role="1m5AlR">
                    <node concept="2OqwBi" id="6jDmPiUWfAA" role="2Oq$k0">
                      <node concept="3fl2lp" id="6jDmPiUWfAB" role="2Oq$k0">
                        <ref role="3fl3PK" to="6bz1:6jDmPiUSJ$K" resolve="isApplicableInChild" />
                        <node concept="3B5_sB" id="6jDmPiUWfAC" role="3fl3PI">
                          <ref role="3B5MYn" to="6bz1:6yt8uwrpQZP" resolve="UniversalIntention" />
                        </node>
                      </node>
                      <node concept="2qgKlT" id="6jDmPiUWfAD" role="2OqNvi">
                        <ref role="37wK5l" to="9nqt:2gzehMfi1$l" resolve="find" />
                        <node concept="37vLTw" id="6jDmPiUWfAE" role="37wK5m">
                          <ref role="3cqZAo" node="6jDmPiUWfA2" resolve="newIntention" />
                        </node>
                      </node>
                    </node>
                    <node concept="1uHKPH" id="6jDmPiUWfAF" role="2OqNvi" />
                  </node>
                </node>
              </node>
            </node>
            <node concept="3clFbJ" id="6jDmPiUWfAJ" role="3cqZAp">
              <node concept="3clFbS" id="6jDmPiUWfAK" role="3clFbx">
                <node concept="3clFbF" id="6jDmPiUWfAL" role="3cqZAp">
                  <node concept="2OqwBi" id="6jDmPiUWfAM" role="3clFbG">
                    <node concept="2OqwBi" id="6jDmPiUWfAN" role="2Oq$k0">
                      <node concept="2OqwBi" id="6jDmPiUWfAO" role="2Oq$k0">
                        <node concept="37vLTw" id="6jDmPiUY2Qn" role="2Oq$k0">
                          <ref role="3cqZAo" node="6jDmPiUWfAy" resolve="newIsApplicableInChild" />
                        </node>
                        <node concept="3TrEf2" id="6jDmPiUY4oB" role="2OqNvi">
                          <ref role="3Tt5mk" to="tpee:fzclF7Z" />
                        </node>
                      </node>
                      <node concept="3Tsc0h" id="6jDmPiUWfAR" role="2OqNvi">
                        <ref role="3TtcxE" to="tpee:fzcqZ_x" />
                      </node>
                    </node>
                    <node concept="TSZUe" id="6jDmPiUWfAS" role="2OqNvi">
                      <node concept="2c44tf" id="6jDmPiUWfAT" role="25WWJ7">
                        <node concept="3cpWs6" id="6jDmPiUWfAU" role="2c44tc">
                          <node concept="3clFbT" id="6jDmPiUWfAV" role="3cqZAk">
                            <property role="3clFbU" value="true" />
                          </node>
                        </node>
                      </node>
                    </node>
                  </node>
                </node>
              </node>
              <node concept="2OqwBi" id="6jDmPiUWfAW" role="3clFbw">
                <node concept="37vLTw" id="6jDmPiUWfAX" role="2Oq$k0">
                  <ref role="3cqZAo" node="6jDmPiUWf_Q" resolve="oldChildFilter" />
                </node>
                <node concept="3w_OXm" id="6jDmPiUWfAY" role="2OqNvi" />
              </node>
              <node concept="9aQIb" id="6jDmPiUWfAZ" role="9aQIa">
                <node concept="3clFbS" id="6jDmPiUWfB0" role="9aQI4">
                  <node concept="3clFbF" id="6jDmPiUWfB1" role="3cqZAp">
                    <node concept="1rXfSq" id="6jDmPiUWfB2" role="3clFbG">
                      <ref role="37wK5l" node="6jDmPiUWsmf" resolve="copyFunctionBody" />
                      <node concept="37vLTw" id="6jDmPiUWfB3" role="37wK5m">
                        <ref role="3cqZAo" node="6jDmPiUWf_Q" resolve="oldChildFilter" />
                      </node>
                      <node concept="37vLTw" id="6jDmPiUWfB4" role="37wK5m">
                        <ref role="3cqZAo" node="6jDmPiUWfAy" resolve="newIsApplicableInChild" />
                      </node>
                    </node>
                  </node>
                  <node concept="3clFbF" id="6jDmPiUWfB5" role="3cqZAp">
                    <node concept="1rXfSq" id="6jDmPiUWfB6" role="3clFbG">
                      <ref role="37wK5l" node="6jDmPiUWsn7" resolve="resolveChildFilterRefernce" />
                      <node concept="37vLTw" id="6jDmPiUWfB7" role="37wK5m">
                        <ref role="3cqZAo" node="6jDmPiUWfAy" resolve="newIsApplicableInChild" />
                      </node>
                      <node concept="37vLTw" id="6jDmPiUWfB8" role="37wK5m">
                        <ref role="3cqZAo" node="6jDmPiUWfAy" resolve="newIsApplicableInChild" />
                      </node>
                    </node>
                  </node>
                </node>
              </node>
            </node>
          </node>
          <node concept="37vLTw" id="6jDmPiUWfB9" role="3clFbw">
            <ref role="3cqZAo" node="6jDmPiUWf_o" resolve="oldIsAvailableInChildNodes" />
          </node>
        </node>
        <node concept="3clFbH" id="6jDmPiUWfBa" role="3cqZAp" />
        <node concept="3clFbJ" id="6jDmPiUWfBb" role="3cqZAp">
          <node concept="3clFbS" id="6jDmPiUWfBc" role="3clFbx">
            <node concept="3clFbF" id="6jDmPiUWfBy" role="3cqZAp">
              <node concept="2OqwBi" id="6jDmPiUWfBz" role="3clFbG">
                <node concept="2OqwBi" id="6jDmPiUWfB$" role="2Oq$k0">
                  <node concept="2OqwBi" id="6jDmPiUWfB_" role="2Oq$k0">
                    <node concept="2qgKlT" id="6jDmPiUWfBA" role="2OqNvi">
                      <ref role="37wK5l" to="9nqt:5ZzANK5B6wZ" resolve="findPlaceholders" />
                      <node concept="37vLTw" id="6jDmPiUWfBB" role="37wK5m">
                        <ref role="3cqZAo" node="6jDmPiUWfA2" resolve="newIntention" />
                      </node>
                    </node>
                    <node concept="3fl2lp" id="6jDmPiUWfBC" role="2Oq$k0">
                      <ref role="3fl3PK" to="6bz1:6yt8uwrpTKe" resolve="isApplicable" />
                      <node concept="3B5_sB" id="6jDmPiUWfBD" role="3fl3PI">
                        <ref role="3B5MYn" to="6bz1:6yt8uwrpQZP" resolve="UniversalIntention" />
                      </node>
                    </node>
                  </node>
                  <node concept="1uHKPH" id="6jDmPiUWfBE" role="2OqNvi" />
                </node>
                <node concept="1P9Npp" id="6jDmPiV0lAg" role="2OqNvi">
                  <node concept="2OqwBi" id="6jDmPiV0c_2" role="1P9ThW">
                    <node concept="2qgKlT" id="6jDmPiV0c_3" role="2OqNvi">
                      <ref role="37wK5l" to="9nqt:7ay_HjIOVVe" resolve="create" />
                    </node>
                    <node concept="3fl2lp" id="6jDmPiV0c_4" role="2Oq$k0">
                      <ref role="3fl3PK" to="6bz1:6yt8uwrpTKe" resolve="isApplicable" />
                      <node concept="3B5_sB" id="6jDmPiV0c_5" role="3fl3PI">
                        <ref role="3B5MYn" to="6bz1:6yt8uwrpQZP" resolve="UniversalIntention" />
                      </node>
                    </node>
                  </node>
                </node>
              </node>
            </node>
            <node concept="3cpWs8" id="6jDmPiUWfBn" role="3cqZAp">
              <node concept="3cpWsn" id="6jDmPiUWfBo" role="3cpWs9">
                <property role="TrG5h" value="newIsApplicable" />
                <node concept="3Tqbb2" id="6jDmPiUWfBp" role="1tU5fm">
                  <ref role="ehGHo" to="oubp:3geGFOI0X5k" resolve="MethodInstance" />
                </node>
                <node concept="1PxgMI" id="6jDmPiUWfBq" role="33vP2m">
                  <ref role="1m5ApE" to="oubp:3geGFOI0X5k" resolve="MethodInstance" />
                  <node concept="2OqwBi" id="6jDmPiUWfBr" role="1m5AlR">
                    <node concept="2OqwBi" id="6jDmPiUWfBs" role="2Oq$k0">
                      <node concept="2qgKlT" id="6jDmPiUWfBt" role="2OqNvi">
                        <ref role="37wK5l" to="9nqt:2gzehMfi1$l" resolve="find" />
                        <node concept="37vLTw" id="6jDmPiUWfBu" role="37wK5m">
                          <ref role="3cqZAo" node="6jDmPiUWfA2" resolve="newIntention" />
                        </node>
                      </node>
                      <node concept="3fl2lp" id="6jDmPiUWfBv" role="2Oq$k0">
                        <ref role="3fl3PK" to="6bz1:6yt8uwrpTKe" resolve="isApplicable" />
                        <node concept="3B5_sB" id="6jDmPiUWfBw" role="3fl3PI">
                          <ref role="3B5MYn" to="6bz1:6yt8uwrpQZP" resolve="UniversalIntention" />
                        </node>
                      </node>
                    </node>
                    <node concept="1uHKPH" id="6jDmPiUWfBx" role="2OqNvi" />
                  </node>
                </node>
              </node>
            </node>
            <node concept="3clFbH" id="6jDmPiUWfBG" role="3cqZAp" />
            <node concept="3clFbF" id="6jDmPiUWfBH" role="3cqZAp">
              <node concept="1rXfSq" id="6jDmPiUWfBI" role="3clFbG">
                <ref role="37wK5l" node="6jDmPiUWsmf" resolve="copyFunctionBody" />
                <node concept="37vLTw" id="6jDmPiUWfBJ" role="37wK5m">
                  <ref role="3cqZAo" node="6jDmPiUWf_I" resolve="oldIsApplicable" />
                </node>
                <node concept="37vLTw" id="6jDmPiUWfBK" role="37wK5m">
                  <ref role="3cqZAo" node="6jDmPiUWfBo" resolve="newIsApplicable" />
                </node>
              </node>
            </node>
            <node concept="3clFbF" id="6jDmPiUWfBL" role="3cqZAp">
              <node concept="1rXfSq" id="6jDmPiUWfBM" role="3clFbG">
                <ref role="37wK5l" node="6jDmPiUWso2" resolve="resolveReference" />
                <node concept="37vLTw" id="6jDmPiUWfBN" role="37wK5m">
                  <ref role="3cqZAo" node="6jDmPiUWfBo" resolve="newIsApplicable" />
                </node>
                <node concept="37vLTw" id="6jDmPiUWfBO" role="37wK5m">
                  <ref role="3cqZAo" node="6jDmPiUWfBo" resolve="newIsApplicable" />
                </node>
              </node>
            </node>
          </node>
          <node concept="2OqwBi" id="6jDmPiUWfBP" role="3clFbw">
            <node concept="2OqwBi" id="6jDmPiUWfBQ" role="2Oq$k0">
              <node concept="37vLTw" id="6jDmPiUWfBR" role="2Oq$k0">
                <ref role="3cqZAo" node="6jDmPiUVU3r" resolve="node" />
              </node>
              <node concept="3TrEf2" id="6jDmPiUWn$p" role="2OqNvi">
                <ref role="3Tt5mk" to="tp3j:2c3oNEsfd2F" />
              </node>
            </node>
            <node concept="3x8VRR" id="6jDmPiUWfBT" role="2OqNvi" />
          </node>
        </node>
        <node concept="3clFbH" id="6jDmPiUWfBU" role="3cqZAp" />
        <node concept="3SKdUt" id="6jDmPiUWfBV" role="3cqZAp">
          <node concept="3SKdUq" id="6jDmPiUWfBW" role="3SKWNk">
            <property role="3SKdUp" value="set members" />
          </node>
        </node>
        <node concept="3clFbF" id="6jDmPiUWfBX" role="3cqZAp">
          <node concept="37vLTI" id="6jDmPiUWfBY" role="3clFbG">
            <node concept="2OqwBi" id="6jDmPiUWfBZ" role="37vLTx">
              <node concept="37vLTw" id="6jDmPiUWfC0" role="2Oq$k0">
                <ref role="3cqZAo" node="6jDmPiUVU3r" resolve="node" />
              </node>
              <node concept="3TrcHB" id="6jDmPiUWfC1" role="2OqNvi">
                <ref role="3TsBF5" to="tpck:h0TrG11" resolve="name" />
              </node>
            </node>
            <node concept="2OqwBi" id="6jDmPiUWfC2" role="37vLTJ">
              <node concept="37vLTw" id="6jDmPiUWfC3" role="2Oq$k0">
                <ref role="3cqZAo" node="6jDmPiUWfA2" resolve="newIntention" />
              </node>
              <node concept="3TrcHB" id="6jDmPiUWfC4" role="2OqNvi">
                <ref role="3TsBF5" to="tpck:h0TrG11" resolve="name" />
              </node>
            </node>
          </node>
        </node>
        <node concept="3clFbF" id="6jDmPiUWfC5" role="3cqZAp">
          <node concept="2OqwBi" id="6jDmPiUWfC6" role="3clFbG">
            <node concept="2OqwBi" id="6jDmPiUWfC7" role="2Oq$k0">
              <node concept="37vLTw" id="6jDmPiUWfC8" role="2Oq$k0">
                <ref role="3cqZAo" node="6jDmPiUWfA2" resolve="newIntention" />
              </node>
              <node concept="3TrEf2" id="6jDmPiUWfC9" role="2OqNvi">
                <ref role="3Tt5mk" to="tp3j:4d05DgImtx" />
              </node>
            </node>
            <node concept="2oxUTD" id="6jDmPiUWfCa" role="2OqNvi">
              <node concept="2OqwBi" id="6jDmPiUWfCb" role="2oxUTC">
                <node concept="37vLTw" id="6jDmPiUWfCc" role="2Oq$k0">
                  <ref role="3cqZAo" node="6jDmPiUVU3r" resolve="node" />
                </node>
                <node concept="3TrEf2" id="6jDmPiUWmF6" role="2OqNvi">
                  <ref role="3Tt5mk" to="tp3j:2c3oNEsfAwi" />
                </node>
              </node>
            </node>
          </node>
        </node>
        <node concept="3clFbH" id="6jDmPiUWfCe" role="3cqZAp" />
        <node concept="3clFbF" id="6jDmPiUWfCf" role="3cqZAp">
          <node concept="1rXfSq" id="6jDmPiUWfCg" role="3clFbG">
            <ref role="37wK5l" node="6jDmPiUWsmf" resolve="copyFunctionBody" />
            <node concept="37vLTw" id="6jDmPiUWfCh" role="37wK5m">
              <ref role="3cqZAo" node="6jDmPiUWf_A" resolve="oldDescription" />
            </node>
            <node concept="37vLTw" id="6jDmPiUWfCi" role="37wK5m">
              <ref role="3cqZAo" node="6jDmPiUWfAn" resolve="newDescription" />
            </node>
          </node>
        </node>
        <node concept="3clFbF" id="6jDmPiUWfCj" role="3cqZAp">
          <node concept="1rXfSq" id="6jDmPiUWfCk" role="3clFbG">
            <ref role="37wK5l" node="6jDmPiUWso2" resolve="resolveReference" />
            <node concept="37vLTw" id="6jDmPiUWfCl" role="37wK5m">
              <ref role="3cqZAo" node="6jDmPiUWfAn" resolve="newDescription" />
            </node>
            <node concept="37vLTw" id="6jDmPiUWfCm" role="37wK5m">
              <ref role="3cqZAo" node="6jDmPiUWfAn" resolve="newDescription" />
            </node>
          </node>
        </node>
        <node concept="3clFbH" id="6jDmPiUWfCn" role="3cqZAp" />
        <node concept="3clFbF" id="6jDmPiUWfCo" role="3cqZAp">
          <node concept="1rXfSq" id="6jDmPiUWfCp" role="3clFbG">
            <ref role="37wK5l" node="6jDmPiUWsmf" resolve="copyFunctionBody" />
            <node concept="37vLTw" id="6jDmPiUWfCq" role="37wK5m">
              <ref role="3cqZAo" node="6jDmPiUWf_u" resolve="oldExecute" />
            </node>
            <node concept="37vLTw" id="6jDmPiUWfCr" role="37wK5m">
              <ref role="3cqZAo" node="6jDmPiUWfAc" resolve="newExecute" />
            </node>
          </node>
        </node>
        <node concept="3clFbF" id="6jDmPiUWfCs" role="3cqZAp">
          <node concept="1rXfSq" id="6jDmPiUWfCt" role="3clFbG">
            <ref role="37wK5l" node="6jDmPiUWso2" resolve="resolveReference" />
            <node concept="37vLTw" id="6jDmPiUWfCu" role="37wK5m">
              <ref role="3cqZAo" node="6jDmPiUWfAc" resolve="newExecute" />
            </node>
            <node concept="37vLTw" id="6jDmPiUWfCv" role="37wK5m">
              <ref role="3cqZAo" node="6jDmPiUWfAc" resolve="newExecute" />
            </node>
          </node>
        </node>
        <node concept="3clFbH" id="6jDmPiUWfCw" role="3cqZAp" />
        <node concept="3clFbJ" id="6jDmPiUWfCx" role="3cqZAp">
          <node concept="3clFbS" id="6jDmPiUWfCy" role="3clFbx">
            <node concept="3clFbF" id="6jDmPiUWfCz" role="3cqZAp">
              <node concept="37vLTI" id="6jDmPiUWfC$" role="3clFbG">
                <node concept="2ShNRf" id="6jDmPiUWfC_" role="37vLTx">
                  <node concept="3zrR0B" id="6jDmPiUWfCA" role="2ShVmc">
                    <node concept="3Tqbb2" id="6jDmPiUWfCB" role="3zrR0E">
                      <ref role="ehGHo" to="tp3j:5_2vHPPt4ol" resolve="ErrorIntentionPriority" />
                    </node>
                  </node>
                </node>
                <node concept="2OqwBi" id="6jDmPiUWfCC" role="37vLTJ">
                  <node concept="37vLTw" id="6jDmPiUWfCD" role="2Oq$k0">
                    <ref role="3cqZAo" node="6jDmPiUWfA2" resolve="newIntention" />
                  </node>
                  <node concept="3TrEf2" id="6jDmPiUWfCE" role="2OqNvi">
                    <ref role="3Tt5mk" to="tp3j:5_2vHPPt4pL" />
                  </node>
                </node>
              </node>
            </node>
          </node>
          <node concept="37vLTw" id="6jDmPiUWfCF" role="3clFbw">
            <ref role="3cqZAo" node="6jDmPiUWf_i" resolve="oldIsErrorIntention" />
          </node>
        </node>
        <node concept="3clFbH" id="6jDmPiUWfCG" role="3cqZAp" />
        <node concept="3clFbH" id="6jDmPiUWfCH" role="3cqZAp" />
        <node concept="3clFbF" id="6jDmPiUWfCI" role="3cqZAp">
          <node concept="2OqwBi" id="6jDmPiUWfCJ" role="3clFbG">
            <node concept="2OqwBi" id="6jDmPiUWfCK" role="2Oq$k0">
              <node concept="37vLTw" id="6jDmPiUWfCL" role="2Oq$k0">
                <ref role="3cqZAo" node="6jDmPiUWfA2" resolve="newIntention" />
              </node>
              <node concept="3TrcHB" id="6jDmPiUWfCM" role="2OqNvi">
                <ref role="3TsBF5" to="tpck:hnGE5uv" resolve="virtualPackage" />
              </node>
            </node>
            <node concept="tyxLq" id="6jDmPiUWfCN" role="2OqNvi">
              <node concept="2OqwBi" id="6jDmPiUWfCO" role="tz02z">
                <node concept="37vLTw" id="6jDmPiUWfCP" role="2Oq$k0">
                  <ref role="3cqZAo" node="6jDmPiUVU3r" resolve="node" />
                </node>
                <node concept="3TrcHB" id="6jDmPiUWfCQ" role="2OqNvi">
                  <ref role="3TsBF5" to="tpck:hnGE5uv" resolve="virtualPackage" />
                </node>
              </node>
            </node>
          </node>
        </node>
        <node concept="3clFbF" id="6jDmPiUWfCR" role="3cqZAp">
          <node concept="2OqwBi" id="6jDmPiUWfCS" role="3clFbG">
            <node concept="2OqwBi" id="6jDmPiUWfCT" role="2Oq$k0">
              <node concept="37vLTw" id="6jDmPiUWfCU" role="2Oq$k0">
                <ref role="3cqZAo" node="6jDmPiUVU3r" resolve="node" />
              </node>
              <node concept="I4A8Y" id="6jDmPiUWfCV" role="2OqNvi" />
            </node>
            <node concept="3BYIHo" id="6jDmPiUWfCW" role="2OqNvi">
              <node concept="37vLTw" id="6jDmPiUWfCX" role="3BYIHq">
                <ref role="3cqZAo" node="6jDmPiUWfA2" resolve="newIntention" />
              </node>
            </node>
          </node>
        </node>
      </node>
      <node concept="ffn8J" id="6jDmPiUVU3r" role="3clF46">
        <property role="TrG5h" value="node" />
        <ref role="ffrpq" to="6bz1:6yt8uwrpTIs" resolve="node" />
        <node concept="q3mfm" id="6jDmPiUVU3q" role="1tU5fm">
          <ref role="q3mfh" to="6bz1:4d05DgIiRs" />
          <ref role="1QQUv3" node="6jDmPiUVU3l" resolve="execute" />
        </node>
      </node>
      <node concept="ffn8J" id="6jDmPiUVU3t" role="3clF46">
        <property role="TrG5h" value="editorContext" />
        <ref role="ffrpq" to="6bz1:4d05DgIzcr" resolve="editorContext" />
        <node concept="3uibUv" id="6jDmPiUVU3s" role="1tU5fm">
          <ref role="3uigEE" to="cj4x:~EditorContext" resolve="EditorContext" />
        </node>
      </node>
      <node concept="3cqZAl" id="6jDmPiUVU3w" role="3clF45" />
    </node>
    <node concept="2tJIrI" id="6jDmPiUWs28" role="jymVt" />
    <node concept="3clFb_" id="6jDmPiUWsmf" role="jymVt">
      <property role="1EzhhJ" value="false" />
      <property role="TrG5h" value="copyFunctionBody" />
      <property role="od$2w" value="false" />
      <property role="DiZV1" value="false" />
      <property role="2aFKle" value="false" />
      <node concept="3clFbS" id="6jDmPiUWsmg" role="3clF47">
        <node concept="3clFbF" id="6jDmPiUWsmh" role="3cqZAp">
          <node concept="2OqwBi" id="6jDmPiUWsmi" role="3clFbG">
            <node concept="2OqwBi" id="6jDmPiUWsmj" role="2Oq$k0">
              <node concept="2OqwBi" id="6jDmPiUWsmk" role="2Oq$k0">
                <node concept="37vLTw" id="6jDmPiUWsml" role="2Oq$k0">
                  <ref role="3cqZAo" node="6jDmPiUWsmE" resolve="to" />
                </node>
                <node concept="3TrEf2" id="6jDmPiUWsmm" role="2OqNvi">
                  <ref role="3Tt5mk" to="tpee:fzclF7Z" />
                </node>
              </node>
              <node concept="3Tsc0h" id="6jDmPiUWsmn" role="2OqNvi">
                <ref role="3TtcxE" to="tpee:fzcqZ_x" />
              </node>
            </node>
            <node concept="X8dFx" id="6jDmPiUWsmo" role="2OqNvi">
              <node concept="2OqwBi" id="6jDmPiUWsmp" role="25WWJ7">
                <node concept="2OqwBi" id="6jDmPiUWsmq" role="2Oq$k0">
                  <node concept="37vLTw" id="6jDmPiUWsmr" role="2Oq$k0">
                    <ref role="3cqZAo" node="6jDmPiUWsmC" resolve="from" />
                  </node>
                  <node concept="3Tsc0h" id="6jDmPiUWsms" role="2OqNvi">
                    <ref role="3TtcxE" to="tpee:fzcqZ_x" />
                  </node>
                </node>
                <node concept="3$u5V9" id="6jDmPiUWsmt" role="2OqNvi">
                  <node concept="1bVj0M" id="6jDmPiUWsmu" role="23t8la">
                    <node concept="3clFbS" id="6jDmPiUWsmv" role="1bW5cS">
                      <node concept="3clFbF" id="6jDmPiUWsmw" role="3cqZAp">
                        <node concept="2OqwBi" id="6jDmPiUWsmx" role="3clFbG">
                          <node concept="37vLTw" id="6jDmPiUWsmy" role="2Oq$k0">
                            <ref role="3cqZAo" node="6jDmPiUWsm$" resolve="it" />
                          </node>
                          <node concept="1$rogu" id="6jDmPiUWsmz" role="2OqNvi" />
                        </node>
                      </node>
                    </node>
                    <node concept="Rh6nW" id="6jDmPiUWsm$" role="1bW2Oz">
                      <property role="TrG5h" value="it" />
                      <node concept="2jxLKc" id="6jDmPiUWsm_" role="1tU5fm" />
                    </node>
                  </node>
                </node>
              </node>
            </node>
          </node>
        </node>
      </node>
      <node concept="3Tm6S6" id="6jDmPiUWsmA" role="1B3o_S" />
      <node concept="3cqZAl" id="6jDmPiUWsmB" role="3clF45" />
      <node concept="37vLTG" id="6jDmPiUWsmC" role="3clF46">
        <property role="TrG5h" value="from" />
        <node concept="3Tqbb2" id="6jDmPiUWsmD" role="1tU5fm">
          <ref role="ehGHo" to="tpee:fzclF80" resolve="StatementList" />
        </node>
      </node>
      <node concept="37vLTG" id="6jDmPiUWsmE" role="3clF46">
        <property role="TrG5h" value="to" />
        <node concept="3Tqbb2" id="6jDmPiUWsmF" role="1tU5fm">
          <ref role="ehGHo" to="oubp:3geGFOI0X5k" resolve="MethodInstance" />
        </node>
      </node>
    </node>
    <node concept="2tJIrI" id="6jDmPiUWsmG" role="jymVt" />
    <node concept="3clFb_" id="6jDmPiUWsmH" role="jymVt">
      <property role="1EzhhJ" value="false" />
      <property role="TrG5h" value="createParameterReference" />
      <property role="od$2w" value="false" />
      <property role="DiZV1" value="false" />
      <property role="2aFKle" value="false" />
      <node concept="3clFbS" id="6jDmPiUWsmI" role="3clF47">
        <node concept="3cpWs8" id="6jDmPiUWsmJ" role="3cqZAp">
          <node concept="3cpWsn" id="6jDmPiUWsmK" role="3cpWs9">
            <property role="TrG5h" value="nodeRef" />
            <node concept="3Tqbb2" id="6jDmPiUWsmL" role="1tU5fm">
              <ref role="ehGHo" to="tpee:fz7vLUo" resolve="VariableReference" />
            </node>
            <node concept="2ShNRf" id="6jDmPiUWsmM" role="33vP2m">
              <node concept="2fJWfE" id="6jDmPiUWsmN" role="2ShVmc">
                <node concept="3Tqbb2" id="6jDmPiUWsmO" role="3zrR0E">
                  <ref role="ehGHo" to="tpee:fz7vLUo" resolve="VariableReference" />
                </node>
              </node>
            </node>
          </node>
        </node>
        <node concept="3clFbF" id="6jDmPiUWsmP" role="3cqZAp">
          <node concept="37vLTI" id="6jDmPiUWsmQ" role="3clFbG">
            <node concept="2OqwBi" id="6jDmPiUWsmR" role="37vLTJ">
              <node concept="37vLTw" id="6jDmPiUWsmS" role="2Oq$k0">
                <ref role="3cqZAo" node="6jDmPiUWsmK" resolve="nodeRef" />
              </node>
              <node concept="3TrEf2" id="6jDmPiUWsmT" role="2OqNvi">
                <ref role="3Tt5mk" to="tpee:fzcqZ_w" />
              </node>
            </node>
            <node concept="2OqwBi" id="6jDmPiUWsmU" role="37vLTx">
              <node concept="37vLTw" id="6jDmPiUWsmV" role="2Oq$k0">
                <ref role="3cqZAo" node="6jDmPiUWsn2" resolve="parameters" />
              </node>
              <node concept="34jXtK" id="6jDmPiUWsmW" role="2OqNvi">
                <node concept="37vLTw" id="6jDmPiUWsmX" role="25WWJ7">
                  <ref role="3cqZAo" node="6jDmPiUWsn4" resolve="argumentNumber" />
                </node>
              </node>
            </node>
          </node>
        </node>
        <node concept="3cpWs6" id="6jDmPiUWsmY" role="3cqZAp">
          <node concept="37vLTw" id="6jDmPiUWsmZ" role="3cqZAk">
            <ref role="3cqZAo" node="6jDmPiUWsmK" resolve="nodeRef" />
          </node>
        </node>
      </node>
      <node concept="3Tm6S6" id="6jDmPiUWsn0" role="1B3o_S" />
      <node concept="3Tqbb2" id="6jDmPiUWsn1" role="3clF45">
        <ref role="ehGHo" to="tpee:fz7vLUo" resolve="VariableReference" />
      </node>
      <node concept="37vLTG" id="6jDmPiUWsn2" role="3clF46">
        <property role="TrG5h" value="parameters" />
        <node concept="2I9FWS" id="6jDmPiUWsn3" role="1tU5fm">
          <ref role="2I9WkF" to="tpee:fz7vLUk" resolve="ParameterDeclaration" />
        </node>
      </node>
      <node concept="37vLTG" id="6jDmPiUWsn4" role="3clF46">
        <property role="TrG5h" value="argumentNumber" />
        <node concept="10Oyi0" id="6jDmPiUWsn5" role="1tU5fm" />
      </node>
    </node>
    <node concept="2tJIrI" id="6jDmPiUWsn6" role="jymVt" />
    <node concept="3clFb_" id="6jDmPiUWsn7" role="jymVt">
      <property role="1EzhhJ" value="false" />
      <property role="TrG5h" value="resolveChildFilterRefernce" />
      <property role="od$2w" value="false" />
      <property role="DiZV1" value="false" />
      <property role="2aFKle" value="false" />
      <node concept="3clFbS" id="6jDmPiUWsn8" role="3clF47">
        <node concept="1_3QMa" id="6jDmPiUWsn9" role="3cqZAp">
          <node concept="2OqwBi" id="4y11RyiX27j" role="1_3QMn">
            <node concept="37vLTw" id="6jDmPiUWsna" role="2Oq$k0">
              <ref role="3cqZAo" node="6jDmPiUWsnZ" resolve="node" />
            </node>
            <node concept="2yIwOk" id="4y11RyiX2fX" role="2OqNvi" />
          </node>
          <node concept="1_3QMl" id="6jDmPiUWsnb" role="1_3QMm">
            <node concept="3gn64h" id="6jDmPiUWsnc" role="3Kbmr1">
              <ref role="3gnhBz" to="tp3j:hmSf5oI" resolve="ConceptFunctionParameter_node" />
            </node>
            <node concept="3clFbS" id="6jDmPiUWsnd" role="3Kbo56">
              <node concept="3clFbF" id="6jDmPiUWsne" role="3cqZAp">
                <node concept="2OqwBi" id="6jDmPiUWsnf" role="3clFbG">
                  <node concept="37vLTw" id="6jDmPiUWsng" role="2Oq$k0">
                    <ref role="3cqZAo" node="6jDmPiUWsnZ" resolve="node" />
                  </node>
                  <node concept="1P9Npp" id="6jDmPiUWsnh" role="2OqNvi">
                    <node concept="1rXfSq" id="6jDmPiUWsni" role="1P9ThW">
                      <ref role="37wK5l" node="6jDmPiUWsmH" resolve="createParameterReference" />
                      <node concept="2OqwBi" id="6jDmPiUWsnj" role="37wK5m">
                        <node concept="37vLTw" id="6jDmPiUWsnk" role="2Oq$k0">
                          <ref role="3cqZAo" node="6jDmPiUWsnX" resolve="root" />
                        </node>
                        <node concept="3Tsc0h" id="6jDmPiUWsnl" role="2OqNvi">
                          <ref role="3TtcxE" to="tpee:fzclF7Y" />
                        </node>
                      </node>
                      <node concept="3cmrfG" id="6jDmPiUWsnm" role="37wK5m">
                        <property role="3cmrfH" value="0" />
                      </node>
                    </node>
                  </node>
                </node>
              </node>
            </node>
          </node>
          <node concept="1_3QMl" id="6jDmPiUWsnn" role="1_3QMm">
            <node concept="3gn64h" id="6jDmPiUWsno" role="3Kbmr1">
              <ref role="3gnhBz" to="tp3j:38RcvkhOstg" resolve="ConceptFunctionParameter_childNode" />
            </node>
            <node concept="3clFbS" id="6jDmPiUWsnp" role="3Kbo56">
              <node concept="3clFbF" id="6jDmPiUWsnq" role="3cqZAp">
                <node concept="2OqwBi" id="6jDmPiUWsnr" role="3clFbG">
                  <node concept="37vLTw" id="6jDmPiUWsns" role="2Oq$k0">
                    <ref role="3cqZAo" node="6jDmPiUWsnZ" resolve="node" />
                  </node>
                  <node concept="1P9Npp" id="6jDmPiUWsnt" role="2OqNvi">
                    <node concept="1rXfSq" id="6jDmPiUWsnu" role="1P9ThW">
                      <ref role="37wK5l" node="6jDmPiUWsmH" resolve="createParameterReference" />
                      <node concept="2OqwBi" id="6jDmPiUWsnv" role="37wK5m">
                        <node concept="37vLTw" id="6jDmPiUWsnw" role="2Oq$k0">
                          <ref role="3cqZAo" node="6jDmPiUWsnX" resolve="root" />
                        </node>
                        <node concept="3Tsc0h" id="6jDmPiUWsnx" role="2OqNvi">
                          <ref role="3TtcxE" to="tpee:fzclF7Y" />
                        </node>
                      </node>
                      <node concept="3cmrfG" id="6jDmPiUWsny" role="37wK5m">
                        <property role="3cmrfH" value="1" />
                      </node>
                    </node>
                  </node>
                </node>
              </node>
            </node>
          </node>
          <node concept="1_3QMl" id="6jDmPiUWsnz" role="1_3QMm">
            <node concept="3gn64h" id="6jDmPiUWsn$" role="3Kbmr1">
              <ref role="3gnhBz" to="tpcw:ho1XNXU" resolve="ConceptFunctionParameter_editorContext" />
            </node>
            <node concept="3clFbS" id="6jDmPiUWsn_" role="3Kbo56">
              <node concept="3clFbF" id="6jDmPiUWsnA" role="3cqZAp">
                <node concept="2OqwBi" id="6jDmPiUWsnB" role="3clFbG">
                  <node concept="37vLTw" id="6jDmPiUWsnC" role="2Oq$k0">
                    <ref role="3cqZAo" node="6jDmPiUWsnZ" resolve="node" />
                  </node>
                  <node concept="1P9Npp" id="6jDmPiUWsnD" role="2OqNvi">
                    <node concept="1rXfSq" id="6jDmPiUWsnE" role="1P9ThW">
                      <ref role="37wK5l" node="6jDmPiUWsmH" resolve="createParameterReference" />
                      <node concept="2OqwBi" id="6jDmPiUWsnF" role="37wK5m">
                        <node concept="37vLTw" id="6jDmPiUWsnG" role="2Oq$k0">
                          <ref role="3cqZAo" node="6jDmPiUWsnX" resolve="root" />
                        </node>
                        <node concept="3Tsc0h" id="6jDmPiUWsnH" role="2OqNvi">
                          <ref role="3TtcxE" to="tpee:fzclF7Y" />
                        </node>
                      </node>
                      <node concept="3cmrfG" id="6jDmPiUWsnI" role="37wK5m">
                        <property role="3cmrfH" value="2" />
                      </node>
                    </node>
                  </node>
                </node>
              </node>
            </node>
          </node>
        </node>
        <node concept="3clFbH" id="6jDmPiUWsnJ" role="3cqZAp" />
        <node concept="1DcWWT" id="6jDmPiUWsnK" role="3cqZAp">
          <node concept="3cpWsn" id="6jDmPiUWsnL" role="1Duv9x">
            <property role="TrG5h" value="child" />
            <node concept="3Tqbb2" id="6jDmPiUWsnM" role="1tU5fm" />
          </node>
          <node concept="3clFbS" id="6jDmPiUWsnN" role="2LFqv$">
            <node concept="3clFbF" id="6jDmPiUWsnO" role="3cqZAp">
              <node concept="1rXfSq" id="6jDmPiUWsnP" role="3clFbG">
                <ref role="37wK5l" node="6jDmPiUWsn7" resolve="resolveChildFilterRefernce" />
                <node concept="37vLTw" id="6jDmPiUWsnQ" role="37wK5m">
                  <ref role="3cqZAo" node="6jDmPiUWsnX" resolve="root" />
                </node>
                <node concept="37vLTw" id="6jDmPiUWsnR" role="37wK5m">
                  <ref role="3cqZAo" node="6jDmPiUWsnL" resolve="child" />
                </node>
              </node>
            </node>
          </node>
          <node concept="2OqwBi" id="6jDmPiUWsnS" role="1DdaDG">
            <node concept="37vLTw" id="6jDmPiUWsnT" role="2Oq$k0">
              <ref role="3cqZAo" node="6jDmPiUWsnZ" resolve="node" />
            </node>
            <node concept="32TBzR" id="6jDmPiUWsnU" role="2OqNvi" />
          </node>
        </node>
      </node>
      <node concept="3Tm6S6" id="6jDmPiUWsnV" role="1B3o_S" />
      <node concept="3cqZAl" id="6jDmPiUWsnW" role="3clF45" />
      <node concept="37vLTG" id="6jDmPiUWsnX" role="3clF46">
        <property role="TrG5h" value="root" />
        <node concept="3Tqbb2" id="6jDmPiUWsnY" role="1tU5fm">
          <ref role="ehGHo" to="oubp:3geGFOI0X5k" resolve="MethodInstance" />
        </node>
      </node>
      <node concept="37vLTG" id="6jDmPiUWsnZ" role="3clF46">
        <property role="TrG5h" value="node" />
        <node concept="3Tqbb2" id="6jDmPiUWso0" role="1tU5fm" />
      </node>
    </node>
    <node concept="2tJIrI" id="6jDmPiUWso1" role="jymVt" />
    <node concept="3clFb_" id="6jDmPiUWso2" role="jymVt">
      <property role="TrG5h" value="resolveReference" />
      <node concept="3cqZAl" id="6jDmPiUWso3" role="3clF45" />
      <node concept="3Tm6S6" id="6jDmPiUWso4" role="1B3o_S" />
      <node concept="3clFbS" id="6jDmPiUWso5" role="3clF47">
        <node concept="3clFbJ" id="6jDmPiUWso6" role="3cqZAp">
          <node concept="3clFbS" id="6jDmPiUWso7" role="3clFbx">
            <node concept="3clFbF" id="6jDmPiUWso8" role="3cqZAp">
              <node concept="2OqwBi" id="6jDmPiUWso9" role="3clFbG">
                <node concept="37vLTw" id="6jDmPiUWsoa" role="2Oq$k0">
                  <ref role="3cqZAo" node="6jDmPiUWsoQ" resolve="node" />
                </node>
                <node concept="1P9Npp" id="6jDmPiUWsob" role="2OqNvi">
                  <node concept="1rXfSq" id="6jDmPiUWsoc" role="1P9ThW">
                    <ref role="37wK5l" node="6jDmPiUWsmH" resolve="createParameterReference" />
                    <node concept="2OqwBi" id="6jDmPiUWsod" role="37wK5m">
                      <node concept="37vLTw" id="6jDmPiUWsoe" role="2Oq$k0">
                        <ref role="3cqZAo" node="6jDmPiUWsoO" resolve="root" />
                      </node>
                      <node concept="3Tsc0h" id="6jDmPiUWsof" role="2OqNvi">
                        <ref role="3TtcxE" to="tpee:fzclF7Y" />
                      </node>
                    </node>
                    <node concept="3cmrfG" id="6jDmPiUWsog" role="37wK5m">
                      <property role="3cmrfH" value="0" />
                    </node>
                  </node>
                </node>
              </node>
            </node>
          </node>
          <node concept="2OqwBi" id="6jDmPiUWsoh" role="3clFbw">
            <node concept="2OqwBi" id="6jDmPiUWsoi" role="2Oq$k0">
              <node concept="37vLTw" id="6jDmPiUWsoj" role="2Oq$k0">
                <ref role="3cqZAo" node="6jDmPiUWsoQ" resolve="node" />
              </node>
              <node concept="2yIwOk" id="6jDmPiUWsok" role="2OqNvi" />
            </node>
            <node concept="3O6GUB" id="6jDmPiUWsol" role="2OqNvi">
              <node concept="chp4Y" id="6jDmPiUWsom" role="3QVz_e">
                <ref role="cht4Q" to="tp3j:hmSf5oI" resolve="ConceptFunctionParameter_node" />
              </node>
            </node>
          </node>
          <node concept="3eNFk2" id="6jDmPiUWson" role="3eNLev">
            <node concept="2OqwBi" id="6jDmPiUWsoo" role="3eO9$A">
              <node concept="2OqwBi" id="6jDmPiUWsop" role="2Oq$k0">
                <node concept="37vLTw" id="6jDmPiUWsoq" role="2Oq$k0">
                  <ref role="3cqZAo" node="6jDmPiUWsoQ" resolve="node" />
                </node>
                <node concept="2yIwOk" id="6jDmPiUWsor" role="2OqNvi" />
              </node>
              <node concept="3O6GUB" id="6jDmPiUWsos" role="2OqNvi">
                <node concept="chp4Y" id="6jDmPiUWsot" role="3QVz_e">
                  <ref role="cht4Q" to="tpcw:ho1XNXU" resolve="ConceptFunctionParameter_editorContext" />
                </node>
              </node>
            </node>
            <node concept="3clFbS" id="6jDmPiUWsou" role="3eOfB_">
              <node concept="3clFbF" id="6jDmPiUWsov" role="3cqZAp">
                <node concept="2OqwBi" id="6jDmPiUWsow" role="3clFbG">
                  <node concept="37vLTw" id="6jDmPiUWsox" role="2Oq$k0">
                    <ref role="3cqZAo" node="6jDmPiUWsoQ" resolve="node" />
                  </node>
                  <node concept="1P9Npp" id="6jDmPiUWsoy" role="2OqNvi">
                    <node concept="1rXfSq" id="6jDmPiUWsoz" role="1P9ThW">
                      <ref role="37wK5l" node="6jDmPiUWsmH" resolve="createParameterReference" />
                      <node concept="2OqwBi" id="6jDmPiUWso$" role="37wK5m">
                        <node concept="37vLTw" id="6jDmPiUWso_" role="2Oq$k0">
                          <ref role="3cqZAo" node="6jDmPiUWsoO" resolve="root" />
                        </node>
                        <node concept="3Tsc0h" id="6jDmPiUWsoA" role="2OqNvi">
                          <ref role="3TtcxE" to="tpee:fzclF7Y" />
                        </node>
                      </node>
                      <node concept="3cmrfG" id="6jDmPiUWsoB" role="37wK5m">
                        <property role="3cmrfH" value="1" />
                      </node>
                    </node>
                  </node>
                </node>
              </node>
            </node>
          </node>
        </node>
        <node concept="3clFbH" id="6jDmPiUWsoC" role="3cqZAp" />
        <node concept="1DcWWT" id="6jDmPiUWsoD" role="3cqZAp">
          <node concept="3clFbS" id="6jDmPiUWsoE" role="2LFqv$">
            <node concept="3clFbF" id="6jDmPiUWsoF" role="3cqZAp">
              <node concept="1rXfSq" id="6jDmPiUWsoG" role="3clFbG">
                <ref role="37wK5l" node="6jDmPiUWso2" resolve="resolveReference" />
                <node concept="37vLTw" id="6jDmPiUWsoH" role="37wK5m">
                  <ref role="3cqZAo" node="6jDmPiUWsoO" resolve="root" />
                </node>
                <node concept="37vLTw" id="6jDmPiUWsoI" role="37wK5m">
                  <ref role="3cqZAo" node="6jDmPiUWsoJ" resolve="child" />
                </node>
              </node>
            </node>
          </node>
          <node concept="3cpWsn" id="6jDmPiUWsoJ" role="1Duv9x">
            <property role="TrG5h" value="child" />
            <node concept="3Tqbb2" id="6jDmPiUWsoK" role="1tU5fm" />
          </node>
          <node concept="2OqwBi" id="6jDmPiUWsoL" role="1DdaDG">
            <node concept="37vLTw" id="6jDmPiUWsoM" role="2Oq$k0">
              <ref role="3cqZAo" node="6jDmPiUWsoQ" resolve="node" />
            </node>
            <node concept="32TBzR" id="6jDmPiUWsoN" role="2OqNvi" />
          </node>
        </node>
      </node>
      <node concept="37vLTG" id="6jDmPiUWsoO" role="3clF46">
        <property role="TrG5h" value="root" />
        <node concept="3Tqbb2" id="6jDmPiUWsoP" role="1tU5fm">
          <ref role="ehGHo" to="oubp:3geGFOI0X5k" resolve="MethodInstance" />
        </node>
      </node>
      <node concept="37vLTG" id="6jDmPiUWsoQ" role="3clF46">
        <property role="TrG5h" value="node" />
        <node concept="3Tqbb2" id="6jDmPiUWsoR" role="1tU5fm" />
      </node>
    </node>
  </node>
</model>

