<?xml version="1.0" encoding="UTF-8"?>
<model ref="r:c1d6ae19-8f63-4f09-a246-f7891b36810b(BHL5.editor)">
  <persistence version="9" />
  <languages>
    <use id="18bc6592-03a6-4e29-a83a-7ff23bde13ba" name="jetbrains.mps.lang.editor" version="3" />
    <devkit ref="fbc25dd2-5da4-483a-8b19-70928e1b62d7(jetbrains.mps.devkit.general-purpose)" />
  </languages>
  <imports />
  <registry />
</model>

