<?xml version="1.0" encoding="UTF-8"?>
<model ref="r:319e68b5-eded-4671-963a-f1165720a3da(jetbrains.mps.samples.languagePatterns.Basic.actions)">
  <persistence version="9" />
  <languages>
    <use id="aee9cad2-acd4-4608-aef2-0004f6a1cdbd" name="jetbrains.mps.lang.actions" version="0" />
    <devkit ref="fbc25dd2-5da4-483a-8b19-70928e1b62d7(jetbrains.mps.devkit.general-purpose)" />
  </languages>
  <imports>
    <import index="vseb" ref="r:150e80ad-a158-4a95-9515-f61f51743da4(jetbrains.mps.samples.languagePatterns.Basic.structure)" />
    <import index="c17a" ref="8865b7a8-5271-43d3-884c-6fd1d9cfdd34/java:org.jetbrains.mps.openapi.language(MPS.OpenAPI/)" />
  </imports>
  <registry>
    <language id="f3061a53-9226-4cc5-a443-f952ceaf5816" name="jetbrains.mps.baseLanguage">
      <concept id="1215693861676" name="jetbrains.mps.baseLanguage.structure.BaseAssignmentExpression" flags="nn" index="d038R">
        <child id="1068498886297" name="rValue" index="37vLTx" />
        <child id="1068498886295" name="lValue" index="37vLTJ" />
      </concept>
      <concept id="4836112446988635817" name="jetbrains.mps.baseLanguage.structure.UndefinedType" flags="in" index="2jxLKc" />
      <concept id="1197027756228" name="jetbrains.mps.baseLanguage.structure.DotExpression" flags="nn" index="2OqwBi">
        <child id="1197027771414" name="operand" index="2Oq$k0" />
        <child id="1197027833540" name="operation" index="2OqNvi" />
      </concept>
      <concept id="1137021947720" name="jetbrains.mps.baseLanguage.structure.ConceptFunction" flags="in" index="2VMwT0">
        <child id="1137022507850" name="body" index="2VODD2" />
      </concept>
      <concept id="1068498886294" name="jetbrains.mps.baseLanguage.structure.AssignmentExpression" flags="nn" index="37vLTI" />
      <concept id="4972933694980447171" name="jetbrains.mps.baseLanguage.structure.BaseVariableDeclaration" flags="ng" index="19Szcq">
        <child id="5680397130376446158" name="type" index="1tU5fm" />
      </concept>
      <concept id="1068580123155" name="jetbrains.mps.baseLanguage.structure.ExpressionStatement" flags="nn" index="3clFbF">
        <child id="1068580123156" name="expression" index="3clFbG" />
      </concept>
      <concept id="1068580123136" name="jetbrains.mps.baseLanguage.structure.StatementList" flags="sn" stub="5293379017992965193" index="3clFbS">
        <child id="1068581517665" name="statement" index="3cqZAp" />
      </concept>
      <concept id="5497648299878491908" name="jetbrains.mps.baseLanguage.structure.BaseVariableReference" flags="nn" index="1M0zk4">
        <reference id="5497648299878491909" name="baseVariableDeclaration" index="1M0zk5" />
      </concept>
    </language>
    <language id="aee9cad2-acd4-4608-aef2-0004f6a1cdbd" name="jetbrains.mps.lang.actions">
      <concept id="1158700664498" name="jetbrains.mps.lang.actions.structure.NodeFactories" flags="ng" index="37WguZ">
        <child id="1158700779049" name="nodeFactory" index="37WGs$" />
      </concept>
      <concept id="1158700725281" name="jetbrains.mps.lang.actions.structure.NodeFactory" flags="ig" index="37WvkG">
        <reference id="1158700943156" name="applicableConcept" index="37XkoT" />
        <child id="1158701448518" name="setupFunction" index="37ZfLb" />
      </concept>
      <concept id="1158701162220" name="jetbrains.mps.lang.actions.structure.NodeSetupFunction" flags="in" index="37Y9Zx" />
      <concept id="5584396657084912703" name="jetbrains.mps.lang.actions.structure.NodeSetupFunction_NewNode" flags="nn" index="1r4Lsj" />
      <concept id="5584396657084920413" name="jetbrains.mps.lang.actions.structure.NodeSetupFunction_SampleNode" flags="nn" index="1r4N5L" />
    </language>
    <language id="7866978e-a0f0-4cc7-81bc-4d213d9375e1" name="jetbrains.mps.lang.smodel">
      <concept id="1883223317721008708" name="jetbrains.mps.lang.smodel.structure.IfInstanceOfStatement" flags="nn" index="Jncv_">
        <reference id="1883223317721008712" name="nodeConcept" index="JncvD" />
        <child id="1883223317721008709" name="body" index="Jncv$" />
        <child id="1883223317721008711" name="variable" index="JncvA" />
        <child id="1883223317721008710" name="nodeExpression" index="JncvB" />
      </concept>
      <concept id="1883223317721008713" name="jetbrains.mps.lang.smodel.structure.IfInstanceOfVariable" flags="ng" index="JncvC" />
      <concept id="1883223317721107059" name="jetbrains.mps.lang.smodel.structure.IfInstanceOfVarReference" flags="nn" index="Jnkvi" />
      <concept id="1138056022639" name="jetbrains.mps.lang.smodel.structure.SPropertyAccess" flags="nn" index="3TrcHB">
        <reference id="1138056395725" name="property" index="3TsBF5" />
      </concept>
      <concept id="1138056143562" name="jetbrains.mps.lang.smodel.structure.SLinkAccess" flags="nn" index="3TrEf2">
        <reference id="1138056516764" name="link" index="3Tt5mk" />
      </concept>
    </language>
    <language id="ceab5195-25ea-4f22-9b92-103b95ca8c0c" name="jetbrains.mps.lang.core">
      <concept id="1133920641626" name="jetbrains.mps.lang.core.structure.BaseConcept" flags="ng" index="2VYdi">
        <property id="1193676396447" name="virtualPackage" index="3GE5qa" />
      </concept>
      <concept id="1169194658468" name="jetbrains.mps.lang.core.structure.INamedConcept" flags="ng" index="TrEIO">
        <property id="1169194664001" name="name" index="TrG5h" />
      </concept>
    </language>
  </registry>
  <node concept="37WguZ" id="34YubGApLIV">
    <property role="3GE5qa" value="fluent-editing" />
    <property role="TrG5h" value="ConvertLinesToRectAndBack" />
    <node concept="37WvkG" id="34YubGApLIW" role="37WGs$">
      <ref role="37XkoT" to="vseb:34YubGAnqRw" resolve="DrawLine" />
      <node concept="37Y9Zx" id="34YubGApLOg" role="37ZfLb">
        <node concept="3clFbS" id="34YubGApLOh" role="2VODD2">
          <node concept="Jncv_" id="34YubGApLOk" role="3cqZAp">
            <ref role="JncvD" to="vseb:34YubGAp7ig" resolve="DrawRect" />
            <node concept="1r4N5L" id="34YubGApLOO" role="JncvB" />
            <node concept="JncvC" id="34YubGApLOm" role="JncvA">
              <property role="TrG5h" value="rect" />
              <node concept="2jxLKc" id="34YubGApLOn" role="1tU5fm" />
            </node>
            <node concept="3clFbS" id="34YubGApLOo" role="Jncv$">
              <node concept="3clFbF" id="34YubGApLQE" role="3cqZAp">
                <node concept="37vLTI" id="34YubGApPvW" role="3clFbG">
                  <node concept="2OqwBi" id="34YubGApPNk" role="37vLTx">
                    <node concept="Jnkvi" id="34YubGApPwP" role="2Oq$k0">
                      <ref role="1M0zk5" node="34YubGApLOm" resolve="rect" />
                    </node>
                    <node concept="3TrcHB" id="34YubGApQnJ" role="2OqNvi">
                      <ref role="3TsBF5" to="vseb:34YubGAp7k7" resolve="upperLeftX" />
                    </node>
                  </node>
                  <node concept="2OqwBi" id="34YubGApLSA" role="37vLTJ">
                    <node concept="1r4Lsj" id="34YubGApLQB" role="2Oq$k0" />
                    <node concept="3TrcHB" id="34YubGApM1W" role="2OqNvi">
                      <ref role="3TsBF5" to="vseb:34YubGAnqRx" resolve="x1" />
                    </node>
                  </node>
                </node>
              </node>
              <node concept="3clFbF" id="34YubGApQDG" role="3cqZAp">
                <node concept="37vLTI" id="34YubGApQDH" role="3clFbG">
                  <node concept="2OqwBi" id="34YubGApQDI" role="37vLTx">
                    <node concept="Jnkvi" id="34YubGApQDJ" role="2Oq$k0">
                      <ref role="1M0zk5" node="34YubGApLOm" resolve="rect" />
                    </node>
                    <node concept="3TrcHB" id="34YubGApSqk" role="2OqNvi">
                      <ref role="3TsBF5" to="vseb:34YubGAp7k9" resolve="upperLeftY" />
                    </node>
                  </node>
                  <node concept="2OqwBi" id="34YubGApQDL" role="37vLTJ">
                    <node concept="1r4Lsj" id="34YubGApQDM" role="2Oq$k0" />
                    <node concept="3TrcHB" id="34YubGApR9h" role="2OqNvi">
                      <ref role="3TsBF5" to="vseb:34YubGAnqRz" resolve="y1" />
                    </node>
                  </node>
                </node>
              </node>
              <node concept="3clFbF" id="34YubGApQE4" role="3cqZAp">
                <node concept="37vLTI" id="34YubGApQE5" role="3clFbG">
                  <node concept="2OqwBi" id="34YubGApQE6" role="37vLTx">
                    <node concept="Jnkvi" id="34YubGApQE7" role="2Oq$k0">
                      <ref role="1M0zk5" node="34YubGApLOm" resolve="rect" />
                    </node>
                    <node concept="3TrcHB" id="34YubGApSZO" role="2OqNvi">
                      <ref role="3TsBF5" to="vseb:34YubGAp7kc" resolve="lowerRightX" />
                    </node>
                  </node>
                  <node concept="2OqwBi" id="34YubGApQE9" role="37vLTJ">
                    <node concept="1r4Lsj" id="34YubGApQEa" role="2Oq$k0" />
                    <node concept="3TrcHB" id="34YubGApRzA" role="2OqNvi">
                      <ref role="3TsBF5" to="vseb:34YubGAnqRA" resolve="x2" />
                    </node>
                  </node>
                </node>
              </node>
              <node concept="3clFbF" id="34YubGApQE$" role="3cqZAp">
                <node concept="37vLTI" id="34YubGApQE_" role="3clFbG">
                  <node concept="2OqwBi" id="34YubGApQEA" role="37vLTx">
                    <node concept="Jnkvi" id="34YubGApQEB" role="2Oq$k0">
                      <ref role="1M0zk5" node="34YubGApLOm" resolve="rect" />
                    </node>
                    <node concept="3TrcHB" id="34YubGApT$q" role="2OqNvi">
                      <ref role="3TsBF5" to="vseb:34YubGAp7kg" resolve="lowerRightY" />
                    </node>
                  </node>
                  <node concept="2OqwBi" id="34YubGApQED" role="37vLTJ">
                    <node concept="1r4Lsj" id="34YubGApQEE" role="2Oq$k0" />
                    <node concept="3TrcHB" id="34YubGApRZn" role="2OqNvi">
                      <ref role="3TsBF5" to="vseb:34YubGAnqRE" resolve="y2" />
                    </node>
                  </node>
                </node>
              </node>
            </node>
          </node>
          <node concept="Jncv_" id="34YubGAq4j8" role="3cqZAp">
            <ref role="JncvD" to="vseb:34YubGAnqRw" resolve="DrawLine" />
            <node concept="1r4N5L" id="34YubGAq4j9" role="JncvB" />
            <node concept="JncvC" id="34YubGAq4ja" role="JncvA">
              <property role="TrG5h" value="line" />
              <node concept="2jxLKc" id="34YubGAq4jb" role="1tU5fm" />
            </node>
            <node concept="3clFbS" id="34YubGAq4jc" role="Jncv$">
              <node concept="3clFbF" id="34YubGAq4jd" role="3cqZAp">
                <node concept="37vLTI" id="34YubGAq4je" role="3clFbG">
                  <node concept="2OqwBi" id="34YubGAq4jf" role="37vLTx">
                    <node concept="Jnkvi" id="34YubGAq4jg" role="2Oq$k0">
                      <ref role="1M0zk5" node="34YubGAq4ja" resolve="line" />
                    </node>
                    <node concept="3TrcHB" id="34YubGAq5xH" role="2OqNvi">
                      <ref role="3TsBF5" to="vseb:34YubGAnqRx" resolve="x1" />
                    </node>
                  </node>
                  <node concept="2OqwBi" id="34YubGAq4ji" role="37vLTJ">
                    <node concept="1r4Lsj" id="34YubGAq4jj" role="2Oq$k0" />
                    <node concept="3TrcHB" id="34YubGAq4jk" role="2OqNvi">
                      <ref role="3TsBF5" to="vseb:34YubGAnqRx" resolve="x1" />
                    </node>
                  </node>
                </node>
              </node>
              <node concept="3clFbF" id="34YubGAq4jl" role="3cqZAp">
                <node concept="37vLTI" id="34YubGAq4jm" role="3clFbG">
                  <node concept="2OqwBi" id="34YubGAq4jn" role="37vLTx">
                    <node concept="Jnkvi" id="34YubGAq4jo" role="2Oq$k0">
                      <ref role="1M0zk5" node="34YubGAq4ja" resolve="line" />
                    </node>
                    <node concept="3TrcHB" id="34YubGAq5VV" role="2OqNvi">
                      <ref role="3TsBF5" to="vseb:34YubGAnqRz" resolve="y1" />
                    </node>
                  </node>
                  <node concept="2OqwBi" id="34YubGAq4jq" role="37vLTJ">
                    <node concept="1r4Lsj" id="34YubGAq4jr" role="2Oq$k0" />
                    <node concept="3TrcHB" id="34YubGAq4js" role="2OqNvi">
                      <ref role="3TsBF5" to="vseb:34YubGAnqRz" resolve="y1" />
                    </node>
                  </node>
                </node>
              </node>
              <node concept="3clFbF" id="34YubGAq4jt" role="3cqZAp">
                <node concept="37vLTI" id="34YubGAq4ju" role="3clFbG">
                  <node concept="2OqwBi" id="34YubGAq4jv" role="37vLTx">
                    <node concept="Jnkvi" id="34YubGAq4jw" role="2Oq$k0">
                      <ref role="1M0zk5" node="34YubGAq4ja" resolve="line" />
                    </node>
                    <node concept="3TrcHB" id="34YubGAq6mR" role="2OqNvi">
                      <ref role="3TsBF5" to="vseb:34YubGAnqRA" resolve="x2" />
                    </node>
                  </node>
                  <node concept="2OqwBi" id="34YubGAq4jy" role="37vLTJ">
                    <node concept="1r4Lsj" id="34YubGAq4jz" role="2Oq$k0" />
                    <node concept="3TrcHB" id="34YubGAq4j$" role="2OqNvi">
                      <ref role="3TsBF5" to="vseb:34YubGAnqRA" resolve="x2" />
                    </node>
                  </node>
                </node>
              </node>
              <node concept="3clFbF" id="34YubGAq4j_" role="3cqZAp">
                <node concept="37vLTI" id="34YubGAq4jA" role="3clFbG">
                  <node concept="2OqwBi" id="34YubGAq4jB" role="37vLTx">
                    <node concept="Jnkvi" id="34YubGAq4jC" role="2Oq$k0">
                      <ref role="1M0zk5" node="34YubGAq4ja" resolve="line" />
                    </node>
                    <node concept="3TrcHB" id="34YubGAq6LN" role="2OqNvi">
                      <ref role="3TsBF5" to="vseb:34YubGAnqRE" resolve="y2" />
                    </node>
                  </node>
                  <node concept="2OqwBi" id="34YubGAq4jE" role="37vLTJ">
                    <node concept="1r4Lsj" id="34YubGAq4jF" role="2Oq$k0" />
                    <node concept="3TrcHB" id="34YubGAq4jG" role="2OqNvi">
                      <ref role="3TsBF5" to="vseb:34YubGAnqRE" resolve="y2" />
                    </node>
                  </node>
                </node>
              </node>
            </node>
          </node>
          <node concept="Jncv_" id="1vupXx085nB" role="3cqZAp">
            <ref role="JncvD" to="vseb:34YubGAnh0y" resolve="DrawCommand" />
            <node concept="1r4N5L" id="1vupXx085J2" role="JncvB" />
            <node concept="JncvC" id="1vupXx085nF" role="JncvA">
              <property role="TrG5h" value="command" />
              <node concept="2jxLKc" id="1vupXx085nG" role="1tU5fm" />
            </node>
            <node concept="3clFbS" id="1vupXx085nI" role="Jncv$">
              <node concept="3clFbF" id="1vupXx0865P" role="3cqZAp">
                <node concept="37vLTI" id="1vupXx086Bn" role="3clFbG">
                  <node concept="2OqwBi" id="1vupXx086E$" role="37vLTx">
                    <node concept="Jnkvi" id="1vupXx086Ck" role="2Oq$k0">
                      <ref role="1M0zk5" node="1vupXx085nF" resolve="command" />
                    </node>
                    <node concept="3TrEf2" id="1vupXx088l7" role="2OqNvi">
                      <ref role="3Tt5mk" to="vseb:34YubGApK4D" resolve="lineStyle" />
                    </node>
                  </node>
                  <node concept="2OqwBi" id="1vupXx0867p" role="37vLTJ">
                    <node concept="1r4Lsj" id="1vupXx0865O" role="2Oq$k0" />
                    <node concept="3TrEf2" id="1vupXx086pF" role="2OqNvi">
                      <ref role="3Tt5mk" to="vseb:34YubGApK4D" resolve="lineStyle" />
                    </node>
                  </node>
                </node>
              </node>
            </node>
          </node>
        </node>
      </node>
    </node>
    <node concept="37WvkG" id="34YubGApTXs" role="37WGs$">
      <ref role="37XkoT" to="vseb:34YubGAp7ig" resolve="DrawRect" />
      <node concept="37Y9Zx" id="34YubGApTXt" role="37ZfLb">
        <node concept="3clFbS" id="34YubGApTXu" role="2VODD2">
          <node concept="Jncv_" id="34YubGApULo" role="3cqZAp">
            <ref role="JncvD" to="vseb:34YubGAp7ig" resolve="DrawRect" />
            <node concept="1r4N5L" id="34YubGApULp" role="JncvB" />
            <node concept="JncvC" id="34YubGApULq" role="JncvA">
              <property role="TrG5h" value="rect" />
              <node concept="2jxLKc" id="34YubGApULr" role="1tU5fm" />
            </node>
            <node concept="3clFbS" id="34YubGApULs" role="Jncv$">
              <node concept="3clFbF" id="34YubGApULt" role="3cqZAp">
                <node concept="37vLTI" id="34YubGApULu" role="3clFbG">
                  <node concept="2OqwBi" id="34YubGApULv" role="37vLTx">
                    <node concept="Jnkvi" id="34YubGApULw" role="2Oq$k0">
                      <ref role="1M0zk5" node="34YubGApULq" resolve="rect" />
                    </node>
                    <node concept="3TrcHB" id="34YubGApULx" role="2OqNvi">
                      <ref role="3TsBF5" to="vseb:34YubGAp7k7" resolve="upperLeftX" />
                    </node>
                  </node>
                  <node concept="2OqwBi" id="34YubGApULy" role="37vLTJ">
                    <node concept="1r4Lsj" id="34YubGApULz" role="2Oq$k0" />
                    <node concept="3TrcHB" id="34YubGApX6v" role="2OqNvi">
                      <ref role="3TsBF5" to="vseb:34YubGAp7k7" resolve="upperLeftX" />
                    </node>
                  </node>
                </node>
              </node>
              <node concept="3clFbF" id="34YubGApUL_" role="3cqZAp">
                <node concept="37vLTI" id="34YubGApULA" role="3clFbG">
                  <node concept="2OqwBi" id="34YubGApULB" role="37vLTx">
                    <node concept="Jnkvi" id="34YubGApULC" role="2Oq$k0">
                      <ref role="1M0zk5" node="34YubGApULq" resolve="rect" />
                    </node>
                    <node concept="3TrcHB" id="34YubGApULD" role="2OqNvi">
                      <ref role="3TsBF5" to="vseb:34YubGAp7k9" resolve="upperLeftY" />
                    </node>
                  </node>
                  <node concept="2OqwBi" id="34YubGApULE" role="37vLTJ">
                    <node concept="1r4Lsj" id="34YubGApULF" role="2Oq$k0" />
                    <node concept="3TrcHB" id="34YubGApYNq" role="2OqNvi">
                      <ref role="3TsBF5" to="vseb:34YubGAp7k9" resolve="upperLeftY" />
                    </node>
                  </node>
                </node>
              </node>
              <node concept="3clFbF" id="34YubGApULH" role="3cqZAp">
                <node concept="37vLTI" id="34YubGApULI" role="3clFbG">
                  <node concept="2OqwBi" id="34YubGApULJ" role="37vLTx">
                    <node concept="Jnkvi" id="34YubGApULK" role="2Oq$k0">
                      <ref role="1M0zk5" node="34YubGApULq" resolve="rect" />
                    </node>
                    <node concept="3TrcHB" id="34YubGApULL" role="2OqNvi">
                      <ref role="3TsBF5" to="vseb:34YubGAp7kc" resolve="lowerRightX" />
                    </node>
                  </node>
                  <node concept="2OqwBi" id="34YubGApULM" role="37vLTJ">
                    <node concept="1r4Lsj" id="34YubGApULN" role="2Oq$k0" />
                    <node concept="3TrcHB" id="34YubGAq0cC" role="2OqNvi">
                      <ref role="3TsBF5" to="vseb:34YubGAp7kc" resolve="lowerRightX" />
                    </node>
                  </node>
                </node>
              </node>
              <node concept="3clFbF" id="34YubGApULP" role="3cqZAp">
                <node concept="37vLTI" id="34YubGApULQ" role="3clFbG">
                  <node concept="2OqwBi" id="34YubGApULR" role="37vLTx">
                    <node concept="Jnkvi" id="34YubGApULS" role="2Oq$k0">
                      <ref role="1M0zk5" node="34YubGApULq" resolve="rect" />
                    </node>
                    <node concept="3TrcHB" id="34YubGApULT" role="2OqNvi">
                      <ref role="3TsBF5" to="vseb:34YubGAp7kg" resolve="lowerRightY" />
                    </node>
                  </node>
                  <node concept="2OqwBi" id="34YubGApULU" role="37vLTJ">
                    <node concept="1r4Lsj" id="34YubGApULV" role="2Oq$k0" />
                    <node concept="3TrcHB" id="34YubGAq1ag" role="2OqNvi">
                      <ref role="3TsBF5" to="vseb:34YubGAp7kg" resolve="lowerRightY" />
                    </node>
                  </node>
                </node>
              </node>
            </node>
          </node>
          <node concept="Jncv_" id="34YubGAq1qD" role="3cqZAp">
            <ref role="JncvD" to="vseb:34YubGAnqRw" resolve="DrawLine" />
            <node concept="1r4N5L" id="34YubGAq1qE" role="JncvB" />
            <node concept="JncvC" id="34YubGAq1qF" role="JncvA">
              <property role="TrG5h" value="line" />
              <node concept="2jxLKc" id="34YubGAq1qG" role="1tU5fm" />
            </node>
            <node concept="3clFbS" id="34YubGAq1qH" role="Jncv$">
              <node concept="3clFbF" id="34YubGAq1qI" role="3cqZAp">
                <node concept="37vLTI" id="34YubGAq1qJ" role="3clFbG">
                  <node concept="2OqwBi" id="34YubGAq1qK" role="37vLTx">
                    <node concept="Jnkvi" id="34YubGAq1qL" role="2Oq$k0">
                      <ref role="1M0zk5" node="34YubGAq1qF" resolve="line" />
                    </node>
                    <node concept="3TrcHB" id="34YubGAq2D9" role="2OqNvi">
                      <ref role="3TsBF5" to="vseb:34YubGAnqRx" resolve="x1" />
                    </node>
                  </node>
                  <node concept="2OqwBi" id="34YubGAq1qN" role="37vLTJ">
                    <node concept="1r4Lsj" id="34YubGAq1qO" role="2Oq$k0" />
                    <node concept="3TrcHB" id="34YubGAq1qP" role="2OqNvi">
                      <ref role="3TsBF5" to="vseb:34YubGAp7k7" resolve="upperLeftX" />
                    </node>
                  </node>
                </node>
              </node>
              <node concept="3clFbF" id="34YubGAq1qQ" role="3cqZAp">
                <node concept="37vLTI" id="34YubGAq1qR" role="3clFbG">
                  <node concept="2OqwBi" id="34YubGAq1qS" role="37vLTx">
                    <node concept="Jnkvi" id="34YubGAq1qT" role="2Oq$k0">
                      <ref role="1M0zk5" node="34YubGAq1qF" resolve="line" />
                    </node>
                    <node concept="3TrcHB" id="34YubGAq34g" role="2OqNvi">
                      <ref role="3TsBF5" to="vseb:34YubGAnqRz" resolve="y1" />
                    </node>
                  </node>
                  <node concept="2OqwBi" id="34YubGAq1qV" role="37vLTJ">
                    <node concept="1r4Lsj" id="34YubGAq1qW" role="2Oq$k0" />
                    <node concept="3TrcHB" id="34YubGAq1qX" role="2OqNvi">
                      <ref role="3TsBF5" to="vseb:34YubGAp7k9" resolve="upperLeftY" />
                    </node>
                  </node>
                </node>
              </node>
              <node concept="3clFbF" id="34YubGAq1qY" role="3cqZAp">
                <node concept="37vLTI" id="34YubGAq1qZ" role="3clFbG">
                  <node concept="2OqwBi" id="34YubGAq1r0" role="37vLTx">
                    <node concept="Jnkvi" id="34YubGAq1r1" role="2Oq$k0">
                      <ref role="1M0zk5" node="34YubGAq1qF" resolve="line" />
                    </node>
                    <node concept="3TrcHB" id="34YubGAq3vb" role="2OqNvi">
                      <ref role="3TsBF5" to="vseb:34YubGAnqRA" resolve="x2" />
                    </node>
                  </node>
                  <node concept="2OqwBi" id="34YubGAq1r3" role="37vLTJ">
                    <node concept="1r4Lsj" id="34YubGAq1r4" role="2Oq$k0" />
                    <node concept="3TrcHB" id="34YubGAq1r5" role="2OqNvi">
                      <ref role="3TsBF5" to="vseb:34YubGAp7kc" resolve="lowerRightX" />
                    </node>
                  </node>
                </node>
              </node>
              <node concept="3clFbF" id="34YubGAq1r6" role="3cqZAp">
                <node concept="37vLTI" id="34YubGAq1r7" role="3clFbG">
                  <node concept="2OqwBi" id="34YubGAq1r8" role="37vLTx">
                    <node concept="Jnkvi" id="34YubGAq1r9" role="2Oq$k0">
                      <ref role="1M0zk5" node="34YubGAq1qF" resolve="line" />
                    </node>
                    <node concept="3TrcHB" id="34YubGAq3U6" role="2OqNvi">
                      <ref role="3TsBF5" to="vseb:34YubGAnqRE" resolve="y2" />
                    </node>
                  </node>
                  <node concept="2OqwBi" id="34YubGAq1rb" role="37vLTJ">
                    <node concept="1r4Lsj" id="34YubGAq1rc" role="2Oq$k0" />
                    <node concept="3TrcHB" id="34YubGAq1rd" role="2OqNvi">
                      <ref role="3TsBF5" to="vseb:34YubGAp7kg" resolve="lowerRightY" />
                    </node>
                  </node>
                </node>
              </node>
            </node>
          </node>
          <node concept="Jncv_" id="1vupXx088Dp" role="3cqZAp">
            <ref role="JncvD" to="vseb:34YubGAnh0y" resolve="DrawCommand" />
            <node concept="1r4N5L" id="1vupXx088Dq" role="JncvB" />
            <node concept="JncvC" id="1vupXx088Dr" role="JncvA">
              <property role="TrG5h" value="command" />
              <node concept="2jxLKc" id="1vupXx088Ds" role="1tU5fm" />
            </node>
            <node concept="3clFbS" id="1vupXx088Dt" role="Jncv$">
              <node concept="3clFbF" id="1vupXx088Du" role="3cqZAp">
                <node concept="37vLTI" id="1vupXx088Dv" role="3clFbG">
                  <node concept="2OqwBi" id="1vupXx088Dw" role="37vLTx">
                    <node concept="Jnkvi" id="1vupXx088Dx" role="2Oq$k0">
                      <ref role="1M0zk5" node="1vupXx088Dr" resolve="command" />
                    </node>
                    <node concept="3TrEf2" id="1vupXx088Dy" role="2OqNvi">
                      <ref role="3Tt5mk" to="vseb:34YubGApK4D" resolve="lineStyle" />
                    </node>
                  </node>
                  <node concept="2OqwBi" id="1vupXx088Dz" role="37vLTJ">
                    <node concept="1r4Lsj" id="1vupXx088D$" role="2Oq$k0" />
                    <node concept="3TrEf2" id="1vupXx088D_" role="2OqNvi">
                      <ref role="3Tt5mk" to="vseb:34YubGApK4D" resolve="lineStyle" />
                    </node>
                  </node>
                </node>
              </node>
            </node>
          </node>
        </node>
      </node>
    </node>
  </node>
  <node concept="37WguZ" id="603vF1qqaZX">
    <property role="3GE5qa" value="seamless-substitution" />
    <property role="TrG5h" value="Converters" />
    <node concept="37WvkG" id="603vF1qqaZY" role="37WGs$">
      <ref role="37XkoT" to="vseb:1CEujLdGyfO" resolve="SimplifiedFormDescription" />
      <node concept="37Y9Zx" id="603vF1qqaZZ" role="37ZfLb">
        <node concept="3clFbS" id="603vF1qqb00" role="2VODD2">
          <node concept="Jncv_" id="603vF1qqb04" role="3cqZAp">
            <ref role="JncvD" to="vseb:1CEujLdGyfl" resolve="StringDescription" />
            <node concept="1r4N5L" id="603vF1qqb25" role="JncvB" />
            <node concept="JncvC" id="603vF1qqb06" role="JncvA">
              <property role="TrG5h" value="original" />
              <node concept="2jxLKc" id="603vF1qqb07" role="1tU5fm" />
            </node>
            <node concept="3clFbS" id="603vF1qqb08" role="Jncv$">
              <node concept="3clFbF" id="603vF1qqb2k" role="3cqZAp">
                <node concept="37vLTI" id="603vF1qqhZA" role="3clFbG">
                  <node concept="2OqwBi" id="603vF1qqiiA" role="37vLTx">
                    <node concept="Jnkvi" id="603vF1qqig6" role="2Oq$k0">
                      <ref role="1M0zk5" node="603vF1qqb06" resolve="original" />
                    </node>
                    <node concept="3TrcHB" id="603vF1qqiyn" role="2OqNvi">
                      <ref role="3TsBF5" to="vseb:1CEujLdGyfm" resolve="value" />
                    </node>
                  </node>
                  <node concept="2OqwBi" id="603vF1qqb4t" role="37vLTJ">
                    <node concept="1r4Lsj" id="603vF1qqb2j" role="2Oq$k0" />
                    <node concept="3TrcHB" id="603vF1qqhCN" role="2OqNvi">
                      <ref role="3TsBF5" to="vseb:1CEujLdGyfU" resolve="detail" />
                    </node>
                  </node>
                </node>
              </node>
            </node>
          </node>
          <node concept="Jncv_" id="603vF1qqiBZ" role="3cqZAp">
            <ref role="JncvD" to="vseb:1CEujLdGyhu" resolve="FormDescription" />
            <node concept="1r4N5L" id="603vF1qqiE2" role="JncvB" />
            <node concept="JncvC" id="603vF1qqiC3" role="JncvA">
              <property role="TrG5h" value="original" />
              <node concept="2jxLKc" id="603vF1qqiC4" role="1tU5fm" />
            </node>
            <node concept="3clFbS" id="603vF1qqiC6" role="Jncv$">
              <node concept="3clFbF" id="603vF1qqiGf" role="3cqZAp">
                <node concept="37vLTI" id="603vF1qqjcm" role="3clFbG">
                  <node concept="2OqwBi" id="603vF1qqjfq" role="37vLTx">
                    <node concept="Jnkvi" id="603vF1qqjcU" role="2Oq$k0">
                      <ref role="1M0zk5" node="603vF1qqiC3" resolve="original" />
                    </node>
                    <node concept="3TrcHB" id="603vF1qqjqw" role="2OqNvi">
                      <ref role="3TsBF5" to="vseb:1CEujLdGyhH" resolve="detail" />
                    </node>
                  </node>
                  <node concept="2OqwBi" id="603vF1qqiHG" role="37vLTJ">
                    <node concept="1r4Lsj" id="603vF1qqiGe" role="2Oq$k0" />
                    <node concept="3TrcHB" id="603vF1qqiPz" role="2OqNvi">
                      <ref role="3TsBF5" to="vseb:1CEujLdGyfU" resolve="detail" />
                    </node>
                  </node>
                </node>
              </node>
              <node concept="3clFbF" id="603vF1qqjsG" role="3cqZAp">
                <node concept="37vLTI" id="603vF1qqjYX" role="3clFbG">
                  <node concept="2OqwBi" id="603vF1qqk2n" role="37vLTx">
                    <node concept="Jnkvi" id="603vF1qqjZx" role="2Oq$k0">
                      <ref role="1M0zk5" node="603vF1qqiC3" resolve="original" />
                    </node>
                    <node concept="3TrcHB" id="603vF1qqkiq" role="2OqNvi">
                      <ref role="3TsBF5" to="vseb:1CEujLdGyh$" resolve="firstTimeApplicant" />
                    </node>
                  </node>
                  <node concept="2OqwBi" id="603vF1qqjvI" role="37vLTJ">
                    <node concept="1r4Lsj" id="603vF1qqjsE" role="2Oq$k0" />
                    <node concept="3TrcHB" id="603vF1qqjB_" role="2OqNvi">
                      <ref role="3TsBF5" to="vseb:1CEujLdGyfR" resolve="firstTimeApplicant" />
                    </node>
                  </node>
                </node>
              </node>
              <node concept="3clFbF" id="603vF1qqkmq" role="3cqZAp">
                <node concept="37vLTI" id="603vF1qqkS$" role="3clFbG">
                  <node concept="2OqwBi" id="603vF1qqkVC" role="37vLTx">
                    <node concept="Jnkvi" id="603vF1qqkT8" role="2Oq$k0">
                      <ref role="1M0zk5" node="603vF1qqiC3" resolve="original" />
                    </node>
                    <node concept="3TrcHB" id="603vF1qql7S" role="2OqNvi">
                      <ref role="3TsBF5" to="vseb:1CEujLdGyhv" resolve="requestor" />
                    </node>
                  </node>
                  <node concept="2OqwBi" id="603vF1qqkpU" role="37vLTJ">
                    <node concept="1r4Lsj" id="603vF1qqkmo" role="2Oq$k0" />
                    <node concept="3TrcHB" id="603vF1qqkxL" role="2OqNvi">
                      <ref role="3TsBF5" to="vseb:1CEujLdGyfP" resolve="requestor" />
                    </node>
                  </node>
                </node>
              </node>
            </node>
          </node>
        </node>
      </node>
    </node>
    <node concept="37WvkG" id="603vF1qqlcw" role="37WGs$">
      <ref role="37XkoT" to="vseb:1CEujLdGyhu" resolve="FormDescription" />
      <node concept="37Y9Zx" id="603vF1qqlcx" role="37ZfLb">
        <node concept="3clFbS" id="603vF1qqlcy" role="2VODD2">
          <node concept="Jncv_" id="603vF1qqlcz" role="3cqZAp">
            <ref role="JncvD" to="vseb:1CEujLdGyfl" resolve="StringDescription" />
            <node concept="1r4N5L" id="603vF1qqlc$" role="JncvB" />
            <node concept="JncvC" id="603vF1qqlc_" role="JncvA">
              <property role="TrG5h" value="original" />
              <node concept="2jxLKc" id="603vF1qqlcA" role="1tU5fm" />
            </node>
            <node concept="3clFbS" id="603vF1qqlcB" role="Jncv$">
              <node concept="3clFbF" id="603vF1qqlcC" role="3cqZAp">
                <node concept="37vLTI" id="603vF1qqlcD" role="3clFbG">
                  <node concept="2OqwBi" id="603vF1qqlcE" role="37vLTx">
                    <node concept="Jnkvi" id="603vF1qqlcF" role="2Oq$k0">
                      <ref role="1M0zk5" node="603vF1qqlc_" resolve="original" />
                    </node>
                    <node concept="3TrcHB" id="603vF1qqlcG" role="2OqNvi">
                      <ref role="3TsBF5" to="vseb:1CEujLdGyfm" resolve="value" />
                    </node>
                  </node>
                  <node concept="2OqwBi" id="603vF1qqlcH" role="37vLTJ">
                    <node concept="1r4Lsj" id="603vF1qqlcI" role="2Oq$k0" />
                    <node concept="3TrcHB" id="603vF1qqlcJ" role="2OqNvi">
                      <ref role="3TsBF5" to="vseb:1CEujLdGyhH" resolve="detail" />
                    </node>
                  </node>
                </node>
              </node>
            </node>
          </node>
          <node concept="Jncv_" id="603vF1qqlcK" role="3cqZAp">
            <ref role="JncvD" to="vseb:1CEujLdGyfO" resolve="SimplifiedFormDescription" />
            <node concept="1r4N5L" id="603vF1qqlcL" role="JncvB" />
            <node concept="JncvC" id="603vF1qqlcM" role="JncvA">
              <property role="TrG5h" value="original" />
              <node concept="2jxLKc" id="603vF1qqlcN" role="1tU5fm" />
            </node>
            <node concept="3clFbS" id="603vF1qqlcO" role="Jncv$">
              <node concept="3clFbF" id="603vF1qqlcP" role="3cqZAp">
                <node concept="37vLTI" id="603vF1qqlcQ" role="3clFbG">
                  <node concept="2OqwBi" id="603vF1qqlcR" role="37vLTx">
                    <node concept="Jnkvi" id="603vF1qqlcS" role="2Oq$k0">
                      <ref role="1M0zk5" node="603vF1qqlcM" resolve="original" />
                    </node>
                    <node concept="3TrcHB" id="603vF1qqlcT" role="2OqNvi">
                      <ref role="3TsBF5" to="vseb:1CEujLdGyfU" resolve="detail" />
                    </node>
                  </node>
                  <node concept="2OqwBi" id="603vF1qqlcU" role="37vLTJ">
                    <node concept="1r4Lsj" id="603vF1qqlcV" role="2Oq$k0" />
                    <node concept="3TrcHB" id="603vF1qqlcW" role="2OqNvi">
                      <ref role="3TsBF5" to="vseb:1CEujLdGyhH" resolve="detail" />
                    </node>
                  </node>
                </node>
              </node>
              <node concept="3clFbF" id="603vF1qqlcX" role="3cqZAp">
                <node concept="37vLTI" id="603vF1qqlcY" role="3clFbG">
                  <node concept="2OqwBi" id="603vF1qqlcZ" role="37vLTx">
                    <node concept="Jnkvi" id="603vF1qqld0" role="2Oq$k0">
                      <ref role="1M0zk5" node="603vF1qqlcM" resolve="original" />
                    </node>
                    <node concept="3TrcHB" id="603vF1qqld1" role="2OqNvi">
                      <ref role="3TsBF5" to="vseb:1CEujLdGyfR" resolve="firstTimeApplicant" />
                    </node>
                  </node>
                  <node concept="2OqwBi" id="603vF1qqld2" role="37vLTJ">
                    <node concept="1r4Lsj" id="603vF1qqld3" role="2Oq$k0" />
                    <node concept="3TrcHB" id="603vF1qqld4" role="2OqNvi">
                      <ref role="3TsBF5" to="vseb:1CEujLdGyh$" resolve="firstTimeApplicant" />
                    </node>
                  </node>
                </node>
              </node>
              <node concept="3clFbF" id="603vF1qqld5" role="3cqZAp">
                <node concept="37vLTI" id="603vF1qqld6" role="3clFbG">
                  <node concept="2OqwBi" id="603vF1qqld7" role="37vLTx">
                    <node concept="Jnkvi" id="603vF1qqld8" role="2Oq$k0">
                      <ref role="1M0zk5" node="603vF1qqlcM" resolve="original" />
                    </node>
                    <node concept="3TrcHB" id="603vF1qqld9" role="2OqNvi">
                      <ref role="3TsBF5" to="vseb:1CEujLdGyfP" resolve="requestor" />
                    </node>
                  </node>
                  <node concept="2OqwBi" id="603vF1qqlda" role="37vLTJ">
                    <node concept="1r4Lsj" id="603vF1qqldb" role="2Oq$k0" />
                    <node concept="3TrcHB" id="603vF1qqldc" role="2OqNvi">
                      <ref role="3TsBF5" to="vseb:1CEujLdGyhv" resolve="requestor" />
                    </node>
                  </node>
                </node>
              </node>
            </node>
          </node>
        </node>
      </node>
    </node>
    <node concept="37WvkG" id="603vF1qqOUZ" role="37WGs$">
      <ref role="37XkoT" to="vseb:1CEujLdGyfl" resolve="StringDescription" />
      <node concept="37Y9Zx" id="603vF1qqOV0" role="37ZfLb">
        <node concept="3clFbS" id="603vF1qqOV1" role="2VODD2">
          <node concept="Jncv_" id="603vF1qqOVf" role="3cqZAp">
            <ref role="JncvD" to="vseb:1CEujLdGyfO" resolve="SimplifiedFormDescription" />
            <node concept="1r4N5L" id="603vF1qqOVg" role="JncvB" />
            <node concept="JncvC" id="603vF1qqOVh" role="JncvA">
              <property role="TrG5h" value="original" />
              <node concept="2jxLKc" id="603vF1qqOVi" role="1tU5fm" />
            </node>
            <node concept="3clFbS" id="603vF1qqOVj" role="Jncv$">
              <node concept="3clFbF" id="603vF1qqOVk" role="3cqZAp">
                <node concept="37vLTI" id="603vF1qqOVl" role="3clFbG">
                  <node concept="2OqwBi" id="603vF1qqOVm" role="37vLTx">
                    <node concept="Jnkvi" id="603vF1qqOVn" role="2Oq$k0">
                      <ref role="1M0zk5" node="603vF1qqOVh" resolve="original" />
                    </node>
                    <node concept="3TrcHB" id="603vF1qqOVo" role="2OqNvi">
                      <ref role="3TsBF5" to="vseb:1CEujLdGyfU" resolve="detail" />
                    </node>
                  </node>
                  <node concept="2OqwBi" id="603vF1qqOVp" role="37vLTJ">
                    <node concept="1r4Lsj" id="603vF1qqOVq" role="2Oq$k0" />
                    <node concept="3TrcHB" id="603vF1qqPoE" role="2OqNvi">
                      <ref role="3TsBF5" to="vseb:1CEujLdGyfm" resolve="value" />
                    </node>
                  </node>
                </node>
              </node>
            </node>
          </node>
          <node concept="Jncv_" id="603vF1qqPrM" role="3cqZAp">
            <ref role="JncvD" to="vseb:1CEujLdGyhu" resolve="FormDescription" />
            <node concept="1r4N5L" id="603vF1qqPrN" role="JncvB" />
            <node concept="JncvC" id="603vF1qqPrO" role="JncvA">
              <property role="TrG5h" value="original" />
              <node concept="2jxLKc" id="603vF1qqPrP" role="1tU5fm" />
            </node>
            <node concept="3clFbS" id="603vF1qqPrQ" role="Jncv$">
              <node concept="3clFbF" id="603vF1qqPrR" role="3cqZAp">
                <node concept="37vLTI" id="603vF1qqPrS" role="3clFbG">
                  <node concept="2OqwBi" id="603vF1qqPrT" role="37vLTx">
                    <node concept="Jnkvi" id="603vF1qqPrU" role="2Oq$k0">
                      <ref role="1M0zk5" node="603vF1qqPrO" resolve="original" />
                    </node>
                    <node concept="3TrcHB" id="603vF1qqPrV" role="2OqNvi">
                      <ref role="3TsBF5" to="vseb:1CEujLdGyhH" resolve="detail" />
                    </node>
                  </node>
                  <node concept="2OqwBi" id="603vF1qqPrW" role="37vLTJ">
                    <node concept="1r4Lsj" id="603vF1qqPrX" role="2Oq$k0" />
                    <node concept="3TrcHB" id="603vF1qqPrY" role="2OqNvi">
                      <ref role="3TsBF5" to="vseb:1CEujLdGyfm" resolve="value" />
                    </node>
                  </node>
                </node>
              </node>
            </node>
          </node>
        </node>
      </node>
    </node>
  </node>
</model>

