<?xml version="1.0" encoding="UTF-8"?>
<model ref="r:7e1c7518-df7a-4f22-84b2-a5e68261264a(jetbrains.mps.samples.languagePatterns.Basic.constraints)">
  <persistence version="9" />
  <languages>
    <use id="3f4bc5f5-c6c1-4a28-8b10-c83066ffa4a1" name="jetbrains.mps.lang.constraints" version="0" />
    <use id="13744753-c81f-424a-9c1b-cf8943bf4e86" name="jetbrains.mps.lang.sharedConcepts" version="0" />
    <devkit ref="fbc25dd2-5da4-483a-8b19-70928e1b62d7(jetbrains.mps.devkit.general-purpose)" />
  </languages>
  <imports>
    <import index="vseb" ref="r:150e80ad-a158-4a95-9515-f61f51743da4(jetbrains.mps.samples.languagePatterns.Basic.structure)" />
    <import index="o8zo" ref="r:314576fc-3aee-4386-a0a5-a38348ac317d(jetbrains.mps.scope)" />
    <import index="tpck" ref="r:00000000-0000-4000-0000-011c89590288(jetbrains.mps.lang.core.structure)" implicit="true" />
    <import index="wyt6" ref="6354ebe7-c22a-4a0f-ac54-50b52ab9b065/java:java.lang(JDK/)" implicit="true" />
    <import index="antn" ref="r:28b8f088-78ff-4075-9c89-d9a68552bf40(jetbrains.mps.samples.languagePatterns.Basic.behavior)" implicit="true" />
    <import index="tpee" ref="r:00000000-0000-4000-0000-011c895902ca(jetbrains.mps.baseLanguage.structure)" implicit="true" />
  </imports>
  <registry>
    <language id="13744753-c81f-424a-9c1b-cf8943bf4e86" name="jetbrains.mps.lang.sharedConcepts">
      <concept id="1161622665029" name="jetbrains.mps.lang.sharedConcepts.structure.ConceptFunctionParameter_model" flags="nn" index="1Q6Npb" />
    </language>
    <language id="f3061a53-9226-4cc5-a443-f952ceaf5816" name="jetbrains.mps.baseLanguage">
      <concept id="4836112446988635817" name="jetbrains.mps.baseLanguage.structure.UndefinedType" flags="in" index="2jxLKc" />
      <concept id="1202948039474" name="jetbrains.mps.baseLanguage.structure.InstanceMethodCallOperation" flags="nn" index="liA8E" />
      <concept id="1197027756228" name="jetbrains.mps.baseLanguage.structure.DotExpression" flags="nn" index="2OqwBi">
        <child id="1197027771414" name="operand" index="2Oq$k0" />
        <child id="1197027833540" name="operation" index="2OqNvi" />
      </concept>
      <concept id="1145552977093" name="jetbrains.mps.baseLanguage.structure.GenericNewExpression" flags="nn" index="2ShNRf">
        <child id="1145553007750" name="creator" index="2ShVmc" />
      </concept>
      <concept id="1137021947720" name="jetbrains.mps.baseLanguage.structure.ConceptFunction" flags="in" index="2VMwT0">
        <child id="1137022507850" name="body" index="2VODD2" />
      </concept>
      <concept id="1182160077978" name="jetbrains.mps.baseLanguage.structure.AnonymousClassCreator" flags="nn" index="YeOm9">
        <child id="1182160096073" name="cls" index="YeSDq" />
      </concept>
      <concept id="1081236700937" name="jetbrains.mps.baseLanguage.structure.StaticMethodCall" flags="nn" index="2YIFZM">
        <reference id="1144433194310" name="classConcept" index="1Pybhc" />
      </concept>
      <concept id="1070534058343" name="jetbrains.mps.baseLanguage.structure.NullLiteral" flags="nn" index="10Nm6u" />
      <concept id="1068431474542" name="jetbrains.mps.baseLanguage.structure.VariableDeclaration" flags="ng" index="33uBYm">
        <property id="1176718929932" name="isFinal" index="3TUv4t" />
        <child id="1068431790190" name="initializer" index="33vP2m" />
      </concept>
      <concept id="1068498886296" name="jetbrains.mps.baseLanguage.structure.VariableReference" flags="nn" index="37vLTw">
        <reference id="1068581517664" name="variableDeclaration" index="3cqZAo" />
      </concept>
      <concept id="1068498886292" name="jetbrains.mps.baseLanguage.structure.ParameterDeclaration" flags="ir" index="37vLTG" />
      <concept id="1225271177708" name="jetbrains.mps.baseLanguage.structure.StringType" flags="in" index="17QB3L" />
      <concept id="1225271221393" name="jetbrains.mps.baseLanguage.structure.NPENotEqualsExpression" flags="nn" index="17QLQc" />
      <concept id="4972933694980447171" name="jetbrains.mps.baseLanguage.structure.BaseVariableDeclaration" flags="ng" index="19Szcq">
        <child id="5680397130376446158" name="type" index="1tU5fm" />
      </concept>
      <concept id="1068580123132" name="jetbrains.mps.baseLanguage.structure.BaseMethodDeclaration" flags="ng" index="3clF44">
        <child id="1068580123133" name="returnType" index="3clF45" />
        <child id="1068580123134" name="parameter" index="3clF46" />
        <child id="1068580123135" name="body" index="3clF47" />
      </concept>
      <concept id="1068580123165" name="jetbrains.mps.baseLanguage.structure.InstanceMethodDeclaration" flags="ig" index="3clFb_">
        <property id="1178608670077" name="isAbstract" index="1EzhhJ" />
      </concept>
      <concept id="1068580123155" name="jetbrains.mps.baseLanguage.structure.ExpressionStatement" flags="nn" index="3clFbF">
        <child id="1068580123156" name="expression" index="3clFbG" />
      </concept>
      <concept id="1068580123157" name="jetbrains.mps.baseLanguage.structure.Statement" flags="nn" index="3clFbH" />
      <concept id="1068580123136" name="jetbrains.mps.baseLanguage.structure.StatementList" flags="sn" stub="5293379017992965193" index="3clFbS">
        <child id="1068581517665" name="statement" index="3cqZAp" />
      </concept>
      <concept id="1068580320020" name="jetbrains.mps.baseLanguage.structure.IntegerConstant" flags="nn" index="3cmrfG">
        <property id="1068580320021" name="value" index="3cmrfH" />
      </concept>
      <concept id="1068581242878" name="jetbrains.mps.baseLanguage.structure.ReturnStatement" flags="nn" index="3cpWs6">
        <child id="1068581517676" name="expression" index="3cqZAk" />
      </concept>
      <concept id="1068581242864" name="jetbrains.mps.baseLanguage.structure.LocalVariableDeclarationStatement" flags="nn" index="3cpWs8">
        <child id="1068581242865" name="localVariableDeclaration" index="3cpWs9" />
      </concept>
      <concept id="1068581242863" name="jetbrains.mps.baseLanguage.structure.LocalVariableDeclaration" flags="nr" index="3cpWsn" />
      <concept id="1081506762703" name="jetbrains.mps.baseLanguage.structure.GreaterThanExpression" flags="nn" index="3eOSWO" />
      <concept id="1204053956946" name="jetbrains.mps.baseLanguage.structure.IMethodCall" flags="ng" index="1ndlxa">
        <reference id="1068499141037" name="baseMethodDeclaration" index="37wK5l" />
        <child id="1068499141038" name="actualArgument" index="37wK5m" />
      </concept>
      <concept id="1107461130800" name="jetbrains.mps.baseLanguage.structure.Classifier" flags="ng" index="3pOWGL">
        <property id="521412098689998745" name="nonStatic" index="2bfB8j" />
        <child id="5375687026011219971" name="member" index="jymVt" unordered="true" />
      </concept>
      <concept id="1081773326031" name="jetbrains.mps.baseLanguage.structure.BinaryOperation" flags="nn" index="3uHJSO">
        <child id="1081773367579" name="rightExpression" index="3uHU7w" />
        <child id="1081773367580" name="leftExpression" index="3uHU7B" />
      </concept>
      <concept id="1178549954367" name="jetbrains.mps.baseLanguage.structure.IVisible" flags="ng" index="1B3ioH">
        <child id="1178549979242" name="visibility" index="1B3o_S" />
      </concept>
      <concept id="1163668896201" name="jetbrains.mps.baseLanguage.structure.TernaryOperatorExpression" flags="nn" index="3K4zz7">
        <child id="1163668914799" name="condition" index="3K4Cdx" />
        <child id="1163668922816" name="ifTrue" index="3K4E3e" />
        <child id="1163668934364" name="ifFalse" index="3K4GZi" />
      </concept>
      <concept id="1146644602865" name="jetbrains.mps.baseLanguage.structure.PublicVisibility" flags="nn" index="3Tm1VV" />
      <concept id="1080120340718" name="jetbrains.mps.baseLanguage.structure.AndExpression" flags="nn" index="1Wc70l" />
      <concept id="1170345865475" name="jetbrains.mps.baseLanguage.structure.AnonymousClass" flags="ig" index="1Y3b0j">
        <reference id="1170346070688" name="classifier" index="1Y3XeK" />
      </concept>
    </language>
    <language id="3f4bc5f5-c6c1-4a28-8b10-c83066ffa4a1" name="jetbrains.mps.lang.constraints">
      <concept id="1202989531578" name="jetbrains.mps.lang.constraints.structure.ConstraintFunction_CanBeAChild" flags="in" index="nKS2y" />
      <concept id="1202989658459" name="jetbrains.mps.lang.constraints.structure.ConstraintFunctionParameter_parentNode" flags="nn" index="nLn13" />
      <concept id="8966504967485224688" name="jetbrains.mps.lang.constraints.structure.ConstraintFunctionParameter_contextNode" flags="nn" index="2rP1CM" />
      <concept id="4656991770397278593" name="jetbrains.mps.lang.constraints.structure.ConstraintFunctionParameter_exists" flags="nn" index="$OBjm" />
      <concept id="3906442776579556545" name="jetbrains.mps.lang.constraints.structure.ConstraintFunction_ReferentSearchScope_Presentation" flags="in" index="Bn3R3" />
      <concept id="3906442776579549644" name="jetbrains.mps.lang.constraints.structure.ConstraintFunctionParameter_parameterNode" flags="nn" index="Bn53e" />
      <concept id="1147467115080" name="jetbrains.mps.lang.constraints.structure.NodePropertyConstraint" flags="ng" index="EnEH3">
        <reference id="1147467295099" name="applicableProperty" index="EomxK" />
        <child id="1212097481299" name="propertyValidator" index="QCWH9" />
      </concept>
      <concept id="1212096972063" name="jetbrains.mps.lang.constraints.structure.ConstraintFunction_PropertyValidator" flags="in" index="QB0g5" />
      <concept id="5676632058862809931" name="jetbrains.mps.lang.constraints.structure.ConstraintFunction_ReferentSearchScope_Scope" flags="in" index="13QW63" />
      <concept id="1213093968558" name="jetbrains.mps.lang.constraints.structure.ConceptConstraints" flags="ng" index="1M2fIO">
        <reference id="1213093996982" name="concept" index="1M2myG" />
        <child id="1213098023997" name="property" index="1MhHOB" />
        <child id="1213100494875" name="referent" index="1Mr941" />
        <child id="1213106463729" name="canBeChild" index="1MLUbF" />
      </concept>
      <concept id="1148687176410" name="jetbrains.mps.lang.constraints.structure.NodeReferentConstraint" flags="ng" index="1N5Pfh">
        <reference id="1148687202698" name="applicableLink" index="1N5Vy1" />
        <child id="3906442776579556548" name="presentation" index="Bn3R6" />
        <child id="1148687345559" name="searchScopeFactory" index="1N6uqs" />
      </concept>
      <concept id="1153138554286" name="jetbrains.mps.lang.constraints.structure.ConstraintsFunctionParameter_propertyValue" flags="nn" index="1Wqviy" />
    </language>
    <language id="fd392034-7849-419d-9071-12563d152375" name="jetbrains.mps.baseLanguage.closures">
      <concept id="1199569711397" name="jetbrains.mps.baseLanguage.closures.structure.ClosureLiteral" flags="nn" index="1bVj0M">
        <child id="1199569906740" name="parameter" index="1bW2Oz" />
        <child id="1199569916463" name="body" index="1bW5cS" />
      </concept>
    </language>
    <language id="7866978e-a0f0-4cc7-81bc-4d213d9375e1" name="jetbrains.mps.lang.smodel">
      <concept id="1177026924588" name="jetbrains.mps.lang.smodel.structure.RefConcept_Reference" flags="nn" index="chp4Y">
        <reference id="1177026940964" name="conceptDeclaration" index="cht4Q" />
      </concept>
      <concept id="1138411891628" name="jetbrains.mps.lang.smodel.structure.SNodeOperation" flags="nn" index="eCIE_">
        <child id="1144104376918" name="parameter" index="1xVPHs" />
      </concept>
      <concept id="1179409122411" name="jetbrains.mps.lang.smodel.structure.Node_ConceptMethodCall" flags="nn" index="2qgKlT" />
      <concept id="2396822768958367367" name="jetbrains.mps.lang.smodel.structure.AbstractTypeCastExpression" flags="nn" index="$5XWr">
        <reference id="6733348108486823428" name="concept" index="1m5ApE" />
        <child id="6733348108486823193" name="leftExpression" index="1m5AlR" />
      </concept>
      <concept id="1145383075378" name="jetbrains.mps.lang.smodel.structure.SNodeListType" flags="in" index="2I9FWS">
        <reference id="1145383142433" name="elementConcept" index="2I9WkF" />
      </concept>
      <concept id="1171323947159" name="jetbrains.mps.lang.smodel.structure.Model_NodesOperation" flags="nn" index="2SmgA7">
        <child id="1758937410080001570" name="conceptArgument" index="1dBWTz" />
      </concept>
      <concept id="1171407110247" name="jetbrains.mps.lang.smodel.structure.Node_GetAncestorOperation" flags="nn" index="2Xjw5R" />
      <concept id="1139621453865" name="jetbrains.mps.lang.smodel.structure.Node_IsInstanceOfOperation" flags="nn" index="1mIQ4w">
        <child id="1177027386292" name="conceptArgument" index="cj9EA" />
      </concept>
      <concept id="1144100932627" name="jetbrains.mps.lang.smodel.structure.OperationParm_Inclusion" flags="ng" index="1xIGOp" />
      <concept id="1144101972840" name="jetbrains.mps.lang.smodel.structure.OperationParm_Concept" flags="ng" index="1xMEDy">
        <child id="1207343664468" name="conceptArgument" index="ri$Ld" />
      </concept>
      <concept id="1140137987495" name="jetbrains.mps.lang.smodel.structure.SNodeTypeCastExpression" flags="nn" index="1PxgMI">
        <property id="1238684351431" name="asCast" index="1BlNFB" />
      </concept>
      <concept id="1138055754698" name="jetbrains.mps.lang.smodel.structure.SNodeType" flags="in" index="3Tqbb2">
        <reference id="1138405853777" name="concept" index="ehGHo" />
      </concept>
      <concept id="1138056022639" name="jetbrains.mps.lang.smodel.structure.SPropertyAccess" flags="nn" index="3TrcHB">
        <reference id="1138056395725" name="property" index="3TsBF5" />
      </concept>
      <concept id="1138056143562" name="jetbrains.mps.lang.smodel.structure.SLinkAccess" flags="nn" index="3TrEf2">
        <reference id="1138056516764" name="link" index="3Tt5mk" />
      </concept>
      <concept id="1138056282393" name="jetbrains.mps.lang.smodel.structure.SLinkListAccess" flags="nn" index="3Tsc0h">
        <reference id="1138056546658" name="link" index="3TtcxE" />
      </concept>
    </language>
    <language id="ceab5195-25ea-4f22-9b92-103b95ca8c0c" name="jetbrains.mps.lang.core">
      <concept id="1133920641626" name="jetbrains.mps.lang.core.structure.BaseConcept" flags="ng" index="2VYdi">
        <property id="1193676396447" name="virtualPackage" index="3GE5qa" />
      </concept>
      <concept id="1169194658468" name="jetbrains.mps.lang.core.structure.INamedConcept" flags="ng" index="TrEIO">
        <property id="1169194664001" name="name" index="TrG5h" />
      </concept>
    </language>
    <language id="83888646-71ce-4f1c-9c53-c54016f6ad4f" name="jetbrains.mps.baseLanguage.collections">
      <concept id="1204796164442" name="jetbrains.mps.baseLanguage.collections.structure.InternalSequenceOperation" flags="nn" index="23sCx2">
        <child id="1204796294226" name="closure" index="23t8la" />
      </concept>
      <concept id="1151689724996" name="jetbrains.mps.baseLanguage.collections.structure.SequenceType" flags="in" index="A3Dl8">
        <child id="1151689745422" name="elementType" index="A3Ik2" />
      </concept>
      <concept id="1235566831861" name="jetbrains.mps.baseLanguage.collections.structure.AllOperation" flags="nn" index="2HxqBE" />
      <concept id="1203518072036" name="jetbrains.mps.baseLanguage.collections.structure.SmartClosureParameterDeclaration" flags="ig" index="Rh6nW" />
      <concept id="1202120902084" name="jetbrains.mps.baseLanguage.collections.structure.WhereOperation" flags="nn" index="3zZkjj" />
      <concept id="1202128969694" name="jetbrains.mps.baseLanguage.collections.structure.SelectOperation" flags="nn" index="3$u5V9" />
    </language>
  </registry>
  <node concept="1M2fIO" id="3j8xjFBytmZ">
    <property role="3GE5qa" value="declaration-references" />
    <ref role="1M2myG" to="vseb:3j8xjFBylNx" resolve="Performance" />
    <node concept="1N5Pfh" id="3j8xjFByJca" role="1Mr941">
      <ref role="1N5Vy1" to="vseb:3j8xjFBylNy" />
      <node concept="13QW63" id="3j8xjFByJce" role="1N6uqs">
        <node concept="3clFbS" id="3j8xjFByJcf" role="2VODD2">
          <node concept="3clFbH" id="3j8xjFBznNt" role="3cqZAp" />
          <node concept="3cpWs8" id="3j8xjFByTrg" role="3cqZAp">
            <node concept="3cpWsn" id="3j8xjFByTrh" role="3cpWs9">
              <property role="TrG5h" value="surroundingConcert" />
              <node concept="3Tqbb2" id="3j8xjFByTrf" role="1tU5fm">
                <ref role="ehGHo" to="vseb:3j8xjFBylL5" resolve="Concert" />
              </node>
              <node concept="2OqwBi" id="3j8xjFByTri" role="33vP2m">
                <node concept="2rP1CM" id="3j8xjFByTrj" role="2Oq$k0" />
                <node concept="2Xjw5R" id="3j8xjFByTrk" role="2OqNvi">
                  <node concept="1xMEDy" id="3j8xjFByTrl" role="1xVPHs">
                    <node concept="chp4Y" id="3j8xjFByTrm" role="ri$Ld">
                      <ref role="cht4Q" to="vseb:3j8xjFBylL5" resolve="Concert" />
                    </node>
                  </node>
                  <node concept="1xIGOp" id="3j8xjFByTrn" role="1xVPHs" />
                </node>
              </node>
            </node>
          </node>
          <node concept="3clFbH" id="3j8xjFBznFO" role="3cqZAp" />
          <node concept="3cpWs8" id="3j8xjFByVqg" role="3cqZAp">
            <node concept="3cpWsn" id="3j8xjFByVqh" role="3cpWs9">
              <property role="TrG5h" value="performersAtTheConcert" />
              <node concept="2I9FWS" id="3j8xjFByVqa" role="1tU5fm">
                <ref role="2I9WkF" to="vseb:3j8xjFBylMd" resolve="Singer" />
              </node>
              <node concept="2OqwBi" id="3j8xjFByVqi" role="33vP2m">
                <node concept="37vLTw" id="3j8xjFByVqj" role="2Oq$k0">
                  <ref role="3cqZAo" node="3j8xjFByTrh" resolve="surroundingConcert" />
                </node>
                <node concept="3Tsc0h" id="3j8xjFByVqk" role="2OqNvi">
                  <ref role="3TtcxE" to="vseb:3j8xjFBylMb" />
                </node>
              </node>
            </node>
          </node>
          <node concept="3clFbH" id="3j8xjFBzn$c" role="3cqZAp" />
          <node concept="3cpWs6" id="3j8xjFBznqb" role="3cqZAp">
            <node concept="2ShNRf" id="3j8xjFBznqd" role="3cqZAk">
              <node concept="YeOm9" id="3j8xjFBznqe" role="2ShVmc">
                <node concept="1Y3b0j" id="3j8xjFBznqf" role="YeSDq">
                  <property role="2bfB8j" value="true" />
                  <ref role="1Y3XeK" to="o8zo:4IP40Bi3e_R" resolve="ListScope" />
                  <ref role="37wK5l" to="o8zo:4IP40Bi3e_T" resolve="ListScope" />
                  <node concept="3Tm1VV" id="3j8xjFBznqg" role="1B3o_S" />
                  <node concept="3clFb_" id="3j8xjFBznqh" role="jymVt">
                    <property role="1EzhhJ" value="false" />
                    <property role="TrG5h" value="getName" />
                    <node concept="17QB3L" id="3j8xjFBznqi" role="3clF45" />
                    <node concept="3Tm1VV" id="3j8xjFBznqj" role="1B3o_S" />
                    <node concept="37vLTG" id="3j8xjFBznqk" role="3clF46">
                      <property role="TrG5h" value="child" />
                      <node concept="3Tqbb2" id="3j8xjFBznql" role="1tU5fm" />
                    </node>
                    <node concept="3clFbS" id="3j8xjFBznqm" role="3clF47">
                      <node concept="3clFbF" id="3j8xjFBznqn" role="3cqZAp">
                        <node concept="2OqwBi" id="3j8xjFBznqo" role="3clFbG">
                          <node concept="1PxgMI" id="3j8xjFBznqp" role="2Oq$k0">
                            <ref role="1m5ApE" to="vseb:3j8xjFBylMd" resolve="Singer" />
                            <node concept="37vLTw" id="3j8xjFBznqq" role="1m5AlR">
                              <ref role="3cqZAo" node="3j8xjFBznqk" resolve="child" />
                            </node>
                          </node>
                          <node concept="3TrcHB" id="3j8xjFBznqr" role="2OqNvi">
                            <ref role="3TsBF5" to="tpck:h0TrG11" resolve="name" />
                          </node>
                        </node>
                      </node>
                    </node>
                  </node>
                  <node concept="37vLTw" id="3j8xjFBznqs" role="37wK5m">
                    <ref role="3cqZAo" node="3j8xjFByVqh" resolve="performersAtTheConcert" />
                  </node>
                </node>
              </node>
            </node>
          </node>
        </node>
      </node>
    </node>
  </node>
  <node concept="1M2fIO" id="3j8xjFBytnn">
    <property role="3GE5qa" value="declaration-references" />
    <ref role="1M2myG" to="vseb:3j8xjFBylMd" resolve="Singer" />
    <node concept="EnEH3" id="3j8xjFBytno" role="1MhHOB">
      <ref role="EomxK" to="tpck:h0TrG11" resolve="name" />
      <node concept="QB0g5" id="3j8xjFBytnw" role="QCWH9">
        <node concept="3clFbS" id="3j8xjFBytnx" role="2VODD2">
          <node concept="3clFbF" id="3j8xjFByulO" role="3cqZAp">
            <node concept="1Wc70l" id="3j8xjFByzP9" role="3clFbG">
              <node concept="3eOSWO" id="3j8xjFByARF" role="3uHU7B">
                <node concept="3cmrfG" id="3j8xjFByARK" role="3uHU7w">
                  <property role="3cmrfH" value="0" />
                </node>
                <node concept="2OqwBi" id="3j8xjFBy$Sy" role="3uHU7B">
                  <node concept="1Wqviy" id="3j8xjFBy$hv" role="2Oq$k0" />
                  <node concept="liA8E" id="3j8xjFByA1K" role="2OqNvi">
                    <ref role="37wK5l" to="wyt6:~String.length():int" resolve="length" />
                  </node>
                </node>
              </node>
              <node concept="2YIFZM" id="3j8xjFByIAY" role="3uHU7w">
                <ref role="37wK5l" to="wyt6:~Character.isUpperCase(char):boolean" resolve="isUpperCase" />
                <ref role="1Pybhc" to="wyt6:~Character" resolve="Character" />
                <node concept="2OqwBi" id="3j8xjFByuZY" role="37wK5m">
                  <node concept="1Wqviy" id="3j8xjFByulN" role="2Oq$k0" />
                  <node concept="liA8E" id="3j8xjFBywHz" role="2OqNvi">
                    <ref role="37wK5l" to="wyt6:~String.charAt(int):char" resolve="charAt" />
                    <node concept="3cmrfG" id="3j8xjFByzpl" role="37wK5m">
                      <property role="3cmrfH" value="0" />
                    </node>
                  </node>
                </node>
              </node>
            </node>
          </node>
        </node>
      </node>
    </node>
  </node>
  <node concept="1M2fIO" id="3j8xjFB$rr6">
    <property role="3GE5qa" value="declaration-references.hierarchicalScope" />
    <ref role="1M2myG" to="vseb:3j8xjFBz_BV" resolve="Participant" />
    <node concept="1N5Pfh" id="3j8xjFB$rr7" role="1Mr941">
      <ref role="1N5Vy1" to="vseb:3j8xjFBz_BW" />
      <node concept="13QW63" id="3j8xjFB__OZ" role="1N6uqs">
        <node concept="3clFbS" id="3j8xjFB__P0" role="2VODD2">
          <node concept="3cpWs8" id="3j8xjFB_Kiw" role="3cqZAp">
            <node concept="3cpWsn" id="3j8xjFB_Kix" role="3cpWs9">
              <property role="TrG5h" value="concert" />
              <property role="3TUv4t" value="true" />
              <node concept="3Tqbb2" id="3j8xjFB_Kiu" role="1tU5fm">
                <ref role="ehGHo" to="vseb:3j8xjFBylL5" resolve="Concert" />
              </node>
              <node concept="2OqwBi" id="3j8xjFB_Kiy" role="33vP2m">
                <node concept="2rP1CM" id="3j8xjFB_Kiz" role="2Oq$k0" />
                <node concept="2Xjw5R" id="3j8xjFB_Ki$" role="2OqNvi">
                  <node concept="1xMEDy" id="3j8xjFB_Ki_" role="1xVPHs">
                    <node concept="chp4Y" id="3j8xjFB_KiA" role="ri$Ld">
                      <ref role="cht4Q" to="vseb:3j8xjFBylL5" resolve="Concert" />
                    </node>
                  </node>
                </node>
              </node>
            </node>
          </node>
          <node concept="3cpWs8" id="3j8xjFB_O5a" role="3cqZAp">
            <node concept="3cpWsn" id="3j8xjFB_O5b" role="3cpWs9">
              <property role="TrG5h" value="performance" />
              <property role="3TUv4t" value="true" />
              <node concept="2OqwBi" id="3j8xjFB_O5d" role="33vP2m">
                <node concept="2rP1CM" id="3j8xjFB_O5e" role="2Oq$k0" />
                <node concept="2Xjw5R" id="3j8xjFB_O5f" role="2OqNvi">
                  <node concept="1xMEDy" id="3j8xjFB_O5g" role="1xVPHs">
                    <node concept="chp4Y" id="3j8xjFB_OmJ" role="ri$Ld">
                      <ref role="cht4Q" to="vseb:3j8xjFBzu_g" resolve="CombinedPerformance" />
                    </node>
                  </node>
                  <node concept="1xIGOp" id="3j8xjFB_OF2" role="1xVPHs" />
                </node>
              </node>
              <node concept="3Tqbb2" id="3j8xjFB_OVZ" role="1tU5fm">
                <ref role="ehGHo" to="vseb:3j8xjFBzu_g" resolve="CombinedPerformance" />
              </node>
            </node>
          </node>
          <node concept="3cpWs8" id="3j8xjFBA6I6" role="3cqZAp">
            <node concept="3cpWsn" id="3j8xjFBA6I9" role="3cpWs9">
              <property role="TrG5h" value="me" />
              <property role="3TUv4t" value="true" />
              <node concept="3Tqbb2" id="3j8xjFBA6I4" role="1tU5fm">
                <ref role="ehGHo" to="vseb:3j8xjFBz_BV" resolve="Participant" />
              </node>
              <node concept="3K4zz7" id="3j8xjFBAdAZ" role="33vP2m">
                <node concept="10Nm6u" id="3j8xjFBAg11" role="3K4GZi" />
                <node concept="1PxgMI" id="3j8xjFBAjPg" role="3K4E3e">
                  <property role="1BlNFB" value="true" />
                  <ref role="1m5ApE" to="vseb:3j8xjFBz_BV" resolve="Participant" />
                  <node concept="2rP1CM" id="3j8xjFBAe00" role="1m5AlR" />
                </node>
                <node concept="$OBjm" id="3j8xjFBAcHo" role="3K4Cdx" />
              </node>
            </node>
          </node>
          <node concept="3clFbH" id="3j8xjFB_PaY" role="3cqZAp" />
          <node concept="3cpWs8" id="3j8xjFB$cW5" role="3cqZAp">
            <node concept="3cpWsn" id="3j8xjFB$cW6" role="3cpWs9">
              <property role="TrG5h" value="allSingers" />
              <property role="3TUv4t" value="true" />
              <node concept="2I9FWS" id="3j8xjFB$cVZ" role="1tU5fm">
                <ref role="2I9WkF" to="vseb:3j8xjFBylMd" resolve="Singer" />
              </node>
              <node concept="2OqwBi" id="3j8xjFB$cW7" role="33vP2m">
                <node concept="37vLTw" id="3j8xjFB_KiB" role="2Oq$k0">
                  <ref role="3cqZAo" node="3j8xjFB_Kix" resolve="concert" />
                </node>
                <node concept="3Tsc0h" id="3j8xjFB$cWd" role="2OqNvi">
                  <ref role="3TtcxE" to="vseb:3j8xjFBylMb" />
                </node>
              </node>
            </node>
          </node>
          <node concept="3clFbH" id="3j8xjFBACaJ" role="3cqZAp" />
          <node concept="3cpWs8" id="3j8xjFBzR1K" role="3cqZAp">
            <node concept="3cpWsn" id="3j8xjFBzR1L" role="3cpWs9">
              <property role="TrG5h" value="alreadyParticipatingSingersButMe" />
              <property role="3TUv4t" value="true" />
              <node concept="A3Dl8" id="3j8xjFBzR1z" role="1tU5fm">
                <node concept="3Tqbb2" id="3j8xjFBzR1A" role="A3Ik2">
                  <ref role="ehGHo" to="vseb:3j8xjFBylMd" resolve="Singer" />
                </node>
              </node>
              <node concept="2OqwBi" id="3j8xjFBzR1M" role="33vP2m">
                <node concept="2OqwBi" id="3j8xjFBBabF" role="2Oq$k0">
                  <node concept="2OqwBi" id="3j8xjFBzR1N" role="2Oq$k0">
                    <node concept="37vLTw" id="3j8xjFB_PrQ" role="2Oq$k0">
                      <ref role="3cqZAo" node="3j8xjFB_O5b" resolve="performance" />
                    </node>
                    <node concept="3Tsc0h" id="3j8xjFBzR1P" role="2OqNvi">
                      <ref role="3TtcxE" to="vseb:3j8xjFBzuAG" />
                    </node>
                  </node>
                  <node concept="3zZkjj" id="3j8xjFBBbIq" role="2OqNvi">
                    <node concept="1bVj0M" id="3j8xjFBBbIs" role="23t8la">
                      <node concept="3clFbS" id="3j8xjFBBbIt" role="1bW5cS">
                        <node concept="3clFbF" id="3j8xjFBBc8a" role="3cqZAp">
                          <node concept="17QLQc" id="3j8xjFBBcCT" role="3clFbG">
                            <node concept="37vLTw" id="3j8xjFBBd1N" role="3uHU7w">
                              <ref role="3cqZAo" node="3j8xjFBA6I9" resolve="me" />
                            </node>
                            <node concept="37vLTw" id="3j8xjFBBc89" role="3uHU7B">
                              <ref role="3cqZAo" node="3j8xjFBBbIu" resolve="it" />
                            </node>
                          </node>
                        </node>
                      </node>
                      <node concept="Rh6nW" id="3j8xjFBBbIu" role="1bW2Oz">
                        <property role="TrG5h" value="it" />
                        <node concept="2jxLKc" id="3j8xjFBBbIv" role="1tU5fm" />
                      </node>
                    </node>
                  </node>
                </node>
                <node concept="3$u5V9" id="3j8xjFBzR1Q" role="2OqNvi">
                  <node concept="1bVj0M" id="3j8xjFBzR1R" role="23t8la">
                    <node concept="3clFbS" id="3j8xjFBzR1S" role="1bW5cS">
                      <node concept="3clFbF" id="3j8xjFBzR1T" role="3cqZAp">
                        <node concept="2OqwBi" id="3j8xjFBzR1U" role="3clFbG">
                          <node concept="37vLTw" id="3j8xjFBzR1V" role="2Oq$k0">
                            <ref role="3cqZAo" node="3j8xjFBzR1X" resolve="participant" />
                          </node>
                          <node concept="3TrEf2" id="3j8xjFBzR1W" role="2OqNvi">
                            <ref role="3Tt5mk" to="vseb:3j8xjFBz_BW" />
                          </node>
                        </node>
                      </node>
                    </node>
                    <node concept="Rh6nW" id="3j8xjFBzR1X" role="1bW2Oz">
                      <property role="TrG5h" value="participant" />
                      <node concept="2jxLKc" id="3j8xjFBzR1Y" role="1tU5fm" />
                    </node>
                  </node>
                </node>
              </node>
            </node>
          </node>
          <node concept="3clFbH" id="3j8xjFBAyT2" role="3cqZAp" />
          <node concept="3cpWs8" id="3j8xjFBBfsp" role="3cqZAp">
            <node concept="3cpWsn" id="3j8xjFBBfsq" role="3cpWs9">
              <property role="TrG5h" value="candidates" />
              <node concept="A3Dl8" id="3j8xjFBBfsg" role="1tU5fm">
                <node concept="3Tqbb2" id="3j8xjFBBfsj" role="A3Ik2">
                  <ref role="ehGHo" to="vseb:3j8xjFBylMd" resolve="Singer" />
                </node>
              </node>
              <node concept="2OqwBi" id="3j8xjFBBfsr" role="33vP2m">
                <node concept="37vLTw" id="3j8xjFBBfss" role="2Oq$k0">
                  <ref role="3cqZAo" node="3j8xjFB$cW6" resolve="allSingers" />
                </node>
                <node concept="3zZkjj" id="3j8xjFBBfst" role="2OqNvi">
                  <node concept="1bVj0M" id="3j8xjFBBfsu" role="23t8la">
                    <node concept="3clFbS" id="3j8xjFBBfsv" role="1bW5cS">
                      <node concept="3clFbF" id="3j8xjFBBfsw" role="3cqZAp">
                        <node concept="2OqwBi" id="3j8xjFBBfsx" role="3clFbG">
                          <node concept="37vLTw" id="3j8xjFBBfsy" role="2Oq$k0">
                            <ref role="3cqZAo" node="3j8xjFBzR1L" resolve="alreadyParticipatingSingersButMe" />
                          </node>
                          <node concept="2HxqBE" id="3j8xjFBBfsz" role="2OqNvi">
                            <node concept="1bVj0M" id="3j8xjFBBfs$" role="23t8la">
                              <node concept="3clFbS" id="3j8xjFBBfs_" role="1bW5cS">
                                <node concept="3clFbF" id="3j8xjFBBfsA" role="3cqZAp">
                                  <node concept="17QLQc" id="3j8xjFBBfsB" role="3clFbG">
                                    <node concept="37vLTw" id="3j8xjFBBfsC" role="3uHU7w">
                                      <ref role="3cqZAo" node="3j8xjFBBfsG" resolve="singer" />
                                    </node>
                                    <node concept="37vLTw" id="3j8xjFBBfsD" role="3uHU7B">
                                      <ref role="3cqZAo" node="3j8xjFBBfsE" resolve="participatingSinger" />
                                    </node>
                                  </node>
                                </node>
                              </node>
                              <node concept="Rh6nW" id="3j8xjFBBfsE" role="1bW2Oz">
                                <property role="TrG5h" value="participatingSinger" />
                                <node concept="2jxLKc" id="3j8xjFBBfsF" role="1tU5fm" />
                              </node>
                            </node>
                          </node>
                        </node>
                      </node>
                    </node>
                    <node concept="Rh6nW" id="3j8xjFBBfsG" role="1bW2Oz">
                      <property role="TrG5h" value="singer" />
                      <node concept="2jxLKc" id="3j8xjFBBfsH" role="1tU5fm" />
                    </node>
                  </node>
                </node>
              </node>
            </node>
          </node>
          <node concept="3clFbH" id="3j8xjFBB6Cm" role="3cqZAp" />
          <node concept="3cpWs6" id="3j8xjFB$i8D" role="3cqZAp">
            <node concept="2ShNRf" id="3j8xjFB$lch" role="3cqZAk">
              <node concept="YeOm9" id="3j8xjFB$mev" role="2ShVmc">
                <node concept="1Y3b0j" id="3j8xjFB$mey" role="YeSDq">
                  <property role="2bfB8j" value="true" />
                  <ref role="1Y3XeK" to="o8zo:4IP40Bi3e_R" resolve="ListScope" />
                  <ref role="37wK5l" to="o8zo:4IP40Bi3e_T" resolve="ListScope" />
                  <node concept="3Tm1VV" id="3j8xjFB$mez" role="1B3o_S" />
                  <node concept="3clFb_" id="3j8xjFB$me$" role="jymVt">
                    <property role="1EzhhJ" value="false" />
                    <property role="TrG5h" value="getName" />
                    <node concept="17QB3L" id="3j8xjFB$me_" role="3clF45" />
                    <node concept="3Tm1VV" id="3j8xjFB$meA" role="1B3o_S" />
                    <node concept="37vLTG" id="3j8xjFB$meC" role="3clF46">
                      <property role="TrG5h" value="child" />
                      <node concept="3Tqbb2" id="3j8xjFB$meD" role="1tU5fm" />
                    </node>
                    <node concept="3clFbS" id="3j8xjFB$meE" role="3clF47">
                      <node concept="3clFbF" id="3j8xjFB$pTW" role="3cqZAp">
                        <node concept="2OqwBi" id="3j8xjFB$q6k" role="3clFbG">
                          <node concept="1PxgMI" id="3j8xjFB$q0P" role="2Oq$k0">
                            <ref role="1m5ApE" to="vseb:3j8xjFBylMd" resolve="Singer" />
                            <node concept="37vLTw" id="3j8xjFB$pTV" role="1m5AlR">
                              <ref role="3cqZAo" node="3j8xjFB$meC" resolve="child" />
                            </node>
                          </node>
                          <node concept="3TrcHB" id="3j8xjFB$rmZ" role="2OqNvi">
                            <ref role="3TsBF5" to="tpck:h0TrG11" resolve="name" />
                          </node>
                        </node>
                      </node>
                    </node>
                  </node>
                  <node concept="37vLTw" id="3j8xjFBBCcx" role="37wK5m">
                    <ref role="3cqZAo" node="3j8xjFBBfsq" resolve="candidates" />
                  </node>
                </node>
              </node>
            </node>
          </node>
        </node>
      </node>
    </node>
  </node>
  <node concept="1M2fIO" id="4Vpsm2KEFQN">
    <property role="3GE5qa" value="custom-presentation" />
    <ref role="1M2myG" to="vseb:4Vpsm2KDZHL" resolve="ComponentUsage" />
    <node concept="1N5Pfh" id="4Vpsm2KEFQO" role="1Mr941">
      <ref role="1N5Vy1" to="vseb:4Vpsm2KDZI_" />
      <node concept="Bn3R3" id="4Vpsm2KEFTv" role="Bn3R6">
        <node concept="3clFbS" id="4Vpsm2KEFTw" role="2VODD2">
          <node concept="3clFbF" id="4Vpsm2KEG6F" role="3cqZAp">
            <node concept="2OqwBi" id="4Vpsm2KEGjS" role="3clFbG">
              <node concept="Bn53e" id="4Vpsm2KEG6E" role="2Oq$k0" />
              <node concept="2qgKlT" id="4Vpsm2KEGFu" role="2OqNvi">
                <ref role="37wK5l" to="antn:4Vpsm2KEoLo" resolve="fullName" />
              </node>
            </node>
          </node>
        </node>
      </node>
      <node concept="13QW63" id="4Vpsm2KEQrq" role="1N6uqs">
        <node concept="3clFbS" id="4Vpsm2KEQrr" role="2VODD2">
          <node concept="3cpWs8" id="4Vpsm2KFfXD" role="3cqZAp">
            <node concept="3cpWsn" id="4Vpsm2KFfXE" role="3cpWs9">
              <property role="TrG5h" value="unusedComponents" />
              <node concept="A3Dl8" id="4Vpsm2KFfWL" role="1tU5fm">
                <node concept="3Tqbb2" id="4Vpsm2KFfWO" role="A3Ik2">
                  <ref role="ehGHo" to="vseb:4Vpsm2KDZCE" resolve="Component" />
                </node>
              </node>
              <node concept="2OqwBi" id="4Vpsm2KFfXF" role="33vP2m">
                <node concept="2OqwBi" id="4Vpsm2KFfXG" role="2Oq$k0">
                  <node concept="1Q6Npb" id="4Vpsm2KFfXH" role="2Oq$k0" />
                  <node concept="2SmgA7" id="4Vpsm2KFfXI" role="2OqNvi">
                    <node concept="chp4Y" id="3MnEEnJ8rWD" role="1dBWTz">
                      <ref role="cht4Q" to="vseb:4Vpsm2KDZCE" resolve="Component" />
                    </node>
                  </node>
                </node>
                <node concept="3zZkjj" id="4Vpsm2KFfXJ" role="2OqNvi">
                  <node concept="1bVj0M" id="4Vpsm2KFfXK" role="23t8la">
                    <node concept="3clFbS" id="4Vpsm2KFfXL" role="1bW5cS">
                      <node concept="3clFbF" id="4Vpsm2KFfXM" role="3cqZAp">
                        <node concept="2OqwBi" id="4Vpsm2KFfXN" role="3clFbG">
                          <node concept="2OqwBi" id="4Vpsm2KFfXO" role="2Oq$k0">
                            <node concept="2OqwBi" id="4Vpsm2KFfXP" role="2Oq$k0">
                              <node concept="1Q6Npb" id="4Vpsm2KFfXQ" role="2Oq$k0" />
                              <node concept="2SmgA7" id="4Vpsm2KFfXR" role="2OqNvi">
                                <node concept="chp4Y" id="3MnEEnJ8rWB" role="1dBWTz">
                                  <ref role="cht4Q" to="vseb:4Vpsm2KDZHL" resolve="ComponentUsage" />
                                </node>
                              </node>
                            </node>
                            <node concept="3zZkjj" id="4Vpsm2KFfXS" role="2OqNvi">
                              <node concept="1bVj0M" id="4Vpsm2KFfXT" role="23t8la">
                                <node concept="3clFbS" id="4Vpsm2KFfXU" role="1bW5cS">
                                  <node concept="3clFbF" id="4Vpsm2KFfXV" role="3cqZAp">
                                    <node concept="17QLQc" id="4Vpsm2KFfXW" role="3clFbG">
                                      <node concept="2rP1CM" id="4Vpsm2KFfXX" role="3uHU7w" />
                                      <node concept="37vLTw" id="4Vpsm2KFfXY" role="3uHU7B">
                                        <ref role="3cqZAo" node="4Vpsm2KFfXZ" resolve="u" />
                                      </node>
                                    </node>
                                  </node>
                                </node>
                                <node concept="Rh6nW" id="4Vpsm2KFfXZ" role="1bW2Oz">
                                  <property role="TrG5h" value="u" />
                                  <node concept="2jxLKc" id="4Vpsm2KFfY0" role="1tU5fm" />
                                </node>
                              </node>
                            </node>
                          </node>
                          <node concept="2HxqBE" id="4Vpsm2KFfY1" role="2OqNvi">
                            <node concept="1bVj0M" id="4Vpsm2KFfY2" role="23t8la">
                              <node concept="3clFbS" id="4Vpsm2KFfY3" role="1bW5cS">
                                <node concept="3clFbF" id="4Vpsm2KFfY4" role="3cqZAp">
                                  <node concept="17QLQc" id="4Vpsm2KFfY5" role="3clFbG">
                                    <node concept="37vLTw" id="4Vpsm2KFfY6" role="3uHU7w">
                                      <ref role="3cqZAo" node="4Vpsm2KFfYc" resolve="b" />
                                    </node>
                                    <node concept="2OqwBi" id="4Vpsm2KFfY7" role="3uHU7B">
                                      <node concept="37vLTw" id="4Vpsm2KFfY8" role="2Oq$k0">
                                        <ref role="3cqZAo" node="4Vpsm2KFfYa" resolve="u" />
                                      </node>
                                      <node concept="3TrEf2" id="4Vpsm2KFfY9" role="2OqNvi">
                                        <ref role="3Tt5mk" to="vseb:4Vpsm2KDZI_" />
                                      </node>
                                    </node>
                                  </node>
                                </node>
                              </node>
                              <node concept="Rh6nW" id="4Vpsm2KFfYa" role="1bW2Oz">
                                <property role="TrG5h" value="u" />
                                <node concept="2jxLKc" id="4Vpsm2KFfYb" role="1tU5fm" />
                              </node>
                            </node>
                          </node>
                        </node>
                      </node>
                    </node>
                    <node concept="Rh6nW" id="4Vpsm2KFfYc" role="1bW2Oz">
                      <property role="TrG5h" value="b" />
                      <node concept="2jxLKc" id="4Vpsm2KFfYd" role="1tU5fm" />
                    </node>
                  </node>
                </node>
              </node>
            </node>
          </node>
          <node concept="3clFbF" id="4Vpsm2KFhtg" role="3cqZAp">
            <node concept="2ShNRf" id="4Vpsm2KFhtc" role="3clFbG">
              <node concept="YeOm9" id="4Vpsm2KFhJX" role="2ShVmc">
                <node concept="1Y3b0j" id="4Vpsm2KFhK0" role="YeSDq">
                  <property role="2bfB8j" value="true" />
                  <ref role="1Y3XeK" to="o8zo:4IP40Bi3e_R" resolve="ListScope" />
                  <ref role="37wK5l" to="o8zo:4IP40Bi3e_T" resolve="ListScope" />
                  <node concept="3Tm1VV" id="4Vpsm2KFhK1" role="1B3o_S" />
                  <node concept="3clFb_" id="4Vpsm2KFhKc" role="jymVt">
                    <property role="1EzhhJ" value="false" />
                    <property role="TrG5h" value="getName" />
                    <node concept="17QB3L" id="4Vpsm2KFhKd" role="3clF45" />
                    <node concept="3Tm1VV" id="4Vpsm2KFhKe" role="1B3o_S" />
                    <node concept="37vLTG" id="4Vpsm2KFhKg" role="3clF46">
                      <property role="TrG5h" value="child" />
                      <node concept="3Tqbb2" id="4Vpsm2KFhKh" role="1tU5fm" />
                    </node>
                    <node concept="3clFbS" id="4Vpsm2KFhKi" role="3clF47">
                      <node concept="3clFbF" id="4Vpsm2KFi45" role="3cqZAp">
                        <node concept="2OqwBi" id="4Vpsm2KFih9" role="3clFbG">
                          <node concept="1PxgMI" id="4Vpsm2KFiaW" role="2Oq$k0">
                            <ref role="1m5ApE" to="vseb:4Vpsm2KDZCE" resolve="Component" />
                            <node concept="37vLTw" id="4Vpsm2KFi44" role="1m5AlR">
                              <ref role="3cqZAo" node="4Vpsm2KFhKg" resolve="child" />
                            </node>
                          </node>
                          <node concept="3TrcHB" id="4Vpsm2KFisu" role="2OqNvi">
                            <ref role="3TsBF5" to="tpck:h0TrG11" resolve="name" />
                          </node>
                        </node>
                      </node>
                    </node>
                  </node>
                  <node concept="37vLTw" id="4Vpsm2KFhUL" role="37wK5m">
                    <ref role="3cqZAo" node="4Vpsm2KFfXE" resolve="unusedComponents" />
                  </node>
                </node>
              </node>
            </node>
          </node>
        </node>
      </node>
    </node>
  </node>
  <node concept="1M2fIO" id="4yAESKAIRxU">
    <property role="3GE5qa" value="dotexpression" />
    <ref role="1M2myG" to="vseb:4yAESKAIRxw" resolve="OperationOnAddress" />
    <node concept="nKS2y" id="4yAESKAIRxV" role="1MLUbF">
      <node concept="3clFbS" id="4yAESKAIRxW" role="2VODD2">
        <node concept="3clFbF" id="4yAESKAIPZA" role="3cqZAp">
          <node concept="2OqwBi" id="4yAESKAIR5W" role="3clFbG">
            <node concept="2OqwBi" id="4yAESKAIQx5" role="2Oq$k0">
              <node concept="1PxgMI" id="4yAESKAIQjh" role="2Oq$k0">
                <property role="1BlNFB" value="true" />
                <ref role="1m5ApE" to="tpee:hqOqwz4" resolve="DotExpression" />
                <node concept="nLn13" id="4yAESKAIPZ_" role="1m5AlR" />
              </node>
              <node concept="3TrEf2" id="4yAESKAIQLG" role="2OqNvi">
                <ref role="3Tt5mk" to="tpee:hqOq$gm" />
              </node>
            </node>
            <node concept="1mIQ4w" id="4yAESKAIRlE" role="2OqNvi">
              <node concept="chp4Y" id="4yAESKAIRC3" role="cj9EA">
                <ref role="cht4Q" to="vseb:4yAESKAHjkP" resolve="AddressReference" />
              </node>
            </node>
          </node>
        </node>
      </node>
    </node>
  </node>
</model>

