<?xml version="1.0" encoding="UTF-8"?>
<model ref="r:db2ce397-cf4f-423c-9613-b88195c6529a(jetbrains.mps.vcs.mergehints.constraints)">
  <persistence version="9" />
  <languages>
    <use id="3f4bc5f5-c6c1-4a28-8b10-c83066ffa4a1" name="jetbrains.mps.lang.constraints" version="0" />
    <devkit ref="fbc25dd2-5da4-483a-8b19-70928e1b62d7(jetbrains.mps.devkit.general-purpose)" />
  </languages>
  <imports />
  <registry />
</model>

