<?xml version="1.0" encoding="UTF-8"?>
<model ref="r:134c8eea-8ea6-4b50-ba87-7cf1b28ce5ba(jetbrains.mps.vcs.mergehints.structure)">
  <persistence version="9" />
  <languages>
    <use id="c72da2b9-7cce-4447-8389-f407dc1158b7" name="jetbrains.mps.lang.structure" version="3" />
    <use id="982eb8df-2c96-4bd7-9963-11712ea622e5" name="jetbrains.mps.lang.resources" version="2" />
    <devkit ref="fbc25dd2-5da4-483a-8b19-70928e1b62d7(jetbrains.mps.devkit.general-purpose)" />
  </languages>
  <imports>
    <import index="tpck" ref="r:00000000-0000-4000-0000-011c89590288(jetbrains.mps.lang.core.structure)" implicit="true" />
    <import index="tpce" ref="r:00000000-0000-4000-0000-011c89590292(jetbrains.mps.lang.structure.structure)" implicit="true" />
  </imports>
  <registry>
    <language id="c72da2b9-7cce-4447-8389-f407dc1158b7" name="jetbrains.mps.lang.structure">
      <concept id="6054523464627964745" name="jetbrains.mps.lang.structure.structure.AttributeInfo_AttributedConcept" flags="ng" index="trNpa">
        <reference id="6054523464627965081" name="concept" index="trN6q" />
      </concept>
      <concept id="1082978164219" name="jetbrains.mps.lang.structure.structure.EnumerationDataTypeDeclaration" flags="ng" index="AxPO7">
        <reference id="1083171729157" name="memberDataType" index="M4eZT" />
        <child id="1083172003582" name="member" index="M5hS2" />
      </concept>
      <concept id="1083171877298" name="jetbrains.mps.lang.structure.structure.EnumerationMemberDeclaration" flags="ig" index="M4N5e">
        <property id="1083923523172" name="externalValue" index="1uS6qo" />
        <property id="1083923523171" name="internalValue" index="1uS6qv" />
      </concept>
      <concept id="2992811758677295509" name="jetbrains.mps.lang.structure.structure.AttributeInfo" flags="ng" index="M6xJ_">
        <property id="7588428831955550663" name="role" index="Hh88m" />
        <child id="7588428831947959310" name="attributed" index="EQaZv" />
      </concept>
      <concept id="1169125787135" name="jetbrains.mps.lang.structure.structure.AbstractConceptDeclaration" flags="ig" index="PkWjJ">
        <property id="6714410169261853888" name="conceptId" index="EcuMT" />
        <child id="1071489727084" name="propertyDeclaration" index="1TKVEl" />
      </concept>
      <concept id="1071489090640" name="jetbrains.mps.lang.structure.structure.ConceptDeclaration" flags="ig" index="1TIwiD">
        <reference id="1071489389519" name="extends" index="1TJDcQ" />
      </concept>
      <concept id="1071489288299" name="jetbrains.mps.lang.structure.structure.PropertyDeclaration" flags="ig" index="1TJgyi">
        <property id="241647608299431129" name="propertyId" index="IQ2nx" />
        <reference id="1082985295845" name="dataType" index="AX2Wp" />
      </concept>
    </language>
    <language id="ceab5195-25ea-4f22-9b92-103b95ca8c0c" name="jetbrains.mps.lang.core">
      <concept id="1133920641626" name="jetbrains.mps.lang.core.structure.BaseConcept" flags="ng" index="2VYdi">
        <child id="5169995583184591170" name="smodelAttribute" index="lGtFl" />
      </concept>
      <concept id="1169194658468" name="jetbrains.mps.lang.core.structure.INamedConcept" flags="ng" index="TrEIO">
        <property id="1169194664001" name="name" index="TrG5h" />
      </concept>
    </language>
  </registry>
  <node concept="1TIwiD" id="6lZ2aXXUNcq">
    <property role="TrG5h" value="MergeHint" />
    <property role="EcuMT" value="7313573869697839898" />
    <ref role="1TJDcQ" to="tpck:2ULFgo8_XDk" resolve="NodeAttribute" />
    <node concept="1TJgyi" id="7n1vgxszwQU" role="1TKVEl">
      <property role="TrG5h" value="hint" />
      <property role="IQ2nx" value="8485200647808748986" />
      <ref role="AX2Wp" node="7n1vgxszwQh" resolve="Strategy" />
    </node>
    <node concept="M6xJ_" id="6lZ2aXXUN_V" role="lGtFl">
      <property role="Hh88m" value="mergeHint" />
      <node concept="trNpa" id="6lZ2aXXUSo9" role="EQaZv">
        <ref role="trN6q" to="tpce:h0PkWnZ" resolve="AbstractConceptDeclaration" />
      </node>
      <node concept="trNpa" id="6lZ2aXXVjKI" role="EQaZv">
        <ref role="trN6q" to="tpce:f_TJgxE" resolve="LinkDeclaration" />
      </node>
      <node concept="trNpa" id="6lZ2aXXVjKQ" role="EQaZv">
        <ref role="trN6q" to="tpce:f_TJgxF" resolve="PropertyDeclaration" />
      </node>
    </node>
  </node>
  <node concept="AxPO7" id="7n1vgxszwQh">
    <property role="TrG5h" value="Strategy" />
    <ref role="M4eZT" to="tpck:fKAQMTA" resolve="integer" />
    <node concept="M4N5e" id="7n1vgxszwQL" role="M5hS2">
      <property role="1uS6qv" value="1" />
      <property role="1uS6qo" value="ours" />
    </node>
    <node concept="M4N5e" id="7n1vgxszwQR" role="M5hS2">
      <property role="1uS6qo" value="theirs" />
      <property role="1uS6qv" value="2" />
    </node>
  </node>
</model>

