<?xml version="1.0" encoding="UTF-8"?>
<model ref="r:0f4db6eb-148d-44cb-ac9d-a618b0bc8a92(testSubstituteType.model)">
  <persistence version="9" />
  <languages>
    <use id="8585453e-6bfb-4d80-98de-b16074f1d86c" name="jetbrains.mps.lang.test" version="1" />
    <use id="2f74e72e-3e3d-480e-bae1-cc709d588366" name="testAnnotatedType" version="0" />
    <use id="9290638e-635b-4ec6-bcad-945ecb88a928" name="testWrappedType" version="0" />
    <use id="394e3857-3256-4e8b-9601-5abe7ad354d9" name="testOverridingType" version="0" />
    <use id="9f846aef-4e4a-4a84-828e-7e83fe2697f2" name="jetbrains.mps.build.mps.testManifest" version="0" />
    <use id="f3061a53-9226-4cc5-a443-f952ceaf5816" name="jetbrains.mps.baseLanguage" version="4" />
  </languages>
  <imports />
  <registry>
    <language id="8585453e-6bfb-4d80-98de-b16074f1d86c" name="jetbrains.mps.lang.test">
      <concept id="1215507671101" name="jetbrains.mps.lang.test.structure.NodeErrorCheckOperation" flags="ng" index="1TM$A" />
      <concept id="1215526290564" name="jetbrains.mps.lang.test.structure.NodeTypeCheckOperation" flags="ng" index="30Omv">
        <child id="1215526393912" name="type" index="31d$z" />
      </concept>
      <concept id="1215603922101" name="jetbrains.mps.lang.test.structure.NodeOperationsContainer" flags="ng" index="7CXmI">
        <child id="1215604436604" name="nodeOperations" index="7EUXB" />
      </concept>
      <concept id="1215607067978" name="jetbrains.mps.lang.test.structure.CheckNodeForErrorMessagesOperation" flags="ng" index="7OXhh">
        <property id="852155438140865198" name="allowWarnings" index="G7GLP" />
      </concept>
      <concept id="5097124989038916362" name="jetbrains.mps.lang.test.structure.TestInfo" flags="ng" index="2XOHcx">
        <property id="5097124989038916363" name="projectPath" index="2XOHcw" />
      </concept>
      <concept id="1216913645126" name="jetbrains.mps.lang.test.structure.NodesTestCase" flags="lg" index="1lH9Xt">
        <child id="1217501822150" name="nodesToCheck" index="1SKRRt" />
      </concept>
      <concept id="1216989428737" name="jetbrains.mps.lang.test.structure.TestNode" flags="ng" index="1qefOq">
        <child id="1216989461394" name="nodeToCheck" index="1qenE9" />
      </concept>
    </language>
    <language id="9290638e-635b-4ec6-bcad-945ecb88a928" name="testWrappedType">
      <concept id="1252378774017430315" name="testWrappedType.structure.TypeWithUnits" flags="ig" index="sVgjR">
        <property id="1252378774017430316" name="unit" index="sVgjK" />
      </concept>
      <concept id="1252378774017430204" name="testWrappedType.structure.WrapperType" flags="ig" index="sVglw">
        <child id="1252378774017430205" name="wrapped" index="sVglx" />
      </concept>
    </language>
    <language id="f3061a53-9226-4cc5-a443-f952ceaf5816" name="jetbrains.mps.baseLanguage">
      <concept id="1215693861676" name="jetbrains.mps.baseLanguage.structure.BaseAssignmentExpression" flags="nn" index="d038R">
        <child id="1068498886297" name="rValue" index="37vLTx" />
        <child id="1068498886295" name="lValue" index="37vLTJ" />
      </concept>
      <concept id="1465982738277781862" name="jetbrains.mps.baseLanguage.structure.PlaceholderMember" flags="ng" index="2tJIrI" />
      <concept id="1068390468200" name="jetbrains.mps.baseLanguage.structure.FieldDeclaration" flags="ig" index="312cEg" />
      <concept id="1068390468198" name="jetbrains.mps.baseLanguage.structure.ClassConcept" flags="ig" index="312cEu" />
      <concept id="1068431474542" name="jetbrains.mps.baseLanguage.structure.VariableDeclaration" flags="ng" index="33uBYm">
        <child id="1068431790190" name="initializer" index="33vP2m" />
      </concept>
      <concept id="1068498886296" name="jetbrains.mps.baseLanguage.structure.VariableReference" flags="nn" index="37vLTw">
        <reference id="1068581517664" name="variableDeclaration" index="3cqZAo" />
      </concept>
      <concept id="1068498886292" name="jetbrains.mps.baseLanguage.structure.ParameterDeclaration" flags="ir" index="37vLTG" />
      <concept id="1068498886294" name="jetbrains.mps.baseLanguage.structure.AssignmentExpression" flags="nn" index="37vLTI" />
      <concept id="4972933694980447171" name="jetbrains.mps.baseLanguage.structure.BaseVariableDeclaration" flags="ng" index="19Szcq">
        <child id="5680397130376446158" name="type" index="1tU5fm" />
      </concept>
      <concept id="1068580123132" name="jetbrains.mps.baseLanguage.structure.BaseMethodDeclaration" flags="ng" index="3clF44">
        <child id="1068580123133" name="returnType" index="3clF45" />
        <child id="1068580123134" name="parameter" index="3clF46" />
        <child id="1068580123135" name="body" index="3clF47" />
      </concept>
      <concept id="1068580123165" name="jetbrains.mps.baseLanguage.structure.InstanceMethodDeclaration" flags="ig" index="3clFb_" />
      <concept id="1068580123155" name="jetbrains.mps.baseLanguage.structure.ExpressionStatement" flags="nn" index="3clFbF">
        <child id="1068580123156" name="expression" index="3clFbG" />
      </concept>
      <concept id="1068580123157" name="jetbrains.mps.baseLanguage.structure.Statement" flags="nn" index="3clFbH" />
      <concept id="1068580123136" name="jetbrains.mps.baseLanguage.structure.StatementList" flags="sn" stub="5293379017992965193" index="3clFbS">
        <child id="1068581517665" name="statement" index="3cqZAp" />
      </concept>
      <concept id="1068580123137" name="jetbrains.mps.baseLanguage.structure.BooleanConstant" flags="nn" index="3clFbT">
        <property id="1068580123138" name="value" index="3clFbU" />
      </concept>
      <concept id="1068580320020" name="jetbrains.mps.baseLanguage.structure.IntegerConstant" flags="nn" index="3cmrfG">
        <property id="1068580320021" name="value" index="3cmrfH" />
      </concept>
      <concept id="1068581242875" name="jetbrains.mps.baseLanguage.structure.PlusExpression" flags="nn" index="3cpWs3" />
      <concept id="1068581242878" name="jetbrains.mps.baseLanguage.structure.ReturnStatement" flags="nn" index="3cpWs6">
        <child id="1068581517676" name="expression" index="3cqZAk" />
      </concept>
      <concept id="1068581242864" name="jetbrains.mps.baseLanguage.structure.LocalVariableDeclarationStatement" flags="nn" index="3cpWs8">
        <child id="1068581242865" name="localVariableDeclaration" index="3cpWs9" />
      </concept>
      <concept id="1068581242863" name="jetbrains.mps.baseLanguage.structure.LocalVariableDeclaration" flags="nr" index="3cpWsn" />
      <concept id="1068581517677" name="jetbrains.mps.baseLanguage.structure.VoidType" flags="in" index="3cqZAl" />
      <concept id="1107461130800" name="jetbrains.mps.baseLanguage.structure.Classifier" flags="ng" index="3pOWGL">
        <property id="521412098689998745" name="nonStatic" index="2bfB8j" />
        <child id="5375687026011219971" name="member" index="jymVt" unordered="true" />
      </concept>
      <concept id="1081773326031" name="jetbrains.mps.baseLanguage.structure.BinaryOperation" flags="nn" index="3uHJSO">
        <child id="1081773367579" name="rightExpression" index="3uHU7w" />
        <child id="1081773367580" name="leftExpression" index="3uHU7B" />
      </concept>
      <concept id="1178549954367" name="jetbrains.mps.baseLanguage.structure.IVisible" flags="ng" index="1B3ioH">
        <child id="1178549979242" name="visibility" index="1B3o_S" />
      </concept>
      <concept id="1163668896201" name="jetbrains.mps.baseLanguage.structure.TernaryOperatorExpression" flags="nn" index="3K4zz7">
        <child id="1163668914799" name="condition" index="3K4Cdx" />
        <child id="1163668922816" name="ifTrue" index="3K4E3e" />
        <child id="1163668934364" name="ifFalse" index="3K4GZi" />
      </concept>
      <concept id="1163670490218" name="jetbrains.mps.baseLanguage.structure.SwitchStatement" flags="nn" index="3KaCP$">
        <child id="1163670592366" name="defaultBlock" index="3Kb1Dw" />
        <child id="1163670766145" name="expression" index="3KbGdf" />
        <child id="1163670772911" name="case" index="3KbHQx" />
      </concept>
      <concept id="1163670641947" name="jetbrains.mps.baseLanguage.structure.SwitchCase" flags="ng" index="3KbdKl">
        <child id="1163670677455" name="expression" index="3Kbmr1" />
        <child id="1163670683720" name="body" index="3Kbo56" />
      </concept>
      <concept id="6329021646629104957" name="jetbrains.mps.baseLanguage.structure.TextCommentPart" flags="nn" index="3SKdUq">
        <property id="6329021646629104958" name="text" index="3SKdUp" />
      </concept>
      <concept id="6329021646629104954" name="jetbrains.mps.baseLanguage.structure.SingleLineComment" flags="nn" index="3SKdUt">
        <child id="6329021646629175155" name="commentPart" index="3SKWNk" />
      </concept>
      <concept id="1146644602865" name="jetbrains.mps.baseLanguage.structure.PublicVisibility" flags="nn" index="3Tm1VV" />
      <concept id="1146644623116" name="jetbrains.mps.baseLanguage.structure.PrivateVisibility" flags="nn" index="3Tm6S6" />
    </language>
    <language id="9f846aef-4e4a-4a84-828e-7e83fe2697f2" name="jetbrains.mps.build.mps.testManifest">
      <concept id="3298469228705179778" name="jetbrains.mps.build.mps.testManifest.structure.TestModuleManifest" flags="ng" index="2UguNb">
        <child id="563004820749542528" name="language" index="3ciXlA" />
      </concept>
    </language>
    <language id="2f74e72e-3e3d-480e-bae1-cc709d588366" name="testAnnotatedType">
      <concept id="1470921783545323247" name="testAnnotatedType.structure.PrimNumConstant" flags="ng" index="2OWTPY">
        <property id="1470921783545419434" name="value" index="2OWxkV" />
        <property id="1470921783545323248" name="isFloat" index="2OWTPx" />
      </concept>
      <concept id="1470921783545455334" name="testAnnotatedType.structure.PrimDoubleType" flags="ig" index="2OXq5R" />
      <concept id="8675420879155410165" name="testAnnotatedType.structure.PrimLongType" flags="ig" index="VtvQA" />
      <concept id="6405009306797629598" name="testAnnotatedType.structure.PrimIntType" flags="ig" index="3qnkEp" />
      <concept id="6405009306797629932" name="testAnnotatedType.structure.SubstituteAnnotation" flags="ng" index="3qnkJF">
        <child id="6405009306797650362" name="substitute" index="3qnpIX" />
        <child id="6405009306797650372" name="condition" index="3qnpJ3" />
      </concept>
      <concept id="6405009306797650365" name="testAnnotatedType.structure.PrimFloatType" flags="ig" index="3qnpIU" />
      <concept id="6405009306797650375" name="testAnnotatedType.structure.PresenceCondition" flags="ng" index="3qnpJ0" />
    </language>
    <language id="7866978e-a0f0-4cc7-81bc-4d213d9375e1" name="jetbrains.mps.lang.smodel">
      <concept id="4040588429969021681" name="jetbrains.mps.lang.smodel.structure.ModuleReferenceExpression" flags="nn" index="3rM5sP">
        <property id="4040588429969021683" name="moduleId" index="3rM5sR" />
      </concept>
      <concept id="4040588429969069898" name="jetbrains.mps.lang.smodel.structure.LanguageReferenceExpression" flags="nn" index="3rNLEe" />
    </language>
    <language id="ceab5195-25ea-4f22-9b92-103b95ca8c0c" name="jetbrains.mps.lang.core">
      <concept id="1133920641626" name="jetbrains.mps.lang.core.structure.BaseConcept" flags="ng" index="2VYdi">
        <child id="5169995583184591170" name="smodelAttribute" index="lGtFl" />
      </concept>
      <concept id="1169194658468" name="jetbrains.mps.lang.core.structure.INamedConcept" flags="ng" index="TrEIO">
        <property id="1169194664001" name="name" index="TrG5h" />
      </concept>
    </language>
    <language id="394e3857-3256-4e8b-9601-5abe7ad354d9" name="testOverridingType">
      <concept id="1870027727456306442" name="testOverridingType.structure.UnconditionalOverrideAnnotation" flags="ng" index="1QQq_5" />
      <concept id="1870027727456337728" name="testOverridingType.structure.ErrorType" flags="ig" index="1QQtcf" />
      <concept id="4113274076525496020" name="testOverridingType.structure.OverrideAnnotation" flags="ng" index="3UdkSI">
        <child id="6405009306797650362" name="substitute" index="3qnpIY" />
        <child id="6405009306797650372" name="condition" index="3qnpJ4" />
      </concept>
      <concept id="6572489169071277973" name="testOverridingType.structure.OverridingPrimNumConstant" flags="ng" index="3ZFEI6">
        <property id="6572489169071278427" name="isOverriding" index="3ZFEl8" />
      </concept>
      <concept id="6572489169071322609" name="testOverridingType.structure.OverridingPrimIntType" flags="ig" index="3ZFLBy" />
    </language>
  </registry>
  <node concept="1lH9Xt" id="5zzawu2JA4c">
    <property role="TrG5h" value="AnnotatedType" />
    <node concept="1qefOq" id="5zzawu2JA4d" role="1SKRRt">
      <node concept="312cEu" id="5zzawu2JA4f" role="1qenE9">
        <property role="2bfB8j" value="true" />
        <property role="TrG5h" value="Container" />
        <node concept="2tJIrI" id="5zzawu2JA4j" role="jymVt" />
        <node concept="312cEg" id="1hDKT6wAsJg" role="jymVt">
          <property role="TrG5h" value="x" />
          <node concept="3Tm6S6" id="1hDKT6wAsJh" role="1B3o_S" />
          <node concept="3qnkEp" id="1hDKT6wAsNO" role="1tU5fm">
            <node concept="3qnkJF" id="1hDKT6wAtpN" role="lGtFl">
              <node concept="3qnpJ0" id="1hDKT6wAtq0" role="3qnpJ3">
                <property role="TrG5h" value="true" />
              </node>
              <node concept="VtvQA" id="1hDKT6wAtzM" role="3qnpIX">
                <node concept="3qnkJF" id="1hDKT6wAtzW" role="lGtFl">
                  <node concept="3qnpJ0" id="1hDKT6wAt$9" role="3qnpJ3">
                    <property role="TrG5h" value="true" />
                  </node>
                  <node concept="3qnpIU" id="1hDKT6wAt_r" role="3qnpIX" />
                </node>
              </node>
            </node>
          </node>
          <node concept="7CXmI" id="1hDKT6wAt_H" role="lGtFl">
            <node concept="30Omv" id="1hDKT6wAt_R" role="7EUXB">
              <node concept="3qnpIU" id="1hDKT6wAt_V" role="31d$z" />
            </node>
          </node>
        </node>
        <node concept="2tJIrI" id="1hDKT6wAsCg" role="jymVt" />
        <node concept="312cEg" id="1hDKT6wBap8" role="jymVt">
          <property role="TrG5h" value="y" />
          <node concept="3Tm6S6" id="1hDKT6wBap9" role="1B3o_S" />
          <node concept="2OXq5R" id="1hDKT6wBauZ" role="1tU5fm">
            <node concept="3qnkJF" id="1hDKT6wBb6$" role="lGtFl">
              <node concept="3qnpJ0" id="1hDKT6wBb6O" role="3qnpJ3">
                <property role="TrG5h" value="true" />
              </node>
              <node concept="3qnkEp" id="1hDKT6wBb7A" role="3qnpIX" />
            </node>
          </node>
          <node concept="7CXmI" id="1hDKT6wBb80" role="lGtFl">
            <node concept="30Omv" id="1hDKT6wBb8e" role="7EUXB">
              <node concept="VtvQA" id="1hDKT6wBb8i" role="31d$z" />
            </node>
          </node>
        </node>
        <node concept="2tJIrI" id="1hDKT6wBbeq" role="jymVt" />
        <node concept="312cEg" id="1hDKT6wBb8l" role="jymVt">
          <property role="TrG5h" value="z" />
          <node concept="3Tm6S6" id="1hDKT6wBb8m" role="1B3o_S" />
          <node concept="2OXq5R" id="1hDKT6wBb8n" role="1tU5fm">
            <node concept="3qnkJF" id="1hDKT6wBb8o" role="lGtFl">
              <node concept="3qnpJ0" id="1hDKT6wBb8p" role="3qnpJ3">
                <property role="TrG5h" value="true" />
              </node>
              <node concept="3qnpIU" id="1hDKT6wBbkx" role="3qnpIX" />
            </node>
          </node>
          <node concept="7CXmI" id="1hDKT6wBb8r" role="lGtFl">
            <node concept="30Omv" id="1hDKT6wBb8s" role="7EUXB">
              <node concept="2OXq5R" id="1hDKT6wBi7M" role="31d$z" />
            </node>
          </node>
        </node>
        <node concept="2tJIrI" id="1hDKT6wAsEM" role="jymVt" />
        <node concept="3clFb_" id="5zzawu2JA4q" role="jymVt">
          <property role="TrG5h" value="f" />
          <node concept="37vLTG" id="2EOQLmJcuNn" role="3clF46">
            <property role="TrG5h" value="foo" />
            <node concept="3qnkEp" id="2EOQLmJcuNt" role="1tU5fm">
              <node concept="3qnkJF" id="2EOQLmJcuNw" role="lGtFl">
                <node concept="3qnpJ0" id="2EOQLmJcuNy" role="3qnpJ3">
                  <property role="TrG5h" value="true" />
                </node>
                <node concept="3qnpIU" id="2EOQLmJcuN$" role="3qnpIX" />
              </node>
            </node>
          </node>
          <node concept="3cqZAl" id="5zzawu2JA4s" role="3clF45" />
          <node concept="3Tm1VV" id="5zzawu2JA4t" role="1B3o_S" />
          <node concept="3clFbS" id="5zzawu2JA4u" role="3clF47">
            <node concept="3clFbH" id="5zzawu2JA4_" role="3cqZAp" />
            <node concept="3cpWs8" id="2EOQLmJcu$u" role="3cqZAp">
              <node concept="3cpWsn" id="2EOQLmJcu$x" role="3cpWs9">
                <property role="TrG5h" value="bar" />
                <node concept="3qnkEp" id="2EOQLmJcu$s" role="1tU5fm" />
                <node concept="37vLTw" id="2EOQLmJcuOv" role="33vP2m">
                  <ref role="3cqZAo" node="2EOQLmJcuNn" resolve="foo" />
                </node>
                <node concept="7CXmI" id="7x_ild344sH" role="lGtFl">
                  <node concept="1TM$A" id="7x_ild344sP" role="7EUXB" />
                </node>
              </node>
            </node>
            <node concept="3cpWs8" id="7x_ild344tl" role="3cqZAp">
              <node concept="3cpWsn" id="7x_ild344to" role="3cpWs9">
                <property role="TrG5h" value="baz" />
                <node concept="3qnpIU" id="7x_ild344tj" role="1tU5fm" />
                <node concept="37vLTw" id="7x_ild344u8" role="33vP2m">
                  <ref role="3cqZAo" node="2EOQLmJcuNn" resolve="foo" />
                </node>
              </node>
            </node>
            <node concept="3clFbH" id="7x_ild34bjc" role="3cqZAp" />
          </node>
        </node>
        <node concept="2tJIrI" id="7x_ild343EV" role="jymVt" />
        <node concept="3clFb_" id="7x_ild343FI" role="jymVt">
          <property role="TrG5h" value="g" />
          <node concept="37vLTG" id="7x_ild343Sm" role="3clF46">
            <property role="TrG5h" value="a" />
            <node concept="3qnkEp" id="7x_ild343W1" role="1tU5fm">
              <node concept="3qnkJF" id="7x_ild343W2" role="lGtFl">
                <node concept="3qnpJ0" id="7x_ild343W3" role="3qnpJ3">
                  <property role="TrG5h" value="false" />
                </node>
                <node concept="3qnpIU" id="7x_ild343W4" role="3qnpIX" />
              </node>
            </node>
          </node>
          <node concept="37vLTG" id="7x_ild34hyM" role="3clF46">
            <property role="TrG5h" value="b" />
            <node concept="3qnkEp" id="7x_ild34hyN" role="1tU5fm">
              <node concept="3qnkJF" id="7x_ild34hyO" role="lGtFl">
                <node concept="3qnpJ0" id="7x_ild34hyP" role="3qnpJ3">
                  <property role="TrG5h" value="true" />
                </node>
                <node concept="3qnpIU" id="7x_ild34hyQ" role="3qnpIX" />
              </node>
            </node>
          </node>
          <node concept="37vLTG" id="7x_ild343SW" role="3clF46">
            <property role="TrG5h" value="c" />
            <node concept="VtvQA" id="7x_ild34ciP" role="1tU5fm">
              <node concept="3qnkJF" id="7x_ild34d0P" role="lGtFl">
                <node concept="3qnpJ0" id="7x_ild34d0W" role="3qnpJ3">
                  <property role="TrG5h" value="false" />
                </node>
                <node concept="3qnpIU" id="7x_ild34d1s" role="3qnpIX" />
              </node>
            </node>
          </node>
          <node concept="37vLTG" id="7x_ild34hIj" role="3clF46">
            <property role="TrG5h" value="d" />
            <node concept="VtvQA" id="7x_ild34hIk" role="1tU5fm">
              <node concept="3qnkJF" id="7x_ild34hIl" role="lGtFl">
                <node concept="3qnpJ0" id="7x_ild34hIm" role="3qnpJ3">
                  <property role="TrG5h" value="true" />
                </node>
                <node concept="3qnpIU" id="7x_ild34hIn" role="3qnpIX" />
              </node>
            </node>
          </node>
          <node concept="3Tm1VV" id="7x_ild343FL" role="1B3o_S" />
          <node concept="3clFbS" id="7x_ild343FM" role="3clF47">
            <node concept="3clFbH" id="7x_ild343Gx" role="3cqZAp" />
            <node concept="3KaCP$" id="7x_ild34eNn" role="3cqZAp">
              <node concept="3KbdKl" id="7x_ild34fUn" role="3KbHQx">
                <node concept="3cmrfG" id="7x_ild34fV1" role="3Kbmr1">
                  <property role="3cmrfH" value="1" />
                </node>
                <node concept="3clFbS" id="7x_ild34fUp" role="3Kbo56">
                  <node concept="3SKdUt" id="7x_ild34ls0" role="3cqZAp">
                    <node concept="3SKdUq" id="7x_ild34ltW" role="3SKWNk">
                      <property role="3SKdUp" value="int" />
                    </node>
                  </node>
                  <node concept="3cpWs6" id="7x_ild34cgP" role="3cqZAp">
                    <node concept="37vLTw" id="7x_ild34d1T" role="3cqZAk">
                      <ref role="3cqZAo" node="7x_ild343Sm" resolve="a" />
                    </node>
                  </node>
                </node>
              </node>
              <node concept="3KbdKl" id="7x_ild34g3F" role="3KbHQx">
                <node concept="3cmrfG" id="7x_ild34gcI" role="3Kbmr1">
                  <property role="3cmrfH" value="2" />
                </node>
                <node concept="3clFbS" id="7x_ild34g3H" role="3Kbo56">
                  <node concept="3SKdUt" id="7x_ild34lww" role="3cqZAp">
                    <node concept="3SKdUq" id="7x_ild34lys" role="3SKWNk">
                      <property role="3SKdUp" value="float " />
                    </node>
                  </node>
                  <node concept="3cpWs6" id="7x_ild34ifQ" role="3cqZAp">
                    <node concept="37vLTw" id="7x_ild34iBC" role="3cqZAk">
                      <ref role="3cqZAo" node="7x_ild34hyM" resolve="b" />
                      <node concept="7CXmI" id="7x_ild34lzh" role="lGtFl">
                        <node concept="1TM$A" id="7x_ild34l_a" role="7EUXB" />
                      </node>
                    </node>
                  </node>
                </node>
              </node>
              <node concept="3KbdKl" id="7x_ild34jvW" role="3KbHQx">
                <node concept="3cmrfG" id="7x_ild34jNZ" role="3Kbmr1">
                  <property role="3cmrfH" value="3" />
                </node>
                <node concept="3clFbS" id="7x_ild34jvY" role="3Kbo56">
                  <node concept="3SKdUt" id="7x_ild34lD2" role="3cqZAp">
                    <node concept="3SKdUq" id="7x_ild34lEY" role="3SKWNk">
                      <property role="3SKdUp" value="long" />
                    </node>
                  </node>
                  <node concept="3cpWs6" id="7x_ild34jX0" role="3cqZAp">
                    <node concept="37vLTw" id="7x_ild34kjK" role="3cqZAk">
                      <ref role="3cqZAo" node="7x_ild343SW" resolve="c" />
                    </node>
                  </node>
                </node>
              </node>
              <node concept="3cpWs3" id="7x_ild34fLt" role="3KbGdf">
                <node concept="3cmrfG" id="7x_ild34fLF" role="3uHU7w">
                  <property role="3cmrfH" value="3" />
                </node>
                <node concept="3cpWs3" id="7x_ild34fjU" role="3uHU7B">
                  <node concept="3cmrfG" id="7x_ild34eYG" role="3uHU7B">
                    <property role="3cmrfH" value="1" />
                  </node>
                  <node concept="3cmrfG" id="7x_ild34fk8" role="3uHU7w">
                    <property role="3cmrfH" value="2" />
                  </node>
                </node>
              </node>
              <node concept="3clFbS" id="7x_ild34eNr" role="3Kb1Dw">
                <node concept="3SKdUt" id="7x_ild34lHy" role="3cqZAp">
                  <node concept="3SKdUq" id="7x_ild34lJu" role="3SKWNk">
                    <property role="3SKdUp" value="float" />
                  </node>
                </node>
                <node concept="3cpWs6" id="7x_ild34kFL" role="3cqZAp">
                  <node concept="37vLTw" id="7x_ild34l3A" role="3cqZAk">
                    <ref role="3cqZAo" node="7x_ild34hIj" resolve="d" />
                    <node concept="7CXmI" id="7x_ild34lPa" role="lGtFl">
                      <node concept="1TM$A" id="7x_ild34lQZ" role="7EUXB" />
                    </node>
                  </node>
                </node>
              </node>
            </node>
          </node>
          <node concept="VtvQA" id="7x_ild34c4V" role="3clF45" />
        </node>
        <node concept="2tJIrI" id="7x_ild34mz9" role="jymVt" />
        <node concept="3clFb_" id="7x_ild34mBJ" role="jymVt">
          <property role="TrG5h" value="h" />
          <node concept="37vLTG" id="7x_ild34mIN" role="3clF46">
            <property role="TrG5h" value="a" />
            <node concept="3qnkEp" id="7x_ild34mIO" role="1tU5fm">
              <node concept="3qnkJF" id="7x_ild34mIP" role="lGtFl">
                <node concept="3qnpJ0" id="7x_ild34mIQ" role="3qnpJ3">
                  <property role="TrG5h" value="false" />
                </node>
                <node concept="3qnpIU" id="7x_ild34mIR" role="3qnpIX" />
              </node>
            </node>
          </node>
          <node concept="37vLTG" id="7x_ild34mIS" role="3clF46">
            <property role="TrG5h" value="b" />
            <node concept="3qnkEp" id="7x_ild34mIT" role="1tU5fm">
              <node concept="3qnkJF" id="7x_ild34mIU" role="lGtFl">
                <node concept="3qnpJ0" id="7x_ild34mIV" role="3qnpJ3">
                  <property role="TrG5h" value="true" />
                </node>
                <node concept="3qnpIU" id="7x_ild34mIW" role="3qnpIX" />
              </node>
            </node>
          </node>
          <node concept="37vLTG" id="7x_ild34mIX" role="3clF46">
            <property role="TrG5h" value="c" />
            <node concept="VtvQA" id="7x_ild34mIY" role="1tU5fm">
              <node concept="3qnkJF" id="7x_ild34mIZ" role="lGtFl">
                <node concept="3qnpJ0" id="7x_ild34mJ0" role="3qnpJ3">
                  <property role="TrG5h" value="false" />
                </node>
                <node concept="3qnpIU" id="7x_ild34mJ1" role="3qnpIX" />
              </node>
            </node>
          </node>
          <node concept="37vLTG" id="7x_ild34mJ2" role="3clF46">
            <property role="TrG5h" value="d" />
            <node concept="VtvQA" id="7x_ild34mJ3" role="1tU5fm">
              <node concept="3qnkJF" id="7x_ild34mJ4" role="lGtFl">
                <node concept="3qnpJ0" id="7x_ild34mJ5" role="3qnpJ3">
                  <property role="TrG5h" value="true" />
                </node>
                <node concept="3qnpIU" id="7x_ild34mJ6" role="3qnpIX" />
              </node>
            </node>
          </node>
          <node concept="VtvQA" id="7x_ild34mGX" role="3clF45" />
          <node concept="3Tm1VV" id="7x_ild34mBM" role="1B3o_S" />
          <node concept="3clFbS" id="7x_ild34mBN" role="3clF47">
            <node concept="3KaCP$" id="7x_ild34mLO" role="3cqZAp">
              <node concept="3KbdKl" id="7x_ild34mLP" role="3KbHQx">
                <node concept="3cmrfG" id="7x_ild34mLQ" role="3Kbmr1">
                  <property role="3cmrfH" value="1" />
                </node>
                <node concept="3clFbS" id="7x_ild34mLR" role="3Kbo56">
                  <node concept="3SKdUt" id="7x_ild34mLS" role="3cqZAp">
                    <node concept="3SKdUq" id="7x_ild34mLT" role="3SKWNk">
                      <property role="3SKdUp" value="lub(int &amp; float) " />
                    </node>
                  </node>
                  <node concept="3cpWs6" id="7x_ild34mLU" role="3cqZAp">
                    <node concept="3K4zz7" id="7x_ild34n9B" role="3cqZAk">
                      <node concept="37vLTw" id="7x_ild34ncT" role="3K4E3e">
                        <ref role="3cqZAo" node="7x_ild34mIN" resolve="a" />
                      </node>
                      <node concept="37vLTw" id="7x_ild34ngj" role="3K4GZi">
                        <ref role="3cqZAo" node="7x_ild34mIS" resolve="b" />
                      </node>
                      <node concept="3clFbT" id="7x_ild34mXl" role="3K4Cdx">
                        <property role="3clFbU" value="true" />
                      </node>
                      <node concept="7CXmI" id="7x_ild34sUr" role="lGtFl">
                        <node concept="1TM$A" id="7x_ild34t5q" role="7EUXB" />
                      </node>
                    </node>
                  </node>
                </node>
              </node>
              <node concept="3KbdKl" id="7x_ild34mLW" role="3KbHQx">
                <node concept="3cmrfG" id="7x_ild34mLX" role="3Kbmr1">
                  <property role="3cmrfH" value="2" />
                </node>
                <node concept="3clFbS" id="7x_ild34mLY" role="3Kbo56">
                  <node concept="3SKdUt" id="7x_ild34mLZ" role="3cqZAp">
                    <node concept="3SKdUq" id="7x_ild34mM0" role="3SKWNk">
                      <property role="3SKdUp" value="lub(int &amp; long) = long" />
                    </node>
                  </node>
                  <node concept="3cpWs6" id="7x_ild34nkm" role="3cqZAp">
                    <node concept="3K4zz7" id="7x_ild34nkn" role="3cqZAk">
                      <node concept="37vLTw" id="7x_ild34nko" role="3K4E3e">
                        <ref role="3cqZAo" node="7x_ild34mIN" resolve="a" />
                      </node>
                      <node concept="37vLTw" id="7x_ild34nKc" role="3K4GZi">
                        <ref role="3cqZAo" node="7x_ild34mIX" resolve="c" />
                      </node>
                      <node concept="3clFbT" id="7x_ild34nkq" role="3K4Cdx">
                        <property role="3clFbU" value="true" />
                      </node>
                    </node>
                  </node>
                </node>
              </node>
              <node concept="3KbdKl" id="7x_ild34mM5" role="3KbHQx">
                <node concept="3cmrfG" id="7x_ild34mM6" role="3Kbmr1">
                  <property role="3cmrfH" value="3" />
                </node>
                <node concept="3clFbS" id="7x_ild34mM7" role="3Kbo56">
                  <node concept="3SKdUt" id="7x_ild34mM8" role="3cqZAp">
                    <node concept="3SKdUq" id="7x_ild34mM9" role="3SKWNk">
                      <property role="3SKdUp" value="lub(float &amp; long)" />
                    </node>
                  </node>
                  <node concept="3cpWs6" id="7x_ild34nRp" role="3cqZAp">
                    <node concept="3K4zz7" id="7x_ild34nRq" role="3cqZAk">
                      <node concept="37vLTw" id="7x_ild34oyd" role="3K4E3e">
                        <ref role="3cqZAo" node="7x_ild34mIS" resolve="b" />
                      </node>
                      <node concept="37vLTw" id="7x_ild34nRs" role="3K4GZi">
                        <ref role="3cqZAo" node="7x_ild34mIX" resolve="c" />
                      </node>
                      <node concept="3clFbT" id="7x_ild34nRt" role="3K4Cdx">
                        <property role="3clFbU" value="true" />
                      </node>
                      <node concept="7CXmI" id="7x_ild34tmz" role="lGtFl">
                        <node concept="1TM$A" id="7x_ild34txf" role="7EUXB" />
                      </node>
                    </node>
                  </node>
                </node>
              </node>
              <node concept="3cpWs3" id="7x_ild34mMc" role="3KbGdf">
                <node concept="3cmrfG" id="7x_ild34mMd" role="3uHU7w">
                  <property role="3cmrfH" value="3" />
                </node>
                <node concept="3cpWs3" id="7x_ild34mMe" role="3uHU7B">
                  <node concept="3cmrfG" id="7x_ild34mMf" role="3uHU7B">
                    <property role="3cmrfH" value="1" />
                  </node>
                  <node concept="3cmrfG" id="7x_ild34mMg" role="3uHU7w">
                    <property role="3cmrfH" value="2" />
                  </node>
                </node>
              </node>
              <node concept="3clFbS" id="7x_ild34mMh" role="3Kb1Dw">
                <node concept="3SKdUt" id="7x_ild34mMi" role="3cqZAp">
                  <node concept="3SKdUq" id="7x_ild34mMj" role="3SKWNk">
                    <property role="3SKdUp" value="lub(long &amp; float)" />
                  </node>
                </node>
                <node concept="3cpWs6" id="7x_ild34oFp" role="3cqZAp">
                  <node concept="3K4zz7" id="7x_ild34oFq" role="3cqZAk">
                    <node concept="37vLTw" id="7x_ild34psJ" role="3K4E3e">
                      <ref role="3cqZAo" node="7x_ild34mIX" resolve="c" />
                    </node>
                    <node concept="37vLTw" id="7x_ild34pDg" role="3K4GZi">
                      <ref role="3cqZAo" node="7x_ild34mJ2" resolve="d" />
                    </node>
                    <node concept="3clFbT" id="7x_ild34oFt" role="3K4Cdx">
                      <property role="3clFbU" value="true" />
                    </node>
                    <node concept="7CXmI" id="7x_ild34txh" role="lGtFl">
                      <node concept="1TM$A" id="7x_ild34tEL" role="7EUXB" />
                    </node>
                  </node>
                </node>
              </node>
            </node>
          </node>
        </node>
        <node concept="2tJIrI" id="1hDKT6wAKrj" role="jymVt" />
        <node concept="3clFb_" id="1hDKT6wAK$s" role="jymVt">
          <property role="TrG5h" value="i" />
          <node concept="3cqZAl" id="1hDKT6wAK$u" role="3clF45" />
          <node concept="3Tm1VV" id="1hDKT6wAK$v" role="1B3o_S" />
          <node concept="3clFbS" id="1hDKT6wAK$w" role="3clF47">
            <node concept="3clFbH" id="1hDKT6wAYMm" role="3cqZAp" />
            <node concept="3cpWs8" id="1hDKT6wB1qw" role="3cqZAp">
              <node concept="3cpWsn" id="1hDKT6wB1qz" role="3cpWs9">
                <property role="TrG5h" value="i" />
                <node concept="3qnkEp" id="1hDKT6wB1qu" role="1tU5fm" />
                <node concept="2OWTPY" id="1hDKT6wB1vq" role="33vP2m">
                  <property role="2OWTPx" value="false" />
                  <property role="2OWxkV" value="123" />
                </node>
              </node>
            </node>
            <node concept="3clFbH" id="1hDKT6wB1sS" role="3cqZAp" />
            <node concept="3cpWs8" id="1hDKT6wAYKX" role="3cqZAp">
              <node concept="3cpWsn" id="1hDKT6wAYL0" role="3cpWs9">
                <property role="TrG5h" value="f" />
                <node concept="3qnpIU" id="1hDKT6wAZy4" role="1tU5fm" />
                <node concept="2OWTPY" id="1hDKT6wAYLC" role="33vP2m">
                  <property role="2OWTPx" value="false" />
                  <property role="2OWxkV" value="123" />
                </node>
                <node concept="7CXmI" id="1hDKT6wAZul" role="lGtFl">
                  <node concept="1TM$A" id="1hDKT6wAZum" role="7EUXB" />
                </node>
              </node>
            </node>
            <node concept="3clFbH" id="1hDKT6wB1pk" role="3cqZAp" />
            <node concept="3cpWs8" id="1hDKT6wAZwK" role="3cqZAp">
              <node concept="3cpWsn" id="1hDKT6wAZwL" role="3cpWs9">
                <property role="TrG5h" value="g" />
                <node concept="3qnpIU" id="1hDKT6wAZwJ" role="1tU5fm" />
                <node concept="2OWTPY" id="1hDKT6wAZwM" role="33vP2m">
                  <property role="2OWTPx" value="true" />
                  <property role="2OWxkV" value="123.456" />
                </node>
              </node>
            </node>
            <node concept="3clFbH" id="1hDKT6wAZzQ" role="3cqZAp" />
          </node>
        </node>
        <node concept="3Tm1VV" id="5zzawu2JA4g" role="1B3o_S" />
        <node concept="7CXmI" id="7x_ild344uo" role="lGtFl">
          <node concept="7OXhh" id="7x_ild344uB" role="7EUXB">
            <property role="G7GLP" value="true" />
          </node>
        </node>
      </node>
    </node>
  </node>
  <node concept="2XOHcx" id="2qBh$FxUIey">
    <property role="2XOHcw" value="${mps_home}" />
  </node>
  <node concept="1lH9Xt" id="15xlXKdz7s3">
    <property role="TrG5h" value="WrappedType" />
    <node concept="1qefOq" id="15xlXKdz7s4" role="1SKRRt">
      <node concept="312cEu" id="15xlXKdz7s6" role="1qenE9">
        <property role="2bfB8j" value="true" />
        <property role="TrG5h" value="Container" />
        <node concept="2tJIrI" id="15xlXKdz7sv" role="jymVt" />
        <node concept="312cEg" id="1hDKT6wAxGL" role="jymVt">
          <property role="TrG5h" value="v" />
          <node concept="3Tm6S6" id="1hDKT6wAxGM" role="1B3o_S" />
          <node concept="sVgjR" id="1hDKT6wAxK1" role="1tU5fm">
            <property role="sVgjK" value="meters" />
            <node concept="3qnkEp" id="1hDKT6wAxK2" role="sVglx" />
          </node>
          <node concept="7CXmI" id="1hDKT6wAxKq" role="lGtFl">
            <node concept="30Omv" id="1hDKT6wAxKy" role="7EUXB">
              <node concept="3qnkEp" id="1hDKT6wAxKA" role="31d$z" />
            </node>
          </node>
        </node>
        <node concept="2tJIrI" id="1hDKT6wAxO4" role="jymVt" />
        <node concept="312cEg" id="1hDKT6wAxKD" role="jymVt">
          <property role="TrG5h" value="w" />
          <node concept="3Tm6S6" id="1hDKT6wAxKE" role="1B3o_S" />
          <node concept="7CXmI" id="1hDKT6wAxKH" role="lGtFl">
            <node concept="30Omv" id="1hDKT6wAxKI" role="7EUXB">
              <node concept="VtvQA" id="1hDKT6wAxRK" role="31d$z" />
            </node>
          </node>
          <node concept="sVgjR" id="1hDKT6wAxRw" role="1tU5fm">
            <property role="sVgjK" value="seconds" />
            <node concept="VtvQA" id="1hDKT6wAxRx" role="sVglx" />
          </node>
        </node>
        <node concept="2tJIrI" id="1hDKT6wAxDB" role="jymVt" />
        <node concept="312cEg" id="3oKGj5NpDVh" role="jymVt">
          <property role="TrG5h" value="x" />
          <node concept="3Tm6S6" id="3oKGj5NpDVi" role="1B3o_S" />
          <node concept="sVgjR" id="3oKGj5NpDWH" role="1tU5fm">
            <property role="sVgjK" value="kilos" />
            <node concept="3qnkEp" id="3oKGj5NpDWI" role="sVglx">
              <node concept="3qnkJF" id="3oKGj5NpDWJ" role="lGtFl">
                <node concept="3qnpJ0" id="3oKGj5NpDWK" role="3qnpJ3">
                  <property role="TrG5h" value="true" />
                </node>
                <node concept="VtvQA" id="3oKGj5NpDWL" role="3qnpIX" />
              </node>
            </node>
          </node>
          <node concept="7CXmI" id="3oKGj5NpE1D" role="lGtFl">
            <node concept="30Omv" id="3oKGj5NpE3A" role="7EUXB">
              <node concept="VtvQA" id="3oKGj5NpE3E" role="31d$z" />
            </node>
          </node>
        </node>
        <node concept="2tJIrI" id="3oKGj5NpE1Y" role="jymVt" />
        <node concept="312cEg" id="3oKGj5NpDXK" role="jymVt">
          <property role="TrG5h" value="y" />
          <node concept="3Tm6S6" id="3oKGj5NpDXL" role="1B3o_S" />
          <node concept="sVgjR" id="3oKGj5NpDZ$" role="1tU5fm">
            <property role="sVgjK" value="degrees" />
            <node concept="VtvQA" id="3oKGj5NpDZ_" role="sVglx">
              <node concept="3qnkJF" id="3oKGj5NpDZA" role="lGtFl">
                <node concept="3qnpJ0" id="3oKGj5NpDZB" role="3qnpJ3">
                  <property role="TrG5h" value="false" />
                </node>
                <node concept="3qnpIU" id="3oKGj5NpDZC" role="3qnpIX" />
              </node>
            </node>
          </node>
          <node concept="7CXmI" id="3oKGj5NpE0W" role="lGtFl">
            <node concept="30Omv" id="3oKGj5NpE1l" role="7EUXB">
              <node concept="VtvQA" id="3oKGj5NpE1w" role="31d$z">
                <node concept="3qnkJF" id="3oKGj5NpE1x" role="lGtFl">
                  <node concept="3qnpJ0" id="3oKGj5NpE1y" role="3qnpJ3">
                    <property role="TrG5h" value="false" />
                  </node>
                  <node concept="3qnpIU" id="3oKGj5NpE1z" role="3qnpIX" />
                </node>
              </node>
            </node>
          </node>
        </node>
        <node concept="2tJIrI" id="1hDKT6wAs1X" role="jymVt" />
        <node concept="312cEg" id="1hDKT6wArZz" role="jymVt">
          <property role="TrG5h" value="z" />
          <node concept="3Tm6S6" id="1hDKT6wArZ$" role="1B3o_S" />
          <node concept="7CXmI" id="1hDKT6wArZE" role="lGtFl">
            <node concept="30Omv" id="1hDKT6wArZF" role="7EUXB">
              <node concept="3qnkEp" id="1hDKT6wA$d6" role="31d$z">
                <node concept="3qnkJF" id="1hDKT6wA$d7" role="lGtFl">
                  <node concept="3qnpJ0" id="1hDKT6wA$d8" role="3qnpJ3">
                    <property role="TrG5h" value="false" />
                  </node>
                  <node concept="VtvQA" id="1hDKT6wA$d9" role="3qnpIX" />
                </node>
              </node>
            </node>
          </node>
          <node concept="sVgjR" id="1hDKT6wA$cF" role="1tU5fm">
            <property role="sVgjK" value="watts" />
            <node concept="3qnkEp" id="1hDKT6wA$cG" role="sVglx">
              <node concept="3qnkJF" id="1hDKT6wA$cH" role="lGtFl">
                <node concept="3qnpJ0" id="1hDKT6wA$cI" role="3qnpJ3">
                  <property role="TrG5h" value="false" />
                </node>
                <node concept="VtvQA" id="1hDKT6wA$cJ" role="3qnpIX" />
              </node>
            </node>
          </node>
        </node>
        <node concept="2tJIrI" id="3oKGj5NpDSK" role="jymVt" />
        <node concept="2tJIrI" id="3oKGj5NpDTV" role="jymVt" />
        <node concept="3clFb_" id="15xlXKdz7sK" role="jymVt">
          <property role="TrG5h" value="m" />
          <node concept="37vLTG" id="15xlXKdz7td" role="3clF46">
            <property role="TrG5h" value="a" />
            <node concept="sVgjR" id="15xlXKdzcwr" role="1tU5fm">
              <property role="sVgjK" value="meters" />
              <node concept="3qnkEp" id="15xlXKdz7tp" role="sVglx" />
            </node>
          </node>
          <node concept="37vLTG" id="15xlXKdzcWn" role="3clF46">
            <property role="TrG5h" value="b" />
            <node concept="sVgjR" id="15xlXKdzcWH" role="1tU5fm">
              <property role="sVgjK" value="seconds" />
              <node concept="VtvQA" id="15xlXKdzcWC" role="sVglx" />
            </node>
          </node>
          <node concept="3cqZAl" id="15xlXKdz7sM" role="3clF45" />
          <node concept="3Tm1VV" id="15xlXKdz7sN" role="1B3o_S" />
          <node concept="3clFbS" id="15xlXKdz7sO" role="3clF47">
            <node concept="3clFbH" id="15xlXKdz7t4" role="3cqZAp" />
            <node concept="3clFbF" id="1hDKT6wAxSv" role="3cqZAp">
              <node concept="37vLTI" id="1hDKT6wAxT6" role="3clFbG">
                <node concept="37vLTw" id="1hDKT6wAxTs" role="37vLTx">
                  <ref role="3cqZAo" node="15xlXKdz7td" resolve="a" />
                </node>
                <node concept="37vLTw" id="1hDKT6wAxSt" role="37vLTJ">
                  <ref role="3cqZAo" node="15xlXKdzcWn" resolve="b" />
                </node>
              </node>
            </node>
            <node concept="3clFbF" id="15xlXKdzcYa" role="3cqZAp">
              <node concept="37vLTI" id="15xlXKdzcYv" role="3clFbG">
                <node concept="37vLTw" id="15xlXKdzcYP" role="37vLTx">
                  <ref role="3cqZAo" node="15xlXKdzcWn" resolve="b" />
                </node>
                <node concept="37vLTw" id="15xlXKdzcY8" role="37vLTJ">
                  <ref role="3cqZAo" node="15xlXKdz7td" resolve="a" />
                </node>
                <node concept="7CXmI" id="15xlXKdzcZO" role="lGtFl">
                  <node concept="1TM$A" id="15xlXKdzcZP" role="7EUXB" />
                </node>
              </node>
            </node>
            <node concept="3clFbH" id="1hDKT6wAxUp" role="3cqZAp" />
          </node>
        </node>
        <node concept="2tJIrI" id="3oKGj5NpDI_" role="jymVt" />
        <node concept="3clFb_" id="3oKGj5NpDJM" role="jymVt">
          <property role="TrG5h" value="n" />
          <node concept="37vLTG" id="3oKGj5NpDKR" role="3clF46">
            <property role="TrG5h" value="a" />
            <node concept="sVgjR" id="3oKGj5NpDLX" role="1tU5fm">
              <property role="sVgjK" value="kilos" />
              <node concept="3qnkEp" id="3oKGj5NpDLn" role="sVglx">
                <node concept="3qnkJF" id="3oKGj5NpDMd" role="lGtFl">
                  <node concept="3qnpJ0" id="3oKGj5NpDMk" role="3qnpJ3">
                    <property role="TrG5h" value="true" />
                  </node>
                  <node concept="VtvQA" id="3oKGj5NpDMO" role="3qnpIX" />
                </node>
              </node>
            </node>
          </node>
          <node concept="37vLTG" id="3oKGj5NpDKX" role="3clF46">
            <property role="TrG5h" value="b" />
            <node concept="sVgjR" id="3oKGj5NpDNS" role="1tU5fm">
              <property role="sVgjK" value="degrees" />
              <node concept="VtvQA" id="3oKGj5NpDNJ" role="sVglx">
                <node concept="3qnkJF" id="3oKGj5NpDOO" role="lGtFl">
                  <node concept="3qnpJ0" id="3oKGj5NpDOV" role="3qnpJ3">
                    <property role="TrG5h" value="false" />
                  </node>
                  <node concept="3qnpIU" id="3oKGj5NpDPh" role="3qnpIX" />
                </node>
              </node>
            </node>
          </node>
          <node concept="37vLTG" id="1hDKT6wAxab" role="3clF46">
            <property role="TrG5h" value="c" />
            <node concept="sVgjR" id="1hDKT6wAxbI" role="1tU5fm">
              <property role="sVgjK" value="watts" />
              <node concept="3qnkEp" id="1hDKT6wAxbJ" role="sVglx">
                <node concept="3qnkJF" id="1hDKT6wAxbK" role="lGtFl">
                  <node concept="3qnpJ0" id="1hDKT6wAxbL" role="3qnpJ3">
                    <property role="TrG5h" value="false" />
                  </node>
                  <node concept="VtvQA" id="1hDKT6wAxbM" role="3qnpIX" />
                </node>
              </node>
            </node>
          </node>
          <node concept="3cqZAl" id="3oKGj5NpDJO" role="3clF45" />
          <node concept="3Tm1VV" id="3oKGj5NpDJP" role="1B3o_S" />
          <node concept="3clFbS" id="3oKGj5NpDJQ" role="3clF47">
            <node concept="3clFbH" id="3oKGj5NpDPL" role="3cqZAp" />
            <node concept="3clFbF" id="1hDKT6wArRU" role="3cqZAp">
              <node concept="37vLTI" id="1hDKT6wArSJ" role="3clFbG">
                <node concept="37vLTw" id="1hDKT6wArU3" role="37vLTx">
                  <ref role="3cqZAo" node="3oKGj5NpDKR" resolve="a" />
                </node>
                <node concept="37vLTw" id="1hDKT6wArRS" role="37vLTJ">
                  <ref role="3cqZAo" node="3oKGj5NpDKX" resolve="b" />
                </node>
              </node>
            </node>
            <node concept="3clFbF" id="1hDKT6wAxln" role="3cqZAp">
              <node concept="37vLTI" id="1hDKT6wAxnl" role="3clFbG">
                <node concept="37vLTw" id="1hDKT6wAxoy" role="37vLTx">
                  <ref role="3cqZAo" node="1hDKT6wAxab" resolve="c" />
                </node>
                <node concept="37vLTw" id="1hDKT6wAxll" role="37vLTJ">
                  <ref role="3cqZAo" node="3oKGj5NpDKX" resolve="b" />
                </node>
              </node>
            </node>
            <node concept="3clFbF" id="1hDKT6wAxg8" role="3cqZAp">
              <node concept="37vLTI" id="1hDKT6wAxgW" role="3clFbG">
                <node concept="37vLTw" id="1hDKT6wAxi9" role="37vLTx">
                  <ref role="3cqZAo" node="3oKGj5NpDKR" resolve="a" />
                </node>
                <node concept="37vLTw" id="1hDKT6wAxg6" role="37vLTJ">
                  <ref role="3cqZAo" node="1hDKT6wAxab" resolve="c" />
                </node>
                <node concept="7CXmI" id="1hDKT6wAxyk" role="lGtFl">
                  <node concept="1TM$A" id="1hDKT6wAxzx" role="7EUXB" />
                </node>
              </node>
            </node>
            <node concept="3clFbH" id="1hDKT6wAx$J" role="3cqZAp" />
          </node>
        </node>
        <node concept="2tJIrI" id="15xlXKdz7s$" role="jymVt" />
        <node concept="3Tm1VV" id="15xlXKdz7s7" role="1B3o_S" />
        <node concept="7CXmI" id="15xlXKdzd07" role="lGtFl">
          <node concept="7OXhh" id="15xlXKdzd0n" role="7EUXB">
            <property role="G7GLP" value="true" />
          </node>
        </node>
      </node>
    </node>
  </node>
  <node concept="1lH9Xt" id="5GQb1e$A8qA">
    <property role="TrG5h" value="OverridingInference" />
    <node concept="1qefOq" id="5GQb1e$AM5M" role="1SKRRt">
      <node concept="312cEu" id="5GQb1e$AM5O" role="1qenE9">
        <property role="2bfB8j" value="true" />
        <property role="TrG5h" value="Container" />
        <node concept="2tJIrI" id="5GQb1e$AM66" role="jymVt" />
        <node concept="3clFb_" id="5GQb1e$AM6n" role="jymVt">
          <property role="TrG5h" value="overridingExpression" />
          <node concept="3cqZAl" id="5GQb1e$AM6p" role="3clF45" />
          <node concept="3Tm1VV" id="5GQb1e$AM6q" role="1B3o_S" />
          <node concept="3clFbS" id="5GQb1e$AM6r" role="3clF47">
            <node concept="3clFbH" id="5GQb1e$AN3v" role="3cqZAp" />
            <node concept="3cpWs8" id="5GQb1e$AMLv" role="3cqZAp">
              <node concept="3cpWsn" id="5GQb1e$AMLw" role="3cpWs9">
                <property role="TrG5h" value="_int_overridden" />
                <node concept="3ZFLBy" id="5GQb1e$AMLh" role="1tU5fm" />
                <node concept="3ZFEI6" id="5GQb1e$AMLx" role="33vP2m">
                  <property role="2OWxkV" value="321" />
                  <property role="2OWTPx" value="false" />
                  <property role="3ZFEl8" value="true" />
                </node>
              </node>
            </node>
            <node concept="3clFbH" id="1BNF4XJaGDE" role="3cqZAp" />
            <node concept="3cpWs8" id="5GQb1e$AMcY" role="3cqZAp">
              <node concept="3cpWsn" id="5GQb1e$AMcZ" role="3cpWs9">
                <property role="TrG5h" value="_int_not_overridden" />
                <node concept="3ZFLBy" id="5GQb1e$AMcK" role="1tU5fm" />
                <node concept="3ZFEI6" id="5GQb1e$AMd0" role="33vP2m">
                  <property role="2OWxkV" value="321" />
                  <property role="2OWTPx" value="false" />
                  <node concept="7CXmI" id="5GQb1e$AMjj" role="lGtFl">
                    <node concept="1TM$A" id="5GQb1e$AMjk" role="7EUXB" />
                  </node>
                </node>
              </node>
            </node>
            <node concept="3clFbH" id="5GQb1e$AMor" role="3cqZAp" />
            <node concept="3cpWs8" id="5GQb1e$AMmK" role="3cqZAp">
              <node concept="3cpWsn" id="5GQb1e$AMmL" role="3cpWs9">
                <property role="TrG5h" value="_int" />
                <node concept="3qnkEp" id="5GQb1e$AMq8" role="1tU5fm" />
                <node concept="3ZFEI6" id="5GQb1e$AMmN" role="33vP2m">
                  <property role="2OWxkV" value="321" />
                  <property role="2OWTPx" value="false" />
                  <property role="3ZFEl8" value="true" />
                </node>
                <node concept="7CXmI" id="5GQb1e$AMGZ" role="lGtFl">
                  <node concept="1TM$A" id="5GQb1e$AMH0" role="7EUXB" />
                </node>
              </node>
            </node>
            <node concept="3clFbH" id="1BNF4XJaGIq" role="3cqZAp" />
          </node>
        </node>
        <node concept="2tJIrI" id="5GQb1e$AM6F" role="jymVt" />
        <node concept="3clFb_" id="3$lifF37ZDY" role="jymVt">
          <property role="TrG5h" value="overridingAnnotation" />
          <node concept="3cqZAl" id="3$lifF37ZE0" role="3clF45" />
          <node concept="3Tm1VV" id="3$lifF37ZE1" role="1B3o_S" />
          <node concept="3clFbS" id="3$lifF37ZE2" role="3clF47">
            <node concept="3clFbH" id="1BNF4XJaFup" role="3cqZAp" />
            <node concept="3cpWs8" id="5GcBY$ql2QL" role="3cqZAp">
              <node concept="3cpWsn" id="5GcBY$ql2QM" role="3cpWs9">
                <property role="TrG5h" value="_double" />
                <node concept="2OXq5R" id="5GcBY$ql2QK" role="1tU5fm" />
                <node concept="2OWTPY" id="5GcBY$ql2QN" role="33vP2m">
                  <property role="2OWxkV" value="654" />
                  <property role="2OWTPx" value="false" />
                  <node concept="3UdkSI" id="5GcBY$ql2QO" role="lGtFl">
                    <node concept="3qnpJ0" id="5GcBY$ql2QP" role="3qnpJ4">
                      <property role="TrG5h" value="true" />
                    </node>
                    <node concept="2OXq5R" id="5GcBY$ql2QQ" role="3qnpIY" />
                  </node>
                </node>
              </node>
            </node>
            <node concept="3clFbH" id="5GcBY$ql4i2" role="3cqZAp" />
            <node concept="3cpWs8" id="5GcBY$ql4gQ" role="3cqZAp">
              <node concept="3cpWsn" id="5GcBY$ql4gR" role="3cpWs9">
                <property role="TrG5h" value="_double_not_int" />
                <node concept="3qnkEp" id="5GcBY$ql4j6" role="1tU5fm" />
                <node concept="2OWTPY" id="5GcBY$ql4gT" role="33vP2m">
                  <property role="2OWxkV" value="654" />
                  <property role="2OWTPx" value="false" />
                  <node concept="3UdkSI" id="5GcBY$ql4gU" role="lGtFl">
                    <node concept="3qnpJ0" id="5GcBY$ql4gV" role="3qnpJ4">
                      <property role="TrG5h" value="true" />
                    </node>
                    <node concept="2OXq5R" id="5GcBY$ql4gW" role="3qnpIY" />
                  </node>
                </node>
                <node concept="7CXmI" id="5GcBY$ql5qx" role="lGtFl">
                  <node concept="1TM$A" id="5GcBY$ql5qy" role="7EUXB" />
                </node>
              </node>
            </node>
            <node concept="3clFbH" id="5GcBY$ql2S_" role="3cqZAp" />
            <node concept="3cpWs8" id="5GcBY$ql2RX" role="3cqZAp">
              <node concept="3cpWsn" id="5GcBY$ql2RY" role="3cpWs9">
                <property role="TrG5h" value="_int" />
                <node concept="3qnkEp" id="5GcBY$ql2TG" role="1tU5fm" />
                <node concept="2OWTPY" id="5GcBY$ql2S0" role="33vP2m">
                  <property role="2OWxkV" value="654" />
                  <property role="2OWTPx" value="false" />
                  <node concept="3UdkSI" id="5GcBY$ql2S1" role="lGtFl">
                    <node concept="3qnpJ0" id="5GcBY$ql2S2" role="3qnpJ4">
                      <property role="TrG5h" value="false" />
                    </node>
                    <node concept="2OXq5R" id="5GcBY$ql2S3" role="3qnpIY" />
                  </node>
                </node>
              </node>
            </node>
            <node concept="3clFbH" id="5GcBY$ql4lK" role="3cqZAp" />
            <node concept="3cpWs8" id="5GcBY$ql4jR" role="3cqZAp">
              <node concept="3cpWsn" id="5GcBY$ql4jS" role="3cpWs9">
                <property role="TrG5h" value="_int_not_double" />
                <node concept="2OXq5R" id="5GcBY$ql4n6" role="1tU5fm" />
                <node concept="2OWTPY" id="5GcBY$ql4jU" role="33vP2m">
                  <property role="2OWxkV" value="654" />
                  <property role="2OWTPx" value="false" />
                  <node concept="3UdkSI" id="5GcBY$ql4jV" role="lGtFl">
                    <node concept="3qnpJ0" id="5GcBY$ql4jW" role="3qnpJ4">
                      <property role="TrG5h" value="false" />
                    </node>
                    <node concept="2OXq5R" id="5GcBY$ql4jX" role="3qnpIY" />
                  </node>
                </node>
                <node concept="7CXmI" id="5GcBY$ql5vZ" role="lGtFl">
                  <node concept="1TM$A" id="5GcBY$ql5w0" role="7EUXB" />
                </node>
              </node>
            </node>
            <node concept="3clFbH" id="3$lifF37ZHk" role="3cqZAp" />
          </node>
        </node>
        <node concept="2tJIrI" id="1BNF4XJaAzr" role="jymVt" />
        <node concept="3clFb_" id="1BNF4XJaAtH" role="jymVt">
          <property role="TrG5h" value="unconditionalOverridingAnnotation" />
          <node concept="3cqZAl" id="1BNF4XJaAtI" role="3clF45" />
          <node concept="3Tm1VV" id="1BNF4XJaAtJ" role="1B3o_S" />
          <node concept="3clFbS" id="1BNF4XJaAtK" role="3clF47">
            <node concept="3clFbH" id="1BNF4XJaFtd" role="3cqZAp" />
            <node concept="3cpWs8" id="1BNF4XJaAtL" role="3cqZAp">
              <node concept="3cpWsn" id="1BNF4XJaAtM" role="3cpWs9">
                <property role="TrG5h" value="_double" />
                <node concept="2OXq5R" id="1BNF4XJaAtN" role="1tU5fm" />
                <node concept="2OWTPY" id="1BNF4XJaAtO" role="33vP2m">
                  <property role="2OWxkV" value="654" />
                  <property role="2OWTPx" value="false" />
                  <node concept="1QQq_5" id="1BNF4XJaAUz" role="lGtFl">
                    <node concept="3qnpJ0" id="1BNF4XJaB3X" role="3qnpJ4">
                      <property role="TrG5h" value="true" />
                    </node>
                    <node concept="2OXq5R" id="1BNF4XJaEbV" role="3qnpIY" />
                  </node>
                </node>
              </node>
            </node>
            <node concept="3clFbH" id="1BNF4XJaAtS" role="3cqZAp" />
            <node concept="3cpWs8" id="1BNF4XJaAtT" role="3cqZAp">
              <node concept="3cpWsn" id="1BNF4XJaAtU" role="3cpWs9">
                <property role="TrG5h" value="_double_not_int" />
                <node concept="3qnkEp" id="1BNF4XJaAtV" role="1tU5fm" />
                <node concept="2OWTPY" id="1BNF4XJaAtW" role="33vP2m">
                  <property role="2OWxkV" value="654" />
                  <property role="2OWTPx" value="false" />
                  <node concept="1QQq_5" id="1BNF4XJaESD" role="lGtFl">
                    <node concept="3qnpJ0" id="1BNF4XJaEST" role="3qnpJ4">
                      <property role="TrG5h" value="true" />
                    </node>
                    <node concept="2OXq5R" id="1BNF4XJaET7" role="3qnpIY" />
                  </node>
                </node>
                <node concept="7CXmI" id="1BNF4XJaAu0" role="lGtFl">
                  <node concept="1TM$A" id="1BNF4XJaAu1" role="7EUXB" />
                </node>
              </node>
            </node>
            <node concept="3clFbH" id="1BNF4XJaAu2" role="3cqZAp" />
            <node concept="3cpWs8" id="1BNF4XJaFfj" role="3cqZAp">
              <node concept="3cpWsn" id="1BNF4XJaFfm" role="3cpWs9">
                <property role="TrG5h" value="err" />
                <node concept="1QQtcf" id="1BNF4XJaFfh" role="1tU5fm" />
                <node concept="2OWTPY" id="1BNF4XJaFi3" role="33vP2m">
                  <property role="2OWxkV" value="654" />
                  <property role="2OWTPx" value="false" />
                  <node concept="1QQq_5" id="1BNF4XJaFi4" role="lGtFl">
                    <node concept="3qnpJ0" id="1BNF4XJaFi5" role="3qnpJ4">
                      <property role="TrG5h" value="false" />
                    </node>
                    <node concept="2OXq5R" id="1BNF4XJaFi6" role="3qnpIY" />
                  </node>
                </node>
              </node>
            </node>
            <node concept="3clFbH" id="1BNF4XJaFgv" role="3cqZAp" />
            <node concept="3cpWs8" id="1BNF4XJaAu3" role="3cqZAp">
              <node concept="3cpWsn" id="1BNF4XJaAu4" role="3cpWs9">
                <property role="TrG5h" value="_int" />
                <node concept="3qnkEp" id="1BNF4XJaAu5" role="1tU5fm" />
                <node concept="2OWTPY" id="1BNF4XJaAu6" role="33vP2m">
                  <property role="2OWxkV" value="654" />
                  <property role="2OWTPx" value="false" />
                  <node concept="1QQq_5" id="1BNF4XJaEEJ" role="lGtFl">
                    <node concept="3qnpJ0" id="1BNF4XJaEEZ" role="3qnpJ4">
                      <property role="TrG5h" value="false" />
                    </node>
                    <node concept="2OXq5R" id="1BNF4XJaEFr" role="3qnpIY" />
                  </node>
                </node>
                <node concept="7CXmI" id="1BNF4XJaEQV" role="lGtFl">
                  <node concept="1TM$A" id="1BNF4XJaEQW" role="7EUXB" />
                </node>
              </node>
            </node>
            <node concept="3clFbH" id="1BNF4XJaAua" role="3cqZAp" />
            <node concept="3cpWs8" id="1BNF4XJaAub" role="3cqZAp">
              <node concept="3cpWsn" id="1BNF4XJaAuc" role="3cpWs9">
                <property role="TrG5h" value="_int_not_double" />
                <node concept="2OXq5R" id="1BNF4XJaAud" role="1tU5fm" />
                <node concept="2OWTPY" id="1BNF4XJaAue" role="33vP2m">
                  <property role="2OWxkV" value="654" />
                  <property role="2OWTPx" value="false" />
                  <node concept="1QQq_5" id="1BNF4XJaF7t" role="lGtFl">
                    <node concept="3qnpJ0" id="1BNF4XJaF7G" role="3qnpJ4">
                      <property role="TrG5h" value="false" />
                    </node>
                    <node concept="2OXq5R" id="1BNF4XJaF8i" role="3qnpIY" />
                  </node>
                </node>
                <node concept="7CXmI" id="1BNF4XJaAui" role="lGtFl">
                  <node concept="1TM$A" id="1BNF4XJaAuj" role="7EUXB" />
                </node>
              </node>
            </node>
            <node concept="3clFbH" id="1BNF4XJaAuk" role="3cqZAp" />
          </node>
        </node>
        <node concept="2tJIrI" id="1BNF4XJaGK0" role="jymVt" />
        <node concept="3clFb_" id="1BNF4XJaH7y" role="jymVt">
          <property role="TrG5h" value="twoOverridingAnnotations" />
          <node concept="3cqZAl" id="1BNF4XJaH7z" role="3clF45" />
          <node concept="3Tm1VV" id="1BNF4XJaH7$" role="1B3o_S" />
          <node concept="3clFbS" id="1BNF4XJaH7_" role="3clF47">
            <node concept="3clFbH" id="1BNF4XJaH7A" role="3cqZAp" />
            <node concept="3cpWs8" id="1BNF4XJaH7B" role="3cqZAp">
              <node concept="3cpWsn" id="1BNF4XJaH7C" role="3cpWs9">
                <property role="TrG5h" value="_int" />
                <node concept="3qnkEp" id="1BNF4XJaIWX" role="1tU5fm" />
                <node concept="2OWTPY" id="1BNF4XJaH7E" role="33vP2m">
                  <property role="2OWxkV" value="654" />
                  <property role="2OWTPx" value="false" />
                  <node concept="3UdkSI" id="1BNF4XJaIGZ" role="lGtFl">
                    <node concept="3qnpJ0" id="1BNF4XJaIQe" role="3qnpJ4">
                      <property role="TrG5h" value="false" />
                    </node>
                    <node concept="2OXq5R" id="1BNF4XJaIXc" role="3qnpIY" />
                  </node>
                  <node concept="1QQq_5" id="1BNF4XJaIOZ" role="lGtFl">
                    <node concept="3qnpJ0" id="1BNF4XJaIPg" role="3qnpJ4">
                      <property role="TrG5h" value="true" />
                    </node>
                    <node concept="3qnkEp" id="1BNF4XJaJ4O" role="3qnpIY" />
                  </node>
                </node>
              </node>
            </node>
            <node concept="3clFbH" id="1BNF4XJaJfc" role="3cqZAp" />
            <node concept="3cpWs8" id="1BNF4XJaJet" role="3cqZAp">
              <node concept="3cpWsn" id="1BNF4XJaJeu" role="3cpWs9">
                <property role="TrG5h" value="_double" />
                <node concept="2OXq5R" id="1BNF4XJaJg1" role="1tU5fm" />
                <node concept="2OWTPY" id="1BNF4XJaJew" role="33vP2m">
                  <property role="2OWxkV" value="654" />
                  <property role="2OWTPx" value="false" />
                  <node concept="3UdkSI" id="1BNF4XJaJex" role="lGtFl">
                    <node concept="3qnpJ0" id="1BNF4XJaJey" role="3qnpJ4">
                      <property role="TrG5h" value="true" />
                    </node>
                    <node concept="2OXq5R" id="1BNF4XJaJez" role="3qnpIY" />
                  </node>
                  <node concept="1QQq_5" id="1BNF4XJaJe$" role="lGtFl">
                    <node concept="3qnpJ0" id="1BNF4XJaJe_" role="3qnpJ4">
                      <property role="TrG5h" value="true" />
                    </node>
                    <node concept="3qnkEp" id="1BNF4XJaJeA" role="3qnpIY" />
                  </node>
                </node>
              </node>
            </node>
            <node concept="3clFbH" id="TTgk$P7tXg" role="3cqZAp" />
            <node concept="3cpWs8" id="TTgk$P7tW6" role="3cqZAp">
              <node concept="3cpWsn" id="TTgk$P7tW7" role="3cpWs9">
                <property role="TrG5h" value="_float" />
                <node concept="3qnpIU" id="TTgk$P7tZt" role="1tU5fm" />
                <node concept="2OWTPY" id="TTgk$P7tW9" role="33vP2m">
                  <property role="2OWxkV" value="654" />
                  <property role="2OWTPx" value="false" />
                  <node concept="3UdkSI" id="TTgk$P7tWa" role="lGtFl">
                    <node concept="3qnpJ0" id="TTgk$P7tWb" role="3qnpJ4">
                      <property role="TrG5h" value="false" />
                    </node>
                    <node concept="2OXq5R" id="TTgk$P7tWc" role="3qnpIY" />
                  </node>
                  <node concept="1QQq_5" id="TTgk$P7tWd" role="lGtFl">
                    <node concept="3qnpJ0" id="TTgk$P7tWe" role="3qnpJ4">
                      <property role="TrG5h" value="true" />
                    </node>
                    <node concept="3qnpIU" id="TTgk$P7u4w" role="3qnpIY" />
                  </node>
                </node>
              </node>
            </node>
            <node concept="3clFbH" id="1BNF4XJaH7I" role="3cqZAp" />
            <node concept="3cpWs8" id="TTgk$P7tEa" role="3cqZAp">
              <node concept="3cpWsn" id="TTgk$P7tEb" role="3cpWs9">
                <property role="TrG5h" value="_error" />
                <node concept="3qnkEp" id="TTgk$P7tEc" role="1tU5fm" />
                <node concept="2OWTPY" id="TTgk$P7tEd" role="33vP2m">
                  <property role="2OWxkV" value="654" />
                  <property role="2OWTPx" value="false" />
                  <node concept="3UdkSI" id="TTgk$P7tEe" role="lGtFl">
                    <node concept="3qnpJ0" id="TTgk$P7tEf" role="3qnpJ4">
                      <property role="TrG5h" value="false" />
                    </node>
                    <node concept="2OXq5R" id="TTgk$P7tEg" role="3qnpIY" />
                  </node>
                  <node concept="1QQq_5" id="TTgk$P7tEh" role="lGtFl">
                    <node concept="3qnpJ0" id="TTgk$P7tEi" role="3qnpJ4">
                      <property role="TrG5h" value="false" />
                    </node>
                    <node concept="3qnkEp" id="TTgk$P7tEj" role="3qnpIY" />
                  </node>
                </node>
                <node concept="7CXmI" id="TTgk$P7tVb" role="lGtFl">
                  <node concept="1TM$A" id="TTgk$P7tVc" role="7EUXB" />
                </node>
              </node>
            </node>
            <node concept="3clFbH" id="TTgk$P7tVm" role="3cqZAp" />
          </node>
        </node>
        <node concept="2tJIrI" id="1BNF4XJaH7x" role="jymVt" />
        <node concept="2tJIrI" id="1BNF4XJaGLT" role="jymVt" />
        <node concept="3Tm1VV" id="5GQb1e$AM5P" role="1B3o_S" />
        <node concept="7CXmI" id="3$lifF37ZIS" role="lGtFl">
          <node concept="7OXhh" id="3$lifF37ZKf" role="7EUXB">
            <property role="G7GLP" value="true" />
          </node>
        </node>
      </node>
    </node>
  </node>
  <node concept="2UguNb" id="2R6x4AnxVdQ">
    <property role="TrG5h" value="SubstituteType" />
    <node concept="3rNLEe" id="vgcurbB5gQ" role="3ciXlA">
      <property role="3rM5sR" value="2f74e72e-3e3d-480e-bae1-cc709d588366" />
    </node>
    <node concept="3rNLEe" id="vgcurbB5gY" role="3ciXlA">
      <property role="3rM5sR" value="394e3857-3256-4e8b-9601-5abe7ad354d9" />
    </node>
    <node concept="3rNLEe" id="vgcurbB5h7" role="3ciXlA">
      <property role="3rM5sR" value="9290638e-635b-4ec6-bcad-945ecb88a928" />
    </node>
  </node>
</model>

