<?xml version="1.0" encoding="UTF-8"?>
<model ref="r:89e9cff1-cacb-42b4-95a5-bad4a21f5877(jetbrains.mps.baseLanguageInternal.behavior)">
  <persistence version="9" />
  <languages>
    <use id="fd392034-7849-419d-9071-12563d152375" name="jetbrains.mps.baseLanguage.closures" version="0" />
    <use id="83888646-71ce-4f1c-9c53-c54016f6ad4f" name="jetbrains.mps.baseLanguage.collections" version="0" />
    <use id="af65afd8-f0dd-4942-87d9-63a55f2a9db1" name="jetbrains.mps.lang.behavior" version="0" />
    <use id="3a13115c-633c-4c5c-bbcc-75c4219e9555" name="jetbrains.mps.lang.quotation" version="0" />
    <use id="7866978e-a0f0-4cc7-81bc-4d213d9375e1" name="jetbrains.mps.lang.smodel" version="4" />
    <use id="f3061a53-9226-4cc5-a443-f952ceaf5816" name="jetbrains.mps.baseLanguage" version="4" />
    <devkit ref="fbc25dd2-5da4-483a-8b19-70928e1b62d7(jetbrains.mps.devkit.general-purpose)" />
  </languages>
  <imports>
    <import index="tp68" ref="r:00000000-0000-4000-0000-011c895903ac(jetbrains.mps.baseLanguageInternal.structure)" />
    <import index="tpek" ref="r:00000000-0000-4000-0000-011c895902c0(jetbrains.mps.baseLanguage.behavior)" />
    <import index="tpee" ref="r:00000000-0000-4000-0000-011c895902ca(jetbrains.mps.baseLanguage.structure)" />
    <import index="wyt6" ref="6354ebe7-c22a-4a0f-ac54-50b52ab9b065/java:java.lang(JDK/)" />
    <import index="if8w" ref="r:95397225-9080-48bc-b1aa-0ce7c4f3d2ce(jetbrains.mps.lang.traceable.behavior)" />
    <import index="tpck" ref="r:00000000-0000-4000-0000-011c89590288(jetbrains.mps.lang.core.structure)" implicit="true" />
    <import index="tpcu" ref="r:00000000-0000-4000-0000-011c89590282(jetbrains.mps.lang.core.behavior)" implicit="true" />
  </imports>
  <registry>
    <language id="af65afd8-f0dd-4942-87d9-63a55f2a9db1" name="jetbrains.mps.lang.behavior">
      <concept id="1225194240794" name="jetbrains.mps.lang.behavior.structure.ConceptBehavior" flags="ng" index="13h7C7">
        <reference id="1225194240799" name="concept" index="13h7C2" />
        <child id="1225194240805" name="method" index="13h7CS" />
        <child id="1225194240801" name="constructor" index="13h7CW" />
      </concept>
      <concept id="1225194413805" name="jetbrains.mps.lang.behavior.structure.ConceptConstructorDeclaration" flags="in" index="13hLZK" />
      <concept id="1225194472830" name="jetbrains.mps.lang.behavior.structure.ConceptMethodDeclaration" flags="ng" index="13i0hz">
        <property id="5864038008284099149" name="isStatic" index="2Ki8OM" />
        <property id="1225194472833" name="isPrivate" index="13i0is" />
        <property id="1225194472832" name="isVirtual" index="13i0it" />
        <property id="1225194472834" name="isAbstract" index="13i0iv" />
        <reference id="1225194472831" name="overriddenMethod" index="13i0hy" />
      </concept>
      <concept id="1225194628440" name="jetbrains.mps.lang.behavior.structure.SuperNodeExpression" flags="nn" index="13iAh5" />
      <concept id="1225194691553" name="jetbrains.mps.lang.behavior.structure.ThisNodeExpression" flags="nn" index="13iPFW" />
    </language>
    <language id="f3061a53-9226-4cc5-a443-f952ceaf5816" name="jetbrains.mps.baseLanguage">
      <concept id="1215693861676" name="jetbrains.mps.baseLanguage.structure.BaseAssignmentExpression" flags="nn" index="d038R">
        <child id="1068498886297" name="rValue" index="37vLTx" />
        <child id="1068498886295" name="lValue" index="37vLTJ" />
      </concept>
      <concept id="1215695189714" name="jetbrains.mps.baseLanguage.structure.PlusAssignmentExpression" flags="nn" index="d57v9" />
      <concept id="4836112446988635817" name="jetbrains.mps.baseLanguage.structure.UndefinedType" flags="in" index="2jxLKc" />
      <concept id="1202948039474" name="jetbrains.mps.baseLanguage.structure.InstanceMethodCallOperation" flags="nn" index="liA8E" />
      <concept id="1154032098014" name="jetbrains.mps.baseLanguage.structure.AbstractLoopStatement" flags="nn" index="2LF5Ji">
        <child id="1154032183016" name="body" index="2LFqv$" />
      </concept>
      <concept id="1197027756228" name="jetbrains.mps.baseLanguage.structure.DotExpression" flags="nn" index="2OqwBi">
        <child id="1197027771414" name="operand" index="2Oq$k0" />
        <child id="1197027833540" name="operation" index="2OqNvi" />
      </concept>
      <concept id="1145552977093" name="jetbrains.mps.baseLanguage.structure.GenericNewExpression" flags="nn" index="2ShNRf">
        <child id="1145553007750" name="creator" index="2ShVmc" />
      </concept>
      <concept id="1137021947720" name="jetbrains.mps.baseLanguage.structure.ConceptFunction" flags="in" index="2VMwT0">
        <child id="1137022507850" name="body" index="2VODD2" />
      </concept>
      <concept id="1070475926800" name="jetbrains.mps.baseLanguage.structure.StringLiteral" flags="nn" index="Xl_RD">
        <property id="1070475926801" name="value" index="Xl_RC" />
      </concept>
      <concept id="1070534058343" name="jetbrains.mps.baseLanguage.structure.NullLiteral" flags="nn" index="10Nm6u" />
      <concept id="1070534370425" name="jetbrains.mps.baseLanguage.structure.IntegerType" flags="in" index="10Oyi0" />
      <concept id="1070534644030" name="jetbrains.mps.baseLanguage.structure.BooleanType" flags="in" index="10P_77" />
      <concept id="1068431474542" name="jetbrains.mps.baseLanguage.structure.VariableDeclaration" flags="ng" index="33uBYm">
        <child id="1068431790190" name="initializer" index="33vP2m" />
      </concept>
      <concept id="1068498886296" name="jetbrains.mps.baseLanguage.structure.VariableReference" flags="nn" index="37vLTw">
        <reference id="1068581517664" name="variableDeclaration" index="3cqZAo" />
      </concept>
      <concept id="1068498886292" name="jetbrains.mps.baseLanguage.structure.ParameterDeclaration" flags="ir" index="37vLTG" />
      <concept id="1068498886294" name="jetbrains.mps.baseLanguage.structure.AssignmentExpression" flags="nn" index="37vLTI" />
      <concept id="1225271177708" name="jetbrains.mps.baseLanguage.structure.StringType" flags="in" index="17QB3L" />
      <concept id="4972933694980447171" name="jetbrains.mps.baseLanguage.structure.BaseVariableDeclaration" flags="ng" index="19Szcq">
        <child id="5680397130376446158" name="type" index="1tU5fm" />
      </concept>
      <concept id="1068580123132" name="jetbrains.mps.baseLanguage.structure.BaseMethodDeclaration" flags="ng" index="3clF44">
        <child id="1068580123133" name="returnType" index="3clF45" />
        <child id="1068580123134" name="parameter" index="3clF46" />
        <child id="1068580123135" name="body" index="3clF47" />
      </concept>
      <concept id="1068580123152" name="jetbrains.mps.baseLanguage.structure.EqualsExpression" flags="nn" index="3clFbC" />
      <concept id="1068580123155" name="jetbrains.mps.baseLanguage.structure.ExpressionStatement" flags="nn" index="3clFbF">
        <child id="1068580123156" name="expression" index="3clFbG" />
      </concept>
      <concept id="1068580123159" name="jetbrains.mps.baseLanguage.structure.IfStatement" flags="nn" index="3clFbJ">
        <child id="1068580123160" name="condition" index="3clFbw" />
        <child id="1068580123161" name="ifTrue" index="3clFbx" />
      </concept>
      <concept id="1068580123136" name="jetbrains.mps.baseLanguage.structure.StatementList" flags="sn" stub="5293379017992965193" index="3clFbS">
        <child id="1068581517665" name="statement" index="3cqZAp" />
      </concept>
      <concept id="1068580123137" name="jetbrains.mps.baseLanguage.structure.BooleanConstant" flags="nn" index="3clFbT">
        <property id="1068580123138" name="value" index="3clFbU" />
      </concept>
      <concept id="1068580320020" name="jetbrains.mps.baseLanguage.structure.IntegerConstant" flags="nn" index="3cmrfG">
        <property id="1068580320021" name="value" index="3cmrfH" />
      </concept>
      <concept id="1068581242875" name="jetbrains.mps.baseLanguage.structure.PlusExpression" flags="nn" index="3cpWs3" />
      <concept id="1068581242878" name="jetbrains.mps.baseLanguage.structure.ReturnStatement" flags="nn" index="3cpWs6">
        <child id="1068581517676" name="expression" index="3cqZAk" />
      </concept>
      <concept id="1068581242864" name="jetbrains.mps.baseLanguage.structure.LocalVariableDeclarationStatement" flags="nn" index="3cpWs8">
        <child id="1068581242865" name="localVariableDeclaration" index="3cpWs9" />
      </concept>
      <concept id="1068581242863" name="jetbrains.mps.baseLanguage.structure.LocalVariableDeclaration" flags="nr" index="3cpWsn" />
      <concept id="1204053956946" name="jetbrains.mps.baseLanguage.structure.IMethodCall" flags="ng" index="1ndlxa">
        <reference id="1068499141037" name="baseMethodDeclaration" index="37wK5l" />
        <child id="1068499141038" name="actualArgument" index="37wK5m" />
      </concept>
      <concept id="1107535904670" name="jetbrains.mps.baseLanguage.structure.ClassifierType" flags="in" index="3uibUv">
        <reference id="1107535924139" name="classifier" index="3uigEE" />
      </concept>
      <concept id="1081773326031" name="jetbrains.mps.baseLanguage.structure.BinaryOperation" flags="nn" index="3uHJSO">
        <child id="1081773367579" name="rightExpression" index="3uHU7w" />
        <child id="1081773367580" name="leftExpression" index="3uHU7B" />
      </concept>
      <concept id="1073239437375" name="jetbrains.mps.baseLanguage.structure.NotEqualsExpression" flags="nn" index="3y3z36" />
      <concept id="1178549954367" name="jetbrains.mps.baseLanguage.structure.IVisible" flags="ng" index="1B3ioH">
        <child id="1178549979242" name="visibility" index="1B3o_S" />
      </concept>
      <concept id="1144226303539" name="jetbrains.mps.baseLanguage.structure.ForeachStatement" flags="nn" index="1DcWWT">
        <child id="1144226360166" name="iterable" index="1DdaDG" />
      </concept>
      <concept id="1144230876926" name="jetbrains.mps.baseLanguage.structure.AbstractForStatement" flags="nn" index="1DupvO">
        <child id="1144230900587" name="variable" index="1Duv9x" />
      </concept>
      <concept id="1163668896201" name="jetbrains.mps.baseLanguage.structure.TernaryOperatorExpression" flags="nn" index="3K4zz7">
        <child id="1163668914799" name="condition" index="3K4Cdx" />
        <child id="1163668922816" name="ifTrue" index="3K4E3e" />
        <child id="1163668934364" name="ifFalse" index="3K4GZi" />
      </concept>
      <concept id="1146644602865" name="jetbrains.mps.baseLanguage.structure.PublicVisibility" flags="nn" index="3Tm1VV" />
      <concept id="1146644623116" name="jetbrains.mps.baseLanguage.structure.PrivateVisibility" flags="nn" index="3Tm6S6" />
      <concept id="1080120340718" name="jetbrains.mps.baseLanguage.structure.AndExpression" flags="nn" index="1Wc70l" />
    </language>
    <language id="fd392034-7849-419d-9071-12563d152375" name="jetbrains.mps.baseLanguage.closures">
      <concept id="1199569711397" name="jetbrains.mps.baseLanguage.closures.structure.ClosureLiteral" flags="nn" index="1bVj0M">
        <child id="1199569906740" name="parameter" index="1bW2Oz" />
        <child id="1199569916463" name="body" index="1bW5cS" />
      </concept>
    </language>
    <language id="3a13115c-633c-4c5c-bbcc-75c4219e9555" name="jetbrains.mps.lang.quotation">
      <concept id="1196350785113" name="jetbrains.mps.lang.quotation.structure.Quotation" flags="nn" index="2c44tf">
        <child id="1196350785114" name="quotedNode" index="2c44tc" />
      </concept>
    </language>
    <language id="7866978e-a0f0-4cc7-81bc-4d213d9375e1" name="jetbrains.mps.lang.smodel">
      <concept id="1177026924588" name="jetbrains.mps.lang.smodel.structure.RefConcept_Reference" flags="nn" index="chp4Y">
        <reference id="1177026940964" name="conceptDeclaration" index="cht4Q" />
      </concept>
      <concept id="1138411891628" name="jetbrains.mps.lang.smodel.structure.SNodeOperation" flags="nn" index="eCIE_">
        <child id="1144104376918" name="parameter" index="1xVPHs" />
      </concept>
      <concept id="1179409122411" name="jetbrains.mps.lang.smodel.structure.Node_ConceptMethodCall" flags="nn" index="2qgKlT" />
      <concept id="1173122760281" name="jetbrains.mps.lang.smodel.structure.Node_GetAncestorsOperation" flags="nn" index="z$bX8" />
      <concept id="2396822768958367367" name="jetbrains.mps.lang.smodel.structure.AbstractTypeCastExpression" flags="nn" index="$5XWr">
        <reference id="6733348108486823428" name="concept" index="1m5ApE" />
        <child id="6733348108486823193" name="leftExpression" index="1m5AlR" />
      </concept>
      <concept id="1145383075378" name="jetbrains.mps.lang.smodel.structure.SNodeListType" flags="in" index="2I9FWS">
        <reference id="1145383142433" name="elementConcept" index="2I9WkF" />
      </concept>
      <concept id="1171305280644" name="jetbrains.mps.lang.smodel.structure.Node_GetDescendantsOperation" flags="nn" index="2Rf3mk" />
      <concept id="1145567426890" name="jetbrains.mps.lang.smodel.structure.SNodeListCreator" flags="nn" index="2T8Vx0">
        <child id="1145567471833" name="createdType" index="2T96Bj" />
      </concept>
      <concept id="1171407110247" name="jetbrains.mps.lang.smodel.structure.Node_GetAncestorOperation" flags="nn" index="2Xjw5R" />
      <concept id="1154546920561" name="jetbrains.mps.lang.smodel.structure.OperationParm_ConceptList" flags="ng" index="3gmYPX">
        <child id="1154546920563" name="concept" index="3gmYPZ" />
      </concept>
      <concept id="1154546950173" name="jetbrains.mps.lang.smodel.structure.ConceptReference" flags="ng" index="3gn64h">
        <reference id="1154546997487" name="concept" index="3gnhBz" />
      </concept>
      <concept id="1139613262185" name="jetbrains.mps.lang.smodel.structure.Node_GetParentOperation" flags="nn" index="1mfA1w" />
      <concept id="1171999116870" name="jetbrains.mps.lang.smodel.structure.Node_IsNullOperation" flags="nn" index="3w_OXm" />
      <concept id="1144100932627" name="jetbrains.mps.lang.smodel.structure.OperationParm_Inclusion" flags="ng" index="1xIGOp" />
      <concept id="1144101597970" name="jetbrains.mps.lang.smodel.structure.OperationParm_Root" flags="ng" index="1xLf8o" />
      <concept id="1144101972840" name="jetbrains.mps.lang.smodel.structure.OperationParm_Concept" flags="ng" index="1xMEDy">
        <child id="1207343664468" name="conceptArgument" index="ri$Ld" />
      </concept>
      <concept id="1140137987495" name="jetbrains.mps.lang.smodel.structure.SNodeTypeCastExpression" flags="nn" index="1PxgMI" />
      <concept id="1138055754698" name="jetbrains.mps.lang.smodel.structure.SNodeType" flags="in" index="3Tqbb2">
        <reference id="1138405853777" name="concept" index="ehGHo" />
      </concept>
      <concept id="1138056022639" name="jetbrains.mps.lang.smodel.structure.SPropertyAccess" flags="nn" index="3TrcHB">
        <reference id="1138056395725" name="property" index="3TsBF5" />
      </concept>
      <concept id="1138056143562" name="jetbrains.mps.lang.smodel.structure.SLinkAccess" flags="nn" index="3TrEf2">
        <reference id="1138056516764" name="link" index="3Tt5mk" />
      </concept>
      <concept id="1138056282393" name="jetbrains.mps.lang.smodel.structure.SLinkListAccess" flags="nn" index="3Tsc0h">
        <reference id="1138056546658" name="link" index="3TtcxE" />
      </concept>
      <concept id="1172424058054" name="jetbrains.mps.lang.smodel.structure.ConceptRefExpression" flags="nn" index="3TUQnm">
        <reference id="1172424100906" name="conceptDeclaration" index="3TV0OU" />
      </concept>
    </language>
    <language id="ceab5195-25ea-4f22-9b92-103b95ca8c0c" name="jetbrains.mps.lang.core">
      <concept id="1169194658468" name="jetbrains.mps.lang.core.structure.INamedConcept" flags="ng" index="TrEIO">
        <property id="1169194664001" name="name" index="TrG5h" />
      </concept>
    </language>
    <language id="83888646-71ce-4f1c-9c53-c54016f6ad4f" name="jetbrains.mps.baseLanguage.collections">
      <concept id="1204796164442" name="jetbrains.mps.baseLanguage.collections.structure.InternalSequenceOperation" flags="nn" index="23sCx2">
        <child id="1204796294226" name="closure" index="23t8la" />
      </concept>
      <concept id="540871147943773365" name="jetbrains.mps.baseLanguage.collections.structure.SingleArgumentSequenceOperation" flags="nn" index="25WWJ4">
        <child id="540871147943773366" name="argument" index="25WWJ7" />
      </concept>
      <concept id="1151689724996" name="jetbrains.mps.baseLanguage.collections.structure.SequenceType" flags="in" index="A3Dl8">
        <child id="1151689745422" name="elementType" index="A3Ik2" />
      </concept>
      <concept id="1203518072036" name="jetbrains.mps.baseLanguage.collections.structure.SmartClosureParameterDeclaration" flags="ig" index="Rh6nW" />
      <concept id="1160612413312" name="jetbrains.mps.baseLanguage.collections.structure.AddElementOperation" flags="nn" index="TSZUe" />
      <concept id="1171391069720" name="jetbrains.mps.baseLanguage.collections.structure.GetIndexOfOperation" flags="nn" index="2WmjW8" />
      <concept id="1160666733551" name="jetbrains.mps.baseLanguage.collections.structure.AddAllElementsOperation" flags="nn" index="X8dFx" />
      <concept id="1202120902084" name="jetbrains.mps.baseLanguage.collections.structure.WhereOperation" flags="nn" index="3zZkjj" />
    </language>
  </registry>
  <node concept="13h7C7" id="hU2BVdN">
    <ref role="13h7C2" to="tp68:h5nCRdH" resolve="InternalNewExpression" />
    <node concept="13hLZK" id="hU2BVdO" role="13h7CW">
      <node concept="3clFbS" id="hU2BVdP" role="2VODD2" />
    </node>
  </node>
  <node concept="13h7C7" id="2LtJ7HQcedL">
    <ref role="13h7C2" to="tp68:2LtJ7HQbXaB" resolve="ExtractStatementListExpression" />
    <node concept="13hLZK" id="2LtJ7HQcedM" role="13h7CW">
      <node concept="3clFbS" id="2LtJ7HQcedN" role="2VODD2" />
    </node>
    <node concept="13i0hz" id="2LtJ7HQcedO" role="13h7CS">
      <property role="TrG5h" value="getLocalVariableElements" />
      <property role="13i0it" value="true" />
      <ref role="13i0hy" to="tpek:i1I$XiP" resolve="getLocalVariableElements" />
      <node concept="3Tm1VV" id="2LtJ7HQcedP" role="1B3o_S" />
      <node concept="3clFbS" id="2LtJ7HQcedQ" role="3clF47">
        <node concept="3cpWs8" id="2LtJ7HQcfln" role="3cqZAp">
          <node concept="3cpWsn" id="2LtJ7HQcflo" role="3cpWs9">
            <property role="TrG5h" value="elems" />
            <node concept="2I9FWS" id="2LtJ7HQcflp" role="1tU5fm">
              <ref role="2I9WkF" to="tpee:i1Ircah" resolve="ILocalVariableElement" />
            </node>
            <node concept="2ShNRf" id="2LtJ7HQcflr" role="33vP2m">
              <node concept="2T8Vx0" id="2LtJ7HQcflt" role="2ShVmc">
                <node concept="2I9FWS" id="2LtJ7HQcflu" role="2T96Bj">
                  <ref role="2I9WkF" to="tpee:i1Ircah" resolve="ILocalVariableElement" />
                </node>
              </node>
            </node>
          </node>
        </node>
        <node concept="3clFbF" id="2LtJ7HQcflw" role="3cqZAp">
          <node concept="2OqwBi" id="2LtJ7HQcfly" role="3clFbG">
            <node concept="37vLTw" id="3GM_nagTANf" role="2Oq$k0">
              <ref role="3cqZAo" node="2LtJ7HQcflo" resolve="elems" />
            </node>
            <node concept="X8dFx" id="2LtJ7HQcfre" role="2OqNvi">
              <node concept="2OqwBi" id="2LtJ7HQcfr_" role="25WWJ7">
                <node concept="2OqwBi" id="2LtJ7HQcfrm" role="2Oq$k0">
                  <node concept="13iPFW" id="2LtJ7HQcfrl" role="2Oq$k0" />
                  <node concept="3TrEf2" id="2LtJ7HQcfrv" role="2OqNvi">
                    <ref role="3Tt5mk" to="tp68:2LtJ7HQbXNT" />
                  </node>
                </node>
                <node concept="3Tsc0h" id="2LtJ7HQcfrI" role="2OqNvi">
                  <ref role="3TtcxE" to="tpee:fzcqZ_x" />
                </node>
              </node>
            </node>
          </node>
        </node>
        <node concept="3clFbF" id="2LtJ7HQcfrP" role="3cqZAp">
          <node concept="2OqwBi" id="2LtJ7HQcfrR" role="3clFbG">
            <node concept="37vLTw" id="3GM_nagTtme" role="2Oq$k0">
              <ref role="3cqZAo" node="2LtJ7HQcflo" resolve="elems" />
            </node>
            <node concept="TSZUe" id="2LtJ7HQcfrV" role="2OqNvi">
              <node concept="2OqwBi" id="2LtJ7HQcfs2" role="25WWJ7">
                <node concept="13iPFW" id="2LtJ7HQcfs1" role="2Oq$k0" />
                <node concept="3TrEf2" id="2LtJ7HQdhbv" role="2OqNvi">
                  <ref role="3Tt5mk" to="tp68:2LtJ7HQcflg" />
                </node>
              </node>
            </node>
          </node>
        </node>
        <node concept="3cpWs6" id="2LtJ7HQcfj5" role="3cqZAp">
          <node concept="37vLTw" id="3GM_nagTzbD" role="3cqZAk">
            <ref role="3cqZAo" node="2LtJ7HQcflo" resolve="elems" />
          </node>
        </node>
      </node>
      <node concept="2I9FWS" id="2LtJ7HQcedR" role="3clF45">
        <ref role="2I9WkF" to="tpee:i1Ircah" resolve="ILocalVariableElement" />
      </node>
    </node>
  </node>
  <node concept="13h7C7" id="373Y828VpB8">
    <ref role="13h7C2" to="tp68:373Y828VpAq" resolve="ExtractStaticMethod_CallExpression" />
    <node concept="13hLZK" id="373Y828VpB9" role="13h7CW">
      <node concept="3clFbS" id="373Y828VpBa" role="2VODD2" />
    </node>
    <node concept="13i0hz" id="373Y828VpBb" role="13h7CS">
      <property role="TrG5h" value="getAvailableMethodDeclarations" />
      <property role="13i0it" value="true" />
      <ref role="13i0hy" to="tpek:50EF2fWdwEN" resolve="getAvailableMethodDeclarations" />
      <node concept="3Tm1VV" id="373Y828VpBc" role="1B3o_S" />
      <node concept="3clFbS" id="373Y828VpBd" role="3clF47">
        <node concept="3cpWs8" id="373Y828VpDc" role="3cqZAp">
          <node concept="3cpWsn" id="373Y828VpDd" role="3cpWs9">
            <property role="TrG5h" value="result" />
            <node concept="2I9FWS" id="373Y828VpDe" role="1tU5fm">
              <ref role="2I9WkF" to="tpee:fzclF7W" resolve="BaseMethodDeclaration" />
            </node>
            <node concept="2ShNRf" id="373Y828VpDf" role="33vP2m">
              <node concept="2T8Vx0" id="373Y828VpDg" role="2ShVmc">
                <node concept="2I9FWS" id="373Y828VpDh" role="2T96Bj">
                  <ref role="2I9WkF" to="tpee:fzclF7W" resolve="BaseMethodDeclaration" />
                </node>
              </node>
            </node>
          </node>
        </node>
        <node concept="1DcWWT" id="373Y828VpDi" role="3cqZAp">
          <node concept="3clFbS" id="373Y828VpDj" role="2LFqv$">
            <node concept="3cpWs8" id="2OYHW9NAEyN" role="3cqZAp">
              <node concept="3cpWsn" id="2OYHW9NAEyO" role="3cpWs9">
                <property role="TrG5h" value="name" />
                <node concept="17QB3L" id="2OYHW9NAEyK" role="1tU5fm" />
                <node concept="2OqwBi" id="2OYHW9NAEyP" role="33vP2m">
                  <node concept="1PxgMI" id="2OYHW9NAEyQ" role="2Oq$k0">
                    <ref role="1m5ApE" to="tpee:fIYIFWa" resolve="StaticMethodDeclaration" />
                    <node concept="37vLTw" id="2OYHW9NAEyR" role="1m5AlR">
                      <ref role="3cqZAo" node="373Y828VpDx" resolve="bmd" />
                    </node>
                  </node>
                  <node concept="3TrcHB" id="2OYHW9NAEyS" role="2OqNvi">
                    <ref role="3TsBF5" to="tpck:h0TrG11" resolve="name" />
                  </node>
                </node>
              </node>
            </node>
            <node concept="3clFbJ" id="373Y828Vq5J" role="3cqZAp">
              <node concept="3clFbS" id="373Y828Vq5K" role="3clFbx">
                <node concept="3clFbF" id="373Y828VqlB" role="3cqZAp">
                  <node concept="2OqwBi" id="373Y828VqlC" role="3clFbG">
                    <node concept="37vLTw" id="3GM_nagTzxg" role="2Oq$k0">
                      <ref role="3cqZAo" node="373Y828VpDd" resolve="result" />
                    </node>
                    <node concept="TSZUe" id="373Y828VqlE" role="2OqNvi">
                      <node concept="1PxgMI" id="55buE1DUcDH" role="25WWJ7">
                        <ref role="1m5ApE" to="tpee:fIYIFWa" resolve="StaticMethodDeclaration" />
                        <node concept="37vLTw" id="3GM_nagTrR$" role="1m5AlR">
                          <ref role="3cqZAo" node="373Y828VpDx" resolve="bmd" />
                        </node>
                      </node>
                    </node>
                  </node>
                </node>
              </node>
              <node concept="1Wc70l" id="2OYHW9NAQyA" role="3clFbw">
                <node concept="3y3z36" id="2OYHW9NARj2" role="3uHU7B">
                  <node concept="10Nm6u" id="2OYHW9NARyd" role="3uHU7w" />
                  <node concept="37vLTw" id="2OYHW9NAQM4" role="3uHU7B">
                    <ref role="3cqZAo" node="2OYHW9NAEyO" resolve="name" />
                  </node>
                </node>
                <node concept="2OqwBi" id="373Y828Vqlx" role="3uHU7w">
                  <node concept="37vLTw" id="2OYHW9NAEyT" role="2Oq$k0">
                    <ref role="3cqZAo" node="2OYHW9NAEyO" resolve="name" />
                  </node>
                  <node concept="liA8E" id="373Y828Vql_" role="2OqNvi">
                    <ref role="37wK5l" to="wyt6:~String.equals(java.lang.Object):boolean" resolve="equals" />
                    <node concept="37vLTw" id="2BHiRxgmaC0" role="37wK5m">
                      <ref role="3cqZAo" node="373Y828VpBe" resolve="methodName" />
                    </node>
                  </node>
                </node>
              </node>
            </node>
          </node>
          <node concept="3cpWsn" id="373Y828VpDx" role="1Duv9x">
            <property role="TrG5h" value="bmd" />
            <node concept="3Tqbb2" id="373Y828Vq5z" role="1tU5fm" />
          </node>
          <node concept="2OqwBi" id="L_Hr3kExJR" role="1DdaDG">
            <node concept="2qgKlT" id="L_Hr3kExJS" role="2OqNvi">
              <ref role="37wK5l" node="55buE1DVoKQ" resolve="getMethods" />
              <node concept="13iPFW" id="L_Hr3kExJT" role="37wK5m" />
            </node>
            <node concept="3TUQnm" id="L_Hr3kExJU" role="2Oq$k0">
              <ref role="3TV0OU" to="tp68:373Y828VpAq" resolve="ExtractStaticMethod_CallExpression" />
            </node>
          </node>
        </node>
        <node concept="3cpWs6" id="373Y828VpDz" role="3cqZAp">
          <node concept="37vLTw" id="3GM_nagTtRA" role="3cqZAk">
            <ref role="3cqZAo" node="373Y828VpDd" resolve="result" />
          </node>
        </node>
      </node>
      <node concept="37vLTG" id="373Y828VpBe" role="3clF46">
        <property role="TrG5h" value="methodName" />
        <node concept="17QB3L" id="6WNkzWZQko4" role="1tU5fm" />
      </node>
      <node concept="A3Dl8" id="6WNkzWZQko2" role="3clF45">
        <node concept="3Tqbb2" id="6WNkzWZQko3" role="A3Ik2">
          <ref role="ehGHo" to="tpee:fzclF7W" resolve="BaseMethodDeclaration" />
        </node>
      </node>
    </node>
    <node concept="13i0hz" id="7H3c2f3rrjt" role="13h7CS">
      <property role="TrG5h" value="getContainingExtractExpr" />
      <node concept="3Tm1VV" id="7H3c2f3rrju" role="1B3o_S" />
      <node concept="3clFbS" id="7H3c2f3rrjw" role="3clF47">
        <node concept="1DcWWT" id="7H3c2f3rrjC" role="3cqZAp">
          <node concept="3clFbS" id="7H3c2f3rrjD" role="2LFqv$">
            <node concept="3clFbJ" id="7H3c2f3rrk9" role="3cqZAp">
              <node concept="3clFbS" id="7H3c2f3rrkb" role="3clFbx">
                <node concept="3cpWs6" id="7H3c2f3rrkw" role="3cqZAp">
                  <node concept="37vLTw" id="3GM_nagTzOF" role="3cqZAk">
                    <ref role="3cqZAo" node="7H3c2f3rrjR" resolve="es" />
                  </node>
                </node>
              </node>
              <node concept="3clFbC" id="7H3c2f3rrkm" role="3clFbw">
                <node concept="2OqwBi" id="7H3c2f3rrkq" role="3uHU7w">
                  <node concept="13iPFW" id="7H3c2f3rrkp" role="2Oq$k0" />
                  <node concept="3TrEf2" id="7H3c2f3rrkv" role="2OqNvi">
                    <ref role="3Tt5mk" to="tp68:7H3c2f3q6_O" />
                  </node>
                </node>
                <node concept="2OqwBi" id="7H3c2f3rrkh" role="3uHU7B">
                  <node concept="37vLTw" id="3GM_nagT$Rt" role="2Oq$k0">
                    <ref role="3cqZAo" node="7H3c2f3rrjR" resolve="es" />
                  </node>
                  <node concept="3TrEf2" id="7H3c2f3rrkl" role="2OqNvi">
                    <ref role="3Tt5mk" to="tp68:373Y828UwF6" />
                  </node>
                </node>
              </node>
            </node>
          </node>
          <node concept="2OqwBi" id="7H3c2f3rrjL" role="1DdaDG">
            <node concept="13iPFW" id="7H3c2f3rrk2" role="2Oq$k0" />
            <node concept="z$bX8" id="7H3c2f3rrjN" role="2OqNvi">
              <node concept="1xMEDy" id="7H3c2f3rrjO" role="1xVPHs">
                <node concept="chp4Y" id="7H3c2f3rrjP" role="ri$Ld">
                  <ref role="cht4Q" to="tp68:373Y828UwF4" resolve="ExtractStaticMethodExpression" />
                </node>
              </node>
            </node>
          </node>
          <node concept="3cpWsn" id="7H3c2f3rrjR" role="1Duv9x">
            <property role="TrG5h" value="es" />
            <node concept="3Tqbb2" id="7H3c2f3rrjS" role="1tU5fm">
              <ref role="ehGHo" to="tp68:373Y828UwF4" resolve="ExtractStaticMethodExpression" />
            </node>
          </node>
        </node>
        <node concept="3cpWs6" id="7H3c2f3rrjZ" role="3cqZAp">
          <node concept="10Nm6u" id="7H3c2f3rrk1" role="3cqZAk" />
        </node>
      </node>
      <node concept="3Tqbb2" id="7H3c2f3rrjA" role="3clF45">
        <ref role="ehGHo" to="tp68:373Y828UwF4" resolve="ExtractStaticMethodExpression" />
      </node>
    </node>
    <node concept="13i0hz" id="1653mnvAmlh" role="13h7CS">
      <property role="2Ki8OM" value="true" />
      <property role="13i0is" value="false" />
      <property role="TrG5h" value="substituteInAmbigousPosition" />
      <property role="13i0it" value="false" />
      <ref role="13i0hy" to="tpcu:1653mnvAgq$" resolve="substituteInAmbigousPosition" />
      <node concept="3Tm1VV" id="1653mnvAmli" role="1B3o_S" />
      <node concept="10P_77" id="1653mnvAmlg" role="3clF45" />
      <node concept="3clFbS" id="1653mnvAmlj" role="3clF47">
        <node concept="3cpWs6" id="1653mnvAmlk" role="3cqZAp">
          <node concept="3clFbT" id="1653mnvAmll" role="3cqZAk">
            <property role="3clFbU" value="true" />
          </node>
        </node>
      </node>
    </node>
    <node concept="13i0hz" id="55buE1DVoKQ" role="13h7CS">
      <property role="2Ki8OM" value="true" />
      <property role="13i0is" value="false" />
      <property role="13i0iv" value="false" />
      <property role="TrG5h" value="getMethods" />
      <node concept="3clFbS" id="55buE1DVoKT" role="3clF47">
        <node concept="3cpWs8" id="55buE1DVoL9" role="3cqZAp">
          <node concept="3cpWsn" id="55buE1DVoLa" role="3cpWs9">
            <property role="TrG5h" value="smd" />
            <node concept="2I9FWS" id="55buE1DVoLb" role="1tU5fm">
              <ref role="2I9WkF" to="tpee:fIYIFWa" resolve="StaticMethodDeclaration" />
            </node>
            <node concept="2ShNRf" id="55buE1DVoLc" role="33vP2m">
              <node concept="2T8Vx0" id="55buE1DVoLd" role="2ShVmc">
                <node concept="2I9FWS" id="55buE1DVoLe" role="2T96Bj">
                  <ref role="2I9WkF" to="tpee:fIYIFWa" resolve="StaticMethodDeclaration" />
                </node>
              </node>
            </node>
          </node>
        </node>
        <node concept="1DcWWT" id="55buE1DVoLf" role="3cqZAp">
          <node concept="3clFbS" id="55buE1DVoLg" role="2LFqv$">
            <node concept="3clFbF" id="55buE1DVoLh" role="3cqZAp">
              <node concept="2OqwBi" id="55buE1DVoLi" role="3clFbG">
                <node concept="37vLTw" id="3GM_nagTyBg" role="2Oq$k0">
                  <ref role="3cqZAo" node="55buE1DVoLa" resolve="smd" />
                </node>
                <node concept="TSZUe" id="55buE1DVoLk" role="2OqNvi">
                  <node concept="2OqwBi" id="55buE1DVoLl" role="25WWJ7">
                    <node concept="37vLTw" id="3GM_nagTATA" role="2Oq$k0">
                      <ref role="3cqZAo" node="55buE1DVoLt" resolve="es" />
                    </node>
                    <node concept="3TrEf2" id="55buE1DVoLn" role="2OqNvi">
                      <ref role="3Tt5mk" to="tp68:373Y828UwF6" />
                    </node>
                  </node>
                </node>
              </node>
            </node>
          </node>
          <node concept="2OqwBi" id="55buE1DVoLo" role="1DdaDG">
            <node concept="37vLTw" id="2BHiRxgmpN1" role="2Oq$k0">
              <ref role="3cqZAo" node="55buE1DVoL5" resolve="context" />
            </node>
            <node concept="z$bX8" id="55buE1DVoLq" role="2OqNvi">
              <node concept="1xMEDy" id="55buE1DVoLr" role="1xVPHs">
                <node concept="chp4Y" id="55buE1DVoLs" role="ri$Ld">
                  <ref role="cht4Q" to="tp68:373Y828UwF4" resolve="ExtractStaticMethodExpression" />
                </node>
              </node>
              <node concept="1xIGOp" id="7H3c2f3qHRg" role="1xVPHs" />
            </node>
          </node>
          <node concept="3cpWsn" id="55buE1DVoLt" role="1Duv9x">
            <property role="TrG5h" value="es" />
            <node concept="3Tqbb2" id="55buE1DVoLu" role="1tU5fm">
              <ref role="ehGHo" to="tp68:373Y828UwF4" resolve="ExtractStaticMethodExpression" />
            </node>
          </node>
        </node>
        <node concept="3clFbF" id="55buE1DVoLv" role="3cqZAp">
          <node concept="37vLTw" id="3GM_nagTtk2" role="3clFbG">
            <ref role="3cqZAo" node="55buE1DVoLa" resolve="smd" />
          </node>
        </node>
      </node>
      <node concept="2I9FWS" id="55buE1DVoL4" role="3clF45">
        <ref role="2I9WkF" to="tpee:fIYIFWa" resolve="StaticMethodDeclaration" />
      </node>
      <node concept="37vLTG" id="55buE1DVoL5" role="3clF46">
        <property role="TrG5h" value="context" />
        <node concept="3Tqbb2" id="55buE1DVoL6" role="1tU5fm" />
      </node>
      <node concept="3Tm1VV" id="55buE1DVoKR" role="1B3o_S" />
    </node>
  </node>
  <node concept="13h7C7" id="2XVui9ut6AZ">
    <ref role="13h7C2" to="tp68:2XVui9ut6w9" resolve="InternalAnonymousClass" />
    <node concept="13hLZK" id="2XVui9ut6B0" role="13h7CW">
      <node concept="3clFbS" id="2XVui9ut6B1" role="2VODD2">
        <node concept="3clFbF" id="3hgolwNoeIc" role="3cqZAp">
          <node concept="37vLTI" id="3hgolwNoeId" role="3clFbG">
            <node concept="3clFbT" id="3hgolwNoeIe" role="37vLTx">
              <property role="3clFbU" value="true" />
            </node>
            <node concept="2OqwBi" id="3hgolwNoeIf" role="37vLTJ">
              <node concept="13iPFW" id="3hgolwNoeIg" role="2Oq$k0" />
              <node concept="3TrcHB" id="3hgolwNoeIh" role="2OqNvi">
                <ref role="3TsBF5" to="tpee:sWroEc0xYp" resolve="nonStatic" />
              </node>
            </node>
          </node>
        </node>
      </node>
    </node>
    <node concept="13i0hz" id="2XVui9ut6E5" role="13h7CS">
      <property role="TrG5h" value="getUnitName" />
      <property role="13i0it" value="true" />
      <ref role="13i0hy" to="if8w:4pl5GY7LKmR" resolve="getUnitName" />
      <node concept="3Tm1VV" id="2XVui9ut6E6" role="1B3o_S" />
      <node concept="3clFbS" id="2XVui9ut6E7" role="3clF47">
        <node concept="3clFbF" id="2XVui9ut6E8" role="3cqZAp">
          <node concept="2OqwBi" id="2XVui9ut6E9" role="3clFbG">
            <node concept="13iPFW" id="2XVui9ut6Ea" role="2Oq$k0" />
            <node concept="2qgKlT" id="2XVui9ut6Eb" role="2OqNvi">
              <ref role="37wK5l" node="2XVui9ut6Ed" resolve="getJavaName" />
            </node>
          </node>
        </node>
      </node>
      <node concept="17QB3L" id="2XVui9ut6Ec" role="3clF45" />
    </node>
    <node concept="13i0hz" id="2XVui9ut6Ed" role="13h7CS">
      <property role="TrG5h" value="getJavaName" />
      <node concept="3Tm1VV" id="2XVui9ut6Ee" role="1B3o_S" />
      <node concept="17QB3L" id="2XVui9ut6Ef" role="3clF45" />
      <node concept="3clFbS" id="2XVui9ut6Eg" role="3clF47">
        <node concept="3cpWs8" id="2XVui9ut6Eh" role="3cqZAp">
          <node concept="3cpWsn" id="2XVui9ut6Ei" role="3cpWs9">
            <property role="TrG5h" value="ancestor" />
            <node concept="3Tqbb2" id="2XVui9ut6Ej" role="1tU5fm">
              <ref role="ehGHo" to="tpee:g7pOWCK" resolve="Classifier" />
            </node>
            <node concept="2OqwBi" id="2XVui9ut6Ek" role="33vP2m">
              <node concept="13iPFW" id="2XVui9ut6El" role="2Oq$k0" />
              <node concept="2Xjw5R" id="2XVui9ut6Em" role="2OqNvi">
                <node concept="1xMEDy" id="2XVui9ut6En" role="1xVPHs">
                  <node concept="chp4Y" id="2XVui9ut6Eo" role="ri$Ld">
                    <ref role="cht4Q" to="tpee:g7pOWCK" resolve="Classifier" />
                  </node>
                </node>
                <node concept="1xLf8o" id="2XVui9ut6Ep" role="1xVPHs" />
              </node>
            </node>
          </node>
        </node>
        <node concept="3clFbJ" id="2XVui9ut6Eq" role="3cqZAp">
          <node concept="3clFbS" id="2XVui9ut6Er" role="3clFbx">
            <node concept="3cpWs6" id="2XVui9ut6Es" role="3cqZAp">
              <node concept="2OqwBi" id="2XVui9ut6Et" role="3cqZAk">
                <node concept="13iPFW" id="2XVui9ut6Eu" role="2Oq$k0" />
                <node concept="2qgKlT" id="2XVui9ut6Ev" role="2OqNvi">
                  <ref role="37wK5l" to="tpcu:hEwIO9y" resolve="getFqName" />
                </node>
              </node>
            </node>
          </node>
          <node concept="2OqwBi" id="2XVui9ut6Ew" role="3clFbw">
            <node concept="37vLTw" id="3GM_nagTs18" role="2Oq$k0">
              <ref role="3cqZAo" node="2XVui9ut6Ei" resolve="ancestor" />
            </node>
            <node concept="3w_OXm" id="2XVui9ut6Ey" role="2OqNvi" />
          </node>
        </node>
        <node concept="3cpWs6" id="2XVui9ut6Ez" role="3cqZAp">
          <node concept="3cpWs3" id="2XVui9ut6E$" role="3cqZAk">
            <node concept="2OqwBi" id="2XVui9ut6E_" role="3uHU7w">
              <node concept="13iPFW" id="2XVui9ut6EA" role="2Oq$k0" />
              <node concept="2qgKlT" id="2XVui9ut6Gd" role="2OqNvi">
                <ref role="37wK5l" node="2XVui9ut6EM" resolve="getIndexInContainingClass" />
              </node>
            </node>
            <node concept="3cpWs3" id="2XVui9ut6EC" role="3uHU7B">
              <node concept="Xl_RD" id="2XVui9ut6ED" role="3uHU7w">
                <property role="Xl_RC" value="$" />
              </node>
              <node concept="2OqwBi" id="2XVui9ut6EE" role="3uHU7B">
                <node concept="37vLTw" id="3GM_nagTvsq" role="2Oq$k0">
                  <ref role="3cqZAo" node="2XVui9ut6Ei" resolve="ancestor" />
                </node>
                <node concept="2qgKlT" id="2XVui9ut6EG" role="2OqNvi">
                  <ref role="37wK5l" to="tpcu:hEwIO9y" resolve="getFqName" />
                </node>
              </node>
            </node>
          </node>
        </node>
      </node>
    </node>
    <node concept="13i0hz" id="2XVui9ut6EM" role="13h7CS">
      <property role="TrG5h" value="getIndexInContainingClass" />
      <node concept="3Tm6S6" id="2XVui9ut6EN" role="1B3o_S" />
      <node concept="10Oyi0" id="2XVui9ut6EO" role="3clF45" />
      <node concept="3clFbS" id="2XVui9ut6EP" role="3clF47">
        <node concept="3cpWs8" id="2XVui9ut6EQ" role="3cqZAp">
          <node concept="3cpWsn" id="2XVui9ut6ER" role="3cpWs9">
            <property role="TrG5h" value="ancestor" />
            <node concept="3Tqbb2" id="2XVui9ut6ES" role="1tU5fm">
              <ref role="ehGHo" to="tpee:g7pOWCK" resolve="Classifier" />
            </node>
            <node concept="2OqwBi" id="2XVui9ut6ET" role="33vP2m">
              <node concept="13iPFW" id="2XVui9ut6EU" role="2Oq$k0" />
              <node concept="2Xjw5R" id="2XVui9ut6EV" role="2OqNvi">
                <node concept="1xMEDy" id="2XVui9ut6EW" role="1xVPHs">
                  <node concept="chp4Y" id="2XVui9ut6EX" role="ri$Ld">
                    <ref role="cht4Q" to="tpee:g7pOWCK" resolve="Classifier" />
                  </node>
                </node>
              </node>
            </node>
          </node>
        </node>
        <node concept="3cpWs8" id="2XVui9ut6EY" role="3cqZAp">
          <node concept="3cpWsn" id="2XVui9ut6EZ" role="3cpWs9">
            <property role="TrG5h" value="index" />
            <node concept="10Oyi0" id="2XVui9ut6F0" role="1tU5fm" />
            <node concept="3cpWs3" id="2XVui9ut6FO" role="33vP2m">
              <node concept="3cmrfG" id="2XVui9ut6FP" role="3uHU7w">
                <property role="3cmrfH" value="1" />
              </node>
              <node concept="2OqwBi" id="2XVui9ut6FQ" role="3uHU7B">
                <node concept="2OqwBi" id="2XVui9ut6FR" role="2Oq$k0">
                  <node concept="2OqwBi" id="2XVui9ut6FS" role="2Oq$k0">
                    <node concept="37vLTw" id="3GM_nagTwsC" role="2Oq$k0">
                      <ref role="3cqZAo" node="2XVui9ut6ER" resolve="ancestor" />
                    </node>
                    <node concept="2Rf3mk" id="2XVui9ut6FU" role="2OqNvi">
                      <node concept="3gmYPX" id="2XVui9ut6Gk" role="1xVPHs">
                        <node concept="3gn64h" id="2XVui9ut6Gn" role="3gmYPZ">
                          <ref role="3gnhBz" to="tpee:h1Y3b43" resolve="AnonymousClass" />
                        </node>
                        <node concept="3gn64h" id="2XVui9ut6Gq" role="3gmYPZ">
                          <ref role="3gnhBz" to="tp68:2XVui9ut6w9" resolve="InternalAnonymousClass" />
                        </node>
                      </node>
                    </node>
                  </node>
                  <node concept="3zZkjj" id="2XVui9ut6FX" role="2OqNvi">
                    <node concept="1bVj0M" id="2XVui9ut6FY" role="23t8la">
                      <node concept="3clFbS" id="2XVui9ut6FZ" role="1bW5cS">
                        <node concept="3clFbF" id="2XVui9ut6G0" role="3cqZAp">
                          <node concept="3clFbC" id="2XVui9ut6G1" role="3clFbG">
                            <node concept="37vLTw" id="3GM_nagTylI" role="3uHU7w">
                              <ref role="3cqZAo" node="2XVui9ut6ER" resolve="ancestor" />
                            </node>
                            <node concept="2OqwBi" id="2XVui9ut6G3" role="3uHU7B">
                              <node concept="37vLTw" id="2BHiRxgll8r" role="2Oq$k0">
                                <ref role="3cqZAo" node="2XVui9ut6G8" resolve="it" />
                              </node>
                              <node concept="2Xjw5R" id="2XVui9ut6G5" role="2OqNvi">
                                <node concept="1xMEDy" id="2XVui9ut6G6" role="1xVPHs">
                                  <node concept="chp4Y" id="2XVui9ut6G7" role="ri$Ld">
                                    <ref role="cht4Q" to="tpee:g7pOWCK" resolve="Classifier" />
                                  </node>
                                </node>
                              </node>
                            </node>
                          </node>
                        </node>
                      </node>
                      <node concept="Rh6nW" id="2XVui9ut6G8" role="1bW2Oz">
                        <property role="TrG5h" value="it" />
                        <node concept="2jxLKc" id="2XVui9ut6G9" role="1tU5fm" />
                      </node>
                    </node>
                  </node>
                </node>
                <node concept="2WmjW8" id="2XVui9ut6Ga" role="2OqNvi">
                  <node concept="13iPFW" id="2XVui9ut6Gb" role="25WWJ7" />
                </node>
              </node>
            </node>
          </node>
        </node>
        <node concept="3cpWs6" id="2XVui9ut6FH" role="3cqZAp">
          <node concept="37vLTw" id="3GM_nagTsRg" role="3cqZAk">
            <ref role="3cqZAo" node="2XVui9ut6EZ" resolve="index" />
          </node>
        </node>
      </node>
    </node>
    <node concept="13i0hz" id="2XVui9ut6B2" role="13h7CS">
      <property role="13i0iv" value="false" />
      <property role="TrG5h" value="getSuperclass" />
      <property role="13i0it" value="false" />
      <ref role="13i0hy" to="tpek:i3H_lLu" resolve="getSuperclass" />
      <node concept="3Tm1VV" id="2XVui9ut6B3" role="1B3o_S" />
      <node concept="3clFbS" id="2XVui9ut6B4" role="3clF47">
        <node concept="3clFbF" id="2XVui9ut6B6" role="3cqZAp">
          <node concept="2c44tf" id="2XVui9ut6Ba" role="3clFbG">
            <node concept="3uibUv" id="2XVui9ut6Bb" role="2c44tc">
              <ref role="3uigEE" to="wyt6:~Object" resolve="Object" />
            </node>
          </node>
        </node>
      </node>
      <node concept="3Tqbb2" id="2XVui9ut6B5" role="3clF45">
        <ref role="ehGHo" to="tpee:g7uibYu" resolve="ClassifierType" />
      </node>
    </node>
    <node concept="13i0hz" id="2XVui9ut6Cj" role="13h7CS">
      <property role="TrG5h" value="getNestedName" />
      <property role="13i0it" value="true" />
      <ref role="13i0hy" to="tpek:7q4lzBFjvIX" resolve="getNestedName" />
      <node concept="3Tm1VV" id="2XVui9ut6Ck" role="1B3o_S" />
      <node concept="3clFbS" id="2XVui9ut6Cl" role="3clF47">
        <node concept="3cpWs8" id="2XVui9ut6Cm" role="3cqZAp">
          <node concept="3cpWsn" id="2XVui9ut6Cn" role="3cpWs9">
            <property role="TrG5h" value="containingClassifier" />
            <node concept="3Tqbb2" id="2XVui9ut6Co" role="1tU5fm">
              <ref role="ehGHo" to="tpee:g7pOWCK" resolve="Classifier" />
            </node>
            <node concept="2OqwBi" id="2XVui9ut6Cp" role="33vP2m">
              <node concept="13iPFW" id="2XVui9ut6Cq" role="2Oq$k0" />
              <node concept="2Xjw5R" id="2XVui9ut6Cr" role="2OqNvi">
                <node concept="1xMEDy" id="2XVui9ut6Cs" role="1xVPHs">
                  <node concept="chp4Y" id="2XVui9ut6Ct" role="ri$Ld">
                    <ref role="cht4Q" to="tpee:g7pOWCK" resolve="Classifier" />
                  </node>
                </node>
              </node>
            </node>
          </node>
        </node>
        <node concept="3cpWs6" id="2XVui9ut6Cu" role="3cqZAp">
          <node concept="3K4zz7" id="2XVui9ut6Cv" role="3cqZAk">
            <node concept="3y3z36" id="2XVui9ut6Cw" role="3K4Cdx">
              <node concept="10Nm6u" id="2XVui9ut6Cx" role="3uHU7w" />
              <node concept="37vLTw" id="3GM_nagTs1t" role="3uHU7B">
                <ref role="3cqZAo" node="2XVui9ut6Cn" resolve="containingClassifier" />
              </node>
            </node>
            <node concept="3cpWs3" id="2XVui9ut6Cz" role="3K4E3e">
              <node concept="2OqwBi" id="2XVui9ut6C$" role="3uHU7B">
                <node concept="13iPFW" id="2XVui9ut6C_" role="2Oq$k0" />
                <node concept="2qgKlT" id="2XVui9ut6CA" role="2OqNvi">
                  <ref role="37wK5l" node="2XVui9ut6Db" resolve="getAnonymousClassPresentation" />
                  <node concept="37vLTw" id="3GM_nagTuPR" role="37wK5m">
                    <ref role="3cqZAo" node="2XVui9ut6Cn" resolve="containingClassifier" />
                  </node>
                </node>
              </node>
              <node concept="2OqwBi" id="2XVui9ut6CC" role="3uHU7w">
                <node concept="37vLTw" id="3GM_nagTx1I" role="2Oq$k0">
                  <ref role="3cqZAo" node="2XVui9ut6Cn" resolve="containingClassifier" />
                </node>
                <node concept="2qgKlT" id="2XVui9ut6CE" role="2OqNvi">
                  <ref role="37wK5l" to="tpek:7q4lzBFjvIX" resolve="getNestedName" />
                </node>
              </node>
            </node>
            <node concept="2OqwBi" id="2XVui9ut6CF" role="3K4GZi">
              <node concept="13iAh5" id="2XVui9ut6CG" role="2Oq$k0" />
              <node concept="2qgKlT" id="2XVui9ut6CH" role="2OqNvi">
                <ref role="37wK5l" to="tpek:7q4lzBFjvIX" resolve="getNestedName" />
              </node>
            </node>
          </node>
        </node>
      </node>
      <node concept="17QB3L" id="2XVui9ut6CI" role="3clF45" />
    </node>
    <node concept="13i0hz" id="2XVui9ut6CJ" role="13h7CS">
      <property role="13i0is" value="false" />
      <property role="TrG5h" value="getFqName" />
      <property role="13i0it" value="true" />
      <ref role="13i0hy" to="tpcu:hEwIO9y" resolve="getFqName" />
      <node concept="3Tm1VV" id="2XVui9ut6CK" role="1B3o_S" />
      <node concept="3clFbS" id="2XVui9ut6CL" role="3clF47">
        <node concept="3cpWs8" id="2XVui9ut6CM" role="3cqZAp">
          <node concept="3cpWsn" id="2XVui9ut6CN" role="3cpWs9">
            <property role="TrG5h" value="containingClassifier" />
            <node concept="3Tqbb2" id="2XVui9ut6CO" role="1tU5fm">
              <ref role="ehGHo" to="tpee:g7pOWCK" resolve="Classifier" />
            </node>
            <node concept="2OqwBi" id="2XVui9ut6CP" role="33vP2m">
              <node concept="13iPFW" id="2XVui9ut6CQ" role="2Oq$k0" />
              <node concept="2Xjw5R" id="2XVui9ut6CR" role="2OqNvi">
                <node concept="1xMEDy" id="2XVui9ut6CS" role="1xVPHs">
                  <node concept="chp4Y" id="2XVui9ut6CT" role="ri$Ld">
                    <ref role="cht4Q" to="tpee:g7pOWCK" resolve="Classifier" />
                  </node>
                </node>
              </node>
            </node>
          </node>
        </node>
        <node concept="3cpWs6" id="2XVui9ut6CU" role="3cqZAp">
          <node concept="3K4zz7" id="2XVui9ut6CV" role="3cqZAk">
            <node concept="3y3z36" id="2XVui9ut6CW" role="3K4Cdx">
              <node concept="10Nm6u" id="2XVui9ut6CX" role="3uHU7w" />
              <node concept="37vLTw" id="3GM_nagTv7R" role="3uHU7B">
                <ref role="3cqZAo" node="2XVui9ut6CN" resolve="containingClassifier" />
              </node>
            </node>
            <node concept="3cpWs3" id="2XVui9ut6CZ" role="3K4E3e">
              <node concept="2OqwBi" id="2XVui9ut6D0" role="3uHU7w">
                <node concept="37vLTw" id="3GM_nagTua1" role="2Oq$k0">
                  <ref role="3cqZAo" node="2XVui9ut6CN" resolve="containingClassifier" />
                </node>
                <node concept="2qgKlT" id="2XVui9ut6D2" role="2OqNvi">
                  <ref role="37wK5l" to="tpcu:hEwIO9y" resolve="getFqName" />
                </node>
              </node>
              <node concept="2OqwBi" id="2XVui9ut6D3" role="3uHU7B">
                <node concept="13iPFW" id="2XVui9ut6D4" role="2Oq$k0" />
                <node concept="2qgKlT" id="2XVui9ut6D5" role="2OqNvi">
                  <ref role="37wK5l" node="2XVui9ut6Db" resolve="getAnonymousClassPresentation" />
                  <node concept="37vLTw" id="3GM_nagTAN2" role="37wK5m">
                    <ref role="3cqZAo" node="2XVui9ut6CN" resolve="containingClassifier" />
                  </node>
                </node>
              </node>
            </node>
            <node concept="2OqwBi" id="2XVui9ut6D7" role="3K4GZi">
              <node concept="13iAh5" id="2XVui9ut6D8" role="2Oq$k0" />
              <node concept="2qgKlT" id="2XVui9ut6D9" role="2OqNvi">
                <ref role="37wK5l" to="tpcu:hEwIO9y" resolve="getFqName" />
              </node>
            </node>
          </node>
        </node>
      </node>
      <node concept="17QB3L" id="2XVui9ut6Da" role="3clF45" />
    </node>
    <node concept="13i0hz" id="2XVui9ut6Db" role="13h7CS">
      <property role="TrG5h" value="getAnonymousClassPresentation" />
      <node concept="37vLTG" id="2XVui9ut6Dc" role="3clF46">
        <property role="TrG5h" value="containingClassifier" />
        <node concept="3Tqbb2" id="2XVui9ut6Dd" role="1tU5fm">
          <ref role="ehGHo" to="tpee:g7pOWCK" resolve="Classifier" />
        </node>
      </node>
      <node concept="3Tm6S6" id="2XVui9ut6Df" role="1B3o_S" />
      <node concept="17QB3L" id="2XVui9ut6Dg" role="3clF45" />
      <node concept="3clFbS" id="2XVui9ut6Dh" role="3clF47">
        <node concept="3cpWs8" id="2XVui9ut6Di" role="3cqZAp">
          <node concept="3cpWsn" id="2XVui9ut6Dj" role="3cpWs9">
            <property role="TrG5h" value="result" />
            <node concept="17QB3L" id="2XVui9ut6Dk" role="1tU5fm" />
            <node concept="Xl_RD" id="2XVui9ut6Dl" role="33vP2m">
              <property role="Xl_RC" value="Anonymous in " />
            </node>
          </node>
        </node>
        <node concept="3cpWs8" id="2XVui9ut6Dm" role="3cqZAp">
          <node concept="3cpWsn" id="2XVui9ut6Dn" role="3cpWs9">
            <property role="TrG5h" value="containingMethod" />
            <node concept="3Tqbb2" id="2XVui9ut6Do" role="1tU5fm">
              <ref role="ehGHo" to="tpee:fzclF7W" resolve="BaseMethodDeclaration" />
            </node>
            <node concept="2OqwBi" id="2XVui9ut6Dp" role="33vP2m">
              <node concept="13iPFW" id="2XVui9ut6Dq" role="2Oq$k0" />
              <node concept="2Xjw5R" id="2XVui9ut6Dr" role="2OqNvi">
                <node concept="1xMEDy" id="2XVui9ut6Ds" role="1xVPHs">
                  <node concept="chp4Y" id="2XVui9ut6Dt" role="ri$Ld">
                    <ref role="cht4Q" to="tpee:fzclF7W" resolve="BaseMethodDeclaration" />
                  </node>
                </node>
              </node>
            </node>
          </node>
        </node>
        <node concept="3clFbJ" id="2XVui9ut6Du" role="3cqZAp">
          <node concept="3clFbS" id="2XVui9ut6Dv" role="3clFbx">
            <node concept="3clFbF" id="2XVui9ut6Dw" role="3cqZAp">
              <node concept="d57v9" id="2XVui9ut6Dx" role="3clFbG">
                <node concept="3cpWs3" id="2XVui9ut6Dy" role="37vLTx">
                  <node concept="Xl_RD" id="2XVui9ut6Dz" role="3uHU7w">
                    <property role="Xl_RC" value="() in " />
                  </node>
                  <node concept="2OqwBi" id="2XVui9ut6D$" role="3uHU7B">
                    <node concept="37vLTw" id="3GM_nagTAhB" role="2Oq$k0">
                      <ref role="3cqZAo" node="2XVui9ut6Dn" resolve="containingMethod" />
                    </node>
                    <node concept="3TrcHB" id="2XVui9ut6DA" role="2OqNvi">
                      <ref role="3TsBF5" to="tpck:h0TrG11" resolve="name" />
                    </node>
                  </node>
                </node>
                <node concept="37vLTw" id="3GM_nagTvyb" role="37vLTJ">
                  <ref role="3cqZAo" node="2XVui9ut6Dj" resolve="result" />
                </node>
              </node>
            </node>
          </node>
          <node concept="1Wc70l" id="2XVui9ut6DC" role="3clFbw">
            <node concept="3clFbC" id="2XVui9ut6DD" role="3uHU7w">
              <node concept="37vLTw" id="2BHiRxgmepZ" role="3uHU7w">
                <ref role="3cqZAo" node="2XVui9ut6Dc" resolve="containingClassifier" />
              </node>
              <node concept="2OqwBi" id="2XVui9ut6DF" role="3uHU7B">
                <node concept="37vLTw" id="3GM_nagTsP_" role="2Oq$k0">
                  <ref role="3cqZAo" node="2XVui9ut6Dn" resolve="containingMethod" />
                </node>
                <node concept="1mfA1w" id="2XVui9ut6DH" role="2OqNvi" />
              </node>
            </node>
            <node concept="3y3z36" id="2XVui9ut6DI" role="3uHU7B">
              <node concept="37vLTw" id="3GM_nagTtKH" role="3uHU7B">
                <ref role="3cqZAo" node="2XVui9ut6Dn" resolve="containingMethod" />
              </node>
              <node concept="10Nm6u" id="2XVui9ut6DK" role="3uHU7w" />
            </node>
          </node>
        </node>
        <node concept="3clFbF" id="2XVui9ut6DL" role="3cqZAp">
          <node concept="37vLTw" id="3GM_nagT$F2" role="3clFbG">
            <ref role="3cqZAo" node="2XVui9ut6Dj" resolve="result" />
          </node>
        </node>
      </node>
    </node>
  </node>
  <node concept="13h7C7" id="b3cCzsUdb$">
    <ref role="13h7C2" to="tp68:373Y828UwF4" resolve="ExtractStaticMethodExpression" />
    <node concept="13hLZK" id="b3cCzsUdb_" role="13h7CW">
      <node concept="3clFbS" id="b3cCzsUdbA" role="2VODD2" />
    </node>
    <node concept="13i0hz" id="b3cCzsUdbB" role="13h7CS">
      <property role="13i0iv" value="false" />
      <property role="TrG5h" value="isLegalAsStatement" />
      <property role="13i0it" value="false" />
      <ref role="13i0hy" to="tpek:i26MfYG" resolve="isLegalAsStatement" />
      <node concept="3Tm1VV" id="b3cCzsUdbC" role="1B3o_S" />
      <node concept="3clFbS" id="b3cCzsUdbD" role="3clF47">
        <node concept="3clFbF" id="b3cCzsUdbK" role="3cqZAp">
          <node concept="3clFbT" id="b3cCzsUdbL" role="3clFbG">
            <property role="3clFbU" value="true" />
          </node>
        </node>
      </node>
      <node concept="10P_77" id="b3cCzsUdbE" role="3clF45" />
    </node>
  </node>
  <node concept="13h7C7" id="b3cCzsUdUU">
    <ref role="13h7C2" to="tp68:6HzP3h78XF8" resolve="ExtractStaticInnerClassExpression" />
    <node concept="13hLZK" id="b3cCzsUdUV" role="13h7CW">
      <node concept="3clFbS" id="b3cCzsUdUW" role="2VODD2" />
    </node>
    <node concept="13i0hz" id="b3cCzsUdUX" role="13h7CS">
      <property role="13i0iv" value="false" />
      <property role="TrG5h" value="isLegalAsStatement" />
      <property role="13i0it" value="false" />
      <ref role="13i0hy" to="tpek:i26MfYG" resolve="isLegalAsStatement" />
      <node concept="3Tm1VV" id="b3cCzsUdUY" role="1B3o_S" />
      <node concept="3clFbS" id="b3cCzsUdUZ" role="3clF47">
        <node concept="3clFbF" id="b3cCzsUdV1" role="3cqZAp">
          <node concept="3clFbT" id="b3cCzsUdV6" role="3clFbG">
            <property role="3clFbU" value="true" />
          </node>
        </node>
      </node>
      <node concept="10P_77" id="b3cCzsUdV0" role="3clF45" />
    </node>
  </node>
  <node concept="13h7C7" id="X6WsgITg_$">
    <ref role="13h7C2" to="tp68:X6WsgITg$K" resolve="InternalClassCreator" />
    <node concept="13hLZK" id="X6WsgITg__" role="13h7CW">
      <node concept="3clFbS" id="X6WsgITg_A" role="2VODD2" />
    </node>
  </node>
  <node concept="13h7C7" id="3aDel7vYE23">
    <ref role="13h7C2" to="tp68:h5niqJz" resolve="InternalStaticMethodCall" />
    <node concept="13hLZK" id="3aDel7vYE24" role="13h7CW">
      <node concept="3clFbS" id="3aDel7vYE25" role="2VODD2" />
    </node>
    <node concept="13i0hz" id="3aDel7vYE26" role="13h7CS">
      <property role="13i0iv" value="false" />
      <property role="TrG5h" value="isLegalAsStatement" />
      <property role="13i0it" value="false" />
      <ref role="13i0hy" to="tpek:i26MfYG" resolve="isLegalAsStatement" />
      <node concept="3Tm1VV" id="3aDel7vYE27" role="1B3o_S" />
      <node concept="3clFbS" id="3aDel7vYE28" role="3clF47">
        <node concept="3clFbF" id="3aDel7vYE2f" role="3cqZAp">
          <node concept="3clFbT" id="3aDel7vYE2g" role="3clFbG">
            <property role="3clFbU" value="true" />
          </node>
        </node>
      </node>
      <node concept="10P_77" id="3aDel7vYE29" role="3clF45" />
    </node>
  </node>
  <node concept="13h7C7" id="1653mnvAN_P">
    <ref role="13h7C2" to="tp68:3f9chO0eDvj" resolve="InternalSuperMethodCallOperation" />
    <node concept="13hLZK" id="1653mnvAN_Q" role="13h7CW">
      <node concept="3clFbS" id="1653mnvAN_R" role="2VODD2" />
    </node>
    <node concept="13i0hz" id="1653mnvAN_K" role="13h7CS">
      <property role="2Ki8OM" value="true" />
      <property role="13i0is" value="false" />
      <property role="TrG5h" value="legalAsStatement" />
      <property role="13i0it" value="false" />
      <ref role="13i0hy" to="tpek:1653mnvAgqK" resolve="legalAsStatement" />
      <node concept="3Tm1VV" id="1653mnvAN_L" role="1B3o_S" />
      <node concept="10P_77" id="1653mnvAN_J" role="3clF45" />
      <node concept="3clFbS" id="1653mnvAN_M" role="3clF47">
        <node concept="3cpWs6" id="1653mnvAN_N" role="3cqZAp">
          <node concept="3clFbT" id="1653mnvAN_O" role="3cqZAk">
            <property role="3clFbU" value="true" />
          </node>
        </node>
      </node>
    </node>
  </node>
  <node concept="13h7C7" id="1653mnvB2Az">
    <ref role="13h7C2" to="tp68:h5DoJDC" resolve="InternalPartialInstanceMethodCall" />
    <node concept="13hLZK" id="1653mnvB2A$" role="13h7CW">
      <node concept="3clFbS" id="1653mnvB2A_" role="2VODD2" />
    </node>
    <node concept="13i0hz" id="1653mnvB2Au" role="13h7CS">
      <property role="2Ki8OM" value="true" />
      <property role="13i0is" value="false" />
      <property role="TrG5h" value="legalAsStatement" />
      <property role="13i0it" value="false" />
      <ref role="13i0hy" to="tpek:1653mnvAgqK" resolve="legalAsStatement" />
      <node concept="3Tm1VV" id="1653mnvB2Av" role="1B3o_S" />
      <node concept="10P_77" id="1653mnvB2At" role="3clF45" />
      <node concept="3clFbS" id="1653mnvB2Aw" role="3clF47">
        <node concept="3cpWs6" id="1653mnvB2Ax" role="3cqZAp">
          <node concept="3clFbT" id="1653mnvB2Ay" role="3cqZAk">
            <property role="3clFbU" value="true" />
          </node>
        </node>
      </node>
    </node>
  </node>
  <node concept="13h7C7" id="7Ur4aGwhh6v">
    <ref role="13h7C2" to="tp68:h7VmV7M" resolve="InternalVariableReference" />
    <node concept="13i0hz" id="7Ur4aGwhhdo" role="13h7CS">
      <property role="TrG5h" value="isLValue" />
      <ref role="13i0hy" to="tpek:hEwJgmE" resolve="isLValue" />
      <node concept="3clFbS" id="7Ur4aGwhhdr" role="3clF47">
        <node concept="3clFbF" id="7Ur4aGwhhjC" role="3cqZAp">
          <node concept="3clFbT" id="7Ur4aGwhhjB" role="3clFbG">
            <property role="3clFbU" value="true" />
          </node>
        </node>
      </node>
      <node concept="10P_77" id="7Ur4aGwhhjz" role="3clF45" />
      <node concept="3Tm1VV" id="7Ur4aGwhhj$" role="1B3o_S" />
    </node>
    <node concept="13hLZK" id="7Ur4aGwhh6w" role="13h7CW">
      <node concept="3clFbS" id="7Ur4aGwhh6x" role="2VODD2" />
    </node>
  </node>
  <node concept="13h7C7" id="2gzehMfaeON">
    <ref role="13h7C2" to="tp68:h8HPosR" resolve="InternalPartialFieldReference" />
    <node concept="13hLZK" id="2gzehMfaeOO" role="13h7CW">
      <node concept="3clFbS" id="2gzehMfaeOP" role="2VODD2" />
    </node>
    <node concept="13i0hz" id="2gzehMfd3w1" role="13h7CS">
      <property role="13i0is" value="false" />
      <property role="TrG5h" value="isLValue" />
      <property role="13i0it" value="false" />
      <property role="13i0iv" value="false" />
      <ref role="13i0hy" to="tpek:hEwIP$w" resolve="isLValue" />
      <node concept="3Tm1VV" id="2gzehMfd3wa" role="1B3o_S" />
      <node concept="3clFbS" id="2gzehMfd3wb" role="3clF47">
        <node concept="3clFbF" id="2gzehMfd3xj" role="3cqZAp">
          <node concept="3clFbT" id="2gzehMfd3xi" role="3clFbG">
            <property role="3clFbU" value="true" />
          </node>
        </node>
      </node>
      <node concept="10P_77" id="2gzehMfd3wc" role="3clF45" />
    </node>
  </node>
</model>

