<?xml version="1.0" encoding="UTF-8"?>
<model ref="r:1ce54900-c35b-4aa5-b24f-b47c871a6d6f(jetbrains.mps.baseLanguageInternal.constraints)">
  <persistence version="9" />
  <languages>
    <use id="83888646-71ce-4f1c-9c53-c54016f6ad4f" name="jetbrains.mps.baseLanguage.collections" version="0" />
    <use id="3f4bc5f5-c6c1-4a28-8b10-c83066ffa4a1" name="jetbrains.mps.lang.constraints" version="0" />
    <use id="13744753-c81f-424a-9c1b-cf8943bf4e86" name="jetbrains.mps.lang.sharedConcepts" version="0" />
    <use id="7866978e-a0f0-4cc7-81bc-4d213d9375e1" name="jetbrains.mps.lang.smodel" version="4" />
    <use id="f3061a53-9226-4cc5-a443-f952ceaf5816" name="jetbrains.mps.baseLanguage" version="4" />
    <devkit ref="fbc25dd2-5da4-483a-8b19-70928e1b62d7(jetbrains.mps.devkit.general-purpose)" />
  </languages>
  <imports>
    <import index="tp68" ref="r:00000000-0000-4000-0000-011c895903ac(jetbrains.mps.baseLanguageInternal.structure)" />
    <import index="tpek" ref="r:00000000-0000-4000-0000-011c895902c0(jetbrains.mps.baseLanguage.behavior)" />
    <import index="n0ti" ref="r:89e9cff1-cacb-42b4-95a5-bad4a21f5877(jetbrains.mps.baseLanguageInternal.behavior)" />
    <import index="tpee" ref="r:00000000-0000-4000-0000-011c895902ca(jetbrains.mps.baseLanguage.structure)" />
    <import index="tpck" ref="r:00000000-0000-4000-0000-011c89590288(jetbrains.mps.lang.core.structure)" implicit="true" />
  </imports>
  <registry>
    <language id="13744753-c81f-424a-9c1b-cf8943bf4e86" name="jetbrains.mps.lang.sharedConcepts">
      <concept id="1161622665029" name="jetbrains.mps.lang.sharedConcepts.structure.ConceptFunctionParameter_model" flags="nn" index="1Q6Npb" />
    </language>
    <language id="f3061a53-9226-4cc5-a443-f952ceaf5816" name="jetbrains.mps.baseLanguage">
      <concept id="1082485599095" name="jetbrains.mps.baseLanguage.structure.BlockStatement" flags="nn" index="9aQIb">
        <child id="1082485599096" name="statements" index="9aQI4" />
      </concept>
      <concept id="4836112446988635817" name="jetbrains.mps.baseLanguage.structure.UndefinedType" flags="in" index="2jxLKc" />
      <concept id="1154032098014" name="jetbrains.mps.baseLanguage.structure.AbstractLoopStatement" flags="nn" index="2LF5Ji">
        <child id="1154032183016" name="body" index="2LFqv$" />
      </concept>
      <concept id="1197027756228" name="jetbrains.mps.baseLanguage.structure.DotExpression" flags="nn" index="2OqwBi">
        <child id="1197027771414" name="operand" index="2Oq$k0" />
        <child id="1197027833540" name="operation" index="2OqNvi" />
      </concept>
      <concept id="1145552977093" name="jetbrains.mps.baseLanguage.structure.GenericNewExpression" flags="nn" index="2ShNRf">
        <child id="1145553007750" name="creator" index="2ShVmc" />
      </concept>
      <concept id="1137021947720" name="jetbrains.mps.baseLanguage.structure.ConceptFunction" flags="in" index="2VMwT0">
        <child id="1137022507850" name="body" index="2VODD2" />
      </concept>
      <concept id="1068431474542" name="jetbrains.mps.baseLanguage.structure.VariableDeclaration" flags="ng" index="33uBYm">
        <child id="1068431790190" name="initializer" index="33vP2m" />
      </concept>
      <concept id="1068498886296" name="jetbrains.mps.baseLanguage.structure.VariableReference" flags="nn" index="37vLTw">
        <reference id="1068581517664" name="variableDeclaration" index="3cqZAo" />
      </concept>
      <concept id="4972933694980447171" name="jetbrains.mps.baseLanguage.structure.BaseVariableDeclaration" flags="ng" index="19Szcq">
        <child id="5680397130376446158" name="type" index="1tU5fm" />
      </concept>
      <concept id="1068580123155" name="jetbrains.mps.baseLanguage.structure.ExpressionStatement" flags="nn" index="3clFbF">
        <child id="1068580123156" name="expression" index="3clFbG" />
      </concept>
      <concept id="1068580123159" name="jetbrains.mps.baseLanguage.structure.IfStatement" flags="nn" index="3clFbJ">
        <child id="1082485599094" name="ifFalseStatement" index="9aQIa" />
        <child id="1068580123160" name="condition" index="3clFbw" />
        <child id="1068580123161" name="ifTrue" index="3clFbx" />
      </concept>
      <concept id="1068580123136" name="jetbrains.mps.baseLanguage.structure.StatementList" flags="sn" stub="5293379017992965193" index="3clFbS">
        <child id="1068581517665" name="statement" index="3cqZAp" />
      </concept>
      <concept id="1068580123137" name="jetbrains.mps.baseLanguage.structure.BooleanConstant" flags="nn" index="3clFbT">
        <property id="1068580123138" name="value" index="3clFbU" />
      </concept>
      <concept id="1068581242878" name="jetbrains.mps.baseLanguage.structure.ReturnStatement" flags="nn" index="3cpWs6">
        <child id="1068581517676" name="expression" index="3cqZAk" />
      </concept>
      <concept id="1068581242864" name="jetbrains.mps.baseLanguage.structure.LocalVariableDeclarationStatement" flags="nn" index="3cpWs8">
        <child id="1068581242865" name="localVariableDeclaration" index="3cpWs9" />
      </concept>
      <concept id="1068581242863" name="jetbrains.mps.baseLanguage.structure.LocalVariableDeclaration" flags="nr" index="3cpWsn" />
      <concept id="1204053956946" name="jetbrains.mps.baseLanguage.structure.IMethodCall" flags="ng" index="1ndlxa">
        <reference id="1068499141037" name="baseMethodDeclaration" index="37wK5l" />
        <child id="1068499141038" name="actualArgument" index="37wK5m" />
      </concept>
      <concept id="1081773326031" name="jetbrains.mps.baseLanguage.structure.BinaryOperation" flags="nn" index="3uHJSO">
        <child id="1081773367579" name="rightExpression" index="3uHU7w" />
        <child id="1081773367580" name="leftExpression" index="3uHU7B" />
      </concept>
      <concept id="1144226303539" name="jetbrains.mps.baseLanguage.structure.ForeachStatement" flags="nn" index="1DcWWT">
        <child id="1144226360166" name="iterable" index="1DdaDG" />
      </concept>
      <concept id="1144230876926" name="jetbrains.mps.baseLanguage.structure.AbstractForStatement" flags="nn" index="1DupvO">
        <child id="1144230900587" name="variable" index="1Duv9x" />
      </concept>
      <concept id="1163668896201" name="jetbrains.mps.baseLanguage.structure.TernaryOperatorExpression" flags="nn" index="3K4zz7">
        <child id="1163668914799" name="condition" index="3K4Cdx" />
        <child id="1163668922816" name="ifTrue" index="3K4E3e" />
        <child id="1163668934364" name="ifFalse" index="3K4GZi" />
      </concept>
      <concept id="6329021646629104957" name="jetbrains.mps.baseLanguage.structure.TextCommentPart" flags="nn" index="3SKdUq">
        <property id="6329021646629104958" name="text" index="3SKdUp" />
      </concept>
      <concept id="6329021646629104954" name="jetbrains.mps.baseLanguage.structure.SingleLineComment" flags="nn" index="3SKdUt">
        <child id="6329021646629175155" name="commentPart" index="3SKWNk" />
      </concept>
      <concept id="1080120340718" name="jetbrains.mps.baseLanguage.structure.AndExpression" flags="nn" index="1Wc70l" />
    </language>
    <language id="3f4bc5f5-c6c1-4a28-8b10-c83066ffa4a1" name="jetbrains.mps.lang.constraints">
      <concept id="1148934636683" name="jetbrains.mps.lang.constraints.structure.ConceptParameter_ReferentSearchScope_enclosingNode" flags="nn" index="21POm0" />
      <concept id="1202989531578" name="jetbrains.mps.lang.constraints.structure.ConstraintFunction_CanBeAChild" flags="in" index="nKS2y" />
      <concept id="1202989658459" name="jetbrains.mps.lang.constraints.structure.ConstraintFunctionParameter_parentNode" flags="nn" index="nLn13" />
      <concept id="3906442776579556545" name="jetbrains.mps.lang.constraints.structure.ConstraintFunction_ReferentSearchScope_Presentation" flags="in" index="Bn3R3" />
      <concept id="3906442776579549644" name="jetbrains.mps.lang.constraints.structure.ConstraintFunctionParameter_parameterNode" flags="nn" index="Bn53e" />
      <concept id="1147467115080" name="jetbrains.mps.lang.constraints.structure.NodePropertyConstraint" flags="ng" index="EnEH3">
        <reference id="1147467295099" name="applicableProperty" index="EomxK" />
        <child id="1147468630220" name="propertyGetter" index="EtsB7" />
      </concept>
      <concept id="1147467790433" name="jetbrains.mps.lang.constraints.structure.ConstraintFunction_PropertyGetter" flags="in" index="Eqf_E" />
      <concept id="1147468365020" name="jetbrains.mps.lang.constraints.structure.ConstraintsFunctionParameter_node" flags="nn" index="EsrRn" />
      <concept id="3481330710159180554" name="jetbrains.mps.lang.constraints.structure.ConstraintFunction_ReferentSearchScope_Validator" flags="in" index="OSAzs" />
      <concept id="4590747232508808445" name="jetbrains.mps.lang.constraints.structure.ConstraintFunctionParameter_inEditor" flags="nn" index="30Zx2P" />
      <concept id="6768994795311967732" name="jetbrains.mps.lang.constraints.structure.ConstraintFunctionParameter_visible" flags="nn" index="18Yu4j" />
      <concept id="1163200647017" name="jetbrains.mps.lang.constraints.structure.ConstraintFunctionParameter_referenceNode" flags="nn" index="3kakTB" />
      <concept id="1213093968558" name="jetbrains.mps.lang.constraints.structure.ConceptConstraints" flags="ng" index="1M2fIO">
        <reference id="1213093996982" name="concept" index="1M2myG" />
        <child id="1213098023997" name="property" index="1MhHOB" />
        <child id="1213100494875" name="referent" index="1Mr941" />
        <child id="1213106463729" name="canBeChild" index="1MLUbF" />
      </concept>
      <concept id="1148684180339" name="jetbrains.mps.lang.constraints.structure.ConstraintFunction_ReferentSearchScope_Factory" flags="in" index="1MUpDS" />
      <concept id="1148687176410" name="jetbrains.mps.lang.constraints.structure.NodeReferentConstraint" flags="ng" index="1N5Pfh">
        <reference id="1148687202698" name="applicableLink" index="1N5Vy1" />
        <child id="3906442776579556548" name="presentation" index="Bn3R6" />
        <child id="3481330710159425093" name="validator" index="OTtmj" />
        <child id="1148687345559" name="searchScopeFactory" index="1N6uqs" />
      </concept>
    </language>
    <language id="fd392034-7849-419d-9071-12563d152375" name="jetbrains.mps.baseLanguage.closures">
      <concept id="1199569711397" name="jetbrains.mps.baseLanguage.closures.structure.ClosureLiteral" flags="nn" index="1bVj0M">
        <child id="1199569906740" name="parameter" index="1bW2Oz" />
        <child id="1199569916463" name="body" index="1bW5cS" />
      </concept>
    </language>
    <language id="7866978e-a0f0-4cc7-81bc-4d213d9375e1" name="jetbrains.mps.lang.smodel">
      <concept id="1177026924588" name="jetbrains.mps.lang.smodel.structure.RefConcept_Reference" flags="nn" index="chp4Y">
        <reference id="1177026940964" name="conceptDeclaration" index="cht4Q" />
      </concept>
      <concept id="1138411891628" name="jetbrains.mps.lang.smodel.structure.SNodeOperation" flags="nn" index="eCIE_">
        <child id="1144104376918" name="parameter" index="1xVPHs" />
      </concept>
      <concept id="1179409122411" name="jetbrains.mps.lang.smodel.structure.Node_ConceptMethodCall" flags="nn" index="2qgKlT" />
      <concept id="1173122760281" name="jetbrains.mps.lang.smodel.structure.Node_GetAncestorsOperation" flags="nn" index="z$bX8" />
      <concept id="2396822768958367367" name="jetbrains.mps.lang.smodel.structure.AbstractTypeCastExpression" flags="nn" index="$5XWr">
        <reference id="6733348108486823428" name="concept" index="1m5ApE" />
        <child id="6733348108486823193" name="leftExpression" index="1m5AlR" />
      </concept>
      <concept id="1145383075378" name="jetbrains.mps.lang.smodel.structure.SNodeListType" flags="in" index="2I9FWS">
        <reference id="1145383142433" name="elementConcept" index="2I9WkF" />
      </concept>
      <concept id="1171305280644" name="jetbrains.mps.lang.smodel.structure.Node_GetDescendantsOperation" flags="nn" index="2Rf3mk" />
      <concept id="1171310072040" name="jetbrains.mps.lang.smodel.structure.Node_GetContainingRootOperation" flags="nn" index="2Rxl7S" />
      <concept id="1145567426890" name="jetbrains.mps.lang.smodel.structure.SNodeListCreator" flags="nn" index="2T8Vx0">
        <child id="1145567471833" name="createdType" index="2T96Bj" />
      </concept>
      <concept id="1182511038748" name="jetbrains.mps.lang.smodel.structure.Model_NodesIncludingImportedOperation" flags="nn" index="1j9C0f">
        <reference id="1182511038750" name="concept" index="1j9C0d" />
      </concept>
      <concept id="1139613262185" name="jetbrains.mps.lang.smodel.structure.Node_GetParentOperation" flags="nn" index="1mfA1w" />
      <concept id="1139621453865" name="jetbrains.mps.lang.smodel.structure.Node_IsInstanceOfOperation" flags="nn" index="1mIQ4w">
        <child id="1177027386292" name="conceptArgument" index="cj9EA" />
      </concept>
      <concept id="1172008320231" name="jetbrains.mps.lang.smodel.structure.Node_IsNotNullOperation" flags="nn" index="3x8VRR" />
      <concept id="1144101972840" name="jetbrains.mps.lang.smodel.structure.OperationParm_Concept" flags="ng" index="1xMEDy">
        <child id="1207343664468" name="conceptArgument" index="ri$Ld" />
      </concept>
      <concept id="1140137987495" name="jetbrains.mps.lang.smodel.structure.SNodeTypeCastExpression" flags="nn" index="1PxgMI" />
      <concept id="1138055754698" name="jetbrains.mps.lang.smodel.structure.SNodeType" flags="in" index="3Tqbb2">
        <reference id="1138405853777" name="concept" index="ehGHo" />
      </concept>
      <concept id="1138056022639" name="jetbrains.mps.lang.smodel.structure.SPropertyAccess" flags="nn" index="3TrcHB">
        <reference id="1138056395725" name="property" index="3TsBF5" />
      </concept>
      <concept id="1138056143562" name="jetbrains.mps.lang.smodel.structure.SLinkAccess" flags="nn" index="3TrEf2">
        <reference id="1138056516764" name="link" index="3Tt5mk" />
      </concept>
      <concept id="1172424058054" name="jetbrains.mps.lang.smodel.structure.ConceptRefExpression" flags="nn" index="3TUQnm">
        <reference id="1172424100906" name="conceptDeclaration" index="3TV0OU" />
      </concept>
    </language>
    <language id="ceab5195-25ea-4f22-9b92-103b95ca8c0c" name="jetbrains.mps.lang.core">
      <concept id="1133920641626" name="jetbrains.mps.lang.core.structure.BaseConcept" flags="ng" index="2VYdi">
        <property id="1193676396447" name="virtualPackage" index="3GE5qa" />
      </concept>
      <concept id="1169194658468" name="jetbrains.mps.lang.core.structure.INamedConcept" flags="ng" index="TrEIO">
        <property id="1169194664001" name="name" index="TrG5h" />
      </concept>
    </language>
    <language id="83888646-71ce-4f1c-9c53-c54016f6ad4f" name="jetbrains.mps.baseLanguage.collections">
      <concept id="1204796164442" name="jetbrains.mps.baseLanguage.collections.structure.InternalSequenceOperation" flags="nn" index="23sCx2">
        <child id="1204796294226" name="closure" index="23t8la" />
      </concept>
      <concept id="540871147943773365" name="jetbrains.mps.baseLanguage.collections.structure.SingleArgumentSequenceOperation" flags="nn" index="25WWJ4">
        <child id="540871147943773366" name="argument" index="25WWJ7" />
      </concept>
      <concept id="1203518072036" name="jetbrains.mps.baseLanguage.collections.structure.SmartClosureParameterDeclaration" flags="ig" index="Rh6nW" />
      <concept id="1160666733551" name="jetbrains.mps.baseLanguage.collections.structure.AddAllElementsOperation" flags="nn" index="X8dFx" />
      <concept id="1202120902084" name="jetbrains.mps.baseLanguage.collections.structure.WhereOperation" flags="nn" index="3zZkjj" />
    </language>
  </registry>
  <node concept="1M2fIO" id="55buE1DVjwo">
    <ref role="1M2myG" to="tp68:373Y828VpAq" resolve="ExtractStaticMethod_CallExpression" />
    <node concept="1N5Pfh" id="55buE1DVjwZ" role="1Mr941">
      <ref role="1N5Vy1" to="tp68:7H3c2f3q6_O" />
      <node concept="1MUpDS" id="55buE1DVjx4" role="1N6uqs">
        <node concept="3clFbS" id="55buE1DVjx5" role="2VODD2">
          <node concept="3clFbF" id="55buE1DVoMD" role="3cqZAp">
            <node concept="2OqwBi" id="L_Hr3kEsjT" role="3clFbG">
              <node concept="2qgKlT" id="L_Hr3kEsjU" role="2OqNvi">
                <ref role="37wK5l" to="n0ti:55buE1DVoKQ" resolve="getMethods" />
                <node concept="3K4zz7" id="L_Hr3kEsjV" role="37wK5m">
                  <node concept="3kakTB" id="L_Hr3kEsjW" role="3K4E3e" />
                  <node concept="21POm0" id="L_Hr3kEsjX" role="3K4GZi" />
                  <node concept="2OqwBi" id="L_Hr3kEsjY" role="3K4Cdx">
                    <node concept="3kakTB" id="L_Hr3kEsjZ" role="2Oq$k0" />
                    <node concept="3x8VRR" id="L_Hr3kEsk0" role="2OqNvi" />
                  </node>
                </node>
              </node>
              <node concept="3TUQnm" id="L_Hr3kEsk1" role="2Oq$k0">
                <ref role="3TV0OU" to="tp68:373Y828VpAq" resolve="ExtractStaticMethod_CallExpression" />
              </node>
            </node>
          </node>
        </node>
      </node>
    </node>
  </node>
  <node concept="1M2fIO" id="7$O4Ks7TzwF">
    <ref role="1M2myG" to="tp68:2LtJ7HQdhb9" resolve="ExtractStatementListInnerExpression" />
    <node concept="nKS2y" id="7$O4Ks7TzwG" role="1MLUbF">
      <node concept="3clFbS" id="7$O4Ks7TzwH" role="2VODD2">
        <node concept="3clFbF" id="7$O4Ks7TAiz" role="3cqZAp">
          <node concept="2OqwBi" id="7$O4Ks7TAi_" role="3clFbG">
            <node concept="nLn13" id="7$O4Ks7TAi$" role="2Oq$k0" />
            <node concept="1mIQ4w" id="7$O4Ks7TAiD" role="2OqNvi">
              <node concept="chp4Y" id="7$O4Ks7TAiF" role="cj9EA">
                <ref role="cht4Q" to="tp68:2LtJ7HQbXaB" resolve="ExtractStatementListExpression" />
              </node>
            </node>
          </node>
        </node>
      </node>
    </node>
  </node>
  <node concept="1M2fIO" id="53cdeWkj962">
    <ref role="1M2myG" to="tp68:53cdeWkj961" resolve="ExtractStaticInnerClassCreator" />
    <node concept="1N5Pfh" id="53cdeWkj963" role="1Mr941">
      <ref role="1N5Vy1" to="tpee:hDpISCB" />
      <node concept="1MUpDS" id="53cdeWkj964" role="1N6uqs">
        <node concept="3clFbS" id="53cdeWkj965" role="2VODD2">
          <node concept="3cpWs8" id="53cdeWkj96H" role="3cqZAp">
            <node concept="3cpWsn" id="53cdeWkj96I" role="3cpWs9">
              <property role="TrG5h" value="res" />
              <node concept="2I9FWS" id="53cdeWkj96M" role="1tU5fm">
                <ref role="2I9WkF" to="tpee:fzclF84" resolve="ConstructorDeclaration" />
              </node>
              <node concept="2ShNRf" id="53cdeWkj96N" role="33vP2m">
                <node concept="2T8Vx0" id="53cdeWkj96P" role="2ShVmc">
                  <node concept="2I9FWS" id="53cdeWkj96Q" role="2T96Bj">
                    <ref role="2I9WkF" to="tpee:fzclF84" resolve="ConstructorDeclaration" />
                  </node>
                </node>
              </node>
            </node>
          </node>
          <node concept="3cpWs8" id="53cdeWkj96V" role="3cqZAp">
            <node concept="3cpWsn" id="53cdeWkj96W" role="3cpWs9">
              <property role="TrG5h" value="context" />
              <node concept="3Tqbb2" id="53cdeWkj96X" role="1tU5fm" />
              <node concept="3K4zz7" id="53cdeWkj975" role="33vP2m">
                <node concept="3kakTB" id="53cdeWkj979" role="3K4E3e" />
                <node concept="21POm0" id="53cdeWkj97a" role="3K4GZi" />
                <node concept="2OqwBi" id="53cdeWkj970" role="3K4Cdx">
                  <node concept="3kakTB" id="53cdeWkj96Z" role="2Oq$k0" />
                  <node concept="3x8VRR" id="53cdeWkj974" role="2OqNvi" />
                </node>
              </node>
            </node>
          </node>
          <node concept="1DcWWT" id="53cdeWkj97c" role="3cqZAp">
            <node concept="3clFbS" id="53cdeWkj97d" role="2LFqv$">
              <node concept="3clFbJ" id="53cdeWkj97M" role="3cqZAp">
                <node concept="3clFbS" id="53cdeWkj97N" role="3clFbx">
                  <node concept="3clFbF" id="53cdeWkj982" role="3cqZAp">
                    <node concept="2OqwBi" id="53cdeWkj984" role="3clFbG">
                      <node concept="37vLTw" id="3GM_nagTzty" role="2Oq$k0">
                        <ref role="3cqZAo" node="53cdeWkj96I" resolve="res" />
                      </node>
                      <node concept="X8dFx" id="53cdeWkj988" role="2OqNvi">
                        <node concept="2OqwBi" id="53cdeWkj98v" role="25WWJ7">
                          <node concept="2qgKlT" id="2oLu0Jc27zA" role="2OqNvi">
                            <ref role="37wK5l" to="tpek:4_LVZ3pCvsd" resolve="constructors" />
                          </node>
                          <node concept="2OqwBi" id="53cdeWkj98g" role="2Oq$k0">
                            <node concept="37vLTw" id="3GM_nagTuia" role="2Oq$k0">
                              <ref role="3cqZAo" node="53cdeWkj97g" resolve="n" />
                            </node>
                            <node concept="3TrEf2" id="53cdeWkj98p" role="2OqNvi">
                              <ref role="3Tt5mk" to="tp68:6HzP3h78XF9" />
                            </node>
                          </node>
                        </node>
                      </node>
                    </node>
                  </node>
                </node>
                <node concept="2OqwBi" id="53cdeWkj97W" role="3clFbw">
                  <node concept="2OqwBi" id="53cdeWkj97R" role="2Oq$k0">
                    <node concept="37vLTw" id="3GM_nagTt8t" role="2Oq$k0">
                      <ref role="3cqZAo" node="53cdeWkj97g" resolve="n" />
                    </node>
                    <node concept="3TrEf2" id="53cdeWkj97V" role="2OqNvi">
                      <ref role="3Tt5mk" to="tp68:6HzP3h78XF9" />
                    </node>
                  </node>
                  <node concept="3x8VRR" id="53cdeWkj980" role="2OqNvi" />
                </node>
              </node>
            </node>
            <node concept="2OqwBi" id="53cdeWkj97o" role="1DdaDG">
              <node concept="37vLTw" id="3GM_nagTB7F" role="2Oq$k0">
                <ref role="3cqZAo" node="53cdeWkj96W" resolve="context" />
              </node>
              <node concept="z$bX8" id="53cdeWkj97u" role="2OqNvi">
                <node concept="1xMEDy" id="53cdeWkj97A" role="1xVPHs">
                  <node concept="chp4Y" id="53cdeWkj97F" role="ri$Ld">
                    <ref role="cht4Q" to="tp68:6HzP3h78XF8" resolve="ExtractStaticInnerClassExpression" />
                  </node>
                </node>
              </node>
            </node>
            <node concept="3cpWsn" id="53cdeWkj97g" role="1Duv9x">
              <property role="TrG5h" value="n" />
              <node concept="3Tqbb2" id="53cdeWkj97k" role="1tU5fm">
                <ref role="ehGHo" to="tp68:6HzP3h78XF8" resolve="ExtractStaticInnerClassExpression" />
              </node>
            </node>
          </node>
          <node concept="3clFbF" id="53cdeWkj96S" role="3cqZAp">
            <node concept="37vLTw" id="3GM_nagTsSB" role="3clFbG">
              <ref role="3cqZAo" node="53cdeWkj96I" resolve="res" />
            </node>
          </node>
        </node>
      </node>
      <node concept="Bn3R3" id="53cdeWkj966" role="Bn3R6">
        <node concept="3clFbS" id="53cdeWkj967" role="2VODD2">
          <node concept="3clFbJ" id="53cdeWkj96j" role="3cqZAp">
            <node concept="3clFbS" id="53cdeWkj96k" role="3clFbx">
              <node concept="3cpWs6" id="53cdeWkj96l" role="3cqZAp">
                <node concept="2OqwBi" id="53cdeWkj96m" role="3cqZAk">
                  <node concept="1PxgMI" id="53cdeWkj96n" role="2Oq$k0">
                    <ref role="1m5ApE" to="tpee:g7pOWCK" resolve="Classifier" />
                    <node concept="2OqwBi" id="53cdeWkj96o" role="1m5AlR">
                      <node concept="Bn53e" id="53cdeWkj96p" role="2Oq$k0" />
                      <node concept="1mfA1w" id="53cdeWkj96q" role="2OqNvi" />
                    </node>
                  </node>
                  <node concept="2qgKlT" id="53cdeWkj96r" role="2OqNvi">
                    <ref role="37wK5l" to="tpek:7q4lzBFjvF8" resolve="getNestedNameInContext" />
                    <node concept="21POm0" id="53cdeWkj96s" role="37wK5m" />
                  </node>
                </node>
              </node>
            </node>
            <node concept="30Zx2P" id="53cdeWkj96t" role="3clFbw" />
          </node>
          <node concept="3clFbJ" id="53cdeWkj96v" role="3cqZAp">
            <node concept="3clFbS" id="53cdeWkj96w" role="3clFbx">
              <node concept="3cpWs6" id="53cdeWkj96x" role="3cqZAp">
                <node concept="2OqwBi" id="53cdeWkj96y" role="3cqZAk">
                  <node concept="Bn53e" id="53cdeWkj96z" role="2Oq$k0" />
                  <node concept="2qgKlT" id="53cdeWkj96$" role="2OqNvi">
                    <ref role="37wK5l" to="tpek:QAyHtBupSt" resolve="getPresentationInContext" />
                    <node concept="21POm0" id="53cdeWkj96_" role="37wK5m" />
                  </node>
                </node>
              </node>
            </node>
            <node concept="18Yu4j" id="53cdeWkj96A" role="3clFbw" />
            <node concept="9aQIb" id="53cdeWkj96B" role="9aQIa">
              <node concept="3clFbS" id="53cdeWkj96C" role="9aQI4">
                <node concept="3cpWs6" id="53cdeWkj96D" role="3cqZAp">
                  <node concept="2OqwBi" id="53cdeWkj96E" role="3cqZAk">
                    <node concept="Bn53e" id="53cdeWkj96F" role="2Oq$k0" />
                    <node concept="3TrcHB" id="53cdeWkj96G" role="2OqNvi">
                      <ref role="3TsBF5" to="tpck:h0TrG11" resolve="name" />
                    </node>
                  </node>
                </node>
              </node>
            </node>
          </node>
        </node>
      </node>
    </node>
  </node>
  <node concept="1M2fIO" id="O1IQUb7d_V">
    <ref role="1M2myG" to="tp68:O1IQUb7d_U" resolve="ExtractStaticInnerClassConcept" />
    <node concept="EnEH3" id="O1IQUb7d_W" role="1MhHOB">
      <ref role="EomxK" to="tpck:hqLvdgl" resolve="resolveInfo" />
      <node concept="Eqf_E" id="O1IQUb7d_X" role="EtsB7">
        <node concept="3clFbS" id="O1IQUb7d_Y" role="2VODD2">
          <node concept="3clFbF" id="O1IQUb7d_Z" role="3cqZAp">
            <node concept="2OqwBi" id="O1IQUb7dA1" role="3clFbG">
              <node concept="EsrRn" id="O1IQUb7dA0" role="2Oq$k0" />
              <node concept="3TrcHB" id="O1IQUb7dA5" role="2OqNvi">
                <ref role="3TsBF5" to="tpck:h0TrG11" resolve="name" />
              </node>
            </node>
          </node>
        </node>
      </node>
    </node>
  </node>
  <node concept="1M2fIO" id="7PvoksUzGHT">
    <ref role="1M2myG" to="tp68:h5DoJDC" resolve="InternalPartialInstanceMethodCall" />
    <node concept="nKS2y" id="7PvoksUzGHU" role="1MLUbF">
      <node concept="3clFbS" id="7PvoksUzGHV" role="2VODD2">
        <node concept="3SKdUt" id="7PvoksUzGHZ" role="3cqZAp">
          <node concept="3SKdUq" id="7PvoksUzGI0" role="3SKWNk">
            <property role="3SKdUp" value="override IOperation.canBeChild" />
          </node>
        </node>
        <node concept="3clFbF" id="7PvoksUzGHW" role="3cqZAp">
          <node concept="3clFbT" id="7PvoksUzGHX" role="3clFbG">
            <property role="3clFbU" value="true" />
          </node>
        </node>
      </node>
    </node>
  </node>
  <node concept="1M2fIO" id="5ys$QFNsVc">
    <ref role="1M2myG" to="tp68:5ys$QFNspL" resolve="ExtractToConstantRefExpression" />
    <node concept="1N5Pfh" id="5ys$QFNsVe" role="1Mr941">
      <ref role="1N5Vy1" to="tp68:5ys$QFNspM" />
      <node concept="1MUpDS" id="5ys$QFNtbd" role="1N6uqs">
        <node concept="3clFbS" id="5ys$QFNtbe" role="2VODD2">
          <node concept="3clFbF" id="5ys$QFNtbf" role="3cqZAp">
            <node concept="2OqwBi" id="5ys$QFNtbm" role="3clFbG">
              <node concept="2OqwBi" id="5ys$QFNtbh" role="2Oq$k0">
                <node concept="21POm0" id="5ys$QFNtbg" role="2Oq$k0" />
                <node concept="2Rxl7S" id="5ys$QFNtbl" role="2OqNvi" />
              </node>
              <node concept="2Rf3mk" id="5ys$QFNtbq" role="2OqNvi">
                <node concept="1xMEDy" id="5ys$QFNtbr" role="1xVPHs">
                  <node concept="chp4Y" id="5ys$QFNtbu" role="ri$Ld">
                    <ref role="cht4Q" to="tp68:i1dyn0M" resolve="ExtractToConstantExpression" />
                  </node>
                </node>
              </node>
            </node>
          </node>
        </node>
      </node>
      <node concept="Bn3R3" id="5ys$QFNVV9" role="Bn3R6">
        <node concept="3clFbS" id="5ys$QFNVVa" role="2VODD2">
          <node concept="3clFbF" id="5ys$QFNYMc" role="3cqZAp">
            <node concept="2OqwBi" id="5ys$QFNYMd" role="3clFbG">
              <node concept="Bn53e" id="5ys$QFNYMe" role="2Oq$k0" />
              <node concept="3TrcHB" id="5ys$QFNYMf" role="2OqNvi">
                <ref role="3TsBF5" to="tp68:i1dyqFq" resolve="fieldName" />
              </node>
            </node>
          </node>
        </node>
      </node>
    </node>
  </node>
  <node concept="1M2fIO" id="3q3NqHmCJxM">
    <property role="3GE5qa" value="weak" />
    <ref role="1M2myG" to="tp68:7C0CEuCG83q" resolve="WeakClassReference" />
    <node concept="1N5Pfh" id="3q3NqHmCJxN" role="1Mr941">
      <ref role="1N5Vy1" to="tp68:7C0CEuCG83r" />
      <node concept="1MUpDS" id="3q3NqHmCJxO" role="1N6uqs">
        <node concept="3clFbS" id="3q3NqHmCJxP" role="2VODD2">
          <node concept="3clFbF" id="3q3NqHmCJy6" role="3cqZAp">
            <node concept="2OqwBi" id="3q3NqHmCJy8" role="3clFbG">
              <node concept="1Q6Npb" id="3q3NqHmCJy7" role="2Oq$k0" />
              <node concept="1j9C0f" id="3q3NqHmCJyc" role="2OqNvi">
                <ref role="1j9C0d" to="tpee:g7pOWCK" resolve="Classifier" />
              </node>
            </node>
          </node>
        </node>
      </node>
    </node>
  </node>
  <node concept="1M2fIO" id="2XVui9ut6Ar">
    <ref role="1M2myG" to="tp68:2XVui9ut6w9" resolve="InternalAnonymousClass" />
  </node>
  <node concept="1M2fIO" id="1o0vq_SlFQq">
    <property role="3GE5qa" value="weak" />
    <ref role="1M2myG" to="tp68:1o0vq_SlFQa" resolve="ConstantValue" />
    <node concept="1N5Pfh" id="1o0vq_Sm1mr" role="1Mr941">
      <ref role="1N5Vy1" to="tp68:1o0vq_SlFQb" />
      <node concept="1MUpDS" id="1o0vq_Sm1mL" role="1N6uqs">
        <node concept="3clFbS" id="1o0vq_Sm1mM" role="2VODD2">
          <node concept="3clFbF" id="1o0vq_Sm1mW" role="3cqZAp">
            <node concept="2OqwBi" id="2L3_RRI6osh" role="3clFbG">
              <node concept="2OqwBi" id="1o0vq_Sm1mY" role="2Oq$k0">
                <node concept="1Q6Npb" id="1o0vq_Sm1mX" role="2Oq$k0" />
                <node concept="1j9C0f" id="1o0vq_Sm1n2" role="2OqNvi">
                  <ref role="1j9C0d" to="tpee:f$Wx3kv" resolve="StaticFieldDeclaration" />
                </node>
              </node>
              <node concept="3zZkjj" id="2L3_RRI6osm" role="2OqNvi">
                <node concept="1bVj0M" id="2L3_RRI6osn" role="23t8la">
                  <node concept="3clFbS" id="2L3_RRI6oso" role="1bW5cS">
                    <node concept="3clFbF" id="2L3_RRI6osr" role="3cqZAp">
                      <node concept="1Wc70l" id="2L3_RRI6otD" role="3clFbG">
                        <node concept="2OqwBi" id="2L3_RRI6ou1" role="3uHU7w">
                          <node concept="37vLTw" id="2BHiRxgha0m" role="2Oq$k0">
                            <ref role="3cqZAo" node="2L3_RRI6osp" resolve="it" />
                          </node>
                          <node concept="3TrcHB" id="2L3_RRI6ou7" role="2OqNvi">
                            <ref role="3TsBF5" to="tpee:h7TUv0c" resolve="isFinal" />
                          </node>
                        </node>
                        <node concept="2OqwBi" id="2L3_RRI6otd" role="3uHU7B">
                          <node concept="2OqwBi" id="2L3_RRI6osL" role="2Oq$k0">
                            <node concept="37vLTw" id="2BHiRxgm7hg" role="2Oq$k0">
                              <ref role="3cqZAo" node="2L3_RRI6osp" resolve="it" />
                            </node>
                            <node concept="3TrEf2" id="2L3_RRI6osR" role="2OqNvi">
                              <ref role="3Tt5mk" to="tpee:fz3vP1I" />
                            </node>
                          </node>
                          <node concept="3x8VRR" id="2L3_RRI6otj" role="2OqNvi" />
                        </node>
                      </node>
                    </node>
                  </node>
                  <node concept="Rh6nW" id="2L3_RRI6osp" role="1bW2Oz">
                    <property role="TrG5h" value="it" />
                    <node concept="2jxLKc" id="2L3_RRI6osq" role="1tU5fm" />
                  </node>
                </node>
              </node>
            </node>
          </node>
        </node>
      </node>
      <node concept="OSAzs" id="1o0vq_Sm1mT" role="OTtmj">
        <node concept="3clFbS" id="1o0vq_Sm1mU" role="2VODD2">
          <node concept="3clFbF" id="1o0vq_Sm1mV" role="3cqZAp">
            <node concept="1Wc70l" id="pEaB1tkr9t" role="3clFbG">
              <node concept="2OqwBi" id="pEaB1tkr9A" role="3uHU7w">
                <node concept="2OqwBi" id="pEaB1tkr9x" role="2Oq$k0">
                  <node concept="3kakTB" id="pEaB1tkr9w" role="2Oq$k0" />
                  <node concept="3TrEf2" id="pEaB1tkr9_" role="2OqNvi">
                    <ref role="3Tt5mk" to="tp68:1o0vq_SlFQb" />
                  </node>
                </node>
                <node concept="3TrcHB" id="pEaB1tkr9E" role="2OqNvi">
                  <ref role="3TsBF5" to="tpee:h7TUv0c" resolve="isFinal" />
                </node>
              </node>
              <node concept="2OqwBi" id="1o0vq_Sm1mE" role="3uHU7B">
                <node concept="2OqwBi" id="1o0vq_Sm1m_" role="2Oq$k0">
                  <node concept="2OqwBi" id="1o0vq_Sm1mw" role="2Oq$k0">
                    <node concept="3kakTB" id="1o0vq_Sm1mv" role="2Oq$k0" />
                    <node concept="3TrEf2" id="1o0vq_Sm1m$" role="2OqNvi">
                      <ref role="3Tt5mk" to="tp68:1o0vq_SlFQb" />
                    </node>
                  </node>
                  <node concept="3TrEf2" id="1o0vq_Sm1mD" role="2OqNvi">
                    <ref role="3Tt5mk" to="tpee:fz3vP1I" />
                  </node>
                </node>
                <node concept="3x8VRR" id="1o0vq_Sm1mI" role="2OqNvi" />
              </node>
            </node>
          </node>
        </node>
      </node>
    </node>
    <node concept="EnEH3" id="1o0vq_SlFQr" role="1MhHOB">
      <ref role="EomxK" to="tp68:1o0vq_SlFQp" resolve="className" />
      <node concept="Eqf_E" id="1o0vq_SlFQs" role="EtsB7">
        <node concept="3clFbS" id="1o0vq_SlFQt" role="2VODD2">
          <node concept="3clFbF" id="1o0vq_SlFQu" role="3cqZAp">
            <node concept="2OqwBi" id="1o0vq_SlFQG" role="3clFbG">
              <node concept="1PxgMI" id="1o0vq_SlFQE" role="2Oq$k0">
                <ref role="1m5ApE" to="tpck:h0TrEE$" resolve="INamedConcept" />
                <node concept="2OqwBi" id="1o0vq_SlFQ_" role="1m5AlR">
                  <node concept="2OqwBi" id="1o0vq_SlFQw" role="2Oq$k0">
                    <node concept="EsrRn" id="1o0vq_SlFQv" role="2Oq$k0" />
                    <node concept="3TrEf2" id="1o0vq_SlFQ$" role="2OqNvi">
                      <ref role="3Tt5mk" to="tp68:1o0vq_SlFQb" />
                    </node>
                  </node>
                  <node concept="2Rxl7S" id="1o0vq_SlFQD" role="2OqNvi" />
                </node>
              </node>
              <node concept="3TrcHB" id="1o0vq_SlFQK" role="2OqNvi">
                <ref role="3TsBF5" to="tpck:h0TrG11" resolve="name" />
              </node>
            </node>
          </node>
        </node>
      </node>
    </node>
  </node>
  <node concept="1M2fIO" id="3f9chO0eDvJ">
    <ref role="1M2myG" to="tp68:3f9chO0eDvj" resolve="InternalSuperMethodCallOperation" />
    <node concept="nKS2y" id="3f9chO0eDvK" role="1MLUbF">
      <node concept="3clFbS" id="3f9chO0eDvL" role="2VODD2">
        <node concept="3SKdUt" id="3f9chO0eDvM" role="3cqZAp">
          <node concept="3SKdUq" id="3f9chO0eDvN" role="3SKWNk">
            <property role="3SKdUp" value="override IOperation.canBeChild" />
          </node>
        </node>
        <node concept="3clFbF" id="3f9chO0eDvO" role="3cqZAp">
          <node concept="3clFbT" id="3f9chO0eDvP" role="3clFbG">
            <property role="3clFbU" value="true" />
          </node>
        </node>
      </node>
    </node>
  </node>
</model>

