<?xml version="1.0" encoding="UTF-8"?>
<model ref="r:3be5b72a-7175-4830-8f2b-4d9b1e5c86a4(jetbrains.mps.baseLanguageInternal.textGen)">
  <persistence version="9" />
  <languages>
    <use id="83888646-71ce-4f1c-9c53-c54016f6ad4f" name="jetbrains.mps.baseLanguage.collections" version="0" />
    <use id="b83431fe-5c8f-40bc-8a36-65e25f4dd253" name="jetbrains.mps.lang.textGen" version="0" />
    <use id="7866978e-a0f0-4cc7-81bc-4d213d9375e1" name="jetbrains.mps.lang.smodel" version="4" />
    <use id="f3061a53-9226-4cc5-a443-f952ceaf5816" name="jetbrains.mps.baseLanguage" version="4" />
    <devkit ref="fbc25dd2-5da4-483a-8b19-70928e1b62d7(jetbrains.mps.devkit.general-purpose)" />
  </languages>
  <imports>
    <import index="tp68" ref="r:00000000-0000-4000-0000-011c895903ac(jetbrains.mps.baseLanguageInternal.structure)" />
    <import index="dmyu" ref="r:c6eeedda-084d-4659-9c4d-80b7768f2bb2(jetbrains.mps.baseLanguage.textGen)" />
    <import index="tpee" ref="r:00000000-0000-4000-0000-011c895902ca(jetbrains.mps.baseLanguage.structure)" />
    <import index="wyt6" ref="6354ebe7-c22a-4a0f-ac54-50b52ab9b065/java:java.lang(JDK/)" />
    <import index="18ew" ref="6ed54515-acc8-4d1e-a16c-9fd6cfe951ea/java:jetbrains.mps.util(MPS.Core/)" />
  </imports>
  <registry>
    <language id="f3061a53-9226-4cc5-a443-f952ceaf5816" name="jetbrains.mps.baseLanguage">
      <concept id="1082485599095" name="jetbrains.mps.baseLanguage.structure.BlockStatement" flags="nn" index="9aQIb">
        <child id="1082485599096" name="statements" index="9aQI4" />
      </concept>
      <concept id="1215693861676" name="jetbrains.mps.baseLanguage.structure.BaseAssignmentExpression" flags="nn" index="d038R">
        <child id="1068498886297" name="rValue" index="37vLTx" />
        <child id="1068498886295" name="lValue" index="37vLTJ" />
      </concept>
      <concept id="1202948039474" name="jetbrains.mps.baseLanguage.structure.InstanceMethodCallOperation" flags="nn" index="liA8E" />
      <concept id="1173175405605" name="jetbrains.mps.baseLanguage.structure.ArrayAccessExpression" flags="nn" index="AH0OO">
        <child id="1173175577737" name="index" index="AHEQo" />
        <child id="1173175590490" name="array" index="AHHXb" />
      </concept>
      <concept id="1197027756228" name="jetbrains.mps.baseLanguage.structure.DotExpression" flags="nn" index="2OqwBi">
        <child id="1197027771414" name="operand" index="2Oq$k0" />
        <child id="1197027833540" name="operation" index="2OqNvi" />
      </concept>
      <concept id="1137021947720" name="jetbrains.mps.baseLanguage.structure.ConceptFunction" flags="in" index="2VMwT0">
        <child id="1137022507850" name="body" index="2VODD2" />
      </concept>
      <concept id="1070475926800" name="jetbrains.mps.baseLanguage.structure.StringLiteral" flags="nn" index="Xl_RD">
        <property id="1070475926801" name="value" index="Xl_RC" />
      </concept>
      <concept id="1081236700937" name="jetbrains.mps.baseLanguage.structure.StaticMethodCall" flags="nn" index="2YIFZM">
        <reference id="1144433194310" name="classConcept" index="1Pybhc" />
      </concept>
      <concept id="1070534058343" name="jetbrains.mps.baseLanguage.structure.NullLiteral" flags="nn" index="10Nm6u" />
      <concept id="1070534760951" name="jetbrains.mps.baseLanguage.structure.ArrayType" flags="in" index="10Q1$e">
        <child id="1070534760952" name="componentType" index="10Q1$1" />
      </concept>
      <concept id="1068431474542" name="jetbrains.mps.baseLanguage.structure.VariableDeclaration" flags="ng" index="33uBYm">
        <child id="1068431790190" name="initializer" index="33vP2m" />
      </concept>
      <concept id="1068498886296" name="jetbrains.mps.baseLanguage.structure.VariableReference" flags="nn" index="37vLTw">
        <reference id="1068581517664" name="variableDeclaration" index="3cqZAo" />
      </concept>
      <concept id="1068498886292" name="jetbrains.mps.baseLanguage.structure.ParameterDeclaration" flags="ir" index="37vLTG" />
      <concept id="1068498886294" name="jetbrains.mps.baseLanguage.structure.AssignmentExpression" flags="nn" index="37vLTI" />
      <concept id="1225271177708" name="jetbrains.mps.baseLanguage.structure.StringType" flags="in" index="17QB3L" />
      <concept id="4972933694980447171" name="jetbrains.mps.baseLanguage.structure.BaseVariableDeclaration" flags="ng" index="19Szcq">
        <child id="5680397130376446158" name="type" index="1tU5fm" />
      </concept>
      <concept id="1068580123132" name="jetbrains.mps.baseLanguage.structure.BaseMethodDeclaration" flags="ng" index="3clF44">
        <child id="1068580123133" name="returnType" index="3clF45" />
        <child id="1068580123134" name="parameter" index="3clF46" />
        <child id="1068580123135" name="body" index="3clF47" />
      </concept>
      <concept id="1068580123152" name="jetbrains.mps.baseLanguage.structure.EqualsExpression" flags="nn" index="3clFbC" />
      <concept id="1068580123155" name="jetbrains.mps.baseLanguage.structure.ExpressionStatement" flags="nn" index="3clFbF">
        <child id="1068580123156" name="expression" index="3clFbG" />
      </concept>
      <concept id="1068580123159" name="jetbrains.mps.baseLanguage.structure.IfStatement" flags="nn" index="3clFbJ">
        <child id="1082485599094" name="ifFalseStatement" index="9aQIa" />
        <child id="1068580123160" name="condition" index="3clFbw" />
        <child id="1068580123161" name="ifTrue" index="3clFbx" />
      </concept>
      <concept id="1068580123136" name="jetbrains.mps.baseLanguage.structure.StatementList" flags="sn" stub="5293379017992965193" index="3clFbS">
        <child id="1068581517665" name="statement" index="3cqZAp" />
      </concept>
      <concept id="1068580123137" name="jetbrains.mps.baseLanguage.structure.BooleanConstant" flags="nn" index="3clFbT">
        <property id="1068580123138" name="value" index="3clFbU" />
      </concept>
      <concept id="1068580320020" name="jetbrains.mps.baseLanguage.structure.IntegerConstant" flags="nn" index="3cmrfG">
        <property id="1068580320021" name="value" index="3cmrfH" />
      </concept>
      <concept id="1068581242864" name="jetbrains.mps.baseLanguage.structure.LocalVariableDeclarationStatement" flags="nn" index="3cpWs8">
        <child id="1068581242865" name="localVariableDeclaration" index="3cpWs9" />
      </concept>
      <concept id="1068581242863" name="jetbrains.mps.baseLanguage.structure.LocalVariableDeclaration" flags="nr" index="3cpWsn" />
      <concept id="1068581517677" name="jetbrains.mps.baseLanguage.structure.VoidType" flags="in" index="3cqZAl" />
      <concept id="1081516740877" name="jetbrains.mps.baseLanguage.structure.NotExpression" flags="nn" index="3fqX7Q">
        <child id="1081516765348" name="expression" index="3fr31v" />
      </concept>
      <concept id="1204053956946" name="jetbrains.mps.baseLanguage.structure.IMethodCall" flags="ng" index="1ndlxa">
        <reference id="1068499141037" name="baseMethodDeclaration" index="37wK5l" />
        <child id="1068499141038" name="actualArgument" index="37wK5m" />
      </concept>
      <concept id="1081773326031" name="jetbrains.mps.baseLanguage.structure.BinaryOperation" flags="nn" index="3uHJSO">
        <child id="1081773367579" name="rightExpression" index="3uHU7w" />
        <child id="1081773367580" name="leftExpression" index="3uHU7B" />
      </concept>
      <concept id="1208890769693" name="jetbrains.mps.baseLanguage.structure.ArrayLengthOperation" flags="nn" index="1Rwk04" />
    </language>
    <language id="b83431fe-5c8f-40bc-8a36-65e25f4dd253" name="jetbrains.mps.lang.textGen">
      <concept id="1237305334312" name="jetbrains.mps.lang.textGen.structure.NodeAppendPart" flags="ng" index="l9hG8">
        <child id="1237305790512" name="value" index="lb14g" />
      </concept>
      <concept id="1237305491868" name="jetbrains.mps.lang.textGen.structure.CollectionAppendPart" flags="ng" index="l9S2W">
        <property id="1237306003719" name="separator" index="lbP0B" />
        <property id="1237983969951" name="withSeparator" index="XA4eZ" />
        <child id="1237305945551" name="list" index="lbANJ" />
      </concept>
      <concept id="1237305557638" name="jetbrains.mps.lang.textGen.structure.ConstantStringAppendPart" flags="ng" index="la8eA">
        <property id="1237305576108" name="value" index="lacIc" />
      </concept>
      <concept id="1237306079178" name="jetbrains.mps.lang.textGen.structure.AppendOperation" flags="nn" index="lc7rE">
        <child id="1237306115446" name="part" index="lcghm" />
      </concept>
      <concept id="1233670071145" name="jetbrains.mps.lang.textGen.structure.ConceptTextGenDeclaration" flags="ig" index="WtQ9Q">
        <reference id="1233670257997" name="conceptDeclaration" index="WuzLi" />
        <child id="1233749296504" name="textGenBlock" index="11c4hB" />
      </concept>
      <concept id="1233748055915" name="jetbrains.mps.lang.textGen.structure.NodeParameter" flags="nn" index="117lpO" />
      <concept id="1233749247888" name="jetbrains.mps.lang.textGen.structure.GenerateTextDeclaration" flags="in" index="11bSqf" />
      <concept id="1233921373471" name="jetbrains.mps.lang.textGen.structure.LanguageTextGenDeclaration" flags="ig" index="1bsvg0">
        <reference id="1234781160172" name="baseTextGen" index="1YGkfN" />
        <child id="1233922432965" name="operation" index="1bwxVq" />
      </concept>
      <concept id="1233922353619" name="jetbrains.mps.lang.textGen.structure.OperationDeclaration" flags="sg" stub="3147100357551177019" index="1bwezc" />
      <concept id="1233924848298" name="jetbrains.mps.lang.textGen.structure.OperationCall" flags="ng" index="1bDJIP">
        <reference id="1234190664409" name="function" index="1rvKf6" />
        <child id="1234191323697" name="parameter" index="1ryhcI" />
      </concept>
      <concept id="1234794705341" name="jetbrains.mps.lang.textGen.structure.FoundErrorOperation" flags="nn" index="1ZvZ2y">
        <child id="1237470722868" name="text" index="v0bCk" />
      </concept>
    </language>
    <language id="7866978e-a0f0-4cc7-81bc-4d213d9375e1" name="jetbrains.mps.lang.smodel">
      <concept id="1177026924588" name="jetbrains.mps.lang.smodel.structure.RefConcept_Reference" flags="nn" index="chp4Y">
        <reference id="1177026940964" name="conceptDeclaration" index="cht4Q" />
      </concept>
      <concept id="2396822768958367367" name="jetbrains.mps.lang.smodel.structure.AbstractTypeCastExpression" flags="nn" index="$5XWr">
        <reference id="6733348108486823428" name="concept" index="1m5ApE" />
        <child id="6733348108486823193" name="leftExpression" index="1m5AlR" />
      </concept>
      <concept id="1139621453865" name="jetbrains.mps.lang.smodel.structure.Node_IsInstanceOfOperation" flags="nn" index="1mIQ4w">
        <child id="1177027386292" name="conceptArgument" index="cj9EA" />
      </concept>
      <concept id="1172008320231" name="jetbrains.mps.lang.smodel.structure.Node_IsNotNullOperation" flags="nn" index="3x8VRR" />
      <concept id="1140137987495" name="jetbrains.mps.lang.smodel.structure.SNodeTypeCastExpression" flags="nn" index="1PxgMI" />
      <concept id="1138055754698" name="jetbrains.mps.lang.smodel.structure.SNodeType" flags="in" index="3Tqbb2">
        <reference id="1138405853777" name="concept" index="ehGHo" />
      </concept>
      <concept id="1138056022639" name="jetbrains.mps.lang.smodel.structure.SPropertyAccess" flags="nn" index="3TrcHB">
        <reference id="1138056395725" name="property" index="3TsBF5" />
      </concept>
      <concept id="1138056143562" name="jetbrains.mps.lang.smodel.structure.SLinkAccess" flags="nn" index="3TrEf2">
        <reference id="1138056516764" name="link" index="3Tt5mk" />
      </concept>
      <concept id="1138056282393" name="jetbrains.mps.lang.smodel.structure.SLinkListAccess" flags="nn" index="3Tsc0h">
        <reference id="1138056546658" name="link" index="3TtcxE" />
      </concept>
    </language>
    <language id="ceab5195-25ea-4f22-9b92-103b95ca8c0c" name="jetbrains.mps.lang.core">
      <concept id="1169194658468" name="jetbrains.mps.lang.core.structure.INamedConcept" flags="ng" index="TrEIO">
        <property id="1169194664001" name="name" index="TrG5h" />
      </concept>
    </language>
    <language id="83888646-71ce-4f1c-9c53-c54016f6ad4f" name="jetbrains.mps.baseLanguage.collections">
      <concept id="1176501494711" name="jetbrains.mps.baseLanguage.collections.structure.IsNotEmptyOperation" flags="nn" index="3GX2aA" />
    </language>
  </registry>
  <node concept="1bsvg0" id="hZL9b4o">
    <property role="TrG5h" value="BaseLangInternal" />
    <ref role="1YGkfN" to="dmyu:hXZ_k_W" resolve="BaseLanguageTextGen" />
    <node concept="1bwezc" id="hZL9fzK" role="1bwxVq">
      <property role="TrG5h" value="className" />
      <node concept="3cqZAl" id="hZL9fzL" role="3clF45" />
      <node concept="3clFbS" id="hZL9fzM" role="3clF47">
        <node concept="3clFbJ" id="1IQRVB_SDG6" role="3cqZAp">
          <node concept="3clFbS" id="1IQRVB_SDG7" role="3clFbx">
            <node concept="1ZvZ2y" id="1IQRVB_SDGj" role="3cqZAp">
              <node concept="Xl_RD" id="2E_xhYB5BXG" role="v0bCk">
                <property role="Xl_RC" value="Class name is undefined" />
              </node>
            </node>
            <node concept="lc7rE" id="1IQRVB_SDGm" role="3cqZAp">
              <node concept="la8eA" id="1IQRVB_SDGo" role="lcghm">
                <property role="lacIc" value="???" />
              </node>
            </node>
          </node>
          <node concept="3clFbC" id="1IQRVB_SDGf" role="3clFbw">
            <node concept="10Nm6u" id="1IQRVB_SDGi" role="3uHU7w" />
            <node concept="37vLTw" id="2BHiRxghfgW" role="3uHU7B">
              <ref role="3cqZAo" node="hZL9ibi" resolve="fqClassName" />
            </node>
          </node>
          <node concept="9aQIb" id="1IQRVB_SDGp" role="9aQIa">
            <node concept="3clFbS" id="1IQRVB_SDGq" role="9aQI4">
              <node concept="3clFbJ" id="hZL9kj4" role="3cqZAp">
                <node concept="2OqwBi" id="hZL9lvj" role="3clFbw">
                  <node concept="37vLTw" id="2BHiRxglnon" role="2Oq$k0">
                    <ref role="3cqZAo" node="hZL9ibi" resolve="fqClassName" />
                  </node>
                  <node concept="liA8E" id="hZL9mdZ" role="2OqNvi">
                    <ref role="37wK5l" to="wyt6:~String.contains(java.lang.CharSequence):boolean" resolve="contains" />
                    <node concept="Xl_RD" id="hZL9mrs" role="37wK5m">
                      <property role="Xl_RC" value="@" />
                    </node>
                  </node>
                </node>
                <node concept="3clFbS" id="hZL9kj6" role="3clFbx">
                  <node concept="1ZvZ2y" id="i0vhaFG" role="3cqZAp">
                    <node concept="Xl_RD" id="i0vhaTC" role="v0bCk">
                      <property role="Xl_RC" value="fq name can not contain '@'" />
                    </node>
                  </node>
                </node>
              </node>
              <node concept="3cpWs8" id="hZL9w7b" role="3cqZAp">
                <node concept="3cpWsn" id="hZL9w7c" role="3cpWs9">
                  <property role="TrG5h" value="packageName" />
                  <node concept="17QB3L" id="hZL9w7d" role="1tU5fm" />
                </node>
              </node>
              <node concept="3cpWs8" id="hZL9$cI" role="3cqZAp">
                <node concept="3cpWsn" id="hZL9$cJ" role="3cpWs9">
                  <property role="TrG5h" value="className" />
                  <node concept="17QB3L" id="hZL9$cK" role="1tU5fm" />
                </node>
              </node>
              <node concept="3cpWs8" id="hZL9_BA" role="3cqZAp">
                <node concept="3cpWsn" id="hZL9_BB" role="3cpWs9">
                  <property role="TrG5h" value="packageAndClassName" />
                  <node concept="10Q1$e" id="hZL9A3I" role="1tU5fm">
                    <node concept="17QB3L" id="hZL9_BC" role="10Q1$1" />
                  </node>
                  <node concept="2OqwBi" id="hZL9DKQ" role="33vP2m">
                    <node concept="37vLTw" id="2BHiRxgm8MR" role="2Oq$k0">
                      <ref role="3cqZAo" node="hZL9ibi" resolve="fqClassName" />
                    </node>
                    <node concept="liA8E" id="hZL9Ej6" role="2OqNvi">
                      <ref role="37wK5l" to="wyt6:~String.split(java.lang.String):java.lang.String[]" resolve="split" />
                      <node concept="Xl_RD" id="hZL9Eum" role="37wK5m">
                        <property role="Xl_RC" value="!" />
                      </node>
                    </node>
                  </node>
                </node>
              </node>
              <node concept="3clFbJ" id="hZL9G7A" role="3cqZAp">
                <node concept="3clFbS" id="hZL9G7B" role="3clFbx">
                  <node concept="3clFbF" id="hZL9K6W" role="3cqZAp">
                    <node concept="37vLTI" id="hZL9KWG" role="3clFbG">
                      <node concept="AH0OO" id="hZL9LWX" role="37vLTx">
                        <node concept="3cmrfG" id="hZL9M7L" role="AHEQo">
                          <property role="3cmrfH" value="0" />
                        </node>
                        <node concept="37vLTw" id="3GM_nagTudK" role="AHHXb">
                          <ref role="3cqZAo" node="hZL9_BB" resolve="packageAndClassName" />
                        </node>
                      </node>
                      <node concept="37vLTw" id="3GM_nagTAZS" role="37vLTJ">
                        <ref role="3cqZAo" node="hZL9w7c" resolve="packageName" />
                      </node>
                    </node>
                  </node>
                  <node concept="3clFbF" id="hZL9MQW" role="3cqZAp">
                    <node concept="37vLTI" id="hZL9NoE" role="3clFbG">
                      <node concept="AH0OO" id="hZL9OEh" role="37vLTx">
                        <node concept="3cmrfG" id="hZL9OJW" role="AHEQo">
                          <property role="3cmrfH" value="1" />
                        </node>
                        <node concept="37vLTw" id="3GM_nagTv$L" role="AHHXb">
                          <ref role="3cqZAo" node="hZL9_BB" resolve="packageAndClassName" />
                        </node>
                      </node>
                      <node concept="37vLTw" id="3GM_nagTyUm" role="37vLTJ">
                        <ref role="3cqZAo" node="hZL9$cJ" resolve="className" />
                      </node>
                    </node>
                  </node>
                </node>
                <node concept="3clFbC" id="hZL9IhG" role="3clFbw">
                  <node concept="3cmrfG" id="hZL9Iol" role="3uHU7w">
                    <property role="3cmrfH" value="2" />
                  </node>
                  <node concept="2OqwBi" id="hZL9HzX" role="3uHU7B">
                    <node concept="37vLTw" id="3GM_nagTxPQ" role="2Oq$k0">
                      <ref role="3cqZAo" node="hZL9_BB" resolve="packageAndClassName" />
                    </node>
                    <node concept="1Rwk04" id="hZL9HR4" role="2OqNvi" />
                  </node>
                </node>
                <node concept="9aQIb" id="hZL9PzY" role="9aQIa">
                  <node concept="3clFbS" id="hZL9PzZ" role="9aQI4">
                    <node concept="3clFbF" id="hZL9QC8" role="3cqZAp">
                      <node concept="37vLTI" id="hZL9Rbk" role="3clFbG">
                        <node concept="2YIFZM" id="umZuBMPmRI" role="37vLTx">
                          <ref role="37wK5l" to="18ew:~JavaNameUtil.packageName(java.lang.String):java.lang.String" resolve="packageName" />
                          <ref role="1Pybhc" to="18ew:~JavaNameUtil" resolve="JavaNameUtil" />
                          <node concept="37vLTw" id="2BHiRxgm9ZT" role="37wK5m">
                            <ref role="3cqZAo" node="hZL9ibi" resolve="fqClassName" />
                          </node>
                        </node>
                        <node concept="37vLTw" id="3GM_nagTtlV" role="37vLTJ">
                          <ref role="3cqZAo" node="hZL9w7c" resolve="packageName" />
                        </node>
                      </node>
                    </node>
                    <node concept="3clFbF" id="hZLa1VX" role="3cqZAp">
                      <node concept="37vLTI" id="hZLa2ua" role="3clFbG">
                        <node concept="2YIFZM" id="umZuBMPmRK" role="37vLTx">
                          <ref role="37wK5l" to="18ew:~JavaNameUtil.shortName(java.lang.String):java.lang.String" resolve="shortName" />
                          <ref role="1Pybhc" to="18ew:~JavaNameUtil" resolve="JavaNameUtil" />
                          <node concept="37vLTw" id="2BHiRxgm_tn" role="37wK5m">
                            <ref role="3cqZAo" node="hZL9ibi" resolve="fqClassName" />
                          </node>
                        </node>
                        <node concept="37vLTw" id="3GM_nagT_Ws" role="37vLTJ">
                          <ref role="3cqZAo" node="hZL9$cJ" resolve="className" />
                        </node>
                      </node>
                    </node>
                  </node>
                </node>
              </node>
              <node concept="lc7rE" id="16OC$NDNpvn" role="3cqZAp">
                <node concept="1bDJIP" id="16OC$NDNpvq" role="lcghm">
                  <ref role="1rvKf6" to="dmyu:i0ltU_0" resolve="internalClassName" />
                  <node concept="37vLTw" id="3GM_nagTyuQ" role="1ryhcI">
                    <ref role="3cqZAo" node="hZL9w7c" resolve="packageName" />
                  </node>
                  <node concept="37vLTw" id="3GM_nagTt29" role="1ryhcI">
                    <ref role="3cqZAo" node="hZL9$cJ" resolve="className" />
                  </node>
                  <node concept="37vLTw" id="2BHiRxgmqhw" role="1ryhcI">
                    <ref role="3cqZAo" node="7QHNx0BoynB" resolve="contextNode" />
                  </node>
                </node>
              </node>
            </node>
          </node>
        </node>
      </node>
      <node concept="37vLTG" id="hZL9ibi" role="3clF46">
        <property role="TrG5h" value="fqClassName" />
        <node concept="17QB3L" id="hZL9ibj" role="1tU5fm" />
      </node>
      <node concept="37vLTG" id="7QHNx0BoynB" role="3clF46">
        <property role="TrG5h" value="contextNode" />
        <node concept="3Tqbb2" id="7QHNx0BoynD" role="1tU5fm" />
      </node>
    </node>
  </node>
  <node concept="WtQ9Q" id="hZLaLPu">
    <ref role="WuzLi" to="tp68:h5Ooo9X" resolve="InternalClassExpression" />
    <node concept="11bSqf" id="hZLaLPv" role="11c4hB">
      <node concept="3clFbS" id="hZLaLPw" role="2VODD2">
        <node concept="3cpWs8" id="hZLaPvb" role="3cqZAp">
          <node concept="3cpWsn" id="hZLaPvc" role="3cpWs9">
            <property role="TrG5h" value="type" />
            <node concept="3Tqbb2" id="hZLaPvd" role="1tU5fm">
              <ref role="ehGHo" to="tpee:fz3vP1H" resolve="Type" />
            </node>
            <node concept="2OqwBi" id="hZLaTKy" role="33vP2m">
              <node concept="117lpO" id="hZLaTe_" role="2Oq$k0" />
              <node concept="3TrEf2" id="hZLaUbe" role="2OqNvi">
                <ref role="3Tt5mk" to="tp68:h5Ooz1y" />
              </node>
            </node>
          </node>
        </node>
        <node concept="3clFbJ" id="hZLaUUn" role="3cqZAp">
          <node concept="3clFbS" id="hZLaUUo" role="3clFbx">
            <node concept="3clFbJ" id="hZLaY8n" role="3cqZAp">
              <node concept="3clFbS" id="hZLaY8o" role="3clFbx">
                <node concept="3cpWs8" id="hZLb2sc" role="3cqZAp">
                  <node concept="3cpWsn" id="hZLb2sd" role="3cpWs9">
                    <property role="TrG5h" value="icf" />
                    <node concept="3Tqbb2" id="hZLb2se" role="1tU5fm">
                      <ref role="ehGHo" to="tp68:h6eloLH" resolve="InternalClassifierType" />
                    </node>
                    <node concept="1PxgMI" id="hZLb82s" role="33vP2m">
                      <ref role="1m5ApE" to="tp68:h6eloLH" resolve="InternalClassifierType" />
                      <node concept="37vLTw" id="3GM_nagTvSN" role="1m5AlR">
                        <ref role="3cqZAo" node="hZLaPvc" resolve="type" />
                      </node>
                    </node>
                  </node>
                </node>
                <node concept="3cpWs8" id="hZLbalH" role="3cqZAp">
                  <node concept="3cpWsn" id="hZLbalI" role="3cpWs9">
                    <property role="TrG5h" value="pack" />
                    <node concept="17QB3L" id="hZLbalJ" role="1tU5fm" />
                    <node concept="2YIFZM" id="hZLbjBq" role="33vP2m">
                      <ref role="37wK5l" to="18ew:~NameUtil.namespaceFromLongName(java.lang.String):java.lang.String" resolve="namespaceFromLongName" />
                      <ref role="1Pybhc" to="18ew:~NameUtil" resolve="NameUtil" />
                      <node concept="2OqwBi" id="hZLbkeK" role="37wK5m">
                        <node concept="37vLTw" id="3GM_nagTtQe" role="2Oq$k0">
                          <ref role="3cqZAo" node="hZLb2sd" resolve="icf" />
                        </node>
                        <node concept="3TrcHB" id="hZLbkZa" role="2OqNvi">
                          <ref role="3TsBF5" to="tp68:h6ely4F" resolve="fqClassName" />
                        </node>
                      </node>
                    </node>
                  </node>
                </node>
                <node concept="3cpWs8" id="hZLblH_" role="3cqZAp">
                  <node concept="3cpWsn" id="hZLblHA" role="3cpWs9">
                    <property role="TrG5h" value="name" />
                    <node concept="17QB3L" id="hZLblHB" role="1tU5fm" />
                    <node concept="2YIFZM" id="hZLboPn" role="33vP2m">
                      <ref role="37wK5l" to="18ew:~NameUtil.shortNameFromLongName(java.lang.String):java.lang.String" resolve="shortNameFromLongName" />
                      <ref role="1Pybhc" to="18ew:~NameUtil" resolve="NameUtil" />
                      <node concept="2OqwBi" id="hZLbpsW" role="37wK5m">
                        <node concept="37vLTw" id="3GM_nagTxqR" role="2Oq$k0">
                          <ref role="3cqZAo" node="hZLb2sd" resolve="icf" />
                        </node>
                        <node concept="3TrcHB" id="hZLbqbS" role="2OqNvi">
                          <ref role="3TsBF5" to="tp68:h6ely4F" resolve="fqClassName" />
                        </node>
                      </node>
                    </node>
                  </node>
                </node>
                <node concept="lc7rE" id="i0Xr$zJ" role="3cqZAp">
                  <node concept="1bDJIP" id="i0XrD2a" role="lcghm">
                    <ref role="1rvKf6" to="dmyu:i0ltU_0" resolve="internalClassName" />
                    <node concept="37vLTw" id="3GM_nagTyWI" role="1ryhcI">
                      <ref role="3cqZAo" node="hZLbalI" resolve="pack" />
                    </node>
                    <node concept="37vLTw" id="3GM_nagT_e6" role="1ryhcI">
                      <ref role="3cqZAo" node="hZLblHA" resolve="name" />
                    </node>
                    <node concept="117lpO" id="7QHNx0Boynt" role="1ryhcI" />
                  </node>
                </node>
              </node>
              <node concept="2OqwBi" id="hZLaZsc" role="3clFbw">
                <node concept="37vLTw" id="3GM_nagTsGg" role="2Oq$k0">
                  <ref role="3cqZAo" node="hZLaPvc" resolve="type" />
                </node>
                <node concept="1mIQ4w" id="hZLaZS5" role="2OqNvi">
                  <node concept="chp4Y" id="hZLb1bB" role="cj9EA">
                    <ref role="cht4Q" to="tp68:h6eloLH" resolve="InternalClassifierType" />
                  </node>
                </node>
              </node>
              <node concept="9aQIb" id="hZLbtp5" role="9aQIa">
                <node concept="3clFbS" id="hZLbtp6" role="9aQI4">
                  <node concept="lc7rE" id="i0Xrv7G" role="3cqZAp">
                    <node concept="1bDJIP" id="i0Xrwss" role="lcghm">
                      <ref role="1rvKf6" to="dmyu:16OC$NDNpvB" resolve="internalClassifierName" />
                      <node concept="2OqwBi" id="i2NDTXq" role="1ryhcI">
                        <node concept="1PxgMI" id="i2NDTnM" role="2Oq$k0">
                          <ref role="1m5ApE" to="tpee:g7uibYu" resolve="ClassifierType" />
                          <node concept="37vLTw" id="3GM_nagTxrm" role="1m5AlR">
                            <ref role="3cqZAo" node="hZLaPvc" resolve="type" />
                          </node>
                        </node>
                        <node concept="3TrEf2" id="i2NDU8e" role="2OqNvi">
                          <ref role="3Tt5mk" to="tpee:g7uigIF" />
                        </node>
                      </node>
                      <node concept="117lpO" id="7QHNx0Boynn" role="1ryhcI" />
                    </node>
                  </node>
                </node>
              </node>
            </node>
          </node>
          <node concept="2OqwBi" id="hZLaVVp" role="3clFbw">
            <node concept="37vLTw" id="3GM_nagTt0k" role="2Oq$k0">
              <ref role="3cqZAo" node="hZLaPvc" resolve="type" />
            </node>
            <node concept="1mIQ4w" id="hZLaWDP" role="2OqNvi">
              <node concept="chp4Y" id="hZLaXuA" role="cj9EA">
                <ref role="cht4Q" to="tpee:g7uibYu" resolve="ClassifierType" />
              </node>
            </node>
          </node>
          <node concept="9aQIb" id="hZLdiQg" role="9aQIa">
            <node concept="3clFbS" id="hZLdiQh" role="9aQI4">
              <node concept="lc7rE" id="i0uAwBf" role="3cqZAp">
                <node concept="l9hG8" id="i0uAwBh" role="lcghm">
                  <node concept="37vLTw" id="3GM_nagTsEW" role="lb14g">
                    <ref role="3cqZAo" node="hZLaPvc" resolve="type" />
                  </node>
                </node>
              </node>
            </node>
          </node>
        </node>
        <node concept="lc7rE" id="i0uAwwg" role="3cqZAp">
          <node concept="la8eA" id="i0uAwwi" role="lcghm">
            <property role="lacIc" value=".class" />
          </node>
        </node>
      </node>
    </node>
  </node>
  <node concept="WtQ9Q" id="hZLdFxM">
    <ref role="WuzLi" to="tp68:h6eloLH" resolve="InternalClassifierType" />
    <node concept="11bSqf" id="hZLdFxN" role="11c4hB">
      <node concept="3clFbS" id="hZLdFxO" role="2VODD2">
        <node concept="3cpWs8" id="hZLdIHG" role="3cqZAp">
          <node concept="3cpWsn" id="hZLdIHH" role="3cpWs9">
            <property role="TrG5h" value="fqClassName" />
            <node concept="17QB3L" id="hZLdIHI" role="1tU5fm" />
            <node concept="2OqwBi" id="hZLdL1u" role="33vP2m">
              <node concept="117lpO" id="hZLdKE1" role="2Oq$k0" />
              <node concept="3TrcHB" id="hZLdLCm" role="2OqNvi">
                <ref role="3TsBF5" to="tp68:h6ely4F" resolve="fqClassName" />
              </node>
            </node>
          </node>
        </node>
        <node concept="lc7rE" id="i0uAwuk" role="3cqZAp">
          <node concept="1bDJIP" id="i1deFFT" role="lcghm">
            <ref role="1rvKf6" node="hZL9fzK" resolve="className" />
            <node concept="37vLTw" id="3GM_nagT_Zm" role="1ryhcI">
              <ref role="3cqZAo" node="hZLdIHH" resolve="fqClassName" />
            </node>
            <node concept="117lpO" id="7QHNx0BoyoF" role="1ryhcI" />
          </node>
        </node>
        <node concept="3clFbJ" id="hZLdOlj" role="3cqZAp">
          <node concept="3clFbS" id="hZLdOlk" role="3clFbx">
            <node concept="lc7rE" id="i0uAwuI" role="3cqZAp">
              <node concept="la8eA" id="i0uAwuK" role="lcghm">
                <property role="lacIc" value="&lt;" />
              </node>
              <node concept="l9S2W" id="i0uAwuL" role="lcghm">
                <property role="XA4eZ" value="true" />
                <property role="lbP0B" value=", " />
                <node concept="2OqwBi" id="hZLe4ds" role="lbANJ">
                  <node concept="117lpO" id="hZLe47O" role="2Oq$k0" />
                  <node concept="3Tsc0h" id="hZLe4Fy" role="2OqNvi">
                    <ref role="3TtcxE" to="tpee:g91_B6F" />
                  </node>
                </node>
              </node>
              <node concept="la8eA" id="i0uAwuM" role="lcghm">
                <property role="lacIc" value="&gt;" />
              </node>
            </node>
          </node>
          <node concept="2OqwBi" id="hZLdR7c" role="3clFbw">
            <node concept="2OqwBi" id="hZLdPWa" role="2Oq$k0">
              <node concept="117lpO" id="hZLdPzg" role="2Oq$k0" />
              <node concept="3Tsc0h" id="hZLdQYS" role="2OqNvi">
                <ref role="3TtcxE" to="tpee:g91_B6F" />
              </node>
            </node>
            <node concept="3GX2aA" id="hZLdSCV" role="2OqNvi" />
          </node>
        </node>
      </node>
    </node>
  </node>
  <node concept="WtQ9Q" id="hZLedkq">
    <ref role="WuzLi" to="tp68:h5nCRdH" resolve="InternalNewExpression" />
    <node concept="11bSqf" id="hZLedkr" role="11c4hB">
      <node concept="3clFbS" id="hZLedks" role="2VODD2">
        <node concept="lc7rE" id="i0uAwuR" role="3cqZAp">
          <node concept="la8eA" id="i0uAwuT" role="lcghm">
            <property role="lacIc" value="new " />
          </node>
        </node>
        <node concept="lc7rE" id="3KAIoCi2Lzm" role="3cqZAp">
          <node concept="1bDJIP" id="3KAIoCi2Lzo" role="lcghm">
            <ref role="1rvKf6" node="hZL9fzK" resolve="className" />
            <node concept="2OqwBi" id="7QHNx0Boyp3" role="1ryhcI">
              <node concept="117lpO" id="7QHNx0BoyoI" role="2Oq$k0" />
              <node concept="3TrcHB" id="7QHNx0Boyp8" role="2OqNvi">
                <ref role="3TsBF5" to="tp68:h5nD$Mh" resolve="fqClassName" />
              </node>
            </node>
            <node concept="117lpO" id="3KAIoCi2Lzq" role="1ryhcI" />
          </node>
        </node>
        <node concept="3clFbJ" id="i3HuJY2" role="3cqZAp">
          <node concept="3clFbS" id="i3HuJY3" role="3clFbx">
            <node concept="lc7rE" id="i3HuJY4" role="3cqZAp">
              <node concept="la8eA" id="i3HuJY5" role="lcghm">
                <property role="lacIc" value="&lt;" />
              </node>
              <node concept="l9S2W" id="i3HuJY6" role="lcghm">
                <property role="XA4eZ" value="true" />
                <property role="lbP0B" value=", " />
                <node concept="2OqwBi" id="i3HuJY7" role="lbANJ">
                  <node concept="117lpO" id="i3HuJY8" role="2Oq$k0" />
                  <node concept="3Tsc0h" id="i3HuLU5" role="2OqNvi">
                    <ref role="3TtcxE" to="tp68:i3HumyW" />
                  </node>
                </node>
              </node>
              <node concept="la8eA" id="i3HuJYa" role="lcghm">
                <property role="lacIc" value="&gt;" />
              </node>
            </node>
          </node>
          <node concept="2OqwBi" id="i3HuJYb" role="3clFbw">
            <node concept="2OqwBi" id="i3HuJYc" role="2Oq$k0">
              <node concept="117lpO" id="i3HuJYd" role="2Oq$k0" />
              <node concept="3Tsc0h" id="i3HuLeQ" role="2OqNvi">
                <ref role="3TtcxE" to="tp68:i3HumyW" />
              </node>
            </node>
            <node concept="3GX2aA" id="i3HuJYf" role="2OqNvi" />
          </node>
        </node>
        <node concept="lc7rE" id="hHp56YpiWG" role="3cqZAp">
          <node concept="la8eA" id="hHp56YpiWH" role="lcghm">
            <property role="lacIc" value="(" />
          </node>
          <node concept="l9S2W" id="hHp56YpiWI" role="lcghm">
            <property role="XA4eZ" value="true" />
            <property role="lbP0B" value=", " />
            <node concept="2OqwBi" id="hHp56YpiWJ" role="lbANJ">
              <node concept="117lpO" id="hHp56YpiWN" role="2Oq$k0" />
              <node concept="3Tsc0h" id="hHp56YpiWO" role="2OqNvi">
                <ref role="3TtcxE" to="tp68:hHp56YpfyR" />
              </node>
            </node>
          </node>
          <node concept="la8eA" id="hHp56YpiWM" role="lcghm">
            <property role="lacIc" value=")" />
          </node>
        </node>
      </node>
    </node>
  </node>
  <node concept="WtQ9Q" id="hZLel$2">
    <ref role="WuzLi" to="tp68:h8HPosR" resolve="InternalPartialFieldReference" />
    <node concept="11bSqf" id="hZLel$3" role="11c4hB">
      <node concept="3clFbS" id="hZLel$4" role="2VODD2">
        <node concept="3clFbJ" id="hZLeoTd" role="3cqZAp">
          <node concept="2OqwBi" id="hZLeqIz" role="3clFbw">
            <node concept="2OqwBi" id="hZLeptE" role="2Oq$k0">
              <node concept="117lpO" id="hZLepox" role="2Oq$k0" />
              <node concept="3TrEf2" id="hZLeqgg" role="2OqNvi">
                <ref role="3Tt5mk" to="tp68:h8HPFJ3" />
              </node>
            </node>
            <node concept="3x8VRR" id="hZLesnm" role="2OqNvi" />
          </node>
          <node concept="3clFbS" id="hZLeoTf" role="3clFbx">
            <node concept="3clFbJ" id="hZLewje" role="3cqZAp">
              <node concept="3clFbS" id="hZLewjf" role="3clFbx">
                <node concept="lc7rE" id="i0uAwmf" role="3cqZAp">
                  <node concept="l9hG8" id="i0uAwmh" role="lcghm">
                    <node concept="2OqwBi" id="hZLeuYq" role="lb14g">
                      <node concept="117lpO" id="hZLeuT1" role="2Oq$k0" />
                      <node concept="3TrEf2" id="hZLevte" role="2OqNvi">
                        <ref role="3Tt5mk" to="tp68:h8HPFJ3" />
                      </node>
                    </node>
                  </node>
                </node>
                <node concept="lc7rE" id="i0uAwDy" role="3cqZAp">
                  <node concept="la8eA" id="i0uAwD$" role="lcghm">
                    <property role="lacIc" value="." />
                  </node>
                </node>
              </node>
              <node concept="3fqX7Q" id="i0N38E9" role="3clFbw">
                <node concept="2OqwBi" id="i0N38Ea" role="3fr31v">
                  <node concept="2OqwBi" id="i0N38Eb" role="2Oq$k0">
                    <node concept="117lpO" id="i0N38Ec" role="2Oq$k0" />
                    <node concept="3TrEf2" id="i0N38Ed" role="2OqNvi">
                      <ref role="3Tt5mk" to="tp68:h8HPFJ3" />
                    </node>
                  </node>
                  <node concept="1mIQ4w" id="i0N38Ee" role="2OqNvi">
                    <node concept="chp4Y" id="i0N38Ef" role="cj9EA">
                      <ref role="cht4Q" to="tp68:hweJtmO" resolve="InternalThisExpression" />
                    </node>
                  </node>
                </node>
              </node>
            </node>
          </node>
        </node>
        <node concept="lc7rE" id="i0uAwly" role="3cqZAp">
          <node concept="l9hG8" id="i0uAwl$" role="lcghm">
            <node concept="2OqwBi" id="hZLeEql" role="lb14g">
              <node concept="117lpO" id="hZLeElc" role="2Oq$k0" />
              <node concept="3TrcHB" id="hZLeGad" role="2OqNvi">
                <ref role="3TsBF5" to="tp68:h8HP_1l" resolve="fieldName" />
              </node>
            </node>
          </node>
        </node>
      </node>
    </node>
  </node>
  <node concept="WtQ9Q" id="hZLeHXe">
    <ref role="WuzLi" to="tp68:h5DoJDC" resolve="InternalPartialInstanceMethodCall" />
    <node concept="11bSqf" id="hZLeHXf" role="11c4hB">
      <node concept="3clFbS" id="hZLeHXg" role="2VODD2">
        <node concept="3clFbJ" id="hZLeUEK" role="3cqZAp">
          <node concept="2OqwBi" id="hZLeWZ_" role="3clFbw">
            <node concept="2OqwBi" id="hZLeVNO" role="2Oq$k0">
              <node concept="117lpO" id="hZLeVIs" role="2Oq$k0" />
              <node concept="3TrEf2" id="hZLeWe0" role="2OqNvi">
                <ref role="3Tt5mk" to="tp68:h5EMhE9" />
              </node>
            </node>
            <node concept="3x8VRR" id="hZLf1YJ" role="2OqNvi" />
          </node>
          <node concept="3clFbS" id="hZLeUEM" role="3clFbx">
            <node concept="3clFbJ" id="hZLf4Gw" role="3cqZAp">
              <node concept="3clFbS" id="hZLf4Gx" role="3clFbx">
                <node concept="lc7rE" id="i0uAwve" role="3cqZAp">
                  <node concept="l9hG8" id="i0uAwvv" role="lcghm">
                    <node concept="2OqwBi" id="hZLf33q" role="lb14g">
                      <node concept="117lpO" id="hZLf2Yh" role="2Oq$k0" />
                      <node concept="3TrEf2" id="hZLf3yY" role="2OqNvi">
                        <ref role="3Tt5mk" to="tp68:h5EMhE9" />
                      </node>
                    </node>
                  </node>
                </node>
                <node concept="lc7rE" id="i0uAwx8" role="3cqZAp">
                  <node concept="la8eA" id="i0uAwxa" role="lcghm">
                    <property role="lacIc" value="." />
                  </node>
                </node>
              </node>
              <node concept="3fqX7Q" id="i0$MwLo" role="3clFbw">
                <node concept="2OqwBi" id="i0$MwLp" role="3fr31v">
                  <node concept="2OqwBi" id="i0$MwLq" role="2Oq$k0">
                    <node concept="117lpO" id="i0$MwLr" role="2Oq$k0" />
                    <node concept="3TrEf2" id="i0$MwLs" role="2OqNvi">
                      <ref role="3Tt5mk" to="tp68:h5EMhE9" />
                    </node>
                  </node>
                  <node concept="1mIQ4w" id="i0$MwLt" role="2OqNvi">
                    <node concept="chp4Y" id="i0$MwLu" role="cj9EA">
                      <ref role="cht4Q" to="tp68:hweJtmO" resolve="InternalThisExpression" />
                    </node>
                  </node>
                </node>
              </node>
            </node>
          </node>
        </node>
        <node concept="lc7rE" id="i0uAwEE" role="3cqZAp">
          <node concept="l9hG8" id="i0uAwEG" role="lcghm">
            <node concept="2OqwBi" id="hZLfcOF" role="lb14g">
              <node concept="117lpO" id="hZLfcGQ" role="2Oq$k0" />
              <node concept="3TrcHB" id="hZLfdhN" role="2OqNvi">
                <ref role="3TsBF5" to="tp68:h5Dpdt7" resolve="methodName" />
              </node>
            </node>
          </node>
          <node concept="la8eA" id="i0uAwEH" role="lcghm">
            <property role="lacIc" value="(" />
          </node>
          <node concept="l9S2W" id="i0uAwEI" role="lcghm">
            <property role="XA4eZ" value="true" />
            <property role="lbP0B" value=", " />
            <node concept="2OqwBi" id="hZLfklC" role="lbANJ">
              <node concept="117lpO" id="hZLfkgf" role="2Oq$k0" />
              <node concept="3Tsc0h" id="hZLfkMZ" role="2OqNvi">
                <ref role="3TtcxE" to="tp68:h5EOq_A" />
              </node>
            </node>
          </node>
          <node concept="la8eA" id="i0uAwEJ" role="lcghm">
            <property role="lacIc" value=")" />
          </node>
        </node>
      </node>
    </node>
  </node>
  <node concept="WtQ9Q" id="hZLftTo">
    <ref role="WuzLi" to="tp68:h5n$iV1" resolve="InternalStaticFieldReference" />
    <node concept="11bSqf" id="hZLftTp" role="11c4hB">
      <node concept="3clFbS" id="hZLftTq" role="2VODD2">
        <node concept="lc7rE" id="i0uAwn1" role="3cqZAp">
          <node concept="1bDJIP" id="i0XrKW8" role="lcghm">
            <ref role="1rvKf6" node="hZL9fzK" resolve="className" />
            <node concept="2OqwBi" id="7QHNx0Boypv" role="1ryhcI">
              <node concept="117lpO" id="7QHNx0Boypa" role="2Oq$k0" />
              <node concept="3TrcHB" id="7QHNx0Boyp_" role="2OqNvi">
                <ref role="3TsBF5" to="tp68:h5n_eBL" resolve="fqClassName" />
              </node>
            </node>
            <node concept="117lpO" id="i0XrKWa" role="1ryhcI" />
          </node>
          <node concept="la8eA" id="i0uAwn3" role="lcghm">
            <property role="lacIc" value="." />
          </node>
          <node concept="l9hG8" id="i0uAwn4" role="lcghm">
            <node concept="2OqwBi" id="hZLfI4l" role="lb14g">
              <node concept="117lpO" id="hZLfHZc" role="2Oq$k0" />
              <node concept="3TrcHB" id="hZLfIzT" role="2OqNvi">
                <ref role="3TsBF5" to="tp68:h5n_iYQ" resolve="fieldName" />
              </node>
            </node>
          </node>
        </node>
      </node>
    </node>
  </node>
  <node concept="WtQ9Q" id="hZLfKXI">
    <ref role="WuzLi" to="tp68:h5niqJz" resolve="InternalStaticMethodCall" />
    <node concept="11bSqf" id="hZLfKXJ" role="11c4hB">
      <node concept="3clFbS" id="hZLfKXK" role="2VODD2">
        <node concept="lc7rE" id="i0uAwr2" role="3cqZAp">
          <node concept="1bDJIP" id="i0XrRAy" role="lcghm">
            <ref role="1rvKf6" node="hZL9fzK" resolve="className" />
            <node concept="2OqwBi" id="i0XrRAz" role="1ryhcI">
              <node concept="117lpO" id="i0XrRA$" role="2Oq$k0" />
              <node concept="3TrcHB" id="i0XrRA_" role="2OqNvi">
                <ref role="3TsBF5" to="tp68:h5npUzI" resolve="fqClassName" />
              </node>
            </node>
            <node concept="117lpO" id="7QHNx0BoypB" role="1ryhcI" />
          </node>
          <node concept="la8eA" id="i0uAwr4" role="lcghm">
            <property role="lacIc" value="." />
          </node>
        </node>
        <node concept="3clFbJ" id="hZLfTNS" role="3cqZAp">
          <node concept="3clFbS" id="hZLfTNT" role="3clFbx">
            <node concept="lc7rE" id="i0uAwoa" role="3cqZAp">
              <node concept="la8eA" id="i0uAwoc" role="lcghm">
                <property role="lacIc" value="&lt;" />
              </node>
              <node concept="l9S2W" id="i0uAwod" role="lcghm">
                <property role="XA4eZ" value="true" />
                <property role="lbP0B" value=", " />
                <node concept="2OqwBi" id="hZLfYnY" role="lbANJ">
                  <node concept="117lpO" id="hZLfYiP" role="2Oq$k0" />
                  <node concept="3Tsc0h" id="hZLfYTf" role="2OqNvi">
                    <ref role="3TtcxE" to="tp68:hu3ko87" />
                  </node>
                </node>
              </node>
              <node concept="la8eA" id="i0uAwoe" role="lcghm">
                <property role="lacIc" value="&gt;" />
              </node>
            </node>
          </node>
          <node concept="2OqwBi" id="hZLfVkI" role="3clFbw">
            <node concept="2OqwBi" id="hZLfUiu" role="2Oq$k0">
              <node concept="117lpO" id="hZLfU8G" role="2Oq$k0" />
              <node concept="3Tsc0h" id="hZLfV3B" role="2OqNvi">
                <ref role="3TtcxE" to="tp68:hu3ko87" />
              </node>
            </node>
            <node concept="3GX2aA" id="hZLfVDi" role="2OqNvi" />
          </node>
        </node>
        <node concept="lc7rE" id="i0$Jl3b" role="3cqZAp">
          <node concept="l9hG8" id="i0$Jl9z" role="lcghm">
            <node concept="2OqwBi" id="i0$Jl9$" role="lb14g">
              <node concept="117lpO" id="i0$Jl9_" role="2Oq$k0" />
              <node concept="3TrcHB" id="i0$Jl9A" role="2OqNvi">
                <ref role="3TsBF5" to="tp68:h5npL2N" resolve="methodName" />
              </node>
            </node>
          </node>
        </node>
        <node concept="lc7rE" id="hHp56YpiX7" role="3cqZAp">
          <node concept="la8eA" id="hHp56YpiX8" role="lcghm">
            <property role="lacIc" value="(" />
          </node>
          <node concept="l9S2W" id="hHp56YpiX9" role="lcghm">
            <property role="XA4eZ" value="true" />
            <property role="lbP0B" value=", " />
            <node concept="2OqwBi" id="hHp56YpiXa" role="lbANJ">
              <node concept="117lpO" id="hHp56YpiXb" role="2Oq$k0" />
              <node concept="3Tsc0h" id="hHp56YpiXe" role="2OqNvi">
                <ref role="3TtcxE" to="tp68:hHp56YpiWP" />
              </node>
            </node>
          </node>
          <node concept="la8eA" id="hHp56YpiXd" role="lcghm">
            <property role="lacIc" value=")" />
          </node>
        </node>
      </node>
    </node>
  </node>
  <node concept="WtQ9Q" id="hZLgaB4">
    <ref role="WuzLi" to="tp68:hweJtmO" resolve="InternalThisExpression" />
    <node concept="11bSqf" id="hZLgaB5" role="11c4hB">
      <node concept="3clFbS" id="hZLgaB6" role="2VODD2">
        <node concept="lc7rE" id="w52mCNGH_P" role="3cqZAp">
          <node concept="la8eA" id="w52mCNGH_R" role="lcghm">
            <property role="lacIc" value="this" />
          </node>
        </node>
      </node>
    </node>
  </node>
  <node concept="WtQ9Q" id="hZLgm9U">
    <ref role="WuzLi" to="tp68:h7VmV7M" resolve="InternalVariableReference" />
    <node concept="11bSqf" id="hZLgm9V" role="11c4hB">
      <node concept="3clFbS" id="hZLgm9W" role="2VODD2">
        <node concept="lc7rE" id="i0uAwyb" role="3cqZAp">
          <node concept="l9hG8" id="i0uAwyd" role="lcghm">
            <node concept="2OqwBi" id="hZLgoR6" role="lb14g">
              <node concept="117lpO" id="hZLgoLI" role="2Oq$k0" />
              <node concept="3TrcHB" id="hZLgp7L" role="2OqNvi">
                <ref role="3TsBF5" to="tp68:h7VnrL9" resolve="name" />
              </node>
            </node>
          </node>
        </node>
      </node>
    </node>
  </node>
  <node concept="WtQ9Q" id="hZLgqHA">
    <ref role="WuzLi" to="tp68:htzuhxA" resolve="TypeHintExpression" />
    <node concept="11bSqf" id="hZLgqHB" role="11c4hB">
      <node concept="3clFbS" id="hZLgqHC" role="2VODD2">
        <node concept="lc7rE" id="i0uAwoQ" role="3cqZAp">
          <node concept="l9hG8" id="i0uAwoS" role="lcghm">
            <node concept="2OqwBi" id="hZLgsXJ" role="lb14g">
              <node concept="117lpO" id="hZLgsSm" role="2Oq$k0" />
              <node concept="3TrEf2" id="hZLgtiM" role="2OqNvi">
                <ref role="3Tt5mk" to="tp68:htzuj6W" />
              </node>
            </node>
          </node>
        </node>
      </node>
    </node>
  </node>
  <node concept="WtQ9Q" id="2XVui9ut6Ab">
    <ref role="WuzLi" to="tp68:2XVui9ut6w8" resolve="InternalAnonymousClassCreator" />
    <node concept="11bSqf" id="2XVui9ut6Ac" role="11c4hB">
      <node concept="3clFbS" id="2XVui9ut6Ad" role="2VODD2">
        <node concept="lc7rE" id="2XVui9ut6Ae" role="3cqZAp">
          <node concept="l9hG8" id="2XVui9ut6Ag" role="lcghm">
            <node concept="2OqwBi" id="2XVui9ut6Aj" role="lb14g">
              <node concept="117lpO" id="2XVui9ut6Ai" role="2Oq$k0" />
              <node concept="3TrEf2" id="2XVui9ut6An" role="2OqNvi">
                <ref role="3Tt5mk" to="tp68:2XVui9ut6$v" />
              </node>
            </node>
          </node>
        </node>
      </node>
    </node>
  </node>
  <node concept="WtQ9Q" id="2XVui9ut6GP">
    <ref role="WuzLi" to="tp68:2XVui9ut6w9" resolve="InternalAnonymousClass" />
    <node concept="11bSqf" id="2XVui9ut6GQ" role="11c4hB">
      <node concept="3clFbS" id="2XVui9ut6GR" role="2VODD2">
        <node concept="lc7rE" id="2XVui9ut6Iu" role="3cqZAp">
          <node concept="1bDJIP" id="2XVui9ut6Iv" role="lcghm">
            <ref role="1rvKf6" node="hZL9fzK" resolve="className" />
            <node concept="2OqwBi" id="7QHNx0Boyo5" role="1ryhcI">
              <node concept="117lpO" id="7QHNx0BoynK" role="2Oq$k0" />
              <node concept="3TrcHB" id="7QHNx0Boyoa" role="2OqNvi">
                <ref role="3TsBF5" to="tp68:2XVui9ut6z_" resolve="fqClassName" />
              </node>
            </node>
            <node concept="117lpO" id="2XVui9ut6Ix" role="1ryhcI" />
          </node>
        </node>
        <node concept="3clFbJ" id="2XVui9ut6Iz" role="3cqZAp">
          <node concept="3clFbS" id="2XVui9ut6I$" role="3clFbx">
            <node concept="lc7rE" id="2XVui9ut6I_" role="3cqZAp">
              <node concept="la8eA" id="2XVui9ut6IA" role="lcghm">
                <property role="lacIc" value="&lt;" />
              </node>
              <node concept="l9S2W" id="2XVui9ut6IB" role="lcghm">
                <property role="XA4eZ" value="true" />
                <property role="lbP0B" value=", " />
                <node concept="2OqwBi" id="2XVui9ut6IC" role="lbANJ">
                  <node concept="117lpO" id="2XVui9ut6ID" role="2Oq$k0" />
                  <node concept="3Tsc0h" id="2XVui9ut6IT" role="2OqNvi">
                    <ref role="3TtcxE" to="tp68:2XVui9ut6wd" />
                  </node>
                </node>
              </node>
              <node concept="la8eA" id="2XVui9ut6IF" role="lcghm">
                <property role="lacIc" value="&gt;" />
              </node>
            </node>
          </node>
          <node concept="2OqwBi" id="2XVui9ut6IG" role="3clFbw">
            <node concept="2OqwBi" id="2XVui9ut6IH" role="2Oq$k0">
              <node concept="117lpO" id="2XVui9ut6II" role="2Oq$k0" />
              <node concept="3Tsc0h" id="2XVui9ut6IS" role="2OqNvi">
                <ref role="3TtcxE" to="tp68:2XVui9ut6wd" />
              </node>
            </node>
            <node concept="3GX2aA" id="2XVui9ut6IK" role="2OqNvi" />
          </node>
        </node>
        <node concept="lc7rE" id="2XVui9ut6IL" role="3cqZAp">
          <node concept="la8eA" id="2XVui9ut6IM" role="lcghm">
            <property role="lacIc" value="(" />
          </node>
          <node concept="l9S2W" id="2XVui9ut6IN" role="lcghm">
            <property role="XA4eZ" value="true" />
            <property role="lbP0B" value=", " />
            <node concept="2OqwBi" id="2XVui9ut6IO" role="lbANJ">
              <node concept="117lpO" id="2XVui9ut6IP" role="2Oq$k0" />
              <node concept="3Tsc0h" id="2XVui9ut6IU" role="2OqNvi">
                <ref role="3TtcxE" to="tp68:2XVui9ut6wc" />
              </node>
            </node>
          </node>
          <node concept="la8eA" id="2XVui9ut6IR" role="lcghm">
            <property role="lacIc" value=")" />
          </node>
        </node>
        <node concept="lc7rE" id="i0$9NW4" role="3cqZAp">
          <node concept="la8eA" id="i0$9OkK" role="lcghm">
            <property role="lacIc" value=" " />
          </node>
          <node concept="1bDJIP" id="4PrERHsI$sh" role="lcghm">
            <ref role="1rvKf6" to="dmyu:4PrERHsEdKS" resolve="membersWithBrackets" />
            <node concept="117lpO" id="4PrERHsI$vv" role="1ryhcI" />
            <node concept="3clFbT" id="4PrERHts0qR" role="1ryhcI">
              <property role="3clFbU" value="false" />
            </node>
          </node>
        </node>
      </node>
    </node>
  </node>
  <node concept="WtQ9Q" id="3f9chO0eDw2">
    <ref role="WuzLi" to="tp68:3f9chO0eDvj" resolve="InternalSuperMethodCallOperation" />
    <node concept="11bSqf" id="3f9chO0eDw3" role="11c4hB">
      <node concept="3clFbS" id="3f9chO0eDw4" role="2VODD2">
        <node concept="lc7rE" id="3f9chO0eDws" role="3cqZAp">
          <node concept="la8eA" id="3f9chO0eDwG" role="lcghm">
            <property role="lacIc" value="super." />
          </node>
          <node concept="l9hG8" id="3f9chO0eDwt" role="lcghm">
            <node concept="2OqwBi" id="3f9chO0eDwu" role="lb14g">
              <node concept="117lpO" id="3f9chO0eDwv" role="2Oq$k0" />
              <node concept="3TrcHB" id="3f9chO0eDwH" role="2OqNvi">
                <ref role="3TsBF5" to="tp68:3f9chO0eDvo" resolve="methodName" />
              </node>
            </node>
          </node>
          <node concept="la8eA" id="3f9chO0eDwx" role="lcghm">
            <property role="lacIc" value="(" />
          </node>
          <node concept="l9S2W" id="3f9chO0eDwy" role="lcghm">
            <property role="XA4eZ" value="true" />
            <property role="lbP0B" value=", " />
            <node concept="2OqwBi" id="3f9chO0eDwz" role="lbANJ">
              <node concept="117lpO" id="3f9chO0eDw$" role="2Oq$k0" />
              <node concept="3Tsc0h" id="3f9chO0eDwI" role="2OqNvi">
                <ref role="3TtcxE" to="tp68:3f9chO0eDvn" />
              </node>
            </node>
          </node>
          <node concept="la8eA" id="3f9chO0eDwA" role="lcghm">
            <property role="lacIc" value=")" />
          </node>
        </node>
      </node>
    </node>
  </node>
  <node concept="WtQ9Q" id="X6WsgITZ9P">
    <ref role="WuzLi" to="tp68:X6WsgITg$K" resolve="InternalClassCreator" />
    <node concept="11bSqf" id="X6WsgITZ9Q" role="11c4hB">
      <node concept="3clFbS" id="X6WsgITZ9R" role="2VODD2">
        <node concept="lc7rE" id="X6WsgITZ9S" role="3cqZAp">
          <node concept="1bDJIP" id="X6WsgITZ9T" role="lcghm">
            <ref role="1rvKf6" node="hZL9fzK" resolve="className" />
            <node concept="2OqwBi" id="7QHNx0Boyox" role="1ryhcI">
              <node concept="117lpO" id="7QHNx0Boyoc" role="2Oq$k0" />
              <node concept="3TrcHB" id="7QHNx0BoyoA" role="2OqNvi">
                <ref role="3TsBF5" to="tp68:X6WsgITg$M" resolve="fqClassName" />
              </node>
            </node>
            <node concept="117lpO" id="X6WsgITZ9V" role="1ryhcI" />
          </node>
        </node>
        <node concept="3clFbJ" id="X6WsgITZ9X" role="3cqZAp">
          <node concept="3clFbS" id="X6WsgITZ9Y" role="3clFbx">
            <node concept="lc7rE" id="X6WsgITZ9Z" role="3cqZAp">
              <node concept="la8eA" id="X6WsgITZa0" role="lcghm">
                <property role="lacIc" value="&lt;" />
              </node>
              <node concept="l9S2W" id="X6WsgITZa1" role="lcghm">
                <property role="XA4eZ" value="true" />
                <property role="lbP0B" value=", " />
                <node concept="2OqwBi" id="X6WsgITZa2" role="lbANJ">
                  <node concept="117lpO" id="X6WsgITZa3" role="2Oq$k0" />
                  <node concept="3Tsc0h" id="X6WsgITZaj" role="2OqNvi">
                    <ref role="3TtcxE" to="tp68:X6WsgITg$N" />
                  </node>
                </node>
              </node>
              <node concept="la8eA" id="X6WsgITZa5" role="lcghm">
                <property role="lacIc" value="&gt;" />
              </node>
            </node>
          </node>
          <node concept="2OqwBi" id="X6WsgITZa6" role="3clFbw">
            <node concept="2OqwBi" id="X6WsgITZa7" role="2Oq$k0">
              <node concept="117lpO" id="X6WsgITZa8" role="2Oq$k0" />
              <node concept="3Tsc0h" id="X6WsgITZai" role="2OqNvi">
                <ref role="3TtcxE" to="tp68:X6WsgITg$N" />
              </node>
            </node>
            <node concept="3GX2aA" id="X6WsgITZaa" role="2OqNvi" />
          </node>
        </node>
        <node concept="lc7rE" id="X6WsgITZab" role="3cqZAp">
          <node concept="la8eA" id="X6WsgITZac" role="lcghm">
            <property role="lacIc" value="(" />
          </node>
          <node concept="l9S2W" id="X6WsgITZad" role="lcghm">
            <property role="XA4eZ" value="true" />
            <property role="lbP0B" value=", " />
            <node concept="2OqwBi" id="X6WsgITZae" role="lbANJ">
              <node concept="117lpO" id="X6WsgITZaf" role="2Oq$k0" />
              <node concept="3Tsc0h" id="X6WsgITZak" role="2OqNvi">
                <ref role="3TtcxE" to="tp68:X6WsgITg$O" />
              </node>
            </node>
          </node>
          <node concept="la8eA" id="X6WsgITZah" role="lcghm">
            <property role="lacIc" value=")" />
          </node>
        </node>
      </node>
    </node>
  </node>
</model>

