<?xml version="1.0" encoding="UTF-8"?>
<model ref="r:8074a1a0-69fe-4403-9d35-7a6021037b63(L1.generator.template.main@generator)">
  <persistence version="9" />
  <languages>
    <use id="44fbc51b-4675-4a9f-830a-34ac104c76f0" name="L1" version="0" />
    <use id="b401a680-8325-4110-8fd3-84331ff25bef" name="jetbrains.mps.lang.generator" version="0" />
    <use id="ceab5195-25ea-4f22-9b92-103b95ca8c0c" name="jetbrains.mps.lang.core" version="1" />
    <use id="d7706f63-9be2-479c-a3da-ae92af1e64d5" name="jetbrains.mps.lang.generator.generationContext" version="0" />
    <devkit ref="fbc25dd2-5da4-483a-8b19-70928e1b62d7(jetbrains.mps.devkit.general-purpose)" />
  </languages>
  <imports>
    <import index="kzq2" ref="r:4096a9b0-14ea-45c9-92ad-68e4c4f8a247(L2.generator.template.model2)" />
    <import index="ty0r" ref="r:b80eefbf-b232-45f9-9c5a-78761b26244b(L1.structure)" implicit="true" />
    <import index="wyt6" ref="6354ebe7-c22a-4a0f-ac54-50b52ab9b065/java:java.lang(JDK/)" implicit="true" />
    <import index="guwi" ref="6354ebe7-c22a-4a0f-ac54-50b52ab9b065/java:java.io(JDK/)" implicit="true" />
  </imports>
  <registry>
    <language id="f3061a53-9226-4cc5-a443-f952ceaf5816" name="jetbrains.mps.baseLanguage">
      <concept id="1082485599095" name="jetbrains.mps.baseLanguage.structure.BlockStatement" flags="nn" index="9aQIb">
        <child id="1082485599096" name="statements" index="9aQI4" />
      </concept>
      <concept id="1202948039474" name="jetbrains.mps.baseLanguage.structure.InstanceMethodCallOperation" flags="nn" index="liA8E" />
      <concept id="1197027756228" name="jetbrains.mps.baseLanguage.structure.DotExpression" flags="nn" index="2OqwBi">
        <child id="1197027771414" name="operand" index="2Oq$k0" />
        <child id="1197027833540" name="operation" index="2OqNvi" />
      </concept>
      <concept id="1137021947720" name="jetbrains.mps.baseLanguage.structure.ConceptFunction" flags="in" index="2VMwT0">
        <child id="1137022507850" name="body" index="2VODD2" />
      </concept>
      <concept id="1070475926800" name="jetbrains.mps.baseLanguage.structure.StringLiteral" flags="nn" index="Xl_RD" />
      <concept id="1081236700937" name="jetbrains.mps.baseLanguage.structure.StaticMethodCall" flags="nn" index="2YIFZM">
        <reference id="1144433194310" name="classConcept" index="1Pybhc" />
      </concept>
      <concept id="1070533707846" name="jetbrains.mps.baseLanguage.structure.StaticFieldReference" flags="nn" index="10M0yZ">
        <reference id="1144433057691" name="classifier" index="1PxDUh" />
      </concept>
      <concept id="1068498886296" name="jetbrains.mps.baseLanguage.structure.VariableReference" flags="nn" index="37vLTw">
        <reference id="1068581517664" name="variableDeclaration" index="3cqZAo" />
      </concept>
      <concept id="1068580123155" name="jetbrains.mps.baseLanguage.structure.ExpressionStatement" flags="nn" index="3clFbF">
        <child id="1068580123156" name="expression" index="3clFbG" />
      </concept>
      <concept id="1068580123136" name="jetbrains.mps.baseLanguage.structure.StatementList" flags="sn" stub="5293379017992965193" index="3clFbS">
        <child id="1068581517665" name="statement" index="3cqZAp" />
      </concept>
      <concept id="1068580320020" name="jetbrains.mps.baseLanguage.structure.IntegerConstant" flags="nn" index="3cmrfG">
        <property id="1068580320021" name="value" index="3cmrfH" />
      </concept>
      <concept id="1068581242875" name="jetbrains.mps.baseLanguage.structure.PlusExpression" flags="nn" index="3cpWs3" />
      <concept id="1068581242878" name="jetbrains.mps.baseLanguage.structure.ReturnStatement" flags="nn" index="3cpWs6">
        <child id="1068581517676" name="expression" index="3cqZAk" />
      </concept>
      <concept id="1204053956946" name="jetbrains.mps.baseLanguage.structure.IMethodCall" flags="ng" index="1ndlxa">
        <reference id="1068499141037" name="baseMethodDeclaration" index="37wK5l" />
        <child id="1068499141038" name="actualArgument" index="37wK5m" />
      </concept>
      <concept id="1081773326031" name="jetbrains.mps.baseLanguage.structure.BinaryOperation" flags="nn" index="3uHJSO">
        <child id="1081773367579" name="rightExpression" index="3uHU7w" />
        <child id="1081773367580" name="leftExpression" index="3uHU7B" />
      </concept>
    </language>
    <language id="b401a680-8325-4110-8fd3-84331ff25bef" name="jetbrains.mps.lang.generator">
      <concept id="1095416546421" name="jetbrains.mps.lang.generator.structure.MappingConfiguration" flags="ig" index="bUwia">
        <child id="1167328349397" name="reductionMappingRule" index="3acgRq" />
      </concept>
      <concept id="1095672379244" name="jetbrains.mps.lang.generator.structure.TemplateFragment" flags="ng" index="raruj" />
      <concept id="1167169308231" name="jetbrains.mps.lang.generator.structure.BaseMappingRule" flags="ng" index="30H$t8">
        <reference id="1167169349424" name="applicableConcept" index="30HIoZ" />
      </concept>
      <concept id="1087833241328" name="jetbrains.mps.lang.generator.structure.PropertyMacro" flags="ln" index="17Uvod">
        <child id="1167756362303" name="propertyValueFunction" index="3zH0cK" />
      </concept>
      <concept id="1167327847730" name="jetbrains.mps.lang.generator.structure.Reduction_MappingRule" flags="lg" index="3aamgX">
        <child id="1169672767469" name="ruleConsequence" index="1lVwrX" />
      </concept>
      <concept id="1167756080639" name="jetbrains.mps.lang.generator.structure.PropertyMacro_GetPropertyValue" flags="in" index="3zFVjK" />
      <concept id="8900764248744213868" name="jetbrains.mps.lang.generator.structure.InlineTemplateWithContext_RuleConsequence" flags="lg" index="1Koe21">
        <child id="8900764248744213871" name="contentNode" index="1Koe22" />
      </concept>
    </language>
    <language id="ceab5195-25ea-4f22-9b92-103b95ca8c0c" name="jetbrains.mps.lang.core">
      <concept id="1133920641626" name="jetbrains.mps.lang.core.structure.BaseConcept" flags="ng" index="2VYdi">
        <child id="5169995583184591170" name="smodelAttribute" index="lGtFl" />
      </concept>
      <concept id="3364660638048049750" name="jetbrains.mps.lang.core.structure.PropertyAttribute" flags="ng" index="A9Btg">
        <property id="1757699476691236117" name="propertyName" index="2qtEX9" />
      </concept>
      <concept id="1169194658468" name="jetbrains.mps.lang.core.structure.INamedConcept" flags="ng" index="TrEIO">
        <property id="1169194664001" name="name" index="TrG5h" />
      </concept>
    </language>
  </registry>
  <node concept="bUwia" id="3lkbvNqIbf4">
    <property role="TrG5h" value="main" />
    <node concept="3aamgX" id="3lkbvNqIg1b" role="3acgRq">
      <ref role="30HIoZ" to="ty0r:3lkbvNqIfZ$" resolve="C1" />
      <node concept="1Koe21" id="3lkbvNqIg7q" role="1lVwrX">
        <node concept="3clFbS" id="3lkbvNqIg7V" role="1Koe22">
          <node concept="9aQIb" id="3lkbvNqIg7Y" role="3cqZAp">
            <node concept="3clFbS" id="3lkbvNqIg8b" role="9aQI4">
              <node concept="3clFbF" id="3lkbvNqIg89" role="3cqZAp">
                <node concept="2OqwBi" id="3lkbvNqIgkR" role="3clFbG">
                  <node concept="10M0yZ" id="3lkbvNqIg88" role="2Oq$k0">
                    <ref role="1PxDUh" to="wyt6:~System" resolve="System" />
                    <ref role="3cqZAo" to="wyt6:~System.out" resolve="out" />
                  </node>
                  <node concept="liA8E" id="3lkbvNqIhol" role="2OqNvi">
                    <ref role="37wK5l" to="guwi:~PrintStream.println(java.lang.String):void" resolve="println" />
                    <node concept="3cpWs3" id="3lkbvNqIio1" role="37wK5m">
                      <node concept="3cmrfG" id="3lkbvNqIio4" role="3uHU7w">
                        <property role="3cmrfH" value="1" />
                        <node concept="17Uvod" id="3lkbvNqIkVd" role="lGtFl">
                          <property role="2qtEX9" value="value" />
                          <node concept="3zFVjK" id="3lkbvNqIkVe" role="3zH0cK">
                            <node concept="3clFbS" id="3lkbvNqIkVf" role="2VODD2">
                              <node concept="3clFbF" id="3lkbvNqIpwz" role="3cqZAp">
                                <node concept="2YIFZM" id="3lkbvNqIq1l" role="3clFbG">
                                  <ref role="37wK5l" to="kzq2:3lkbvNqIfNg" resolve="foo" />
                                  <ref role="1Pybhc" to="kzq2:3lkbvNqIbsF" resolve="Util2" />
                                </node>
                              </node>
                              <node concept="3cpWs6" id="3lkbvNqImDC" role="3cqZAp">
                                <node concept="3cmrfG" id="3lkbvNqIoGg" role="3cqZAk">
                                  <property role="3cmrfH" value="1" />
                                </node>
                              </node>
                            </node>
                          </node>
                        </node>
                      </node>
                      <node concept="Xl_RD" id="3lkbvNqIhoZ" role="3uHU7B" />
                    </node>
                  </node>
                </node>
                <node concept="raruj" id="3lkbvNqIkmi" role="lGtFl" />
              </node>
            </node>
          </node>
        </node>
      </node>
    </node>
  </node>
</model>

