<?xml version="1.0" encoding="UTF-8"?>
<model ref="r:ff944d67-5440-4132-a4a9-2198c9221961(jetbrains.mps.lang.scopes.constraints)">
  <persistence version="9" />
  <languages>
    <use id="3f4bc5f5-c6c1-4a28-8b10-c83066ffa4a1" name="jetbrains.mps.lang.constraints" version="0" />
    <use id="d8f591ec-4d86-4af2-9f92-a9e93c803ffa" name="jetbrains.mps.lang.scopes" version="0" />
    <devkit ref="fbc25dd2-5da4-483a-8b19-70928e1b62d7(jetbrains.mps.devkit.general-purpose)" />
  </languages>
  <imports>
    <import index="genb" ref="r:142fc2e9-fc09-4c4f-92d7-6ce0e3f66b61(jetbrains.mps.lang.scopes.structure)" />
    <import index="o8zo" ref="r:314576fc-3aee-4386-a0a5-a38348ac317d(jetbrains.mps.scope)" />
    <import index="1i04" ref="r:3270011d-8b2d-4938-8dff-d256a759e017(jetbrains.mps.lang.behavior.structure)" />
    <import index="6xgk" ref="r:6e9ad488-5df2-49e4-8c01-8a7f3812adf7(jetbrains.mps.lang.scopes.runtime)" />
    <import index="mhfm" ref="3f233e7f-b8a6-46d2-a57f-795d56775243/java:org.jetbrains.annotations(Annotations/)" />
    <import index="tpcn" ref="r:00000000-0000-4000-0000-011c8959028b(jetbrains.mps.lang.structure.behavior)" />
    <import index="tpce" ref="r:00000000-0000-4000-0000-011c89590292(jetbrains.mps.lang.structure.structure)" implicit="true" />
    <import index="wyt6" ref="6354ebe7-c22a-4a0f-ac54-50b52ab9b065/java:java.lang(JDK/)" implicit="true" />
  </imports>
  <registry>
    <language id="f3061a53-9226-4cc5-a443-f952ceaf5816" name="jetbrains.mps.baseLanguage">
      <concept id="1188207840427" name="jetbrains.mps.baseLanguage.structure.AnnotationInstance" flags="nn" index="2AHcQZ">
        <reference id="1188208074048" name="annotation" index="2AI5Lk" />
      </concept>
      <concept id="1188208481402" name="jetbrains.mps.baseLanguage.structure.HasAnnotation" flags="ng" index="2AJDlI">
        <child id="1188208488637" name="annotation" index="2AJF6D" />
      </concept>
      <concept id="1197027756228" name="jetbrains.mps.baseLanguage.structure.DotExpression" flags="nn" index="2OqwBi">
        <child id="1197027771414" name="operand" index="2Oq$k0" />
        <child id="1197027833540" name="operation" index="2OqNvi" />
      </concept>
      <concept id="1145552977093" name="jetbrains.mps.baseLanguage.structure.GenericNewExpression" flags="nn" index="2ShNRf">
        <child id="1145553007750" name="creator" index="2ShVmc" />
      </concept>
      <concept id="1137021947720" name="jetbrains.mps.baseLanguage.structure.ConceptFunction" flags="in" index="2VMwT0">
        <child id="1137022507850" name="body" index="2VODD2" />
      </concept>
      <concept id="1182160077978" name="jetbrains.mps.baseLanguage.structure.AnonymousClassCreator" flags="nn" index="YeOm9">
        <child id="1182160096073" name="cls" index="YeSDq" />
      </concept>
      <concept id="1068431474542" name="jetbrains.mps.baseLanguage.structure.VariableDeclaration" flags="ng" index="33uBYm">
        <child id="1068431790190" name="initializer" index="33vP2m" />
      </concept>
      <concept id="1068498886296" name="jetbrains.mps.baseLanguage.structure.VariableReference" flags="nn" index="37vLTw">
        <reference id="1068581517664" name="variableDeclaration" index="3cqZAo" />
      </concept>
      <concept id="1068498886292" name="jetbrains.mps.baseLanguage.structure.ParameterDeclaration" flags="ir" index="37vLTG" />
      <concept id="1225271177708" name="jetbrains.mps.baseLanguage.structure.StringType" flags="in" index="17QB3L" />
      <concept id="4972933694980447171" name="jetbrains.mps.baseLanguage.structure.BaseVariableDeclaration" flags="ng" index="19Szcq">
        <child id="5680397130376446158" name="type" index="1tU5fm" />
      </concept>
      <concept id="1068580123132" name="jetbrains.mps.baseLanguage.structure.BaseMethodDeclaration" flags="ng" index="3clF44">
        <child id="1068580123133" name="returnType" index="3clF45" />
        <child id="1068580123134" name="parameter" index="3clF46" />
        <child id="1068580123135" name="body" index="3clF47" />
      </concept>
      <concept id="1068580123165" name="jetbrains.mps.baseLanguage.structure.InstanceMethodDeclaration" flags="ig" index="3clFb_">
        <property id="1178608670077" name="isAbstract" index="1EzhhJ" />
      </concept>
      <concept id="1068580123155" name="jetbrains.mps.baseLanguage.structure.ExpressionStatement" flags="nn" index="3clFbF">
        <child id="1068580123156" name="expression" index="3clFbG" />
      </concept>
      <concept id="1068580123136" name="jetbrains.mps.baseLanguage.structure.StatementList" flags="sn" stub="5293379017992965193" index="3clFbS">
        <child id="1068581517665" name="statement" index="3cqZAp" />
      </concept>
      <concept id="1068581242878" name="jetbrains.mps.baseLanguage.structure.ReturnStatement" flags="nn" index="3cpWs6">
        <child id="1068581517676" name="expression" index="3cqZAk" />
      </concept>
      <concept id="1068581242864" name="jetbrains.mps.baseLanguage.structure.LocalVariableDeclarationStatement" flags="nn" index="3cpWs8">
        <child id="1068581242865" name="localVariableDeclaration" index="3cpWs9" />
      </concept>
      <concept id="1068581242863" name="jetbrains.mps.baseLanguage.structure.LocalVariableDeclaration" flags="nr" index="3cpWsn" />
      <concept id="1204053956946" name="jetbrains.mps.baseLanguage.structure.IMethodCall" flags="ng" index="1ndlxa">
        <reference id="1068499141037" name="baseMethodDeclaration" index="37wK5l" />
        <child id="1068499141038" name="actualArgument" index="37wK5m" />
      </concept>
      <concept id="1107461130800" name="jetbrains.mps.baseLanguage.structure.Classifier" flags="ng" index="3pOWGL">
        <property id="521412098689998745" name="nonStatic" index="2bfB8j" />
        <child id="5375687026011219971" name="member" index="jymVt" unordered="true" />
      </concept>
      <concept id="1178549954367" name="jetbrains.mps.baseLanguage.structure.IVisible" flags="ng" index="1B3ioH">
        <child id="1178549979242" name="visibility" index="1B3o_S" />
      </concept>
      <concept id="6329021646629104957" name="jetbrains.mps.baseLanguage.structure.TextCommentPart" flags="nn" index="3SKdUq">
        <property id="6329021646629104958" name="text" index="3SKdUp" />
      </concept>
      <concept id="6329021646629104954" name="jetbrains.mps.baseLanguage.structure.SingleLineComment" flags="nn" index="3SKdUt">
        <child id="6329021646629175155" name="commentPart" index="3SKWNk" />
      </concept>
      <concept id="1146644602865" name="jetbrains.mps.baseLanguage.structure.PublicVisibility" flags="nn" index="3Tm1VV" />
      <concept id="1170345865475" name="jetbrains.mps.baseLanguage.structure.AnonymousClass" flags="ig" index="1Y3b0j">
        <reference id="1170346070688" name="classifier" index="1Y3XeK" />
      </concept>
    </language>
    <language id="3f4bc5f5-c6c1-4a28-8b10-c83066ffa4a1" name="jetbrains.mps.lang.constraints">
      <concept id="8966504967485224688" name="jetbrains.mps.lang.constraints.structure.ConstraintFunctionParameter_contextNode" flags="nn" index="2rP1CM" />
      <concept id="5676632058862809931" name="jetbrains.mps.lang.constraints.structure.ConstraintFunction_ReferentSearchScope_Scope" flags="in" index="13QW63" />
      <concept id="1213093968558" name="jetbrains.mps.lang.constraints.structure.ConceptConstraints" flags="ng" index="1M2fIO">
        <reference id="1213093996982" name="concept" index="1M2myG" />
        <child id="1213100494875" name="referent" index="1Mr941" />
      </concept>
      <concept id="1148687176410" name="jetbrains.mps.lang.constraints.structure.NodeReferentConstraint" flags="ng" index="1N5Pfh">
        <reference id="1148687202698" name="applicableLink" index="1N5Vy1" />
        <child id="1148687345559" name="searchScopeFactory" index="1N6uqs" />
      </concept>
    </language>
    <language id="7866978e-a0f0-4cc7-81bc-4d213d9375e1" name="jetbrains.mps.lang.smodel">
      <concept id="1177026924588" name="jetbrains.mps.lang.smodel.structure.RefConcept_Reference" flags="nn" index="chp4Y">
        <reference id="1177026940964" name="conceptDeclaration" index="cht4Q" />
      </concept>
      <concept id="1138411891628" name="jetbrains.mps.lang.smodel.structure.SNodeOperation" flags="nn" index="eCIE_">
        <child id="1144104376918" name="parameter" index="1xVPHs" />
      </concept>
      <concept id="1179409122411" name="jetbrains.mps.lang.smodel.structure.Node_ConceptMethodCall" flags="nn" index="2qgKlT" />
      <concept id="2396822768958367367" name="jetbrains.mps.lang.smodel.structure.AbstractTypeCastExpression" flags="nn" index="$5XWr">
        <reference id="6733348108486823428" name="concept" index="1m5ApE" />
        <child id="6733348108486823193" name="leftExpression" index="1m5AlR" />
      </concept>
      <concept id="1171407110247" name="jetbrains.mps.lang.smodel.structure.Node_GetAncestorOperation" flags="nn" index="2Xjw5R" />
      <concept id="1144101972840" name="jetbrains.mps.lang.smodel.structure.OperationParm_Concept" flags="ng" index="1xMEDy">
        <child id="1207343664468" name="conceptArgument" index="ri$Ld" />
      </concept>
      <concept id="1140137987495" name="jetbrains.mps.lang.smodel.structure.SNodeTypeCastExpression" flags="nn" index="1PxgMI" />
      <concept id="1138055754698" name="jetbrains.mps.lang.smodel.structure.SNodeType" flags="in" index="3Tqbb2">
        <reference id="1138405853777" name="concept" index="ehGHo" />
      </concept>
      <concept id="1138056022639" name="jetbrains.mps.lang.smodel.structure.SPropertyAccess" flags="nn" index="3TrcHB">
        <reference id="1138056395725" name="property" index="3TsBF5" />
      </concept>
      <concept id="1138056143562" name="jetbrains.mps.lang.smodel.structure.SLinkAccess" flags="nn" index="3TrEf2">
        <reference id="1138056516764" name="link" index="3Tt5mk" />
      </concept>
    </language>
    <language id="ceab5195-25ea-4f22-9b92-103b95ca8c0c" name="jetbrains.mps.lang.core">
      <concept id="1169194658468" name="jetbrains.mps.lang.core.structure.INamedConcept" flags="ng" index="TrEIO">
        <property id="1169194664001" name="name" index="TrG5h" />
      </concept>
    </language>
  </registry>
  <node concept="1M2fIO" id="70qA1hy$CKx">
    <ref role="1M2myG" to="genb:70qA1hy$CJv" resolve="ComeFromExpression" />
    <node concept="1N5Pfh" id="70qA1hy$CWv" role="1Mr941">
      <ref role="1N5Vy1" to="genb:70qA1hy$CWu" />
      <node concept="13QW63" id="70qA1hy$CWx" role="1N6uqs">
        <node concept="3clFbS" id="70qA1hy$CWy" role="2VODD2">
          <node concept="3SKdUt" id="70qA1hy$CWz" role="3cqZAp">
            <node concept="3SKdUq" id="70qA1hy$CW$" role="3SKWNk">
              <property role="3SKdUp" value="todo: use new scopes =)" />
            </node>
          </node>
          <node concept="3cpWs8" id="70qA1hy$CWK" role="3cqZAp">
            <node concept="3cpWsn" id="70qA1hy$CWL" role="3cpWs9">
              <property role="TrG5h" value="concept" />
              <node concept="3Tqbb2" id="70qA1hy$CWM" role="1tU5fm">
                <ref role="ehGHo" to="tpce:h0PkWnZ" resolve="AbstractConceptDeclaration" />
              </node>
              <node concept="2OqwBi" id="70qA1hy$CXC" role="33vP2m">
                <node concept="2OqwBi" id="70qA1hy$CX9" role="2Oq$k0">
                  <node concept="2rP1CM" id="70qA1hy$CWO" role="2Oq$k0" />
                  <node concept="2Xjw5R" id="70qA1hy$CXf" role="2OqNvi">
                    <node concept="1xMEDy" id="70qA1hy$CXg" role="1xVPHs">
                      <node concept="chp4Y" id="70qA1hy$CXj" role="ri$Ld">
                        <ref role="cht4Q" to="1i04:hP3h7Gq" resolve="ConceptBehavior" />
                      </node>
                    </node>
                  </node>
                </node>
                <node concept="3TrEf2" id="70qA1hy$CXI" role="2OqNvi">
                  <ref role="3Tt5mk" to="1i04:hP3h7Gv" />
                </node>
              </node>
            </node>
          </node>
          <node concept="3cpWs6" id="2DmG$ciAtii" role="3cqZAp">
            <node concept="2ShNRf" id="2DmG$ciAtim" role="3cqZAk">
              <node concept="YeOm9" id="2DmG$ciAtip" role="2ShVmc">
                <node concept="1Y3b0j" id="2DmG$ciAtiq" role="YeSDq">
                  <property role="2bfB8j" value="true" />
                  <ref role="1Y3XeK" to="6xgk:2DmG$ciAhAi" resolve="SimpleScope" />
                  <ref role="37wK5l" to="6xgk:2DmG$ciAhAo" resolve="SimpleScope" />
                  <node concept="2OqwBi" id="70qA1hy$HAC" role="37wK5m">
                    <node concept="37vLTw" id="3GM_nagTynG" role="2Oq$k0">
                      <ref role="3cqZAo" node="70qA1hy$CWL" resolve="concept" />
                    </node>
                    <node concept="2qgKlT" id="70qA1hy$HAK" role="2OqNvi">
                      <ref role="37wK5l" to="tpcn:hEwILKK" resolve="getLinkDeclarations" />
                    </node>
                  </node>
                  <node concept="3Tm1VV" id="2DmG$ciAtir" role="1B3o_S" />
                  <node concept="3clFb_" id="2DmG$ciAtis" role="jymVt">
                    <property role="1EzhhJ" value="false" />
                    <property role="TrG5h" value="getReferenceText" />
                    <node concept="3Tm1VV" id="2DmG$ciAtit" role="1B3o_S" />
                    <node concept="37vLTG" id="2DmG$ciAtiu" role="3clF46">
                      <property role="TrG5h" value="target" />
                      <node concept="3Tqbb2" id="2DmG$ciAtiv" role="1tU5fm" />
                      <node concept="2AHcQZ" id="2DmG$ciAtiw" role="2AJF6D">
                        <ref role="2AI5Lk" to="mhfm:~NotNull" resolve="NotNull" />
                      </node>
                    </node>
                    <node concept="17QB3L" id="2DmG$ciAtix" role="3clF45" />
                    <node concept="2AHcQZ" id="2DmG$ciAtiy" role="2AJF6D">
                      <ref role="2AI5Lk" to="mhfm:~Nullable" resolve="Nullable" />
                    </node>
                    <node concept="3clFbS" id="2DmG$ciAtiz" role="3clF47">
                      <node concept="3clFbF" id="2DmG$ciAtiC" role="3cqZAp">
                        <node concept="2OqwBi" id="2DmG$ciAtjJ" role="3clFbG">
                          <node concept="1PxgMI" id="2DmG$ciAtiY" role="2Oq$k0">
                            <ref role="1m5ApE" to="tpce:f_TJgxE" resolve="LinkDeclaration" />
                            <node concept="37vLTw" id="2BHiRxglmYv" role="1m5AlR">
                              <ref role="3cqZAo" node="2DmG$ciAtiu" resolve="target" />
                            </node>
                          </node>
                          <node concept="3TrcHB" id="2DmG$ciAtjP" role="2OqNvi">
                            <ref role="3TsBF5" to="tpce:fA0kJcN" resolve="role" />
                          </node>
                        </node>
                      </node>
                    </node>
                    <node concept="2AHcQZ" id="3tYsUK_RUkI" role="2AJF6D">
                      <ref role="2AI5Lk" to="wyt6:~Override" resolve="Override" />
                    </node>
                  </node>
                </node>
              </node>
            </node>
          </node>
        </node>
      </node>
    </node>
  </node>
</model>

