<?xml version="1.0" encoding="UTF-8"?>
<model ref="r:142fc2e9-fc09-4c4f-92d7-6ce0e3f66b61(jetbrains.mps.lang.scopes.structure)">
  <persistence version="9" />
  <languages>
    <use id="d8f591ec-4d86-4af2-9f92-a9e93c803ffa" name="jetbrains.mps.lang.scopes" version="0" />
    <use id="c72da2b9-7cce-4447-8389-f407dc1158b7" name="jetbrains.mps.lang.structure" version="3" />
    <use id="982eb8df-2c96-4bd7-9963-11712ea622e5" name="jetbrains.mps.lang.resources" version="2" />
    <devkit ref="fbc25dd2-5da4-483a-8b19-70928e1b62d7(jetbrains.mps.devkit.general-purpose)" />
  </languages>
  <imports>
    <import index="tpee" ref="r:00000000-0000-4000-0000-011c895902ca(jetbrains.mps.baseLanguage.structure)" />
    <import index="tpce" ref="r:00000000-0000-4000-0000-011c89590292(jetbrains.mps.lang.structure.structure)" implicit="true" />
    <import index="tpck" ref="r:00000000-0000-4000-0000-011c89590288(jetbrains.mps.lang.core.structure)" implicit="true" />
  </imports>
  <registry>
    <language id="c72da2b9-7cce-4447-8389-f407dc1158b7" name="jetbrains.mps.lang.structure">
      <concept id="1169125787135" name="jetbrains.mps.lang.structure.structure.AbstractConceptDeclaration" flags="ig" index="PkWjJ">
        <property id="6714410169261853888" name="conceptId" index="EcuMT" />
        <property id="4628067390765956807" name="final" index="R5$K2" />
        <property id="4628067390765956802" name="abstract" index="R5$K7" />
        <property id="5092175715804935370" name="conceptAlias" index="34LRSv" />
        <child id="1071489727083" name="linkDeclaration" index="1TKVEi" />
      </concept>
      <concept id="1169125989551" name="jetbrains.mps.lang.structure.structure.InterfaceConceptDeclaration" flags="ig" index="PlHQZ">
        <child id="1169127546356" name="extends" index="PrDN$" />
      </concept>
      <concept id="1169127622168" name="jetbrains.mps.lang.structure.structure.InterfaceConceptReference" flags="ig" index="PrWs8">
        <reference id="1169127628841" name="intfc" index="PrY4T" />
      </concept>
      <concept id="1071489090640" name="jetbrains.mps.lang.structure.structure.ConceptDeclaration" flags="ig" index="1TIwiD">
        <property id="5404671619616246344" name="staticScope" index="2_RsDV" />
        <reference id="1071489389519" name="extends" index="1TJDcQ" />
      </concept>
      <concept id="1071489288298" name="jetbrains.mps.lang.structure.structure.LinkDeclaration" flags="ig" index="1TJgyj">
        <property id="1071599776563" name="role" index="20kJfa" />
        <property id="1071599893252" name="sourceCardinality" index="20lbJX" />
        <property id="1071599937831" name="metaClass" index="20lmBu" />
        <property id="241647608299431140" name="linkId" index="IQ2ns" />
        <reference id="1071599976176" name="target" index="20lvS9" />
      </concept>
    </language>
    <language id="ceab5195-25ea-4f22-9b92-103b95ca8c0c" name="jetbrains.mps.lang.core">
      <concept id="1169194658468" name="jetbrains.mps.lang.core.structure.INamedConcept" flags="ng" index="TrEIO">
        <property id="1169194664001" name="name" index="TrG5h" />
      </concept>
    </language>
  </registry>
  <node concept="1TIwiD" id="70qA1hy$hAX">
    <property role="R5$K7" value="false" />
    <property role="R5$K2" value="false" />
    <property role="TrG5h" value="CompositeWithParentScopeExpression" />
    <property role="2_RsDV" value="none" />
    <property role="34LRSv" value="composite with" />
    <property role="EcuMT" value="8077936094962850237" />
    <ref role="1TJDcQ" to="tpee:fz3vP1J" resolve="Expression" />
    <node concept="1TJgyj" id="70qA1hy$IDj" role="1TKVEi">
      <property role="20lmBu" value="aggregation" />
      <property role="20kJfa" value="expr" />
      <property role="20lbJX" value="1" />
      <property role="IQ2ns" value="8077936094962969171" />
      <ref role="20lvS9" to="tpee:fz3vP1J" resolve="Expression" />
    </node>
  </node>
  <node concept="1TIwiD" id="70qA1hy$wwM">
    <property role="R5$K7" value="false" />
    <property role="R5$K2" value="false" />
    <property role="TrG5h" value="ParentScope" />
    <property role="2_RsDV" value="none" />
    <property role="34LRSv" value="parent scope" />
    <property role="EcuMT" value="8077936094962911282" />
    <ref role="1TJDcQ" to="tpee:fz3vP1J" resolve="Expression" />
  </node>
  <node concept="1TIwiD" id="70qA1hy$CJv">
    <property role="R5$K7" value="false" />
    <property role="R5$K2" value="false" />
    <property role="TrG5h" value="ComeFromExpression" />
    <property role="2_RsDV" value="none" />
    <property role="34LRSv" value="come from" />
    <property role="EcuMT" value="8077936094962944991" />
    <ref role="1TJDcQ" to="tpee:fz3vP1J" resolve="Expression" />
    <node concept="1TJgyj" id="70qA1hy$CWu" role="1TKVEi">
      <property role="20lmBu" value="reference" />
      <property role="20kJfa" value="link" />
      <property role="20lbJX" value="1" />
      <property role="IQ2ns" value="8077936094962945822" />
      <ref role="20lvS9" to="tpce:f_TJgxE" resolve="LinkDeclaration" />
    </node>
  </node>
  <node concept="PlHQZ" id="2AitiqbD8u0">
    <property role="TrG5h" value="UniformScopeProvider" />
    <property role="EcuMT" value="2995585510566823808" />
    <node concept="PrWs8" id="2AitiqbD8u4" role="PrDN$">
      <ref role="PrY4T" to="tpck:3fifI_xCcJN" resolve="ScopeProvider" />
    </node>
  </node>
</model>

