<?xml version="1.0" encoding="UTF-8"?>
<model ref="r:0a0b7fa3-dd15-453f-9320-7d451510a2e7(org.jetbrains.mps.samples.ParallelFor.generator.template.generator.template.main@generator)">
  <persistence version="9" />
  <languages>
    <use id="b401a680-8325-4110-8fd3-84331ff25bef" name="jetbrains.mps.lang.generator" version="0" />
    <use id="d7706f63-9be2-479c-a3da-ae92af1e64d5" name="jetbrains.mps.lang.generator.generationContext" version="0" />
    <use id="7a5dda62-9140-4668-ab76-d5ed1746f2b2" name="jetbrains.mps.lang.typesystem" version="0" />
    <devkit ref="fbc25dd2-5da4-483a-8b19-70928e1b62d7(jetbrains.mps.devkit.general-purpose)" />
  </languages>
  <imports>
    <import index="cgfx" ref="r:10e9da27-7113-45e6-9477-92c95760f135(org.jetbrains.mps.samples.ParallelFor.structure)" />
    <import index="5zyv" ref="6354ebe7-c22a-4a0f-ac54-50b52ab9b065/java:java.util.concurrent(JDK/)" />
    <import index="tpee" ref="r:00000000-0000-4000-0000-011c895902ca(jetbrains.mps.baseLanguage.structure)" />
    <import index="33ny" ref="6354ebe7-c22a-4a0f-ac54-50b52ab9b065/java:java.util(JDK/)" />
    <import index="usgg" ref="r:505fd146-c6ef-40a9-a434-a941c8a9e83e(utils)" />
    <import index="wyt6" ref="6354ebe7-c22a-4a0f-ac54-50b52ab9b065/java:java.lang(JDK/)" />
    <import index="guwi" ref="6354ebe7-c22a-4a0f-ac54-50b52ab9b065/java:java.io(JDK/)" />
    <import index="w1kc" ref="6ed54515-acc8-4d1e-a16c-9fd6cfe951ea/java:jetbrains.mps.smodel(MPS.Core/)" />
    <import index="tpek" ref="r:00000000-0000-4000-0000-011c895902c0(jetbrains.mps.baseLanguage.behavior)" />
    <import index="mhbf" ref="8865b7a8-5271-43d3-884c-6fd1d9cfdd34/java:org.jetbrains.mps.openapi.model(MPS.OpenAPI/)" />
    <import index="tpck" ref="r:00000000-0000-4000-0000-011c89590288(jetbrains.mps.lang.core.structure)" implicit="true" />
  </imports>
  <registry>
    <language id="f3061a53-9226-4cc5-a443-f952ceaf5816" name="jetbrains.mps.baseLanguage">
      <concept id="1082485599095" name="jetbrains.mps.baseLanguage.structure.BlockStatement" flags="nn" index="9aQIb">
        <child id="1082485599096" name="statements" index="9aQI4" />
      </concept>
      <concept id="4836112446988635817" name="jetbrains.mps.baseLanguage.structure.UndefinedType" flags="in" index="2jxLKc" />
      <concept id="1202948039474" name="jetbrains.mps.baseLanguage.structure.InstanceMethodCallOperation" flags="nn" index="liA8E" />
      <concept id="1153952380246" name="jetbrains.mps.baseLanguage.structure.TryStatement" flags="nn" index="2GUZhq">
        <child id="1153952416686" name="body" index="2GV8ay" />
        <child id="1153952429843" name="finallyBody" index="2GVbov" />
        <child id="1164903700860" name="catchClause" index="TEXxN" />
      </concept>
      <concept id="1224848483129" name="jetbrains.mps.baseLanguage.structure.IBLDeprecatable" flags="ng" index="IEa8$">
        <property id="1224848525476" name="isDeprecated" index="IEkAT" />
      </concept>
      <concept id="1154032098014" name="jetbrains.mps.baseLanguage.structure.AbstractLoopStatement" flags="nn" index="2LF5Ji">
        <child id="1154032183016" name="body" index="2LFqv$" />
      </concept>
      <concept id="1197027756228" name="jetbrains.mps.baseLanguage.structure.DotExpression" flags="nn" index="2OqwBi">
        <child id="1197027771414" name="operand" index="2Oq$k0" />
        <child id="1197027833540" name="operation" index="2OqNvi" />
      </concept>
      <concept id="1164879751025" name="jetbrains.mps.baseLanguage.structure.TryCatchStatement" flags="nn" index="SfApY">
        <child id="1164879758292" name="body" index="SfCbr" />
        <child id="1164903496223" name="catchClause" index="TEbGg" />
      </concept>
      <concept id="1145552977093" name="jetbrains.mps.baseLanguage.structure.GenericNewExpression" flags="nn" index="2ShNRf">
        <child id="1145553007750" name="creator" index="2ShVmc" />
      </concept>
      <concept id="1164903280175" name="jetbrains.mps.baseLanguage.structure.CatchClause" flags="nn" index="TDmWw">
        <child id="1164903359218" name="catchBody" index="TDEfX" />
        <child id="1164903359217" name="throwable" index="TDEfY" />
      </concept>
      <concept id="1137021947720" name="jetbrains.mps.baseLanguage.structure.ConceptFunction" flags="in" index="2VMwT0">
        <child id="1137022507850" name="body" index="2VODD2" />
      </concept>
      <concept id="1070475926800" name="jetbrains.mps.baseLanguage.structure.StringLiteral" flags="nn" index="Xl_RD">
        <property id="1070475926801" name="value" index="Xl_RC" />
      </concept>
      <concept id="1182160077978" name="jetbrains.mps.baseLanguage.structure.AnonymousClassCreator" flags="nn" index="YeOm9">
        <child id="1182160096073" name="cls" index="YeSDq" />
      </concept>
      <concept id="1081236700937" name="jetbrains.mps.baseLanguage.structure.StaticMethodCall" flags="nn" index="2YIFZM">
        <reference id="1144433194310" name="classConcept" index="1Pybhc" />
      </concept>
      <concept id="1164991038168" name="jetbrains.mps.baseLanguage.structure.ThrowStatement" flags="nn" index="YS8fn">
        <child id="1164991057263" name="throwable" index="YScLw" />
      </concept>
      <concept id="1070533707846" name="jetbrains.mps.baseLanguage.structure.StaticFieldReference" flags="nn" index="10M0yZ">
        <reference id="1144433057691" name="classifier" index="1PxDUh" />
      </concept>
      <concept id="1070534058343" name="jetbrains.mps.baseLanguage.structure.NullLiteral" flags="nn" index="10Nm6u" />
      <concept id="1070534370425" name="jetbrains.mps.baseLanguage.structure.IntegerType" flags="in" index="10Oyi0" />
      <concept id="1070534760951" name="jetbrains.mps.baseLanguage.structure.ArrayType" flags="in" index="10Q1$e">
        <child id="1070534760952" name="componentType" index="10Q1$1" />
      </concept>
      <concept id="1068431474542" name="jetbrains.mps.baseLanguage.structure.VariableDeclaration" flags="ng" index="33uBYm">
        <property id="1176718929932" name="isFinal" index="3TUv4t" />
        <child id="1068431790190" name="initializer" index="33vP2m" />
      </concept>
      <concept id="1068498886296" name="jetbrains.mps.baseLanguage.structure.VariableReference" flags="nn" index="37vLTw">
        <reference id="1068581517664" name="variableDeclaration" index="3cqZAo" />
      </concept>
      <concept id="1225271177708" name="jetbrains.mps.baseLanguage.structure.StringType" flags="in" index="17QB3L" />
      <concept id="4972933694980447171" name="jetbrains.mps.baseLanguage.structure.BaseVariableDeclaration" flags="ng" index="19Szcq">
        <child id="5680397130376446158" name="type" index="1tU5fm" />
      </concept>
      <concept id="1068580123132" name="jetbrains.mps.baseLanguage.structure.BaseMethodDeclaration" flags="ng" index="3clF44">
        <property id="1181808852946" name="isFinal" index="DiZV1" />
        <child id="1068580123133" name="returnType" index="3clF45" />
        <child id="1068580123135" name="body" index="3clF47" />
      </concept>
      <concept id="1068580123165" name="jetbrains.mps.baseLanguage.structure.InstanceMethodDeclaration" flags="ig" index="3clFb_">
        <property id="1178608670077" name="isAbstract" index="1EzhhJ" />
      </concept>
      <concept id="1068580123152" name="jetbrains.mps.baseLanguage.structure.EqualsExpression" flags="nn" index="3clFbC" />
      <concept id="1068580123155" name="jetbrains.mps.baseLanguage.structure.ExpressionStatement" flags="nn" index="3clFbF">
        <child id="1068580123156" name="expression" index="3clFbG" />
      </concept>
      <concept id="1068580123157" name="jetbrains.mps.baseLanguage.structure.Statement" flags="nn" index="3clFbH" />
      <concept id="1068580123159" name="jetbrains.mps.baseLanguage.structure.IfStatement" flags="nn" index="3clFbJ">
        <child id="1068580123160" name="condition" index="3clFbw" />
        <child id="1068580123161" name="ifTrue" index="3clFbx" />
      </concept>
      <concept id="1068580123136" name="jetbrains.mps.baseLanguage.structure.StatementList" flags="sn" stub="5293379017992965193" index="3clFbS">
        <child id="1068581517665" name="statement" index="3cqZAp" />
      </concept>
      <concept id="1068580123137" name="jetbrains.mps.baseLanguage.structure.BooleanConstant" flags="nn" index="3clFbT" />
      <concept id="1068580320020" name="jetbrains.mps.baseLanguage.structure.IntegerConstant" flags="nn" index="3cmrfG">
        <property id="1068580320021" name="value" index="3cmrfH" />
      </concept>
      <concept id="1068581242875" name="jetbrains.mps.baseLanguage.structure.PlusExpression" flags="nn" index="3cpWs3" />
      <concept id="1068581242878" name="jetbrains.mps.baseLanguage.structure.ReturnStatement" flags="nn" index="3cpWs6" />
      <concept id="1068581242864" name="jetbrains.mps.baseLanguage.structure.LocalVariableDeclarationStatement" flags="nn" index="3cpWs8">
        <child id="1068581242865" name="localVariableDeclaration" index="3cpWs9" />
      </concept>
      <concept id="1068581242863" name="jetbrains.mps.baseLanguage.structure.LocalVariableDeclaration" flags="nr" index="3cpWsn" />
      <concept id="1068581517677" name="jetbrains.mps.baseLanguage.structure.VoidType" flags="in" index="3cqZAl" />
      <concept id="1081516740877" name="jetbrains.mps.baseLanguage.structure.NotExpression" flags="nn" index="3fqX7Q">
        <child id="1081516765348" name="expression" index="3fr31v" />
      </concept>
      <concept id="1204053956946" name="jetbrains.mps.baseLanguage.structure.IMethodCall" flags="ng" index="1ndlxa">
        <reference id="1068499141037" name="baseMethodDeclaration" index="37wK5l" />
        <child id="1068499141038" name="actualArgument" index="37wK5m" />
      </concept>
      <concept id="1212685548494" name="jetbrains.mps.baseLanguage.structure.ClassCreator" flags="nn" index="1pGfFk">
        <child id="1212687122400" name="typeParameter" index="1pMfVU" />
      </concept>
      <concept id="1107461130800" name="jetbrains.mps.baseLanguage.structure.Classifier" flags="ng" index="3pOWGL">
        <property id="521412098689998745" name="nonStatic" index="2bfB8j" />
        <child id="5375687026011219971" name="member" index="jymVt" unordered="true" />
      </concept>
      <concept id="1107535904670" name="jetbrains.mps.baseLanguage.structure.ClassifierType" flags="in" index="3uibUv">
        <reference id="1107535924139" name="classifier" index="3uigEE" />
      </concept>
      <concept id="1081773326031" name="jetbrains.mps.baseLanguage.structure.BinaryOperation" flags="nn" index="3uHJSO">
        <child id="1081773367579" name="rightExpression" index="3uHU7w" />
        <child id="1081773367580" name="leftExpression" index="3uHU7B" />
      </concept>
      <concept id="1073239437375" name="jetbrains.mps.baseLanguage.structure.NotEqualsExpression" flags="nn" index="3y3z36" />
      <concept id="1184950988562" name="jetbrains.mps.baseLanguage.structure.ArrayCreator" flags="nn" index="3$_iS1">
        <child id="1184951007469" name="componentType" index="3$_nBY" />
        <child id="1184952969026" name="dimensionExpression" index="3$GQph" />
      </concept>
      <concept id="1184952934362" name="jetbrains.mps.baseLanguage.structure.DimensionExpression" flags="nn" index="3$GHV9">
        <child id="1184953288404" name="expression" index="3$I4v7" />
      </concept>
      <concept id="1178549954367" name="jetbrains.mps.baseLanguage.structure.IVisible" flags="ng" index="1B3ioH">
        <child id="1178549979242" name="visibility" index="1B3o_S" />
      </concept>
      <concept id="1144226303539" name="jetbrains.mps.baseLanguage.structure.ForeachStatement" flags="nn" index="1DcWWT">
        <child id="1144226360166" name="iterable" index="1DdaDG" />
      </concept>
      <concept id="1144230876926" name="jetbrains.mps.baseLanguage.structure.AbstractForStatement" flags="nn" index="1DupvO">
        <child id="1144230900587" name="variable" index="1Duv9x" />
      </concept>
      <concept id="1146644602865" name="jetbrains.mps.baseLanguage.structure.PublicVisibility" flags="nn" index="3Tm1VV" />
      <concept id="1170345865475" name="jetbrains.mps.baseLanguage.structure.AnonymousClass" flags="ig" index="1Y3b0j">
        <reference id="1170346070688" name="classifier" index="1Y3XeK" />
      </concept>
    </language>
    <language id="b401a680-8325-4110-8fd3-84331ff25bef" name="jetbrains.mps.lang.generator">
      <concept id="1114706874351" name="jetbrains.mps.lang.generator.structure.CopySrcNodeMacro" flags="ln" index="29HgVG">
        <child id="1168024447342" name="sourceNodeQuery" index="3NFExx" />
      </concept>
      <concept id="1114729360583" name="jetbrains.mps.lang.generator.structure.CopySrcListMacro" flags="ln" index="2b32R4">
        <child id="1168278589236" name="sourceNodesQuery" index="2P8S$" />
      </concept>
      <concept id="1095416546421" name="jetbrains.mps.lang.generator.structure.MappingConfiguration" flags="ig" index="bUwia">
        <child id="1167328349397" name="reductionMappingRule" index="3acgRq" />
      </concept>
      <concept id="1177093525992" name="jetbrains.mps.lang.generator.structure.InlineTemplate_RuleConsequence" flags="lg" index="gft3U">
        <child id="1177093586806" name="templateNode" index="gfFT$" />
      </concept>
      <concept id="1168559333462" name="jetbrains.mps.lang.generator.structure.TemplateDeclarationReference" flags="ln" index="j$656" />
      <concept id="1112730859144" name="jetbrains.mps.lang.generator.structure.TemplateSwitch" flags="ig" index="jVnub">
        <child id="1168558750579" name="defaultConsequence" index="jxRDz" />
        <child id="1167340453568" name="reductionMappingRule" index="3aUrZf" />
      </concept>
      <concept id="1095672379244" name="jetbrains.mps.lang.generator.structure.TemplateFragment" flags="ng" index="raruj" />
      <concept id="1722980698497626400" name="jetbrains.mps.lang.generator.structure.ITemplateCall" flags="ng" index="v9R3L">
        <reference id="1722980698497626483" name="template" index="v9R2y" />
      </concept>
      <concept id="1167168920554" name="jetbrains.mps.lang.generator.structure.BaseMappingRule_Condition" flags="in" index="30G5F_" />
      <concept id="1167169188348" name="jetbrains.mps.lang.generator.structure.TemplateFunctionParameter_sourceNode" flags="nn" index="30H73N" />
      <concept id="1167169308231" name="jetbrains.mps.lang.generator.structure.BaseMappingRule" flags="ng" index="30H$t8">
        <property id="1167272244852" name="applyToConceptInheritors" index="36QftV" />
        <reference id="1167169349424" name="applicableConcept" index="30HIoZ" />
        <child id="1167169362365" name="conditionFunction" index="30HLyM" />
      </concept>
      <concept id="1092059087312" name="jetbrains.mps.lang.generator.structure.TemplateDeclaration" flags="ig" index="13MO4I">
        <reference id="1168285871518" name="applicableConcept" index="3gUMe" />
        <child id="1092060348987" name="contentNode" index="13RCb5" />
      </concept>
      <concept id="1087833241328" name="jetbrains.mps.lang.generator.structure.PropertyMacro" flags="ln" index="17Uvod">
        <child id="1167756362303" name="propertyValueFunction" index="3zH0cK" />
      </concept>
      <concept id="1167327847730" name="jetbrains.mps.lang.generator.structure.Reduction_MappingRule" flags="lg" index="3aamgX">
        <child id="1169672767469" name="ruleConsequence" index="1lVwrX" />
      </concept>
      <concept id="982871510068000147" name="jetbrains.mps.lang.generator.structure.TemplateSwitchMacro" flags="lg" index="1sPUBX">
        <child id="982871510068000158" name="sourceNodeQuery" index="1sPUBK" />
      </concept>
      <concept id="1167756080639" name="jetbrains.mps.lang.generator.structure.PropertyMacro_GetPropertyValue" flags="in" index="3zFVjK" />
      <concept id="1167770111131" name="jetbrains.mps.lang.generator.structure.ReferenceMacro_GetReferent" flags="in" index="3$xsQk" />
      <concept id="1167945743726" name="jetbrains.mps.lang.generator.structure.IfMacro_Condition" flags="in" index="3IZrLx" />
      <concept id="1167951910403" name="jetbrains.mps.lang.generator.structure.SourceSubstituteMacro_SourceNodesQuery" flags="in" index="3JmXsc" />
      <concept id="8900764248744213868" name="jetbrains.mps.lang.generator.structure.InlineTemplateWithContext_RuleConsequence" flags="lg" index="1Koe21">
        <child id="8900764248744213871" name="contentNode" index="1Koe22" />
      </concept>
      <concept id="1168024337012" name="jetbrains.mps.lang.generator.structure.SourceSubstituteMacro_SourceNodeQuery" flags="in" index="3NFfHV" />
      <concept id="1118773211870" name="jetbrains.mps.lang.generator.structure.IfMacro" flags="ln" index="1W57fq">
        <child id="1167945861827" name="conditionFunction" index="3IZSJc" />
      </concept>
      <concept id="1118786554307" name="jetbrains.mps.lang.generator.structure.LoopMacro" flags="ln" index="1WS0z7">
        <child id="1167952069335" name="sourceNodesQuery" index="3Jn$fo" />
      </concept>
      <concept id="1088761943574" name="jetbrains.mps.lang.generator.structure.ReferenceMacro" flags="ln" index="1ZhdrF">
        <child id="1167770376702" name="referentFunction" index="3$ytzL" />
      </concept>
    </language>
    <language id="fd392034-7849-419d-9071-12563d152375" name="jetbrains.mps.baseLanguage.closures">
      <concept id="1199569711397" name="jetbrains.mps.baseLanguage.closures.structure.ClosureLiteral" flags="nn" index="1bVj0M">
        <child id="1199569906740" name="parameter" index="1bW2Oz" />
        <child id="1199569916463" name="body" index="1bW5cS" />
      </concept>
    </language>
    <language id="d7706f63-9be2-479c-a3da-ae92af1e64d5" name="jetbrains.mps.lang.generator.generationContext">
      <concept id="1217960179967" name="jetbrains.mps.lang.generator.generationContext.structure.GenerationContextOp_ShowErrorMessage" flags="nn" index="2k5nB$" />
      <concept id="1217960314443" name="jetbrains.mps.lang.generator.generationContext.structure.GenerationContextOp_ShowMessageBase" flags="nn" index="2k5Stg">
        <child id="1217960314448" name="messageText" index="2k5Stb" />
        <child id="1217960407512" name="referenceNode" index="2k6f33" />
      </concept>
      <concept id="1218047638031" name="jetbrains.mps.lang.generator.generationContext.structure.GenerationContextOp_CreateUniqueName" flags="nn" index="2piZGk">
        <child id="1218047638032" name="baseName" index="2piZGb" />
      </concept>
      <concept id="1216860049635" name="jetbrains.mps.lang.generator.generationContext.structure.TemplateFunctionParameter_generationContext" flags="nn" index="1iwH7S" />
    </language>
    <language id="7a5dda62-9140-4668-ab76-d5ed1746f2b2" name="jetbrains.mps.lang.typesystem">
      <concept id="1176544042499" name="jetbrains.mps.lang.typesystem.structure.Node_TypeOperation" flags="nn" index="3JvlWi" />
      <concept id="1178870617262" name="jetbrains.mps.lang.typesystem.structure.CoerceExpression" flags="nn" index="1UaxmW">
        <child id="1178870894644" name="pattern" index="1Ub_4A" />
        <child id="1178870894645" name="nodeToCoerce" index="1Ub_4B" />
      </concept>
      <concept id="1174642788531" name="jetbrains.mps.lang.typesystem.structure.ConceptReference" flags="ig" index="1YaCAy">
        <reference id="1174642800329" name="concept" index="1YaFvo" />
      </concept>
    </language>
    <language id="7866978e-a0f0-4cc7-81bc-4d213d9375e1" name="jetbrains.mps.lang.smodel">
      <concept id="1177026924588" name="jetbrains.mps.lang.smodel.structure.RefConcept_Reference" flags="nn" index="chp4Y">
        <reference id="1177026940964" name="conceptDeclaration" index="cht4Q" />
      </concept>
      <concept id="1179409122411" name="jetbrains.mps.lang.smodel.structure.Node_ConceptMethodCall" flags="nn" index="2qgKlT" />
      <concept id="1139621453865" name="jetbrains.mps.lang.smodel.structure.Node_IsInstanceOfOperation" flags="nn" index="1mIQ4w">
        <child id="1177027386292" name="conceptArgument" index="cj9EA" />
      </concept>
      <concept id="1144146199828" name="jetbrains.mps.lang.smodel.structure.Node_CopyOperation" flags="nn" index="1$rogu" />
      <concept id="1219352745532" name="jetbrains.mps.lang.smodel.structure.NodeRefExpression" flags="nn" index="3B5_sB">
        <reference id="1219352800908" name="referentNode" index="3B5MYn" />
      </concept>
      <concept id="1138056022639" name="jetbrains.mps.lang.smodel.structure.SPropertyAccess" flags="nn" index="3TrcHB">
        <reference id="1138056395725" name="property" index="3TsBF5" />
      </concept>
      <concept id="1138056143562" name="jetbrains.mps.lang.smodel.structure.SLinkAccess" flags="nn" index="3TrEf2">
        <reference id="1138056516764" name="link" index="3Tt5mk" />
      </concept>
      <concept id="1138056282393" name="jetbrains.mps.lang.smodel.structure.SLinkListAccess" flags="nn" index="3Tsc0h">
        <reference id="1138056546658" name="link" index="3TtcxE" />
      </concept>
    </language>
    <language id="ceab5195-25ea-4f22-9b92-103b95ca8c0c" name="jetbrains.mps.lang.core">
      <concept id="1133920641626" name="jetbrains.mps.lang.core.structure.BaseConcept" flags="ng" index="2VYdi">
        <child id="5169995583184591170" name="smodelAttribute" index="lGtFl" />
      </concept>
      <concept id="3364660638048049750" name="jetbrains.mps.lang.core.structure.PropertyAttribute" flags="ng" index="A9Btg">
        <property id="1757699476691236117" name="propertyName" index="2qtEX9" />
        <property id="1341860900487648621" name="propertyId" index="P4ACc" />
      </concept>
      <concept id="3364660638048049745" name="jetbrains.mps.lang.core.structure.LinkAttribute" flags="ng" index="A9Btn">
        <property id="1757699476691236116" name="linkRole" index="2qtEX8" />
        <property id="1341860900488019036" name="linkId" index="P3scX" />
      </concept>
      <concept id="1169194658468" name="jetbrains.mps.lang.core.structure.INamedConcept" flags="ng" index="TrEIO">
        <property id="1169194664001" name="name" index="TrG5h" />
      </concept>
    </language>
    <language id="83888646-71ce-4f1c-9c53-c54016f6ad4f" name="jetbrains.mps.baseLanguage.collections">
      <concept id="1204796164442" name="jetbrains.mps.baseLanguage.collections.structure.InternalSequenceOperation" flags="nn" index="23sCx2">
        <child id="1204796294226" name="closure" index="23t8la" />
      </concept>
      <concept id="540871147943773365" name="jetbrains.mps.baseLanguage.collections.structure.SingleArgumentSequenceOperation" flags="nn" index="25WWJ4">
        <child id="540871147943773366" name="argument" index="25WWJ7" />
      </concept>
      <concept id="1224414427926" name="jetbrains.mps.baseLanguage.collections.structure.SequenceCreator" flags="nn" index="kMnCb">
        <child id="1224414456414" name="elementType" index="kMuH3" />
      </concept>
      <concept id="1151688443754" name="jetbrains.mps.baseLanguage.collections.structure.ListType" flags="in" index="_YKpA">
        <child id="1151688676805" name="elementType" index="_ZDj9" />
      </concept>
      <concept id="1151689724996" name="jetbrains.mps.baseLanguage.collections.structure.SequenceType" flags="in" index="A3Dl8">
        <child id="1151689745422" name="elementType" index="A3Ik2" />
      </concept>
      <concept id="1237721394592" name="jetbrains.mps.baseLanguage.collections.structure.AbstractContainerCreator" flags="nn" index="HWqM0">
        <child id="1237721435807" name="elementType" index="HW$YZ" />
      </concept>
      <concept id="1203518072036" name="jetbrains.mps.baseLanguage.collections.structure.SmartClosureParameterDeclaration" flags="ig" index="Rh6nW" />
      <concept id="1160600644654" name="jetbrains.mps.baseLanguage.collections.structure.ListCreatorWithInit" flags="nn" index="Tc6Ow" />
      <concept id="1160612413312" name="jetbrains.mps.baseLanguage.collections.structure.AddElementOperation" flags="nn" index="TSZUe" />
      <concept id="1162935959151" name="jetbrains.mps.baseLanguage.collections.structure.GetSizeOperation" flags="nn" index="34oBXx" />
      <concept id="1240325842691" name="jetbrains.mps.baseLanguage.collections.structure.AsSequenceOperation" flags="nn" index="39bAoz" />
      <concept id="1165530316231" name="jetbrains.mps.baseLanguage.collections.structure.IsEmptyOperation" flags="nn" index="1v1jN8" />
      <concept id="1202120902084" name="jetbrains.mps.baseLanguage.collections.structure.WhereOperation" flags="nn" index="3zZkjj" />
      <concept id="1176501494711" name="jetbrains.mps.baseLanguage.collections.structure.IsNotEmptyOperation" flags="nn" index="3GX2aA" />
    </language>
  </registry>
  <node concept="bUwia" id="7Joh5Ouyh0a">
    <property role="TrG5h" value="main" />
    <node concept="3aamgX" id="7Joh5Ouys0B" role="3acgRq">
      <property role="36QftV" value="true" />
      <ref role="30HIoZ" to="tpee:fz7vLUo" resolve="VariableReference" />
      <node concept="30G5F_" id="7Joh5Ouys1q" role="30HLyM">
        <node concept="3clFbS" id="7Joh5Ouys1r" role="2VODD2">
          <node concept="3clFbF" id="2HMmK4D8VDC" role="3cqZAp">
            <node concept="2OqwBi" id="7Joh5Ouys2u" role="3clFbG">
              <node concept="2OqwBi" id="6KBb0wH6rXs" role="2Oq$k0">
                <node concept="30H73N" id="7Joh5Ouys2C" role="2Oq$k0" />
                <node concept="3TrEf2" id="AVI$K8_YYX" role="2OqNvi">
                  <ref role="3Tt5mk" to="tpee:fzcqZ_w" />
                </node>
              </node>
              <node concept="1mIQ4w" id="7Joh5Ouys2y" role="2OqNvi">
                <node concept="chp4Y" id="7Joh5Ouys2$" role="cj9EA">
                  <ref role="cht4Q" to="cgfx:7Joh5OuxR2F" resolve="ParallelLoopVariable" />
                </node>
              </node>
            </node>
          </node>
        </node>
      </node>
      <node concept="j$656" id="7Joh5Ouys2G" role="1lVwrX">
        <ref role="v9R2y" node="7Joh5Ouys2E" resolve="reduce_LocalVariableReference" />
      </node>
    </node>
    <node concept="3aamgX" id="7Joh5Ouyh0d" role="3acgRq">
      <ref role="30HIoZ" to="cgfx:7Joh5OuxR2E" resolve="ParallelFor" />
      <node concept="j$656" id="7Joh5Ouyh0e" role="1lVwrX">
        <ref role="v9R2y" node="7Joh5Ouyh0b" resolve="reduce_ParallelFor" />
      </node>
    </node>
    <node concept="3aamgX" id="z9$5E0VX1l" role="3acgRq">
      <ref role="30HIoZ" to="cgfx:z9$5E0VX0W" resolve="ThreadPool" />
      <node concept="j$656" id="z9$5E0VX1m" role="1lVwrX">
        <ref role="v9R2y" node="z9$5E0VX1j" resolve="reduce_ThreadPool" />
      </node>
    </node>
    <node concept="3aamgX" id="44JMKrMiN4K" role="3acgRq">
      <ref role="30HIoZ" to="tpee:fJN13sA" resolve="ContinueStatement" />
      <node concept="gft3U" id="44JMKrMiN5I" role="1lVwrX">
        <node concept="3cpWs6" id="44JMKrMiN5K" role="gfFT$" />
      </node>
      <node concept="30G5F_" id="44JMKrMiN4M" role="30HLyM">
        <node concept="3clFbS" id="44JMKrMiN4N" role="2VODD2">
          <node concept="3clFbF" id="44JMKrMiN4O" role="3cqZAp">
            <node concept="2OqwBi" id="44JMKrMiN5_" role="3clFbG">
              <node concept="2OqwBi" id="44JMKrMiN5a" role="2Oq$k0">
                <node concept="30H73N" id="44JMKrMiN4P" role="2Oq$k0" />
                <node concept="2qgKlT" id="44JMKrMiN5g" role="2OqNvi">
                  <ref role="37wK5l" to="tpek:hEwIA0E" resolve="getLoop" />
                </node>
              </node>
              <node concept="1mIQ4w" id="44JMKrMiN5F" role="2OqNvi">
                <node concept="chp4Y" id="44JMKrMiN5H" role="cj9EA">
                  <ref role="cht4Q" to="cgfx:7Joh5OuxR2E" resolve="ParallelFor" />
                </node>
              </node>
            </node>
          </node>
        </node>
      </node>
    </node>
  </node>
  <node concept="13MO4I" id="7Joh5Ouyh0b">
    <property role="TrG5h" value="reduce_ParallelFor" />
    <ref role="3gUMe" to="cgfx:7Joh5OuxR2E" resolve="ParallelFor" />
    <node concept="9aQIb" id="7Joh5OuynBj" role="13RCb5">
      <node concept="3clFbS" id="7Joh5OuynBk" role="9aQI4">
        <node concept="3cpWs8" id="z9$5E0VX0a" role="3cqZAp">
          <node concept="3cpWsn" id="z9$5E0VX0b" role="3cpWs9">
            <property role="TrG5h" value="threadPool" />
            <node concept="3uibUv" id="z9$5E0VX0c" role="1tU5fm">
              <ref role="3uigEE" to="5zyv:~Executor" resolve="Executor" />
            </node>
          </node>
        </node>
        <node concept="3cpWs8" id="7Joh5OuynBl" role="3cqZAp">
          <node concept="3cpWsn" id="7Joh5OuynBm" role="3cpWs9">
            <property role="TrG5h" value="inputSequence" />
            <node concept="A3Dl8" id="7Joh5OuynBn" role="1tU5fm">
              <node concept="10Oyi0" id="7Joh5OuynBp" role="A3Ik2" />
            </node>
          </node>
        </node>
        <node concept="9aQIb" id="7Joh5OuyiU2" role="3cqZAp">
          <node concept="3clFbS" id="7Joh5OuyiU3" role="9aQI4">
            <node concept="3cpWs8" id="7Joh5OuykDq" role="3cqZAp">
              <node concept="3cpWsn" id="7Joh5OuykDr" role="3cpWs9">
                <property role="TrG5h" value="latch" />
                <property role="3TUv4t" value="true" />
                <node concept="3uibUv" id="7Joh5OuykDs" role="1tU5fm">
                  <ref role="3uigEE" to="5zyv:~CountDownLatch" resolve="CountDownLatch" />
                </node>
                <node concept="2ShNRf" id="7Joh5OuykDu" role="33vP2m">
                  <node concept="1pGfFk" id="7Joh5OuymsM" role="2ShVmc">
                    <ref role="37wK5l" to="5zyv:~CountDownLatch.&lt;init&gt;(int)" resolve="CountDownLatch" />
                    <node concept="2OqwBi" id="7Joh5OuynBs" role="37wK5m">
                      <node concept="37vLTw" id="3GM_nagTsFj" role="2Oq$k0">
                        <ref role="3cqZAo" node="7Joh5OuynBm" resolve="inputSequence" />
                        <node concept="1sPUBX" id="1WfddY$XHO_" role="lGtFl">
                          <ref role="v9R2y" node="6OAzscTcCG3" resolve="CollectionSwitch" />
                          <node concept="3NFfHV" id="6OAzscTcN$Y" role="1sPUBK">
                            <node concept="3clFbS" id="6OAzscTcN$Z" role="2VODD2">
                              <node concept="3clFbF" id="6OAzscTcN_0" role="3cqZAp">
                                <node concept="2OqwBi" id="6OAzscTcN_q" role="3clFbG">
                                  <node concept="30H73N" id="6OAzscTcN_1" role="2Oq$k0" />
                                  <node concept="3TrEf2" id="6OAzscTd7N8" role="2OqNvi">
                                    <ref role="3Tt5mk" to="cgfx:7Joh5Ouy8LY" />
                                  </node>
                                </node>
                              </node>
                            </node>
                          </node>
                        </node>
                      </node>
                      <node concept="34oBXx" id="7Joh5OuynBw" role="2OqNvi" />
                    </node>
                  </node>
                </node>
                <node concept="17Uvod" id="4CgZIKboHSO" role="lGtFl">
                  <property role="2qtEX9" value="name" />
                  <property role="P4ACc" value="ceab5195-25ea-4f22-9b92-103b95ca8c0c/1169194658468/1169194664001" />
                  <node concept="3zFVjK" id="4CgZIKboHSP" role="3zH0cK">
                    <node concept="3clFbS" id="4CgZIKboHSQ" role="2VODD2">
                      <node concept="3clFbF" id="4CgZIKboHSS" role="3cqZAp">
                        <node concept="2OqwBi" id="4CgZIKboHTe" role="3clFbG">
                          <node concept="1iwH7S" id="4CgZIKboHST" role="2Oq$k0" />
                          <node concept="2piZGk" id="4CgZIKboHTj" role="2OqNvi">
                            <node concept="Xl_RD" id="4CgZIKboHTl" role="2piZGb">
                              <property role="Xl_RC" value="latch" />
                            </node>
                          </node>
                        </node>
                      </node>
                    </node>
                  </node>
                </node>
              </node>
              <node concept="1W57fq" id="7gT79pF3T$o" role="lGtFl">
                <node concept="3IZrLx" id="7gT79pF3T$p" role="3IZSJc">
                  <node concept="3clFbS" id="7gT79pF3T$q" role="2VODD2">
                    <node concept="3clFbF" id="7gT79pF3T$r" role="3cqZAp">
                      <node concept="3fqX7Q" id="7gT79pF3T$s" role="3clFbG">
                        <node concept="2OqwBi" id="7gT79pF3T$N" role="3fr31v">
                          <node concept="30H73N" id="7gT79pF3T$u" role="2Oq$k0" />
                          <node concept="3TrcHB" id="7gT79pF3T$S" role="2OqNvi">
                            <ref role="3TsBF5" to="cgfx:7gT79pF3Lc4" resolve="nowait" />
                          </node>
                        </node>
                      </node>
                    </node>
                  </node>
                </node>
              </node>
            </node>
            <node concept="3cpWs8" id="z9$5E0VjeZ" role="3cqZAp">
              <node concept="3cpWsn" id="z9$5E0Vjf0" role="3cpWs9">
                <property role="TrG5h" value="exceptions" />
                <property role="3TUv4t" value="true" />
                <node concept="_YKpA" id="z9$5E0Vjf1" role="1tU5fm">
                  <node concept="3uibUv" id="z9$5E0Vjf3" role="_ZDj9">
                    <ref role="3uigEE" to="wyt6:~Exception" resolve="Exception" />
                  </node>
                </node>
                <node concept="2ShNRf" id="z9$5E0Vjf5" role="33vP2m">
                  <node concept="1pGfFk" id="z9$5E0Vjf7" role="2ShVmc">
                    <ref role="37wK5l" to="5zyv:~CopyOnWriteArrayList.&lt;init&gt;()" resolve="CopyOnWriteArrayList" />
                    <node concept="3uibUv" id="z9$5E0Vjfa" role="1pMfVU">
                      <ref role="3uigEE" to="wyt6:~Exception" resolve="Exception" />
                    </node>
                  </node>
                </node>
                <node concept="17Uvod" id="4CgZIKboHTm" role="lGtFl">
                  <property role="2qtEX9" value="name" />
                  <property role="P4ACc" value="ceab5195-25ea-4f22-9b92-103b95ca8c0c/1169194658468/1169194664001" />
                  <node concept="3zFVjK" id="4CgZIKboHTn" role="3zH0cK">
                    <node concept="3clFbS" id="4CgZIKboHTo" role="2VODD2">
                      <node concept="3clFbF" id="4CgZIKboHTq" role="3cqZAp">
                        <node concept="2OqwBi" id="4CgZIKboHTK" role="3clFbG">
                          <node concept="1iwH7S" id="4CgZIKboHTr" role="2Oq$k0" />
                          <node concept="2piZGk" id="4CgZIKboHTP" role="2OqNvi">
                            <node concept="Xl_RD" id="4CgZIKboHTR" role="2piZGb">
                              <property role="Xl_RC" value="exceptions" />
                            </node>
                          </node>
                        </node>
                      </node>
                    </node>
                  </node>
                </node>
              </node>
            </node>
            <node concept="3clFbH" id="z9$5E0Vjfb" role="3cqZAp" />
            <node concept="1DcWWT" id="7Joh5OuykDH" role="3cqZAp">
              <node concept="3clFbS" id="7Joh5OuykDI" role="2LFqv$">
                <node concept="3clFbH" id="z9$5E0VRnB" role="3cqZAp" />
                <node concept="3cpWs8" id="7Joh5OuyruT" role="3cqZAp">
                  <node concept="3cpWsn" id="7Joh5OuyruU" role="3cpWs9">
                    <property role="TrG5h" value="localA" />
                    <property role="3TUv4t" value="true" />
                    <node concept="10Oyi0" id="7Joh5OuyruV" role="1tU5fm">
                      <node concept="29HgVG" id="z9$5E0VBss" role="lGtFl">
                        <node concept="3NFfHV" id="z9$5E0VBsv" role="3NFExx">
                          <node concept="3clFbS" id="z9$5E0VBsw" role="2VODD2">
                            <node concept="3clFbF" id="z9$5E0VBsx" role="3cqZAp">
                              <node concept="2OqwBi" id="z9$5E0VJbj" role="3clFbG">
                                <node concept="2OqwBi" id="z9$5E0VBsy" role="2Oq$k0">
                                  <node concept="3TrEf2" id="z9$5E0VJbf" role="2OqNvi">
                                    <ref role="3Tt5mk" to="cgfx:7Joh5Ouy132" />
                                  </node>
                                  <node concept="30H73N" id="z9$5E0VBs$" role="2Oq$k0" />
                                </node>
                                <node concept="3JvlWi" id="z9$5E0VJoQ" role="2OqNvi" />
                              </node>
                            </node>
                          </node>
                        </node>
                      </node>
                    </node>
                    <node concept="37vLTw" id="3GM_nagTBXZ" role="33vP2m">
                      <ref role="3cqZAo" node="7Joh5OuykDK" resolve="a" />
                    </node>
                  </node>
                </node>
                <node concept="3clFbH" id="z9$5E0VRnC" role="3cqZAp" />
                <node concept="3cpWs8" id="z9$5E0VX0d" role="3cqZAp">
                  <node concept="3cpWsn" id="z9$5E0VX0e" role="3cpWs9">
                    <property role="TrG5h" value="runnable" />
                    <property role="3TUv4t" value="true" />
                    <node concept="3uibUv" id="z9$5E0VX0f" role="1tU5fm">
                      <ref role="3uigEE" to="wyt6:~Runnable" resolve="Runnable" />
                    </node>
                    <node concept="2ShNRf" id="z9$5E0VX0g" role="33vP2m">
                      <node concept="YeOm9" id="z9$5E0VX0h" role="2ShVmc">
                        <node concept="1Y3b0j" id="z9$5E0VX0i" role="YeSDq">
                          <property role="2bfB8j" value="true" />
                          <ref role="37wK5l" to="wyt6:~Object.&lt;init&gt;()" resolve="Object" />
                          <ref role="1Y3XeK" to="wyt6:~Runnable" resolve="Runnable" />
                          <node concept="3Tm1VV" id="z9$5E0VX0j" role="1B3o_S" />
                          <node concept="3clFb_" id="z9$5E0VX0k" role="jymVt">
                            <property role="IEkAT" value="false" />
                            <property role="1EzhhJ" value="false" />
                            <property role="TrG5h" value="run" />
                            <property role="DiZV1" value="false" />
                            <node concept="3Tm1VV" id="z9$5E0VX0l" role="1B3o_S" />
                            <node concept="3cqZAl" id="z9$5E0VX0m" role="3clF45" />
                            <node concept="3clFbS" id="z9$5E0VX0n" role="3clF47">
                              <node concept="2GUZhq" id="z9$5E0VX0o" role="3cqZAp">
                                <node concept="3clFbS" id="z9$5E0VX0p" role="2GV8ay">
                                  <node concept="3clFbF" id="z9$5E0VX0q" role="3cqZAp">
                                    <node concept="2OqwBi" id="z9$5E0VX0r" role="3clFbG">
                                      <node concept="10M0yZ" id="z9$5E0VX0s" role="2Oq$k0">
                                        <ref role="1PxDUh" to="wyt6:~System" resolve="System" />
                                        <ref role="3cqZAo" to="wyt6:~System.out" resolve="out" />
                                      </node>
                                      <node concept="liA8E" id="z9$5E0VX0t" role="2OqNvi">
                                        <ref role="37wK5l" to="guwi:~PrintStream.println(java.lang.String):void" resolve="println" />
                                        <node concept="Xl_RD" id="z9$5E0VX0u" role="37wK5m">
                                          <property role="Xl_RC" value="Foo" />
                                        </node>
                                      </node>
                                    </node>
                                    <node concept="2b32R4" id="z9$5E0VX0v" role="lGtFl">
                                      <node concept="3JmXsc" id="z9$5E0VX0w" role="2P8S$">
                                        <node concept="3clFbS" id="z9$5E0VX0x" role="2VODD2">
                                          <node concept="3clFbF" id="z9$5E0VX0y" role="3cqZAp">
                                            <node concept="2OqwBi" id="z9$5E0VX0z" role="3clFbG">
                                              <node concept="2OqwBi" id="z9$5E0VX0$" role="2Oq$k0">
                                                <node concept="30H73N" id="z9$5E0VX0_" role="2Oq$k0" />
                                                <node concept="3TrEf2" id="z9$5E0VX0A" role="2OqNvi">
                                                  <ref role="3Tt5mk" to="tpee:gMLFqrC" />
                                                </node>
                                              </node>
                                              <node concept="3Tsc0h" id="z9$5E0VX0B" role="2OqNvi">
                                                <ref role="3TtcxE" to="tpee:fzcqZ_x" />
                                              </node>
                                            </node>
                                          </node>
                                        </node>
                                      </node>
                                    </node>
                                  </node>
                                </node>
                                <node concept="TDmWw" id="z9$5E0VX0C" role="TEXxN">
                                  <node concept="3cpWsn" id="z9$5E0VX0D" role="TDEfY">
                                    <property role="TrG5h" value="e" />
                                    <node concept="3uibUv" id="z9$5E0VX0E" role="1tU5fm">
                                      <ref role="3uigEE" to="wyt6:~RuntimeException" resolve="RuntimeException" />
                                    </node>
                                  </node>
                                  <node concept="3clFbS" id="z9$5E0VX0F" role="TDEfX">
                                    <node concept="3clFbF" id="z9$5E0VX0G" role="3cqZAp">
                                      <node concept="2OqwBi" id="z9$5E0VX0H" role="3clFbG">
                                        <node concept="37vLTw" id="3GM_nagTwej" role="2Oq$k0">
                                          <ref role="3cqZAo" node="z9$5E0Vjf0" resolve="exceptions" />
                                        </node>
                                        <node concept="TSZUe" id="z9$5E0VX0J" role="2OqNvi">
                                          <node concept="37vLTw" id="3GM_nagT_86" role="25WWJ7">
                                            <ref role="3cqZAo" node="z9$5E0VX0D" resolve="e" />
                                          </node>
                                        </node>
                                      </node>
                                    </node>
                                  </node>
                                </node>
                                <node concept="TDmWw" id="4CgZIKboddP" role="TEXxN">
                                  <node concept="3cpWsn" id="4CgZIKboddQ" role="TDEfY">
                                    <property role="TrG5h" value="e" />
                                    <node concept="3uibUv" id="4CgZIKboddT" role="1tU5fm">
                                      <ref role="3uigEE" to="wyt6:~Exception" resolve="Exception" />
                                      <node concept="1ZhdrF" id="6OAzscTdICQ" role="lGtFl">
                                        <property role="2qtEX8" value="classifier" />
                                        <property role="P3scX" value="f3061a53-9226-4cc5-a443-f952ceaf5816/1107535904670/1107535924139" />
                                        <node concept="3$xsQk" id="6OAzscTdICR" role="3$ytzL">
                                          <node concept="3clFbS" id="6OAzscTdICS" role="2VODD2">
                                            <node concept="3clFbF" id="6OAzscTdICW" role="3cqZAp">
                                              <node concept="30H73N" id="6OAzscTdICX" role="3clFbG" />
                                            </node>
                                          </node>
                                        </node>
                                      </node>
                                    </node>
                                  </node>
                                  <node concept="3clFbS" id="4CgZIKboddS" role="TDEfX">
                                    <node concept="3clFbF" id="4CgZIKboddU" role="3cqZAp">
                                      <node concept="2OqwBi" id="4CgZIKbodeg" role="3clFbG">
                                        <node concept="37vLTw" id="3GM_nagTyyU" role="2Oq$k0">
                                          <ref role="3cqZAo" node="z9$5E0Vjf0" resolve="exceptions" />
                                        </node>
                                        <node concept="TSZUe" id="4CgZIKbodem" role="2OqNvi">
                                          <node concept="37vLTw" id="3GM_nagTzCM" role="25WWJ7">
                                            <ref role="3cqZAo" node="4CgZIKboddQ" resolve="e" />
                                          </node>
                                        </node>
                                      </node>
                                    </node>
                                  </node>
                                  <node concept="1WS0z7" id="4CgZIKbodeq" role="lGtFl">
                                    <node concept="3JmXsc" id="4CgZIKbodet" role="3Jn$fo">
                                      <node concept="3clFbS" id="4CgZIKbodeu" role="2VODD2">
                                        <node concept="3clFbF" id="4CgZIKbodev" role="3cqZAp">
                                          <node concept="2OqwBi" id="4CgZIKbodeU" role="3clFbG">
                                            <node concept="2OqwBi" id="4CgZIKbodew" role="2Oq$k0">
                                              <node concept="2OqwBi" id="4CgZIKboPM5" role="2Oq$k0">
                                                <node concept="30H73N" id="4CgZIKbodey" role="2Oq$k0" />
                                                <node concept="3TrEf2" id="4CgZIKboPMb" role="2OqNvi">
                                                  <ref role="3Tt5mk" to="tpee:gMLFqrC" />
                                                </node>
                                              </node>
                                              <node concept="2qgKlT" id="4CgZIKbode$" role="2OqNvi">
                                                <ref role="37wK5l" to="tpek:2SVUfbZ9Qq1" resolve="uncaughtThrowables" />
                                                <node concept="3clFbT" id="4CgZIKbode_" role="37wK5m" />
                                              </node>
                                            </node>
                                            <node concept="3zZkjj" id="4CgZIKboVWd" role="2OqNvi">
                                              <node concept="1bVj0M" id="4CgZIKboVWe" role="23t8la">
                                                <node concept="3clFbS" id="4CgZIKboVWf" role="1bW5cS">
                                                  <node concept="3clFbF" id="4CgZIKboVWj" role="3cqZAp">
                                                    <node concept="3y3z36" id="4CgZIKboVXK" role="3clFbG">
                                                      <node concept="3B5_sB" id="4CgZIKboVXO" role="3uHU7w">
                                                        <ref role="3B5MYn" to="wyt6:~RuntimeException" resolve="RuntimeException" />
                                                      </node>
                                                      <node concept="37vLTw" id="2BHiRxgm3_E" role="3uHU7B">
                                                        <ref role="3cqZAo" node="4CgZIKboVWg" resolve="it" />
                                                      </node>
                                                    </node>
                                                  </node>
                                                </node>
                                                <node concept="Rh6nW" id="4CgZIKboVWg" role="1bW2Oz">
                                                  <property role="TrG5h" value="it" />
                                                  <node concept="2jxLKc" id="4CgZIKboVWh" role="1tU5fm" />
                                                </node>
                                              </node>
                                            </node>
                                          </node>
                                        </node>
                                      </node>
                                    </node>
                                  </node>
                                </node>
                                <node concept="3clFbS" id="z9$5E0VX0L" role="2GVbov">
                                  <node concept="3clFbF" id="z9$5E0VX0M" role="3cqZAp">
                                    <node concept="2OqwBi" id="z9$5E0VX0N" role="3clFbG">
                                      <node concept="37vLTw" id="3GM_nagTwuP" role="2Oq$k0">
                                        <ref role="3cqZAo" node="7Joh5OuykDr" resolve="latch" />
                                      </node>
                                      <node concept="liA8E" id="z9$5E0VX0P" role="2OqNvi">
                                        <ref role="37wK5l" to="5zyv:~CountDownLatch.countDown():void" resolve="countDown" />
                                      </node>
                                    </node>
                                    <node concept="1W57fq" id="7gT79pF3TzP" role="lGtFl">
                                      <node concept="3IZrLx" id="7gT79pF3TzQ" role="3IZSJc">
                                        <node concept="3clFbS" id="7gT79pF3TzR" role="2VODD2">
                                          <node concept="3clFbF" id="7gT79pF3TzT" role="3cqZAp">
                                            <node concept="3fqX7Q" id="7gT79pF3TzU" role="3clFbG">
                                              <node concept="2OqwBi" id="7gT79pF3T$h" role="3fr31v">
                                                <node concept="30H73N" id="7gT79pF3TzW" role="2Oq$k0" />
                                                <node concept="3TrcHB" id="7gT79pF3T$m" role="2OqNvi">
                                                  <ref role="3TsBF5" to="cgfx:7gT79pF3Lc4" resolve="nowait" />
                                                </node>
                                              </node>
                                            </node>
                                          </node>
                                        </node>
                                      </node>
                                    </node>
                                  </node>
                                </node>
                              </node>
                            </node>
                          </node>
                        </node>
                      </node>
                    </node>
                  </node>
                </node>
                <node concept="3clFbH" id="z9$5E0VX0V" role="3cqZAp" />
                <node concept="3clFbF" id="7Joh5OuykDU" role="3cqZAp">
                  <node concept="2OqwBi" id="7Joh5OuymXO" role="3clFbG">
                    <node concept="2ShNRf" id="7Joh5OuykDV" role="2Oq$k0">
                      <node concept="1pGfFk" id="7Joh5OuykDW" role="2ShVmc">
                        <ref role="37wK5l" to="wyt6:~Thread.&lt;init&gt;(java.lang.Runnable)" resolve="Thread" />
                        <node concept="37vLTw" id="3GM_nagT$pG" role="37wK5m">
                          <ref role="3cqZAo" node="z9$5E0VX0e" resolve="runnable" />
                        </node>
                      </node>
                    </node>
                    <node concept="liA8E" id="7Joh5OuymXS" role="2OqNvi">
                      <ref role="37wK5l" to="wyt6:~Thread.start():void" resolve="start" />
                    </node>
                  </node>
                  <node concept="1W57fq" id="z9$5E0W7Tn" role="lGtFl">
                    <node concept="3IZrLx" id="z9$5E0W7To" role="3IZSJc">
                      <node concept="3clFbS" id="z9$5E0W7Tp" role="2VODD2">
                        <node concept="3clFbF" id="z9$5E0W7Tq" role="3cqZAp">
                          <node concept="3clFbC" id="z9$5E0W7TI" role="3clFbG">
                            <node concept="10Nm6u" id="z9$5E0W7TL" role="3uHU7w" />
                            <node concept="2OqwBi" id="z9$5E0W7Tu" role="3uHU7B">
                              <node concept="30H73N" id="z9$5E0W7Tr" role="2Oq$k0" />
                              <node concept="3TrEf2" id="42COxuQQh$J" role="2OqNvi">
                                <ref role="3Tt5mk" to="cgfx:42COxuQQ87Y" />
                              </node>
                            </node>
                          </node>
                        </node>
                      </node>
                    </node>
                  </node>
                </node>
                <node concept="3clFbF" id="z9$5E0W4rI" role="3cqZAp">
                  <node concept="2OqwBi" id="z9$5E0W4rM" role="3clFbG">
                    <node concept="37vLTw" id="3GM_nagTuK8" role="2Oq$k0">
                      <ref role="3cqZAo" node="z9$5E0VX0b" resolve="threadPool" />
                      <node concept="29HgVG" id="42COxuQQh$P" role="lGtFl">
                        <node concept="3NFfHV" id="42COxuQQh$Q" role="3NFExx">
                          <node concept="3clFbS" id="42COxuQQh$R" role="2VODD2">
                            <node concept="3clFbF" id="42COxuQQh$S" role="3cqZAp">
                              <node concept="2OqwBi" id="42COxuQQh$W" role="3clFbG">
                                <node concept="30H73N" id="42COxuQQh$T" role="2Oq$k0" />
                                <node concept="3TrEf2" id="42COxuQQh_2" role="2OqNvi">
                                  <ref role="3Tt5mk" to="cgfx:42COxuQQ87Y" />
                                </node>
                              </node>
                            </node>
                          </node>
                        </node>
                      </node>
                    </node>
                    <node concept="liA8E" id="z9$5E0W4rS" role="2OqNvi">
                      <ref role="37wK5l" to="5zyv:~Executor.execute(java.lang.Runnable):void" resolve="execute" />
                      <node concept="37vLTw" id="3GM_nagTBRg" role="37wK5m">
                        <ref role="3cqZAo" node="z9$5E0VX0e" resolve="runnable" />
                      </node>
                    </node>
                  </node>
                  <node concept="1W57fq" id="z9$5E0W7TN" role="lGtFl">
                    <node concept="3IZrLx" id="z9$5E0W7TO" role="3IZSJc">
                      <node concept="3clFbS" id="z9$5E0W7TP" role="2VODD2">
                        <node concept="3clFbF" id="z9$5E0W7TQ" role="3cqZAp">
                          <node concept="3y3z36" id="z9$5E0W7U3" role="3clFbG">
                            <node concept="10Nm6u" id="z9$5E0W7U6" role="3uHU7w" />
                            <node concept="2OqwBi" id="z9$5E0W7TU" role="3uHU7B">
                              <node concept="30H73N" id="z9$5E0W7TR" role="2Oq$k0" />
                              <node concept="3TrEf2" id="42COxuQQh$L" role="2OqNvi">
                                <ref role="3Tt5mk" to="cgfx:42COxuQQ87Y" />
                              </node>
                            </node>
                          </node>
                        </node>
                      </node>
                    </node>
                  </node>
                </node>
                <node concept="3clFbH" id="7Joh5OuykDJ" role="3cqZAp" />
              </node>
              <node concept="3cpWsn" id="7Joh5OuykDK" role="1Duv9x">
                <property role="TrG5h" value="a" />
                <property role="3TUv4t" value="true" />
                <node concept="10Oyi0" id="7Joh5OuykDM" role="1tU5fm">
                  <node concept="29HgVG" id="z9$5E0VN2l" role="lGtFl">
                    <node concept="3NFfHV" id="z9$5E0VN2o" role="3NFExx">
                      <node concept="3clFbS" id="z9$5E0VN2p" role="2VODD2">
                        <node concept="3clFbF" id="z9$5E0VN2q" role="3cqZAp">
                          <node concept="2OqwBi" id="z9$5E0VN2$" role="3clFbG">
                            <node concept="2OqwBi" id="z9$5E0VN2r" role="2Oq$k0">
                              <node concept="3TrEf2" id="z9$5E0VN2w" role="2OqNvi">
                                <ref role="3Tt5mk" to="cgfx:7Joh5Ouy132" />
                              </node>
                              <node concept="30H73N" id="z9$5E0VN2t" role="2Oq$k0" />
                            </node>
                            <node concept="3JvlWi" id="z9$5E0VN2E" role="2OqNvi" />
                          </node>
                        </node>
                      </node>
                    </node>
                  </node>
                </node>
                <node concept="17Uvod" id="z9$5E0VN2F" role="lGtFl">
                  <property role="2qtEX9" value="name" />
                  <property role="P4ACc" value="ceab5195-25ea-4f22-9b92-103b95ca8c0c/1169194658468/1169194664001" />
                  <node concept="3zFVjK" id="z9$5E0VN2I" role="3zH0cK">
                    <node concept="3clFbS" id="z9$5E0VN2J" role="2VODD2">
                      <node concept="3clFbJ" id="z9$5E0VRnW" role="3cqZAp">
                        <node concept="3clFbS" id="z9$5E0VRnX" role="3clFbx">
                          <node concept="3clFbF" id="z9$5E0VRoo" role="3cqZAp">
                            <node concept="2OqwBi" id="z9$5E0VRos" role="3clFbG">
                              <node concept="1iwH7S" id="z9$5E0VRop" role="2Oq$k0" />
                              <node concept="2k5nB$" id="z9$5E0VRoy" role="2OqNvi">
                                <node concept="Xl_RD" id="z9$5E0VRo$" role="2k5Stb">
                                  <property role="Xl_RC" value="The loop variable must be final" />
                                </node>
                                <node concept="2OqwBi" id="z9$5E0VRoH" role="2k6f33">
                                  <node concept="30H73N" id="z9$5E0VRoE" role="2Oq$k0" />
                                  <node concept="3TrEf2" id="z9$5E0VRoN" role="2OqNvi">
                                    <ref role="3Tt5mk" to="cgfx:7Joh5Ouy132" />
                                  </node>
                                </node>
                              </node>
                            </node>
                          </node>
                        </node>
                        <node concept="3fqX7Q" id="z9$5E0VRom" role="3clFbw">
                          <node concept="2OqwBi" id="z9$5E0VRod" role="3fr31v">
                            <node concept="2OqwBi" id="z9$5E0VRo3" role="2Oq$k0">
                              <node concept="30H73N" id="z9$5E0VRo0" role="2Oq$k0" />
                              <node concept="3TrEf2" id="z9$5E0VRo9" role="2OqNvi">
                                <ref role="3Tt5mk" to="cgfx:7Joh5Ouy132" />
                              </node>
                            </node>
                            <node concept="3TrcHB" id="z9$5E0VRoi" role="2OqNvi">
                              <ref role="3TsBF5" to="tpee:h7TUv0c" resolve="isFinal" />
                            </node>
                          </node>
                        </node>
                      </node>
                      <node concept="3clFbH" id="z9$5E0VRoD" role="3cqZAp" />
                      <node concept="3clFbF" id="z9$5E0VN2K" role="3cqZAp">
                        <node concept="2OqwBi" id="z9$5E0VN2U" role="3clFbG">
                          <node concept="2OqwBi" id="z9$5E0VN2L" role="2Oq$k0">
                            <node concept="3TrEf2" id="z9$5E0VN2Q" role="2OqNvi">
                              <ref role="3Tt5mk" to="cgfx:7Joh5Ouy132" />
                            </node>
                            <node concept="30H73N" id="z9$5E0VN2N" role="2Oq$k0" />
                          </node>
                          <node concept="3TrcHB" id="z9$5E0VN2Z" role="2OqNvi">
                            <ref role="3TsBF5" to="tpck:h0TrG11" resolve="name" />
                          </node>
                        </node>
                      </node>
                    </node>
                  </node>
                </node>
              </node>
              <node concept="2ShNRf" id="7Joh5OuykDN" role="1DdaDG">
                <node concept="Tc6Ow" id="z9$5E0Vwbm" role="2ShVmc">
                  <node concept="10Oyi0" id="z9$5E0VOu0" role="HW$YZ" />
                </node>
                <node concept="1sPUBX" id="1WfddY$XIAq" role="lGtFl">
                  <ref role="v9R2y" node="6OAzscTcCG3" resolve="CollectionSwitch" />
                  <node concept="3NFfHV" id="6OAzscTcN_U" role="1sPUBK">
                    <node concept="3clFbS" id="6OAzscTcN_V" role="2VODD2">
                      <node concept="3clFbF" id="6OAzscTcN_W" role="3cqZAp">
                        <node concept="2OqwBi" id="6OAzscTcN_X" role="3clFbG">
                          <node concept="2OqwBi" id="6OAzscTcN_Y" role="2Oq$k0">
                            <node concept="30H73N" id="6OAzscTcN_Z" role="2Oq$k0" />
                            <node concept="3TrEf2" id="6OAzscTcNA0" role="2OqNvi">
                              <ref role="3Tt5mk" to="cgfx:7Joh5Ouy8LY" />
                            </node>
                          </node>
                          <node concept="1$rogu" id="6OAzscTcNA1" role="2OqNvi" />
                        </node>
                      </node>
                    </node>
                  </node>
                </node>
              </node>
            </node>
            <node concept="SfApY" id="7Joh5OuylPa" role="3cqZAp">
              <node concept="3clFbS" id="7Joh5OuylPb" role="SfCbr">
                <node concept="3clFbF" id="7Joh5OuykES" role="3cqZAp">
                  <node concept="2OqwBi" id="7Joh5OuykEU" role="3clFbG">
                    <node concept="37vLTw" id="3GM_nagT$KF" role="2Oq$k0">
                      <ref role="3cqZAo" node="7Joh5OuykDr" resolve="latch" />
                    </node>
                    <node concept="liA8E" id="7Joh5OuykEY" role="2OqNvi">
                      <ref role="37wK5l" to="5zyv:~CountDownLatch.await():void" resolve="await" />
                    </node>
                  </node>
                </node>
              </node>
              <node concept="TDmWw" id="7Joh5OuylPc" role="TEbGg">
                <node concept="3cpWsn" id="7Joh5OuylPd" role="TDEfY">
                  <property role="TrG5h" value="e" />
                  <node concept="3uibUv" id="7Joh5OuylPg" role="1tU5fm">
                    <ref role="3uigEE" to="wyt6:~InterruptedException" resolve="InterruptedException" />
                  </node>
                </node>
                <node concept="3clFbS" id="7Joh5OuylPf" role="TDEfX">
                  <node concept="3clFbF" id="z9$5E0Vjfr" role="3cqZAp">
                    <node concept="2OqwBi" id="z9$5E0Vjfv" role="3clFbG">
                      <node concept="37vLTw" id="3GM_nagTBkM" role="2Oq$k0">
                        <ref role="3cqZAo" node="z9$5E0Vjf0" resolve="exceptions" />
                      </node>
                      <node concept="TSZUe" id="z9$5E0Vjf_" role="2OqNvi">
                        <node concept="37vLTw" id="3GM_nagTxhu" role="25WWJ7">
                          <ref role="3cqZAo" node="7Joh5OuylPd" resolve="e" />
                        </node>
                      </node>
                    </node>
                  </node>
                </node>
              </node>
              <node concept="1W57fq" id="7gT79pF3LJK" role="lGtFl">
                <node concept="3IZrLx" id="7gT79pF3LJL" role="3IZSJc">
                  <node concept="3clFbS" id="7gT79pF3LJM" role="2VODD2">
                    <node concept="3clFbF" id="7gT79pF3LJN" role="3cqZAp">
                      <node concept="3fqX7Q" id="7gT79pF3TzJ" role="3clFbG">
                        <node concept="2OqwBi" id="7gT79pF3TzK" role="3fr31v">
                          <node concept="30H73N" id="7gT79pF3TzL" role="2Oq$k0" />
                          <node concept="3TrcHB" id="7gT79pF3TzM" role="2OqNvi">
                            <ref role="3TsBF5" to="cgfx:7gT79pF3Lc4" resolve="nowait" />
                          </node>
                        </node>
                      </node>
                    </node>
                  </node>
                </node>
              </node>
            </node>
            <node concept="3clFbJ" id="z9$5E0VjfG" role="3cqZAp">
              <node concept="3clFbS" id="z9$5E0VjfH" role="3clFbx">
                <node concept="YS8fn" id="z9$5E0VjfW" role="3cqZAp">
                  <node concept="2ShNRf" id="z9$5E0Vjga" role="YScLw">
                    <node concept="1pGfFk" id="z9$5E0Vjgc" role="2ShVmc">
                      <ref role="37wK5l" to="usgg:z9$5E0VVp_" resolve="ParallelLoopException" />
                      <node concept="Xl_RD" id="z9$5E0Vjgd" role="37wK5m">
                        <property role="Xl_RC" value="Some parallel calculations failed" />
                      </node>
                      <node concept="37vLTw" id="3GM_nagTvro" role="37wK5m">
                        <ref role="3cqZAo" node="z9$5E0Vjf0" resolve="exceptions" />
                      </node>
                    </node>
                  </node>
                </node>
              </node>
              <node concept="2OqwBi" id="z9$5E0VjfN" role="3clFbw">
                <node concept="37vLTw" id="3GM_nagTscY" role="2Oq$k0">
                  <ref role="3cqZAo" node="z9$5E0Vjf0" resolve="exceptions" />
                </node>
                <node concept="3GX2aA" id="z9$5E0VjfV" role="2OqNvi" />
              </node>
            </node>
            <node concept="3clFbH" id="7Joh5OuykDz" role="3cqZAp" />
          </node>
          <node concept="raruj" id="7Joh5OuykDy" role="lGtFl" />
        </node>
        <node concept="3clFbH" id="7Joh5OuynBq" role="3cqZAp" />
      </node>
    </node>
  </node>
  <node concept="13MO4I" id="7Joh5Ouys2E">
    <property role="TrG5h" value="reduce_LocalVariableReference" />
    <ref role="3gUMe" to="tpee:fz7vLUo" resolve="VariableReference" />
    <node concept="9aQIb" id="7Joh5Ouys2H" role="13RCb5">
      <node concept="3clFbS" id="7Joh5Ouys2I" role="9aQI4">
        <node concept="3cpWs8" id="7Joh5Ouys2J" role="3cqZAp">
          <node concept="3cpWsn" id="7Joh5Ouys2K" role="3cpWs9">
            <property role="TrG5h" value="localA" />
            <property role="3TUv4t" value="true" />
            <node concept="10Oyi0" id="7Joh5Ouys2L" role="1tU5fm" />
          </node>
        </node>
        <node concept="3clFbF" id="7Joh5Ouys2N" role="3cqZAp">
          <node concept="2OqwBi" id="7Joh5Ouys2O" role="3clFbG">
            <node concept="10M0yZ" id="7Joh5Ouys2P" role="2Oq$k0">
              <ref role="1PxDUh" to="wyt6:~System" resolve="System" />
              <ref role="3cqZAo" to="wyt6:~System.out" resolve="out" />
            </node>
            <node concept="liA8E" id="7Joh5Ouys2Q" role="2OqNvi">
              <ref role="37wK5l" to="guwi:~PrintStream.println(java.lang.String):void" resolve="println" />
              <node concept="3cpWs3" id="7Joh5Ouys2S" role="37wK5m">
                <node concept="37vLTw" id="3GM_nagTr7c" role="3uHU7w">
                  <ref role="3cqZAo" node="7Joh5Ouys2K" resolve="localA" />
                  <node concept="raruj" id="7Joh5Ouys2W" role="lGtFl" />
                  <node concept="1ZhdrF" id="6KBb0wH6oba" role="lGtFl">
                    <property role="2qtEX8" value="variableDeclaration" />
                    <property role="P3scX" value="f3061a53-9226-4cc5-a443-f952ceaf5816/1068498886296/1068581517664" />
                    <node concept="3$xsQk" id="6KBb0wH6obb" role="3$ytzL">
                      <node concept="3clFbS" id="6KBb0wH6obc" role="2VODD2">
                        <node concept="3clFbF" id="6KBb0wH6obf" role="3cqZAp">
                          <node concept="Xl_RD" id="6KBb0wH6oGM" role="3clFbG">
                            <property role="Xl_RC" value="localA" />
                          </node>
                        </node>
                      </node>
                    </node>
                  </node>
                </node>
                <node concept="Xl_RD" id="7Joh5Ouys2R" role="3uHU7B">
                  <property role="Xl_RC" value="Value: " />
                </node>
              </node>
            </node>
          </node>
        </node>
      </node>
    </node>
  </node>
  <node concept="13MO4I" id="z9$5E0VX1j">
    <property role="TrG5h" value="reduce_ThreadPool" />
    <ref role="3gUMe" to="cgfx:z9$5E0VX0W" resolve="ThreadPool" />
    <node concept="9aQIb" id="z9$5E0W2Hg" role="13RCb5">
      <node concept="3clFbS" id="z9$5E0W2Hh" role="9aQI4">
        <node concept="3clFbF" id="42COxuQQzuD" role="3cqZAp">
          <node concept="2YIFZM" id="z9$5E0W2He" role="3clFbG">
            <ref role="37wK5l" to="5zyv:~Executors.newFixedThreadPool(int):java.util.concurrent.ExecutorService" resolve="newFixedThreadPool" />
            <ref role="1Pybhc" to="5zyv:~Executors" resolve="Executors" />
            <node concept="3cmrfG" id="z9$5E0W2Hf" role="37wK5m">
              <property role="3cmrfH" value="1" />
              <node concept="17Uvod" id="z9$5E0W2Hs" role="lGtFl">
                <property role="2qtEX9" value="value" />
                <property role="P4ACc" value="f3061a53-9226-4cc5-a443-f952ceaf5816/1068580320020/1068580320021" />
                <node concept="3zFVjK" id="z9$5E0W2Hv" role="3zH0cK">
                  <node concept="3clFbS" id="z9$5E0W2Hw" role="2VODD2">
                    <node concept="3clFbF" id="z9$5E0W2Hx" role="3cqZAp">
                      <node concept="2OqwBi" id="z9$5E0W2Hy" role="3clFbG">
                        <node concept="3TrcHB" id="z9$5E0W2Hz" role="2OqNvi">
                          <ref role="3TsBF5" to="cgfx:z9$5E0VX15" resolve="numberOfThreads" />
                        </node>
                        <node concept="30H73N" id="z9$5E0W2H$" role="2Oq$k0" />
                      </node>
                    </node>
                  </node>
                </node>
              </node>
            </node>
            <node concept="raruj" id="42COxuQQzuF" role="lGtFl" />
          </node>
        </node>
      </node>
    </node>
  </node>
  <node concept="jVnub" id="6OAzscTcCG3">
    <property role="TrG5h" value="CollectionSwitch" />
    <node concept="3aamgX" id="6OAzscTd4mh" role="3aUrZf">
      <property role="36QftV" value="true" />
      <ref role="30HIoZ" to="tpee:fz3vP1J" resolve="Expression" />
      <node concept="1Koe21" id="6OAzscTd4mO" role="1lVwrX">
        <node concept="9aQIb" id="6OAzscTd4mQ" role="1Koe22">
          <node concept="3clFbS" id="6OAzscTd4mR" role="9aQI4">
            <node concept="3cpWs8" id="6OAzscTd4mU" role="3cqZAp">
              <node concept="3cpWsn" id="6OAzscTd4mV" role="3cpWs9">
                <property role="TrG5h" value="s" />
                <node concept="10Q1$e" id="6OAzscTd4mW" role="1tU5fm">
                  <node concept="17QB3L" id="6OAzscTd4mX" role="10Q1$1" />
                </node>
                <node concept="2ShNRf" id="6OAzscTd4mY" role="33vP2m">
                  <node concept="3$_iS1" id="6OAzscTd4mZ" role="2ShVmc">
                    <node concept="3$GHV9" id="6OAzscTd4n0" role="3$GQph">
                      <node concept="3cmrfG" id="6OAzscTd4n1" role="3$I4v7">
                        <property role="3cmrfH" value="0" />
                      </node>
                    </node>
                    <node concept="17QB3L" id="6OAzscTd4n2" role="3$_nBY" />
                  </node>
                </node>
              </node>
            </node>
            <node concept="3clFbF" id="6OAzscTd4n3" role="3cqZAp">
              <node concept="2OqwBi" id="6OAzscTd4n4" role="3clFbG">
                <node concept="10M0yZ" id="6OAzscTd4n5" role="2Oq$k0">
                  <ref role="3cqZAo" to="wyt6:~System.out" resolve="out" />
                  <ref role="1PxDUh" to="wyt6:~System" resolve="System" />
                </node>
                <node concept="liA8E" id="6OAzscTd4n6" role="2OqNvi">
                  <ref role="37wK5l" to="guwi:~PrintStream.println(java.lang.String):void" resolve="println" />
                  <node concept="3cpWs3" id="6OAzscTd4n7" role="37wK5m">
                    <node concept="2OqwBi" id="6OAzscTd4n8" role="3uHU7w">
                      <node concept="37vLTw" id="3GM_nagTyRT" role="2Oq$k0">
                        <ref role="3cqZAo" node="6OAzscTd4mV" resolve="s" />
                        <node concept="29HgVG" id="6OAzscTd4na" role="lGtFl" />
                      </node>
                      <node concept="raruj" id="6OAzscTd4nf" role="lGtFl" />
                      <node concept="39bAoz" id="6OAzscTd4nk" role="2OqNvi" />
                    </node>
                    <node concept="Xl_RD" id="6OAzscTd4nh" role="3uHU7B">
                      <property role="Xl_RC" value="" />
                    </node>
                  </node>
                </node>
              </node>
            </node>
          </node>
        </node>
      </node>
      <node concept="30G5F_" id="6OAzscTd4mj" role="30HLyM">
        <node concept="3clFbS" id="6OAzscTd4mk" role="2VODD2">
          <node concept="3clFbF" id="6OAzscTd4ml" role="3cqZAp">
            <node concept="3y3z36" id="6OAzscTd4IN" role="3clFbG">
              <node concept="10Nm6u" id="6OAzscTd4IQ" role="3uHU7w" />
              <node concept="1UaxmW" id="6OAzscTd4mm" role="3uHU7B">
                <node concept="1YaCAy" id="6OAzscTd4mL" role="1Ub_4A">
                  <property role="TrG5h" value="arrayType" />
                  <ref role="1YaFvo" to="tpee:f_0Q1BR" resolve="ArrayType" />
                </node>
                <node concept="2OqwBi" id="6OAzscTd4mE" role="1Ub_4B">
                  <node concept="30H73N" id="6OAzscTd4mp" role="2Oq$k0" />
                  <node concept="3JvlWi" id="6OAzscTd4mK" role="2OqNvi" />
                </node>
              </node>
            </node>
          </node>
        </node>
      </node>
    </node>
    <node concept="1Koe21" id="6OAzscTcMK4" role="jxRDz">
      <node concept="9aQIb" id="6OAzscTcMK6" role="1Koe22">
        <node concept="3clFbS" id="6OAzscTcMK7" role="9aQI4">
          <node concept="3cpWs8" id="6OAzscTd4nn" role="3cqZAp">
            <node concept="3cpWsn" id="6OAzscTd4no" role="3cpWs9">
              <property role="TrG5h" value="s" />
              <node concept="A3Dl8" id="6OAzscTd4np" role="1tU5fm">
                <node concept="3uibUv" id="6OAzscTd4nq" role="A3Ik2">
                  <ref role="3uigEE" to="wyt6:~Object" resolve="Object" />
                </node>
              </node>
              <node concept="2ShNRf" id="6OAzscTd4nr" role="33vP2m">
                <node concept="kMnCb" id="6OAzscTd4ns" role="2ShVmc">
                  <node concept="3uibUv" id="6OAzscTd4nt" role="kMuH3">
                    <ref role="3uigEE" to="wyt6:~Object" resolve="Object" />
                  </node>
                </node>
              </node>
            </node>
          </node>
          <node concept="3clFbF" id="6OAzscTd4nu" role="3cqZAp">
            <node concept="2OqwBi" id="6OAzscTd4nv" role="3clFbG">
              <node concept="37vLTw" id="3GM_nagTto4" role="2Oq$k0">
                <ref role="3cqZAo" node="6OAzscTd4no" resolve="s" />
                <node concept="raruj" id="6OAzscTd4nx" role="lGtFl" />
                <node concept="29HgVG" id="6OAzscTd4ny" role="lGtFl" />
              </node>
              <node concept="1v1jN8" id="6OAzscTd4nB" role="2OqNvi" />
            </node>
          </node>
        </node>
      </node>
    </node>
  </node>
</model>

