<?xml version="1.0" encoding="UTF-8"?>
<model ref="r:e5107c9a-a05a-456e-bf48-05faadc7a98c(jetbrains.mps.samples.highlevel.simpleStructure.structure)">
  <persistence version="9" />
  <languages>
    <use id="c72da2b9-7cce-4447-8389-f407dc1158b7" name="jetbrains.mps.lang.structure" version="3" />
    <devkit ref="fbc25dd2-5da4-483a-8b19-70928e1b62d7(jetbrains.mps.devkit.general-purpose)" />
  </languages>
  <imports>
    <import index="tpck" ref="r:00000000-0000-4000-0000-011c89590288(jetbrains.mps.lang.core.structure)" implicit="true" />
    <import index="tpce" ref="r:00000000-0000-4000-0000-011c89590292(jetbrains.mps.lang.structure.structure)" implicit="true" />
  </imports>
  <registry>
    <language id="c72da2b9-7cce-4447-8389-f407dc1158b7" name="jetbrains.mps.lang.structure">
      <concept id="1169125787135" name="jetbrains.mps.lang.structure.structure.AbstractConceptDeclaration" flags="ig" index="PkWjJ">
        <property id="6714410169261853888" name="conceptId" index="EcuMT" />
        <child id="1071489727083" name="linkDeclaration" index="1TKVEi" />
      </concept>
      <concept id="1169127622168" name="jetbrains.mps.lang.structure.structure.InterfaceConceptReference" flags="ig" index="PrWs8">
        <reference id="1169127628841" name="intfc" index="PrY4T" />
      </concept>
      <concept id="1071489090640" name="jetbrains.mps.lang.structure.structure.ConceptDeclaration" flags="ig" index="1TIwiD">
        <property id="1096454100552" name="rootable" index="19KtqR" />
        <reference id="1071489389519" name="extends" index="1TJDcQ" />
        <child id="1169129564478" name="implements" index="PzmwI" />
      </concept>
      <concept id="1071489288298" name="jetbrains.mps.lang.structure.structure.LinkDeclaration" flags="ig" index="1TJgyj">
        <property id="1071599776563" name="role" index="20kJfa" />
        <property id="1071599893252" name="sourceCardinality" index="20lbJX" />
        <property id="1071599937831" name="metaClass" index="20lmBu" />
        <property id="241647608299431140" name="linkId" index="IQ2ns" />
        <reference id="1071599976176" name="target" index="20lvS9" />
      </concept>
    </language>
    <language id="ceab5195-25ea-4f22-9b92-103b95ca8c0c" name="jetbrains.mps.lang.core">
      <concept id="1169194658468" name="jetbrains.mps.lang.core.structure.INamedConcept" flags="ng" index="TrEIO">
        <property id="1169194664001" name="name" index="TrG5h" />
      </concept>
    </language>
  </registry>
  <node concept="1TIwiD" id="4offtGnqKCW">
    <property role="EcuMT" value="5048321718505638460" />
    <property role="TrG5h" value="SimpleConceptDeclaration" />
    <ref role="1TJDcQ" to="tpck:gw2VY9q" resolve="BaseConcept" />
    <node concept="1TJgyj" id="3hIFiK8N80D" role="1TKVEi">
      <property role="IQ2ns" value="3778147542048210985" />
      <property role="20lmBu" value="aggregation" />
      <property role="20kJfa" value="properties" />
      <property role="20lbJX" value="0..n" />
      <ref role="20lvS9" node="3hIFiK8N7YI" resolve="SimplePropertyDeclaration" />
    </node>
    <node concept="PrWs8" id="3hIFiK8N81u" role="PzmwI">
      <ref role="PrY4T" to="tpck:h0TrEE$" resolve="INamedConcept" />
    </node>
  </node>
  <node concept="1TIwiD" id="3hIFiK8N7YI">
    <property role="EcuMT" value="3778147542048210862" />
    <property role="TrG5h" value="SimplePropertyDeclaration" />
    <ref role="1TJDcQ" to="tpck:gw2VY9q" resolve="BaseConcept" />
    <node concept="PrWs8" id="3hIFiK8N832" role="PzmwI">
      <ref role="PrY4T" to="tpck:h0TrEE$" resolve="INamedConcept" />
    </node>
  </node>
  <node concept="1TIwiD" id="3hIFiK8N7Z8">
    <property role="EcuMT" value="3778147542048210888" />
    <property role="TrG5h" value="StructureAspectDeclaration" />
    <property role="19KtqR" value="true" />
    <ref role="1TJDcQ" to="tpck:gw2VY9q" resolve="BaseConcept" />
    <node concept="1TJgyj" id="3hIFiK8N7Zl" role="1TKVEi">
      <property role="IQ2ns" value="3778147542048210901" />
      <property role="20lmBu" value="aggregation" />
      <property role="20kJfa" value="concepts" />
      <property role="20lbJX" value="0..n" />
      <ref role="20lvS9" node="4offtGnqKCW" resolve="SimpleConceptDeclaration" />
    </node>
  </node>
  <node concept="1TIwiD" id="3hIFiK8NuJo">
    <property role="EcuMT" value="3778147542048304088" />
    <property role="TrG5h" value="CDHolder_GeneratorInternal" />
    <ref role="1TJDcQ" to="tpck:gw2VY9q" resolve="BaseConcept" />
    <node concept="1TJgyj" id="3hIFiK8NuJ_" role="1TKVEi">
      <property role="IQ2ns" value="3778147542048304101" />
      <property role="20lmBu" value="aggregation" />
      <property role="20kJfa" value="c" />
      <property role="20lbJX" value="1" />
      <ref role="20lvS9" to="tpce:f_TIwhg" resolve="ConceptDeclaration" />
    </node>
  </node>
</model>

