<?xml version="1.0" encoding="UTF-8"?>
<model ref="r:b76e6387-9e47-4e56-8a9c-59cb9d383183(jetbrains.mps.lang.editor.menus.extras.behavior)">
  <persistence version="9" />
  <languages>
    <use id="af65afd8-f0dd-4942-87d9-63a55f2a9db1" name="jetbrains.mps.lang.behavior" version="0" />
    <devkit ref="fbc25dd2-5da4-483a-8b19-70928e1b62d7(jetbrains.mps.devkit.general-purpose)" />
  </languages>
  <imports>
    <import index="tpcb" ref="r:00000000-0000-4000-0000-011c89590297(jetbrains.mps.lang.editor.behavior)" />
    <import index="tpc2" ref="r:00000000-0000-4000-0000-011c8959029e(jetbrains.mps.lang.editor.structure)" />
    <import index="tpee" ref="r:00000000-0000-4000-0000-011c895902ca(jetbrains.mps.baseLanguage.structure)" />
    <import index="tpek" ref="r:00000000-0000-4000-0000-011c895902c0(jetbrains.mps.baseLanguage.behavior)" />
    <import index="91lp" ref="1ed103c3-3aa6-49b7-9c21-6765ee11f224/java:jetbrains.mps.intentions(MPS.Editor/)" />
    <import index="a1gu" ref="r:8333260e-1c41-48f8-b34d-821761a2600f(jetbrains.mps.lang.editor.menus.extras.structure)" implicit="true" />
  </imports>
  <registry>
    <language id="af65afd8-f0dd-4942-87d9-63a55f2a9db1" name="jetbrains.mps.lang.behavior">
      <concept id="1225194240794" name="jetbrains.mps.lang.behavior.structure.ConceptBehavior" flags="ng" index="13h7C7">
        <reference id="1225194240799" name="concept" index="13h7C2" />
        <child id="1225194240805" name="method" index="13h7CS" />
        <child id="1225194240801" name="constructor" index="13h7CW" />
      </concept>
      <concept id="1225194413805" name="jetbrains.mps.lang.behavior.structure.ConceptConstructorDeclaration" flags="in" index="13hLZK" />
      <concept id="1225194472830" name="jetbrains.mps.lang.behavior.structure.ConceptMethodDeclaration" flags="ng" index="13i0hz">
        <property id="1225194472832" name="isVirtual" index="13i0it" />
        <property id="1225194472834" name="isAbstract" index="13i0iv" />
        <reference id="1225194472831" name="overriddenMethod" index="13i0hy" />
      </concept>
    </language>
    <language id="f3061a53-9226-4cc5-a443-f952ceaf5816" name="jetbrains.mps.baseLanguage">
      <concept id="1145552977093" name="jetbrains.mps.baseLanguage.structure.GenericNewExpression" flags="nn" index="2ShNRf">
        <child id="1145553007750" name="creator" index="2ShVmc" />
      </concept>
      <concept id="1137021947720" name="jetbrains.mps.baseLanguage.structure.ConceptFunction" flags="in" index="2VMwT0">
        <child id="1137022507850" name="body" index="2VODD2" />
      </concept>
      <concept id="1068580123132" name="jetbrains.mps.baseLanguage.structure.BaseMethodDeclaration" flags="ng" index="3clF44">
        <child id="1068580123133" name="returnType" index="3clF45" />
        <child id="1068580123135" name="body" index="3clF47" />
      </concept>
      <concept id="1068580123155" name="jetbrains.mps.baseLanguage.structure.ExpressionStatement" flags="nn" index="3clFbF">
        <child id="1068580123156" name="expression" index="3clFbG" />
      </concept>
      <concept id="1068580123136" name="jetbrains.mps.baseLanguage.structure.StatementList" flags="sn" stub="5293379017992965193" index="3clFbS">
        <child id="1068581517665" name="statement" index="3cqZAp" />
      </concept>
      <concept id="1068581242878" name="jetbrains.mps.baseLanguage.structure.ReturnStatement" flags="nn" index="3cpWs6">
        <child id="1068581517676" name="expression" index="3cqZAk" />
      </concept>
      <concept id="1107535904670" name="jetbrains.mps.baseLanguage.structure.ClassifierType" flags="in" index="3uibUv">
        <reference id="1107535924139" name="classifier" index="3uigEE" />
      </concept>
      <concept id="1178549954367" name="jetbrains.mps.baseLanguage.structure.IVisible" flags="ng" index="1B3ioH">
        <child id="1178549979242" name="visibility" index="1B3o_S" />
      </concept>
      <concept id="1146644602865" name="jetbrains.mps.baseLanguage.structure.PublicVisibility" flags="nn" index="3Tm1VV" />
    </language>
    <language id="3a13115c-633c-4c5c-bbcc-75c4219e9555" name="jetbrains.mps.lang.quotation">
      <concept id="1196350785113" name="jetbrains.mps.lang.quotation.structure.Quotation" flags="nn" index="2c44tf">
        <child id="1196350785114" name="quotedNode" index="2c44tc" />
      </concept>
    </language>
    <language id="7866978e-a0f0-4cc7-81bc-4d213d9375e1" name="jetbrains.mps.lang.smodel">
      <concept id="2644386474300074836" name="jetbrains.mps.lang.smodel.structure.ConceptIdRefExpression" flags="nn" index="35c_gC">
        <reference id="2644386474300074837" name="conceptDeclaration" index="35c_gD" />
      </concept>
      <concept id="6677504323281689838" name="jetbrains.mps.lang.smodel.structure.SConceptType" flags="in" index="3bZ5Sz">
        <reference id="6677504323281689839" name="conceptDeclaraton" index="3bZ5Sy" />
      </concept>
      <concept id="1138055754698" name="jetbrains.mps.lang.smodel.structure.SNodeType" flags="in" index="3Tqbb2">
        <reference id="1138405853777" name="concept" index="ehGHo" />
      </concept>
    </language>
    <language id="ceab5195-25ea-4f22-9b92-103b95ca8c0c" name="jetbrains.mps.lang.core">
      <concept id="1169194658468" name="jetbrains.mps.lang.core.structure.INamedConcept" flags="ng" index="TrEIO">
        <property id="1169194664001" name="name" index="TrG5h" />
      </concept>
    </language>
    <language id="83888646-71ce-4f1c-9c53-c54016f6ad4f" name="jetbrains.mps.baseLanguage.collections">
      <concept id="1151688443754" name="jetbrains.mps.baseLanguage.collections.structure.ListType" flags="in" index="_YKpA">
        <child id="1151688676805" name="elementType" index="_ZDj9" />
      </concept>
      <concept id="1237721394592" name="jetbrains.mps.baseLanguage.collections.structure.AbstractContainerCreator" flags="nn" index="HWqM0">
        <child id="1237721435808" name="initValue" index="HW$Y0" />
        <child id="1237721435807" name="elementType" index="HW$YZ" />
      </concept>
      <concept id="1160600644654" name="jetbrains.mps.baseLanguage.collections.structure.ListCreatorWithInit" flags="nn" index="Tc6Ow" />
    </language>
  </registry>
  <node concept="13h7C7" id="291CjQFhF9O">
    <ref role="13h7C2" to="a1gu:2ytFvC$HnDh" resolve="TransformationMenuPart_Intention" />
    <node concept="13hLZK" id="291CjQFhF9P" role="13h7CW">
      <node concept="3clFbS" id="291CjQFhF9Q" role="2VODD2" />
    </node>
    <node concept="13i0hz" id="291CjQFhF9Z" role="13h7CS">
      <property role="13i0iv" value="false" />
      <property role="13i0it" value="false" />
      <property role="TrG5h" value="getAdditionalFeatureParameters" />
      <ref role="13i0hy" to="tpcb:6kJcyCQ_bk0" resolve="getAdditionalFeatureParameters" />
      <node concept="3Tm1VV" id="291CjQFhFa0" role="1B3o_S" />
      <node concept="3clFbS" id="291CjQFhFag" role="3clF47">
        <node concept="3cpWs6" id="291CjQFhFhg" role="3cqZAp">
          <node concept="2ShNRf" id="291CjQFhFm0" role="3cqZAk">
            <node concept="Tc6Ow" id="291CjQFhGo_" role="2ShVmc">
              <node concept="3bZ5Sz" id="291CjQFhGDX" role="HW$YZ">
                <ref role="3bZ5Sy" to="tpee:g76ryKb" resolve="ConceptFunctionParameter" />
              </node>
              <node concept="35c_gC" id="291CjQFhJEr" role="HW$Y0">
                <ref role="35c_gD" to="a1gu:291CjQFhGND" resolve="QueryFunctionParameter_IntentionExecutable" />
              </node>
            </node>
          </node>
        </node>
      </node>
      <node concept="_YKpA" id="291CjQFhFah" role="3clF45">
        <node concept="3bZ5Sz" id="291CjQFhFai" role="_ZDj9">
          <ref role="3bZ5Sy" to="tpee:g76ryKb" resolve="ConceptFunctionParameter" />
        </node>
      </node>
    </node>
  </node>
  <node concept="13h7C7" id="291CjQFhGNE">
    <ref role="13h7C2" to="a1gu:291CjQFhGND" resolve="QueryFunctionParameter_IntentionExecutable" />
    <node concept="13hLZK" id="291CjQFhGNF" role="13h7CW">
      <node concept="3clFbS" id="291CjQFhGNG" role="2VODD2" />
    </node>
    <node concept="13i0hz" id="291CjQFhGNP" role="13h7CS">
      <property role="TrG5h" value="getType" />
      <property role="13i0it" value="false" />
      <property role="13i0iv" value="false" />
      <ref role="13i0hy" to="tpek:27DJnJtIQ9C" resolve="getType" />
      <node concept="3Tm1VV" id="291CjQFhGNQ" role="1B3o_S" />
      <node concept="3clFbS" id="291CjQFhGNV" role="3clF47">
        <node concept="3clFbF" id="291CjQFhGYM" role="3cqZAp">
          <node concept="2c44tf" id="291CjQFhGYC" role="3clFbG">
            <node concept="3uibUv" id="291CjQFhH3m" role="2c44tc">
              <ref role="3uigEE" to="91lp:~IntentionExecutable" resolve="IntentionExecutable" />
            </node>
          </node>
        </node>
      </node>
      <node concept="3Tqbb2" id="291CjQFhGNW" role="3clF45">
        <ref role="ehGHo" to="tpee:fz3vP1H" resolve="Type" />
      </node>
    </node>
  </node>
</model>

