<?xml version="1.0" encoding="UTF-8"?>
<model ref="r:b45707fc-ff12-4ef7-8bef-69287f7e33f2(jetbrains.mps.baseLanguage.checkedDots.generator.template.main@generator)">
  <persistence version="9" />
  <languages>
    <use id="83888646-71ce-4f1c-9c53-c54016f6ad4f" name="jetbrains.mps.baseLanguage.collections" version="0" />
    <use id="df345b11-b8c7-4213-ac66-48d2a9b75d88" name="jetbrains.mps.baseLanguageInternal" version="0" />
    <use id="b401a680-8325-4110-8fd3-84331ff25bef" name="jetbrains.mps.lang.generator" version="0" />
    <use id="d7706f63-9be2-479c-a3da-ae92af1e64d5" name="jetbrains.mps.lang.generator.generationContext" version="0" />
    <use id="3a13115c-633c-4c5c-bbcc-75c4219e9555" name="jetbrains.mps.lang.quotation" version="0" />
    <use id="7a5dda62-9140-4668-ab76-d5ed1746f2b2" name="jetbrains.mps.lang.typesystem" version="0" />
    <use id="ceab5195-25ea-4f22-9b92-103b95ca8c0c" name="jetbrains.mps.lang.core" version="1" />
    <use id="7866978e-a0f0-4cc7-81bc-4d213d9375e1" name="jetbrains.mps.lang.smodel" version="4" />
    <use id="f3061a53-9226-4cc5-a443-f952ceaf5816" name="jetbrains.mps.baseLanguage" version="4" />
    <devkit ref="fbc25dd2-5da4-483a-8b19-70928e1b62d7(jetbrains.mps.devkit.general-purpose)" />
  </languages>
  <imports>
    <import index="pxpg" ref="r:5a550369-d6d9-4c89-a89b-1bb748dc20b3(jetbrains.mps.baseLanguage.checkedDots.structure)" />
    <import index="tpee" ref="r:00000000-0000-4000-0000-011c895902ca(jetbrains.mps.baseLanguage.structure)" />
    <import index="wyt6" ref="6354ebe7-c22a-4a0f-ac54-50b52ab9b065/java:java.lang(JDK/)" />
    <import index="w1kc" ref="6ed54515-acc8-4d1e-a16c-9fd6cfe951ea/java:jetbrains.mps.smodel(MPS.Core/)" />
    <import index="unno" ref="r:61e3d524-8c49-4491-b5e3-f6d6e9364527(jetbrains.mps.util)" />
    <import index="eqq4" ref="r:4f21a85f-2360-4902-a7db-0bcdaedbbb5c(jetbrains.mps.baseLanguage.checkedDots.behavior)" />
    <import index="tpek" ref="r:00000000-0000-4000-0000-011c895902c0(jetbrains.mps.baseLanguage.behavior)" />
    <import index="33ny" ref="6354ebe7-c22a-4a0f-ac54-50b52ab9b065/java:java.util(JDK/)" implicit="true" />
    <import index="tpck" ref="r:00000000-0000-4000-0000-011c89590288(jetbrains.mps.lang.core.structure)" implicit="true" />
  </imports>
  <registry>
    <language id="f3061a53-9226-4cc5-a443-f952ceaf5816" name="jetbrains.mps.baseLanguage">
      <concept id="1082485599095" name="jetbrains.mps.baseLanguage.structure.BlockStatement" flags="nn" index="9aQIb">
        <child id="1082485599096" name="statements" index="9aQI4" />
      </concept>
      <concept id="1215693861676" name="jetbrains.mps.baseLanguage.structure.BaseAssignmentExpression" flags="nn" index="d038R">
        <child id="1068498886297" name="rValue" index="37vLTx" />
        <child id="1068498886295" name="lValue" index="37vLTJ" />
      </concept>
      <concept id="1202948039474" name="jetbrains.mps.baseLanguage.structure.InstanceMethodCallOperation" flags="nn" index="liA8E" />
      <concept id="1197027756228" name="jetbrains.mps.baseLanguage.structure.DotExpression" flags="nn" index="2OqwBi">
        <child id="1197027771414" name="operand" index="2Oq$k0" />
        <child id="1197027833540" name="operation" index="2OqNvi" />
      </concept>
      <concept id="1145552977093" name="jetbrains.mps.baseLanguage.structure.GenericNewExpression" flags="nn" index="2ShNRf">
        <child id="1145553007750" name="creator" index="2ShVmc" />
      </concept>
      <concept id="1137021947720" name="jetbrains.mps.baseLanguage.structure.ConceptFunction" flags="in" index="2VMwT0">
        <child id="1137022507850" name="body" index="2VODD2" />
      </concept>
      <concept id="1070475354124" name="jetbrains.mps.baseLanguage.structure.ThisExpression" flags="nn" index="Xjq3P" />
      <concept id="1070475926800" name="jetbrains.mps.baseLanguage.structure.StringLiteral" flags="nn" index="Xl_RD">
        <property id="1070475926801" name="value" index="Xl_RC" />
      </concept>
      <concept id="1081236700938" name="jetbrains.mps.baseLanguage.structure.StaticMethodDeclaration" flags="ig" index="2YIFZL" />
      <concept id="1081236700937" name="jetbrains.mps.baseLanguage.structure.StaticMethodCall" flags="nn" index="2YIFZM">
        <reference id="1144433194310" name="classConcept" index="1Pybhc" />
      </concept>
      <concept id="1070534058343" name="jetbrains.mps.baseLanguage.structure.NullLiteral" flags="nn" index="10Nm6u" />
      <concept id="1068431474542" name="jetbrains.mps.baseLanguage.structure.VariableDeclaration" flags="ng" index="33uBYm">
        <child id="1068431790190" name="initializer" index="33vP2m" />
      </concept>
      <concept id="1109279763828" name="jetbrains.mps.baseLanguage.structure.TypeVariableDeclaration" flags="ng" index="16euLQ" />
      <concept id="1109279851642" name="jetbrains.mps.baseLanguage.structure.GenericDeclaration" flags="ng" index="16eOlS">
        <child id="1109279881614" name="typeVariableDeclaration" index="16eVyc" />
      </concept>
      <concept id="1068498886296" name="jetbrains.mps.baseLanguage.structure.VariableReference" flags="nn" index="37vLTw">
        <reference id="1068581517664" name="variableDeclaration" index="3cqZAo" />
      </concept>
      <concept id="1068498886292" name="jetbrains.mps.baseLanguage.structure.ParameterDeclaration" flags="ir" index="37vLTG" />
      <concept id="1068498886294" name="jetbrains.mps.baseLanguage.structure.AssignmentExpression" flags="nn" index="37vLTI" />
      <concept id="1225271177708" name="jetbrains.mps.baseLanguage.structure.StringType" flags="in" index="17QB3L" />
      <concept id="4972933694980447171" name="jetbrains.mps.baseLanguage.structure.BaseVariableDeclaration" flags="ng" index="19Szcq">
        <child id="5680397130376446158" name="type" index="1tU5fm" />
      </concept>
      <concept id="1068580123132" name="jetbrains.mps.baseLanguage.structure.BaseMethodDeclaration" flags="ng" index="3clF44">
        <child id="1164879685961" name="throwsItem" index="Sfmx6" />
        <child id="1068580123133" name="returnType" index="3clF45" />
        <child id="1068580123134" name="parameter" index="3clF46" />
        <child id="1068580123135" name="body" index="3clF47" />
      </concept>
      <concept id="1068580123165" name="jetbrains.mps.baseLanguage.structure.InstanceMethodDeclaration" flags="ig" index="3clFb_" />
      <concept id="1068580123152" name="jetbrains.mps.baseLanguage.structure.EqualsExpression" flags="nn" index="3clFbC" />
      <concept id="1068580123155" name="jetbrains.mps.baseLanguage.structure.ExpressionStatement" flags="nn" index="3clFbF">
        <child id="1068580123156" name="expression" index="3clFbG" />
      </concept>
      <concept id="1068580123157" name="jetbrains.mps.baseLanguage.structure.Statement" flags="nn" index="3clFbH" />
      <concept id="1068580123159" name="jetbrains.mps.baseLanguage.structure.IfStatement" flags="nn" index="3clFbJ">
        <child id="1082485599094" name="ifFalseStatement" index="9aQIa" />
        <child id="1068580123160" name="condition" index="3clFbw" />
        <child id="1068580123161" name="ifTrue" index="3clFbx" />
      </concept>
      <concept id="1068580123136" name="jetbrains.mps.baseLanguage.structure.StatementList" flags="sn" stub="5293379017992965193" index="3clFbS">
        <child id="1068581517665" name="statement" index="3cqZAp" />
      </concept>
      <concept id="1068580123137" name="jetbrains.mps.baseLanguage.structure.BooleanConstant" flags="nn" index="3clFbT">
        <property id="1068580123138" name="value" index="3clFbU" />
      </concept>
      <concept id="1068580320020" name="jetbrains.mps.baseLanguage.structure.IntegerConstant" flags="nn" index="3cmrfG">
        <property id="1068580320021" name="value" index="3cmrfH" />
      </concept>
      <concept id="1068581242878" name="jetbrains.mps.baseLanguage.structure.ReturnStatement" flags="nn" index="3cpWs6">
        <child id="1068581517676" name="expression" index="3cqZAk" />
      </concept>
      <concept id="1068581242864" name="jetbrains.mps.baseLanguage.structure.LocalVariableDeclarationStatement" flags="nn" index="3cpWs8">
        <child id="1068581242865" name="localVariableDeclaration" index="3cpWs9" />
      </concept>
      <concept id="1068581242863" name="jetbrains.mps.baseLanguage.structure.LocalVariableDeclaration" flags="nr" index="3cpWsn" />
      <concept id="1068581517677" name="jetbrains.mps.baseLanguage.structure.VoidType" flags="in" index="3cqZAl" />
      <concept id="1081516740877" name="jetbrains.mps.baseLanguage.structure.NotExpression" flags="nn" index="3fqX7Q">
        <child id="1081516765348" name="expression" index="3fr31v" />
      </concept>
      <concept id="1204053956946" name="jetbrains.mps.baseLanguage.structure.IMethodCall" flags="ng" index="1ndlxa">
        <reference id="1068499141037" name="baseMethodDeclaration" index="37wK5l" />
        <child id="1068499141038" name="actualArgument" index="37wK5m" />
      </concept>
      <concept id="1107535904670" name="jetbrains.mps.baseLanguage.structure.ClassifierType" flags="in" index="3uibUv">
        <reference id="1107535924139" name="classifier" index="3uigEE" />
      </concept>
      <concept id="1081773326031" name="jetbrains.mps.baseLanguage.structure.BinaryOperation" flags="nn" index="3uHJSO">
        <child id="1081773367579" name="rightExpression" index="3uHU7w" />
        <child id="1081773367580" name="leftExpression" index="3uHU7B" />
      </concept>
      <concept id="1073239437375" name="jetbrains.mps.baseLanguage.structure.NotEqualsExpression" flags="nn" index="3y3z36" />
      <concept id="1178549954367" name="jetbrains.mps.baseLanguage.structure.IVisible" flags="ng" index="1B3ioH">
        <child id="1178549979242" name="visibility" index="1B3o_S" />
      </concept>
      <concept id="6329021646629104957" name="jetbrains.mps.baseLanguage.structure.TextCommentPart" flags="nn" index="3SKdUq">
        <property id="6329021646629104958" name="text" index="3SKdUp" />
      </concept>
      <concept id="6329021646629104954" name="jetbrains.mps.baseLanguage.structure.SingleLineComment" flags="nn" index="3SKdUt">
        <child id="6329021646629175155" name="commentPart" index="3SKWNk" />
      </concept>
      <concept id="1146644602865" name="jetbrains.mps.baseLanguage.structure.PublicVisibility" flags="nn" index="3Tm1VV" />
      <concept id="1146644623116" name="jetbrains.mps.baseLanguage.structure.PrivateVisibility" flags="nn" index="3Tm6S6" />
      <concept id="1080120340718" name="jetbrains.mps.baseLanguage.structure.AndExpression" flags="nn" index="1Wc70l" />
    </language>
    <language id="b401a680-8325-4110-8fd3-84331ff25bef" name="jetbrains.mps.lang.generator">
      <concept id="1114706874351" name="jetbrains.mps.lang.generator.structure.CopySrcNodeMacro" flags="ln" index="29HgVG">
        <child id="1168024447342" name="sourceNodeQuery" index="3NFExx" />
      </concept>
      <concept id="7830515785164762753" name="jetbrains.mps.lang.generator.structure.MappingConfiguration_Condition" flags="in" index="avzCv" />
      <concept id="1114729360583" name="jetbrains.mps.lang.generator.structure.CopySrcListMacro" flags="ln" index="2b32R4">
        <child id="1168278589236" name="sourceNodesQuery" index="2P8S$" />
      </concept>
      <concept id="1095416546421" name="jetbrains.mps.lang.generator.structure.MappingConfiguration" flags="ig" index="bUwia">
        <child id="7830515785164764091" name="condition" index="avys_" />
        <child id="1200911492601" name="mappingLabel" index="2rTMjI" />
        <child id="1167328349397" name="reductionMappingRule" index="3acgRq" />
      </concept>
      <concept id="1177093525992" name="jetbrains.mps.lang.generator.structure.InlineTemplate_RuleConsequence" flags="lg" index="gft3U">
        <child id="1177093586806" name="templateNode" index="gfFT$" />
      </concept>
      <concept id="1168559333462" name="jetbrains.mps.lang.generator.structure.TemplateDeclarationReference" flags="ln" index="j$656" />
      <concept id="1112730859144" name="jetbrains.mps.lang.generator.structure.TemplateSwitch" flags="ig" index="jVnub">
        <child id="1167340453568" name="reductionMappingRule" index="3aUrZf" />
      </concept>
      <concept id="1095672379244" name="jetbrains.mps.lang.generator.structure.TemplateFragment" flags="ng" index="raruj" />
      <concept id="1200911316486" name="jetbrains.mps.lang.generator.structure.MappingLabelDeclaration" flags="lg" index="2rT7sh">
        <reference id="1200911342686" name="sourceConcept" index="2rTdP9" />
        <reference id="1200913004646" name="targetConcept" index="2rZz_L" />
      </concept>
      <concept id="1722980698497626400" name="jetbrains.mps.lang.generator.structure.ITemplateCall" flags="ng" index="v9R3L">
        <reference id="1722980698497626483" name="template" index="v9R2y" />
      </concept>
      <concept id="1167168920554" name="jetbrains.mps.lang.generator.structure.BaseMappingRule_Condition" flags="in" index="30G5F_" />
      <concept id="1167169188348" name="jetbrains.mps.lang.generator.structure.TemplateFunctionParameter_sourceNode" flags="nn" index="30H73N" />
      <concept id="1167169308231" name="jetbrains.mps.lang.generator.structure.BaseMappingRule" flags="ng" index="30H$t8">
        <property id="1167272244852" name="applyToConceptInheritors" index="36QftV" />
        <reference id="1167169349424" name="applicableConcept" index="30HIoZ" />
        <child id="1167169362365" name="conditionFunction" index="30HLyM" />
      </concept>
      <concept id="1092059087312" name="jetbrains.mps.lang.generator.structure.TemplateDeclaration" flags="ig" index="13MO4I">
        <reference id="1168285871518" name="applicableConcept" index="3gUMe" />
        <child id="1092060348987" name="contentNode" index="13RCb5" />
      </concept>
      <concept id="1087833241328" name="jetbrains.mps.lang.generator.structure.PropertyMacro" flags="ln" index="17Uvod">
        <child id="1167756362303" name="propertyValueFunction" index="3zH0cK" />
      </concept>
      <concept id="1087833466690" name="jetbrains.mps.lang.generator.structure.NodeMacro" flags="lg" index="17VmuZ">
        <reference id="1200912223215" name="mappingLabel" index="2rW$FS" />
      </concept>
      <concept id="1167327847730" name="jetbrains.mps.lang.generator.structure.Reduction_MappingRule" flags="lg" index="3aamgX">
        <child id="1169672767469" name="ruleConsequence" index="1lVwrX" />
      </concept>
      <concept id="982871510068000147" name="jetbrains.mps.lang.generator.structure.TemplateSwitchMacro" flags="lg" index="1sPUBX">
        <child id="982871510068000158" name="sourceNodeQuery" index="1sPUBK" />
      </concept>
      <concept id="1167756080639" name="jetbrains.mps.lang.generator.structure.PropertyMacro_GetPropertyValue" flags="in" index="3zFVjK" />
      <concept id="1167770111131" name="jetbrains.mps.lang.generator.structure.ReferenceMacro_GetReferent" flags="in" index="3$xsQk" />
      <concept id="1167945743726" name="jetbrains.mps.lang.generator.structure.IfMacro_Condition" flags="in" index="3IZrLx" />
      <concept id="1167951910403" name="jetbrains.mps.lang.generator.structure.SourceSubstituteMacro_SourceNodesQuery" flags="in" index="3JmXsc" />
      <concept id="1168024337012" name="jetbrains.mps.lang.generator.structure.SourceSubstituteMacro_SourceNodeQuery" flags="in" index="3NFfHV" />
      <concept id="1118773211870" name="jetbrains.mps.lang.generator.structure.IfMacro" flags="ln" index="1W57fq">
        <child id="1194989344771" name="alternativeConsequence" index="UU_$l" />
        <child id="1167945861827" name="conditionFunction" index="3IZSJc" />
      </concept>
      <concept id="1118786554307" name="jetbrains.mps.lang.generator.structure.LoopMacro" flags="ln" index="1WS0z7">
        <child id="1167952069335" name="sourceNodesQuery" index="3Jn$fo" />
      </concept>
      <concept id="1088761943574" name="jetbrains.mps.lang.generator.structure.ReferenceMacro" flags="ln" index="1ZhdrF">
        <child id="1167770376702" name="referentFunction" index="3$ytzL" />
      </concept>
    </language>
    <language id="d7706f63-9be2-479c-a3da-ae92af1e64d5" name="jetbrains.mps.lang.generator.generationContext">
      <concept id="1218047638031" name="jetbrains.mps.lang.generator.generationContext.structure.GenerationContextOp_CreateUniqueName" flags="nn" index="2piZGk">
        <child id="1218047638032" name="baseName" index="2piZGb" />
        <child id="1218049772449" name="contextNode" index="2pr8EU" />
      </concept>
      <concept id="1216860049635" name="jetbrains.mps.lang.generator.generationContext.structure.TemplateFunctionParameter_generationContext" flags="nn" index="1iwH7S" />
      <concept id="1217004708011" name="jetbrains.mps.lang.generator.generationContext.structure.GenerationContextOp_GetInputModel" flags="nn" index="1r8y6K" />
    </language>
    <language id="3a13115c-633c-4c5c-bbcc-75c4219e9555" name="jetbrains.mps.lang.quotation">
      <concept id="1196350785113" name="jetbrains.mps.lang.quotation.structure.Quotation" flags="nn" index="2c44tf">
        <child id="1196350785114" name="quotedNode" index="2c44tc" />
      </concept>
    </language>
    <language id="7a5dda62-9140-4668-ab76-d5ed1746f2b2" name="jetbrains.mps.lang.typesystem">
      <concept id="1176544042499" name="jetbrains.mps.lang.typesystem.structure.Node_TypeOperation" flags="nn" index="3JvlWi" />
      <concept id="1178870617262" name="jetbrains.mps.lang.typesystem.structure.CoerceExpression" flags="nn" index="1UaxmW">
        <child id="1178870894644" name="pattern" index="1Ub_4A" />
        <child id="1178870894645" name="nodeToCoerce" index="1Ub_4B" />
      </concept>
      <concept id="1174642788531" name="jetbrains.mps.lang.typesystem.structure.ConceptReference" flags="ig" index="1YaCAy">
        <reference id="1174642800329" name="concept" index="1YaFvo" />
      </concept>
    </language>
    <language id="df345b11-b8c7-4213-ac66-48d2a9b75d88" name="jetbrains.mps.baseLanguageInternal">
      <concept id="3585982959253588676" name="jetbrains.mps.baseLanguageInternal.structure.ExtractStaticMethodExpression" flags="nn" index="2Tav94">
        <child id="3585982959253588677" name="inner" index="2Tav95" />
        <child id="3585982959253588678" name="method" index="2Tav96" />
      </concept>
      <concept id="3585982959253821850" name="jetbrains.mps.baseLanguageInternal.structure.ExtractStaticMethod_CallExpression" flags="nn" index="2TbA4q" />
    </language>
    <language id="7866978e-a0f0-4cc7-81bc-4d213d9375e1" name="jetbrains.mps.lang.smodel">
      <concept id="1177026924588" name="jetbrains.mps.lang.smodel.structure.RefConcept_Reference" flags="nn" index="chp4Y">
        <reference id="1177026940964" name="conceptDeclaration" index="cht4Q" />
      </concept>
      <concept id="1138411891628" name="jetbrains.mps.lang.smodel.structure.SNodeOperation" flags="nn" index="eCIE_">
        <child id="1144104376918" name="parameter" index="1xVPHs" />
      </concept>
      <concept id="1179409122411" name="jetbrains.mps.lang.smodel.structure.Node_ConceptMethodCall" flags="nn" index="2qgKlT" />
      <concept id="2396822768958367367" name="jetbrains.mps.lang.smodel.structure.AbstractTypeCastExpression" flags="nn" index="$5XWr">
        <reference id="6733348108486823428" name="concept" index="1m5ApE" />
        <child id="6733348108486823193" name="leftExpression" index="1m5AlR" />
      </concept>
      <concept id="1145404486709" name="jetbrains.mps.lang.smodel.structure.SemanticDowncastExpression" flags="nn" index="2JrnkZ">
        <child id="1145404616321" name="leftExpression" index="2JrQYb" />
      </concept>
      <concept id="1171305280644" name="jetbrains.mps.lang.smodel.structure.Node_GetDescendantsOperation" flags="nn" index="2Rf3mk" />
      <concept id="1171323947159" name="jetbrains.mps.lang.smodel.structure.Model_NodesOperation" flags="nn" index="2SmgA7">
        <child id="1758937410080001570" name="conceptArgument" index="1dBWTz" />
      </concept>
      <concept id="1171407110247" name="jetbrains.mps.lang.smodel.structure.Node_GetAncestorOperation" flags="nn" index="2Xjw5R" />
      <concept id="1139621453865" name="jetbrains.mps.lang.smodel.structure.Node_IsInstanceOfOperation" flags="nn" index="1mIQ4w">
        <child id="1177027386292" name="conceptArgument" index="cj9EA" />
      </concept>
      <concept id="1144101972840" name="jetbrains.mps.lang.smodel.structure.OperationParm_Concept" flags="ng" index="1xMEDy">
        <child id="1207343664468" name="conceptArgument" index="ri$Ld" />
      </concept>
      <concept id="1140137987495" name="jetbrains.mps.lang.smodel.structure.SNodeTypeCastExpression" flags="nn" index="1PxgMI" />
      <concept id="1138055754698" name="jetbrains.mps.lang.smodel.structure.SNodeType" flags="in" index="3Tqbb2">
        <reference id="1138405853777" name="concept" index="ehGHo" />
      </concept>
      <concept id="1138056022639" name="jetbrains.mps.lang.smodel.structure.SPropertyAccess" flags="nn" index="3TrcHB">
        <reference id="1138056395725" name="property" index="3TsBF5" />
      </concept>
      <concept id="1138056143562" name="jetbrains.mps.lang.smodel.structure.SLinkAccess" flags="nn" index="3TrEf2">
        <reference id="1138056516764" name="link" index="3Tt5mk" />
      </concept>
      <concept id="1138056282393" name="jetbrains.mps.lang.smodel.structure.SLinkListAccess" flags="nn" index="3Tsc0h">
        <reference id="1138056546658" name="link" index="3TtcxE" />
      </concept>
    </language>
    <language id="ceab5195-25ea-4f22-9b92-103b95ca8c0c" name="jetbrains.mps.lang.core">
      <concept id="1133920641626" name="jetbrains.mps.lang.core.structure.BaseConcept" flags="ng" index="2VYdi">
        <child id="5169995583184591170" name="smodelAttribute" index="lGtFl" />
      </concept>
      <concept id="3364660638048049750" name="jetbrains.mps.lang.core.structure.PropertyAttribute" flags="ng" index="A9Btg">
        <property id="1757699476691236117" name="propertyName" index="2qtEX9" />
        <property id="1341860900487648621" name="propertyId" index="P4ACc" />
      </concept>
      <concept id="3364660638048049745" name="jetbrains.mps.lang.core.structure.LinkAttribute" flags="ng" index="A9Btn">
        <property id="1757699476691236116" name="linkRole" index="2qtEX8" />
        <property id="1341860900488019036" name="linkId" index="P3scX" />
      </concept>
      <concept id="1169194658468" name="jetbrains.mps.lang.core.structure.INamedConcept" flags="ng" index="TrEIO">
        <property id="1169194664001" name="name" index="TrG5h" />
      </concept>
    </language>
    <language id="83888646-71ce-4f1c-9c53-c54016f6ad4f" name="jetbrains.mps.baseLanguage.collections">
      <concept id="1224414427926" name="jetbrains.mps.baseLanguage.collections.structure.SequenceCreator" flags="nn" index="kMnCb">
        <child id="1224414456414" name="elementType" index="kMuH3" />
      </concept>
    </language>
  </registry>
  <node concept="bUwia" id="3WzOBwA0QMc">
    <property role="TrG5h" value="main" />
    <node concept="2rT7sh" id="6QWOVrL0DA8" role="2rTMjI">
      <property role="TrG5h" value="param" />
      <ref role="2rTdP9" to="pxpg:3ysSjmiKK8V" resolve="CheckedDotExpression" />
      <ref role="2rZz_L" to="tpee:fz7vLUo" resolve="VariableReference" />
    </node>
    <node concept="3aamgX" id="3WzOBwA0QMe" role="3acgRq">
      <ref role="30HIoZ" to="pxpg:3ysSjmiKK8V" resolve="CheckedDotExpression" />
      <node concept="j$656" id="2lQj84YZGEr" role="1lVwrX">
        <ref role="v9R2y" node="3WzOBwA0QMg" resolve="reduce_CheckedDotExpression" />
      </node>
    </node>
    <node concept="3aamgX" id="20K_C3dStdR" role="3acgRq">
      <property role="36QftV" value="true" />
      <ref role="30HIoZ" to="tpee:6LFqxSRBTg4" resolve="LocalMethodCall" />
      <node concept="30G5F_" id="20K_C3dStYN" role="30HLyM">
        <node concept="3clFbS" id="20K_C3dStYO" role="2VODD2">
          <node concept="3clFbJ" id="M1_F_cf17E" role="3cqZAp">
            <node concept="3clFbS" id="M1_F_cf17F" role="3clFbx">
              <node concept="3cpWs6" id="M1_F_cf17G" role="3cqZAp">
                <node concept="3clFbT" id="M1_F_cf17H" role="3cqZAk">
                  <property role="3clFbU" value="false" />
                </node>
              </node>
            </node>
            <node concept="3fqX7Q" id="M1_F_cf17I" role="3clFbw">
              <node concept="2OqwBi" id="M1_F_cf17J" role="3fr31v">
                <node concept="1mIQ4w" id="M1_F_cf17K" role="2OqNvi">
                  <node concept="chp4Y" id="M1_F_cf17L" role="cj9EA">
                    <ref role="cht4Q" to="tpee:fzclF8t" resolve="InstanceMethodDeclaration" />
                  </node>
                </node>
                <node concept="2OqwBi" id="M1_F_cf17M" role="2Oq$k0">
                  <node concept="3TrEf2" id="M1_F_cf17N" role="2OqNvi">
                    <ref role="3Tt5mk" to="tpee:6LFqxSRBTg7" />
                  </node>
                  <node concept="30H73N" id="M1_F_cf17O" role="2Oq$k0" />
                </node>
              </node>
            </node>
          </node>
          <node concept="3cpWs8" id="63kkXYZ987s" role="3cqZAp">
            <node concept="3cpWsn" id="63kkXYZ987t" role="3cpWs9">
              <property role="TrG5h" value="checkedDot" />
              <node concept="3Tqbb2" id="63kkXYZ987u" role="1tU5fm">
                <ref role="ehGHo" to="pxpg:3ysSjmiKK8V" resolve="CheckedDotExpression" />
              </node>
              <node concept="2OqwBi" id="63kkXYZ987v" role="33vP2m">
                <node concept="30H73N" id="63kkXYZ987w" role="2Oq$k0" />
                <node concept="2Xjw5R" id="63kkXYZ987x" role="2OqNvi">
                  <node concept="1xMEDy" id="63kkXYZ987y" role="1xVPHs">
                    <node concept="chp4Y" id="63kkXYZ987z" role="ri$Ld">
                      <ref role="cht4Q" to="pxpg:3ysSjmiKK8V" resolve="CheckedDotExpression" />
                    </node>
                  </node>
                </node>
              </node>
            </node>
          </node>
          <node concept="3clFbF" id="20K_C3dSugX" role="3cqZAp">
            <node concept="1Wc70l" id="63kkXYZ9hjs" role="3clFbG">
              <node concept="2YIFZM" id="4PBcmcw6mSK" role="3uHU7w">
                <ref role="37wK5l" to="unno:1NYD3hytmTb" resolve="isAncestor" />
                <ref role="1Pybhc" to="unno:1NYD3hytmTa" resolve="SNodeOperations" />
                <node concept="2JrnkZ" id="4PBcmcw6mSL" role="37wK5m">
                  <node concept="2OqwBi" id="4PBcmcw6mSM" role="2JrQYb">
                    <node concept="37vLTw" id="3GM_nagTtg2" role="2Oq$k0">
                      <ref role="3cqZAo" node="63kkXYZ987t" resolve="checkedDot" />
                    </node>
                    <node concept="3TrEf2" id="4PBcmcw6mSO" role="2OqNvi">
                      <ref role="3Tt5mk" to="tpee:hqOqNr4" />
                    </node>
                  </node>
                </node>
                <node concept="30H73N" id="4PBcmcw6mSP" role="37wK5m" />
              </node>
              <node concept="1Wc70l" id="63kkXYZ98Wi" role="3uHU7B">
                <node concept="3y3z36" id="20K_C3dSCs3" role="3uHU7B">
                  <node concept="37vLTw" id="3GM_nagTAPg" role="3uHU7B">
                    <ref role="3cqZAo" node="63kkXYZ987t" resolve="checkedDot" />
                  </node>
                  <node concept="10Nm6u" id="20K_C3dSCs6" role="3uHU7w" />
                </node>
                <node concept="3y3z36" id="63kkXYZ9hjo" role="3uHU7w">
                  <node concept="2OqwBi" id="63kkXYZ98Wm" role="3uHU7B">
                    <node concept="37vLTw" id="3GM_nagTtU6" role="2Oq$k0">
                      <ref role="3cqZAo" node="63kkXYZ987t" resolve="checkedDot" />
                    </node>
                    <node concept="3TrEf2" id="63kkXYZ9hjn" role="2OqNvi">
                      <ref role="3Tt5mk" to="tpee:hqOqNr4" />
                    </node>
                  </node>
                  <node concept="10Nm6u" id="63kkXYZ9hjr" role="3uHU7w" />
                </node>
              </node>
            </node>
          </node>
        </node>
      </node>
      <node concept="j$656" id="20K_C3dSE$m" role="1lVwrX">
        <ref role="v9R2y" node="20K_C3dSCsa" resolve="reduce_LocalInstanceMethodCall" />
      </node>
    </node>
    <node concept="3aamgX" id="3oO$bQl6duo" role="3acgRq">
      <ref role="30HIoZ" to="tpee:f$Xjq0c" resolve="ThisExpression" />
      <node concept="j$656" id="3oO$bQl6du$" role="1lVwrX">
        <ref role="v9R2y" node="3oO$bQl65Fw" resolve="reduce_This" />
      </node>
      <node concept="30G5F_" id="3oO$bQl6duq" role="30HLyM">
        <node concept="3clFbS" id="3oO$bQl6dur" role="2VODD2">
          <node concept="3cpWs8" id="59eV6Ub0vVl" role="3cqZAp">
            <node concept="3cpWsn" id="59eV6Ub0vVm" role="3cpWs9">
              <property role="TrG5h" value="checkedDot" />
              <node concept="3Tqbb2" id="59eV6Ub0vVn" role="1tU5fm">
                <ref role="ehGHo" to="pxpg:3ysSjmiKK8V" resolve="CheckedDotExpression" />
              </node>
              <node concept="2OqwBi" id="59eV6Ub0vVo" role="33vP2m">
                <node concept="30H73N" id="59eV6Ub0vVp" role="2Oq$k0" />
                <node concept="2Xjw5R" id="59eV6Ub0vVq" role="2OqNvi">
                  <node concept="1xMEDy" id="59eV6Ub0vVr" role="1xVPHs">
                    <node concept="chp4Y" id="59eV6Ub0vVs" role="ri$Ld">
                      <ref role="cht4Q" to="pxpg:3ysSjmiKK8V" resolve="CheckedDotExpression" />
                    </node>
                  </node>
                </node>
              </node>
            </node>
          </node>
          <node concept="3clFbF" id="59eV6Ub0vVT" role="3cqZAp">
            <node concept="1Wc70l" id="59eV6Ub0zuT" role="3clFbG">
              <node concept="2YIFZM" id="4PBcmcw6mSE" role="3uHU7w">
                <ref role="37wK5l" to="unno:1NYD3hytmTb" resolve="isAncestor" />
                <ref role="1Pybhc" to="unno:1NYD3hytmTa" resolve="SNodeOperations" />
                <node concept="2JrnkZ" id="4PBcmcw6mSF" role="37wK5m">
                  <node concept="2OqwBi" id="4PBcmcw6mSG" role="2JrQYb">
                    <node concept="37vLTw" id="3GM_nagTAcV" role="2Oq$k0">
                      <ref role="3cqZAo" node="59eV6Ub0vVm" resolve="checkedDot" />
                    </node>
                    <node concept="3TrEf2" id="4PBcmcw6mSI" role="2OqNvi">
                      <ref role="3Tt5mk" to="tpee:hqOqNr4" />
                    </node>
                  </node>
                </node>
                <node concept="30H73N" id="4PBcmcw6mSJ" role="37wK5m" />
              </node>
              <node concept="1Wc70l" id="59eV6Ub0vVZ" role="3uHU7B">
                <node concept="3y3z36" id="59eV6Ub0vVV" role="3uHU7B">
                  <node concept="37vLTw" id="3GM_nagTr7J" role="3uHU7B">
                    <ref role="3cqZAo" node="59eV6Ub0vVm" resolve="checkedDot" />
                  </node>
                  <node concept="10Nm6u" id="59eV6Ub0vVY" role="3uHU7w" />
                </node>
                <node concept="3y3z36" id="59eV6Ub0zuP" role="3uHU7w">
                  <node concept="2OqwBi" id="59eV6Ub0zuK" role="3uHU7B">
                    <node concept="37vLTw" id="3GM_nagTxOg" role="2Oq$k0">
                      <ref role="3cqZAo" node="59eV6Ub0vVm" resolve="checkedDot" />
                    </node>
                    <node concept="3TrEf2" id="59eV6Ub0GDN" role="2OqNvi">
                      <ref role="3Tt5mk" to="tpee:hqOqNr4" />
                    </node>
                  </node>
                  <node concept="10Nm6u" id="59eV6Ub0zuS" role="3uHU7w" />
                </node>
              </node>
            </node>
          </node>
        </node>
      </node>
    </node>
    <node concept="2rT7sh" id="20K_C3dSCtt" role="2rTMjI">
      <property role="TrG5h" value="thisLabel" />
      <ref role="2rZz_L" to="tpee:fz7vLUk" resolve="ParameterDeclaration" />
    </node>
    <node concept="avzCv" id="5A5fOV$LOla" role="avys_">
      <node concept="3clFbS" id="5A5fOV$LOlb" role="2VODD2">
        <node concept="3clFbF" id="5A5fOV$LOVb" role="3cqZAp">
          <node concept="3fqX7Q" id="5A5fOV$MhWY" role="3clFbG">
            <node concept="2OqwBi" id="5A5fOV$MhX0" role="3fr31v">
              <node concept="2OqwBi" id="5A5fOV$MhX1" role="2Oq$k0">
                <node concept="2OqwBi" id="5A5fOV$MhX2" role="2Oq$k0">
                  <node concept="1iwH7S" id="5A5fOV$MhX3" role="2Oq$k0" />
                  <node concept="1r8y6K" id="5A5fOV$MhX4" role="2OqNvi" />
                </node>
                <node concept="2SmgA7" id="5A5fOV$MhX5" role="2OqNvi">
                  <node concept="chp4Y" id="1jixkkC_WIT" role="1dBWTz">
                    <ref role="cht4Q" to="pxpg:3ysSjmiKK8V" resolve="CheckedDotExpression" />
                  </node>
                </node>
              </node>
              <node concept="liA8E" id="5A5fOV$MhX6" role="2OqNvi">
                <ref role="37wK5l" to="33ny:~List.isEmpty():boolean" resolve="isEmpty" />
              </node>
            </node>
          </node>
        </node>
      </node>
    </node>
  </node>
  <node concept="13MO4I" id="3WzOBwA0QMg">
    <property role="TrG5h" value="reduce_CheckedDotExpression" />
    <ref role="3gUMe" to="pxpg:3ysSjmiKK8V" resolve="CheckedDotExpression" />
    <node concept="2Tav94" id="3WzOBwA0SzJ" role="13RCb5">
      <node concept="2YIFZL" id="3WzOBwA0SzK" role="2Tav96">
        <property role="TrG5h" value="check" />
        <node concept="3Tm6S6" id="2bpg9Ut6IqC" role="1B3o_S" />
        <node concept="3clFbS" id="3WzOBwA0SzN" role="3clF47">
          <node concept="3clFbJ" id="2Z7S13ZOEz" role="3cqZAp">
            <node concept="3clFbS" id="2Z7S13ZOE$" role="3clFbx">
              <node concept="3cpWs6" id="2Z7S13ZP0k" role="3cqZAp">
                <node concept="2OqwBi" id="2Z7S13ZP0l" role="3cqZAk">
                  <node concept="liA8E" id="2Z7S13ZP0m" role="2OqNvi">
                    <ref role="37wK5l" to="wyt6:~Object.getClass():java.lang.Class" resolve="getClass" />
                    <node concept="29HgVG" id="2Z7S13ZP0n" role="lGtFl">
                      <node concept="3NFfHV" id="2Z7S13ZP0o" role="3NFExx">
                        <node concept="3clFbS" id="2Z7S13ZP0p" role="2VODD2">
                          <node concept="3clFbF" id="2Z7S13ZP0q" role="3cqZAp">
                            <node concept="2OqwBi" id="2Z7S13ZP0r" role="3clFbG">
                              <node concept="30H73N" id="2Z7S13ZP0s" role="2Oq$k0" />
                              <node concept="3TrEf2" id="2Z7S13ZP0t" role="2OqNvi">
                                <ref role="3Tt5mk" to="tpee:hqOqNr4" />
                              </node>
                            </node>
                          </node>
                        </node>
                      </node>
                    </node>
                  </node>
                  <node concept="37vLTw" id="2BHiRxglmXO" role="2Oq$k0">
                    <ref role="3cqZAo" node="6QWOVrL0ylq" resolve="checkedDotOperand" />
                  </node>
                </node>
                <node concept="1W57fq" id="2Z7S13ZP0v" role="lGtFl">
                  <node concept="3IZrLx" id="2Z7S13ZP0w" role="3IZSJc">
                    <node concept="3clFbS" id="2Z7S13ZP0x" role="2VODD2">
                      <node concept="3clFbF" id="2Z7S13ZP0y" role="3cqZAp">
                        <node concept="3fqX7Q" id="2Z7S13ZP0z" role="3clFbG">
                          <node concept="2OqwBi" id="2Z7S13ZP0$" role="3fr31v">
                            <node concept="2OqwBi" id="2Z7S13ZP0_" role="2Oq$k0">
                              <node concept="2OqwBi" id="2Z7S13ZP0A" role="2Oq$k0">
                                <node concept="30H73N" id="2Z7S13ZP0B" role="2Oq$k0" />
                                <node concept="3TrEf2" id="2Z7S13ZP0C" role="2OqNvi">
                                  <ref role="3Tt5mk" to="tpee:hqOqNr4" />
                                </node>
                              </node>
                              <node concept="3JvlWi" id="2Z7S13ZP0D" role="2OqNvi" />
                            </node>
                            <node concept="1mIQ4w" id="2Z7S13ZP0E" role="2OqNvi">
                              <node concept="chp4Y" id="2Z7S13ZP0F" role="cj9EA">
                                <ref role="cht4Q" to="tpee:fzcqZ_H" resolve="VoidType" />
                              </node>
                            </node>
                          </node>
                        </node>
                      </node>
                    </node>
                  </node>
                  <node concept="gft3U" id="2Z7S13ZP0G" role="UU_$l">
                    <node concept="3clFbF" id="2Z7S13ZPks" role="gfFT$">
                      <node concept="2OqwBi" id="2Z7S13ZPku" role="3clFbG">
                        <node concept="37vLTw" id="2BHiRxgmb$q" role="2Oq$k0">
                          <ref role="3cqZAo" node="6QWOVrL0ylq" resolve="checkedDotOperand" />
                        </node>
                        <node concept="liA8E" id="2Z7S13ZPky" role="2OqNvi">
                          <ref role="37wK5l" to="wyt6:~Object.getClass():java.lang.Class" resolve="getClass" />
                          <node concept="29HgVG" id="2Z7S13ZPk$" role="lGtFl">
                            <node concept="3NFfHV" id="2Z7S13ZPk_" role="3NFExx">
                              <node concept="3clFbS" id="2Z7S13ZPkA" role="2VODD2">
                                <node concept="3clFbF" id="2Z7S13ZPkB" role="3cqZAp">
                                  <node concept="2OqwBi" id="2Z7S13ZPkD" role="3clFbG">
                                    <node concept="30H73N" id="2Z7S13ZPkC" role="2Oq$k0" />
                                    <node concept="3TrEf2" id="2Z7S13ZPkH" role="2OqNvi">
                                      <ref role="3Tt5mk" to="tpee:hqOqNr4" />
                                    </node>
                                  </node>
                                </node>
                              </node>
                            </node>
                          </node>
                        </node>
                      </node>
                    </node>
                  </node>
                </node>
              </node>
            </node>
            <node concept="3y3z36" id="2Z7S13ZOEC" role="3clFbw">
              <node concept="37vLTw" id="2BHiRxgheLX" role="3uHU7w">
                <ref role="3cqZAo" node="6QWOVrL0ylq" resolve="checkedDotOperand" />
              </node>
              <node concept="10Nm6u" id="2Z7S13ZOEB" role="3uHU7B" />
            </node>
          </node>
          <node concept="3cpWs6" id="2Z7S13ZGlG" role="3cqZAp">
            <node concept="10Nm6u" id="2Z7S13ZGlI" role="3cqZAk" />
            <node concept="1sPUBX" id="1WfddY$XHNP" role="lGtFl">
              <ref role="v9R2y" node="2Z7S13ZGlL" resolve="ReturnTypeSwitch" />
              <node concept="3NFfHV" id="2Z7S13ZGmk" role="1sPUBK">
                <node concept="3clFbS" id="2Z7S13ZGml" role="2VODD2">
                  <node concept="3clFbF" id="2Z7S13ZGmm" role="3cqZAp">
                    <node concept="2OqwBi" id="2Z7S13ZO3I" role="3clFbG">
                      <node concept="2OqwBi" id="2Z7S13ZGmo" role="2Oq$k0">
                        <node concept="30H73N" id="2Z7S13ZGmn" role="2Oq$k0" />
                        <node concept="3TrEf2" id="2Z7S13ZO3H" role="2OqNvi">
                          <ref role="3Tt5mk" to="tpee:hqOqNr4" />
                        </node>
                      </node>
                      <node concept="3JvlWi" id="2Z7S13ZO3M" role="2OqNvi" />
                    </node>
                  </node>
                </node>
              </node>
            </node>
          </node>
        </node>
        <node concept="3uibUv" id="3WzOBwA0S$e" role="3clF45">
          <ref role="3uigEE" to="wyt6:~Object" resolve="Object" />
          <node concept="29HgVG" id="4ycf$wDkOyq" role="lGtFl">
            <node concept="3NFfHV" id="4ycf$wDkOyr" role="3NFExx">
              <node concept="3clFbS" id="4ycf$wDkOys" role="2VODD2">
                <node concept="3cpWs8" id="yWCLcvlvsQ" role="3cqZAp">
                  <node concept="3cpWsn" id="yWCLcvlvsR" role="3cpWs9">
                    <property role="TrG5h" value="operationType" />
                    <node concept="3Tqbb2" id="yWCLcvlvsO" role="1tU5fm" />
                    <node concept="2OqwBi" id="yWCLcvlvsS" role="33vP2m">
                      <node concept="2OqwBi" id="yWCLcvlvsT" role="2Oq$k0">
                        <node concept="30H73N" id="yWCLcvlvsU" role="2Oq$k0" />
                        <node concept="3TrEf2" id="yWCLcvlvsV" role="2OqNvi">
                          <ref role="3Tt5mk" to="tpee:hqOqNr4" />
                        </node>
                      </node>
                      <node concept="3JvlWi" id="yWCLcvlvsW" role="2OqNvi" />
                    </node>
                  </node>
                </node>
                <node concept="3clFbJ" id="yWCLcvlH_j" role="3cqZAp">
                  <node concept="3clFbS" id="yWCLcvlH_l" role="3clFbx">
                    <node concept="3SKdUt" id="yWCLcvlUkl" role="3cqZAp">
                      <node concept="3SKdUq" id="yWCLcvlUkn" role="3SKWNk">
                        <property role="3SKdUp" value="I don't want void return type to become java.lang.Void, nor do I need extra boxing for boolean/int values" />
                      </node>
                    </node>
                    <node concept="3SKdUt" id="yWCLcvmXlR" role="3cqZAp">
                      <node concept="3SKdUq" id="yWCLcvmXlT" role="3SKWNk">
                        <property role="3SKdUp" value="I don't do the same for method arguments, however, as expect a lot of primitives as operand or variable references." />
                      </node>
                    </node>
                    <node concept="3cpWs6" id="yWCLcvlOzn" role="3cqZAp">
                      <node concept="37vLTw" id="yWCLcvlRjt" role="3cqZAk">
                        <ref role="3cqZAo" node="yWCLcvlvsR" resolve="operationType" />
                      </node>
                    </node>
                  </node>
                  <node concept="2OqwBi" id="yWCLcvlK8b" role="3clFbw">
                    <node concept="37vLTw" id="yWCLcvlIVR" role="2Oq$k0">
                      <ref role="3cqZAo" node="yWCLcvlvsR" resolve="operationType" />
                    </node>
                    <node concept="1mIQ4w" id="yWCLcvlLBe" role="2OqNvi">
                      <node concept="chp4Y" id="yWCLcvlN5x" role="cj9EA">
                        <ref role="cht4Q" to="tpee:gWaQbR$" resolve="PrimitiveType" />
                      </node>
                    </node>
                  </node>
                </node>
                <node concept="3clFbJ" id="23AXNbFSwcM" role="3cqZAp">
                  <node concept="3clFbS" id="23AXNbFSwcO" role="3clFbx">
                    <node concept="3SKdUt" id="23AXNbFSJOT" role="3cqZAp">
                      <node concept="3SKdUq" id="23AXNbFSJOV" role="3SKWNk">
                        <property role="3SKdUp" value="coerce(AnAction[] as ClassifierType) gives Serializable." />
                      </node>
                    </node>
                    <node concept="3SKdUt" id="23AXNbFTEqA" role="3cqZAp">
                      <node concept="3SKdUq" id="23AXNbFTEqC" role="3SKWNk">
                        <property role="3SKdUp" value="This gonna fail once we face array of smth that is not ClassifierType (e.g. concept&lt;&gt;[])" />
                      </node>
                    </node>
                    <node concept="3SKdUt" id="23AXNbFVdMV" role="3cqZAp">
                      <node concept="3SKdUq" id="23AXNbFVdMX" role="3SKWNk">
                        <property role="3SKdUp" value="and our only hope is that proper generator shows up afterwards." />
                      </node>
                    </node>
                    <node concept="3cpWs6" id="23AXNbFSCI8" role="3cqZAp">
                      <node concept="37vLTw" id="23AXNbFSEyZ" role="3cqZAk">
                        <ref role="3cqZAo" node="yWCLcvlvsR" resolve="operationType" />
                      </node>
                    </node>
                  </node>
                  <node concept="2OqwBi" id="23AXNbFSzo9" role="3clFbw">
                    <node concept="37vLTw" id="23AXNbFSxTl" role="2Oq$k0">
                      <ref role="3cqZAo" node="yWCLcvlvsR" resolve="operationType" />
                    </node>
                    <node concept="1mIQ4w" id="23AXNbFS_bm" role="2OqNvi">
                      <node concept="chp4Y" id="23AXNbFSAWW" role="cj9EA">
                        <ref role="cht4Q" to="tpee:f_0Q1BR" resolve="ArrayType" />
                      </node>
                    </node>
                  </node>
                </node>
                <node concept="3clFbF" id="yWCLcviOSb" role="3cqZAp">
                  <node concept="1UaxmW" id="yWCLcviOS8" role="3clFbG">
                    <node concept="1YaCAy" id="yWCLcviVKQ" role="1Ub_4A">
                      <property role="TrG5h" value="ct" />
                      <ref role="1YaFvo" to="tpee:g7uibYu" resolve="ClassifierType" />
                    </node>
                    <node concept="37vLTw" id="yWCLcvlvsX" role="1Ub_4B">
                      <ref role="3cqZAo" node="yWCLcvlvsR" resolve="operationType" />
                    </node>
                  </node>
                </node>
              </node>
            </node>
          </node>
        </node>
        <node concept="17Uvod" id="3WzOBwA0XSD" role="lGtFl">
          <property role="2qtEX9" value="name" />
          <property role="P4ACc" value="ceab5195-25ea-4f22-9b92-103b95ca8c0c/1169194658468/1169194664001" />
          <node concept="3zFVjK" id="3WzOBwA0XSE" role="3zH0cK">
            <node concept="3clFbS" id="3WzOBwA0XSF" role="2VODD2">
              <node concept="3clFbF" id="3WzOBwA0XSG" role="3cqZAp">
                <node concept="2OqwBi" id="DK0fEQD7GN" role="3clFbG">
                  <node concept="1iwH7S" id="DK0fEQD7GM" role="2Oq$k0" />
                  <node concept="2piZGk" id="DK0fEQD7GR" role="2OqNvi">
                    <node concept="Xl_RD" id="DK0fEQD9u6" role="2piZGb">
                      <property role="Xl_RC" value="check" />
                    </node>
                    <node concept="30H73N" id="DK0fEQD9u7" role="2pr8EU" />
                  </node>
                </node>
              </node>
            </node>
          </node>
        </node>
        <node concept="37vLTG" id="6QWOVrL0ylq" role="3clF46">
          <property role="TrG5h" value="checkedDotOperand" />
          <node concept="3uibUv" id="6QWOVrL0ylr" role="1tU5fm">
            <ref role="3uigEE" to="wyt6:~Object" resolve="Object" />
            <node concept="29HgVG" id="6QWOVrL0D_T" role="lGtFl">
              <ref role="2rW$FS" node="20K_C3dSCtt" resolve="thisLabel" />
              <node concept="3NFfHV" id="6QWOVrL0D_U" role="3NFExx">
                <node concept="3clFbS" id="6QWOVrL0D_V" role="2VODD2">
                  <node concept="3cpWs8" id="23AXNbFW$vD" role="3cqZAp">
                    <node concept="3cpWsn" id="23AXNbFW$vE" role="3cpWs9">
                      <property role="TrG5h" value="operandType" />
                      <node concept="3Tqbb2" id="23AXNbFW$vC" role="1tU5fm" />
                      <node concept="2OqwBi" id="23AXNbFW$vF" role="33vP2m">
                        <node concept="2OqwBi" id="23AXNbFW$vG" role="2Oq$k0">
                          <node concept="30H73N" id="23AXNbFW$vH" role="2Oq$k0" />
                          <node concept="3TrEf2" id="23AXNbFW$vI" role="2OqNvi">
                            <ref role="3Tt5mk" to="tpee:hqOq$gm" />
                          </node>
                        </node>
                        <node concept="3JvlWi" id="23AXNbFW$vJ" role="2OqNvi" />
                      </node>
                    </node>
                  </node>
                  <node concept="3clFbJ" id="23AXNbFWZQf" role="3cqZAp">
                    <node concept="3clFbS" id="23AXNbFWZQh" role="3clFbx">
                      <node concept="3SKdUt" id="23AXNbFXmNw" role="3cqZAp">
                        <node concept="3SKdUq" id="23AXNbFXmNy" role="3SKWNk">
                          <property role="3SKdUp" value=" see similar code and corresponding comment of return value" />
                        </node>
                      </node>
                      <node concept="3cpWs6" id="23AXNbFX91j" role="3cqZAp">
                        <node concept="37vLTw" id="23AXNbFXdrX" role="3cqZAk">
                          <ref role="3cqZAo" node="23AXNbFW$vE" resolve="operandType" />
                        </node>
                      </node>
                    </node>
                    <node concept="2OqwBi" id="23AXNbFWynp" role="3clFbw">
                      <node concept="37vLTw" id="23AXNbFWTkf" role="2Oq$k0">
                        <ref role="3cqZAo" node="23AXNbFW$vE" resolve="operandType" />
                      </node>
                      <node concept="1mIQ4w" id="23AXNbFWynr" role="2OqNvi">
                        <node concept="chp4Y" id="23AXNbFWyns" role="cj9EA">
                          <ref role="cht4Q" to="tpee:f_0Q1BR" resolve="ArrayType" />
                        </node>
                      </node>
                    </node>
                  </node>
                  <node concept="3cpWs8" id="15EadhspXpG" role="3cqZAp">
                    <node concept="3cpWsn" id="15EadhspXpH" role="3cpWs9">
                      <property role="TrG5h" value="result" />
                      <node concept="3Tqbb2" id="15EadhspXp$" role="1tU5fm">
                        <ref role="ehGHo" to="tpee:g7uibYu" resolve="ClassifierType" />
                      </node>
                      <node concept="1UaxmW" id="15EadhspXpI" role="33vP2m">
                        <node concept="1YaCAy" id="15EadhspXpJ" role="1Ub_4A">
                          <property role="TrG5h" value="ct" />
                          <ref role="1YaFvo" to="tpee:g7uibYu" resolve="ClassifierType" />
                        </node>
                        <node concept="37vLTw" id="15EadhspXpK" role="1Ub_4B">
                          <ref role="3cqZAo" node="23AXNbFW$vE" resolve="operandType" />
                        </node>
                      </node>
                    </node>
                  </node>
                  <node concept="3clFbJ" id="15Eadhsq0cj" role="3cqZAp">
                    <node concept="3clFbS" id="15Eadhsq0cl" role="3clFbx">
                      <node concept="3clFbF" id="15Eadhsq79F" role="3cqZAp">
                        <node concept="37vLTI" id="15Eadhsqae3" role="3clFbG">
                          <node concept="37vLTw" id="7wFWJCKOcae" role="37vLTx">
                            <ref role="3cqZAo" node="23AXNbFW$vE" resolve="operandType" />
                          </node>
                          <node concept="37vLTw" id="7wFWJCKNGpW" role="37vLTJ">
                            <ref role="3cqZAo" node="15EadhspXpH" resolve="result" />
                          </node>
                        </node>
                      </node>
                    </node>
                    <node concept="3clFbC" id="15Eadhsq39H" role="3clFbw">
                      <node concept="10Nm6u" id="15Eadhsq39R" role="3uHU7w" />
                      <node concept="37vLTw" id="7wFWJCKNDng" role="3uHU7B">
                        <ref role="3cqZAo" node="15EadhspXpH" resolve="result" />
                      </node>
                    </node>
                  </node>
                  <node concept="3cpWs6" id="15Eadhsq78$" role="3cqZAp">
                    <node concept="37vLTw" id="15Eadhsq79u" role="3cqZAk">
                      <ref role="3cqZAo" node="15EadhspXpH" resolve="result" />
                    </node>
                  </node>
                </node>
              </node>
            </node>
          </node>
        </node>
        <node concept="37vLTG" id="2WhjvKETcS_" role="3clF46">
          <property role="TrG5h" value="a" />
          <node concept="3uibUv" id="1dj6QhaevOq" role="1tU5fm">
            <ref role="3uigEE" to="wyt6:~Object" resolve="Object" />
            <node concept="29HgVG" id="1dj6QhaevOM" role="lGtFl">
              <node concept="3NFfHV" id="1dj6QhaevON" role="3NFExx">
                <node concept="3clFbS" id="1dj6QhaevOO" role="2VODD2">
                  <node concept="3cpWs8" id="23AXNbFYswL" role="3cqZAp">
                    <node concept="3cpWsn" id="23AXNbFYswM" role="3cpWs9">
                      <property role="TrG5h" value="nodeType" />
                      <node concept="3Tqbb2" id="23AXNbFYswB" role="1tU5fm" />
                      <node concept="2OqwBi" id="23AXNbFYswN" role="33vP2m">
                        <node concept="30H73N" id="23AXNbFYswO" role="2Oq$k0" />
                        <node concept="3JvlWi" id="23AXNbFYswP" role="2OqNvi" />
                      </node>
                    </node>
                  </node>
                  <node concept="3clFbJ" id="23AXNbFYl5F" role="3cqZAp">
                    <node concept="3clFbS" id="23AXNbFYl5G" role="3clFbx">
                      <node concept="3SKdUt" id="23AXNbFYl5H" role="3cqZAp">
                        <node concept="3SKdUq" id="23AXNbFYl5I" role="3SKWNk">
                          <property role="3SKdUp" value=" see similar code and corresponding comment of return value" />
                        </node>
                      </node>
                      <node concept="3cpWs6" id="23AXNbFYl5J" role="3cqZAp">
                        <node concept="37vLTw" id="23AXNbFYNMr" role="3cqZAk">
                          <ref role="3cqZAo" node="23AXNbFYswM" resolve="nodeType" />
                        </node>
                      </node>
                    </node>
                    <node concept="2OqwBi" id="23AXNbFYl5L" role="3clFbw">
                      <node concept="37vLTw" id="23AXNbFYLjd" role="2Oq$k0">
                        <ref role="3cqZAo" node="23AXNbFYswM" resolve="nodeType" />
                      </node>
                      <node concept="1mIQ4w" id="23AXNbFYl5N" role="2OqNvi">
                        <node concept="chp4Y" id="23AXNbFYl5O" role="cj9EA">
                          <ref role="cht4Q" to="tpee:f_0Q1BR" resolve="ArrayType" />
                        </node>
                      </node>
                    </node>
                  </node>
                  <node concept="3clFbF" id="yWCLcviDiL" role="3cqZAp">
                    <node concept="1UaxmW" id="yWCLcviDiI" role="3clFbG">
                      <node concept="1YaCAy" id="yWCLcviIct" role="1Ub_4A">
                        <property role="TrG5h" value="ct" />
                        <ref role="1YaFvo" to="tpee:g7uibYu" resolve="ClassifierType" />
                      </node>
                      <node concept="37vLTw" id="23AXNbFYswQ" role="1Ub_4B">
                        <ref role="3cqZAo" node="23AXNbFYswM" resolve="nodeType" />
                      </node>
                    </node>
                  </node>
                </node>
              </node>
            </node>
          </node>
          <node concept="1WS0z7" id="yWCLcvi$bH" role="lGtFl">
            <node concept="3JmXsc" id="yWCLcvi$bT" role="3Jn$fo">
              <node concept="3clFbS" id="yWCLcvi$c5" role="2VODD2">
                <node concept="3clFbF" id="yWCLcvi_cw" role="3cqZAp">
                  <node concept="2OqwBi" id="yWCLcvi_cy" role="3clFbG">
                    <node concept="2OqwBi" id="yWCLcvi_cz" role="2Oq$k0">
                      <node concept="30H73N" id="yWCLcvi_c$" role="2Oq$k0" />
                      <node concept="3TrEf2" id="yWCLcvi_c_" role="2OqNvi">
                        <ref role="3Tt5mk" to="tpee:hqOqNr4" />
                      </node>
                    </node>
                    <node concept="2Rf3mk" id="yWCLcvi_cA" role="2OqNvi">
                      <node concept="1xMEDy" id="yWCLcvi_cB" role="1xVPHs">
                        <node concept="chp4Y" id="yWCLcvi_cC" role="ri$Ld">
                          <ref role="cht4Q" to="tpee:SORzhOp6jM" resolve="IVariableReference" />
                        </node>
                      </node>
                    </node>
                  </node>
                </node>
              </node>
            </node>
          </node>
          <node concept="17Uvod" id="2WhjvKETk48" role="lGtFl">
            <property role="2qtEX9" value="name" />
            <property role="P4ACc" value="ceab5195-25ea-4f22-9b92-103b95ca8c0c/1169194658468/1169194664001" />
            <node concept="3zFVjK" id="2WhjvKETk49" role="3zH0cK">
              <node concept="3clFbS" id="2WhjvKETk4a" role="2VODD2">
                <node concept="3clFbF" id="2WhjvKETk4d" role="3cqZAp">
                  <node concept="2OqwBi" id="2WhjvKETkdh" role="3clFbG">
                    <node concept="2OqwBi" id="2WhjvKETk4h" role="2Oq$k0">
                      <node concept="30H73N" id="2WhjvKETk4e" role="2Oq$k0" />
                      <node concept="2qgKlT" id="SORzhOpO6h" role="2OqNvi">
                        <ref role="37wK5l" to="tpek:SORzhOpB6t" resolve="getVariable" />
                      </node>
                    </node>
                    <node concept="3TrcHB" id="2WhjvKETkks" role="2OqNvi">
                      <ref role="3TsBF5" to="tpck:h0TrG11" resolve="name" />
                    </node>
                  </node>
                </node>
              </node>
            </node>
          </node>
        </node>
        <node concept="37vLTG" id="20K_C3dSGpX" role="3clF46">
          <property role="TrG5h" value="checkedDotThisExpression" />
          <node concept="3uibUv" id="20K_C3dSGpZ" role="1tU5fm">
            <ref role="3uigEE" to="wyt6:~Object" resolve="Object" />
            <node concept="29HgVG" id="20K_C3dSGq1" role="lGtFl">
              <node concept="3NFfHV" id="20K_C3dSGq4" role="3NFExx">
                <node concept="3clFbS" id="20K_C3dSGq5" role="2VODD2">
                  <node concept="3clFbF" id="20K_C3dSGq6" role="3cqZAp">
                    <node concept="2OqwBi" id="20K_C3dSHfM" role="3clFbG">
                      <node concept="2OqwBi" id="20K_C3dSGq7" role="2Oq$k0">
                        <node concept="30H73N" id="20K_C3dSGq9" role="2Oq$k0" />
                        <node concept="2Xjw5R" id="20K_C3dSH6P" role="2OqNvi">
                          <node concept="1xMEDy" id="20K_C3dSH6Q" role="1xVPHs">
                            <node concept="chp4Y" id="20K_C3dSH6T" role="ri$Ld">
                              <ref role="cht4Q" to="tpee:g7pOWCK" resolve="Classifier" />
                            </node>
                          </node>
                        </node>
                      </node>
                      <node concept="2qgKlT" id="20K_C3dSHgb" role="2OqNvi">
                        <ref role="37wK5l" to="tpek:2RtWPFZ12w7" resolve="getThisType" />
                      </node>
                    </node>
                  </node>
                </node>
              </node>
            </node>
          </node>
          <node concept="1W57fq" id="3bYdGv2TyOX" role="lGtFl">
            <node concept="3IZrLx" id="3bYdGv2TyOY" role="3IZSJc">
              <node concept="3clFbS" id="3bYdGv2TyOZ" role="2VODD2">
                <node concept="3clFbF" id="3bYdGv2TyP0" role="3cqZAp">
                  <node concept="2OqwBi" id="3bYdGv2TyP2" role="3clFbG">
                    <node concept="30H73N" id="3bYdGv2TyP1" role="2Oq$k0" />
                    <node concept="2qgKlT" id="3bYdGv2TyP6" role="2OqNvi">
                      <ref role="37wK5l" to="eqq4:3bYdGv2TyNM" resolve="hasLocalContextInside" />
                    </node>
                  </node>
                </node>
              </node>
            </node>
          </node>
        </node>
        <node concept="3uibUv" id="541ud1TQrZE" role="Sfmx6">
          <ref role="3uigEE" to="wyt6:~Exception" resolve="Exception" />
          <node concept="1WS0z7" id="541ud1TQrZL" role="lGtFl">
            <node concept="3JmXsc" id="541ud1TQrZM" role="3Jn$fo">
              <node concept="3clFbS" id="541ud1TQrZN" role="2VODD2">
                <node concept="3cpWs8" id="541ud1TQs0P" role="3cqZAp">
                  <node concept="3cpWsn" id="541ud1TQs0Q" role="3cpWs9">
                    <property role="TrG5h" value="operation" />
                    <node concept="3Tqbb2" id="541ud1TQs0R" role="1tU5fm">
                      <ref role="ehGHo" to="tpee:hqOqG0K" resolve="IOperation" />
                    </node>
                    <node concept="2OqwBi" id="541ud1TQs0S" role="33vP2m">
                      <node concept="30H73N" id="541ud1TQs0T" role="2Oq$k0" />
                      <node concept="3TrEf2" id="541ud1TQs0U" role="2OqNvi">
                        <ref role="3Tt5mk" to="tpee:hqOqNr4" />
                      </node>
                    </node>
                  </node>
                </node>
                <node concept="3cpWs8" id="541ud1TQs10" role="3cqZAp">
                  <node concept="3cpWsn" id="541ud1TQs11" role="3cpWs9">
                    <property role="TrG5h" value="declaration" />
                    <node concept="3Tqbb2" id="541ud1TQs12" role="1tU5fm">
                      <ref role="ehGHo" to="tpee:fzclF8t" resolve="InstanceMethodDeclaration" />
                    </node>
                  </node>
                </node>
                <node concept="3clFbJ" id="541ud1TQs01" role="3cqZAp">
                  <node concept="3clFbS" id="541ud1TQs02" role="3clFbx">
                    <node concept="3clFbF" id="541ud1TQs1f" role="3cqZAp">
                      <node concept="37vLTI" id="541ud1TQs1i" role="3clFbG">
                        <node concept="2OqwBi" id="541ud1TQs1s" role="37vLTx">
                          <node concept="1PxgMI" id="541ud1TQs1o" role="2Oq$k0">
                            <ref role="1m5ApE" to="tpee:hwliAcM" resolve="InstanceMethodCallOperation" />
                            <node concept="37vLTw" id="3GM_nagTvJk" role="1m5AlR">
                              <ref role="3cqZAo" node="541ud1TQs0Q" resolve="operation" />
                            </node>
                          </node>
                          <node concept="3TrEf2" id="541ud1TQs1y" role="2OqNvi">
                            <ref role="3Tt5mk" to="tpee:hwllgre" />
                          </node>
                        </node>
                        <node concept="37vLTw" id="3GM_nagT$bz" role="37vLTJ">
                          <ref role="3cqZAo" node="541ud1TQs11" resolve="declaration" />
                        </node>
                      </node>
                    </node>
                  </node>
                  <node concept="2OqwBi" id="541ud1TQs0e" role="3clFbw">
                    <node concept="37vLTw" id="3GM_nagTtXa" role="2Oq$k0">
                      <ref role="3cqZAo" node="541ud1TQs0Q" resolve="operation" />
                    </node>
                    <node concept="1mIQ4w" id="541ud1TQs0j" role="2OqNvi">
                      <node concept="chp4Y" id="541ud1TQs0m" role="cj9EA">
                        <ref role="cht4Q" to="tpee:hwliAcM" resolve="InstanceMethodCallOperation" />
                      </node>
                    </node>
                  </node>
                  <node concept="9aQIb" id="541ud1TQs1M" role="9aQIa">
                    <node concept="3clFbS" id="541ud1TQs1N" role="9aQI4">
                      <node concept="3cpWs6" id="541ud1TQs1P" role="3cqZAp">
                        <node concept="2ShNRf" id="4Uv4Dg2lROy" role="3cqZAk">
                          <node concept="kMnCb" id="4Uv4Dg2lROA" role="2ShVmc">
                            <node concept="3Tqbb2" id="4Uv4Dg2lROC" role="kMuH3" />
                          </node>
                        </node>
                      </node>
                    </node>
                  </node>
                </node>
                <node concept="3clFbF" id="541ud1TQrZP" role="3cqZAp">
                  <node concept="2OqwBi" id="541ud1TQs1Z" role="3clFbG">
                    <node concept="37vLTw" id="3GM_nagTzaf" role="2Oq$k0">
                      <ref role="3cqZAo" node="541ud1TQs11" resolve="declaration" />
                    </node>
                    <node concept="3Tsc0h" id="541ud1TQs24" role="2OqNvi">
                      <ref role="3TtcxE" to="tpee:gWSfm_9" />
                    </node>
                  </node>
                </node>
              </node>
            </node>
          </node>
          <node concept="1ZhdrF" id="4Uv4Dg2lTuz" role="lGtFl">
            <property role="2qtEX8" value="classifier" />
            <property role="P3scX" value="f3061a53-9226-4cc5-a443-f952ceaf5816/1107535904670/1107535924139" />
            <node concept="3$xsQk" id="4Uv4Dg2lTu$" role="3$ytzL">
              <node concept="3clFbS" id="4Uv4Dg2lTu_" role="2VODD2">
                <node concept="3clFbF" id="4Uv4Dg2lTuB" role="3cqZAp">
                  <node concept="2OqwBi" id="6SHjxqvlfw$" role="3clFbG">
                    <node concept="1PxgMI" id="6SHjxqvldPE" role="2Oq$k0">
                      <ref role="1m5ApE" to="tpee:g7uibYu" resolve="ClassifierType" />
                      <node concept="30H73N" id="4Uv4Dg2lTuC" role="1m5AlR" />
                    </node>
                    <node concept="3TrEf2" id="6SHjxqvlfwE" role="2OqNvi">
                      <ref role="3Tt5mk" to="tpee:g7uigIF" />
                    </node>
                  </node>
                </node>
              </node>
            </node>
          </node>
        </node>
        <node concept="16euLQ" id="1PC7VZvadiJ" role="16eVyc">
          <property role="TrG5h" value="T" />
          <node concept="1W57fq" id="7kGaI6AjOn" role="lGtFl">
            <node concept="3IZrLx" id="7kGaI6AjOo" role="3IZSJc">
              <node concept="3clFbS" id="7kGaI6AjOp" role="2VODD2">
                <node concept="3clFbF" id="7kGaI6AjOv" role="3cqZAp">
                  <node concept="2OqwBi" id="7kGaI6AjOw" role="3clFbG">
                    <node concept="30H73N" id="7kGaI6AjOx" role="2Oq$k0" />
                    <node concept="2qgKlT" id="7kGaI6AjOy" role="2OqNvi">
                      <ref role="37wK5l" to="eqq4:3bYdGv2TyNM" resolve="hasLocalContextInside" />
                    </node>
                  </node>
                </node>
              </node>
            </node>
          </node>
          <node concept="2b32R4" id="7kGaI6AjOr" role="lGtFl">
            <node concept="3JmXsc" id="7kGaI6AjOs" role="2P8S$">
              <node concept="3clFbS" id="7kGaI6AjOt" role="2VODD2">
                <node concept="3clFbF" id="7kGaI6AjOu" role="3cqZAp">
                  <node concept="2OqwBi" id="1PC7VZvadk5" role="3clFbG">
                    <node concept="2OqwBi" id="1PC7VZvadjB" role="2Oq$k0">
                      <node concept="30H73N" id="1PC7VZvadjC" role="2Oq$k0" />
                      <node concept="2Xjw5R" id="1PC7VZvadjD" role="2OqNvi">
                        <node concept="1xMEDy" id="1PC7VZvadjE" role="1xVPHs">
                          <node concept="chp4Y" id="1PC7VZvadjF" role="ri$Ld">
                            <ref role="cht4Q" to="tpee:g7pOWCK" resolve="Classifier" />
                          </node>
                        </node>
                      </node>
                    </node>
                    <node concept="3Tsc0h" id="1PC7VZvadkb" role="2OqNvi">
                      <ref role="3TtcxE" to="tpee:g96eVAe" />
                    </node>
                  </node>
                </node>
              </node>
            </node>
          </node>
        </node>
      </node>
      <node concept="2TbA4q" id="3WzOBwA0S$4" role="2Tav95">
        <ref role="37wK5l" node="3WzOBwA0SzK" resolve="check" />
        <node concept="3cmrfG" id="6QWOVrL0$6P" role="37wK5m">
          <property role="3cmrfH" value="1" />
          <node concept="29HgVG" id="6QWOVrL0Dkp" role="lGtFl">
            <node concept="3NFfHV" id="6QWOVrL0Dkq" role="3NFExx">
              <node concept="3clFbS" id="6QWOVrL0Dkr" role="2VODD2">
                <node concept="3clFbF" id="6QWOVrL0Dks" role="3cqZAp">
                  <node concept="2OqwBi" id="6QWOVrL0Dku" role="3clFbG">
                    <node concept="30H73N" id="6QWOVrL0Dkt" role="2Oq$k0" />
                    <node concept="3TrEf2" id="6QWOVrL0Dky" role="2OqNvi">
                      <ref role="3Tt5mk" to="tpee:hqOq$gm" />
                    </node>
                  </node>
                </node>
              </node>
            </node>
          </node>
        </node>
        <node concept="10Nm6u" id="2WhjvKETPxY" role="37wK5m">
          <node concept="2b32R4" id="yWCLcviiNZ" role="lGtFl">
            <node concept="3JmXsc" id="yWCLcviiO1" role="2P8S$">
              <node concept="3clFbS" id="yWCLcviiO3" role="2VODD2">
                <node concept="3clFbF" id="yWCLcvijP8" role="3cqZAp">
                  <node concept="2OqwBi" id="2WhjvKETPyg" role="3clFbG">
                    <node concept="2OqwBi" id="2WhjvKETPyh" role="2Oq$k0">
                      <node concept="30H73N" id="2WhjvKETPyi" role="2Oq$k0" />
                      <node concept="3TrEf2" id="2WhjvKETPyj" role="2OqNvi">
                        <ref role="3Tt5mk" to="tpee:hqOqNr4" />
                      </node>
                    </node>
                    <node concept="2Rf3mk" id="2WhjvKETPyk" role="2OqNvi">
                      <node concept="1xMEDy" id="2WhjvKETPyl" role="1xVPHs">
                        <node concept="chp4Y" id="3a$GfziM_Z" role="ri$Ld">
                          <ref role="cht4Q" to="tpee:SORzhOp6jM" resolve="IVariableReference" />
                        </node>
                      </node>
                    </node>
                  </node>
                </node>
              </node>
            </node>
          </node>
        </node>
        <node concept="10Nm6u" id="3bYdGv2Tp$m" role="37wK5m">
          <node concept="1W57fq" id="3bYdGv2TyYY" role="lGtFl">
            <node concept="3IZrLx" id="3bYdGv2TyYZ" role="3IZSJc">
              <node concept="3clFbS" id="3bYdGv2TyZ0" role="2VODD2">
                <node concept="3clFbF" id="3bYdGv2TyZ1" role="3cqZAp">
                  <node concept="2OqwBi" id="3bYdGv2TyZ3" role="3clFbG">
                    <node concept="30H73N" id="3bYdGv2TyZ2" role="2Oq$k0" />
                    <node concept="2qgKlT" id="3bYdGv2TyZ7" role="2OqNvi">
                      <ref role="37wK5l" to="eqq4:3bYdGv2TyNM" resolve="hasLocalContextInside" />
                    </node>
                  </node>
                </node>
              </node>
            </node>
          </node>
          <node concept="29HgVG" id="3bYdGv2TyYR" role="lGtFl">
            <node concept="3NFfHV" id="3bYdGv2TyYS" role="3NFExx">
              <node concept="3clFbS" id="3bYdGv2TyYT" role="2VODD2">
                <node concept="3cpWs6" id="3bYdGv2TyYU" role="3cqZAp">
                  <node concept="2c44tf" id="3bYdGv2TyYW" role="3cqZAk">
                    <node concept="Xjq3P" id="3bYdGv2TyYX" role="2c44tc" />
                  </node>
                </node>
              </node>
            </node>
          </node>
        </node>
      </node>
      <node concept="raruj" id="3WzOBwA0XMx" role="lGtFl" />
    </node>
  </node>
  <node concept="jVnub" id="2Z7S13ZGlL">
    <property role="TrG5h" value="ReturnTypeSwitch" />
    <node concept="3aamgX" id="2Z7S13ZGlM" role="3aUrZf">
      <ref role="30HIoZ" to="tpee:fzcqZ_H" resolve="VoidType" />
      <node concept="gft3U" id="2Z7S13ZGm5" role="1lVwrX">
        <node concept="3clFbH" id="2Z7S13ZOw$" role="gfFT$" />
      </node>
    </node>
    <node concept="3aamgX" id="2Z7S13ZGlQ" role="3aUrZf">
      <ref role="30HIoZ" to="tpee:f_0P_4Y" resolve="BooleanType" />
      <node concept="gft3U" id="2Z7S13ZGlZ" role="1lVwrX">
        <node concept="3cpWs6" id="2Z7S13ZGm0" role="gfFT$">
          <node concept="3clFbT" id="2Z7S13ZGm4" role="3cqZAk">
            <property role="3clFbU" value="false" />
          </node>
        </node>
      </node>
    </node>
    <node concept="3aamgX" id="2Z7S13ZGlS" role="3aUrZf">
      <property role="36QftV" value="true" />
      <ref role="30HIoZ" to="tpee:gWaQbR$" resolve="PrimitiveType" />
      <node concept="gft3U" id="2Z7S13ZGlU" role="1lVwrX">
        <node concept="3cpWs6" id="2Z7S13ZGlW" role="gfFT$">
          <node concept="3cmrfG" id="2Z7S13ZGlY" role="3cqZAk">
            <property role="3cmrfH" value="0" />
          </node>
        </node>
      </node>
    </node>
  </node>
  <node concept="13MO4I" id="20K_C3dSCsa">
    <property role="TrG5h" value="reduce_LocalInstanceMethodCall" />
    <ref role="3gUMe" to="tpee:6LFqxSRBTg4" resolve="LocalMethodCall" />
    <node concept="3clFb_" id="20K_C3dSCsc" role="13RCb5">
      <property role="TrG5h" value="f" />
      <node concept="3cqZAl" id="20K_C3dSCsd" role="3clF45" />
      <node concept="3Tm1VV" id="20K_C3dSCse" role="1B3o_S" />
      <node concept="3clFbS" id="20K_C3dSCsf" role="3clF47">
        <node concept="3clFbF" id="20K_C3dSCsm" role="3cqZAp">
          <node concept="2OqwBi" id="20K_C3dSCso" role="3clFbG">
            <node concept="liA8E" id="20K_C3dSCss" role="2OqNvi">
              <ref role="37wK5l" to="wyt6:~String.charAt(int):char" resolve="charAt" />
              <node concept="3cmrfG" id="20K_C3dSCst" role="37wK5m">
                <property role="3cmrfH" value="2" />
                <node concept="2b32R4" id="47e1NncYG12" role="lGtFl">
                  <node concept="3JmXsc" id="47e1NncYG13" role="2P8S$">
                    <node concept="3clFbS" id="47e1NncYG14" role="2VODD2">
                      <node concept="3clFbF" id="47e1NncYG15" role="3cqZAp">
                        <node concept="2OqwBi" id="47e1NncYG16" role="3clFbG">
                          <node concept="3Tsc0h" id="47e1NncYG17" role="2OqNvi">
                            <ref role="3TtcxE" to="tpee:fz7wK6I" />
                          </node>
                          <node concept="30H73N" id="47e1NncYG18" role="2Oq$k0" />
                        </node>
                      </node>
                    </node>
                  </node>
                </node>
              </node>
              <node concept="1ZhdrF" id="20K_C3dSCsB" role="lGtFl">
                <property role="2qtEX8" value="baseMethodDeclaration" />
                <property role="P3scX" value="f3061a53-9226-4cc5-a443-f952ceaf5816/1204053956946/1068499141037" />
                <node concept="3$xsQk" id="20K_C3dSCsE" role="3$ytzL">
                  <node concept="3clFbS" id="20K_C3dSCsF" role="2VODD2">
                    <node concept="3clFbF" id="20K_C3dSCsG" role="3cqZAp">
                      <node concept="1PxgMI" id="M1_F_cf18c" role="3clFbG">
                        <ref role="1m5ApE" to="tpee:fzclF8t" resolve="InstanceMethodDeclaration" />
                        <node concept="2OqwBi" id="20K_C3dSCsH" role="1m5AlR">
                          <node concept="3TrEf2" id="20K_C3dSCsI" role="2OqNvi">
                            <ref role="3Tt5mk" to="tpee:6LFqxSRBTg7" />
                          </node>
                          <node concept="30H73N" id="20K_C3dSCsJ" role="2Oq$k0" />
                        </node>
                      </node>
                    </node>
                  </node>
                </node>
              </node>
            </node>
            <node concept="raruj" id="20K_C3dSCsy" role="lGtFl" />
            <node concept="37vLTw" id="2BHiRxghff1" role="2Oq$k0">
              <ref role="3cqZAo" node="20K_C3dSE$9" resolve="checkedDotThisExpression" />
            </node>
          </node>
        </node>
      </node>
      <node concept="37vLTG" id="20K_C3dSE$9" role="3clF46">
        <property role="TrG5h" value="checkedDotThisExpression" />
        <node concept="17QB3L" id="20K_C3dSE$a" role="1tU5fm" />
      </node>
    </node>
  </node>
  <node concept="13MO4I" id="3oO$bQl65Fw">
    <property role="TrG5h" value="reduce_This" />
    <ref role="3gUMe" to="tpee:f$Xjq0c" resolve="ThisExpression" />
    <node concept="3clFb_" id="3oO$bQl65Fy" role="13RCb5">
      <property role="TrG5h" value="f" />
      <node concept="3cqZAl" id="3oO$bQl65Fz" role="3clF45" />
      <node concept="3Tm1VV" id="3oO$bQl65F$" role="1B3o_S" />
      <node concept="3clFbS" id="3oO$bQl65F_" role="3clF47">
        <node concept="3clFbF" id="3oO$bQl65FA" role="3cqZAp">
          <node concept="37vLTI" id="3oO$bQl65FW" role="3clFbG">
            <node concept="Xl_RD" id="3oO$bQl65FZ" role="37vLTx">
              <property role="Xl_RC" value="" />
            </node>
            <node concept="37vLTw" id="2BHiRxgm8Th" role="37vLTJ">
              <ref role="3cqZAo" node="3oO$bQl65FU" resolve="checkedDotThisExpression" />
              <node concept="raruj" id="3oO$bQl65G0" role="lGtFl" />
            </node>
          </node>
        </node>
      </node>
      <node concept="37vLTG" id="3oO$bQl65FU" role="3clF46">
        <property role="TrG5h" value="checkedDotThisExpression" />
        <node concept="17QB3L" id="3oO$bQl65FV" role="1tU5fm" />
      </node>
    </node>
  </node>
</model>

